"Dstat 0.7.2 CSV output"
"Author:","Dag Wieers <dag@wieers.com>",,,,"URL:","http://dag.wieers.com/home-made/dstat/"
"Host:","Server2",,,,"User:","mstevan"
"Cmdline:","dstat --output /home/mstevan/logs/experiment_3.2/dstat/vs_1024-vcpr_4-wtpm_32-rep_1.csv 5 16",,,,"Date:","28 Oct 2019 10:01:29 UTC"

"total cpu usage",,,,,,"dsk/total",,"net/total",,"paging",,"system",
"usr","sys","idl","wai","hiq","siq","read","writ","recv","send","in","out","int","csw"
1.561,3.167,94.513,0.397,0.0,0.362,7303.836,1121260.305,0.0,0.0,0.0,0.0,0.093,1361.483
0.402,0.0,99.598,0.0,0.0,0.0,0.0,1638.400,10977.200,48275.600,0.0,0.0,0.0,137.800
1.274,5.520,92.994,0.0,0.0,0.212,0.0,819.200,389012.200,5167684.400,0.0,0.0,0.0,4178.600
2.966,5.508,91.102,0.0,0.0,0.424,0.0,1638.400,435560.800,5755806.0,0.0,0.0,0.0,4620.0
1.927,5.567,91.435,0.214,0.0,0.857,0.0,19660.800,439563.800,5804597.800,0.0,0.0,0.0,4641.0
2.070,7.246,89.855,0.0,0.0,0.828,0.0,1638.400,419870.600,5583052.200,0.0,0.0,0.0,4165.800
2.123,5.732,91.295,0.0,0.0,0.849,0.0,1638.400,435750.400,5756519.400,0.0,0.0,0.0,4604.200
1.915,6.383,91.489,0.0,0.0,0.213,0.0,2457.600,429687.400,5716072.0,0.0,0.0,0.0,4413.800
2.110,5.907,91.139,0.0,0.0,0.844,0.0,1638.400,439783.400,5807765.800,0.0,0.0,0.0,4375.600
2.123,6.369,90.658,0.0,0.0,0.849,0.0,1638.400,437326.600,5770812.0,0.0,0.0,0.0,4288.0
2.101,6.513,89.496,1.471,0.0,0.420,0.0,18022.400,435623.400,5795398.400,0.0,0.0,0.0,4558.800
1.713,5.567,92.291,0.0,0.0,0.428,0.0,1638.400,440328.800,5814950.0,0.0,0.0,0.200,4564.0
2.141,5.567,91.649,0.0,0.0,0.642,0.0,1638.400,437081.200,5775574.800,0.0,0.0,0.0,4627.400
2.301,6.276,90.795,0.0,0.0,0.628,0.0,819.200,437685.200,5820367.0,0.0,0.0,0.0,4568.0
2.766,5.319,91.489,0.0,0.0,0.426,0.0,3276.800,438729.800,5799636.600,0.0,0.0,0.0,4556.800
3.556,5.858,89.749,0.0,0.0,0.837,0.0,1638.400,436229.600,5757603.200,0.0,0.0,0.0,4560.400
0.200,0.400,99.200,0.200,0.0,0.0,0.0,14745.600,3127.0,934.400,0.0,0.0,0.0,62.200
