"Dstat 0.7.2 CSV output"
"Author:","Dag Wieers <dag@wieers.com>",,,,"URL:","http://dag.wieers.com/home-made/dstat/"
"Host:","Server2",,,,"User:","mstevan"
"Cmdline:","dstat --output /home/mstevan/logs/experiment_3.2/dstat/vs_1024-vcpr_8-wtpm_64-rep_1.csv 5 16",,,,"Date:","28 Oct 2019 10:24:13 UTC"

"total cpu usage",,,,,,"dsk/total",,"net/total",,"paging",,"system",
"usr","sys","idl","wai","hiq","siq","read","writ","recv","send","in","out","int","csw"
1.579,3.215,94.455,0.387,0.0,0.365,7058.099,1083691.216,0.0,0.0,0.0,0.0,0.090,1424.517
0.201,0.402,99.396,0.0,0.0,0.0,0.0,819.200,10747.200,57768.800,0.0,0.0,0.0,166.800
1.899,6.118,90.506,0.0,0.0,1.477,0.0,1638.400,525251.200,6943556.400,0.0,0.0,0.0,4257.200
2.923,7.098,88.935,0.0,0.0,1.044,0.0,2457.600,549006.200,7257145.400,0.0,0.0,0.0,4398.400
2.155,5.819,90.948,0.431,0.0,0.647,0.0,24576.0,557635.0,7430644.600,0.0,0.0,0.0,4580.600
4.193,5.870,88.470,0.0,0.0,1.468,0.0,1638.400,562390.800,7443049.400,0.0,0.0,0.0,4558.600
3.383,7.188,88.584,0.0,0.0,0.846,0.0,1638.400,578700.400,7667162.400,0.0,0.0,0.0,4640.0
3.158,6.316,89.684,0.0,0.0,0.842,0.0,2457.600,577663.800,7698026.0,0.0,0.0,0.0,4654.200
3.198,5.330,90.192,0.0,0.0,1.279,0.0,1638.400,562210.800,7444780.800,0.0,0.0,0.0,4350.600
2.960,7.400,88.795,0.0,0.0,0.846,0.0,1638.400,586434.0,7771446.400,0.0,0.0,0.0,4818.0
2.119,6.568,90.466,0.424,0.0,0.424,0.0,14745.600,575533.400,7665629.600,0.0,0.0,0.0,4551.200
2.553,6.383,90.213,0.0,0.0,0.851,0.0,1638.400,581034.200,7697722.600,0.0,0.0,0.0,4613.400
2.361,4.506,92.060,0.0,0.0,1.073,0.0,819.200,574578.600,7649714.400,0.0,0.0,0.0,4595.600
3.212,6.852,89.293,0.0,0.0,0.642,0.0,2457.600,580910.800,7686766.200,0.0,0.0,0.0,4773.600
2.137,7.051,90.171,0.0,0.0,0.641,0.0,2457.600,576666.0,7642146.400,0.0,0.0,0.0,4643.0
3.354,6.499,89.518,0.0,0.0,0.629,0.0,819.200,570956.0,7592848.0,0.0,0.0,0.0,4674.800
0.200,0.0,99.399,0.401,0.0,0.0,0.0,15564.800,6214.0,1798.0,0.0,0.0,0.0,71.600
