"Dstat 0.7.2 CSV output"
"Author:","Dag Wieers <dag@wieers.com>",,,,"URL:","http://dag.wieers.com/home-made/dstat/"
"Host:","Server2",,,,"User:","mstevan"
"Cmdline:","dstat --output /home/mstevan/logs/experiment_3.2/dstat/vs_1024-vcpr_16-wtpm_8-rep_2.csv 5 16",,,,"Date:","28 Oct 2019 10:31:20 UTC"

"total cpu usage",,,,,,"dsk/total",,"net/total",,"paging",,"system",
"usr","sys","idl","wai","hiq","siq","read","writ","recv","send","in","out","int","csw"
1.586,3.234,94.428,0.384,0.0,0.367,6984.650,1072459.852,0.0,0.0,0.0,0.0,0.089,1444.571
0.800,0.200,99.0,0.0,0.0,0.0,0.0,1638.400,10785.200,58843.600,0.0,0.0,0.0,111.600
1.477,2.954,95.359,0.0,0.0,0.211,0.0,819.200,347384.400,4612489.0,0.0,0.0,0.0,2079.200
1.660,4.564,93.361,0.0,0.0,0.415,0.0,1638.400,329755.600,4335414.400,0.0,0.0,0.0,2159.400
2.703,3.742,92.723,0.416,0.0,0.416,0.0,23756.800,361413.200,4762332.800,0.0,0.0,0.0,2167.400
1.670,4.175,93.946,0.0,0.0,0.209,0.0,819.200,360599.600,4783067.800,0.0,0.0,0.0,2053.400
1.681,3.782,94.118,0.0,0.0,0.420,0.0,1638.400,357060.800,4703330.400,0.0,0.0,0.0,2005.800
1.258,3.983,94.340,0.0,0.0,0.419,0.0,3276.800,352161.200,4636678.0,0.0,0.0,0.0,2003.600
1.480,3.383,95.137,0.0,0.0,0.0,0.0,819.200,359481.200,4773795.400,0.0,0.0,0.0,2084.200
1.895,3.368,94.526,0.0,0.0,0.211,0.0,1638.400,362537.0,4774155.800,0.0,0.0,0.0,2030.600
1.674,3.347,94.561,0.209,0.0,0.209,0.0,15564.800,350260.200,4651989.200,0.0,0.0,0.0,1951.400
1.883,3.975,93.724,0.0,0.0,0.418,0.0,1638.400,366267.400,4828114.200,0.0,0.0,0.0,1999.800
2.079,4.990,92.516,0.0,0.0,0.416,0.0,1638.400,365148.600,4803568.0,0.0,0.0,0.0,2133.600
1.856,4.948,93.196,0.0,0.0,0.0,0.0,819.200,363298.200,4818948.800,0.0,0.0,0.0,1940.800
1.653,5.165,92.769,0.0,0.0,0.413,0.0,2457.600,365867.0,4821906.200,0.0,0.0,0.0,2048.800
2.697,3.734,93.361,0.0,0.0,0.207,0.0,2457.600,347548.800,4573508.400,0.0,0.0,0.0,2222.200
0.200,0.400,99.0,0.400,0.0,0.0,0.0,14745.600,3127.0,934.400,0.0,0.0,0.0,60.800
