"Dstat 0.7.2 CSV output"
"Author:","Dag Wieers <dag@wieers.com>",,,,"URL:","http://dag.wieers.com/home-made/dstat/"
"Host:","Server2",,,,"User:","mstevan"
"Cmdline:","dstat --output /home/mstevan/logs/experiment_3.2/dstat/vs_1024-vcpr_8-wtpm_64-rep_4.csv 5 16",,,,"Date:","28 Oct 2019 10:28:29 UTC"

"total cpu usage",,,,,,"dsk/total",,"net/total",,"paging",,"system",
"usr","sys","idl","wai","hiq","siq","read","writ","recv","send","in","out","int","csw"
1.584,3.229,94.435,0.385,0.0,0.367,7013.844,1076923.180,0.0,0.0,0.0,0.0,0.090,1439.240
0.402,0.201,99.396,0.0,0.0,0.0,0.0,1638.400,12416.200,48252.600,0.0,0.0,0.0,159.0
2.311,6.513,89.496,0.420,0.0,1.261,0.0,25395.200,532705.600,7029686.800,0.0,0.0,0.0,4451.800
2.743,6.329,90.506,0.0,0.0,0.422,0.0,819.200,558660.800,7433384.600,0.0,0.0,0.0,4486.600
2.510,7.322,89.121,0.0,0.0,1.046,0.0,2457.600,557799.0,7380255.800,0.0,0.0,0.0,4569.600
2.905,7.884,88.589,0.0,0.0,0.622,0.0,1638.400,572424.600,7625350.400,0.0,0.0,0.0,4519.0
3.171,6.131,89.852,0.0,0.0,0.846,0.0,1638.400,574907.0,7610699.0,0.0,0.0,0.0,4494.200
2.954,6.751,89.241,0.0,0.0,1.055,0.0,3276.800,586012.800,7764503.800,0.0,0.0,0.0,4573.800
2.731,6.513,88.445,0.840,0.0,1.471,0.0,14745.600,569116.0,7581092.800,0.0,0.0,0.0,4574.400
2.941,6.933,89.076,0.0,0.0,1.050,0.0,1638.400,597589.800,7918645.800,0.0,0.0,0.0,4798.800
3.368,7.579,88.0,0.0,0.0,1.053,0.0,1638.400,580656.600,7689621.600,0.0,0.0,0.0,4480.200
2.542,6.356,90.466,0.0,0.0,0.636,0.0,819.200,587533.0,7825355.600,0.0,0.0,0.0,4602.400
3.534,7.069,88.358,0.0,0.0,1.040,0.0,1638.400,580394.800,7667939.0,0.0,0.0,0.0,4530.800
2.697,8.299,88.382,0.0,0.0,0.622,0.0,1638.400,584680.600,7752823.600,0.0,0.0,0.0,4706.800
2.495,6.445,90.021,0.416,0.0,0.624,0.0,19660.800,586073.800,7803571.600,0.0,0.0,0.0,4087.600
2.743,6.329,90.295,0.0,0.0,0.633,0.0,1638.400,581141.800,7698323.400,0.0,0.0,0.0,4363.400
0.400,0.200,99.400,0.0,0.0,0.0,0.0,819.200,3127.0,934.400,0.0,0.0,0.0,60.600
