"Dstat 0.7.2 CSV output"
"Author:","Dag Wieers <dag@wieers.com>",,,,"URL:","http://dag.wieers.com/home-made/dstat/"
"Host:","Server2",,,,"User:","mstevan"
"Cmdline:","dstat --output /home/mstevan/logs/experiment_3.2/dstat/vs_1024-vcpr_8-wtpm_32-rep_1.csv 5 16",,,,"Date:","28 Oct 2019 10:18:32 UTC"

"total cpu usage",,,,,,"dsk/total",,"net/total",,"paging",,"system",
"usr","sys","idl","wai","hiq","siq","read","writ","recv","send","in","out","int","csw"
1.572,3.196,94.480,0.389,0.0,0.363,7117.976,1092847.762,0.0,0.0,0.0,0.0,0.091,1404.650
0.201,0.402,99.195,0.0,0.0,0.201,0.0,1638.400,13803.800,84017.0,0.0,0.0,0.0,154.800
2.966,6.356,90.042,0.0,0.0,0.636,0.0,1638.400,538476.400,7132829.600,0.0,0.0,0.0,4213.200
2.559,5.970,91.045,0.0,0.0,0.426,0.0,819.200,589078.600,7848174.800,0.0,0.0,0.0,4446.200
2.766,5.957,90.426,0.0,0.0,0.851,0.0,3276.800,567399.200,7522092.400,0.0,0.0,0.0,4484.800
2.532,7.173,89.873,0.0,0.0,0.422,0.0,1638.400,578697.0,7668242.200,0.0,0.0,0.0,4278.0
2.110,5.696,90.506,0.633,0.0,1.055,0.0,18022.400,593780.200,7912657.0,0.0,0.0,0.0,4192.200
3.347,7.113,88.703,0.0,0.0,0.837,0.0,3276.800,601623.200,7979613.0,0.0,0.0,0.0,4349.200
3.390,6.144,89.195,0.0,0.0,1.271,0.0,1638.400,608422.800,8067472.0,0.0,0.0,0.0,4700.600
2.559,7.249,89.765,0.0,0.0,0.426,0.0,819.200,612251.800,8158536.200,0.0,0.0,0.0,4640.600
2.748,7.822,87.738,0.0,0.0,1.691,0.0,1638.400,615108.400,8157261.600,0.0,0.0,0.0,4705.0
2.966,6.568,89.831,0.0,0.0,0.636,0.0,819.200,616074.400,8205411.200,0.0,0.0,0.0,4675.400
2.998,6.852,89.079,0.428,0.0,0.642,0.0,18022.400,616574.0,8173755.0,0.0,0.0,0.0,4632.0
2.985,6.823,89.552,0.0,0.0,0.640,0.0,1638.400,604097.400,8009260.200,0.0,0.0,0.0,4573.600
1.935,7.527,89.892,0.0,0.0,0.645,0.0,2457.600,625109.0,8335816.800,0.0,0.0,0.0,4900.800
2.516,7.757,88.889,0.0,0.0,0.839,0.0,1638.400,594590.800,7883296.400,0.0,0.0,0.0,4646.600
0.601,0.200,99.198,0.0,0.0,0.0,0.0,1638.400,6214.0,1798.0,0.0,0.0,0.0,71.0
