"Dstat 0.7.2 CSV output"
"Author:","Dag Wieers <dag@wieers.com>",,,,"URL:","http://dag.wieers.com/home-made/dstat/"
"Host:","Server2",,,,"User:","mstevan"
"Cmdline:","dstat --output /home/mstevan/logs/experiment_3.2/dstat/vs_1024-vcpr_4-wtpm_8-rep_3.csv 5 16",,,,"Date:","28 Oct 2019 09:58:39 UTC"

"total cpu usage",,,,,,"dsk/total",,"net/total",,"paging",,"system",
"usr","sys","idl","wai","hiq","siq","read","writ","recv","send","in","out","int","csw"
1.561,3.165,94.514,0.399,0.0,0.362,7335.774,1126141.516,0.0,0.0,0.0,0.0,0.094,1359.650
0.401,0.401,98.998,0.200,0.0,0.0,0.0,15564.800,11056.600,61315.400,0.0,0.0,0.0,112.0
2.500,4.167,92.917,0.0,0.0,0.417,0.0,11468.800,355173.800,4667114.200,0.0,0.0,0.0,2163.200
1.891,3.151,94.748,0.0,0.0,0.210,0.0,819.200,335673.0,4456422.800,0.0,0.0,0.0,2148.800
2.096,3.983,93.291,0.0,0.0,0.629,0.0,2457.600,376452.200,4958862.400,0.0,0.0,0.0,2176.400
0.846,3.805,95.137,0.0,0.0,0.211,0.0,819.200,371955.400,4941987.800,0.0,0.0,0.0,1991.800
1.464,5.021,93.515,0.0,0.0,0.0,0.0,1638.400,367025.600,4837625.200,0.0,0.0,0.0,2137.400
1.681,4.202,93.487,0.0,0.0,0.630,0.0,3276.800,359569.400,4730214.400,0.0,0.0,0.0,2132.800
1.656,4.762,92.961,0.414,0.0,0.207,0.0,28672.0,362964.600,4820335.0,0.0,0.0,0.0,2083.200
1.461,4.593,93.528,0.0,0.0,0.418,0.0,3276.800,376315.200,4958400.200,0.0,0.0,0.0,2126.0
1.667,4.583,93.333,0.0,0.0,0.417,0.0,1638.400,369102.0,4858524.400,0.0,0.0,0.0,2107.800
1.480,3.171,95.137,0.0,0.0,0.211,0.0,819.200,358332.600,4761857.600,0.0,0.0,0.0,2123.600
2.500,3.958,93.125,0.0,0.0,0.417,0.0,1638.400,362473.0,4773990.400,0.0,0.0,0.0,2191.0
2.058,5.761,91.975,0.0,0.0,0.206,0.0,819.200,366745.800,4873371.800,0.0,0.0,0.0,2236.200
2.311,3.571,93.487,0.210,0.0,0.420,0.0,16384.0,365429.600,4814937.200,0.0,0.0,0.0,2201.200
1.895,3.158,94.526,0.0,0.0,0.421,0.0,1638.400,351522.0,4627643.200,0.0,0.0,0.0,2039.800
0.201,0.201,99.598,0.0,0.0,0.0,0.0,819.200,3127.0,934.400,0.0,0.0,0.0,61.800
