"Dstat 0.7.2 CSV output"
"Author:","Dag Wieers <dag@wieers.com>",,,,"URL:","http://dag.wieers.com/home-made/dstat/"
"Host:","Server2",,,,"User:","mstevan"
"Cmdline:","dstat --output /home/mstevan/logs/experiment_3.2/dstat/vs_1024-vcpr_4-wtpm_64-rep_1.csv 5 16",,,,"Date:","28 Oct 2019 10:07:10 UTC"

"total cpu usage",,,,,,"dsk/total",,"net/total",,"paging",,"system",
"usr","sys","idl","wai","hiq","siq","read","writ","recv","send","in","out","int","csw"
1.566,3.181,94.496,0.395,0.0,0.362,7240.817,1111624.021,0.0,0.0,0.0,0.0,0.093,1382.294
0.602,0.602,98.795,0.0,0.0,0.0,0.0,1638.400,12249.0,38626.400,0.0,0.0,0.0,159.0
2.917,5.833,90.417,0.0,0.0,0.833,0.0,1638.400,404857.200,5288180.800,0.0,0.0,0.0,4251.0
2.954,5.274,90.928,0.422,0.0,0.422,0.0,18022.400,443215.600,5882602.800,0.0,0.0,0.0,4549.800
2.772,5.757,91.045,0.0,0.0,0.426,0.0,3276.800,440436.600,5802232.800,0.0,0.0,0.0,4608.200
2.311,6.933,90.126,0.0,0.0,0.630,0.0,819.200,446060.400,5881916.0,0.0,0.0,0.200,4686.800
2.301,6.695,90.167,0.0,0.0,0.837,0.0,1638.400,454497.0,6039343.600,0.0,0.0,0.0,4741.600
1.899,6.751,90.295,0.0,0.0,1.055,0.0,3276.800,454161.600,5999719.0,0.0,0.0,0.0,4692.0
2.553,5.532,91.277,0.0,0.0,0.638,0.0,819.200,439548.600,5821876.200,0.0,0.0,0.0,4455.600
2.128,6.596,90.0,0.851,0.0,0.426,0.0,18841.600,455038.200,6002879.0,0.0,0.0,0.0,4685.400
2.935,6.918,89.727,0.0,0.0,0.419,0.0,1638.400,457364.600,6037894.800,0.0,0.0,0.0,4616.600
1.709,5.769,91.880,0.0,0.0,0.641,0.0,819.200,442317.600,5874327.800,0.0,0.0,0.0,4528.200
2.941,5.882,90.126,0.0,0.0,1.050,0.0,1638.400,444366.800,5856530.600,0.0,0.0,0.0,4612.400
2.991,5.983,90.385,0.0,0.0,0.641,0.0,1638.400,446119.400,5882181.200,0.0,0.0,0.0,4518.400
3.151,5.672,90.546,0.0,0.0,0.630,0.0,2457.600,444184.0,5902389.800,0.0,0.0,0.0,4594.0
2.088,6.472,90.188,1.044,0.0,0.209,0.0,15564.800,441447.200,5814002.800,0.0,0.0,0.0,4176.400
0.200,0.200,99.599,0.0,0.0,0.0,0.0,819.200,3127.0,934.400,0.0,0.0,0.0,61.400
