"Dstat 0.7.2 CSV output"
"Author:","Dag Wieers <dag@wieers.com>",,,,"URL:","http://dag.wieers.com/home-made/dstat/"
"Host:","Server2",,,,"User:","mstevan"
"Cmdline:","dstat --output /home/mstevan/logs/experiment_3.2/dstat/vs_1024-vcpr_16-wtpm_32-rep_4.csv 5 16",,,,"Date:","28 Oct 2019 10:39:51 UTC"

"total cpu usage",,,,,,"dsk/total",,"net/total",,"paging",,"system",
"usr","sys","idl","wai","hiq","siq","read","writ","recv","send","in","out","int","csw"
1.593,3.253,94.405,0.380,0.0,0.368,6898.512,1059288.116,0.0,0.0,0.0,0.0,0.088,1456.679
0.401,0.200,99.399,0.0,0.0,0.0,0.0,1638.400,11168.800,51422.400,0.0,0.0,0.0,118.400
3.354,6.499,88.889,0.0,0.0,1.258,0.0,819.200,675474.0,9002148.200,0.0,0.0,0.0,3535.800
2.966,6.992,89.407,0.0,0.0,0.636,0.0,1638.400,723793.800,9616570.800,0.0,0.0,0.0,3614.200
2.703,7.900,88.358,0.0,0.0,1.040,0.0,2457.600,709626.0,9424264.200,0.0,0.0,0.0,3375.0
2.355,7.495,89.936,0.0,0.0,0.214,0.0,1638.400,739245.800,9863646.400,0.0,0.0,0.0,3757.400
4.274,7.906,86.752,0.427,0.0,0.641,0.0,22118.400,750191.200,9964073.0,0.0,0.0,0.0,3755.600
2.760,8.493,87.686,0.0,0.0,1.062,0.0,3276.800,759741.0,10090879.800,0.0,0.0,0.0,4008.600
3.404,7.021,88.723,0.0,0.0,0.851,0.0,819.200,773138.600,10312397.0,0.0,0.0,0.0,3985.400
2.731,8.613,87.605,0.0,0.0,1.050,0.0,1638.400,762484.400,10134570.0,0.0,0.0,0.0,3972.0
2.340,8.085,88.936,0.0,0.0,0.638,0.0,819.200,764725.400,10192521.0,0.0,0.0,0.0,3998.200
2.960,8.034,87.738,0.0,0.0,1.268,0.0,1638.400,764842.200,10177548.200,0.0,0.0,0.0,4010.800
3.419,6.624,88.889,0.427,0.0,0.641,0.0,22118.400,749309.800,9956740.600,0.0,0.0,0.0,3892.400
3.191,8.085,88.511,0.0,0.0,0.213,0.0,819.200,763219.800,10185802.0,0.0,0.0,0.0,4063.400
2.991,8.761,87.393,0.0,0.0,0.855,0.0,3276.800,768453.200,10214070.400,0.0,0.0,0.0,3932.600
3.185,8.280,88.110,0.0,0.0,0.425,0.0,1638.400,759406.800,10089058.800,0.0,0.0,0.0,3965.200
0.403,1.613,97.782,0.0,0.0,0.202,0.0,819.200,95348.600,1231825.600,0.0,0.0,0.0,859.0
