"Dstat 0.7.2 CSV output"
"Author:","Dag Wieers <dag@wieers.com>",,,,"URL:","http://dag.wieers.com/home-made/dstat/"
"Host:","Server2",,,,"User:","mstevan"
"Cmdline:","dstat --output /home/mstevan/logs/experiment_3.2/dstat/vs_1024-vcpr_32-wtpm_32-rep_2.csv 5 16",,,,"Date:","28 Oct 2019 10:54:04 UTC"

"total cpu usage",,,,,,"dsk/total",,"net/total",,"paging",,"system",
"usr","sys","idl","wai","hiq","siq","read","writ","recv","send","in","out","int","csw"
1.607,3.291,94.354,0.374,0.0,0.373,6759.580,1038044.170,0.0,0.0,0.0,0.0,0.087,1482.789
0.200,0.400,99.400,0.0,0.0,0.0,0.0,819.200,8031.200,48986.200,0.0,0.0,0.0,117.0
2.731,9.034,87.605,0.0,0.0,0.630,0.0,1638.400,734198.0,9752731.200,0.0,0.0,0.0,4128.800
4.292,7.082,87.983,0.0,0.0,0.644,0.0,1638.400,776362.0,10315840.600,0.0,0.0,0.200,4092.400
3.158,7.789,88.421,0.0,0.0,0.632,0.0,2457.600,772620.600,10309485.200,0.0,0.0,0.0,4177.400
2.581,7.097,89.032,0.215,0.0,1.075,0.0,18841.600,744592.0,9879416.400,0.0,0.0,0.0,4108.800
3.011,7.312,89.247,0.0,0.0,0.430,0.0,1638.400,761577.0,10119787.800,0.0,0.0,0.0,4147.600
3.178,9.110,87.076,0.0,0.0,0.636,0.0,2457.600,794428.0,10601759.800,0.0,0.0,0.0,4338.400
3.397,7.219,88.110,0.0,0.0,1.274,0.0,1638.400,773134.400,10280071.400,0.0,0.0,0.0,3809.0
3.441,7.527,87.957,0.0,0.0,1.075,0.0,1638.400,794778.400,10566697.400,0.0,0.0,0.0,4073.0
3.205,8.547,87.393,0.0,0.0,0.855,0.0,819.200,794421.600,10602018.200,0.0,0.0,0.0,4171.400
4.264,7.676,86.567,0.426,0.0,1.066,0.0,18841.600,802291.0,10662308.400,0.0,0.0,0.0,4509.800
3.247,6.710,89.177,0.0,0.0,0.866,0.0,819.200,790920.400,10548251.600,0.0,0.0,0.0,4193.200
2.972,8.705,87.049,0.0,0.0,1.274,0.0,1638.400,798733.400,10617826.400,0.0,0.0,0.0,4140.400
2.754,8.898,87.288,0.0,0.0,1.059,0.0,3276.800,791232.200,10520021.200,0.0,0.0,0.0,4018.0
3.191,8.511,87.021,0.0,0.0,1.277,0.0,819.200,775862.600,10341652.600,0.0,0.0,0.0,4287.0
0.401,0.200,99.399,0.0,0.0,0.0,0.0,1638.400,6214.0,1798.0,0.0,0.0,0.0,70.600
