"Dstat 0.7.2 CSV output"
"Author:","Dag Wieers <dag@wieers.com>",,,,"URL:","http://dag.wieers.com/home-made/dstat/"
"Host:","Server2",,,,"User:","mstevan"
"Cmdline:","dstat --output /home/mstevan/logs/experiment_3.2/dstat/vs_1024-vcpr_32-wtpm_8-rep_3.csv 5 16",,,,"Date:","28 Oct 2019 10:49:48 UTC"

"total cpu usage",,,,,,"dsk/total",,"net/total",,"paging",,"system",
"usr","sys","idl","wai","hiq","siq","read","writ","recv","send","in","out","int","csw"
1.605,3.285,94.362,0.376,0.0,0.372,6800.672,1044327.042,0.0,0.0,0.0,0.0,0.087,1477.466
0.402,0.402,98.793,0.402,0.0,0.0,0.0,18841.600,9967.0,46706.0,0.0,0.0,0.0,111.400
1.670,3.549,94.363,0.0,0.0,0.418,0.0,819.200,343543.0,4561740.200,0.0,0.0,0.0,2130.800
2.282,3.527,93.776,0.0,0.0,0.415,0.0,1638.400,337285.200,4435296.400,0.0,0.0,0.0,2071.200
2.490,3.942,93.361,0.0,0.0,0.207,0.0,3276.800,373186.0,4919363.200,0.0,0.0,0.0,2075.200
1.860,5.579,92.355,0.0,0.0,0.207,0.0,819.200,373636.800,4966891.400,0.0,0.0,0.0,2160.200
2.083,4.583,92.500,0.0,0.0,0.833,0.0,1638.400,372981.400,4908681.200,0.0,0.0,0.0,2122.600
2.296,3.967,93.528,0.0,0.0,0.209,0.0,3276.800,374249.800,4929770.600,0.0,0.0,0.0,2243.400
1.667,3.958,93.333,0.625,0.0,0.417,0.0,18022.400,377646.0,5019127.0,0.0,0.0,0.0,2198.400
1.895,3.789,94.105,0.0,0.0,0.211,0.0,1638.400,371742.200,4883896.0,0.0,0.0,0.0,2158.400
2.316,2.947,94.526,0.0,0.0,0.211,0.0,1638.400,376334.200,4963796.0,0.0,0.0,0.0,2195.600
1.867,4.564,93.154,0.0,0.0,0.415,0.0,819.200,378150.0,5024901.0,0.0,0.0,0.0,2125.400
2.062,4.536,92.990,0.0,0.0,0.412,0.0,1638.400,370162.400,4877168.400,0.0,0.0,0.0,2145.400
1.674,3.347,94.770,0.0,0.0,0.209,0.0,819.200,368597.200,4898170.600,0.0,0.0,0.0,2128.600
1.891,3.361,93.697,0.420,0.0,0.630,0.0,16384.0,374004.400,4927568.800,0.0,0.0,0.0,2119.400
2.053,5.339,92.197,0.0,0.0,0.411,0.0,1638.400,356857.400,4701600.200,0.0,0.0,0.0,1977.600
0.203,0.610,99.187,0.0,0.0,0.0,0.0,819.200,63776.0,812374.600,0.0,0.0,0.0,443.0
