"Dstat 0.7.2 CSV output"
"Author:","Dag Wieers <dag@wieers.com>",,,,"URL:","http://dag.wieers.com/home-made/dstat/"
"Host:","Server2",,,,"User:","mstevan"
"Cmdline:","dstat --output /home/mstevan/logs/experiment_3.2/dstat/vs_1024-vcpr_16-wtpm_32-rep_3.csv 5 16",,,,"Date:","28 Oct 2019 10:38:26 UTC"

"total cpu usage",,,,,,"dsk/total",,"net/total",,"paging",,"system",
"usr","sys","idl","wai","hiq","siq","read","writ","recv","send","in","out","int","csw"
1.591,3.248,94.413,0.381,0.0,0.368,6912.722,1061460.820,0.0,0.0,0.0,0.0,0.088,1453.171
0.600,0.200,99.200,0.0,0.0,0.0,0.0,1638.400,12465.0,62867.200,0.0,0.0,0.0,137.400
3.586,7.595,87.975,0.0,0.0,0.844,0.0,1638.400,710535.800,9440194.200,0.0,0.0,0.0,3819.800
3.617,7.447,88.723,0.0,0.0,0.213,0.0,819.200,763731.600,10184077.200,0.0,0.0,0.200,4081.600
2.597,6.494,89.827,0.216,0.0,0.866,0.0,20480.0,741297.200,9851771.600,0.0,0.0,0.0,3909.0
2.778,7.265,88.889,0.0,0.0,1.068,0.0,1638.400,749904.800,9966306.0,0.0,0.0,0.0,3705.400
2.760,7.219,89.172,0.0,0.0,0.849,0.0,819.200,758907.400,10126246.400,0.0,0.0,0.0,3696.600
3.441,6.667,89.032,0.0,0.0,0.860,0.0,3276.800,762270.200,10125334.600,0.0,0.0,0.0,3756.0
3.586,7.595,87.975,0.0,0.0,0.844,0.0,819.200,760622.800,10150771.0,0.0,0.0,0.0,3884.600
3.404,7.447,87.872,0.0,0.0,1.277,0.0,1638.400,758860.0,10082606.400,0.0,0.0,0.0,3580.0
3.376,8.650,86.920,0.211,0.0,0.844,0.0,15564.800,781941.200,10393750.400,0.0,0.0,0.0,3933.600
3.441,6.882,89.032,0.0,0.0,0.645,0.0,4096.0,763921.600,10181780.0,0.0,0.0,0.0,3856.200
2.586,7.112,89.224,0.0,0.0,1.078,0.0,1638.400,768947.600,10221724.400,0.0,0.0,0.0,3939.200
3.412,7.463,88.273,0.0,0.0,0.853,0.0,1638.400,760729.0,10112930.400,0.0,0.0,0.0,3576.0
3.625,6.610,88.913,0.0,0.0,0.853,0.0,2457.600,779613.400,10406293.800,0.0,0.0,0.0,3971.400
2.553,7.447,89.362,0.0,0.0,0.638,0.0,1638.400,743517.800,9868165.200,0.0,0.0,0.0,3711.400
0.400,0.400,98.800,0.0,0.0,0.400,0.0,819.200,16723.600,104782.800,0.0,0.0,0.0,235.800
