"Dstat 0.7.2 CSV output"
"Author:","Dag Wieers <dag@wieers.com>",,,,"URL:","http://dag.wieers.com/home-made/dstat/"
"Host:","Server2",,,,"User:","mstevan"
"Cmdline:","dstat --output /home/mstevan/logs/experiment_3.2/dstat/vs_1024-vcpr_8-wtpm_32-rep_2.csv 5 16",,,,"Date:","28 Oct 2019 10:19:58 UTC"

"total cpu usage",,,,,,"dsk/total",,"net/total",,"paging",,"system",
"usr","sys","idl","wai","hiq","siq","read","writ","recv","send","in","out","int","csw"
1.574,3.201,94.473,0.389,0.0,0.363,7102.917,1090545.268,0.0,0.0,0.0,0.0,0.091,1409.590
0.601,0.401,98.998,0.0,0.0,0.0,0.0,1638.400,9109.200,22425.200,0.0,0.0,0.0,107.600
2.155,4.526,92.888,0.0,0.0,0.431,0.0,1638.400,540745.800,7156460.800,0.0,0.0,0.0,4337.600
2.316,7.158,89.684,0.0,0.0,0.842,0.0,819.200,565970.400,7539675.800,0.0,0.0,0.0,4525.400
2.772,7.036,89.552,0.0,0.0,0.640,0.0,3276.800,587169.0,7781256.200,0.0,0.0,0.0,4347.600
2.725,7.547,88.889,0.0,0.0,0.839,0.0,819.200,616456.200,8214575.400,0.0,0.0,0.0,4557.0
2.366,6.022,91.183,0.0,0.0,0.430,0.0,1638.400,609211.0,8082756.800,0.0,0.0,0.0,4591.0
2.714,7.933,87.683,0.418,0.0,1.253,0.0,22937.600,598654.0,7938687.200,0.0,0.0,0.0,4610.0
2.114,6.765,90.275,0.0,0.0,0.846,0.0,819.200,610017.0,8131569.600,0.0,0.0,0.0,4556.600
2.985,5.970,90.405,0.0,0.0,0.640,0.0,1638.400,616806.0,8181412.200,0.0,0.0,0.0,4546.0
2.772,6.823,89.339,0.0,0.0,1.066,0.0,1638.400,617181.400,8182226.400,0.0,0.0,0.0,4626.400
3.165,6.118,89.873,0.0,0.0,0.844,0.0,819.200,605315.200,8064009.600,0.0,0.0,0.0,4798.400
3.205,6.197,90.171,0.0,0.0,0.427,0.0,1638.400,613918.200,8139333.600,0.0,0.0,0.0,4640.200
2.790,6.223,90.129,0.644,0.0,0.215,0.0,14745.600,623352.200,8308933.0,0.0,0.0,0.0,4749.400
2.592,6.695,90.281,0.0,0.0,0.432,0.0,2457.600,621373.0,8244544.200,0.0,0.0,0.0,4698.600
2.366,7.097,89.892,0.0,0.0,0.645,0.0,2457.600,599637.800,7949658.800,0.0,0.0,0.0,4560.800
0.402,0.402,99.197,0.0,0.0,0.0,0.0,819.200,3578.0,1405.200,0.0,0.0,0.0,77.400
