"Dstat 0.7.2 CSV output"
"Author:","Dag Wieers <dag@wieers.com>",,,,"URL:","http://dag.wieers.com/home-made/dstat/"
"Host:","Server2",,,,"User:","mstevan"
"Cmdline:","dstat --output /home/mstevan/logs/experiment_3.2/dstat/vs_1024-vcpr_8-wtpm_8-rep_3.csv 5 16",,,,"Date:","28 Oct 2019 10:15:42 UTC"

"total cpu usage",,,,,,"dsk/total",,"net/total",,"paging",,"system",
"usr","sys","idl","wai","hiq","siq","read","writ","recv","send","in","out","int","csw"
1.572,3.196,94.479,0.391,0.0,0.363,7148.297,1097482.104,0.0,0.0,0.0,0.0,0.091,1403.706
0.200,0.200,99.599,0.0,0.0,0.0,0.0,819.200,8959.400,75062.400,0.0,0.0,0.0,113.800
1.681,3.992,93.908,0.0,0.0,0.420,0.0,1638.400,359207.800,4730873.0,0.0,0.0,0.0,2191.800
2.296,3.758,93.111,0.418,0.0,0.418,0.0,17203.200,342097.0,4515008.0,0.0,0.0,0.0,2201.800
1.879,3.340,94.154,0.0,0.0,0.626,0.0,3276.800,359367.200,4757874.800,0.0,0.0,0.0,1939.600
1.875,4.583,93.333,0.0,0.0,0.208,0.0,1638.400,369924.200,4873743.400,0.0,0.0,0.0,2041.600
1.274,3.185,95.541,0.0,0.0,0.0,0.0,819.200,368342.200,4894278.400,0.0,0.0,0.0,1930.400
2.500,4.583,92.708,0.0,0.0,0.208,0.0,3276.800,363823.0,4784815.400,0.0,0.0,0.0,1999.800
2.101,3.361,94.328,0.0,0.0,0.210,0.0,1638.400,361691.200,4765247.400,0.0,0.0,0.0,1828.600
1.471,3.992,94.328,0.0,0.0,0.210,0.0,819.200,367431.800,4881529.200,0.0,0.0,0.0,1961.0
1.852,5.144,91.770,0.412,0.0,0.823,0.0,18841.600,370642.400,4883506.200,0.0,0.0,0.0,1961.400
1.261,4.622,93.908,0.0,0.0,0.210,0.0,1638.400,352038.200,4635528.0,0.0,0.0,0.0,2059.600
1.242,5.176,93.375,0.0,0.0,0.207,0.0,819.200,358785.400,4765071.600,0.0,0.0,0.0,2016.600
2.301,3.766,93.515,0.0,0.0,0.418,0.0,1638.400,357809.800,4710581.0,0.0,0.0,0.0,2054.400
1.887,3.354,94.340,0.0,0.0,0.419,0.0,3276.800,358777.800,4725001.400,0.0,0.0,0.0,1876.800
1.875,3.958,93.958,0.0,0.0,0.208,0.0,819.200,357659.400,4750662.400,0.0,0.0,0.0,1977.200
0.402,0.201,98.996,0.402,0.0,0.0,0.0,15564.800,6214.0,1798.0,0.0,0.0,0.0,85.800
