"Dstat 0.7.2 CSV output"
"Author:","Dag Wieers <dag@wieers.com>",,,,"URL:","http://dag.wieers.com/home-made/dstat/"
"Host:","Server2",,,,"User:","mstevan"
"Cmdline:","dstat --output /home/mstevan/logs/experiment_3.2/dstat/vs_256-vcpr_32-wtpm_64-rep_2.csv 5 16",,,,"Date:","28 Oct 2019 08:43:03 UTC"

"total cpu usage",,,,,,"dsk/total",,"net/total",,"paging",,"system",
"usr","sys","idl","wai","hiq","siq","read","writ","recv","send","in","out","int","csw"
1.458,2.920,94.850,0.438,0.0,0.334,8300.991,1273691.676,0.0,0.0,0.0,0.0,0.106,1149.061
0.602,0.402,98.795,0.0,0.0,0.201,0.0,1638.400,13604.0,21402.400,0.0,0.0,0.0,162.800
3.165,7.806,87.342,0.0,0.0,1.688,0.0,819.200,833612.600,3511738.800,0.0,0.0,0.0,3734.400
3.165,9.705,86.076,0.211,0.0,0.844,0.0,19660.800,912748.600,3837080.800,0.0,0.0,0.0,3781.400
2.985,8.102,88.273,0.0,0.0,0.640,0.0,3276.800,871382.600,3673034.600,0.0,0.0,0.0,3716.200
2.790,8.369,87.983,0.0,0.0,0.858,0.0,1638.400,891270.200,3743383.200,0.0,0.0,0.0,3869.600
3.390,8.475,87.076,0.0,0.0,1.059,0.0,1638.400,894387.400,3758808.200,0.0,0.0,0.0,3679.800
2.575,7.940,88.197,0.0,0.0,1.288,0.0,2457.600,876279.800,3689404.800,0.0,0.0,0.0,3703.400
3.011,7.097,87.957,0.0,0.0,1.935,0.0,1638.400,895720.600,3766254.200,0.0,0.0,0.0,3905.800
3.463,7.143,86.797,1.082,0.0,1.515,0.0,20480.0,900483.400,3784235.200,0.0,0.0,0.0,3456.0
3.376,9.072,86.709,0.0,0.0,0.844,0.0,819.200,927223.800,3907997.200,0.0,0.0,0.0,3794.600
4.043,6.596,88.511,0.0,0.0,0.851,0.0,1638.400,909914.200,3823315.600,0.0,0.0,0.0,3689.0
4.246,8.493,86.624,0.0,0.0,0.637,0.0,819.200,919553.600,3861384.400,0.0,0.0,0.0,3675.800
3.212,8.994,86.296,0.0,0.0,1.499,0.0,1638.400,892371.0,3764269.400,0.0,0.0,0.0,3819.0
3.354,10.482,84.277,0.0,0.0,1.887,0.0,3276.800,923365.0,3880195.800,0.0,0.0,0.0,3900.200
3.782,9.874,85.504,0.210,0.0,0.630,0.0,15564.800,918537.0,3874395.200,0.0,0.0,0.0,3867.600
0.810,1.822,97.166,0.0,0.0,0.202,0.0,2457.600,108508.200,430792.600,0.0,0.0,0.0,894.200
