"Dstat 0.7.2 CSV output"
"Author:","Dag Wieers <dag@wieers.com>",,,,"URL:","http://dag.wieers.com/home-made/dstat/"
"Host:","Server2",,,,"User:","mstevan"
"Cmdline:","dstat --output /home/mstevan/logs/experiment_3.2/dstat/vs_256-vcpr_32-wtpm_8-rep_3.csv 5 16",,,,"Date:","28 Oct 2019 08:33:07 UTC"

"total cpu usage",,,,,,"dsk/total",,"net/total",,"paging",,"system",
"usr","sys","idl","wai","hiq","siq","read","writ","recv","send","in","out","int","csw"
1.440,2.870,94.917,0.444,0.0,0.330,8447.247,1296050.766,0.0,0.0,0.0,0.0,0.107,1118.657
0.600,0.200,99.200,0.0,0.0,0.0,0.0,1638.400,9967.200,16170.800,0.0,0.0,0.0,110.400
1.895,3.789,94.316,0.0,0.0,0.0,0.0,819.200,337955.200,1416204.400,0.0,0.0,0.0,2193.200
1.452,4.357,94.191,0.0,0.0,0.0,0.0,1638.400,320310.0,1330474.0,0.0,0.0,0.0,2107.200
1.242,3.727,94.824,0.0,0.0,0.207,0.0,1638.400,348497.0,1462251.600,0.0,0.0,0.0,1996.0
1.677,4.193,93.711,0.0,0.0,0.419,0.0,2457.600,373749.800,1556148.800,0.0,0.0,0.0,2250.800
2.259,5.339,89.322,2.669,0.0,0.411,0.0,19660.800,376531.0,1568691.0,0.0,0.0,0.0,2353.400
1.471,3.782,94.538,0.0,0.0,0.210,0.0,2457.600,374281.0,1570775.0,0.0,0.0,0.0,2233.800
2.296,3.967,93.319,0.0,0.0,0.418,0.0,1638.400,376623.400,1568249.200,0.0,0.0,0.0,2295.0
1.461,4.593,93.946,0.0,0.0,0.0,0.0,2457.600,359554.400,1493727.600,0.0,0.0,0.0,2271.400
1.695,2.754,95.127,0.0,0.0,0.424,0.0,819.200,370917.0,1557462.0,0.0,0.0,0.0,2349.400
1.468,3.564,94.549,0.0,0.0,0.419,0.0,1638.400,355790.0,1480762.800,0.0,0.0,0.0,2160.200
1.875,4.167,92.917,0.625,0.0,0.417,0.0,14745.600,346456.800,1452047.0,0.0,0.0,0.0,2322.600
1.871,4.782,92.931,0.0,0.0,0.416,0.0,6553.600,356708.600,1482951.600,0.0,0.0,0.200,2313.800
1.674,3.975,93.933,0.0,0.0,0.418,0.0,2457.600,363343.0,1512380.200,0.0,0.0,0.0,2225.800
1.663,4.366,93.763,0.0,0.0,0.208,0.0,819.200,353160.400,1482821.600,0.0,0.0,0.0,2263.600
0.802,1.002,97.996,0.0,0.0,0.200,0.0,1638.400,51616.800,193435.200,0.0,0.0,0.0,429.800
