"Dstat 0.7.2 CSV output"
"Author:","Dag Wieers <dag@wieers.com>",,,,"URL:","http://dag.wieers.com/home-made/dstat/"
"Host:","Server2",,,,"User:","mstevan"
"Cmdline:","dstat --output /home/mstevan/logs/experiment_3.2/dstat/vs_256-vcpr_32-wtpm_8-rep_4.csv 5 16",,,,"Date:","28 Oct 2019 08:34:32 UTC"

"total cpu usage",,,,,,"dsk/total",,"net/total",,"paging",,"system",
"usr","sys","idl","wai","hiq","siq","read","writ","recv","send","in","out","int","csw"
1.440,2.872,94.915,0.443,0.0,0.329,8426.041,1292806.668,0.0,0.0,0.0,0.0,0.107,1120.555
0.200,0.200,99.0,0.600,0.0,0.0,0.0,18841.600,5133.0,8278.200,0.0,0.0,0.0,82.400
1.695,2.754,95.339,0.0,0.0,0.212,0.0,3276.800,339310.600,1409817.0,0.0,0.0,0.0,2159.800
1.656,3.934,93.996,0.0,0.0,0.414,0.0,1638.400,318755.800,1323695.800,0.0,0.0,0.0,2035.800
1.860,4.545,93.388,0.0,0.0,0.207,0.0,1638.400,365234.800,1532939.200,0.0,0.0,0.0,2031.200
1.255,4.393,93.933,0.0,0.0,0.418,0.0,1638.400,367809.200,1532157.0,0.0,0.0,0.0,2023.400
1.055,4.008,94.515,0.0,0.0,0.422,0.0,1638.400,356690.600,1484644.400,0.0,0.0,0.0,2059.0
1.677,5.241,92.453,0.419,0.0,0.210,0.0,20480.0,361348.600,1513519.800,0.0,0.0,0.0,2100.600
1.879,4.384,93.528,0.0,0.0,0.209,0.0,1638.400,367689.800,1530251.400,0.0,0.0,0.0,2065.200
2.268,5.155,92.165,0.0,0.0,0.412,0.0,1638.400,360835.600,1498931.400,0.0,0.0,0.0,2147.400
2.648,5.295,91.853,0.0,0.0,0.204,0.0,819.200,365079.0,1532249.0,0.0,0.0,0.0,2103.600
1.461,4.384,93.737,0.0,0.0,0.418,0.0,1638.400,368800.600,1535903.600,0.0,0.0,0.0,2209.0
1.883,3.556,94.351,0.0,0.0,0.209,0.0,819.200,359867.400,1510190.400,0.0,0.0,0.0,2009.800
2.083,3.958,93.125,0.417,0.0,0.417,0.0,17203.200,360006.800,1498434.200,0.0,0.0,0.0,2120.400
2.282,4.149,93.361,0.0,0.0,0.207,0.0,3276.800,354096.0,1473028.200,0.0,0.0,0.0,2081.0
1.048,4.403,94.130,0.0,0.0,0.419,0.0,819.200,362165.200,1519795.800,0.0,0.0,0.0,2144.200
0.808,0.808,98.182,0.0,0.0,0.202,0.0,1638.400,61607.800,236243.200,0.0,0.0,0.0,500.400
