"Dstat 0.7.2 CSV output"
"Author:","Dag Wieers <dag@wieers.com>",,,,"URL:","http://dag.wieers.com/home-made/dstat/"
"Host:","Server2",,,,"User:","mstevan"
"Cmdline:","dstat --output /home/mstevan/logs/experiment_3.2/dstat/vs_256-vcpr_4-wtpm_32-rep_4.csv 5 16",,,,"Date:","28 Oct 2019 07:49:04 UTC"

"total cpu usage",,,,,,"dsk/total",,"net/total",,"paging",,"system",
"usr","sys","idl","wai","hiq","siq","read","writ","recv","send","in","out","int","csw"
1.374,2.704,95.135,0.473,0.0,0.314,9162.104,1405351.959,0.0,0.0,0.0,0.0,0.116,960.855
0.598,0.398,99.004,0.0,0.0,0.0,0.0,819.200,8337.600,18320.400,0.0,0.0,0.0,140.800
2.748,4.651,92.178,0.0,0.0,0.423,0.0,2457.600,385350.200,1604833.400,0.0,0.0,0.0,4076.0
2.340,5.106,91.915,0.0,0.0,0.638,0.0,1638.400,437500.200,1826568.800,0.0,0.0,0.0,4441.600
2.123,6.157,91.507,0.0,0.0,0.212,0.0,1638.400,445365.200,1871670.600,0.0,0.0,0.0,4658.400
2.123,6.369,89.384,1.062,0.0,1.062,0.0,22937.600,450962.0,1883194.600,0.0,0.0,0.0,4798.600
2.316,6.105,90.947,0.0,0.0,0.632,0.0,819.200,448134.0,1882517.600,0.0,0.0,0.0,4702.600
2.521,6.933,90.126,0.0,0.0,0.420,0.0,3276.800,451408.600,1886206.800,0.0,0.0,0.0,4589.600
2.331,5.932,90.890,0.0,0.0,0.847,0.0,1638.400,450066.400,1877620.600,0.0,0.0,0.0,4569.600
1.474,7.158,90.737,0.0,0.0,0.632,0.0,819.200,455474.800,1914670.200,0.0,0.0,0.0,4706.400
2.559,5.970,90.618,0.0,0.0,0.853,0.0,1638.400,448480.800,1872841.200,0.0,0.0,0.0,4522.600
2.985,6.183,89.552,0.640,0.0,0.640,0.0,15564.800,450701.600,1879718.600,0.0,0.0,0.0,4514.400
2.966,5.085,91.102,0.0,0.0,0.847,0.0,819.200,454896.400,1912329.400,0.0,0.0,0.0,4380.200
2.123,5.520,91.932,0.0,0.0,0.425,0.0,1638.400,453026.800,1891947.0,0.0,0.0,0.0,4415.400
2.564,4.701,91.880,0.0,0.0,0.855,0.0,3276.800,452907.200,1891785.400,0.0,0.0,0.0,4565.800
2.548,5.520,91.507,0.0,0.0,0.425,0.0,819.200,445729.0,1872434.200,0.0,0.0,0.0,4488.400
0.401,0.200,99.399,0.0,0.0,0.0,0.0,1638.400,6214.0,1798.0,0.0,0.0,0.0,74.800
