"Dstat 0.7.2 CSV output"
"Author:","Dag Wieers <dag@wieers.com>",,,,"URL:","http://dag.wieers.com/home-made/dstat/"
"Host:","Server2",,,,"User:","mstevan"
"Cmdline:","dstat --output /home/mstevan/logs/experiment_3.2/dstat/vs_256-vcpr_4-wtpm_64-rep_1.csv 5 16",,,,"Date:","28 Oct 2019 07:50:29 UTC"

"total cpu usage",,,,,,"dsk/total",,"net/total",,"paging",,"system",
"usr","sys","idl","wai","hiq","siq","read","writ","recv","send","in","out","int","csw"
1.376,2.709,95.128,0.472,0.0,0.314,9137.165,1401539.065,0.0,0.0,0.0,0.0,0.116,968.415
0.402,0.201,99.398,0.0,0.0,0.0,0.0,819.200,9834.400,18506.0,0.0,0.0,0.0,145.600
2.947,5.263,90.947,0.0,0.0,0.842,0.0,1638.400,411763.600,1703681.600,0.0,0.0,0.0,4113.800
2.088,6.889,90.397,0.0,0.0,0.626,0.0,819.200,452001.800,1898015.0,0.0,0.0,0.0,4421.200
3.165,6.118,89.873,0.0,0.0,0.844,0.0,3276.800,456861.0,1902753.0,0.0,0.0,0.0,4638.800
2.954,6.751,89.662,0.0,0.0,0.633,0.0,1638.400,468593.600,1955075.800,0.0,0.0,0.0,4655.600
3.383,6.131,89.429,0.0,0.0,1.057,0.0,18022.400,468261.200,1964189.0,0.0,0.0,0.0,4809.0
2.972,6.157,90.021,0.0,0.0,0.849,0.0,3276.800,465978.200,1941274.400,0.0,0.0,0.0,4610.800
2.340,5.532,91.277,0.0,0.0,0.851,0.0,1638.400,470626.800,1960142.0,0.0,0.0,0.0,4582.400
2.521,5.882,91.176,0.0,0.0,0.420,0.0,819.200,466600.400,1960957.0,0.0,0.0,0.0,4306.200
2.350,5.983,91.026,0.0,0.0,0.641,0.0,1638.400,468257.200,1950372.400,0.0,0.0,0.0,4744.200
2.123,6.369,90.870,0.0,0.0,0.637,0.0,819.200,457741.200,1913331.400,0.0,0.0,0.0,4555.200
2.985,5.544,90.192,0.426,0.0,0.853,0.0,19660.800,467890.800,1960580.400,0.0,0.0,0.0,4876.600
3.191,5.532,90.426,0.0,0.0,0.851,0.0,1638.400,470269.800,1960085.200,0.0,0.0,0.0,4550.400
2.500,5.208,91.667,0.0,0.0,0.625,0.0,2457.600,462606.800,1937473.800,0.0,0.0,0.0,4166.600
2.778,4.915,91.880,0.0,0.0,0.427,0.0,1638.400,450628.200,1870442.200,0.0,0.0,0.0,4398.600
0.401,0.200,99.399,0.0,0.0,0.0,0.0,1638.400,6379.600,1980.800,0.0,0.0,0.0,72.600
