"Dstat 0.7.2 CSV output"
"Author:","Dag Wieers <dag@wieers.com>",,,,"URL:","http://dag.wieers.com/home-made/dstat/"
"Host:","Server2",,,,"User:","mstevan"
"Cmdline:","dstat --output /home/mstevan/logs/experiment_3.2/dstat/vs_256-vcpr_4-wtpm_32-rep_3.csv 5 16",,,,"Date:","28 Oct 2019 07:47:38 UTC"

"total cpu usage",,,,,,"dsk/total",,"net/total",,"paging",,"system",
"usr","sys","idl","wai","hiq","siq","read","writ","recv","send","in","out","int","csw"
1.371,2.698,95.143,0.475,0.0,0.313,9187.185,1409187.024,0.0,0.0,0.0,0.0,0.117,953.335
0.201,0.402,99.197,0.0,0.0,0.201,0.0,1638.400,11837.200,20146.800,0.0,0.0,0.0,150.400
2.146,4.077,93.777,0.0,0.0,0.0,0.0,819.200,387812.600,1627357.600,0.0,0.0,0.0,4181.0
3.354,6.080,89.518,0.419,0.0,0.629,0.0,19660.800,437226.600,1825286.200,0.0,0.0,0.0,4612.600
2.947,6.526,89.895,0.0,0.0,0.632,0.0,819.200,450792.600,1892888.200,0.0,0.0,0.0,4759.800
3.165,5.485,90.506,0.0,0.0,0.844,0.0,2457.600,442989.0,1848645.200,0.0,0.0,0.0,4131.800
2.570,5.782,91.221,0.0,0.0,0.428,0.0,1638.400,441518.200,1843557.400,0.0,0.0,0.0,3987.400
2.720,5.649,91.004,0.0,0.0,0.628,0.0,2457.600,446711.400,1877976.0,0.0,0.0,0.0,4475.800
3.171,5.497,90.909,0.0,0.0,0.423,0.0,1638.400,443788.0,1851017.800,0.0,0.0,0.0,4576.200
2.935,5.660,90.776,0.0,0.0,0.629,0.0,819.200,435060.800,1826166.600,0.0,0.0,0.0,4395.0
2.548,5.945,91.083,0.212,0.0,0.212,0.0,18022.400,453680.400,1896547.400,0.0,0.0,0.0,4498.600
2.548,6.369,90.234,0.0,0.0,0.849,0.0,1638.400,457804.800,1912826.800,0.0,0.0,0.0,4715.0
2.760,5.308,91.507,0.0,0.0,0.425,0.0,819.200,450266.0,1892668.800,0.0,0.0,0.0,4692.400
3.219,4.721,91.631,0.0,0.0,0.429,0.0,2457.600,445437.400,1859137.800,0.0,0.0,0.0,4598.600
2.725,6.499,90.356,0.0,0.0,0.419,0.0,2457.600,453566.600,1894559.0,0.0,0.0,0.0,4628.600
2.516,6.289,90.147,0.0,0.0,1.048,0.0,819.200,441960.0,1855973.200,0.0,0.0,0.0,4644.200
0.402,0.402,98.996,0.201,0.0,0.0,0.0,15564.800,6214.0,1798.0,0.0,0.0,0.0,68.200
