"Dstat 0.7.2 CSV output"
"Author:","Dag Wieers <dag@wieers.com>",,,,"URL:","http://dag.wieers.com/home-made/dstat/"
"Host:","Server2",,,,"User:","mstevan"
"Cmdline:","dstat --output /home/mstevan/logs/experiment_3.2/dstat/vs_256-vcpr_16-wtpm_8-rep_4.csv 5 16",,,,"Date:","28 Oct 2019 08:17:29 UTC"

"total cpu usage",,,,,,"dsk/total",,"net/total",,"paging",,"system",
"usr","sys","idl","wai","hiq","siq","read","writ","recv","send","in","out","int","csw"
1.412,2.799,95.013,0.454,0.0,0.322,8687.771,1332827.091,0.0,0.0,0.0,0.0,0.110,1069.924
0.401,0.0,99.599,0.0,0.0,0.0,0.0,3276.800,7531.600,18339.600,0.0,0.0,0.0,108.0
1.867,3.734,93.983,0.0,0.0,0.415,0.0,1638.400,324516.600,1347851.400,0.0,0.0,0.0,2164.800
0.832,4.158,94.802,0.0,0.0,0.208,0.0,819.200,323092.600,1354609.0,0.0,0.0,0.0,2074.600
2.282,3.527,93.983,0.0,0.0,0.207,0.0,3276.800,347745.200,1447199.0,0.0,0.0,0.0,2061.800
2.490,4.357,92.739,0.207,0.0,0.207,0.0,27852.800,361469.600,1504596.600,0.0,0.0,0.0,2165.0
0.837,4.603,94.142,0.0,0.0,0.418,0.0,819.200,345560.800,1448174.600,0.0,0.0,0.0,2102.400
2.911,3.326,93.347,0.0,0.0,0.416,0.0,3276.800,360500.800,1498922.0,0.0,0.0,0.0,2005.600
1.674,4.184,93.724,0.0,0.0,0.418,0.0,819.200,360004.400,1498815.600,0.0,0.0,0.0,2133.600
1.253,4.175,94.363,0.0,0.0,0.209,0.0,819.200,359284.200,1519350.600,0.0,0.0,0.0,1967.600
1.667,4.167,93.958,0.0,0.0,0.208,0.0,819.200,362440.800,1521499.0,0.0,0.0,0.0,1987.400
1.691,2.960,93.235,1.903,0.0,0.211,0.0,13926.400,360311.200,1499643.600,0.0,0.0,0.0,1948.0
1.670,4.384,93.737,0.0,0.0,0.209,0.0,1638.400,368499.600,1533608.800,0.0,0.0,0.0,2020.0
2.088,3.967,93.528,0.0,0.0,0.418,0.0,819.200,368568.400,1545467.0,0.0,0.0,0.0,1970.0
1.681,4.202,94.118,0.0,0.0,0.0,0.0,2457.600,369321.200,1538012.800,0.0,0.0,0.200,2102.0
2.505,3.758,93.528,0.0,0.0,0.209,0.0,2457.600,362838.0,1510662.600,0.0,0.0,0.0,1988.800
0.805,0.604,98.592,0.0,0.0,0.0,0.0,819.200,23771.200,87955.600,0.0,0.0,0.0,386.800
