"Dstat 0.7.2 CSV output"
"Author:","Dag Wieers <dag@wieers.com>",,,,"URL:","http://dag.wieers.com/home-made/dstat/"
"Host:","Server2",,,,"User:","mstevan"
"Cmdline:","dstat --output /home/mstevan/logs/experiment_3.2/dstat/vs_256-vcpr_32-wtpm_8-rep_1.csv 5 16",,,,"Date:","28 Oct 2019 08:30:16 UTC"

"total cpu usage",,,,,,"dsk/total",,"net/total",,"paging",,"system",
"usr","sys","idl","wai","hiq","siq","read","writ","recv","send","in","out","int","csw"
1.439,2.867,94.919,0.445,0.0,0.330,8489.984,1302583.844,0.0,0.0,0.0,0.0,0.108,1115.343
0.402,0.201,99.396,0.0,0.0,0.0,0.0,1638.400,10198.200,17022.200,0.0,0.0,0.0,108.400
1.660,4.149,93.776,0.0,0.0,0.415,0.0,1638.400,341856.800,1421268.0,0.0,0.0,0.0,2000.600
1.891,4.202,93.487,0.210,0.0,0.210,0.0,18841.600,342130.800,1434871.200,0.0,0.0,0.0,2231.200
1.875,4.583,93.333,0.0,0.0,0.208,0.0,7372.800,366918.800,1527944.200,0.0,0.0,0.0,2100.800
1.871,4.366,93.555,0.0,0.0,0.208,0.0,1638.400,366875.600,1527123.400,0.0,0.0,0.0,2158.0
1.443,4.948,93.402,0.0,0.0,0.206,0.0,819.200,365027.600,1531990.0,0.0,0.0,0.0,2034.400
2.692,4.141,92.547,0.0,0.0,0.621,0.0,3276.800,359813.800,1497577.800,0.0,0.0,0.0,2027.800
2.490,4.149,92.946,0.0,0.0,0.415,0.0,1638.400,375228.600,1563261.800,0.0,0.0,0.0,2109.0
1.684,3.158,94.737,0.0,0.0,0.421,0.0,1638.400,354090.600,1482859.0,0.0,0.0,0.0,2099.800
2.526,3.579,93.053,0.632,0.0,0.211,0.0,15564.800,366776.200,1525797.0,0.0,0.0,0.0,2202.200
1.879,5.010,92.902,0.0,0.0,0.209,0.0,819.200,378291.800,1588765.200,0.0,0.0,0.0,2404.800
2.075,4.979,92.739,0.0,0.0,0.207,0.0,1638.400,369873.0,1539751.600,0.0,0.0,0.0,2128.0
2.092,4.603,93.305,0.0,0.0,0.0,0.0,1638.400,374478.800,1559877.0,0.0,0.0,0.0,2214.800
2.296,5.010,92.693,0.0,0.0,0.0,0.0,2457.600,398495.400,1671933.600,0.0,0.0,0.0,2409.200
1.879,4.802,93.111,0.0,0.0,0.209,0.0,1638.400,381333.800,1589032.400,0.0,0.0,0.0,2266.400
0.803,1.406,97.189,0.602,0.0,0.0,0.0,16384.0,76478.800,311172.800,0.0,0.0,0.0,484.600
