"Dstat 0.7.2 CSV output"
"Author:","Dag Wieers <dag@wieers.com>",,,,"URL:","http://dag.wieers.com/home-made/dstat/"
"Host:","Server2",,,,"User:","mstevan"
"Cmdline:","dstat --output /home/mstevan/logs/experiment_3.2/dstat/vs_512-vcpr_8-wtpm_64-rep_3.csv 5 16",,,,"Date:","28 Oct 2019 09:18:43 UTC"

"total cpu usage",,,,,,"dsk/total",,"net/total",,"paging",,"system",
"usr","sys","idl","wai","hiq","siq","read","writ","recv","send","in","out","int","csw"
1.504,3.026,94.707,0.418,0.0,0.345,7815.817,1199531.429,0.0,0.0,0.0,0.0,0.100,1260.926
0.402,0.201,99.396,0.0,0.0,0.0,0.0,1638.400,13185.0,33597.400,0.0,0.0,0.0,152.400
2.345,5.544,91.684,0.0,0.0,0.426,0.0,819.200,526044.0,3802071.400,0.0,0.0,0.0,4354.800
2.929,6.904,89.331,0.0,0.0,0.837,0.0,2457.600,571157.200,4111652.600,0.0,0.0,0.0,4569.600
2.941,6.933,89.496,0.0,0.0,0.630,0.0,2457.600,569264.0,4098448.600,0.0,0.0,0.0,4501.400
2.114,6.977,89.852,0.0,0.0,1.057,0.0,1638.400,568506.400,4109683.800,0.0,0.0,0.0,4687.0
2.991,6.410,90.171,0.0,0.0,0.427,0.0,1638.400,575286.600,4145810.200,0.0,0.0,0.0,4680.400
2.537,5.497,89.429,0.846,0.0,1.691,0.0,24576.0,573058.200,4147394.600,0.0,0.0,0.0,4727.200
3.011,6.022,89.677,0.0,0.0,1.290,0.0,1638.400,581519.800,4186429.600,0.0,0.0,0.0,4769.0
4.175,6.472,88.100,0.0,0.0,1.253,0.0,1638.400,581354.0,4187314.400,0.0,0.0,0.0,4701.800
3.397,6.369,89.384,0.0,0.0,0.849,0.0,819.200,592889.0,4292577.800,0.0,0.0,0.0,4829.600
3.830,6.383,88.511,0.0,0.0,1.277,0.0,1638.400,600728.0,4324260.0,0.0,0.0,0.0,4867.800
3.178,5.932,90.042,0.0,0.0,0.847,0.0,1638.400,588243.200,4235406.800,0.0,0.0,0.0,4870.200
2.966,6.356,85.805,3.814,0.0,1.059,0.0,15564.800,597152.400,4327035.600,0.0,0.0,0.0,4998.600
2.548,6.794,89.809,0.0,0.0,0.849,0.0,3276.800,579859.400,4175678.0,0.0,0.0,0.0,4876.0
2.537,5.920,90.063,0.0,0.0,1.480,0.0,1638.400,573243.400,4145356.0,0.0,0.0,0.0,4763.0
0.402,0.201,99.398,0.0,0.0,0.0,0.0,1638.400,6214.0,1798.0,0.0,0.0,0.0,70.0
