"Dstat 0.7.2 CSV output"
"Author:","Dag Wieers <dag@wieers.com>",,,,"URL:","http://dag.wieers.com/home-made/dstat/"
"Host:","Server2",,,,"User:","mstevan"
"Cmdline:","dstat --output /home/mstevan/logs/experiment_3.2/dstat/vs_512-vcpr_8-wtpm_32-rep_2.csv 5 16",,,,"Date:","28 Oct 2019 09:11:37 UTC"

"total cpu usage",,,,,,"dsk/total",,"net/total",,"paging",,"system",
"usr","sys","idl","wai","hiq","siq","read","writ","recv","send","in","out","int","csw"
1.492,3.000,94.744,0.422,0.0,0.342,7907.893,1213605.883,0.0,0.0,0.0,0.0,0.101,1231.653
0.402,0.0,99.598,0.0,0.0,0.0,0.0,819.200,7812.600,25729.200,0.0,0.0,0.0,106.400
2.537,5.920,91.121,0.0,0.0,0.423,0.0,2457.600,544773.0,3923577.600,0.0,0.0,0.0,4215.800
3.171,5.708,90.063,0.0,0.0,1.057,0.0,2457.600,568859.200,4098232.800,0.0,0.0,0.0,4205.400
2.784,5.567,90.792,0.0,0.0,0.857,0.0,1638.400,588453.800,4263741.800,0.0,0.0,0.0,4599.0
2.772,6.183,90.405,0.0,0.0,0.640,0.0,1638.400,589673.400,4248561.200,0.0,0.0,0.0,4645.200
3.656,4.731,91.398,0.0,0.0,0.215,0.0,1638.400,595051.0,4285707.400,0.0,0.0,0.0,4721.200
2.966,6.780,89.407,0.212,0.0,0.636,0.0,25395.200,600953.200,4355215.600,0.0,0.0,0.0,4739.0
2.954,8.017,87.975,0.0,0.0,1.055,0.0,1638.400,614957.600,4431519.400,0.0,0.0,0.0,4759.800
2.979,6.383,89.787,0.0,0.0,0.851,0.0,1638.400,611810.600,4412598.400,0.0,0.0,0.0,4797.400
1.919,6.823,90.832,0.0,0.0,0.426,0.0,819.200,614761.400,4450796.200,0.0,0.0,0.0,4700.0
3.609,6.369,89.597,0.0,0.0,0.425,0.0,1638.400,626588.0,4516317.400,0.0,0.0,0.0,4805.200
2.119,7.415,89.831,0.0,0.0,0.636,0.0,819.200,613006.600,4442552.600,0.0,0.0,0.0,4793.0
3.383,7.188,89.006,0.211,0.0,0.211,0.0,15564.800,625023.200,4508633.200,0.0,0.0,0.0,4629.400
2.991,6.838,89.744,0.0,0.0,0.427,0.0,3276.800,624769.400,4506020.600,0.0,0.0,0.0,4674.200
1.923,5.983,91.453,0.0,0.0,0.641,0.0,1638.400,601525.0,4356156.800,0.0,0.0,0.0,4633.200
0.201,0.201,99.598,0.0,0.0,0.0,0.0,1638.400,6214.0,1798.0,0.0,0.0,0.0,71.0
