"Dstat 0.7.2 CSV output"
"Author:","Dag Wieers <dag@wieers.com>",,,,"URL:","http://dag.wieers.com/home-made/dstat/"
"Host:","Server2",,,,"User:","mstevan"
"Cmdline:","dstat --output /home/mstevan/logs/experiment_3.2/dstat/vs_512-vcpr_32-wtpm_8-rep_2.csv 5 16",,,,"Date:","28 Oct 2019 09:40:02 UTC"

"total cpu usage",,,,,,"dsk/total",,"net/total",,"paging",,"system",
"usr","sys","idl","wai","hiq","siq","read","writ","recv","send","in","out","int","csw"
1.532,3.098,94.608,0.408,0.0,0.354,7551.995,1159197.847,0.0,0.0,0.0,0.0,0.096,1319.084
0.600,0.600,98.800,0.0,0.0,0.0,0.0,1638.400,9713.800,21811.800,0.0,0.0,0.0,122.600
2.697,5.187,91.909,0.0,0.0,0.207,0.0,819.200,361443.600,2608670.600,0.0,0.0,0.0,2206.800
2.088,3.758,93.737,0.0,0.0,0.418,0.0,1638.400,342012.800,2446797.400,0.0,0.0,0.0,2046.800
1.670,4.175,93.528,0.0,0.0,0.626,0.0,3276.800,377947.800,2709514.600,0.0,0.0,0.0,2030.200
1.674,4.184,93.933,0.0,0.0,0.209,0.0,819.200,380692.0,2750601.0,0.0,0.0,0.0,2128.800
2.495,4.158,91.684,1.040,0.0,0.624,0.0,26214.400,383144.200,2745741.800,0.0,0.0,0.0,2069.200
1.255,4.603,93.933,0.0,0.0,0.209,0.0,2457.600,385074.400,2783048.600,0.0,0.0,0.0,2263.0
2.306,3.354,94.130,0.0,0.0,0.210,0.0,2457.600,377871.200,2708021.200,0.0,0.0,0.0,2101.400
1.681,3.992,94.118,0.0,0.0,0.210,0.0,1638.400,376820.800,2692844.400,0.0,0.0,0.0,2226.0
1.471,4.202,94.118,0.0,0.0,0.210,0.0,819.200,376672.400,2721273.600,0.0,0.0,0.0,2042.0
1.656,5.797,92.340,0.0,0.0,0.207,0.0,1638.400,382474.0,2743126.400,0.0,0.0,0.0,2086.0
2.101,3.361,93.697,0.630,0.0,0.210,0.0,27033.600,371587.400,2660422.400,0.0,0.0,0.0,1915.600
2.321,3.165,94.304,0.0,0.0,0.211,0.0,819.200,380670.800,2750819.200,0.0,0.0,0.0,2088.400
2.105,3.789,93.895,0.0,0.0,0.211,0.0,3276.800,378795.400,2711597.800,0.0,0.0,0.0,2057.800
2.292,3.958,93.542,0.0,0.0,0.208,0.0,819.200,365763.400,2640235.0,0.0,0.0,0.0,2066.800
0.810,0.607,98.583,0.0,0.0,0.0,0.0,1638.400,72129.600,481197.600,0.0,0.0,0.0,468.0
