"Dstat 0.7.2 CSV output"
"Author:","Dag Wieers <dag@wieers.com>",,,,"URL:","http://dag.wieers.com/home-made/dstat/"
"Host:","Server2",,,,"User:","mstevan"
"Cmdline:","dstat --output /home/mstevan/logs/experiment_3.2/dstat/vs_512-vcpr_32-wtpm_8-rep_1.csv 5 16",,,,"Date:","28 Oct 2019 09:38:37 UTC"

"total cpu usage",,,,,,"dsk/total",,"net/total",,"paging",,"system",
"usr","sys","idl","wai","hiq","siq","read","writ","recv","send","in","out","int","csw"
1.532,3.097,94.608,0.408,0.0,0.354,7569.028,1161800.971,0.0,0.0,0.0,0.0,0.097,1318.109
0.798,0.399,98.802,0.0,0.0,0.0,0.0,1638.400,10670.600,32152.0,0.0,0.0,0.0,126.200
1.035,5.383,93.582,0.0,0.0,0.0,0.0,819.200,338903.800,2445279.200,0.0,0.0,0.0,2091.200
1.691,2.960,95.137,0.0,0.0,0.211,0.0,1638.400,349174.0,2499347.600,0.0,0.0,0.0,2041.800
1.670,4.175,93.946,0.0,0.0,0.209,0.0,2457.600,364337.800,2608170.400,0.0,0.0,0.0,1940.200
1.461,5.010,92.902,0.418,0.0,0.209,0.0,26214.400,368792.0,2662218.800,0.0,0.0,0.0,2087.800
1.871,4.574,93.139,0.0,0.0,0.416,0.0,1638.400,376547.400,2698700.200,0.0,0.0,0.0,2019.600
1.891,4.202,93.697,0.0,0.0,0.210,0.0,3276.800,375880.200,2690767.0,0.0,0.0,0.0,2061.400
2.075,4.357,93.361,0.0,0.0,0.207,0.0,819.200,372676.200,2691571.600,0.0,0.0,0.0,1958.800
1.883,3.556,94.142,0.0,0.0,0.418,0.0,1638.400,370892.600,2650373.200,0.0,0.0,0.0,2102.0
1.037,5.394,93.361,0.0,0.0,0.207,0.0,819.200,377523.800,2728355.400,0.0,0.0,0.0,2173.800
2.326,3.171,93.658,0.634,0.0,0.211,0.0,16384.0,375958.0,2693811.0,0.0,0.0,0.0,2194.400
1.867,5.187,92.739,0.0,0.0,0.207,0.0,3276.800,374627.200,2684645.600,0.0,0.0,0.0,2090.800
1.261,3.992,94.538,0.0,0.0,0.210,0.0,819.200,371583.400,2684449.600,0.0,0.0,0.0,2108.800
2.075,4.772,92.739,0.0,0.0,0.415,0.0,3276.800,369771.200,2649026.200,0.0,0.0,0.0,2133.0
2.725,3.564,93.711,0.0,0.0,0.0,0.0,1638.400,373424.600,2675311.800,0.0,0.0,0.0,2174.0
0.406,0.609,98.783,0.0,0.0,0.203,0.0,819.200,66943.0,465931.400,0.0,0.0,0.0,463.800
