"Dstat 0.7.2 CSV output"
"Author:","Dag Wieers <dag@wieers.com>",,,,"URL:","http://dag.wieers.com/home-made/dstat/"
"Host:","Server2",,,,"User:","mstevan"
"Cmdline:","dstat --output /home/mstevan/logs/experiment_3.2/dstat/vs_512-vcpr_4-wtpm_8-rep_1.csv 5 16",,,,"Date:","28 Oct 2019 08:47:28 UTC"

"total cpu usage",,,,,,"dsk/total",,"net/total",,"paging",,"system",
"usr","sys","idl","wai","hiq","siq","read","writ","recv","send","in","out","int","csw"
1.470,2.951,94.805,0.435,0.0,0.339,8237.832,1264036.626,0.0,0.0,0.0,0.0,0.105,1164.890
0.601,0.401,98.998,0.0,0.0,0.0,0.0,1638.400,10553.200,34365.600,0.0,0.0,0.0,113.600
2.273,4.959,92.355,0.0,0.0,0.413,0.0,3276.800,341994.400,2444684.0,0.0,0.0,0.0,2223.800
1.474,3.579,94.526,0.0,0.0,0.421,0.0,819.200,361157.800,2607212.400,0.0,0.0,0.0,2175.400
2.479,4.545,92.562,0.0,0.0,0.413,0.0,1638.400,369491.800,2647136.0,0.0,0.0,0.0,2046.800
2.075,4.772,92.531,0.207,0.0,0.415,0.0,27852.800,364301.0,2608428.800,0.0,0.0,0.0,2003.0
1.887,3.774,93.920,0.0,0.0,0.419,0.0,1638.400,372807.400,2692280.600,0.0,0.0,0.0,2146.0
1.887,3.774,93.920,0.0,0.0,0.419,0.0,3276.800,362124.200,2593164.600,0.0,0.0,0.0,1864.400
2.500,4.583,92.708,0.0,0.0,0.208,0.0,1638.400,349322.200,2498549.200,0.0,0.0,0.0,1965.0
1.474,3.789,94.737,0.0,0.0,0.0,0.0,819.200,358938.0,2590336.400,0.0,0.0,0.0,2079.0
1.891,3.782,94.118,0.0,0.0,0.210,0.0,1638.400,371078.600,2657869.600,0.0,0.0,0.0,2064.600
1.883,4.184,93.933,0.0,0.0,0.0,0.0,819.200,370061.400,2673723.800,0.0,0.0,0.0,2025.800
1.471,3.782,93.908,0.420,0.0,0.420,0.0,16384.0,364218.400,2608535.600,0.0,0.0,0.0,1982.600
2.703,4.366,92.723,0.0,0.0,0.208,0.0,1638.400,374577.600,2685481.600,0.0,0.0,0.0,2042.0
1.879,4.802,92.902,0.0,0.0,0.418,0.0,1638.400,376350.400,2715269.400,0.0,0.0,0.0,2230.600
2.292,4.375,93.125,0.0,0.0,0.208,0.0,2457.600,359637.400,2575891.600,0.0,0.0,0.0,2033.200
0.402,0.201,99.398,0.0,0.0,0.0,0.0,1638.400,6214.0,1798.0,0.0,0.0,0.0,67.800
