"Dstat 0.7.2 CSV output"
"Author:","Dag Wieers <dag@wieers.com>",,,,"URL:","http://dag.wieers.com/home-made/dstat/"
"Host:","Server2",,,,"User:","mstevan"
"Cmdline:","dstat --output /home/mstevan/logs/experiment_3.2/dstat/vs_512-vcpr_32-wtpm_32-rep_4.csv 5 16",,,,"Date:","28 Oct 2019 09:48:34 UTC"

"total cpu usage",,,,,,"dsk/total",,"net/total",,"paging",,"system",
"usr","sys","idl","wai","hiq","siq","read","writ","recv","send","in","out","int","csw"
1.542,3.123,94.576,0.404,0.0,0.356,7451.399,1143819.926,0.0,0.0,0.0,0.0,0.095,1335.170
0.602,0.201,99.197,0.0,0.0,0.0,0.0,1638.400,10719.0,25106.600,0.0,0.0,0.0,118.600
2.361,6.867,89.914,0.0,0.0,0.858,0.0,819.200,717232.0,5200794.400,0.0,0.0,0.0,4023.600
3.017,7.974,88.147,0.0,0.0,0.862,0.0,1638.400,785728.800,5679026.0,0.0,0.0,0.0,3977.0
2.998,7.923,88.437,0.0,0.0,0.642,0.0,2457.600,783428.600,5682099.0,0.0,0.0,0.0,4203.0
2.972,7.856,88.110,0.0,0.0,1.062,0.0,1638.400,713483.600,5143033.400,0.0,0.0,0.0,3904.600
3.625,7.249,88.273,0.0,0.0,0.853,0.0,1638.400,753585.200,5448494.800,0.0,0.0,0.0,3763.400
3.004,7.082,88.841,0.215,0.0,0.858,0.0,22937.600,766730.600,5559112.0,0.0,0.0,0.0,3992.600
3.037,7.809,88.069,0.0,0.0,1.085,0.0,1638.400,777060.200,5611286.600,0.0,0.0,0.0,4051.800
3.240,7.127,88.985,0.0,0.0,0.648,0.0,1638.400,781913.600,5651791.200,0.0,0.0,0.0,3872.800
3.404,7.872,87.660,0.0,0.0,1.064,0.0,819.200,801848.0,5817562.200,0.0,0.0,0.0,4304.400
3.602,8.686,87.076,0.0,0.0,0.636,0.0,1638.400,797370.200,5758926.600,0.0,0.0,0.0,4005.200
3.426,7.709,88.223,0.0,0.0,0.642,0.0,1638.400,799052.400,5770849.800,0.0,0.0,0.0,4162.0
1.732,8.225,88.528,0.433,0.0,1.082,0.0,14745.600,800025.800,5805153.0,0.0,0.0,0.0,4405.600
3.198,8.316,87.846,0.0,0.0,0.640,0.0,3276.800,803339.600,5806935.600,0.0,0.0,0.0,4321.0
3.571,8.403,86.975,0.0,0.0,1.050,0.0,819.200,799027.800,5794115.800,0.0,0.0,0.0,4371.800
1.406,2.209,96.386,0.0,0.0,0.0,0.0,1638.400,122290.0,846311.400,0.0,0.0,0.0,913.200
