"Dstat 0.7.2 CSV output"
"Author:","Dag Wieers <dag@wieers.com>",,,,"URL:","http://dag.wieers.com/home-made/dstat/"
"Host:","Server2",,,,"User:","mstevan"
"Cmdline:","dstat --output /home/mstevan/logs/experiment_3.2/dstat/vs_512-vcpr_8-wtpm_32-rep_4.csv 5 16",,,,"Date:","28 Oct 2019 09:14:27 UTC"

"total cpu usage",,,,,,"dsk/total",,"net/total",,"paging",,"system",
"usr","sys","idl","wai","hiq","siq","read","writ","recv","send","in","out","int","csw"
1.497,3.010,94.729,0.421,0.0,0.343,7870.801,1207934.608,0.0,0.0,0.0,0.0,0.100,1243.036
0.201,0.402,99.398,0.0,0.0,0.0,0.0,819.200,10408.0,43181.0,0.0,0.0,0.0,142.0
2.526,5.895,90.737,0.0,0.0,0.842,0.0,1638.400,537252.600,3870885.200,0.0,0.0,0.0,4500.200
1.935,5.376,91.613,0.430,0.0,0.645,0.0,20480.0,580953.800,4203999.0,0.0,0.0,0.0,4402.400
2.796,5.376,91.183,0.0,0.0,0.645,0.0,2457.600,589843.800,4254584.400,0.0,0.0,0.0,4542.800
2.754,6.568,90.466,0.0,0.0,0.212,0.0,1638.400,590600.800,4255491.600,0.0,0.0,0.0,4554.600
3.171,5.920,90.275,0.0,0.0,0.634,0.0,1638.400,598373.400,4332493.600,0.0,0.0,0.0,4802.400
4.366,7.484,87.734,0.0,0.0,0.416,0.0,3276.800,600442.200,4331774.0,0.0,0.0,0.0,4575.0
2.972,7.643,88.747,0.0,0.0,0.637,0.0,1638.400,600114.0,4323790.400,0.0,0.0,0.0,4651.400
2.790,4.936,90.987,0.644,0.0,0.644,0.0,23756.800,604368.200,4379364.600,0.0,0.0,0.0,4610.600
2.737,8.0,88.632,0.0,0.0,0.632,0.0,1638.400,607808.200,4379587.800,0.0,0.0,0.0,4610.600
3.185,5.945,90.021,0.0,0.0,0.849,0.0,1638.400,608597.600,4385645.400,0.0,0.0,0.0,4430.200
3.340,6.472,89.770,0.0,0.0,0.418,0.0,819.200,611326.0,4426660.400,0.0,0.0,0.0,4510.800
2.760,6.582,89.597,0.0,0.0,1.062,0.0,1638.400,613864.600,4427766.600,0.0,0.0,0.0,4840.800
2.935,7.338,89.099,0.0,0.0,0.629,0.0,2457.600,602469.400,4365383.200,0.0,0.0,0.0,4662.800
3.165,6.540,89.451,0.422,0.0,0.422,0.0,16384.0,596760.400,4299947.0,0.0,0.0,0.200,4563.400
0.600,0.200,99.0,0.0,0.0,0.200,0.0,1638.400,6214.0,1798.0,0.0,0.0,0.0,64.400
