"Dstat 0.7.2 CSV output"
"Author:","Dag Wieers <dag@wieers.com>",,,,"URL:","http://dag.wieers.com/home-made/dstat/"
"Host:","Server2",,,,"User:","mstevan"
"Cmdline:","dstat --output /home/mstevan/logs/experiment_3.2/dstat/vs_512-vcpr_16-wtpm_8-rep_3.csv 5 16",,,,"Date:","28 Oct 2019 09:24:24 UTC"

"total cpu usage",,,,,,"dsk/total",,"net/total",,"paging",,"system",
"usr","sys","idl","wai","hiq","siq","read","writ","recv","send","in","out","int","csw"
1.509,3.039,94.689,0.416,0.0,0.347,7743.668,1188500.708,0.0,0.0,0.0,0.0,0.099,1276.315
0.402,0.402,99.197,0.0,0.0,0.0,0.0,819.200,7235.0,26223.0,0.0,0.0,0.0,121.200
1.663,4.990,92.931,0.0,0.0,0.416,0.0,1638.400,369719.0,2648522.400,0.0,0.0,0.0,2383.800
2.697,4.149,92.531,0.0,0.0,0.622,0.0,1638.400,349664.200,2501790.400,0.0,0.0,0.0,2340.0
1.663,4.366,93.555,0.0,0.0,0.416,0.0,2457.600,383934.0,2773363.400,0.0,0.0,0.0,2347.600
1.871,4.366,93.347,0.0,0.0,0.416,0.0,1638.400,366231.0,2619775.800,0.0,0.0,0.0,2298.400
1.471,4.202,92.437,1.471,0.0,0.420,0.0,20480.0,381376.400,2735253.600,0.0,0.0,0.0,2323.800
1.677,3.983,93.920,0.0,0.0,0.419,0.0,2457.600,378194.200,2732310.0,0.0,0.0,0.0,2293.0
1.879,4.593,93.319,0.0,0.0,0.209,0.0,2457.600,375024.800,2686714.200,0.0,0.0,0.0,2202.400
2.096,4.612,93.291,0.0,0.0,0.0,0.0,819.200,373310.800,2694320.600,0.0,0.0,0.0,2507.0
2.714,3.758,93.111,0.0,0.0,0.418,0.0,1638.400,379912.0,2724122.400,0.0,0.0,0.0,2279.200
2.092,4.184,93.515,0.0,0.0,0.209,0.0,1638.400,371643.800,2662148.0,0.0,0.0,0.0,2210.800
1.263,4.211,93.895,0.211,0.0,0.421,0.0,19660.800,377607.600,2724900.0,0.0,0.0,0.0,2266.800
2.287,4.990,92.516,0.0,0.0,0.208,0.0,1638.400,377041.800,2699414.200,0.0,0.0,0.0,2224.200
1.250,4.583,93.958,0.0,0.0,0.208,0.0,2457.600,376671.0,2721072.800,0.0,0.0,0.0,2298.400
1.688,4.008,93.882,0.0,0.0,0.422,0.0,1638.400,369043.200,2644111.0,0.0,0.0,0.0,2232.200
0.602,0.0,99.398,0.0,0.0,0.0,0.0,1638.400,6379.600,1980.800,0.0,0.0,0.0,72.400
