"Dstat 0.7.2 CSV output"
"Author:","Dag Wieers <dag@wieers.com>",,,,"URL:","http://dag.wieers.com/home-made/dstat/"
"Host:","Server2",,,,"User:","mstevan"
"Cmdline:","dstat --output /home/mstevan/logs/experiment_3.2/dstat/vs_512-vcpr_4-wtpm_8-rep_4.csv 5 16",,,,"Date:","28 Oct 2019 08:51:43 UTC"

"total cpu usage",,,,,,"dsk/total",,"net/total",,"paging",,"system",
"usr","sys","idl","wai","hiq","siq","read","writ","recv","send","in","out","int","csw"
1.472,2.955,94.802,0.432,0.0,0.338,8177.627,1254832.192,0.0,0.0,0.0,0.0,0.104,1169.400
0.601,0.0,99.399,0.0,0.0,0.0,0.0,1638.400,10147.200,28100.200,0.0,0.0,0.0,112.800
1.477,3.165,95.148,0.0,0.0,0.211,0.0,819.200,347612.200,2509067.800,0.0,0.0,0.0,2073.400
2.484,4.555,92.340,0.414,0.0,0.207,0.0,25395.200,364218.600,2609005.0,0.0,0.0,0.0,2158.200
1.883,3.766,94.351,0.0,0.0,0.0,0.0,4096.0,357729.600,2558730.600,0.0,0.0,0.0,1944.800
2.495,4.574,92.723,0.0,0.0,0.208,0.0,819.200,368760.400,2661060.200,0.0,0.0,0.0,2096.600
1.879,4.175,93.528,0.0,0.0,0.418,0.0,2457.600,372440.600,2668908.800,0.0,0.0,0.0,1966.200
2.088,4.175,93.319,0.0,0.0,0.418,0.0,819.200,379673.0,2721678.200,0.0,0.0,0.0,2006.800
2.083,4.167,93.542,0.0,0.0,0.208,0.0,2457.600,366384.0,2645796.200,0.0,0.0,0.0,1956.400
2.301,3.975,93.305,0.209,0.0,0.209,0.0,15564.800,375633.0,2691160.400,0.0,0.0,0.0,2023.600
2.905,3.527,93.361,0.0,0.0,0.207,0.0,819.200,365868.400,2638155.600,0.0,0.0,0.0,1944.600
2.292,3.125,93.958,0.0,0.0,0.625,0.0,1638.400,363982.200,2606777.400,0.0,0.0,0.0,2099.600
1.677,4.193,94.130,0.0,0.0,0.0,0.0,1638.400,360441.800,2581515.800,0.0,0.0,0.0,2054.200
2.075,4.564,93.154,0.0,0.0,0.207,0.0,819.200,362110.800,2615847.400,0.0,0.0,0.0,2144.200
1.684,4.421,93.684,0.0,0.0,0.211,0.0,2457.600,380406.800,2725718.800,0.0,0.0,0.0,2170.0
2.306,3.354,93.711,0.629,0.0,0.0,0.0,21299.200,372062.400,2666312.800,0.0,0.0,0.0,2038.600
0.200,0.200,99.599,0.0,0.0,0.0,0.0,819.200,3292.600,1117.200,0.0,0.0,0.0,72.200
