"Dstat 0.7.2 CSV output"
"Author:","Dag Wieers <dag@wieers.com>",,,,"URL:","http://dag.wieers.com/home-made/dstat/"
"Host:","Server2",,,,"User:","mstevan"
"Cmdline:","dstat --output /home/mstevan/logs/experiment_3.2/dstat/vs_64-vcpr_16-wtpm_8-rep_2.csv 5 16",,,,"Date:","28 Oct 2019 07:06:18 UTC"

"total cpu usage",,,,,,"dsk/total",,"net/total",,"paging",,"system",
"usr","sys","idl","wai","hiq","siq","read","writ","recv","send","in","out","int","csw"
1.292,2.498,95.408,0.506,0.0,0.295,9982.351,1530764.463,0.0,0.0,0.0,0.0,0.126,812.424
0.402,0.201,99.396,0.0,0.0,0.0,0.0,1638.400,10183.200,8999.400,0.0,0.0,0.0,113.200
1.879,3.340,94.363,0.0,0.0,0.418,0.0,819.200,355266.0,680472.0,0.0,0.0,0.0,1986.0
2.075,4.149,93.361,0.0,0.0,0.415,0.0,1638.400,344519.400,654418.600,0.0,0.0,0.0,1975.400
1.684,3.579,94.526,0.0,0.0,0.211,0.0,3276.800,360411.800,685377.0,0.0,0.0,0.0,1983.600
1.856,4.330,93.402,0.0,0.0,0.412,0.0,819.200,352754.0,675023.600,0.0,0.0,0.0,1802.600
1.895,3.368,93.053,1.263,0.0,0.421,0.0,18841.600,359113.200,683041.800,0.0,0.0,0.0,1914.600
1.461,4.175,94.154,0.0,0.0,0.209,0.0,6553.600,367754.400,699090.800,0.0,0.0,0.0,1905.800
1.875,3.958,93.750,0.0,0.0,0.417,0.0,819.200,361851.800,692979.400,0.0,0.0,0.0,1939.0
1.458,3.750,94.792,0.0,0.0,0.0,0.0,1638.400,354282.400,673584.800,0.0,0.0,0.0,1760.600
1.691,3.171,94.715,0.0,0.0,0.423,0.0,1638.400,367408.600,698555.0,0.0,0.0,0.0,2000.800
1.871,3.534,94.387,0.0,0.0,0.208,0.0,819.200,362165.800,694088.400,0.0,0.0,0.0,1768.0
1.695,2.966,94.703,0.424,0.0,0.212,0.0,16384.0,366640.200,696920.600,0.0,0.0,0.0,1821.0
1.458,3.958,94.167,0.0,0.0,0.417,0.0,1638.400,365224.600,699321.800,0.0,0.0,0.0,1867.400
1.253,4.593,93.528,0.0,0.0,0.626,0.0,2457.600,371105.800,705846.0,0.0,0.0,0.0,1985.200
2.083,3.750,93.750,0.0,0.0,0.417,0.0,1638.400,364109.0,692651.400,0.0,0.0,0.0,1858.800
0.406,0.203,99.391,0.0,0.0,0.0,0.0,819.200,40179.0,72296.800,0.0,0.0,0.0,474.0
