"Dstat 0.7.2 CSV output"
"Author:","Dag Wieers <dag@wieers.com>",,,,"URL:","http://dag.wieers.com/home-made/dstat/"
"Host:","Server2",,,,"User:","mstevan"
"Cmdline:","dstat --output /home/mstevan/logs/experiment_3.2/dstat/vs_64-vcpr_4-wtpm_32-rep_1.csv 5 16",,,,"Date:","28 Oct 2019 06:36:27 UTC"

"total cpu usage",,,,,,"dsk/total",,"net/total",,"paging",,"system",
"usr","sys","idl","wai","hiq","siq","read","writ","recv","send","in","out","int","csw"
1.214,2.355,95.617,0.530,0.0,0.284,10547.983,1632446.035,0.0,0.0,0.0,0.0,0.135,661.626
0.601,0.0,99.399,0.0,0.0,0.0,0.0,1638.400,10010.600,7481.400,0.0,0.0,0.0,127.600
2.532,4.852,92.194,0.0,0.0,0.422,0.0,819.200,396870.400,760276.0,0.0,0.0,0.0,3875.800
2.331,6.780,90.466,0.0,0.0,0.424,0.0,1638.400,451858.400,861939.400,0.0,0.0,0.0,4596.800
3.119,6.653,89.189,0.624,0.0,0.416,0.0,20480.0,458020.400,873463.800,0.0,0.0,0.0,4439.200
2.947,5.895,90.526,0.0,0.0,0.632,0.0,819.200,451820.800,866500.600,0.0,0.0,0.0,4183.0
2.537,6.342,90.486,0.0,0.0,0.634,0.0,1638.400,457458.400,872136.200,0.0,0.0,0.0,4495.200
2.296,6.263,90.814,0.0,0.0,0.626,0.0,3276.800,450282.800,859168.600,0.0,0.0,0.0,3863.800
2.532,6.329,90.717,0.0,0.0,0.422,0.0,819.200,458649.200,879408.0,0.0,0.0,0.0,4337.600
2.686,6.818,90.083,0.0,0.0,0.413,0.0,1638.400,447259.400,853077.200,0.0,0.0,0.0,3989.400
1.899,4.641,93.460,0.0,0.0,0.0,0.0,819.200,445610.200,854815.200,0.0,0.0,0.0,3654.0
2.923,6.889,87.474,2.296,0.0,0.418,0.0,18841.600,451146.600,860132.600,0.0,0.0,0.0,4262.0
2.960,6.342,90.275,0.0,0.0,0.423,0.0,819.200,447434.200,853521.0,0.0,0.0,0.0,4424.800
2.132,5.757,91.471,0.0,0.0,0.640,0.0,1638.400,440751.400,845111.0,0.0,0.0,0.0,4358.0
3.766,6.485,89.540,0.0,0.0,0.209,0.0,3276.800,448520.600,855658.800,0.0,0.0,0.0,4486.200
1.695,6.144,91.525,0.0,0.0,0.636,0.0,819.200,442586.200,848239.200,0.0,0.0,0.0,4494.600
0.600,0.0,99.400,0.0,0.0,0.0,0.0,1638.400,6214.0,1798.0,0.0,0.0,0.0,68.400
