"Dstat 0.7.2 CSV output"
"Author:","Dag Wieers <dag@wieers.com>",,,,"URL:","http://dag.wieers.com/home-made/dstat/"
"Host:","Server2",,,,"User:","mstevan"
"Cmdline:","dstat --output /home/mstevan/logs/experiment_3.2/dstat/vs_64-vcpr_32-wtpm_64-rep_3.csv 5 16",,,,"Date:","28 Oct 2019 07:36:08 UTC"

"total cpu usage",,,,,,"dsk/total",,"net/total",,"paging",,"system",
"usr","sys","idl","wai","hiq","siq","read","writ","recv","send","in","out","int","csw"
1.355,2.658,95.194,0.483,0.0,0.310,9395.481,1441033.280,0.0,0.0,0.0,0.0,0.119,919.953
0.0,0.202,99.194,0.605,0.0,0.0,0.0,22937.600,12970.800,10762.0,0.0,0.0,0.0,151.400
3.412,8.529,87.207,0.0,0.0,0.853,0.0,1638.400,859553.400,1645257.400,0.0,0.0,0.0,3845.0
2.766,8.298,87.234,0.0,0.0,1.702,0.0,819.200,928745.800,1788178.800,0.0,0.0,0.0,3819.600
4.069,8.565,86.724,0.0,0.0,0.642,0.0,3276.800,900790.0,1727389.200,0.0,0.0,0.0,3906.200
3.838,6.610,88.273,0.0,0.0,1.279,0.0,819.200,850526.200,1634909.800,0.0,0.0,0.0,3887.800
3.846,8.120,86.966,0.0,0.0,1.068,0.0,1638.400,914306.200,1754874.400,0.0,0.0,0.0,3939.200
4.237,8.475,85.805,0.212,0.0,1.271,0.0,17203.200,923372.800,1770774.800,0.0,0.0,0.0,3755.200
2.966,9.322,86.864,0.0,0.0,0.847,0.0,819.200,928771.600,1787547.400,0.0,0.0,0.0,3941.800
3.656,7.957,87.097,0.0,0.0,1.290,0.0,1638.400,959210.200,1840742.600,0.0,0.0,0.0,3787.400
3.368,10.947,84.842,0.0,0.0,0.842,0.0,1638.400,915986.0,1755959.0,0.0,0.0,0.0,3680.800
3.376,8.861,87.131,0.0,0.0,0.633,0.0,819.200,907545.800,1746338.800,0.0,0.0,0.0,3518.600
2.826,8.043,87.826,0.0,0.0,1.304,0.0,1638.400,903292.0,1732748.400,0.0,0.0,0.200,3682.600
2.991,8.333,87.821,0.0,0.0,0.855,0.0,819.200,904586.200,1739820.0,0.0,0.0,0.0,3719.0
4.883,8.493,85.350,0.425,0.0,0.849,0.0,16384.0,913564.800,1753048.0,0.0,0.0,0.0,3667.800
2.559,9.382,87.207,0.0,0.0,0.853,0.0,2457.600,874093.800,1675441.400,0.0,0.0,0.0,3695.0
0.808,1.010,97.980,0.0,0.0,0.202,0.0,819.200,102345.600,191194.200,0.0,0.0,0.0,768.600
