"Dstat 0.7.2 CSV output"
"Author:","Dag Wieers <dag@wieers.com>",,,,"URL:","http://dag.wieers.com/home-made/dstat/"
"Host:","Server2",,,,"User:","mstevan"
"Cmdline:","dstat --output /home/mstevan/logs/experiment_3.2/dstat/vs_64-vcpr_4-wtpm_64-rep_2.csv 5 16",,,,"Date:","28 Oct 2019 06:43:34 UTC"

"total cpu usage",,,,,,"dsk/total",,"net/total",,"paging",,"system",
"usr","sys","idl","wai","hiq","siq","read","writ","recv","send","in","out","int","csw"
1.231,2.393,95.567,0.523,0.0,0.286,10383.288,1607027.502,0.0,0.0,0.0,0.0,0.132,705.446
0.602,0.201,99.197,0.0,0.0,0.0,0.0,1638.400,12416.200,9951.800,0.0,0.0,0.0,150.200
42.0,11.250,41.0,2.500,0.0,3.250,36044.800,819.200,324199.400,612822.0,0.0,0.0,0.0,2393.0
65.333,7.200,0.0,24.267,0.0,3.200,469401.600,1638.400,310820.600,583748.400,0.0,0.0,0.0,1817.0
30.733,8.983,57.920,0.236,0.0,2.128,28672.0,2457.600,379116.800,719810.800,0.0,0.0,0.0,3146.800
2.553,5.319,90.213,1.064,0.0,0.851,0.0,32768.0,458410.0,869763.0,0.0,0.0,0.0,4584.0
3.313,7.039,88.613,0.0,0.0,1.035,0.0,1638.400,460565.0,876846.600,0.0,0.0,0.0,4217.400
2.697,7.054,89.627,0.0,0.0,0.622,0.0,2457.600,450030.600,861527.600,0.0,0.0,0.0,4366.400
2.331,5.932,90.890,0.0,0.0,0.847,0.0,3276.800,455315.600,867269.600,0.0,0.0,0.0,4362.800
2.972,5.945,91.083,0.0,0.0,0.0,0.0,1638.400,457198.600,868375.400,0.0,0.0,0.0,4415.200
2.979,5.532,90.638,0.0,0.0,0.851,0.0,819.200,466578.400,894533.0,0.0,0.0,0.0,4650.0
2.586,4.957,91.379,0.431,0.0,0.647,0.0,15564.800,466018.400,887482.200,0.0,0.0,0.0,4641.0
2.941,5.672,90.546,0.0,0.0,0.840,0.0,1638.400,461444.600,879180.400,0.0,0.0,0.0,4598.200
2.923,6.681,90.188,0.0,0.0,0.209,0.0,819.200,458794.600,877232.800,0.0,0.0,0.0,4401.600
2.929,5.649,90.167,0.0,0.0,1.255,0.0,2457.600,459898.0,875634.400,0.0,0.0,0.0,4524.400
2.316,6.316,90.526,0.0,0.0,0.842,0.0,1638.400,454481.400,867300.800,0.0,0.0,0.0,4698.0
0.802,0.200,98.998,0.0,0.0,0.0,0.0,1638.400,6665.0,2268.800,0.0,0.0,0.0,81.800
