"Dstat 0.7.2 CSV output"
"Author:","Dag Wieers <dag@wieers.com>",,,,"URL:","http://dag.wieers.com/home-made/dstat/"
"Host:","Server2",,,,"User:","mstevan"
"Cmdline:","dstat --output /home/mstevan/logs/experiment_3.2/dstat/vs_64-vcpr_8-wtpm_64-rep_1.csv 5 16",,,,"Date:","28 Oct 2019 06:59:11 UTC"

"total cpu usage",,,,,,"dsk/total",,"net/total",,"paging",,"system",
"usr","sys","idl","wai","hiq","siq","read","writ","recv","send","in","out","int","csw"
1.278,2.462,95.457,0.513,0.0,0.291,10133.041,1553806.523,0.0,0.0,0.0,0.0,0.128,775.743
0.401,0.200,99.399,0.0,0.0,0.0,0.0,819.200,10089.400,10435.200,0.0,0.0,0.0,147.200
2.495,7.069,89.397,0.0,0.0,1.040,0.0,1638.400,540439.200,1028663.200,0.0,0.0,0.0,4105.400
3.368,6.105,89.684,0.0,0.0,0.842,0.0,1638.400,576174.0,1099553.200,0.0,0.0,0.0,4290.0
3.138,6.485,89.958,0.0,0.0,0.418,0.0,2457.600,572879.400,1099134.800,0.0,0.0,0.0,4204.800
2.345,5.970,90.618,0.0,0.0,1.066,0.0,1638.400,582752.800,1112606.800,0.0,0.0,0.0,4284.0
3.368,6.737,89.053,0.421,0.0,0.421,0.0,18841.600,595647.400,1138364.600,0.0,0.0,0.0,4526.600
2.316,6.526,90.526,0.0,0.0,0.632,0.0,6553.600,583977.0,1120892.800,0.0,0.0,0.0,4292.400
2.505,7.516,89.353,0.0,0.0,0.626,0.0,1638.400,593235.400,1134404.200,0.0,0.0,0.0,4400.800
2.935,6.709,89.727,0.0,0.0,0.629,0.0,819.200,576337.200,1106230.400,0.0,0.0,0.0,4137.400
2.754,5.297,90.890,0.0,0.0,1.059,0.0,1638.400,591839.200,1130521.200,0.0,0.0,0.0,3980.0
2.731,6.933,89.496,0.0,0.0,0.840,0.0,1638.400,587916.800,1124175.800,0.0,0.0,0.0,4227.400
2.553,6.383,90.638,0.0,0.0,0.426,0.0,819.200,589381.600,1130330.800,0.0,0.0,0.0,4453.0
2.954,5.696,89.241,0.844,0.0,1.266,0.0,15564.800,590495.800,1128561.400,0.0,0.0,0.0,4454.800
3.586,6.118,89.873,0.0,0.0,0.422,0.0,3276.800,595435.600,1139001.200,0.0,0.0,0.0,4512.400
1.903,6.554,90.275,0.0,0.0,1.268,0.0,819.200,585990.800,1122765.400,0.0,0.0,0.0,4316.0
0.600,0.0,99.400,0.0,0.0,0.0,0.0,1638.400,6214.0,1798.0,0.0,0.0,0.0,66.800
