"Dstat 0.7.2 CSV output"
"Author:","Dag Wieers <dag@wieers.com>",,,,"URL:","http://dag.wieers.com/home-made/dstat/"
"Host:","Server2",,,,"User:","mstevan"
"Cmdline:","dstat --output /home/mstevan/logs/experiment_3.2/dstat/vs_64-vcpr_16-wtpm_64-rep_2.csv 5 16",,,,"Date:","28 Oct 2019 07:17:40 UTC"

"total cpu usage",,,,,,"dsk/total",,"net/total",,"paging",,"system",
"usr","sys","idl","wai","hiq","siq","read","writ","recv","send","in","out","int","csw"
1.316,2.557,95.330,0.498,0.0,0.300,9750.333,1495293.901,0.0,0.0,0.0,0.0,0.123,852.964
0.602,0.201,99.197,0.0,0.0,0.0,0.0,1638.400,10998.800,7154.400,0.0,0.0,0.0,128.0
2.096,7.966,89.099,0.0,0.0,0.839,0.0,819.200,700039.0,1339962.400,0.0,0.0,0.0,3907.600
3.191,6.596,89.149,0.0,0.0,1.064,0.0,1638.400,754350.400,1444507.600,0.0,0.0,0.0,4079.800
3.774,8.386,87.002,0.419,0.0,0.419,0.0,27852.800,757177.400,1450456.800,0.0,0.0,0.0,3955.0
2.296,7.516,89.562,0.0,0.0,0.626,0.0,819.200,723440.400,1390709.0,0.0,0.0,0.0,3553.400
3.205,6.838,89.103,0.0,0.0,0.855,0.0,1638.400,744808.200,1425990.0,0.0,0.0,0.0,3531.800
2.714,7.933,88.309,0.0,0.0,1.044,0.0,2457.600,755005.600,1452044.800,0.0,0.0,0.0,3869.600
3.205,6.838,88.889,0.0,0.0,1.068,0.0,1638.400,753261.800,1442752.200,0.0,0.0,0.0,3693.0
3.412,6.823,88.486,0.0,0.0,1.279,0.0,1638.400,781191.200,1496334.0,0.0,0.0,0.0,3882.400
2.155,6.897,89.871,0.216,0.0,0.862,0.0,14745.600,800312.800,1539129.0,0.0,0.0,0.0,4195.800
3.361,8.403,87.185,0.0,0.0,1.050,0.0,1638.400,763692.800,1462555.400,0.0,0.0,0.0,3914.400
2.935,8.595,87.631,0.0,0.0,0.839,0.0,1638.400,774914.600,1484839.400,0.0,0.0,0.0,3871.600
2.737,8.211,87.789,0.0,0.0,1.263,0.0,819.200,775311.200,1492184.400,0.0,0.0,0.0,4167.200
3.240,6.479,88.769,0.0,0.0,1.512,0.0,2457.600,793034.600,1519417.600,0.0,0.0,0.0,3889.400
2.766,7.660,88.723,0.0,0.0,0.851,0.0,1638.400,777110.200,1491264.800,0.0,0.0,0.0,3775.800
0.611,1.629,97.556,0.204,0.0,0.0,0.0,14745.600,67764.800,120820.800,0.0,0.0,0.0,806.800
