"Dstat 0.7.2 CSV output"
"Author:","Dag Wieers <dag@wieers.com>",,,,"URL:","http://dag.wieers.com/home-made/dstat/"
"Host:","Server2",,,,"User:","mstevan"
"Cmdline:","dstat --output /home/mstevan/logs/experiment_3.2/dstat/vs_64-vcpr_4-wtpm_64-rep_1.csv 5 16",,,,"Date:","28 Oct 2019 06:42:08 UTC"

"total cpu usage",,,,,,"dsk/total",,"net/total",,"paging",,"system",
"usr","sys","idl","wai","hiq","siq","read","writ","recv","send","in","out","int","csw"
1.227,2.386,95.577,0.525,0.0,0.285,10415.813,1612047.330,0.0,0.0,0.0,0.0,0.133,696.769
0.201,0.201,99.598,0.0,0.0,0.0,0.0,1638.400,12392.600,9563.400,0.0,0.0,0.0,150.0
2.500,5.208,91.667,0.0,0.0,0.625,0.0,1638.400,399589.0,760398.200,0.0,0.0,0.0,3765.800
2.505,5.846,91.441,0.0,0.0,0.209,0.0,1638.400,453870.200,864572.800,0.0,0.0,0.0,4056.800
2.316,5.053,91.789,0.421,0.0,0.421,0.0,19660.800,439864.200,836465.800,0.0,0.0,0.0,3742.600
1.915,5.319,91.915,0.0,0.0,0.851,0.0,819.200,452820.600,866614.800,0.0,0.0,0.0,4321.0
3.171,5.497,90.698,0.0,0.0,0.634,0.0,1638.400,449080.600,854827.200,0.0,0.0,0.0,4416.0
3.233,4.095,92.241,0.0,0.0,0.431,0.0,3276.800,449769.400,856328.400,0.0,0.0,0.0,4464.200
2.110,6.540,90.928,0.0,0.0,0.422,0.0,819.200,448794.400,856899.400,0.0,0.0,0.0,4310.200
2.954,5.274,90.506,0.0,0.0,1.266,0.0,1638.400,446139.0,847724.400,0.0,0.0,0.0,4176.400
2.923,5.219,91.232,0.209,0.0,0.418,0.0,18841.600,444711.600,851921.200,0.0,0.0,0.0,3757.800
2.972,5.308,90.870,0.0,0.0,0.849,0.0,1638.400,446182.0,850002.600,0.0,0.0,0.0,4360.400
2.526,6.316,90.316,0.0,0.0,0.842,0.0,1638.400,453023.0,861511.800,0.0,0.0,0.0,4372.400
2.306,7.128,90.147,0.0,0.0,0.419,0.0,819.200,454114.400,870387.600,0.0,0.0,0.0,4488.600
2.743,6.329,90.084,0.0,0.0,0.844,0.0,3276.800,449792.200,854858.400,0.0,0.0,0.0,4591.0
3.119,5.821,90.229,0.0,0.0,0.832,0.0,1638.400,433679.400,821659.0,0.0,0.0,0.0,4135.200
0.401,0.0,98.998,0.601,0.0,0.0,0.0,14745.600,3211.400,1076.800,0.0,0.0,0.0,58.0
