------------Middleware started!------------
LOG: Waiting for connection in MyMiddleware.run()
LOG: Accepted client: /10.0.0.11:51542in MyMiddleware.run()
LOG: Accepted client: /10.0.0.11:51544in MyMiddleware.run()
LOG: Accepted client: /10.0.0.11:51546in MyMiddleware.run()
LOG: Accepted client: /10.0.0.11:51548in MyMiddleware.run()
LOG: Accepted client: /10.0.0.6:34282in MyMiddleware.run()
LOG: Accepted client: /10.0.0.6:34286in MyMiddleware.run()
LOG: Accepted client: /10.0.0.6:34284in MyMiddleware.run()
LOG: Accepted client: /10.0.0.6:34280in MyMiddleware.run()
LOG: Accepted client: /10.0.0.7:52332in MyMiddleware.run()
LOG: Accepted client: /10.0.0.7:52330in MyMiddleware.run()
LOG: Accepted client: /10.0.0.7:52336in MyMiddleware.run()
LOG: Accepted client: /10.0.0.7:52334in MyMiddleware.run()
LOG: Closed client: /10.0.0.11:51548in MyMiddleware.run()
LOG: Closed client: /10.0.0.11:51546in MyMiddleware.run()
LOG: Closed client: /10.0.0.11:51542in MyMiddleware.run()
LOG: Closed client: /10.0.0.11:51544in MyMiddleware.run()
LOG: Closed client: /10.0.0.6:34284in MyMiddleware.run()
LOG: Closed client: /10.0.0.6:34282in MyMiddleware.run()
LOG: Closed client: /10.0.0.6:34280in MyMiddleware.run()
LOG: Closed client: /10.0.0.6:34286in MyMiddleware.run()
LOG: Closed client: /10.0.0.7:52336in MyMiddleware.run()
LOG: Closed client: /10.0.0.7:52332in MyMiddleware.run()
LOG: Closed client: /10.0.0.7:52334in MyMiddleware.run()
LOG: Closed client: /10.0.0.7:52330in MyMiddleware.run()
