------------Middleware started!------------
LOG: Waiting for connection in MyMiddleware.run()
LOG: Accepted client: /10.0.0.11:37858in MyMiddleware.run()
LOG: Accepted client: /10.0.0.11:37860in MyMiddleware.run()
LOG: Accepted client: /10.0.0.11:37856in MyMiddleware.run()
LOG: Accepted client: /10.0.0.11:37862in MyMiddleware.run()
LOG: Accepted client: /10.0.0.7:38650in MyMiddleware.run()
LOG: Accepted client: /10.0.0.7:38648in MyMiddleware.run()
LOG: Accepted client: /10.0.0.7:38642in MyMiddleware.run()
LOG: Accepted client: /10.0.0.7:38638in MyMiddleware.run()
LOG: Accepted client: /10.0.0.6:48800in MyMiddleware.run()
LOG: Accepted client: /10.0.0.6:48802in MyMiddleware.run()
LOG: Accepted client: /10.0.0.6:48804in MyMiddleware.run()
LOG: Accepted client: /10.0.0.6:48806in MyMiddleware.run()
LOG: Closed client: /10.0.0.7:38648in MyMiddleware.run()
LOG: Closed client: /10.0.0.7:38638in MyMiddleware.run()
LOG: Closed client: /10.0.0.7:38642in MyMiddleware.run()
LOG: Closed client: /10.0.0.7:38650in MyMiddleware.run()
LOG: Closed client: /10.0.0.6:48804in MyMiddleware.run()
LOG: Closed client: /10.0.0.6:48800in MyMiddleware.run()
LOG: Closed client: /10.0.0.6:48806in MyMiddleware.run()
LOG: Closed client: /10.0.0.6:48802in MyMiddleware.run()
LOG: Closed client: /10.0.0.11:37862in MyMiddleware.run()
LOG: Closed client: /10.0.0.11:37856in MyMiddleware.run()
LOG: Closed client: /10.0.0.11:37858in MyMiddleware.run()
LOG: Closed client: /10.0.0.11:37860in MyMiddleware.run()
