------------Middleware started!------------
LOG: Waiting for connection in MyMiddleware.run()
LOG: Accepted client: /10.0.0.6:50264in MyMiddleware.run()
LOG: Accepted client: /10.0.0.6:50270in MyMiddleware.run()
LOG: Accepted client: /10.0.0.6:50266in MyMiddleware.run()
LOG: Accepted client: /10.0.0.6:50268in MyMiddleware.run()
LOG: Accepted client: /10.0.0.7:40066in MyMiddleware.run()
LOG: Accepted client: /10.0.0.7:40070in MyMiddleware.run()
LOG: Accepted client: /10.0.0.7:40068in MyMiddleware.run()
LOG: Accepted client: /10.0.0.7:40072in MyMiddleware.run()
LOG: Accepted client: /10.0.0.11:39312in MyMiddleware.run()
LOG: Accepted client: /10.0.0.11:39310in MyMiddleware.run()
LOG: Accepted client: /10.0.0.11:39314in MyMiddleware.run()
LOG: Accepted client: /10.0.0.11:39316in MyMiddleware.run()
LOG: Closed client: /10.0.0.6:50266in MyMiddleware.run()
LOG: Closed client: /10.0.0.6:50270in MyMiddleware.run()
LOG: Closed client: /10.0.0.6:50268in MyMiddleware.run()
LOG: Closed client: /10.0.0.6:50264in MyMiddleware.run()
LOG: Closed client: /10.0.0.11:39314in MyMiddleware.run()
LOG: Closed client: /10.0.0.11:39310in MyMiddleware.run()
LOG: Closed client: /10.0.0.11:39312in MyMiddleware.run()
LOG: Closed client: /10.0.0.11:39316in MyMiddleware.run()
LOG: Closed client: /10.0.0.7:40066in MyMiddleware.run()
LOG: Closed client: /10.0.0.7:40070in MyMiddleware.run()
LOG: Closed client: /10.0.0.7:40068in MyMiddleware.run()
LOG: Closed client: /10.0.0.7:40072in MyMiddleware.run()
