------------Middleware started!------------
LOG: Waiting for connection in MyMiddleware.run()
LOG: Accepted client: /10.0.0.6:38424in MyMiddleware.run()
LOG: Accepted client: /10.0.0.6:38412in MyMiddleware.run()
LOG: Accepted client: /10.0.0.6:38432in MyMiddleware.run()
LOG: Accepted client: /10.0.0.6:38428in MyMiddleware.run()
LOG: Accepted client: /10.0.0.6:38436in MyMiddleware.run()
LOG: Accepted client: /10.0.0.6:38420in MyMiddleware.run()
LOG: Accepted client: /10.0.0.6:38408in MyMiddleware.run()
LOG: Accepted client: /10.0.0.6:38416in MyMiddleware.run()
LOG: Accepted client: /10.0.0.11:55708in MyMiddleware.run()
LOG: Accepted client: /10.0.0.11:55712in MyMiddleware.run()
LOG: Accepted client: /10.0.0.11:55710in MyMiddleware.run()
LOG: Accepted client: /10.0.0.11:55700in MyMiddleware.run()
LOG: Accepted client: /10.0.0.11:55702in MyMiddleware.run()
LOG: Accepted client: /10.0.0.11:55706in MyMiddleware.run()
LOG: Accepted client: /10.0.0.11:55704in MyMiddleware.run()
LOG: Accepted client: /10.0.0.11:55714in MyMiddleware.run()
LOG: Accepted client: /10.0.0.7:56492in MyMiddleware.run()
LOG: Accepted client: /10.0.0.7:56494in MyMiddleware.run()
LOG: Accepted client: /10.0.0.7:56496in MyMiddleware.run()
LOG: Accepted client: /10.0.0.7:56504in MyMiddleware.run()
LOG: Accepted client: /10.0.0.7:56498in MyMiddleware.run()
LOG: Accepted client: /10.0.0.7:56500in MyMiddleware.run()
LOG: Accepted client: /10.0.0.7:56502in MyMiddleware.run()
LOG: Accepted client: /10.0.0.7:56490in MyMiddleware.run()
LOG: Closed client: /10.0.0.6:38420in MyMiddleware.run()
LOG: Closed client: /10.0.0.6:38408in MyMiddleware.run()
LOG: Closed client: /10.0.0.6:38416in MyMiddleware.run()
LOG: Closed client: /10.0.0.6:38428in MyMiddleware.run()
LOG: Closed client: /10.0.0.6:38436in MyMiddleware.run()
LOG: Closed client: /10.0.0.6:38424in MyMiddleware.run()
LOG: Closed client: /10.0.0.6:38432in MyMiddleware.run()
LOG: Closed client: /10.0.0.6:38412in MyMiddleware.run()
LOG: Closed client: /10.0.0.11:55700in MyMiddleware.run()
LOG: Closed client: /10.0.0.11:55704in MyMiddleware.run()
LOG: Closed client: /10.0.0.11:55702in MyMiddleware.run()
LOG: Closed client: /10.0.0.11:55712in MyMiddleware.run()
LOG: Closed client: /10.0.0.11:55714in MyMiddleware.run()
LOG: Closed client: /10.0.0.11:55706in MyMiddleware.run()
LOG: Closed client: /10.0.0.11:55708in MyMiddleware.run()
LOG: Closed client: /10.0.0.11:55710in MyMiddleware.run()
LOG: Closed client: /10.0.0.7:56496in MyMiddleware.run()
LOG: Closed client: /10.0.0.7:56492in MyMiddleware.run()
LOG: Closed client: /10.0.0.7:56498in MyMiddleware.run()
LOG: Closed client: /10.0.0.7:56490in MyMiddleware.run()
LOG: Closed client: /10.0.0.7:56502in MyMiddleware.run()
LOG: Closed client: /10.0.0.7:56500in MyMiddleware.run()
LOG: Closed client: /10.0.0.7:56494in MyMiddleware.run()
LOG: Closed client: /10.0.0.7:56504in MyMiddleware.run()
