------------Middleware started!------------
LOG: Waiting for connection in MyMiddleware.run()
LOG: Accepted client: /10.0.0.7:39064in MyMiddleware.run()
LOG: Accepted client: /10.0.0.7:39066in MyMiddleware.run()
LOG: Accepted client: /10.0.0.7:39070in MyMiddleware.run()
LOG: Accepted client: /10.0.0.7:39068in MyMiddleware.run()
LOG: Accepted client: /10.0.0.11:38312in MyMiddleware.run()
LOG: Accepted client: /10.0.0.11:38306in MyMiddleware.run()
LOG: Accepted client: /10.0.0.6:49274in MyMiddleware.run()
LOG: Accepted client: /10.0.0.6:49276in MyMiddleware.run()
LOG: Accepted client: /10.0.0.6:49272in MyMiddleware.run()
LOG: Accepted client: /10.0.0.6:49270in MyMiddleware.run()
LOG: Accepted client: /10.0.0.11:38310in MyMiddleware.run()
LOG: Accepted client: /10.0.0.11:38308in MyMiddleware.run()
LOG: Closed client: /10.0.0.7:39068in MyMiddleware.run()
LOG: Closed client: /10.0.0.7:39064in MyMiddleware.run()
LOG: Closed client: /10.0.0.7:39070in MyMiddleware.run()
LOG: Closed client: /10.0.0.7:39066in MyMiddleware.run()
LOG: Closed client: /10.0.0.11:38306in MyMiddleware.run()
LOG: Closed client: /10.0.0.11:38310in MyMiddleware.run()
LOG: Closed client: /10.0.0.11:38308in MyMiddleware.run()
LOG: Closed client: /10.0.0.11:38312in MyMiddleware.run()
LOG: Closed client: /10.0.0.6:49270in MyMiddleware.run()
LOG: Closed client: /10.0.0.6:49276in MyMiddleware.run()
LOG: Closed client: /10.0.0.6:49272in MyMiddleware.run()
LOG: Closed client: /10.0.0.6:49274in MyMiddleware.run()
