------------Middleware started!------------
LOG: Waiting for connection in MyMiddleware.run()
LOG: Accepted client: /10.0.0.11:48870in MyMiddleware.run()
LOG: Accepted client: /10.0.0.11:48914in MyMiddleware.run()
LOG: Accepted client: /10.0.0.11:48892in MyMiddleware.run()
LOG: Accepted client: /10.0.0.11:48916in MyMiddleware.run()
LOG: Accepted client: /10.0.0.11:48878in MyMiddleware.run()
LOG: Accepted client: /10.0.0.11:48902in MyMiddleware.run()
LOG: Accepted client: /10.0.0.11:48882in MyMiddleware.run()
LOG: Accepted client: /10.0.0.11:48926in MyMiddleware.run()
LOG: Accepted client: /10.0.0.11:48912in MyMiddleware.run()
LOG: Accepted client: /10.0.0.11:48928in MyMiddleware.run()
LOG: Accepted client: /10.0.0.11:48896in MyMiddleware.run()
LOG: Accepted client: /10.0.0.11:48880in MyMiddleware.run()
LOG: Accepted client: /10.0.0.11:48884in MyMiddleware.run()
LOG: Accepted client: /10.0.0.11:48898in MyMiddleware.run()
LOG: Accepted client: /10.0.0.11:48900in MyMiddleware.run()
LOG: Accepted client: /10.0.0.11:48868in MyMiddleware.run()
LOG: Accepted client: /10.0.0.11:48888in MyMiddleware.run()
LOG: Accepted client: /10.0.0.11:48906in MyMiddleware.run()
LOG: Accepted client: /10.0.0.11:48894in MyMiddleware.run()
LOG: Accepted client: /10.0.0.11:48876in MyMiddleware.run()
LOG: Accepted client: /10.0.0.11:48872in MyMiddleware.run()
LOG: Accepted client: /10.0.0.11:48886in MyMiddleware.run()
LOG: Accepted client: /10.0.0.11:48908in MyMiddleware.run()
LOG: Accepted client: /10.0.0.11:48890in MyMiddleware.run()
LOG: Accepted client: /10.0.0.11:48874in MyMiddleware.run()
LOG: Accepted client: /10.0.0.11:48910in MyMiddleware.run()
LOG: Accepted client: /10.0.0.11:48918in MyMiddleware.run()
LOG: Accepted client: /10.0.0.11:48930in MyMiddleware.run()
LOG: Accepted client: /10.0.0.11:48920in MyMiddleware.run()
LOG: Accepted client: /10.0.0.11:48924in MyMiddleware.run()
LOG: Accepted client: /10.0.0.11:48922in MyMiddleware.run()
LOG: Accepted client: /10.0.0.11:48904in MyMiddleware.run()
LOG: Accepted client: /10.0.0.6:59808in MyMiddleware.run()
LOG: Accepted client: /10.0.0.6:59812in MyMiddleware.run()
LOG: Accepted client: /10.0.0.6:59794in MyMiddleware.run()
LOG: Accepted client: /10.0.0.6:59804in MyMiddleware.run()
LOG: Accepted client: /10.0.0.6:59792in MyMiddleware.run()
LOG: Accepted client: /10.0.0.6:59826in MyMiddleware.run()
LOG: Accepted client: /10.0.0.6:59806in MyMiddleware.run()
LOG: Accepted client: /10.0.0.6:59814in MyMiddleware.run()
LOG: Accepted client: /10.0.0.6:59880in MyMiddleware.run()
LOG: Accepted client: /10.0.0.6:59858in MyMiddleware.run()
LOG: Accepted client: /10.0.0.6:59868in MyMiddleware.run()
LOG: Accepted client: /10.0.0.6:59816in MyMiddleware.run()
LOG: Accepted client: /10.0.0.6:59844in MyMiddleware.run()
LOG: Accepted client: /10.0.0.6:59850in MyMiddleware.run()
LOG: Accepted client: /10.0.0.6:59836in MyMiddleware.run()
LOG: Accepted client: /10.0.0.6:59864in MyMiddleware.run()
LOG: Accepted client: /10.0.0.6:59862in MyMiddleware.run()
LOG: Accepted client: /10.0.0.6:59876in MyMiddleware.run()
LOG: Accepted client: /10.0.0.6:59810in MyMiddleware.run()
LOG: Accepted client: /10.0.0.6:59822in MyMiddleware.run()
LOG: Accepted client: /10.0.0.6:59818in MyMiddleware.run()
LOG: Accepted client: /10.0.0.7:49688in MyMiddleware.run()
LOG: Accepted client: /10.0.0.7:49690in MyMiddleware.run()
LOG: Accepted client: /10.0.0.7:49722in MyMiddleware.run()
LOG: Accepted client: /10.0.0.7:49710in MyMiddleware.run()
LOG: Accepted client: /10.0.0.6:59790in MyMiddleware.run()
LOG: Accepted client: /10.0.0.7:49686in MyMiddleware.run()
LOG: Accepted client: /10.0.0.7:49716in MyMiddleware.run()
LOG: Accepted client: /10.0.0.7:49728in MyMiddleware.run()
LOG: Accepted client: /10.0.0.7:49718in MyMiddleware.run()
LOG: Accepted client: /10.0.0.7:49742in MyMiddleware.run()
LOG: Accepted client: /10.0.0.7:49740in MyMiddleware.run()
LOG: Accepted client: /10.0.0.7:49720in MyMiddleware.run()
LOG: Accepted client: /10.0.0.7:49684in MyMiddleware.run()
LOG: Accepted client: /10.0.0.7:49700in MyMiddleware.run()
LOG: Accepted client: /10.0.0.7:49696in MyMiddleware.run()
LOG: Accepted client: /10.0.0.7:49730in MyMiddleware.run()
LOG: Accepted client: /10.0.0.7:49708in MyMiddleware.run()
LOG: Accepted client: /10.0.0.7:49702in MyMiddleware.run()
LOG: Accepted client: /10.0.0.7:49698in MyMiddleware.run()
LOG: Accepted client: /10.0.0.6:59852in MyMiddleware.run()
LOG: Accepted client: /10.0.0.6:59802in MyMiddleware.run()
LOG: Accepted client: /10.0.0.6:59884in MyMiddleware.run()
LOG: Accepted client: /10.0.0.6:59798in MyMiddleware.run()
LOG: Accepted client: /10.0.0.6:59832in MyMiddleware.run()
LOG: Accepted client: /10.0.0.6:59796in MyMiddleware.run()
LOG: Accepted client: /10.0.0.6:59872in MyMiddleware.run()
LOG: Accepted client: /10.0.0.6:59840in MyMiddleware.run()
LOG: Accepted client: /10.0.0.6:59800in MyMiddleware.run()
LOG: Accepted client: /10.0.0.6:59830in MyMiddleware.run()
LOG: Accepted client: /10.0.0.7:49734in MyMiddleware.run()
LOG: Accepted client: /10.0.0.7:49714in MyMiddleware.run()
LOG: Accepted client: /10.0.0.7:49712in MyMiddleware.run()
LOG: Accepted client: /10.0.0.7:49694in MyMiddleware.run()
LOG: Accepted client: /10.0.0.7:49738in MyMiddleware.run()
LOG: Accepted client: /10.0.0.7:49680in MyMiddleware.run()
LOG: Accepted client: /10.0.0.7:49724in MyMiddleware.run()
LOG: Accepted client: /10.0.0.7:49736in MyMiddleware.run()
LOG: Accepted client: /10.0.0.7:49682in MyMiddleware.run()
LOG: Accepted client: /10.0.0.7:49726in MyMiddleware.run()
LOG: Accepted client: /10.0.0.7:49704in MyMiddleware.run()
LOG: Accepted client: /10.0.0.7:49692in MyMiddleware.run()
LOG: Accepted client: /10.0.0.7:49732in MyMiddleware.run()
LOG: Accepted client: /10.0.0.7:49706in MyMiddleware.run()
LOG: Closed client: /10.0.0.11:48898in MyMiddleware.run()
LOG: Closed client: /10.0.0.11:48896in MyMiddleware.run()
LOG: Closed client: /10.0.0.11:48880in MyMiddleware.run()
LOG: Closed client: /10.0.0.11:48882in MyMiddleware.run()
LOG: Closed client: /10.0.0.11:48890in MyMiddleware.run()
LOG: Closed client: /10.0.0.11:48908in MyMiddleware.run()
LOG: Closed client: /10.0.0.11:48884in MyMiddleware.run()
LOG: Closed client: /10.0.0.11:48928in MyMiddleware.run()
LOG: Closed client: /10.0.0.11:48904in MyMiddleware.run()
LOG: Closed client: /10.0.0.11:48916in MyMiddleware.run()
LOG: Closed client: /10.0.0.11:48924in MyMiddleware.run()
LOG: Closed client: /10.0.0.11:48868in MyMiddleware.run()
LOG: Closed client: /10.0.0.11:48914in MyMiddleware.run()
LOG: Closed client: /10.0.0.11:48922in MyMiddleware.run()
LOG: Closed client: /10.0.0.11:48900in MyMiddleware.run()
LOG: Closed client: /10.0.0.11:48926in MyMiddleware.run()
LOG: Closed client: /10.0.0.11:48894in MyMiddleware.run()
LOG: Closed client: /10.0.0.11:48930in MyMiddleware.run()
LOG: Closed client: /10.0.0.11:48918in MyMiddleware.run()
LOG: Closed client: /10.0.0.11:48886in MyMiddleware.run()
LOG: Closed client: /10.0.0.11:48906in MyMiddleware.run()
LOG: Closed client: /10.0.0.11:48910in MyMiddleware.run()
LOG: Closed client: /10.0.0.11:48892in MyMiddleware.run()
LOG: Closed client: /10.0.0.11:48920in MyMiddleware.run()
LOG: Closed client: /10.0.0.11:48912in MyMiddleware.run()
LOG: Closed client: /10.0.0.11:48876in MyMiddleware.run()
LOG: Closed client: /10.0.0.11:48902in MyMiddleware.run()
LOG: Closed client: /10.0.0.11:48878in MyMiddleware.run()
LOG: Closed client: /10.0.0.11:48888in MyMiddleware.run()
LOG: Closed client: /10.0.0.11:48870in MyMiddleware.run()
LOG: Closed client: /10.0.0.11:48872in MyMiddleware.run()
LOG: Closed client: /10.0.0.11:48874in MyMiddleware.run()
LOG: Closed client: /10.0.0.6:59790in MyMiddleware.run()
LOG: Closed client: /10.0.0.6:59804in MyMiddleware.run()
LOG: Closed client: /10.0.0.6:59806in MyMiddleware.run()
LOG: Closed client: /10.0.0.6:59798in MyMiddleware.run()
LOG: Closed client: /10.0.0.6:59808in MyMiddleware.run()
LOG: Closed client: /10.0.0.6:59812in MyMiddleware.run()
LOG: Closed client: /10.0.0.6:59802in MyMiddleware.run()
LOG: Closed client: /10.0.0.6:59810in MyMiddleware.run()
LOG: Closed client: /10.0.0.6:59800in MyMiddleware.run()
LOG: Closed client: /10.0.0.6:59862in MyMiddleware.run()
LOG: Closed client: /10.0.0.6:59872in MyMiddleware.run()
LOG: Closed client: /10.0.0.6:59850in MyMiddleware.run()
LOG: Closed client: /10.0.0.6:59814in MyMiddleware.run()
LOG: Closed client: /10.0.0.6:59796in MyMiddleware.run()
LOG: Closed client: /10.0.0.6:59816in MyMiddleware.run()
LOG: Closed client: /10.0.0.6:59792in MyMiddleware.run()
LOG: Closed client: /10.0.0.6:59858in MyMiddleware.run()
LOG: Closed client: /10.0.0.6:59832in MyMiddleware.run()
LOG: Closed client: /10.0.0.6:59794in MyMiddleware.run()
LOG: Closed client: /10.0.0.6:59826in MyMiddleware.run()
LOG: Closed client: /10.0.0.6:59830in MyMiddleware.run()
LOG: Closed client: /10.0.0.6:59864in MyMiddleware.run()
LOG: Closed client: /10.0.0.6:59840in MyMiddleware.run()
LOG: Closed client: /10.0.0.6:59822in MyMiddleware.run()
LOG: Closed client: /10.0.0.6:59818in MyMiddleware.run()
LOG: Closed client: /10.0.0.6:59836in MyMiddleware.run()
LOG: Closed client: /10.0.0.6:59844in MyMiddleware.run()
LOG: Closed client: /10.0.0.6:59852in MyMiddleware.run()
LOG: Closed client: /10.0.0.6:59876in MyMiddleware.run()
LOG: Closed client: /10.0.0.6:59884in MyMiddleware.run()
LOG: Closed client: /10.0.0.6:59880in MyMiddleware.run()
LOG: Closed client: /10.0.0.6:59868in MyMiddleware.run()
LOG: Closed client: /10.0.0.7:49716in MyMiddleware.run()
LOG: Closed client: /10.0.0.7:49714in MyMiddleware.run()
LOG: Closed client: /10.0.0.7:49686in MyMiddleware.run()
LOG: Closed client: /10.0.0.7:49704in MyMiddleware.run()
LOG: Closed client: /10.0.0.7:49684in MyMiddleware.run()
LOG: Closed client: /10.0.0.7:49728in MyMiddleware.run()
LOG: Closed client: /10.0.0.7:49734in MyMiddleware.run()
LOG: Closed client: /10.0.0.7:49712in MyMiddleware.run()
LOG: Closed client: /10.0.0.7:49718in MyMiddleware.run()
LOG: Closed client: /10.0.0.7:49722in MyMiddleware.run()
LOG: Closed client: /10.0.0.7:49696in MyMiddleware.run()
LOG: Closed client: /10.0.0.7:49710in MyMiddleware.run()
LOG: Closed client: /10.0.0.7:49692in MyMiddleware.run()
LOG: Closed client: /10.0.0.7:49706in MyMiddleware.run()
LOG: Closed client: /10.0.0.7:49690in MyMiddleware.run()
LOG: Closed client: /10.0.0.7:49698in MyMiddleware.run()
LOG: Closed client: /10.0.0.7:49708in MyMiddleware.run()
LOG: Closed client: /10.0.0.7:49736in MyMiddleware.run()
LOG: Closed client: /10.0.0.7:49742in MyMiddleware.run()
LOG: Closed client: /10.0.0.7:49726in MyMiddleware.run()
LOG: Closed client: /10.0.0.7:49682in MyMiddleware.run()
LOG: Closed client: /10.0.0.7:49724in MyMiddleware.run()
LOG: Closed client: /10.0.0.7:49740in MyMiddleware.run()
LOG: Closed client: /10.0.0.7:49700in MyMiddleware.run()
LOG: Closed client: /10.0.0.7:49720in MyMiddleware.run()
LOG: Closed client: /10.0.0.7:49702in MyMiddleware.run()
LOG: Closed client: /10.0.0.7:49694in MyMiddleware.run()
LOG: Closed client: /10.0.0.7:49730in MyMiddleware.run()
LOG: Closed client: /10.0.0.7:49680in MyMiddleware.run()
LOG: Closed client: /10.0.0.7:49738in MyMiddleware.run()
LOG: Closed client: /10.0.0.7:49688in MyMiddleware.run()
LOG: Closed client: /10.0.0.7:49732in MyMiddleware.run()
