------------Middleware started!------------
LOG: Waiting for connection in MyMiddleware.run()
LOG: Accepted client: /10.0.0.11:36786in MyMiddleware.run()
LOG: Accepted client: /10.0.0.11:36790in MyMiddleware.run()
LOG: Accepted client: /10.0.0.11:36792in MyMiddleware.run()
LOG: Accepted client: /10.0.0.11:36788in MyMiddleware.run()
LOG: Accepted client: /10.0.0.7:37544in MyMiddleware.run()
LOG: Accepted client: /10.0.0.7:37548in MyMiddleware.run()
LOG: Accepted client: /10.0.0.7:37550in MyMiddleware.run()
LOG: Accepted client: /10.0.0.7:37546in MyMiddleware.run()
LOG: Accepted client: /10.0.0.6:47752in MyMiddleware.run()
LOG: Accepted client: /10.0.0.6:47754in MyMiddleware.run()
LOG: Accepted client: /10.0.0.6:47750in MyMiddleware.run()
LOG: Accepted client: /10.0.0.6:47748in MyMiddleware.run()
LOG: Closed client: /10.0.0.11:36788in MyMiddleware.run()
LOG: Closed client: /10.0.0.11:36790in MyMiddleware.run()
LOG: Closed client: /10.0.0.11:36792in MyMiddleware.run()
LOG: Closed client: /10.0.0.11:36786in MyMiddleware.run()
LOG: Closed client: /10.0.0.7:37550in MyMiddleware.run()
LOG: Closed client: /10.0.0.7:37544in MyMiddleware.run()
LOG: Closed client: /10.0.0.7:37546in MyMiddleware.run()
LOG: Closed client: /10.0.0.7:37548in MyMiddleware.run()
LOG: Closed client: /10.0.0.6:47748in MyMiddleware.run()
LOG: Closed client: /10.0.0.6:47750in MyMiddleware.run()
LOG: Closed client: /10.0.0.6:47752in MyMiddleware.run()
LOG: Closed client: /10.0.0.6:47754in MyMiddleware.run()
