------------Middleware started!------------
LOG: Waiting for connection in MyMiddleware.run()
LOG: Accepted client: /10.0.0.7:33598in MyMiddleware.run()
LOG: Accepted client: /10.0.0.7:33616in MyMiddleware.run()
LOG: Accepted client: /10.0.0.7:33590in MyMiddleware.run()
LOG: Accepted client: /10.0.0.7:33588in MyMiddleware.run()
LOG: Accepted client: /10.0.0.7:33586in MyMiddleware.run()
LOG: Accepted client: /10.0.0.7:33610in MyMiddleware.run()
LOG: Accepted client: /10.0.0.7:33604in MyMiddleware.run()
LOG: Accepted client: /10.0.0.7:33626in MyMiddleware.run()
LOG: Accepted client: /10.0.0.7:33592in MyMiddleware.run()
LOG: Accepted client: /10.0.0.7:33594in MyMiddleware.run()
LOG: Accepted client: /10.0.0.7:33618in MyMiddleware.run()
LOG: Accepted client: /10.0.0.7:33606in MyMiddleware.run()
LOG: Accepted client: /10.0.0.7:33624in MyMiddleware.run()
LOG: Accepted client: /10.0.0.7:33596in MyMiddleware.run()
LOG: Accepted client: /10.0.0.7:33622in MyMiddleware.run()
LOG: Accepted client: /10.0.0.7:33620in MyMiddleware.run()
LOG: Accepted client: /10.0.0.7:33578in MyMiddleware.run()
LOG: Accepted client: /10.0.0.7:33582in MyMiddleware.run()
LOG: Accepted client: /10.0.0.7:33638in MyMiddleware.run()
LOG: Accepted client: /10.0.0.7:33614in MyMiddleware.run()
LOG: Accepted client: /10.0.0.7:33608in MyMiddleware.run()
LOG: Accepted client: /10.0.0.7:33634in MyMiddleware.run()
LOG: Accepted client: /10.0.0.7:33628in MyMiddleware.run()
LOG: Accepted client: /10.0.0.7:33630in MyMiddleware.run()
LOG: Accepted client: /10.0.0.7:33584in MyMiddleware.run()
LOG: Accepted client: /10.0.0.7:33632in MyMiddleware.run()
LOG: Accepted client: /10.0.0.7:33580in MyMiddleware.run()
LOG: Accepted client: /10.0.0.7:33602in MyMiddleware.run()
LOG: Accepted client: /10.0.0.7:33636in MyMiddleware.run()
LOG: Accepted client: /10.0.0.7:33612in MyMiddleware.run()
LOG: Accepted client: /10.0.0.7:33640in MyMiddleware.run()
LOG: Accepted client: /10.0.0.7:33600in MyMiddleware.run()
LOG: Accepted client: /10.0.0.11:32838in MyMiddleware.run()
LOG: Accepted client: /10.0.0.11:32874in MyMiddleware.run()
LOG: Accepted client: /10.0.0.11:32876in MyMiddleware.run()
LOG: Accepted client: /10.0.0.11:32836in MyMiddleware.run()
LOG: Accepted client: /10.0.0.11:32830in MyMiddleware.run()
LOG: Accepted client: /10.0.0.11:32824in MyMiddleware.run()
LOG: Accepted client: /10.0.0.11:32844in MyMiddleware.run()
LOG: Accepted client: /10.0.0.11:32860in MyMiddleware.run()
LOG: Accepted client: /10.0.0.11:32822in MyMiddleware.run()
LOG: Accepted client: /10.0.0.11:32834in MyMiddleware.run()
LOG: Accepted client: /10.0.0.11:32882in MyMiddleware.run()
LOG: Accepted client: /10.0.0.11:32850in MyMiddleware.run()
LOG: Accepted client: /10.0.0.11:32840in MyMiddleware.run()
LOG: Accepted client: /10.0.0.11:32852in MyMiddleware.run()
LOG: Accepted client: /10.0.0.11:32862in MyMiddleware.run()
LOG: Accepted client: /10.0.0.11:32854in MyMiddleware.run()
LOG: Accepted client: /10.0.0.11:32870in MyMiddleware.run()
LOG: Accepted client: /10.0.0.11:32832in MyMiddleware.run()
LOG: Accepted client: /10.0.0.11:32880in MyMiddleware.run()
LOG: Accepted client: /10.0.0.11:32866in MyMiddleware.run()
LOG: Accepted client: /10.0.0.11:32864in MyMiddleware.run()
LOG: Accepted client: /10.0.0.11:32842in MyMiddleware.run()
LOG: Accepted client: /10.0.0.11:32868in MyMiddleware.run()
LOG: Accepted client: /10.0.0.11:32826in MyMiddleware.run()
LOG: Accepted client: /10.0.0.11:32872in MyMiddleware.run()
LOG: Accepted client: /10.0.0.11:32828in MyMiddleware.run()
LOG: Accepted client: /10.0.0.11:32878in MyMiddleware.run()
LOG: Accepted client: /10.0.0.6:43788in MyMiddleware.run()
LOG: Accepted client: /10.0.0.6:43832in MyMiddleware.run()
LOG: Accepted client: /10.0.0.6:43806in MyMiddleware.run()
LOG: Accepted client: /10.0.0.11:32848in MyMiddleware.run()
LOG: Accepted client: /10.0.0.11:32846in MyMiddleware.run()
LOG: Accepted client: /10.0.0.11:32858in MyMiddleware.run()
LOG: Accepted client: /10.0.0.6:43812in MyMiddleware.run()
LOG: Accepted client: /10.0.0.6:43824in MyMiddleware.run()
LOG: Accepted client: /10.0.0.6:43816in MyMiddleware.run()
LOG: Accepted client: /10.0.0.6:43820in MyMiddleware.run()
LOG: Accepted client: /10.0.0.6:43826in MyMiddleware.run()
LOG: Accepted client: /10.0.0.6:43778in MyMiddleware.run()
LOG: Accepted client: /10.0.0.6:43834in MyMiddleware.run()
LOG: Accepted client: /10.0.0.6:43836in MyMiddleware.run()
LOG: Accepted client: /10.0.0.6:43822in MyMiddleware.run()
LOG: Accepted client: /10.0.0.6:43814in MyMiddleware.run()
LOG: Accepted client: /10.0.0.6:43818in MyMiddleware.run()
LOG: Accepted client: /10.0.0.6:43828in MyMiddleware.run()
LOG: Accepted client: /10.0.0.6:43830in MyMiddleware.run()
LOG: Accepted client: /10.0.0.6:43798in MyMiddleware.run()
LOG: Accepted client: /10.0.0.6:43804in MyMiddleware.run()
LOG: Accepted client: /10.0.0.6:43794in MyMiddleware.run()
LOG: Accepted client: /10.0.0.6:43802in MyMiddleware.run()
LOG: Accepted client: /10.0.0.6:43800in MyMiddleware.run()
LOG: Accepted client: /10.0.0.6:43776in MyMiddleware.run()
LOG: Accepted client: /10.0.0.11:32884in MyMiddleware.run()
LOG: Accepted client: /10.0.0.11:32856in MyMiddleware.run()
LOG: Accepted client: /10.0.0.6:43780in MyMiddleware.run()
LOG: Accepted client: /10.0.0.6:43796in MyMiddleware.run()
LOG: Accepted client: /10.0.0.6:43784in MyMiddleware.run()
LOG: Accepted client: /10.0.0.6:43838in MyMiddleware.run()
LOG: Accepted client: /10.0.0.6:43782in MyMiddleware.run()
LOG: Accepted client: /10.0.0.6:43786in MyMiddleware.run()
LOG: Accepted client: /10.0.0.6:43790in MyMiddleware.run()
LOG: Accepted client: /10.0.0.6:43810in MyMiddleware.run()
LOG: Accepted client: /10.0.0.6:43792in MyMiddleware.run()
LOG: Accepted client: /10.0.0.6:43808in MyMiddleware.run()
LOG: Closed client: /10.0.0.7:33600in MyMiddleware.run()
LOG: Closed client: /10.0.0.7:33582in MyMiddleware.run()
LOG: Closed client: /10.0.0.7:33634in MyMiddleware.run()
LOG: Closed client: /10.0.0.7:33588in MyMiddleware.run()
LOG: Closed client: /10.0.0.7:33620in MyMiddleware.run()
LOG: Closed client: /10.0.0.7:33602in MyMiddleware.run()
LOG: Closed client: /10.0.0.7:33624in MyMiddleware.run()
LOG: Closed client: /10.0.0.7:33580in MyMiddleware.run()
LOG: Closed client: /10.0.0.7:33594in MyMiddleware.run()
LOG: Closed client: /10.0.0.7:33614in MyMiddleware.run()
LOG: Closed client: /10.0.0.7:33590in MyMiddleware.run()
LOG: Closed client: /10.0.0.7:33640in MyMiddleware.run()
LOG: Closed client: /10.0.0.7:33604in MyMiddleware.run()
LOG: Closed client: /10.0.0.7:33632in MyMiddleware.run()
LOG: Closed client: /10.0.0.7:33618in MyMiddleware.run()
LOG: Closed client: /10.0.0.7:33612in MyMiddleware.run()
LOG: Closed client: /10.0.0.7:33592in MyMiddleware.run()
LOG: Closed client: /10.0.0.7:33596in MyMiddleware.run()
LOG: Closed client: /10.0.0.7:33628in MyMiddleware.run()
LOG: Closed client: /10.0.0.7:33630in MyMiddleware.run()
LOG: Closed client: /10.0.0.7:33638in MyMiddleware.run()
LOG: Closed client: /10.0.0.7:33598in MyMiddleware.run()
LOG: Closed client: /10.0.0.7:33622in MyMiddleware.run()
LOG: Closed client: /10.0.0.7:33626in MyMiddleware.run()
LOG: Closed client: /10.0.0.7:33608in MyMiddleware.run()
LOG: Closed client: /10.0.0.7:33584in MyMiddleware.run()
LOG: Closed client: /10.0.0.7:33578in MyMiddleware.run()
LOG: Closed client: /10.0.0.7:33636in MyMiddleware.run()
LOG: Closed client: /10.0.0.7:33606in MyMiddleware.run()
LOG: Closed client: /10.0.0.7:33610in MyMiddleware.run()
LOG: Closed client: /10.0.0.7:33586in MyMiddleware.run()
LOG: Closed client: /10.0.0.7:33616in MyMiddleware.run()
LOG: Closed client: /10.0.0.11:32828in MyMiddleware.run()
LOG: Closed client: /10.0.0.11:32826in MyMiddleware.run()
LOG: Closed client: /10.0.0.11:32850in MyMiddleware.run()
LOG: Closed client: /10.0.0.11:32854in MyMiddleware.run()
LOG: Closed client: /10.0.0.11:32834in MyMiddleware.run()
LOG: Closed client: /10.0.0.11:32882in MyMiddleware.run()
LOG: Closed client: /10.0.0.11:32880in MyMiddleware.run()
LOG: Closed client: /10.0.0.11:32866in MyMiddleware.run()
LOG: Closed client: /10.0.0.11:32840in MyMiddleware.run()
LOG: Closed client: /10.0.0.11:32870in MyMiddleware.run()
LOG: Closed client: /10.0.0.11:32860in MyMiddleware.run()
LOG: Closed client: /10.0.0.11:32842in MyMiddleware.run()
LOG: Closed client: /10.0.0.11:32844in MyMiddleware.run()
LOG: Closed client: /10.0.0.11:32874in MyMiddleware.run()
LOG: Closed client: /10.0.0.11:32862in MyMiddleware.run()
LOG: Closed client: /10.0.0.11:32824in MyMiddleware.run()
LOG: Closed client: /10.0.0.11:32852in MyMiddleware.run()
LOG: Closed client: /10.0.0.11:32856in MyMiddleware.run()
LOG: Closed client: /10.0.0.11:32832in MyMiddleware.run()
LOG: Closed client: /10.0.0.11:32836in MyMiddleware.run()
LOG: Closed client: /10.0.0.11:32822in MyMiddleware.run()
LOG: Closed client: /10.0.0.11:32876in MyMiddleware.run()
LOG: Closed client: /10.0.0.11:32848in MyMiddleware.run()
LOG: Closed client: /10.0.0.11:32846in MyMiddleware.run()
LOG: Closed client: /10.0.0.11:32864in MyMiddleware.run()
LOG: Closed client: /10.0.0.11:32858in MyMiddleware.run()
LOG: Closed client: /10.0.0.11:32838in MyMiddleware.run()
LOG: Closed client: /10.0.0.11:32830in MyMiddleware.run()
LOG: Closed client: /10.0.0.11:32868in MyMiddleware.run()
LOG: Closed client: /10.0.0.11:32878in MyMiddleware.run()
LOG: Closed client: /10.0.0.11:32872in MyMiddleware.run()
LOG: Closed client: /10.0.0.11:32884in MyMiddleware.run()
LOG: Closed client: /10.0.0.6:43806in MyMiddleware.run()
LOG: Closed client: /10.0.0.6:43782in MyMiddleware.run()
LOG: Closed client: /10.0.0.6:43808in MyMiddleware.run()
LOG: Closed client: /10.0.0.6:43786in MyMiddleware.run()
LOG: Closed client: /10.0.0.6:43790in MyMiddleware.run()
LOG: Closed client: /10.0.0.6:43776in MyMiddleware.run()
LOG: Closed client: /10.0.0.6:43802in MyMiddleware.run()
LOG: Closed client: /10.0.0.6:43832in MyMiddleware.run()
LOG: Closed client: /10.0.0.6:43834in MyMiddleware.run()
LOG: Closed client: /10.0.0.6:43814in MyMiddleware.run()
LOG: Closed client: /10.0.0.6:43796in MyMiddleware.run()
LOG: Closed client: /10.0.0.6:43838in MyMiddleware.run()
LOG: Closed client: /10.0.0.6:43778in MyMiddleware.run()
LOG: Closed client: /10.0.0.6:43830in MyMiddleware.run()
LOG: Closed client: /10.0.0.6:43784in MyMiddleware.run()
LOG: Closed client: /10.0.0.6:43780in MyMiddleware.run()
LOG: Closed client: /10.0.0.6:43836in MyMiddleware.run()
LOG: Closed client: /10.0.0.6:43818in MyMiddleware.run()
LOG: Closed client: /10.0.0.6:43792in MyMiddleware.run()
LOG: Closed client: /10.0.0.6:43798in MyMiddleware.run()
LOG: Closed client: /10.0.0.6:43788in MyMiddleware.run()
LOG: Closed client: /10.0.0.6:43822in MyMiddleware.run()
LOG: Closed client: /10.0.0.6:43828in MyMiddleware.run()
LOG: Closed client: /10.0.0.6:43800in MyMiddleware.run()
LOG: Closed client: /10.0.0.6:43826in MyMiddleware.run()
LOG: Closed client: /10.0.0.6:43816in MyMiddleware.run()
LOG: Closed client: /10.0.0.6:43804in MyMiddleware.run()
LOG: Closed client: /10.0.0.6:43794in MyMiddleware.run()
LOG: Closed client: /10.0.0.6:43820in MyMiddleware.run()
LOG: Closed client: /10.0.0.6:43812in MyMiddleware.run()
LOG: Closed client: /10.0.0.6:43824in MyMiddleware.run()
LOG: Closed client: /10.0.0.6:43810in MyMiddleware.run()
