------------Middleware started!------------
LOG: Waiting for connection in MyMiddleware.run()
LOG: Accepted client: /10.0.0.7:43008in MyMiddleware.run()
LOG: Accepted client: /10.0.0.7:43010in MyMiddleware.run()
LOG: Accepted client: /10.0.0.7:42998in MyMiddleware.run()
LOG: Accepted client: /10.0.0.7:42996in MyMiddleware.run()
LOG: Accepted client: /10.0.0.6:53208in MyMiddleware.run()
LOG: Accepted client: /10.0.0.6:53198in MyMiddleware.run()
LOG: Accepted client: /10.0.0.6:53196in MyMiddleware.run()
LOG: Accepted client: /10.0.0.6:53194in MyMiddleware.run()
LOG: Accepted client: /10.0.0.6:53204in MyMiddleware.run()
LOG: Accepted client: /10.0.0.6:53206in MyMiddleware.run()
LOG: Accepted client: /10.0.0.6:53202in MyMiddleware.run()
LOG: Accepted client: /10.0.0.6:53200in MyMiddleware.run()
LOG: Accepted client: /10.0.0.7:43006in MyMiddleware.run()
LOG: Accepted client: /10.0.0.7:43000in MyMiddleware.run()
LOG: Accepted client: /10.0.0.7:43004in MyMiddleware.run()
LOG: Accepted client: /10.0.0.7:43002in MyMiddleware.run()
LOG: Accepted client: /10.0.0.11:42260in MyMiddleware.run()
LOG: Accepted client: /10.0.0.11:42248in MyMiddleware.run()
LOG: Accepted client: /10.0.0.11:42246in MyMiddleware.run()
LOG: Accepted client: /10.0.0.11:42250in MyMiddleware.run()
LOG: Accepted client: /10.0.0.11:42254in MyMiddleware.run()
LOG: Accepted client: /10.0.0.11:42252in MyMiddleware.run()
LOG: Accepted client: /10.0.0.11:42256in MyMiddleware.run()
LOG: Accepted client: /10.0.0.11:42258in MyMiddleware.run()
LOG: Closed client: /10.0.0.7:43004in MyMiddleware.run()
LOG: Closed client: /10.0.0.7:42996in MyMiddleware.run()
LOG: Closed client: /10.0.0.7:43002in MyMiddleware.run()
LOG: Closed client: /10.0.0.7:43010in MyMiddleware.run()
LOG: Closed client: /10.0.0.7:42998in MyMiddleware.run()
LOG: Closed client: /10.0.0.7:43000in MyMiddleware.run()
LOG: Closed client: /10.0.0.7:43006in MyMiddleware.run()
LOG: Closed client: /10.0.0.7:43008in MyMiddleware.run()
LOG: Closed client: /10.0.0.6:53200in MyMiddleware.run()
LOG: Closed client: /10.0.0.6:53208in MyMiddleware.run()
LOG: Closed client: /10.0.0.6:53202in MyMiddleware.run()
LOG: Closed client: /10.0.0.6:53206in MyMiddleware.run()
LOG: Closed client: /10.0.0.6:53204in MyMiddleware.run()
LOG: Closed client: /10.0.0.6:53194in MyMiddleware.run()
LOG: Closed client: /10.0.0.6:53198in MyMiddleware.run()
LOG: Closed client: /10.0.0.6:53196in MyMiddleware.run()
LOG: Closed client: /10.0.0.11:42246in MyMiddleware.run()
LOG: Closed client: /10.0.0.11:42258in MyMiddleware.run()
LOG: Closed client: /10.0.0.11:42250in MyMiddleware.run()
LOG: Closed client: /10.0.0.11:42252in MyMiddleware.run()
LOG: Closed client: /10.0.0.11:42260in MyMiddleware.run()
LOG: Closed client: /10.0.0.11:42254in MyMiddleware.run()
LOG: Closed client: /10.0.0.11:42248in MyMiddleware.run()
LOG: Closed client: /10.0.0.11:42256in MyMiddleware.run()
