------------Middleware started!------------
LOG: Waiting for connection in MyMiddleware.run()
LOG: Accepted client: /10.0.0.11:52784in MyMiddleware.run()
LOG: Accepted client: /10.0.0.11:52778in MyMiddleware.run()
LOG: Accepted client: /10.0.0.11:52782in MyMiddleware.run()
LOG: Accepted client: /10.0.0.11:52780in MyMiddleware.run()
LOG: Accepted client: /10.0.0.7:53512in MyMiddleware.run()
LOG: Accepted client: /10.0.0.7:53514in MyMiddleware.run()
LOG: Accepted client: /10.0.0.7:53518in MyMiddleware.run()
LOG: Accepted client: /10.0.0.7:53516in MyMiddleware.run()
LOG: Accepted client: /10.0.0.6:35486in MyMiddleware.run()
LOG: Accepted client: /10.0.0.6:35488in MyMiddleware.run()
LOG: Accepted client: /10.0.0.6:35490in MyMiddleware.run()
LOG: Accepted client: /10.0.0.6:35492in MyMiddleware.run()
LOG: Closed client: /10.0.0.11:52782in MyMiddleware.run()
LOG: Closed client: /10.0.0.11:52778in MyMiddleware.run()
LOG: Closed client: /10.0.0.11:52780in MyMiddleware.run()
LOG: Closed client: /10.0.0.11:52784in MyMiddleware.run()
LOG: Closed client: /10.0.0.6:35490in MyMiddleware.run()
LOG: Closed client: /10.0.0.6:35488in MyMiddleware.run()
LOG: Closed client: /10.0.0.6:35486in MyMiddleware.run()
LOG: Closed client: /10.0.0.6:35492in MyMiddleware.run()
LOG: Closed client: /10.0.0.7:53514in MyMiddleware.run()
LOG: Closed client: /10.0.0.7:53518in MyMiddleware.run()
LOG: Closed client: /10.0.0.7:53512in MyMiddleware.run()
LOG: Closed client: /10.0.0.7:53516in MyMiddleware.run()
