------------Middleware started!------------
LOG: Waiting for connection in MyMiddleware.run()
LOG: Accepted client: /10.0.0.7:47532in MyMiddleware.run()
LOG: Accepted client: /10.0.0.7:47530in MyMiddleware.run()
LOG: Accepted client: /10.0.0.7:47528in MyMiddleware.run()
LOG: Accepted client: /10.0.0.7:47548in MyMiddleware.run()
LOG: Accepted client: /10.0.0.7:47540in MyMiddleware.run()
LOG: Accepted client: /10.0.0.7:47546in MyMiddleware.run()
LOG: Accepted client: /10.0.0.7:47542in MyMiddleware.run()
LOG: Accepted client: /10.0.0.7:47554in MyMiddleware.run()
LOG: Accepted client: /10.0.0.7:47534in MyMiddleware.run()
LOG: Accepted client: /10.0.0.7:47556in MyMiddleware.run()
LOG: Accepted client: /10.0.0.7:47538in MyMiddleware.run()
LOG: Accepted client: /10.0.0.7:47558in MyMiddleware.run()
LOG: Accepted client: /10.0.0.7:47552in MyMiddleware.run()
LOG: Accepted client: /10.0.0.6:57634in MyMiddleware.run()
LOG: Accepted client: /10.0.0.7:47536in MyMiddleware.run()
LOG: Accepted client: /10.0.0.7:47544in MyMiddleware.run()
LOG: Accepted client: /10.0.0.7:47550in MyMiddleware.run()
LOG: Accepted client: /10.0.0.6:57636in MyMiddleware.run()
LOG: Accepted client: /10.0.0.6:57654in MyMiddleware.run()
LOG: Accepted client: /10.0.0.6:57638in MyMiddleware.run()
LOG: Accepted client: /10.0.0.6:57658in MyMiddleware.run()
LOG: Accepted client: /10.0.0.6:57632in MyMiddleware.run()
LOG: Accepted client: /10.0.0.6:57660in MyMiddleware.run()
LOG: Accepted client: /10.0.0.6:57656in MyMiddleware.run()
LOG: Accepted client: /10.0.0.6:57646in MyMiddleware.run()
LOG: Accepted client: /10.0.0.6:57662in MyMiddleware.run()
LOG: Accepted client: /10.0.0.6:57650in MyMiddleware.run()
LOG: Accepted client: /10.0.0.6:57652in MyMiddleware.run()
LOG: Accepted client: /10.0.0.6:57648in MyMiddleware.run()
LOG: Accepted client: /10.0.0.6:57644in MyMiddleware.run()
LOG: Accepted client: /10.0.0.6:57640in MyMiddleware.run()
LOG: Accepted client: /10.0.0.6:57642in MyMiddleware.run()
LOG: Accepted client: /10.0.0.11:46718in MyMiddleware.run()
LOG: Accepted client: /10.0.0.11:46726in MyMiddleware.run()
LOG: Accepted client: /10.0.0.11:46732in MyMiddleware.run()
LOG: Accepted client: /10.0.0.11:46736in MyMiddleware.run()
LOG: Accepted client: /10.0.0.11:46722in MyMiddleware.run()
LOG: Accepted client: /10.0.0.11:46724in MyMiddleware.run()
LOG: Accepted client: /10.0.0.11:46742in MyMiddleware.run()
LOG: Accepted client: /10.0.0.11:46734in MyMiddleware.run()
LOG: Accepted client: /10.0.0.11:46738in MyMiddleware.run()
LOG: Accepted client: /10.0.0.11:46720in MyMiddleware.run()
LOG: Accepted client: /10.0.0.11:46716in MyMiddleware.run()
LOG: Accepted client: /10.0.0.11:46740in MyMiddleware.run()
LOG: Accepted client: /10.0.0.11:46744in MyMiddleware.run()
LOG: Accepted client: /10.0.0.11:46730in MyMiddleware.run()
LOG: Accepted client: /10.0.0.11:46746in MyMiddleware.run()
LOG: Accepted client: /10.0.0.11:46728in MyMiddleware.run()
LOG: Closed client: /10.0.0.6:57638in MyMiddleware.run()
LOG: Closed client: /10.0.0.6:57632in MyMiddleware.run()
LOG: Closed client: /10.0.0.6:57634in MyMiddleware.run()
LOG: Closed client: /10.0.0.6:57642in MyMiddleware.run()
LOG: Closed client: /10.0.0.6:57660in MyMiddleware.run()
LOG: Closed client: /10.0.0.6:57644in MyMiddleware.run()
LOG: Closed client: /10.0.0.6:57646in MyMiddleware.run()
LOG: Closed client: /10.0.0.6:57656in MyMiddleware.run()
LOG: Closed client: /10.0.0.6:57652in MyMiddleware.run()
LOG: Closed client: /10.0.0.6:57658in MyMiddleware.run()
LOG: Closed client: /10.0.0.6:57662in MyMiddleware.run()
LOG: Closed client: /10.0.0.6:57654in MyMiddleware.run()
LOG: Closed client: /10.0.0.6:57636in MyMiddleware.run()
LOG: Closed client: /10.0.0.6:57640in MyMiddleware.run()
LOG: Closed client: /10.0.0.6:57650in MyMiddleware.run()
LOG: Closed client: /10.0.0.6:57648in MyMiddleware.run()
LOG: Closed client: /10.0.0.11:46720in MyMiddleware.run()
LOG: Closed client: /10.0.0.11:46722in MyMiddleware.run()
LOG: Closed client: /10.0.0.11:46718in MyMiddleware.run()
LOG: Closed client: /10.0.0.11:46726in MyMiddleware.run()
LOG: Closed client: /10.0.0.11:46740in MyMiddleware.run()
LOG: Closed client: /10.0.0.11:46730in MyMiddleware.run()
LOG: Closed client: /10.0.0.11:46732in MyMiddleware.run()
LOG: Closed client: /10.0.0.11:46736in MyMiddleware.run()
LOG: Closed client: /10.0.0.11:46734in MyMiddleware.run()
LOG: Closed client: /10.0.0.11:46746in MyMiddleware.run()
LOG: Closed client: /10.0.0.11:46716in MyMiddleware.run()
LOG: Closed client: /10.0.0.11:46738in MyMiddleware.run()
LOG: Closed client: /10.0.0.11:46724in MyMiddleware.run()
LOG: Closed client: /10.0.0.11:46742in MyMiddleware.run()
LOG: Closed client: /10.0.0.11:46744in MyMiddleware.run()
LOG: Closed client: /10.0.0.11:46728in MyMiddleware.run()
LOG: Closed client: /10.0.0.7:47544in MyMiddleware.run()
LOG: Closed client: /10.0.0.7:47554in MyMiddleware.run()
LOG: Closed client: /10.0.0.7:47552in MyMiddleware.run()
LOG: Closed client: /10.0.0.7:47532in MyMiddleware.run()
LOG: Closed client: /10.0.0.7:47542in MyMiddleware.run()
LOG: Closed client: /10.0.0.7:47536in MyMiddleware.run()
LOG: Closed client: /10.0.0.7:47548in MyMiddleware.run()
LOG: Closed client: /10.0.0.7:47530in MyMiddleware.run()
LOG: Closed client: /10.0.0.7:47528in MyMiddleware.run()
LOG: Closed client: /10.0.0.7:47550in MyMiddleware.run()
LOG: Closed client: /10.0.0.7:47540in MyMiddleware.run()
LOG: Closed client: /10.0.0.7:47558in MyMiddleware.run()
LOG: Closed client: /10.0.0.7:47538in MyMiddleware.run()
LOG: Closed client: /10.0.0.7:47546in MyMiddleware.run()
LOG: Closed client: /10.0.0.7:47556in MyMiddleware.run()
LOG: Closed client: /10.0.0.7:47534in MyMiddleware.run()
