------------Middleware started!------------
LOG: Waiting for connection in MyMiddleware.run()
LOG: Accepted client: /10.0.0.7:42010in MyMiddleware.run()
LOG: Accepted client: /10.0.0.7:42008in MyMiddleware.run()
LOG: Accepted client: /10.0.0.11:41222in MyMiddleware.run()
LOG: Accepted client: /10.0.0.7:42004in MyMiddleware.run()
LOG: Accepted client: /10.0.0.7:42002in MyMiddleware.run()
LOG: Accepted client: /10.0.0.7:42016in MyMiddleware.run()
LOG: Accepted client: /10.0.0.7:42012in MyMiddleware.run()
LOG: Accepted client: /10.0.0.11:41228in MyMiddleware.run()
LOG: Accepted client: /10.0.0.7:42014in MyMiddleware.run()
LOG: Accepted client: /10.0.0.11:41234in MyMiddleware.run()
LOG: Accepted client: /10.0.0.11:41236in MyMiddleware.run()
LOG: Accepted client: /10.0.0.11:41226in MyMiddleware.run()
LOG: Accepted client: /10.0.0.11:41230in MyMiddleware.run()
LOG: Accepted client: /10.0.0.11:41232in MyMiddleware.run()
LOG: Accepted client: /10.0.0.7:42006in MyMiddleware.run()
LOG: Accepted client: /10.0.0.11:41224in MyMiddleware.run()
LOG: Accepted client: /10.0.0.6:52176in MyMiddleware.run()
LOG: Accepted client: /10.0.0.6:52174in MyMiddleware.run()
LOG: Accepted client: /10.0.0.6:52178in MyMiddleware.run()
LOG: Accepted client: /10.0.0.6:52180in MyMiddleware.run()
LOG: Accepted client: /10.0.0.6:52182in MyMiddleware.run()
LOG: Accepted client: /10.0.0.6:52188in MyMiddleware.run()
LOG: Accepted client: /10.0.0.6:52184in MyMiddleware.run()
LOG: Accepted client: /10.0.0.6:52186in MyMiddleware.run()
LOG: Closed client: /10.0.0.7:42010in MyMiddleware.run()
LOG: Closed client: /10.0.0.7:42006in MyMiddleware.run()
LOG: Closed client: /10.0.0.11:41234in MyMiddleware.run()
LOG: Closed client: /10.0.0.7:42012in MyMiddleware.run()
LOG: Closed client: /10.0.0.7:42016in MyMiddleware.run()
LOG: Closed client: /10.0.0.11:41228in MyMiddleware.run()
LOG: Closed client: /10.0.0.7:42004in MyMiddleware.run()
LOG: Closed client: /10.0.0.7:42002in MyMiddleware.run()
LOG: Closed client: /10.0.0.11:41222in MyMiddleware.run()
LOG: Closed client: /10.0.0.7:42008in MyMiddleware.run()
LOG: Closed client: /10.0.0.11:41224in MyMiddleware.run()
LOG: Closed client: /10.0.0.11:41232in MyMiddleware.run()
LOG: Closed client: /10.0.0.7:42014in MyMiddleware.run()
LOG: Closed client: /10.0.0.11:41236in MyMiddleware.run()
LOG: Closed client: /10.0.0.11:41226in MyMiddleware.run()
LOG: Closed client: /10.0.0.11:41230in MyMiddleware.run()
LOG: Closed client: /10.0.0.6:52178in MyMiddleware.run()
LOG: Closed client: /10.0.0.6:52176in MyMiddleware.run()
LOG: Closed client: /10.0.0.6:52182in MyMiddleware.run()
LOG: Closed client: /10.0.0.6:52186in MyMiddleware.run()
LOG: Closed client: /10.0.0.6:52188in MyMiddleware.run()
LOG: Closed client: /10.0.0.6:52184in MyMiddleware.run()
LOG: Closed client: /10.0.0.6:52174in MyMiddleware.run()
LOG: Closed client: /10.0.0.6:52180in MyMiddleware.run()
