------------Middleware started!------------
LOG: Waiting for connection in MyMiddleware.run()
LOG: Accepted client: /10.0.0.7:45032in MyMiddleware.run()
LOG: Accepted client: /10.0.0.7:45012in MyMiddleware.run()
LOG: Accepted client: /10.0.0.7:45030in MyMiddleware.run()
LOG: Accepted client: /10.0.0.7:45020in MyMiddleware.run()
LOG: Accepted client: /10.0.0.7:45018in MyMiddleware.run()
LOG: Accepted client: /10.0.0.7:45014in MyMiddleware.run()
LOG: Accepted client: /10.0.0.7:45008in MyMiddleware.run()
LOG: Accepted client: /10.0.0.7:45022in MyMiddleware.run()
LOG: Accepted client: /10.0.0.7:45024in MyMiddleware.run()
LOG: Accepted client: /10.0.0.7:45010in MyMiddleware.run()
LOG: Accepted client: /10.0.0.7:45026in MyMiddleware.run()
LOG: Accepted client: /10.0.0.7:45038in MyMiddleware.run()
LOG: Accepted client: /10.0.0.7:45016in MyMiddleware.run()
LOG: Accepted client: /10.0.0.7:45028in MyMiddleware.run()
LOG: Accepted client: /10.0.0.7:45036in MyMiddleware.run()
LOG: Accepted client: /10.0.0.7:45034in MyMiddleware.run()
LOG: Accepted client: /10.0.0.6:55218in MyMiddleware.run()
LOG: Accepted client: /10.0.0.6:55220in MyMiddleware.run()
LOG: Accepted client: /10.0.0.6:55232in MyMiddleware.run()
LOG: Accepted client: /10.0.0.6:55222in MyMiddleware.run()
LOG: Accepted client: /10.0.0.6:55216in MyMiddleware.run()
LOG: Accepted client: /10.0.0.6:55210in MyMiddleware.run()
LOG: Accepted client: /10.0.0.6:55208in MyMiddleware.run()
LOG: Accepted client: /10.0.0.6:55234in MyMiddleware.run()
LOG: Accepted client: /10.0.0.6:55214in MyMiddleware.run()
LOG: Accepted client: /10.0.0.6:55212in MyMiddleware.run()
LOG: Accepted client: /10.0.0.6:55204in MyMiddleware.run()
LOG: Accepted client: /10.0.0.6:55226in MyMiddleware.run()
LOG: Accepted client: /10.0.0.6:55206in MyMiddleware.run()
LOG: Accepted client: /10.0.0.6:55224in MyMiddleware.run()
LOG: Accepted client: /10.0.0.6:55230in MyMiddleware.run()
LOG: Accepted client: /10.0.0.6:55228in MyMiddleware.run()
LOG: Accepted client: /10.0.0.11:44272in MyMiddleware.run()
LOG: Accepted client: /10.0.0.11:44268in MyMiddleware.run()
LOG: Accepted client: /10.0.0.11:44278in MyMiddleware.run()
LOG: Accepted client: /10.0.0.11:44292in MyMiddleware.run()
LOG: Accepted client: /10.0.0.11:44282in MyMiddleware.run()
LOG: Accepted client: /10.0.0.11:44284in MyMiddleware.run()
LOG: Accepted client: /10.0.0.11:44280in MyMiddleware.run()
LOG: Accepted client: /10.0.0.11:44274in MyMiddleware.run()
LOG: Accepted client: /10.0.0.11:44290in MyMiddleware.run()
LOG: Accepted client: /10.0.0.11:44296in MyMiddleware.run()
LOG: Accepted client: /10.0.0.11:44270in MyMiddleware.run()
LOG: Accepted client: /10.0.0.11:44276in MyMiddleware.run()
LOG: Accepted client: /10.0.0.11:44288in MyMiddleware.run()
LOG: Accepted client: /10.0.0.11:44294in MyMiddleware.run()
LOG: Accepted client: /10.0.0.11:44286in MyMiddleware.run()
LOG: Accepted client: /10.0.0.11:44266in MyMiddleware.run()
LOG: Closed client: /10.0.0.11:44266in MyMiddleware.run()
LOG: Closed client: /10.0.0.11:44268in MyMiddleware.run()
LOG: Closed client: /10.0.0.11:44270in MyMiddleware.run()
LOG: Closed client: /10.0.0.11:44292in MyMiddleware.run()
LOG: Closed client: /10.0.0.11:44284in MyMiddleware.run()
LOG: Closed client: /10.0.0.11:44280in MyMiddleware.run()
LOG: Closed client: /10.0.0.11:44294in MyMiddleware.run()
LOG: Closed client: /10.0.0.11:44290in MyMiddleware.run()
LOG: Closed client: /10.0.0.11:44274in MyMiddleware.run()
LOG: Closed client: /10.0.0.11:44276in MyMiddleware.run()
LOG: Closed client: /10.0.0.11:44272in MyMiddleware.run()
LOG: Closed client: /10.0.0.11:44282in MyMiddleware.run()
LOG: Closed client: /10.0.0.11:44296in MyMiddleware.run()
LOG: Closed client: /10.0.0.11:44278in MyMiddleware.run()
LOG: Closed client: /10.0.0.11:44286in MyMiddleware.run()
LOG: Closed client: /10.0.0.11:44288in MyMiddleware.run()
LOG: Closed client: /10.0.0.7:45012in MyMiddleware.run()
LOG: Closed client: /10.0.0.7:45010in MyMiddleware.run()
LOG: Closed client: /10.0.0.7:45020in MyMiddleware.run()
LOG: Closed client: /10.0.0.7:45030in MyMiddleware.run()
LOG: Closed client: /10.0.0.7:45034in MyMiddleware.run()
LOG: Closed client: /10.0.0.7:45024in MyMiddleware.run()
LOG: Closed client: /10.0.0.7:45036in MyMiddleware.run()
LOG: Closed client: /10.0.0.7:45016in MyMiddleware.run()
LOG: Closed client: /10.0.0.7:45022in MyMiddleware.run()
LOG: Closed client: /10.0.0.7:45018in MyMiddleware.run()
LOG: Closed client: /10.0.0.7:45032in MyMiddleware.run()
LOG: Closed client: /10.0.0.7:45028in MyMiddleware.run()
LOG: Closed client: /10.0.0.7:45038in MyMiddleware.run()
LOG: Closed client: /10.0.0.7:45008in MyMiddleware.run()
LOG: Closed client: /10.0.0.7:45014in MyMiddleware.run()
LOG: Closed client: /10.0.0.7:45026in MyMiddleware.run()
LOG: Closed client: /10.0.0.6:55206in MyMiddleware.run()
LOG: Closed client: /10.0.0.6:55208in MyMiddleware.run()
LOG: Closed client: /10.0.0.6:55218in MyMiddleware.run()
LOG: Closed client: /10.0.0.6:55216in MyMiddleware.run()
LOG: Closed client: /10.0.0.6:55204in MyMiddleware.run()
LOG: Closed client: /10.0.0.6:55210in MyMiddleware.run()
LOG: Closed client: /10.0.0.6:55212in MyMiddleware.run()
LOG: Closed client: /10.0.0.6:55214in MyMiddleware.run()
LOG: Closed client: /10.0.0.6:55228in MyMiddleware.run()
LOG: Closed client: /10.0.0.6:55224in MyMiddleware.run()
LOG: Closed client: /10.0.0.6:55234in MyMiddleware.run()
LOG: Closed client: /10.0.0.6:55230in MyMiddleware.run()
LOG: Closed client: /10.0.0.6:55222in MyMiddleware.run()
LOG: Closed client: /10.0.0.6:55232in MyMiddleware.run()
LOG: Closed client: /10.0.0.6:55226in MyMiddleware.run()
LOG: Closed client: /10.0.0.6:55220in MyMiddleware.run()
