------------Middleware started!------------
LOG: Waiting for connection in MyMiddleware.run()
LOG: Accepted client: /10.0.0.11:50302in MyMiddleware.run()
LOG: Accepted client: /10.0.0.11:50292in MyMiddleware.run()
LOG: Accepted client: /10.0.0.11:50290in MyMiddleware.run()
LOG: Accepted client: /10.0.0.11:50352in MyMiddleware.run()
LOG: Accepted client: /10.0.0.11:50314in MyMiddleware.run()
LOG: Accepted client: /10.0.0.11:50318in MyMiddleware.run()
LOG: Accepted client: /10.0.0.11:50312in MyMiddleware.run()
LOG: Accepted client: /10.0.0.11:50330in MyMiddleware.run()
LOG: Accepted client: /10.0.0.11:50310in MyMiddleware.run()
LOG: Accepted client: /10.0.0.11:50346in MyMiddleware.run()
LOG: Accepted client: /10.0.0.11:50340in MyMiddleware.run()
LOG: Accepted client: /10.0.0.11:50326in MyMiddleware.run()
LOG: Accepted client: /10.0.0.11:50342in MyMiddleware.run()
LOG: Accepted client: /10.0.0.11:50324in MyMiddleware.run()
LOG: Accepted client: /10.0.0.6:33050in MyMiddleware.run()
LOG: Accepted client: /10.0.0.11:50332in MyMiddleware.run()
LOG: Accepted client: /10.0.0.11:50322in MyMiddleware.run()
LOG: Accepted client: /10.0.0.11:50300in MyMiddleware.run()
LOG: Accepted client: /10.0.0.11:50336in MyMiddleware.run()
LOG: Accepted client: /10.0.0.11:50294in MyMiddleware.run()
LOG: Accepted client: /10.0.0.11:50296in MyMiddleware.run()
LOG: Accepted client: /10.0.0.11:50338in MyMiddleware.run()
LOG: Accepted client: /10.0.0.11:50304in MyMiddleware.run()
LOG: Accepted client: /10.0.0.11:50320in MyMiddleware.run()
LOG: Accepted client: /10.0.0.11:50316in MyMiddleware.run()
LOG: Accepted client: /10.0.0.6:33078in MyMiddleware.run()
LOG: Accepted client: /10.0.0.11:50298in MyMiddleware.run()
LOG: Accepted client: /10.0.0.11:50328in MyMiddleware.run()
LOG: Accepted client: /10.0.0.6:33064in MyMiddleware.run()
LOG: Accepted client: /10.0.0.6:33062in MyMiddleware.run()
LOG: Accepted client: /10.0.0.6:33052in MyMiddleware.run()
LOG: Accepted client: /10.0.0.6:33056in MyMiddleware.run()
LOG: Accepted client: /10.0.0.6:33080in MyMiddleware.run()
LOG: Accepted client: /10.0.0.6:33058in MyMiddleware.run()
LOG: Accepted client: /10.0.0.6:33100in MyMiddleware.run()
LOG: Accepted client: /10.0.0.6:33060in MyMiddleware.run()
LOG: Accepted client: /10.0.0.6:33104in MyMiddleware.run()
LOG: Accepted client: /10.0.0.11:50306in MyMiddleware.run()
LOG: Accepted client: /10.0.0.11:50350in MyMiddleware.run()
LOG: Accepted client: /10.0.0.6:33106in MyMiddleware.run()
LOG: Accepted client: /10.0.0.6:33088in MyMiddleware.run()
LOG: Accepted client: /10.0.0.11:50334in MyMiddleware.run()
LOG: Accepted client: /10.0.0.6:33048in MyMiddleware.run()
LOG: Accepted client: /10.0.0.6:33090in MyMiddleware.run()
LOG: Accepted client: /10.0.0.6:33054in MyMiddleware.run()
LOG: Accepted client: /10.0.0.6:33102in MyMiddleware.run()
LOG: Accepted client: /10.0.0.6:33096in MyMiddleware.run()
LOG: Accepted client: /10.0.0.11:50308in MyMiddleware.run()
LOG: Accepted client: /10.0.0.6:33084in MyMiddleware.run()
LOG: Accepted client: /10.0.0.11:50344in MyMiddleware.run()
LOG: Accepted client: /10.0.0.6:33082in MyMiddleware.run()
LOG: Accepted client: /10.0.0.6:33046in MyMiddleware.run()
LOG: Accepted client: /10.0.0.6:33068in MyMiddleware.run()
LOG: Accepted client: /10.0.0.7:51090in MyMiddleware.run()
LOG: Accepted client: /10.0.0.7:51102in MyMiddleware.run()
LOG: Accepted client: /10.0.0.7:51142in MyMiddleware.run()
LOG: Accepted client: /10.0.0.7:51120in MyMiddleware.run()
LOG: Accepted client: /10.0.0.7:51140in MyMiddleware.run()
LOG: Accepted client: /10.0.0.7:51086in MyMiddleware.run()
LOG: Accepted client: /10.0.0.7:51106in MyMiddleware.run()
LOG: Accepted client: /10.0.0.11:50348in MyMiddleware.run()
LOG: Accepted client: /10.0.0.6:33076in MyMiddleware.run()
LOG: Accepted client: /10.0.0.6:33086in MyMiddleware.run()
LOG: Accepted client: /10.0.0.6:33098in MyMiddleware.run()
LOG: Accepted client: /10.0.0.6:33108in MyMiddleware.run()
LOG: Accepted client: /10.0.0.6:33092in MyMiddleware.run()
LOG: Accepted client: /10.0.0.6:33066in MyMiddleware.run()
LOG: Accepted client: /10.0.0.6:33072in MyMiddleware.run()
LOG: Accepted client: /10.0.0.6:33074in MyMiddleware.run()
LOG: Accepted client: /10.0.0.6:33094in MyMiddleware.run()
LOG: Accepted client: /10.0.0.7:51128in MyMiddleware.run()
LOG: Accepted client: /10.0.0.7:51092in MyMiddleware.run()
LOG: Accepted client: /10.0.0.7:51098in MyMiddleware.run()
LOG: Accepted client: /10.0.0.7:51122in MyMiddleware.run()
LOG: Accepted client: /10.0.0.7:51132in MyMiddleware.run()
LOG: Accepted client: /10.0.0.7:51100in MyMiddleware.run()
LOG: Accepted client: /10.0.0.7:51088in MyMiddleware.run()
LOG: Accepted client: /10.0.0.7:51134in MyMiddleware.run()
LOG: Accepted client: /10.0.0.6:33070in MyMiddleware.run()
LOG: Accepted client: /10.0.0.7:51116in MyMiddleware.run()
LOG: Accepted client: /10.0.0.7:51118in MyMiddleware.run()
LOG: Accepted client: /10.0.0.7:51108in MyMiddleware.run()
LOG: Accepted client: /10.0.0.7:51080in MyMiddleware.run()
LOG: Accepted client: /10.0.0.7:51110in MyMiddleware.run()
LOG: Accepted client: /10.0.0.7:51082in MyMiddleware.run()
LOG: Accepted client: /10.0.0.7:51104in MyMiddleware.run()
LOG: Accepted client: /10.0.0.7:51084in MyMiddleware.run()
LOG: Accepted client: /10.0.0.7:51094in MyMiddleware.run()
LOG: Accepted client: /10.0.0.7:51130in MyMiddleware.run()
LOG: Accepted client: /10.0.0.7:51112in MyMiddleware.run()
LOG: Accepted client: /10.0.0.7:51136in MyMiddleware.run()
LOG: Accepted client: /10.0.0.7:51124in MyMiddleware.run()
LOG: Accepted client: /10.0.0.7:51096in MyMiddleware.run()
LOG: Accepted client: /10.0.0.7:51114in MyMiddleware.run()
LOG: Accepted client: /10.0.0.7:51126in MyMiddleware.run()
LOG: Accepted client: /10.0.0.7:51138in MyMiddleware.run()
LOG: Closed client: /10.0.0.11:50290in MyMiddleware.run()
LOG: Closed client: /10.0.0.11:50332in MyMiddleware.run()
LOG: Closed client: /10.0.0.11:50294in MyMiddleware.run()
LOG: Closed client: /10.0.0.11:50324in MyMiddleware.run()
LOG: Closed client: /10.0.0.11:50302in MyMiddleware.run()
LOG: Closed client: /10.0.0.11:50304in MyMiddleware.run()
LOG: Closed client: /10.0.0.11:50320in MyMiddleware.run()
LOG: Closed client: /10.0.0.11:50328in MyMiddleware.run()
LOG: Closed client: /10.0.0.11:50322in MyMiddleware.run()
LOG: Closed client: /10.0.0.11:50296in MyMiddleware.run()
LOG: Closed client: /10.0.0.11:50326in MyMiddleware.run()
LOG: Closed client: /10.0.0.11:50340in MyMiddleware.run()
LOG: Closed client: /10.0.0.11:50318in MyMiddleware.run()
LOG: Closed client: /10.0.0.11:50336in MyMiddleware.run()
LOG: Closed client: /10.0.0.11:50300in MyMiddleware.run()
LOG: Closed client: /10.0.0.11:50346in MyMiddleware.run()
LOG: Closed client: /10.0.0.11:50338in MyMiddleware.run()
LOG: Closed client: /10.0.0.11:50342in MyMiddleware.run()
LOG: Closed client: /10.0.0.11:50330in MyMiddleware.run()
LOG: Closed client: /10.0.0.11:50312in MyMiddleware.run()
LOG: Closed client: /10.0.0.11:50334in MyMiddleware.run()
LOG: Closed client: /10.0.0.11:50316in MyMiddleware.run()
LOG: Closed client: /10.0.0.11:50292in MyMiddleware.run()
LOG: Closed client: /10.0.0.11:50314in MyMiddleware.run()
LOG: Closed client: /10.0.0.11:50310in MyMiddleware.run()
LOG: Closed client: /10.0.0.11:50298in MyMiddleware.run()
LOG: Closed client: /10.0.0.6:33080in MyMiddleware.run()
LOG: Closed client: /10.0.0.6:33058in MyMiddleware.run()
LOG: Closed client: /10.0.0.6:33090in MyMiddleware.run()
LOG: Closed client: /10.0.0.6:33050in MyMiddleware.run()
LOG: Closed client: /10.0.0.6:33086in MyMiddleware.run()
LOG: Closed client: /10.0.0.6:33062in MyMiddleware.run()
LOG: Closed client: /10.0.0.6:33072in MyMiddleware.run()
LOG: Closed client: /10.0.0.6:33076in MyMiddleware.run()
LOG: Closed client: /10.0.0.6:33048in MyMiddleware.run()
LOG: Closed client: /10.0.0.6:33078in MyMiddleware.run()
LOG: Closed client: /10.0.0.11:50344in MyMiddleware.run()
LOG: Closed client: /10.0.0.11:50348in MyMiddleware.run()
LOG: Closed client: /10.0.0.6:33054in MyMiddleware.run()
LOG: Closed client: /10.0.0.11:50308in MyMiddleware.run()
LOG: Closed client: /10.0.0.6:33066in MyMiddleware.run()
LOG: Closed client: /10.0.0.6:33082in MyMiddleware.run()
LOG: Closed client: /10.0.0.6:33074in MyMiddleware.run()
LOG: Closed client: /10.0.0.6:33092in MyMiddleware.run()
LOG: Closed client: /10.0.0.6:33056in MyMiddleware.run()
LOG: Closed client: /10.0.0.6:33102in MyMiddleware.run()
LOG: Closed client: /10.0.0.6:33084in MyMiddleware.run()
LOG: Closed client: /10.0.0.11:50352in MyMiddleware.run()
LOG: Closed client: /10.0.0.6:33094in MyMiddleware.run()
LOG: Closed client: /10.0.0.6:33098in MyMiddleware.run()
LOG: Closed client: /10.0.0.6:33060in MyMiddleware.run()
LOG: Closed client: /10.0.0.6:33046in MyMiddleware.run()
LOG: Closed client: /10.0.0.6:33068in MyMiddleware.run()
LOG: Closed client: /10.0.0.6:33088in MyMiddleware.run()
LOG: Closed client: /10.0.0.11:50306in MyMiddleware.run()
LOG: Closed client: /10.0.0.6:33070in MyMiddleware.run()
LOG: Closed client: /10.0.0.11:50350in MyMiddleware.run()
LOG: Closed client: /10.0.0.6:33052in MyMiddleware.run()
LOG: Closed client: /10.0.0.6:33064in MyMiddleware.run()
LOG: Closed client: /10.0.0.6:33096in MyMiddleware.run()
LOG: Closed client: /10.0.0.6:33100in MyMiddleware.run()
LOG: Closed client: /10.0.0.6:33106in MyMiddleware.run()
LOG: Closed client: /10.0.0.6:33104in MyMiddleware.run()
LOG: Closed client: /10.0.0.6:33108in MyMiddleware.run()
LOG: Closed client: /10.0.0.7:51090in MyMiddleware.run()
LOG: Closed client: /10.0.0.7:51112in MyMiddleware.run()
LOG: Closed client: /10.0.0.7:51116in MyMiddleware.run()
LOG: Closed client: /10.0.0.7:51092in MyMiddleware.run()
LOG: Closed client: /10.0.0.7:51142in MyMiddleware.run()
LOG: Closed client: /10.0.0.7:51122in MyMiddleware.run()
LOG: Closed client: /10.0.0.7:51106in MyMiddleware.run()
LOG: Closed client: /10.0.0.7:51100in MyMiddleware.run()
LOG: Closed client: /10.0.0.7:51084in MyMiddleware.run()
LOG: Closed client: /10.0.0.7:51132in MyMiddleware.run()
LOG: Closed client: /10.0.0.7:51138in MyMiddleware.run()
LOG: Closed client: /10.0.0.7:51108in MyMiddleware.run()
LOG: Closed client: /10.0.0.7:51088in MyMiddleware.run()
LOG: Closed client: /10.0.0.7:51094in MyMiddleware.run()
LOG: Closed client: /10.0.0.7:51086in MyMiddleware.run()
LOG: Closed client: /10.0.0.7:51098in MyMiddleware.run()
LOG: Closed client: /10.0.0.7:51130in MyMiddleware.run()
LOG: Closed client: /10.0.0.7:51136in MyMiddleware.run()
LOG: Closed client: /10.0.0.7:51140in MyMiddleware.run()
LOG: Closed client: /10.0.0.7:51080in MyMiddleware.run()
LOG: Closed client: /10.0.0.7:51110in MyMiddleware.run()
LOG: Closed client: /10.0.0.7:51126in MyMiddleware.run()
LOG: Closed client: /10.0.0.7:51102in MyMiddleware.run()
LOG: Closed client: /10.0.0.7:51082in MyMiddleware.run()
LOG: Closed client: /10.0.0.7:51124in MyMiddleware.run()
LOG: Closed client: /10.0.0.7:51114in MyMiddleware.run()
LOG: Closed client: /10.0.0.7:51096in MyMiddleware.run()
LOG: Closed client: /10.0.0.7:51134in MyMiddleware.run()
LOG: Closed client: /10.0.0.7:51128in MyMiddleware.run()
LOG: Closed client: /10.0.0.7:51118in MyMiddleware.run()
LOG: Closed client: /10.0.0.7:51104in MyMiddleware.run()
LOG: Closed client: /10.0.0.7:51120in MyMiddleware.run()
