------------Middleware started!------------
LOG: Waiting for connection in MyMiddleware.run()
LOG: Accepted client: /10.0.0.6:36250in MyMiddleware.run()
LOG: Accepted client: /10.0.0.6:36246in MyMiddleware.run()
LOG: Accepted client: /10.0.0.6:36252in MyMiddleware.run()
LOG: Accepted client: /10.0.0.6:36248in MyMiddleware.run()
LOG: Accepted client: /10.0.0.11:53524in MyMiddleware.run()
LOG: Accepted client: /10.0.0.11:53526in MyMiddleware.run()
LOG: Accepted client: /10.0.0.11:53522in MyMiddleware.run()
LOG: Accepted client: /10.0.0.7:54276in MyMiddleware.run()
LOG: Accepted client: /10.0.0.7:54278in MyMiddleware.run()
LOG: Accepted client: /10.0.0.7:54274in MyMiddleware.run()
LOG: Accepted client: /10.0.0.7:54272in MyMiddleware.run()
LOG: Accepted client: /10.0.0.11:53528in MyMiddleware.run()
LOG: Closed client: /10.0.0.6:36248in MyMiddleware.run()
LOG: Closed client: /10.0.0.6:36250in MyMiddleware.run()
LOG: Closed client: /10.0.0.6:36252in MyMiddleware.run()
LOG: Closed client: /10.0.0.6:36246in MyMiddleware.run()
LOG: Closed client: /10.0.0.11:53526in MyMiddleware.run()
LOG: Closed client: /10.0.0.11:53522in MyMiddleware.run()
LOG: Closed client: /10.0.0.11:53524in MyMiddleware.run()
LOG: Closed client: /10.0.0.11:53528in MyMiddleware.run()
LOG: Closed client: /10.0.0.7:54272in MyMiddleware.run()
LOG: Closed client: /10.0.0.7:54274in MyMiddleware.run()
LOG: Closed client: /10.0.0.7:54278in MyMiddleware.run()
LOG: Closed client: /10.0.0.7:54276in MyMiddleware.run()
