------------Middleware started!------------
LOG: Waiting for connection in MyMiddleware.run()
LOG: Accepted client: /10.0.0.7:53088in MyMiddleware.run()
LOG: Accepted client: /10.0.0.7:53084in MyMiddleware.run()
LOG: Accepted client: /10.0.0.7:53090in MyMiddleware.run()
LOG: Accepted client: /10.0.0.7:53086in MyMiddleware.run()
LOG: Accepted client: /10.0.0.6:35042in MyMiddleware.run()
LOG: Accepted client: /10.0.0.6:35044in MyMiddleware.run()
LOG: Accepted client: /10.0.0.6:35046in MyMiddleware.run()
LOG: Accepted client: /10.0.0.6:35040in MyMiddleware.run()
LOG: Accepted client: /10.0.0.11:52306in MyMiddleware.run()
LOG: Accepted client: /10.0.0.11:52302in MyMiddleware.run()
LOG: Accepted client: /10.0.0.11:52304in MyMiddleware.run()
LOG: Accepted client: /10.0.0.11:52308in MyMiddleware.run()
LOG: Closed client: /10.0.0.7:53086in MyMiddleware.run()
LOG: Closed client: /10.0.0.7:53084in MyMiddleware.run()
LOG: Closed client: /10.0.0.7:53088in MyMiddleware.run()
LOG: Closed client: /10.0.0.7:53090in MyMiddleware.run()
LOG: Closed client: /10.0.0.6:35040in MyMiddleware.run()
LOG: Closed client: /10.0.0.6:35046in MyMiddleware.run()
LOG: Closed client: /10.0.0.6:35044in MyMiddleware.run()
LOG: Closed client: /10.0.0.6:35042in MyMiddleware.run()
LOG: Closed client: /10.0.0.11:52302in MyMiddleware.run()
LOG: Closed client: /10.0.0.11:52306in MyMiddleware.run()
LOG: Closed client: /10.0.0.11:52304in MyMiddleware.run()
LOG: Closed client: /10.0.0.11:52308in MyMiddleware.run()
