------------Middleware started!------------
LOG: Waiting for connection in MyMiddleware.run()
LOG: Accepted client: /10.0.0.11:49560in MyMiddleware.run()
LOG: Accepted client: /10.0.0.11:49562in MyMiddleware.run()
LOG: Accepted client: /10.0.0.11:49618in MyMiddleware.run()
LOG: Accepted client: /10.0.0.11:49570in MyMiddleware.run()
LOG: Accepted client: /10.0.0.11:49596in MyMiddleware.run()
LOG: Accepted client: /10.0.0.11:49614in MyMiddleware.run()
LOG: Accepted client: /10.0.0.11:49616in MyMiddleware.run()
LOG: Accepted client: /10.0.0.11:49568in MyMiddleware.run()
LOG: Accepted client: /10.0.0.11:49608in MyMiddleware.run()
LOG: Accepted client: /10.0.0.11:49612in MyMiddleware.run()
LOG: Accepted client: /10.0.0.11:49572in MyMiddleware.run()
LOG: Accepted client: /10.0.0.11:49594in MyMiddleware.run()
LOG: Accepted client: /10.0.0.11:49566in MyMiddleware.run()
LOG: Accepted client: /10.0.0.11:49574in MyMiddleware.run()
LOG: Accepted client: /10.0.0.11:49592in MyMiddleware.run()
LOG: Accepted client: /10.0.0.11:49564in MyMiddleware.run()
LOG: Accepted client: /10.0.0.11:49598in MyMiddleware.run()
LOG: Accepted client: /10.0.0.11:49610in MyMiddleware.run()
LOG: Accepted client: /10.0.0.6:60616in MyMiddleware.run()
LOG: Accepted client: /10.0.0.6:60608in MyMiddleware.run()
LOG: Accepted client: /10.0.0.6:60628in MyMiddleware.run()
LOG: Accepted client: /10.0.0.6:60624in MyMiddleware.run()
LOG: Accepted client: /10.0.0.6:60632in MyMiddleware.run()
LOG: Accepted client: /10.0.0.6:60626in MyMiddleware.run()
LOG: Accepted client: /10.0.0.6:60664in MyMiddleware.run()
LOG: Accepted client: /10.0.0.6:60636in MyMiddleware.run()
LOG: Accepted client: /10.0.0.6:60644in MyMiddleware.run()
LOG: Accepted client: /10.0.0.6:60656in MyMiddleware.run()
LOG: Accepted client: /10.0.0.6:60614in MyMiddleware.run()
LOG: Accepted client: /10.0.0.6:60634in MyMiddleware.run()
LOG: Accepted client: /10.0.0.6:60620in MyMiddleware.run()
LOG: Accepted client: /10.0.0.6:60648in MyMiddleware.run()
LOG: Accepted client: /10.0.0.6:60610in MyMiddleware.run()
LOG: Accepted client: /10.0.0.6:60650in MyMiddleware.run()
LOG: Accepted client: /10.0.0.6:60652in MyMiddleware.run()
LOG: Accepted client: /10.0.0.6:60612in MyMiddleware.run()
LOG: Accepted client: /10.0.0.6:60638in MyMiddleware.run()
LOG: Accepted client: /10.0.0.11:49558in MyMiddleware.run()
LOG: Accepted client: /10.0.0.11:49556in MyMiddleware.run()
LOG: Accepted client: /10.0.0.6:60642in MyMiddleware.run()
LOG: Accepted client: /10.0.0.6:60670in MyMiddleware.run()
LOG: Accepted client: /10.0.0.6:60668in MyMiddleware.run()
LOG: Accepted client: /10.0.0.11:49584in MyMiddleware.run()
LOG: Accepted client: /10.0.0.11:49578in MyMiddleware.run()
LOG: Accepted client: /10.0.0.11:49576in MyMiddleware.run()
LOG: Accepted client: /10.0.0.11:49602in MyMiddleware.run()
LOG: Accepted client: /10.0.0.6:60640in MyMiddleware.run()
LOG: Accepted client: /10.0.0.11:49588in MyMiddleware.run()
LOG: Accepted client: /10.0.0.11:49580in MyMiddleware.run()
LOG: Accepted client: /10.0.0.11:49600in MyMiddleware.run()
LOG: Accepted client: /10.0.0.11:49590in MyMiddleware.run()
LOG: Accepted client: /10.0.0.11:49604in MyMiddleware.run()
LOG: Accepted client: /10.0.0.6:60660in MyMiddleware.run()
LOG: Accepted client: /10.0.0.7:50462in MyMiddleware.run()
LOG: Accepted client: /10.0.0.7:50444in MyMiddleware.run()
LOG: Accepted client: /10.0.0.7:50456in MyMiddleware.run()
LOG: Accepted client: /10.0.0.7:50466in MyMiddleware.run()
LOG: Accepted client: /10.0.0.7:50412in MyMiddleware.run()
LOG: Accepted client: /10.0.0.7:50452in MyMiddleware.run()
LOG: Accepted client: /10.0.0.7:50418in MyMiddleware.run()
LOG: Accepted client: /10.0.0.7:50450in MyMiddleware.run()
LOG: Accepted client: /10.0.0.7:50446in MyMiddleware.run()
LOG: Accepted client: /10.0.0.6:60618in MyMiddleware.run()
LOG: Accepted client: /10.0.0.6:60654in MyMiddleware.run()
LOG: Accepted client: /10.0.0.6:60658in MyMiddleware.run()
LOG: Accepted client: /10.0.0.6:60662in MyMiddleware.run()
LOG: Accepted client: /10.0.0.6:60630in MyMiddleware.run()
LOG: Accepted client: /10.0.0.6:60646in MyMiddleware.run()
LOG: Accepted client: /10.0.0.6:60666in MyMiddleware.run()
LOG: Accepted client: /10.0.0.6:60622in MyMiddleware.run()
LOG: Accepted client: /10.0.0.11:49582in MyMiddleware.run()
LOG: Accepted client: /10.0.0.11:49606in MyMiddleware.run()
LOG: Accepted client: /10.0.0.11:49586in MyMiddleware.run()
LOG: Accepted client: /10.0.0.7:50464in MyMiddleware.run()
LOG: Accepted client: /10.0.0.7:50458in MyMiddleware.run()
LOG: Accepted client: /10.0.0.7:50416in MyMiddleware.run()
LOG: Accepted client: /10.0.0.7:50410in MyMiddleware.run()
LOG: Accepted client: /10.0.0.7:50454in MyMiddleware.run()
LOG: Accepted client: /10.0.0.7:50460in MyMiddleware.run()
LOG: Accepted client: /10.0.0.7:50448in MyMiddleware.run()
LOG: Accepted client: /10.0.0.7:50414in MyMiddleware.run()
LOG: Accepted client: /10.0.0.7:50428in MyMiddleware.run()
LOG: Accepted client: /10.0.0.7:50470in MyMiddleware.run()
LOG: Accepted client: /10.0.0.7:50440in MyMiddleware.run()
LOG: Accepted client: /10.0.0.7:50432in MyMiddleware.run()
LOG: Accepted client: /10.0.0.7:50422in MyMiddleware.run()
LOG: Accepted client: /10.0.0.7:50438in MyMiddleware.run()
LOG: Accepted client: /10.0.0.7:50426in MyMiddleware.run()
LOG: Accepted client: /10.0.0.7:50430in MyMiddleware.run()
LOG: Accepted client: /10.0.0.7:50472in MyMiddleware.run()
LOG: Accepted client: /10.0.0.7:50434in MyMiddleware.run()
LOG: Accepted client: /10.0.0.7:50436in MyMiddleware.run()
LOG: Accepted client: /10.0.0.7:50468in MyMiddleware.run()
LOG: Accepted client: /10.0.0.7:50420in MyMiddleware.run()
LOG: Accepted client: /10.0.0.7:50442in MyMiddleware.run()
LOG: Accepted client: /10.0.0.7:50424in MyMiddleware.run()
LOG: Closed client: /10.0.0.11:49560in MyMiddleware.run()
LOG: Closed client: /10.0.0.11:49562in MyMiddleware.run()
LOG: Closed client: /10.0.0.11:49558in MyMiddleware.run()
LOG: Closed client: /10.0.0.11:49556in MyMiddleware.run()
LOG: Closed client: /10.0.0.11:49564in MyMiddleware.run()
LOG: Closed client: /10.0.0.11:49574in MyMiddleware.run()
LOG: Closed client: /10.0.0.11:49578in MyMiddleware.run()
LOG: Closed client: /10.0.0.11:49592in MyMiddleware.run()
LOG: Closed client: /10.0.0.11:49618in MyMiddleware.run()
LOG: Closed client: /10.0.0.11:49584in MyMiddleware.run()
LOG: Closed client: /10.0.0.11:49598in MyMiddleware.run()
LOG: Closed client: /10.0.0.11:49594in MyMiddleware.run()
LOG: Closed client: /10.0.0.11:49572in MyMiddleware.run()
LOG: Closed client: /10.0.0.11:49614in MyMiddleware.run()
LOG: Closed client: /10.0.0.11:49600in MyMiddleware.run()
LOG: Closed client: /10.0.0.11:49586in MyMiddleware.run()
LOG: Closed client: /10.0.0.11:49610in MyMiddleware.run()
LOG: Closed client: /10.0.0.11:49612in MyMiddleware.run()
LOG: Closed client: /10.0.0.11:49576in MyMiddleware.run()
LOG: Closed client: /10.0.0.11:49588in MyMiddleware.run()
LOG: Closed client: /10.0.0.11:49590in MyMiddleware.run()
LOG: Closed client: /10.0.0.11:49566in MyMiddleware.run()
LOG: Closed client: /10.0.0.11:49568in MyMiddleware.run()
LOG: Closed client: /10.0.0.11:49616in MyMiddleware.run()
LOG: Closed client: /10.0.0.11:49602in MyMiddleware.run()
LOG: Closed client: /10.0.0.11:49580in MyMiddleware.run()
LOG: Closed client: /10.0.0.11:49570in MyMiddleware.run()
LOG: Closed client: /10.0.0.11:49604in MyMiddleware.run()
LOG: Closed client: /10.0.0.11:49596in MyMiddleware.run()
LOG: Closed client: /10.0.0.11:49606in MyMiddleware.run()
LOG: Closed client: /10.0.0.11:49582in MyMiddleware.run()
LOG: Closed client: /10.0.0.11:49608in MyMiddleware.run()
LOG: Closed client: /10.0.0.6:60608in MyMiddleware.run()
LOG: Closed client: /10.0.0.6:60622in MyMiddleware.run()
LOG: Closed client: /10.0.0.6:60620in MyMiddleware.run()
LOG: Closed client: /10.0.0.6:60610in MyMiddleware.run()
LOG: Closed client: /10.0.0.6:60650in MyMiddleware.run()
LOG: Closed client: /10.0.0.6:60632in MyMiddleware.run()
LOG: Closed client: /10.0.0.6:60634in MyMiddleware.run()
LOG: Closed client: /10.0.0.6:60640in MyMiddleware.run()
LOG: Closed client: /10.0.0.6:60626in MyMiddleware.run()
LOG: Closed client: /10.0.0.6:60628in MyMiddleware.run()
LOG: Closed client: /10.0.0.6:60636in MyMiddleware.run()
LOG: Closed client: /10.0.0.6:60630in MyMiddleware.run()
LOG: Closed client: /10.0.0.6:60624in MyMiddleware.run()
LOG: Closed client: /10.0.0.6:60648in MyMiddleware.run()
LOG: Closed client: /10.0.0.6:60652in MyMiddleware.run()
LOG: Closed client: /10.0.0.6:60654in MyMiddleware.run()
LOG: Closed client: /10.0.0.6:60612in MyMiddleware.run()
LOG: Closed client: /10.0.0.6:60642in MyMiddleware.run()
LOG: Closed client: /10.0.0.6:60638in MyMiddleware.run()
LOG: Closed client: /10.0.0.6:60658in MyMiddleware.run()
LOG: Closed client: /10.0.0.6:60614in MyMiddleware.run()
LOG: Closed client: /10.0.0.6:60656in MyMiddleware.run()
LOG: Closed client: /10.0.0.6:60666in MyMiddleware.run()
LOG: Closed client: /10.0.0.6:60662in MyMiddleware.run()
LOG: Closed client: /10.0.0.6:60668in MyMiddleware.run()
LOG: Closed client: /10.0.0.6:60664in MyMiddleware.run()
LOG: Closed client: /10.0.0.6:60660in MyMiddleware.run()
LOG: Closed client: /10.0.0.6:60670in MyMiddleware.run()
LOG: Closed client: /10.0.0.6:60618in MyMiddleware.run()
LOG: Closed client: /10.0.0.6:60616in MyMiddleware.run()
LOG: Closed client: /10.0.0.6:60646in MyMiddleware.run()
LOG: Closed client: /10.0.0.6:60644in MyMiddleware.run()
LOG: Closed client: /10.0.0.7:50456in MyMiddleware.run()
LOG: Closed client: /10.0.0.7:50424in MyMiddleware.run()
LOG: Closed client: /10.0.0.7:50412in MyMiddleware.run()
LOG: Closed client: /10.0.0.7:50436in MyMiddleware.run()
LOG: Closed client: /10.0.0.7:50462in MyMiddleware.run()
LOG: Closed client: /10.0.0.7:50464in MyMiddleware.run()
LOG: Closed client: /10.0.0.7:50418in MyMiddleware.run()
LOG: Closed client: /10.0.0.7:50416in MyMiddleware.run()
LOG: Closed client: /10.0.0.7:50438in MyMiddleware.run()
LOG: Closed client: /10.0.0.7:50446in MyMiddleware.run()
LOG: Closed client: /10.0.0.7:50428in MyMiddleware.run()
LOG: Closed client: /10.0.0.7:50458in MyMiddleware.run()
LOG: Closed client: /10.0.0.7:50410in MyMiddleware.run()
LOG: Closed client: /10.0.0.7:50450in MyMiddleware.run()
LOG: Closed client: /10.0.0.7:50452in MyMiddleware.run()
LOG: Closed client: /10.0.0.7:50434in MyMiddleware.run()
LOG: Closed client: /10.0.0.7:50430in MyMiddleware.run()
LOG: Closed client: /10.0.0.7:50470in MyMiddleware.run()
LOG: Closed client: /10.0.0.7:50440in MyMiddleware.run()
LOG: Closed client: /10.0.0.7:50442in MyMiddleware.run()
LOG: Closed client: /10.0.0.7:50444in MyMiddleware.run()
LOG: Closed client: /10.0.0.7:50432in MyMiddleware.run()
LOG: Closed client: /10.0.0.7:50420in MyMiddleware.run()
LOG: Closed client: /10.0.0.7:50468in MyMiddleware.run()
LOG: Closed client: /10.0.0.7:50454in MyMiddleware.run()
LOG: Closed client: /10.0.0.7:50448in MyMiddleware.run()
LOG: Closed client: /10.0.0.7:50460in MyMiddleware.run()
LOG: Closed client: /10.0.0.7:50422in MyMiddleware.run()
LOG: Closed client: /10.0.0.7:50414in MyMiddleware.run()
LOG: Closed client: /10.0.0.7:50466in MyMiddleware.run()
LOG: Closed client: /10.0.0.7:50472in MyMiddleware.run()
LOG: Closed client: /10.0.0.7:50426in MyMiddleware.run()
