------------Middleware started!------------
LOG: Waiting for connection in MyMiddleware.run()
LOG: Accepted client: /10.0.0.7:49630in MyMiddleware.run()
LOG: Accepted client: /10.0.0.7:49644in MyMiddleware.run()
LOG: Accepted client: /10.0.0.7:49622in MyMiddleware.run()
LOG: Accepted client: /10.0.0.7:49634in MyMiddleware.run()
LOG: Accepted client: /10.0.0.7:49638in MyMiddleware.run()
LOG: Accepted client: /10.0.0.7:49636in MyMiddleware.run()
LOG: Accepted client: /10.0.0.7:49646in MyMiddleware.run()
LOG: Accepted client: /10.0.0.7:49650in MyMiddleware.run()
LOG: Accepted client: /10.0.0.7:49668in MyMiddleware.run()
LOG: Accepted client: /10.0.0.7:49664in MyMiddleware.run()
LOG: Accepted client: /10.0.0.7:49666in MyMiddleware.run()
LOG: Accepted client: /10.0.0.7:49670in MyMiddleware.run()
LOG: Accepted client: /10.0.0.7:49632in MyMiddleware.run()
LOG: Accepted client: /10.0.0.7:49662in MyMiddleware.run()
LOG: Accepted client: /10.0.0.7:49656in MyMiddleware.run()
LOG: Accepted client: /10.0.0.7:49648in MyMiddleware.run()
LOG: Accepted client: /10.0.0.7:49682in MyMiddleware.run()
LOG: Accepted client: /10.0.0.7:49642in MyMiddleware.run()
LOG: Accepted client: /10.0.0.7:49620in MyMiddleware.run()
LOG: Accepted client: /10.0.0.7:49658in MyMiddleware.run()
LOG: Accepted client: /10.0.0.7:49640in MyMiddleware.run()
LOG: Accepted client: /10.0.0.7:49628in MyMiddleware.run()
LOG: Accepted client: /10.0.0.7:49678in MyMiddleware.run()
LOG: Accepted client: /10.0.0.7:49652in MyMiddleware.run()
LOG: Accepted client: /10.0.0.7:49624in MyMiddleware.run()
LOG: Accepted client: /10.0.0.7:49626in MyMiddleware.run()
LOG: Accepted client: /10.0.0.7:49654in MyMiddleware.run()
LOG: Accepted client: /10.0.0.7:49672in MyMiddleware.run()
LOG: Accepted client: /10.0.0.7:49676in MyMiddleware.run()
LOG: Accepted client: /10.0.0.7:49680in MyMiddleware.run()
LOG: Accepted client: /10.0.0.7:49674in MyMiddleware.run()
LOG: Accepted client: /10.0.0.7:49660in MyMiddleware.run()
LOG: Accepted client: /10.0.0.6:59892in MyMiddleware.run()
LOG: Accepted client: /10.0.0.6:59902in MyMiddleware.run()
LOG: Accepted client: /10.0.0.6:59924in MyMiddleware.run()
LOG: Accepted client: /10.0.0.6:59894in MyMiddleware.run()
LOG: Accepted client: /10.0.0.6:59906in MyMiddleware.run()
LOG: Accepted client: /10.0.0.6:59884in MyMiddleware.run()
LOG: Accepted client: /10.0.0.6:59920in MyMiddleware.run()
LOG: Accepted client: /10.0.0.6:59944in MyMiddleware.run()
LOG: Accepted client: /10.0.0.6:59886in MyMiddleware.run()
LOG: Accepted client: /10.0.0.6:59914in MyMiddleware.run()
LOG: Accepted client: /10.0.0.6:59912in MyMiddleware.run()
LOG: Accepted client: /10.0.0.6:59922in MyMiddleware.run()
LOG: Accepted client: /10.0.0.6:59882in MyMiddleware.run()
LOG: Accepted client: /10.0.0.6:59898in MyMiddleware.run()
LOG: Accepted client: /10.0.0.6:59888in MyMiddleware.run()
LOG: Accepted client: /10.0.0.6:59896in MyMiddleware.run()
LOG: Accepted client: /10.0.0.6:59918in MyMiddleware.run()
LOG: Accepted client: /10.0.0.6:59890in MyMiddleware.run()
LOG: Accepted client: /10.0.0.6:59916in MyMiddleware.run()
LOG: Accepted client: /10.0.0.6:59926in MyMiddleware.run()
LOG: Accepted client: /10.0.0.6:59938in MyMiddleware.run()
LOG: Accepted client: /10.0.0.6:59936in MyMiddleware.run()
LOG: Accepted client: /10.0.0.6:59942in MyMiddleware.run()
LOG: Accepted client: /10.0.0.6:59930in MyMiddleware.run()
LOG: Accepted client: /10.0.0.6:59928in MyMiddleware.run()
LOG: Accepted client: /10.0.0.6:59940in MyMiddleware.run()
LOG: Accepted client: /10.0.0.6:59932in MyMiddleware.run()
LOG: Accepted client: /10.0.0.6:59910in MyMiddleware.run()
LOG: Accepted client: /10.0.0.6:59904in MyMiddleware.run()
LOG: Accepted client: /10.0.0.6:59900in MyMiddleware.run()
LOG: Accepted client: /10.0.0.6:59908in MyMiddleware.run()
LOG: Accepted client: /10.0.0.6:59934in MyMiddleware.run()
LOG: Accepted client: /10.0.0.11:48920in MyMiddleware.run()
LOG: Accepted client: /10.0.0.11:48918in MyMiddleware.run()
LOG: Accepted client: /10.0.0.11:48914in MyMiddleware.run()
LOG: Accepted client: /10.0.0.11:48904in MyMiddleware.run()
LOG: Accepted client: /10.0.0.11:48958in MyMiddleware.run()
LOG: Accepted client: /10.0.0.11:48906in MyMiddleware.run()
LOG: Accepted client: /10.0.0.11:48952in MyMiddleware.run()
LOG: Accepted client: /10.0.0.11:48956in MyMiddleware.run()
LOG: Accepted client: /10.0.0.11:48908in MyMiddleware.run()
LOG: Accepted client: /10.0.0.11:48938in MyMiddleware.run()
LOG: Accepted client: /10.0.0.11:48932in MyMiddleware.run()
LOG: Accepted client: /10.0.0.11:48936in MyMiddleware.run()
LOG: Accepted client: /10.0.0.11:48910in MyMiddleware.run()
LOG: Accepted client: /10.0.0.11:48954in MyMiddleware.run()
LOG: Accepted client: /10.0.0.11:48948in MyMiddleware.run()
LOG: Accepted client: /10.0.0.11:48922in MyMiddleware.run()
LOG: Accepted client: /10.0.0.11:48926in MyMiddleware.run()
LOG: Accepted client: /10.0.0.11:48916in MyMiddleware.run()
LOG: Accepted client: /10.0.0.11:48924in MyMiddleware.run()
LOG: Accepted client: /10.0.0.11:48902in MyMiddleware.run()
LOG: Accepted client: /10.0.0.11:48950in MyMiddleware.run()
LOG: Accepted client: /10.0.0.11:48946in MyMiddleware.run()
LOG: Accepted client: /10.0.0.11:48912in MyMiddleware.run()
LOG: Accepted client: /10.0.0.11:48934in MyMiddleware.run()
LOG: Accepted client: /10.0.0.11:48942in MyMiddleware.run()
LOG: Accepted client: /10.0.0.11:48928in MyMiddleware.run()
LOG: Accepted client: /10.0.0.11:48962in MyMiddleware.run()
LOG: Accepted client: /10.0.0.11:48930in MyMiddleware.run()
LOG: Accepted client: /10.0.0.11:48944in MyMiddleware.run()
LOG: Accepted client: /10.0.0.11:48940in MyMiddleware.run()
LOG: Accepted client: /10.0.0.11:48960in MyMiddleware.run()
LOG: Accepted client: /10.0.0.11:48964in MyMiddleware.run()
LOG: Closed client: /10.0.0.7:49634in MyMiddleware.run()
LOG: Closed client: /10.0.0.7:49648in MyMiddleware.run()
LOG: Closed client: /10.0.0.7:49656in MyMiddleware.run()
LOG: Closed client: /10.0.0.7:49650in MyMiddleware.run()
LOG: Closed client: /10.0.0.7:49620in MyMiddleware.run()
LOG: Closed client: /10.0.0.7:49654in MyMiddleware.run()
LOG: Closed client: /10.0.0.7:49628in MyMiddleware.run()
LOG: Closed client: /10.0.0.7:49642in MyMiddleware.run()
LOG: Closed client: /10.0.0.7:49626in MyMiddleware.run()
LOG: Closed client: /10.0.0.7:49622in MyMiddleware.run()
LOG: Closed client: /10.0.0.7:49652in MyMiddleware.run()
LOG: Closed client: /10.0.0.7:49668in MyMiddleware.run()
LOG: Closed client: /10.0.0.7:49632in MyMiddleware.run()
LOG: Closed client: /10.0.0.7:49636in MyMiddleware.run()
LOG: Closed client: /10.0.0.7:49638in MyMiddleware.run()
LOG: Closed client: /10.0.0.7:49630in MyMiddleware.run()
LOG: Closed client: /10.0.0.7:49640in MyMiddleware.run()
LOG: Closed client: /10.0.0.7:49624in MyMiddleware.run()
LOG: Closed client: /10.0.0.7:49664in MyMiddleware.run()
LOG: Closed client: /10.0.0.7:49660in MyMiddleware.run()
LOG: Closed client: /10.0.0.7:49680in MyMiddleware.run()
LOG: Closed client: /10.0.0.7:49644in MyMiddleware.run()
LOG: Closed client: /10.0.0.7:49674in MyMiddleware.run()
LOG: Closed client: /10.0.0.7:49672in MyMiddleware.run()
LOG: Closed client: /10.0.0.7:49662in MyMiddleware.run()
LOG: Closed client: /10.0.0.7:49666in MyMiddleware.run()
LOG: Closed client: /10.0.0.7:49670in MyMiddleware.run()
LOG: Closed client: /10.0.0.7:49646in MyMiddleware.run()
LOG: Closed client: /10.0.0.7:49676in MyMiddleware.run()
LOG: Closed client: /10.0.0.7:49678in MyMiddleware.run()
LOG: Closed client: /10.0.0.7:49658in MyMiddleware.run()
LOG: Closed client: /10.0.0.7:49682in MyMiddleware.run()
LOG: Closed client: /10.0.0.6:59884in MyMiddleware.run()
LOG: Closed client: /10.0.0.6:59900in MyMiddleware.run()
LOG: Closed client: /10.0.0.6:59886in MyMiddleware.run()
LOG: Closed client: /10.0.0.6:59888in MyMiddleware.run()
LOG: Closed client: /10.0.0.6:59882in MyMiddleware.run()
LOG: Closed client: /10.0.0.6:59894in MyMiddleware.run()
LOG: Closed client: /10.0.0.6:59918in MyMiddleware.run()
LOG: Closed client: /10.0.0.6:59890in MyMiddleware.run()
LOG: Closed client: /10.0.0.6:59910in MyMiddleware.run()
LOG: Closed client: /10.0.0.6:59920in MyMiddleware.run()
LOG: Closed client: /10.0.0.6:59898in MyMiddleware.run()
LOG: Closed client: /10.0.0.6:59908in MyMiddleware.run()
LOG: Closed client: /10.0.0.6:59922in MyMiddleware.run()
LOG: Closed client: /10.0.0.6:59932in MyMiddleware.run()
LOG: Closed client: /10.0.0.6:59892in MyMiddleware.run()
LOG: Closed client: /10.0.0.6:59906in MyMiddleware.run()
LOG: Closed client: /10.0.0.6:59914in MyMiddleware.run()
LOG: Closed client: /10.0.0.6:59924in MyMiddleware.run()
LOG: Closed client: /10.0.0.6:59902in MyMiddleware.run()
LOG: Closed client: /10.0.0.6:59904in MyMiddleware.run()
LOG: Closed client: /10.0.0.6:59934in MyMiddleware.run()
LOG: Closed client: /10.0.0.6:59896in MyMiddleware.run()
LOG: Closed client: /10.0.0.6:59916in MyMiddleware.run()
LOG: Closed client: /10.0.0.6:59940in MyMiddleware.run()
LOG: Closed client: /10.0.0.6:59926in MyMiddleware.run()
LOG: Closed client: /10.0.0.6:59930in MyMiddleware.run()
LOG: Closed client: /10.0.0.6:59938in MyMiddleware.run()
LOG: Closed client: /10.0.0.6:59928in MyMiddleware.run()
LOG: Closed client: /10.0.0.6:59936in MyMiddleware.run()
LOG: Closed client: /10.0.0.6:59942in MyMiddleware.run()
LOG: Closed client: /10.0.0.6:59912in MyMiddleware.run()
LOG: Closed client: /10.0.0.6:59944in MyMiddleware.run()
LOG: Closed client: /10.0.0.11:48906in MyMiddleware.run()
LOG: Closed client: /10.0.0.11:48910in MyMiddleware.run()
LOG: Closed client: /10.0.0.11:48904in MyMiddleware.run()
LOG: Closed client: /10.0.0.11:48908in MyMiddleware.run()
LOG: Closed client: /10.0.0.11:48928in MyMiddleware.run()
LOG: Closed client: /10.0.0.11:48902in MyMiddleware.run()
LOG: Closed client: /10.0.0.11:48930in MyMiddleware.run()
LOG: Closed client: /10.0.0.11:48918in MyMiddleware.run()
LOG: Closed client: /10.0.0.11:48932in MyMiddleware.run()
LOG: Closed client: /10.0.0.11:48924in MyMiddleware.run()
LOG: Closed client: /10.0.0.11:48914in MyMiddleware.run()
LOG: Closed client: /10.0.0.11:48916in MyMiddleware.run()
LOG: Closed client: /10.0.0.11:48920in MyMiddleware.run()
LOG: Closed client: /10.0.0.11:48922in MyMiddleware.run()
LOG: Closed client: /10.0.0.11:48926in MyMiddleware.run()
LOG: Closed client: /10.0.0.11:48934in MyMiddleware.run()
LOG: Closed client: /10.0.0.11:48912in MyMiddleware.run()
LOG: Closed client: /10.0.0.11:48956in MyMiddleware.run()
LOG: Closed client: /10.0.0.11:48948in MyMiddleware.run()
LOG: Closed client: /10.0.0.11:48936in MyMiddleware.run()
LOG: Closed client: /10.0.0.11:48954in MyMiddleware.run()
LOG: Closed client: /10.0.0.11:48962in MyMiddleware.run()
LOG: Closed client: /10.0.0.11:48944in MyMiddleware.run()
LOG: Closed client: /10.0.0.11:48942in MyMiddleware.run()
LOG: Closed client: /10.0.0.11:48938in MyMiddleware.run()
LOG: Closed client: /10.0.0.11:48950in MyMiddleware.run()
LOG: Closed client: /10.0.0.11:48952in MyMiddleware.run()
LOG: Closed client: /10.0.0.11:48946in MyMiddleware.run()
LOG: Closed client: /10.0.0.11:48958in MyMiddleware.run()
LOG: Closed client: /10.0.0.11:48940in MyMiddleware.run()
LOG: Closed client: /10.0.0.11:48964in MyMiddleware.run()
LOG: Closed client: /10.0.0.11:48960in MyMiddleware.run()
