------------Middleware started!------------
LOG: Waiting for connection in MyMiddleware.run()
LOG: Accepted client: /10.0.0.11:39048in MyMiddleware.run()
LOG: Accepted client: /10.0.0.7:39818in MyMiddleware.run()
LOG: Accepted client: /10.0.0.7:39822in MyMiddleware.run()
LOG: Accepted client: /10.0.0.7:39820in MyMiddleware.run()
LOG: Accepted client: /10.0.0.7:39816in MyMiddleware.run()
LOG: Accepted client: /10.0.0.11:39042in MyMiddleware.run()
LOG: Accepted client: /10.0.0.11:39046in MyMiddleware.run()
LOG: Accepted client: /10.0.0.11:39044in MyMiddleware.run()
LOG: Accepted client: /10.0.0.6:50014in MyMiddleware.run()
LOG: Accepted client: /10.0.0.6:50018in MyMiddleware.run()
LOG: Accepted client: /10.0.0.6:50016in MyMiddleware.run()
LOG: Accepted client: /10.0.0.6:50020in MyMiddleware.run()
LOG: Closed client: /10.0.0.11:39042in MyMiddleware.run()
LOG: Closed client: /10.0.0.11:39044in MyMiddleware.run()
LOG: Closed client: /10.0.0.11:39046in MyMiddleware.run()
LOG: Closed client: /10.0.0.11:39048in MyMiddleware.run()
LOG: Closed client: /10.0.0.6:50014in MyMiddleware.run()
LOG: Closed client: /10.0.0.6:50016in MyMiddleware.run()
LOG: Closed client: /10.0.0.6:50018in MyMiddleware.run()
LOG: Closed client: /10.0.0.6:50020in MyMiddleware.run()
LOG: Closed client: /10.0.0.7:39822in MyMiddleware.run()
LOG: Closed client: /10.0.0.7:39816in MyMiddleware.run()
LOG: Closed client: /10.0.0.7:39818in MyMiddleware.run()
LOG: Closed client: /10.0.0.7:39820in MyMiddleware.run()
