------------Middleware started!------------
LOG: Waiting for connection in MyMiddleware.run()
LOG: Accepted client: /10.0.0.11:33864in MyMiddleware.run()
LOG: Accepted client: /10.0.0.11:33898in MyMiddleware.run()
LOG: Accepted client: /10.0.0.11:33878in MyMiddleware.run()
LOG: Accepted client: /10.0.0.11:33900in MyMiddleware.run()
LOG: Accepted client: /10.0.0.11:33880in MyMiddleware.run()
LOG: Accepted client: /10.0.0.11:33910in MyMiddleware.run()
LOG: Accepted client: /10.0.0.11:33854in MyMiddleware.run()
LOG: Accepted client: /10.0.0.11:33894in MyMiddleware.run()
LOG: Accepted client: /10.0.0.11:33888in MyMiddleware.run()
LOG: Accepted client: /10.0.0.11:33872in MyMiddleware.run()
LOG: Accepted client: /10.0.0.11:33856in MyMiddleware.run()
LOG: Accepted client: /10.0.0.11:33908in MyMiddleware.run()
LOG: Accepted client: /10.0.0.11:33868in MyMiddleware.run()
LOG: Accepted client: /10.0.0.11:33914in MyMiddleware.run()
LOG: Accepted client: /10.0.0.11:33892in MyMiddleware.run()
LOG: Accepted client: /10.0.0.11:33858in MyMiddleware.run()
LOG: Accepted client: /10.0.0.11:33916in MyMiddleware.run()
LOG: Accepted client: /10.0.0.11:33886in MyMiddleware.run()
LOG: Accepted client: /10.0.0.11:33882in MyMiddleware.run()
LOG: Accepted client: /10.0.0.11:33870in MyMiddleware.run()
LOG: Accepted client: /10.0.0.11:33912in MyMiddleware.run()
LOG: Accepted client: /10.0.0.11:33874in MyMiddleware.run()
LOG: Accepted client: /10.0.0.11:33884in MyMiddleware.run()
LOG: Accepted client: /10.0.0.11:33890in MyMiddleware.run()
LOG: Accepted client: /10.0.0.11:33866in MyMiddleware.run()
LOG: Accepted client: /10.0.0.11:33876in MyMiddleware.run()
LOG: Accepted client: /10.0.0.11:33862in MyMiddleware.run()
LOG: Accepted client: /10.0.0.11:33896in MyMiddleware.run()
LOG: Accepted client: /10.0.0.11:33860in MyMiddleware.run()
LOG: Accepted client: /10.0.0.11:33904in MyMiddleware.run()
LOG: Accepted client: /10.0.0.11:33902in MyMiddleware.run()
LOG: Accepted client: /10.0.0.11:33906in MyMiddleware.run()
LOG: Accepted client: /10.0.0.6:44872in MyMiddleware.run()
LOG: Accepted client: /10.0.0.6:44874in MyMiddleware.run()
LOG: Accepted client: /10.0.0.6:44876in MyMiddleware.run()
LOG: Accepted client: /10.0.0.6:44888in MyMiddleware.run()
LOG: Accepted client: /10.0.0.6:44880in MyMiddleware.run()
LOG: Accepted client: /10.0.0.6:44900in MyMiddleware.run()
LOG: Accepted client: /10.0.0.6:44902in MyMiddleware.run()
LOG: Accepted client: /10.0.0.6:44886in MyMiddleware.run()
LOG: Accepted client: /10.0.0.6:44904in MyMiddleware.run()
LOG: Accepted client: /10.0.0.6:44882in MyMiddleware.run()
LOG: Accepted client: /10.0.0.6:44896in MyMiddleware.run()
LOG: Accepted client: /10.0.0.6:44922in MyMiddleware.run()
LOG: Accepted client: /10.0.0.6:44926in MyMiddleware.run()
LOG: Accepted client: /10.0.0.6:44910in MyMiddleware.run()
LOG: Accepted client: /10.0.0.6:44916in MyMiddleware.run()
LOG: Accepted client: /10.0.0.6:44878in MyMiddleware.run()
LOG: Accepted client: /10.0.0.6:44884in MyMiddleware.run()
LOG: Accepted client: /10.0.0.6:44898in MyMiddleware.run()
LOG: Accepted client: /10.0.0.6:44934in MyMiddleware.run()
LOG: Accepted client: /10.0.0.6:44928in MyMiddleware.run()
LOG: Accepted client: /10.0.0.6:44918in MyMiddleware.run()
LOG: Accepted client: /10.0.0.6:44924in MyMiddleware.run()
LOG: Accepted client: /10.0.0.6:44890in MyMiddleware.run()
LOG: Accepted client: /10.0.0.6:44906in MyMiddleware.run()
LOG: Accepted client: /10.0.0.6:44920in MyMiddleware.run()
LOG: Accepted client: /10.0.0.6:44930in MyMiddleware.run()
LOG: Accepted client: /10.0.0.6:44932in MyMiddleware.run()
LOG: Accepted client: /10.0.0.6:44908in MyMiddleware.run()
LOG: Accepted client: /10.0.0.7:34684in MyMiddleware.run()
LOG: Accepted client: /10.0.0.7:34682in MyMiddleware.run()
LOG: Accepted client: /10.0.0.7:34670in MyMiddleware.run()
LOG: Accepted client: /10.0.0.7:34680in MyMiddleware.run()
LOG: Accepted client: /10.0.0.7:34688in MyMiddleware.run()
LOG: Accepted client: /10.0.0.7:34726in MyMiddleware.run()
LOG: Accepted client: /10.0.0.7:34678in MyMiddleware.run()
LOG: Accepted client: /10.0.0.7:34666in MyMiddleware.run()
LOG: Accepted client: /10.0.0.7:34668in MyMiddleware.run()
LOG: Accepted client: /10.0.0.7:34676in MyMiddleware.run()
LOG: Accepted client: /10.0.0.7:34698in MyMiddleware.run()
LOG: Accepted client: /10.0.0.7:34686in MyMiddleware.run()
LOG: Accepted client: /10.0.0.7:34716in MyMiddleware.run()
LOG: Accepted client: /10.0.0.7:34718in MyMiddleware.run()
LOG: Accepted client: /10.0.0.7:34690in MyMiddleware.run()
LOG: Accepted client: /10.0.0.7:34706in MyMiddleware.run()
LOG: Accepted client: /10.0.0.7:34704in MyMiddleware.run()
LOG: Accepted client: /10.0.0.6:44894in MyMiddleware.run()
LOG: Accepted client: /10.0.0.7:34700in MyMiddleware.run()
LOG: Accepted client: /10.0.0.7:34694in MyMiddleware.run()
LOG: Accepted client: /10.0.0.7:34710in MyMiddleware.run()
LOG: Accepted client: /10.0.0.7:34702in MyMiddleware.run()
LOG: Accepted client: /10.0.0.7:34708in MyMiddleware.run()
LOG: Accepted client: /10.0.0.7:34722in MyMiddleware.run()
LOG: Accepted client: /10.0.0.7:34720in MyMiddleware.run()
LOG: Accepted client: /10.0.0.7:34728in MyMiddleware.run()
LOG: Accepted client: /10.0.0.7:34692in MyMiddleware.run()
LOG: Accepted client: /10.0.0.7:34724in MyMiddleware.run()
LOG: Accepted client: /10.0.0.7:34696in MyMiddleware.run()
LOG: Accepted client: /10.0.0.7:34712in MyMiddleware.run()
LOG: Accepted client: /10.0.0.7:34672in MyMiddleware.run()
LOG: Accepted client: /10.0.0.7:34714in MyMiddleware.run()
LOG: Accepted client: /10.0.0.7:34674in MyMiddleware.run()
LOG: Accepted client: /10.0.0.6:44914in MyMiddleware.run()
LOG: Accepted client: /10.0.0.6:44912in MyMiddleware.run()
LOG: Accepted client: /10.0.0.6:44892in MyMiddleware.run()
LOG: Closed client: /10.0.0.11:33856in MyMiddleware.run()
LOG: Closed client: /10.0.0.11:33864in MyMiddleware.run()
LOG: Closed client: /10.0.0.11:33872in MyMiddleware.run()
LOG: Closed client: /10.0.0.11:33906in MyMiddleware.run()
LOG: Closed client: /10.0.0.11:33900in MyMiddleware.run()
LOG: Closed client: /10.0.0.11:33904in MyMiddleware.run()
LOG: Closed client: /10.0.0.11:33858in MyMiddleware.run()
LOG: Closed client: /10.0.0.11:33898in MyMiddleware.run()
LOG: Closed client: /10.0.0.11:33902in MyMiddleware.run()
LOG: Closed client: /10.0.0.11:33892in MyMiddleware.run()
LOG: Closed client: /10.0.0.11:33894in MyMiddleware.run()
LOG: Closed client: /10.0.0.11:33882in MyMiddleware.run()
LOG: Closed client: /10.0.0.11:33896in MyMiddleware.run()
LOG: Closed client: /10.0.0.11:33862in MyMiddleware.run()
LOG: Closed client: /10.0.0.11:33874in MyMiddleware.run()
LOG: Closed client: /10.0.0.11:33914in MyMiddleware.run()
LOG: Closed client: /10.0.0.11:33886in MyMiddleware.run()
LOG: Closed client: /10.0.0.11:33876in MyMiddleware.run()
LOG: Closed client: /10.0.0.11:33908in MyMiddleware.run()
LOG: Closed client: /10.0.0.11:33854in MyMiddleware.run()
LOG: Closed client: /10.0.0.11:33878in MyMiddleware.run()
LOG: Closed client: /10.0.0.11:33860in MyMiddleware.run()
LOG: Closed client: /10.0.0.11:33890in MyMiddleware.run()
LOG: Closed client: /10.0.0.11:33884in MyMiddleware.run()
LOG: Closed client: /10.0.0.11:33888in MyMiddleware.run()
LOG: Closed client: /10.0.0.11:33870in MyMiddleware.run()
LOG: Closed client: /10.0.0.11:33868in MyMiddleware.run()
LOG: Closed client: /10.0.0.11:33910in MyMiddleware.run()
LOG: Closed client: /10.0.0.11:33880in MyMiddleware.run()
LOG: Closed client: /10.0.0.11:33916in MyMiddleware.run()
LOG: Closed client: /10.0.0.11:33912in MyMiddleware.run()
LOG: Closed client: /10.0.0.11:33866in MyMiddleware.run()
LOG: Closed client: /10.0.0.7:34672in MyMiddleware.run()
LOG: Closed client: /10.0.0.7:34674in MyMiddleware.run()
LOG: Closed client: /10.0.0.7:34676in MyMiddleware.run()
LOG: Closed client: /10.0.0.7:34670in MyMiddleware.run()
LOG: Closed client: /10.0.0.7:34696in MyMiddleware.run()
LOG: Closed client: /10.0.0.7:34684in MyMiddleware.run()
LOG: Closed client: /10.0.0.7:34680in MyMiddleware.run()
LOG: Closed client: /10.0.0.7:34678in MyMiddleware.run()
LOG: Closed client: /10.0.0.7:34682in MyMiddleware.run()
LOG: Closed client: /10.0.0.7:34688in MyMiddleware.run()
LOG: Closed client: /10.0.0.7:34668in MyMiddleware.run()
LOG: Closed client: /10.0.0.7:34666in MyMiddleware.run()
LOG: Closed client: /10.0.0.7:34692in MyMiddleware.run()
LOG: Closed client: /10.0.0.7:34686in MyMiddleware.run()
LOG: Closed client: /10.0.0.7:34712in MyMiddleware.run()
LOG: Closed client: /10.0.0.7:34700in MyMiddleware.run()
LOG: Closed client: /10.0.0.7:34706in MyMiddleware.run()
LOG: Closed client: /10.0.0.7:34714in MyMiddleware.run()
LOG: Closed client: /10.0.0.7:34722in MyMiddleware.run()
LOG: Closed client: /10.0.0.7:34726in MyMiddleware.run()
LOG: Closed client: /10.0.0.7:34704in MyMiddleware.run()
LOG: Closed client: /10.0.0.7:34690in MyMiddleware.run()
LOG: Closed client: /10.0.0.7:34718in MyMiddleware.run()
LOG: Closed client: /10.0.0.7:34708in MyMiddleware.run()
LOG: Closed client: /10.0.0.7:34720in MyMiddleware.run()
LOG: Closed client: /10.0.0.7:34702in MyMiddleware.run()
LOG: Closed client: /10.0.0.7:34698in MyMiddleware.run()
LOG: Closed client: /10.0.0.7:34694in MyMiddleware.run()
LOG: Closed client: /10.0.0.7:34728in MyMiddleware.run()
LOG: Closed client: /10.0.0.7:34710in MyMiddleware.run()
LOG: Closed client: /10.0.0.7:34724in MyMiddleware.run()
LOG: Closed client: /10.0.0.7:34716in MyMiddleware.run()
LOG: Closed client: /10.0.0.6:44872in MyMiddleware.run()
LOG: Closed client: /10.0.0.6:44874in MyMiddleware.run()
LOG: Closed client: /10.0.0.6:44888in MyMiddleware.run()
LOG: Closed client: /10.0.0.6:44884in MyMiddleware.run()
LOG: Closed client: /10.0.0.6:44898in MyMiddleware.run()
LOG: Closed client: /10.0.0.6:44908in MyMiddleware.run()
LOG: Closed client: /10.0.0.6:44902in MyMiddleware.run()
LOG: Closed client: /10.0.0.6:44910in MyMiddleware.run()
LOG: Closed client: /10.0.0.6:44886in MyMiddleware.run()
LOG: Closed client: /10.0.0.6:44894in MyMiddleware.run()
LOG: Closed client: /10.0.0.6:44922in MyMiddleware.run()
LOG: Closed client: /10.0.0.6:44880in MyMiddleware.run()
LOG: Closed client: /10.0.0.6:44882in MyMiddleware.run()
LOG: Closed client: /10.0.0.6:44876in MyMiddleware.run()
LOG: Closed client: /10.0.0.6:44900in MyMiddleware.run()
LOG: Closed client: /10.0.0.6:44878in MyMiddleware.run()
LOG: Closed client: /10.0.0.6:44904in MyMiddleware.run()
LOG: Closed client: /10.0.0.6:44906in MyMiddleware.run()
LOG: Closed client: /10.0.0.6:44918in MyMiddleware.run()
LOG: Closed client: /10.0.0.6:44920in MyMiddleware.run()
LOG: Closed client: /10.0.0.6:44914in MyMiddleware.run()
LOG: Closed client: /10.0.0.6:44892in MyMiddleware.run()
LOG: Closed client: /10.0.0.6:44924in MyMiddleware.run()
LOG: Closed client: /10.0.0.6:44912in MyMiddleware.run()
LOG: Closed client: /10.0.0.6:44890in MyMiddleware.run()
LOG: Closed client: /10.0.0.6:44896in MyMiddleware.run()
LOG: Closed client: /10.0.0.6:44916in MyMiddleware.run()
LOG: Closed client: /10.0.0.6:44932in MyMiddleware.run()
LOG: Closed client: /10.0.0.6:44934in MyMiddleware.run()
LOG: Closed client: /10.0.0.6:44930in MyMiddleware.run()
LOG: Closed client: /10.0.0.6:44928in MyMiddleware.run()
LOG: Closed client: /10.0.0.6:44926in MyMiddleware.run()
