------------Middleware started!------------
LOG: Waiting for connection in MyMiddleware.run()
LOG: Accepted client: /10.0.0.7:53774in MyMiddleware.run()
LOG: Accepted client: /10.0.0.7:53776in MyMiddleware.run()
LOG: Accepted client: /10.0.0.7:53772in MyMiddleware.run()
LOG: Accepted client: /10.0.0.7:53770in MyMiddleware.run()
LOG: Accepted client: /10.0.0.11:53026in MyMiddleware.run()
LOG: Accepted client: /10.0.0.11:53030in MyMiddleware.run()
LOG: Accepted client: /10.0.0.11:53028in MyMiddleware.run()
LOG: Accepted client: /10.0.0.11:53032in MyMiddleware.run()
LOG: Accepted client: /10.0.0.6:35746in MyMiddleware.run()
LOG: Accepted client: /10.0.0.6:35744in MyMiddleware.run()
LOG: Accepted client: /10.0.0.6:35748in MyMiddleware.run()
LOG: Accepted client: /10.0.0.6:35750in MyMiddleware.run()
LOG: Closed client: /10.0.0.7:53772in MyMiddleware.run()
LOG: Closed client: /10.0.0.7:53774in MyMiddleware.run()
LOG: Closed client: /10.0.0.7:53776in MyMiddleware.run()
LOG: Closed client: /10.0.0.7:53770in MyMiddleware.run()
LOG: Closed client: /10.0.0.11:53028in MyMiddleware.run()
LOG: Closed client: /10.0.0.11:53030in MyMiddleware.run()
LOG: Closed client: /10.0.0.11:53026in MyMiddleware.run()
LOG: Closed client: /10.0.0.11:53032in MyMiddleware.run()
LOG: Closed client: /10.0.0.6:35748in MyMiddleware.run()
LOG: Closed client: /10.0.0.6:35744in MyMiddleware.run()
LOG: Closed client: /10.0.0.6:35746in MyMiddleware.run()
LOG: Closed client: /10.0.0.6:35750in MyMiddleware.run()
