------------Middleware started!------------
LOG: Waiting for connection in MyMiddleware.run()
LOG: Accepted client: /10.0.0.11:43118in MyMiddleware.run()
LOG: Accepted client: /10.0.0.11:43106in MyMiddleware.run()
LOG: Accepted client: /10.0.0.11:43120in MyMiddleware.run()
LOG: Accepted client: /10.0.0.11:43108in MyMiddleware.run()
LOG: Accepted client: /10.0.0.11:43114in MyMiddleware.run()
LOG: Accepted client: /10.0.0.11:43110in MyMiddleware.run()
LOG: Accepted client: /10.0.0.11:43112in MyMiddleware.run()
LOG: Accepted client: /10.0.0.11:43116in MyMiddleware.run()
LOG: Accepted client: /10.0.0.6:54046in MyMiddleware.run()
LOG: Accepted client: /10.0.0.6:54044in MyMiddleware.run()
LOG: Accepted client: /10.0.0.6:54040in MyMiddleware.run()
LOG: Accepted client: /10.0.0.6:54042in MyMiddleware.run()
LOG: Accepted client: /10.0.0.6:54052in MyMiddleware.run()
LOG: Accepted client: /10.0.0.6:54054in MyMiddleware.run()
LOG: Accepted client: /10.0.0.6:54050in MyMiddleware.run()
LOG: Accepted client: /10.0.0.6:54048in MyMiddleware.run()
LOG: Accepted client: /10.0.0.7:43914in MyMiddleware.run()
LOG: Accepted client: /10.0.0.7:43920in MyMiddleware.run()
LOG: Accepted client: /10.0.0.7:43916in MyMiddleware.run()
LOG: Accepted client: /10.0.0.7:43918in MyMiddleware.run()
LOG: Accepted client: /10.0.0.7:43924in MyMiddleware.run()
LOG: Accepted client: /10.0.0.7:43922in MyMiddleware.run()
LOG: Accepted client: /10.0.0.7:43912in MyMiddleware.run()
LOG: Accepted client: /10.0.0.7:43910in MyMiddleware.run()
LOG: Closed client: /10.0.0.11:43120in MyMiddleware.run()
LOG: Closed client: /10.0.0.11:43116in MyMiddleware.run()
LOG: Closed client: /10.0.0.11:43110in MyMiddleware.run()
LOG: Closed client: /10.0.0.11:43112in MyMiddleware.run()
LOG: Closed client: /10.0.0.11:43114in MyMiddleware.run()
LOG: Closed client: /10.0.0.11:43118in MyMiddleware.run()
LOG: Closed client: /10.0.0.11:43108in MyMiddleware.run()
LOG: Closed client: /10.0.0.11:43106in MyMiddleware.run()
LOG: Closed client: /10.0.0.7:43918in MyMiddleware.run()
LOG: Closed client: /10.0.0.7:43910in MyMiddleware.run()
LOG: Closed client: /10.0.0.7:43922in MyMiddleware.run()
LOG: Closed client: /10.0.0.7:43914in MyMiddleware.run()
LOG: Closed client: /10.0.0.7:43916in MyMiddleware.run()
LOG: Closed client: /10.0.0.7:43920in MyMiddleware.run()
LOG: Closed client: /10.0.0.7:43912in MyMiddleware.run()
LOG: Closed client: /10.0.0.7:43924in MyMiddleware.run()
LOG: Closed client: /10.0.0.6:54048in MyMiddleware.run()
LOG: Closed client: /10.0.0.6:54054in MyMiddleware.run()
LOG: Closed client: /10.0.0.6:54042in MyMiddleware.run()
LOG: Closed client: /10.0.0.6:54052in MyMiddleware.run()
LOG: Closed client: /10.0.0.6:54040in MyMiddleware.run()
LOG: Closed client: /10.0.0.6:54050in MyMiddleware.run()
LOG: Closed client: /10.0.0.6:54044in MyMiddleware.run()
LOG: Closed client: /10.0.0.6:54046in MyMiddleware.run()
