------------Middleware started!------------
LOG: Waiting for connection in MyMiddleware.run()
LOG: Accepted client: /10.0.0.11:40672in MyMiddleware.run()
LOG: Accepted client: /10.0.0.11:40674in MyMiddleware.run()
LOG: Accepted client: /10.0.0.11:40676in MyMiddleware.run()
LOG: Accepted client: /10.0.0.11:40678in MyMiddleware.run()
LOG: Accepted client: /10.0.0.11:40684in MyMiddleware.run()
LOG: Accepted client: /10.0.0.11:40682in MyMiddleware.run()
LOG: Accepted client: /10.0.0.11:40686in MyMiddleware.run()
LOG: Accepted client: /10.0.0.11:40680in MyMiddleware.run()
LOG: Accepted client: /10.0.0.6:51620in MyMiddleware.run()
LOG: Accepted client: /10.0.0.6:51616in MyMiddleware.run()
LOG: Accepted client: /10.0.0.7:41474in MyMiddleware.run()
LOG: Accepted client: /10.0.0.6:51618in MyMiddleware.run()
LOG: Accepted client: /10.0.0.7:41464in MyMiddleware.run()
LOG: Accepted client: /10.0.0.7:41470in MyMiddleware.run()
LOG: Accepted client: /10.0.0.6:51626in MyMiddleware.run()
LOG: Accepted client: /10.0.0.6:51624in MyMiddleware.run()
LOG: Accepted client: /10.0.0.6:51630in MyMiddleware.run()
LOG: Accepted client: /10.0.0.6:51628in MyMiddleware.run()
LOG: Accepted client: /10.0.0.6:51622in MyMiddleware.run()
LOG: Accepted client: /10.0.0.7:41460in MyMiddleware.run()
LOG: Accepted client: /10.0.0.7:41462in MyMiddleware.run()
LOG: Accepted client: /10.0.0.7:41472in MyMiddleware.run()
LOG: Accepted client: /10.0.0.7:41468in MyMiddleware.run()
LOG: Accepted client: /10.0.0.7:41466in MyMiddleware.run()
LOG: Closed client: /10.0.0.7:41472in MyMiddleware.run()
LOG: Closed client: /10.0.0.7:41460in MyMiddleware.run()
LOG: Closed client: /10.0.0.7:41464in MyMiddleware.run()
LOG: Closed client: /10.0.0.7:41474in MyMiddleware.run()
LOG: Closed client: /10.0.0.7:41470in MyMiddleware.run()
LOG: Closed client: /10.0.0.7:41462in MyMiddleware.run()
LOG: Closed client: /10.0.0.7:41468in MyMiddleware.run()
LOG: Closed client: /10.0.0.7:41466in MyMiddleware.run()
LOG: Closed client: /10.0.0.6:51622in MyMiddleware.run()
LOG: Closed client: /10.0.0.6:51628in MyMiddleware.run()
LOG: Closed client: /10.0.0.6:51624in MyMiddleware.run()
LOG: Closed client: /10.0.0.6:51630in MyMiddleware.run()
LOG: Closed client: /10.0.0.6:51618in MyMiddleware.run()
LOG: Closed client: /10.0.0.6:51626in MyMiddleware.run()
LOG: Closed client: /10.0.0.6:51620in MyMiddleware.run()
LOG: Closed client: /10.0.0.6:51616in MyMiddleware.run()
LOG: Closed client: /10.0.0.11:40678in MyMiddleware.run()
LOG: Closed client: /10.0.0.11:40676in MyMiddleware.run()
LOG: Closed client: /10.0.0.11:40672in MyMiddleware.run()
LOG: Closed client: /10.0.0.11:40674in MyMiddleware.run()
LOG: Closed client: /10.0.0.11:40686in MyMiddleware.run()
LOG: Closed client: /10.0.0.11:40682in MyMiddleware.run()
LOG: Closed client: /10.0.0.11:40680in MyMiddleware.run()
LOG: Closed client: /10.0.0.11:40684in MyMiddleware.run()
