------------Middleware started!------------
LOG: Waiting for connection in MyMiddleware.run()
LOG: Accepted client: /10.0.0.11:35710in MyMiddleware.run()
LOG: Accepted client: /10.0.0.11:35704in MyMiddleware.run()
LOG: Accepted client: /10.0.0.11:35682in MyMiddleware.run()
LOG: Accepted client: /10.0.0.11:35680in MyMiddleware.run()
LOG: Accepted client: /10.0.0.11:35674in MyMiddleware.run()
LOG: Accepted client: /10.0.0.11:35672in MyMiddleware.run()
LOG: Accepted client: /10.0.0.11:35678in MyMiddleware.run()
LOG: Accepted client: /10.0.0.11:35706in MyMiddleware.run()
LOG: Accepted client: /10.0.0.11:35686in MyMiddleware.run()
LOG: Accepted client: /10.0.0.11:35676in MyMiddleware.run()
LOG: Accepted client: /10.0.0.11:35708in MyMiddleware.run()
LOG: Accepted client: /10.0.0.11:35684in MyMiddleware.run()
LOG: Accepted client: /10.0.0.11:35716in MyMiddleware.run()
LOG: Accepted client: /10.0.0.11:35718in MyMiddleware.run()
LOG: Accepted client: /10.0.0.11:35712in MyMiddleware.run()
LOG: Accepted client: /10.0.0.11:35714in MyMiddleware.run()
LOG: Accepted client: /10.0.0.11:35692in MyMiddleware.run()
LOG: Accepted client: /10.0.0.11:35696in MyMiddleware.run()
LOG: Accepted client: /10.0.0.11:35702in MyMiddleware.run()
LOG: Accepted client: /10.0.0.11:35670in MyMiddleware.run()
LOG: Accepted client: /10.0.0.11:35730in MyMiddleware.run()
LOG: Accepted client: /10.0.0.11:35690in MyMiddleware.run()
LOG: Accepted client: /10.0.0.11:35726in MyMiddleware.run()
LOG: Accepted client: /10.0.0.11:35722in MyMiddleware.run()
LOG: Accepted client: /10.0.0.11:35724in MyMiddleware.run()
LOG: Accepted client: /10.0.0.11:35668in MyMiddleware.run()
LOG: Accepted client: /10.0.0.11:35728in MyMiddleware.run()
LOG: Accepted client: /10.0.0.11:35700in MyMiddleware.run()
LOG: Accepted client: /10.0.0.11:35688in MyMiddleware.run()
LOG: Accepted client: /10.0.0.11:35694in MyMiddleware.run()
LOG: Accepted client: /10.0.0.11:35720in MyMiddleware.run()
LOG: Accepted client: /10.0.0.11:35698in MyMiddleware.run()
LOG: Accepted client: /10.0.0.6:46690in MyMiddleware.run()
LOG: Accepted client: /10.0.0.6:46726in MyMiddleware.run()
LOG: Accepted client: /10.0.0.6:46718in MyMiddleware.run()
LOG: Accepted client: /10.0.0.6:46720in MyMiddleware.run()
LOG: Accepted client: /10.0.0.6:46746in MyMiddleware.run()
LOG: Accepted client: /10.0.0.6:46722in MyMiddleware.run()
LOG: Accepted client: /10.0.0.6:46686in MyMiddleware.run()
LOG: Accepted client: /10.0.0.6:46724in MyMiddleware.run()
LOG: Accepted client: /10.0.0.6:46688in MyMiddleware.run()
LOG: Accepted client: /10.0.0.6:46694in MyMiddleware.run()
LOG: Accepted client: /10.0.0.6:46692in MyMiddleware.run()
LOG: Accepted client: /10.0.0.6:46744in MyMiddleware.run()
LOG: Accepted client: /10.0.0.6:46716in MyMiddleware.run()
LOG: Accepted client: /10.0.0.6:46748in MyMiddleware.run()
LOG: Accepted client: /10.0.0.6:46712in MyMiddleware.run()
LOG: Accepted client: /10.0.0.6:46714in MyMiddleware.run()
LOG: Accepted client: /10.0.0.6:46700in MyMiddleware.run()
LOG: Accepted client: /10.0.0.6:46710in MyMiddleware.run()
LOG: Accepted client: /10.0.0.6:46698in MyMiddleware.run()
LOG: Accepted client: /10.0.0.6:46730in MyMiddleware.run()
LOG: Accepted client: /10.0.0.6:46696in MyMiddleware.run()
LOG: Accepted client: /10.0.0.6:46728in MyMiddleware.run()
LOG: Accepted client: /10.0.0.6:46736in MyMiddleware.run()
LOG: Accepted client: /10.0.0.6:46706in MyMiddleware.run()
LOG: Accepted client: /10.0.0.6:46732in MyMiddleware.run()
LOG: Accepted client: /10.0.0.6:46742in MyMiddleware.run()
LOG: Accepted client: /10.0.0.6:46738in MyMiddleware.run()
LOG: Accepted client: /10.0.0.6:46704in MyMiddleware.run()
LOG: Accepted client: /10.0.0.6:46740in MyMiddleware.run()
LOG: Accepted client: /10.0.0.6:46734in MyMiddleware.run()
LOG: Accepted client: /10.0.0.6:46702in MyMiddleware.run()
LOG: Accepted client: /10.0.0.6:46708in MyMiddleware.run()
LOG: Accepted client: /10.0.0.7:36490in MyMiddleware.run()
LOG: Accepted client: /10.0.0.7:36518in MyMiddleware.run()
LOG: Accepted client: /10.0.0.7:36546in MyMiddleware.run()
LOG: Accepted client: /10.0.0.7:36536in MyMiddleware.run()
LOG: Accepted client: /10.0.0.7:36534in MyMiddleware.run()
LOG: Accepted client: /10.0.0.7:36500in MyMiddleware.run()
LOG: Accepted client: /10.0.0.7:36532in MyMiddleware.run()
LOG: Accepted client: /10.0.0.7:36544in MyMiddleware.run()
LOG: Accepted client: /10.0.0.7:36502in MyMiddleware.run()
LOG: Accepted client: /10.0.0.7:36506in MyMiddleware.run()
LOG: Accepted client: /10.0.0.7:36504in MyMiddleware.run()
LOG: Accepted client: /10.0.0.7:36522in MyMiddleware.run()
LOG: Accepted client: /10.0.0.7:36538in MyMiddleware.run()
LOG: Accepted client: /10.0.0.7:36488in MyMiddleware.run()
LOG: Accepted client: /10.0.0.7:36516in MyMiddleware.run()
LOG: Accepted client: /10.0.0.7:36520in MyMiddleware.run()
LOG: Accepted client: /10.0.0.7:36550in MyMiddleware.run()
LOG: Accepted client: /10.0.0.7:36510in MyMiddleware.run()
LOG: Accepted client: /10.0.0.7:36530in MyMiddleware.run()
LOG: Accepted client: /10.0.0.7:36548in MyMiddleware.run()
LOG: Accepted client: /10.0.0.7:36508in MyMiddleware.run()
LOG: Accepted client: /10.0.0.7:36528in MyMiddleware.run()
LOG: Accepted client: /10.0.0.7:36524in MyMiddleware.run()
LOG: Accepted client: /10.0.0.7:36512in MyMiddleware.run()
LOG: Accepted client: /10.0.0.7:36492in MyMiddleware.run()
LOG: Accepted client: /10.0.0.7:36526in MyMiddleware.run()
LOG: Accepted client: /10.0.0.7:36494in MyMiddleware.run()
LOG: Accepted client: /10.0.0.7:36514in MyMiddleware.run()
LOG: Accepted client: /10.0.0.7:36542in MyMiddleware.run()
LOG: Accepted client: /10.0.0.7:36496in MyMiddleware.run()
LOG: Accepted client: /10.0.0.7:36540in MyMiddleware.run()
LOG: Accepted client: /10.0.0.7:36498in MyMiddleware.run()
LOG: Closed client: /10.0.0.6:46706in MyMiddleware.run()
LOG: Closed client: /10.0.0.6:46690in MyMiddleware.run()
LOG: Closed client: /10.0.0.6:46702in MyMiddleware.run()
LOG: Closed client: /10.0.0.6:46704in MyMiddleware.run()
LOG: Closed client: /10.0.0.6:46700in MyMiddleware.run()
LOG: Closed client: /10.0.0.6:46688in MyMiddleware.run()
LOG: Closed client: /10.0.0.6:46686in MyMiddleware.run()
LOG: Closed client: /10.0.0.6:46728in MyMiddleware.run()
LOG: Closed client: /10.0.0.6:46726in MyMiddleware.run()
LOG: Closed client: /10.0.0.6:46744in MyMiddleware.run()
LOG: Closed client: /10.0.0.6:46712in MyMiddleware.run()
LOG: Closed client: /10.0.0.6:46734in MyMiddleware.run()
LOG: Closed client: /10.0.0.6:46692in MyMiddleware.run()
LOG: Closed client: /10.0.0.6:46710in MyMiddleware.run()
LOG: Closed client: /10.0.0.6:46740in MyMiddleware.run()
LOG: Closed client: /10.0.0.6:46738in MyMiddleware.run()
LOG: Closed client: /10.0.0.6:46716in MyMiddleware.run()
LOG: Closed client: /10.0.0.6:46742in MyMiddleware.run()
LOG: Closed client: /10.0.0.6:46714in MyMiddleware.run()
LOG: Closed client: /10.0.0.6:46698in MyMiddleware.run()
LOG: Closed client: /10.0.0.6:46748in MyMiddleware.run()
LOG: Closed client: /10.0.0.6:46736in MyMiddleware.run()
LOG: Closed client: /10.0.0.6:46718in MyMiddleware.run()
LOG: Closed client: /10.0.0.6:46694in MyMiddleware.run()
LOG: Closed client: /10.0.0.6:46708in MyMiddleware.run()
LOG: Closed client: /10.0.0.6:46720in MyMiddleware.run()
LOG: Closed client: /10.0.0.6:46724in MyMiddleware.run()
LOG: Closed client: /10.0.0.6:46696in MyMiddleware.run()
LOG: Closed client: /10.0.0.6:46730in MyMiddleware.run()
LOG: Closed client: /10.0.0.6:46746in MyMiddleware.run()
LOG: Closed client: /10.0.0.6:46722in MyMiddleware.run()
LOG: Closed client: /10.0.0.6:46732in MyMiddleware.run()
LOG: Closed client: /10.0.0.11:35674in MyMiddleware.run()
LOG: Closed client: /10.0.0.11:35670in MyMiddleware.run()
LOG: Closed client: /10.0.0.11:35682in MyMiddleware.run()
LOG: Closed client: /10.0.0.11:35700in MyMiddleware.run()
LOG: Closed client: /10.0.0.11:35684in MyMiddleware.run()
LOG: Closed client: /10.0.0.11:35668in MyMiddleware.run()
LOG: Closed client: /10.0.0.11:35672in MyMiddleware.run()
LOG: Closed client: /10.0.0.11:35702in MyMiddleware.run()
LOG: Closed client: /10.0.0.11:35676in MyMiddleware.run()
LOG: Closed client: /10.0.0.11:35696in MyMiddleware.run()
LOG: Closed client: /10.0.0.11:35698in MyMiddleware.run()
LOG: Closed client: /10.0.0.11:35706in MyMiddleware.run()
LOG: Closed client: /10.0.0.11:35678in MyMiddleware.run()
LOG: Closed client: /10.0.0.11:35680in MyMiddleware.run()
LOG: Closed client: /10.0.0.11:35704in MyMiddleware.run()
LOG: Closed client: /10.0.0.11:35688in MyMiddleware.run()
LOG: Closed client: /10.0.0.11:35714in MyMiddleware.run()
LOG: Closed client: /10.0.0.11:35710in MyMiddleware.run()
LOG: Closed client: /10.0.0.11:35712in MyMiddleware.run()
LOG: Closed client: /10.0.0.11:35726in MyMiddleware.run()
LOG: Closed client: /10.0.0.11:35722in MyMiddleware.run()
LOG: Closed client: /10.0.0.11:35730in MyMiddleware.run()
LOG: Closed client: /10.0.0.11:35708in MyMiddleware.run()
LOG: Closed client: /10.0.0.11:35690in MyMiddleware.run()
LOG: Closed client: /10.0.0.11:35724in MyMiddleware.run()
LOG: Closed client: /10.0.0.11:35686in MyMiddleware.run()
LOG: Closed client: /10.0.0.11:35728in MyMiddleware.run()
LOG: Closed client: /10.0.0.11:35720in MyMiddleware.run()
LOG: Closed client: /10.0.0.11:35718in MyMiddleware.run()
LOG: Closed client: /10.0.0.11:35694in MyMiddleware.run()
LOG: Closed client: /10.0.0.11:35692in MyMiddleware.run()
LOG: Closed client: /10.0.0.11:35716in MyMiddleware.run()
LOG: Closed client: /10.0.0.7:36506in MyMiddleware.run()
LOG: Closed client: /10.0.0.7:36504in MyMiddleware.run()
LOG: Closed client: /10.0.0.7:36512in MyMiddleware.run()
LOG: Closed client: /10.0.0.7:36502in MyMiddleware.run()
LOG: Closed client: /10.0.0.7:36492in MyMiddleware.run()
LOG: Closed client: /10.0.0.7:36494in MyMiddleware.run()
LOG: Closed client: /10.0.0.7:36508in MyMiddleware.run()
LOG: Closed client: /10.0.0.7:36500in MyMiddleware.run()
LOG: Closed client: /10.0.0.7:36488in MyMiddleware.run()
LOG: Closed client: /10.0.0.7:36490in MyMiddleware.run()
LOG: Closed client: /10.0.0.7:36526in MyMiddleware.run()
LOG: Closed client: /10.0.0.7:36522in MyMiddleware.run()
LOG: Closed client: /10.0.0.7:36536in MyMiddleware.run()
LOG: Closed client: /10.0.0.7:36524in MyMiddleware.run()
LOG: Closed client: /10.0.0.7:36510in MyMiddleware.run()
LOG: Closed client: /10.0.0.7:36498in MyMiddleware.run()
LOG: Closed client: /10.0.0.7:36538in MyMiddleware.run()
LOG: Closed client: /10.0.0.7:36530in MyMiddleware.run()
LOG: Closed client: /10.0.0.7:36548in MyMiddleware.run()
LOG: Closed client: /10.0.0.7:36518in MyMiddleware.run()
LOG: Closed client: /10.0.0.7:36540in MyMiddleware.run()
LOG: Closed client: /10.0.0.7:36514in MyMiddleware.run()
LOG: Closed client: /10.0.0.7:36496in MyMiddleware.run()
LOG: Closed client: /10.0.0.7:36542in MyMiddleware.run()
LOG: Closed client: /10.0.0.7:36520in MyMiddleware.run()
LOG: Closed client: /10.0.0.7:36544in MyMiddleware.run()
LOG: Closed client: /10.0.0.7:36532in MyMiddleware.run()
LOG: Closed client: /10.0.0.7:36516in MyMiddleware.run()
LOG: Closed client: /10.0.0.7:36528in MyMiddleware.run()
LOG: Closed client: /10.0.0.7:36550in MyMiddleware.run()
LOG: Closed client: /10.0.0.7:36546in MyMiddleware.run()
LOG: Closed client: /10.0.0.7:36534in MyMiddleware.run()
