------------Middleware started!------------
LOG: Waiting for connection in MyMiddleware.run()
LOG: Accepted client: /10.0.0.11:36048in MyMiddleware.run()
LOG: Accepted client: /10.0.0.11:36074in MyMiddleware.run()
LOG: Accepted client: /10.0.0.11:36092in MyMiddleware.run()
LOG: Accepted client: /10.0.0.11:36052in MyMiddleware.run()
LOG: Accepted client: /10.0.0.11:36050in MyMiddleware.run()
LOG: Accepted client: /10.0.0.11:36054in MyMiddleware.run()
LOG: Accepted client: /10.0.0.11:36082in MyMiddleware.run()
LOG: Accepted client: /10.0.0.11:36066in MyMiddleware.run()
LOG: Accepted client: /10.0.0.11:36086in MyMiddleware.run()
LOG: Accepted client: /10.0.0.11:36060in MyMiddleware.run()
LOG: Accepted client: /10.0.0.11:36104in MyMiddleware.run()
LOG: Accepted client: /10.0.0.11:36098in MyMiddleware.run()
LOG: Accepted client: /10.0.0.11:36090in MyMiddleware.run()
LOG: Accepted client: /10.0.0.11:36100in MyMiddleware.run()
LOG: Accepted client: /10.0.0.11:36088in MyMiddleware.run()
LOG: Accepted client: /10.0.0.11:36076in MyMiddleware.run()
LOG: Accepted client: /10.0.0.11:36080in MyMiddleware.run()
LOG: Accepted client: /10.0.0.11:36062in MyMiddleware.run()
LOG: Accepted client: /10.0.0.11:36094in MyMiddleware.run()
LOG: Accepted client: /10.0.0.11:36064in MyMiddleware.run()
LOG: Accepted client: /10.0.0.11:36096in MyMiddleware.run()
LOG: Accepted client: /10.0.0.11:36068in MyMiddleware.run()
LOG: Accepted client: /10.0.0.11:36070in MyMiddleware.run()
LOG: Accepted client: /10.0.0.11:36078in MyMiddleware.run()
LOG: Accepted client: /10.0.0.11:36084in MyMiddleware.run()
LOG: Accepted client: /10.0.0.11:36106in MyMiddleware.run()
LOG: Accepted client: /10.0.0.11:36072in MyMiddleware.run()
LOG: Accepted client: /10.0.0.11:36102in MyMiddleware.run()
LOG: Accepted client: /10.0.0.11:36056in MyMiddleware.run()
LOG: Accepted client: /10.0.0.11:36110in MyMiddleware.run()
LOG: Accepted client: /10.0.0.11:36058in MyMiddleware.run()
LOG: Accepted client: /10.0.0.11:36108in MyMiddleware.run()
LOG: Accepted client: /10.0.0.6:46996in MyMiddleware.run()
LOG: Accepted client: /10.0.0.6:47000in MyMiddleware.run()
LOG: Accepted client: /10.0.0.6:47018in MyMiddleware.run()
LOG: Accepted client: /10.0.0.6:46990in MyMiddleware.run()
LOG: Accepted client: /10.0.0.6:47022in MyMiddleware.run()
LOG: Accepted client: /10.0.0.6:47020in MyMiddleware.run()
LOG: Accepted client: /10.0.0.6:47030in MyMiddleware.run()
LOG: Accepted client: /10.0.0.6:47040in MyMiddleware.run()
LOG: Accepted client: /10.0.0.6:47008in MyMiddleware.run()
LOG: Accepted client: /10.0.0.6:47032in MyMiddleware.run()
LOG: Accepted client: /10.0.0.6:47028in MyMiddleware.run()
LOG: Accepted client: /10.0.0.6:47052in MyMiddleware.run()
LOG: Accepted client: /10.0.0.6:47010in MyMiddleware.run()
LOG: Accepted client: /10.0.0.6:46998in MyMiddleware.run()
LOG: Accepted client: /10.0.0.6:47034in MyMiddleware.run()
LOG: Accepted client: /10.0.0.6:47042in MyMiddleware.run()
LOG: Accepted client: /10.0.0.6:47002in MyMiddleware.run()
LOG: Accepted client: /10.0.0.6:47014in MyMiddleware.run()
LOG: Accepted client: /10.0.0.6:47012in MyMiddleware.run()
LOG: Accepted client: /10.0.0.6:47016in MyMiddleware.run()
LOG: Accepted client: /10.0.0.6:46994in MyMiddleware.run()
LOG: Accepted client: /10.0.0.6:47036in MyMiddleware.run()
LOG: Accepted client: /10.0.0.7:36836in MyMiddleware.run()
LOG: Accepted client: /10.0.0.7:36844in MyMiddleware.run()
LOG: Accepted client: /10.0.0.7:36850in MyMiddleware.run()
LOG: Accepted client: /10.0.0.7:36870in MyMiddleware.run()
LOG: Accepted client: /10.0.0.7:36838in MyMiddleware.run()
LOG: Accepted client: /10.0.0.7:36882in MyMiddleware.run()
LOG: Accepted client: /10.0.0.7:36864in MyMiddleware.run()
LOG: Accepted client: /10.0.0.7:36854in MyMiddleware.run()
LOG: Accepted client: /10.0.0.7:36852in MyMiddleware.run()
LOG: Accepted client: /10.0.0.7:36848in MyMiddleware.run()
LOG: Accepted client: /10.0.0.7:36880in MyMiddleware.run()
LOG: Accepted client: /10.0.0.7:36846in MyMiddleware.run()
LOG: Accepted client: /10.0.0.7:36840in MyMiddleware.run()
LOG: Accepted client: /10.0.0.6:47050in MyMiddleware.run()
LOG: Accepted client: /10.0.0.6:47048in MyMiddleware.run()
LOG: Accepted client: /10.0.0.6:46992in MyMiddleware.run()
LOG: Accepted client: /10.0.0.6:47038in MyMiddleware.run()
LOG: Accepted client: /10.0.0.6:47004in MyMiddleware.run()
LOG: Accepted client: /10.0.0.6:47024in MyMiddleware.run()
LOG: Accepted client: /10.0.0.6:47044in MyMiddleware.run()
LOG: Accepted client: /10.0.0.6:47006in MyMiddleware.run()
LOG: Accepted client: /10.0.0.6:47026in MyMiddleware.run()
LOG: Accepted client: /10.0.0.6:47046in MyMiddleware.run()
LOG: Accepted client: /10.0.0.7:36868in MyMiddleware.run()
LOG: Accepted client: /10.0.0.7:36866in MyMiddleware.run()
LOG: Accepted client: /10.0.0.7:36874in MyMiddleware.run()
LOG: Accepted client: /10.0.0.7:36892in MyMiddleware.run()
LOG: Accepted client: /10.0.0.7:36858in MyMiddleware.run()
LOG: Accepted client: /10.0.0.7:36856in MyMiddleware.run()
LOG: Accepted client: /10.0.0.7:36876in MyMiddleware.run()
LOG: Accepted client: /10.0.0.7:36860in MyMiddleware.run()
LOG: Accepted client: /10.0.0.7:36896in MyMiddleware.run()
LOG: Accepted client: /10.0.0.7:36862in MyMiddleware.run()
LOG: Accepted client: /10.0.0.7:36898in MyMiddleware.run()
LOG: Accepted client: /10.0.0.7:36890in MyMiddleware.run()
LOG: Accepted client: /10.0.0.7:36842in MyMiddleware.run()
LOG: Accepted client: /10.0.0.7:36872in MyMiddleware.run()
LOG: Accepted client: /10.0.0.7:36878in MyMiddleware.run()
LOG: Accepted client: /10.0.0.7:36886in MyMiddleware.run()
LOG: Accepted client: /10.0.0.7:36884in MyMiddleware.run()
LOG: Accepted client: /10.0.0.7:36888in MyMiddleware.run()
LOG: Accepted client: /10.0.0.7:36894in MyMiddleware.run()
LOG: Closed client: /10.0.0.11:36048in MyMiddleware.run()
LOG: Closed client: /10.0.0.11:36076in MyMiddleware.run()
LOG: Closed client: /10.0.0.11:36064in MyMiddleware.run()
LOG: Closed client: /10.0.0.11:36100in MyMiddleware.run()
LOG: Closed client: /10.0.0.11:36088in MyMiddleware.run()
LOG: Closed client: /10.0.0.11:36070in MyMiddleware.run()
LOG: Closed client: /10.0.0.11:36110in MyMiddleware.run()
LOG: Closed client: /10.0.0.11:36078in MyMiddleware.run()
LOG: Closed client: /10.0.0.11:36092in MyMiddleware.run()
LOG: Closed client: /10.0.0.11:36102in MyMiddleware.run()
LOG: Closed client: /10.0.0.11:36080in MyMiddleware.run()
LOG: Closed client: /10.0.0.11:36096in MyMiddleware.run()
LOG: Closed client: /10.0.0.11:36098in MyMiddleware.run()
LOG: Closed client: /10.0.0.11:36104in MyMiddleware.run()
LOG: Closed client: /10.0.0.11:36106in MyMiddleware.run()
LOG: Closed client: /10.0.0.11:36054in MyMiddleware.run()
LOG: Closed client: /10.0.0.11:36094in MyMiddleware.run()
LOG: Closed client: /10.0.0.11:36062in MyMiddleware.run()
LOG: Closed client: /10.0.0.11:36060in MyMiddleware.run()
LOG: Closed client: /10.0.0.11:36068in MyMiddleware.run()
LOG: Closed client: /10.0.0.11:36108in MyMiddleware.run()
LOG: Closed client: /10.0.0.11:36066in MyMiddleware.run()
LOG: Closed client: /10.0.0.11:36090in MyMiddleware.run()
LOG: Closed client: /10.0.0.11:36082in MyMiddleware.run()
LOG: Closed client: /10.0.0.11:36052in MyMiddleware.run()
LOG: Closed client: /10.0.0.11:36084in MyMiddleware.run()
LOG: Closed client: /10.0.0.11:36074in MyMiddleware.run()
LOG: Closed client: /10.0.0.11:36050in MyMiddleware.run()
LOG: Closed client: /10.0.0.11:36086in MyMiddleware.run()
LOG: Closed client: /10.0.0.11:36058in MyMiddleware.run()
LOG: Closed client: /10.0.0.11:36072in MyMiddleware.run()
LOG: Closed client: /10.0.0.11:36056in MyMiddleware.run()
LOG: Closed client: /10.0.0.6:46996in MyMiddleware.run()
LOG: Closed client: /10.0.0.6:47036in MyMiddleware.run()
LOG: Closed client: /10.0.0.6:47000in MyMiddleware.run()
LOG: Closed client: /10.0.0.6:47052in MyMiddleware.run()
LOG: Closed client: /10.0.0.6:47034in MyMiddleware.run()
LOG: Closed client: /10.0.0.6:47050in MyMiddleware.run()
LOG: Closed client: /10.0.0.6:47028in MyMiddleware.run()
LOG: Closed client: /10.0.0.6:47014in MyMiddleware.run()
LOG: Closed client: /10.0.0.6:47010in MyMiddleware.run()
LOG: Closed client: /10.0.0.6:47042in MyMiddleware.run()
LOG: Closed client: /10.0.0.6:47012in MyMiddleware.run()
LOG: Closed client: /10.0.0.6:47048in MyMiddleware.run()
LOG: Closed client: /10.0.0.6:46998in MyMiddleware.run()
LOG: Closed client: /10.0.0.6:47002in MyMiddleware.run()
LOG: Closed client: /10.0.0.6:47018in MyMiddleware.run()
LOG: Closed client: /10.0.0.6:47032in MyMiddleware.run()
LOG: Closed client: /10.0.0.6:46992in MyMiddleware.run()
LOG: Closed client: /10.0.0.6:46990in MyMiddleware.run()
LOG: Closed client: /10.0.0.6:47040in MyMiddleware.run()
LOG: Closed client: /10.0.0.6:46994in MyMiddleware.run()
LOG: Closed client: /10.0.0.6:47016in MyMiddleware.run()
LOG: Closed client: /10.0.0.6:47022in MyMiddleware.run()
LOG: Closed client: /10.0.0.6:47008in MyMiddleware.run()
LOG: Closed client: /10.0.0.6:47004in MyMiddleware.run()
LOG: Closed client: /10.0.0.6:47020in MyMiddleware.run()
LOG: Closed client: /10.0.0.6:47038in MyMiddleware.run()
LOG: Closed client: /10.0.0.6:47030in MyMiddleware.run()
LOG: Closed client: /10.0.0.6:47044in MyMiddleware.run()
LOG: Closed client: /10.0.0.6:47026in MyMiddleware.run()
LOG: Closed client: /10.0.0.6:47006in MyMiddleware.run()
LOG: Closed client: /10.0.0.6:47046in MyMiddleware.run()
LOG: Closed client: /10.0.0.6:47024in MyMiddleware.run()
LOG: Closed client: /10.0.0.7:36838in MyMiddleware.run()
LOG: Closed client: /10.0.0.7:36836in MyMiddleware.run()
LOG: Closed client: /10.0.0.7:36844in MyMiddleware.run()
LOG: Closed client: /10.0.0.7:36852in MyMiddleware.run()
LOG: Closed client: /10.0.0.7:36842in MyMiddleware.run()
LOG: Closed client: /10.0.0.7:36854in MyMiddleware.run()
LOG: Closed client: /10.0.0.7:36858in MyMiddleware.run()
LOG: Closed client: /10.0.0.7:36840in MyMiddleware.run()
LOG: Closed client: /10.0.0.7:36846in MyMiddleware.run()
LOG: Closed client: /10.0.0.7:36860in MyMiddleware.run()
LOG: Closed client: /10.0.0.7:36848in MyMiddleware.run()
LOG: Closed client: /10.0.0.7:36850in MyMiddleware.run()
LOG: Closed client: /10.0.0.7:36882in MyMiddleware.run()
LOG: Closed client: /10.0.0.7:36864in MyMiddleware.run()
LOG: Closed client: /10.0.0.7:36870in MyMiddleware.run()
LOG: Closed client: /10.0.0.7:36876in MyMiddleware.run()
LOG: Closed client: /10.0.0.7:36884in MyMiddleware.run()
LOG: Closed client: /10.0.0.7:36868in MyMiddleware.run()
LOG: Closed client: /10.0.0.7:36880in MyMiddleware.run()
LOG: Closed client: /10.0.0.7:36874in MyMiddleware.run()
LOG: Closed client: /10.0.0.7:36866in MyMiddleware.run()
LOG: Closed client: /10.0.0.7:36888in MyMiddleware.run()
LOG: Closed client: /10.0.0.7:36892in MyMiddleware.run()
LOG: Closed client: /10.0.0.7:36894in MyMiddleware.run()
LOG: Closed client: /10.0.0.7:36890in MyMiddleware.run()
LOG: Closed client: /10.0.0.7:36886in MyMiddleware.run()
LOG: Closed client: /10.0.0.7:36896in MyMiddleware.run()
LOG: Closed client: /10.0.0.7:36862in MyMiddleware.run()
LOG: Closed client: /10.0.0.7:36898in MyMiddleware.run()
LOG: Closed client: /10.0.0.7:36872in MyMiddleware.run()
LOG: Closed client: /10.0.0.7:36856in MyMiddleware.run()
LOG: Closed client: /10.0.0.7:36878in MyMiddleware.run()
