------------Middleware started!------------
LOG: Waiting for connection in MyMiddleware.run()
LOG: Accepted client: /10.0.0.11:48106in MyMiddleware.run()
LOG: Accepted client: /10.0.0.11:48158in MyMiddleware.run()
LOG: Accepted client: /10.0.0.11:48150in MyMiddleware.run()
LOG: Accepted client: /10.0.0.11:48156in MyMiddleware.run()
LOG: Accepted client: /10.0.0.11:48142in MyMiddleware.run()
LOG: Accepted client: /10.0.0.11:48140in MyMiddleware.run()
LOG: Accepted client: /10.0.0.11:48138in MyMiddleware.run()
LOG: Accepted client: /10.0.0.11:48144in MyMiddleware.run()
LOG: Accepted client: /10.0.0.11:48134in MyMiddleware.run()
LOG: Accepted client: /10.0.0.11:48104in MyMiddleware.run()
LOG: Accepted client: /10.0.0.11:48166in MyMiddleware.run()
LOG: Accepted client: /10.0.0.11:48122in MyMiddleware.run()
LOG: Accepted client: /10.0.0.11:48120in MyMiddleware.run()
LOG: Accepted client: /10.0.0.11:48160in MyMiddleware.run()
LOG: Accepted client: /10.0.0.11:48132in MyMiddleware.run()
LOG: Accepted client: /10.0.0.11:48146in MyMiddleware.run()
LOG: Accepted client: /10.0.0.11:48136in MyMiddleware.run()
LOG: Accepted client: /10.0.0.11:48112in MyMiddleware.run()
LOG: Accepted client: /10.0.0.11:48110in MyMiddleware.run()
LOG: Accepted client: /10.0.0.11:48116in MyMiddleware.run()
LOG: Accepted client: /10.0.0.11:48162in MyMiddleware.run()
LOG: Accepted client: /10.0.0.11:48114in MyMiddleware.run()
LOG: Accepted client: /10.0.0.11:48128in MyMiddleware.run()
LOG: Accepted client: /10.0.0.11:48152in MyMiddleware.run()
LOG: Accepted client: /10.0.0.11:48124in MyMiddleware.run()
LOG: Accepted client: /10.0.0.11:48154in MyMiddleware.run()
LOG: Accepted client: /10.0.0.11:48108in MyMiddleware.run()
LOG: Accepted client: /10.0.0.11:48118in MyMiddleware.run()
LOG: Accepted client: /10.0.0.11:48126in MyMiddleware.run()
LOG: Accepted client: /10.0.0.11:48148in MyMiddleware.run()
LOG: Accepted client: /10.0.0.11:48164in MyMiddleware.run()
LOG: Accepted client: /10.0.0.11:48130in MyMiddleware.run()
LOG: Accepted client: /10.0.0.6:59110in MyMiddleware.run()
LOG: Accepted client: /10.0.0.6:59102in MyMiddleware.run()
LOG: Accepted client: /10.0.0.6:59106in MyMiddleware.run()
LOG: Accepted client: /10.0.0.7:48948in MyMiddleware.run()
LOG: Accepted client: /10.0.0.7:48950in MyMiddleware.run()
LOG: Accepted client: /10.0.0.6:59098in MyMiddleware.run()
LOG: Accepted client: /10.0.0.6:59120in MyMiddleware.run()
LOG: Accepted client: /10.0.0.6:59116in MyMiddleware.run()
LOG: Accepted client: /10.0.0.6:59092in MyMiddleware.run()
LOG: Accepted client: /10.0.0.6:59124in MyMiddleware.run()
LOG: Accepted client: /10.0.0.6:59114in MyMiddleware.run()
LOG: Accepted client: /10.0.0.7:48954in MyMiddleware.run()
LOG: Accepted client: /10.0.0.7:48956in MyMiddleware.run()
LOG: Accepted client: /10.0.0.7:48952in MyMiddleware.run()
LOG: Accepted client: /10.0.0.6:59128in MyMiddleware.run()
LOG: Accepted client: /10.0.0.6:59166in MyMiddleware.run()
LOG: Accepted client: /10.0.0.6:59168in MyMiddleware.run()
LOG: Accepted client: /10.0.0.7:48968in MyMiddleware.run()
LOG: Accepted client: /10.0.0.6:59194in MyMiddleware.run()
LOG: Accepted client: /10.0.0.6:59178in MyMiddleware.run()
LOG: Accepted client: /10.0.0.7:48994in MyMiddleware.run()
LOG: Accepted client: /10.0.0.6:59184in MyMiddleware.run()
LOG: Accepted client: /10.0.0.7:48996in MyMiddleware.run()
LOG: Accepted client: /10.0.0.6:59192in MyMiddleware.run()
LOG: Accepted client: /10.0.0.6:59198in MyMiddleware.run()
LOG: Accepted client: /10.0.0.6:59176in MyMiddleware.run()
LOG: Accepted client: /10.0.0.6:59186in MyMiddleware.run()
LOG: Accepted client: /10.0.0.7:48982in MyMiddleware.run()
LOG: Accepted client: /10.0.0.6:59182in MyMiddleware.run()
LOG: Accepted client: /10.0.0.6:59206in MyMiddleware.run()
LOG: Accepted client: /10.0.0.7:49008in MyMiddleware.run()
LOG: Accepted client: /10.0.0.6:59204in MyMiddleware.run()
LOG: Accepted client: /10.0.0.7:49002in MyMiddleware.run()
LOG: Accepted client: /10.0.0.6:59170in MyMiddleware.run()
LOG: Accepted client: /10.0.0.7:48992in MyMiddleware.run()
LOG: Accepted client: /10.0.0.7:48966in MyMiddleware.run()
LOG: Accepted client: /10.0.0.7:48970in MyMiddleware.run()
LOG: Accepted client: /10.0.0.6:59180in MyMiddleware.run()
LOG: Accepted client: /10.0.0.7:48998in MyMiddleware.run()
LOG: Accepted client: /10.0.0.7:48974in MyMiddleware.run()
LOG: Accepted client: /10.0.0.7:48986in MyMiddleware.run()
LOG: Accepted client: /10.0.0.6:59196in MyMiddleware.run()
LOG: Accepted client: /10.0.0.7:48988in MyMiddleware.run()
LOG: Accepted client: /10.0.0.7:48958in MyMiddleware.run()
LOG: Accepted client: /10.0.0.7:48984in MyMiddleware.run()
LOG: Accepted client: /10.0.0.7:48972in MyMiddleware.run()
LOG: Accepted client: /10.0.0.6:59208in MyMiddleware.run()
LOG: Accepted client: /10.0.0.7:48990in MyMiddleware.run()
LOG: Accepted client: /10.0.0.6:59174in MyMiddleware.run()
LOG: Accepted client: /10.0.0.7:48960in MyMiddleware.run()
LOG: Accepted client: /10.0.0.7:49010in MyMiddleware.run()
LOG: Accepted client: /10.0.0.6:59172in MyMiddleware.run()
LOG: Accepted client: /10.0.0.7:48980in MyMiddleware.run()
LOG: Accepted client: /10.0.0.7:49000in MyMiddleware.run()
LOG: Accepted client: /10.0.0.7:48964in MyMiddleware.run()
LOG: Accepted client: /10.0.0.6:59188in MyMiddleware.run()
LOG: Accepted client: /10.0.0.6:59190in MyMiddleware.run()
LOG: Accepted client: /10.0.0.6:59200in MyMiddleware.run()
LOG: Accepted client: /10.0.0.6:59202in MyMiddleware.run()
LOG: Accepted client: /10.0.0.7:49006in MyMiddleware.run()
LOG: Accepted client: /10.0.0.7:48962in MyMiddleware.run()
LOG: Accepted client: /10.0.0.7:48978in MyMiddleware.run()
LOG: Accepted client: /10.0.0.7:48976in MyMiddleware.run()
LOG: Accepted client: /10.0.0.7:49004in MyMiddleware.run()
LOG: Closed client: /10.0.0.11:48104in MyMiddleware.run()
LOG: Closed client: /10.0.0.11:48110in MyMiddleware.run()
LOG: Closed client: /10.0.0.11:48108in MyMiddleware.run()
LOG: Closed client: /10.0.0.11:48114in MyMiddleware.run()
LOG: Closed client: /10.0.0.11:48112in MyMiddleware.run()
LOG: Closed client: /10.0.0.11:48122in MyMiddleware.run()
LOG: Closed client: /10.0.0.11:48116in MyMiddleware.run()
LOG: Closed client: /10.0.0.11:48106in MyMiddleware.run()
LOG: Closed client: /10.0.0.11:48130in MyMiddleware.run()
LOG: Closed client: /10.0.0.11:48156in MyMiddleware.run()
LOG: Closed client: /10.0.0.11:48148in MyMiddleware.run()
LOG: Closed client: /10.0.0.11:48146in MyMiddleware.run()
LOG: Closed client: /10.0.0.11:48158in MyMiddleware.run()
LOG: Closed client: /10.0.0.11:48164in MyMiddleware.run()
LOG: Closed client: /10.0.0.11:48132in MyMiddleware.run()
LOG: Closed client: /10.0.0.11:48144in MyMiddleware.run()
LOG: Closed client: /10.0.0.11:48118in MyMiddleware.run()
LOG: Closed client: /10.0.0.11:48160in MyMiddleware.run()
LOG: Closed client: /10.0.0.11:48154in MyMiddleware.run()
LOG: Closed client: /10.0.0.11:48166in MyMiddleware.run()
LOG: Closed client: /10.0.0.11:48138in MyMiddleware.run()
LOG: Closed client: /10.0.0.11:48150in MyMiddleware.run()
LOG: Closed client: /10.0.0.11:48126in MyMiddleware.run()
LOG: Closed client: /10.0.0.11:48152in MyMiddleware.run()
LOG: Closed client: /10.0.0.11:48128in MyMiddleware.run()
LOG: Closed client: /10.0.0.11:48134in MyMiddleware.run()
LOG: Closed client: /10.0.0.11:48120in MyMiddleware.run()
LOG: Closed client: /10.0.0.11:48140in MyMiddleware.run()
LOG: Closed client: /10.0.0.11:48142in MyMiddleware.run()
LOG: Closed client: /10.0.0.11:48136in MyMiddleware.run()
LOG: Closed client: /10.0.0.11:48162in MyMiddleware.run()
LOG: Closed client: /10.0.0.11:48124in MyMiddleware.run()
LOG: Closed client: /10.0.0.7:48974in MyMiddleware.run()
LOG: Closed client: /10.0.0.7:48948in MyMiddleware.run()
LOG: Closed client: /10.0.0.7:48952in MyMiddleware.run()
LOG: Closed client: /10.0.0.7:48958in MyMiddleware.run()
LOG: Closed client: /10.0.0.7:48972in MyMiddleware.run()
LOG: Closed client: /10.0.0.7:48954in MyMiddleware.run()
LOG: Closed client: /10.0.0.7:48950in MyMiddleware.run()
LOG: Closed client: /10.0.0.7:48962in MyMiddleware.run()
LOG: Closed client: /10.0.0.7:48960in MyMiddleware.run()
LOG: Closed client: /10.0.0.7:48998in MyMiddleware.run()
LOG: Closed client: /10.0.0.7:48994in MyMiddleware.run()
LOG: Closed client: /10.0.0.7:48996in MyMiddleware.run()
LOG: Closed client: /10.0.0.7:48956in MyMiddleware.run()
LOG: Closed client: /10.0.0.7:48968in MyMiddleware.run()
LOG: Closed client: /10.0.0.7:48982in MyMiddleware.run()
LOG: Closed client: /10.0.0.7:49008in MyMiddleware.run()
LOG: Closed client: /10.0.0.7:49006in MyMiddleware.run()
LOG: Closed client: /10.0.0.7:48984in MyMiddleware.run()
LOG: Closed client: /10.0.0.7:48988in MyMiddleware.run()
LOG: Closed client: /10.0.0.7:49010in MyMiddleware.run()
LOG: Closed client: /10.0.0.7:48992in MyMiddleware.run()
LOG: Closed client: /10.0.0.7:48980in MyMiddleware.run()
LOG: Closed client: /10.0.0.7:49002in MyMiddleware.run()
LOG: Closed client: /10.0.0.7:49000in MyMiddleware.run()
LOG: Closed client: /10.0.0.7:48990in MyMiddleware.run()
LOG: Closed client: /10.0.0.7:48970in MyMiddleware.run()
LOG: Closed client: /10.0.0.7:48966in MyMiddleware.run()
LOG: Closed client: /10.0.0.7:48978in MyMiddleware.run()
LOG: Closed client: /10.0.0.7:49004in MyMiddleware.run()
LOG: Closed client: /10.0.0.7:48964in MyMiddleware.run()
LOG: Closed client: /10.0.0.7:48976in MyMiddleware.run()
LOG: Closed client: /10.0.0.7:48986in MyMiddleware.run()
LOG: Closed client: /10.0.0.6:59120in MyMiddleware.run()
LOG: Closed client: /10.0.0.6:59116in MyMiddleware.run()
LOG: Closed client: /10.0.0.6:59102in MyMiddleware.run()
LOG: Closed client: /10.0.0.6:59168in MyMiddleware.run()
LOG: Closed client: /10.0.0.6:59106in MyMiddleware.run()
LOG: Closed client: /10.0.0.6:59182in MyMiddleware.run()
LOG: Closed client: /10.0.0.6:59180in MyMiddleware.run()
LOG: Closed client: /10.0.0.6:59202in MyMiddleware.run()
LOG: Closed client: /10.0.0.6:59124in MyMiddleware.run()
LOG: Closed client: /10.0.0.6:59190in MyMiddleware.run()
LOG: Closed client: /10.0.0.6:59194in MyMiddleware.run()
LOG: Closed client: /10.0.0.6:59176in MyMiddleware.run()
LOG: Closed client: /10.0.0.6:59192in MyMiddleware.run()
LOG: Closed client: /10.0.0.6:59184in MyMiddleware.run()
LOG: Closed client: /10.0.0.6:59114in MyMiddleware.run()
LOG: Closed client: /10.0.0.6:59172in MyMiddleware.run()
LOG: Closed client: /10.0.0.6:59170in MyMiddleware.run()
LOG: Closed client: /10.0.0.6:59204in MyMiddleware.run()
LOG: Closed client: /10.0.0.6:59098in MyMiddleware.run()
LOG: Closed client: /10.0.0.6:59178in MyMiddleware.run()
LOG: Closed client: /10.0.0.6:59092in MyMiddleware.run()
LOG: Closed client: /10.0.0.6:59174in MyMiddleware.run()
LOG: Closed client: /10.0.0.6:59128in MyMiddleware.run()
LOG: Closed client: /10.0.0.6:59200in MyMiddleware.run()
LOG: Closed client: /10.0.0.6:59208in MyMiddleware.run()
LOG: Closed client: /10.0.0.6:59186in MyMiddleware.run()
LOG: Closed client: /10.0.0.6:59110in MyMiddleware.run()
LOG: Closed client: /10.0.0.6:59196in MyMiddleware.run()
LOG: Closed client: /10.0.0.6:59166in MyMiddleware.run()
LOG: Closed client: /10.0.0.6:59206in MyMiddleware.run()
LOG: Closed client: /10.0.0.6:59198in MyMiddleware.run()
LOG: Closed client: /10.0.0.6:59188in MyMiddleware.run()
