------------Middleware started!------------
LOG: Waiting for connection in MyMiddleware.run()
LOG: Accepted client: /10.0.0.11:57014in MyMiddleware.run()
LOG: Accepted client: /10.0.0.11:57032in MyMiddleware.run()
LOG: Accepted client: /10.0.0.11:57022in MyMiddleware.run()
LOG: Accepted client: /10.0.0.11:57020in MyMiddleware.run()
LOG: Accepted client: /10.0.0.11:57034in MyMiddleware.run()
LOG: Accepted client: /10.0.0.11:57018in MyMiddleware.run()
LOG: Accepted client: /10.0.0.11:57038in MyMiddleware.run()
LOG: Accepted client: /10.0.0.11:57016in MyMiddleware.run()
LOG: Accepted client: /10.0.0.11:57036in MyMiddleware.run()
LOG: Accepted client: /10.0.0.11:57042in MyMiddleware.run()
LOG: Accepted client: /10.0.0.11:57040in MyMiddleware.run()
LOG: Accepted client: /10.0.0.11:57028in MyMiddleware.run()
LOG: Accepted client: /10.0.0.11:57024in MyMiddleware.run()
LOG: Accepted client: /10.0.0.11:57044in MyMiddleware.run()
LOG: Accepted client: /10.0.0.11:57030in MyMiddleware.run()
LOG: Accepted client: /10.0.0.11:57026in MyMiddleware.run()
LOG: Accepted client: /10.0.0.7:57796in MyMiddleware.run()
LOG: Accepted client: /10.0.0.7:57798in MyMiddleware.run()
LOG: Accepted client: /10.0.0.7:57812in MyMiddleware.run()
LOG: Accepted client: /10.0.0.7:57810in MyMiddleware.run()
LOG: Accepted client: /10.0.0.7:57818in MyMiddleware.run()
LOG: Accepted client: /10.0.0.7:57814in MyMiddleware.run()
LOG: Accepted client: /10.0.0.7:57802in MyMiddleware.run()
LOG: Accepted client: /10.0.0.7:57824in MyMiddleware.run()
LOG: Accepted client: /10.0.0.7:57820in MyMiddleware.run()
LOG: Accepted client: /10.0.0.7:57804in MyMiddleware.run()
LOG: Accepted client: /10.0.0.7:57816in MyMiddleware.run()
LOG: Accepted client: /10.0.0.7:57822in MyMiddleware.run()
LOG: Accepted client: /10.0.0.7:57806in MyMiddleware.run()
LOG: Accepted client: /10.0.0.7:57800in MyMiddleware.run()
LOG: Accepted client: /10.0.0.7:57826in MyMiddleware.run()
LOG: Accepted client: /10.0.0.7:57808in MyMiddleware.run()
LOG: Accepted client: /10.0.0.6:39788in MyMiddleware.run()
LOG: Accepted client: /10.0.0.6:39778in MyMiddleware.run()
LOG: Accepted client: /10.0.0.6:39772in MyMiddleware.run()
LOG: Accepted client: /10.0.0.6:39784in MyMiddleware.run()
LOG: Accepted client: /10.0.0.6:39770in MyMiddleware.run()
LOG: Accepted client: /10.0.0.6:39774in MyMiddleware.run()
LOG: Accepted client: /10.0.0.6:39768in MyMiddleware.run()
LOG: Accepted client: /10.0.0.6:39776in MyMiddleware.run()
LOG: Accepted client: /10.0.0.6:39782in MyMiddleware.run()
LOG: Accepted client: /10.0.0.6:39780in MyMiddleware.run()
LOG: Accepted client: /10.0.0.6:39792in MyMiddleware.run()
LOG: Accepted client: /10.0.0.6:39786in MyMiddleware.run()
LOG: Accepted client: /10.0.0.6:39766in MyMiddleware.run()
LOG: Accepted client: /10.0.0.6:39790in MyMiddleware.run()
LOG: Accepted client: /10.0.0.6:39764in MyMiddleware.run()
LOG: Accepted client: /10.0.0.6:39762in MyMiddleware.run()
LOG: Closed client: /10.0.0.11:57014in MyMiddleware.run()
LOG: Closed client: /10.0.0.11:57020in MyMiddleware.run()
LOG: Closed client: /10.0.0.11:57026in MyMiddleware.run()
LOG: Closed client: /10.0.0.11:57030in MyMiddleware.run()
LOG: Closed client: /10.0.0.11:57016in MyMiddleware.run()
LOG: Closed client: /10.0.0.11:57024in MyMiddleware.run()
LOG: Closed client: /10.0.0.11:57042in MyMiddleware.run()
LOG: Closed client: /10.0.0.11:57022in MyMiddleware.run()
LOG: Closed client: /10.0.0.11:57038in MyMiddleware.run()
LOG: Closed client: /10.0.0.11:57028in MyMiddleware.run()
LOG: Closed client: /10.0.0.11:57018in MyMiddleware.run()
LOG: Closed client: /10.0.0.11:57040in MyMiddleware.run()
LOG: Closed client: /10.0.0.11:57036in MyMiddleware.run()
LOG: Closed client: /10.0.0.11:57044in MyMiddleware.run()
LOG: Closed client: /10.0.0.11:57034in MyMiddleware.run()
LOG: Closed client: /10.0.0.11:57032in MyMiddleware.run()
LOG: Closed client: /10.0.0.7:57814in MyMiddleware.run()
LOG: Closed client: /10.0.0.7:57812in MyMiddleware.run()
LOG: Closed client: /10.0.0.7:57822in MyMiddleware.run()
LOG: Closed client: /10.0.0.7:57818in MyMiddleware.run()
LOG: Closed client: /10.0.0.7:57808in MyMiddleware.run()
LOG: Closed client: /10.0.0.7:57816in MyMiddleware.run()
LOG: Closed client: /10.0.0.7:57820in MyMiddleware.run()
LOG: Closed client: /10.0.0.7:57798in MyMiddleware.run()
LOG: Closed client: /10.0.0.7:57810in MyMiddleware.run()
LOG: Closed client: /10.0.0.7:57796in MyMiddleware.run()
LOG: Closed client: /10.0.0.7:57806in MyMiddleware.run()
LOG: Closed client: /10.0.0.7:57826in MyMiddleware.run()
LOG: Closed client: /10.0.0.7:57804in MyMiddleware.run()
LOG: Closed client: /10.0.0.7:57824in MyMiddleware.run()
LOG: Closed client: /10.0.0.7:57800in MyMiddleware.run()
LOG: Closed client: /10.0.0.7:57802in MyMiddleware.run()
LOG: Closed client: /10.0.0.6:39766in MyMiddleware.run()
LOG: Closed client: /10.0.0.6:39786in MyMiddleware.run()
LOG: Closed client: /10.0.0.6:39762in MyMiddleware.run()
LOG: Closed client: /10.0.0.6:39780in MyMiddleware.run()
LOG: Closed client: /10.0.0.6:39784in MyMiddleware.run()
LOG: Closed client: /10.0.0.6:39782in MyMiddleware.run()
LOG: Closed client: /10.0.0.6:39772in MyMiddleware.run()
LOG: Closed client: /10.0.0.6:39792in MyMiddleware.run()
LOG: Closed client: /10.0.0.6:39788in MyMiddleware.run()
LOG: Closed client: /10.0.0.6:39776in MyMiddleware.run()
LOG: Closed client: /10.0.0.6:39768in MyMiddleware.run()
LOG: Closed client: /10.0.0.6:39778in MyMiddleware.run()
LOG: Closed client: /10.0.0.6:39764in MyMiddleware.run()
LOG: Closed client: /10.0.0.6:39774in MyMiddleware.run()
LOG: Closed client: /10.0.0.6:39790in MyMiddleware.run()
LOG: Closed client: /10.0.0.6:39770in MyMiddleware.run()
