------------Middleware started!------------
LOG: Waiting for connection in MyMiddleware.run()
LOG: Accepted client: /10.0.0.11:43678in MyMiddleware.run()
LOG: Accepted client: /10.0.0.11:43666in MyMiddleware.run()
LOG: Accepted client: /10.0.0.11:43670in MyMiddleware.run()
LOG: Accepted client: /10.0.0.11:43686in MyMiddleware.run()
LOG: Accepted client: /10.0.0.11:43672in MyMiddleware.run()
LOG: Accepted client: /10.0.0.11:43668in MyMiddleware.run()
LOG: Accepted client: /10.0.0.11:43694in MyMiddleware.run()
LOG: Accepted client: /10.0.0.11:43680in MyMiddleware.run()
LOG: Accepted client: /10.0.0.11:43682in MyMiddleware.run()
LOG: Accepted client: /10.0.0.11:43692in MyMiddleware.run()
LOG: Accepted client: /10.0.0.11:43674in MyMiddleware.run()
LOG: Accepted client: /10.0.0.11:43684in MyMiddleware.run()
LOG: Accepted client: /10.0.0.11:43676in MyMiddleware.run()
LOG: Accepted client: /10.0.0.11:43664in MyMiddleware.run()
LOG: Accepted client: /10.0.0.11:43688in MyMiddleware.run()
LOG: Accepted client: /10.0.0.11:43690in MyMiddleware.run()
LOG: Accepted client: /10.0.0.7:44482in MyMiddleware.run()
LOG: Accepted client: /10.0.0.7:44470in MyMiddleware.run()
LOG: Accepted client: /10.0.0.7:44474in MyMiddleware.run()
LOG: Accepted client: /10.0.0.7:44472in MyMiddleware.run()
LOG: Accepted client: /10.0.0.7:44494in MyMiddleware.run()
LOG: Accepted client: /10.0.0.7:44476in MyMiddleware.run()
LOG: Accepted client: /10.0.0.7:44468in MyMiddleware.run()
LOG: Accepted client: /10.0.0.7:44478in MyMiddleware.run()
LOG: Accepted client: /10.0.0.7:44484in MyMiddleware.run()
LOG: Accepted client: /10.0.0.7:44486in MyMiddleware.run()
LOG: Accepted client: /10.0.0.7:44492in MyMiddleware.run()
LOG: Accepted client: /10.0.0.7:44480in MyMiddleware.run()
LOG: Accepted client: /10.0.0.7:44496in MyMiddleware.run()
LOG: Accepted client: /10.0.0.7:44490in MyMiddleware.run()
LOG: Accepted client: /10.0.0.7:44498in MyMiddleware.run()
LOG: Accepted client: /10.0.0.7:44488in MyMiddleware.run()
LOG: Accepted client: /10.0.0.6:54612in MyMiddleware.run()
LOG: Accepted client: /10.0.0.6:54614in MyMiddleware.run()
LOG: Accepted client: /10.0.0.6:54608in MyMiddleware.run()
LOG: Accepted client: /10.0.0.6:54616in MyMiddleware.run()
LOG: Accepted client: /10.0.0.6:54628in MyMiddleware.run()
LOG: Accepted client: /10.0.0.6:54606in MyMiddleware.run()
LOG: Accepted client: /10.0.0.6:54626in MyMiddleware.run()
LOG: Accepted client: /10.0.0.6:54634in MyMiddleware.run()
LOG: Accepted client: /10.0.0.6:54618in MyMiddleware.run()
LOG: Accepted client: /10.0.0.6:54624in MyMiddleware.run()
LOG: Accepted client: /10.0.0.6:54622in MyMiddleware.run()
LOG: Accepted client: /10.0.0.6:54632in MyMiddleware.run()
LOG: Accepted client: /10.0.0.6:54630in MyMiddleware.run()
LOG: Accepted client: /10.0.0.6:54610in MyMiddleware.run()
LOG: Accepted client: /10.0.0.6:54636in MyMiddleware.run()
LOG: Accepted client: /10.0.0.6:54620in MyMiddleware.run()
LOG: Closed client: /10.0.0.6:54606in MyMiddleware.run()
LOG: Closed client: /10.0.0.6:54632in MyMiddleware.run()
LOG: Closed client: /10.0.0.6:54620in MyMiddleware.run()
LOG: Closed client: /10.0.0.6:54624in MyMiddleware.run()
LOG: Closed client: /10.0.0.6:54616in MyMiddleware.run()
LOG: Closed client: /10.0.0.6:54618in MyMiddleware.run()
LOG: Closed client: /10.0.0.6:54608in MyMiddleware.run()
LOG: Closed client: /10.0.0.6:54622in MyMiddleware.run()
LOG: Closed client: /10.0.0.6:54630in MyMiddleware.run()
LOG: Closed client: /10.0.0.6:54612in MyMiddleware.run()
LOG: Closed client: /10.0.0.6:54634in MyMiddleware.run()
LOG: Closed client: /10.0.0.6:54626in MyMiddleware.run()
LOG: Closed client: /10.0.0.6:54614in MyMiddleware.run()
LOG: Closed client: /10.0.0.6:54636in MyMiddleware.run()
LOG: Closed client: /10.0.0.6:54610in MyMiddleware.run()
LOG: Closed client: /10.0.0.6:54628in MyMiddleware.run()
LOG: Closed client: /10.0.0.11:43686in MyMiddleware.run()
LOG: Closed client: /10.0.0.11:43690in MyMiddleware.run()
LOG: Closed client: /10.0.0.11:43678in MyMiddleware.run()
LOG: Closed client: /10.0.0.11:43688in MyMiddleware.run()
LOG: Closed client: /10.0.0.11:43676in MyMiddleware.run()
LOG: Closed client: /10.0.0.11:43680in MyMiddleware.run()
LOG: Closed client: /10.0.0.11:43692in MyMiddleware.run()
LOG: Closed client: /10.0.0.11:43670in MyMiddleware.run()
LOG: Closed client: /10.0.0.11:43694in MyMiddleware.run()
LOG: Closed client: /10.0.0.11:43684in MyMiddleware.run()
LOG: Closed client: /10.0.0.11:43668in MyMiddleware.run()
LOG: Closed client: /10.0.0.11:43674in MyMiddleware.run()
LOG: Closed client: /10.0.0.11:43682in MyMiddleware.run()
LOG: Closed client: /10.0.0.11:43664in MyMiddleware.run()
LOG: Closed client: /10.0.0.11:43672in MyMiddleware.run()
LOG: Closed client: /10.0.0.11:43666in MyMiddleware.run()
LOG: Closed client: /10.0.0.7:44474in MyMiddleware.run()
LOG: Closed client: /10.0.0.7:44480in MyMiddleware.run()
LOG: Closed client: /10.0.0.7:44494in MyMiddleware.run()
LOG: Closed client: /10.0.0.7:44484in MyMiddleware.run()
LOG: Closed client: /10.0.0.7:44482in MyMiddleware.run()
LOG: Closed client: /10.0.0.7:44476in MyMiddleware.run()
LOG: Closed client: /10.0.0.7:44488in MyMiddleware.run()
LOG: Closed client: /10.0.0.7:44492in MyMiddleware.run()
LOG: Closed client: /10.0.0.7:44470in MyMiddleware.run()
LOG: Closed client: /10.0.0.7:44472in MyMiddleware.run()
LOG: Closed client: /10.0.0.7:44496in MyMiddleware.run()
LOG: Closed client: /10.0.0.7:44498in MyMiddleware.run()
LOG: Closed client: /10.0.0.7:44486in MyMiddleware.run()
LOG: Closed client: /10.0.0.7:44490in MyMiddleware.run()
LOG: Closed client: /10.0.0.7:44468in MyMiddleware.run()
LOG: Closed client: /10.0.0.7:44478in MyMiddleware.run()
