------------Middleware started!------------
LOG: Waiting for connection in MyMiddleware.run()
LOG: Accepted client: /10.0.0.11:50728in MyMiddleware.run()
LOG: Accepted client: /10.0.0.11:50732in MyMiddleware.run()
LOG: Accepted client: /10.0.0.11:50726in MyMiddleware.run()
LOG: Accepted client: /10.0.0.11:50730in MyMiddleware.run()
LOG: Accepted client: /10.0.0.7:51468in MyMiddleware.run()
LOG: Accepted client: /10.0.0.7:51472in MyMiddleware.run()
LOG: Accepted client: /10.0.0.7:51470in MyMiddleware.run()
LOG: Accepted client: /10.0.0.7:51466in MyMiddleware.run()
LOG: Accepted client: /10.0.0.6:33442in MyMiddleware.run()
LOG: Accepted client: /10.0.0.6:33444in MyMiddleware.run()
LOG: Accepted client: /10.0.0.6:33446in MyMiddleware.run()
LOG: Accepted client: /10.0.0.6:33440in MyMiddleware.run()
LOG: Closed client: /10.0.0.7:51470in MyMiddleware.run()
LOG: Closed client: /10.0.0.7:51468in MyMiddleware.run()
LOG: Closed client: /10.0.0.7:51472in MyMiddleware.run()
LOG: Closed client: /10.0.0.7:51466in MyMiddleware.run()
LOG: Closed client: /10.0.0.11:50730in MyMiddleware.run()
LOG: Closed client: /10.0.0.11:50728in MyMiddleware.run()
LOG: Closed client: /10.0.0.11:50726in MyMiddleware.run()
LOG: Closed client: /10.0.0.11:50732in MyMiddleware.run()
LOG: Closed client: /10.0.0.6:33446in MyMiddleware.run()
LOG: Closed client: /10.0.0.6:33442in MyMiddleware.run()
LOG: Closed client: /10.0.0.6:33440in MyMiddleware.run()
LOG: Closed client: /10.0.0.6:33444in MyMiddleware.run()
