------------Middleware started!------------
LOG: Waiting for connection in MyMiddleware.run()
LOG: Accepted client: /10.0.0.11:38802in MyMiddleware.run()
LOG: Accepted client: /10.0.0.11:38806in MyMiddleware.run()
LOG: Accepted client: /10.0.0.11:38804in MyMiddleware.run()
LOG: Accepted client: /10.0.0.11:38800in MyMiddleware.run()
LOG: Accepted client: /10.0.0.7:39566in MyMiddleware.run()
LOG: Accepted client: /10.0.0.7:39572in MyMiddleware.run()
LOG: Accepted client: /10.0.0.7:39568in MyMiddleware.run()
LOG: Accepted client: /10.0.0.7:39570in MyMiddleware.run()
LOG: Accepted client: /10.0.0.6:49770in MyMiddleware.run()
LOG: Accepted client: /10.0.0.6:49764in MyMiddleware.run()
LOG: Accepted client: /10.0.0.6:49768in MyMiddleware.run()
LOG: Accepted client: /10.0.0.6:49766in MyMiddleware.run()
LOG: Closed client: /10.0.0.11:38800in MyMiddleware.run()
LOG: Closed client: /10.0.0.11:38802in MyMiddleware.run()
LOG: Closed client: /10.0.0.11:38804in MyMiddleware.run()
LOG: Closed client: /10.0.0.11:38806in MyMiddleware.run()
LOG: Closed client: /10.0.0.7:39566in MyMiddleware.run()
LOG: Closed client: /10.0.0.7:39568in MyMiddleware.run()
LOG: Closed client: /10.0.0.7:39572in MyMiddleware.run()
LOG: Closed client: /10.0.0.7:39570in MyMiddleware.run()
LOG: Closed client: /10.0.0.6:49768in MyMiddleware.run()
LOG: Closed client: /10.0.0.6:49764in MyMiddleware.run()
LOG: Closed client: /10.0.0.6:49770in MyMiddleware.run()
LOG: Closed client: /10.0.0.6:49766in MyMiddleware.run()
