------------Middleware started!------------
LOG: Waiting for connection in MyMiddleware.run()
LOG: Accepted client: /10.0.0.7:51980in MyMiddleware.run()
LOG: Accepted client: /10.0.0.7:51978in MyMiddleware.run()
LOG: Accepted client: /10.0.0.7:51982in MyMiddleware.run()
LOG: Accepted client: /10.0.0.7:51976in MyMiddleware.run()
LOG: Accepted client: /10.0.0.6:33960in MyMiddleware.run()
LOG: Accepted client: /10.0.0.6:33962in MyMiddleware.run()
LOG: Accepted client: /10.0.0.6:33964in MyMiddleware.run()
LOG: Accepted client: /10.0.0.6:33958in MyMiddleware.run()
LOG: Accepted client: /10.0.0.11:51244in MyMiddleware.run()
LOG: Accepted client: /10.0.0.11:51246in MyMiddleware.run()
LOG: Accepted client: /10.0.0.11:51250in MyMiddleware.run()
LOG: Accepted client: /10.0.0.11:51248in MyMiddleware.run()
LOG: Closed client: /10.0.0.7:51976in MyMiddleware.run()
LOG: Closed client: /10.0.0.7:51982in MyMiddleware.run()
LOG: Closed client: /10.0.0.7:51980in MyMiddleware.run()
LOG: Closed client: /10.0.0.7:51978in MyMiddleware.run()
LOG: Closed client: /10.0.0.6:33960in MyMiddleware.run()
LOG: Closed client: /10.0.0.6:33958in MyMiddleware.run()
LOG: Closed client: /10.0.0.6:33964in MyMiddleware.run()
LOG: Closed client: /10.0.0.6:33962in MyMiddleware.run()
LOG: Closed client: /10.0.0.11:51250in MyMiddleware.run()
LOG: Closed client: /10.0.0.11:51248in MyMiddleware.run()
LOG: Closed client: /10.0.0.11:51246in MyMiddleware.run()
LOG: Closed client: /10.0.0.11:51244in MyMiddleware.run()
