------------Middleware started!------------
LOG: Waiting for connection in MyMiddleware.run()
LOG: Accepted client: /10.0.0.11:57048in MyMiddleware.run()
LOG: Accepted client: /10.0.0.11:57054in MyMiddleware.run()
LOG: Accepted client: /10.0.0.11:57050in MyMiddleware.run()
LOG: Accepted client: /10.0.0.11:57042in MyMiddleware.run()
LOG: Accepted client: /10.0.0.11:57044in MyMiddleware.run()
LOG: Accepted client: /10.0.0.11:57046in MyMiddleware.run()
LOG: Accepted client: /10.0.0.11:57056in MyMiddleware.run()
LOG: Accepted client: /10.0.0.11:57052in MyMiddleware.run()
LOG: Accepted client: /10.0.0.7:57838in MyMiddleware.run()
LOG: Accepted client: /10.0.0.7:57836in MyMiddleware.run()
LOG: Accepted client: /10.0.0.7:57832in MyMiddleware.run()
LOG: Accepted client: /10.0.0.7:57834in MyMiddleware.run()
LOG: Accepted client: /10.0.0.6:39754in MyMiddleware.run()
LOG: Accepted client: /10.0.0.6:39750in MyMiddleware.run()
LOG: Accepted client: /10.0.0.6:39760in MyMiddleware.run()
LOG: Accepted client: /10.0.0.6:39752in MyMiddleware.run()
LOG: Accepted client: /10.0.0.6:39748in MyMiddleware.run()
LOG: Accepted client: /10.0.0.7:57824in MyMiddleware.run()
LOG: Accepted client: /10.0.0.7:57826in MyMiddleware.run()
LOG: Accepted client: /10.0.0.7:57828in MyMiddleware.run()
LOG: Accepted client: /10.0.0.7:57830in MyMiddleware.run()
LOG: Accepted client: /10.0.0.6:39756in MyMiddleware.run()
LOG: Accepted client: /10.0.0.6:39758in MyMiddleware.run()
LOG: Accepted client: /10.0.0.6:39746in MyMiddleware.run()
LOG: Closed client: /10.0.0.11:57056in MyMiddleware.run()
LOG: Closed client: /10.0.0.11:57050in MyMiddleware.run()
LOG: Closed client: /10.0.0.11:57054in MyMiddleware.run()
LOG: Closed client: /10.0.0.11:57044in MyMiddleware.run()
LOG: Closed client: /10.0.0.11:57052in MyMiddleware.run()
LOG: Closed client: /10.0.0.11:57048in MyMiddleware.run()
LOG: Closed client: /10.0.0.11:57046in MyMiddleware.run()
LOG: Closed client: /10.0.0.11:57042in MyMiddleware.run()
LOG: Closed client: /10.0.0.6:39752in MyMiddleware.run()
LOG: Closed client: /10.0.0.6:39746in MyMiddleware.run()
LOG: Closed client: /10.0.0.6:39756in MyMiddleware.run()
LOG: Closed client: /10.0.0.6:39748in MyMiddleware.run()
LOG: Closed client: /10.0.0.6:39750in MyMiddleware.run()
LOG: Closed client: /10.0.0.6:39754in MyMiddleware.run()
LOG: Closed client: /10.0.0.6:39758in MyMiddleware.run()
LOG: Closed client: /10.0.0.6:39760in MyMiddleware.run()
LOG: Closed client: /10.0.0.7:57828in MyMiddleware.run()
LOG: Closed client: /10.0.0.7:57830in MyMiddleware.run()
LOG: Closed client: /10.0.0.7:57834in MyMiddleware.run()
LOG: Closed client: /10.0.0.7:57832in MyMiddleware.run()
LOG: Closed client: /10.0.0.7:57836in MyMiddleware.run()
LOG: Closed client: /10.0.0.7:57838in MyMiddleware.run()
LOG: Closed client: /10.0.0.7:57826in MyMiddleware.run()
LOG: Closed client: /10.0.0.7:57824in MyMiddleware.run()
