------------Middleware started!------------
LOG: Waiting for connection in MyMiddleware.run()
LOG: Accepted client: /10.0.0.6:59412in MyMiddleware.run()
LOG: Accepted client: /10.0.0.6:59432in MyMiddleware.run()
LOG: Accepted client: /10.0.0.6:59416in MyMiddleware.run()
LOG: Accepted client: /10.0.0.6:59424in MyMiddleware.run()
LOG: Accepted client: /10.0.0.6:59400in MyMiddleware.run()
LOG: Accepted client: /10.0.0.6:59450in MyMiddleware.run()
LOG: Accepted client: /10.0.0.6:59408in MyMiddleware.run()
LOG: Accepted client: /10.0.0.6:59448in MyMiddleware.run()
LOG: Accepted client: /10.0.0.6:59420in MyMiddleware.run()
LOG: Accepted client: /10.0.0.6:59406in MyMiddleware.run()
LOG: Accepted client: /10.0.0.6:59426in MyMiddleware.run()
LOG: Accepted client: /10.0.0.6:59418in MyMiddleware.run()
LOG: Accepted client: /10.0.0.11:48460in MyMiddleware.run()
LOG: Accepted client: /10.0.0.6:59452in MyMiddleware.run()
LOG: Accepted client: /10.0.0.11:48456in MyMiddleware.run()
LOG: Accepted client: /10.0.0.6:59454in MyMiddleware.run()
LOG: Accepted client: /10.0.0.6:59428in MyMiddleware.run()
LOG: Accepted client: /10.0.0.6:59398in MyMiddleware.run()
LOG: Accepted client: /10.0.0.6:59422in MyMiddleware.run()
LOG: Accepted client: /10.0.0.11:48494in MyMiddleware.run()
LOG: Accepted client: /10.0.0.11:48462in MyMiddleware.run()
LOG: Accepted client: /10.0.0.6:59430in MyMiddleware.run()
LOG: Accepted client: /10.0.0.11:48492in MyMiddleware.run()
LOG: Accepted client: /10.0.0.11:48482in MyMiddleware.run()
LOG: Accepted client: /10.0.0.11:48466in MyMiddleware.run()
LOG: Accepted client: /10.0.0.11:48512in MyMiddleware.run()
LOG: Accepted client: /10.0.0.11:48452in MyMiddleware.run()
LOG: Accepted client: /10.0.0.11:48474in MyMiddleware.run()
LOG: Accepted client: /10.0.0.11:48484in MyMiddleware.run()
LOG: Accepted client: /10.0.0.11:48480in MyMiddleware.run()
LOG: Accepted client: /10.0.0.11:48472in MyMiddleware.run()
LOG: Accepted client: /10.0.0.11:48458in MyMiddleware.run()
LOG: Accepted client: /10.0.0.11:48486in MyMiddleware.run()
LOG: Accepted client: /10.0.0.11:48510in MyMiddleware.run()
LOG: Accepted client: /10.0.0.11:48504in MyMiddleware.run()
LOG: Accepted client: /10.0.0.11:48488in MyMiddleware.run()
LOG: Accepted client: /10.0.0.11:48490in MyMiddleware.run()
LOG: Accepted client: /10.0.0.11:48454in MyMiddleware.run()
LOG: Accepted client: /10.0.0.11:48500in MyMiddleware.run()
LOG: Accepted client: /10.0.0.11:48506in MyMiddleware.run()
LOG: Accepted client: /10.0.0.11:48450in MyMiddleware.run()
LOG: Accepted client: /10.0.0.11:48498in MyMiddleware.run()
LOG: Accepted client: /10.0.0.11:48470in MyMiddleware.run()
LOG: Accepted client: /10.0.0.11:48478in MyMiddleware.run()
LOG: Accepted client: /10.0.0.11:48508in MyMiddleware.run()
LOG: Accepted client: /10.0.0.11:48464in MyMiddleware.run()
LOG: Accepted client: /10.0.0.11:48468in MyMiddleware.run()
LOG: Accepted client: /10.0.0.11:48476in MyMiddleware.run()
LOG: Accepted client: /10.0.0.11:48502in MyMiddleware.run()
LOG: Accepted client: /10.0.0.11:48496in MyMiddleware.run()
LOG: Accepted client: /10.0.0.6:59440in MyMiddleware.run()
LOG: Accepted client: /10.0.0.6:59460in MyMiddleware.run()
LOG: Accepted client: /10.0.0.6:59410in MyMiddleware.run()
LOG: Accepted client: /10.0.0.6:59458in MyMiddleware.run()
LOG: Accepted client: /10.0.0.6:59438in MyMiddleware.run()
LOG: Accepted client: /10.0.0.6:59404in MyMiddleware.run()
LOG: Accepted client: /10.0.0.6:59442in MyMiddleware.run()
LOG: Accepted client: /10.0.0.6:59414in MyMiddleware.run()
LOG: Accepted client: /10.0.0.6:59436in MyMiddleware.run()
LOG: Accepted client: /10.0.0.6:59402in MyMiddleware.run()
LOG: Accepted client: /10.0.0.6:59456in MyMiddleware.run()
LOG: Accepted client: /10.0.0.6:59444in MyMiddleware.run()
LOG: Accepted client: /10.0.0.6:59446in MyMiddleware.run()
LOG: Accepted client: /10.0.0.6:59434in MyMiddleware.run()
LOG: Accepted client: /10.0.0.7:49282in MyMiddleware.run()
LOG: Accepted client: /10.0.0.7:49286in MyMiddleware.run()
LOG: Accepted client: /10.0.0.7:49278in MyMiddleware.run()
LOG: Accepted client: /10.0.0.7:49300in MyMiddleware.run()
LOG: Accepted client: /10.0.0.7:49260in MyMiddleware.run()
LOG: Accepted client: /10.0.0.7:49262in MyMiddleware.run()
LOG: Accepted client: /10.0.0.7:49306in MyMiddleware.run()
LOG: Accepted client: /10.0.0.7:49280in MyMiddleware.run()
LOG: Accepted client: /10.0.0.7:49312in MyMiddleware.run()
LOG: Accepted client: /10.0.0.7:49288in MyMiddleware.run()
LOG: Accepted client: /10.0.0.7:49284in MyMiddleware.run()
LOG: Accepted client: /10.0.0.7:49304in MyMiddleware.run()
LOG: Accepted client: /10.0.0.7:49276in MyMiddleware.run()
LOG: Accepted client: /10.0.0.7:49316in MyMiddleware.run()
LOG: Accepted client: /10.0.0.7:49290in MyMiddleware.run()
LOG: Accepted client: /10.0.0.7:49318in MyMiddleware.run()
LOG: Accepted client: /10.0.0.7:49296in MyMiddleware.run()
LOG: Accepted client: /10.0.0.7:49302in MyMiddleware.run()
LOG: Accepted client: /10.0.0.7:49272in MyMiddleware.run()
LOG: Accepted client: /10.0.0.7:49274in MyMiddleware.run()
LOG: Accepted client: /10.0.0.7:49266in MyMiddleware.run()
LOG: Accepted client: /10.0.0.7:49258in MyMiddleware.run()
LOG: Accepted client: /10.0.0.7:49298in MyMiddleware.run()
LOG: Accepted client: /10.0.0.7:49292in MyMiddleware.run()
LOG: Accepted client: /10.0.0.7:49314in MyMiddleware.run()
LOG: Accepted client: /10.0.0.7:49294in MyMiddleware.run()
LOG: Accepted client: /10.0.0.7:49264in MyMiddleware.run()
LOG: Accepted client: /10.0.0.7:49256in MyMiddleware.run()
LOG: Accepted client: /10.0.0.7:49308in MyMiddleware.run()
LOG: Accepted client: /10.0.0.7:49310in MyMiddleware.run()
LOG: Accepted client: /10.0.0.7:49270in MyMiddleware.run()
LOG: Accepted client: /10.0.0.7:49268in MyMiddleware.run()
LOG: Closed client: /10.0.0.6:59406in MyMiddleware.run()
LOG: Closed client: /10.0.0.6:59402in MyMiddleware.run()
LOG: Closed client: /10.0.0.6:59398in MyMiddleware.run()
LOG: Closed client: /10.0.0.6:59424in MyMiddleware.run()
LOG: Closed client: /10.0.0.6:59432in MyMiddleware.run()
LOG: Closed client: /10.0.0.6:59454in MyMiddleware.run()
LOG: Closed client: /10.0.0.6:59446in MyMiddleware.run()
LOG: Closed client: /10.0.0.6:59448in MyMiddleware.run()
LOG: Closed client: /10.0.0.6:59422in MyMiddleware.run()
LOG: Closed client: /10.0.0.6:59436in MyMiddleware.run()
LOG: Closed client: /10.0.0.6:59430in MyMiddleware.run()
LOG: Closed client: /10.0.0.6:59452in MyMiddleware.run()
LOG: Closed client: /10.0.0.6:59426in MyMiddleware.run()
LOG: Closed client: /10.0.0.6:59456in MyMiddleware.run()
LOG: Closed client: /10.0.0.6:59434in MyMiddleware.run()
LOG: Closed client: /10.0.0.6:59418in MyMiddleware.run()
LOG: Closed client: /10.0.0.6:59408in MyMiddleware.run()
LOG: Closed client: /10.0.0.6:59416in MyMiddleware.run()
LOG: Closed client: /10.0.0.6:59444in MyMiddleware.run()
LOG: Closed client: /10.0.0.6:59420in MyMiddleware.run()
LOG: Closed client: /10.0.0.6:59440in MyMiddleware.run()
LOG: Closed client: /10.0.0.6:59414in MyMiddleware.run()
LOG: Closed client: /10.0.0.6:59460in MyMiddleware.run()
LOG: Closed client: /10.0.0.6:59404in MyMiddleware.run()
LOG: Closed client: /10.0.0.6:59450in MyMiddleware.run()
LOG: Closed client: /10.0.0.6:59400in MyMiddleware.run()
LOG: Closed client: /10.0.0.6:59428in MyMiddleware.run()
LOG: Closed client: /10.0.0.6:59412in MyMiddleware.run()
LOG: Closed client: /10.0.0.6:59410in MyMiddleware.run()
LOG: Closed client: /10.0.0.6:59442in MyMiddleware.run()
LOG: Closed client: /10.0.0.6:59458in MyMiddleware.run()
LOG: Closed client: /10.0.0.6:59438in MyMiddleware.run()
LOG: Closed client: /10.0.0.11:48458in MyMiddleware.run()
LOG: Closed client: /10.0.0.11:48488in MyMiddleware.run()
LOG: Closed client: /10.0.0.11:48502in MyMiddleware.run()
LOG: Closed client: /10.0.0.11:48480in MyMiddleware.run()
LOG: Closed client: /10.0.0.11:48496in MyMiddleware.run()
LOG: Closed client: /10.0.0.11:48472in MyMiddleware.run()
LOG: Closed client: /10.0.0.11:48500in MyMiddleware.run()
LOG: Closed client: /10.0.0.11:48456in MyMiddleware.run()
LOG: Closed client: /10.0.0.11:48464in MyMiddleware.run()
LOG: Closed client: /10.0.0.11:48506in MyMiddleware.run()
LOG: Closed client: /10.0.0.11:48478in MyMiddleware.run()
LOG: Closed client: /10.0.0.11:48486in MyMiddleware.run()
LOG: Closed client: /10.0.0.11:48490in MyMiddleware.run()
LOG: Closed client: /10.0.0.11:48474in MyMiddleware.run()
LOG: Closed client: /10.0.0.11:48498in MyMiddleware.run()
LOG: Closed client: /10.0.0.11:48452in MyMiddleware.run()
LOG: Closed client: /10.0.0.11:48504in MyMiddleware.run()
LOG: Closed client: /10.0.0.11:48510in MyMiddleware.run()
LOG: Closed client: /10.0.0.11:48512in MyMiddleware.run()
LOG: Closed client: /10.0.0.11:48454in MyMiddleware.run()
LOG: Closed client: /10.0.0.11:48476in MyMiddleware.run()
LOG: Closed client: /10.0.0.11:48484in MyMiddleware.run()
LOG: Closed client: /10.0.0.11:48482in MyMiddleware.run()
LOG: Closed client: /10.0.0.11:48492in MyMiddleware.run()
LOG: Closed client: /10.0.0.11:48494in MyMiddleware.run()
LOG: Closed client: /10.0.0.11:48450in MyMiddleware.run()
LOG: Closed client: /10.0.0.11:48460in MyMiddleware.run()
LOG: Closed client: /10.0.0.11:48462in MyMiddleware.run()
LOG: Closed client: /10.0.0.11:48466in MyMiddleware.run()
LOG: Closed client: /10.0.0.11:48468in MyMiddleware.run()
LOG: Closed client: /10.0.0.11:48470in MyMiddleware.run()
LOG: Closed client: /10.0.0.11:48508in MyMiddleware.run()
LOG: Closed client: /10.0.0.7:49280in MyMiddleware.run()
LOG: Closed client: /10.0.0.7:49256in MyMiddleware.run()
LOG: Closed client: /10.0.0.7:49258in MyMiddleware.run()
LOG: Closed client: /10.0.0.7:49262in MyMiddleware.run()
LOG: Closed client: /10.0.0.7:49294in MyMiddleware.run()
LOG: Closed client: /10.0.0.7:49290in MyMiddleware.run()
LOG: Closed client: /10.0.0.7:49304in MyMiddleware.run()
LOG: Closed client: /10.0.0.7:49274in MyMiddleware.run()
LOG: Closed client: /10.0.0.7:49264in MyMiddleware.run()
LOG: Closed client: /10.0.0.7:49308in MyMiddleware.run()
LOG: Closed client: /10.0.0.7:49286in MyMiddleware.run()
LOG: Closed client: /10.0.0.7:49276in MyMiddleware.run()
LOG: Closed client: /10.0.0.7:49284in MyMiddleware.run()
LOG: Closed client: /10.0.0.7:49288in MyMiddleware.run()
LOG: Closed client: /10.0.0.7:49272in MyMiddleware.run()
LOG: Closed client: /10.0.0.7:49278in MyMiddleware.run()
LOG: Closed client: /10.0.0.7:49266in MyMiddleware.run()
LOG: Closed client: /10.0.0.7:49302in MyMiddleware.run()
LOG: Closed client: /10.0.0.7:49282in MyMiddleware.run()
LOG: Closed client: /10.0.0.7:49306in MyMiddleware.run()
LOG: Closed client: /10.0.0.7:49318in MyMiddleware.run()
LOG: Closed client: /10.0.0.7:49260in MyMiddleware.run()
LOG: Closed client: /10.0.0.7:49300in MyMiddleware.run()
LOG: Closed client: /10.0.0.7:49310in MyMiddleware.run()
LOG: Closed client: /10.0.0.7:49296in MyMiddleware.run()
LOG: Closed client: /10.0.0.7:49268in MyMiddleware.run()
LOG: Closed client: /10.0.0.7:49292in MyMiddleware.run()
LOG: Closed client: /10.0.0.7:49298in MyMiddleware.run()
LOG: Closed client: /10.0.0.7:49270in MyMiddleware.run()
LOG: Closed client: /10.0.0.7:49312in MyMiddleware.run()
LOG: Closed client: /10.0.0.7:49316in MyMiddleware.run()
LOG: Closed client: /10.0.0.7:49314in MyMiddleware.run()
