------------Middleware started!------------
LOG: Waiting for connection in MyMiddleware.run()
LOG: Accepted client: /10.0.0.11:56510in MyMiddleware.run()
LOG: Accepted client: /10.0.0.11:56508in MyMiddleware.run()
LOG: Accepted client: /10.0.0.11:56504in MyMiddleware.run()
LOG: Accepted client: /10.0.0.11:56506in MyMiddleware.run()
LOG: Accepted client: /10.0.0.11:56500in MyMiddleware.run()
LOG: Accepted client: /10.0.0.11:56502in MyMiddleware.run()
LOG: Accepted client: /10.0.0.11:56514in MyMiddleware.run()
LOG: Accepted client: /10.0.0.11:56512in MyMiddleware.run()
LOG: Accepted client: /10.0.0.7:57300in MyMiddleware.run()
LOG: Accepted client: /10.0.0.7:57302in MyMiddleware.run()
LOG: Accepted client: /10.0.0.7:57290in MyMiddleware.run()
LOG: Accepted client: /10.0.0.7:57296in MyMiddleware.run()
LOG: Accepted client: /10.0.0.7:57298in MyMiddleware.run()
LOG: Accepted client: /10.0.0.7:57294in MyMiddleware.run()
LOG: Accepted client: /10.0.0.7:57292in MyMiddleware.run()
LOG: Accepted client: /10.0.0.7:57304in MyMiddleware.run()
LOG: Accepted client: /10.0.0.6:39230in MyMiddleware.run()
LOG: Accepted client: /10.0.0.6:39238in MyMiddleware.run()
LOG: Accepted client: /10.0.0.6:39240in MyMiddleware.run()
LOG: Accepted client: /10.0.0.6:39242in MyMiddleware.run()
LOG: Accepted client: /10.0.0.6:39236in MyMiddleware.run()
LOG: Accepted client: /10.0.0.6:39244in MyMiddleware.run()
LOG: Accepted client: /10.0.0.6:39234in MyMiddleware.run()
LOG: Accepted client: /10.0.0.6:39232in MyMiddleware.run()
LOG: Closed client: /10.0.0.11:56500in MyMiddleware.run()
LOG: Closed client: /10.0.0.11:56508in MyMiddleware.run()
LOG: Closed client: /10.0.0.11:56504in MyMiddleware.run()
LOG: Closed client: /10.0.0.11:56512in MyMiddleware.run()
LOG: Closed client: /10.0.0.11:56510in MyMiddleware.run()
LOG: Closed client: /10.0.0.11:56502in MyMiddleware.run()
LOG: Closed client: /10.0.0.11:56514in MyMiddleware.run()
LOG: Closed client: /10.0.0.11:56506in MyMiddleware.run()
LOG: Closed client: /10.0.0.6:39232in MyMiddleware.run()
LOG: Closed client: /10.0.0.6:39242in MyMiddleware.run()
LOG: Closed client: /10.0.0.6:39244in MyMiddleware.run()
LOG: Closed client: /10.0.0.6:39230in MyMiddleware.run()
LOG: Closed client: /10.0.0.6:39236in MyMiddleware.run()
LOG: Closed client: /10.0.0.6:39240in MyMiddleware.run()
LOG: Closed client: /10.0.0.6:39238in MyMiddleware.run()
LOG: Closed client: /10.0.0.6:39234in MyMiddleware.run()
LOG: Closed client: /10.0.0.7:57304in MyMiddleware.run()
LOG: Closed client: /10.0.0.7:57294in MyMiddleware.run()
LOG: Closed client: /10.0.0.7:57296in MyMiddleware.run()
LOG: Closed client: /10.0.0.7:57298in MyMiddleware.run()
LOG: Closed client: /10.0.0.7:57290in MyMiddleware.run()
LOG: Closed client: /10.0.0.7:57292in MyMiddleware.run()
LOG: Closed client: /10.0.0.7:57302in MyMiddleware.run()
LOG: Closed client: /10.0.0.7:57300in MyMiddleware.run()
