------------Middleware started!------------
LOG: Waiting for connection in MyMiddleware.run()
LOG: Accepted client: /10.0.0.11:41758in MyMiddleware.run()
LOG: Accepted client: /10.0.0.11:41748in MyMiddleware.run()
LOG: Accepted client: /10.0.0.11:41754in MyMiddleware.run()
LOG: Accepted client: /10.0.0.11:41752in MyMiddleware.run()
LOG: Accepted client: /10.0.0.11:41756in MyMiddleware.run()
LOG: Accepted client: /10.0.0.11:41760in MyMiddleware.run()
LOG: Accepted client: /10.0.0.11:41762in MyMiddleware.run()
LOG: Accepted client: /10.0.0.11:41750in MyMiddleware.run()
LOG: Accepted client: /10.0.0.6:52728in MyMiddleware.run()
LOG: Accepted client: /10.0.0.6:52730in MyMiddleware.run()
LOG: Accepted client: /10.0.0.6:52722in MyMiddleware.run()
LOG: Accepted client: /10.0.0.6:52720in MyMiddleware.run()
LOG: Accepted client: /10.0.0.6:52718in MyMiddleware.run()
LOG: Accepted client: /10.0.0.6:52726in MyMiddleware.run()
LOG: Accepted client: /10.0.0.6:52716in MyMiddleware.run()
LOG: Accepted client: /10.0.0.6:52724in MyMiddleware.run()
LOG: Accepted client: /10.0.0.7:42560in MyMiddleware.run()
LOG: Accepted client: /10.0.0.7:42562in MyMiddleware.run()
LOG: Accepted client: /10.0.0.7:42570in MyMiddleware.run()
LOG: Accepted client: /10.0.0.7:42566in MyMiddleware.run()
LOG: Accepted client: /10.0.0.7:42568in MyMiddleware.run()
LOG: Accepted client: /10.0.0.7:42564in MyMiddleware.run()
LOG: Accepted client: /10.0.0.7:42574in MyMiddleware.run()
LOG: Accepted client: /10.0.0.7:42572in MyMiddleware.run()
LOG: Closed client: /10.0.0.11:41750in MyMiddleware.run()
LOG: Closed client: /10.0.0.11:41752in MyMiddleware.run()
LOG: Closed client: /10.0.0.11:41756in MyMiddleware.run()
LOG: Closed client: /10.0.0.11:41758in MyMiddleware.run()
LOG: Closed client: /10.0.0.11:41754in MyMiddleware.run()
LOG: Closed client: /10.0.0.11:41748in MyMiddleware.run()
LOG: Closed client: /10.0.0.11:41760in MyMiddleware.run()
LOG: Closed client: /10.0.0.11:41762in MyMiddleware.run()
LOG: Closed client: /10.0.0.6:52720in MyMiddleware.run()
LOG: Closed client: /10.0.0.6:52730in MyMiddleware.run()
LOG: Closed client: /10.0.0.6:52724in MyMiddleware.run()
LOG: Closed client: /10.0.0.6:52726in MyMiddleware.run()
LOG: Closed client: /10.0.0.6:52722in MyMiddleware.run()
LOG: Closed client: /10.0.0.6:52728in MyMiddleware.run()
LOG: Closed client: /10.0.0.6:52716in MyMiddleware.run()
LOG: Closed client: /10.0.0.6:52718in MyMiddleware.run()
LOG: Closed client: /10.0.0.7:42560in MyMiddleware.run()
LOG: Closed client: /10.0.0.7:42570in MyMiddleware.run()
LOG: Closed client: /10.0.0.7:42568in MyMiddleware.run()
LOG: Closed client: /10.0.0.7:42572in MyMiddleware.run()
LOG: Closed client: /10.0.0.7:42564in MyMiddleware.run()
LOG: Closed client: /10.0.0.7:42574in MyMiddleware.run()
LOG: Closed client: /10.0.0.7:42562in MyMiddleware.run()
LOG: Closed client: /10.0.0.7:42566in MyMiddleware.run()
