------------Middleware started!------------
LOG: Waiting for connection in MyMiddleware.run()
LOG: Accepted client: /10.0.0.7:41140in MyMiddleware.run()
LOG: Accepted client: /10.0.0.7:41130in MyMiddleware.run()
LOG: Accepted client: /10.0.0.7:41126in MyMiddleware.run()
LOG: Accepted client: /10.0.0.7:41134in MyMiddleware.run()
LOG: Accepted client: /10.0.0.7:41138in MyMiddleware.run()
LOG: Accepted client: /10.0.0.7:41136in MyMiddleware.run()
LOG: Accepted client: /10.0.0.7:41132in MyMiddleware.run()
LOG: Accepted client: /10.0.0.7:41128in MyMiddleware.run()
LOG: Accepted client: /10.0.0.11:40366in MyMiddleware.run()
LOG: Accepted client: /10.0.0.11:40360in MyMiddleware.run()
LOG: Accepted client: /10.0.0.11:40364in MyMiddleware.run()
LOG: Accepted client: /10.0.0.11:40362in MyMiddleware.run()
LOG: Accepted client: /10.0.0.11:40370in MyMiddleware.run()
LOG: Accepted client: /10.0.0.11:40368in MyMiddleware.run()
LOG: Accepted client: /10.0.0.6:51326in MyMiddleware.run()
LOG: Accepted client: /10.0.0.6:51324in MyMiddleware.run()
LOG: Accepted client: /10.0.0.6:51330in MyMiddleware.run()
LOG: Accepted client: /10.0.0.6:51328in MyMiddleware.run()
LOG: Accepted client: /10.0.0.6:51336in MyMiddleware.run()
LOG: Accepted client: /10.0.0.6:51338in MyMiddleware.run()
LOG: Accepted client: /10.0.0.11:40374in MyMiddleware.run()
LOG: Accepted client: /10.0.0.11:40372in MyMiddleware.run()
LOG: Accepted client: /10.0.0.6:51332in MyMiddleware.run()
LOG: Accepted client: /10.0.0.6:51334in MyMiddleware.run()
LOG: Closed client: /10.0.0.7:41138in MyMiddleware.run()
LOG: Closed client: /10.0.0.7:41134in MyMiddleware.run()
LOG: Closed client: /10.0.0.7:41126in MyMiddleware.run()
LOG: Closed client: /10.0.0.7:41132in MyMiddleware.run()
LOG: Closed client: /10.0.0.7:41140in MyMiddleware.run()
LOG: Closed client: /10.0.0.7:41128in MyMiddleware.run()
LOG: Closed client: /10.0.0.7:41136in MyMiddleware.run()
LOG: Closed client: /10.0.0.7:41130in MyMiddleware.run()
LOG: Closed client: /10.0.0.11:40372in MyMiddleware.run()
LOG: Closed client: /10.0.0.11:40362in MyMiddleware.run()
LOG: Closed client: /10.0.0.11:40374in MyMiddleware.run()
LOG: Closed client: /10.0.0.11:40360in MyMiddleware.run()
LOG: Closed client: /10.0.0.11:40370in MyMiddleware.run()
LOG: Closed client: /10.0.0.11:40368in MyMiddleware.run()
LOG: Closed client: /10.0.0.11:40364in MyMiddleware.run()
LOG: Closed client: /10.0.0.11:40366in MyMiddleware.run()
LOG: Closed client: /10.0.0.6:51336in MyMiddleware.run()
LOG: Closed client: /10.0.0.6:51324in MyMiddleware.run()
LOG: Closed client: /10.0.0.6:51326in MyMiddleware.run()
LOG: Closed client: /10.0.0.6:51334in MyMiddleware.run()
LOG: Closed client: /10.0.0.6:51328in MyMiddleware.run()
LOG: Closed client: /10.0.0.6:51338in MyMiddleware.run()
LOG: Closed client: /10.0.0.6:51330in MyMiddleware.run()
LOG: Closed client: /10.0.0.6:51332in MyMiddleware.run()
