------------Middleware started!------------
LOG: Waiting for connection in MyMiddleware.run()
LOG: Accepted client: /10.0.0.11:37798in MyMiddleware.run()
LOG: Accepted client: /10.0.0.11:37802in MyMiddleware.run()
LOG: Accepted client: /10.0.0.11:37804in MyMiddleware.run()
LOG: Accepted client: /10.0.0.11:37800in MyMiddleware.run()
LOG: Accepted client: /10.0.0.7:38562in MyMiddleware.run()
LOG: Accepted client: /10.0.0.7:38564in MyMiddleware.run()
LOG: Accepted client: /10.0.0.7:38568in MyMiddleware.run()
LOG: Accepted client: /10.0.0.7:38566in MyMiddleware.run()
LOG: Accepted client: /10.0.0.6:48752in MyMiddleware.run()
LOG: Accepted client: /10.0.0.6:48758in MyMiddleware.run()
LOG: Accepted client: /10.0.0.6:48756in MyMiddleware.run()
LOG: Accepted client: /10.0.0.6:48754in MyMiddleware.run()
LOG: Closed client: /10.0.0.11:37798in MyMiddleware.run()
LOG: Closed client: /10.0.0.11:37800in MyMiddleware.run()
LOG: Closed client: /10.0.0.11:37804in MyMiddleware.run()
LOG: Closed client: /10.0.0.11:37802in MyMiddleware.run()
LOG: Closed client: /10.0.0.7:38564in MyMiddleware.run()
LOG: Closed client: /10.0.0.7:38566in MyMiddleware.run()
LOG: Closed client: /10.0.0.7:38568in MyMiddleware.run()
LOG: Closed client: /10.0.0.7:38562in MyMiddleware.run()
LOG: Closed client: /10.0.0.6:48758in MyMiddleware.run()
LOG: Closed client: /10.0.0.6:48756in MyMiddleware.run()
LOG: Closed client: /10.0.0.6:48752in MyMiddleware.run()
LOG: Closed client: /10.0.0.6:48754in MyMiddleware.run()
