------------Middleware started!------------
LOG: Waiting for connection in MyMiddleware.run()
LOG: Accepted client: /10.0.0.11:38558in MyMiddleware.run()
LOG: Accepted client: /10.0.0.11:38562in MyMiddleware.run()
LOG: Accepted client: /10.0.0.11:38564in MyMiddleware.run()
LOG: Accepted client: /10.0.0.11:38560in MyMiddleware.run()
LOG: Accepted client: /10.0.0.6:49520in MyMiddleware.run()
LOG: Accepted client: /10.0.0.6:49522in MyMiddleware.run()
LOG: Accepted client: /10.0.0.6:49516in MyMiddleware.run()
LOG: Accepted client: /10.0.0.6:49518in MyMiddleware.run()
LOG: Accepted client: /10.0.0.7:39326in MyMiddleware.run()
LOG: Accepted client: /10.0.0.7:39324in MyMiddleware.run()
LOG: Accepted client: /10.0.0.7:39322in MyMiddleware.run()
LOG: Accepted client: /10.0.0.7:39320in MyMiddleware.run()
LOG: Closed client: /10.0.0.11:38560in MyMiddleware.run()
LOG: Closed client: /10.0.0.11:38558in MyMiddleware.run()
LOG: Closed client: /10.0.0.11:38562in MyMiddleware.run()
LOG: Closed client: /10.0.0.11:38564in MyMiddleware.run()
LOG: Closed client: /10.0.0.6:49518in MyMiddleware.run()
LOG: Closed client: /10.0.0.6:49516in MyMiddleware.run()
LOG: Closed client: /10.0.0.6:49520in MyMiddleware.run()
LOG: Closed client: /10.0.0.6:49522in MyMiddleware.run()
LOG: Closed client: /10.0.0.7:39324in MyMiddleware.run()
LOG: Closed client: /10.0.0.7:39322in MyMiddleware.run()
LOG: Closed client: /10.0.0.7:39326in MyMiddleware.run()
LOG: Closed client: /10.0.0.7:39320in MyMiddleware.run()
