------------Middleware started!------------
LOG: Waiting for connection in MyMiddleware.run()
LOG: Accepted client: /10.0.0.11:40890in MyMiddleware.run()
LOG: Accepted client: /10.0.0.11:40882in MyMiddleware.run()
LOG: Accepted client: /10.0.0.11:40878in MyMiddleware.run()
LOG: Accepted client: /10.0.0.11:40886in MyMiddleware.run()
LOG: Accepted client: /10.0.0.11:40880in MyMiddleware.run()
LOG: Accepted client: /10.0.0.11:40888in MyMiddleware.run()
LOG: Accepted client: /10.0.0.11:40884in MyMiddleware.run()
LOG: Accepted client: /10.0.0.11:40892in MyMiddleware.run()
LOG: Accepted client: /10.0.0.7:41650in MyMiddleware.run()
LOG: Accepted client: /10.0.0.7:41654in MyMiddleware.run()
LOG: Accepted client: /10.0.0.7:41646in MyMiddleware.run()
LOG: Accepted client: /10.0.0.7:41652in MyMiddleware.run()
LOG: Accepted client: /10.0.0.7:41656in MyMiddleware.run()
LOG: Accepted client: /10.0.0.7:41648in MyMiddleware.run()
LOG: Accepted client: /10.0.0.7:41644in MyMiddleware.run()
LOG: Accepted client: /10.0.0.7:41658in MyMiddleware.run()
LOG: Accepted client: /10.0.0.6:51862in MyMiddleware.run()
LOG: Accepted client: /10.0.0.6:51860in MyMiddleware.run()
LOG: Accepted client: /10.0.0.6:51870in MyMiddleware.run()
LOG: Accepted client: /10.0.0.6:51868in MyMiddleware.run()
LOG: Accepted client: /10.0.0.6:51866in MyMiddleware.run()
LOG: Accepted client: /10.0.0.6:51858in MyMiddleware.run()
LOG: Accepted client: /10.0.0.6:51864in MyMiddleware.run()
LOG: Accepted client: /10.0.0.6:51872in MyMiddleware.run()
LOG: Closed client: /10.0.0.11:40888in MyMiddleware.run()
LOG: Closed client: /10.0.0.11:40884in MyMiddleware.run()
LOG: Closed client: /10.0.0.11:40880in MyMiddleware.run()
LOG: Closed client: /10.0.0.11:40882in MyMiddleware.run()
LOG: Closed client: /10.0.0.11:40892in MyMiddleware.run()
LOG: Closed client: /10.0.0.11:40886in MyMiddleware.run()
LOG: Closed client: /10.0.0.11:40890in MyMiddleware.run()
LOG: Closed client: /10.0.0.11:40878in MyMiddleware.run()
LOG: Closed client: /10.0.0.7:41654in MyMiddleware.run()
LOG: Closed client: /10.0.0.7:41658in MyMiddleware.run()
LOG: Closed client: /10.0.0.7:41648in MyMiddleware.run()
LOG: Closed client: /10.0.0.7:41650in MyMiddleware.run()
LOG: Closed client: /10.0.0.7:41646in MyMiddleware.run()
LOG: Closed client: /10.0.0.7:41652in MyMiddleware.run()
LOG: Closed client: /10.0.0.7:41644in MyMiddleware.run()
LOG: Closed client: /10.0.0.7:41656in MyMiddleware.run()
LOG: Closed client: /10.0.0.6:51862in MyMiddleware.run()
LOG: Closed client: /10.0.0.6:51860in MyMiddleware.run()
LOG: Closed client: /10.0.0.6:51870in MyMiddleware.run()
LOG: Closed client: /10.0.0.6:51866in MyMiddleware.run()
LOG: Closed client: /10.0.0.6:51872in MyMiddleware.run()
LOG: Closed client: /10.0.0.6:51864in MyMiddleware.run()
LOG: Closed client: /10.0.0.6:51858in MyMiddleware.run()
LOG: Closed client: /10.0.0.6:51868in MyMiddleware.run()
