------------Middleware started!------------
LOG: Waiting for connection in MyMiddleware.run()
LOG: Accepted client: /10.0.0.6:50062in MyMiddleware.run()
LOG: Accepted client: /10.0.0.6:50064in MyMiddleware.run()
LOG: Accepted client: /10.0.0.6:50068in MyMiddleware.run()
LOG: Accepted client: /10.0.0.6:50066in MyMiddleware.run()
LOG: Accepted client: /10.0.0.7:39906in MyMiddleware.run()
LOG: Accepted client: /10.0.0.11:39120in MyMiddleware.run()
LOG: Accepted client: /10.0.0.11:39122in MyMiddleware.run()
LOG: Accepted client: /10.0.0.11:39118in MyMiddleware.run()
LOG: Accepted client: /10.0.0.11:39124in MyMiddleware.run()
LOG: Accepted client: /10.0.0.7:39908in MyMiddleware.run()
LOG: Accepted client: /10.0.0.7:39912in MyMiddleware.run()
LOG: Accepted client: /10.0.0.7:39910in MyMiddleware.run()
LOG: Closed client: /10.0.0.6:50064in MyMiddleware.run()
LOG: Closed client: /10.0.0.6:50068in MyMiddleware.run()
LOG: Closed client: /10.0.0.6:50066in MyMiddleware.run()
LOG: Closed client: /10.0.0.6:50062in MyMiddleware.run()
LOG: Closed client: /10.0.0.11:39120in MyMiddleware.run()
LOG: Closed client: /10.0.0.11:39122in MyMiddleware.run()
LOG: Closed client: /10.0.0.11:39124in MyMiddleware.run()
LOG: Closed client: /10.0.0.11:39118in MyMiddleware.run()
LOG: Closed client: /10.0.0.7:39912in MyMiddleware.run()
LOG: Closed client: /10.0.0.7:39908in MyMiddleware.run()
LOG: Closed client: /10.0.0.7:39906in MyMiddleware.run()
LOG: Closed client: /10.0.0.7:39910in MyMiddleware.run()
