------------Middleware started!------------
LOG: Waiting for connection in MyMiddleware.run()
LOG: Accepted client: /10.0.0.6:37892in MyMiddleware.run()
LOG: Accepted client: /10.0.0.6:37902in MyMiddleware.run()
LOG: Accepted client: /10.0.0.6:37890in MyMiddleware.run()
LOG: Accepted client: /10.0.0.6:37894in MyMiddleware.run()
LOG: Accepted client: /10.0.0.6:37900in MyMiddleware.run()
LOG: Accepted client: /10.0.0.6:37898in MyMiddleware.run()
LOG: Accepted client: /10.0.0.6:37896in MyMiddleware.run()
LOG: Accepted client: /10.0.0.6:37904in MyMiddleware.run()
LOG: Accepted client: /10.0.0.7:55942in MyMiddleware.run()
LOG: Accepted client: /10.0.0.7:55940in MyMiddleware.run()
LOG: Accepted client: /10.0.0.7:55946in MyMiddleware.run()
LOG: Accepted client: /10.0.0.7:55954in MyMiddleware.run()
LOG: Accepted client: /10.0.0.7:55944in MyMiddleware.run()
LOG: Accepted client: /10.0.0.7:55952in MyMiddleware.run()
LOG: Accepted client: /10.0.0.7:55948in MyMiddleware.run()
LOG: Accepted client: /10.0.0.7:55950in MyMiddleware.run()
LOG: Accepted client: /10.0.0.11:55166in MyMiddleware.run()
LOG: Accepted client: /10.0.0.11:55178in MyMiddleware.run()
LOG: Accepted client: /10.0.0.11:55180in MyMiddleware.run()
LOG: Accepted client: /10.0.0.11:55168in MyMiddleware.run()
LOG: Accepted client: /10.0.0.11:55170in MyMiddleware.run()
LOG: Accepted client: /10.0.0.11:55176in MyMiddleware.run()
LOG: Accepted client: /10.0.0.11:55174in MyMiddleware.run()
LOG: Accepted client: /10.0.0.11:55172in MyMiddleware.run()
LOG: Closed client: /10.0.0.6:37892in MyMiddleware.run()
LOG: Closed client: /10.0.0.6:37890in MyMiddleware.run()
LOG: Closed client: /10.0.0.6:37902in MyMiddleware.run()
LOG: Closed client: /10.0.0.6:37896in MyMiddleware.run()
LOG: Closed client: /10.0.0.6:37898in MyMiddleware.run()
LOG: Closed client: /10.0.0.6:37904in MyMiddleware.run()
LOG: Closed client: /10.0.0.6:37900in MyMiddleware.run()
LOG: Closed client: /10.0.0.6:37894in MyMiddleware.run()
LOG: Closed client: /10.0.0.11:55170in MyMiddleware.run()
LOG: Closed client: /10.0.0.11:55168in MyMiddleware.run()
LOG: Closed client: /10.0.0.11:55180in MyMiddleware.run()
LOG: Closed client: /10.0.0.11:55166in MyMiddleware.run()
LOG: Closed client: /10.0.0.11:55172in MyMiddleware.run()
LOG: Closed client: /10.0.0.11:55176in MyMiddleware.run()
LOG: Closed client: /10.0.0.11:55174in MyMiddleware.run()
LOG: Closed client: /10.0.0.11:55178in MyMiddleware.run()
LOG: Closed client: /10.0.0.7:55940in MyMiddleware.run()
LOG: Closed client: /10.0.0.7:55950in MyMiddleware.run()
LOG: Closed client: /10.0.0.7:55952in MyMiddleware.run()
LOG: Closed client: /10.0.0.7:55942in MyMiddleware.run()
LOG: Closed client: /10.0.0.7:55946in MyMiddleware.run()
LOG: Closed client: /10.0.0.7:55948in MyMiddleware.run()
LOG: Closed client: /10.0.0.7:55954in MyMiddleware.run()
LOG: Closed client: /10.0.0.7:55944in MyMiddleware.run()
