------------Middleware started!------------
LOG: Waiting for connection in MyMiddleware.run()
LOG: Accepted client: /10.0.0.11:34950in MyMiddleware.run()
LOG: Accepted client: /10.0.0.11:34944in MyMiddleware.run()
LOG: Accepted client: /10.0.0.11:34946in MyMiddleware.run()
LOG: Accepted client: /10.0.0.11:34988in MyMiddleware.run()
LOG: Accepted client: /10.0.0.6:45912in MyMiddleware.run()
LOG: Accepted client: /10.0.0.11:34954in MyMiddleware.run()
LOG: Accepted client: /10.0.0.6:45940in MyMiddleware.run()
LOG: Accepted client: /10.0.0.6:45892in MyMiddleware.run()
LOG: Accepted client: /10.0.0.6:45900in MyMiddleware.run()
LOG: Accepted client: /10.0.0.11:34986in MyMiddleware.run()
LOG: Accepted client: /10.0.0.11:34942in MyMiddleware.run()
LOG: Accepted client: /10.0.0.11:34966in MyMiddleware.run()
LOG: Accepted client: /10.0.0.11:34964in MyMiddleware.run()
LOG: Accepted client: /10.0.0.11:34998in MyMiddleware.run()
LOG: Accepted client: /10.0.0.11:34970in MyMiddleware.run()
LOG: Accepted client: /10.0.0.11:34960in MyMiddleware.run()
LOG: Accepted client: /10.0.0.11:34990in MyMiddleware.run()
LOG: Accepted client: /10.0.0.11:35000in MyMiddleware.run()
LOG: Accepted client: /10.0.0.11:34978in MyMiddleware.run()
LOG: Accepted client: /10.0.0.11:34968in MyMiddleware.run()
LOG: Accepted client: /10.0.0.11:34962in MyMiddleware.run()
LOG: Accepted client: /10.0.0.11:34958in MyMiddleware.run()
LOG: Accepted client: /10.0.0.11:34972in MyMiddleware.run()
LOG: Accepted client: /10.0.0.11:34956in MyMiddleware.run()
LOG: Accepted client: /10.0.0.11:34982in MyMiddleware.run()
LOG: Accepted client: /10.0.0.11:34996in MyMiddleware.run()
LOG: Accepted client: /10.0.0.6:45894in MyMiddleware.run()
LOG: Accepted client: /10.0.0.11:34948in MyMiddleware.run()
LOG: Accepted client: /10.0.0.11:34992in MyMiddleware.run()
LOG: Accepted client: /10.0.0.6:45918in MyMiddleware.run()
LOG: Accepted client: /10.0.0.6:45916in MyMiddleware.run()
LOG: Accepted client: /10.0.0.11:34994in MyMiddleware.run()
LOG: Accepted client: /10.0.0.6:45920in MyMiddleware.run()
LOG: Accepted client: /10.0.0.11:34976in MyMiddleware.run()
LOG: Accepted client: /10.0.0.6:45890in MyMiddleware.run()
LOG: Accepted client: /10.0.0.6:45926in MyMiddleware.run()
LOG: Accepted client: /10.0.0.11:34952in MyMiddleware.run()
LOG: Accepted client: /10.0.0.11:35004in MyMiddleware.run()
LOG: Accepted client: /10.0.0.11:35002in MyMiddleware.run()
LOG: Accepted client: /10.0.0.6:45948in MyMiddleware.run()
LOG: Accepted client: /10.0.0.6:45888in MyMiddleware.run()
LOG: Accepted client: /10.0.0.6:45922in MyMiddleware.run()
LOG: Accepted client: /10.0.0.11:34980in MyMiddleware.run()
LOG: Accepted client: /10.0.0.6:45924in MyMiddleware.run()
LOG: Accepted client: /10.0.0.6:45950in MyMiddleware.run()
LOG: Accepted client: /10.0.0.6:45944in MyMiddleware.run()
LOG: Accepted client: /10.0.0.6:45914in MyMiddleware.run()
LOG: Accepted client: /10.0.0.11:34984in MyMiddleware.run()
LOG: Accepted client: /10.0.0.11:34974in MyMiddleware.run()
LOG: Accepted client: /10.0.0.6:45946in MyMiddleware.run()
LOG: Accepted client: /10.0.0.7:35702in MyMiddleware.run()
LOG: Accepted client: /10.0.0.7:35690in MyMiddleware.run()
LOG: Accepted client: /10.0.0.7:35710in MyMiddleware.run()
LOG: Accepted client: /10.0.0.7:35734in MyMiddleware.run()
LOG: Accepted client: /10.0.0.7:35716in MyMiddleware.run()
LOG: Accepted client: /10.0.0.7:35696in MyMiddleware.run()
LOG: Accepted client: /10.0.0.7:35738in MyMiddleware.run()
LOG: Accepted client: /10.0.0.7:35708in MyMiddleware.run()
LOG: Accepted client: /10.0.0.7:35692in MyMiddleware.run()
LOG: Accepted client: /10.0.0.7:35732in MyMiddleware.run()
LOG: Accepted client: /10.0.0.7:35706in MyMiddleware.run()
LOG: Accepted client: /10.0.0.7:35722in MyMiddleware.run()
LOG: Accepted client: /10.0.0.7:35726in MyMiddleware.run()
LOG: Accepted client: /10.0.0.7:35714in MyMiddleware.run()
LOG: Accepted client: /10.0.0.6:45908in MyMiddleware.run()
LOG: Accepted client: /10.0.0.6:45896in MyMiddleware.run()
LOG: Accepted client: /10.0.0.6:45898in MyMiddleware.run()
LOG: Accepted client: /10.0.0.7:35744in MyMiddleware.run()
LOG: Accepted client: /10.0.0.7:35712in MyMiddleware.run()
LOG: Accepted client: /10.0.0.7:35746in MyMiddleware.run()
LOG: Accepted client: /10.0.0.7:35718in MyMiddleware.run()
LOG: Accepted client: /10.0.0.7:35694in MyMiddleware.run()
LOG: Accepted client: /10.0.0.7:35752in MyMiddleware.run()
LOG: Accepted client: /10.0.0.7:35720in MyMiddleware.run()
LOG: Accepted client: /10.0.0.7:35748in MyMiddleware.run()
LOG: Accepted client: /10.0.0.7:35698in MyMiddleware.run()
LOG: Accepted client: /10.0.0.7:35750in MyMiddleware.run()
LOG: Accepted client: /10.0.0.7:35730in MyMiddleware.run()
LOG: Accepted client: /10.0.0.7:35700in MyMiddleware.run()
LOG: Accepted client: /10.0.0.7:35736in MyMiddleware.run()
LOG: Accepted client: /10.0.0.7:35740in MyMiddleware.run()
LOG: Accepted client: /10.0.0.7:35704in MyMiddleware.run()
LOG: Accepted client: /10.0.0.7:35742in MyMiddleware.run()
LOG: Accepted client: /10.0.0.6:45938in MyMiddleware.run()
LOG: Accepted client: /10.0.0.6:45942in MyMiddleware.run()
LOG: Accepted client: /10.0.0.6:45936in MyMiddleware.run()
LOG: Accepted client: /10.0.0.6:45910in MyMiddleware.run()
LOG: Accepted client: /10.0.0.6:45906in MyMiddleware.run()
LOG: Accepted client: /10.0.0.6:45930in MyMiddleware.run()
LOG: Accepted client: /10.0.0.6:45928in MyMiddleware.run()
LOG: Accepted client: /10.0.0.6:45904in MyMiddleware.run()
LOG: Accepted client: /10.0.0.6:45902in MyMiddleware.run()
LOG: Accepted client: /10.0.0.7:35728in MyMiddleware.run()
LOG: Accepted client: /10.0.0.6:45934in MyMiddleware.run()
LOG: Accepted client: /10.0.0.6:45932in MyMiddleware.run()
LOG: Accepted client: /10.0.0.7:35724in MyMiddleware.run()
LOG: Closed client: /10.0.0.6:45902in MyMiddleware.run()
LOG: Closed client: /10.0.0.6:45892in MyMiddleware.run()
LOG: Closed client: /10.0.0.6:45894in MyMiddleware.run()
LOG: Closed client: /10.0.0.6:45896in MyMiddleware.run()
LOG: Closed client: /10.0.0.6:45890in MyMiddleware.run()
LOG: Closed client: /10.0.0.6:45898in MyMiddleware.run()
LOG: Closed client: /10.0.0.6:45908in MyMiddleware.run()
LOG: Closed client: /10.0.0.6:45900in MyMiddleware.run()
LOG: Closed client: /10.0.0.6:45888in MyMiddleware.run()
LOG: Closed client: /10.0.0.6:45926in MyMiddleware.run()
LOG: Closed client: /10.0.0.6:45918in MyMiddleware.run()
LOG: Closed client: /10.0.0.6:45928in MyMiddleware.run()
LOG: Closed client: /10.0.0.6:45916in MyMiddleware.run()
LOG: Closed client: /10.0.0.6:45944in MyMiddleware.run()
LOG: Closed client: /10.0.0.6:45938in MyMiddleware.run()
LOG: Closed client: /10.0.0.6:45948in MyMiddleware.run()
LOG: Closed client: /10.0.0.6:45924in MyMiddleware.run()
LOG: Closed client: /10.0.0.6:45904in MyMiddleware.run()
LOG: Closed client: /10.0.0.6:45920in MyMiddleware.run()
LOG: Closed client: /10.0.0.6:45922in MyMiddleware.run()
LOG: Closed client: /10.0.0.6:45930in MyMiddleware.run()
LOG: Closed client: /10.0.0.6:45940in MyMiddleware.run()
LOG: Closed client: /10.0.0.6:45942in MyMiddleware.run()
LOG: Closed client: /10.0.0.6:45936in MyMiddleware.run()
LOG: Closed client: /10.0.0.6:45912in MyMiddleware.run()
LOG: Closed client: /10.0.0.6:45934in MyMiddleware.run()
LOG: Closed client: /10.0.0.6:45906in MyMiddleware.run()
LOG: Closed client: /10.0.0.6:45932in MyMiddleware.run()
LOG: Closed client: /10.0.0.6:45914in MyMiddleware.run()
LOG: Closed client: /10.0.0.6:45950in MyMiddleware.run()
LOG: Closed client: /10.0.0.6:45946in MyMiddleware.run()
LOG: Closed client: /10.0.0.6:45910in MyMiddleware.run()
LOG: Closed client: /10.0.0.11:34956in MyMiddleware.run()
LOG: Closed client: /10.0.0.11:34994in MyMiddleware.run()
LOG: Closed client: /10.0.0.11:34960in MyMiddleware.run()
LOG: Closed client: /10.0.0.11:34978in MyMiddleware.run()
LOG: Closed client: /10.0.0.11:34952in MyMiddleware.run()
LOG: Closed client: /10.0.0.11:34948in MyMiddleware.run()
LOG: Closed client: /10.0.0.11:34958in MyMiddleware.run()
LOG: Closed client: /10.0.0.11:35000in MyMiddleware.run()
LOG: Closed client: /10.0.0.11:34976in MyMiddleware.run()
LOG: Closed client: /10.0.0.11:34996in MyMiddleware.run()
LOG: Closed client: /10.0.0.11:34942in MyMiddleware.run()
LOG: Closed client: /10.0.0.11:34966in MyMiddleware.run()
LOG: Closed client: /10.0.0.11:34946in MyMiddleware.run()
LOG: Closed client: /10.0.0.11:34984in MyMiddleware.run()
LOG: Closed client: /10.0.0.11:34964in MyMiddleware.run()
LOG: Closed client: /10.0.0.11:34954in MyMiddleware.run()
LOG: Closed client: /10.0.0.11:34990in MyMiddleware.run()
LOG: Closed client: /10.0.0.11:34962in MyMiddleware.run()
LOG: Closed client: /10.0.0.11:34982in MyMiddleware.run()
LOG: Closed client: /10.0.0.11:34980in MyMiddleware.run()
LOG: Closed client: /10.0.0.11:34986in MyMiddleware.run()
LOG: Closed client: /10.0.0.11:34988in MyMiddleware.run()
LOG: Closed client: /10.0.0.11:34974in MyMiddleware.run()
LOG: Closed client: /10.0.0.11:34944in MyMiddleware.run()
LOG: Closed client: /10.0.0.11:35002in MyMiddleware.run()
LOG: Closed client: /10.0.0.11:34970in MyMiddleware.run()
LOG: Closed client: /10.0.0.11:34998in MyMiddleware.run()
LOG: Closed client: /10.0.0.11:35004in MyMiddleware.run()
LOG: Closed client: /10.0.0.11:34992in MyMiddleware.run()
LOG: Closed client: /10.0.0.11:34972in MyMiddleware.run()
LOG: Closed client: /10.0.0.11:34968in MyMiddleware.run()
LOG: Closed client: /10.0.0.11:34950in MyMiddleware.run()
LOG: Closed client: /10.0.0.7:35706in MyMiddleware.run()
LOG: Closed client: /10.0.0.7:35722in MyMiddleware.run()
LOG: Closed client: /10.0.0.7:35702in MyMiddleware.run()
LOG: Closed client: /10.0.0.7:35696in MyMiddleware.run()
LOG: Closed client: /10.0.0.7:35710in MyMiddleware.run()
LOG: Closed client: /10.0.0.7:35694in MyMiddleware.run()
LOG: Closed client: /10.0.0.7:35746in MyMiddleware.run()
LOG: Closed client: /10.0.0.7:35732in MyMiddleware.run()
LOG: Closed client: /10.0.0.7:35726in MyMiddleware.run()
LOG: Closed client: /10.0.0.7:35730in MyMiddleware.run()
LOG: Closed client: /10.0.0.7:35692in MyMiddleware.run()
LOG: Closed client: /10.0.0.7:35728in MyMiddleware.run()
LOG: Closed client: /10.0.0.7:35714in MyMiddleware.run()
LOG: Closed client: /10.0.0.7:35704in MyMiddleware.run()
LOG: Closed client: /10.0.0.7:35718in MyMiddleware.run()
LOG: Closed client: /10.0.0.7:35708in MyMiddleware.run()
LOG: Closed client: /10.0.0.7:35690in MyMiddleware.run()
LOG: Closed client: /10.0.0.7:35744in MyMiddleware.run()
LOG: Closed client: /10.0.0.7:35724in MyMiddleware.run()
LOG: Closed client: /10.0.0.7:35734in MyMiddleware.run()
LOG: Closed client: /10.0.0.7:35716in MyMiddleware.run()
LOG: Closed client: /10.0.0.7:35700in MyMiddleware.run()
LOG: Closed client: /10.0.0.7:35698in MyMiddleware.run()
LOG: Closed client: /10.0.0.7:35750in MyMiddleware.run()
LOG: Closed client: /10.0.0.7:35748in MyMiddleware.run()
LOG: Closed client: /10.0.0.7:35720in MyMiddleware.run()
LOG: Closed client: /10.0.0.7:35742in MyMiddleware.run()
LOG: Closed client: /10.0.0.7:35736in MyMiddleware.run()
LOG: Closed client: /10.0.0.7:35738in MyMiddleware.run()
LOG: Closed client: /10.0.0.7:35740in MyMiddleware.run()
LOG: Closed client: /10.0.0.7:35752in MyMiddleware.run()
LOG: Closed client: /10.0.0.7:35712in MyMiddleware.run()
