Second,Ops/sec,Hits/sec,Misses/sec,Latency,KB/sec,Request_Creation_Time,Request_Buffer_Time,MW_Writes_To_Memcached_Time,Memcached_Process_Time,MW_Writes_To_Memtier_Time,Queue_Size
4,1222.00,1222.00,0.00,6.381,1284,0.033,5.073,0.016,1.178,0.080,30.6
5,5317.00,5317.00,0.00,8.033,5586,0.006,6.529,0.008,1.476,0.014,31.3
6,5413.00,5413.00,0.00,8.405,5687,0.004,6.927,0.007,1.455,0.013,33.5
7,5400.00,5400.00,0.00,8.403,5673,0.004,6.920,0.006,1.461,0.012,33.4
8,5417.00,5417.00,0.00,8.396,5691,0.004,6.917,0.006,1.455,0.013,33.7
9,5486.00,5486.00,0.00,8.280,5764,0.004,6.820,0.006,1.438,0.012,33.5
10,5473.00,5473.00,0.00,8.209,5750,0.003,6.755,0.006,1.432,0.012,33.3
11,5421.00,5421.00,0.00,8.368,5696,0.003,6.890,0.006,1.456,0.012,33.5
12,5376.00,5376.00,0.00,8.384,5647,0.003,6.897,0.007,1.465,0.012,33.4
13,5412.00,5412.00,0.00,8.374,5685,0.003,6.902,0.006,1.451,0.012,33.6
14,5493.00,5493.00,0.00,8.272,5771,0.003,6.805,0.006,1.446,0.012,33.6
15,5461.00,5461.00,0.00,8.275,5737,0.003,6.811,0.006,1.442,0.012,33.7
16,5614.00,5614.00,0.00,8.078,5898,0.003,6.642,0.006,1.416,0.012,33.2
17,5557.00,5557.00,0.00,8.030,5838,0.003,6.602,0.006,1.407,0.012,32.8
18,5332.00,5332.00,0.00,8.527,5602,0.003,7.024,0.006,1.482,0.012,33.7
19,5456.00,5456.00,0.00,8.286,5732,0.003,6.818,0.006,1.448,0.012,33.5
20,5486.00,5486.00,0.00,8.284,5763,0.003,6.824,0.006,1.440,0.012,33.5
21,5480.00,5480.00,0.00,8.262,5757,0.003,6.798,0.006,1.442,0.013,33.3
22,5542.00,5542.00,0.00,8.097,5823,0.003,6.655,0.006,1.421,0.012,32.9
23,5421.00,5421.00,0.00,8.339,5695,0.003,6.860,0.006,1.458,0.012,33.6
24,5432.00,5432.00,0.00,8.347,5707,0.003,6.874,0.006,1.453,0.012,33.6
25,5539.00,5539.00,0.00,8.207,5819,0.003,6.761,0.006,1.425,0.012,33.6
26,5472.00,5454.00,18.00,8.261,5730,0.003,6.800,0.007,1.438,0.013,33.5
27,5490.00,5460.00,30.00,8.211,5736,0.003,6.753,0.007,1.435,0.013,33.2
28,5353.00,5353.00,0.00,8.479,5623,0.003,6.984,0.008,1.471,0.014,34.4
29,5436.00,5436.00,0.00,8.360,5710,0.003,6.892,0.007,1.444,0.013,34.1
30,5498.00,5498.00,0.00,8.142,5775,0.003,6.688,0.007,1.431,0.014,33.0
31,5454.00,5454.00,0.00,8.328,5730,0.003,6.860,0.007,1.445,0.014,33.8
32,5556.00,5556.00,0.00,8.122,5837,0.003,6.685,0.007,1.413,0.013,33.8
33,5620.00,5620.00,0.00,8.072,5904,0.003,6.648,0.007,1.401,0.013,33.6
34,5460.00,5460.00,0.00,8.296,5736,0.003,6.830,0.007,1.442,0.013,33.7
35,5481.00,5481.00,0.00,8.277,5758,0.003,6.818,0.007,1.436,0.013,34.0
36,5636.00,5636.00,0.00,8.010,5921,0.003,6.592,0.007,1.395,0.013,33.7
37,5489.00,5489.00,0.00,8.300,5767,0.003,6.842,0.007,1.436,0.013,34.0
38,5423.00,5423.00,0.00,8.296,5698,0.003,6.821,0.007,1.452,0.013,33.3
39,5474.00,5474.00,0.00,8.261,5751,0.003,6.800,0.007,1.438,0.013,33.4
40,5467.00,5467.00,0.00,8.266,5744,0.003,6.803,0.007,1.441,0.014,33.7
41,5437.00,5437.00,0.00,8.362,5712,0.003,6.889,0.007,1.451,0.012,33.7
42,5529.00,5529.00,0.00,8.207,5808,0.003,6.760,0.007,1.426,0.012,33.5
43,5426.00,5426.00,0.00,8.352,5700,0.003,6.877,0.006,1.454,0.012,33.6
44,5393.00,5393.00,0.00,8.396,5666,0.003,6.910,0.006,1.463,0.013,33.6
45,5522.00,5522.00,0.00,8.154,5801,0.003,6.705,0.006,1.427,0.012,33.2
46,5483.00,5483.00,0.00,8.291,5760,0.003,6.831,0.006,1.439,0.012,33.6
47,5411.00,5411.00,0.00,8.357,5684,0.003,6.877,0.007,1.457,0.013,33.5
48,5438.00,5438.00,0.00,8.288,5713,0.003,6.816,0.006,1.451,0.012,33.2
49,5409.00,5409.00,0.00,8.380,5682,0.003,6.898,0.006,1.461,0.013,33.2
50,5393.00,5393.00,0.00,8.400,5665,0.003,6.916,0.006,1.462,0.013,33.9
51,5410.00,5410.00,0.00,8.360,5683,0.003,6.880,0.006,1.459,0.012,33.2
52,5465.00,5465.00,0.00,8.286,5741,0.003,6.820,0.006,1.444,0.013,33.6
53,5380.00,5380.00,0.00,8.439,5652,0.003,6.950,0.006,1.467,0.013,33.8
54,5481.00,5481.00,0.00,8.273,5758,0.003,6.817,0.006,1.436,0.012,33.2
55,5374.00,5374.00,0.00,8.406,5646,0.003,6.915,0.006,1.468,0.015,33.5
56,5494.00,5494.00,0.00,8.217,5772,0.003,6.761,0.006,1.434,0.013,33.3
57,5663.00,5663.00,0.00,7.968,5949,0.003,6.553,0.006,1.394,0.012,33.2
58,5490.00,5490.00,0.00,8.301,5767,0.003,6.840,0.006,1.440,0.012,33.7
59,5395.00,5395.00,0.00,8.362,5667,0.003,6.884,0.006,1.458,0.012,33.9
60,5507.00,5507.00,0.00,8.250,5785,0.003,6.793,0.006,1.436,0.013,33.4
61,5405.00,5405.00,0.00,8.341,5678,0.003,6.858,0.006,1.461,0.012,33.3
62,5582.00,5582.00,0.00,8.154,5864,0.003,6.720,0.006,1.413,0.012,33.8
63,5473.00,5473.00,0.00,8.289,5750,0.003,6.825,0.006,1.443,0.012,33.8
64,5373.00,5373.00,0.00,8.426,5645,0.003,6.936,0.006,1.469,0.013,33.6
65,5471.00,5471.00,0.00,8.270,5748,0.003,6.806,0.006,1.445,0.011,33.4
66,5432.00,5432.00,0.00,8.363,5707,0.003,6.887,0.006,1.456,0.012,33.5
67,5441.00,5437.00,4.00,8.284,5712,0.003,6.815,0.006,1.449,0.012,33.3
68,5538.00,5526.00,12.00,8.209,5806,0.003,6.760,0.006,1.428,0.013,33.5
69,5452.00,5430.00,22.00,8.304,5705,0.003,6.831,0.006,1.452,0.012,33.7
70,5470.00,5460.00,10.00,8.244,5736,0.003,6.778,0.006,1.446,0.012,32.8
71,5397.00,5397.00,0.00,8.405,5670,0.003,6.923,0.006,1.461,0.012,33.4
72,5343.00,5343.00,0.00,8.486,5613,0.003,6.986,0.006,1.478,0.013,33.7
73,5448.00,5448.00,0.00,8.272,5723,0.003,6.802,0.006,1.450,0.012,32.9
74,4301.00,4301.00,0.00,8.248,4519,0.003,6.793,0.006,1.434,0.012,33.1
