Second,Ops/sec,Hits/sec,Misses/sec,Latency,KB/sec,Request_Creation_Time,Request_Buffer_Time,MW_Writes_To_Memcached_Time,Memcached_Process_Time,MW_Writes_To_Memtier_Time,Queue_Size
4,3680.00,3680.00,0.00,4.226,1103,0.016,0.997,0.040,3.104,0.069,5.6
5,15017.00,15017.00,0.00,4.761,4500,0.004,0.901,0.009,3.837,0.010,4.4
6,16596.00,16596.00,0.00,5.127,4972,0.003,1.435,0.008,3.671,0.009,8.0
7,16603.00,16603.00,0.00,5.243,4975,0.003,1.493,0.007,3.730,0.009,7.8
8,16818.00,16818.00,0.00,5.002,5039,0.003,1.367,0.007,3.615,0.009,8.0
9,16217.00,16217.00,0.00,5.289,4858,0.003,1.442,0.008,3.828,0.009,7.6
10,16016.00,16016.00,0.00,5.355,4797,0.003,1.488,0.007,3.848,0.009,7.5
11,16436.00,16436.00,0.00,5.232,4924,0.003,1.454,0.007,3.760,0.009,7.6
12,16864.00,16864.00,0.00,5.070,5052,0.003,1.406,0.008,3.644,0.010,7.7
13,15889.00,15889.00,0.00,5.441,4760,0.003,1.519,0.008,3.900,0.011,8.2
14,16328.00,16328.00,0.00,5.259,4892,0.003,1.469,0.008,3.771,0.010,7.8
15,16069.00,16069.00,0.00,5.359,4814,0.003,1.504,0.007,3.836,0.009,7.8
16,16153.00,16153.00,0.00,5.288,4840,0.003,1.494,0.007,3.775,0.009,8.5
17,16718.00,16718.00,0.00,5.223,5009,0.003,1.486,0.007,3.717,0.010,8.0
18,16035.00,16005.00,30.00,5.233,4795,0.003,1.414,0.009,3.796,0.011,7.8
19,16747.00,16720.00,27.00,5.133,5009,0.003,1.433,0.008,3.678,0.010,8.4
20,15646.00,15624.00,22.00,5.487,4680,0.003,1.567,0.009,3.898,0.011,8.6
21,16260.00,16243.00,17.00,5.268,4866,0.003,1.493,0.009,3.752,0.011,8.9
22,16878.00,16878.00,0.00,5.081,5056,0.003,1.428,0.009,3.631,0.010,8.2
23,16098.00,16098.00,0.00,5.332,4822,0.003,1.508,0.009,3.802,0.011,8.2
24,16766.00,16766.00,0.00,5.048,5023,0.003,1.381,0.008,3.645,0.011,8.3
25,16612.00,16612.00,0.00,5.199,4977,0.003,1.466,0.008,3.711,0.011,8.4
26,16285.00,16285.00,0.00,5.273,4879,0.003,1.475,0.008,3.776,0.010,8.6
27,17037.00,17037.00,0.00,5.087,5105,0.003,1.439,0.008,3.626,0.011,8.4
28,16412.00,16412.00,0.00,5.189,4917,0.003,1.430,0.008,3.737,0.011,7.8
29,16479.00,16479.00,0.00,5.197,4937,0.003,1.449,0.008,3.726,0.011,7.8
30,16322.00,16322.00,0.00,5.271,4890,0.003,1.505,0.009,3.743,0.011,8.3
31,16237.00,16237.00,0.00,5.366,4865,0.003,1.531,0.008,3.813,0.010,8.5
32,15918.00,15918.00,0.00,5.446,4768,0.003,1.552,0.009,3.872,0.010,8.7
33,16141.00,16141.00,0.00,5.296,4835,0.003,1.455,0.009,3.819,0.011,8.3
34,16336.00,16336.00,0.00,5.320,4894,0.003,1.547,0.008,3.752,0.010,8.3
35,15883.00,15883.00,0.00,5.506,4758,0.003,1.551,0.008,3.933,0.010,8.2
36,16316.00,16316.00,0.00,5.288,4888,0.003,1.484,0.008,3.783,0.011,8.1
37,16306.00,16306.00,0.00,5.237,4885,0.003,1.483,0.008,3.734,0.010,8.4
38,16324.00,16324.00,0.00,5.301,4890,0.003,1.515,0.007,3.767,0.010,8.0
39,16580.00,16580.00,0.00,5.215,4967,0.003,1.487,0.008,3.707,0.010,8.0
40,16637.00,16637.00,0.00,5.210,4984,0.003,1.451,0.007,3.740,0.010,8.6
41,16387.00,16387.00,0.00,5.279,4909,0.003,1.485,0.007,3.774,0.010,8.2
42,16745.00,16745.00,0.00,5.133,5017,0.003,1.426,0.008,3.687,0.010,8.1
43,16599.00,16599.00,0.00,5.174,4973,0.003,1.455,0.007,3.699,0.010,8.0
44,16599.00,16594.00,5.00,5.169,4972,0.003,1.448,0.008,3.700,0.010,7.6
45,16056.00,16032.00,24.00,5.379,4803,0.003,1.516,0.007,3.843,0.010,7.7
46,16159.00,16140.00,19.00,5.308,4835,0.003,1.477,0.008,3.809,0.012,7.8
47,16680.00,16666.00,14.00,5.184,4992,0.003,1.434,0.007,3.730,0.010,7.9
48,15307.00,15305.00,2.00,5.627,4585,0.003,1.562,0.007,4.045,0.010,8.8
49,16398.00,16398.00,0.00,5.242,4913,0.003,1.447,0.007,3.776,0.010,7.9
50,15935.00,15927.00,8.00,5.435,4772,0.003,1.511,0.007,3.904,0.010,8.3
51,15627.00,15615.00,12.00,5.563,4678,0.003,1.579,0.007,3.964,0.010,8.3
52,16270.00,16262.00,8.00,5.307,4872,0.003,1.501,0.007,3.786,0.009,8.0
53,16625.00,16621.00,4.00,5.149,4979,0.003,1.422,0.008,3.708,0.009,7.6
54,15615.00,15615.00,0.00,5.521,4678,0.003,1.544,0.008,3.956,0.010,7.8
55,16420.00,16420.00,0.00,5.293,4919,0.003,1.492,0.007,3.781,0.009,7.9
56,16110.00,16110.00,0.00,5.346,4826,0.003,1.510,0.007,3.816,0.010,7.9
57,15282.00,15282.00,0.00,5.620,4578,0.003,1.545,0.007,4.055,0.010,8.9
58,16752.00,16752.00,0.00,5.116,5019,0.003,1.443,0.007,3.653,0.009,7.3
59,16346.00,16346.00,0.00,5.243,4897,0.003,1.490,0.007,3.733,0.010,8.2
60,15616.00,15616.00,0.00,5.598,4678,0.003,1.617,0.008,3.961,0.010,8.3
61,16283.00,16283.00,0.00,5.310,4878,0.003,1.493,0.007,3.797,0.010,8.3
62,15986.00,15986.00,0.00,5.374,4790,0.003,1.514,0.007,3.840,0.010,8.4
63,16025.00,16025.00,0.00,5.367,4801,0.003,1.495,0.008,3.852,0.010,8.0
64,15972.00,15972.00,0.00,5.437,4785,0.003,1.534,0.007,3.884,0.010,8.9
65,16142.00,16142.00,0.00,5.370,4836,0.003,1.499,0.007,3.852,0.009,8.2
66,15695.00,15695.00,0.00,5.527,4702,0.003,1.544,0.007,3.963,0.010,8.2
67,16538.00,16538.00,0.00,5.093,4955,0.003,1.417,0.007,3.656,0.010,7.9
68,16594.00,16594.00,0.00,5.136,4972,0.003,1.406,0.007,3.710,0.010,7.7
69,16280.00,16280.00,0.00,5.296,4878,0.003,1.495,0.008,3.781,0.010,8.1
70,15516.00,15516.00,0.00,5.574,4649,0.003,1.600,0.007,3.953,0.010,8.1
71,16039.00,16039.00,0.00,5.388,4806,0.003,1.520,0.007,3.848,0.010,8.2
72,16641.00,16641.00,0.00,5.199,4986,0.003,1.444,0.007,3.736,0.010,8.7
73,15989.00,15989.00,0.00,5.280,4790,0.003,1.434,0.008,3.825,0.010,8.1
74,13390.00,13390.00,0.00,4.329,4012,0.003,1.200,0.008,3.108,0.010,6.2
75,5369.00,5369.00,0.00,0.662,1608,0.003,0.157,0.012,0.481,0.010,0.3
