Second,Ops/sec,Hits/sec,Misses/sec,Latency,KB/sec,Request_Creation_Time,Request_Buffer_Time,MW_Writes_To_Memcached_Time,Memcached_Process_Time,MW_Writes_To_Memtier_Time,Queue_Size
4,1480.00,1480.00,0.00,9.461,444,0.021,8.115,0.043,1.242,0.040,50.6
5,7393.00,7393.00,0.00,11.895,2216,0.005,10.811,0.007,1.060,0.012,78.0
6,7988.00,7988.00,0.00,11.596,2394,0.004,10.592,0.006,0.981,0.012,81.4
7,8089.00,8089.00,0.00,11.297,2423,0.004,10.308,0.006,0.967,0.012,81.0
8,7727.00,7727.00,0.00,11.923,2315,0.003,10.887,0.006,1.014,0.012,80.9
9,8306.00,8306.00,0.00,11.091,2488,0.003,10.125,0.006,0.946,0.012,81.0
10,8073.00,8073.00,0.00,11.287,2419,0.003,10.297,0.006,0.970,0.012,80.4
11,7931.00,7931.00,0.00,11.662,2377,0.003,10.648,0.006,0.991,0.012,81.1
12,8401.00,8401.00,0.00,10.923,2516,0.003,9.971,0.006,0.931,0.012,80.4
13,7992.00,7992.00,0.00,11.323,2395,0.004,10.317,0.006,0.985,0.011,79.0
14,8173.00,8173.00,0.00,11.168,2449,0.003,10.188,0.006,0.960,0.012,79.9
15,8170.00,8170.00,0.00,11.212,2446,0.003,10.230,0.006,0.961,0.012,80.4
16,8122.00,8122.00,0.00,11.119,2433,0.003,10.133,0.006,0.964,0.013,79.9
17,7876.00,7876.00,0.00,11.638,2359,0.003,10.619,0.006,0.998,0.012,80.7
18,8304.00,8304.00,0.00,11.023,2488,0.003,10.057,0.006,0.945,0.012,80.3
19,8001.00,8001.00,0.00,11.537,2397,0.003,10.538,0.006,0.979,0.012,81.1
20,8180.00,8180.00,0.00,11.279,2450,0.003,10.298,0.006,0.960,0.012,80.9
21,8154.00,8154.00,0.00,11.258,2443,0.003,10.273,0.006,0.964,0.012,80.8
22,8219.00,8219.00,0.00,11.029,2462,0.003,10.054,0.006,0.954,0.012,80.1
23,7614.00,7614.00,0.00,11.973,2281,0.003,10.920,0.006,1.032,0.012,80.8
24,8420.00,8420.00,0.00,10.923,2523,0.003,9.971,0.006,0.932,0.011,80.6
25,8079.00,8079.00,0.00,11.348,2420,0.003,10.355,0.006,0.972,0.013,81.1
26,7794.00,7794.00,0.00,11.768,2335,0.003,10.740,0.006,1.008,0.012,81.0
27,8272.00,8272.00,0.00,11.092,2479,0.003,10.124,0.006,0.949,0.011,80.3
28,7785.00,7785.00,0.00,11.766,2332,0.003,10.741,0.006,1.005,0.012,80.7
29,7609.00,7609.00,0.00,12.010,2280,0.003,10.957,0.006,1.033,0.012,80.5
30,8231.00,8231.00,0.00,11.225,2466,0.003,10.246,0.006,0.960,0.011,80.7
31,8152.00,8152.00,0.00,11.195,2443,0.003,10.218,0.006,0.957,0.012,80.9
32,7949.00,7949.00,0.00,11.556,2382,0.003,10.541,0.006,0.995,0.011,80.8
33,7960.00,7960.00,0.00,11.562,2384,0.003,10.554,0.007,0.985,0.013,80.8
34,7847.00,7811.00,36.00,11.588,2340,0.003,10.571,0.008,0.990,0.016,80.6
35,8311.00,8251.00,60.00,11.113,2472,0.003,10.147,0.006,0.945,0.012,81.3
36,7770.00,7770.00,0.00,11.826,2327,0.003,10.795,0.007,1.009,0.012,81.6
37,7883.00,7883.00,0.00,11.679,2362,0.003,10.663,0.006,0.993,0.014,80.8
38,7774.00,7774.00,0.00,11.678,2328,0.003,10.652,0.006,1.005,0.012,80.1
39,8255.00,8255.00,0.00,11.083,2472,0.003,10.114,0.006,0.948,0.012,81.1
40,8024.00,8024.00,0.00,11.478,2404,0.003,10.473,0.007,0.985,0.012,81.1
41,8258.00,8258.00,0.00,11.094,2474,0.003,10.124,0.006,0.949,0.012,80.2
42,8415.00,8415.00,0.00,10.914,2521,0.003,9.961,0.006,0.932,0.012,80.8
43,7969.00,7969.00,0.00,11.506,2387,0.003,10.503,0.006,0.983,0.012,80.7
44,7999.00,7999.00,0.00,11.451,2397,0.003,10.451,0.006,0.980,0.012,81.0
45,8048.00,8048.00,0.00,11.452,2411,0.003,10.452,0.006,0.980,0.012,81.2
46,8276.00,8276.00,0.00,11.009,2479,0.003,10.042,0.006,0.948,0.011,80.5
47,7855.00,7855.00,0.00,11.659,2353,0.003,10.643,0.006,0.995,0.012,80.8
48,7697.00,7697.00,0.00,11.844,2306,0.003,10.805,0.006,1.019,0.012,80.4
49,8250.00,8250.00,0.00,11.168,2472,0.003,10.190,0.006,0.958,0.012,81.1
50,8016.00,8016.00,0.00,11.185,2402,0.003,10.185,0.006,0.980,0.012,79.6
51,7962.00,7962.00,0.00,11.672,2386,0.003,10.666,0.006,0.986,0.012,81.3
52,8244.00,8244.00,0.00,11.008,2469,0.003,10.040,0.006,0.947,0.013,79.8
53,7977.00,7977.00,0.00,11.447,2390,0.003,10.443,0.006,0.984,0.012,79.9
54,8015.00,8015.00,0.00,11.494,2402,0.003,10.493,0.006,0.980,0.012,81.0
55,8104.00,8104.00,0.00,11.287,2428,0.003,10.300,0.006,0.967,0.012,80.6
56,8033.00,8033.00,0.00,11.472,2406,0.003,10.469,0.006,0.983,0.012,81.0
57,7740.00,7740.00,0.00,11.906,2318,0.003,10.871,0.006,1.015,0.012,81.4
58,8053.00,8053.00,0.00,11.414,2412,0.003,10.419,0.006,0.974,0.012,80.5
59,8137.00,8137.00,0.00,11.256,2438,0.003,10.270,0.006,0.967,0.012,81.0
60,7779.00,7779.00,0.00,11.753,2331,0.003,10.728,0.006,1.004,0.012,80.5
61,8362.00,8362.00,0.00,11.045,2505,0.003,10.080,0.006,0.945,0.012,80.8
62,8301.00,8301.00,0.00,11.032,2487,0.003,10.067,0.006,0.945,0.012,80.6
63,7745.00,7745.00,0.00,11.804,2320,0.003,10.771,0.006,1.013,0.012,80.1
64,8265.00,8265.00,0.00,11.102,2476,0.003,10.138,0.006,0.945,0.012,81.2
65,8228.00,8228.00,0.00,11.146,2465,0.003,10.164,0.006,0.961,0.012,80.8
66,8121.00,8121.00,0.00,11.352,2433,0.002,10.364,0.006,0.968,0.012,80.7
67,8418.00,8418.00,0.00,10.879,2521,0.003,9.926,0.006,0.932,0.012,81.1
68,7778.00,7778.00,0.00,11.769,2330,0.003,10.745,0.006,1.002,0.013,80.7
69,8097.00,8097.00,0.00,11.380,2426,0.003,10.384,0.006,0.976,0.012,80.4
70,7885.00,7885.00,0.00,11.613,2363,0.003,10.601,0.006,0.992,0.012,81.2
71,8221.00,8221.00,0.00,11.131,2463,0.003,10.152,0.005,0.958,0.013,80.7
72,8055.00,8055.00,0.00,11.450,2413,0.003,10.461,0.006,0.969,0.012,80.9
73,8006.00,8006.00,0.00,11.508,2399,0.003,10.502,0.006,0.984,0.013,80.3
74,6055.00,6055.00,0.00,11.114,1814,0.003,10.100,0.006,0.993,0.012,76.0
75,1064.00,1064.00,0.00,0.799,319,0.005,0.069,0.023,0.687,0.015,0.0
