Second,Ops/sec,Hits/sec,Misses/sec,Latency,KB/sec,Request_Creation_Time,Request_Buffer_Time,MW_Writes_To_Memcached_Time,Memcached_Process_Time,MW_Writes_To_Memtier_Time,Queue_Size
4,2615.00,2615.00,0.00,2.174,291,0.019,0.289,0.051,1.769,0.046,1.1
5,9102.00,9102.00,0.00,2.026,1012,0.004,0.107,0.012,1.892,0.011,0.8
6,9795.00,9795.00,0.00,1.971,1088,0.004,0.092,0.010,1.855,0.010,0.6
7,9681.00,9681.00,0.00,1.977,1075,0.004,0.103,0.010,1.850,0.010,0.7
8,9925.00,9925.00,0.00,1.911,1103,0.004,0.122,0.011,1.764,0.010,0.7
9,10128.00,10128.00,0.00,1.864,1126,0.003,0.096,0.010,1.744,0.010,0.7
10,9369.00,9360.00,9.00,2.020,1040,0.003,0.136,0.011,1.859,0.011,0.8
11,9884.00,9869.00,15.00,1.853,1096,0.003,0.087,0.011,1.743,0.010,0.7
12,9758.00,9758.00,0.00,1.877,1084,0.005,0.080,0.012,1.771,0.010,0.6
13,10138.00,10138.00,0.00,1.876,1126,0.003,0.107,0.010,1.746,0.011,0.7
14,10348.00,10348.00,0.00,1.809,1150,0.003,0.086,0.011,1.698,0.010,0.6
15,10315.00,10315.00,0.00,1.850,1146,0.003,0.102,0.010,1.726,0.010,0.7
16,9755.00,9755.00,0.00,1.975,1084,0.003,0.095,0.010,1.857,0.010,0.7
17,10120.00,10120.00,0.00,1.907,1124,0.003,0.110,0.010,1.775,0.010,0.8
18,10165.00,10165.00,0.00,1.842,1130,0.003,0.103,0.010,1.716,0.010,0.8
19,9965.00,9965.00,0.00,1.901,1107,0.003,0.101,0.010,1.777,0.010,0.6
20,9894.00,9894.00,0.00,1.929,1099,0.003,0.133,0.010,1.774,0.010,0.8
21,9700.00,9697.00,3.00,1.970,1078,0.003,0.114,0.010,1.833,0.010,0.8
22,9478.00,9463.00,15.00,2.013,1052,0.003,0.102,0.010,1.889,0.010,0.7
23,10102.00,10096.00,6.00,1.880,1121,0.003,0.107,0.010,1.751,0.010,0.8
24,10020.00,10020.00,0.00,1.903,1113,0.003,0.125,0.010,1.755,0.009,0.8
25,9839.00,9839.00,0.00,1.955,1093,0.003,0.092,0.010,1.840,0.010,0.8
26,9897.00,9897.00,0.00,1.944,1100,0.003,0.095,0.010,1.825,0.010,0.7
27,9797.00,9797.00,0.00,1.965,1089,0.003,0.110,0.010,1.832,0.010,0.8
28,9801.00,9801.00,0.00,1.959,1089,0.003,0.085,0.010,1.850,0.010,0.7
29,10039.00,10039.00,0.00,1.925,1116,0.003,0.084,0.010,1.820,0.010,0.7
30,10134.00,10134.00,0.00,1.887,1126,0.003,0.097,0.010,1.769,0.009,0.8
31,9549.00,9549.00,0.00,1.997,1061,0.003,0.104,0.010,1.870,0.010,0.7
32,10112.00,10112.00,0.00,1.886,1124,0.003,0.100,0.010,1.764,0.010,0.6
33,9927.00,9927.00,0.00,1.899,1103,0.003,0.155,0.011,1.720,0.010,0.9
34,9761.00,9761.00,0.00,1.964,1085,0.003,0.094,0.010,1.849,0.009,0.7
35,9755.00,9755.00,0.00,1.961,1084,0.003,0.134,0.010,1.805,0.010,0.9
36,10010.00,10010.00,0.00,1.906,1112,0.003,0.118,0.010,1.766,0.010,0.7
37,9890.00,9890.00,0.00,1.925,1099,0.003,0.109,0.010,1.794,0.010,0.8
38,9721.00,9721.00,0.00,1.985,1080,0.003,0.112,0.010,1.850,0.010,0.9
39,10081.00,10081.00,0.00,1.869,1120,0.003,0.092,0.010,1.754,0.010,0.7
40,9913.00,9913.00,0.00,1.946,1102,0.003,0.083,0.010,1.840,0.010,0.7
41,10200.00,10200.00,0.00,1.873,1133,0.003,0.083,0.010,1.768,0.009,0.6
42,10189.00,10189.00,0.00,1.864,1132,0.003,0.103,0.011,1.738,0.010,0.7
43,10358.00,10358.00,0.00,1.868,1151,0.003,0.094,0.011,1.750,0.009,0.8
44,9394.00,9394.00,0.00,2.072,1044,0.003,0.145,0.010,1.905,0.010,0.8
45,9960.00,9960.00,0.00,1.921,1107,0.003,0.112,0.009,1.787,0.009,0.8
46,9829.00,9829.00,0.00,1.935,1092,0.003,0.123,0.011,1.788,0.010,0.7
47,9742.00,9742.00,0.00,1.981,1082,0.003,0.114,0.010,1.845,0.009,0.7
48,10545.00,10545.00,0.00,1.796,1172,0.003,0.091,0.010,1.683,0.010,0.8
49,10304.00,10304.00,0.00,1.850,1145,0.003,0.095,0.010,1.732,0.010,0.8
50,10160.00,10160.00,0.00,1.896,1129,0.003,0.091,0.010,1.783,0.010,0.8
51,10138.00,10135.00,3.00,1.897,1126,0.003,0.110,0.010,1.765,0.010,0.8
52,10488.00,10483.00,5.00,1.808,1165,0.003,0.132,0.010,1.654,0.010,0.9
53,9312.00,9305.00,7.00,2.056,1034,0.004,0.112,0.010,1.920,0.011,0.7
54,9793.00,9786.00,7.00,1.956,1087,0.003,0.151,0.010,1.783,0.010,1.0
55,10099.00,10095.00,4.00,1.906,1122,0.003,0.110,0.010,1.773,0.010,0.8
56,9812.00,9804.00,8.00,1.975,1089,0.003,0.099,0.010,1.852,0.010,0.7
57,10353.00,10341.00,12.00,1.856,1149,0.003,0.091,0.010,1.742,0.010,0.7
58,10178.00,10167.00,11.00,1.871,1130,0.003,0.101,0.010,1.748,0.010,0.8
59,10086.00,10078.00,8.00,1.897,1120,0.003,0.121,0.010,1.752,0.010,0.7
60,10448.00,10443.00,5.00,1.818,1160,0.003,0.095,0.010,1.700,0.010,0.7
61,9952.00,9952.00,0.00,1.934,1106,0.003,0.092,0.010,1.819,0.010,0.8
62,9677.00,9675.00,2.00,2.008,1075,0.003,0.103,0.010,1.882,0.010,0.7
63,9837.00,9837.00,0.00,1.924,1093,0.003,0.138,0.010,1.763,0.010,0.9
64,10096.00,10096.00,0.00,1.881,1122,0.003,0.108,0.010,1.751,0.010,0.7
65,9800.00,9800.00,0.00,1.955,1089,0.003,0.135,0.010,1.797,0.010,0.8
66,10049.00,10049.00,0.00,1.872,1116,0.003,0.093,0.011,1.755,0.010,0.7
67,10266.00,10266.00,0.00,1.879,1140,0.003,0.099,0.011,1.758,0.009,0.7
68,9867.00,9867.00,0.00,1.948,1096,0.003,0.114,0.010,1.811,0.010,0.8
69,10108.00,10108.00,0.00,1.896,1123,0.003,0.104,0.010,1.770,0.010,0.8
70,10139.00,10139.00,0.00,1.867,1127,0.003,0.082,0.011,1.762,0.010,0.7
71,9689.00,9689.00,0.00,1.962,1077,0.003,0.096,0.010,1.844,0.010,0.8
72,9926.00,9926.00,0.00,1.900,1103,0.003,0.101,0.010,1.777,0.010,0.6
73,10318.00,10318.00,0.00,1.831,1146,0.003,0.095,0.010,1.713,0.010,0.8
74,6622.00,6622.00,0.00,1.865,736,0.003,0.098,0.010,1.745,0.010,0.7
