Second,Ops/sec,Hits/sec,Misses/sec,Latency,KB/sec,Request_Creation_Time,Request_Buffer_Time,MW_Writes_To_Memcached_Time,Memcached_Process_Time,MW_Writes_To_Memtier_Time,Queue_Size
4,1465.00,1465.00,0.00,2.052,805,0.021,1.039,0.019,0.928,0.045,7.1
5,7846.00,7846.00,0.00,2.294,4312,0.005,1.281,0.009,0.986,0.012,7.7
6,8377.00,8377.00,0.00,2.341,4604,0.004,1.386,0.006,0.932,0.012,8.8
7,8710.00,8710.00,0.00,2.292,4787,0.004,1.377,0.006,0.893,0.012,9.3
8,8185.00,8185.00,0.00,2.471,4498,0.004,1.493,0.006,0.956,0.012,9.5
9,8390.00,8390.00,0.00,2.351,4611,0.004,1.406,0.006,0.923,0.012,8.9
10,7934.00,7934.00,0.00,2.539,4361,0.003,1.533,0.006,0.984,0.013,9.4
11,8524.00,8521.00,3.00,2.358,4683,0.003,1.420,0.007,0.915,0.013,9.4
12,8370.00,8349.00,21.00,2.293,4588,0.004,1.346,0.007,0.924,0.013,9.0
13,7638.00,7638.00,0.00,2.442,4197,0.003,1.395,0.006,1.026,0.012,8.1
14,8737.00,8737.00,0.00,2.249,4802,0.003,1.340,0.006,0.888,0.012,9.0
15,8696.00,8696.00,0.00,2.316,4779,0.003,1.395,0.006,0.899,0.013,9.8
16,8524.00,8524.00,0.00,2.251,4685,0.003,1.329,0.006,0.901,0.012,9.1
17,8773.00,8773.00,0.00,2.206,4821,0.003,1.309,0.006,0.877,0.012,9.1
18,8959.00,8959.00,0.00,2.223,4924,0.003,1.328,0.006,0.874,0.012,9.3
19,8527.00,8527.00,0.00,2.317,4686,0.003,1.381,0.006,0.916,0.011,8.8
20,8241.00,8241.00,0.00,2.448,4529,0.003,1.480,0.006,0.947,0.012,9.7
21,8925.00,8925.00,0.00,2.249,4905,0.003,1.352,0.006,0.877,0.012,9.3
22,8078.00,8078.00,0.00,2.459,4439,0.003,1.475,0.007,0.962,0.012,8.9
23,8987.00,8987.00,0.00,2.189,4939,0.003,1.301,0.006,0.868,0.011,8.7
24,8204.00,8202.00,2.00,2.458,4508,0.003,1.480,0.006,0.957,0.012,9.3
25,8060.00,8046.00,14.00,2.467,4422,0.003,1.481,0.006,0.964,0.012,9.6
26,8063.00,8055.00,8.00,2.512,4427,0.003,1.517,0.006,0.973,0.012,9.4
27,8859.00,8859.00,0.00,2.203,4869,0.003,1.309,0.006,0.873,0.012,8.7
28,8416.00,8416.00,0.00,2.391,4625,0.003,1.438,0.006,0.932,0.012,9.2
29,8356.00,8356.00,0.00,2.363,4592,0.003,1.406,0.006,0.936,0.012,8.9
30,8152.00,8152.00,0.00,2.458,4480,0.003,1.480,0.006,0.957,0.012,9.1
31,8481.00,8481.00,0.00,2.374,4661,0.003,1.427,0.006,0.927,0.012,9.2
32,8501.00,8501.00,0.00,2.331,4672,0.003,1.395,0.006,0.916,0.012,8.9
33,8291.00,8291.00,0.00,2.419,4557,0.003,1.454,0.006,0.945,0.012,9.3
34,7932.00,7932.00,0.00,2.531,4360,0.003,1.523,0.006,0.986,0.012,9.1
35,8159.00,8159.00,0.00,2.426,4484,0.003,1.455,0.006,0.950,0.012,9.0
36,8412.00,8412.00,0.00,2.357,4623,0.003,1.411,0.006,0.924,0.013,9.2
37,8229.00,8229.00,0.00,2.442,4523,0.004,1.475,0.006,0.947,0.012,9.2
38,8207.00,8207.00,0.00,2.434,4511,0.003,1.466,0.006,0.946,0.012,9.4
39,8273.00,8273.00,0.00,2.417,4547,0.003,1.448,0.006,0.949,0.012,9.2
40,7785.00,7785.00,0.00,2.541,4278,0.003,1.522,0.006,0.999,0.012,9.0
41,8103.00,8103.00,0.00,2.482,4453,0.003,1.506,0.006,0.956,0.012,9.6
42,8219.00,8219.00,0.00,2.464,4517,0.003,1.493,0.006,0.951,0.012,9.4
43,8166.00,8166.00,0.00,2.466,4488,0.003,1.487,0.006,0.959,0.012,9.3
44,8345.00,8345.00,0.00,2.371,4586,0.003,1.421,0.006,0.930,0.012,9.2
45,8228.00,8228.00,0.00,2.454,4522,0.003,1.477,0.006,0.957,0.012,9.1
46,8358.00,8358.00,0.00,2.393,4594,0.003,1.437,0.006,0.936,0.012,9.2
47,8435.00,8435.00,0.00,2.344,4636,0.003,1.399,0.006,0.925,0.012,9.0
48,8458.00,8458.00,0.00,2.399,4648,0.003,1.455,0.006,0.924,0.012,9.4
49,7918.00,7918.00,0.00,2.558,4352,0.003,1.549,0.007,0.988,0.012,9.5
50,8290.00,8290.00,0.00,2.407,4556,0.003,1.444,0.006,0.942,0.012,9.1
51,8179.00,8179.00,0.00,2.462,4495,0.003,1.485,0.006,0.957,0.012,9.2
52,8405.00,8405.00,0.00,2.345,4619,0.003,1.410,0.006,0.914,0.011,9.2
53,8180.00,8180.00,0.00,2.461,4496,0.003,1.483,0.006,0.957,0.012,9.2
54,8384.00,8384.00,0.00,2.401,4608,0.003,1.445,0.007,0.934,0.012,9.3
55,8809.00,8809.00,0.00,2.271,4841,0.003,1.359,0.006,0.892,0.011,9.0
56,8533.00,8533.00,0.00,2.250,4690,0.003,1.324,0.006,0.905,0.012,9.0
57,8608.00,8608.00,0.00,2.320,4731,0.003,1.389,0.006,0.910,0.012,9.2
58,8468.00,8468.00,0.00,2.330,4654,0.003,1.394,0.006,0.915,0.012,9.3
59,8289.00,8289.00,0.00,2.399,4556,0.003,1.438,0.006,0.941,0.012,9.4
60,8347.00,8346.00,1.00,2.393,4587,0.003,1.441,0.006,0.931,0.012,9.1
61,8811.00,8808.00,3.00,2.254,4841,0.003,1.345,0.006,0.890,0.011,8.8
62,8814.00,8804.00,10.00,2.270,4839,0.003,1.365,0.006,0.886,0.011,8.6
63,8626.00,8621.00,5.00,2.313,4738,0.003,1.386,0.006,0.908,0.011,8.7
64,8452.00,8449.00,3.00,2.350,4644,0.003,1.408,0.006,0.921,0.012,9.1
65,8218.00,8212.00,6.00,2.431,4513,0.003,1.456,0.006,0.955,0.011,9.1
66,8755.00,8748.00,7.00,2.266,4808,0.003,1.353,0.006,0.894,0.011,9.2
67,8436.00,8424.00,12.00,2.358,4630,0.003,1.418,0.006,0.919,0.012,9.4
68,8320.00,8311.00,9.00,2.401,4568,0.003,1.444,0.006,0.938,0.011,9.3
69,8484.00,8473.00,11.00,2.363,4657,0.003,1.418,0.006,0.926,0.011,9.3
70,8302.00,8300.00,2.00,2.427,4561,0.003,1.464,0.006,0.943,0.011,9.5
71,8299.00,8296.00,3.00,2.399,4559,0.003,1.436,0.006,0.944,0.011,9.1
72,8438.00,8438.00,0.00,2.379,4637,0.003,1.430,0.006,0.928,0.013,9.2
73,8452.00,8452.00,0.00,2.307,4645,0.003,1.370,0.006,0.916,0.012,8.6
74,6133.00,6133.00,0.00,2.505,3371,0.004,1.498,0.006,0.985,0.012,8.7
