Second,Ops/sec,Hits/sec,Misses/sec,Latency,KB/sec,Request_Creation_Time,Request_Buffer_Time,MW_Writes_To_Memcached_Time,Memcached_Process_Time,MW_Writes_To_Memtier_Time,Queue_Size
4,1573.00,1573.00,0.00,5.107,1653,0.016,4.020,0.029,0.993,0.049,28.3
5,5720.00,5720.00,0.00,7.643,6010,0.004,6.238,0.008,1.381,0.012,31.6
6,5576.00,5576.00,0.00,8.085,5858,0.004,6.654,0.006,1.409,0.012,33.1
7,5515.00,5515.00,0.00,8.151,5794,0.004,6.703,0.006,1.425,0.012,33.0
8,5573.00,5573.00,0.00,8.090,5855,0.004,6.654,0.006,1.413,0.012,33.3
9,5642.00,5642.00,0.00,8.017,5928,0.004,6.597,0.006,1.398,0.012,33.3
10,5545.00,5545.00,0.00,8.185,5825,0.004,6.735,0.006,1.429,0.012,33.3
11,5639.00,5639.00,0.00,8.023,5924,0.003,6.608,0.006,1.394,0.012,33.4
12,5601.00,5601.00,0.00,8.074,5884,0.003,6.646,0.006,1.407,0.012,33.7
13,5636.00,5636.00,0.00,8.026,5921,0.003,6.604,0.006,1.400,0.012,33.4
14,5717.00,5717.00,0.00,7.924,6006,0.003,6.522,0.006,1.380,0.012,33.5
15,5707.00,5707.00,0.00,7.913,5996,0.003,6.511,0.006,1.380,0.012,33.6
16,4951.00,4951.00,0.00,8.959,5201,0.003,7.343,0.006,1.595,0.012,33.3
17,5933.00,5933.00,0.00,7.603,6233,0.003,6.253,0.006,1.330,0.012,33.3
18,5701.00,5701.00,0.00,7.971,5989,0.003,6.560,0.006,1.390,0.013,33.7
19,5578.00,5578.00,0.00,8.054,5860,0.003,6.624,0.006,1.408,0.013,33.5
20,5652.00,5652.00,0.00,8.027,5938,0.003,6.609,0.006,1.397,0.012,33.4
21,5613.00,5613.00,0.00,8.075,5897,0.003,6.648,0.006,1.405,0.012,33.4
22,5635.00,5635.00,0.00,8.030,5920,0.003,6.608,0.006,1.401,0.012,33.3
23,5666.00,5666.00,0.00,8.031,5953,0.003,6.616,0.006,1.394,0.012,33.8
24,5506.00,5506.00,0.00,8.247,5785,0.003,6.788,0.006,1.437,0.013,33.4
25,5606.00,5602.00,4.00,8.057,5885,0.003,6.634,0.006,1.402,0.013,33.5
26,5805.00,5761.00,44.00,7.724,6052,0.003,6.347,0.007,1.353,0.014,32.8
27,5598.00,5598.00,0.00,8.039,5881,0.003,6.611,0.007,1.405,0.013,33.2
28,5506.00,5506.00,0.00,8.196,5784,0.003,6.743,0.007,1.430,0.013,33.8
29,5538.00,5538.00,0.00,8.127,5817,0.003,6.679,0.007,1.424,0.014,32.8
30,5513.00,5513.00,0.00,8.169,5792,0.003,6.722,0.007,1.425,0.013,33.2
31,5598.00,5598.00,0.00,8.056,5881,0.003,6.628,0.007,1.405,0.013,33.2
32,5628.00,5628.00,0.00,8.038,5913,0.003,6.613,0.006,1.404,0.012,33.1
33,5652.00,5652.00,0.00,8.019,5938,0.003,6.602,0.006,1.396,0.012,33.3
34,5645.00,5645.00,0.00,8.022,5930,0.003,6.604,0.006,1.398,0.012,33.1
35,5547.00,5547.00,0.00,8.208,5827,0.003,6.763,0.006,1.424,0.012,33.5
36,5641.00,5641.00,0.00,8.018,5927,0.003,6.599,0.006,1.398,0.012,33.2
37,5646.00,5646.00,0.00,7.997,5932,0.003,6.577,0.006,1.399,0.012,32.9
38,5642.00,5642.00,0.00,8.000,5927,0.003,6.580,0.006,1.400,0.012,33.1
39,5691.00,5691.00,0.00,7.924,5979,0.003,6.517,0.006,1.387,0.012,33.1
40,5662.00,5662.00,0.00,7.979,5949,0.003,6.563,0.006,1.395,0.012,33.2
41,5544.00,5544.00,0.00,8.035,5824,0.003,6.613,0.006,1.402,0.012,33.1
42,5787.00,5787.00,0.00,7.978,6079,0.003,6.571,0.006,1.386,0.012,33.8
43,5713.00,5713.00,0.00,7.874,6002,0.003,6.473,0.006,1.381,0.012,32.7
44,5585.00,5585.00,0.00,8.096,5868,0.003,6.659,0.006,1.416,0.012,33.0
45,5547.00,5547.00,0.00,8.144,5827,0.003,6.704,0.006,1.418,0.013,33.8
46,5710.00,5710.00,0.00,7.904,5999,0.003,6.500,0.006,1.384,0.012,33.0
47,5684.00,5684.00,0.00,7.933,5971,0.003,6.525,0.006,1.388,0.012,33.2
48,5597.00,5597.00,0.00,8.108,5880,0.003,6.676,0.006,1.412,0.012,33.5
49,5614.00,5614.00,0.00,8.068,5898,0.003,6.641,0.006,1.406,0.012,33.7
50,5684.00,5684.00,0.00,7.919,5971,0.003,6.509,0.006,1.389,0.012,33.2
51,5549.00,5549.00,0.00,8.159,5830,0.003,6.714,0.006,1.424,0.013,33.4
52,5669.00,5669.00,0.00,7.940,5956,0.003,6.527,0.006,1.393,0.011,32.8
53,5638.00,5638.00,0.00,8.011,5923,0.003,6.591,0.006,1.400,0.012,33.0
54,5626.00,5626.00,0.00,8.084,5911,0.003,6.660,0.006,1.404,0.012,33.5
55,5565.00,5565.00,0.00,8.139,5846,0.003,6.698,0.006,1.420,0.012,33.7
56,5595.00,5595.00,0.00,8.057,5878,0.003,6.631,0.006,1.405,0.012,33.3
57,5645.00,5645.00,0.00,7.983,5930,0.003,6.564,0.006,1.398,0.012,32.8
58,5559.00,5559.00,0.00,8.058,5840,0.003,6.617,0.006,1.418,0.014,33.1
59,5641.00,5641.00,0.00,8.080,5926,0.003,6.659,0.006,1.400,0.012,33.8
60,5615.00,5615.00,0.00,8.090,5899,0.003,6.662,0.006,1.408,0.012,33.5
61,5638.00,5638.00,0.00,7.940,5923,0.003,6.526,0.006,1.393,0.012,32.8
62,5609.00,5609.00,0.00,8.099,5893,0.003,6.669,0.006,1.409,0.012,33.7
63,5603.00,5603.00,0.00,8.068,5887,0.003,6.639,0.006,1.409,0.012,33.2
64,5652.00,5652.00,0.00,8.025,5938,0.003,6.605,0.006,1.400,0.012,33.2
65,5638.00,5636.00,2.00,7.987,5921,0.003,6.569,0.006,1.398,0.012,33.2
66,5572.00,5565.00,7.00,8.089,5847,0.003,6.654,0.006,1.415,0.012,33.1
67,5686.00,5659.00,27.00,7.971,5945,0.003,6.553,0.006,1.398,0.012,32.9
68,5723.00,5711.00,12.00,7.840,6000,0.003,6.443,0.005,1.377,0.012,33.1
69,5725.00,5725.00,0.00,7.852,6014,0.003,6.454,0.006,1.378,0.012,32.9
70,5679.00,5679.00,0.00,7.987,5966,0.003,6.565,0.006,1.402,0.012,33.3
71,5637.00,5637.00,0.00,7.940,5922,0.003,6.528,0.006,1.392,0.012,33.2
72,5647.00,5647.00,0.00,8.000,5933,0.003,6.585,0.006,1.395,0.012,33.6
73,5656.00,5656.00,0.00,8.005,5942,0.003,6.589,0.006,1.397,0.012,33.5
74,4471.00,4471.00,0.00,7.815,4697,0.003,6.417,0.006,1.378,0.012,32.9
