Second,Ops/sec,Hits/sec,Misses/sec,Latency,KB/sec,Request_Creation_Time,Request_Buffer_Time,MW_Writes_To_Memcached_Time,Memcached_Process_Time,MW_Writes_To_Memtier_Time,Queue_Size
4,1417.00,1417.00,0.00,4.170,158,0.023,3.161,0.031,0.923,0.031,26.0
5,7249.00,7249.00,0.00,5.901,806,0.005,4.802,0.007,1.072,0.014,32.9
6,7925.00,7925.00,0.00,5.556,881,0.004,4.538,0.006,0.995,0.013,33.2
7,8021.00,8021.00,0.00,5.470,891,0.004,4.476,0.007,0.972,0.013,32.9
8,8044.00,8044.00,0.00,5.507,894,0.004,4.507,0.006,0.977,0.013,33.2
9,7898.00,7898.00,0.00,5.532,878,0.004,4.523,0.006,0.986,0.013,33.2
10,8094.00,8094.00,0.00,5.441,899,0.003,4.447,0.006,0.972,0.012,33.1
11,8069.00,8069.00,0.00,5.487,896,0.003,4.492,0.007,0.973,0.012,33.5
12,8035.00,8035.00,0.00,5.466,893,0.003,4.469,0.006,0.974,0.014,33.3
13,7922.00,7922.00,0.00,5.452,880,0.003,4.439,0.006,0.990,0.013,32.4
14,7994.00,7994.00,0.00,5.495,888,0.003,4.495,0.006,0.978,0.013,33.3
15,7943.00,7943.00,0.00,5.516,883,0.003,4.511,0.006,0.984,0.013,33.2
16,7953.00,7953.00,0.00,5.505,884,0.003,4.497,0.006,0.986,0.013,32.9
17,8158.00,8158.00,0.00,5.432,907,0.003,4.444,0.006,0.966,0.013,33.4
18,7806.00,7806.00,0.00,5.609,868,0.003,4.588,0.006,0.998,0.014,33.4
19,8269.00,8257.00,12.00,5.238,917,0.003,4.263,0.006,0.952,0.014,32.6
20,7821.00,7785.00,36.00,5.599,865,0.003,4.583,0.007,0.992,0.014,33.6
21,8178.00,8178.00,0.00,5.356,908,0.003,4.371,0.007,0.961,0.014,33.3
22,7854.00,7854.00,0.00,5.664,872,0.003,4.646,0.007,0.994,0.014,33.9
23,7695.00,7695.00,0.00,5.698,855,0.003,4.664,0.007,1.010,0.014,33.7
24,7863.00,7863.00,0.00,5.634,874,0.003,4.611,0.007,1.000,0.013,33.6
25,8158.00,8158.00,0.00,5.371,906,0.003,4.397,0.007,0.951,0.013,33.6
26,8092.00,8092.00,0.00,5.461,899,0.003,4.469,0.007,0.969,0.013,33.5
27,7578.00,7578.00,0.00,5.799,842,0.003,4.747,0.007,1.029,0.013,33.5
28,7898.00,7898.00,0.00,5.630,878,0.003,4.617,0.007,0.990,0.013,33.8
29,8008.00,8008.00,0.00,5.530,890,0.003,4.526,0.007,0.982,0.013,33.5
30,7839.00,7839.00,0.00,5.614,871,0.003,4.598,0.006,0.994,0.013,33.6
31,7651.00,7651.00,0.00,5.775,849,0.003,4.727,0.007,1.026,0.013,33.7
32,7675.00,7675.00,0.00,5.731,853,0.003,4.685,0.006,1.023,0.013,33.1
33,8081.00,8081.00,0.00,5.430,898,0.003,4.439,0.006,0.969,0.013,33.0
34,7603.00,7603.00,0.00,5.838,845,0.003,4.785,0.006,1.031,0.013,33.6
35,7774.00,7774.00,0.00,5.681,864,0.003,4.649,0.006,1.009,0.013,33.5
36,7953.00,7953.00,0.00,5.528,883,0.003,4.525,0.006,0.981,0.013,33.4
37,7893.00,7893.00,0.00,5.534,877,0.003,4.523,0.006,0.989,0.013,33.2
38,7844.00,7844.00,0.00,5.596,872,0.003,4.571,0.006,1.002,0.014,33.2
39,7950.00,7950.00,0.00,5.546,884,0.003,4.538,0.006,0.987,0.012,33.2
40,7663.00,7663.00,0.00,5.784,851,0.003,4.740,0.006,1.023,0.012,33.9
41,7791.00,7791.00,0.00,5.706,866,0.003,4.675,0.006,1.010,0.013,33.7
42,7937.00,7937.00,0.00,5.541,881,0.003,4.531,0.006,0.990,0.012,33.6
43,7666.00,7666.00,0.00,5.704,852,0.003,4.662,0.006,1.021,0.012,32.9
44,8014.00,8014.00,0.00,5.516,891,0.003,4.516,0.006,0.979,0.013,33.0
45,8080.00,8080.00,0.00,5.429,898,0.003,4.441,0.006,0.967,0.013,33.3
46,7841.00,7841.00,0.00,5.656,872,0.003,4.629,0.006,1.004,0.014,33.4
47,7733.00,7733.00,0.00,5.709,860,0.003,4.672,0.006,1.016,0.013,33.1
48,7700.00,7692.00,8.00,5.693,855,0.003,4.656,0.006,1.016,0.012,33.2
49,7764.00,7733.00,31.00,5.673,859,0.003,4.645,0.006,1.006,0.013,33.2
50,8002.00,7993.00,9.00,5.531,888,0.003,4.522,0.006,0.987,0.012,33.2
51,7995.00,7995.00,0.00,5.485,888,0.003,4.484,0.006,0.980,0.012,33.0
52,7524.00,7524.00,0.00,5.923,836,0.003,4.855,0.007,1.045,0.013,33.7
53,7811.00,7811.00,0.00,5.575,868,0.003,4.554,0.006,1.000,0.013,33.0
54,8041.00,8041.00,0.00,5.403,893,0.003,4.410,0.006,0.972,0.013,32.7
55,7685.00,7685.00,0.00,5.747,854,0.003,4.699,0.006,1.027,0.013,33.3
56,7884.00,7884.00,0.00,5.621,876,0.003,4.606,0.006,0.994,0.012,33.3
57,7749.00,7749.00,0.00,5.732,861,0.003,4.694,0.006,1.016,0.012,33.5
58,7571.00,7571.00,0.00,5.837,841,0.003,4.781,0.007,1.033,0.013,33.5
59,8022.00,8022.00,0.00,5.436,891,0.003,4.440,0.006,0.975,0.012,33.2
60,7984.00,7984.00,0.00,5.525,887,0.004,4.516,0.006,0.987,0.013,33.3
61,7900.00,7900.00,0.00,5.593,878,0.003,4.579,0.006,0.993,0.013,33.3
62,7740.00,7740.00,0.00,5.686,860,0.003,4.651,0.006,1.013,0.013,33.5
63,8151.00,8151.00,0.00,5.477,906,0.003,4.490,0.006,0.966,0.012,33.8
64,7506.00,7506.00,0.00,5.840,834,0.003,4.778,0.006,1.041,0.012,33.0
65,8166.00,8166.00,0.00,5.327,907,0.003,4.345,0.006,0.961,0.013,32.6
66,8048.00,8048.00,0.00,5.508,895,0.003,4.510,0.006,0.976,0.012,33.6
67,8114.00,8114.00,0.00,5.418,902,0.003,4.429,0.008,0.966,0.013,33.4
68,7727.00,7727.00,0.00,5.746,859,0.003,4.708,0.006,1.016,0.013,33.5
69,7857.00,7857.00,0.00,5.525,873,0.003,4.505,0.006,0.999,0.013,33.0
70,7955.00,7955.00,0.00,5.608,884,0.003,4.600,0.006,0.987,0.012,33.7
71,7626.00,7626.00,0.00,5.774,847,0.003,4.723,0.006,1.030,0.013,33.5
72,7802.00,7802.00,0.00,5.690,867,0.003,4.664,0.006,1.004,0.012,33.6
73,7922.00,7922.00,0.00,5.594,881,0.003,4.581,0.006,0.992,0.013,33.2
74,6264.00,6264.00,0.00,5.569,696,0.003,4.539,0.006,1.009,0.012,32.4
