Second,Ops/sec,Hits/sec,Misses/sec,Latency,KB/sec,Request_Creation_Time,Request_Buffer_Time,MW_Writes_To_Memcached_Time,Memcached_Process_Time,MW_Writes_To_Memtier_Time,Queue_Size
4,1758.00,1758.00,0.00,5.677,1847,0.038,2.185,0.025,3.356,0.073,8.3
5,5794.00,5794.00,0.00,11.654,6087,0.004,6.136,0.007,5.496,0.011,22.7
6,5601.00,5601.00,0.00,16.534,5885,0.004,10.819,0.006,5.694,0.010,46.8
7,5656.00,5656.00,0.00,16.351,5942,0.004,10.694,0.006,5.636,0.011,46.6
8,5678.00,5678.00,0.00,16.334,5965,0.004,10.694,0.006,5.619,0.011,47.1
9,5614.00,5614.00,0.00,16.494,5898,0.003,10.790,0.006,5.684,0.010,47.6
10,5693.00,5693.00,0.00,16.242,5981,0.003,10.624,0.006,5.598,0.010,46.8
11,5669.00,5669.00,0.00,16.312,5956,0.003,10.667,0.006,5.625,0.011,46.2
12,5636.00,5636.00,0.00,16.441,5921,0.003,10.759,0.006,5.660,0.012,47.0
13,5774.00,5774.00,0.00,16.013,6066,0.003,10.469,0.006,5.523,0.012,46.4
14,5687.00,5687.00,0.00,16.284,5975,0.003,10.659,0.006,5.606,0.010,46.5
15,5671.00,5671.00,0.00,16.385,5958,0.003,10.739,0.006,5.627,0.010,47.3
16,5700.00,5700.00,0.00,16.235,5988,0.003,10.618,0.006,5.598,0.010,47.1
17,5650.00,5650.00,0.00,16.403,5936,0.003,10.740,0.006,5.643,0.011,46.6
18,5708.00,5708.00,0.00,16.241,5997,0.003,10.632,0.006,5.590,0.011,46.6
19,5788.00,5788.00,0.00,15.980,6080,0.002,10.450,0.006,5.512,0.010,47.3
20,5561.00,5561.00,0.00,16.664,5842,0.002,10.912,0.006,5.734,0.010,47.3
21,5631.00,5631.00,0.00,16.477,5916,0.002,10.785,0.006,5.674,0.010,46.4
22,5761.00,5761.00,0.00,16.013,6052,0.002,10.466,0.006,5.528,0.010,46.6
23,5570.00,5570.00,0.00,16.628,5852,0.002,10.884,0.006,5.725,0.010,47.0
24,5661.00,5661.00,0.00,16.450,5947,0.002,10.795,0.006,5.638,0.010,47.4
25,5700.00,5700.00,0.00,16.219,5988,0.002,10.604,0.006,5.597,0.010,46.3
26,5649.00,5649.00,0.00,16.360,5935,0.002,10.694,0.006,5.648,0.010,47.4
27,5659.00,5659.00,0.00,16.372,5945,0.002,10.715,0.006,5.638,0.010,47.0
28,5721.00,5721.00,0.00,16.237,6010,0.002,10.642,0.006,5.577,0.010,46.6
29,5717.00,5717.00,0.00,16.132,6006,0.002,10.545,0.006,5.569,0.010,46.6
30,5646.00,5646.00,0.00,16.446,5931,0.002,10.776,0.006,5.652,0.010,47.5
31,5698.00,5698.00,0.00,16.244,5986,0.002,10.625,0.006,5.601,0.010,47.1
32,5485.00,5485.00,0.00,16.841,5762,0.002,11.006,0.006,5.817,0.010,46.8
33,5540.00,5540.00,0.00,16.749,5820,0.002,10.970,0.007,5.760,0.010,47.2
34,5620.00,5620.00,0.00,16.359,5904,0.002,10.695,0.006,5.646,0.010,46.3
35,5600.00,5600.00,0.00,16.535,5883,0.002,10.818,0.006,5.698,0.011,47.3
36,5591.00,5591.00,0.00,16.502,5874,0.002,10.781,0.006,5.703,0.010,46.2
37,5688.00,5688.00,0.00,16.302,5976,0.002,10.672,0.006,5.612,0.010,47.4
38,5662.00,5662.00,0.00,16.390,5948,0.002,10.737,0.006,5.634,0.010,46.5
39,5631.00,5631.00,0.00,16.458,5916,0.002,10.776,0.006,5.663,0.010,46.4
40,5747.00,5747.00,0.00,16.122,6038,0.002,10.552,0.006,5.552,0.010,46.8
41,5681.00,5681.00,0.00,16.354,5968,0.002,10.718,0.006,5.617,0.010,46.3
42,5518.00,5518.00,0.00,16.808,5797,0.002,11.009,0.006,5.781,0.010,47.3
43,5628.00,5628.00,0.00,16.479,5913,0.002,10.791,0.007,5.668,0.010,46.7
44,5623.00,5623.00,0.00,16.413,5907,0.002,10.716,0.007,5.676,0.012,47.4
45,5533.00,5521.00,12.00,16.754,5800,0.003,10.971,0.008,5.761,0.013,48.1
46,5669.00,5651.00,18.00,16.343,5937,0.002,10.702,0.007,5.620,0.011,47.0
47,5682.00,5660.00,22.00,16.293,5946,0.002,10.656,0.006,5.617,0.010,46.9
48,5616.00,5596.00,20.00,16.494,5879,0.002,10.795,0.006,5.681,0.010,46.8
49,5690.00,5668.00,22.00,16.301,5955,0.002,10.676,0.006,5.607,0.011,47.0
50,5601.00,5599.00,2.00,16.509,5882,0.003,10.794,0.007,5.696,0.010,47.2
51,5659.00,5659.00,0.00,16.299,5945,0.002,10.650,0.006,5.630,0.010,46.6
52,5749.00,5749.00,0.00,16.159,6039,0.002,10.585,0.006,5.556,0.010,46.2
53,5737.00,5737.00,0.00,16.159,6027,0.002,10.581,0.006,5.559,0.010,46.7
54,5645.00,5645.00,0.00,16.411,5930,0.002,10.741,0.006,5.652,0.010,46.6
55,5582.00,5582.00,0.00,16.475,5864,0.003,10.736,0.006,5.719,0.010,46.5
56,5731.00,5731.00,0.00,16.167,6021,0.002,10.586,0.006,5.562,0.010,46.4
57,5623.00,5623.00,0.00,16.385,5907,0.002,10.692,0.006,5.674,0.010,47.3
58,5661.00,5661.00,0.00,16.365,5947,0.002,10.718,0.006,5.628,0.011,46.3
59,5622.00,5622.00,0.00,16.403,5906,0.002,10.708,0.006,5.677,0.010,47.2
60,5539.00,5539.00,0.00,16.747,5819,0.002,10.971,0.006,5.758,0.010,47.2
61,5603.00,5603.00,0.00,16.526,5886,0.002,10.813,0.006,5.693,0.011,47.1
62,5610.00,5610.00,0.00,16.549,5894,0.002,10.842,0.006,5.688,0.010,46.8
63,5493.00,5493.00,0.00,16.862,5771,0.002,11.036,0.006,5.807,0.010,47.1
64,5665.00,5665.00,0.00,16.333,5951,0.003,10.678,0.006,5.635,0.011,46.1
65,5606.00,5606.00,0.00,16.527,5889,0.002,10.822,0.006,5.686,0.011,47.5
66,5788.00,5788.00,0.00,15.975,6081,0.002,10.439,0.006,5.518,0.010,47.1
67,5634.00,5634.00,0.00,16.484,5919,0.002,10.807,0.006,5.658,0.011,47.0
68,5684.00,5684.00,0.00,16.323,5972,0.002,10.696,0.006,5.609,0.010,46.9
69,5695.00,5695.00,0.00,16.239,5983,0.002,10.617,0.006,5.603,0.010,47.4
70,5537.00,5537.00,0.00,16.783,5817,0.002,11.002,0.006,5.762,0.010,47.2
71,5556.00,5556.00,0.00,16.560,5837,0.002,10.816,0.006,5.724,0.011,46.1
72,5632.00,5632.00,0.00,16.499,5917,0.002,10.814,0.006,5.666,0.011,47.4
73,5509.00,5509.00,0.00,16.791,5788,0.002,10.979,0.006,5.792,0.011,47.5
74,6948.00,6948.00,0.00,10.450,7300,0.002,6.495,0.008,3.935,0.010,28.5
75,8285.00,8285.00,0.00,0.752,8704,0.003,0.162,0.010,0.568,0.009,1.6
