Second,Ops/sec,Hits/sec,Misses/sec,Latency,KB/sec,Request_Creation_Time,Request_Buffer_Time,MW_Writes_To_Memcached_Time,Memcached_Process_Time,MW_Writes_To_Memtier_Time,Queue_Size
4,1551.00,1551.00,0.00,7.352,1630,0.020,6.194,0.031,1.044,0.063,43.6
5,5416.00,5416.00,0.00,16.341,5691,0.005,14.872,0.007,1.444,0.013,77.3
6,5675.00,5675.00,0.00,16.398,5962,0.004,14.988,0.006,1.388,0.012,81.1
7,5607.00,5607.00,0.00,16.565,5891,0.004,15.135,0.006,1.408,0.012,80.7
8,5650.00,5650.00,0.00,16.472,5936,0.003,15.056,0.006,1.394,0.012,81.4
9,5657.00,5657.00,0.00,16.539,5943,0.003,15.124,0.006,1.393,0.013,81.8
10,5685.00,5685.00,0.00,16.393,5972,0.003,14.983,0.006,1.389,0.012,81.8
11,5710.00,5710.00,0.00,16.240,5999,0.003,14.835,0.006,1.383,0.012,81.2
12,5679.00,5679.00,0.00,16.387,5966,0.003,14.978,0.006,1.388,0.012,81.4
13,5712.00,5712.00,0.00,16.318,6002,0.003,14.920,0.006,1.377,0.013,81.3
14,5676.00,5676.00,0.00,16.371,5963,0.003,14.961,0.006,1.388,0.013,81.5
15,5708.00,5708.00,0.00,16.382,5996,0.003,14.976,0.006,1.384,0.012,81.4
16,5639.00,5639.00,0.00,16.321,5924,0.003,14.903,0.006,1.397,0.012,80.3
17,5841.00,5841.00,0.00,15.996,6137,0.003,14.623,0.006,1.353,0.012,81.4
18,5854.00,5854.00,0.00,15.812,6150,0.003,14.445,0.006,1.346,0.013,81.0
19,5691.00,5691.00,0.00,16.363,5978,0.003,14.957,0.006,1.385,0.012,81.0
20,5667.00,5667.00,0.00,16.447,5953,0.002,15.031,0.006,1.395,0.013,81.8
21,5660.00,5660.00,0.00,16.497,5946,0.002,15.084,0.006,1.393,0.012,81.5
22,5704.00,5704.00,0.00,16.331,5992,0.003,14.925,0.006,1.385,0.012,81.5
23,5684.00,5684.00,0.00,16.414,5971,0.003,15.004,0.006,1.388,0.013,81.5
24,5612.00,5612.00,0.00,16.524,5896,0.003,15.100,0.006,1.403,0.012,81.1
25,5589.00,5589.00,0.00,16.706,5872,0.004,15.268,0.006,1.415,0.013,81.4
26,5582.00,5582.00,0.00,16.690,5864,0.003,15.257,0.006,1.412,0.012,81.2
27,5573.00,5573.00,0.00,16.713,5855,0.003,15.274,0.006,1.416,0.013,81.1
28,5593.00,5593.00,0.00,16.515,5876,0.003,15.085,0.006,1.408,0.013,80.8
29,5527.00,5527.00,0.00,16.748,5806,0.003,15.300,0.006,1.426,0.013,80.8
30,5640.00,5640.00,0.00,16.561,5925,0.003,15.140,0.006,1.400,0.012,81.4
31,5626.00,5626.00,0.00,16.557,5910,0.003,15.133,0.006,1.403,0.013,81.2
32,5682.00,5682.00,0.00,16.375,5970,0.003,14.965,0.006,1.390,0.012,80.9
33,5623.00,5623.00,0.00,16.527,5907,0.003,15.103,0.006,1.404,0.012,81.3
34,5626.00,5626.00,0.00,16.591,5910,0.003,15.169,0.006,1.402,0.012,81.2
35,5609.00,5609.00,0.00,16.666,5893,0.003,15.232,0.006,1.412,0.013,81.7
36,5610.00,5610.00,0.00,16.490,5894,0.003,15.067,0.007,1.400,0.013,80.9
37,5654.00,5654.00,0.00,16.539,5940,0.002,15.117,0.006,1.402,0.012,81.9
38,5819.00,5819.00,0.00,15.999,6113,0.003,14.628,0.006,1.351,0.012,81.1
39,5646.00,5646.00,0.00,16.451,5932,0.003,15.030,0.006,1.399,0.012,81.0
40,5662.00,5662.00,0.00,16.503,5948,0.002,15.085,0.006,1.398,0.012,81.6
41,5608.00,5608.00,0.00,16.614,5891,0.002,15.189,0.006,1.404,0.013,81.4
42,5653.00,5653.00,0.00,16.513,5939,0.003,15.092,0.006,1.401,0.012,81.4
43,5757.00,5757.00,0.00,16.194,6049,0.002,14.805,0.006,1.369,0.013,81.5
44,5631.00,5631.00,0.00,16.537,5916,0.002,15.116,0.006,1.401,0.013,81.4
45,5729.00,5729.00,0.00,16.239,6018,0.003,14.839,0.006,1.379,0.012,81.1
46,5729.00,5727.00,2.00,16.149,6017,0.003,14.758,0.006,1.369,0.013,80.7
47,5499.00,5430.00,69.00,16.878,5705,0.003,15.423,0.007,1.432,0.013,81.5
48,5860.00,5835.00,25.00,15.858,6130,0.002,14.495,0.006,1.343,0.012,81.4
49,5632.00,5632.00,0.00,16.528,5916,0.003,15.105,0.006,1.402,0.012,81.2
50,5691.00,5691.00,0.00,16.446,5979,0.002,15.029,0.006,1.395,0.013,81.5
51,5474.00,5474.00,0.00,16.966,5751,0.003,15.511,0.006,1.434,0.013,81.6
52,5675.00,5675.00,0.00,16.476,5961,0.003,15.065,0.006,1.389,0.013,81.7
53,5679.00,5679.00,0.00,16.410,5965,0.002,15.003,0.007,1.386,0.013,81.6
54,5587.00,5587.00,0.00,16.629,5869,0.002,15.196,0.006,1.412,0.013,81.2
55,5672.00,5672.00,0.00,16.417,5959,0.002,15.003,0.006,1.394,0.012,81.3
56,5727.00,5727.00,0.00,16.214,6017,0.003,14.819,0.006,1.374,0.013,81.2
57,5620.00,5620.00,0.00,16.526,5904,0.003,15.101,0.006,1.404,0.012,81.0
58,5740.00,5740.00,0.00,16.251,6030,0.003,14.855,0.006,1.375,0.013,81.2
59,5618.00,5618.00,0.00,16.561,5902,0.002,15.131,0.006,1.406,0.014,81.4
60,5702.00,5702.00,0.00,16.359,5990,0.002,14.957,0.006,1.382,0.012,81.5
61,5711.00,5711.00,0.00,16.276,6000,0.002,14.875,0.006,1.380,0.012,80.9
62,5683.00,5683.00,0.00,16.349,5970,0.003,14.938,0.006,1.390,0.013,81.1
63,5643.00,5643.00,0.00,16.507,5928,0.003,15.086,0.006,1.400,0.013,81.5
64,5551.00,5551.00,0.00,16.771,5832,0.002,15.331,0.006,1.420,0.012,81.6
65,5556.00,5556.00,0.00,16.773,5837,0.003,15.326,0.006,1.426,0.013,81.6
66,5639.00,5639.00,0.00,16.463,5924,0.002,15.046,0.006,1.396,0.012,81.1
67,5606.00,5606.00,0.00,16.690,5890,0.003,15.260,0.006,1.408,0.014,81.8
68,5633.00,5633.00,0.00,16.464,5918,0.003,15.042,0.006,1.400,0.013,81.1
69,5668.00,5668.00,0.00,16.459,5955,0.003,15.046,0.006,1.392,0.013,81.4
70,5656.00,5656.00,0.00,16.438,5943,0.003,15.014,0.006,1.403,0.013,81.2
71,5827.00,5827.00,0.00,15.960,6122,0.002,14.589,0.006,1.351,0.012,81.1
72,5612.00,5612.00,0.00,16.578,5895,0.003,15.152,0.006,1.405,0.013,81.6
73,5588.00,5588.00,0.00,16.728,5871,0.003,15.295,0.006,1.411,0.013,82.0
74,4658.00,4658.00,0.00,15.480,4894,0.003,14.078,0.006,1.378,0.014,75.5
75,832.00,832.00,0.00,1.258,874,0.006,0.074,0.021,1.142,0.015,0.0
