Second,Ops/sec,Hits/sec,Misses/sec,Latency,KB/sec,Request_Creation_Time,Request_Buffer_Time,MW_Writes_To_Memcached_Time,Memcached_Process_Time,MW_Writes_To_Memtier_Time,Queue_Size
4,2810.00,2810.00,0.00,2.640,1545,0.019,0.641,0.025,1.902,0.053,3.3
5,11160.00,11160.00,0.00,3.430,6134,0.004,0.819,0.010,2.587,0.011,3.4
6,10746.00,10746.00,0.00,3.945,5906,0.003,1.147,0.009,2.776,0.010,4.3
7,10633.00,10633.00,0.00,3.962,5844,0.003,1.150,0.009,2.790,0.011,4.4
8,10826.00,10826.00,0.00,3.919,5949,0.003,1.139,0.008,2.758,0.010,4.2
9,10496.00,10496.00,0.00,4.013,5768,0.003,1.193,0.008,2.798,0.010,4.7
10,10788.00,10788.00,0.00,3.920,5929,0.003,1.131,0.008,2.769,0.009,4.1
11,10712.00,10712.00,0.00,3.851,5887,0.003,1.090,0.008,2.739,0.010,4.4
12,10769.00,10769.00,0.00,3.928,5919,0.003,1.151,0.008,2.755,0.010,4.5
13,10800.00,10800.00,0.00,3.955,5936,0.003,1.156,0.008,2.779,0.009,4.5
14,10593.00,10593.00,0.00,3.991,5822,0.003,1.162,0.008,2.808,0.010,4.4
15,10553.00,10533.00,20.00,4.011,5789,0.003,1.157,0.010,2.831,0.011,4.4
16,11034.00,11008.00,26.00,3.866,6049,0.003,1.117,0.009,2.727,0.010,4.5
17,10754.00,10752.00,2.00,3.958,5908,0.003,1.155,0.009,2.780,0.010,4.5
18,10573.00,10573.00,0.00,3.988,5811,0.003,1.160,0.009,2.806,0.010,4.4
19,11005.00,11005.00,0.00,3.869,6048,0.003,1.120,0.009,2.727,0.010,4.6
20,10847.00,10847.00,0.00,3.881,5961,0.003,1.116,0.009,2.742,0.011,4.7
21,10804.00,10804.00,0.00,3.889,5938,0.003,1.120,0.009,2.747,0.010,4.5
22,10548.00,10548.00,0.00,4.042,5797,0.003,1.188,0.009,2.832,0.010,4.9
23,10694.00,10694.00,0.00,3.915,5877,0.003,1.131,0.009,2.762,0.010,4.3
24,10722.00,10722.00,0.00,3.918,5892,0.003,1.127,0.009,2.770,0.010,4.0
25,10673.00,10673.00,0.00,3.990,5866,0.003,1.160,0.009,2.807,0.011,4.4
26,10750.00,10750.00,0.00,3.889,5908,0.003,1.109,0.009,2.758,0.010,4.1
27,10713.00,10713.00,0.00,3.946,5887,0.003,1.169,0.009,2.755,0.011,4.5
28,10740.00,10740.00,0.00,3.952,5902,0.003,1.149,0.009,2.780,0.010,4.4
29,10691.00,10691.00,0.00,3.868,5876,0.003,1.126,0.009,2.721,0.010,4.3
30,11190.00,11190.00,0.00,3.836,6150,0.003,1.102,0.009,2.712,0.010,4.3
31,10855.00,10855.00,0.00,3.966,5966,0.003,1.156,0.009,2.788,0.010,4.6
32,10668.00,10668.00,0.00,3.941,5863,0.003,1.153,0.009,2.766,0.010,4.5
33,10657.00,10657.00,0.00,4.018,5857,0.003,1.171,0.009,2.826,0.010,4.5
34,10896.00,10896.00,0.00,3.847,5989,0.003,1.131,0.009,2.695,0.010,4.5
35,10889.00,10883.00,6.00,3.913,5982,0.003,1.130,0.008,2.762,0.010,4.3
36,10706.00,10694.00,12.00,3.939,5878,0.003,1.130,0.009,2.788,0.010,4.4
37,10909.00,10896.00,13.00,3.877,5988,0.003,1.115,0.009,2.740,0.010,4.2
38,10705.00,10695.00,10.00,3.990,5878,0.003,1.167,0.008,2.802,0.010,4.5
39,10693.00,10688.00,5.00,3.942,5874,0.003,1.126,0.009,2.794,0.010,4.4
40,10773.00,10771.00,2.00,3.948,5920,0.003,1.145,0.009,2.781,0.010,4.5
41,10697.00,10697.00,0.00,3.929,5879,0.003,1.123,0.009,2.784,0.010,4.6
42,10585.00,10585.00,0.00,3.980,5818,0.003,1.148,0.009,2.811,0.010,4.7
43,10809.00,10809.00,0.00,3.937,5940,0.003,1.163,0.009,2.752,0.010,4.8
44,10582.00,10582.00,0.00,3.969,5816,0.003,1.162,0.009,2.785,0.010,5.0
45,10425.00,10425.00,0.00,4.056,5730,0.003,1.197,0.009,2.837,0.010,4.7
46,10820.00,10820.00,0.00,3.869,5947,0.003,1.123,0.009,2.723,0.011,4.6
47,10687.00,10687.00,0.00,3.976,5874,0.003,1.154,0.009,2.800,0.010,4.8
48,10675.00,10675.00,0.00,3.907,5867,0.003,1.108,0.008,2.778,0.010,4.2
49,10752.00,10752.00,0.00,3.926,5909,0.003,1.134,0.008,2.772,0.010,4.4
50,10712.00,10712.00,0.00,3.924,5887,0.003,1.135,0.008,2.768,0.010,4.3
51,10695.00,10695.00,0.00,3.914,5878,0.004,1.108,0.008,2.785,0.010,4.1
52,10714.00,10714.00,0.00,3.953,5888,0.003,1.148,0.008,2.785,0.009,4.3
53,10716.00,10716.00,0.00,3.964,5890,0.003,1.156,0.008,2.789,0.009,4.3
54,10733.00,10733.00,0.00,3.885,5899,0.003,1.118,0.008,2.747,0.010,4.3
55,10740.00,10740.00,0.00,3.936,5903,0.003,1.129,0.008,2.788,0.009,4.2
56,10753.00,10753.00,0.00,3.914,5910,0.003,1.130,0.008,2.765,0.009,4.2
57,10756.00,10756.00,0.00,3.940,5912,0.003,1.139,0.008,2.781,0.010,4.2
58,10790.00,10790.00,0.00,3.895,5930,0.003,1.131,0.008,2.743,0.009,4.3
59,10623.00,10623.00,0.00,3.988,5838,0.003,1.154,0.008,2.813,0.009,4.5
60,10551.00,10551.00,0.00,3.902,5799,0.003,1.130,0.008,2.752,0.010,4.2
61,10627.00,10627.00,0.00,3.976,5840,0.003,1.160,0.008,2.795,0.009,4.4
62,10778.00,10778.00,0.00,3.931,5923,0.003,1.138,0.008,2.772,0.010,4.6
63,10598.00,10598.00,0.00,3.964,5824,0.003,1.145,0.008,2.798,0.010,4.3
64,10676.00,10676.00,0.00,3.933,5867,0.003,1.144,0.008,2.769,0.010,4.4
65,10757.00,10757.00,0.00,3.932,5912,0.003,1.145,0.008,2.767,0.009,4.4
66,10544.00,10544.00,0.00,3.986,5795,0.003,1.168,0.008,2.798,0.010,4.7
67,10745.00,10745.00,0.00,3.930,5905,0.003,1.150,0.008,2.760,0.010,4.5
68,10883.00,10883.00,0.00,3.932,5981,0.003,1.153,0.008,2.759,0.010,4.1
69,10583.00,10583.00,0.00,3.895,5816,0.003,1.126,0.008,2.747,0.011,4.2
70,10731.00,10731.00,0.00,3.935,5898,0.003,1.151,0.009,2.763,0.010,4.4
71,10894.00,10894.00,0.00,3.888,5987,0.003,1.132,0.008,2.736,0.010,4.3
72,10739.00,10739.00,0.00,3.940,5902,0.003,1.144,0.008,2.776,0.010,4.5
73,10617.00,10617.00,0.00,4.004,5835,0.003,1.169,0.008,2.815,0.010,4.2
74,7796.00,7796.00,0.00,3.898,4285,0.003,1.129,0.008,2.748,0.010,4.2
