Second,Ops/sec,Hits/sec,Misses/sec,Latency,KB/sec,Request_Creation_Time,Request_Buffer_Time,MW_Writes_To_Memcached_Time,Memcached_Process_Time,MW_Writes_To_Memtier_Time,Queue_Size
4,2028.00,2028.00,0.00,1.555,1115,0.015,0.105,0.046,1.360,0.029,0.4
5,5829.00,5829.00,0.00,1.390,3204,0.005,0.097,0.014,1.263,0.012,0.4
6,6636.00,6636.00,0.00,1.338,3647,0.004,0.088,0.012,1.223,0.011,0.4
7,6768.00,6768.00,0.00,1.310,3720,0.004,0.068,0.012,1.215,0.011,0.3
8,6291.00,6291.00,0.00,1.428,3458,0.004,0.097,0.012,1.304,0.011,0.4
9,6091.00,6079.00,12.00,1.426,3341,0.006,0.107,0.016,1.285,0.013,0.4
10,6905.00,6905.00,0.00,1.248,3795,0.004,0.079,0.014,1.141,0.011,0.3
11,6408.00,6408.00,0.00,1.409,3522,0.004,0.077,0.012,1.306,0.011,0.4
12,6555.00,6555.00,0.00,1.367,3603,0.004,0.088,0.012,1.252,0.011,0.3
13,7041.00,7041.00,0.00,1.252,3870,0.004,0.079,0.012,1.146,0.012,0.3
14,6323.00,6323.00,0.00,1.390,3475,0.004,0.147,0.012,1.215,0.011,0.4
15,5500.00,5500.00,0.00,1.535,3023,0.004,0.101,0.014,1.405,0.012,0.4
16,5698.00,5698.00,0.00,1.515,3131,0.004,0.084,0.012,1.403,0.012,0.4
17,6784.00,6784.00,0.00,1.298,3729,0.003,0.092,0.012,1.180,0.011,0.4
18,6646.00,6634.00,12.00,1.343,3646,0.003,0.085,0.012,1.232,0.011,0.4
19,6444.00,6444.00,0.00,1.385,3541,0.003,0.127,0.012,1.231,0.011,0.4
20,6517.00,6517.00,0.00,1.341,3582,0.003,0.075,0.011,1.241,0.011,0.4
21,6831.00,6831.00,0.00,1.292,3754,0.003,0.087,0.012,1.179,0.011,0.4
22,6805.00,6805.00,0.00,1.287,3740,0.003,0.072,0.011,1.190,0.011,0.3
23,6615.00,6615.00,0.00,1.352,3636,0.003,0.070,0.011,1.258,0.010,0.3
24,6520.00,6520.00,0.00,1.379,3583,0.003,0.091,0.011,1.263,0.011,0.3
25,6810.00,6810.00,0.00,1.259,3743,0.003,0.104,0.012,1.129,0.011,0.4
26,6478.00,6478.00,0.00,1.380,3560,0.003,0.075,0.012,1.280,0.011,0.4
27,6580.00,6580.00,0.00,1.339,3616,0.003,0.099,0.011,1.215,0.011,0.3
28,6654.00,6654.00,0.00,1.319,3657,0.003,0.090,0.011,1.204,0.011,0.4
29,6351.00,6351.00,0.00,1.411,3491,0.003,0.099,0.012,1.287,0.011,0.4
30,6682.00,6682.00,0.00,1.309,3672,0.003,0.075,0.011,1.209,0.011,0.3
31,6342.00,6342.00,0.00,1.381,3486,0.003,0.099,0.012,1.257,0.010,0.4
32,6556.00,6556.00,0.00,1.348,3603,0.003,0.070,0.011,1.253,0.011,0.3
33,6236.00,6236.00,0.00,1.411,3427,0.003,0.102,0.014,1.281,0.011,0.4
34,6511.00,6511.00,0.00,1.358,3578,0.003,0.076,0.012,1.256,0.011,0.4
35,6694.00,6694.00,0.00,1.339,3679,0.003,0.077,0.011,1.236,0.011,0.4
36,6119.00,6119.00,0.00,1.459,3363,0.003,0.108,0.012,1.323,0.013,0.4
37,6672.00,6672.00,0.00,1.286,3667,0.003,0.075,0.012,1.184,0.011,0.3
38,6730.00,6730.00,0.00,1.316,3699,0.003,0.084,0.011,1.207,0.011,0.4
39,6175.00,6175.00,0.00,1.465,3394,0.003,0.107,0.012,1.331,0.011,0.3
40,6732.00,6731.00,1.00,1.296,3699,0.003,0.076,0.012,1.193,0.012,0.3
41,6632.00,6628.00,4.00,1.344,3643,0.003,0.097,0.012,1.221,0.011,0.3
42,6203.00,6198.00,5.00,1.427,3406,0.003,0.093,0.012,1.308,0.011,0.4
43,6526.00,6523.00,3.00,1.381,3585,0.003,0.079,0.013,1.275,0.012,0.3
44,6585.00,6579.00,6.00,1.320,3616,0.003,0.082,0.012,1.211,0.011,0.3
45,6413.00,6407.00,6.00,1.361,3521,0.004,0.082,0.012,1.252,0.011,0.4
46,6347.00,6338.00,9.00,1.388,3483,0.003,0.108,0.012,1.253,0.012,0.4
47,6765.00,6763.00,2.00,1.296,3717,0.003,0.093,0.011,1.178,0.011,0.4
48,6699.00,6699.00,0.00,1.331,3682,0.003,0.076,0.011,1.230,0.011,0.4
49,6682.00,6682.00,0.00,1.298,3672,0.003,0.077,0.011,1.195,0.012,0.4
50,6532.00,6532.00,0.00,1.362,3590,0.003,0.090,0.012,1.246,0.011,0.4
51,6352.00,6352.00,0.00,1.381,3491,0.003,0.117,0.012,1.238,0.011,0.5
52,6420.00,6420.00,0.00,1.365,3528,0.003,0.099,0.011,1.240,0.011,0.4
53,6520.00,6520.00,0.00,1.363,3583,0.003,0.110,0.011,1.227,0.011,0.5
54,6542.00,6542.00,0.00,1.341,3595,0.003,0.070,0.012,1.243,0.013,0.4
55,6992.00,6992.00,0.00,1.246,3843,0.003,0.077,0.012,1.143,0.011,0.3
56,6966.00,6966.00,0.00,1.242,3828,0.003,0.075,0.012,1.140,0.011,0.3
57,6681.00,6681.00,0.00,1.305,3672,0.003,0.083,0.012,1.196,0.011,0.4
58,6511.00,6511.00,0.00,1.376,3578,0.003,0.065,0.012,1.285,0.011,0.3
59,6904.00,6904.00,0.00,1.253,3794,0.003,0.082,0.012,1.145,0.011,0.3
60,6275.00,6275.00,0.00,1.426,3449,0.003,0.110,0.011,1.290,0.011,0.4
61,6884.00,6884.00,0.00,1.275,3783,0.003,0.100,0.011,1.148,0.012,0.4
62,6333.00,6333.00,0.00,1.404,3481,0.003,0.083,0.012,1.295,0.011,0.4
63,6365.00,6365.00,0.00,1.413,3498,0.003,0.083,0.011,1.305,0.011,0.4
64,6461.00,6461.00,0.00,1.363,3551,0.003,0.090,0.013,1.246,0.011,0.3
65,6498.00,6498.00,0.00,1.396,3571,0.003,0.082,0.012,1.288,0.011,0.3
66,6843.00,6843.00,0.00,1.294,3761,0.003,0.073,0.011,1.195,0.011,0.3
67,6786.00,6786.00,0.00,1.286,3730,0.003,0.109,0.011,1.152,0.011,0.4
68,6642.00,6642.00,0.00,1.332,3650,0.003,0.076,0.011,1.230,0.012,0.3
69,6397.00,6397.00,0.00,1.379,3516,0.003,0.097,0.011,1.256,0.012,0.4
70,6380.00,6380.00,0.00,1.385,3506,0.003,0.088,0.012,1.271,0.011,0.3
71,6590.00,6590.00,0.00,1.366,3622,0.003,0.103,0.011,1.238,0.011,0.4
72,6742.00,6742.00,0.00,1.330,3705,0.003,0.090,0.011,1.215,0.011,0.4
73,6483.00,6483.00,0.00,1.387,3563,0.003,0.079,0.011,1.283,0.011,0.4
74,4331.00,4331.00,0.00,1.236,2380,0.003,0.073,0.012,1.137,0.011,0.4
