Second,Ops/sec,Hits/sec,Misses/sec,Latency,KB/sec,Request_Creation_Time,Request_Buffer_Time,MW_Writes_To_Memcached_Time,Memcached_Process_Time,MW_Writes_To_Memtier_Time,Queue_Size
4,3467.00,3467.00,0.00,4.860,1906,0.010,2.545,0.029,2.234,0.042,29.0
5,10792.00,10792.00,0.00,7.898,5932,0.004,4.931,0.007,2.945,0.011,43.8
6,10705.00,10705.00,0.00,8.405,5884,0.004,5.410,0.006,2.975,0.010,46.0
7,10544.00,10544.00,0.00,8.460,5795,0.003,5.427,0.006,3.014,0.010,44.9
8,10489.00,10489.00,0.00,8.447,5765,0.003,5.399,0.006,3.029,0.010,45.4
9,10621.00,10621.00,0.00,8.462,5838,0.003,5.446,0.007,2.997,0.010,46.3
10,10690.00,10690.00,0.00,8.337,5875,0.003,5.338,0.006,2.978,0.011,45.6
11,10287.00,10287.00,0.00,8.581,5654,0.003,5.478,0.006,3.083,0.010,45.3
12,10673.00,10673.00,0.00,8.304,5865,0.003,5.306,0.006,2.978,0.010,45.2
13,10604.00,10604.00,0.00,8.415,5827,0.003,5.397,0.006,2.997,0.011,46.1
14,10651.00,10651.00,0.00,8.450,5853,0.003,5.432,0.007,2.993,0.015,45.9
15,10468.00,10468.00,0.00,8.481,5753,0.002,5.447,0.006,3.015,0.010,45.3
16,10509.00,10509.00,0.00,8.583,5775,0.002,5.524,0.006,3.039,0.011,46.2
17,10490.00,10490.00,0.00,8.566,5765,0.002,5.516,0.006,3.031,0.010,46.2
18,10437.00,10437.00,0.00,8.671,5736,0.002,5.601,0.006,3.051,0.010,46.4
19,10673.00,10673.00,0.00,8.421,5866,0.002,5.429,0.006,2.973,0.011,46.1
20,10467.00,10467.00,0.00,8.553,5752,0.002,5.492,0.006,3.041,0.011,46.5
21,10560.00,10560.00,0.00,8.528,5804,0.002,5.492,0.006,3.016,0.011,46.2
22,10465.00,10465.00,0.00,8.516,5752,0.002,5.473,0.006,3.023,0.011,46.0
23,10494.00,10494.00,0.00,8.532,5768,0.003,5.481,0.006,3.032,0.011,46.4
24,10522.00,10522.00,0.00,8.594,5783,0.003,5.541,0.006,3.033,0.011,46.0
25,10433.00,10433.00,0.00,8.575,5734,0.003,5.512,0.006,3.044,0.010,46.0
26,10214.00,10209.00,5.00,8.696,5610,0.003,5.554,0.007,3.121,0.011,46.1
27,10582.00,10526.00,56.00,8.518,5785,0.002,5.496,0.008,3.000,0.012,46.5
28,10514.00,10482.00,32.00,8.525,5760,0.002,5.491,0.007,3.013,0.012,46.3
29,10617.00,10614.00,3.00,8.463,5833,0.003,5.443,0.007,2.998,0.012,46.1
30,10548.00,10548.00,0.00,8.462,5796,0.002,5.430,0.007,3.011,0.012,45.7
31,10611.00,10611.00,0.00,8.454,5831,0.003,5.437,0.007,2.996,0.011,46.7
32,10434.00,10434.00,0.00,8.551,5734,0.002,5.492,0.007,3.039,0.011,45.9
33,10561.00,10561.00,0.00,8.559,5804,0.002,5.522,0.007,3.016,0.011,46.3
34,10552.00,10552.00,0.00,8.544,5799,0.002,5.515,0.007,3.007,0.012,47.1
35,10458.00,10458.00,0.00,8.577,5748,0.003,5.515,0.007,3.041,0.011,46.6
36,10575.00,10575.00,0.00,8.421,5812,0.003,5.402,0.007,2.999,0.011,45.9
37,10676.00,10676.00,0.00,8.462,5868,0.003,5.458,0.007,2.984,0.011,46.6
38,10546.00,10546.00,0.00,8.461,5796,0.002,5.432,0.007,3.009,0.011,46.0
39,10502.00,10502.00,0.00,8.562,5772,0.003,5.512,0.008,3.028,0.012,46.2
40,10524.00,10524.00,0.00,8.565,5784,0.003,5.524,0.008,3.020,0.011,46.7
41,10408.00,10408.00,0.00,8.566,5720,0.003,5.502,0.007,3.044,0.011,45.8
42,10552.00,10552.00,0.00,8.508,5800,0.003,5.475,0.007,3.012,0.011,46.1
43,10631.00,10631.00,0.00,8.504,5842,0.003,5.482,0.008,3.001,0.011,46.5
44,10640.00,10640.00,0.00,8.446,5847,0.002,5.439,0.007,2.986,0.011,46.4
45,10415.00,10415.00,0.00,8.645,5724,0.002,5.580,0.007,3.045,0.011,46.8
46,10594.00,10594.00,0.00,8.511,5822,0.003,5.487,0.006,3.005,0.011,45.8
47,10539.00,10539.00,0.00,8.475,5792,0.003,5.447,0.007,3.008,0.011,46.2
48,10693.00,10693.00,0.00,8.466,5877,0.003,5.464,0.006,2.983,0.010,46.4
49,10606.00,10606.00,0.00,8.507,5829,0.002,5.487,0.006,3.001,0.010,46.5
50,10409.00,10409.00,0.00,8.590,5720,0.002,5.525,0.007,3.045,0.011,46.4
51,10615.00,10615.00,0.00,8.438,5833,0.003,5.414,0.006,3.004,0.011,45.6
52,10572.00,10572.00,0.00,8.481,5810,0.002,5.453,0.007,3.008,0.011,46.3
53,10472.00,10472.00,0.00,8.518,5755,0.002,5.461,0.007,3.038,0.011,45.4
54,10322.00,10322.00,0.00,8.674,5673,0.002,5.582,0.006,3.073,0.011,46.4
55,10573.00,10573.00,0.00,8.453,5811,0.003,5.428,0.007,3.000,0.015,46.6
56,10701.00,10701.00,0.00,8.399,5881,0.002,5.395,0.006,2.985,0.011,45.7
57,10390.00,10390.00,0.00,8.527,5710,0.002,5.468,0.006,3.041,0.010,45.7
58,10753.00,10753.00,0.00,8.398,5910,0.002,5.412,0.006,2.968,0.010,46.0
59,10588.00,10588.00,0.00,8.484,5819,0.002,5.460,0.006,3.004,0.011,45.9
60,10498.00,10498.00,0.00,8.497,5769,0.002,5.462,0.006,3.016,0.010,45.5
61,10727.00,10727.00,0.00,8.363,5895,0.003,5.376,0.006,2.968,0.010,45.8
62,10561.00,10561.00,0.00,8.484,5804,0.002,5.455,0.007,3.010,0.011,46.2
63,10612.00,10612.00,0.00,8.487,5832,0.002,5.459,0.006,3.009,0.010,46.0
64,10633.00,10633.00,0.00,8.487,5844,0.002,5.475,0.006,2.994,0.010,46.6
65,10464.00,10464.00,0.00,8.529,5751,0.003,5.480,0.007,3.029,0.010,46.0
66,10595.00,10595.00,0.00,8.411,5823,0.002,5.387,0.006,3.005,0.011,44.8
67,10629.00,10629.00,0.00,8.457,5842,0.002,5.448,0.006,2.990,0.010,46.2
68,10520.00,10519.00,1.00,8.479,5782,0.002,5.439,0.006,3.022,0.010,45.4
69,10438.00,10420.00,18.00,8.524,5727,0.002,5.462,0.006,3.042,0.010,45.5
70,10586.00,10567.00,19.00,8.512,5808,0.003,5.482,0.006,3.012,0.010,46.6
71,10632.00,10604.00,28.00,8.397,5828,0.002,5.388,0.006,2.991,0.010,46.3
72,10692.00,10677.00,15.00,8.378,5868,0.002,5.381,0.006,2.978,0.010,46.1
73,10937.00,10926.00,11.00,8.183,6004,0.002,5.253,0.006,2.911,0.010,46.0
74,7609.00,7608.00,1.00,8.353,4181,0.003,5.352,0.006,2.983,0.010,45.5
