Second,Ops/sec,Hits/sec,Misses/sec,Latency,KB/sec,Request_Creation_Time,Request_Buffer_Time,MW_Writes_To_Memcached_Time,Memcached_Process_Time,MW_Writes_To_Memtier_Time,Queue_Size
4,1821.00,1821.00,0.00,1.917,1001,0.018,0.279,0.050,1.531,0.040,1.2
5,8505.00,8505.00,0.00,2.088,4674,0.006,0.118,0.011,1.940,0.012,0.7
6,9695.00,9695.00,0.00,1.987,5328,0.004,0.123,0.010,1.839,0.012,0.7
7,10061.00,10061.00,0.00,1.910,5529,0.004,0.104,0.011,1.781,0.010,0.8
8,10074.00,10074.00,0.00,1.903,5536,0.004,0.116,0.010,1.763,0.011,0.7
9,10324.00,10324.00,0.00,1.866,5674,0.003,0.123,0.010,1.720,0.010,0.8
10,9740.00,9729.00,11.00,1.955,5347,0.003,0.127,0.011,1.804,0.011,0.9
11,10487.00,10474.00,13.00,1.788,5756,0.003,0.101,0.010,1.663,0.010,0.8
12,9992.00,9992.00,0.00,1.891,5491,0.003,0.149,0.010,1.719,0.010,0.9
13,10687.00,10687.00,0.00,1.800,5874,0.003,0.101,0.010,1.677,0.010,0.8
14,9955.00,9955.00,0.00,1.887,5472,0.003,0.127,0.010,1.737,0.011,0.8
15,10121.00,10121.00,0.00,1.896,5562,0.003,0.105,0.011,1.767,0.011,0.8
16,10123.00,10123.00,0.00,1.864,5563,0.003,0.095,0.010,1.747,0.010,0.8
17,9986.00,9986.00,0.00,1.904,5488,0.003,0.153,0.010,1.728,0.010,0.9
18,9901.00,9901.00,0.00,1.930,5442,0.003,0.105,0.010,1.802,0.010,0.8
19,9752.00,9752.00,0.00,1.928,5359,0.003,0.120,0.011,1.785,0.010,0.8
20,9614.00,9614.00,0.00,1.992,5284,0.003,0.135,0.010,1.835,0.010,0.8
21,9906.00,9903.00,3.00,1.929,5443,0.003,0.096,0.010,1.810,0.010,0.7
22,10022.00,10006.00,16.00,1.903,5499,0.003,0.091,0.010,1.788,0.011,0.7
23,10203.00,10198.00,5.00,1.875,5604,0.003,0.088,0.011,1.763,0.010,0.7
24,10439.00,10439.00,0.00,1.808,5737,0.003,0.095,0.011,1.689,0.010,0.7
25,9887.00,9887.00,0.00,1.913,5434,0.003,0.118,0.011,1.772,0.010,0.7
26,9838.00,9838.00,0.00,1.934,5407,0.003,0.111,0.010,1.800,0.010,0.7
27,10076.00,10076.00,0.00,1.891,5538,0.003,0.103,0.010,1.765,0.010,0.8
28,10395.00,10395.00,0.00,1.827,5713,0.003,0.102,0.010,1.701,0.010,0.8
29,10446.00,10446.00,0.00,1.819,5741,0.003,0.099,0.010,1.696,0.010,0.8
30,10072.00,10072.00,0.00,1.877,5535,0.003,0.096,0.011,1.757,0.010,0.7
31,10471.00,10471.00,0.00,1.827,5755,0.003,0.090,0.010,1.714,0.010,0.8
32,10384.00,10384.00,0.00,1.835,5707,0.003,0.087,0.010,1.726,0.010,0.8
33,9960.00,9960.00,0.00,1.903,5474,0.003,0.119,0.010,1.760,0.011,0.9
34,10387.00,10387.00,0.00,1.835,5709,0.003,0.090,0.010,1.723,0.010,0.7
35,9967.00,9967.00,0.00,1.924,5478,0.003,0.111,0.010,1.790,0.010,0.9
36,9908.00,9908.00,0.00,1.910,5445,0.003,0.131,0.010,1.756,0.011,0.9
37,10365.00,10365.00,0.00,1.850,5697,0.003,0.115,0.010,1.712,0.010,0.8
38,10393.00,10393.00,0.00,1.783,5712,0.003,0.087,0.010,1.672,0.011,0.7
39,10026.00,10026.00,0.00,1.895,5510,0.003,0.113,0.010,1.759,0.010,0.8
40,9828.00,9828.00,0.00,1.979,5401,0.003,0.125,0.010,1.832,0.010,0.9
41,10319.00,10319.00,0.00,1.868,5671,0.003,0.102,0.010,1.744,0.010,0.8
42,10466.00,10466.00,0.00,1.796,5752,0.003,0.112,0.010,1.662,0.010,0.7
43,10457.00,10457.00,0.00,1.826,5747,0.004,0.080,0.010,1.723,0.010,0.7
44,10087.00,10087.00,0.00,1.875,5544,0.003,0.087,0.010,1.765,0.010,0.7
45,10341.00,10341.00,0.00,1.842,5683,0.003,0.093,0.010,1.726,0.010,0.7
46,10074.00,10074.00,0.00,1.939,5537,0.003,0.079,0.010,1.838,0.010,0.7
47,10055.00,10055.00,0.00,1.897,5526,0.003,0.113,0.010,1.762,0.010,0.8
48,10129.00,10129.00,0.00,1.882,5567,0.003,0.110,0.010,1.749,0.010,0.9
49,10272.00,10272.00,0.00,1.855,5645,0.003,0.110,0.010,1.722,0.010,0.7
50,10064.00,10062.00,2.00,1.919,5530,0.003,0.111,0.010,1.785,0.011,0.8
51,10023.00,10019.00,4.00,1.885,5507,0.003,0.089,0.010,1.772,0.010,0.8
52,9983.00,9978.00,5.00,1.935,5484,0.003,0.115,0.010,1.797,0.010,0.9
53,10387.00,10378.00,9.00,1.826,5704,0.003,0.133,0.010,1.670,0.010,1.0
54,10552.00,10546.00,6.00,1.798,5796,0.003,0.096,0.010,1.679,0.010,0.7
55,9816.00,9807.00,9.00,1.945,5390,0.003,0.085,0.010,1.838,0.010,0.7
56,10325.00,10315.00,10.00,1.861,5669,0.003,0.082,0.010,1.756,0.010,0.7
57,10156.00,10147.00,9.00,1.851,5577,0.003,0.091,0.010,1.738,0.010,0.7
58,9856.00,9846.00,10.00,1.944,5411,0.003,0.130,0.010,1.791,0.010,0.8
59,10301.00,10296.00,5.00,1.854,5659,0.003,0.092,0.010,1.739,0.010,0.7
60,10505.00,10502.00,3.00,1.789,5772,0.003,0.102,0.010,1.665,0.010,0.8
61,9661.00,9661.00,0.00,2.012,5310,0.003,0.102,0.010,1.887,0.010,0.7
62,10285.00,10285.00,0.00,1.867,5652,0.003,0.090,0.010,1.755,0.010,0.8
63,9813.00,9813.00,0.00,1.954,5393,0.003,0.129,0.011,1.802,0.010,0.8
64,9669.00,9669.00,0.00,1.969,5314,0.003,0.118,0.010,1.828,0.010,0.9
65,10473.00,10473.00,0.00,1.833,5756,0.003,0.094,0.010,1.716,0.010,0.8
66,10133.00,10133.00,0.00,1.876,5569,0.003,0.094,0.010,1.760,0.010,0.7
67,9860.00,9860.00,0.00,1.954,5419,0.003,0.102,0.010,1.828,0.010,0.7
68,10155.00,10155.00,0.00,1.888,5581,0.003,0.090,0.010,1.775,0.010,0.8
69,10447.00,10447.00,0.00,1.817,5742,0.003,0.088,0.010,1.706,0.010,0.7
70,9904.00,9904.00,0.00,1.911,5443,0.003,0.112,0.010,1.776,0.010,0.9
71,10484.00,10484.00,0.00,1.832,5762,0.003,0.102,0.010,1.708,0.010,0.7
72,10604.00,10604.00,0.00,1.773,5828,0.003,0.096,0.010,1.653,0.010,0.8
73,10378.00,10378.00,0.00,1.826,5703,0.004,0.083,0.010,1.719,0.010,0.7
74,7582.00,7582.00,0.00,1.895,4167,0.003,0.120,0.010,1.750,0.011,0.9
