Second,Ops/sec,Hits/sec,Misses/sec,Latency,KB/sec,Request_Creation_Time,Request_Buffer_Time,MW_Writes_To_Memcached_Time,Memcached_Process_Time,MW_Writes_To_Memtier_Time,Queue_Size
4,2022.00,2022.00,0.00,1.392,225,0.010,0.105,0.047,1.194,0.036,0.4
5,5624.00,5624.00,0.00,1.418,625,0.006,0.095,0.014,1.291,0.012,0.3
6,6773.00,6773.00,0.00,1.316,752,0.004,0.073,0.012,1.216,0.011,0.3
7,6233.00,6233.00,0.00,1.462,693,0.004,0.107,0.012,1.328,0.011,0.3
8,6125.00,6125.00,0.00,1.478,681,0.004,0.138,0.012,1.313,0.011,0.5
9,6418.00,6406.00,12.00,1.322,712,0.004,0.081,0.015,1.210,0.013,0.4
10,6679.00,6679.00,0.00,1.304,742,0.004,0.106,0.012,1.172,0.010,0.4
11,6205.00,6205.00,0.00,1.456,690,0.004,0.086,0.012,1.345,0.011,0.4
12,6313.00,6313.00,0.00,1.426,702,0.003,0.116,0.012,1.284,0.011,0.4
13,6075.00,6075.00,0.00,1.475,675,0.004,0.092,0.012,1.357,0.010,0.4
14,6188.00,6188.00,0.00,1.450,687,0.004,0.122,0.012,1.302,0.011,0.5
15,6209.00,6209.00,0.00,1.392,690,0.004,0.077,0.012,1.289,0.011,0.4
16,5780.00,5780.00,0.00,1.590,642,0.003,0.098,0.014,1.464,0.011,0.3
17,6156.00,6156.00,0.00,1.459,684,0.003,0.113,0.012,1.320,0.011,0.4
18,6444.00,6435.00,9.00,1.410,715,0.003,0.064,0.012,1.320,0.011,0.3
19,6141.00,6138.00,3.00,1.465,682,0.003,0.081,0.012,1.359,0.011,0.3
20,6843.00,6843.00,0.00,1.295,760,0.003,0.080,0.012,1.189,0.011,0.4
21,6891.00,6891.00,0.00,1.261,766,0.003,0.076,0.012,1.159,0.011,0.4
22,6186.00,6186.00,0.00,1.440,687,0.003,0.077,0.012,1.336,0.011,0.3
23,6432.00,6432.00,0.00,1.410,715,0.003,0.074,0.012,1.310,0.011,0.4
24,6408.00,6408.00,0.00,1.387,712,0.003,0.099,0.012,1.263,0.011,0.4
25,6479.00,6479.00,0.00,1.358,720,0.003,0.076,0.012,1.255,0.012,0.4
26,6623.00,6623.00,0.00,1.319,736,0.003,0.079,0.012,1.213,0.012,0.3
27,6399.00,6399.00,0.00,1.420,711,0.003,0.091,0.012,1.303,0.011,0.4
28,6386.00,6386.00,0.00,1.419,709,0.003,0.075,0.012,1.318,0.011,0.4
29,6356.00,6356.00,0.00,1.413,706,0.004,0.090,0.013,1.296,0.011,0.4
30,6723.00,6723.00,0.00,1.317,747,0.003,0.080,0.013,1.210,0.011,0.4
31,6294.00,6294.00,0.00,1.417,699,0.003,0.092,0.012,1.299,0.011,0.4
32,6690.00,6690.00,0.00,1.321,743,0.003,0.071,0.012,1.224,0.011,0.3
33,6784.00,6784.00,0.00,1.333,754,0.003,0.080,0.011,1.228,0.011,0.4
34,6503.00,6503.00,0.00,1.387,723,0.004,0.065,0.012,1.295,0.011,0.3
35,6645.00,6645.00,0.00,1.341,738,0.003,0.086,0.011,1.230,0.010,0.3
36,6916.00,6916.00,0.00,1.288,768,0.003,0.065,0.013,1.197,0.011,0.3
37,6621.00,6621.00,0.00,1.338,736,0.003,0.088,0.011,1.224,0.011,0.4
38,6411.00,6411.00,0.00,1.416,712,0.003,0.082,0.011,1.305,0.014,0.4
39,6702.00,6702.00,0.00,1.335,745,0.003,0.073,0.013,1.235,0.011,0.3
40,6611.00,6611.00,0.00,1.345,735,0.003,0.061,0.013,1.256,0.011,0.3
41,6450.00,6447.00,3.00,1.393,717,0.003,0.093,0.013,1.273,0.011,0.3
42,6593.00,6587.00,6.00,1.338,732,0.003,0.104,0.011,1.209,0.011,0.5
43,6384.00,6381.00,3.00,1.399,709,0.003,0.098,0.012,1.275,0.011,0.4
44,6260.00,6256.00,4.00,1.470,695,0.003,0.083,0.012,1.361,0.011,0.4
45,6776.00,6768.00,8.00,1.338,752,0.003,0.077,0.011,1.237,0.011,0.4
46,6806.00,6798.00,8.00,1.287,755,0.003,0.076,0.011,1.186,0.011,0.4
47,6445.00,6443.00,2.00,1.399,716,0.003,0.072,0.011,1.302,0.011,0.4
48,6424.00,6422.00,2.00,1.386,714,0.003,0.084,0.012,1.275,0.011,0.4
49,6585.00,6585.00,0.00,1.360,732,0.003,0.067,0.011,1.268,0.011,0.4
50,6729.00,6729.00,0.00,1.304,748,0.003,0.081,0.012,1.197,0.011,0.4
51,7022.00,7022.00,0.00,1.219,780,0.003,0.087,0.011,1.107,0.011,0.4
52,6701.00,6701.00,0.00,1.324,744,0.003,0.074,0.011,1.225,0.011,0.3
53,6717.00,6717.00,0.00,1.324,746,0.003,0.089,0.012,1.209,0.011,0.3
54,6496.00,6496.00,0.00,1.377,722,0.003,0.089,0.012,1.262,0.011,0.4
55,6779.00,6779.00,0.00,1.300,753,0.003,0.078,0.011,1.197,0.011,0.4
56,6735.00,6735.00,0.00,1.331,748,0.003,0.078,0.012,1.228,0.011,0.3
57,6573.00,6573.00,0.00,1.351,730,0.003,0.110,0.011,1.216,0.011,0.5
58,6643.00,6643.00,0.00,1.339,738,0.003,0.083,0.012,1.230,0.011,0.4
59,6306.00,6306.00,0.00,1.386,701,0.003,0.075,0.012,1.284,0.011,0.4
60,6949.00,6949.00,0.00,1.259,772,0.003,0.074,0.012,1.160,0.011,0.3
61,6542.00,6542.00,0.00,1.340,727,0.003,0.091,0.012,1.223,0.012,0.4
62,6512.00,6512.00,0.00,1.388,724,0.003,0.086,0.011,1.276,0.011,0.3
63,6896.00,6896.00,0.00,1.260,766,0.003,0.072,0.013,1.161,0.011,0.4
64,6665.00,6665.00,0.00,1.342,741,0.003,0.078,0.012,1.238,0.011,0.3
65,6736.00,6736.00,0.00,1.299,748,0.003,0.077,0.012,1.195,0.011,0.3
66,6761.00,6761.00,0.00,1.314,751,0.003,0.080,0.011,1.208,0.011,0.3
67,6626.00,6626.00,0.00,1.357,736,0.003,0.117,0.011,1.214,0.011,0.4
68,6562.00,6562.00,0.00,1.370,729,0.003,0.079,0.011,1.266,0.011,0.4
69,6459.00,6459.00,0.00,1.356,718,0.003,0.084,0.011,1.247,0.010,0.3
70,6898.00,6898.00,0.00,1.287,766,0.003,0.063,0.011,1.200,0.011,0.4
71,6639.00,6639.00,0.00,1.381,738,0.003,0.079,0.011,1.278,0.011,0.4
72,6670.00,6670.00,0.00,1.330,741,0.003,0.104,0.011,1.202,0.011,0.4
73,6651.00,6651.00,0.00,1.358,739,0.003,0.129,0.011,1.205,0.010,0.5
74,4231.00,4231.00,0.00,1.333,470,0.003,0.074,0.012,1.233,0.012,0.3
