Second,Ops/sec,Hits/sec,Misses/sec,Latency,KB/sec,Request_Creation_Time,Request_Buffer_Time,MW_Writes_To_Memcached_Time,Memcached_Process_Time,MW_Writes_To_Memtier_Time,Queue_Size
4,3414.00,3414.00,0.00,4.415,1023,0.022,2.174,0.043,2.145,0.030,25.4
5,13256.00,13256.00,0.00,6.512,3972,0.004,4.085,0.007,2.406,0.011,44.5
6,12845.00,12845.00,0.00,6.820,3848,0.004,4.339,0.007,2.460,0.011,45.0
7,13109.00,13109.00,0.00,6.749,3927,0.003,4.294,0.006,2.435,0.010,45.7
8,13240.00,13240.00,0.00,6.626,3968,0.003,4.240,0.007,2.366,0.011,45.9
9,13406.00,13406.00,0.00,6.604,4016,0.003,4.218,0.007,2.365,0.011,45.4
10,13087.00,13087.00,0.00,6.785,3921,0.003,4.328,0.006,2.438,0.010,45.8
11,13422.00,13422.00,0.00,6.551,4020,0.003,4.176,0.006,2.356,0.010,46.0
12,13038.00,13038.00,0.00,6.776,3906,0.002,4.320,0.006,2.437,0.010,45.9
13,13227.00,13227.00,0.00,6.697,3963,0.002,4.280,0.006,2.398,0.010,45.4
14,13249.00,13249.00,0.00,6.658,3969,0.003,4.251,0.006,2.388,0.011,46.2
15,12796.00,12796.00,0.00,6.944,3833,0.002,4.433,0.006,2.492,0.011,45.5
16,13624.00,13624.00,0.00,6.438,4082,0.002,4.097,0.006,2.322,0.011,45.4
17,13358.00,13358.00,0.00,6.594,4002,0.002,4.191,0.008,2.379,0.014,45.1
18,13220.00,13220.00,0.00,6.577,3961,0.002,4.170,0.006,2.388,0.011,45.6
19,12744.00,12744.00,0.00,6.960,3818,0.002,4.430,0.006,2.511,0.010,45.2
20,13588.00,13588.00,0.00,6.475,4071,0.002,4.124,0.006,2.333,0.010,45.5
21,12572.00,12572.00,0.00,7.040,3767,0.002,4.500,0.006,2.522,0.010,45.9
22,12647.00,12620.00,27.00,6.940,3780,0.002,4.407,0.008,2.511,0.012,45.5
23,12949.00,12884.00,65.00,6.772,3860,0.002,4.294,0.008,2.455,0.013,45.6
24,12713.00,12709.00,4.00,7.001,3807,0.002,4.487,0.007,2.492,0.011,45.6
25,12912.00,12912.00,0.00,6.830,3867,0.002,4.365,0.007,2.444,0.011,45.9
26,13108.00,13108.00,0.00,6.777,3926,0.003,4.317,0.007,2.437,0.012,46.0
27,12634.00,12634.00,0.00,6.978,3785,0.002,4.463,0.007,2.493,0.012,46.3
28,13154.00,13154.00,0.00,6.680,3941,0.002,4.240,0.007,2.420,0.011,44.5
29,13170.00,13170.00,0.00,6.676,3946,0.002,4.263,0.007,2.393,0.011,45.8
30,13024.00,13024.00,0.00,6.843,3902,0.002,4.372,0.007,2.451,0.011,46.1
31,13233.00,13233.00,0.00,6.650,3965,0.002,4.237,0.007,2.393,0.011,45.7
32,13931.00,13931.00,0.00,6.306,4174,0.002,4.006,0.007,2.279,0.011,45.2
33,13626.00,13626.00,0.00,6.389,4083,0.002,4.041,0.007,2.329,0.011,44.9
34,13114.00,13114.00,0.00,6.699,3929,0.002,4.277,0.007,2.402,0.011,45.6
35,14621.00,14621.00,0.00,6.034,4380,0.002,3.841,0.006,2.173,0.010,45.5
36,13933.00,13933.00,0.00,6.322,4173,0.002,4.025,0.007,2.277,0.010,45.0
37,13233.00,13233.00,0.00,6.672,3964,0.002,4.255,0.007,2.397,0.011,45.8
38,13093.00,13093.00,0.00,6.649,3923,0.003,4.228,0.007,2.399,0.012,45.1
39,12731.00,12731.00,0.00,6.942,3814,0.002,4.436,0.007,2.487,0.011,45.4
40,12805.00,12805.00,0.00,6.986,3836,0.002,4.475,0.007,2.491,0.011,46.4
41,13073.00,13073.00,0.00,6.773,3916,0.002,4.332,0.007,2.421,0.012,46.2
42,13209.00,13209.00,0.00,6.636,3957,0.003,4.220,0.007,2.395,0.012,45.6
43,12842.00,12842.00,0.00,6.938,3847,0.002,4.463,0.006,2.456,0.011,46.2
44,13155.00,13155.00,0.00,6.695,3941,0.002,4.255,0.006,2.421,0.011,45.0
45,12716.00,12716.00,0.00,6.972,3810,0.002,4.445,0.006,2.508,0.011,45.7
46,12752.00,12752.00,0.00,6.879,3821,0.002,4.374,0.006,2.486,0.011,45.0
47,13728.00,13728.00,0.00,6.435,4113,0.002,4.101,0.006,2.313,0.011,45.5
48,13647.00,13647.00,0.00,6.421,4088,0.002,4.074,0.006,2.328,0.011,44.7
49,12702.00,12702.00,0.00,6.943,3805,0.002,4.428,0.006,2.496,0.011,45.1
50,13613.00,13613.00,0.00,6.465,4078,0.002,4.108,0.006,2.338,0.011,45.9
51,12950.00,12950.00,0.00,6.772,3879,0.002,4.328,0.006,2.426,0.010,45.4
52,13273.00,13273.00,0.00,6.581,3977,0.002,4.189,0.007,2.372,0.011,44.9
53,13058.00,13058.00,0.00,6.752,3912,0.003,4.298,0.006,2.435,0.011,45.8
54,13034.00,13034.00,0.00,6.684,3905,0.002,4.250,0.006,2.414,0.011,45.1
55,13701.00,13700.00,1.00,6.456,4105,0.002,4.109,0.006,2.329,0.010,45.7
56,13124.00,13112.00,12.00,6.730,3929,0.002,4.282,0.006,2.430,0.010,45.0
57,13308.00,13274.00,34.00,6.644,3977,0.002,4.243,0.006,2.382,0.011,46.2
58,12979.00,12962.00,17.00,6.824,3883,0.002,4.360,0.007,2.444,0.011,45.5
59,13317.00,13295.00,22.00,6.593,3983,0.002,4.194,0.006,2.379,0.011,44.8
60,12771.00,12761.00,10.00,6.944,3823,0.002,4.440,0.006,2.485,0.011,46.5
61,12963.00,12963.00,0.00,6.853,3883,0.002,4.384,0.007,2.450,0.011,46.3
62,13354.00,13354.00,0.00,6.599,4000,0.002,4.201,0.006,2.378,0.011,45.4
63,13648.00,13648.00,0.00,6.420,4089,0.002,4.084,0.007,2.316,0.011,45.4
64,12562.00,12562.00,0.00,6.999,3764,0.002,4.454,0.006,2.526,0.011,45.2
65,13460.00,13460.00,0.00,6.538,4033,0.002,4.158,0.006,2.361,0.010,45.5
66,13061.00,13061.00,0.00,6.724,3913,0.003,4.286,0.006,2.419,0.010,45.8
67,13107.00,13107.00,0.00,6.783,3927,0.002,4.329,0.006,2.435,0.010,45.2
68,13514.00,13514.00,0.00,6.491,4049,0.002,4.123,0.006,2.348,0.011,45.9
69,13288.00,13288.00,0.00,6.571,3981,0.002,4.162,0.006,2.389,0.011,45.2
70,12981.00,12981.00,0.00,6.857,3889,0.002,4.387,0.006,2.451,0.010,45.9
71,13554.00,13554.00,0.00,6.529,4061,0.002,4.171,0.006,2.340,0.010,46.0
72,12985.00,12985.00,0.00,6.775,3890,0.003,4.309,0.006,2.447,0.011,45.2
73,12964.00,12964.00,0.00,6.787,3884,0.002,4.315,0.006,2.452,0.011,45.3
74,9857.00,9857.00,0.00,6.369,2953,0.003,4.034,0.006,2.316,0.011,43.8
