Second,Ops/sec,Hits/sec,Misses/sec,Latency,KB/sec,Request_Creation_Time,Request_Buffer_Time,MW_Writes_To_Memcached_Time,Memcached_Process_Time,MW_Writes_To_Memtier_Time,Queue_Size
4,1776.00,1776.00,0.00,2.509,1866,0.014,0.232,0.033,2.189,0.042,0.7
5,5695.00,5695.00,0.00,3.423,5983,0.004,0.114,0.013,3.281,0.011,0.5
6,5717.00,5717.00,0.00,3.673,6006,0.004,0.107,0.010,3.542,0.010,0.5
7,5822.00,5822.00,0.00,3.626,6116,0.004,0.101,0.010,3.501,0.010,0.5
8,5858.00,5858.00,0.00,3.604,6154,0.003,0.101,0.010,3.480,0.010,0.6
9,6002.00,6002.00,0.00,3.473,6305,0.004,0.110,0.010,3.339,0.010,0.6
10,5990.00,5990.00,0.00,3.511,6293,0.003,0.089,0.010,3.399,0.009,0.5
11,5869.00,5869.00,0.00,3.587,6166,0.004,0.117,0.012,3.444,0.010,0.6
12,5950.00,5950.00,0.00,3.552,6251,0.003,0.110,0.010,3.418,0.010,0.6
13,5905.00,5905.00,0.00,3.581,6204,0.003,0.090,0.010,3.468,0.010,0.5
14,5792.00,5779.00,13.00,3.670,6071,0.003,0.096,0.011,3.549,0.011,0.6
15,5826.00,5815.00,11.00,3.560,6109,0.003,0.136,0.012,3.399,0.010,0.7
16,5783.00,5783.00,0.00,3.539,6075,0.003,0.106,0.010,3.410,0.010,0.5
17,5788.00,5788.00,0.00,3.664,6080,0.003,0.136,0.010,3.505,0.010,0.6
18,5850.00,5850.00,0.00,3.596,6146,0.003,0.108,0.010,3.464,0.010,0.6
19,5905.00,5905.00,0.00,3.552,6204,0.003,0.104,0.010,3.425,0.010,0.6
20,5805.00,5805.00,0.00,3.634,6099,0.003,0.090,0.010,3.521,0.010,0.6
21,5769.00,5769.00,0.00,3.690,6061,0.003,0.093,0.010,3.575,0.010,0.6
22,5890.00,5890.00,0.00,3.584,6188,0.003,0.103,0.010,3.459,0.009,0.6
23,5774.00,5774.00,0.00,3.678,6066,0.003,0.102,0.010,3.554,0.010,0.6
24,5827.00,5827.00,0.00,3.625,6122,0.003,0.110,0.010,3.492,0.010,0.5
25,5848.00,5848.00,0.00,3.604,6143,0.003,0.130,0.010,3.452,0.010,0.7
26,5827.00,5827.00,0.00,3.604,6122,0.003,0.093,0.010,3.489,0.010,0.5
27,5872.00,5872.00,0.00,3.596,6169,0.003,0.108,0.011,3.466,0.009,0.6
28,5843.00,5843.00,0.00,3.626,6138,0.003,0.130,0.010,3.474,0.009,0.7
29,5792.00,5792.00,0.00,3.624,6085,0.003,0.114,0.010,3.488,0.009,0.6
30,5695.00,5695.00,0.00,3.682,5983,0.003,0.128,0.010,3.532,0.009,0.5
31,5821.00,5821.00,0.00,3.600,6115,0.003,0.093,0.010,3.484,0.010,0.5
32,5752.00,5752.00,0.00,3.668,6043,0.003,0.114,0.010,3.532,0.010,0.7
33,5808.00,5804.00,4.00,3.615,6098,0.003,0.103,0.010,3.490,0.009,0.5
34,5841.00,5830.00,11.00,3.587,6125,0.003,0.084,0.010,3.482,0.010,0.5
35,5852.00,5849.00,3.00,3.590,6145,0.003,0.098,0.010,3.470,0.009,0.6
36,5928.00,5922.00,6.00,3.525,6221,0.003,0.125,0.010,3.378,0.010,0.6
37,5865.00,5865.00,0.00,3.581,6161,0.003,0.115,0.010,3.443,0.010,0.7
38,5789.00,5789.00,0.00,3.663,6082,0.003,0.101,0.010,3.540,0.009,0.7
39,5795.00,5795.00,0.00,3.634,6088,0.003,0.101,0.010,3.511,0.009,0.6
40,5848.00,5848.00,0.00,3.606,6144,0.003,0.119,0.010,3.465,0.010,0.7
41,5997.00,5997.00,0.00,3.502,6300,0.003,0.089,0.010,3.391,0.009,0.6
42,5850.00,5850.00,0.00,3.616,6146,0.003,0.097,0.011,3.496,0.009,0.6
43,5851.00,5851.00,0.00,3.601,6147,0.003,0.094,0.011,3.484,0.009,0.5
44,5651.00,5651.00,0.00,3.730,5937,0.003,0.142,0.010,3.566,0.009,0.7
45,5719.00,5719.00,0.00,3.702,6008,0.003,0.115,0.010,3.565,0.009,0.7
46,5824.00,5824.00,0.00,3.613,6119,0.003,0.129,0.010,3.462,0.009,0.6
47,5775.00,5775.00,0.00,3.661,6067,0.003,0.104,0.010,3.536,0.009,0.6
48,5797.00,5797.00,0.00,3.630,6090,0.003,0.095,0.010,3.513,0.009,0.6
49,5734.00,5734.00,0.00,3.670,6024,0.003,0.108,0.010,3.540,0.009,0.6
50,5722.00,5722.00,0.00,3.666,6011,0.003,0.118,0.010,3.526,0.009,0.7
51,5736.00,5736.00,0.00,3.671,6026,0.003,0.106,0.010,3.544,0.009,0.7
52,5712.00,5712.00,0.00,3.658,6001,0.003,0.115,0.010,3.521,0.009,0.7
53,5742.00,5742.00,0.00,3.651,6033,0.003,0.102,0.010,3.527,0.010,0.6
54,5788.00,5788.00,0.00,3.592,6081,0.003,0.125,0.010,3.445,0.010,0.8
55,5691.00,5691.00,0.00,3.709,5979,0.003,0.169,0.010,3.516,0.010,0.9
56,5757.00,5757.00,0.00,3.616,6048,0.003,0.109,0.010,3.485,0.009,0.6
57,5792.00,5792.00,0.00,3.630,6085,0.003,0.140,0.011,3.467,0.010,0.6
58,5771.00,5771.00,0.00,3.652,6063,0.003,0.104,0.010,3.526,0.010,0.6
59,5798.00,5798.00,0.00,3.581,6091,0.003,0.101,0.010,3.457,0.009,0.6
60,5847.00,5847.00,0.00,3.600,6143,0.003,0.111,0.010,3.468,0.010,0.6
61,5832.00,5832.00,0.00,3.605,6127,0.003,0.104,0.010,3.479,0.009,0.5
62,5901.00,5901.00,0.00,3.551,6199,0.003,0.112,0.010,3.417,0.010,0.7
63,5848.00,5848.00,0.00,3.587,6144,0.003,0.098,0.010,3.467,0.010,0.5
64,5919.00,5919.00,0.00,3.541,6218,0.003,0.119,0.010,3.399,0.010,0.7
65,5742.00,5742.00,0.00,3.679,6032,0.003,0.119,0.010,3.536,0.010,0.8
66,5781.00,5781.00,0.00,3.648,6073,0.003,0.113,0.010,3.513,0.009,0.6
67,5772.00,5772.00,0.00,3.635,6064,0.003,0.121,0.010,3.491,0.010,0.7
68,5838.00,5838.00,0.00,3.616,6133,0.003,0.111,0.010,3.483,0.010,0.7
69,5850.00,5850.00,0.00,3.609,6146,0.003,0.097,0.010,3.489,0.010,0.5
70,5918.00,5918.00,0.00,3.507,6217,0.003,0.102,0.010,3.383,0.010,0.5
71,5818.00,5818.00,0.00,3.615,6112,0.003,0.097,0.010,3.496,0.010,0.6
72,5713.00,5713.00,0.00,3.664,6002,0.003,0.145,0.010,3.496,0.010,0.7
73,5697.00,5697.00,0.00,3.697,5985,0.003,0.118,0.010,3.556,0.010,0.8
74,4141.00,4141.00,0.00,3.689,4350,0.003,0.117,0.011,3.549,0.010,0.6
