Second,Ops/sec,Hits/sec,Misses/sec,Latency,KB/sec,Request_Creation_Time,Request_Buffer_Time,MW_Writes_To_Memcached_Time,Memcached_Process_Time,MW_Writes_To_Memtier_Time,Queue_Size
4,2238.00,2238.00,0.00,8.145,2351,0.022,4.426,0.086,3.557,0.054,24.2
5,5922.00,5922.00,0.00,14.980,6222,0.004,9.586,0.009,5.370,0.011,45.0
6,5617.00,5617.00,0.00,16.531,5901,0.004,10.832,0.006,5.680,0.009,46.7
7,5673.00,5673.00,0.00,16.296,5960,0.003,10.654,0.006,5.623,0.010,46.8
8,5618.00,5618.00,0.00,16.454,5902,0.003,10.751,0.006,5.683,0.010,47.0
9,5627.00,5627.00,0.00,16.441,5912,0.003,10.757,0.006,5.664,0.010,46.1
10,5651.00,5651.00,0.00,16.362,5937,0.003,10.694,0.006,5.650,0.010,45.6
11,5734.00,5734.00,0.00,16.108,6024,0.003,10.529,0.006,5.560,0.009,45.5
12,5664.00,5664.00,0.00,16.348,5951,0.003,10.697,0.006,5.632,0.010,46.9
13,5642.00,5642.00,0.00,16.449,5928,0.003,10.773,0.006,5.657,0.010,46.7
14,5644.00,5644.00,0.00,16.332,5929,0.003,10.659,0.006,5.655,0.010,45.7
15,5693.00,5693.00,0.00,16.322,5980,0.003,10.702,0.008,5.599,0.010,46.1
16,5528.00,5528.00,0.00,16.608,5808,0.004,10.819,0.006,5.770,0.010,47.0
17,5640.00,5640.00,0.00,16.430,5926,0.003,10.751,0.006,5.660,0.010,47.0
18,5696.00,5696.00,0.00,16.213,5984,0.003,10.599,0.008,5.594,0.011,46.5
19,5704.00,5704.00,0.00,16.200,5992,0.003,10.585,0.006,5.596,0.010,47.1
20,5673.00,5673.00,0.00,16.380,5960,0.002,10.735,0.006,5.626,0.010,47.1
21,5632.00,5632.00,0.00,16.387,5917,0.002,10.712,0.006,5.656,0.010,45.9
22,5665.00,5665.00,0.00,16.368,5951,0.002,10.721,0.006,5.628,0.010,46.9
23,5615.00,5615.00,0.00,16.339,5899,0.002,10.647,0.006,5.674,0.010,47.0
24,5689.00,5689.00,0.00,16.445,5977,0.002,10.810,0.006,5.617,0.010,46.7
25,5675.00,5675.00,0.00,16.298,5962,0.002,10.658,0.006,5.622,0.010,46.3
26,5671.00,5671.00,0.00,16.305,5958,0.002,10.661,0.006,5.625,0.010,47.2
27,5608.00,5608.00,0.00,16.583,5892,0.002,10.874,0.006,5.691,0.010,47.4
28,5629.00,5629.00,0.00,16.431,5913,0.002,10.763,0.006,5.649,0.010,46.8
29,5650.00,5650.00,0.00,16.410,5936,0.002,10.729,0.006,5.663,0.010,46.9
30,5640.00,5640.00,0.00,16.305,5925,0.002,10.631,0.006,5.655,0.010,46.8
31,5567.00,5567.00,0.00,16.626,5849,0.002,10.875,0.006,5.732,0.010,47.5
32,5556.00,5556.00,0.00,16.652,5837,0.002,10.900,0.006,5.734,0.010,46.3
33,5665.00,5665.00,0.00,16.346,5951,0.002,10.698,0.006,5.629,0.010,46.7
34,5622.00,5622.00,0.00,16.512,5906,0.002,10.816,0.006,5.677,0.010,47.1
35,5684.00,5684.00,0.00,16.248,5972,0.002,10.618,0.006,5.611,0.010,46.3
36,5564.00,5564.00,0.00,16.684,5845,0.002,10.930,0.006,5.735,0.010,47.0
37,5664.00,5664.00,0.00,16.396,5951,0.002,10.746,0.006,5.631,0.010,47.1
38,5728.00,5728.00,0.00,16.151,6018,0.002,10.558,0.006,5.575,0.010,46.5
39,5623.00,5623.00,0.00,16.482,5908,0.002,10.799,0.006,5.665,0.010,46.9
40,5704.00,5704.00,0.00,16.235,5992,0.003,10.619,0.006,5.596,0.011,46.6
41,5658.00,5658.00,0.00,16.355,5944,0.002,10.699,0.006,5.637,0.010,46.8
42,5532.00,5532.00,0.00,16.792,5812,0.002,11.003,0.006,5.769,0.010,47.4
43,5673.00,5673.00,0.00,16.357,5960,0.002,10.713,0.006,5.625,0.010,47.4
44,5666.00,5666.00,0.00,16.330,5952,0.002,10.691,0.006,5.620,0.010,46.8
45,5575.00,5570.00,5.00,16.607,5852,0.003,10.871,0.008,5.714,0.012,47.3
46,5776.00,5744.00,32.00,15.988,6034,0.002,10.444,0.007,5.524,0.011,46.7
47,5754.00,5729.00,25.00,16.112,6019,0.002,10.557,0.007,5.534,0.011,46.3
48,5583.00,5564.00,19.00,16.656,5845,0.002,10.926,0.007,5.709,0.011,48.0
49,5724.00,5717.00,7.00,16.223,6006,0.003,10.632,0.007,5.571,0.011,46.7
50,5708.00,5701.00,7.00,16.201,5989,0.003,10.591,0.007,5.590,0.011,46.3
51,5613.00,5612.00,1.00,16.500,5895,0.002,10.801,0.007,5.679,0.011,46.8
52,5710.00,5710.00,0.00,16.222,5998,0.002,10.619,0.007,5.583,0.011,46.6
53,5656.00,5656.00,0.00,16.315,5941,0.002,10.658,0.007,5.638,0.011,46.5
54,5546.00,5546.00,0.00,16.724,5826,0.002,10.956,0.007,5.748,0.011,47.7
55,5656.00,5656.00,0.00,16.417,5942,0.003,10.751,0.007,5.645,0.011,47.0
56,5652.00,5652.00,0.00,16.362,5938,0.002,10.708,0.007,5.635,0.010,47.6
57,5548.00,5548.00,0.00,16.694,5828,0.002,10.925,0.008,5.748,0.011,47.7
58,5611.00,5611.00,0.00,16.519,5895,0.002,10.816,0.007,5.683,0.011,47.6
59,5644.00,5644.00,0.00,16.396,5929,0.003,10.727,0.007,5.649,0.011,47.3
60,5610.00,5610.00,0.00,16.543,5894,0.003,10.836,0.007,5.687,0.011,47.2
61,5608.00,5608.00,0.00,16.548,5891,0.002,10.847,0.007,5.681,0.010,47.5
62,5748.00,5748.00,0.00,16.049,6039,0.002,10.481,0.007,5.549,0.011,46.2
63,5667.00,5667.00,0.00,16.366,5953,0.003,10.719,0.007,5.626,0.011,47.5
64,5700.00,5700.00,0.00,16.280,5988,0.002,10.675,0.007,5.586,0.010,46.9
65,5749.00,5749.00,0.00,16.109,6040,0.002,10.544,0.007,5.545,0.011,47.2
66,5566.00,5566.00,0.00,16.595,5848,0.003,10.851,0.007,5.723,0.011,47.0
67,5590.00,5590.00,0.00,16.628,5873,0.002,10.906,0.007,5.701,0.012,47.4
68,5720.00,5720.00,0.00,16.171,6010,0.002,10.573,0.006,5.579,0.010,46.0
69,5678.00,5678.00,0.00,16.327,5965,0.002,10.694,0.006,5.614,0.010,47.5
70,5634.00,5634.00,0.00,16.401,5919,0.002,10.720,0.007,5.662,0.011,47.0
71,5684.00,5684.00,0.00,16.321,5972,0.002,10.686,0.007,5.615,0.011,47.3
72,5625.00,5625.00,0.00,16.432,5910,0.002,10.749,0.006,5.663,0.010,46.5
73,5627.00,5627.00,0.00,16.443,5912,0.002,10.755,0.006,5.669,0.011,47.7
74,4361.00,4361.00,0.00,15.086,4582,0.003,9.761,0.008,5.304,0.011,41.2
75,1067.00,1067.00,0.00,0.785,1121,0.006,0.072,0.022,0.669,0.016,0.0
