Second,Ops/sec,Hits/sec,Misses/sec,Latency,KB/sec,Request_Creation_Time,Request_Buffer_Time,MW_Writes_To_Memcached_Time,Memcached_Process_Time,MW_Writes_To_Memtier_Time,Queue_Size
4,2011.00,2011.00,0.00,2.769,2113,0.017,0.234,0.072,2.395,0.050,0.8
5,5698.00,5698.00,0.00,3.548,5986,0.004,0.088,0.012,3.432,0.012,0.5
6,5808.00,5808.00,0.00,3.607,6102,0.004,0.094,0.011,3.489,0.010,0.5
7,5892.00,5892.00,0.00,3.571,6190,0.003,0.119,0.011,3.427,0.010,0.5
8,5782.00,5782.00,0.00,3.602,6074,0.004,0.102,0.011,3.475,0.010,0.5
9,5900.00,5900.00,0.00,3.559,6198,0.003,0.129,0.011,3.406,0.010,0.6
10,5815.00,5815.00,0.00,3.648,6109,0.004,0.107,0.011,3.516,0.010,0.5
11,5825.00,5825.00,0.00,3.581,6120,0.004,0.112,0.011,3.444,0.010,0.5
12,5767.00,5767.00,0.00,3.678,6059,0.003,0.097,0.011,3.557,0.010,0.6
13,5886.00,5886.00,0.00,3.532,6184,0.003,0.104,0.011,3.404,0.010,0.6
14,5730.00,5722.00,8.00,3.660,6011,0.003,0.113,0.011,3.522,0.011,0.5
15,5828.00,5812.00,16.00,3.601,6106,0.004,0.115,0.011,3.461,0.010,0.6
16,5803.00,5803.00,0.00,3.587,6096,0.003,0.104,0.011,3.459,0.010,0.5
17,5710.00,5710.00,0.00,3.662,5999,0.003,0.120,0.011,3.518,0.010,0.7
18,5857.00,5857.00,0.00,3.581,6153,0.003,0.110,0.011,3.446,0.010,0.5
19,5988.00,5988.00,0.00,3.486,6291,0.003,0.097,0.011,3.367,0.010,0.5
20,5792.00,5792.00,0.00,3.638,6085,0.003,0.138,0.011,3.477,0.010,0.7
21,5912.00,5912.00,0.00,3.540,6211,0.003,0.096,0.011,3.420,0.010,0.5
22,5847.00,5847.00,0.00,3.618,6142,0.003,0.107,0.011,3.488,0.010,0.6
23,5702.00,5702.00,0.00,3.725,5990,0.003,0.143,0.011,3.558,0.010,0.6
24,5833.00,5833.00,0.00,3.594,6128,0.003,0.098,0.010,3.474,0.010,0.6
25,5813.00,5813.00,0.00,3.642,6107,0.003,0.113,0.010,3.506,0.010,0.5
26,5786.00,5786.00,0.00,3.660,6078,0.003,0.093,0.010,3.544,0.010,0.6
27,5914.00,5914.00,0.00,3.570,6213,0.003,0.104,0.010,3.444,0.010,0.5
28,5828.00,5828.00,0.00,3.627,6123,0.003,0.121,0.010,3.483,0.010,0.6
29,5722.00,5722.00,0.00,3.692,6011,0.003,0.123,0.010,3.546,0.010,0.7
30,6036.00,6036.00,0.00,3.441,6341,0.003,0.104,0.010,3.314,0.010,0.5
31,5828.00,5828.00,0.00,3.628,6123,0.003,0.101,0.010,3.504,0.010,0.5
32,5754.00,5753.00,1.00,3.672,6044,0.003,0.114,0.010,3.535,0.010,0.7
33,5883.00,5882.00,1.00,3.594,6180,0.003,0.086,0.010,3.484,0.010,0.5
34,5912.00,5902.00,10.00,3.573,6201,0.003,0.091,0.010,3.459,0.010,0.5
35,5710.00,5701.00,9.00,3.681,5989,0.003,0.130,0.010,3.528,0.010,0.6
36,5818.00,5815.00,3.00,3.596,6109,0.003,0.121,0.010,3.452,0.010,0.5
37,5925.00,5925.00,0.00,3.537,6225,0.003,0.106,0.010,3.409,0.010,0.6
38,5695.00,5695.00,0.00,3.710,5983,0.003,0.139,0.011,3.547,0.010,0.6
39,5752.00,5752.00,0.00,3.638,6043,0.003,0.147,0.010,3.467,0.011,0.6
40,5884.00,5884.00,0.00,3.547,6182,0.003,0.087,0.010,3.437,0.010,0.5
41,5777.00,5777.00,0.00,3.647,6069,0.003,0.099,0.010,3.524,0.010,0.5
42,5753.00,5753.00,0.00,3.671,6044,0.003,0.096,0.010,3.552,0.010,0.5
43,5723.00,5723.00,0.00,3.696,6012,0.003,0.115,0.011,3.557,0.010,0.6
44,5762.00,5762.00,0.00,3.647,6053,0.003,0.097,0.011,3.527,0.010,0.6
45,5726.00,5726.00,0.00,3.649,6016,0.003,0.132,0.010,3.493,0.010,0.6
46,6064.00,6064.00,0.00,3.463,6371,0.003,0.093,0.010,3.347,0.010,0.7
47,5862.00,5862.00,0.00,3.596,6159,0.003,0.096,0.010,3.477,0.010,0.6
48,5702.00,5702.00,0.00,3.687,5990,0.003,0.146,0.011,3.517,0.010,0.7
49,5694.00,5694.00,0.00,3.708,5982,0.003,0.120,0.010,3.566,0.010,0.7
50,5863.00,5863.00,0.00,3.586,6160,0.003,0.093,0.010,3.470,0.010,0.6
51,5777.00,5777.00,0.00,3.638,6069,0.003,0.097,0.010,3.517,0.010,0.5
52,5816.00,5816.00,0.00,3.590,6110,0.005,0.111,0.010,3.454,0.010,0.7
53,5820.00,5820.00,0.00,3.605,6114,0.003,0.087,0.010,3.497,0.010,0.6
54,5914.00,5914.00,0.00,3.562,6213,0.003,0.098,0.010,3.441,0.010,0.6
55,5738.00,5738.00,0.00,3.686,6028,0.003,0.098,0.010,3.565,0.010,0.6
56,5686.00,5686.00,0.00,3.735,5973,0.003,0.107,0.010,3.605,0.010,0.6
57,5748.00,5748.00,0.00,3.669,6039,0.003,0.105,0.012,3.539,0.011,0.6
58,5763.00,5763.00,0.00,3.658,6054,0.003,0.095,0.010,3.539,0.010,0.5
59,5790.00,5790.00,0.00,3.641,6083,0.003,0.105,0.010,3.513,0.010,0.6
60,5649.00,5649.00,0.00,3.747,5935,0.003,0.118,0.011,3.605,0.010,0.6
61,5804.00,5804.00,0.00,3.624,6098,0.003,0.092,0.010,3.509,0.010,0.6
62,5852.00,5852.00,0.00,3.621,6148,0.003,0.098,0.010,3.500,0.010,0.6
63,5778.00,5778.00,0.00,3.642,6070,0.003,0.102,0.010,3.517,0.010,0.6
64,5755.00,5755.00,0.00,3.661,6046,0.003,0.095,0.010,3.543,0.010,0.7
65,5963.00,5963.00,0.00,3.520,6265,0.003,0.112,0.010,3.386,0.010,0.6
66,5899.00,5899.00,0.00,3.591,6197,0.003,0.089,0.010,3.479,0.010,0.5
67,5916.00,5916.00,0.00,3.555,6215,0.003,0.113,0.010,3.420,0.010,0.6
68,5999.00,5999.00,0.00,3.504,6302,0.003,0.115,0.010,3.366,0.010,0.6
69,5823.00,5823.00,0.00,3.627,6117,0.003,0.113,0.010,3.491,0.010,0.7
70,5861.00,5861.00,0.00,3.577,6157,0.003,0.098,0.010,3.455,0.012,0.5
71,5778.00,5778.00,0.00,3.598,6070,0.003,0.135,0.011,3.440,0.010,0.6
72,5876.00,5876.00,0.00,3.552,6173,0.003,0.102,0.010,3.427,0.010,0.6
73,5854.00,5854.00,0.00,3.616,6150,0.003,0.096,0.010,3.496,0.010,0.6
74,3941.00,3941.00,0.00,3.632,4140,0.003,0.086,0.010,3.523,0.010,0.6
