Second,Ops/sec,Hits/sec,Misses/sec,Latency,KB/sec,Request_Creation_Time,Request_Buffer_Time,MW_Writes_To_Memcached_Time,Memcached_Process_Time,MW_Writes_To_Memtier_Time,Queue_Size
4,1475.00,1475.00,0.00,1.307,811,0.022,0.096,0.035,1.123,0.032,0.4
5,6320.00,6320.00,0.00,1.311,3474,0.005,0.103,0.014,1.176,0.014,0.4
6,6850.00,6850.00,0.00,1.269,3765,0.004,0.080,0.012,1.162,0.011,0.4
7,6407.00,6407.00,0.00,1.356,3521,0.004,0.099,0.012,1.229,0.011,0.4
8,6919.00,6919.00,0.00,1.263,3803,0.004,0.079,0.012,1.157,0.011,0.4
9,6514.00,6502.00,12.00,1.325,3573,0.004,0.125,0.012,1.172,0.011,0.4
10,6830.00,6830.00,0.00,1.276,3754,0.004,0.118,0.011,1.132,0.011,0.4
11,6676.00,6676.00,0.00,1.317,3669,0.004,0.091,0.012,1.200,0.011,0.4
12,6743.00,6743.00,0.00,1.308,3706,0.004,0.078,0.012,1.205,0.011,0.3
13,6438.00,6438.00,0.00,1.370,3538,0.003,0.085,0.012,1.259,0.011,0.4
14,6071.00,6071.00,0.00,1.447,3336,0.004,0.089,0.012,1.330,0.012,0.3
15,6291.00,6291.00,0.00,1.426,3457,0.004,0.082,0.012,1.318,0.011,0.3
16,6620.00,6620.00,0.00,1.306,3638,0.003,0.105,0.011,1.175,0.011,0.5
17,6887.00,6885.00,2.00,1.281,3784,0.003,0.084,0.011,1.172,0.011,0.3
18,6524.00,6514.00,10.00,1.356,3580,0.003,0.083,0.012,1.247,0.011,0.4
19,6533.00,6533.00,0.00,1.363,3590,0.003,0.085,0.011,1.252,0.011,0.4
20,6933.00,6933.00,0.00,1.253,3810,0.003,0.083,0.011,1.144,0.011,0.3
21,6930.00,6930.00,0.00,1.212,3809,0.003,0.104,0.011,1.083,0.011,0.4
22,6762.00,6762.00,0.00,1.277,3716,0.003,0.087,0.011,1.164,0.011,0.3
23,6928.00,6928.00,0.00,1.278,3808,0.003,0.072,0.011,1.181,0.011,0.3
24,6650.00,6650.00,0.00,1.320,3655,0.003,0.089,0.011,1.207,0.011,0.4
25,6426.00,6426.00,0.00,1.362,3532,0.003,0.102,0.011,1.234,0.011,0.4
26,6376.00,6376.00,0.00,1.356,3504,0.003,0.126,0.011,1.204,0.011,0.4
27,6558.00,6558.00,0.00,1.313,3604,0.004,0.093,0.011,1.194,0.011,0.4
28,6385.00,6385.00,0.00,1.392,3509,0.003,0.079,0.011,1.288,0.011,0.3
29,6254.00,6254.00,0.00,1.403,3437,0.003,0.110,0.011,1.267,0.012,0.5
30,6568.00,6568.00,0.00,1.349,3610,0.003,0.083,0.013,1.238,0.012,0.4
31,6273.00,6273.00,0.00,1.415,3448,0.003,0.089,0.012,1.299,0.011,0.3
32,7016.00,7016.00,0.00,1.216,3856,0.003,0.081,0.011,1.110,0.010,0.4
33,6499.00,6499.00,0.00,1.391,3572,0.003,0.082,0.011,1.283,0.011,0.3
34,6429.00,6429.00,0.00,1.381,3533,0.003,0.080,0.012,1.275,0.011,0.4
35,6718.00,6718.00,0.00,1.299,3692,0.003,0.074,0.011,1.199,0.011,0.4
36,6724.00,6724.00,0.00,1.290,3695,0.003,0.094,0.011,1.172,0.011,0.3
37,6655.00,6655.00,0.00,1.327,3658,0.003,0.080,0.011,1.223,0.011,0.3
38,6828.00,6828.00,0.00,1.290,3753,0.003,0.063,0.011,1.202,0.011,0.3
39,6407.00,6407.00,0.00,1.382,3521,0.003,0.082,0.011,1.275,0.011,0.4
40,6567.00,6566.00,1.00,1.359,3609,0.003,0.083,0.011,1.252,0.011,0.4
41,6099.00,6091.00,8.00,1.478,3348,0.003,0.147,0.011,1.306,0.011,0.6
42,6499.00,6495.00,4.00,1.351,3570,0.003,0.098,0.012,1.226,0.011,0.4
43,6274.00,6274.00,0.00,1.430,3448,0.003,0.093,0.012,1.312,0.010,0.4
44,7343.00,7333.00,10.00,1.163,4030,0.003,0.086,0.011,1.053,0.011,0.4
45,7277.00,7267.00,10.00,1.160,3994,0.003,0.083,0.012,1.052,0.011,0.4
46,6809.00,6806.00,3.00,1.262,3740,0.003,0.102,0.011,1.135,0.011,0.4
47,6521.00,6521.00,0.00,1.340,3584,0.003,0.087,0.012,1.226,0.011,0.4
48,6056.00,6056.00,0.00,1.419,3328,0.003,0.081,0.012,1.311,0.011,0.3
49,6546.00,6546.00,0.00,1.326,3598,0.003,0.108,0.012,1.192,0.011,0.3
50,6247.00,6247.00,0.00,1.421,3433,0.003,0.073,0.011,1.322,0.012,0.3
51,6610.00,6610.00,0.00,1.351,3632,0.003,0.090,0.013,1.235,0.011,0.4
52,6971.00,6971.00,0.00,1.238,3831,0.003,0.095,0.011,1.118,0.011,0.3
53,6930.00,6930.00,0.00,1.266,3809,0.003,0.086,0.011,1.154,0.011,0.3
54,6790.00,6790.00,0.00,1.310,3732,0.003,0.067,0.011,1.217,0.011,0.3
55,6533.00,6533.00,0.00,1.362,3590,0.003,0.079,0.011,1.258,0.011,0.3
56,6991.00,6991.00,0.00,1.240,3842,0.003,0.078,0.011,1.136,0.011,0.3
57,7551.00,7551.00,0.00,1.090,4150,0.003,0.075,0.011,0.990,0.011,0.3
58,6524.00,6524.00,0.00,1.369,3585,0.003,0.086,0.011,1.258,0.011,0.3
59,6363.00,6363.00,0.00,1.409,3497,0.003,0.076,0.011,1.308,0.011,0.4
60,6421.00,6421.00,0.00,1.402,3529,0.003,0.086,0.011,1.291,0.011,0.3
61,6306.00,6306.00,0.00,1.390,3466,0.003,0.100,0.011,1.264,0.011,0.3
62,6531.00,6531.00,0.00,1.369,3589,0.003,0.097,0.011,1.247,0.011,0.4
63,6545.00,6545.00,0.00,1.360,3597,0.003,0.078,0.011,1.255,0.012,0.3
64,6344.00,6344.00,0.00,1.392,3487,0.004,0.086,0.011,1.280,0.011,0.4
65,6310.00,6310.00,0.00,1.424,3468,0.003,0.091,0.011,1.307,0.011,0.3
66,6708.00,6708.00,0.00,1.312,3687,0.003,0.090,0.011,1.196,0.011,0.4
67,6591.00,6591.00,0.00,1.353,3622,0.003,0.098,0.011,1.229,0.012,0.4
68,6767.00,6767.00,0.00,1.262,3719,0.003,0.093,0.012,1.143,0.011,0.5
69,6672.00,6672.00,0.00,1.328,3667,0.003,0.088,0.012,1.214,0.011,0.3
70,6701.00,6701.00,0.00,1.343,3683,0.003,0.084,0.011,1.234,0.011,0.4
71,6355.00,6355.00,0.00,1.386,3493,0.003,0.111,0.011,1.250,0.011,0.4
72,6981.00,6981.00,0.00,1.198,3837,0.003,0.089,0.011,1.083,0.011,0.4
73,6607.00,6607.00,0.00,1.321,3631,0.003,0.124,0.011,1.172,0.011,0.5
74,4914.00,4914.00,0.00,1.341,2701,0.003,0.119,0.011,1.198,0.011,0.5
