Second,Ops/sec,Hits/sec,Misses/sec,Latency,KB/sec,Request_Creation_Time,Request_Buffer_Time,MW_Writes_To_Memcached_Time,Memcached_Process_Time,MW_Writes_To_Memtier_Time,Queue_Size
4,1859.00,1859.00,0.00,1.338,557,0.013,0.149,0.039,1.112,0.025,0.4
5,5700.00,5700.00,0.00,1.510,1708,0.005,0.082,0.013,1.398,0.012,0.3
6,6109.00,6109.00,0.00,1.481,1830,0.004,0.084,0.012,1.370,0.011,0.4
7,6786.00,6786.00,0.00,1.330,2033,0.004,0.073,0.012,1.229,0.012,0.4
8,6463.00,6463.00,0.00,1.378,1936,0.004,0.067,0.012,1.284,0.011,0.3
9,6605.00,6593.00,12.00,1.330,1975,0.004,0.075,0.013,1.226,0.012,0.3
10,6549.00,6549.00,0.00,1.364,1962,0.004,0.081,0.013,1.254,0.012,0.3
11,6308.00,6308.00,0.00,1.431,1890,0.004,0.080,0.012,1.324,0.011,0.4
12,6562.00,6562.00,0.00,1.370,1966,0.004,0.071,0.012,1.273,0.011,0.3
13,6325.00,6325.00,0.00,1.420,1895,0.005,0.122,0.012,1.271,0.011,0.5
14,6305.00,6305.00,0.00,1.386,1889,0.004,0.071,0.012,1.288,0.011,0.3
15,6885.00,6885.00,0.00,1.248,2063,0.003,0.083,0.013,1.137,0.012,0.4
16,6712.00,6712.00,0.00,1.334,2011,0.003,0.096,0.012,1.212,0.011,0.4
17,6566.00,6564.00,2.00,1.364,1967,0.003,0.083,0.012,1.256,0.010,0.3
18,6101.00,6092.00,9.00,1.482,1825,0.003,0.085,0.012,1.369,0.012,0.4
19,6486.00,6485.00,1.00,1.391,1943,0.003,0.088,0.012,1.278,0.011,0.4
20,6757.00,6757.00,0.00,1.322,2024,0.003,0.080,0.012,1.217,0.011,0.4
21,6079.00,6079.00,0.00,1.484,1821,0.003,0.098,0.011,1.361,0.011,0.4
22,6303.00,6303.00,0.00,1.457,1888,0.003,0.076,0.012,1.355,0.011,0.4
23,6516.00,6516.00,0.00,1.357,1952,0.003,0.078,0.011,1.253,0.011,0.3
24,6392.00,6392.00,0.00,1.415,1915,0.003,0.103,0.012,1.286,0.011,0.4
25,7140.00,7140.00,0.00,1.222,2139,0.003,0.092,0.012,1.104,0.011,0.3
26,7191.00,7191.00,0.00,1.203,2155,0.003,0.096,0.012,1.081,0.011,0.4
27,6732.00,6732.00,0.00,1.325,2017,0.003,0.090,0.012,1.210,0.011,0.4
28,6617.00,6617.00,0.00,1.347,1982,0.003,0.074,0.012,1.247,0.011,0.3
29,6794.00,6794.00,0.00,1.281,2035,0.003,0.079,0.012,1.176,0.011,0.4
30,7011.00,7011.00,0.00,1.239,2100,0.003,0.071,0.011,1.143,0.011,0.3
31,6021.00,6021.00,0.00,1.514,1804,0.003,0.080,0.012,1.408,0.011,0.3
32,6933.00,6933.00,0.00,1.255,2077,0.003,0.087,0.012,1.142,0.012,0.4
33,6767.00,6767.00,0.00,1.293,2027,0.003,0.089,0.011,1.178,0.011,0.4
34,6191.00,6191.00,0.00,1.459,1855,0.003,0.098,0.011,1.335,0.011,0.4
35,6421.00,6421.00,0.00,1.405,1924,0.003,0.086,0.012,1.294,0.011,0.3
36,6312.00,6312.00,0.00,1.413,1891,0.003,0.104,0.011,1.284,0.011,0.4
37,6255.00,6255.00,0.00,1.449,1874,0.003,0.086,0.012,1.337,0.011,0.4
38,6572.00,6572.00,0.00,1.329,1969,0.003,0.087,0.012,1.216,0.011,0.4
39,6713.00,6712.00,1.00,1.313,2011,0.003,0.077,0.011,1.210,0.011,0.4
40,6434.00,6433.00,1.00,1.383,1927,0.003,0.131,0.012,1.225,0.012,0.5
41,6872.00,6869.00,3.00,1.229,2058,0.004,0.105,0.011,1.098,0.011,0.4
42,6273.00,6267.00,6.00,1.403,1878,0.003,0.156,0.011,1.222,0.011,0.5
43,6186.00,6182.00,4.00,1.445,1852,0.003,0.093,0.012,1.324,0.012,0.4
44,6242.00,6238.00,4.00,1.412,1869,0.003,0.115,0.012,1.270,0.012,0.5
45,6344.00,6336.00,8.00,1.430,1898,0.003,0.065,0.011,1.340,0.011,0.3
46,5799.00,5793.00,6.00,1.557,1736,0.003,0.105,0.013,1.423,0.012,0.4
47,6138.00,6135.00,3.00,1.448,1838,0.003,0.130,0.011,1.293,0.011,0.4
48,6302.00,6302.00,0.00,1.397,1888,0.004,0.105,0.011,1.265,0.011,0.4
49,6472.00,6472.00,0.00,1.382,1939,0.003,0.083,0.011,1.274,0.011,0.4
50,6510.00,6510.00,0.00,1.351,1950,0.003,0.074,0.011,1.251,0.011,0.4
51,6079.00,6079.00,0.00,1.479,1821,0.003,0.085,0.011,1.367,0.012,0.4
52,6064.00,6064.00,0.00,1.510,1816,0.003,0.090,0.011,1.395,0.011,0.4
53,6358.00,6358.00,0.00,1.388,1905,0.003,0.091,0.012,1.270,0.012,0.4
54,6091.00,6091.00,0.00,1.474,1825,0.003,0.121,0.012,1.327,0.011,0.4
55,6483.00,6483.00,0.00,1.381,1942,0.003,0.075,0.011,1.280,0.011,0.4
56,6336.00,6336.00,0.00,1.436,1898,0.003,0.102,0.012,1.308,0.011,0.3
57,6400.00,6400.00,0.00,1.412,1917,0.003,0.083,0.011,1.304,0.011,0.4
58,6557.00,6557.00,0.00,1.369,1964,0.003,0.076,0.012,1.267,0.011,0.3
59,6669.00,6669.00,0.00,1.361,1998,0.003,0.079,0.011,1.257,0.011,0.4
60,6520.00,6520.00,0.00,1.391,1953,0.003,0.071,0.011,1.294,0.011,0.3
61,6270.00,6270.00,0.00,1.425,1878,0.003,0.087,0.011,1.313,0.011,0.3
62,6475.00,6475.00,0.00,1.410,1940,0.003,0.090,0.011,1.294,0.011,0.4
63,6699.00,6699.00,0.00,1.322,2007,0.003,0.078,0.011,1.219,0.011,0.3
64,6546.00,6546.00,0.00,1.361,1961,0.003,0.082,0.011,1.253,0.011,0.4
65,6722.00,6722.00,0.00,1.353,2014,0.003,0.082,0.011,1.246,0.011,0.3
66,6460.00,6460.00,0.00,1.409,1935,0.003,0.073,0.011,1.309,0.012,0.3
67,6388.00,6388.00,0.00,1.400,1914,0.003,0.082,0.011,1.293,0.011,0.4
68,6203.00,6203.00,0.00,1.457,1858,0.003,0.125,0.011,1.306,0.011,0.4
69,6852.00,6852.00,0.00,1.313,2053,0.003,0.072,0.011,1.216,0.011,0.3
70,6568.00,6568.00,0.00,1.343,1968,0.003,0.074,0.011,1.244,0.011,0.3
71,6335.00,6335.00,0.00,1.430,1898,0.003,0.078,0.011,1.327,0.012,0.4
72,6630.00,6630.00,0.00,1.339,1986,0.003,0.075,0.011,1.238,0.011,0.4
73,6488.00,6488.00,0.00,1.373,1944,0.003,0.079,0.011,1.269,0.011,0.4
74,4247.00,4247.00,0.00,1.432,1272,0.003,0.077,0.012,1.327,0.014,0.3
