Second,Ops/sec,Hits/sec,Misses/sec,Latency,KB/sec,Request_Creation_Time,Request_Buffer_Time,MW_Writes_To_Memcached_Time,Memcached_Process_Time,MW_Writes_To_Memtier_Time,Queue_Size
4,1555.00,1555.00,0.00,1.123,466,0.020,0.121,0.044,0.906,0.031,0.3
5,6363.00,6363.00,0.00,1.312,1906,0.005,0.090,0.014,1.189,0.015,0.3
6,6016.00,6016.00,0.00,1.480,1802,0.004,0.076,0.012,1.378,0.011,0.3
7,6197.00,6197.00,0.00,1.464,1857,0.004,0.099,0.012,1.339,0.011,0.3
8,6482.00,6482.00,0.00,1.405,1942,0.004,0.073,0.012,1.306,0.011,0.3
9,6288.00,6276.00,12.00,1.407,1880,0.004,0.088,0.013,1.289,0.013,0.4
10,6739.00,6739.00,0.00,1.301,2019,0.004,0.080,0.011,1.195,0.011,0.3
11,6531.00,6531.00,0.00,1.397,1957,0.004,0.088,0.011,1.282,0.011,0.4
12,6844.00,6844.00,0.00,1.286,2050,0.004,0.109,0.011,1.152,0.010,0.4
13,6288.00,6288.00,0.00,1.435,1884,0.003,0.099,0.012,1.311,0.011,0.3
14,6172.00,6172.00,0.00,1.427,1849,0.003,0.101,0.011,1.300,0.010,0.4
15,5243.00,5243.00,0.00,1.514,1571,0.004,0.122,0.012,1.364,0.012,0.6
16,6147.00,6147.00,0.00,1.439,1841,0.003,0.094,0.012,1.318,0.012,0.3
17,6579.00,6579.00,0.00,1.364,1971,0.003,0.083,0.011,1.256,0.011,0.4
18,5965.00,5956.00,9.00,1.464,1785,0.003,0.119,0.013,1.319,0.011,0.4
19,6252.00,6249.00,3.00,1.447,1872,0.003,0.120,0.012,1.302,0.011,0.4
20,6403.00,6403.00,0.00,1.398,1918,0.003,0.131,0.012,1.241,0.011,0.5
21,5939.00,5939.00,0.00,1.528,1779,0.003,0.123,0.012,1.380,0.011,0.4
22,6187.00,6187.00,0.00,1.478,1854,0.003,0.097,0.012,1.355,0.011,0.4
23,6488.00,6488.00,0.00,1.382,1944,0.003,0.098,0.011,1.259,0.011,0.4
24,6805.00,6805.00,0.00,1.305,2039,0.003,0.072,0.011,1.209,0.011,0.4
25,6340.00,6340.00,0.00,1.437,1899,0.003,0.095,0.011,1.317,0.011,0.4
26,6179.00,6179.00,0.00,1.474,1851,0.003,0.097,0.011,1.352,0.011,0.4
27,6743.00,6743.00,0.00,1.340,2020,0.003,0.086,0.011,1.228,0.011,0.4
28,6476.00,6476.00,0.00,1.395,1940,0.003,0.086,0.012,1.283,0.012,0.4
29,6268.00,6268.00,0.00,1.454,1878,0.003,0.091,0.012,1.337,0.011,0.3
30,6626.00,6626.00,0.00,1.347,1985,0.003,0.086,0.012,1.235,0.011,0.4
31,6483.00,6483.00,0.00,1.380,1942,0.003,0.099,0.012,1.255,0.011,0.4
32,6472.00,6472.00,0.00,1.416,1939,0.003,0.076,0.011,1.314,0.011,0.4
33,6578.00,6578.00,0.00,1.348,1971,0.003,0.091,0.012,1.231,0.011,0.3
34,6804.00,6804.00,0.00,1.319,2038,0.003,0.084,0.011,1.210,0.011,0.3
35,6184.00,6184.00,0.00,1.481,1853,0.003,0.107,0.011,1.349,0.011,0.3
36,6425.00,6425.00,0.00,1.419,1925,0.003,0.118,0.011,1.275,0.011,0.4
37,6634.00,6634.00,0.00,1.360,1987,0.003,0.087,0.011,1.249,0.011,0.3
38,6510.00,6510.00,0.00,1.365,1950,0.003,0.089,0.012,1.250,0.011,0.4
39,6656.00,6656.00,0.00,1.373,1994,0.003,0.070,0.011,1.279,0.011,0.3
40,6521.00,6521.00,0.00,1.367,1954,0.003,0.083,0.011,1.259,0.011,0.3
41,6394.00,6393.00,1.00,1.419,1916,0.003,0.079,0.011,1.315,0.011,0.3
42,6525.00,6518.00,7.00,1.363,1953,0.003,0.094,0.011,1.243,0.011,0.4
43,6393.00,6390.00,3.00,1.410,1914,0.003,0.088,0.012,1.296,0.011,0.3
44,6581.00,6578.00,3.00,1.366,1971,0.003,0.081,0.011,1.259,0.011,0.3
45,6821.00,6812.00,9.00,1.312,2041,0.003,0.074,0.011,1.213,0.011,0.3
46,6620.00,6611.00,9.00,1.349,1981,0.003,0.074,0.011,1.249,0.011,0.3
47,6504.00,6501.00,3.00,1.393,1948,0.003,0.079,0.011,1.288,0.011,0.3
48,6316.00,6315.00,1.00,1.436,1892,0.003,0.102,0.012,1.308,0.011,0.4
49,6585.00,6585.00,0.00,1.380,1973,0.003,0.073,0.011,1.281,0.011,0.3
50,6748.00,6748.00,0.00,1.322,2022,0.003,0.068,0.011,1.229,0.012,0.3
51,7034.00,7034.00,0.00,1.253,2107,0.003,0.086,0.012,1.141,0.011,0.4
52,6473.00,6473.00,0.00,1.391,1939,0.003,0.076,0.012,1.290,0.011,0.3
53,6098.00,6098.00,0.00,1.490,1827,0.003,0.098,0.012,1.366,0.012,0.4
54,6701.00,6701.00,0.00,1.334,2008,0.003,0.089,0.011,1.221,0.011,0.4
55,6527.00,6527.00,0.00,1.364,1956,0.003,0.073,0.012,1.265,0.011,0.3
56,6306.00,6306.00,0.00,1.439,1889,0.003,0.103,0.012,1.310,0.011,0.4
57,6418.00,6418.00,0.00,1.412,1923,0.004,0.097,0.011,1.288,0.011,0.3
58,6685.00,6685.00,0.00,1.311,2003,0.003,0.081,0.011,1.205,0.011,0.3
59,5975.00,5975.00,0.00,1.516,1790,0.003,0.094,0.017,1.391,0.011,0.4
60,6306.00,6306.00,0.00,1.416,1889,0.003,0.087,0.011,1.302,0.012,0.4
61,6853.00,6853.00,0.00,1.272,2053,0.003,0.083,0.011,1.164,0.012,0.4
62,6239.00,6239.00,0.00,1.460,1869,0.003,0.096,0.011,1.339,0.011,0.4
63,6633.00,6633.00,0.00,1.376,1987,0.003,0.077,0.011,1.274,0.011,0.3
64,6159.00,6159.00,0.00,1.425,1845,0.003,0.096,0.011,1.303,0.011,0.4
65,6553.00,6553.00,0.00,1.373,1963,0.003,0.070,0.011,1.278,0.011,0.3
66,6084.00,6084.00,0.00,1.527,1823,0.003,0.090,0.011,1.412,0.011,0.3
67,6244.00,6244.00,0.00,1.453,1871,0.003,0.078,0.012,1.348,0.011,0.3
68,6357.00,6357.00,0.00,1.419,1905,0.003,0.108,0.011,1.285,0.011,0.4
69,6184.00,6184.00,0.00,1.485,1853,0.003,0.109,0.012,1.349,0.011,0.4
70,6304.00,6304.00,0.00,1.438,1889,0.003,0.120,0.011,1.292,0.011,0.4
71,6407.00,6407.00,0.00,1.404,1919,0.003,0.082,0.012,1.296,0.012,0.4
72,6190.00,6190.00,0.00,1.472,1854,0.003,0.080,0.011,1.366,0.011,0.4
73,6589.00,6589.00,0.00,1.353,1974,0.003,0.080,0.011,1.248,0.011,0.4
74,4494.00,4494.00,0.00,1.447,1346,0.003,0.106,0.012,1.313,0.012,0.4
