Second,Ops/sec,Hits/sec,Misses/sec,Latency,KB/sec,Request_Creation_Time,Request_Buffer_Time,MW_Writes_To_Memcached_Time,Memcached_Process_Time,MW_Writes_To_Memtier_Time,Queue_Size
4,2737.00,2737.00,0.00,3.623,1505,0.021,0.888,0.038,2.555,0.121,8.3
5,12498.00,12498.00,0.00,6.461,6870,0.005,1.713,0.009,4.722,0.012,8.4
6,10697.00,10697.00,0.00,8.156,5879,0.004,2.464,0.008,5.671,0.009,8.9
7,10680.00,10680.00,0.00,8.307,5870,0.004,2.510,0.009,5.776,0.009,9.1
8,10741.00,10741.00,0.00,8.233,5903,0.003,2.495,0.008,5.717,0.009,9.1
9,10560.00,10560.00,0.00,8.445,5804,0.003,2.580,0.008,5.845,0.009,9.5
10,10780.00,10780.00,0.00,8.231,5924,0.003,2.493,0.008,5.717,0.009,9.0
11,10881.00,10881.00,0.00,8.085,5980,0.003,2.409,0.008,5.657,0.009,9.5
12,10620.00,10620.00,0.00,8.296,5836,0.003,2.475,0.008,5.801,0.009,9.7
13,10674.00,10674.00,0.00,8.321,5866,0.003,2.554,0.008,5.748,0.009,10.0
14,10680.00,10680.00,0.00,8.325,5870,0.003,2.537,0.009,5.768,0.009,10.0
15,10593.00,10593.00,0.00,8.327,5822,0.003,2.567,0.008,5.740,0.009,9.7
16,10859.00,10859.00,0.00,8.180,5968,0.003,2.475,0.008,5.686,0.010,8.8
17,10758.00,10758.00,0.00,8.269,5912,0.003,2.505,0.008,5.744,0.009,8.5
18,10498.00,10498.00,0.00,8.326,5770,0.003,2.482,0.008,5.824,0.009,9.4
19,10584.00,10584.00,0.00,8.431,5817,0.003,2.586,0.008,5.825,0.009,9.6
20,10919.00,10919.00,0.00,8.114,6001,0.003,2.468,0.008,5.625,0.010,8.9
21,10542.00,10542.00,0.00,8.372,5794,0.003,2.536,0.008,5.816,0.009,9.6
22,10949.00,10949.00,0.00,8.088,6018,0.003,2.491,0.008,5.578,0.009,9.5
23,10854.00,10854.00,0.00,8.232,5965,0.003,2.519,0.008,5.693,0.009,9.7
24,10307.00,10307.00,0.00,8.594,5665,0.003,2.610,0.008,5.964,0.010,9.3
25,10634.00,10621.00,13.00,8.363,5837,0.003,2.529,0.009,5.811,0.011,9.5
26,10737.00,10707.00,30.00,8.289,5884,0.003,2.525,0.008,5.743,0.010,9.8
27,10683.00,10660.00,23.00,8.272,5858,0.003,2.495,0.009,5.756,0.010,8.7
28,10660.00,10645.00,15.00,8.351,5850,0.003,2.552,0.009,5.777,0.010,10.0
29,10766.00,10751.00,15.00,8.260,5908,0.003,2.503,0.009,5.736,0.010,9.4
30,10665.00,10665.00,0.00,8.257,5861,0.003,2.479,0.009,5.757,0.010,9.3
31,10737.00,10737.00,0.00,8.287,5901,0.003,2.524,0.009,5.743,0.010,9.3
32,10646.00,10646.00,0.00,8.347,5851,0.003,2.543,0.009,5.783,0.010,9.1
33,10531.00,10531.00,0.00,8.437,5788,0.003,2.548,0.009,5.869,0.010,9.6
34,10684.00,10684.00,0.00,8.314,5872,0.003,2.530,0.008,5.764,0.009,9.6
35,10749.00,10749.00,0.00,8.262,5907,0.003,2.503,0.008,5.739,0.010,9.0
36,10575.00,10575.00,0.00,8.327,5812,0.003,2.496,0.009,5.809,0.010,9.2
37,10735.00,10735.00,0.00,8.261,5900,0.003,2.480,0.008,5.759,0.010,9.4
38,10724.00,10724.00,0.00,8.289,5894,0.003,2.525,0.008,5.744,0.009,9.6
39,10724.00,10724.00,0.00,8.225,5894,0.003,2.466,0.008,5.739,0.009,9.1
40,10580.00,10580.00,0.00,8.390,5815,0.003,2.537,0.008,5.831,0.011,9.0
41,10937.00,10937.00,0.00,8.082,6011,0.003,2.446,0.009,5.615,0.010,8.9
42,10765.00,10765.00,0.00,8.260,5916,0.003,2.513,0.008,5.727,0.010,9.2
43,10902.00,10902.00,0.00,8.099,5991,0.003,2.444,0.008,5.634,0.010,9.7
44,10766.00,10766.00,0.00,8.271,5917,0.003,2.525,0.008,5.725,0.010,9.5
45,10720.00,10720.00,0.00,8.251,5892,0.003,2.502,0.008,5.727,0.010,9.4
46,10679.00,10679.00,0.00,8.251,5869,0.003,2.477,0.009,5.754,0.010,9.1
47,10639.00,10639.00,0.00,8.281,5847,0.003,2.513,0.008,5.748,0.010,9.7
48,10625.00,10625.00,0.00,8.315,5839,0.003,2.493,0.008,5.802,0.009,9.4
49,10374.00,10374.00,0.00,8.550,5701,0.003,2.599,0.009,5.930,0.010,9.3
50,10709.00,10709.00,0.00,8.272,5885,0.003,2.493,0.008,5.759,0.010,9.4
51,10668.00,10668.00,0.00,8.308,5863,0.003,2.517,0.008,5.771,0.010,8.8
52,10492.00,10492.00,0.00,8.455,5766,0.003,2.563,0.008,5.870,0.010,9.4
53,10631.00,10631.00,0.00,8.336,5843,0.003,2.538,0.008,5.777,0.010,9.1
54,10578.00,10578.00,0.00,8.307,5814,0.003,2.490,0.008,5.796,0.010,9.2
55,10707.00,10707.00,0.00,8.290,5884,0.003,2.493,0.008,5.776,0.010,9.4
56,10592.00,10592.00,0.00,8.328,5821,0.003,2.507,0.008,5.801,0.010,9.0
57,10762.00,10762.00,0.00,8.211,5914,0.003,2.481,0.008,5.710,0.010,9.3
58,10698.00,10698.00,0.00,8.317,5879,0.003,2.533,0.008,5.764,0.010,9.6
59,10659.00,10659.00,0.00,8.360,5858,0.003,2.550,0.008,5.789,0.010,9.2
60,10863.00,10863.00,0.00,8.126,5970,0.003,2.470,0.008,5.634,0.010,9.4
61,10677.00,10677.00,0.00,8.291,5868,0.003,2.522,0.008,5.749,0.010,9.8
62,10706.00,10706.00,0.00,8.302,5884,0.003,2.526,0.008,5.756,0.009,8.9
63,10713.00,10713.00,0.00,8.252,5888,0.003,2.487,0.008,5.745,0.009,9.3
64,10588.00,10586.00,2.00,8.410,5818,0.003,2.554,0.008,5.835,0.010,9.7
65,10618.00,10614.00,4.00,8.348,5834,0.003,2.540,0.008,5.788,0.009,9.4
66,10713.00,10704.00,9.00,8.257,5883,0.003,2.500,0.008,5.736,0.010,9.3
67,10678.00,10666.00,12.00,8.312,5862,0.003,2.525,0.008,5.767,0.009,9.7
68,10481.00,10471.00,10.00,8.534,5755,0.003,2.616,0.009,5.897,0.009,9.9
69,10934.00,10924.00,10.00,8.120,6004,0.003,2.467,0.008,5.632,0.010,9.0
70,10659.00,10651.00,8.00,8.309,5854,0.003,2.520,0.009,5.767,0.010,9.1
71,10636.00,10626.00,10.00,8.363,5840,0.003,2.549,0.009,5.793,0.010,10.0
72,10773.00,10767.00,6.00,8.280,5917,0.003,2.538,0.008,5.721,0.010,9.8
73,10691.00,10686.00,5.00,8.280,5873,0.003,2.484,0.008,5.776,0.010,9.2
74,8123.00,8121.00,2.00,7.998,4463,0.003,2.392,0.009,5.584,0.010,9.2
75,822.00,822.00,0.00,1.127,452,0.010,0.067,0.020,1.014,0.015,0.0
