Second,Ops/sec,Hits/sec,Misses/sec,Latency,KB/sec,Request_Creation_Time,Request_Buffer_Time,MW_Writes_To_Memcached_Time,Memcached_Process_Time,MW_Writes_To_Memtier_Time,Queue_Size
4,1468.00,1468.00,0.00,1.763,163,0.026,0.170,0.057,1.450,0.060,0.6
5,8305.00,8305.00,0.00,2.172,923,0.005,0.089,0.011,2.053,0.014,0.6
6,9212.00,9212.00,0.00,2.095,1024,0.004,0.190,0.011,1.880,0.011,1.3
7,9744.00,9744.00,0.00,1.942,1082,0.004,0.130,0.011,1.788,0.010,0.8
8,9961.00,9961.00,0.00,1.916,1107,0.004,0.120,0.010,1.772,0.010,0.8
9,9832.00,9832.00,0.00,1.939,1093,0.003,0.093,0.010,1.823,0.010,0.7
10,9814.00,9811.00,3.00,1.971,1090,0.004,0.150,0.010,1.797,0.010,0.9
11,9825.00,9804.00,21.00,1.919,1089,0.004,0.092,0.012,1.800,0.011,0.7
12,9693.00,9693.00,0.00,1.973,1077,0.003,0.136,0.011,1.813,0.010,1.0
13,10619.00,10619.00,0.00,1.806,1180,0.003,0.121,0.010,1.662,0.010,0.8
14,10026.00,10026.00,0.00,1.887,1114,0.003,0.107,0.010,1.758,0.010,0.8
15,9896.00,9896.00,0.00,1.953,1099,0.003,0.110,0.010,1.821,0.010,0.8
16,10167.00,10167.00,0.00,1.890,1130,0.003,0.086,0.010,1.782,0.010,0.6
17,10193.00,10193.00,0.00,1.889,1132,0.003,0.097,0.010,1.770,0.009,0.7
18,10024.00,10024.00,0.00,1.933,1114,0.003,0.107,0.010,1.803,0.010,0.7
19,10454.00,10454.00,0.00,1.824,1161,0.003,0.090,0.011,1.711,0.009,0.6
20,10027.00,10027.00,0.00,1.932,1114,0.003,0.095,0.010,1.815,0.010,0.7
21,9782.00,9780.00,2.00,1.964,1087,0.003,0.103,0.010,1.838,0.010,0.7
22,9821.00,9804.00,17.00,1.969,1090,0.003,0.134,0.010,1.812,0.011,0.9
23,10501.00,10496.00,5.00,1.807,1166,0.003,0.101,0.010,1.684,0.010,0.8
24,9684.00,9684.00,0.00,1.978,1076,0.003,0.095,0.010,1.860,0.010,0.7
25,9992.00,9992.00,0.00,1.901,1110,0.003,0.107,0.010,1.772,0.010,0.7
26,10040.00,10040.00,0.00,1.925,1115,0.003,0.095,0.010,1.808,0.010,0.7
27,9759.00,9759.00,0.00,1.991,1084,0.003,0.094,0.010,1.874,0.010,0.7
28,10158.00,10158.00,0.00,1.889,1129,0.003,0.138,0.010,1.729,0.010,0.9
29,10047.00,10047.00,0.00,1.914,1117,0.003,0.105,0.010,1.786,0.011,0.8
30,10053.00,10053.00,0.00,1.925,1117,0.003,0.108,0.009,1.794,0.010,0.8
31,10223.00,10223.00,0.00,1.867,1136,0.003,0.104,0.010,1.740,0.010,0.7
32,10191.00,10191.00,0.00,1.835,1133,0.003,0.110,0.010,1.702,0.011,0.7
33,9886.00,9886.00,0.00,1.978,1099,0.003,0.090,0.009,1.865,0.010,0.8
34,10339.00,10339.00,0.00,1.844,1149,0.003,0.087,0.011,1.734,0.010,0.7
35,10084.00,10084.00,0.00,1.900,1120,0.003,0.106,0.010,1.771,0.010,0.8
36,10037.00,10037.00,0.00,1.909,1115,0.003,0.111,0.010,1.775,0.010,0.8
37,9957.00,9957.00,0.00,1.916,1106,0.003,0.129,0.010,1.766,0.010,0.9
38,10465.00,10465.00,0.00,1.843,1163,0.003,0.088,0.010,1.734,0.010,0.7
39,9869.00,9869.00,0.00,1.955,1097,0.003,0.130,0.010,1.803,0.010,0.9
40,9736.00,9736.00,0.00,1.984,1082,0.003,0.124,0.010,1.836,0.010,0.8
41,10345.00,10345.00,0.00,1.871,1150,0.003,0.100,0.009,1.749,0.009,0.8
42,9736.00,9736.00,0.00,1.960,1082,0.003,0.097,0.010,1.840,0.011,0.7
43,10519.00,10519.00,0.00,1.829,1169,0.003,0.092,0.009,1.715,0.010,0.8
44,10480.00,10480.00,0.00,1.815,1164,0.003,0.117,0.009,1.676,0.010,0.8
45,9764.00,9764.00,0.00,1.980,1085,0.003,0.104,0.010,1.852,0.011,0.7
46,9350.00,9350.00,0.00,2.080,1039,0.003,0.091,0.010,1.967,0.010,0.7
47,10351.00,10351.00,0.00,1.848,1150,0.003,0.114,0.010,1.712,0.010,0.8
48,10250.00,10250.00,0.00,1.876,1139,0.003,0.115,0.010,1.739,0.010,0.7
49,10217.00,10217.00,0.00,1.850,1135,0.003,0.086,0.010,1.742,0.010,0.6
50,10208.00,10208.00,0.00,1.841,1134,0.003,0.111,0.009,1.708,0.009,0.7
51,10401.00,10399.00,2.00,1.849,1156,0.003,0.100,0.010,1.727,0.010,0.7
52,9616.00,9610.00,6.00,1.990,1068,0.003,0.110,0.010,1.858,0.010,0.7
53,10485.00,10475.00,10.00,1.812,1164,0.003,0.101,0.010,1.689,0.010,0.7
54,10226.00,10221.00,5.00,1.861,1136,0.003,0.094,0.010,1.745,0.010,0.6
55,9829.00,9826.00,3.00,1.982,1092,0.003,0.098,0.010,1.861,0.010,0.7
56,10234.00,10221.00,13.00,1.851,1136,0.003,0.114,0.010,1.715,0.010,0.8
57,10435.00,10424.00,11.00,1.812,1158,0.003,0.119,0.011,1.669,0.011,0.8
58,9971.00,9960.00,11.00,1.913,1107,0.003,0.132,0.010,1.758,0.010,0.9
59,10275.00,10269.00,6.00,1.856,1141,0.003,0.105,0.010,1.729,0.010,0.7
60,9784.00,9780.00,4.00,1.987,1087,0.003,0.130,0.010,1.835,0.010,0.8
61,9924.00,9924.00,0.00,1.926,1103,0.003,0.114,0.010,1.790,0.010,0.7
62,10097.00,10096.00,1.00,1.879,1122,0.003,0.113,0.010,1.744,0.009,0.8
63,10350.00,10350.00,0.00,1.864,1150,0.003,0.075,0.009,1.767,0.010,0.7
64,10010.00,10010.00,0.00,1.908,1112,0.003,0.098,0.010,1.788,0.010,0.7
65,10177.00,10177.00,0.00,1.865,1130,0.003,0.116,0.010,1.727,0.010,0.8
66,10180.00,10180.00,0.00,1.869,1131,0.003,0.126,0.010,1.720,0.010,0.7
67,9832.00,9832.00,0.00,1.966,1092,0.003,0.097,0.010,1.847,0.010,0.7
68,10603.00,10603.00,0.00,1.808,1178,0.003,0.101,0.009,1.685,0.009,0.8
69,10333.00,10333.00,0.00,1.825,1148,0.003,0.090,0.010,1.713,0.010,0.7
70,9546.00,9546.00,0.00,1.974,1061,0.003,0.131,0.010,1.819,0.010,0.8
71,9893.00,9893.00,0.00,1.997,1099,0.003,0.108,0.010,1.866,0.010,0.7
72,10220.00,10220.00,0.00,1.867,1136,0.003,0.098,0.010,1.747,0.010,0.7
73,9850.00,9850.00,0.00,1.956,1094,0.003,0.102,0.010,1.832,0.010,0.6
74,7696.00,7696.00,0.00,1.952,855,0.003,0.156,0.009,1.774,0.010,1.0
