Second,Ops/sec,Hits/sec,Misses/sec,Latency,KB/sec,Request_Creation_Time,Request_Buffer_Time,MW_Writes_To_Memcached_Time,Memcached_Process_Time,MW_Writes_To_Memtier_Time,Queue_Size
4,2017.00,2017.00,0.00,2.089,1109,0.018,0.362,0.049,1.613,0.048,1.4
5,9126.00,9126.00,0.00,2.039,5016,0.004,0.110,0.013,1.902,0.011,0.6
6,10159.00,10159.00,0.00,1.853,5583,0.004,0.098,0.010,1.731,0.010,0.7
7,9812.00,9812.00,0.00,1.950,5392,0.004,0.147,0.010,1.779,0.011,0.9
8,10055.00,10055.00,0.00,1.913,5526,0.004,0.095,0.010,1.794,0.010,0.6
9,9703.00,9703.00,0.00,1.917,5333,0.003,0.142,0.011,1.751,0.010,0.8
10,9734.00,9722.00,12.00,1.969,5343,0.003,0.143,0.012,1.800,0.011,0.8
11,9758.00,9746.00,12.00,1.902,5356,0.003,0.108,0.010,1.770,0.010,0.8
12,9942.00,9942.00,0.00,1.869,5464,0.004,0.096,0.010,1.749,0.010,0.7
13,10420.00,10420.00,0.00,1.828,5727,0.003,0.098,0.010,1.707,0.010,0.7
14,9684.00,9684.00,0.00,1.953,5323,0.003,0.130,0.010,1.799,0.010,0.8
15,10300.00,10300.00,0.00,1.814,5661,0.003,0.114,0.010,1.676,0.011,0.8
16,10013.00,10013.00,0.00,1.911,5503,0.003,0.095,0.010,1.793,0.010,0.7
17,9779.00,9779.00,0.00,1.975,5374,0.003,0.111,0.010,1.841,0.010,0.7
18,10421.00,10421.00,0.00,1.784,5727,0.003,0.113,0.010,1.649,0.009,0.8
19,10021.00,10021.00,0.00,1.918,5507,0.003,0.080,0.010,1.815,0.010,0.7
20,9533.00,9533.00,0.00,2.003,5239,0.003,0.160,0.010,1.821,0.010,1.0
21,10256.00,10251.00,5.00,1.883,5634,0.003,0.094,0.010,1.767,0.010,0.7
22,9896.00,9884.00,12.00,1.936,5432,0.003,0.152,0.010,1.761,0.010,1.0
23,9992.00,9985.00,7.00,1.895,5487,0.003,0.109,0.010,1.763,0.010,0.7
24,10056.00,10056.00,0.00,1.918,5527,0.003,0.085,0.010,1.810,0.010,0.6
25,10667.00,10667.00,0.00,1.780,5863,0.003,0.097,0.010,1.660,0.010,0.7
26,10119.00,10119.00,0.00,1.894,5561,0.003,0.088,0.010,1.783,0.011,0.7
27,10189.00,10189.00,0.00,1.824,5600,0.003,0.130,0.011,1.671,0.010,0.8
28,10687.00,10687.00,0.00,1.794,5874,0.003,0.094,0.010,1.678,0.010,0.8
29,10071.00,10071.00,0.00,1.895,5535,0.003,0.105,0.010,1.766,0.011,0.8
30,10152.00,10152.00,0.00,1.854,5580,0.003,0.086,0.010,1.745,0.010,0.7
31,9906.00,9906.00,0.00,1.947,5444,0.003,0.100,0.010,1.824,0.010,0.9
32,10296.00,10296.00,0.00,1.821,5659,0.003,0.108,0.010,1.691,0.010,0.9
33,10372.00,10372.00,0.00,1.825,5701,0.003,0.108,0.009,1.695,0.010,0.7
34,9968.00,9968.00,0.00,1.908,5478,0.003,0.099,0.010,1.786,0.010,0.8
35,10256.00,10256.00,0.00,1.837,5637,0.003,0.104,0.010,1.710,0.010,0.9
36,9405.00,9405.00,0.00,2.043,5169,0.003,0.133,0.010,1.888,0.010,0.9
37,10380.00,10380.00,0.00,1.791,5705,0.003,0.115,0.010,1.654,0.009,0.7
38,10500.00,10500.00,0.00,1.814,5771,0.003,0.077,0.010,1.714,0.010,0.7
39,9914.00,9914.00,0.00,1.916,5449,0.003,0.092,0.010,1.803,0.009,0.7
40,10292.00,10292.00,0.00,1.835,5656,0.003,0.090,0.010,1.723,0.010,0.7
41,10046.00,10046.00,0.00,1.921,5521,0.003,0.098,0.010,1.801,0.010,0.8
42,9841.00,9841.00,0.00,1.933,5408,0.003,0.124,0.010,1.785,0.011,0.9
43,10149.00,10149.00,0.00,1.870,5578,0.003,0.087,0.010,1.760,0.010,0.7
44,10420.00,10420.00,0.00,1.792,5727,0.003,0.112,0.010,1.658,0.010,0.7
45,10004.00,10004.00,0.00,1.912,5498,0.003,0.095,0.009,1.795,0.010,0.7
46,10328.00,10328.00,0.00,1.859,5676,0.003,0.097,0.010,1.741,0.010,0.7
47,9777.00,9777.00,0.00,1.916,5373,0.003,0.164,0.010,1.730,0.010,1.1
48,10033.00,10033.00,0.00,1.913,5514,0.003,0.131,0.010,1.759,0.010,0.8
49,10285.00,10284.00,1.00,1.838,5652,0.003,0.107,0.010,1.709,0.010,0.7
50,10052.00,10050.00,2.00,1.890,5523,0.003,0.120,0.010,1.747,0.011,0.8
51,9925.00,9921.00,4.00,1.883,5453,0.003,0.098,0.010,1.763,0.010,0.7
52,9876.00,9871.00,5.00,1.917,5425,0.003,0.095,0.010,1.798,0.012,0.8
53,10735.00,10728.00,7.00,1.754,5896,0.003,0.097,0.010,1.634,0.010,0.7
54,9886.00,9879.00,7.00,1.909,5430,0.003,0.101,0.010,1.786,0.010,0.8
55,10397.00,10390.00,7.00,1.807,5710,0.003,0.097,0.010,1.688,0.010,0.8
56,9877.00,9867.00,10.00,1.947,5423,0.003,0.106,0.010,1.817,0.011,0.8
57,9820.00,9813.00,7.00,1.956,5393,0.003,0.109,0.010,1.825,0.010,0.8
58,10087.00,10078.00,9.00,1.861,5539,0.003,0.115,0.010,1.723,0.010,0.9
59,10478.00,10471.00,7.00,1.802,5755,0.003,0.114,0.010,1.666,0.011,0.7
60,9983.00,9980.00,3.00,1.944,5485,0.003,0.099,0.010,1.823,0.010,0.7
61,10020.00,10018.00,2.00,1.909,5506,0.003,0.089,0.010,1.797,0.010,0.7
62,10161.00,10160.00,1.00,1.892,5584,0.003,0.131,0.010,1.739,0.010,0.9
63,10006.00,10006.00,0.00,1.925,5499,0.003,0.084,0.010,1.819,0.010,0.7
64,10202.00,10202.00,0.00,1.890,5607,0.003,0.089,0.010,1.778,0.010,0.7
65,10009.00,10009.00,0.00,1.901,5501,0.003,0.129,0.010,1.749,0.010,0.9
66,9960.00,9960.00,0.00,1.945,5474,0.003,0.083,0.010,1.839,0.010,0.8
67,9867.00,9867.00,0.00,1.918,5423,0.003,0.110,0.010,1.786,0.010,0.8
68,10257.00,10257.00,0.00,1.844,5637,0.003,0.084,0.010,1.738,0.010,0.7
69,9785.00,9785.00,0.00,1.922,5378,0.003,0.108,0.010,1.791,0.010,0.7
70,9625.00,9625.00,0.00,1.991,5290,0.003,0.093,0.011,1.874,0.010,0.7
71,10109.00,10109.00,0.00,1.885,5556,0.003,0.082,0.010,1.781,0.010,0.7
72,10376.00,10376.00,0.00,1.852,5702,0.003,0.086,0.010,1.743,0.010,0.7
73,9723.00,9723.00,0.00,1.968,5344,0.003,0.100,0.010,1.845,0.010,0.8
74,7262.00,7262.00,0.00,1.898,3991,0.003,0.096,0.010,1.779,0.011,0.7
