Second,Ops/sec,Hits/sec,Misses/sec,Latency,KB/sec,Request_Creation_Time,Request_Buffer_Time,MW_Writes_To_Memcached_Time,Memcached_Process_Time,MW_Writes_To_Memtier_Time,Queue_Size
4,1849.00,1849.00,0.00,2.361,1943,0.032,0.272,0.064,1.943,0.050,1.1
5,5599.00,5599.00,0.00,3.551,5882,0.004,0.124,0.012,3.399,0.013,0.6
6,5771.00,5771.00,0.00,3.654,6063,0.004,0.122,0.012,3.508,0.010,0.6
7,5845.00,5845.00,0.00,3.627,6141,0.003,0.127,0.011,3.477,0.010,0.6
8,5743.00,5743.00,0.00,3.633,6033,0.004,0.118,0.011,3.491,0.010,0.7
9,5869.00,5869.00,0.00,3.602,6166,0.004,0.114,0.010,3.464,0.010,0.6
10,5913.00,5913.00,0.00,3.495,6212,0.004,0.090,0.011,3.381,0.010,0.6
11,5673.00,5673.00,0.00,3.665,5960,0.004,0.109,0.010,3.532,0.010,0.6
12,5868.00,5868.00,0.00,3.585,6165,0.003,0.102,0.010,3.460,0.010,0.6
13,5709.00,5709.00,0.00,3.673,5998,0.003,0.131,0.011,3.519,0.010,0.7
14,5808.00,5801.00,7.00,3.595,6094,0.003,0.111,0.011,3.460,0.010,0.6
15,5806.00,5790.00,16.00,3.554,6083,0.003,0.111,0.013,3.416,0.011,0.5
16,5867.00,5866.00,1.00,3.597,6162,0.003,0.122,0.010,3.451,0.010,0.7
17,5864.00,5864.00,0.00,3.557,6160,0.003,0.105,0.011,3.428,0.010,0.5
18,5771.00,5771.00,0.00,3.636,6063,0.003,0.096,0.011,3.517,0.010,0.5
19,5823.00,5823.00,0.00,3.612,6117,0.003,0.121,0.010,3.468,0.010,0.6
20,5904.00,5904.00,0.00,3.562,6203,0.003,0.099,0.010,3.440,0.010,0.5
21,5928.00,5928.00,0.00,3.541,6228,0.003,0.112,0.011,3.406,0.010,0.6
22,6080.00,6080.00,0.00,3.422,6387,0.003,0.118,0.010,3.282,0.010,0.6
23,5793.00,5793.00,0.00,3.641,6086,0.003,0.105,0.011,3.513,0.010,0.6
24,5850.00,5850.00,0.00,3.571,6146,0.003,0.100,0.010,3.448,0.010,0.6
25,5897.00,5897.00,0.00,3.576,6195,0.003,0.103,0.010,3.451,0.010,0.5
26,5837.00,5837.00,0.00,3.618,6132,0.003,0.103,0.010,3.492,0.010,0.5
27,5793.00,5793.00,0.00,3.618,6086,0.003,0.129,0.010,3.467,0.009,0.7
28,5918.00,5918.00,0.00,3.523,6217,0.004,0.105,0.010,3.394,0.010,0.4
29,5969.00,5969.00,0.00,3.516,6271,0.003,0.107,0.010,3.387,0.009,0.6
30,5878.00,5878.00,0.00,3.554,6175,0.003,0.130,0.010,3.402,0.010,0.7
31,5889.00,5889.00,0.00,3.585,6187,0.003,0.101,0.010,3.461,0.010,0.5
32,5736.00,5736.00,0.00,3.674,6026,0.003,0.104,0.011,3.546,0.010,0.7
33,5796.00,5792.00,4.00,3.624,6085,0.003,0.098,0.010,3.503,0.010,0.5
34,5904.00,5893.00,11.00,3.580,6191,0.003,0.095,0.010,3.462,0.010,0.5
35,5821.00,5814.00,7.00,3.613,6108,0.003,0.100,0.010,3.490,0.010,0.6
36,5967.00,5966.00,1.00,3.530,6268,0.003,0.096,0.010,3.411,0.010,0.6
37,5658.00,5657.00,1.00,3.698,5943,0.003,0.160,0.010,3.514,0.011,0.7
38,5764.00,5764.00,0.00,3.635,6056,0.003,0.139,0.011,3.473,0.011,0.6
39,5999.00,5999.00,0.00,3.520,6302,0.003,0.096,0.010,3.402,0.010,0.7
40,5831.00,5831.00,0.00,3.631,6126,0.003,0.104,0.011,3.503,0.010,0.6
41,5817.00,5817.00,0.00,3.628,6111,0.003,0.102,0.010,3.503,0.010,0.5
42,5856.00,5856.00,0.00,3.614,6152,0.003,0.093,0.010,3.498,0.010,0.5
43,5819.00,5819.00,0.00,3.599,6113,0.003,0.092,0.010,3.485,0.010,0.5
44,5872.00,5872.00,0.00,3.592,6169,0.003,0.092,0.010,3.478,0.010,0.6
45,5793.00,5793.00,0.00,3.638,6086,0.003,0.098,0.010,3.517,0.010,0.5
46,5771.00,5771.00,0.00,3.661,6063,0.003,0.122,0.010,3.516,0.010,0.7
47,5784.00,5784.00,0.00,3.626,6077,0.003,0.112,0.010,3.490,0.010,0.7
48,5794.00,5794.00,0.00,3.649,6087,0.003,0.122,0.011,3.503,0.010,0.8
49,5790.00,5790.00,0.00,3.641,6083,0.003,0.107,0.010,3.512,0.010,0.5
50,5815.00,5815.00,0.00,3.589,6109,0.003,0.129,0.010,3.437,0.010,0.5
51,5791.00,5791.00,0.00,3.635,6084,0.003,0.121,0.010,3.491,0.010,0.6
52,5849.00,5849.00,0.00,3.565,6145,0.003,0.107,0.010,3.435,0.010,0.5
53,5810.00,5810.00,0.00,3.625,6104,0.003,0.109,0.010,3.494,0.010,0.6
54,5872.00,5872.00,0.00,3.530,6169,0.003,0.122,0.010,3.386,0.010,0.6
55,5857.00,5857.00,0.00,3.564,6153,0.003,0.147,0.010,3.395,0.009,0.7
56,6194.00,6194.00,0.00,3.370,6507,0.003,0.104,0.010,3.244,0.009,0.7
57,5796.00,5796.00,0.00,3.622,6089,0.003,0.173,0.010,3.427,0.010,0.7
58,5894.00,5894.00,0.00,3.559,6192,0.003,0.102,0.010,3.435,0.009,0.6
59,5914.00,5914.00,0.00,3.559,6213,0.003,0.116,0.010,3.421,0.010,0.6
60,5828.00,5828.00,0.00,3.639,6123,0.003,0.100,0.010,3.517,0.009,0.5
61,5886.00,5886.00,0.00,3.548,6184,0.003,0.087,0.010,3.439,0.009,0.5
62,6032.00,6032.00,0.00,3.474,6337,0.003,0.122,0.010,3.330,0.010,0.6
63,5735.00,5735.00,0.00,3.664,6025,0.003,0.111,0.010,3.530,0.010,0.6
64,5886.00,5886.00,0.00,3.580,6184,0.003,0.099,0.010,3.457,0.010,0.5
65,5852.00,5852.00,0.00,3.579,6148,0.003,0.138,0.010,3.417,0.010,0.7
66,5715.00,5715.00,0.00,3.709,6004,0.003,0.114,0.010,3.572,0.010,0.6
67,5902.00,5902.00,0.00,3.597,6200,0.003,0.093,0.010,3.482,0.010,0.6
68,5839.00,5839.00,0.00,3.624,6134,0.003,0.091,0.010,3.511,0.010,0.6
69,5758.00,5758.00,0.00,3.666,6049,0.003,0.113,0.010,3.531,0.010,0.6
70,5711.00,5711.00,0.00,3.653,6000,0.003,0.134,0.011,3.496,0.010,0.6
71,5875.00,5875.00,0.00,3.588,6172,0.003,0.099,0.010,3.466,0.010,0.6
72,5817.00,5817.00,0.00,3.594,6111,0.003,0.098,0.010,3.473,0.010,0.6
73,5815.00,5815.00,0.00,3.646,6109,0.003,0.100,0.010,3.524,0.010,0.6
74,4398.00,4398.00,0.00,3.431,4620,0.003,0.096,0.010,3.313,0.010,0.5
