Second,Ops/sec,Hits/sec,Misses/sec,Latency,KB/sec,Request_Creation_Time,Request_Buffer_Time,MW_Writes_To_Memcached_Time,Memcached_Process_Time,MW_Writes_To_Memtier_Time,Queue_Size
4,4210.00,4210.00,0.00,4.586,1262,0.019,0.994,0.036,3.501,0.036,6.4
5,16545.00,16545.00,0.00,4.743,4958,0.004,1.131,0.010,3.588,0.011,6.8
6,15895.00,15895.00,0.00,5.389,4762,0.004,1.517,0.008,3.850,0.010,8.0
7,16747.00,16747.00,0.00,5.131,5018,0.004,1.427,0.008,3.683,0.010,7.9
8,17139.00,17139.00,0.00,4.985,5135,0.003,1.362,0.008,3.602,0.010,7.7
9,16213.00,16213.00,0.00,5.306,4857,0.004,1.458,0.008,3.826,0.010,8.0
10,16667.00,16667.00,0.00,5.162,4992,0.003,1.441,0.008,3.701,0.010,8.0
11,16578.00,16578.00,0.00,5.153,4967,0.003,1.439,0.008,3.694,0.010,7.6
12,16623.00,16623.00,0.00,5.225,4980,0.003,1.506,0.007,3.699,0.010,8.3
13,16592.00,16592.00,0.00,5.129,4971,0.003,1.426,0.008,3.683,0.010,7.8
14,17047.00,17047.00,0.00,5.026,5107,0.003,1.376,0.008,3.629,0.010,7.8
15,15902.00,15902.00,0.00,5.389,4764,0.003,1.506,0.008,3.862,0.010,8.9
16,16480.00,16480.00,0.00,5.245,4938,0.003,1.483,0.008,3.743,0.010,8.1
17,16601.00,16601.00,0.00,5.160,4974,0.003,1.463,0.008,3.676,0.011,8.6
18,15439.00,15406.00,33.00,5.499,4615,0.003,1.490,0.010,3.985,0.011,8.2
19,16464.00,16432.00,32.00,5.248,4922,0.003,1.497,0.009,3.729,0.011,8.5
20,16632.00,16605.00,27.00,5.207,4974,0.003,1.485,0.009,3.699,0.011,8.3
21,15664.00,15660.00,4.00,5.493,4691,0.003,1.543,0.009,3.927,0.011,8.3
22,17208.00,17208.00,0.00,5.008,5155,0.003,1.393,0.009,3.593,0.011,8.4
23,16544.00,16544.00,0.00,5.235,4956,0.003,1.486,0.009,3.727,0.011,8.3
24,15812.00,15812.00,0.00,5.505,4737,0.003,1.559,0.009,3.924,0.011,8.4
25,16870.00,16870.00,0.00,5.154,5054,0.003,1.481,0.009,3.651,0.010,8.4
26,16876.00,16876.00,0.00,5.087,5056,0.003,1.438,0.008,3.627,0.011,8.3
27,15911.00,15911.00,0.00,5.475,4767,0.003,1.551,0.008,3.903,0.011,8.2
28,17012.00,17012.00,0.00,5.029,5097,0.003,1.426,0.008,3.581,0.010,8.0
29,16461.00,16461.00,0.00,5.181,4931,0.003,1.474,0.009,3.684,0.011,8.3
30,16291.00,16291.00,0.00,5.278,4880,0.003,1.475,0.008,3.783,0.010,8.4
31,15741.00,15741.00,0.00,5.501,4716,0.003,1.577,0.008,3.902,0.010,8.6
32,16595.00,16595.00,0.00,5.229,4971,0.003,1.480,0.008,3.727,0.011,8.3
33,16379.00,16379.00,0.00,5.251,4907,0.003,1.448,0.009,3.780,0.010,7.9
34,15597.00,15597.00,0.00,5.509,4672,0.003,1.548,0.008,3.939,0.010,8.3
35,16666.00,16666.00,0.00,5.174,4993,0.003,1.477,0.008,3.676,0.010,8.2
36,15907.00,15907.00,0.00,5.413,4766,0.003,1.514,0.008,3.878,0.010,8.3
37,15375.00,15375.00,0.00,5.653,4606,0.003,1.612,0.008,4.018,0.011,8.2
38,17093.00,17093.00,0.00,5.090,5121,0.003,1.433,0.008,3.637,0.010,7.9
39,16955.00,16955.00,0.00,5.117,5079,0.003,1.437,0.007,3.660,0.010,7.8
40,16289.00,16289.00,0.00,5.317,4880,0.003,1.497,0.008,3.800,0.010,8.1
41,16417.00,16417.00,0.00,5.294,4918,0.003,1.495,0.007,3.779,0.010,8.1
42,16732.00,16732.00,0.00,5.194,5013,0.003,1.458,0.007,3.715,0.010,8.2
43,15503.00,15503.00,0.00,5.588,4645,0.003,1.554,0.007,4.014,0.009,7.7
44,16754.00,16748.00,6.00,5.078,5018,0.003,1.425,0.008,3.633,0.010,7.9
45,16238.00,16217.00,21.00,5.306,4859,0.003,1.494,0.008,3.792,0.010,7.9
46,14952.00,14938.00,14.00,5.769,4475,0.003,1.629,0.008,4.120,0.010,8.3
47,16876.00,16855.00,21.00,5.082,5049,0.003,1.400,0.008,3.662,0.010,8.1
48,16387.00,16384.00,3.00,5.258,4908,0.003,1.478,0.008,3.760,0.010,7.8
49,16209.00,16204.00,5.00,5.328,4854,0.003,1.495,0.008,3.813,0.010,7.6
50,16700.00,16688.00,12.00,5.185,5000,0.003,1.451,0.007,3.714,0.010,7.9
51,16511.00,16500.00,11.00,5.227,4943,0.003,1.466,0.007,3.741,0.010,7.9
52,15947.00,15944.00,3.00,5.449,4777,0.003,1.552,0.008,3.877,0.009,7.9
53,16094.00,16094.00,0.00,5.389,4821,0.003,1.511,0.008,3.858,0.010,8.1
54,16565.00,16565.00,0.00,5.225,4963,0.003,1.481,0.007,3.725,0.010,8.0
55,15774.00,15774.00,0.00,5.465,4726,0.003,1.516,0.008,3.929,0.010,8.3
56,16045.00,16045.00,0.00,5.412,4807,0.003,1.512,0.008,3.880,0.010,8.6
57,17009.00,17009.00,0.00,5.113,5096,0.003,1.435,0.008,3.658,0.010,8.4
58,16345.00,16345.00,0.00,5.251,4897,0.003,1.466,0.008,3.766,0.010,8.3
59,16343.00,16343.00,0.00,5.303,4896,0.003,1.499,0.007,3.785,0.010,8.1
60,16897.00,16897.00,0.00,5.106,5062,0.003,1.438,0.008,3.647,0.011,8.0
61,16129.00,16129.00,0.00,5.339,4832,0.003,1.494,0.008,3.824,0.010,8.3
62,16323.00,16323.00,0.00,5.332,4891,0.003,1.524,0.007,3.788,0.009,8.0
63,17121.00,17121.00,0.00,5.013,5130,0.003,1.382,0.008,3.611,0.010,8.0
64,16254.00,16254.00,0.00,5.297,4870,0.004,1.476,0.007,3.802,0.009,8.8
65,15901.00,15901.00,0.00,5.425,4764,0.003,1.516,0.007,3.889,0.010,8.4
66,16170.00,16170.00,0.00,5.356,4844,0.003,1.520,0.008,3.815,0.010,8.0
67,16756.00,16756.00,0.00,5.100,5020,0.003,1.427,0.007,3.654,0.010,8.2
68,16750.00,16750.00,0.00,5.176,5018,0.003,1.454,0.007,3.702,0.010,7.9
69,16896.00,16896.00,0.00,5.115,5062,0.003,1.446,0.007,3.650,0.010,8.3
70,16095.00,16095.00,0.00,5.294,4822,0.003,1.460,0.007,3.812,0.011,8.1
71,15533.00,15533.00,0.00,5.487,4654,0.003,1.561,0.008,3.905,0.011,8.6
72,16377.00,16377.00,0.00,5.288,4907,0.003,1.505,0.008,3.763,0.009,8.4
73,16204.00,16204.00,0.00,5.276,4855,0.003,1.490,0.007,3.765,0.010,8.3
74,11479.00,11479.00,0.00,4.653,3439,0.003,1.266,0.009,3.364,0.011,6.9
75,2662.00,2662.00,0.00,0.775,797,0.005,0.136,0.015,0.606,0.013,0.2
