Second,Ops/sec,Hits/sec,Misses/sec,Latency,KB/sec,Request_Creation_Time,Request_Buffer_Time,MW_Writes_To_Memcached_Time,Memcached_Process_Time,MW_Writes_To_Memtier_Time,Queue_Size
4,1805.00,1805.00,0.00,1.296,201,0.014,0.155,0.043,1.040,0.044,0.4
5,5783.00,5783.00,0.00,1.438,643,0.005,0.106,0.013,1.302,0.012,0.5
6,6567.00,6567.00,0.00,1.343,730,0.005,0.095,0.012,1.219,0.011,0.4
7,6312.00,6312.00,0.00,1.389,701,0.004,0.127,0.013,1.233,0.012,0.4
8,6784.00,6784.00,0.00,1.287,754,0.005,0.081,0.012,1.178,0.011,0.4
9,6381.00,6369.00,12.00,1.359,707,0.004,0.111,0.013,1.219,0.012,0.4
10,6449.00,6449.00,0.00,1.342,716,0.005,0.111,0.012,1.203,0.011,0.4
11,6850.00,6850.00,0.00,1.291,761,0.004,0.078,0.012,1.186,0.011,0.3
12,6627.00,6627.00,0.00,1.315,736,0.004,0.094,0.012,1.194,0.012,0.4
13,6584.00,6584.00,0.00,1.361,731,0.004,0.126,0.012,1.209,0.011,0.4
14,6806.00,6806.00,0.00,1.259,756,0.004,0.098,0.012,1.135,0.010,0.4
15,6592.00,6592.00,0.00,1.358,732,0.005,0.090,0.012,1.240,0.011,0.3
16,6763.00,6763.00,0.00,1.307,751,0.004,0.076,0.012,1.204,0.011,0.4
17,6974.00,6969.00,5.00,1.278,775,0.003,0.091,0.011,1.163,0.011,0.4
18,6341.00,6334.00,7.00,1.435,704,0.003,0.105,0.012,1.305,0.011,0.4
19,6628.00,6628.00,0.00,1.368,736,0.003,0.083,0.011,1.259,0.011,0.4
20,6398.00,6398.00,0.00,1.376,711,0.004,0.106,0.011,1.243,0.011,0.4
21,6796.00,6796.00,0.00,1.321,755,0.003,0.077,0.011,1.218,0.011,0.3
22,6259.00,6259.00,0.00,1.456,696,0.003,0.097,0.011,1.333,0.011,0.4
23,6572.00,6572.00,0.00,1.341,730,0.003,0.086,0.012,1.229,0.011,0.3
24,6873.00,6873.00,0.00,1.301,764,0.003,0.074,0.011,1.202,0.011,0.4
25,6855.00,6855.00,0.00,1.280,762,0.003,0.078,0.012,1.176,0.012,0.4
26,7028.00,7028.00,0.00,1.239,781,0.003,0.085,0.011,1.129,0.011,0.4
27,6658.00,6658.00,0.00,1.353,740,0.003,0.096,0.012,1.231,0.011,0.4
28,6567.00,6567.00,0.00,1.349,730,0.003,0.082,0.012,1.241,0.011,0.3
29,6434.00,6434.00,0.00,1.360,715,0.003,0.112,0.011,1.223,0.011,0.4
30,6230.00,6230.00,0.00,1.448,692,0.003,0.089,0.011,1.334,0.011,0.4
31,6386.00,6386.00,0.00,1.402,710,0.003,0.128,0.011,1.249,0.011,0.4
32,6643.00,6643.00,0.00,1.335,738,0.003,0.108,0.011,1.201,0.011,0.4
33,6337.00,6337.00,0.00,1.422,704,0.003,0.083,0.012,1.312,0.011,0.3
34,6610.00,6610.00,0.00,1.341,734,0.003,0.085,0.012,1.229,0.011,0.4
35,6553.00,6553.00,0.00,1.351,728,0.003,0.102,0.011,1.224,0.011,0.4
36,6804.00,6804.00,0.00,1.299,756,0.003,0.093,0.011,1.181,0.011,0.3
37,6647.00,6647.00,0.00,1.347,738,0.003,0.092,0.012,1.230,0.011,0.4
38,6484.00,6484.00,0.00,1.373,721,0.003,0.078,0.012,1.268,0.012,0.3
39,6596.00,6596.00,0.00,1.354,733,0.003,0.093,0.011,1.235,0.011,0.4
40,6822.00,6817.00,5.00,1.278,758,0.003,0.073,0.011,1.180,0.011,0.4
41,6815.00,6815.00,0.00,1.259,757,0.003,0.109,0.012,1.125,0.011,0.4
42,6580.00,6572.00,8.00,1.328,730,0.003,0.084,0.011,1.219,0.011,0.4
43,6750.00,6745.00,5.00,1.293,750,0.003,0.083,0.012,1.184,0.011,0.4
44,6763.00,6757.00,6.00,1.273,751,0.003,0.078,0.011,1.168,0.012,0.3
45,6633.00,6628.00,5.00,1.307,736,0.003,0.114,0.011,1.168,0.011,0.4
46,6612.00,6606.00,6.00,1.310,734,0.003,0.086,0.012,1.197,0.011,0.4
47,6830.00,6829.00,1.00,1.285,759,0.003,0.095,0.011,1.164,0.011,0.4
48,6527.00,6527.00,0.00,1.364,725,0.003,0.087,0.012,1.252,0.011,0.3
49,6670.00,6670.00,0.00,1.326,741,0.003,0.098,0.011,1.203,0.011,0.4
50,7091.00,7091.00,0.00,1.211,788,0.003,0.074,0.011,1.112,0.011,0.4
51,6736.00,6736.00,0.00,1.317,748,0.003,0.097,0.011,1.195,0.011,0.4
52,6847.00,6847.00,0.00,1.288,761,0.003,0.087,0.011,1.175,0.011,0.4
53,6639.00,6639.00,0.00,1.324,738,0.003,0.099,0.011,1.198,0.012,0.4
54,6361.00,6361.00,0.00,1.359,707,0.003,0.103,0.012,1.228,0.013,0.4
55,6726.00,6726.00,0.00,1.287,747,0.003,0.122,0.011,1.140,0.011,0.5
56,6457.00,6457.00,0.00,1.356,717,0.003,0.098,0.011,1.233,0.011,0.4
57,6866.00,6866.00,0.00,1.256,763,0.003,0.067,0.011,1.164,0.011,0.4
58,6451.00,6451.00,0.00,1.379,717,0.003,0.084,0.011,1.269,0.011,0.3
59,6769.00,6769.00,0.00,1.295,752,0.003,0.086,0.012,1.182,0.011,0.3
60,6884.00,6884.00,0.00,1.288,765,0.003,0.075,0.011,1.188,0.011,0.4
61,6326.00,6326.00,0.00,1.435,703,0.003,0.098,0.012,1.312,0.011,0.4
62,6564.00,6564.00,0.00,1.358,729,0.003,0.087,0.011,1.246,0.011,0.3
63,6738.00,6738.00,0.00,1.308,749,0.003,0.082,0.012,1.199,0.012,0.3
64,6884.00,6884.00,0.00,1.282,765,0.003,0.072,0.011,1.185,0.011,0.3
65,6766.00,6766.00,0.00,1.313,752,0.003,0.076,0.012,1.211,0.011,0.3
66,6726.00,6726.00,0.00,1.327,747,0.003,0.081,0.011,1.221,0.011,0.4
67,6523.00,6523.00,0.00,1.372,725,0.003,0.092,0.012,1.255,0.010,0.4
68,6584.00,6584.00,0.00,1.372,731,0.003,0.098,0.011,1.248,0.011,0.3
69,6990.00,6990.00,0.00,1.255,777,0.003,0.078,0.011,1.153,0.011,0.4
70,6638.00,6638.00,0.00,1.335,738,0.003,0.083,0.011,1.227,0.011,0.4
71,6759.00,6759.00,0.00,1.312,751,0.003,0.074,0.011,1.212,0.011,0.3
72,6943.00,6943.00,0.00,1.249,771,0.003,0.096,0.011,1.129,0.011,0.4
73,6615.00,6615.00,0.00,1.350,735,0.003,0.088,0.011,1.237,0.011,0.4
74,4692.00,4692.00,0.00,1.258,521,0.003,0.080,0.011,1.153,0.010,0.3
