Second,Ops/sec,Hits/sec,Misses/sec,Latency,KB/sec,Request_Creation_Time,Request_Buffer_Time,MW_Writes_To_Memcached_Time,Memcached_Process_Time,MW_Writes_To_Memtier_Time,Queue_Size
4,4345.00,4345.00,0.00,4.409,483,0.017,1.263,0.039,3.044,0.046,8.7
5,15842.00,15842.00,0.00,4.876,1761,0.004,1.203,0.009,3.649,0.011,7.8
6,16141.00,16141.00,0.00,5.358,1793,0.004,1.530,0.008,3.806,0.010,8.6
7,17109.00,17109.00,0.00,4.965,1902,0.003,1.383,0.008,3.561,0.009,7.7
8,16238.00,16238.00,0.00,5.268,1804,0.003,1.503,0.008,3.744,0.010,8.3
9,16100.00,16100.00,0.00,5.295,1789,0.003,1.418,0.008,3.855,0.009,8.2
10,16941.00,16941.00,0.00,5.002,1882,0.003,1.350,0.008,3.632,0.009,7.4
11,16501.00,16501.00,0.00,5.153,1834,0.003,1.446,0.008,3.686,0.010,8.1
12,16252.00,16252.00,0.00,5.288,1806,0.003,1.497,0.008,3.771,0.009,8.4
13,16476.00,16476.00,0.00,5.249,1831,0.003,1.466,0.008,3.764,0.009,8.0
14,17435.00,17435.00,0.00,4.917,1937,0.003,1.388,0.008,3.508,0.009,7.6
15,16573.00,16573.00,0.00,5.177,1842,0.003,1.462,0.008,3.694,0.010,8.0
16,17168.00,17168.00,0.00,4.940,1908,0.003,1.365,0.008,3.555,0.009,7.8
17,16609.00,16609.00,0.00,5.186,1846,0.003,1.483,0.008,3.682,0.009,8.5
18,15305.00,15275.00,30.00,5.605,1697,0.003,1.552,0.009,4.029,0.013,8.6
19,16794.00,16759.00,35.00,5.144,1862,0.003,1.446,0.009,3.677,0.010,8.2
20,16906.00,16879.00,27.00,5.091,1874,0.003,1.437,0.010,3.631,0.011,8.3
21,16381.00,16377.00,4.00,5.252,1819,0.003,1.484,0.009,3.746,0.010,8.5
22,16616.00,16616.00,0.00,5.124,1846,0.003,1.439,0.009,3.663,0.010,8.2
23,16215.00,16215.00,0.00,5.215,1801,0.003,1.463,0.009,3.730,0.010,9.0
24,16059.00,16059.00,0.00,5.385,1784,0.003,1.523,0.008,3.841,0.010,8.9
25,16455.00,16455.00,0.00,5.209,1829,0.003,1.460,0.009,3.727,0.010,8.9
26,16410.00,16410.00,0.00,5.257,1824,0.003,1.489,0.009,3.746,0.011,8.6
27,15904.00,15904.00,0.00,5.397,1767,0.003,1.583,0.008,3.793,0.010,9.2
28,16748.00,16748.00,0.00,5.132,1861,0.003,1.457,0.009,3.653,0.010,8.1
29,16786.00,16786.00,0.00,4.983,1864,0.003,1.383,0.009,3.577,0.011,8.1
30,16061.00,16061.00,0.00,5.355,1785,0.003,1.527,0.009,3.805,0.011,8.6
31,16619.00,16619.00,0.00,5.207,1847,0.003,1.488,0.008,3.698,0.010,8.8
32,16745.00,16745.00,0.00,5.188,1860,0.003,1.497,0.009,3.669,0.011,8.9
33,16164.00,16164.00,0.00,5.348,1796,0.003,1.544,0.008,3.783,0.010,8.4
34,16339.00,16339.00,0.00,5.253,1815,0.003,1.477,0.008,3.755,0.010,8.8
35,16875.00,16875.00,0.00,5.095,1875,0.003,1.423,0.009,3.650,0.010,8.8
36,16466.00,16466.00,0.00,5.215,1830,0.003,1.494,0.009,3.698,0.011,8.7
37,16731.00,16731.00,0.00,5.155,1859,0.003,1.479,0.009,3.654,0.010,8.6
38,16844.00,16844.00,0.00,5.110,1871,0.003,1.451,0.008,3.637,0.010,8.4
39,16235.00,16235.00,0.00,5.297,1804,0.003,1.496,0.008,3.781,0.010,8.1
40,16334.00,16334.00,0.00,5.264,1815,0.003,1.485,0.008,3.759,0.010,7.9
41,16705.00,16705.00,0.00,5.102,1856,0.003,1.423,0.008,3.658,0.010,8.3
42,16153.00,16153.00,0.00,5.314,1795,0.003,1.495,0.008,3.798,0.011,8.4
43,16592.00,16592.00,0.00,5.144,1844,0.003,1.434,0.008,3.689,0.010,8.0
44,16173.00,16160.00,13.00,5.320,1796,0.003,1.502,0.008,3.797,0.010,7.6
45,16721.00,16703.00,18.00,5.119,1856,0.003,1.421,0.008,3.677,0.010,8.2
46,16687.00,16662.00,25.00,5.118,1851,0.003,1.396,0.008,3.702,0.010,8.0
47,16133.00,16125.00,8.00,5.350,1791,0.003,1.529,0.008,3.800,0.010,8.4
48,16339.00,16339.00,0.00,5.323,1815,0.003,1.523,0.008,3.779,0.011,8.2
49,16106.00,16100.00,6.00,5.323,1789,0.003,1.492,0.008,3.811,0.010,8.1
50,16827.00,16816.00,11.00,5.080,1869,0.003,1.417,0.008,3.643,0.010,7.9
51,16360.00,16349.00,11.00,5.275,1817,0.003,1.494,0.008,3.760,0.010,8.3
52,16228.00,16224.00,4.00,5.355,1803,0.003,1.513,0.008,3.821,0.010,8.2
53,16792.00,16792.00,0.00,5.146,1866,0.003,1.477,0.008,3.649,0.010,8.3
54,16225.00,16225.00,0.00,5.387,1803,0.003,1.541,0.008,3.827,0.010,8.2
55,15811.00,15811.00,0.00,5.500,1757,0.003,1.577,0.007,3.902,0.011,8.6
56,16272.00,16272.00,0.00,5.177,1808,0.003,1.425,0.008,3.733,0.009,7.7
57,16803.00,16803.00,0.00,5.219,1867,0.003,1.496,0.007,3.704,0.010,8.3
58,17006.00,17006.00,0.00,5.030,1890,0.003,1.399,0.007,3.612,0.010,8.0
59,16015.00,16015.00,0.00,5.349,1780,0.003,1.474,0.007,3.854,0.010,8.0
60,16109.00,16109.00,0.00,5.397,1790,0.003,1.529,0.008,3.847,0.010,8.3
61,16918.00,16918.00,0.00,5.041,1880,0.003,1.414,0.008,3.608,0.010,8.1
62,15962.00,15962.00,0.00,5.398,1774,0.003,1.501,0.008,3.877,0.010,8.2
63,16985.00,16985.00,0.00,5.066,1888,0.003,1.437,0.008,3.609,0.010,7.7
64,15724.00,15724.00,0.00,5.469,1747,0.003,1.549,0.008,3.900,0.010,8.3
65,16135.00,16135.00,0.00,5.358,1793,0.003,1.517,0.008,3.822,0.010,8.0
66,17237.00,17237.00,0.00,4.914,1915,0.003,1.349,0.008,3.545,0.009,8.2
67,16530.00,16530.00,0.00,5.233,1837,0.003,1.492,0.008,3.721,0.010,7.8
68,16186.00,16186.00,0.00,5.302,1799,0.003,1.488,0.008,3.794,0.010,8.1
69,16249.00,16249.00,0.00,5.293,1806,0.003,1.489,0.008,3.784,0.010,7.8
70,16759.00,16759.00,0.00,5.163,1863,0.003,1.463,0.007,3.680,0.010,7.9
71,15913.00,15913.00,0.00,5.358,1769,0.003,1.508,0.007,3.830,0.010,8.3
72,16606.00,16606.00,0.00,5.125,1845,0.003,1.483,0.008,3.620,0.010,8.1
73,17075.00,17075.00,0.00,5.046,1897,0.003,1.426,0.008,3.599,0.010,7.9
74,10493.00,10493.00,0.00,5.229,1166,0.003,1.452,0.008,3.757,0.009,7.6
