Second,Ops/sec,Hits/sec,Misses/sec,Latency,KB/sec,Request_Creation_Time,Request_Buffer_Time,MW_Writes_To_Memcached_Time,Memcached_Process_Time,MW_Writes_To_Memtier_Time,Queue_Size
4,2260.00,2260.00,0.00,2.185,677,0.020,0.280,0.089,1.745,0.050,1.1
5,8232.00,8232.00,0.00,2.161,2466,0.004,0.083,0.011,2.050,0.012,0.6
6,9618.00,9618.00,0.00,2.021,2882,0.004,0.114,0.011,1.883,0.010,0.8
7,9769.00,9769.00,0.00,1.957,2926,0.004,0.102,0.010,1.831,0.011,0.7
8,9962.00,9962.00,0.00,1.907,2984,0.004,0.107,0.010,1.775,0.011,0.7
9,9567.00,9567.00,0.00,2.000,2866,0.003,0.091,0.010,1.885,0.010,0.7
10,9521.00,9517.00,4.00,2.029,2851,0.003,0.101,0.010,1.904,0.011,0.8
11,9910.00,9890.00,20.00,1.916,2962,0.003,0.126,0.010,1.765,0.011,0.6
12,9589.00,9589.00,0.00,2.000,2872,0.003,0.110,0.010,1.866,0.010,0.7
13,9840.00,9840.00,0.00,1.954,2948,0.003,0.128,0.010,1.804,0.010,0.8
14,9810.00,9810.00,0.00,1.943,2939,0.003,0.116,0.010,1.804,0.010,0.8
15,9740.00,9740.00,0.00,1.984,2918,0.003,0.158,0.011,1.801,0.011,1.1
16,9492.00,9492.00,0.00,2.036,2844,0.003,0.178,0.010,1.835,0.010,0.9
17,9725.00,9725.00,0.00,1.988,2913,0.003,0.127,0.010,1.838,0.010,0.8
18,9825.00,9825.00,0.00,1.967,2943,0.003,0.084,0.010,1.859,0.010,0.7
19,9797.00,9797.00,0.00,1.983,2935,0.003,0.081,0.010,1.880,0.010,0.6
20,9678.00,9678.00,0.00,2.013,2899,0.003,0.117,0.011,1.873,0.010,0.8
21,9653.00,9653.00,0.00,1.998,2892,0.003,0.129,0.010,1.846,0.011,0.9
22,9484.00,9470.00,14.00,2.045,2837,0.003,0.117,0.010,1.906,0.009,0.9
23,10292.00,10284.00,8.00,1.860,3081,0.003,0.125,0.010,1.712,0.010,0.8
24,9473.00,9471.00,2.00,2.033,2837,0.003,0.114,0.010,1.897,0.010,0.8
25,9577.00,9577.00,0.00,1.996,2869,0.003,0.184,0.010,1.790,0.010,0.9
26,9989.00,9989.00,0.00,1.940,2993,0.003,0.115,0.010,1.804,0.010,0.8
27,9524.00,9524.00,0.00,2.031,2853,0.003,0.136,0.010,1.872,0.010,1.0
28,9437.00,9437.00,0.00,2.023,2827,0.003,0.159,0.010,1.841,0.010,0.8
29,9359.00,9359.00,0.00,2.078,2804,0.003,0.109,0.011,1.946,0.010,0.8
30,9507.00,9507.00,0.00,2.053,2848,0.003,0.136,0.011,1.894,0.010,0.9
31,10154.00,10154.00,0.00,1.909,3042,0.003,0.112,0.010,1.775,0.010,0.9
32,9538.00,9538.00,0.00,2.041,2858,0.003,0.103,0.010,1.915,0.011,0.7
33,9880.00,9880.00,0.00,1.963,2960,0.003,0.103,0.011,1.837,0.010,0.8
34,9831.00,9831.00,0.00,1.957,2946,0.003,0.084,0.010,1.849,0.010,0.6
35,9745.00,9745.00,0.00,1.997,2919,0.003,0.090,0.010,1.883,0.011,0.6
36,10075.00,10075.00,0.00,1.912,3018,0.003,0.110,0.010,1.780,0.010,0.7
37,9981.00,9981.00,0.00,1.917,2990,0.003,0.109,0.010,1.784,0.011,0.7
38,9792.00,9792.00,0.00,1.984,2934,0.003,0.092,0.010,1.869,0.011,0.6
39,9763.00,9763.00,0.00,2.010,2925,0.003,0.085,0.010,1.902,0.010,0.6
40,10301.00,10301.00,0.00,1.866,3086,0.003,0.092,0.010,1.751,0.010,0.8
41,9911.00,9911.00,0.00,1.949,2969,0.003,0.098,0.010,1.829,0.010,0.7
42,9933.00,9933.00,0.00,1.942,2976,0.003,0.091,0.010,1.828,0.010,0.7
43,9661.00,9661.00,0.00,2.023,2894,0.003,0.103,0.010,1.897,0.010,0.8
44,9474.00,9474.00,0.00,2.049,2838,0.003,0.124,0.010,1.902,0.011,0.8
45,9755.00,9755.00,0.00,1.987,2922,0.003,0.092,0.010,1.872,0.010,0.6
46,10346.00,10346.00,0.00,1.856,3099,0.003,0.099,0.011,1.734,0.010,0.7
47,9718.00,9718.00,0.00,2.002,2911,0.003,0.100,0.011,1.878,0.010,0.7
48,10014.00,10014.00,0.00,1.929,3000,0.003,0.106,0.010,1.801,0.010,0.8
49,9838.00,9838.00,0.00,1.968,2947,0.004,0.117,0.010,1.827,0.010,0.7
50,9617.00,9617.00,0.00,2.022,2881,0.003,0.120,0.010,1.879,0.010,0.8
51,9671.00,9671.00,0.00,1.998,2897,0.003,0.110,0.011,1.865,0.010,0.7
52,9909.00,9906.00,3.00,1.923,2968,0.003,0.114,0.010,1.787,0.010,0.8
53,10136.00,10130.00,6.00,1.927,3035,0.003,0.115,0.010,1.790,0.010,0.8
54,9686.00,9681.00,5.00,1.963,2900,0.003,0.095,0.010,1.845,0.010,0.7
55,9932.00,9925.00,7.00,1.958,2974,0.003,0.104,0.010,1.832,0.010,0.8
56,10110.00,10104.00,6.00,1.889,3027,0.003,0.084,0.010,1.782,0.010,0.7
57,9966.00,9954.00,12.00,1.949,2982,0.003,0.088,0.010,1.839,0.010,0.7
58,9784.00,9778.00,6.00,1.943,2929,0.003,0.098,0.010,1.822,0.010,0.7
59,9849.00,9840.00,9.00,1.953,2948,0.003,0.095,0.011,1.835,0.010,0.7
60,10291.00,10281.00,10.00,1.861,3080,0.003,0.087,0.010,1.750,0.010,0.7
61,10160.00,10156.00,4.00,1.878,3043,0.003,0.135,0.010,1.721,0.010,0.7
62,9775.00,9772.00,3.00,1.963,2928,0.003,0.090,0.010,1.850,0.010,0.6
63,9994.00,9993.00,1.00,1.933,2994,0.003,0.103,0.010,1.807,0.010,0.7
64,9787.00,9787.00,0.00,1.942,2932,0.003,0.103,0.011,1.816,0.010,0.7
65,9633.00,9633.00,0.00,2.032,2886,0.003,0.094,0.010,1.916,0.010,0.7
66,9964.00,9964.00,0.00,1.939,2985,0.003,0.086,0.010,1.830,0.010,0.6
67,10057.00,10057.00,0.00,1.916,3013,0.003,0.095,0.010,1.798,0.010,0.7
68,10537.00,10537.00,0.00,1.806,3157,0.003,0.093,0.010,1.690,0.010,0.7
69,9712.00,9712.00,0.00,1.990,2909,0.003,0.093,0.010,1.873,0.011,0.7
70,9761.00,9761.00,0.00,1.971,2924,0.003,0.108,0.010,1.840,0.010,0.7
71,9972.00,9972.00,0.00,1.949,2988,0.003,0.095,0.010,1.832,0.010,0.8
72,9510.00,9510.00,0.00,2.068,2849,0.003,0.100,0.010,1.945,0.010,0.6
73,10229.00,10229.00,0.00,1.878,3064,0.003,0.083,0.010,1.772,0.010,0.8
74,6420.00,6420.00,0.00,2.078,1923,0.003,0.125,0.010,1.931,0.010,0.7
