Second,Ops/sec,Hits/sec,Misses/sec,Latency,KB/sec,Request_Creation_Time,Request_Buffer_Time,MW_Writes_To_Memcached_Time,Memcached_Process_Time,MW_Writes_To_Memtier_Time,Queue_Size
4,2991.00,2991.00,0.00,3.180,1644,0.016,0.514,0.052,2.550,0.047,2.5
5,11391.00,11391.00,0.00,3.412,6261,0.005,0.207,0.012,3.179,0.010,1.6
6,10960.00,10960.00,0.00,3.780,6024,0.003,0.165,0.010,3.593,0.009,1.4
7,11178.00,11178.00,0.00,3.765,6143,0.003,0.183,0.010,3.560,0.009,1.7
8,10986.00,10986.00,0.00,3.786,6037,0.003,0.181,0.010,3.583,0.010,1.8
9,11031.00,11031.00,0.00,3.763,6062,0.003,0.149,0.010,3.592,0.010,1.4
10,11138.00,11138.00,0.00,3.764,6121,0.003,0.167,0.010,3.575,0.009,1.6
11,10916.00,10916.00,0.00,3.843,5999,0.003,0.184,0.010,3.638,0.009,1.8
12,10793.00,10793.00,0.00,3.835,5932,0.003,0.199,0.013,3.609,0.011,1.4
13,11026.00,11026.00,0.00,3.824,6060,0.003,0.154,0.009,3.649,0.009,1.6
14,10994.00,10992.00,2.00,3.810,6041,0.003,0.183,0.010,3.604,0.011,1.5
15,10913.00,10883.00,30.00,3.753,5981,0.003,0.141,0.012,3.587,0.011,1.4
16,11445.00,11430.00,15.00,3.671,6281,0.003,0.136,0.010,3.513,0.010,1.8
17,11220.00,11219.00,1.00,3.721,6165,0.003,0.137,0.011,3.560,0.010,1.7
18,11012.00,11012.00,0.00,3.761,6052,0.003,0.151,0.011,3.586,0.010,1.6
19,10964.00,10964.00,0.00,3.827,6026,0.003,0.201,0.011,3.603,0.010,1.8
20,11221.00,11221.00,0.00,3.726,6167,0.003,0.152,0.010,3.551,0.010,1.6
21,10940.00,10940.00,0.00,3.809,6013,0.003,0.192,0.011,3.594,0.010,1.7
22,11054.00,11054.00,0.00,3.800,6075,0.003,0.175,0.010,3.602,0.010,1.5
23,11112.00,11112.00,0.00,3.770,6107,0.003,0.155,0.010,3.592,0.010,1.6
24,11048.00,11048.00,0.00,3.790,6072,0.003,0.145,0.010,3.622,0.010,1.4
25,10952.00,10952.00,0.00,3.836,6019,0.003,0.156,0.011,3.657,0.010,1.6
26,11328.00,11328.00,0.00,3.683,6225,0.003,0.128,0.010,3.532,0.010,1.5
27,11011.00,11011.00,0.00,3.807,6051,0.003,0.181,0.011,3.602,0.010,1.6
28,10794.00,10794.00,0.00,3.876,5932,0.003,0.186,0.011,3.667,0.010,1.6
29,10889.00,10889.00,0.00,3.854,5984,0.003,0.187,0.011,3.643,0.010,2.1
30,11471.00,11471.00,0.00,3.641,6304,0.003,0.160,0.010,3.458,0.010,1.6
31,11118.00,11118.00,0.00,3.737,6110,0.003,0.172,0.010,3.541,0.010,1.6
32,11239.00,11239.00,0.00,3.739,6177,0.003,0.149,0.010,3.567,0.010,1.6
33,11184.00,11184.00,0.00,3.733,6147,0.003,0.155,0.010,3.555,0.010,1.3
34,11035.00,11029.00,6.00,3.800,6062,0.003,0.167,0.011,3.609,0.011,1.5
35,11126.00,11112.00,14.00,3.753,6107,0.003,0.181,0.010,3.549,0.010,1.6
36,10973.00,10962.00,11.00,3.832,6025,0.003,0.201,0.011,3.609,0.010,1.4
37,11039.00,11032.00,7.00,3.783,6063,0.003,0.165,0.010,3.596,0.010,1.6
38,11236.00,11230.00,6.00,3.677,6172,0.003,0.133,0.010,3.521,0.010,1.4
39,10921.00,10918.00,3.00,3.857,6000,0.003,0.179,0.010,3.655,0.010,1.6
40,10821.00,10820.00,1.00,3.811,5947,0.003,0.139,0.010,3.649,0.010,1.2
41,11366.00,11366.00,0.00,3.670,6247,0.003,0.147,0.010,3.499,0.011,1.3
42,11030.00,11030.00,0.00,3.812,6062,0.003,0.158,0.010,3.631,0.010,1.5
43,11012.00,11012.00,0.00,3.787,6052,0.003,0.157,0.010,3.607,0.010,1.3
44,10958.00,10958.00,0.00,3.858,6023,0.003,0.175,0.010,3.661,0.010,1.6
45,11082.00,11082.00,0.00,3.786,6091,0.003,0.160,0.010,3.603,0.010,1.3
46,10920.00,10920.00,0.00,3.825,6002,0.003,0.137,0.010,3.664,0.010,1.4
47,11267.00,11267.00,0.00,3.727,6193,0.003,0.148,0.010,3.557,0.010,1.4
48,11070.00,11070.00,0.00,3.771,6084,0.003,0.147,0.010,3.601,0.010,1.5
49,11070.00,11070.00,0.00,3.756,6084,0.003,0.156,0.011,3.576,0.010,1.5
50,11123.00,11123.00,0.00,3.772,6113,0.003,0.132,0.011,3.617,0.010,1.5
51,10880.00,10880.00,0.00,3.835,5980,0.003,0.215,0.010,3.597,0.010,1.5
52,10768.00,10768.00,0.00,3.893,5918,0.003,0.178,0.010,3.692,0.010,1.6
53,10904.00,10904.00,0.00,3.840,5993,0.003,0.165,0.010,3.651,0.010,1.5
54,10954.00,10954.00,0.00,3.824,6021,0.003,0.150,0.010,3.651,0.010,1.4
55,10959.00,10959.00,0.00,3.778,6023,0.003,0.150,0.010,3.604,0.010,1.4
56,10915.00,10915.00,0.00,3.837,5999,0.003,0.183,0.011,3.630,0.010,1.5
57,11153.00,11153.00,0.00,3.783,6130,0.003,0.135,0.010,3.625,0.010,1.3
58,10947.00,10947.00,0.00,3.775,6016,0.003,0.157,0.009,3.595,0.010,1.4
59,10963.00,10963.00,0.00,3.849,6025,0.003,0.140,0.009,3.687,0.010,1.4
60,11708.00,11708.00,0.00,3.575,6435,0.003,0.133,0.010,3.421,0.009,1.3
61,11083.00,11083.00,0.00,3.752,6091,0.003,0.148,0.009,3.583,0.009,1.5
62,10964.00,10964.00,0.00,3.819,6026,0.003,0.148,0.009,3.649,0.010,1.5
63,11150.00,11150.00,0.00,3.752,6128,0.003,0.133,0.009,3.598,0.009,1.4
64,10732.00,10732.00,0.00,3.848,5898,0.003,0.203,0.010,3.623,0.010,1.5
65,10828.00,10828.00,0.00,3.864,5951,0.003,0.252,0.010,3.591,0.009,1.9
66,10721.00,10721.00,0.00,3.855,5892,0.003,0.248,0.009,3.585,0.010,2.1
67,10780.00,10780.00,0.00,3.865,5925,0.003,0.170,0.010,3.673,0.010,1.4
68,11145.00,11145.00,0.00,3.768,6125,0.003,0.150,0.009,3.596,0.009,1.5
69,11210.00,11210.00,0.00,3.735,6161,0.003,0.163,0.010,3.551,0.010,1.5
70,10982.00,10982.00,0.00,3.807,6036,0.003,0.144,0.009,3.642,0.009,1.4
71,10950.00,10950.00,0.00,3.830,6018,0.003,0.162,0.010,3.646,0.010,1.5
72,11107.00,11107.00,0.00,3.759,6104,0.003,0.134,0.010,3.603,0.010,1.3
73,11016.00,11016.00,0.00,3.775,6054,0.003,0.159,0.009,3.594,0.009,1.6
74,7682.00,7682.00,0.00,3.670,4222,0.003,0.159,0.009,3.490,0.009,1.6
