Second,Ops/sec,Hits/sec,Misses/sec,Latency,KB/sec,Request_Creation_Time,Request_Buffer_Time,MW_Writes_To_Memcached_Time,Memcached_Process_Time,MW_Writes_To_Memtier_Time,Queue_Size
4,1292.00,1292.00,0.00,2.529,1358,0.013,1.410,0.018,1.050,0.038,8.3
5,5471.00,5471.00,0.00,3.717,5748,0.005,2.268,0.009,1.422,0.014,9.1
6,5391.00,5391.00,0.00,3.991,5664,0.004,2.502,0.007,1.464,0.013,10.0
7,5509.00,5509.00,0.00,3.844,5788,0.004,2.402,0.007,1.420,0.013,9.8
8,5444.00,5444.00,0.00,3.872,5719,0.004,2.409,0.007,1.439,0.013,9.7
9,5745.00,5745.00,0.00,3.696,6035,0.003,2.303,0.006,1.371,0.013,9.5
10,5384.00,5384.00,0.00,3.938,5656,0.004,2.458,0.007,1.455,0.013,9.6
11,5623.00,5623.00,0.00,3.760,5907,0.003,2.337,0.006,1.399,0.014,9.5
12,5447.00,5447.00,0.00,3.888,5723,0.003,2.424,0.006,1.442,0.012,9.9
13,5495.00,5495.00,0.00,3.882,5773,0.003,2.429,0.006,1.431,0.013,9.6
14,5429.00,5429.00,0.00,3.871,5704,0.003,2.413,0.007,1.435,0.013,9.7
15,5531.00,5515.00,16.00,3.865,5794,0.003,2.424,0.007,1.415,0.015,9.8
16,5046.00,5038.00,8.00,4.053,5293,0.003,2.477,0.007,1.553,0.013,9.4
17,5326.00,5326.00,0.00,3.902,5595,0.003,2.401,0.007,1.479,0.013,9.3
18,5328.00,5328.00,0.00,3.905,5597,0.003,2.406,0.008,1.475,0.013,9.1
19,5422.00,5422.00,0.00,3.934,5696,0.003,2.459,0.006,1.453,0.013,9.6
20,5389.00,5389.00,0.00,3.928,5662,0.003,2.452,0.007,1.452,0.014,9.5
21,5600.00,5600.00,0.00,3.822,5883,0.003,2.392,0.006,1.409,0.012,9.6
22,5397.00,5397.00,0.00,3.948,5670,0.003,2.471,0.006,1.456,0.013,9.7
23,5348.00,5348.00,0.00,3.975,5618,0.003,2.481,0.006,1.472,0.013,9.9
24,5535.00,5535.00,0.00,3.865,5815,0.003,2.417,0.006,1.427,0.012,9.6
25,5466.00,5466.00,0.00,3.929,5742,0.003,2.464,0.006,1.443,0.013,9.5
26,5423.00,5423.00,0.00,3.975,5697,0.003,2.500,0.006,1.454,0.013,10.1
27,5532.00,5532.00,0.00,3.842,5812,0.003,2.398,0.006,1.423,0.012,9.6
28,5468.00,5468.00,0.00,3.872,5744,0.003,2.417,0.006,1.432,0.013,9.3
29,5639.00,5639.00,0.00,3.769,5924,0.003,2.357,0.006,1.391,0.012,9.4
30,5555.00,5555.00,0.00,3.819,5836,0.004,2.388,0.006,1.409,0.012,9.8
31,5468.00,5468.00,0.00,3.885,5744,0.003,2.428,0.006,1.435,0.013,9.5
32,5517.00,5517.00,0.00,3.827,5796,0.003,2.383,0.006,1.423,0.012,9.6
33,5453.00,5453.00,0.00,3.939,5729,0.003,2.472,0.006,1.444,0.013,9.7
34,5600.00,5600.00,0.00,3.768,5883,0.003,2.349,0.006,1.397,0.013,9.5
35,5408.00,5406.00,2.00,3.948,5680,0.003,2.470,0.006,1.455,0.013,9.6
36,5503.00,5492.00,11.00,3.891,5770,0.003,2.438,0.006,1.430,0.013,9.7
37,5466.00,5457.00,9.00,3.915,5733,0.003,2.453,0.007,1.440,0.013,9.8
38,5518.00,5516.00,2.00,3.838,5795,0.003,2.391,0.007,1.424,0.013,9.5
39,5447.00,5447.00,0.00,3.881,5722,0.003,2.430,0.006,1.429,0.013,9.7
40,5555.00,5555.00,0.00,3.843,5836,0.003,2.406,0.006,1.415,0.013,9.7
41,5554.00,5554.00,0.00,3.809,5835,0.003,2.374,0.006,1.413,0.013,9.4
42,5479.00,5479.00,0.00,3.878,5756,0.003,2.424,0.006,1.432,0.013,9.8
43,5428.00,5428.00,0.00,3.826,5702,0.004,2.374,0.007,1.430,0.013,9.4
44,5542.00,5542.00,0.00,3.840,5822,0.003,2.407,0.006,1.411,0.013,9.7
45,5533.00,5533.00,0.00,3.832,5813,0.004,2.386,0.007,1.422,0.013,9.6
46,5506.00,5506.00,0.00,3.851,5784,0.003,2.399,0.006,1.430,0.013,9.5
47,5560.00,5560.00,0.00,3.836,5841,0.003,2.395,0.007,1.418,0.012,9.8
48,5416.00,5416.00,0.00,3.947,5690,0.003,2.472,0.007,1.450,0.016,9.6
49,5499.00,5499.00,0.00,3.882,5777,0.003,2.426,0.006,1.434,0.012,9.4
50,5438.00,5438.00,0.00,3.902,5713,0.003,2.431,0.007,1.448,0.013,9.4
51,5496.00,5496.00,0.00,3.901,5774,0.003,2.448,0.007,1.431,0.013,9.8
52,5460.00,5460.00,0.00,3.880,5736,0.003,2.431,0.007,1.426,0.014,9.9
53,5415.00,5415.00,0.00,3.926,5689,0.003,2.456,0.006,1.448,0.013,9.8
54,5529.00,5529.00,0.00,3.845,5809,0.003,2.403,0.007,1.421,0.013,9.5
55,5519.00,5519.00,0.00,3.876,5798,0.003,2.429,0.006,1.426,0.012,9.8
56,5585.00,5585.00,0.00,3.817,5868,0.003,2.385,0.006,1.411,0.012,9.8
57,5578.00,5578.00,0.00,3.771,5860,0.003,2.359,0.007,1.389,0.013,9.6
58,5543.00,5543.00,0.00,3.840,5823,0.003,2.399,0.006,1.419,0.013,9.7
59,5473.00,5473.00,0.00,3.896,5750,0.003,2.437,0.006,1.437,0.013,9.5
60,5508.00,5508.00,0.00,3.848,5786,0.003,2.396,0.006,1.430,0.013,9.7
61,5508.00,5508.00,0.00,3.801,5787,0.003,2.363,0.006,1.417,0.013,9.5
62,5498.00,5498.00,0.00,3.864,5776,0.003,2.411,0.006,1.432,0.012,9.4
63,5483.00,5483.00,0.00,3.901,5760,0.003,2.439,0.006,1.440,0.013,9.5
64,5479.00,5479.00,0.00,3.861,5756,0.003,2.417,0.006,1.422,0.013,9.5
65,5476.00,5476.00,0.00,3.876,5753,0.003,2.418,0.006,1.436,0.013,9.8
66,5535.00,5535.00,0.00,3.842,5815,0.003,2.398,0.007,1.422,0.013,9.8
67,5493.00,5493.00,0.00,3.849,5771,0.003,2.402,0.006,1.424,0.013,9.7
68,5445.00,5445.00,0.00,3.916,5720,0.003,2.446,0.006,1.447,0.013,10.0
69,5537.00,5537.00,0.00,3.837,5817,0.003,2.398,0.006,1.417,0.013,9.7
70,5402.00,5402.00,0.00,3.970,5675,0.003,2.490,0.006,1.458,0.013,9.8
71,5593.00,5593.00,0.00,3.837,5876,0.003,2.407,0.006,1.408,0.013,9.7
72,5375.00,5375.00,0.00,3.940,5647,0.003,2.457,0.007,1.461,0.013,9.6
73,5537.00,5537.00,0.00,3.862,5817,0.003,2.417,0.006,1.423,0.012,9.6
74,4254.00,4254.00,0.00,3.988,4469,0.003,2.492,0.007,1.473,0.014,9.5
