Second,Ops/sec,Hits/sec,Misses/sec,Latency,KB/sec,Request_Creation_Time,Request_Buffer_Time,MW_Writes_To_Memcached_Time,Memcached_Process_Time,MW_Writes_To_Memtier_Time,Queue_Size
4,1960.00,1960.00,0.00,4.714,2059,0.027,1.343,0.034,3.272,0.038,4.6
5,5777.00,5777.00,0.00,7.564,6070,0.004,2.229,0.009,5.310,0.012,4.2
6,5765.00,5765.00,0.00,7.751,6057,0.004,2.405,0.009,5.324,0.010,4.4
7,5756.00,5756.00,0.00,7.775,6047,0.004,2.439,0.009,5.314,0.010,4.5
8,5778.00,5778.00,0.00,7.722,6070,0.004,2.384,0.009,5.317,0.010,4.4
9,5793.00,5793.00,0.00,7.730,6086,0.003,2.405,0.008,5.304,0.010,4.7
10,5827.00,5827.00,0.00,7.688,6122,0.004,2.374,0.008,5.293,0.009,4.4
11,5909.00,5909.00,0.00,7.504,6208,0.003,2.291,0.008,5.192,0.009,4.3
12,5779.00,5779.00,0.00,7.749,6071,0.003,2.400,0.008,5.328,0.009,4.7
13,5876.00,5876.00,0.00,7.628,6173,0.003,2.371,0.008,5.234,0.011,4.3
14,5791.00,5791.00,0.00,7.691,6084,0.003,2.366,0.009,5.303,0.009,4.5
15,5801.00,5801.00,0.00,7.696,6094,0.003,2.392,0.008,5.284,0.010,4.8
16,5818.00,5818.00,0.00,7.629,6112,0.005,2.345,0.009,5.259,0.011,4.6
17,5832.00,5832.00,0.00,7.640,6127,0.003,2.357,0.008,5.262,0.010,4.6
18,5873.00,5873.00,0.00,7.554,6170,0.003,2.313,0.008,5.220,0.009,4.3
19,5896.00,5896.00,0.00,7.611,6194,0.003,2.368,0.008,5.223,0.009,4.5
20,5844.00,5844.00,0.00,7.690,6140,0.003,2.400,0.008,5.270,0.010,4.6
21,5779.00,5779.00,0.00,7.785,6071,0.003,2.432,0.008,5.334,0.009,4.6
22,5789.00,5789.00,0.00,7.731,6082,0.003,2.412,0.008,5.299,0.009,4.5
23,5821.00,5821.00,0.00,7.714,6115,0.003,2.396,0.008,5.297,0.010,4.5
24,5755.00,5743.00,12.00,7.711,6033,0.003,2.365,0.010,5.314,0.019,4.7
25,5870.00,5848.00,22.00,7.599,6144,0.003,2.340,0.009,5.237,0.010,4.3
26,5915.00,5902.00,13.00,7.571,6200,0.003,2.346,0.009,5.203,0.010,4.7
27,5889.00,5888.00,1.00,7.593,6185,0.003,2.369,0.009,5.202,0.010,4.6
28,5863.00,5863.00,0.00,7.626,6159,0.003,2.410,0.009,5.193,0.010,4.3
29,5785.00,5785.00,0.00,7.723,6077,0.003,2.393,0.009,5.307,0.010,4.6
30,5733.00,5733.00,0.00,7.813,6023,0.003,2.467,0.009,5.323,0.011,5.0
31,5876.00,5876.00,0.00,7.606,6173,0.003,2.354,0.009,5.229,0.011,4.5
32,5820.00,5820.00,0.00,7.693,6114,0.003,2.378,0.009,5.292,0.010,4.5
33,5785.00,5785.00,0.00,7.718,6077,0.003,2.408,0.010,5.288,0.010,4.7
34,5849.00,5849.00,0.00,7.624,6145,0.003,2.347,0.009,5.255,0.011,4.3
35,5811.00,5811.00,0.00,7.687,6105,0.003,2.378,0.009,5.286,0.011,4.2
36,5862.00,5862.00,0.00,7.656,6159,0.003,2.384,0.009,5.249,0.010,4.5
37,5772.00,5772.00,0.00,7.733,6064,0.003,2.394,0.009,5.316,0.011,4.5
38,5771.00,5771.00,0.00,7.715,6063,0.003,2.365,0.009,5.328,0.011,4.5
39,5796.00,5796.00,0.00,7.741,6089,0.003,2.408,0.009,5.311,0.010,4.6
40,5830.00,5830.00,0.00,7.690,6125,0.003,2.376,0.009,5.292,0.010,4.5
41,5744.00,5744.00,0.00,7.770,6034,0.003,2.400,0.009,5.348,0.010,4.5
42,5874.00,5874.00,0.00,7.649,6171,0.003,2.378,0.009,5.249,0.010,4.5
43,5825.00,5825.00,0.00,7.674,6119,0.003,2.384,0.009,5.268,0.010,4.3
44,5746.00,5746.00,0.00,7.798,6036,0.003,2.425,0.009,5.351,0.010,4.5
45,5808.00,5808.00,0.00,7.731,6102,0.003,2.424,0.009,5.284,0.010,4.7
46,5809.00,5809.00,0.00,7.733,6103,0.003,2.410,0.009,5.301,0.010,4.4
47,5815.00,5815.00,0.00,7.728,6109,0.003,2.416,0.008,5.292,0.009,4.4
48,5819.00,5819.00,0.00,7.718,6113,0.003,2.403,0.009,5.294,0.010,4.7
49,5790.00,5790.00,0.00,7.725,6083,0.003,2.393,0.009,5.310,0.010,4.5
50,5856.00,5856.00,0.00,7.630,6152,0.003,2.358,0.009,5.250,0.011,4.3
51,5886.00,5886.00,0.00,7.637,6184,0.003,2.384,0.009,5.231,0.010,4.5
52,5766.00,5766.00,0.00,7.759,6058,0.003,2.409,0.008,5.330,0.010,4.5
53,5725.00,5725.00,0.00,7.799,6014,0.003,2.401,0.008,5.377,0.010,4.7
54,5754.00,5754.00,0.00,7.834,6045,0.003,2.464,0.008,5.350,0.010,4.8
55,5833.00,5833.00,0.00,7.693,6128,0.003,2.389,0.008,5.284,0.009,4.5
56,5798.00,5798.00,0.00,7.674,6091,0.003,2.367,0.008,5.287,0.009,4.3
57,5908.00,5908.00,0.00,7.610,6207,0.003,2.369,0.008,5.222,0.009,4.5
58,5933.00,5933.00,0.00,7.579,6233,0.003,2.358,0.008,5.202,0.009,4.6
59,5852.00,5852.00,0.00,7.644,6148,0.003,2.388,0.008,5.236,0.009,4.4
60,5807.00,5807.00,0.00,7.670,6101,0.003,2.362,0.008,5.288,0.009,4.2
61,5816.00,5814.00,2.00,7.706,6108,0.003,2.394,0.008,5.292,0.009,4.6
62,5819.00,5809.00,10.00,7.705,6103,0.003,2.397,0.008,5.288,0.009,4.4
63,5868.00,5865.00,3.00,7.651,6162,0.003,2.385,0.008,5.247,0.009,4.4
64,5896.00,5890.00,6.00,7.602,6188,0.003,2.359,0.008,5.223,0.009,4.1
65,5822.00,5811.00,11.00,7.702,6105,0.003,2.406,0.008,5.275,0.010,4.5
66,5779.00,5773.00,6.00,7.747,6065,0.003,2.411,0.008,5.315,0.010,4.6
67,5810.00,5805.00,5.00,7.738,6099,0.003,2.419,0.008,5.298,0.010,4.5
68,5782.00,5780.00,2.00,7.754,6072,0.003,2.411,0.008,5.322,0.010,4.7
69,5700.00,5698.00,2.00,7.897,5986,0.003,2.483,0.008,5.394,0.010,4.4
70,5802.00,5801.00,1.00,7.748,6094,0.003,2.413,0.008,5.315,0.010,4.5
71,5794.00,5794.00,0.00,7.714,6087,0.003,2.413,0.008,5.281,0.010,4.6
72,5854.00,5854.00,0.00,7.665,6150,0.003,2.376,0.008,5.269,0.010,4.2
73,5814.00,5814.00,0.00,7.713,6108,0.003,2.416,0.009,5.276,0.010,4.6
74,4199.00,4199.00,0.00,7.657,4411,0.003,2.372,0.008,5.264,0.010,4.3
