Second,Ops/sec,Hits/sec,Misses/sec,Latency,KB/sec,Request_Creation_Time,Request_Buffer_Time,MW_Writes_To_Memcached_Time,Memcached_Process_Time,MW_Writes_To_Memtier_Time,Queue_Size
4,1779.00,1779.00,0.00,6.312,978,0.022,5.313,0.029,0.921,0.028,41.1
5,7387.00,7387.00,0.00,8.599,4060,0.006,7.523,0.007,1.047,0.016,54.2
6,8169.00,8169.00,0.00,11.074,4490,0.005,10.096,0.006,0.955,0.012,80.2
7,8013.00,8013.00,0.00,11.452,4404,0.003,10.452,0.006,0.976,0.014,80.7
8,7772.00,7772.00,0.00,11.839,4271,0.004,10.807,0.007,1.009,0.013,81.2
9,8070.00,8070.00,0.00,11.336,4435,0.003,10.341,0.006,0.973,0.012,80.7
10,8197.00,8197.00,0.00,11.098,4505,0.003,10.123,0.006,0.954,0.012,80.8
11,8003.00,8003.00,0.00,11.542,4399,0.003,10.536,0.007,0.984,0.013,80.7
12,8143.00,8143.00,0.00,11.117,4475,0.003,10.133,0.006,0.962,0.013,79.6
13,7866.00,7866.00,0.00,11.472,4323,0.004,10.453,0.006,0.998,0.012,79.6
14,7607.00,7607.00,0.00,11.947,4181,0.004,10.896,0.006,1.029,0.012,80.3
15,8217.00,8217.00,0.00,11.102,4515,0.003,10.127,0.006,0.955,0.012,80.2
16,7981.00,7981.00,0.00,11.425,4386,0.003,10.422,0.007,0.981,0.012,80.6
17,8293.00,8293.00,0.00,11.095,4558,0.003,10.125,0.006,0.949,0.012,80.8
18,8191.00,8191.00,0.00,11.131,4502,0.003,10.154,0.006,0.956,0.012,80.2
19,8361.00,8361.00,0.00,10.993,4595,0.003,10.030,0.006,0.942,0.012,80.5
20,7953.00,7953.00,0.00,11.569,4371,0.003,10.562,0.006,0.987,0.012,81.3
21,8255.00,8255.00,0.00,10.935,4536,0.003,9.963,0.006,0.951,0.012,79.8
22,8316.00,8316.00,0.00,11.014,4570,0.003,10.051,0.006,0.942,0.012,80.7
23,8335.00,8335.00,0.00,11.014,4581,0.003,10.051,0.006,0.942,0.012,81.0
24,8531.00,8531.00,0.00,10.642,4689,0.003,9.702,0.006,0.918,0.012,81.0
25,8452.00,8452.00,0.00,10.740,4645,0.003,9.791,0.006,0.926,0.013,79.8
26,8072.00,8072.00,0.00,11.374,4437,0.003,10.384,0.006,0.968,0.012,80.9
27,8011.00,8011.00,0.00,11.474,4403,0.003,10.473,0.006,0.980,0.013,81.0
28,8072.00,8072.00,0.00,11.297,4437,0.003,10.302,0.006,0.975,0.012,80.7
29,8128.00,8128.00,0.00,11.356,4467,0.003,10.372,0.006,0.963,0.012,81.3
30,8141.00,8141.00,0.00,11.301,4474,0.003,10.315,0.006,0.965,0.012,80.8
31,8298.00,8298.00,0.00,10.922,4561,0.003,9.962,0.006,0.939,0.013,80.5
32,8273.00,8273.00,0.00,11.162,4546,0.003,10.187,0.006,0.955,0.012,80.9
33,8103.00,8099.00,4.00,11.246,4451,0.003,10.256,0.006,0.969,0.012,80.5
34,8256.00,8196.00,60.00,11.008,4504,0.003,10.040,0.007,0.946,0.012,80.4
35,8122.00,8092.00,30.00,11.270,4447,0.003,10.283,0.006,0.967,0.012,80.9
36,7794.00,7792.00,2.00,11.841,4282,0.003,10.813,0.006,1.007,0.012,80.9
37,8291.00,8291.00,0.00,11.048,4556,0.003,10.084,0.006,0.942,0.012,81.1
38,8371.00,8371.00,0.00,10.872,4600,0.003,9.915,0.006,0.937,0.012,80.2
39,7811.00,7811.00,0.00,11.766,4292,0.003,10.736,0.006,1.008,0.013,81.2
40,8115.00,8115.00,0.00,11.348,4460,0.003,10.360,0.006,0.967,0.012,81.0
41,7970.00,7970.00,0.00,11.557,4380,0.003,10.553,0.006,0.983,0.012,81.2
42,7949.00,7949.00,0.00,11.578,4369,0.003,10.572,0.006,0.985,0.012,81.3
43,8102.00,8102.00,0.00,11.287,4453,0.003,10.296,0.006,0.970,0.012,81.1
44,8099.00,8099.00,0.00,11.324,4451,0.003,10.338,0.006,0.966,0.012,80.6
45,7733.00,7733.00,0.00,11.866,4250,0.003,10.827,0.006,1.017,0.013,80.7
46,8288.00,8288.00,0.00,11.040,4555,0.003,10.071,0.006,0.949,0.012,80.4
47,8619.00,8619.00,0.00,10.541,4737,0.003,9.614,0.006,0.904,0.013,80.7
48,7997.00,7997.00,0.00,11.486,4395,0.003,10.485,0.006,0.981,0.012,80.4
49,8542.00,8542.00,0.00,10.682,4695,0.003,9.742,0.006,0.919,0.012,79.4
50,8363.00,8363.00,0.00,10.983,4597,0.003,10.024,0.006,0.938,0.013,80.8
51,7899.00,7899.00,0.00,11.669,4341,0.003,10.651,0.006,0.997,0.012,81.1
52,8181.00,8181.00,0.00,11.140,4496,0.003,10.164,0.006,0.955,0.012,80.6
53,8166.00,8166.00,0.00,11.326,4488,0.003,10.341,0.006,0.965,0.012,81.2
54,7790.00,7790.00,0.00,11.801,4282,0.003,10.772,0.006,1.009,0.012,81.1
55,8163.00,8163.00,0.00,11.116,4486,0.003,10.134,0.006,0.960,0.012,80.1
56,8355.00,8355.00,0.00,11.032,4591,0.003,10.073,0.006,0.936,0.013,81.1
57,8166.00,8166.00,0.00,11.292,4487,0.003,10.309,0.006,0.962,0.012,81.2
58,8421.00,8421.00,0.00,10.856,4628,0.003,9.903,0.006,0.932,0.012,81.0
59,7950.00,7950.00,0.00,11.589,4369,0.003,10.580,0.006,0.988,0.012,80.9
60,7827.00,7827.00,0.00,11.753,4302,0.003,10.730,0.006,1.001,0.012,81.2
61,8115.00,8115.00,0.00,11.274,4460,0.003,10.286,0.006,0.967,0.012,80.5
62,8184.00,8184.00,0.00,11.167,4498,0.003,10.186,0.006,0.960,0.012,80.8
63,7723.00,7723.00,0.00,11.987,4244,0.003,10.949,0.006,1.017,0.013,81.6
64,8437.00,8437.00,0.00,10.812,4637,0.003,9.866,0.006,0.925,0.013,80.9
65,7982.00,7982.00,0.00,11.538,4386,0.003,10.531,0.007,0.985,0.012,81.1
66,8001.00,8001.00,0.00,11.476,4397,0.003,10.475,0.006,0.979,0.012,80.9
67,8230.00,8230.00,0.00,11.089,4523,0.003,10.112,0.006,0.955,0.013,80.2
68,8256.00,8256.00,0.00,11.095,4537,0.003,10.126,0.006,0.948,0.012,81.0
69,8020.00,8020.00,0.00,11.521,4408,0.003,10.521,0.006,0.979,0.012,81.1
70,8434.00,8434.00,0.00,10.831,4635,0.003,9.879,0.006,0.930,0.012,81.0
71,8308.00,8308.00,0.00,10.916,4566,0.003,9.953,0.006,0.941,0.013,79.6
72,7949.00,7949.00,0.00,11.656,4369,0.003,10.644,0.006,0.991,0.013,81.5
73,8170.00,8170.00,0.00,11.229,4490,0.003,10.251,0.006,0.957,0.013,81.0
74,8318.00,8318.00,0.00,8.992,4571,0.004,8.029,0.006,0.940,0.013,64.5
75,6149.00,6149.00,0.00,3.266,3379,0.003,2.278,0.006,0.968,0.012,16.5
