Second,Ops/sec,Hits/sec,Misses/sec,Latency,KB/sec,Request_Creation_Time,Request_Buffer_Time,MW_Writes_To_Memcached_Time,Memcached_Process_Time,MW_Writes_To_Memtier_Time,Queue_Size
4,1240.00,1240.00,0.00,6.925,138,0.022,5.803,0.029,1.029,0.042,39.6
5,7216.00,7216.00,0.00,8.429,802,0.005,7.340,0.010,1.061,0.014,51.2
6,8092.00,8092.00,0.00,11.318,900,0.004,10.323,0.006,0.973,0.012,80.6
7,7882.00,7882.00,0.00,11.648,876,0.004,10.631,0.006,0.995,0.012,80.9
8,8394.00,8394.00,0.00,10.871,933,0.004,9.916,0.006,0.934,0.012,80.3
9,8101.00,8101.00,0.00,11.228,900,0.004,10.240,0.006,0.966,0.012,80.3
10,8303.00,8303.00,0.00,10.965,923,0.003,10.001,0.006,0.942,0.013,80.9
11,8305.00,8305.00,0.00,10.990,923,0.004,10.023,0.006,0.944,0.012,80.9
12,7918.00,7918.00,0.00,11.617,880,0.003,10.612,0.006,0.983,0.013,80.8
13,8012.00,8012.00,0.00,11.304,891,0.003,10.300,0.006,0.983,0.012,80.7
14,8218.00,8218.00,0.00,11.253,913,0.003,10.272,0.006,0.960,0.012,80.9
15,7417.00,7417.00,0.00,12.210,824,0.003,11.138,0.006,1.051,0.012,80.4
16,8351.00,8351.00,0.00,11.112,927,0.003,10.149,0.006,0.943,0.012,80.9
17,7888.00,7888.00,0.00,11.615,876,0.003,10.598,0.006,0.996,0.012,81.0
18,8338.00,8338.00,0.00,11.093,927,0.003,10.128,0.006,0.943,0.013,81.0
19,8058.00,8058.00,0.00,11.237,895,0.004,10.251,0.006,0.964,0.012,80.9
20,8068.00,8068.00,0.00,11.406,897,0.003,10.405,0.006,0.980,0.012,80.4
21,8012.00,8012.00,0.00,11.424,890,0.003,10.430,0.006,0.974,0.012,81.2
22,8073.00,8073.00,0.00,11.390,897,0.003,10.390,0.006,0.979,0.012,80.9
23,8134.00,8134.00,0.00,11.197,904,0.003,10.218,0.006,0.959,0.012,79.8
24,8123.00,8123.00,0.00,11.328,903,0.003,10.337,0.006,0.971,0.012,81.1
25,7661.00,7661.00,0.00,12.081,851,0.003,11.032,0.006,1.029,0.012,81.4
26,7910.00,7910.00,0.00,11.663,879,0.003,10.651,0.006,0.992,0.012,81.0
27,8083.00,8083.00,0.00,11.316,898,0.003,10.327,0.006,0.968,0.012,80.7
28,7789.00,7789.00,0.00,11.740,866,0.003,10.714,0.006,1.006,0.012,80.7
29,8286.00,8286.00,0.00,11.155,921,0.003,10.181,0.006,0.954,0.012,80.8
30,7626.00,7626.00,0.00,11.912,847,0.003,10.871,0.006,1.020,0.012,80.9
31,7909.00,7909.00,0.00,11.571,879,0.003,10.565,0.006,0.985,0.012,80.7
32,8346.00,8346.00,0.00,11.027,927,0.003,10.060,0.006,0.946,0.012,81.1
33,8069.00,8069.00,0.00,11.438,896,0.003,10.448,0.006,0.970,0.012,81.2
34,7817.00,7764.00,53.00,11.708,863,0.003,10.679,0.008,1.006,0.013,80.7
35,8080.00,8060.00,20.00,11.349,895,0.003,10.361,0.006,0.967,0.012,81.0
36,8132.00,8109.00,23.00,11.290,901,0.003,10.301,0.006,0.968,0.012,81.2
37,7855.00,7855.00,0.00,11.742,873,0.003,10.722,0.006,0.999,0.012,81.0
38,8102.00,8102.00,0.00,11.377,899,0.002,10.389,0.006,0.968,0.012,81.2
39,8260.00,8260.00,0.00,11.142,917,0.003,10.172,0.006,0.949,0.012,80.6
40,7999.00,7999.00,0.00,11.391,889,0.003,10.395,0.006,0.975,0.012,80.7
41,8117.00,8117.00,0.00,11.333,902,0.003,10.346,0.006,0.966,0.012,81.1
42,8431.00,8431.00,0.00,10.937,937,0.003,9.986,0.006,0.930,0.013,81.4
43,7982.00,7982.00,0.00,11.536,887,0.003,10.535,0.006,0.981,0.012,81.2
44,8329.00,8329.00,0.00,10.927,926,0.003,9.965,0.006,0.942,0.012,79.9
45,8068.00,8068.00,0.00,11.273,896,0.003,10.285,0.006,0.968,0.012,80.6
46,7859.00,7859.00,0.00,11.689,873,0.003,10.669,0.006,1.000,0.012,81.2
47,8553.00,8553.00,0.00,10.727,950,0.003,9.792,0.006,0.915,0.012,81.1
48,8405.00,8405.00,0.00,10.953,934,0.003,9.994,0.006,0.939,0.012,80.4
49,8023.00,8023.00,0.00,11.415,892,0.003,10.417,0.006,0.979,0.012,80.5
50,8024.00,8024.00,0.00,11.387,892,0.003,10.392,0.006,0.975,0.012,80.6
51,8323.00,8323.00,0.00,10.973,925,0.002,10.011,0.006,0.941,0.013,80.4
52,8074.00,8074.00,0.00,11.377,897,0.002,10.380,0.006,0.976,0.012,80.8
53,8097.00,8097.00,0.00,11.200,900,0.002,10.220,0.006,0.961,0.012,80.3
54,8316.00,8316.00,0.00,11.040,925,0.003,10.070,0.006,0.950,0.012,80.3
55,8075.00,8075.00,0.00,11.350,897,0.003,10.357,0.006,0.972,0.012,81.0
56,7735.00,7735.00,0.00,11.875,859,0.003,10.844,0.006,1.010,0.012,81.4
57,8377.00,8377.00,0.00,10.833,930,0.003,9.874,0.006,0.939,0.012,79.9
58,8024.00,8024.00,0.00,11.232,891,0.003,10.237,0.007,0.973,0.012,80.6
59,8344.00,8344.00,0.00,11.089,927,0.003,10.126,0.006,0.942,0.012,80.5
60,8289.00,8289.00,0.00,11.085,921,0.003,10.114,0.006,0.951,0.012,81.0
61,8286.00,8286.00,0.00,11.074,921,0.003,10.107,0.006,0.946,0.012,81.3
62,7925.00,7925.00,0.00,11.562,880,0.003,10.553,0.006,0.988,0.012,81.1
63,8620.00,8620.00,0.00,10.677,958,0.003,9.744,0.006,0.913,0.012,81.1
64,8066.00,8066.00,0.00,11.241,896,0.003,10.256,0.006,0.965,0.012,80.7
65,7887.00,7887.00,0.00,11.450,876,0.003,10.432,0.006,0.997,0.012,79.7
66,8140.00,8140.00,0.00,11.167,904,0.003,10.185,0.006,0.961,0.012,79.7
67,8512.00,8512.00,0.00,10.655,945,0.003,9.717,0.006,0.917,0.012,80.1
68,8547.00,8547.00,0.00,10.754,949,0.003,9.810,0.006,0.924,0.011,80.0
69,8786.00,8786.00,0.00,10.374,976,0.003,9.461,0.006,0.893,0.012,79.9
70,8773.00,8773.00,0.00,10.430,975,0.003,9.516,0.006,0.893,0.012,80.3
71,8146.00,8146.00,0.00,11.279,905,0.003,10.296,0.006,0.963,0.012,80.7
72,8665.00,8665.00,0.00,10.494,963,0.003,9.568,0.006,0.906,0.012,79.8
73,8304.00,8304.00,0.00,10.987,923,0.003,10.025,0.007,0.940,0.013,80.5
74,8158.00,8158.00,0.00,9.458,906,0.003,8.559,0.006,0.877,0.013,66.8
75,7569.00,7569.00,0.00,1.285,841,0.003,0.815,0.007,0.450,0.011,13.2
