Second,Ops/sec,Hits/sec,Misses/sec,Latency,KB/sec,Request_Creation_Time,Request_Buffer_Time,MW_Writes_To_Memcached_Time,Memcached_Process_Time,MW_Writes_To_Memtier_Time,Queue_Size
4,1596.00,1596.00,0.00,2.131,877,0.012,1.219,0.026,0.846,0.028,7.9
5,7199.00,7199.00,0.00,2.458,3957,0.007,1.388,0.008,1.042,0.013,7.5
6,8116.00,8116.00,0.00,2.465,4461,0.004,1.486,0.006,0.957,0.012,9.1
7,8483.00,8483.00,0.00,2.336,4662,0.004,1.392,0.006,0.922,0.011,9.1
8,8199.00,8199.00,0.00,2.436,4506,0.004,1.467,0.006,0.948,0.012,9.1
9,8353.00,8353.00,0.00,2.402,4591,0.004,1.444,0.006,0.936,0.012,9.3
10,8424.00,8424.00,0.00,2.404,4630,0.003,1.448,0.006,0.934,0.012,9.2
11,7968.00,7966.00,2.00,2.480,4378,0.003,1.485,0.006,0.973,0.011,8.9
12,8236.00,8214.00,22.00,2.380,4514,0.004,1.410,0.006,0.948,0.012,9.1
13,8308.00,8308.00,0.00,2.324,4566,0.003,1.362,0.006,0.942,0.011,8.2
14,8263.00,8263.00,0.00,2.394,4541,0.003,1.427,0.006,0.946,0.012,8.7
15,8121.00,8121.00,0.00,2.494,4463,0.003,1.514,0.006,0.959,0.012,9.6
16,8407.00,8407.00,0.00,2.387,4621,0.003,1.439,0.006,0.928,0.012,9.3
17,8161.00,8161.00,0.00,2.461,4485,0.003,1.480,0.006,0.960,0.012,9.2
18,8155.00,8155.00,0.00,2.385,4482,0.003,1.419,0.006,0.944,0.013,9.0
19,8253.00,8253.00,0.00,2.413,4535,0.003,1.450,0.007,0.940,0.013,9.1
20,8160.00,8160.00,0.00,2.471,4484,0.003,1.492,0.006,0.958,0.012,9.4
21,8484.00,8484.00,0.00,2.363,4663,0.003,1.421,0.006,0.921,0.012,9.2
22,8529.00,8529.00,0.00,2.366,4687,0.003,1.426,0.006,0.920,0.011,9.3
23,8136.00,8136.00,0.00,2.431,4471,0.003,1.455,0.006,0.955,0.012,9.2
24,8602.00,8601.00,1.00,2.364,4727,0.003,1.433,0.006,0.912,0.011,9.4
25,8203.00,8195.00,8.00,2.486,4504,0.003,1.512,0.005,0.955,0.011,9.5
26,8402.00,8389.00,13.00,2.395,4610,0.003,1.438,0.006,0.937,0.011,9.3
27,8031.00,8029.00,2.00,2.520,4412,0.003,1.522,0.006,0.977,0.012,9.4
28,8325.00,8325.00,0.00,2.376,4575,0.003,1.420,0.006,0.935,0.012,9.3
29,8497.00,8497.00,0.00,2.285,4670,0.003,1.352,0.006,0.912,0.013,9.1
30,8262.00,8262.00,0.00,2.421,4541,0.003,1.450,0.006,0.951,0.012,9.1
31,8529.00,8529.00,0.00,2.311,4687,0.003,1.378,0.007,0.912,0.012,9.4
32,8704.00,8704.00,0.00,2.307,4784,0.003,1.385,0.006,0.903,0.011,9.3
33,8603.00,8603.00,0.00,2.312,4728,0.002,1.385,0.005,0.908,0.012,9.4
34,8392.00,8392.00,0.00,2.325,4612,0.003,1.386,0.006,0.920,0.011,9.0
35,8161.00,8161.00,0.00,2.472,4485,0.003,1.493,0.005,0.960,0.011,9.5
36,8104.00,8104.00,0.00,2.469,4454,0.002,1.483,0.005,0.967,0.011,9.1
37,8609.00,8609.00,0.00,2.340,4732,0.003,1.411,0.006,0.910,0.011,9.2
38,8569.00,8569.00,0.00,2.343,4710,0.002,1.410,0.006,0.914,0.011,9.2
39,8154.00,8154.00,0.00,2.409,4482,0.003,1.438,0.006,0.950,0.012,8.9
40,8301.00,8301.00,0.00,2.415,4562,0.003,1.452,0.005,0.944,0.011,9.2
41,8582.00,8582.00,0.00,2.330,4716,0.003,1.401,0.005,0.909,0.012,9.1
42,8304.00,8304.00,0.00,2.414,4564,0.003,1.454,0.006,0.939,0.011,9.0
43,8636.00,8636.00,0.00,2.283,4746,0.003,1.364,0.006,0.898,0.012,8.7
44,8636.00,8636.00,0.00,2.320,4746,0.003,1.394,0.006,0.907,0.012,9.3
45,7992.00,7992.00,0.00,2.542,4392,0.003,1.542,0.006,0.980,0.012,9.3
46,8527.00,8527.00,0.00,2.348,4686,0.003,1.410,0.006,0.917,0.012,9.3
47,8373.00,8373.00,0.00,2.381,4602,0.003,1.436,0.006,0.926,0.011,9.3
48,7855.00,7855.00,0.00,2.570,4317,0.003,1.549,0.006,1.000,0.012,9.3
49,8432.00,8432.00,0.00,2.367,4634,0.003,1.431,0.006,0.916,0.012,9.3
50,8198.00,8198.00,0.00,2.430,4505,0.003,1.455,0.006,0.954,0.012,9.1
51,7765.00,7765.00,0.00,2.629,4268,0.003,1.596,0.006,1.012,0.012,9.3
52,8468.00,8468.00,0.00,2.385,4654,0.003,1.440,0.006,0.925,0.012,9.2
53,8528.00,8528.00,0.00,2.333,4687,0.003,1.395,0.006,0.918,0.012,9.1
54,7965.00,7965.00,0.00,2.514,4378,0.003,1.517,0.006,0.977,0.012,9.1
55,8285.00,8285.00,0.00,2.415,4553,0.003,1.455,0.006,0.940,0.012,9.0
56,8436.00,8436.00,0.00,2.335,4636,0.003,1.400,0.006,0.915,0.011,9.3
57,8213.00,8213.00,0.00,2.483,4514,0.003,1.511,0.006,0.953,0.012,9.5
58,8247.00,8247.00,0.00,2.443,4533,0.003,1.472,0.006,0.950,0.012,9.4
59,8465.00,8465.00,0.00,2.379,4652,0.003,1.435,0.006,0.924,0.012,9.3
60,8221.00,8219.00,2.00,2.432,4517,0.003,1.461,0.006,0.952,0.011,8.9
61,8418.00,8416.00,2.00,2.402,4626,0.003,1.455,0.006,0.928,0.011,9.5
62,8116.00,8110.00,6.00,2.482,4457,0.003,1.498,0.006,0.963,0.013,9.5
63,8078.00,8075.00,3.00,2.490,4438,0.003,1.502,0.006,0.968,0.012,9.0
64,8782.00,8773.00,9.00,2.296,4822,0.003,1.385,0.006,0.891,0.012,9.3
65,8563.00,8558.00,5.00,2.334,4703,0.003,1.405,0.006,0.909,0.011,8.9
66,8321.00,8313.00,8.00,2.435,4569,0.003,1.473,0.006,0.941,0.012,9.6
67,8337.00,8334.00,3.00,2.397,4580,0.003,1.448,0.006,0.929,0.011,9.2
68,8639.00,8624.00,15.00,2.322,4740,0.003,1.404,0.006,0.897,0.012,9.2
69,8264.00,8261.00,3.00,2.368,4540,0.003,1.408,0.006,0.939,0.012,8.6
70,8324.00,8314.00,10.00,2.398,4569,0.003,1.442,0.006,0.936,0.012,8.9
71,8264.00,8260.00,4.00,2.413,4540,0.003,1.447,0.006,0.946,0.012,9.0
72,8172.00,8170.00,2.00,2.410,4490,0.003,1.444,0.006,0.945,0.012,9.1
73,8161.00,8161.00,0.00,2.477,4485,0.003,1.495,0.006,0.962,0.012,9.2
74,6812.00,6812.00,0.00,2.278,3744,0.003,1.367,0.006,0.891,0.012,8.9
