Second,Ops/sec,Hits/sec,Misses/sec,Latency,KB/sec,Request_Creation_Time,Request_Buffer_Time,MW_Writes_To_Memcached_Time,Memcached_Process_Time,MW_Writes_To_Memtier_Time,Queue_Size
4,2508.00,2508.00,0.00,4.887,2635,0.018,0.401,0.042,4.360,0.067,2.6
5,5993.00,5993.00,0.00,7.166,6296,0.005,0.162,0.011,6.979,0.010,1.4
6,6240.00,6240.00,0.00,7.098,6556,0.003,0.153,0.010,6.922,0.009,1.8
7,6050.00,6050.00,0.00,7.304,6356,0.003,0.229,0.010,7.052,0.009,1.7
8,6200.00,6200.00,0.00,7.045,6514,0.003,0.195,0.010,6.826,0.010,1.8
9,6082.00,6082.00,0.00,7.286,6389,0.003,0.191,0.010,7.072,0.010,1.8
10,6304.00,6304.00,0.00,7.039,6623,0.004,0.154,0.010,6.863,0.009,1.6
11,6155.00,6155.00,0.00,7.145,6466,0.003,0.188,0.010,6.934,0.009,1.5
12,6188.00,6188.00,0.00,7.163,6501,0.003,0.155,0.010,6.985,0.009,1.5
13,6236.00,6236.00,0.00,7.071,6551,0.003,0.167,0.011,6.881,0.009,1.7
14,6224.00,6224.00,0.00,7.099,6539,0.003,0.174,0.010,6.902,0.009,1.9
15,6157.00,6157.00,0.00,7.122,6468,0.003,0.175,0.010,6.924,0.009,1.5
16,6151.00,6151.00,0.00,7.142,6462,0.003,0.154,0.010,6.966,0.009,1.5
17,6088.00,6088.00,0.00,7.191,6396,0.003,0.178,0.010,6.990,0.009,1.8
18,6065.00,6065.00,0.00,7.294,6372,0.003,0.189,0.010,7.082,0.009,2.0
19,6101.00,6101.00,0.00,7.258,6410,0.003,0.193,0.010,7.042,0.010,2.0
20,6306.00,6306.00,0.00,6.994,6625,0.003,0.213,0.010,6.758,0.010,1.8
21,6183.00,6183.00,0.00,7.145,6496,0.003,0.167,0.010,6.957,0.009,1.6
22,6213.00,6213.00,0.00,7.137,6527,0.003,0.180,0.010,6.936,0.009,1.9
23,6068.00,6057.00,11.00,7.298,6363,0.003,0.272,0.011,7.001,0.010,2.0
24,6133.00,6101.00,32.00,7.236,6409,0.003,0.160,0.011,7.052,0.010,1.7
25,6114.00,6109.00,5.00,7.221,6418,0.003,0.184,0.011,7.013,0.010,1.7
26,6168.00,6168.00,0.00,7.177,6479,0.003,0.216,0.011,6.937,0.009,2.3
27,6130.00,6130.00,0.00,7.237,6439,0.003,0.191,0.011,7.023,0.010,1.9
28,6140.00,6140.00,0.00,7.190,6450,0.003,0.178,0.011,6.989,0.010,1.5
29,6092.00,6092.00,0.00,7.215,6400,0.003,0.222,0.011,6.969,0.011,1.9
30,6067.00,6067.00,0.00,7.299,6374,0.003,0.177,0.011,7.099,0.010,1.7
31,6109.00,6109.00,0.00,7.249,6418,0.003,0.176,0.011,7.049,0.010,1.7
32,6178.00,6178.00,0.00,7.179,6490,0.003,0.191,0.011,6.965,0.010,1.7
33,6217.00,6217.00,0.00,7.092,6532,0.003,0.205,0.011,6.863,0.010,1.8
34,6236.00,6236.00,0.00,7.089,6552,0.003,0.180,0.011,6.885,0.011,1.8
35,6113.00,6113.00,0.00,7.249,6422,0.003,0.177,0.011,7.048,0.010,1.8
36,6232.00,6232.00,0.00,7.102,6547,0.003,0.151,0.011,6.928,0.009,1.7
37,6113.00,6113.00,0.00,7.252,6422,0.003,0.165,0.011,7.064,0.009,1.7
38,6195.00,6195.00,0.00,7.117,6508,0.003,0.184,0.011,6.909,0.010,1.9
39,6143.00,6143.00,0.00,7.209,6453,0.003,0.209,0.011,6.977,0.010,1.8
40,6235.00,6235.00,0.00,7.096,6550,0.003,0.148,0.011,6.924,0.010,1.6
41,6166.00,6166.00,0.00,7.171,6478,0.003,0.159,0.011,6.989,0.010,1.6
42,6213.00,6213.00,0.00,7.108,6527,0.003,0.203,0.012,6.881,0.010,1.7
43,6110.00,6110.00,0.00,7.262,6419,0.003,0.199,0.011,7.040,0.010,1.8
44,6093.00,6093.00,0.00,7.255,6401,0.003,0.189,0.011,7.042,0.010,1.8
45,6104.00,6104.00,0.00,7.259,6412,0.003,0.206,0.011,7.030,0.010,1.9
46,6220.00,6220.00,0.00,7.129,6534,0.003,0.160,0.011,6.945,0.010,1.7
47,6156.00,6156.00,0.00,7.176,6467,0.003,0.189,0.011,6.964,0.010,2.0
48,6251.00,6251.00,0.00,7.084,6567,0.003,0.140,0.011,6.921,0.009,1.8
49,6304.00,6304.00,0.00,7.017,6623,0.003,0.162,0.011,6.832,0.010,1.8
50,6211.00,6211.00,0.00,7.118,6525,0.003,0.159,0.011,6.936,0.010,1.5
51,6228.00,6228.00,0.00,7.070,6543,0.003,0.161,0.011,6.887,0.010,1.6
52,6175.00,6175.00,0.00,7.157,6487,0.003,0.163,0.011,6.971,0.009,1.6
53,6200.00,6200.00,0.00,7.137,6513,0.003,0.165,0.011,6.948,0.010,1.6
54,6086.00,6086.00,0.00,7.229,6394,0.003,0.197,0.011,7.008,0.010,1.9
55,6213.00,6213.00,0.00,7.129,6527,0.003,0.224,0.011,6.882,0.010,1.6
56,6096.00,6096.00,0.00,7.242,6404,0.003,0.187,0.011,7.032,0.010,1.7
57,6166.00,6164.00,2.00,7.139,6476,0.003,0.279,0.011,6.836,0.010,1.9
58,6219.00,6218.00,1.00,7.104,6533,0.003,0.157,0.011,6.924,0.010,1.6
59,6165.00,6162.00,3.00,7.163,6474,0.003,0.211,0.011,6.929,0.010,2.3
60,6010.00,6003.00,7.00,7.368,6307,0.003,0.179,0.011,7.165,0.010,2.3
61,6131.00,6119.00,12.00,7.205,6429,0.003,0.188,0.011,6.994,0.009,1.9
62,6045.00,6033.00,12.00,7.320,6338,0.003,0.209,0.011,7.088,0.010,2.1
63,6011.00,6004.00,7.00,7.355,6307,0.003,0.233,0.011,7.099,0.009,2.1
64,6148.00,6144.00,4.00,7.209,6454,0.003,0.167,0.011,7.018,0.009,1.7
65,6110.00,6110.00,0.00,7.254,6419,0.003,0.218,0.011,7.013,0.010,1.9
66,6173.00,6173.00,0.00,7.163,6485,0.003,0.166,0.011,6.974,0.010,1.8
67,6147.00,6147.00,0.00,7.214,6458,0.003,0.154,0.011,7.036,0.010,1.6
68,6088.00,6088.00,0.00,7.262,6396,0.003,0.214,0.011,7.025,0.010,2.4
69,6111.00,6111.00,0.00,7.242,6420,0.003,0.223,0.011,6.995,0.010,2.0
70,6063.00,6063.00,0.00,7.254,6370,0.003,0.231,0.011,7.001,0.010,2.0
71,6082.00,6082.00,0.00,7.244,6390,0.003,0.204,0.011,7.016,0.010,1.9
72,5949.00,5949.00,0.00,7.425,6250,0.003,0.214,0.011,7.188,0.010,2.0
73,6105.00,6105.00,0.00,7.266,6414,0.003,0.167,0.011,7.077,0.009,1.5
74,3882.00,3882.00,0.00,7.453,4078,0.003,0.257,0.011,7.174,0.010,2.0
