Second,Ops/sec,Hits/sec,Misses/sec,Latency,KB/sec,Request_Creation_Time,Request_Buffer_Time,MW_Writes_To_Memcached_Time,Memcached_Process_Time,MW_Writes_To_Memtier_Time,Queue_Size
4,2144.00,2144.00,0.00,2.461,643,0.029,0.630,0.032,1.706,0.065,5.0
5,12075.00,12075.00,0.00,3.131,3618,0.004,0.737,0.010,2.369,0.011,3.4
6,13617.00,13617.00,0.00,2.914,4080,0.003,0.806,0.008,2.086,0.010,4.1
7,13155.00,13155.00,0.00,3.123,3941,0.004,0.860,0.008,2.242,0.010,4.0
8,13140.00,13140.00,0.00,3.110,3936,0.003,0.852,0.009,2.236,0.010,4.1
9,13478.00,13478.00,0.00,2.985,4038,0.003,0.832,0.008,2.132,0.010,4.0
10,12481.00,12481.00,0.00,3.235,3739,0.004,0.868,0.008,2.345,0.010,3.8
11,13499.00,13499.00,0.00,3.043,4044,0.003,0.852,0.008,2.170,0.010,4.0
12,13117.00,13117.00,0.00,3.079,3930,0.003,0.856,0.008,2.202,0.010,4.0
13,12407.00,12392.00,15.00,3.325,3712,0.003,0.913,0.009,2.391,0.010,3.8
14,13610.00,13577.00,33.00,2.975,4067,0.003,0.825,0.008,2.130,0.009,4.0
15,12800.00,12800.00,0.00,3.229,3834,0.003,0.907,0.008,2.302,0.010,4.1
16,12696.00,12696.00,0.00,3.241,3803,0.003,0.914,0.008,2.306,0.010,4.1
17,13225.00,13225.00,0.00,3.076,3962,0.003,0.846,0.008,2.209,0.010,4.1
18,12726.00,12726.00,0.00,3.231,3813,0.003,0.890,0.009,2.319,0.010,3.9
19,12648.00,12648.00,0.00,3.235,3790,0.003,0.896,0.008,2.318,0.010,4.0
20,12775.00,12775.00,0.00,3.238,3827,0.003,0.897,0.008,2.320,0.010,3.9
21,13109.00,13109.00,0.00,3.161,3927,0.003,0.881,0.008,2.260,0.010,4.2
22,12559.00,12559.00,0.00,3.295,3762,0.003,0.914,0.008,2.361,0.009,4.0
23,13042.00,13042.00,0.00,3.162,3907,0.003,0.872,0.008,2.270,0.010,4.0
24,12491.00,12491.00,0.00,3.316,3742,0.003,0.928,0.008,2.368,0.010,4.2
25,12403.00,12403.00,0.00,3.336,3716,0.003,0.927,0.008,2.389,0.010,4.0
26,13337.00,13337.00,0.00,3.026,3996,0.003,0.864,0.008,2.142,0.010,3.9
27,13405.00,13405.00,0.00,3.089,4016,0.003,0.850,0.008,2.218,0.010,3.9
28,12806.00,12806.00,0.00,3.231,3836,0.003,0.909,0.008,2.301,0.010,4.0
29,12940.00,12940.00,0.00,3.183,3877,0.003,0.882,0.008,2.280,0.010,4.2
30,12770.00,12765.00,5.00,3.221,3825,0.003,0.880,0.008,2.321,0.010,3.8
31,13054.00,13038.00,16.00,3.154,3906,0.003,0.886,0.008,2.247,0.010,4.1
32,12854.00,12837.00,17.00,3.222,3846,0.003,0.883,0.008,2.318,0.010,4.0
33,12802.00,12793.00,9.00,3.202,3832,0.003,0.891,0.008,2.289,0.011,4.0
34,12573.00,12572.00,1.00,3.307,3766,0.003,0.913,0.008,2.373,0.010,3.9
35,12294.00,12294.00,0.00,3.391,3683,0.003,0.952,0.008,2.417,0.011,4.0
36,12600.00,12600.00,0.00,3.273,3775,0.003,0.906,0.008,2.346,0.010,4.0
37,12998.00,12998.00,0.00,3.191,3894,0.003,0.892,0.008,2.278,0.010,4.1
38,12369.00,12369.00,0.00,3.343,3706,0.003,0.940,0.008,2.382,0.010,4.1
39,13082.00,13082.00,0.00,3.100,3919,0.003,0.845,0.008,2.235,0.010,3.7
40,12582.00,12582.00,0.00,3.266,3770,0.003,0.910,0.008,2.334,0.010,4.0
41,12908.00,12908.00,0.00,3.270,3867,0.003,0.925,0.008,2.323,0.010,4.0
42,13563.00,13563.00,0.00,2.979,4064,0.003,0.791,0.008,2.167,0.010,3.8
43,12908.00,12908.00,0.00,3.191,3867,0.003,0.891,0.008,2.278,0.011,3.9
44,12872.00,12872.00,0.00,3.180,3856,0.003,0.887,0.009,2.272,0.010,4.0
45,13140.00,13140.00,0.00,3.140,3937,0.003,0.878,0.008,2.241,0.010,3.8
46,12759.00,12759.00,0.00,3.249,3823,0.003,0.905,0.008,2.323,0.010,3.9
47,12999.00,12999.00,0.00,3.151,3895,0.003,0.867,0.009,2.261,0.011,3.9
48,13081.00,13081.00,0.00,3.122,3919,0.003,0.862,0.008,2.239,0.010,3.9
49,12984.00,12984.00,0.00,3.176,3890,0.003,0.883,0.008,2.272,0.010,4.0
50,12575.00,12575.00,0.00,3.323,3767,0.003,0.929,0.008,2.374,0.010,4.0
51,12958.00,12958.00,0.00,3.168,3882,0.003,0.871,0.008,2.275,0.010,3.7
52,13169.00,13169.00,0.00,3.117,3945,0.003,0.858,0.008,2.239,0.010,4.0
53,13129.00,13129.00,0.00,3.157,3933,0.003,0.887,0.008,2.250,0.010,4.1
54,13102.00,13102.00,0.00,3.127,3925,0.003,0.862,0.009,2.243,0.010,3.9
55,12877.00,12877.00,0.00,3.169,3858,0.003,0.857,0.008,2.291,0.010,4.0
56,12677.00,12677.00,0.00,3.250,3798,0.003,0.915,0.008,2.315,0.010,4.0
57,13155.00,13155.00,0.00,3.138,3941,0.003,0.865,0.008,2.252,0.010,3.9
58,13247.00,13247.00,0.00,3.109,3969,0.003,0.867,0.008,2.221,0.010,3.9
59,12911.00,12911.00,0.00,3.213,3868,0.003,0.892,0.008,2.301,0.010,3.9
60,12990.00,12990.00,0.00,3.180,3892,0.003,0.893,0.008,2.266,0.010,3.9
61,12880.00,12880.00,0.00,3.248,3859,0.003,0.912,0.008,2.315,0.011,4.0
62,12698.00,12698.00,0.00,3.262,3804,0.003,0.932,0.008,2.310,0.010,4.0
63,13211.00,13211.00,0.00,3.128,3958,0.003,0.856,0.008,2.251,0.010,3.8
64,12462.00,12462.00,0.00,3.277,3733,0.003,0.913,0.008,2.343,0.010,4.0
65,13003.00,13003.00,0.00,3.158,3896,0.003,0.869,0.008,2.270,0.010,4.0
66,12327.00,12327.00,0.00,3.343,3693,0.003,0.940,0.008,2.382,0.010,4.3
67,12974.00,12974.00,0.00,3.151,3887,0.003,0.844,0.008,2.285,0.011,3.8
68,13343.00,13343.00,0.00,3.043,3997,0.003,0.824,0.008,2.199,0.010,3.9
69,12860.00,12860.00,0.00,3.188,3853,0.003,0.879,0.008,2.286,0.012,3.7
70,12912.00,12912.00,0.00,3.145,3868,0.003,0.871,0.008,2.253,0.010,4.1
71,13425.00,13425.00,0.00,3.089,4022,0.003,0.850,0.008,2.218,0.010,3.9
72,12447.00,12447.00,0.00,3.267,3729,0.003,0.906,0.008,2.341,0.010,3.8
73,12692.00,12692.00,0.00,3.284,3803,0.003,0.920,0.008,2.343,0.010,4.1
74,10263.00,10263.00,0.00,3.038,3075,0.003,0.819,0.008,2.198,0.010,3.8
