Second,Ops/sec,Hits/sec,Misses/sec,Latency,KB/sec,Request_Creation_Time,Request_Buffer_Time,MW_Writes_To_Memcached_Time,Memcached_Process_Time,MW_Writes_To_Memtier_Time,Queue_Size
4,1801.00,1801.00,0.00,6.203,1892,0.018,5.218,0.028,0.908,0.031,43.0
5,5739.00,5739.00,0.00,15.786,6030,0.004,14.389,0.007,1.372,0.013,78.9
6,5611.00,5611.00,0.00,16.548,5895,0.004,15.121,0.006,1.403,0.014,81.5
7,5533.00,5533.00,0.00,16.879,5813,0.004,15.431,0.007,1.424,0.012,81.8
8,5621.00,5621.00,0.00,16.562,5905,0.004,15.137,0.006,1.403,0.012,81.4
9,5546.00,5546.00,0.00,16.782,5826,0.004,15.338,0.006,1.422,0.012,81.4
10,5637.00,5637.00,0.00,16.581,5922,0.003,15.160,0.006,1.400,0.012,81.4
11,5533.00,5533.00,0.00,16.756,5813,0.003,15.310,0.006,1.424,0.012,81.0
12,5610.00,5610.00,0.00,16.708,5894,0.003,15.280,0.006,1.406,0.012,81.5
13,5589.00,5589.00,0.00,16.650,5872,0.003,15.219,0.006,1.410,0.012,81.4
14,5533.00,5533.00,0.00,16.828,5813,0.003,15.382,0.007,1.424,0.013,81.4
15,5622.00,5622.00,0.00,16.667,5906,0.003,15.242,0.006,1.404,0.012,81.7
16,5821.00,5821.00,0.00,15.852,6116,0.005,14.475,0.006,1.354,0.012,80.5
17,5656.00,5656.00,0.00,16.519,5942,0.003,15.103,0.007,1.393,0.012,81.8
18,5613.00,5613.00,0.00,16.520,5897,0.003,15.094,0.006,1.405,0.012,81.3
19,5694.00,5694.00,0.00,16.448,5981,0.003,15.041,0.006,1.387,0.012,81.7
20,5607.00,5607.00,0.00,16.688,5890,0.003,15.260,0.006,1.408,0.012,81.8
21,5678.00,5678.00,0.00,16.382,5965,0.003,14.971,0.006,1.390,0.013,81.2
22,5553.00,5553.00,0.00,16.746,5834,0.004,15.302,0.006,1.422,0.012,81.4
23,5628.00,5628.00,0.00,16.566,5913,0.003,15.142,0.006,1.404,0.012,81.0
24,5583.00,5583.00,0.00,16.717,5865,0.003,15.283,0.006,1.414,0.012,81.5
25,5574.00,5574.00,0.00,16.685,5856,0.003,15.248,0.006,1.416,0.012,81.2
26,5563.00,5563.00,0.00,16.709,5844,0.003,15.271,0.006,1.417,0.013,80.9
27,5612.00,5612.00,0.00,16.640,5896,0.003,15.211,0.006,1.409,0.012,81.7
28,5605.00,5605.00,0.00,16.743,5888,0.003,15.314,0.006,1.409,0.012,81.3
29,5718.00,5718.00,0.00,16.198,6007,0.002,14.797,0.006,1.381,0.012,81.2
30,5581.00,5581.00,0.00,16.757,5863,0.003,15.321,0.006,1.416,0.012,81.6
31,5616.00,5616.00,0.00,16.565,5900,0.003,15.140,0.006,1.404,0.012,81.5
32,5587.00,5587.00,0.00,16.726,5870,0.003,15.292,0.006,1.414,0.013,82.0
33,5638.00,5638.00,0.00,16.483,5923,0.003,15.062,0.006,1.400,0.012,81.1
34,5571.00,5571.00,0.00,16.726,5853,0.003,15.287,0.006,1.417,0.013,81.7
35,5624.00,5624.00,0.00,16.540,5909,0.003,15.116,0.006,1.403,0.013,81.5
36,5590.00,5590.00,0.00,16.640,5873,0.003,15.207,0.006,1.412,0.012,81.2
37,5611.00,5611.00,0.00,16.590,5895,0.003,15.162,0.006,1.406,0.012,81.5
38,5486.00,5486.00,0.00,17.067,5763,0.003,15.606,0.006,1.440,0.012,81.6
39,5483.00,5483.00,0.00,17.006,5761,0.003,15.544,0.006,1.441,0.012,81.4
40,5570.00,5570.00,0.00,16.746,5852,0.003,15.308,0.006,1.417,0.012,81.8
41,5630.00,5630.00,0.00,16.641,5915,0.003,15.218,0.006,1.403,0.012,81.6
42,5564.00,5564.00,0.00,16.767,5845,0.002,15.329,0.006,1.419,0.012,81.8
43,5636.00,5636.00,0.00,16.579,5921,0.003,15.156,0.006,1.402,0.013,81.6
44,5533.00,5533.00,0.00,16.738,5813,0.003,15.292,0.006,1.426,0.012,81.1
45,5532.00,5532.00,0.00,16.847,5811,0.003,15.399,0.006,1.427,0.013,81.5
46,5554.00,5554.00,0.00,16.795,5834,0.003,15.353,0.006,1.421,0.012,81.7
47,5603.00,5565.00,38.00,16.642,5847,0.003,15.213,0.007,1.406,0.014,81.4
48,5690.00,5632.00,58.00,16.428,5917,0.003,15.018,0.006,1.388,0.012,81.8
49,5538.00,5538.00,0.00,16.760,5818,0.003,15.316,0.007,1.423,0.012,81.3
50,5586.00,5586.00,0.00,16.764,5868,0.003,15.329,0.006,1.414,0.012,81.6
51,5546.00,5546.00,0.00,16.741,5826,0.003,15.298,0.006,1.422,0.012,81.0
52,5576.00,5576.00,0.00,16.697,5858,0.003,15.260,0.006,1.416,0.012,81.3
53,5609.00,5609.00,0.00,16.562,5891,0.003,15.133,0.006,1.408,0.012,81.0
54,5589.00,5589.00,0.00,16.677,5871,0.003,15.245,0.006,1.411,0.012,81.1
55,5612.00,5612.00,0.00,16.605,5896,0.003,15.177,0.006,1.407,0.012,81.2
56,5636.00,5636.00,0.00,16.443,5921,0.004,15.021,0.006,1.400,0.012,80.5
57,5592.00,5592.00,0.00,16.573,5875,0.003,15.143,0.006,1.409,0.013,81.3
58,5603.00,5603.00,0.00,16.621,5886,0.003,15.191,0.006,1.410,0.012,81.0
59,5633.00,5633.00,0.00,16.487,5918,0.003,15.064,0.006,1.401,0.012,81.0
60,5644.00,5644.00,0.00,16.442,5929,0.002,15.023,0.006,1.398,0.012,81.0
61,5731.00,5731.00,0.00,16.247,6021,0.003,14.849,0.006,1.378,0.012,81.0
62,5745.00,5745.00,0.00,16.237,6036,0.003,14.842,0.006,1.374,0.012,81.4
63,5598.00,5598.00,0.00,16.604,5881,0.003,15.174,0.006,1.409,0.012,81.3
64,5692.00,5692.00,0.00,16.396,5980,0.003,14.988,0.006,1.387,0.012,81.2
65,5520.00,5520.00,0.00,16.831,5799,0.003,15.379,0.006,1.430,0.013,81.2
66,5598.00,5598.00,0.00,16.590,5881,0.003,15.160,0.006,1.409,0.012,81.2
67,5796.00,5796.00,0.00,16.083,6089,0.003,14.700,0.006,1.362,0.012,81.2
68,5825.00,5825.00,0.00,16.005,6120,0.003,14.629,0.006,1.355,0.012,81.4
69,5698.00,5698.00,0.00,16.394,5986,0.003,14.988,0.006,1.386,0.012,81.8
70,5568.00,5568.00,0.00,16.750,5850,0.003,15.314,0.006,1.415,0.012,81.4
71,5745.00,5745.00,0.00,16.252,6036,0.003,14.856,0.006,1.376,0.012,80.8
72,5576.00,5576.00,0.00,16.709,5858,0.003,15.272,0.006,1.417,0.012,81.4
73,5587.00,5587.00,0.00,16.665,5869,0.003,15.232,0.006,1.413,0.012,80.7
74,4192.00,4192.00,0.00,16.580,4404,0.002,15.145,0.006,1.416,0.012,78.9
