Second,Ops/sec,Hits/sec,Misses/sec,Latency,KB/sec,Request_Creation_Time,Request_Buffer_Time,MW_Writes_To_Memcached_Time,Memcached_Process_Time,MW_Writes_To_Memtier_Time,Queue_Size
4,1602.00,1602.00,0.00,2.520,881,0.021,1.362,0.033,1.071,0.033,7.3
5,7814.00,7814.00,0.00,2.370,4295,0.004,1.362,0.008,0.984,0.012,8.4
6,7809.00,7809.00,0.00,2.603,4292,0.004,1.578,0.006,1.003,0.012,9.1
7,8436.00,8436.00,0.00,2.374,4636,0.004,1.432,0.006,0.921,0.011,9.0
8,8781.00,8781.00,0.00,2.316,4826,0.004,1.404,0.006,0.892,0.011,9.5
9,7986.00,7986.00,0.00,2.510,4389,0.004,1.509,0.006,0.979,0.012,9.0
10,8450.00,8450.00,0.00,2.337,4644,0.003,1.399,0.006,0.918,0.011,9.1
11,8674.00,8667.00,7.00,2.284,4763,0.003,1.369,0.007,0.894,0.012,9.6
12,7969.00,7952.00,17.00,2.439,4370,0.003,1.438,0.006,0.981,0.012,8.5
13,8577.00,8577.00,0.00,2.346,4713,0.003,1.416,0.006,0.910,0.012,9.4
14,8211.00,8211.00,0.00,2.464,4513,0.003,1.493,0.006,0.951,0.012,9.5
15,8039.00,8039.00,0.00,2.480,4418,0.003,1.496,0.006,0.963,0.012,9.4
16,8777.00,8777.00,0.00,2.281,4824,0.003,1.370,0.006,0.890,0.012,9.1
17,8560.00,8560.00,0.00,2.307,4704,0.002,1.385,0.006,0.902,0.011,9.3
18,8429.00,8429.00,0.00,2.418,4632,0.003,1.466,0.007,0.931,0.012,9.7
19,8801.00,8801.00,0.00,2.217,4837,0.003,1.320,0.006,0.877,0.012,9.0
20,8433.00,8433.00,0.00,2.422,4635,0.003,1.470,0.006,0.931,0.012,9.5
21,8215.00,8215.00,0.00,2.439,4515,0.003,1.466,0.006,0.953,0.012,9.3
22,8208.00,8208.00,0.00,2.411,4511,0.003,1.441,0.006,0.949,0.012,9.1
23,8653.00,8653.00,0.00,2.323,4756,0.002,1.399,0.006,0.903,0.012,9.3
24,8164.00,8163.00,1.00,2.432,4487,0.003,1.463,0.006,0.950,0.011,9.1
25,8299.00,8289.00,10.00,2.437,4556,0.003,1.477,0.005,0.940,0.011,9.4
26,8663.00,8651.00,12.00,2.256,4754,0.003,1.344,0.006,0.892,0.012,9.1
27,8008.00,8007.00,1.00,2.546,4400,0.003,1.549,0.006,0.977,0.011,9.4
28,8218.00,8218.00,0.00,2.415,4517,0.003,1.450,0.005,0.946,0.011,9.2
29,8442.00,8442.00,0.00,2.379,4640,0.003,1.428,0.006,0.932,0.012,9.3
30,8188.00,8188.00,0.00,2.474,4500,0.003,1.497,0.006,0.956,0.012,9.2
31,8416.00,8416.00,0.00,2.353,4625,0.002,1.410,0.005,0.923,0.012,9.1
32,8581.00,8581.00,0.00,2.350,4716,0.003,1.419,0.006,0.911,0.012,9.2
33,8123.00,8123.00,0.00,2.425,4464,0.004,1.465,0.005,0.940,0.011,9.0
34,8613.00,8613.00,0.00,2.341,4734,0.002,1.411,0.006,0.911,0.011,8.9
35,8355.00,8355.00,0.00,2.395,4592,0.003,1.443,0.006,0.933,0.011,9.2
36,8333.00,8333.00,0.00,2.419,4580,0.003,1.460,0.006,0.939,0.011,9.4
37,8070.00,8070.00,0.00,2.528,4435,0.002,1.533,0.006,0.976,0.011,9.5
38,8331.00,8331.00,0.00,2.393,4579,0.002,1.437,0.006,0.936,0.011,9.3
39,8320.00,8320.00,0.00,2.394,4573,0.002,1.437,0.006,0.938,0.011,9.4
40,7888.00,7888.00,0.00,2.578,4335,0.002,1.565,0.005,0.994,0.012,9.5
41,8804.00,8804.00,0.00,2.257,4838,0.002,1.361,0.005,0.877,0.011,9.2
42,8304.00,8304.00,0.00,2.451,4564,0.002,1.482,0.005,0.949,0.011,9.6
43,7870.00,7870.00,0.00,2.548,4325,0.002,1.542,0.006,0.986,0.012,9.3
44,7794.00,7794.00,0.00,2.541,4284,0.002,1.530,0.006,0.992,0.011,9.3
45,8119.00,8119.00,0.00,2.492,4462,0.002,1.509,0.006,0.963,0.011,9.4
46,7670.00,7670.00,0.00,2.602,4215,0.002,1.577,0.005,1.005,0.011,9.5
47,8378.00,8378.00,0.00,2.399,4605,0.003,1.448,0.005,0.932,0.012,9.3
48,8324.00,8324.00,0.00,2.452,4575,0.003,1.491,0.005,0.943,0.011,9.5
49,7835.00,7835.00,0.00,2.607,4306,0.003,1.581,0.005,1.007,0.011,9.3
50,7959.00,7959.00,0.00,2.541,4374,0.002,1.543,0.005,0.979,0.011,9.5
51,8103.00,8103.00,0.00,2.478,4453,0.002,1.496,0.006,0.963,0.011,9.4
52,7897.00,7897.00,0.00,2.551,4340,0.003,1.540,0.005,0.992,0.011,9.4
53,8410.00,8410.00,0.00,2.308,4622,0.003,1.376,0.005,0.914,0.011,9.0
54,8369.00,8369.00,0.00,2.406,4600,0.003,1.452,0.005,0.935,0.011,9.6
55,8092.00,8092.00,0.00,2.451,4447,0.003,1.469,0.005,0.962,0.013,9.2
56,8468.00,8468.00,0.00,2.361,4654,0.002,1.418,0.005,0.924,0.011,9.5
57,8736.00,8736.00,0.00,2.283,4801,0.002,1.370,0.005,0.894,0.012,9.6
58,8144.00,8144.00,0.00,2.468,4476,0.003,1.485,0.005,0.963,0.012,9.2
59,8543.00,8543.00,0.00,2.315,4695,0.002,1.386,0.006,0.910,0.012,9.5
60,8382.00,8379.00,3.00,2.394,4605,0.003,1.440,0.005,0.934,0.011,9.5
61,8437.00,8436.00,1.00,2.341,4637,0.002,1.408,0.006,0.914,0.011,9.3
62,8527.00,8522.00,5.00,2.328,4684,0.002,1.398,0.005,0.911,0.011,9.6
63,8754.00,8750.00,4.00,2.287,4809,0.002,1.373,0.006,0.894,0.012,9.5
64,8143.00,8133.00,10.00,2.468,4470,0.002,1.492,0.006,0.956,0.012,9.3
65,8211.00,8207.00,4.00,2.471,4511,0.002,1.496,0.006,0.955,0.012,9.5
66,7650.00,7644.00,6.00,2.620,4201,0.003,1.592,0.006,1.008,0.012,9.5
67,8086.00,8081.00,5.00,2.503,4441,0.003,1.516,0.006,0.966,0.012,9.5
68,8352.00,8340.00,12.00,2.418,4584,0.003,1.459,0.006,0.938,0.013,9.6
69,8557.00,8550.00,7.00,2.358,4699,0.003,1.424,0.006,0.914,0.012,9.4
70,7780.00,7772.00,8.00,2.584,4271,0.003,1.561,0.006,1.003,0.012,9.5
71,8482.00,8477.00,5.00,2.326,4659,0.002,1.392,0.006,0.915,0.011,9.3
72,8363.00,8362.00,1.00,2.458,4596,0.003,1.495,0.006,0.943,0.012,9.8
73,8116.00,8115.00,1.00,2.513,4460,0.003,1.526,0.006,0.966,0.013,9.6
74,5798.00,5798.00,0.00,2.498,3187,0.002,1.501,0.006,0.976,0.012,9.4
