Second,Ops/sec,Hits/sec,Misses/sec,Latency,KB/sec,Request_Creation_Time,Request_Buffer_Time,MW_Writes_To_Memcached_Time,Memcached_Process_Time,MW_Writes_To_Memtier_Time,Queue_Size
4,2221.00,2221.00,0.00,2.130,247,0.009,0.236,0.058,1.765,0.062,0.8
5,8827.00,8827.00,0.00,2.129,981,0.006,0.112,0.012,1.989,0.011,0.7
6,9992.00,9992.00,0.00,1.919,1110,0.004,0.087,0.010,1.809,0.010,0.7
7,9873.00,9873.00,0.00,1.940,1097,0.004,0.119,0.010,1.798,0.009,0.7
8,10223.00,10223.00,0.00,1.879,1136,0.004,0.086,0.010,1.769,0.009,0.6
9,10100.00,10100.00,0.00,1.915,1122,0.003,0.097,0.010,1.796,0.010,0.7
10,9672.00,9661.00,11.00,1.890,1073,0.003,0.106,0.011,1.758,0.012,0.7
11,9879.00,9866.00,13.00,1.898,1096,0.003,0.083,0.010,1.792,0.010,0.6
12,9805.00,9805.00,0.00,1.936,1089,0.003,0.100,0.010,1.813,0.010,0.7
13,10369.00,10369.00,0.00,1.830,1152,0.003,0.101,0.010,1.705,0.010,0.6
14,10148.00,10148.00,0.00,1.880,1128,0.003,0.097,0.010,1.761,0.010,0.7
15,9886.00,9886.00,0.00,1.970,1098,0.003,0.089,0.010,1.858,0.010,0.7
16,9694.00,9694.00,0.00,1.992,1077,0.003,0.110,0.011,1.859,0.010,0.8
17,10343.00,10343.00,0.00,1.872,1149,0.003,0.118,0.010,1.731,0.010,0.8
18,9546.00,9546.00,0.00,2.024,1061,0.003,0.143,0.010,1.859,0.010,0.8
19,10021.00,10021.00,0.00,1.893,1113,0.003,0.135,0.010,1.735,0.010,0.7
20,10204.00,10204.00,0.00,1.888,1134,0.003,0.096,0.010,1.770,0.010,0.7
21,10109.00,10102.00,7.00,1.896,1123,0.003,0.100,0.011,1.773,0.010,0.7
22,10035.00,10024.00,11.00,1.925,1114,0.003,0.079,0.011,1.822,0.010,0.7
23,10433.00,10427.00,6.00,1.822,1158,0.003,0.096,0.010,1.703,0.010,0.7
24,9689.00,9689.00,0.00,1.974,1077,0.003,0.108,0.010,1.844,0.010,0.7
25,10012.00,10012.00,0.00,1.936,1113,0.003,0.107,0.010,1.806,0.010,0.7
26,9913.00,9913.00,0.00,1.942,1101,0.003,0.093,0.010,1.825,0.010,0.7
27,9789.00,9789.00,0.00,1.956,1088,0.003,0.127,0.011,1.806,0.010,0.8
28,10054.00,10054.00,0.00,1.905,1117,0.003,0.107,0.011,1.775,0.010,0.7
29,10303.00,10303.00,0.00,1.882,1145,0.003,0.108,0.010,1.752,0.009,0.7
30,10200.00,10200.00,0.00,1.900,1134,0.003,0.098,0.010,1.779,0.010,0.7
31,9732.00,9732.00,0.00,1.991,1081,0.003,0.087,0.010,1.881,0.010,0.6
32,10535.00,10535.00,0.00,1.807,1171,0.003,0.090,0.010,1.695,0.010,0.7
33,9918.00,9918.00,0.00,1.943,1102,0.003,0.125,0.010,1.796,0.010,0.7
34,9794.00,9794.00,0.00,1.945,1088,0.003,0.095,0.010,1.828,0.010,0.7
35,10339.00,10339.00,0.00,1.868,1149,0.003,0.115,0.010,1.730,0.010,0.8
36,10053.00,10053.00,0.00,1.910,1117,0.003,0.093,0.010,1.794,0.010,0.7
37,10026.00,10026.00,0.00,1.902,1114,0.003,0.119,0.010,1.761,0.010,0.7
38,10303.00,10303.00,0.00,1.860,1145,0.003,0.122,0.010,1.715,0.009,0.7
39,10031.00,10031.00,0.00,1.918,1115,0.003,0.117,0.010,1.778,0.010,0.7
40,10251.00,10251.00,0.00,1.888,1139,0.003,0.089,0.010,1.776,0.010,0.7
41,9785.00,9785.00,0.00,1.983,1087,0.003,0.128,0.010,1.832,0.010,0.8
42,9996.00,9996.00,0.00,1.935,1111,0.003,0.122,0.010,1.790,0.010,1.0
43,9819.00,9819.00,0.00,1.978,1091,0.003,0.099,0.010,1.857,0.010,0.6
44,10121.00,10121.00,0.00,1.901,1125,0.003,0.116,0.010,1.762,0.009,0.8
45,10052.00,10052.00,0.00,1.858,1117,0.003,0.102,0.010,1.734,0.010,0.7
46,9553.00,9553.00,0.00,2.048,1061,0.003,0.089,0.010,1.937,0.010,0.7
47,10265.00,10265.00,0.00,1.870,1141,0.003,0.116,0.010,1.731,0.010,0.8
48,9993.00,9993.00,0.00,1.918,1110,0.003,0.102,0.011,1.793,0.010,0.7
49,9519.00,9519.00,0.00,2.018,1058,0.003,0.136,0.010,1.859,0.010,0.9
50,9754.00,9753.00,1.00,1.960,1084,0.003,0.131,0.010,1.807,0.010,0.8
51,10052.00,10048.00,4.00,1.894,1117,0.003,0.098,0.010,1.773,0.010,0.6
52,9827.00,9823.00,4.00,1.950,1092,0.003,0.099,0.010,1.827,0.012,0.7
53,9669.00,9666.00,3.00,1.984,1074,0.003,0.166,0.010,1.795,0.011,1.0
54,10293.00,10283.00,10.00,1.870,1143,0.003,0.076,0.010,1.772,0.010,0.7
55,9700.00,9693.00,7.00,2.003,1077,0.003,0.117,0.010,1.863,0.010,0.7
56,9979.00,9969.00,10.00,1.913,1108,0.003,0.085,0.010,1.806,0.010,0.7
57,10129.00,10120.00,9.00,1.895,1124,0.003,0.091,0.011,1.780,0.010,0.7
58,9374.00,9367.00,7.00,2.074,1041,0.003,0.151,0.010,1.900,0.010,0.9
59,9806.00,9796.00,10.00,1.949,1089,0.003,0.114,0.010,1.813,0.010,0.9
60,9916.00,9913.00,3.00,1.931,1101,0.003,0.118,0.010,1.790,0.010,0.8
61,9774.00,9770.00,4.00,1.974,1086,0.003,0.126,0.010,1.826,0.010,0.7
62,10266.00,10266.00,0.00,1.847,1141,0.003,0.105,0.010,1.719,0.010,0.7
63,10111.00,10111.00,0.00,1.898,1123,0.003,0.105,0.010,1.771,0.010,0.8
64,9925.00,9925.00,0.00,1.947,1103,0.003,0.093,0.010,1.831,0.010,0.7
65,9472.00,9472.00,0.00,2.072,1052,0.003,0.104,0.010,1.945,0.010,0.7
66,10101.00,10101.00,0.00,1.908,1122,0.003,0.109,0.010,1.776,0.010,0.8
67,9957.00,9957.00,0.00,1.940,1106,0.003,0.104,0.010,1.814,0.010,0.7
68,9872.00,9872.00,0.00,1.954,1097,0.003,0.118,0.010,1.813,0.010,0.8
69,9940.00,9940.00,0.00,1.896,1104,0.003,0.108,0.010,1.765,0.010,0.8
70,10201.00,10201.00,0.00,1.874,1133,0.003,0.088,0.010,1.763,0.010,0.6
71,9825.00,9825.00,0.00,1.988,1092,0.003,0.093,0.010,1.873,0.010,0.6
72,10060.00,10060.00,0.00,1.898,1118,0.003,0.087,0.010,1.789,0.010,0.7
73,9987.00,9987.00,0.00,1.933,1110,0.003,0.111,0.010,1.799,0.010,0.7
74,6503.00,6503.00,0.00,2.087,723,0.003,0.130,0.010,1.934,0.010,0.8
