Second,Ops/sec,Hits/sec,Misses/sec,Latency,KB/sec,Request_Creation_Time,Request_Buffer_Time,MW_Writes_To_Memcached_Time,Memcached_Process_Time,MW_Writes_To_Memtier_Time,Queue_Size
4,2192.00,2192.00,0.00,1.974,244,0.013,0.253,0.038,1.636,0.035,1.3
5,8594.00,8594.00,0.00,2.063,955,0.004,0.103,0.012,1.932,0.013,0.6
6,10034.00,10034.00,0.00,1.911,1115,0.004,0.098,0.011,1.788,0.010,0.7
7,10002.00,10002.00,0.00,1.918,1111,0.004,0.140,0.011,1.754,0.010,0.7
8,9471.00,9471.00,0.00,2.009,1052,0.004,0.119,0.010,1.865,0.010,0.7
9,10211.00,10211.00,0.00,1.857,1135,0.003,0.121,0.010,1.712,0.010,0.8
10,9640.00,9633.00,7.00,1.959,1070,0.003,0.108,0.011,1.826,0.010,0.8
11,9868.00,9851.00,17.00,1.964,1094,0.003,0.133,0.010,1.808,0.010,0.9
12,10052.00,10052.00,0.00,1.866,1117,0.003,0.101,0.011,1.742,0.010,0.7
13,10184.00,10184.00,0.00,1.892,1132,0.003,0.097,0.011,1.771,0.010,0.8
14,9926.00,9926.00,0.00,1.957,1103,0.003,0.105,0.010,1.829,0.011,0.7
15,10319.00,10319.00,0.00,1.808,1146,0.003,0.074,0.010,1.710,0.011,0.6
16,10036.00,10036.00,0.00,1.914,1115,0.003,0.104,0.010,1.786,0.010,0.8
17,9909.00,9909.00,0.00,1.933,1101,0.004,0.101,0.010,1.807,0.011,0.7
18,10197.00,10197.00,0.00,1.858,1133,0.003,0.102,0.010,1.733,0.010,0.7
19,10240.00,10240.00,0.00,1.860,1138,0.003,0.095,0.010,1.742,0.010,0.7
20,9802.00,9801.00,1.00,1.915,1089,0.003,0.172,0.010,1.721,0.010,0.9
21,9911.00,9908.00,3.00,1.951,1101,0.003,0.109,0.010,1.818,0.010,0.8
22,10114.00,10100.00,14.00,1.918,1122,0.003,0.104,0.010,1.793,0.010,0.8
23,10352.00,10346.00,6.00,1.865,1149,0.003,0.099,0.010,1.743,0.010,0.7
24,9922.00,9922.00,0.00,1.934,1102,0.003,0.108,0.010,1.803,0.010,0.7
25,10210.00,10210.00,0.00,1.839,1135,0.003,0.093,0.010,1.722,0.011,0.7
26,9960.00,9960.00,0.00,1.922,1107,0.003,0.096,0.011,1.802,0.010,0.7
27,10121.00,10121.00,0.00,1.896,1125,0.003,0.096,0.010,1.777,0.010,0.7
28,10144.00,10144.00,0.00,1.833,1127,0.003,0.104,0.010,1.706,0.010,0.7
29,10164.00,10164.00,0.00,1.865,1130,0.003,0.105,0.010,1.737,0.011,0.8
30,9601.00,9601.00,0.00,2.042,1067,0.003,0.093,0.010,1.926,0.010,0.8
31,9901.00,9901.00,0.00,1.920,1100,0.003,0.109,0.010,1.789,0.010,0.7
32,10155.00,10155.00,0.00,1.866,1129,0.003,0.111,0.010,1.732,0.010,0.8
33,10156.00,10156.00,0.00,1.904,1129,0.003,0.092,0.010,1.789,0.010,0.7
34,10189.00,10189.00,0.00,1.866,1132,0.003,0.106,0.010,1.736,0.011,0.7
35,10279.00,10279.00,0.00,1.879,1142,0.003,0.097,0.010,1.759,0.010,0.8
36,9485.00,9485.00,0.00,2.020,1054,0.003,0.117,0.010,1.880,0.010,0.8
37,10824.00,10824.00,0.00,1.756,1203,0.003,0.093,0.010,1.640,0.010,0.8
38,10797.00,10797.00,0.00,1.753,1200,0.003,0.090,0.010,1.641,0.010,0.7
39,10559.00,10559.00,0.00,1.816,1173,0.003,0.093,0.010,1.700,0.010,0.8
40,10643.00,10643.00,0.00,1.800,1183,0.003,0.099,0.010,1.678,0.010,0.7
41,10043.00,10043.00,0.00,1.899,1116,0.003,0.115,0.011,1.760,0.010,0.8
42,9603.00,9603.00,0.00,1.930,1067,0.003,0.140,0.010,1.767,0.010,0.8
43,10233.00,10233.00,0.00,1.856,1137,0.003,0.096,0.010,1.737,0.010,0.8
44,10092.00,10092.00,0.00,1.848,1121,0.003,0.097,0.010,1.727,0.011,0.8
45,10348.00,10348.00,0.00,1.842,1150,0.003,0.088,0.010,1.731,0.010,0.7
46,10408.00,10408.00,0.00,1.841,1157,0.003,0.098,0.010,1.720,0.010,0.7
47,9853.00,9853.00,0.00,1.919,1095,0.003,0.144,0.010,1.752,0.011,0.8
48,9776.00,9775.00,1.00,1.984,1086,0.003,0.117,0.010,1.844,0.010,0.8
49,9830.00,9830.00,0.00,1.919,1092,0.003,0.102,0.010,1.794,0.010,0.8
50,10062.00,10062.00,0.00,1.864,1118,0.003,0.114,0.010,1.727,0.010,0.8
51,9591.00,9587.00,4.00,1.980,1065,0.003,0.106,0.010,1.852,0.010,0.7
52,9944.00,9939.00,5.00,1.922,1105,0.003,0.113,0.010,1.787,0.010,0.8
53,9851.00,9842.00,9.00,1.927,1094,0.003,0.137,0.010,1.767,0.010,0.8
54,9449.00,9442.00,7.00,2.011,1049,0.003,0.104,0.010,1.884,0.010,0.7
55,9902.00,9898.00,4.00,1.923,1100,0.003,0.108,0.010,1.792,0.010,0.7
56,10121.00,10113.00,8.00,1.925,1124,0.003,0.081,0.010,1.822,0.010,0.7
57,9945.00,9935.00,10.00,1.901,1104,0.003,0.140,0.010,1.738,0.010,0.8
58,9852.00,9840.00,12.00,1.965,1093,0.003,0.112,0.010,1.831,0.011,0.8
59,10143.00,10137.00,6.00,1.866,1126,0.003,0.107,0.010,1.737,0.010,0.8
60,10230.00,10224.00,6.00,1.858,1136,0.003,0.105,0.010,1.731,0.010,0.8
61,9919.00,9919.00,0.00,1.937,1102,0.003,0.091,0.010,1.824,0.010,0.7
62,10249.00,10249.00,0.00,1.857,1139,0.003,0.124,0.010,1.710,0.011,0.8
63,9892.00,9892.00,0.00,1.910,1099,0.003,0.121,0.010,1.767,0.010,0.9
64,9762.00,9762.00,0.00,1.981,1084,0.003,0.110,0.010,1.848,0.010,0.9
65,10292.00,10292.00,0.00,1.839,1143,0.003,0.093,0.010,1.724,0.010,0.7
66,10176.00,10176.00,0.00,1.900,1130,0.003,0.096,0.010,1.781,0.010,0.8
67,9703.00,9703.00,0.00,1.969,1078,0.003,0.114,0.010,1.832,0.010,0.8
68,10161.00,10161.00,0.00,1.882,1129,0.003,0.136,0.010,1.722,0.011,0.9
69,10153.00,10153.00,0.00,1.847,1128,0.003,0.124,0.010,1.698,0.010,0.8
70,9857.00,9857.00,0.00,1.923,1095,0.003,0.103,0.010,1.796,0.010,0.8
71,10088.00,10088.00,0.00,1.885,1121,0.003,0.095,0.010,1.767,0.010,0.8
72,10699.00,10699.00,0.00,1.782,1189,0.003,0.101,0.009,1.658,0.010,0.7
73,10053.00,10053.00,0.00,1.941,1117,0.003,0.095,0.010,1.823,0.010,0.8
74,7133.00,7133.00,0.00,1.918,792,0.003,0.125,0.010,1.770,0.010,0.9
