Second,Ops/sec,Hits/sec,Misses/sec,Latency,KB/sec,Request_Creation_Time,Request_Buffer_Time,MW_Writes_To_Memcached_Time,Memcached_Process_Time,MW_Writes_To_Memtier_Time,Queue_Size
4,4353.00,4353.00,0.00,3.982,484,0.018,0.925,0.030,2.968,0.041,6.4
5,15804.00,15804.00,0.00,5.031,1757,0.003,1.284,0.009,3.724,0.011,7.1
6,16478.00,16478.00,0.00,5.215,1831,0.004,1.456,0.008,3.738,0.009,8.0
7,15779.00,15779.00,0.00,5.476,1754,0.003,1.569,0.008,3.886,0.009,8.0
8,16778.00,16778.00,0.00,5.075,1864,0.003,1.403,0.008,3.651,0.010,8.1
9,16534.00,16534.00,0.00,5.135,1837,0.003,1.398,0.008,3.716,0.009,8.0
10,16556.00,16556.00,0.00,5.193,1839,0.003,1.459,0.008,3.715,0.009,8.1
11,16618.00,16618.00,0.00,5.167,1846,0.003,1.438,0.007,3.709,0.010,8.3
12,16019.00,16019.00,0.00,5.397,1780,0.003,1.530,0.008,3.847,0.009,8.6
13,16342.00,16342.00,0.00,5.347,1816,0.003,1.540,0.007,3.787,0.009,8.7
14,16478.00,16478.00,0.00,5.169,1831,0.003,1.427,0.008,3.721,0.010,8.0
15,16638.00,16638.00,0.00,5.169,1849,0.003,1.438,0.008,3.712,0.009,8.3
16,16028.00,16028.00,0.00,5.417,1781,0.003,1.531,0.007,3.867,0.009,8.4
17,16464.00,16464.00,0.00,5.172,1830,0.003,1.436,0.008,3.716,0.010,8.1
18,16380.00,16355.00,25.00,5.155,1817,0.003,1.416,0.009,3.716,0.011,8.2
19,16459.00,16425.00,34.00,5.163,1825,0.003,1.458,0.008,3.684,0.010,8.0
20,16662.00,16628.00,34.00,5.137,1847,0.003,1.442,0.009,3.672,0.011,8.2
21,16501.00,16498.00,3.00,5.168,1832,0.003,1.462,0.009,3.684,0.010,8.1
22,16314.00,16314.00,0.00,5.338,1812,0.003,1.516,0.008,3.800,0.010,8.3
23,16156.00,16156.00,0.00,5.393,1795,0.003,1.539,0.009,3.832,0.010,8.5
24,16400.00,16400.00,0.00,5.173,1822,0.003,1.430,0.009,3.722,0.010,7.7
25,16895.00,16895.00,0.00,5.081,1878,0.003,1.431,0.010,3.627,0.010,8.3
26,16050.00,16050.00,0.00,5.354,1784,0.003,1.508,0.009,3.823,0.011,8.3
27,16116.00,16116.00,0.00,5.350,1791,0.003,1.504,0.009,3.825,0.010,8.0
28,17015.00,17015.00,0.00,5.132,1891,0.003,1.459,0.009,3.650,0.011,9.0
29,16135.00,16135.00,0.00,5.307,1792,0.003,1.485,0.009,3.800,0.010,8.1
30,16650.00,16650.00,0.00,5.145,1850,0.003,1.423,0.008,3.701,0.010,8.3
31,16774.00,16774.00,0.00,5.181,1864,0.003,1.467,0.008,3.693,0.010,8.2
32,16368.00,16368.00,0.00,5.288,1818,0.003,1.501,0.008,3.766,0.010,8.0
33,16543.00,16543.00,0.00,5.197,1838,0.003,1.459,0.008,3.717,0.010,7.9
34,16691.00,16691.00,0.00,5.160,1854,0.003,1.466,0.008,3.674,0.010,8.4
35,16331.00,16331.00,0.00,5.248,1814,0.003,1.506,0.008,3.722,0.010,8.6
36,16938.00,16938.00,0.00,5.005,1882,0.003,1.396,0.008,3.588,0.010,8.1
37,16678.00,16678.00,0.00,5.126,1853,0.003,1.445,0.008,3.661,0.010,8.0
38,16622.00,16622.00,0.00,5.183,1847,0.003,1.468,0.007,3.694,0.010,7.7
39,16486.00,16486.00,0.00,5.190,1831,0.003,1.481,0.007,3.689,0.009,8.5
40,16666.00,16666.00,0.00,5.218,1852,0.003,1.477,0.008,3.721,0.010,8.4
41,15552.00,15552.00,0.00,5.488,1728,0.003,1.513,0.007,3.955,0.010,8.1
42,16122.00,16122.00,0.00,5.366,1791,0.003,1.525,0.008,3.821,0.010,8.0
43,16916.00,16916.00,0.00,5.095,1880,0.003,1.439,0.008,3.636,0.010,8.1
44,16271.00,16264.00,7.00,5.278,1808,0.003,1.472,0.009,3.786,0.009,8.1
45,16201.00,16182.00,19.00,5.239,1799,0.003,1.436,0.008,3.783,0.010,7.8
46,16633.00,16610.00,23.00,5.181,1846,0.003,1.453,0.008,3.708,0.010,8.3
47,16178.00,16168.00,10.00,5.326,1796,0.003,1.513,0.007,3.794,0.009,8.1
48,16138.00,16133.00,5.00,5.285,1793,0.003,1.476,0.008,3.789,0.010,7.9
49,16708.00,16702.00,6.00,5.135,1856,0.003,1.435,0.008,3.680,0.010,7.9
50,16338.00,16322.00,16.00,5.285,1813,0.003,1.499,0.008,3.766,0.010,8.2
51,15867.00,15857.00,10.00,5.357,1762,0.003,1.546,0.008,3.791,0.010,8.7
52,16568.00,16568.00,0.00,5.171,1841,0.003,1.489,0.008,3.662,0.009,8.3
53,16572.00,16572.00,0.00,5.238,1841,0.003,1.481,0.008,3.737,0.010,8.2
54,16010.00,16010.00,0.00,5.299,1779,0.003,1.457,0.008,3.822,0.009,7.8
55,16754.00,16754.00,0.00,5.154,1861,0.003,1.447,0.008,3.687,0.010,8.2
56,16496.00,16496.00,0.00,5.149,1833,0.003,1.439,0.008,3.689,0.010,8.5
57,16090.00,16090.00,0.00,5.372,1788,0.003,1.515,0.008,3.837,0.010,8.5
58,16046.00,16046.00,0.00,5.412,1783,0.003,1.549,0.008,3.843,0.010,9.1
59,16722.00,16722.00,0.00,5.106,1858,0.003,1.443,0.008,3.642,0.010,8.5
60,16096.00,16096.00,0.00,5.338,1789,0.003,1.496,0.009,3.819,0.011,8.4
61,16392.00,16392.00,0.00,5.175,1822,0.003,1.426,0.008,3.729,0.009,8.2
62,16408.00,16408.00,0.00,5.076,1824,0.003,1.424,0.008,3.631,0.010,8.2
63,15698.00,15698.00,0.00,5.473,1745,0.003,1.533,0.008,3.919,0.010,8.1
64,16150.00,16150.00,0.00,5.216,1795,0.003,1.455,0.008,3.741,0.010,8.1
65,16457.00,16457.00,0.00,5.264,1829,0.003,1.503,0.008,3.740,0.010,8.6
66,16107.00,16107.00,0.00,5.362,1790,0.003,1.521,0.008,3.820,0.010,8.6
67,16696.00,16696.00,0.00,5.151,1855,0.003,1.466,0.008,3.665,0.010,8.2
68,16613.00,16613.00,0.00,5.167,1846,0.003,1.464,0.008,3.683,0.010,8.5
69,15794.00,15794.00,0.00,5.513,1755,0.003,1.569,0.008,3.924,0.010,8.8
70,17058.00,17058.00,0.00,5.043,1896,0.003,1.423,0.008,3.600,0.010,7.9
71,17079.00,17079.00,0.00,5.060,1898,0.003,1.425,0.007,3.615,0.009,7.8
72,16217.00,16217.00,0.00,5.249,1802,0.003,1.481,0.007,3.748,0.010,8.5
73,16595.00,16595.00,0.00,5.232,1844,0.003,1.473,0.007,3.739,0.010,8.3
74,11325.00,11325.00,0.00,4.885,1258,0.003,1.378,0.008,3.486,0.010,7.7
75,1761.00,1761.00,0.00,0.773,196,0.006,0.106,0.021,0.625,0.014,0.0
