Second,Ops/sec,Hits/sec,Misses/sec,Latency,KB/sec,Request_Creation_Time,Request_Buffer_Time,MW_Writes_To_Memcached_Time,Memcached_Process_Time,MW_Writes_To_Memtier_Time,Queue_Size
4,837.00,837.00,0.00,1.329,251,0.014,0.290,0.024,0.948,0.053,0.8
5,5762.00,5762.00,0.00,1.515,1726,0.008,0.352,0.011,1.132,0.013,0.8
6,6530.00,6530.00,0.00,1.324,1956,0.004,0.333,0.010,0.966,0.012,0.8
7,6379.00,6379.00,0.00,1.422,1911,0.004,0.379,0.010,1.018,0.011,0.9
8,6733.00,6733.00,0.00,1.342,2017,0.004,0.356,0.010,0.961,0.011,0.8
9,6355.00,6343.00,12.00,1.396,1900,0.004,0.356,0.013,1.010,0.012,0.8
10,6184.00,6184.00,0.00,1.487,1852,0.004,0.408,0.010,1.053,0.012,0.9
11,6656.00,6656.00,0.00,1.351,1994,0.004,0.353,0.010,0.973,0.012,0.9
12,6746.00,6746.00,0.00,1.327,2021,0.004,0.355,0.010,0.947,0.012,0.9
13,6366.00,6366.00,0.00,1.447,1907,0.004,0.399,0.010,1.023,0.011,0.9
14,6432.00,6432.00,0.00,1.400,1927,0.004,0.367,0.010,1.009,0.011,0.8
15,6537.00,6537.00,0.00,1.362,1958,0.003,0.359,0.010,0.979,0.011,0.8
16,6605.00,6605.00,0.00,1.333,1979,0.003,0.343,0.010,0.966,0.012,0.9
17,6731.00,6729.00,2.00,1.329,2016,0.003,0.345,0.009,0.960,0.011,0.9
18,6651.00,6641.00,10.00,1.336,1990,0.003,0.350,0.010,0.961,0.012,0.8
19,6639.00,6639.00,0.00,1.343,1989,0.003,0.368,0.009,0.952,0.011,0.9
20,6659.00,6659.00,0.00,1.372,1995,0.003,0.365,0.010,0.983,0.011,0.9
21,6787.00,6787.00,0.00,1.298,2033,0.003,0.340,0.009,0.935,0.011,0.9
22,6466.00,6466.00,0.00,1.407,1937,0.003,0.370,0.009,1.013,0.012,0.9
23,6618.00,6618.00,0.00,1.356,1983,0.003,0.357,0.010,0.974,0.013,0.9
24,6477.00,6477.00,0.00,1.393,1940,0.003,0.368,0.009,1.001,0.011,0.9
25,6400.00,6400.00,0.00,1.386,1917,0.003,0.361,0.009,1.001,0.011,0.9
26,6647.00,6647.00,0.00,1.312,1992,0.003,0.336,0.010,0.951,0.011,0.9
27,6852.00,6852.00,0.00,1.283,2053,0.003,0.333,0.009,0.928,0.011,0.8
28,6450.00,6450.00,0.00,1.403,1932,0.003,0.377,0.009,1.003,0.011,0.9
29,6634.00,6634.00,0.00,1.348,1988,0.003,0.350,0.009,0.976,0.011,0.8
30,6609.00,6609.00,0.00,1.312,1980,0.003,0.360,0.009,0.928,0.012,0.9
31,6574.00,6574.00,0.00,1.354,1970,0.003,0.361,0.009,0.969,0.011,0.9
32,6708.00,6708.00,0.00,1.315,2010,0.003,0.337,0.009,0.954,0.012,0.9
33,6597.00,6597.00,0.00,1.356,1976,0.003,0.363,0.010,0.969,0.011,0.9
34,6663.00,6663.00,0.00,1.312,1996,0.003,0.337,0.009,0.952,0.011,0.9
35,6329.00,6329.00,0.00,1.436,1896,0.003,0.384,0.009,1.029,0.011,0.9
36,6588.00,6588.00,0.00,1.353,1974,0.003,0.373,0.009,0.957,0.011,0.9
37,6338.00,6338.00,0.00,1.434,1899,0.003,0.382,0.009,1.028,0.011,0.8
38,6430.00,6430.00,0.00,1.399,1926,0.003,0.380,0.009,0.995,0.012,0.9
39,6526.00,6526.00,0.00,1.400,1955,0.003,0.366,0.009,1.005,0.018,0.9
40,6464.00,6462.00,2.00,1.399,1936,0.003,0.362,0.009,1.013,0.011,0.9
41,6451.00,6448.00,3.00,1.390,1932,0.003,0.372,0.009,0.996,0.010,0.8
42,6557.00,6552.00,5.00,1.370,1963,0.003,0.355,0.009,0.992,0.011,0.8
43,6483.00,6478.00,5.00,1.395,1941,0.003,0.375,0.009,0.997,0.011,0.9
44,6385.00,6381.00,4.00,1.401,1912,0.003,0.379,0.009,0.999,0.011,0.9
45,6875.00,6869.00,6.00,1.321,2058,0.003,0.346,0.009,0.952,0.011,0.9
46,6578.00,6570.00,8.00,1.367,1968,0.004,0.370,0.009,0.974,0.010,0.9
47,6562.00,6559.00,3.00,1.353,1965,0.003,0.359,0.009,0.971,0.011,0.9
48,6658.00,6658.00,0.00,1.344,1995,0.003,0.369,0.009,0.953,0.011,0.8
49,7084.00,7084.00,0.00,1.224,2122,0.003,0.311,0.009,0.890,0.011,0.8
50,6262.00,6262.00,0.00,1.461,1876,0.003,0.402,0.009,1.036,0.011,0.9
51,6638.00,6638.00,0.00,1.338,1989,0.003,0.349,0.009,0.967,0.011,0.9
52,6245.00,6245.00,0.00,1.443,1871,0.003,0.393,0.011,1.025,0.011,0.9
53,6493.00,6493.00,0.00,1.390,1945,0.003,0.369,0.009,0.998,0.011,0.9
54,6856.00,6856.00,0.00,1.304,2054,0.003,0.343,0.009,0.938,0.011,0.9
55,6605.00,6605.00,0.00,1.337,1979,0.003,0.351,0.009,0.963,0.011,0.9
56,6451.00,6451.00,0.00,1.383,1933,0.003,0.372,0.009,0.987,0.012,0.9
57,6640.00,6640.00,0.00,1.350,1989,0.003,0.369,0.009,0.959,0.011,0.9
58,6567.00,6567.00,0.00,1.383,1967,0.003,0.377,0.009,0.983,0.011,0.8
59,6488.00,6488.00,0.00,1.400,1944,0.003,0.377,0.009,1.000,0.011,0.8
60,6788.00,6788.00,0.00,1.318,2034,0.003,0.345,0.009,0.949,0.011,0.9
61,6584.00,6584.00,0.00,1.356,1973,0.003,0.356,0.009,0.977,0.011,0.8
62,6411.00,6411.00,0.00,1.399,1921,0.003,0.368,0.009,1.009,0.011,0.9
63,6653.00,6653.00,0.00,1.377,1993,0.003,0.363,0.009,0.991,0.011,0.8
64,6455.00,6455.00,0.00,1.385,1934,0.003,0.358,0.009,1.004,0.011,0.9
65,6487.00,6487.00,0.00,1.412,1943,0.003,0.378,0.009,1.011,0.011,0.9
66,6741.00,6741.00,0.00,1.343,2020,0.003,0.357,0.009,0.963,0.011,0.9
67,6450.00,6450.00,0.00,1.370,1932,0.003,0.375,0.009,0.970,0.012,0.9
68,6505.00,6505.00,0.00,1.407,1949,0.003,0.378,0.009,1.007,0.011,0.9
69,6908.00,6908.00,0.00,1.307,2070,0.003,0.343,0.009,0.941,0.011,0.9
70,6541.00,6541.00,0.00,1.361,1960,0.004,0.345,0.009,0.992,0.011,0.8
71,6723.00,6723.00,0.00,1.333,2014,0.003,0.345,0.009,0.966,0.011,0.8
72,6734.00,6734.00,0.00,1.325,2017,0.003,0.343,0.009,0.959,0.011,0.8
73,6865.00,6865.00,0.00,1.303,2057,0.003,0.337,0.009,0.943,0.011,0.9
74,5454.00,5454.00,0.00,1.374,1634,0.003,0.354,0.009,0.998,0.011,0.9
