Second,Ops/sec,Hits/sec,Misses/sec,Latency,KB/sec,Request_Creation_Time,Request_Buffer_Time,MW_Writes_To_Memcached_Time,Memcached_Process_Time,MW_Writes_To_Memtier_Time,Queue_Size
4,2151.00,2151.00,0.00,1.080,2260,0.022,0.096,0.044,0.883,0.035,0.3
5,5414.00,5414.00,0.00,1.628,5688,0.005,0.094,0.014,1.503,0.012,0.3
6,5491.00,5491.00,0.00,1.708,5768,0.004,0.081,0.013,1.597,0.012,0.3
7,5594.00,5594.00,0.00,1.632,5877,0.004,0.101,0.012,1.502,0.012,0.3
8,5414.00,5414.00,0.00,1.696,5688,0.004,0.099,0.014,1.567,0.012,0.3
9,5583.00,5580.00,3.00,1.673,5862,0.004,0.084,0.013,1.560,0.012,0.3
10,5682.00,5673.00,9.00,1.601,5960,0.007,0.116,0.012,1.455,0.012,0.4
11,5406.00,5406.00,0.00,1.707,5679,0.004,0.101,0.014,1.577,0.012,0.4
12,5239.00,5239.00,0.00,1.806,5504,0.004,0.115,0.012,1.664,0.011,0.4
13,5306.00,5306.00,0.00,1.752,5574,0.004,0.103,0.012,1.621,0.012,0.4
14,5420.00,5420.00,0.00,1.739,5694,0.004,0.115,0.013,1.597,0.012,0.4
15,5701.00,5701.00,0.00,1.632,5989,0.004,0.116,0.012,1.488,0.012,0.4
16,5474.00,5474.00,0.00,1.596,5751,0.004,0.080,0.013,1.487,0.012,0.3
17,5437.00,5437.00,0.00,1.739,5712,0.004,0.109,0.012,1.603,0.011,0.3
18,5426.00,5426.00,0.00,1.710,5700,0.003,0.117,0.012,1.566,0.012,0.4
19,5467.00,5467.00,0.00,1.720,5744,0.003,0.094,0.012,1.598,0.012,0.3
20,5547.00,5539.00,8.00,1.713,5819,0.003,0.106,0.012,1.581,0.011,0.4
21,5376.00,5372.00,4.00,1.736,5643,0.004,0.097,0.012,1.612,0.012,0.4
22,5540.00,5540.00,0.00,1.709,5820,0.003,0.091,0.012,1.590,0.012,0.3
23,5392.00,5392.00,0.00,1.720,5665,0.003,0.151,0.012,1.542,0.011,0.5
24,5351.00,5351.00,0.00,1.753,5622,0.003,0.126,0.012,1.599,0.012,0.4
25,5586.00,5586.00,0.00,1.677,5868,0.003,0.079,0.013,1.572,0.011,0.3
26,5742.00,5742.00,0.00,1.643,6032,0.003,0.067,0.012,1.550,0.011,0.4
27,5521.00,5521.00,0.00,1.714,5800,0.003,0.070,0.012,1.618,0.011,0.3
28,5423.00,5423.00,0.00,1.727,5697,0.003,0.103,0.012,1.597,0.011,0.4
29,5349.00,5349.00,0.00,1.724,5620,0.003,0.139,0.012,1.559,0.012,0.5
30,5337.00,5337.00,0.00,1.763,5607,0.003,0.126,0.012,1.611,0.011,0.5
31,5456.00,5456.00,0.00,1.706,5732,0.003,0.113,0.012,1.566,0.012,0.4
32,5517.00,5517.00,0.00,1.704,5796,0.003,0.111,0.012,1.566,0.012,0.4
33,5526.00,5526.00,0.00,1.677,5805,0.003,0.084,0.012,1.566,0.011,0.4
34,5383.00,5383.00,0.00,1.703,5655,0.004,0.090,0.012,1.585,0.012,0.3
35,5584.00,5584.00,0.00,1.672,5866,0.003,0.090,0.012,1.556,0.011,0.3
36,5504.00,5504.00,0.00,1.710,5782,0.003,0.089,0.012,1.593,0.012,0.4
37,5426.00,5426.00,0.00,1.746,5700,0.003,0.117,0.013,1.602,0.011,0.4
38,5293.00,5293.00,0.00,1.790,5561,0.003,0.159,0.012,1.603,0.012,0.5
39,5378.00,5378.00,0.00,1.763,5650,0.003,0.101,0.012,1.635,0.012,0.4
40,5390.00,5390.00,0.00,1.757,5663,0.003,0.115,0.012,1.615,0.012,0.4
41,5522.00,5522.00,0.00,1.712,5801,0.003,0.090,0.012,1.596,0.011,0.4
42,5440.00,5440.00,0.00,1.753,5715,0.003,0.097,0.012,1.629,0.011,0.4
43,5421.00,5421.00,0.00,1.724,5695,0.003,0.105,0.013,1.591,0.012,0.4
44,5709.00,5709.00,0.00,1.634,5998,0.003,0.075,0.012,1.533,0.011,0.4
45,5484.00,5484.00,0.00,1.719,5761,0.003,0.090,0.012,1.601,0.013,0.4
46,5511.00,5511.00,0.00,1.705,5790,0.004,0.079,0.012,1.598,0.012,0.3
47,5507.00,5505.00,2.00,1.721,5784,0.003,0.085,0.014,1.607,0.011,0.3
48,5369.00,5366.00,3.00,1.753,5638,0.003,0.121,0.014,1.603,0.012,0.4
49,5432.00,5427.00,5.00,1.745,5702,0.003,0.082,0.012,1.636,0.011,0.3
50,5207.00,5203.00,4.00,1.772,5466,0.003,0.150,0.012,1.595,0.012,0.4
51,5626.00,5624.00,2.00,1.620,5908,0.003,0.121,0.012,1.472,0.012,0.5
52,5406.00,5399.00,7.00,1.726,5672,0.003,0.122,0.012,1.578,0.011,0.4
53,5548.00,5541.00,7.00,1.692,5821,0.003,0.090,0.012,1.576,0.011,0.4
54,5371.00,5367.00,4.00,1.742,5638,0.003,0.104,0.012,1.610,0.012,0.4
55,5400.00,5398.00,2.00,1.756,5671,0.003,0.121,0.012,1.608,0.012,0.4
56,5644.00,5644.00,0.00,1.646,5929,0.003,0.100,0.012,1.520,0.011,0.4
57,5524.00,5524.00,0.00,1.695,5803,0.003,0.072,0.012,1.596,0.011,0.3
58,5524.00,5524.00,0.00,1.692,5803,0.003,0.109,0.012,1.556,0.012,0.4
59,5806.00,5806.00,0.00,1.585,6099,0.003,0.103,0.012,1.455,0.012,0.4
60,5527.00,5527.00,0.00,1.716,5806,0.003,0.095,0.012,1.594,0.012,0.4
61,6041.00,6041.00,0.00,1.522,6346,0.004,0.076,0.013,1.418,0.011,0.3
62,5671.00,5671.00,0.00,1.631,5958,0.003,0.096,0.012,1.508,0.011,0.4
63,5481.00,5481.00,0.00,1.710,5758,0.003,0.115,0.012,1.568,0.012,0.4
64,5474.00,5474.00,0.00,1.702,5751,0.003,0.103,0.012,1.571,0.012,0.3
65,5509.00,5509.00,0.00,1.672,5788,0.003,0.103,0.013,1.541,0.012,0.3
66,5553.00,5553.00,0.00,1.695,5834,0.003,0.110,0.012,1.559,0.012,0.3
67,5395.00,5395.00,0.00,1.729,5668,0.003,0.115,0.012,1.588,0.011,0.3
68,5632.00,5632.00,0.00,1.661,5917,0.003,0.094,0.012,1.539,0.012,0.3
69,5443.00,5443.00,0.00,1.735,5718,0.003,0.116,0.013,1.591,0.012,0.4
70,5422.00,5422.00,0.00,1.725,5696,0.003,0.088,0.012,1.610,0.012,0.4
71,5587.00,5587.00,0.00,1.683,5869,0.003,0.087,0.012,1.570,0.012,0.4
72,5548.00,5548.00,0.00,1.692,5829,0.003,0.151,0.012,1.514,0.012,0.5
73,5573.00,5573.00,0.00,1.702,5855,0.003,0.084,0.012,1.591,0.011,0.3
74,3524.00,3524.00,0.00,1.748,3702,0.003,0.093,0.012,1.628,0.012,0.4
