Second,Ops/sec,Hits/sec,Misses/sec,Latency,KB/sec,Request_Creation_Time,Request_Buffer_Time,MW_Writes_To_Memcached_Time,Memcached_Process_Time,MW_Writes_To_Memtier_Time,Queue_Size
4,1930.00,1930.00,0.00,7.999,2028,0.032,1.574,0.136,6.206,0.051,6.6
5,5287.00,5287.00,0.00,14.618,5555,0.004,3.017,0.010,11.577,0.010,6.3
6,5458.00,5458.00,0.00,16.802,5734,0.003,5.425,0.009,11.356,0.009,11.7
7,5469.00,5469.00,0.00,16.763,5746,0.003,5.387,0.008,11.355,0.009,11.3
8,5370.00,5370.00,0.00,17.148,5642,0.004,5.535,0.008,11.593,0.009,11.5
9,5504.00,5504.00,0.00,16.659,5782,0.004,5.357,0.008,11.281,0.009,11.9
10,5398.00,5398.00,0.00,16.949,5671,0.004,5.470,0.009,11.457,0.009,11.8
11,5514.00,5514.00,0.00,16.579,5793,0.003,5.284,0.008,11.275,0.009,10.8
12,5344.00,5344.00,0.00,17.156,5614,0.003,5.494,0.008,11.642,0.008,11.2
13,5291.00,5291.00,0.00,17.381,5559,0.003,5.641,0.010,11.719,0.008,11.6
14,5568.00,5568.00,0.00,16.426,5850,0.003,5.381,0.009,11.023,0.010,11.4
15,5446.00,5446.00,0.00,16.853,5721,0.003,5.415,0.009,11.418,0.009,11.2
16,5441.00,5441.00,0.00,16.846,5716,0.003,5.414,0.008,11.412,0.009,11.7
17,5499.00,5499.00,0.00,16.739,5777,0.003,5.432,0.008,11.286,0.009,11.4
18,5440.00,5440.00,0.00,16.835,5715,0.003,5.339,0.009,11.475,0.009,11.3
19,5434.00,5434.00,0.00,16.937,5708,0.003,5.497,0.008,11.421,0.008,11.9
20,5429.00,5429.00,0.00,16.895,5703,0.003,5.428,0.008,11.447,0.009,11.4
21,5386.00,5386.00,0.00,17.020,5658,0.003,5.501,0.008,11.499,0.009,11.4
22,5423.00,5423.00,0.00,16.970,5697,0.003,5.466,0.009,11.483,0.009,11.7
23,5458.00,5458.00,0.00,16.780,5734,0.003,5.384,0.008,11.377,0.009,11.5
24,5493.00,5493.00,0.00,16.688,5771,0.003,5.374,0.008,11.295,0.009,11.3
25,5380.00,5380.00,0.00,17.097,5652,0.003,5.506,0.008,11.571,0.008,11.1
26,5419.00,5419.00,0.00,16.953,5693,0.003,5.503,0.008,11.431,0.009,11.7
27,5481.00,5481.00,0.00,16.737,5758,0.003,5.401,0.009,11.316,0.009,11.6
28,5267.00,5267.00,0.00,17.465,5533,0.003,5.682,0.008,11.764,0.009,11.8
29,5408.00,5408.00,0.00,16.965,5681,0.003,5.439,0.008,11.506,0.009,11.6
30,5231.00,5231.00,0.00,17.595,5495,0.003,5.752,0.009,11.823,0.009,11.8
31,5315.00,5315.00,0.00,17.279,5584,0.003,5.601,0.008,11.658,0.009,11.4
32,5445.00,5445.00,0.00,16.709,5720,0.003,5.299,0.008,11.390,0.009,11.2
33,5401.00,5401.00,0.00,16.972,5674,0.003,5.425,0.008,11.527,0.009,11.5
34,5389.00,5389.00,0.00,17.012,5662,0.003,5.430,0.008,11.562,0.009,11.2
35,5411.00,5411.00,0.00,17.009,5685,0.003,5.485,0.008,11.504,0.009,11.6
36,5376.00,5376.00,0.00,17.064,5648,0.003,5.491,0.008,11.554,0.008,11.5
37,5374.00,5374.00,0.00,17.026,5646,0.003,5.437,0.008,11.569,0.009,11.4
38,5503.00,5503.00,0.00,16.671,5782,0.003,5.367,0.008,11.284,0.009,11.7
39,5544.00,5544.00,0.00,16.597,5824,0.003,5.355,0.009,11.221,0.009,11.5
40,5378.00,5378.00,0.00,17.107,5650,0.003,5.520,0.008,11.567,0.009,11.3
41,5337.00,5337.00,0.00,17.163,5607,0.003,5.498,0.008,11.644,0.009,11.8
42,5446.00,5446.00,0.00,16.832,5722,0.003,5.440,0.008,11.372,0.009,11.3
43,5436.00,5436.00,0.00,16.839,5711,0.003,5.392,0.008,11.428,0.009,11.6
44,5501.00,5501.00,0.00,16.698,5779,0.003,5.383,0.008,11.296,0.009,11.6
45,5339.00,5337.00,2.00,17.258,5607,0.003,5.574,0.009,11.663,0.010,11.5
46,5406.00,5392.00,14.00,16.805,5665,0.003,5.386,0.009,11.398,0.009,11.9
47,5546.00,5528.00,18.00,16.546,5808,0.003,5.296,0.009,11.228,0.010,11.9
48,5558.00,5545.00,13.00,16.484,5825,0.003,5.259,0.010,11.203,0.009,11.8
49,5350.00,5344.00,6.00,17.181,5614,0.003,5.528,0.009,11.632,0.009,11.4
50,5430.00,5418.00,12.00,16.941,5692,0.003,5.428,0.009,11.491,0.010,11.5
51,5554.00,5542.00,12.00,16.467,5822,0.003,5.235,0.009,11.210,0.009,11.3
52,5554.00,5548.00,6.00,16.527,5828,0.003,5.330,0.009,11.175,0.010,11.5
53,5440.00,5432.00,8.00,16.912,5706,0.003,5.500,0.008,11.392,0.009,12.0
54,5483.00,5480.00,3.00,16.674,5757,0.004,5.304,0.009,11.349,0.009,11.2
55,5425.00,5423.00,2.00,16.904,5697,0.003,5.422,0.009,11.462,0.009,11.3
56,5558.00,5558.00,0.00,16.557,5839,0.003,5.360,0.008,11.177,0.009,11.6
57,5583.00,5583.00,0.00,16.347,5865,0.003,5.232,0.009,11.095,0.009,10.9
58,5437.00,5437.00,0.00,16.808,5712,0.003,5.359,0.008,11.429,0.009,11.3
59,5448.00,5448.00,0.00,16.806,5723,0.003,5.387,0.008,11.399,0.009,11.7
60,5357.00,5357.00,0.00,17.174,5628,0.003,5.548,0.009,11.607,0.009,11.5
61,5447.00,5447.00,0.00,16.854,5722,0.003,5.438,0.008,11.396,0.009,11.6
62,5429.00,5429.00,0.00,16.963,5703,0.003,5.489,0.008,11.454,0.009,11.8
63,5328.00,5328.00,0.00,17.214,5597,0.003,5.549,0.010,11.644,0.009,11.4
64,5371.00,5371.00,0.00,17.047,5643,0.003,5.483,0.009,11.544,0.009,11.1
65,5389.00,5389.00,0.00,17.014,5661,0.003,5.493,0.008,11.501,0.009,11.5
66,5405.00,5405.00,0.00,16.968,5678,0.003,5.447,0.008,11.502,0.009,11.0
67,5407.00,5407.00,0.00,16.959,5680,0.003,5.469,0.009,11.470,0.009,11.9
68,5476.00,5476.00,0.00,16.709,5753,0.003,5.339,0.009,11.347,0.010,11.3
69,5434.00,5434.00,0.00,16.871,5709,0.003,5.406,0.008,11.444,0.009,11.3
70,5502.00,5502.00,0.00,16.572,5780,0.003,5.288,0.009,11.262,0.010,11.2
71,5447.00,5447.00,0.00,16.915,5722,0.003,5.466,0.009,11.428,0.009,11.7
72,5443.00,5443.00,0.00,16.801,5718,0.003,5.365,0.009,11.415,0.009,11.7
73,5516.00,5516.00,0.00,16.636,5795,0.003,5.380,0.008,11.235,0.009,12.2
74,6388.00,6388.00,0.00,10.550,6711,0.003,3.389,0.009,7.140,0.010,7.4
75,5965.00,5965.00,0.00,0.643,6267,0.003,0.151,0.011,0.467,0.011,0.6
