Second,Ops/sec,Hits/sec,Misses/sec,Latency,KB/sec,Request_Creation_Time,Request_Buffer_Time,MW_Writes_To_Memcached_Time,Memcached_Process_Time,MW_Writes_To_Memtier_Time,Queue_Size
4,2070.00,2070.00,0.00,5.094,2175,0.020,1.401,0.062,3.550,0.062,4.2
5,5808.00,5808.00,0.00,7.478,6102,0.005,2.182,0.010,5.267,0.014,4.0
6,5887.00,5887.00,0.00,7.586,6185,0.003,2.354,0.008,5.210,0.009,4.2
7,5786.00,5786.00,0.00,7.747,6078,0.003,2.422,0.008,5.304,0.010,4.6
8,5827.00,5827.00,0.00,7.684,6122,0.004,2.394,0.008,5.269,0.010,4.2
9,5696.00,5696.00,0.00,7.716,5984,0.004,2.380,0.008,5.313,0.011,4.0
10,5777.00,5777.00,0.00,7.770,6069,0.004,2.445,0.009,5.303,0.009,4.7
11,5804.00,5804.00,0.00,7.725,6097,0.003,2.462,0.008,5.241,0.010,4.7
12,5815.00,5815.00,0.00,7.676,6109,0.003,2.380,0.008,5.274,0.010,4.4
13,5789.00,5789.00,0.00,7.759,6082,0.003,2.420,0.008,5.318,0.010,4.7
14,5795.00,5795.00,0.00,7.699,6088,0.003,2.397,0.008,5.280,0.009,4.3
15,5901.00,5901.00,0.00,7.621,6199,0.003,2.390,0.008,5.211,0.009,4.6
16,5757.00,5757.00,0.00,7.771,6048,0.003,2.419,0.008,5.330,0.010,4.6
17,5849.00,5849.00,0.00,7.639,6145,0.003,2.368,0.008,5.250,0.010,4.4
18,5830.00,5830.00,0.00,7.697,6125,0.003,2.406,0.008,5.270,0.010,4.5
19,5931.00,5931.00,0.00,7.512,6231,0.003,2.314,0.008,5.178,0.010,4.2
20,5804.00,5804.00,0.00,7.737,6098,0.003,2.418,0.008,5.299,0.009,4.4
21,5724.00,5724.00,0.00,7.833,6014,0.003,2.446,0.008,5.366,0.009,4.4
22,5857.00,5857.00,0.00,7.649,6153,0.003,2.374,0.009,5.253,0.010,4.5
23,5792.00,5790.00,2.00,7.774,6083,0.003,2.420,0.008,5.332,0.010,4.3
24,5727.00,5720.00,7.00,7.750,6009,0.003,2.389,0.011,5.336,0.011,4.4
25,5701.00,5676.00,25.00,7.791,5963,0.003,2.380,0.017,5.375,0.016,4.7
26,5763.00,5752.00,11.00,7.792,6043,0.003,2.445,0.010,5.324,0.011,4.7
27,5910.00,5907.00,3.00,7.529,6205,0.003,2.314,0.009,5.193,0.010,4.5
28,5723.00,5723.00,0.00,7.801,6012,0.003,2.423,0.010,5.355,0.011,4.7
29,5790.00,5790.00,0.00,7.742,6083,0.003,2.408,0.009,5.312,0.010,4.5
30,5918.00,5918.00,0.00,7.569,6217,0.003,2.365,0.009,5.181,0.010,4.6
31,5762.00,5762.00,0.00,7.711,6053,0.003,2.395,0.009,5.294,0.010,4.5
32,5786.00,5786.00,0.00,7.762,6079,0.003,2.413,0.009,5.327,0.010,4.7
33,5830.00,5830.00,0.00,7.710,6125,0.003,2.410,0.009,5.277,0.011,4.6
34,5807.00,5807.00,0.00,7.701,6101,0.003,2.387,0.009,5.292,0.010,4.7
35,5697.00,5697.00,0.00,7.860,5985,0.003,2.439,0.009,5.399,0.010,4.5
36,5918.00,5918.00,0.00,7.527,6218,0.003,2.317,0.010,5.187,0.010,4.5
37,5810.00,5810.00,0.00,7.697,6104,0.003,2.393,0.009,5.281,0.010,4.6
38,5725.00,5725.00,0.00,7.842,6015,0.003,2.450,0.009,5.370,0.010,4.6
39,5726.00,5726.00,0.00,7.867,6016,0.003,2.462,0.009,5.383,0.011,4.7
40,5739.00,5739.00,0.00,7.775,6029,0.003,2.435,0.009,5.319,0.010,4.9
41,5691.00,5691.00,0.00,7.851,5979,0.003,2.450,0.009,5.378,0.010,4.6
42,5789.00,5789.00,0.00,7.740,6082,0.003,2.403,0.009,5.316,0.010,4.5
43,5733.00,5733.00,0.00,7.810,6023,0.003,2.427,0.009,5.361,0.010,4.4
44,5883.00,5883.00,0.00,7.631,6180,0.003,2.386,0.009,5.223,0.010,4.5
45,5732.00,5732.00,0.00,7.833,6022,0.003,2.446,0.009,5.365,0.010,4.5
46,5803.00,5803.00,0.00,7.678,6096,0.003,2.374,0.009,5.281,0.010,4.5
47,5750.00,5750.00,0.00,7.800,6041,0.003,2.468,0.009,5.310,0.010,4.6
48,5680.00,5680.00,0.00,7.872,5967,0.003,2.437,0.010,5.412,0.011,4.5
49,5754.00,5754.00,0.00,7.801,6045,0.003,2.446,0.009,5.332,0.010,4.5
50,5811.00,5811.00,0.00,7.695,6105,0.003,2.405,0.009,5.268,0.010,4.8
51,5809.00,5809.00,0.00,7.731,6103,0.003,2.418,0.009,5.292,0.010,4.4
52,5856.00,5856.00,0.00,7.628,6152,0.003,2.353,0.009,5.252,0.011,4.4
53,5819.00,5819.00,0.00,7.699,6113,0.003,2.386,0.009,5.291,0.010,4.8
54,5772.00,5772.00,0.00,7.781,6064,0.003,2.433,0.009,5.326,0.010,4.6
55,5727.00,5727.00,0.00,7.832,6016,0.003,2.439,0.009,5.371,0.010,4.7
56,5786.00,5786.00,0.00,7.739,6078,0.003,2.426,0.009,5.292,0.010,4.7
57,5768.00,5768.00,0.00,7.763,6060,0.003,2.415,0.009,5.327,0.010,4.5
58,5794.00,5794.00,0.00,7.670,6087,0.003,2.359,0.008,5.290,0.010,4.0
59,5800.00,5800.00,0.00,7.717,6093,0.003,2.410,0.008,5.286,0.010,4.3
60,5809.00,5808.00,1.00,7.716,6102,0.003,2.421,0.008,5.274,0.010,4.2
61,5910.00,5909.00,1.00,7.580,6208,0.003,2.350,0.008,5.209,0.010,4.1
62,5850.00,5849.00,1.00,7.616,6145,0.003,2.349,0.008,5.247,0.010,4.1
63,5783.00,5773.00,10.00,7.760,6065,0.003,2.428,0.008,5.311,0.010,4.5
64,5851.00,5842.00,9.00,7.642,6138,0.003,2.375,0.008,5.246,0.010,4.2
65,5768.00,5759.00,9.00,7.694,6050,0.004,2.377,0.008,5.296,0.010,4.4
66,5775.00,5770.00,5.00,7.744,6062,0.003,2.428,0.008,5.295,0.010,4.6
67,5754.00,5751.00,3.00,7.775,6042,0.003,2.420,0.009,5.334,0.010,4.4
68,5818.00,5812.00,6.00,7.721,6106,0.003,2.413,0.008,5.288,0.010,4.8
69,5758.00,5757.00,1.00,7.776,6048,0.003,2.428,0.008,5.327,0.010,4.5
70,5910.00,5908.00,2.00,7.611,6207,0.003,2.381,0.008,5.209,0.010,4.5
71,5726.00,5726.00,0.00,7.786,6015,0.003,2.420,0.008,5.345,0.011,4.5
72,5856.00,5856.00,0.00,7.618,6152,0.003,2.361,0.008,5.236,0.010,4.3
73,5949.00,5949.00,0.00,7.455,6250,0.003,2.289,0.008,5.145,0.010,4.2
74,4048.00,4048.00,0.00,7.726,4253,0.003,2.346,0.008,5.359,0.010,3.9
