Second,Ops/sec,Hits/sec,Misses/sec,Latency,KB/sec,Request_Creation_Time,Request_Buffer_Time,MW_Writes_To_Memcached_Time,Memcached_Process_Time,MW_Writes_To_Memtier_Time,Queue_Size
4,1607.00,1607.00,0.00,4.691,1688,0.012,3.658,0.022,0.945,0.053,28.3
5,5023.00,5023.00,0.00,8.625,5277,0.005,7.036,0.008,1.562,0.014,32.0
6,5349.00,5349.00,0.00,8.408,5620,0.004,6.917,0.006,1.468,0.014,33.3
7,5505.00,5505.00,0.00,8.243,5783,0.004,6.787,0.006,1.435,0.012,33.3
8,5421.00,5421.00,0.00,8.382,5695,0.004,6.903,0.006,1.457,0.012,33.8
9,5465.00,5465.00,0.00,8.300,5742,0.004,6.836,0.006,1.442,0.012,33.6
10,5370.00,5370.00,0.00,8.447,5641,0.004,6.955,0.006,1.469,0.013,33.3
11,5429.00,5429.00,0.00,8.343,5704,0.004,6.867,0.006,1.453,0.012,33.7
12,5408.00,5408.00,0.00,8.379,5681,0.003,6.897,0.006,1.460,0.012,33.5
13,5419.00,5419.00,0.00,8.365,5693,0.003,6.888,0.006,1.455,0.012,33.5
14,5326.00,5326.00,0.00,8.515,5595,0.004,7.012,0.006,1.481,0.012,33.5
15,5388.00,5388.00,0.00,8.369,5661,0.003,6.891,0.006,1.457,0.012,33.6
16,5366.00,5366.00,0.00,8.454,5637,0.004,6.960,0.006,1.472,0.012,33.7
17,5492.00,5492.00,0.00,8.176,5769,0.003,6.719,0.006,1.437,0.012,33.0
18,5348.00,5348.00,0.00,8.474,5618,0.003,6.976,0.006,1.477,0.012,33.7
19,5374.00,5374.00,0.00,8.459,5646,0.003,6.968,0.006,1.470,0.012,33.6
20,5279.00,5279.00,0.00,8.605,5546,0.003,7.088,0.006,1.496,0.013,33.7
21,5342.00,5342.00,0.00,8.484,5612,0.003,6.985,0.006,1.479,0.012,33.4
22,5385.00,5385.00,0.00,8.399,5657,0.003,6.912,0.006,1.466,0.012,33.2
23,5377.00,5377.00,0.00,8.449,5649,0.003,6.957,0.006,1.471,0.012,33.5
24,5490.00,5490.00,0.00,8.280,5768,0.003,6.823,0.006,1.437,0.012,33.7
25,5565.00,5565.00,0.00,8.200,5847,0.003,6.753,0.006,1.426,0.012,33.7
26,5400.00,5394.00,6.00,8.347,5666,0.003,6.870,0.006,1.455,0.013,33.5
27,5343.00,5302.00,41.00,8.442,5570,0.003,6.945,0.007,1.474,0.013,34.0
28,5418.00,5417.00,1.00,8.403,5691,0.003,6.927,0.006,1.452,0.015,34.3
29,5468.00,5468.00,0.00,8.312,5744,0.003,6.847,0.007,1.442,0.013,34.1
30,5440.00,5440.00,0.00,8.311,5714,0.003,6.843,0.007,1.447,0.013,33.6
31,5426.00,5426.00,0.00,8.410,5700,0.003,6.935,0.007,1.453,0.013,34.1
32,5448.00,5448.00,0.00,8.384,5723,0.003,6.913,0.007,1.449,0.013,34.1
33,5457.00,5457.00,0.00,8.320,5733,0.003,6.858,0.007,1.439,0.013,34.1
34,5285.00,5285.00,0.00,8.553,5552,0.003,7.039,0.007,1.492,0.013,34.0
35,5341.00,5341.00,0.00,8.538,5611,0.003,7.041,0.007,1.475,0.013,34.1
36,5468.00,5468.00,0.00,8.288,5744,0.003,6.822,0.006,1.446,0.012,33.7
37,5477.00,5477.00,0.00,8.267,5754,0.003,6.805,0.006,1.441,0.012,33.8
38,5418.00,5418.00,0.00,8.407,5692,0.003,6.923,0.006,1.462,0.013,33.8
39,5483.00,5483.00,0.00,8.229,5761,0.003,6.772,0.006,1.436,0.012,33.5
40,5423.00,5423.00,0.00,8.357,5697,0.003,6.877,0.006,1.459,0.012,33.5
41,5556.00,5556.00,0.00,8.158,5837,0.003,6.720,0.006,1.419,0.012,33.8
42,5414.00,5414.00,0.00,8.342,5688,0.003,6.862,0.006,1.459,0.012,33.3
43,5487.00,5487.00,0.00,8.254,5764,0.003,6.793,0.006,1.440,0.012,33.6
44,5404.00,5404.00,0.00,8.439,5677,0.003,6.951,0.006,1.467,0.013,33.6
45,5467.00,5467.00,0.00,8.253,5744,0.003,6.790,0.006,1.443,0.012,33.2
46,5369.00,5369.00,0.00,8.391,5640,0.003,6.903,0.006,1.467,0.012,33.2
47,5462.00,5462.00,0.00,8.347,5738,0.003,6.878,0.006,1.449,0.012,33.7
48,5409.00,5409.00,0.00,8.415,5682,0.003,6.935,0.006,1.459,0.014,34.0
49,5396.00,5396.00,0.00,8.342,5669,0.003,6.861,0.006,1.461,0.012,33.3
50,5464.00,5464.00,0.00,8.331,5740,0.003,6.864,0.006,1.446,0.012,33.7
51,5369.00,5369.00,0.00,8.443,5640,0.003,6.952,0.006,1.470,0.012,33.5
52,5387.00,5387.00,0.00,8.427,5659,0.003,6.939,0.006,1.467,0.012,33.7
53,5363.00,5363.00,0.00,8.476,5634,0.003,6.973,0.006,1.482,0.013,33.5
54,5384.00,5384.00,0.00,8.424,5656,0.003,6.945,0.006,1.456,0.014,33.6
55,5517.00,5517.00,0.00,8.213,5796,0.003,6.761,0.005,1.432,0.012,33.4
56,5415.00,5415.00,0.00,8.386,5689,0.003,6.907,0.006,1.459,0.012,33.6
57,5290.00,5290.00,0.00,8.589,5557,0.003,7.073,0.006,1.495,0.012,33.8
58,5355.00,5355.00,0.00,8.430,5626,0.003,6.930,0.006,1.480,0.012,32.8
59,5448.00,5448.00,0.00,8.262,5723,0.003,6.798,0.006,1.443,0.012,33.2
60,5354.00,5354.00,0.00,8.456,5624,0.003,6.958,0.006,1.477,0.012,33.3
61,5354.00,5354.00,0.00,8.462,5625,0.003,6.967,0.006,1.474,0.012,33.6
62,5407.00,5407.00,0.00,8.427,5680,0.003,6.946,0.006,1.460,0.012,33.9
63,5425.00,5425.00,0.00,8.340,5699,0.004,6.861,0.005,1.457,0.012,33.6
64,5364.00,5364.00,0.00,8.430,5635,0.003,6.935,0.006,1.474,0.013,33.4
65,5546.00,5546.00,0.00,8.140,5827,0.003,6.697,0.006,1.421,0.013,33.6
66,5335.00,5335.00,0.00,8.424,5605,0.003,6.922,0.006,1.481,0.013,33.2
67,5425.00,5425.00,0.00,8.328,5700,0.003,6.853,0.006,1.453,0.013,33.5
68,5518.00,5513.00,5.00,8.229,5792,0.003,6.776,0.005,1.433,0.012,33.7
69,5381.00,5359.00,22.00,8.409,5630,0.003,6.924,0.005,1.465,0.012,33.8
70,5300.00,5280.00,20.00,8.516,5547,0.003,7.003,0.006,1.493,0.012,33.2
71,5469.00,5469.00,0.00,8.304,5745,0.003,6.839,0.005,1.444,0.012,33.6
72,5414.00,5413.00,1.00,8.378,5686,0.003,6.899,0.006,1.458,0.013,33.9
73,5528.00,5528.00,0.00,8.186,5807,0.003,6.739,0.005,1.427,0.012,33.5
74,4372.00,4372.00,0.00,8.204,4593,0.003,6.750,0.006,1.433,0.012,33.4
