Second,Ops/sec,Hits/sec,Misses/sec,Latency,KB/sec,Request_Creation_Time,Request_Buffer_Time,MW_Writes_To_Memcached_Time,Memcached_Process_Time,MW_Writes_To_Memtier_Time,Queue_Size
4,2491.00,2491.00,0.00,4.581,277,0.022,0.870,0.052,3.578,0.060,5.7
5,15543.00,15543.00,0.00,4.905,1728,0.005,1.117,0.009,3.762,0.012,6.9
6,16782.00,16782.00,0.00,5.031,1865,0.004,1.385,0.008,3.625,0.010,7.5
7,16515.00,16515.00,0.00,5.245,1836,0.003,1.485,0.008,3.739,0.010,8.2
8,16050.00,16050.00,0.00,5.346,1783,0.003,1.500,0.008,3.826,0.010,7.9
9,16600.00,16600.00,0.00,4.956,1845,0.003,1.297,0.008,3.638,0.010,7.8
10,16250.00,16250.00,0.00,5.304,1805,0.003,1.506,0.008,3.778,0.010,8.0
11,16995.00,16995.00,0.00,5.052,1888,0.003,1.428,0.008,3.605,0.009,7.9
12,15923.00,15923.00,0.00,5.409,1769,0.003,1.534,0.008,3.854,0.010,7.9
13,16083.00,16083.00,0.00,5.409,1787,0.003,1.540,0.008,3.849,0.010,8.3
14,16624.00,16624.00,0.00,5.203,1847,0.003,1.474,0.008,3.709,0.010,8.2
15,16656.00,16656.00,0.00,5.105,1851,0.003,1.421,0.008,3.663,0.011,8.2
16,16088.00,16088.00,0.00,5.399,1788,0.003,1.516,0.008,3.863,0.010,8.6
17,16428.00,16428.00,0.00,5.232,1826,0.003,1.466,0.008,3.747,0.010,8.4
18,16418.00,16401.00,17.00,5.160,1822,0.003,1.417,0.008,3.722,0.010,7.9
19,16224.00,16177.00,47.00,5.335,1797,0.003,1.517,0.008,3.797,0.010,8.6
20,16835.00,16814.00,21.00,5.172,1867,0.003,1.459,0.009,3.691,0.010,8.4
21,16997.00,16986.00,11.00,4.967,1886,0.003,1.362,0.009,3.583,0.010,8.0
22,16315.00,16315.00,0.00,5.282,1812,0.003,1.520,0.008,3.741,0.010,9.0
23,16320.00,16320.00,0.00,5.343,1813,0.003,1.521,0.009,3.801,0.010,8.5
24,16949.00,16949.00,0.00,5.044,1883,0.003,1.417,0.009,3.606,0.011,8.3
25,16811.00,16811.00,0.00,5.100,1868,0.003,1.416,0.011,3.658,0.011,8.1
26,16480.00,16480.00,0.00,5.194,1832,0.003,1.464,0.008,3.708,0.011,8.0
27,16506.00,16506.00,0.00,5.179,1834,0.003,1.451,0.009,3.706,0.011,8.4
28,16606.00,16606.00,0.00,5.185,1846,0.003,1.462,0.008,3.702,0.010,8.2
29,16148.00,16148.00,0.00,5.395,1794,0.003,1.530,0.008,3.843,0.011,8.0
30,16807.00,16807.00,0.00,5.026,1867,0.003,1.396,0.008,3.609,0.010,8.1
31,16623.00,16623.00,0.00,5.141,1847,0.003,1.437,0.008,3.684,0.010,7.9
32,15681.00,15681.00,0.00,5.475,1742,0.003,1.540,0.008,3.915,0.009,8.3
33,16417.00,16417.00,0.00,5.278,1824,0.003,1.492,0.007,3.766,0.009,7.9
34,16571.00,16571.00,0.00,5.044,1841,0.003,1.374,0.008,3.649,0.010,7.8
35,16015.00,16015.00,0.00,5.410,1779,0.003,1.534,0.008,3.855,0.010,8.1
36,16524.00,16524.00,0.00,5.141,1836,0.003,1.412,0.008,3.709,0.010,8.1
37,16785.00,16785.00,0.00,5.000,1865,0.003,1.378,0.008,3.601,0.010,8.5
38,15944.00,15944.00,0.00,5.388,1771,0.003,1.518,0.008,3.850,0.010,7.9
39,16930.00,16930.00,0.00,5.004,1881,0.003,1.370,0.008,3.613,0.010,7.5
40,16710.00,16710.00,0.00,5.136,1856,0.003,1.437,0.008,3.679,0.010,7.6
41,16402.00,16402.00,0.00,5.267,1823,0.003,1.494,0.008,3.753,0.010,7.6
42,16597.00,16597.00,0.00,5.206,1844,0.003,1.474,0.008,3.712,0.010,8.1
43,16514.00,16513.00,1.00,5.174,1835,0.003,1.451,0.008,3.703,0.010,7.7
44,16177.00,16173.00,4.00,5.355,1797,0.003,1.510,0.008,3.825,0.010,7.9
45,16650.00,16630.00,20.00,5.115,1848,0.003,1.453,0.008,3.643,0.009,8.5
46,16824.00,16794.00,30.00,4.950,1866,0.003,1.328,0.007,3.602,0.010,7.4
47,16612.00,16603.00,9.00,5.250,1844,0.003,1.486,0.007,3.744,0.010,8.1
48,16189.00,16188.00,1.00,5.313,1798,0.003,1.490,0.008,3.804,0.009,8.2
49,16523.00,16519.00,4.00,5.096,1836,0.003,1.356,0.007,3.719,0.010,7.4
50,16055.00,16044.00,11.00,5.391,1783,0.003,1.510,0.007,3.862,0.009,8.2
51,17289.00,17278.00,11.00,4.901,1920,0.003,1.364,0.007,3.516,0.010,7.9
52,16658.00,16653.00,5.00,5.185,1850,0.003,1.460,0.007,3.705,0.010,8.1
53,16072.00,16072.00,0.00,5.377,1786,0.003,1.535,0.007,3.822,0.009,8.6
54,16567.00,16567.00,0.00,5.109,1841,0.003,1.434,0.007,3.656,0.010,8.2
55,16382.00,16382.00,0.00,5.223,1820,0.003,1.478,0.008,3.724,0.010,7.9
56,16396.00,16396.00,0.00,5.238,1822,0.003,1.484,0.008,3.734,0.010,8.6
57,15990.00,15990.00,0.00,5.385,1777,0.003,1.522,0.008,3.843,0.010,8.2
58,16418.00,16418.00,0.00,5.179,1824,0.003,1.430,0.008,3.730,0.010,7.5
59,16418.00,16418.00,0.00,5.201,1824,0.003,1.450,0.007,3.730,0.011,8.1
60,16157.00,16157.00,0.00,5.323,1795,0.003,1.495,0.008,3.804,0.012,8.5
61,16188.00,16188.00,0.00,5.316,1799,0.003,1.509,0.008,3.786,0.011,8.2
62,16517.00,16517.00,0.00,5.219,1836,0.003,1.475,0.008,3.724,0.010,8.2
63,16025.00,16025.00,0.00,5.368,1781,0.003,1.525,0.007,3.823,0.010,7.9
64,16389.00,16389.00,0.00,5.285,1821,0.003,1.464,0.008,3.801,0.010,8.1
65,16449.00,16449.00,0.00,5.246,1828,0.003,1.486,0.008,3.740,0.010,8.5
66,15873.00,15873.00,0.00,5.430,1764,0.003,1.541,0.008,3.869,0.010,8.2
67,17161.00,17161.00,0.00,5.037,1907,0.003,1.423,0.008,3.593,0.010,8.4
68,16379.00,16379.00,0.00,5.283,1820,0.003,1.476,0.008,3.786,0.010,8.2
69,16364.00,16364.00,0.00,5.221,1819,0.003,1.472,0.008,3.728,0.010,8.1
70,16975.00,16975.00,0.00,5.102,1887,0.003,1.429,0.007,3.653,0.010,8.0
71,16591.00,16591.00,0.00,5.110,1844,0.003,1.400,0.008,3.689,0.010,8.0
72,14837.00,14837.00,0.00,5.779,1649,0.003,1.647,0.008,4.110,0.010,7.8
73,16749.00,16749.00,0.00,5.202,1861,0.003,1.479,0.007,3.704,0.009,8.1
74,12607.00,12607.00,0.00,4.953,1401,0.004,1.356,0.009,3.575,0.010,7.5
75,1463.00,1463.00,0.00,0.814,163,0.007,0.091,0.021,0.680,0.015,0.0
