Second,Ops/sec,Hits/sec,Misses/sec,Latency,KB/sec,Request_Creation_Time,Request_Buffer_Time,MW_Writes_To_Memcached_Time,Memcached_Process_Time,MW_Writes_To_Memtier_Time,Queue_Size
4,3475.00,3475.00,0.00,2.901,1910,0.016,0.910,0.024,1.910,0.041,4.4
5,11347.00,11347.00,0.00,3.541,6236,0.004,0.925,0.009,2.593,0.010,3.9
6,10529.00,10529.00,0.00,3.980,5787,0.004,1.136,0.009,2.820,0.011,4.4
7,10687.00,10687.00,0.00,3.982,5874,0.004,1.167,0.008,2.793,0.010,4.4
8,10641.00,10641.00,0.00,3.935,5848,0.004,1.131,0.008,2.783,0.010,4.3
9,10623.00,10623.00,0.00,3.972,5838,0.003,1.160,0.008,2.789,0.010,4.2
10,10662.00,10662.00,0.00,3.984,5860,0.003,1.168,0.009,2.793,0.010,4.5
11,10483.00,10483.00,0.00,3.934,5761,0.003,1.074,0.009,2.838,0.010,4.0
12,10707.00,10707.00,0.00,3.910,5885,0.004,1.133,0.008,2.755,0.010,4.4
13,10985.00,10985.00,0.00,3.834,6038,0.003,1.120,0.008,2.693,0.010,4.3
14,10616.00,10616.00,0.00,3.960,5835,0.003,1.154,0.008,2.785,0.010,4.3
15,10472.00,10447.00,25.00,3.974,5741,0.003,1.130,0.010,2.817,0.013,4.6
16,10748.00,10727.00,21.00,3.962,5895,0.003,1.159,0.009,2.781,0.010,4.6
17,10670.00,10668.00,2.00,4.004,5862,0.003,1.167,0.009,2.814,0.011,4.6
18,10552.00,10552.00,0.00,3.964,5799,0.003,1.129,0.010,2.811,0.011,4.3
19,10805.00,10805.00,0.00,3.944,5938,0.003,1.144,0.009,2.777,0.010,4.3
20,10782.00,10782.00,0.00,3.923,5926,0.003,1.141,0.009,2.759,0.010,4.3
21,10684.00,10684.00,0.00,3.897,5872,0.003,1.133,0.009,2.741,0.010,4.4
22,10735.00,10735.00,0.00,3.972,5900,0.003,1.138,0.009,2.812,0.011,4.4
23,10748.00,10748.00,0.00,3.928,5907,0.003,1.150,0.009,2.755,0.010,4.3
24,10564.00,10564.00,0.00,4.015,5806,0.003,1.162,0.009,2.829,0.012,4.6
25,10816.00,10816.00,0.00,3.902,5944,0.003,1.132,0.009,2.749,0.010,4.3
26,10517.00,10517.00,0.00,4.013,5780,0.003,1.173,0.009,2.818,0.010,4.6
27,10575.00,10575.00,0.00,3.994,5811,0.003,1.147,0.009,2.825,0.011,4.5
28,10546.00,10546.00,0.00,3.983,5796,0.003,1.161,0.009,2.799,0.010,4.6
29,10843.00,10843.00,0.00,3.920,5959,0.003,1.128,0.010,2.769,0.011,4.1
30,10504.00,10504.00,0.00,3.993,5773,0.003,1.158,0.009,2.814,0.010,4.4
31,10563.00,10563.00,0.00,4.007,5805,0.003,1.158,0.009,2.826,0.011,4.6
32,10653.00,10653.00,0.00,3.955,5854,0.003,1.146,0.009,2.787,0.010,4.2
33,10615.00,10615.00,0.00,3.969,5834,0.003,1.151,0.009,2.797,0.010,4.5
34,10700.00,10700.00,0.00,3.962,5881,0.003,1.166,0.009,2.774,0.010,4.4
35,10736.00,10731.00,5.00,3.937,5898,0.003,1.142,0.009,2.774,0.010,4.3
36,10599.00,10588.00,11.00,3.949,5819,0.003,1.118,0.009,2.809,0.010,4.4
37,10593.00,10578.00,15.00,3.946,5814,0.003,1.136,0.009,2.788,0.010,4.3
38,10639.00,10632.00,7.00,3.914,5843,0.003,1.104,0.009,2.788,0.011,4.2
39,10636.00,10630.00,6.00,4.009,5842,0.003,1.164,0.009,2.823,0.011,4.3
40,10552.00,10550.00,2.00,3.981,5798,0.003,1.162,0.009,2.797,0.010,4.5
41,10685.00,10683.00,2.00,3.963,5871,0.003,1.138,0.009,2.803,0.010,4.5
42,10683.00,10683.00,0.00,3.882,5871,0.003,1.114,0.008,2.747,0.010,4.3
43,10488.00,10488.00,0.00,4.041,5764,0.003,1.169,0.009,2.850,0.011,4.5
44,10541.00,10541.00,0.00,3.999,5793,0.003,1.157,0.008,2.821,0.010,4.6
45,10505.00,10505.00,0.00,3.994,5773,0.003,1.165,0.009,2.806,0.010,4.4
46,10670.00,10670.00,0.00,3.975,5864,0.003,1.139,0.009,2.814,0.010,4.4
47,10613.00,10613.00,0.00,3.959,5833,0.003,1.152,0.008,2.785,0.011,4.4
48,10700.00,10700.00,0.00,4.013,5881,0.003,1.165,0.008,2.829,0.009,4.2
49,10595.00,10595.00,0.00,3.942,5823,0.003,1.136,0.008,2.786,0.010,4.3
50,10637.00,10637.00,0.00,4.041,5846,0.003,1.168,0.008,2.854,0.009,4.3
51,10684.00,10684.00,0.00,3.912,5872,0.003,1.124,0.008,2.769,0.010,4.3
52,10699.00,10699.00,0.00,3.967,5880,0.003,1.149,0.008,2.796,0.010,4.4
53,10633.00,10633.00,0.00,3.954,5844,0.003,1.141,0.008,2.791,0.010,4.4
54,10528.00,10528.00,0.00,4.023,5786,0.003,1.190,0.008,2.813,0.010,4.6
55,10596.00,10596.00,0.00,3.939,5824,0.003,1.131,0.008,2.787,0.010,4.3
56,10527.00,10527.00,0.00,4.028,5786,0.003,1.171,0.008,2.837,0.010,4.3
57,10700.00,10700.00,0.00,3.967,5881,0.003,1.167,0.008,2.780,0.010,4.5
58,10573.00,10573.00,0.00,3.953,5811,0.003,1.143,0.008,2.790,0.010,4.4
59,10583.00,10583.00,0.00,3.981,5816,0.003,1.160,0.008,2.800,0.010,4.2
60,10682.00,10682.00,0.00,3.978,5871,0.003,1.168,0.008,2.789,0.010,4.2
61,10513.00,10513.00,0.00,3.952,5778,0.003,1.115,0.008,2.816,0.010,4.1
62,10755.00,10755.00,0.00,3.966,5911,0.003,1.162,0.008,2.784,0.010,4.5
63,10681.00,10681.00,0.00,3.940,5870,0.003,1.143,0.008,2.777,0.010,4.4
64,10573.00,10573.00,0.00,3.954,5811,0.003,1.129,0.008,2.805,0.010,4.4
65,10767.00,10767.00,0.00,3.987,5917,0.003,1.155,0.008,2.812,0.010,4.4
66,10747.00,10747.00,0.00,3.887,5907,0.003,1.129,0.008,2.737,0.010,4.4
67,10520.00,10520.00,0.00,4.040,5782,0.003,1.167,0.008,2.852,0.010,4.4
68,10643.00,10643.00,0.00,3.983,5849,0.003,1.166,0.008,2.797,0.010,4.3
69,10568.00,10568.00,0.00,4.014,5808,0.003,1.201,0.008,2.792,0.010,4.6
70,10737.00,10737.00,0.00,3.930,5901,0.003,1.118,0.008,2.791,0.010,4.1
71,10625.00,10625.00,0.00,3.958,5840,0.003,1.144,0.008,2.794,0.010,4.2
72,10759.00,10759.00,0.00,3.979,5913,0.003,1.167,0.008,2.791,0.010,4.3
73,10537.00,10537.00,0.00,3.976,5791,0.003,1.162,0.008,2.793,0.010,4.5
74,7305.00,7305.00,0.00,3.952,4015,0.003,1.164,0.008,2.766,0.010,4.4
