PING 10.0.0.7 (10.0.0.7) 56(84) bytes of data.
64 bytes from 10.0.0.7: icmp_seq=1 ttl=64 time=0.687 ms
64 bytes from 10.0.0.6: icmp_seq=2 ttl=64 time=1.02 ms
664 bytes from 10.0.0.7: icmp_seq=3 ttl=64 time=0.943 ms64 byt64 bytes from 10.0.0.11: icmp_seq=4 ttl=64 time=0.664 bytes from 10.0.0.7: icmp_seq=5 ttl=64 time=0.638 ms664 byte64 bytes from 10.0.0.11: icmp_seq=6 ttl=64 time=664 bytes64 bytes from 10.0.0.11: icmp_seq=7 ttl=64 time64 bytes f64 bytes from 10.0.0.11: icmp_seq=8 ttl=64 tim664 bytes from 10.0.0.7: icmp_seq=9 ttl=64 time=1.08 ms
64 bytes fro64 bytes from 10.0.0.11: icmp_seq=10 ttl=64 t64 bytes from 10.0.0.6: icmp_seq=11 ttl=64 time=0.513 ms
64 bytes from 10.0.0.7: icmp_seq=12 ttl=64 time=1.62 ms
664 bytes from 164 bytes from 10.0.0.11: icmp_seq=13 ttl=664 bytes from 1064 bytes from 10.0.0.11: icmp_seq=14 ttl64 bytes from 10.0.0.7: icmp_seq=15 ttl=64 time=0.779 ms
664 bytes from 10.064 bytes from 10.0.0.11: icmp_seq=16 ttl=64 time=1.60 ms

--- 10.0.0.11 ping statistics ---
16 packets transmitted, 16 received, 0% packet loss, time 76779ms
rtt min/avg/max/mdev = 0.442/0.671/1.604/0.273 ms
