PING 10.0.0.7 (10.0.0.7) 56(84) bytes of data.
64 bytes from 10.0.0.7: icmp_seq=1 ttl=64 time=7.25 ms
664 bytes from 10.0.0.6: icmp_seq=2 ttl=64 time=0.577 ms64 bytes from 10.0.0.7: icmp_seq=3 ttl=64 time=0.698 ms
664 bytes from 10.0.0.6: icmp_seq=4 ttl=64 time=0.836 ms664 byt64 bytes from 10.0.0.11: icmp_seq=5 ttl=64 time=064 bytes from 10.0.0.7: icmp_seq=6 ttl=64 time=0.588 ms
664 bytes from 10.0.0.6: icmp_seq=7 ttl=64 time=0.802 ms64 bytes from 10.0.0.7: icmp_seq=8 ttl=64 time=0.450 ms
64 bytes from 10.0.0.7: icmp_seq=9 ttl=64 time=0.577 ms
64 bytes fro64 bytes from 10.0.0.11: icmp_seq=10 ttl=64 t664 bytes from 10.0.0.6: icmp_seq=11 ttl=64 time=0.674 ms64 bytes from 10.0.0.7: icmp_seq=12 ttl=64 time=0.651 ms
664 bytes from 10.0.0.6: icmp_seq=13 ttl=64 time=1.46 ms
64 bytes from 10.0.0.7: icmp_seq=14 ttl=64 time=0.591 ms
64 bytes from 1064 bytes from 10.0.0.11: icmp_seq=15 ttl=64 bytes from 10.0.0.6: icmp_seq=16 ttl=64 time=0.718 ms

--- 10.0.0.6 ping statistics ---
16 packets transmitted, 16 received, 0% packet loss, time 76737ms
rtt min/avg/max/mdev = 0.399/0.652/1.460/0.245 ms
96/2.402/0.608 ms
