PING 10.0.0.7 (10.0.0.7) 56(84) bytes of data.
64 bytes from 10.0.0.7: icmp_seq=1 ttl=64 time=0.729 ms
64 bytes from 10.0.0.7: icmp_seq=2 ttl=64 time=0.576 ms
64 bytes from 10.0.0.7: icmp_seq=3 ttl=64 time=0.824 ms
64 bytes from 10.0.0.7: icmp_seq=4 ttl=64 time=0.716 ms
64 byt64 bytes from 10.0.0.11: icmp_seq=5 ttl=64 time=0.64 byte64 bytes from 10.0.0.11: icmp_seq=6 ttl=64 time=064 bytes64 bytes from 10.0.0.11: icmp_seq=7 ttl=64 time=64 bytes 64 bytes from 10.0.0.11: icmp_seq=8 ttl=64 time64 bytes from 10.0.0.6: icmp_seq=9 ttl=64 time=0.719 ms
64 bytes from 10.0.0.7: icmp_seq=10 ttl=64 time=0.460 ms
64 bytes fro64 bytes from 10.0.0.11: icmp_seq=11 ttl=64 t64 bytes from 10.0.0.7: icmp_seq=12 ttl=64 time=0.655 ms
64 bytes from 64 bytes from 10.0.0.11: icmp_seq=13 ttl=6464 bytes from 10.0.0.6: icmp_seq=14 ttl=64 time=0.755 ms
64 bytes from 10.0.0.7: icmp_seq=15 ttl=64 time=0.681 ms
64 bytes from 10.0.0.6: icmp_seq=16 ttl=64 time=0.681 ms

--- 10.0.0.6 ping statistics ---
16 packets transmitted, 16 received, 0% packet loss, time 76569ms
rtt min/avg/max/mdev = 0.399/0.587/0.755/0.097 ms
620/0.904/0.150 ms
