PING 10.0.0.11 (10.0.0.11) 56(84) bytes of data.
64 bytes from 10.0.0.11: icmp_seq=1 ttl=64 time=0.491664 bytes from 10.0.0.7: icmp_seq=2 ttl=64 time=0.662 m6464 b64 bytes from 10.0.0.11: icmp_seq=3 ttl=64 time=0.6464 by64 bytes from 10.0.0.11: icmp_seq=4 ttl=64 time=06464 bytes from 10.0.0.7: icmp_seq=5 ttl=64 time=0.949 64 64 bytes from 10.0.0.7: icmp_seq=6 ttl=64 time=1.13 m6464 bytes 64 bytes from 10.0.0.11: icmp_seq=7 ttl=64 ti6464 bytes from 10.0.0.7: icmp_seq=8 ttl=64 time=0.832 m6464 bytes fr64 bytes from 10.0.0.11: icmp_seq=9 ttl=64 6464 bytes from 10.0.0.7: icmp_seq=10 ttl=64 time=0.528 m6464 bytes from64 bytes from 10.0.0.11: icmp_seq=11 ttl=66464 bytes from 10.0.0.7: icmp_seq=12 ttl=64 time=0.591 m6464 bytes from 10.0.0.7: icmp_seq=13 ttl=64 time=0.519 64 64 bytes from 10.0.0.7: icmp_seq=14 ttl=64 time=0.703 64 64 bytes from 10.64 bytes from 10.0.0.11: icmp_seq=15 64 64 bytes from 10.064 bytes from 10.0.0.11: icmp_seq=16 ttl=64 time=1.00 ms

--- 10.0.0.11 ping statistics ---
16 packets transmitted, 16 received, 0% packet loss, time 76776ms
rtt min/avg/max/mdev = 0.409/0.612/1.005/0.125 ms
