PING 10.0.0.11 (10.0.0.11) 56(84) bytes of data.
64 bytes from 10.0.0.11: icmp_seq=1 ttl=64 time=2.89 m6464 bytes from 10.0.0.11: icmp_seq=2 ttl=64 time=0.504 64 bytes from 10.0.0.7: icmp_seq=3 ttl=64 time=0.484 ms
64 bytes from 10.0.0.7: icmp_seq=4 ttl=64 time=1.00 ms
664 bytes from 10.0.0.6: icmp_seq=5 ttl=64 time=0.728 ms64 byte64 bytes from 10.0.0.11: icmp_seq=6 ttl=64 time=1664 bytes from 10.0.0.6: icmp_seq=7 ttl=64 time=0.632 ms664 bytes from 10.0.0.6: icmp_seq=8 ttl=64 time=0.952 ms64 bytes 64 bytes from 10.0.0.11: icmp_seq=9 ttl=64 time664 bytes from 10.0.0.6: icmp_seq=10 ttl=64 time=0.470 ms64 bytes from 10.0.0.7: icmp_seq=11 ttl=64 time=0.481 ms
664 bytes from 10.0.0.6: icmp_seq=12 ttl=64 time=0.707 ms664 bytes from 10.0.0.6: icmp_seq=13 ttl=64 time=0.611 ms664 bytes from 10.0.0.6: icmp_seq=14 ttl=64 time=0.723 ms64 bytes from 10.0.0.7: icmp_seq=15 ttl=64 time=0.544 ms
64 bytes from 10.0.0.7: icmp_seq=16 ttl=64 time=0.785 ms

--- 10.0.0.7 ping statistics ---
16 packets transmitted, 16 received, 0% packet loss, time 76731ms
rtt min/avg/max/mdev = 0.424/0.655/1.008/0.178 ms

2.892/0.619 ms
