PING 10.0.0.6 (10.0.0.6) 56(84) bytes of data.
64 bytes from 10.0.0.6: icmp_seq=1 ttl=64 time=0.630 ms
64 bytes from 10.0.0.6: icmp_seq=2 ttl=64 time=0.354 ms
64 b64 bytes from 10.0.0.11: icmp_seq=3 ttl=64 time=0.7164 by64 bytes from 10.0.0.11: icmp_seq=4 ttl=64 time=0.564 bytes from 10.0.0.6: icmp_seq=5 ttl=64 time=0.825 ms
64 bytes from 10.0.0.7: icmp_seq=6 ttl=64 time=0.781 ms
64 bytes64 bytes from 10.0.0.11: icmp_seq=7 ttl=64 time=64 bytes from 10.0.0.7: icmp_seq=8 ttl=64 time=0.638 ms
64 bytes from 10.0.0.7: icmp_seq=9 ttl=64 time=1.28 ms
664 bytes from 10.0.0.6: icmp_seq=10 ttl=64 time=0.968 ms64 bytes from 10.0.0.7: icmp_seq=11 ttl=64 time=0.752 ms
664 bytes from 10.0.0.6: icmp_seq=12 ttl=64 time=1.66 ms
64 bytes from 164 bytes from 10.0.0.11: icmp_seq=13 ttl=664 bytes from 1064 bytes from 10.0.0.11: icmp_seq=14 ttl=64 bytes from 10.64 bytes from 10.0.0.11: icmp_seq=15 ttl64 bytes from 10.0.0.7: icmp_seq=16 ttl=64 time=0.766 ms

--- 10.0.0.7 ping statistics ---
16 packets transmitted, 16 received, 0% packet loss, time 76662ms
rtt min/avg/max/mdev = 0.451/0.725/1.288/0.202 ms
618/1.091/0.174 ms
