PING 10.0.0.7 (10.0.0.7) 56(84) bytes of data.
64 bytes from 10.0.0.7: icmp_seq=1 ttl=64 time=1.17 ms
64 bytes from 10.0.0.7: icmp_seq=2 ttl=64 time=0.491 ms
664 b64 bytes from 10.0.0.11: icmp_seq=3 ttl=64 time=1.064 bytes from 10.0.0.7: icmp_seq=4 ttl=64 time=0.756 ms
664 bytes from 10.0.0.6: icmp_seq=5 ttl=64 time=0.563 ms64 byte64 bytes from 10.0.0.11: icmp_seq=6 ttl=64 time=064 bytes from 10.0.0.7: icmp_seq=7 ttl=64 time=0.733 ms
64 bytes from 10.0.0.7: icmp_seq=8 ttl=64 time=0.698 ms
64 bytes from 10.0.0.7: icmp_seq=9 ttl=64 time=2.61 ms
6464 bytes f64 bytes from 10.0.0.11: icmp_seq=10 ttl=64 t64 bytes from64 bytes from 10.0.0.11: icmp_seq=11 ttl=64 64 bytes from 10.0.0.7: icmp_seq=12 ttl=64 time=0.624 ms
6464 bytes from 10.0.0.6: icmp_seq=13 ttl=64 time=0.685 m64 bytes from 164 bytes from 10.0.0.11: icmp_seq=14 ttl=664 bytes from 1064 bytes from 10.0.0.11: icmp_seq=15 ttl=6464 bytes from 10.0.0.6: icmp_seq=16 ttl=64 time=0.771 ms

--- 10.0.0.6 ping statistics ---
16 packets transmitted, 16 received, 0% packet loss, time 76735ms
rtt min/avg/max/mdev = 0.440/0.556/0.771/0.098 ms
/1.175/0.235 ms
