PING 10.0.0.6 (10.0.0.6) 56(84) bytes of data.
64 bytes from 10.0.0.6: icmp_seq=1 ttl=64 time=0.715 ms
64 bytes from 10.0.0.6: icmp_seq=2 ttl=64 time=0.299 ms
64 bytes from 10.0.0.6: icmp_seq=3 ttl=64 time=0.682 ms
64 bytes from 10.0.0.6: icmp_seq=4 ttl=64 time=0.640 ms
64 by64 bytes from 10.0.0.11: icmp_seq=5 ttl=64 time=0.764 bytes from 10.0.0.6: icmp_seq=6 ttl=64 time=0.440 ms
64 bytes from 10.0.0.6: icmp_seq=7 ttl=64 time=0.512 ms
64 bytes from 10.0.0.7: icmp_seq=8 ttl=64 time=0.660 ms
64 bytes from 10.0.0.7: icmp_seq=9 ttl=64 time=0.562 ms
64 bytes f64 bytes from 10.0.0.11: icmp_seq=10 ttl=64 tim64 bytes fr64 bytes from 10.0.0.11: icmp_seq=11 ttl=64 ti64 bytes fro64 bytes from 10.0.0.11: icmp_seq=12 ttl=64 t64 bytes from 10.0.0.7: icmp_seq=13 ttl=64 time=0.423 ms
64 bytes from 10.0.0.6: icmp_seq=14 ttl=64 time=0.469 ms
64 bytes from 10.0.0.6: icmp_seq=15 ttl=64 time=1.01 ms
664 bytes from 10.0.0.7: icmp_seq=16 ttl=64 time=0.792 ms

--- 10.0.0.7 ping statistics ---
16 packets transmitted, 16 received, 0% packet loss, time 76792ms
rtt min/avg/max/mdev = 0.407/0.557/0.792/0.110 ms
3/1.200/0.234 ms
