PING 10.0.0.11 (10.0.0.11) 56(84) bytes of data.
64 bytes from 10.0.0.11: icmp_seq=1 ttl=64 time=0.426 64 64 bytes from 10.0.0.11: icmp_seq=2 ttl=64 time=0.51664 bytes from 10.0.0.6: icmp_seq=3 ttl=64 time=0.432 m6464 bytes from 10.0.0.6: icmp_seq=4 ttl=64 time=0.558 m6464 bytes from 10.0.0.6: icmp_seq=5 ttl=64 time=0.420 m64 bytes from 10.0.0.7: icmp_seq=6 ttl=64 time=0.615 ms
64 bytes from 10.0.0.7: icmp_seq=7 ttl=64 time=0.529 ms
6464 bytes 64 bytes from 10.0.0.11: icmp_seq=8 ttl=64 ti64 bytes from 10.0.0.7: icmp_seq=9 ttl=64 time=0.579 ms
6464 bytes from 10.0.0.6: icmp_seq=10 ttl=64 time=1.39 ms64 bytes from 64 bytes from 10.0.0.11: icmp_seq=11 ttl=6464 bytes from 10.0.0.7: icmp_seq=12 ttl=64 time=0.453 ms
64 bytes from 10.0.0.7: icmp_seq=13 ttl=64 time=1.08 ms
6464 bytes from 1064 bytes from 10.0.0.11: icmp_seq=14 tt6464 bytes from 10.64 bytes from 10.0.0.11: icmp_seq=15 t6464 bytes from 10.064 bytes from 10.0.0.11: icmp_seq=16 ttl=64 time=1.23 ms

--- 10.0.0.11 ping statistics ---
16 packets transmitted, 16 received, 0% packet loss, time 76574ms
rtt min/avg/max/mdev = 0.426/0.590/1.239/0.181 ms
