PING 10.0.0.11 (10.0.0.11) 56(84) bytes of data.
64 bytes from 10.0.0.11: icmp_seq=1 ttl=64 time=0.836664 64 bytes from 10.0.0.11: icmp_seq=2 ttl=64 time=0.9664 by64 bytes from 10.0.0.11: icmp_seq=3 ttl=64 time=0.664 byt64 bytes from 10.0.0.11: icmp_seq=4 ttl=64 time=064 bytes from 10.0.0.7: icmp_seq=5 ttl=64 time=0.693 ms
664 bytes from 10.0.0.6: icmp_seq=6 ttl=64 time=0.635 ms64 bytes from 10.0.0.7: icmp_seq=7 ttl=64 time=1.02 ms
6464 bytes from 10.0.0.6: icmp_seq=8 ttl=64 time=0.405 m64 bytes from 10.0.0.7: icmp_seq=9 ttl=64 time=0.943 ms
64 bytes from 10.0.0.7: icmp_seq=10 ttl=64 time=0.934 ms
64 bytes from 10.0.0.7: icmp_seq=11 ttl=64 time=1.23 ms
64 64 bytes from 64 bytes from 10.0.0.11: icmp_seq=12 ttl64 bytes from 10.0.0.7: icmp_seq=13 ttl=64 time=0.471 ms
64 64 bytes from 10.0.0.6: icmp_seq=14 ttl=64 time=0.920 64 bytes from 10.0.0.7: icmp_seq=15 ttl=64 time=0.672 ms
64 bytes from 10.0.0.7: icmp_seq=16 ttl=64 time=0.868 ms

--- 10.0.0.7 ping statistics ---
16 packets transmitted, 16 received, 0% packet loss, time 76543ms
rtt min/avg/max/mdev = 0.394/0.800/1.239/0.255 ms
1/0.613/0.991/0.174 ms
