PING 10.0.0.7 (10.0.0.7) 56(84) bytes of data.
64 bytes from 10.0.0.7: icmp_seq=1 ttl=64 time=26.2 ms
664 bytes from 10.0.0.6: icmp_seq=2 ttl=64 time=0.463 m6464 bytes from 10.0.0.6: icmp_seq=3 ttl=64 time=0.536 64 64 b64 bytes from 10.0.0.11: icmp_seq=4 ttl=64 time=064 64 by64 bytes from 10.0.0.11: icmp_seq=5 ttl=64 time=64 64 bytes from 10.0.0.6: icmp_seq=6 ttl=64 time=0.48664 b64 bytes from 10.0.0.6: icmp_seq=7 ttl=64 time=0.69164 b64 bytes64 bytes from 10.0.0.11: icmp_seq=8 ttl=64 t64 b64 bytes from 10.0.0.6: icmp_seq=9 ttl=64 time=0.66464 b64 bytes f64 bytes from 10.0.0.11: icmp_seq=10 ttl=6464 b64 bytes fr64 bytes from 10.0.0.11: icmp_seq=11 ttl=664 b64 bytes from 10.0.0.6: icmp_seq=12 ttl=64 time=0.53864 b64 bytes from 10.0.0.6: icmp_seq=13 ttl=64 time=0.57964 b64 bytes from 10.0.0.6: icmp_seq=14 ttl=64 time=0.63764 b64 bytes from 10.0.0.6: icmp_seq=15 ttl=64 time=0.50264 b64 bytes from 1064 bytes from 10.0.0.11: icmp_seq=16 ttl=
--- 10.0.0.6 ping statistics ---
16 packets transmitted, 16 received, 0% packet loss, time 76631ms
rtt min/avg/max/mdev = 0.409/0.550/0.691/0.083 ms
21/1.435/0.245 ms
