PING 10.0.0.6 (10.0.0.6) 56(84) bytes of data.
64 bytes from 10.0.0.6: icmp_seq=1 ttl=64 time=1.46 ms
64 bytes from 10.0.0.6: icmp_seq=2 ttl=64 time=0.990 ms
664 bytes from 10.0.0.7: icmp_seq=3 ttl=64 time=0.581 ms664 bytes from 10.0.0.7: icmp_seq=4 ttl=64 time=0.489 ms664 byt64 bytes from 10.0.0.11: icmp_seq=5 ttl=64 time=0664 byte64 bytes from 10.0.0.11: icmp_seq=6 ttl=64 time=664 bytes from 10.0.0.7: icmp_seq=7 ttl=64 time=0.406 ms664 bytes 64 bytes from 10.0.0.11: icmp_seq=8 ttl=64 tim664 bytes from 10.0.0.7: icmp_seq=9 ttl=64 time=0.444 ms664 bytes from 10.0.0.7: icmp_seq=10 ttl=64 time=0.516 ms664 bytes fro64 bytes from 10.0.0.11: icmp_seq=11 ttl=64 664 bytes from 10.0.0.7: icmp_seq=12 ttl=64 time=0.693 ms664 bytes from 10.0.0.7: icmp_seq=13 ttl=64 time=0.696 ms664 bytes from 10.0.0.7: icmp_seq=14 ttl=64 time=4.76 ms
64 bytes from 10.0.0.7: icmp_seq=15 ttl=64 time=0.805 ms
64 bytes from 10.064 bytes from 10.0.0.11: icmp_seq=16 ttl=64 time=0.680 ms

--- 10.0.0.11 ping statistics ---
16 packets transmitted, 16 received, 0% packet loss, time 76715ms
rtt min/avg/max/mdev = 0.397/0.593/0.990/0.158 ms
