PING 10.0.0.6 (10.0.0.6) 56(84) bytes of data.
64 bytes from 10.0.0.6: icmp_seq=1 ttl=64 time=0.493 ms
64 bytes from 10.0.0.6: icmp_seq=2 ttl=64 time=0.517 ms664 b64 bytes from 10.0.0.11: icmp_seq=3 ttl=64 time=0.6464 by64 bytes from 10.0.0.11: icmp_seq=4 ttl=64 time=06464 byt64 bytes from 10.0.0.11: icmp_seq=5 ttl=64 time=6464 bytes from 10.0.0.6: icmp_seq=6 ttl=64 time=0.575 64 64 bytes from 10.0.0.6: icmp_seq=7 ttl=64 time=0.518 64 64 bytes from 10.0.0.6: icmp_seq=8 ttl=64 time=0.68064 b64 bytes from 10.0.0.6: icmp_seq=9 ttl=64 time=1.01 64 64 bytes fro64 bytes from 10.0.0.11: icmp_seq=10 ttl=664 64 bytes from 10.0.0.6: icmp_seq=11 ttl=64 time=0.454 64 64 bytes from 64 bytes from 10.0.0.11: icmp_seq=12 ttl64 64 bytes from 10.0.0.6: icmp_seq=13 ttl=64 time=0.575 64 64 bytes from 10.0.0.6: icmp_seq=14 ttl=64 time=0.411 64 64 bytes from 10.0.0.6: icmp_seq=15 ttl=64 time=0.556 64 64 bytes from 10.0.0.6: icmp_seq=16 ttl=64 time=1.20 ms

--- 10.0.0.6 ping statistics ---
16 packets transmitted, 16 received, 0% packet loss, time 76587ms
rtt min/avg/max/mdev = 0.411/0.613/1.200/0.217 ms
.603/1.370/0.227 ms
