PING 10.0.0.6 (10.0.0.6) 56(84) bytes of data.
64 bytes from 10.0.0.6: icmp_seq=1 ttl=64 time=0.477 ms
64 64 bytes from 10.0.0.11: icmp_seq=2 ttl=64 time=0.51164 bytes from 10.0.0.7: icmp_seq=3 ttl=64 time=1.77 ms
664 by64 bytes from 10.0.0.11: icmp_seq=4 ttl=64 time=0.664 byt64 bytes from 10.0.0.11: icmp_seq=5 ttl=64 time=1664 bytes from 10.0.0.6: icmp_seq=6 ttl=64 time=0.877 ms64 bytes from 10.0.0.7: icmp_seq=7 ttl=64 time=0.674 ms
664 bytes from 10.0.0.6: icmp_seq=8 ttl=64 time=2.10 ms
64 bytes f64 bytes from 10.0.0.11: icmp_seq=9 ttl=64 tim64 bytes from 10.0.0.6: icmp_seq=10 ttl=64 time=0.558 ms
64 bytes from 10.0.0.7: icmp_seq=11 ttl=64 time=0.395 ms
64 bytes from 10.0.0.7: icmp_seq=12 ttl=64 time=0.675 ms
64 bytes from 10.0.0.7: icmp_seq=13 ttl=64 time=0.703 ms
64 bytes from 10.0.0.6: icmp_seq=14 ttl=64 time=0.644 ms
64 bytes from 164 bytes from 10.0.0.11: icmp_seq=15 ttl=664 bytes from 10.0.0.7: icmp_seq=16 ttl=64 time=1.03 ms

--- 10.0.0.7 ping statistics ---
16 packets transmitted, 16 received, 0% packet loss, time 76758ms
rtt min/avg/max/mdev = 0.395/0.708/1.776/0.315 ms

94/4.634/0.998 ms
