PING 10.0.0.7 (10.0.0.7) 56(84) bytes of data.
64 bytes from 10.0.0.7: icmp_seq=1 ttl=64 time=1.15 ms
64 b64 bytes from 10.0.0.11: icmp_seq=2 ttl=64 time=0.3164 by64 bytes from 10.0.0.11: icmp_seq=3 ttl=64 time=0.864 bytes from 10.0.0.7: icmp_seq=4 ttl=64 time=0.588 ms
64 byte64 bytes from 10.0.0.11: icmp_seq=5 ttl=64 time=164 bytes from 10.0.0.7: icmp_seq=6 ttl=64 time=0.786 ms
664 bytes from 10.0.0.6: icmp_seq=7 ttl=64 time=1.23 ms
64 bytes from 10.0.0.7: icmp_seq=8 ttl=64 time=0.967 ms
64 bytes f64 bytes from 10.0.0.11: icmp_seq=9 ttl=64 tim64 bytes fr64 bytes from 10.0.0.11: icmp_seq=10 ttl=64 ti64 bytes fro64 bytes from 10.0.0.11: icmp_seq=11 ttl=64 t64 bytes from64 bytes from 10.0.0.11: icmp_seq=12 ttl=64 64 bytes from 10.0.0.7: icmp_seq=13 ttl=64 time=0.608 ms
64 bytes from 10.0.0.7: icmp_seq=14 ttl=64 time=0.598 ms
64 bytes from 1064 bytes from 10.0.0.11: icmp_seq=15 ttl=64 bytes from 10.64 bytes from 10.0.0.11: icmp_seq=16 ttl=64 time=0.656 ms

--- 10.0.0.11 ping statistics ---
16 packets transmitted, 16 received, 0% packet loss, time 76747ms
rtt min/avg/max/mdev = 0.312/0.663/1.577/0.271 ms
