PING 10.0.0.11 (10.0.0.11) 56(84) bytes of data.
64 bytes from 10.0.0.11: icmp_seq=1 ttl=64 time=0.544 64 64 bytes from 10.0.0.11: icmp_seq=2 ttl=64 time=0.75064 b64 bytes from 10.0.0.11: icmp_seq=3 ttl=64 time=0.9264 bytes from 10.0.0.6: icmp_seq=4 ttl=64 time=0.863 ms
64 bytes from 10.0.0.7: icmp_seq=5 ttl=64 time=0.577 ms
64 bytes from 10.0.0.7: icmp_seq=6 ttl=64 time=0.706 ms
64 bytes from 10.0.0.7: icmp_seq=7 ttl=64 time=7.14 ms
664 bytes from 10.0.0.6: icmp_seq=8 ttl=64 time=0.812 ms664 bytes f64 bytes from 10.0.0.11: icmp_seq=9 ttl=64 ti64 bytes from 10.0.0.7: icmp_seq=10 ttl=64 time=1.33 ms
6464 bytes fro64 bytes from 10.0.0.11: icmp_seq=11 ttl=6464 bytes from 10.0.0.7: icmp_seq=12 ttl=64 time=0.790 ms
64 bytes from 164 bytes from 10.0.0.11: icmp_seq=13 ttl=6664 bytes from 10.0.0.6: icmp_seq=14 ttl=64 time=0.724 ms64 bytes from 10.64 bytes from 10.0.0.11: icmp_seq=15 ttl64 bytes from 10.0.0.7: icmp_seq=16 ttl=64 time=1.25 ms

--- 10.0.0.7 ping statistics ---
16 packets transmitted, 16 received, 0% packet loss, time 76780ms
rtt min/avg/max/mdev = 0.577/1.209/7.142/1.546 ms
s
53/2.017/0.369 ms
