PING 10.0.0.6 (10.0.0.6) 56(84) bytes of data.
64 bytes from 10.0.0.6: icmp_seq=1 ttl=64 time=0.628 ms
6464 bytes from 10.0.0.11: icmp_seq=2 ttl=64 time=0.588664 bytes from 10.0.0.7: icmp_seq=3 ttl=64 time=0.655 ms664 b64 bytes from 10.0.0.11: icmp_seq=4 ttl=64 time=0.5664 bytes from 10.0.0.7: icmp_seq=5 ttl=64 time=0.593 ms664 bytes from 10.0.0.7: icmp_seq=6 ttl=64 time=0.804 ms664 byte64 bytes from 10.0.0.11: icmp_seq=7 ttl=64 time=664 bytes from 10.0.0.7: icmp_seq=8 ttl=64 time=0.637 m6464 bytes from 10.0.0.7: icmp_seq=9 ttl=64 time=1.11 ms664 bytes fr64 bytes from 10.0.0.11: icmp_seq=10 ttl=64 t664 bytes from 10.0.0.7: icmp_seq=11 ttl=64 time=0.527 m6464 bytes fro64 bytes from 10.0.0.11: icmp_seq=12 ttl=646464 bytes from 10.0.0.7: icmp_seq=13 ttl=64 time=0.494 m6464 bytes from 64 bytes from 10.0.0.11: icmp_seq=14 ttl=6464 bytes from 10.0.0.7: icmp_seq=15 ttl=64 time=0.557 m6464 bytes from 10.0.0.7: icmp_seq=16 ttl=64 time=0.973 ms

--- 10.0.0.7 ping statistics ---
16 packets transmitted, 16 received, 0% packet loss, time 76800ms
rtt min/avg/max/mdev = 0.494/0.693/1.110/0.167 ms
81/1.386/0.271 ms
