PING 10.0.0.11 (10.0.0.11) 56(84) bytes of data.
64 bytes from 10.0.0.11: icmp_seq=1 ttl=64 time=0.683 64 bytes from 10.0.0.7: icmp_seq=2 ttl=64 time=7.05 ms
64 b64 bytes from 10.0.0.11: icmp_seq=3 ttl=64 time=0.3764 bytes from 10.0.0.7: icmp_seq=4 ttl=64 time=0.620 ms
64 byt64 bytes from 10.0.0.11: icmp_seq=5 ttl=64 time=0.64 bytes from 10.0.0.7: icmp_seq=6 ttl=64 time=0.649 ms
664 byte64 bytes from 10.0.0.11: icmp_seq=7 ttl=64 time=664 bytes64 bytes from 10.0.0.11: icmp_seq=8 ttl=64 time64 bytes f64 bytes from 10.0.0.11: icmp_seq=9 ttl=64 tim664 bytes from 10.0.0.6: icmp_seq=10 ttl=64 time=0.507 ms664 bytes fr64 bytes from 10.0.0.11: icmp_seq=11 ttl=64 t664 bytes from 10.0.0.6: icmp_seq=12 ttl=64 time=0.547 ms664 bytes from64 bytes from 10.0.0.11: icmp_seq=13 ttl=64664 bytes from 10.0.0.6: icmp_seq=14 ttl=64 time=0.516 ms64 bytes from 10.0.0.7: icmp_seq=15 ttl=64 time=0.658 ms
664 bytes from 1064 bytes from 10.0.0.11: icmp_seq=16 ttl=64 time=3.32 ms

--- 10.0.0.11 ping statistics ---
16 packets transmitted, 16 received, 0% packet loss, time 76546ms
rtt min/avg/max/mdev = 0.373/0.847/3.325/0.740 ms
