PING 10.0.0.6 (10.0.0.6) 56(84) bytes of data.
64 bytes from 10.0.0.6: icmp_seq=1 ttl=64 time=0.679 ms
64 bytes from 10.0.0.6: icmp_seq=2 ttl=64 time=0.712 ms
64 bytes from 10.0.0.7: icmp_seq=3 ttl=64 time=0.704 ms
64 bytes from 10.0.0.6: icmp_seq=4 ttl=64 time=0.567 ms
64 bytes from 10.0.0.7: icmp_seq=5 ttl=64 time=0.619 ms
64 bytes from 10.0.0.7: icmp_seq=6 ttl=64 time=0.851 ms
64 bytes from 10.0.0.6: icmp_seq=7 ttl=64 time=0.855 ms
64 bytes from 10.0.0.6: icmp_seq=8 ttl=64 time=0.646 ms
64 bytes from 10.0.0.7: icmp_seq=9 ttl=64 time=0.727 ms
64 bytes from 10.0.0.6: icmp_seq=10 ttl=64 time=0.638 ms
64 bytes from 10.0.0.7: icmp_seq=11 ttl=64 time=0.663 ms
64 bytes from 10.0.0.6: icmp_seq=12 ttl=64 time=0.659 ms
64 bytes from 10.0.0.7: icmp_seq=13 ttl=64 time=0.653 ms
64 bytes from 10.0.0.7: icmp_seq=14 ttl=64 time=0.731 ms
64 bytes from 10.0.0.6: icmp_seq=15 ttl=64 time=1.23 ms
664 bytes from 10.0.0.7: icmp_seq=16 ttl=64 time=0.970 ms

--- 10.0.0.7 ping statistics ---
16 packets transmitted, 16 received, 0% packet loss, time 76809ms
rtt min/avg/max/mdev = 0.376/0.635/0.970/0.141 ms
/7.366/1.892 ms
