PING 10.0.0.11 (10.0.0.11) 56(84) bytes of data.
64 bytes from 10.0.0.11: icmp_seq=1 ttl=64 time=0.602 64 64 bytes from 10.0.0.11: icmp_seq=2 ttl=64 time=0.47664 b64 bytes from 10.0.0.11: icmp_seq=3 ttl=64 time=0.564 bytes from 10.0.0.7: icmp_seq=4 ttl=64 time=0.608 ms
664 byt64 bytes from 10.0.0.11: icmp_seq=5 ttl=64 time=064 bytes64 bytes from 10.0.0.11: icmp_seq=6 ttl=64 time=664 bytes from 10.0.0.6: icmp_seq=7 ttl=64 time=0.668 ms664 bytes 64 bytes from 10.0.0.11: icmp_seq=8 ttl=64 tim64 bytes from 10.0.0.7: icmp_seq=9 ttl=64 time=0.754 ms
64 bytes from 10.0.0.7: icmp_seq=10 ttl=64 time=0.631 ms
64 bytes from 10.0.0.7: icmp_seq=11 ttl=64 time=0.709 ms
664 bytes from64 bytes from 10.0.0.11: icmp_seq=12 ttl=6464 bytes from 10.0.0.7: icmp_seq=13 ttl=64 time=0.678 ms
64 bytes from 10.0.0.7: icmp_seq=14 ttl=64 time=0.608 ms
664 bytes from 10.0.0.6: icmp_seq=15 ttl=64 time=1.45 ms
64 bytes from 10.064 bytes from 10.0.0.11: icmp_seq=16 ttl--- 10.0.0.7 ping s--- 10.0.0.11 ping statistics ---
16 packets transmitted, 16 received, 0% packet loss, time 76663ms
rtt min/avg/max/mdev = 0.394/0.559/0.670/0.069 ms
