PING 10.0.0.6 (10.0.0.6) 56(84) bytes of data.
64 bytes from 10.0.0.6: icmp_seq=1 ttl=64 time=0.737 ms664 bytes from 10.0.0.6: icmp_seq=2 ttl=64 time=0.457 ms64 bytes from 10.0.0.7: icmp_seq=3 ttl=64 time=0.490 ms
664 bytes from 10.0.0.6: icmp_seq=4 ttl=64 time=1.27 ms
64 byte64 bytes from 10.0.0.11: icmp_seq=5 ttl=64 time=064 bytes from 10.0.0.7: icmp_seq=6 ttl=64 time=0.583 ms
64 bytes from 10.0.0.6: icmp_seq=7 ttl=64 time=0.476 ms
64 bytes from 10.0.0.6: icmp_seq=8 ttl=64 time=2.66 ms
664 bytes from 10.0.0.7: icmp_seq=9 ttl=64 time=1.01 ms
64 bytes from 10.0.0.6: icmp_seq=10 ttl=64 time=0.570 ms
64 bytes from 10.0.0.6: icmp_seq=11 ttl=64 time=0.615 ms
64 bytes from 10.0.0.6: icmp_seq=12 ttl=64 time=0.375 ms
64 bytes from 10.0.0.7: icmp_seq=13 ttl=64 time=0.690 ms
64 bytes from 10.0.0.6: icmp_seq=14 ttl=64 time=1.12 ms
664 bytes from 10.64 bytes from 10.0.0.11: icmp_seq=15 tt64 bytes from 10.0.0.6: icmp_seq=16 ttl=64 time=0.950 ms

--- 10.0.0.6 ping statistics ---
16 packets transmitted, 16 received, 0% packet loss, time 76712ms
rtt min/avg/max/mdev = 0.342/0.779/2.667/0.550 ms

.631/1.067/0.197 ms
