PING 10.0.0.7 (10.0.0.7) 56(84) bytes of data.
64 bytes from 10.0.0.7: icmp_seq=1 ttl=64 time=0.815 ms
64 bytes from 10.0.0.7: icmp_seq=2 ttl=64 time=0.615 ms
64 bytes from 10.0.0.6: icmp_seq=3 ttl=64 time=0.846 ms
64 bytes from 10.0.0.7: icmp_seq=4 ttl=64 time=0.780 ms
64 by64 bytes from 10.0.0.11: icmp_seq=5 ttl=64 time=0.664 bytes from 10.0.0.6: icmp_seq=6 ttl=64 time=2.29 ms
664 bytes from 10.0.0.7: icmp_seq=7 ttl=64 time=0.719 ms64 bytes 64 bytes from 10.0.0.11: icmp_seq=8 ttl=64 time664 bytes from 10.0.0.7: icmp_seq=9 ttl=64 time=0.905 ms664 bytes f64 bytes from 10.0.0.11: icmp_seq=10 ttl=64 ti64 bytes fro64 bytes from 10.0.0.11: icmp_seq=11 ttl=64 t64 bytes from 10.0.0.6: icmp_seq=12 ttl=64 time=0.646 ms
664 bytes from 10.0.0.7: icmp_seq=13 ttl=64 time=0.760 ms64 bytes from 10.0.0.6: icmp_seq=14 ttl=64 time=0.650 ms
64 bytes from 10.0.0.6: icmp_seq=15 ttl=64 time=0.515 ms
664 bytes from 10.0.0.7: icmp_seq=16 ttl=64 time=0.939 ms
---- 10.0.0.7 ping statistics ---
16 packets transmitted, 16 received, 0% packet loss, time 76603ms
rtt min/avg/max/mdev = 0.378/0.639/0.939/0.162 ms
22/1.154/0.205 ms
