PING 10.0.0.11 (10.0.0.11) 56(84) bytes of data.
64 bytes from 10.0.0.11: icmp_seq=1 ttl=64 time=0.641 64 64 bytes from 10.0.0.11: icmp_seq=2 ttl=64 time=0.56664 b64 bytes from 10.0.0.11: icmp_seq=3 ttl=64 time=0.464 byt64 bytes from 10.0.0.11: icmp_seq=4 ttl=64 time=0.64 bytes from 10.0.0.7: icmp_seq=5 ttl=64 time=0.606 ms
64 bytes64 bytes from 10.0.0.11: icmp_seq=6 ttl=64 time=64 bytes from 10.0.0.7: icmp_seq=7 ttl=64 time=0.824 ms
664 bytes from 10.0.0.6: icmp_seq=8 ttl=64 time=0.545 ms664 bytes from 10.0.0.6: icmp_seq=9 ttl=64 time=0.540 ms64 bytes from 10.0.0.7: icmp_seq=10 ttl=64 time=0.593 ms
664 bytes from 10.0.0.6: icmp_seq=11 ttl=64 time=0.569 ms64 bytes from 10.0.0.7: icmp_seq=12 ttl=64 time=0.553 ms
64 bytes from 10.0.0.7: icmp_seq=13 ttl=64 time=0.639 ms
64 bytes from 10.0.0.7: icmp_seq=14 ttl=64 time=0.946 ms
664 bytes from 10.0.0.6: icmp_seq=15 ttl=64 time=0.511 ms664 bytes from 10.0.0.6: icmp_seq=16 ttl=64 time=0.650 ms
---- 10.0.0.6 ping --- 10.0.0.11 ping statistics ---
16 packets transmitted, 16 received, 0% packet loss, time 76634ms
rtt min/avg/max/mdev = 0.353/0.564/0.839/0.127 ms
