PING 10.0.0.6 (10.0.0.6) 56(84) bytes of data.
64 bytes from 10.0.0.6: icmp_seq=1 ttl=64 time=0.725 ms
64 bytes from 10.0.0.7: icmp_seq=2 ttl=64 time=0.563 ms
64 b64 bytes from 10.0.0.11: icmp_seq=3 ttl=64 time=0.4564 bytes from 10.0.0.7: icmp_seq=4 ttl=64 time=0.794 ms
64 bytes from 10.0.0.6: icmp_seq=5 ttl=64 time=0.712 ms
64 bytes from 10.0.0.7: icmp_seq=6 ttl=64 time=0.873 ms
64 bytes from 10.0.0.6: icmp_seq=7 ttl=64 time=0.567 ms
64 bytes 64 bytes from 10.0.0.11: icmp_seq=8 ttl=64 time64 bytes from 10.0.0.7: icmp_seq=9 ttl=64 time=0.605 ms
64 bytes from 10.0.0.7: icmp_seq=10 ttl=64 time=0.782 ms
64 bytes from 10.0.0.6: icmp_seq=11 ttl=64 time=0.623 ms
64 bytes fro64 bytes from 10.0.0.11: icmp_seq=12 ttl=64 t64 bytes from64 bytes from 10.0.0.11: icmp_seq=13 ttl=64 64 bytes from 64 bytes from 10.0.0.11: icmp_seq=14 ttl=6464 bytes from 10.0.0.6: icmp_seq=15 ttl=64 time=0.613 ms
64 bytes from 10.0.0.7: icmp_seq=16 ttl=64 time=0.810 ms

--- 10.0.0.7 ping statistics ---
16 packets transmitted, 16 received, 0% packet loss, time 76777ms
rtt min/avg/max/mdev = 0.386/0.629/0.873/0.161 ms
50/6.114/1.338 ms
