PING 10.0.0.7 (10.0.0.7) 56(84) bytes of data.
64 bytes from 10.0.0.7: icmp_seq=1 ttl=64 time=0.782 ms
64 bytes from 10.0.0.7: icmp_seq=2 ttl=64 time=0.977 ms664 64 bytes from 10.0.0.11: icmp_seq=3 ttl=64 time=0.3964 bytes from 10.0.0.6: icmp_seq=4 ttl=64 time=1.19 ms
6464 bytes from 10.0.0.7: icmp_seq=5 ttl=64 time=0.631 m6464 bytes from 10.0.0.7: icmp_seq=6 ttl=64 time=0.726 m64 bytes 64 bytes from 10.0.0.11: icmp_seq=7 ttl=64 time64 bytes from 10.0.0.6: icmp_seq=8 ttl=64 time=0.593 ms
64 bytes from 10.0.0.6: icmp_seq=9 ttl=64 time=0.542 ms
6464 bytes from 10.0.0.7: icmp_seq=10 ttl=64 time=0.885 m64 bytes from 10.0.0.6: icmp_seq=11 ttl=64 time=0.490 ms
64 bytes from 64 bytes from 10.0.0.11: icmp_seq=12 ttl=646464 bytes from 10.0.0.7: icmp_seq=13 ttl=64 time=0.539 m64 bytes from 1064 bytes from 10.0.0.11: icmp_seq=14 ttl=6464 bytes from 10.0.0.7: icmp_seq=15 ttl=64 time=0.569 m64 bytes from 10.0.0.6: icmp_seq=16 ttl=64 time=1.61 ms

--- 10.0.0.6 ping statistics ---
16 packets transmitted, 16 received, 0% packet loss, time 76697ms
rtt min/avg/max/mdev = 0.420/0.699/1.611/0.329 ms
ms
91/1.448/0.239 ms
