PING 10.0.0.7 (10.0.0.7) 56(84) bytes of data.
64 bytes from 10.0.0.7: icmp_seq=1 ttl=64 time=0.637 ms
64 bytes from 10.0.0.7: icmp_seq=2 ttl=64 time=0.529 ms
64 bytes from 10.0.0.7: icmp_seq=3 ttl=64 time=0.446 ms
64 bytes from 10.0.0.7: icmp_seq=4 ttl=64 time=0.916 ms
64 bytes from 10.0.0.7: icmp_seq=5 ttl=64 time=0.835 ms
64 bytes from 10.0.0.7: icmp_seq=6 ttl=64 time=0.392 ms
64 bytes from 10.0.0.7: icmp_seq=7 ttl=64 time=0.610 ms
64 bytes from 10.0.0.7: icmp_seq=8 ttl=64 time=0.658 ms
64 bytes from 10.0.0.7: icmp_seq=9 ttl=64 time=0.443 ms
64 bytes from 10.0.0.7: icmp_seq=10 ttl=64 time=0.465 ms664 bytes from 10.0.0.7: icmp_seq=11 ttl=64 time=0.544 ms664 bytes from 10.0.0.7: icmp_seq=12 ttl=64 time=0.771 m6464 bytes from 10.0.0.7: icmp_seq=13 ttl=64 time=1.15 ms664 bytes from 10.0.0.7: icmp_seq=14 ttl=64 time=0.481 ms664 bytes from 10.0.0.7: icmp_seq=15 ttl=64 time=0.562 ms664 bytes from 10.0.0.7: icmp_seq=16 ttl=64 time=1.24 ms

--- 10.0.0.7 ping statistics ---
16 packets transmitted, 16 received, 0% packet loss, time 76833ms
rtt min/avg/max/mdev = 0.392/0.668/1.246/0.246 ms
692/1.415/0.289 ms
