PING 10.0.0.6 (10.0.0.6) 56(84) bytes of data.
64 bytes from 10.0.0.6: icmp_seq=1 ttl=64 time=0.743 ms
64 bytes from 10.0.0.7: icmp_seq=2 ttl=64 time=0.806 ms
64 b64 bytes from 10.0.0.11: icmp_seq=3 ttl=64 time=0.5564 bytes from 10.0.0.7: icmp_seq=4 ttl=64 time=1.23 ms
664 bytes from 10.0.0.6: icmp_seq=5 ttl=64 time=1.29 ms
64 bytes from 10.0.0.7: icmp_seq=6 ttl=64 time=0.463 ms
64 bytes 64 bytes from 10.0.0.11: icmp_seq=7 ttl=64 tim664 bytes f64 bytes from 10.0.0.11: icmp_seq=8 ttl=64 ti664 bytes from 10.0.0.7: icmp_seq=9 ttl=64 time=0.695 ms664 bytes from 10.0.0.7: icmp_seq=10 ttl=64 time=0.708 ms664 bytes from64 bytes from 10.0.0.11: icmp_seq=11 ttl=64664 bytes from 10.0.0.7: icmp_seq=12 ttl=64 time=0.676 ms664 bytes from 10.0.0.7: icmp_seq=13 ttl=64 time=0.725 ms664 bytes from 10.0.0.7: icmp_seq=14 ttl=64 time=0.723 ms664 bytes from 10.0.0.7: icmp_seq=15 ttl=64 time=1.10 ms
64 bytes from 10.0.64 bytes from 10.0.0.11: icmp_seq=16 ttl=64 time=0.668 ms

--- 10.0.0.11 ping statistics ---
16 packets transmitted, 16 received, 0% packet loss, time 76711ms
rtt min/avg/max/mdev = 0.331/0.581/0.998/0.186 ms
