PING 10.0.0.6 (10.0.0.6) 56(84) bytes of data.
64 bytes from 10.0.0.6: icmp_seq=1 ttl=64 time=57.2 ms
664 bytes from 10.0.0.7: icmp_seq=2 ttl=64 time=0.426 ms664 bytes from 10.0.0.7: icmp_seq=3 ttl=64 time=0.912 ms64 byt64 bytes from 10.0.0.11: icmp_seq=4 ttl=64 time=16464 bytes from 10.0.0.7: icmp_seq=5 ttl=64 time=5.46 ms64 bytes from 10.0.0.6: icmp_seq=6 ttl=64 time=0.468 ms
664 bytes64 bytes from 10.0.0.11: icmp_seq=7 ttl=64 time664 bytes from 10.0.0.7: icmp_seq=8 ttl=64 time=0.801 ms664 bytes f64 bytes from 10.0.0.11: icmp_seq=9 ttl=64 ti664 bytes from 10.0.0.7: icmp_seq=10 ttl=64 time=1.22 ms
64 bytes from 10.0.0.6: icmp_seq=11 ttl=64 time=0.661 ms664 bytes from 10.0.0.6: icmp_seq=12 ttl=64 time=0.496 ms664 bytes from 164 bytes from 10.0.0.11: icmp_seq=13 ttl=664 bytes from 1064 bytes from 10.0.0.11: icmp_seq=14 ttl664 bytes from 10.0.0.6: icmp_seq=15 ttl=64 time=0.498 m6464 bytes from 10.0.0.6: icmp_seq=16 ttl=64 time=0.828 ms

--- 10.0.0.6 ping statistics ---
16 packets transmitted, 16 received, 0% packet loss, time 76637ms
rtt min/avg/max/mdev = 0.369/4.146/57.280/13.720 ms
53/1.081/0.182 ms
