PING 10.0.0.7 (10.0.0.7) 56(84) bytes of data.
64 bytes from 10.0.0.7: icmp_seq=1 ttl=64 time=0.976 ms
64 bytes from 10.0.0.7: icmp_seq=2 ttl=64 time=0.707 ms
64 bytes from 10.0.0.7: icmp_seq=3 ttl=64 time=1.19 ms
664 bytes from 10.0.0.6: icmp_seq=4 ttl=64 time=0.547 ms664 bytes from 10.0.0.6: icmp_seq=5 ttl=64 time=0.546 ms64 bytes from 10.0.0.7: icmp_seq=6 ttl=64 time=0.459 ms
664 bytes from 10.0.0.6: icmp_seq=7 ttl=64 time=1.48 ms
64 bytes from 10.0.0.7: icmp_seq=8 ttl=64 time=0.644 ms
64 bytes from 10.0.0.7: icmp_seq=9 ttl=64 time=0.629 ms
64 bytes from 10.0.0.7: icmp_seq=10 ttl=64 time=0.786 ms
64 bytes from 10.0.0.6: icmp_seq=11 ttl=64 time=1.94 ms
664 bytes from 10.0.0.7: icmp_seq=12 ttl=64 time=0.604 ms664 bytes from 164 bytes from 10.0.0.11: icmp_seq=13 ttl=664 bytes from 1064 bytes from 10.0.0.11: icmp_seq=14 ttl64 bytes from 10.0.0.6: icmp_seq=15 ttl=64 time=0.530 ms
664 bytes from 10.0.0.7: icmp_seq=16 ttl=64 time=0.811 ms
---- 10.0.0.7 ping statistics ---
16 packets transmitted, 16 received, 0% packet loss, time 76637ms
rtt min/avg/max/mdev = 0.371/0.639/1.194/0.212 ms
635/1.328/0.250 ms
