PING 10.0.0.7 (10.0.0.7) 56(84) bytes of data.
64 bytes from 10.0.0.7: icmp_seq=1 ttl=64 time=6.54 ms
664 bytes from 10.0.0.6: icmp_seq=2 ttl=64 time=0.481 ms664 bytes from 10.0.0.6: icmp_seq=3 ttl=64 time=0.536 ms664 bytes from 10.0.0.6: icmp_seq=4 ttl=64 time=0.726 ms64 bytes from 10.0.0.7: icmp_seq=5 ttl=64 time=0.763 ms
664 byt64 bytes from 10.0.0.11: icmp_seq=6 ttl=64 time=064 bytes64 bytes from 10.0.0.11: icmp_seq=7 ttl=64 time=64 bytes from 10.0.0.7: icmp_seq=8 ttl=64 time=0.753 ms
664 bytes 64 bytes from 10.0.0.11: icmp_seq=9 ttl=64 tim664 bytes from 10.0.0.6: icmp_seq=10 ttl=64 time=5.22 ms
64 bytes fro64 bytes from 10.0.0.11: icmp_seq=11 ttl=64 t64 bytes from64 bytes from 10.0.0.11: icmp_seq=12 ttl=64 64 bytes from 64 bytes from 10.0.0.11: icmp_seq=13 ttl=6464 bytes from 164 bytes from 10.0.0.11: icmp_seq=14 ttl=664 bytes from 10.0.0.7: icmp_seq=15 ttl=64 time=0.631 ms
64 bytes from 10.0.0.6: icmp_seq=16 ttl=64 time=0.657 ms

--- 10.0.0.6 ping statistics ---
16 packets transmitted, 16 received, 0% packet loss, time 76662ms
rtt min/avg/max/mdev = 0.390/0.863/5.224/1.130 ms
89/4.682/1.076 ms
