PING 10.0.0.11 (10.0.0.11) 56(84) bytes of data.
64 bytes from 10.0.0.11: icmp_seq=1 ttl=64 time=19.9 664 bytes from 10.0.0.6: icmp_seq=2 ttl=64 time=0.602 ms664 bytes from 10.0.0.6: icmp_seq=3 ttl=64 time=0.794 ms664 bytes from 10.0.0.6: icmp_seq=4 ttl=64 time=1.17 ms
64 by64 bytes from 10.0.0.11: icmp_seq=5 ttl=64 time=0.664 byt64 bytes from 10.0.0.11: icmp_seq=6 ttl=64 time=0664 bytes from 10.0.0.6: icmp_seq=7 ttl=64 time=0.788 ms64 bytes from 10.0.0.7: icmp_seq=8 ttl=64 time=1.05 ms
6464 bytes from 10.0.0.6: icmp_seq=9 ttl=64 time=0.555 64 64 bytes f64 bytes from 10.0.0.11: icmp_seq=10 ttl=64 64 64 bytes from 10.0.0.6: icmp_seq=11 ttl=64 time=0.494 64 64 bytes from 10.0.0.6: icmp_seq=12 ttl=64 time=0.601 64 64 bytes from 10.0.0.6: icmp_seq=13 ttl=64 time=0.552 64 64 bytes from 10.0.0.6: icmp_seq=14 ttl=64 time=0.410 64 64 bytes from 10.0.0.6: icmp_seq=15 ttl=64 time=0.567 64 64 bytes from 10.0.0.6: icmp_seq=16 ttl=64 time=1.25 ms

--- 10.0.0.6 ping statistics ---
16 packets transmitted, 16 received, 0% packet loss, time 76667ms
rtt min/avg/max/mdev = 0.410/0.667/1.252/0.236 ms
893/19.952/4.713 ms
