PING 10.0.0.7 (10.0.0.7) 56(84) bytes of data.
64 bytes from 10.0.0.7: icmp_seq=1 ttl=64 time=0.663 ms
64 bytes from 10.0.0.7: icmp_seq=2 ttl=64 time=0.685 ms
64 64 bytes from 10.0.0.11: icmp_seq=3 ttl=64 time=0.54664 b64 bytes from 10.0.0.11: icmp_seq=4 ttl=64 time=0.4164 by64 bytes from 10.0.0.11: icmp_seq=5 ttl=64 time=4.164 bytes from 10.0.0.6: icmp_seq=6 ttl=64 time=1.17 ms
664 bytes from 10.0.0.7: icmp_seq=7 ttl=64 time=0.428 ms664 bytes from 10.0.0.7: icmp_seq=8 ttl=64 time=0.706 ms64 bytes 64 bytes from 10.0.0.11: icmp_seq=9 ttl=64 time64 bytes f64 bytes from 10.0.0.11: icmp_seq=10 ttl=64 ti6464 bytes from 10.0.0.7: icmp_seq=11 ttl=64 time=0.516 m6464 bytes f64 bytes from 10.0.0.11: icmp_seq=12 ttl=64 t6464 bytes fr64 bytes from 10.0.0.11: icmp_seq=13 ttl=64 64 bytes from 64 bytes from 10.0.0.11: icmp_seq=14 ttl=646464 bytes from 10.0.0.7: icmp_seq=15 ttl=64 time=0.681 64 64 bytes from 10.0.0.7: icmp_seq=16 ttl=64 time=0.898 ms

--- 10.0.0.7 ping statistics ---
16 packets transmitted, 16 received, 0% packet loss, time 76718ms
rtt min/avg/max/mdev = 0.423/0.581/0.898/0.139 ms
/4.123/0.916 ms
