PING 10.0.0.11 (10.0.0.11) 56(84) bytes of data.
64 bytes from 10.0.0.11: icmp_seq=1 ttl=64 time=0.530 64 bytes from 10.0.0.7: icmp_seq=2 ttl=64 time=0.528 ms
64 bytes from 10.0.0.6: icmp_seq=3 ttl=64 time=1.05 ms
664 bytes from 10.0.0.7: icmp_seq=4 ttl=64 time=0.708 ms664 bytes from 10.0.0.7: icmp_seq=5 ttl=64 time=0.678 ms64 bytes from 10.0.0.6: icmp_seq=6 ttl=64 time=0.553 ms
64 bytes from 10.0.0.6: icmp_seq=7 ttl=64 time=0.850 ms
64 bytes from 10.0.0.6: icmp_seq=8 ttl=64 time=0.714 ms
64 bytes fr64 bytes from 10.0.0.11: icmp_seq=9 ttl=64 ti64 bytes from 10.0.0.6: icmp_seq=10 ttl=64 time=0.739 ms
664 bytes fro64 bytes from 10.0.0.11: icmp_seq=11 ttl=64 64 bytes from 10.0.0.6: icmp_seq=12 ttl=64 time=0.748 ms
664 bytes from 10.0.0.7: icmp_seq=13 ttl=64 time=0.597 ms64 bytes from 1064 bytes from 10.0.0.11: icmp_seq=14 ttl=664 bytes from 1064 bytes from 10.0.0.11: icmp_seq=15 ttl664 bytes from 10.0.0.7: icmp_seq=16 ttl=64 time=1.03 ms

--- 10.0.0.7 ping statistics ---
16 packets transmitted, 16 received, 0% packet loss, time 76764ms
rtt min/avg/max/mdev = 0.391/0.603/1.037/0.163 ms
615/1.014/0.124 ms
