PING 10.0.0.4 (10.0.0.4) 56(84) bytes of data.
64 bytes from 10.0.0.4: icmp_seq=1 ttl=64 time=0.727 ms
64 bytes from 10.0.0.4: icmp_seq=2 ttl=64 time=0.414 ms
64 bytes from 10.0.0.4: icmp_seq=3 ttl=64 time=0.857 ms
64 bytes from 10.0.0.4: icmp_seq=4 ttl=64 time=0.538 ms
64 bytes from 10.0.0.4: icmp_seq=5 ttl=64 time=0.919 ms
64 bytes from 10.0.0.4: icmp_seq=6 ttl=64 time=0.443 ms
64 bytes from 10.0.0.4: icmp_seq=7 ttl=64 time=0.575 ms
64 bytes from 10.0.0.4: icmp_seq=8 ttl=64 time=0.495 ms
64 bytes from 10.0.0.4: icmp_seq=9 ttl=64 time=3.59 ms
64 bytes from 10.0.0.4: icmp_seq=10 ttl=64 time=1.45 ms
64 bytes from 10.0.0.4: icmp_seq=11 ttl=64 time=0.365 ms
64 bytes from 10.0.0.4: icmp_seq=12 ttl=64 time=0.507 ms
64 bytes from 10.0.0.4: icmp_seq=13 ttl=64 time=0.483 ms
64 bytes from 10.0.0.4: icmp_seq=14 ttl=64 time=0.662 ms
64 bytes from 10.0.0.4: icmp_seq=15 ttl=64 time=0.586 ms
64 bytes from 10.0.0.4: icmp_seq=16 ttl=64 time=0.692 ms

--- 10.0.0.4 ping statistics ---
16 packets transmitted, 16 received, 0% packet loss, time 76471ms
rtt min/avg/max/mdev = 0.365/0.832/3.599/0.758 ms
