PING 10.0.0.4 (10.0.0.4) 56(84) bytes of data.
64 bytes from 10.0.0.4: icmp_seq=1 ttl=64 time=0.524 ms
64 bytes from 10.0.0.4: icmp_seq=2 ttl=64 time=0.945 ms
64 bytes from 10.0.0.4: icmp_seq=3 ttl=64 time=6.37 ms
64 bytes from 10.0.0.4: icmp_seq=4 ttl=64 time=0.395 ms
64 bytes from 10.0.0.4: icmp_seq=5 ttl=64 time=0.559 ms
64 bytes from 10.0.0.4: icmp_seq=6 ttl=64 time=12.8 ms
64 bytes from 10.0.0.4: icmp_seq=7 ttl=64 time=0.470 ms
64 bytes from 10.0.0.4: icmp_seq=8 ttl=64 time=1.33 ms
64 bytes from 10.0.0.4: icmp_seq=9 ttl=64 time=0.882 ms
64 bytes from 10.0.0.4: icmp_seq=10 ttl=64 time=5.84 ms
64 bytes from 10.0.0.4: icmp_seq=11 ttl=64 time=0.560 ms
64 bytes from 10.0.0.4: icmp_seq=12 ttl=64 time=0.759 ms
64 bytes from 10.0.0.4: icmp_seq=13 ttl=64 time=6.27 ms
64 bytes from 10.0.0.4: icmp_seq=14 ttl=64 time=0.427 ms
64 bytes from 10.0.0.4: icmp_seq=15 ttl=64 time=0.579 ms
64 bytes from 10.0.0.4: icmp_seq=16 ttl=64 time=0.633 ms

--- 10.0.0.4 ping statistics ---
16 packets transmitted, 16 received, 0% packet loss, time 76704ms
rtt min/avg/max/mdev = 0.395/2.461/12.841/3.430 ms
