PING 10.0.0.4 (10.0.0.4) 56(84) bytes of data.
64 bytes from 10.0.0.4: icmp_seq=1 ttl=64 time=0.670 ms
64 bytes from 10.0.0.4: icmp_seq=2 ttl=64 time=0.430 ms
64 bytes from 10.0.0.4: icmp_seq=3 ttl=64 time=0.350 ms
64 bytes from 10.0.0.4: icmp_seq=4 ttl=64 time=0.717 ms
64 bytes from 10.0.0.4: icmp_seq=5 ttl=64 time=4.32 ms
64 bytes from 10.0.0.4: icmp_seq=6 ttl=64 time=0.470 ms
64 bytes from 10.0.0.4: icmp_seq=7 ttl=64 time=0.384 ms
64 bytes from 10.0.0.4: icmp_seq=8 ttl=64 time=0.495 ms
64 bytes from 10.0.0.4: icmp_seq=9 ttl=64 time=1.43 ms
64 bytes from 10.0.0.4: icmp_seq=10 ttl=64 time=6.94 ms
64 bytes from 10.0.0.4: icmp_seq=11 ttl=64 time=0.645 ms
64 bytes from 10.0.0.4: icmp_seq=12 ttl=64 time=0.426 ms
64 bytes from 10.0.0.4: icmp_seq=13 ttl=64 time=0.396 ms
64 bytes from 10.0.0.4: icmp_seq=14 ttl=64 time=0.429 ms
64 bytes from 10.0.0.4: icmp_seq=15 ttl=64 time=0.507 ms
64 bytes from 10.0.0.4: icmp_seq=16 ttl=64 time=0.829 ms

--- 10.0.0.4 ping statistics ---
16 packets transmitted, 16 received, 0% packet loss, time 76604ms
rtt min/avg/max/mdev = 0.350/1.215/6.948/1.752 ms
