PING 10.0.0.4 (10.0.0.4) 56(84) bytes of data.
64 bytes from 10.0.0.4: icmp_seq=1 ttl=64 time=0.843 ms
64 bytes from 10.0.0.4: icmp_seq=2 ttl=64 time=0.458 ms
64 bytes from 10.0.0.4: icmp_seq=3 ttl=64 time=0.649 ms
64 bytes from 10.0.0.4: icmp_seq=4 ttl=64 time=0.442 ms
64 bytes from 10.0.0.4: icmp_seq=5 ttl=64 time=0.543 ms
64 bytes from 10.0.0.4: icmp_seq=6 ttl=64 time=0.360 ms
64 bytes from 10.0.0.4: icmp_seq=7 ttl=64 time=0.630 ms
64 bytes from 10.0.0.4: icmp_seq=8 ttl=64 time=0.377 ms
64 bytes from 10.0.0.4: icmp_seq=9 ttl=64 time=0.662 ms
64 bytes from 10.0.0.4: icmp_seq=10 ttl=64 time=0.445 ms
64 bytes from 10.0.0.4: icmp_seq=11 ttl=64 time=0.390 ms
64 bytes from 10.0.0.4: icmp_seq=12 ttl=64 time=0.632 ms
64 bytes from 10.0.0.4: icmp_seq=13 ttl=64 time=0.435 ms
64 bytes from 10.0.0.4: icmp_seq=14 ttl=64 time=0.663 ms
64 bytes from 10.0.0.4: icmp_seq=15 ttl=64 time=1.15 ms
64 bytes from 10.0.0.4: icmp_seq=16 ttl=64 time=0.970 ms

--- 10.0.0.4 ping statistics ---
16 packets transmitted, 16 received, 0% packet loss, time 76722ms
rtt min/avg/max/mdev = 0.360/0.603/1.158/0.220 ms
