PING 10.0.0.4 (10.0.0.4) 56(84) bytes of data.
64 bytes from 10.0.0.4: icmp_seq=1 ttl=64 time=0.966 ms
64 bytes from 10.0.0.4: icmp_seq=2 ttl=64 time=0.671 ms
64 bytes from 10.0.0.4: icmp_seq=3 ttl=64 time=6.25 ms
64 bytes from 10.0.0.4: icmp_seq=4 ttl=64 time=0.614 ms
64 bytes from 10.0.0.4: icmp_seq=5 ttl=64 time=0.585 ms
64 bytes from 10.0.0.4: icmp_seq=6 ttl=64 time=1.15 ms
64 bytes from 10.0.0.4: icmp_seq=7 ttl=64 time=0.448 ms
64 bytes from 10.0.0.4: icmp_seq=8 ttl=64 time=1.31 ms
64 bytes from 10.0.0.4: icmp_seq=9 ttl=64 time=0.468 ms
64 bytes from 10.0.0.4: icmp_seq=10 ttl=64 time=0.427 ms
64 bytes from 10.0.0.4: icmp_seq=11 ttl=64 time=0.550 ms
64 bytes from 10.0.0.4: icmp_seq=12 ttl=64 time=0.428 ms
64 bytes from 10.0.0.4: icmp_seq=13 ttl=64 time=0.779 ms
64 bytes from 10.0.0.4: icmp_seq=14 ttl=64 time=0.413 ms
64 bytes from 10.0.0.4: icmp_seq=15 ttl=64 time=0.611 ms
64 bytes from 10.0.0.4: icmp_seq=16 ttl=64 time=0.798 ms

--- 10.0.0.4 ping statistics ---
16 packets transmitted, 16 received, 0% packet loss, time 76631ms
rtt min/avg/max/mdev = 0.413/1.030/6.256/1.373 ms
