PING 10.0.0.4 (10.0.0.4) 56(84) bytes of data.
64 bytes from 10.0.0.4: icmp_seq=1 ttl=64 time=0.869 ms
64 bytes from 10.0.0.4: icmp_seq=2 ttl=64 time=0.637 ms
64 bytes from 10.0.0.4: icmp_seq=3 ttl=64 time=0.841 ms
64 bytes from 10.0.0.4: icmp_seq=4 ttl=64 time=0.633 ms
64 bytes from 10.0.0.4: icmp_seq=5 ttl=64 time=0.576 ms
64 bytes from 10.0.0.4: icmp_seq=6 ttl=64 time=0.473 ms
64 bytes from 10.0.0.4: icmp_seq=7 ttl=64 time=0.710 ms
64 bytes from 10.0.0.4: icmp_seq=8 ttl=64 time=5.78 ms
64 bytes from 10.0.0.4: icmp_seq=9 ttl=64 time=0.619 ms
64 bytes from 10.0.0.4: icmp_seq=10 ttl=64 time=0.372 ms
64 bytes from 10.0.0.4: icmp_seq=11 ttl=64 time=0.512 ms
64 bytes from 10.0.0.4: icmp_seq=12 ttl=64 time=0.593 ms
64 bytes from 10.0.0.4: icmp_seq=13 ttl=64 time=0.540 ms
64 bytes from 10.0.0.4: icmp_seq=14 ttl=64 time=0.486 ms
64 bytes from 10.0.0.4: icmp_seq=15 ttl=64 time=0.437 ms
64 bytes from 10.0.0.4: icmp_seq=16 ttl=64 time=0.830 ms

--- 10.0.0.4 ping statistics ---
16 packets transmitted, 16 received, 0% packet loss, time 76859ms
rtt min/avg/max/mdev = 0.372/0.931/5.783/1.261 ms
