PING 10.0.0.4 (10.0.0.4) 56(84) bytes of data.
64 bytes from 10.0.0.4: icmp_seq=1 ttl=64 time=4.23 ms
64 bytes from 10.0.0.4: icmp_seq=2 ttl=64 time=0.542 ms
64 bytes from 10.0.0.4: icmp_seq=3 ttl=64 time=0.513 ms
64 bytes from 10.0.0.4: icmp_seq=4 ttl=64 time=0.627 ms
64 bytes from 10.0.0.4: icmp_seq=5 ttl=64 time=0.367 ms
64 bytes from 10.0.0.4: icmp_seq=6 ttl=64 time=0.547 ms
64 bytes from 10.0.0.4: icmp_seq=7 ttl=64 time=0.418 ms
64 bytes from 10.0.0.4: icmp_seq=8 ttl=64 time=0.611 ms
64 bytes from 10.0.0.4: icmp_seq=9 ttl=64 time=1.01 ms
64 bytes from 10.0.0.4: icmp_seq=10 ttl=64 time=0.542 ms
64 bytes from 10.0.0.4: icmp_seq=11 ttl=64 time=0.673 ms
64 bytes from 10.0.0.4: icmp_seq=12 ttl=64 time=3.77 ms
64 bytes from 10.0.0.4: icmp_seq=13 ttl=64 time=0.455 ms
64 bytes from 10.0.0.4: icmp_seq=14 ttl=64 time=0.419 ms
64 bytes from 10.0.0.4: icmp_seq=15 ttl=64 time=0.743 ms
64 bytes from 10.0.0.4: icmp_seq=16 ttl=64 time=0.552 ms

--- 10.0.0.4 ping statistics ---
16 packets transmitted, 16 received, 0% packet loss, time 76793ms
rtt min/avg/max/mdev = 0.367/1.002/4.239/1.147 ms
