PING 10.0.0.4 (10.0.0.4) 56(84) bytes of data.
64 bytes from 10.0.0.4: icmp_seq=1 ttl=64 time=6.70 ms
64 bytes from 10.0.0.4: icmp_seq=2 ttl=64 time=0.405 ms
64 bytes from 10.0.0.4: icmp_seq=3 ttl=64 time=0.497 ms
64 bytes from 10.0.0.4: icmp_seq=4 ttl=64 time=2.52 ms
64 bytes from 10.0.0.4: icmp_seq=5 ttl=64 time=0.381 ms
64 bytes from 10.0.0.4: icmp_seq=6 ttl=64 time=0.630 ms
64 bytes from 10.0.0.4: icmp_seq=7 ttl=64 time=0.877 ms
64 bytes from 10.0.0.4: icmp_seq=8 ttl=64 time=0.545 ms
64 bytes from 10.0.0.4: icmp_seq=9 ttl=64 time=0.486 ms
64 bytes from 10.0.0.4: icmp_seq=10 ttl=64 time=0.589 ms
64 bytes from 10.0.0.4: icmp_seq=11 ttl=64 time=0.608 ms
64 bytes from 10.0.0.4: icmp_seq=12 ttl=64 time=0.468 ms
64 bytes from 10.0.0.4: icmp_seq=13 ttl=64 time=0.433 ms
64 bytes from 10.0.0.4: icmp_seq=14 ttl=64 time=0.409 ms
64 bytes from 10.0.0.4: icmp_seq=15 ttl=64 time=0.919 ms
64 bytes from 10.0.0.4: icmp_seq=16 ttl=64 time=0.558 ms

--- 10.0.0.4 ping statistics ---
16 packets transmitted, 16 received, 0% packet loss, time 76576ms
rtt min/avg/max/mdev = 0.381/1.064/6.703/1.539 ms
