PING 10.0.0.4 (10.0.0.4) 56(84) bytes of data.
64 bytes from 10.0.0.4: icmp_seq=1 ttl=64 time=1.05 ms
64 bytes from 10.0.0.4: icmp_seq=2 ttl=64 time=0.520 ms
64 bytes from 10.0.0.4: icmp_seq=3 ttl=64 time=0.713 ms
64 bytes from 10.0.0.4: icmp_seq=4 ttl=64 time=0.671 ms
64 bytes from 10.0.0.4: icmp_seq=5 ttl=64 time=0.892 ms
64 bytes from 10.0.0.4: icmp_seq=6 ttl=64 time=0.384 ms
64 bytes from 10.0.0.4: icmp_seq=7 ttl=64 time=0.523 ms
64 bytes from 10.0.0.4: icmp_seq=8 ttl=64 time=0.958 ms
64 bytes from 10.0.0.4: icmp_seq=9 ttl=64 time=0.539 ms
64 bytes from 10.0.0.4: icmp_seq=10 ttl=64 time=0.479 ms
64 bytes from 10.0.0.4: icmp_seq=11 ttl=64 time=0.645 ms
64 bytes from 10.0.0.4: icmp_seq=12 ttl=64 time=0.522 ms
64 bytes from 10.0.0.4: icmp_seq=13 ttl=64 time=2.08 ms
64 bytes from 10.0.0.4: icmp_seq=14 ttl=64 time=0.697 ms
64 bytes from 10.0.0.4: icmp_seq=15 ttl=64 time=1.20 ms
64 bytes from 10.0.0.4: icmp_seq=16 ttl=64 time=0.798 ms

--- 10.0.0.4 ping statistics ---
16 packets transmitted, 16 received, 0% packet loss, time 76554ms
rtt min/avg/max/mdev = 0.384/0.792/2.082/0.399 ms
