PING 10.0.0.4 (10.0.0.4) 56(84) bytes of data.
64 bytes from 10.0.0.4: icmp_seq=1 ttl=64 time=1.23 ms
64 bytes from 10.0.0.4: icmp_seq=2 ttl=64 time=0.747 ms
64 bytes from 10.0.0.4: icmp_seq=3 ttl=64 time=0.398 ms
64 bytes from 10.0.0.4: icmp_seq=4 ttl=64 time=0.536 ms
64 bytes from 10.0.0.4: icmp_seq=5 ttl=64 time=0.462 ms
64 bytes from 10.0.0.4: icmp_seq=6 ttl=64 time=1.48 ms
64 bytes from 10.0.0.4: icmp_seq=7 ttl=64 time=0.598 ms
64 bytes from 10.0.0.4: icmp_seq=8 ttl=64 time=0.693 ms
64 bytes from 10.0.0.4: icmp_seq=9 ttl=64 time=0.472 ms
64 bytes from 10.0.0.4: icmp_seq=10 ttl=64 time=0.313 ms
64 bytes from 10.0.0.4: icmp_seq=11 ttl=64 time=0.476 ms
64 bytes from 10.0.0.4: icmp_seq=12 ttl=64 time=0.449 ms
64 bytes from 10.0.0.4: icmp_seq=13 ttl=64 time=0.588 ms
64 bytes from 10.0.0.4: icmp_seq=14 ttl=64 time=0.431 ms
64 bytes from 10.0.0.4: icmp_seq=15 ttl=64 time=0.562 ms
64 bytes from 10.0.0.4: icmp_seq=16 ttl=64 time=0.661 ms

--- 10.0.0.4 ping statistics ---
16 packets transmitted, 16 received, 0% packet loss, time 76634ms
rtt min/avg/max/mdev = 0.313/0.631/1.481/0.299 ms
