PING 10.0.0.4 (10.0.0.4) 56(84) bytes of data.
64 bytes from 10.0.0.4: icmp_seq=1 ttl=64 time=0.660 ms
64 bytes from 10.0.0.4: icmp_seq=2 ttl=64 time=0.421 ms
64 bytes from 10.0.0.4: icmp_seq=3 ttl=64 time=1.66 ms
64 bytes from 10.0.0.4: icmp_seq=4 ttl=64 time=0.437 ms
64 bytes from 10.0.0.4: icmp_seq=5 ttl=64 time=0.657 ms
64 bytes from 10.0.0.4: icmp_seq=6 ttl=64 time=0.519 ms
64 bytes from 10.0.0.4: icmp_seq=7 ttl=64 time=0.635 ms
64 bytes from 10.0.0.4: icmp_seq=8 ttl=64 time=0.829 ms
64 bytes from 10.0.0.4: icmp_seq=9 ttl=64 time=0.550 ms
64 bytes from 10.0.0.4: icmp_seq=10 ttl=64 time=0.434 ms
64 bytes from 10.0.0.4: icmp_seq=11 ttl=64 time=0.522 ms
64 bytes from 10.0.0.4: icmp_seq=12 ttl=64 time=0.380 ms
64 bytes from 10.0.0.4: icmp_seq=13 ttl=64 time=0.486 ms
64 bytes from 10.0.0.4: icmp_seq=14 ttl=64 time=0.971 ms
64 bytes from 10.0.0.4: icmp_seq=15 ttl=64 time=1.78 ms
64 bytes from 10.0.0.4: icmp_seq=16 ttl=64 time=1.00 ms

--- 10.0.0.4 ping statistics ---
16 packets transmitted, 16 received, 0% packet loss, time 76500ms
rtt min/avg/max/mdev = 0.380/0.747/1.787/0.412 ms
