PING 10.0.0.4 (10.0.0.4) 56(84) bytes of data.
64 bytes from 10.0.0.4: icmp_seq=1 ttl=64 time=0.608 ms
64 bytes from 10.0.0.4: icmp_seq=2 ttl=64 time=0.691 ms
64 bytes from 10.0.0.4: icmp_seq=3 ttl=64 time=0.871 ms
64 bytes from 10.0.0.4: icmp_seq=4 ttl=64 time=1.57 ms
64 bytes from 10.0.0.4: icmp_seq=5 ttl=64 time=0.485 ms
64 bytes from 10.0.0.4: icmp_seq=6 ttl=64 time=0.590 ms
64 bytes from 10.0.0.4: icmp_seq=7 ttl=64 time=0.799 ms
64 bytes from 10.0.0.4: icmp_seq=8 ttl=64 time=1.72 ms
64 bytes from 10.0.0.4: icmp_seq=9 ttl=64 time=0.460 ms
64 bytes from 10.0.0.4: icmp_seq=10 ttl=64 time=1.17 ms
64 bytes from 10.0.0.4: icmp_seq=11 ttl=64 time=0.822 ms
64 bytes from 10.0.0.4: icmp_seq=12 ttl=64 time=0.448 ms
64 bytes from 10.0.0.4: icmp_seq=13 ttl=64 time=0.434 ms
64 bytes from 10.0.0.4: icmp_seq=14 ttl=64 time=0.578 ms
64 bytes from 10.0.0.4: icmp_seq=15 ttl=64 time=6.00 ms
64 bytes from 10.0.0.4: icmp_seq=16 ttl=64 time=0.670 ms

--- 10.0.0.4 ping statistics ---
16 packets transmitted, 16 received, 0% packet loss, time 76578ms
rtt min/avg/max/mdev = 0.434/1.120/6.003/1.315 ms
