PING 10.0.0.4 (10.0.0.4) 56(84) bytes of data.
64 bytes from 10.0.0.4: icmp_seq=1 ttl=64 time=0.389 ms
64 bytes from 10.0.0.4: icmp_seq=2 ttl=64 time=0.353 ms
64 bytes from 10.0.0.4: icmp_seq=3 ttl=64 time=0.791 ms
64 bytes from 10.0.0.4: icmp_seq=4 ttl=64 time=0.810 ms
64 bytes from 10.0.0.4: icmp_seq=5 ttl=64 time=0.574 ms
64 bytes from 10.0.0.4: icmp_seq=6 ttl=64 time=0.603 ms
64 bytes from 10.0.0.4: icmp_seq=7 ttl=64 time=0.815 ms
64 bytes from 10.0.0.4: icmp_seq=8 ttl=64 time=0.820 ms
64 bytes from 10.0.0.4: icmp_seq=9 ttl=64 time=0.712 ms
64 bytes from 10.0.0.4: icmp_seq=10 ttl=64 time=0.430 ms
64 bytes from 10.0.0.4: icmp_seq=11 ttl=64 time=5.87 ms
64 bytes from 10.0.0.4: icmp_seq=12 ttl=64 time=1.52 ms
64 bytes from 10.0.0.4: icmp_seq=13 ttl=64 time=0.540 ms
64 bytes from 10.0.0.4: icmp_seq=14 ttl=64 time=4.89 ms
64 bytes from 10.0.0.4: icmp_seq=15 ttl=64 time=0.352 ms
64 bytes from 10.0.0.4: icmp_seq=16 ttl=64 time=0.722 ms

--- 10.0.0.4 ping statistics ---
16 packets transmitted, 16 received, 0% packet loss, time 76528ms
rtt min/avg/max/mdev = 0.352/1.263/5.877/1.591 ms
