PING 10.0.0.4 (10.0.0.4) 56(84) bytes of data.
64 bytes from 10.0.0.4: icmp_seq=1 ttl=64 time=0.660 ms
64 bytes from 10.0.0.4: icmp_seq=2 ttl=64 time=0.790 ms
64 bytes from 10.0.0.4: icmp_seq=3 ttl=64 time=0.617 ms
64 bytes from 10.0.0.4: icmp_seq=4 ttl=64 time=0.614 ms
64 bytes from 10.0.0.4: icmp_seq=5 ttl=64 time=0.476 ms
64 bytes from 10.0.0.4: icmp_seq=6 ttl=64 time=0.389 ms
64 bytes from 10.0.0.4: icmp_seq=7 ttl=64 time=1.52 ms
64 bytes from 10.0.0.4: icmp_seq=8 ttl=64 time=0.381 ms
64 bytes from 10.0.0.4: icmp_seq=9 ttl=64 time=0.642 ms
64 bytes from 10.0.0.4: icmp_seq=10 ttl=64 time=0.461 ms
64 bytes from 10.0.0.4: icmp_seq=11 ttl=64 time=0.461 ms
64 bytes from 10.0.0.4: icmp_seq=12 ttl=64 time=0.642 ms
64 bytes from 10.0.0.4: icmp_seq=13 ttl=64 time=0.379 ms
64 bytes from 10.0.0.4: icmp_seq=14 ttl=64 time=0.656 ms
64 bytes from 10.0.0.4: icmp_seq=15 ttl=64 time=0.619 ms
64 bytes from 10.0.0.4: icmp_seq=16 ttl=64 time=1.22 ms

--- 10.0.0.4 ping statistics ---
16 packets transmitted, 16 received, 0% packet loss, time 76687ms
rtt min/avg/max/mdev = 0.379/0.658/1.526/0.300 ms
