PING 10.0.0.4 (10.0.0.4) 56(84) bytes of data.
64 bytes from 10.0.0.4: icmp_seq=1 ttl=64 time=8.30 ms
64 bytes from 10.0.0.4: icmp_seq=2 ttl=64 time=0.504 ms
64 bytes from 10.0.0.4: icmp_seq=3 ttl=64 time=0.863 ms
64 bytes from 10.0.0.4: icmp_seq=4 ttl=64 time=0.994 ms
64 bytes from 10.0.0.4: icmp_seq=5 ttl=64 time=0.394 ms
64 bytes from 10.0.0.4: icmp_seq=6 ttl=64 time=0.508 ms
64 bytes from 10.0.0.4: icmp_seq=7 ttl=64 time=0.460 ms
64 bytes from 10.0.0.4: icmp_seq=8 ttl=64 time=0.390 ms
64 bytes from 10.0.0.4: icmp_seq=9 ttl=64 time=0.528 ms
64 bytes from 10.0.0.4: icmp_seq=10 ttl=64 time=0.820 ms
64 bytes from 10.0.0.4: icmp_seq=11 ttl=64 time=0.587 ms
64 bytes from 10.0.0.4: icmp_seq=12 ttl=64 time=0.697 ms
64 bytes from 10.0.0.4: icmp_seq=13 ttl=64 time=1.20 ms
64 bytes from 10.0.0.4: icmp_seq=14 ttl=64 time=1.07 ms
64 bytes from 10.0.0.4: icmp_seq=15 ttl=64 time=0.431 ms
64 bytes from 10.0.0.4: icmp_seq=16 ttl=64 time=0.733 ms

--- 10.0.0.4 ping statistics ---
16 packets transmitted, 16 received, 0% packet loss, time 76472ms
rtt min/avg/max/mdev = 0.390/1.155/8.305/1.862 ms
