PING 10.0.0.4 (10.0.0.4) 56(84) bytes of data.
64 bytes from 10.0.0.4: icmp_seq=1 ttl=64 time=0.620 ms
64 bytes from 10.0.0.4: icmp_seq=2 ttl=64 time=4.23 ms
64 bytes from 10.0.0.4: icmp_seq=3 ttl=64 time=2.93 ms
64 bytes from 10.0.0.4: icmp_seq=4 ttl=64 time=6.21 ms
64 bytes from 10.0.0.4: icmp_seq=5 ttl=64 time=0.543 ms
64 bytes from 10.0.0.4: icmp_seq=6 ttl=64 time=0.535 ms
64 bytes from 10.0.0.4: icmp_seq=7 ttl=64 time=0.841 ms
64 bytes from 10.0.0.4: icmp_seq=8 ttl=64 time=0.498 ms
64 bytes from 10.0.0.4: icmp_seq=9 ttl=64 time=0.669 ms
64 bytes from 10.0.0.4: icmp_seq=10 ttl=64 time=0.483 ms
64 bytes from 10.0.0.4: icmp_seq=11 ttl=64 time=0.589 ms
64 bytes from 10.0.0.4: icmp_seq=12 ttl=64 time=0.405 ms
64 bytes from 10.0.0.4: icmp_seq=13 ttl=64 time=1.01 ms
64 bytes from 10.0.0.4: icmp_seq=14 ttl=64 time=2.27 ms
64 bytes from 10.0.0.4: icmp_seq=15 ttl=64 time=0.727 ms
64 bytes from 10.0.0.4: icmp_seq=16 ttl=64 time=0.770 ms

--- 10.0.0.4 ping statistics ---
16 packets transmitted, 16 received, 0% packet loss, time 76274ms
rtt min/avg/max/mdev = 0.405/1.459/6.215/1.611 ms
