PING 10.0.0.4 (10.0.0.4) 56(84) bytes of data.
64 bytes from 10.0.0.4: icmp_seq=1 ttl=64 time=1.06 ms
64 bytes from 10.0.0.4: icmp_seq=2 ttl=64 time=0.524 ms
64 bytes from 10.0.0.4: icmp_seq=3 ttl=64 time=6.73 ms
64 bytes from 10.0.0.4: icmp_seq=4 ttl=64 time=0.473 ms
64 bytes from 10.0.0.4: icmp_seq=5 ttl=64 time=4.13 ms
64 bytes from 10.0.0.4: icmp_seq=6 ttl=64 time=0.439 ms
64 bytes from 10.0.0.4: icmp_seq=7 ttl=64 time=0.425 ms
64 bytes from 10.0.0.4: icmp_seq=8 ttl=64 time=5.07 ms
64 bytes from 10.0.0.4: icmp_seq=9 ttl=64 time=0.387 ms
64 bytes from 10.0.0.4: icmp_seq=10 ttl=64 time=2.95 ms
64 bytes from 10.0.0.4: icmp_seq=11 ttl=64 time=0.421 ms
64 bytes from 10.0.0.4: icmp_seq=12 ttl=64 time=0.393 ms
64 bytes from 10.0.0.4: icmp_seq=13 ttl=64 time=0.577 ms
64 bytes from 10.0.0.4: icmp_seq=14 ttl=64 time=0.632 ms
64 bytes from 10.0.0.4: icmp_seq=15 ttl=64 time=0.569 ms
64 bytes from 10.0.0.4: icmp_seq=16 ttl=64 time=0.855 ms

--- 10.0.0.4 ping statistics ---
16 packets transmitted, 16 received, 0% packet loss, time 76702ms
rtt min/avg/max/mdev = 0.387/1.604/6.738/1.937 ms
