PING 10.0.0.4 (10.0.0.4) 56(84) bytes of data.
64 bytes from 10.0.0.4: icmp_seq=1 ttl=64 time=1.01 ms
64 bytes from 10.0.0.4: icmp_seq=2 ttl=64 time=2.64 ms
64 bytes from 10.0.0.4: icmp_seq=3 ttl=64 time=5.16 ms
64 bytes from 10.0.0.4: icmp_seq=4 ttl=64 time=1.17 ms
64 bytes from 10.0.0.4: icmp_seq=5 ttl=64 time=0.558 ms
64 bytes from 10.0.0.4: icmp_seq=6 ttl=64 time=0.481 ms
64 bytes from 10.0.0.4: icmp_seq=7 ttl=64 time=0.759 ms
64 bytes from 10.0.0.4: icmp_seq=8 ttl=64 time=0.496 ms
64 bytes from 10.0.0.4: icmp_seq=9 ttl=64 time=0.545 ms
64 bytes from 10.0.0.4: icmp_seq=10 ttl=64 time=1.30 ms
64 bytes from 10.0.0.4: icmp_seq=11 ttl=64 time=0.527 ms
64 bytes from 10.0.0.4: icmp_seq=12 ttl=64 time=0.645 ms
64 bytes from 10.0.0.4: icmp_seq=13 ttl=64 time=6.56 ms
64 bytes from 10.0.0.4: icmp_seq=14 ttl=64 time=3.24 ms
64 bytes from 10.0.0.4: icmp_seq=15 ttl=64 time=1.26 ms
64 bytes from 10.0.0.4: icmp_seq=16 ttl=64 time=0.543 ms

--- 10.0.0.4 ping statistics ---
16 packets transmitted, 16 received, 0% packet loss, time 75902ms
rtt min/avg/max/mdev = 0.481/1.682/6.563/1.774 ms
