PING 10.0.0.4 (10.0.0.4) 56(84) bytes of data.
64 bytes from 10.0.0.4: icmp_seq=1 ttl=64 time=0.858 ms
64 bytes from 10.0.0.4: icmp_seq=2 ttl=64 time=0.501 ms
64 bytes from 10.0.0.4: icmp_seq=3 ttl=64 time=0.602 ms
64 bytes from 10.0.0.4: icmp_seq=4 ttl=64 time=0.730 ms
64 bytes from 10.0.0.4: icmp_seq=5 ttl=64 time=0.543 ms
64 bytes from 10.0.0.4: icmp_seq=6 ttl=64 time=3.17 ms
64 bytes from 10.0.0.4: icmp_seq=7 ttl=64 time=2.85 ms
64 bytes from 10.0.0.4: icmp_seq=8 ttl=64 time=0.481 ms
64 bytes from 10.0.0.4: icmp_seq=9 ttl=64 time=0.758 ms
64 bytes from 10.0.0.4: icmp_seq=10 ttl=64 time=0.715 ms
64 bytes from 10.0.0.4: icmp_seq=11 ttl=64 time=0.530 ms
64 bytes from 10.0.0.4: icmp_seq=12 ttl=64 time=6.87 ms
64 bytes from 10.0.0.4: icmp_seq=13 ttl=64 time=0.828 ms
64 bytes from 10.0.0.4: icmp_seq=14 ttl=64 time=0.463 ms
64 bytes from 10.0.0.4: icmp_seq=15 ttl=64 time=3.25 ms
64 bytes from 10.0.0.4: icmp_seq=16 ttl=64 time=1.18 ms

--- 10.0.0.4 ping statistics ---
16 packets transmitted, 16 received, 0% packet loss, time 76349ms
rtt min/avg/max/mdev = 0.463/1.522/6.877/1.679 ms
