PING 10.0.0.4 (10.0.0.4) 56(84) bytes of data.
64 bytes from 10.0.0.4: icmp_seq=1 ttl=64 time=0.672 ms
64 bytes from 10.0.0.4: icmp_seq=2 ttl=64 time=0.550 ms
64 bytes from 10.0.0.4: icmp_seq=3 ttl=64 time=0.816 ms
64 bytes from 10.0.0.4: icmp_seq=4 ttl=64 time=0.552 ms
64 bytes from 10.0.0.4: icmp_seq=5 ttl=64 time=0.436 ms
64 bytes from 10.0.0.4: icmp_seq=6 ttl=64 time=0.723 ms
64 bytes from 10.0.0.4: icmp_seq=7 ttl=64 time=0.449 ms
64 bytes from 10.0.0.4: icmp_seq=8 ttl=64 time=0.529 ms
64 bytes from 10.0.0.4: icmp_seq=9 ttl=64 time=0.476 ms
64 bytes from 10.0.0.4: icmp_seq=10 ttl=64 time=0.539 ms
64 bytes from 10.0.0.4: icmp_seq=11 ttl=64 time=0.968 ms
64 bytes from 10.0.0.4: icmp_seq=12 ttl=64 time=0.455 ms
64 bytes from 10.0.0.4: icmp_seq=13 ttl=64 time=0.550 ms
64 bytes from 10.0.0.4: icmp_seq=14 ttl=64 time=0.516 ms
64 bytes from 10.0.0.4: icmp_seq=15 ttl=64 time=0.657 ms
64 bytes from 10.0.0.4: icmp_seq=16 ttl=64 time=1.62 ms

--- 10.0.0.4 ping statistics ---
16 packets transmitted, 16 received, 0% packet loss, time 76707ms
rtt min/avg/max/mdev = 0.436/0.656/1.620/0.287 ms
