PING 10.0.0.4 (10.0.0.4) 56(84) bytes of data.
64 bytes from 10.0.0.4: icmp_seq=1 ttl=64 time=0.652 ms
64 bytes from 10.0.0.4: icmp_seq=2 ttl=64 time=0.467 ms
64 bytes from 10.0.0.4: icmp_seq=3 ttl=64 time=0.905 ms
64 bytes from 10.0.0.4: icmp_seq=4 ttl=64 time=0.728 ms
64 bytes from 10.0.0.4: icmp_seq=5 ttl=64 time=6.47 ms
64 bytes from 10.0.0.4: icmp_seq=6 ttl=64 time=1.51 ms
64 bytes from 10.0.0.4: icmp_seq=7 ttl=64 time=0.967 ms
64 bytes from 10.0.0.4: icmp_seq=8 ttl=64 time=0.586 ms
64 bytes from 10.0.0.4: icmp_seq=9 ttl=64 time=0.432 ms
64 bytes from 10.0.0.4: icmp_seq=10 ttl=64 time=0.515 ms
64 bytes from 10.0.0.4: icmp_seq=11 ttl=64 time=13.4 ms
64 bytes from 10.0.0.4: icmp_seq=12 ttl=64 time=8.35 ms
64 bytes from 10.0.0.4: icmp_seq=13 ttl=64 time=0.797 ms
64 bytes from 10.0.0.4: icmp_seq=14 ttl=64 time=0.559 ms
64 bytes from 10.0.0.4: icmp_seq=15 ttl=64 time=1.27 ms
64 bytes from 10.0.0.4: icmp_seq=16 ttl=64 time=0.690 ms

--- 10.0.0.4 ping statistics ---
16 packets transmitted, 16 received, 0% packet loss, time 76173ms
rtt min/avg/max/mdev = 0.432/2.398/13.458/3.621 ms
