PING 10.0.0.4 (10.0.0.4) 56(84) bytes of data.
64 bytes from 10.0.0.4: icmp_seq=1 ttl=64 time=0.539 ms
64 bytes from 10.0.0.4: icmp_seq=2 ttl=64 time=0.673 ms
64 bytes from 10.0.0.4: icmp_seq=3 ttl=64 time=0.390 ms
64 bytes from 10.0.0.4: icmp_seq=4 ttl=64 time=0.757 ms
64 bytes from 10.0.0.4: icmp_seq=5 ttl=64 time=0.420 ms
64 bytes from 10.0.0.4: icmp_seq=6 ttl=64 time=0.393 ms
64 bytes from 10.0.0.4: icmp_seq=7 ttl=64 time=0.622 ms
64 bytes from 10.0.0.4: icmp_seq=8 ttl=64 time=0.744 ms
64 bytes from 10.0.0.4: icmp_seq=9 ttl=64 time=5.62 ms
64 bytes from 10.0.0.4: icmp_seq=10 ttl=64 time=0.656 ms
64 bytes from 10.0.0.4: icmp_seq=11 ttl=64 time=4.85 ms
64 bytes from 10.0.0.4: icmp_seq=12 ttl=64 time=0.545 ms
64 bytes from 10.0.0.4: icmp_seq=13 ttl=64 time=0.554 ms
64 bytes from 10.0.0.4: icmp_seq=14 ttl=64 time=0.521 ms
64 bytes from 10.0.0.4: icmp_seq=15 ttl=64 time=1.98 ms
64 bytes from 10.0.0.4: icmp_seq=16 ttl=64 time=0.937 ms

--- 10.0.0.4 ping statistics ---
16 packets transmitted, 16 received, 0% packet loss, time 76576ms
rtt min/avg/max/mdev = 0.390/1.262/5.624/1.551 ms
