PING 10.0.0.4 (10.0.0.4) 56(84) bytes of data.
64 bytes from 10.0.0.4: icmp_seq=1 ttl=64 time=0.638 ms
64 bytes from 10.0.0.4: icmp_seq=2 ttl=64 time=7.49 ms
64 bytes from 10.0.0.4: icmp_seq=3 ttl=64 time=3.07 ms
64 bytes from 10.0.0.4: icmp_seq=4 ttl=64 time=0.638 ms
64 bytes from 10.0.0.4: icmp_seq=5 ttl=64 time=1.40 ms
64 bytes from 10.0.0.4: icmp_seq=6 ttl=64 time=2.48 ms
64 bytes from 10.0.0.4: icmp_seq=7 ttl=64 time=0.514 ms
64 bytes from 10.0.0.4: icmp_seq=8 ttl=64 time=0.587 ms
64 bytes from 10.0.0.4: icmp_seq=9 ttl=64 time=0.421 ms
64 bytes from 10.0.0.4: icmp_seq=10 ttl=64 time=0.630 ms
64 bytes from 10.0.0.4: icmp_seq=11 ttl=64 time=0.418 ms
64 bytes from 10.0.0.4: icmp_seq=12 ttl=64 time=0.393 ms
64 bytes from 10.0.0.4: icmp_seq=13 ttl=64 time=0.515 ms
64 bytes from 10.0.0.4: icmp_seq=14 ttl=64 time=0.487 ms
64 bytes from 10.0.0.4: icmp_seq=15 ttl=64 time=0.666 ms
64 bytes from 10.0.0.4: icmp_seq=16 ttl=64 time=1.11 ms

--- 10.0.0.4 ping statistics ---
16 packets transmitted, 16 received, 0% packet loss, time 76300ms
rtt min/avg/max/mdev = 0.393/1.342/7.498/1.758 ms
