PING 10.0.0.4 (10.0.0.4) 56(84) bytes of data.
64 bytes from 10.0.0.4: icmp_seq=1 ttl=64 time=1.36 ms
64 bytes from 10.0.0.4: icmp_seq=2 ttl=64 time=0.478 ms
64 bytes from 10.0.0.4: icmp_seq=3 ttl=64 time=0.460 ms
64 bytes from 10.0.0.4: icmp_seq=4 ttl=64 time=0.396 ms
64 bytes from 10.0.0.4: icmp_seq=5 ttl=64 time=0.503 ms
64 bytes from 10.0.0.4: icmp_seq=6 ttl=64 time=0.461 ms
64 bytes from 10.0.0.4: icmp_seq=7 ttl=64 time=0.498 ms
64 bytes from 10.0.0.4: icmp_seq=8 ttl=64 time=1.24 ms
64 bytes from 10.0.0.4: icmp_seq=9 ttl=64 time=0.442 ms
64 bytes from 10.0.0.4: icmp_seq=10 ttl=64 time=5.94 ms
64 bytes from 10.0.0.4: icmp_seq=11 ttl=64 time=4.14 ms
64 bytes from 10.0.0.4: icmp_seq=12 ttl=64 time=0.664 ms
64 bytes from 10.0.0.4: icmp_seq=13 ttl=64 time=0.765 ms
64 bytes from 10.0.0.4: icmp_seq=14 ttl=64 time=0.450 ms
64 bytes from 10.0.0.4: icmp_seq=15 ttl=64 time=1.53 ms
64 bytes from 10.0.0.4: icmp_seq=16 ttl=64 time=0.682 ms

--- 10.0.0.4 ping statistics ---
16 packets transmitted, 16 received, 0% packet loss, time 76422ms
rtt min/avg/max/mdev = 0.396/1.251/5.940/1.507 ms
