PING 10.0.0.4 (10.0.0.4) 56(84) bytes of data.
64 bytes from 10.0.0.4: icmp_seq=1 ttl=64 time=0.677 ms
64 bytes from 10.0.0.4: icmp_seq=2 ttl=64 time=0.798 ms
64 bytes from 10.0.0.4: icmp_seq=3 ttl=64 time=0.790 ms
64 bytes from 10.0.0.4: icmp_seq=4 ttl=64 time=0.717 ms
64 bytes from 10.0.0.4: icmp_seq=5 ttl=64 time=0.625 ms
64 bytes from 10.0.0.4: icmp_seq=6 ttl=64 time=0.450 ms
64 bytes from 10.0.0.4: icmp_seq=7 ttl=64 time=0.426 ms
64 bytes from 10.0.0.4: icmp_seq=8 ttl=64 time=0.648 ms
64 bytes from 10.0.0.4: icmp_seq=9 ttl=64 time=7.07 ms
64 bytes from 10.0.0.4: icmp_seq=10 ttl=64 time=0.586 ms
64 bytes from 10.0.0.4: icmp_seq=11 ttl=64 time=0.489 ms
64 bytes from 10.0.0.4: icmp_seq=12 ttl=64 time=0.481 ms
64 bytes from 10.0.0.4: icmp_seq=13 ttl=64 time=4.45 ms
64 bytes from 10.0.0.4: icmp_seq=14 ttl=64 time=0.496 ms
64 bytes from 10.0.0.4: icmp_seq=15 ttl=64 time=0.414 ms
64 bytes from 10.0.0.4: icmp_seq=16 ttl=64 time=0.766 ms

--- 10.0.0.4 ping statistics ---
16 packets transmitted, 16 received, 0% packet loss, time 76732ms
rtt min/avg/max/mdev = 0.414/1.243/7.076/1.776 ms
