PING 10.0.0.4 (10.0.0.4) 56(84) bytes of data.
64 bytes from 10.0.0.4: icmp_seq=1 ttl=64 time=0.795 ms
64 bytes from 10.0.0.4: icmp_seq=2 ttl=64 time=0.430 ms
64 bytes from 10.0.0.4: icmp_seq=3 ttl=64 time=0.491 ms
64 bytes from 10.0.0.4: icmp_seq=4 ttl=64 time=0.488 ms
64 bytes from 10.0.0.4: icmp_seq=5 ttl=64 time=0.557 ms
64 bytes from 10.0.0.4: icmp_seq=6 ttl=64 time=0.489 ms
64 bytes from 10.0.0.4: icmp_seq=7 ttl=64 time=2.91 ms
64 bytes from 10.0.0.4: icmp_seq=8 ttl=64 time=0.547 ms
64 bytes from 10.0.0.4: icmp_seq=9 ttl=64 time=0.507 ms
64 bytes from 10.0.0.4: icmp_seq=10 ttl=64 time=0.504 ms
64 bytes from 10.0.0.4: icmp_seq=11 ttl=64 time=0.786 ms
64 bytes from 10.0.0.4: icmp_seq=12 ttl=64 time=0.486 ms
64 bytes from 10.0.0.4: icmp_seq=13 ttl=64 time=0.446 ms
64 bytes from 10.0.0.4: icmp_seq=14 ttl=64 time=0.577 ms
64 bytes from 10.0.0.4: icmp_seq=15 ttl=64 time=0.653 ms
64 bytes from 10.0.0.4: icmp_seq=16 ttl=64 time=0.986 ms

--- 10.0.0.4 ping statistics ---
16 packets transmitted, 16 received, 0% packet loss, time 76878ms
rtt min/avg/max/mdev = 0.430/0.728/2.914/0.583 ms
