PING 10.0.0.4 (10.0.0.4) 56(84) bytes of data.
64 bytes from 10.0.0.4: icmp_seq=1 ttl=64 time=1.31 ms
64 bytes from 10.0.0.4: icmp_seq=2 ttl=64 time=0.583 ms
64 bytes from 10.0.0.4: icmp_seq=3 ttl=64 time=0.420 ms
64 bytes from 10.0.0.4: icmp_seq=4 ttl=64 time=0.569 ms
64 bytes from 10.0.0.4: icmp_seq=5 ttl=64 time=0.689 ms
64 bytes from 10.0.0.4: icmp_seq=6 ttl=64 time=0.714 ms
64 bytes from 10.0.0.4: icmp_seq=7 ttl=64 time=0.605 ms
64 bytes from 10.0.0.4: icmp_seq=8 ttl=64 time=1.42 ms
64 bytes from 10.0.0.4: icmp_seq=9 ttl=64 time=0.611 ms
64 bytes from 10.0.0.4: icmp_seq=10 ttl=64 time=2.07 ms
64 bytes from 10.0.0.4: icmp_seq=11 ttl=64 time=0.383 ms
64 bytes from 10.0.0.4: icmp_seq=12 ttl=64 time=0.511 ms
64 bytes from 10.0.0.4: icmp_seq=13 ttl=64 time=0.425 ms
64 bytes from 10.0.0.4: icmp_seq=14 ttl=64 time=0.620 ms
64 bytes from 10.0.0.4: icmp_seq=15 ttl=64 time=0.435 ms
64 bytes from 10.0.0.4: icmp_seq=16 ttl=64 time=1.15 ms

--- 10.0.0.4 ping statistics ---
16 packets transmitted, 16 received, 0% packet loss, time 76677ms
rtt min/avg/max/mdev = 0.383/0.783/2.078/0.455 ms
