PING 10.0.0.4 (10.0.0.4) 56(84) bytes of data.
64 bytes from 10.0.0.4: icmp_seq=1 ttl=64 time=0.454 ms
64 bytes from 10.0.0.4: icmp_seq=2 ttl=64 time=0.339 ms
64 bytes from 10.0.0.4: icmp_seq=3 ttl=64 time=0.570 ms
64 bytes from 10.0.0.4: icmp_seq=4 ttl=64 time=0.520 ms
64 bytes from 10.0.0.4: icmp_seq=5 ttl=64 time=1.85 ms
64 bytes from 10.0.0.4: icmp_seq=6 ttl=64 time=0.561 ms
64 bytes from 10.0.0.4: icmp_seq=7 ttl=64 time=0.877 ms
64 bytes from 10.0.0.4: icmp_seq=8 ttl=64 time=0.778 ms
64 bytes from 10.0.0.4: icmp_seq=9 ttl=64 time=0.466 ms
64 bytes from 10.0.0.4: icmp_seq=10 ttl=64 time=0.533 ms
64 bytes from 10.0.0.4: icmp_seq=11 ttl=64 time=0.421 ms
64 bytes from 10.0.0.4: icmp_seq=12 ttl=64 time=4.71 ms
64 bytes from 10.0.0.4: icmp_seq=13 ttl=64 time=0.531 ms
64 bytes from 10.0.0.4: icmp_seq=14 ttl=64 time=0.667 ms
64 bytes from 10.0.0.4: icmp_seq=15 ttl=64 time=0.639 ms
64 bytes from 10.0.0.4: icmp_seq=16 ttl=64 time=0.727 ms

--- 10.0.0.4 ping statistics ---
16 packets transmitted, 16 received, 0% packet loss, time 76692ms
rtt min/avg/max/mdev = 0.339/0.916/4.717/1.037 ms
