PING 10.0.0.4 (10.0.0.4) 56(84) bytes of data.
64 bytes from 10.0.0.4: icmp_seq=1 ttl=64 time=0.988 ms
64 bytes from 10.0.0.4: icmp_seq=2 ttl=64 time=8.31 ms
64 bytes from 10.0.0.4: icmp_seq=3 ttl=64 time=6.68 ms
64 bytes from 10.0.0.4: icmp_seq=4 ttl=64 time=1.46 ms
64 bytes from 10.0.0.4: icmp_seq=5 ttl=64 time=0.532 ms
64 bytes from 10.0.0.4: icmp_seq=6 ttl=64 time=5.02 ms
64 bytes from 10.0.0.4: icmp_seq=7 ttl=64 time=0.597 ms
64 bytes from 10.0.0.4: icmp_seq=8 ttl=64 time=0.520 ms
64 bytes from 10.0.0.4: icmp_seq=9 ttl=64 time=7.34 ms
64 bytes from 10.0.0.4: icmp_seq=10 ttl=64 time=0.646 ms
64 bytes from 10.0.0.4: icmp_seq=11 ttl=64 time=0.711 ms
64 bytes from 10.0.0.4: icmp_seq=12 ttl=64 time=5.31 ms
64 bytes from 10.0.0.4: icmp_seq=13 ttl=64 time=0.604 ms
64 bytes from 10.0.0.4: icmp_seq=14 ttl=64 time=0.727 ms
64 bytes from 10.0.0.4: icmp_seq=15 ttl=64 time=0.882 ms
64 bytes from 10.0.0.4: icmp_seq=16 ttl=64 time=1.04 ms

--- 10.0.0.4 ping statistics ---
16 packets transmitted, 16 received, 0% packet loss, time 76372ms
rtt min/avg/max/mdev = 0.520/2.587/8.310/2.760 ms
