PING 10.0.0.4 (10.0.0.4) 56(84) bytes of data.
64 bytes from 10.0.0.4: icmp_seq=1 ttl=64 time=7.04 ms
64 bytes from 10.0.0.4: icmp_seq=2 ttl=64 time=0.364 ms
64 bytes from 10.0.0.4: icmp_seq=3 ttl=64 time=0.472 ms
64 bytes from 10.0.0.4: icmp_seq=4 ttl=64 time=0.586 ms
64 bytes from 10.0.0.4: icmp_seq=5 ttl=64 time=0.576 ms
64 bytes from 10.0.0.4: icmp_seq=6 ttl=64 time=0.601 ms
64 bytes from 10.0.0.4: icmp_seq=7 ttl=64 time=0.393 ms
64 bytes from 10.0.0.4: icmp_seq=8 ttl=64 time=0.665 ms
64 bytes from 10.0.0.4: icmp_seq=9 ttl=64 time=0.582 ms
64 bytes from 10.0.0.4: icmp_seq=10 ttl=64 time=0.476 ms
64 bytes from 10.0.0.4: icmp_seq=11 ttl=64 time=0.657 ms
64 bytes from 10.0.0.4: icmp_seq=12 ttl=64 time=0.537 ms
64 bytes from 10.0.0.4: icmp_seq=13 ttl=64 time=0.719 ms
64 bytes from 10.0.0.4: icmp_seq=14 ttl=64 time=0.430 ms
64 bytes from 10.0.0.4: icmp_seq=15 ttl=64 time=0.382 ms
64 bytes from 10.0.0.4: icmp_seq=16 ttl=64 time=1.01 ms

--- 10.0.0.4 ping statistics ---
16 packets transmitted, 16 received, 0% packet loss, time 76704ms
rtt min/avg/max/mdev = 0.364/0.968/7.044/1.576 ms
