PING 10.0.0.4 (10.0.0.4) 56(84) bytes of data.
64 bytes from 10.0.0.4: icmp_seq=1 ttl=64 time=1.10 ms
64 bytes from 10.0.0.4: icmp_seq=2 ttl=64 time=0.904 ms
64 bytes from 10.0.0.4: icmp_seq=3 ttl=64 time=7.21 ms
64 bytes from 10.0.0.4: icmp_seq=4 ttl=64 time=0.507 ms
64 bytes from 10.0.0.4: icmp_seq=5 ttl=64 time=1.20 ms
64 bytes from 10.0.0.4: icmp_seq=6 ttl=64 time=0.520 ms
64 bytes from 10.0.0.4: icmp_seq=7 ttl=64 time=1.30 ms
64 bytes from 10.0.0.4: icmp_seq=8 ttl=64 time=0.523 ms
64 bytes from 10.0.0.4: icmp_seq=9 ttl=64 time=4.07 ms
64 bytes from 10.0.0.4: icmp_seq=10 ttl=64 time=0.602 ms
64 bytes from 10.0.0.4: icmp_seq=11 ttl=64 time=0.852 ms
64 bytes from 10.0.0.4: icmp_seq=12 ttl=64 time=0.941 ms
64 bytes from 10.0.0.4: icmp_seq=13 ttl=64 time=0.477 ms
64 bytes from 10.0.0.4: icmp_seq=14 ttl=64 time=0.540 ms
64 bytes from 10.0.0.4: icmp_seq=15 ttl=64 time=0.632 ms
64 bytes from 10.0.0.4: icmp_seq=16 ttl=64 time=0.605 ms

--- 10.0.0.4 ping statistics ---
16 packets transmitted, 16 received, 0% packet loss, time 76781ms
rtt min/avg/max/mdev = 0.477/1.375/7.213/1.725 ms
