PING 10.0.0.4 (10.0.0.4) 56(84) bytes of data.
64 bytes from 10.0.0.4: icmp_seq=1 ttl=64 time=0.943 ms
64 bytes from 10.0.0.4: icmp_seq=2 ttl=64 time=0.508 ms
64 bytes from 10.0.0.4: icmp_seq=3 ttl=64 time=0.504 ms
64 bytes from 10.0.0.4: icmp_seq=4 ttl=64 time=0.818 ms
64 bytes from 10.0.0.4: icmp_seq=5 ttl=64 time=0.494 ms
64 bytes from 10.0.0.4: icmp_seq=6 ttl=64 time=1.27 ms
64 bytes from 10.0.0.4: icmp_seq=7 ttl=64 time=0.673 ms
64 bytes from 10.0.0.4: icmp_seq=8 ttl=64 time=0.683 ms
64 bytes from 10.0.0.4: icmp_seq=9 ttl=64 time=0.464 ms
64 bytes from 10.0.0.4: icmp_seq=10 ttl=64 time=0.676 ms
64 bytes from 10.0.0.4: icmp_seq=11 ttl=64 time=0.549 ms
64 bytes from 10.0.0.4: icmp_seq=12 ttl=64 time=0.537 ms
64 bytes from 10.0.0.4: icmp_seq=13 ttl=64 time=0.636 ms
64 bytes from 10.0.0.4: icmp_seq=14 ttl=64 time=0.523 ms
64 bytes from 10.0.0.4: icmp_seq=15 ttl=64 time=0.456 ms
64 bytes from 10.0.0.4: icmp_seq=16 ttl=64 time=0.580 ms

--- 10.0.0.4 ping statistics ---
16 packets transmitted, 16 received, 0% packet loss, time 76803ms
rtt min/avg/max/mdev = 0.456/0.644/1.272/0.209 ms
