"Dstat 0.7.2 CSV output"
"Author:","Dag Wieers <dag@wieers.com>",,,,"URL:","http://dag.wieers.com/home-made/dstat/"
"Host:","Server1",,,,"User:","mstevan"
"Cmdline:","dstat --output /home/mstevan/logs/experiment_3.4/dstat/vs_1024-vcpr_16-wtpm_32-rep_1.csv 5 16",,,,"Date:","28 Oct 2019 19:42:38 UTC"

"total cpu usage",,,,,,"dsk/total",,"net/total",,"paging",,"system",
"usr","sys","idl","wai","hiq","siq","read","writ","recv","send","in","out","int","csw"
5.444,13.081,79.065,0.194,0.0,2.216,5844.002,599201.636,0.0,0.0,0.0,0.0,0.052,3371.927
1.004,0.602,98.394,0.0,0.0,0.0,0.0,1638.400,20754.600,149694.600,0.0,0.0,0.0,252.0
3.532,9.934,85.651,0.0,0.0,0.883,0.0,819.200,919562.800,12259181.200,0.0,0.0,0.0,5707.800
4.148,10.480,84.279,0.0,0.0,1.092,0.0,1638.400,936487.600,12470558.600,0.0,0.0,0.0,5805.600
4.292,10.944,83.691,0.0,0.0,1.073,0.0,3276.800,939077.0,12507245.0,0.0,0.0,0.0,5520.600
4.691,9.808,83.795,0.0,0.0,1.706,0.0,819.200,936840.200,12498682.200,0.0,0.0,0.0,5446.400
5.100,7.982,85.588,0.443,0.0,0.887,0.0,21299.200,938750.600,12500756.600,0.0,0.0,0.0,5304.400
3.680,8.009,86.580,0.0,0.0,1.732,0.0,2457.600,940148.400,12512976.800,0.0,0.0,0.0,5111.800
3.879,8.405,86.638,0.0,0.0,1.078,0.0,819.200,935770.800,12494345.400,0.0,0.0,0.0,5077.600
2.845,8.534,87.090,0.0,0.0,1.532,0.0,1638.400,938748.0,12482180.200,0.0,0.0,0.0,4975.800
4.762,9.091,84.632,0.0,0.0,1.515,0.0,1638.400,938873.600,12495367.800,0.0,0.0,0.200,5259.200
4.329,9.740,84.632,0.0,0.0,1.299,0.0,819.200,934033.800,12486658.800,0.0,0.0,0.0,5187.200
3.275,9.170,85.590,0.0,0.0,1.965,0.0,1638.400,940223.400,12512366.200,0.0,0.0,0.0,5290.0
3.871,10.323,84.086,0.430,0.0,1.290,0.0,22118.400,936133.200,12477580.0,0.0,0.0,0.0,5210.200
4.367,9.607,84.498,0.0,0.0,1.528,0.0,2457.600,941450.600,12534816.200,0.0,0.0,0.0,5314.400
4.338,9.544,85.249,0.0,0.0,0.868,0.0,1638.400,914192.600,12152864.200,0.0,0.0,0.0,5048.0
0.200,0.400,99.200,0.0,0.0,0.200,0.0,819.200,3167.0,1005.600,0.0,0.0,0.0,70.0
