"Dstat 0.7.2 CSV output"
"Author:","Dag Wieers <dag@wieers.com>",,,,"URL:","http://dag.wieers.com/home-made/dstat/"
"Host:","Server1",,,,"User:","mstevan"
"Cmdline:","dstat --output /home/mstevan/logs/experiment_3.4/dstat/vs_1024-vcpr_32-wtpm_64-rep_2.csv 5 16",,,,"Date:","28 Oct 2019 20:06:48 UTC"

"total cpu usage",,,,,,"dsk/total",,"net/total",,"paging",,"system",
"usr","sys","idl","wai","hiq","siq","read","writ","recv","send","in","out","int","csw"
5.401,12.959,79.256,0.192,0.0,2.193,5731.692,587771.123,0.0,0.0,0.0,0.0,0.051,3376.889
0.200,0.601,99.198,0.0,0.0,0.0,0.0,819.200,17923.400,121378.800,0.0,0.0,0.0,227.600
3.151,8.613,85.924,0.0,0.0,2.311,0.0,1638.400,934839.400,12393263.600,0.0,0.0,0.0,3665.400
3.390,7.839,87.076,0.424,0.0,1.271,0.0,18841.600,938771.800,12500002.800,0.0,0.0,0.0,2949.400
3.742,8.108,86.902,0.0,0.0,1.247,0.0,2457.600,936795.0,12499862.200,0.0,0.0,0.0,2993.600
2.972,7.856,87.261,0.0,0.0,1.911,0.0,1638.400,939500.0,12527877.0,0.0,0.0,0.0,3065.600
3.797,9.072,85.654,0.0,0.0,1.477,0.0,1638.400,941832.0,12511297.600,0.0,0.0,0.0,3287.800
2.132,7.463,88.699,0.0,0.0,1.706,0.0,2457.600,934250.0,12489689.0,0.0,0.0,0.0,3509.400
4.812,7.322,86.192,0.0,0.0,1.674,0.0,1638.400,941166.0,12510351.400,0.0,0.0,0.0,3291.0
4.219,7.173,87.131,0.211,0.0,1.266,0.0,18841.600,935183.600,12489631.200,0.0,0.0,0.0,3200.0
4.228,7.400,86.681,0.0,0.0,1.691,0.0,1638.400,940736.800,12510263.800,0.0,0.0,0.0,3087.200
2.979,8.511,87.234,0.0,0.0,1.277,0.0,1638.400,940209.0,12534014.0,0.0,0.0,0.0,3086.600
3.579,7.579,88.0,0.0,0.0,0.842,0.0,819.200,936055.400,12499256.400,0.0,0.0,0.0,2734.800
3.602,7.627,87.076,0.0,0.0,1.695,0.0,1638.400,938932.0,12496555.600,0.0,0.0,0.0,2640.0
2.743,7.384,87.975,0.0,0.0,1.899,0.0,2457.600,936513.600,12504065.800,0.0,0.0,0.0,2676.600
4.583,7.708,85.833,0.417,0.0,1.458,0.0,15564.800,923021.200,12258738.800,0.0,0.0,0.0,2687.400
0.808,0.808,98.182,0.0,0.0,0.202,0.0,1638.400,67916.200,609672.600,0.0,0.0,0.0,684.800
