"Dstat 0.7.2 CSV output"
"Author:","Dag Wieers <dag@wieers.com>",,,,"URL:","http://dag.wieers.com/home-made/dstat/"
"Host:","Server1",,,,"User:","mstevan"
"Cmdline:","dstat --output /home/mstevan/logs/experiment_3.4/dstat/vs_1024-vcpr_4-wtpm_32-rep_2.csv 5 16",,,,"Date:","28 Oct 2019 19:09:55 UTC"

"total cpu usage",,,,,,"dsk/total",,"net/total",,"paging",,"system",
"usr","sys","idl","wai","hiq","siq","read","writ","recv","send","in","out","int","csw"
5.517,13.273,78.763,0.198,0.0,2.249,6003.141,615394.149,0.0,0.0,0.0,0.0,0.053,3334.414
0.800,0.400,98.800,0.0,0.0,0.0,0.0,819.200,13127.600,99581.800,0.0,0.0,0.0,212.600
2.820,6.725,88.720,0.0,0.0,1.735,0.0,1638.400,550502.200,7286557.600,0.0,0.0,0.0,6871.0
3.493,6.987,88.646,0.0,0.0,0.873,0.0,1638.400,592951.800,7861241.400,0.0,0.0,0.0,7239.200
2.620,9.170,87.118,0.0,0.0,1.092,0.0,1638.400,618770.400,8247792.0,0.0,0.0,0.0,7480.200
3.930,7.860,87.336,0.218,0.0,0.655,0.0,33587.200,614090.600,8143937.600,0.0,0.0,0.0,7163.200
4.506,8.798,86.052,0.0,0.0,0.644,0.0,1638.400,614016.0,8138516.600,0.0,0.0,0.0,7277.0
3.261,8.478,87.609,0.0,0.0,0.652,0.0,2457.600,603451.200,8045999.0,0.0,0.0,0.0,7431.0
4.043,9.787,85.745,0.0,0.0,0.426,0.0,1638.400,612079.200,8115767.800,0.0,0.0,0.0,7557.800
3.205,9.829,85.043,0.0,0.0,1.923,0.0,2457.600,611265.0,8143776.0,0.0,0.0,0.0,7477.200
4.139,7.843,87.364,0.0,0.0,0.654,0.0,1638.400,606516.0,8043636.800,0.0,0.0,0.0,7296.400
4.121,8.243,86.551,0.217,0.0,0.868,0.0,22937.600,614981.0,8155073.800,0.0,0.0,0.0,7664.0
3.030,8.874,87.229,0.0,0.0,0.866,0.0,819.200,614469.800,8193081.200,0.0,0.0,0.0,7348.800
3.696,8.478,87.174,0.0,0.0,0.652,0.0,1638.400,621521.600,8242812.200,0.0,0.0,0.0,7489.200
4.060,9.615,85.256,0.0,0.0,1.068,0.0,3276.800,610648.200,8099733.800,0.0,0.0,0.0,7419.800
2.991,9.188,87.179,0.0,0.0,0.641,0.0,819.200,584304.400,7771092.800,0.0,0.0,0.0,7158.400
0.401,0.0,99.599,0.0,0.0,0.0,0.0,1638.400,6254.0,1869.600,0.0,0.0,0.0,74.0
