"Dstat 0.7.2 CSV output"
"Author:","Dag Wieers <dag@wieers.com>",,,,"URL:","http://dag.wieers.com/home-made/dstat/"
"Host:","Server1",,,,"User:","mstevan"
"Cmdline:","dstat --output /home/mstevan/logs/experiment_3.4/dstat/vs_1024-vcpr_32-wtpm_64-rep_4.csv 5 16",,,,"Date:","28 Oct 2019 20:09:39 UTC"

"total cpu usage",,,,,,"dsk/total",,"net/total",,"paging",,"system",
"usr","sys","idl","wai","hiq","siq","read","writ","recv","send","in","out","int","csw"
5.395,12.943,79.280,0.191,0.0,2.191,5718.762,586455.286,0.0,0.0,0.0,0.0,0.051,3375.004
14.751,2.820,82.430,0.0,0.0,0.0,0.0,3276.800,133625.600,169339.800,0.0,0.0,2.0,289.800
14.977,17.742,63.825,0.0,0.0,3.456,0.0,10649.600,903440.0,11922379.200,0.0,0.0,30.0,2485.400
2.737,8.0,87.789,0.0,0.0,1.474,0.0,2457.600,932404.800,12476896.600,0.0,0.0,0.0,2724.0
3.774,7.547,87.421,0.0,0.0,1.258,0.0,5734.400,926528.800,12287082.600,0.0,0.0,0.0,2917.400
3.158,8.211,86.737,0.421,0.0,1.474,0.0,122060.800,938261.200,12501047.800,0.0,0.0,0.0,2955.0
3.178,9.322,86.017,0.0,0.0,1.483,0.0,4915.200,940536.600,12539026.400,0.0,0.0,0.0,3184.200
4.017,8.457,85.835,0.0,0.0,1.691,0.0,6553.600,939018.0,12500012.800,0.0,0.0,0.0,3389.600
2.114,8.879,85.624,1.691,0.0,1.691,0.0,218726.400,938835.600,12539127.400,0.0,0.0,0.0,3181.0
3.822,7.856,86.837,0.0,0.0,1.486,0.0,4915.200,939472.0,12501604.800,0.0,0.0,0.0,2914.400
2.731,8.824,86.345,0.0,0.0,2.101,0.0,4915.200,939493.0,12499762.600,0.0,0.0,0.0,3062.0
2.743,8.017,87.131,0.0,0.0,2.110,0.0,2457.600,936408.800,12501021.0,0.0,0.0,0.0,3097.0
3.602,7.203,86.864,0.424,0.0,1.907,0.0,139264.0,939019.800,12497704.200,0.0,0.0,0.0,3090.600
3.571,7.563,87.185,0.0,0.0,1.681,0.0,2457.600,935945.0,12496180.0,0.0,0.0,0.0,2679.0
5.439,8.368,84.310,0.0,0.0,1.883,0.0,6553.600,939800.800,12498294.400,0.0,0.0,0.0,2777.600
3.233,6.034,88.793,0.0,0.0,1.940,0.0,4915.200,921876.400,12257809.0,0.0,0.0,0.0,2659.600
0.606,0.606,98.586,0.0,0.0,0.202,0.0,2457.600,60759.0,759856.400,0.0,0.0,0.0,639.400
