"Dstat 0.7.2 CSV output"
"Author:","Dag Wieers <dag@wieers.com>",,,,"URL:","http://dag.wieers.com/home-made/dstat/"
"Host:","Server1",,,,"User:","mstevan"
"Cmdline:","dstat --output /home/mstevan/logs/experiment_3.4/dstat/vs_1024-vcpr_8-wtpm_32-rep_4.csv 5 16",,,,"Date:","28 Oct 2019 19:29:49 UTC"

"total cpu usage",,,,,,"dsk/total",,"net/total",,"paging",,"system",
"usr","sys","idl","wai","hiq","siq","read","writ","recv","send","in","out","int","csw"
5.472,13.154,78.951,0.196,0.0,2.227,5905.262,605434.125,0.0,0.0,0.0,0.0,0.052,3360.864
0.403,0.202,99.395,0.0,0.0,0.0,0.0,1638.400,17166.200,111907.0,0.0,0.0,0.0,220.400
3.974,8.830,86.755,0.0,0.0,0.442,0.0,819.200,711486.0,9491334.200,0.0,0.0,0.0,7143.800
3.991,9.978,84.479,0.443,0.0,1.109,0.0,20480.0,764239.200,10156603.600,0.0,0.0,0.0,7317.200
3.720,9.190,86.214,0.0,0.0,0.875,0.0,1638.400,766737.400,10222648.0,0.0,0.0,0.0,7097.200
4.636,10.817,83.444,0.0,0.0,1.104,0.0,1638.400,764474.600,10155946.0,0.0,0.0,0.0,7088.200
4.376,10.066,84.464,0.0,0.0,1.094,0.0,1638.400,754505.0,10034774.400,0.0,0.0,0.0,6776.600
3.456,10.367,84.665,0.0,0.0,1.512,0.0,2457.600,755779.400,10082654.800,0.0,0.0,0.0,7382.200
4.978,9.740,84.416,0.0,0.0,0.866,0.0,1638.400,766439.600,10180721.600,0.0,0.0,0.0,7272.400
4.878,9.313,84.257,0.443,0.0,1.109,0.0,19660.800,768620.0,10211242.400,0.0,0.0,0.0,7045.800
3.753,9.713,85.210,0.0,0.0,1.325,0.0,819.200,772897.0,10308252.800,0.0,0.0,0.0,7231.0
4.222,9.333,85.333,0.0,0.0,1.111,0.0,1638.400,770443.200,10237543.200,0.0,0.0,0.0,6811.600
3.282,8.972,86.871,0.0,0.0,0.875,0.0,819.200,765669.200,10218662.800,0.0,0.0,0.0,6739.600
3.991,9.978,83.814,0.0,0.0,2.217,0.0,2457.600,768845.0,10214543.400,0.0,0.0,0.0,6952.800
4.232,10.022,84.633,0.0,0.0,1.114,0.0,2457.600,769780.600,10231834.200,0.0,0.0,0.0,7136.800
3.864,10.227,84.091,0.455,0.0,1.364,0.0,15564.800,753842.400,10051813.400,0.0,0.0,0.0,6965.400
0.800,0.200,99.0,0.0,0.0,0.0,0.0,1638.400,6254.0,1869.600,0.0,0.0,0.0,67.0
