"Dstat 0.7.2 CSV output"
"Author:","Dag Wieers <dag@wieers.com>",,,,"URL:","http://dag.wieers.com/home-made/dstat/"
"Host:","Server1",,,,"User:","mstevan"
"Cmdline:","dstat --output /home/mstevan/logs/experiment_3.4/dstat/vs_1024-vcpr_32-wtpm_32-rep_3.csv 5 16",,,,"Date:","28 Oct 2019 20:02:32 UTC"

"total cpu usage",,,,,,"dsk/total",,"net/total",,"paging",,"system",
"usr","sys","idl","wai","hiq","siq","read","writ","recv","send","in","out","int","csw"
5.409,12.983,79.219,0.192,0.0,2.196,5751.200,589756.716,0.0,0.0,0.0,0.0,0.051,3380.675
0.201,0.201,99.598,0.0,0.0,0.0,0.0,819.200,14489.400,117114.800,0.0,0.0,0.0,196.0
3.640,7.709,86.724,0.0,0.0,1.927,0.0,1638.400,939557.600,12499743.800,0.0,0.0,0.0,3195.800
2.748,7.611,88.584,0.0,0.0,1.057,0.0,819.200,936040.200,12498258.0,0.0,0.0,0.0,2555.400
3.805,8.034,87.104,0.0,0.0,1.057,0.0,3276.800,940759.800,12506051.600,0.0,0.0,0.0,2672.0
3.542,8.958,85.833,0.208,0.0,1.458,0.0,18841.600,936681.0,12468781.400,0.0,0.0,0.0,3084.200
2.532,7.806,88.608,0.0,0.0,1.055,0.0,819.200,939110.0,12530967.600,0.0,0.0,0.0,2768.200
3.594,7.400,87.104,0.0,0.0,1.903,0.0,3276.800,940783.800,12537988.200,0.0,0.0,0.0,2340.200
3.556,8.577,86.611,0.0,0.0,1.255,0.0,1638.400,935211.0,12447783.0,0.0,0.0,0.0,2268.800
2.526,7.579,88.842,0.0,0.0,1.053,0.0,819.200,938763.0,12531657.600,0.0,0.0,0.0,2080.600
3.191,7.660,88.085,0.0,0.0,1.064,0.0,1638.400,941089.400,12521141.800,0.0,0.0,0.0,2409.600
3.171,7.611,87.315,0.211,0.0,1.691,0.0,18841.600,939345.800,12539678.0,0.0,0.0,0.0,2588.600
3.774,8.386,85.954,0.0,0.0,1.887,0.0,1638.400,939284.400,12499980.200,0.0,0.0,0.0,2405.0
3.594,8.034,86.892,0.0,0.0,1.480,0.0,1638.400,939041.400,12499479.200,0.0,0.0,0.0,2429.600
3.602,7.627,86.864,0.0,0.0,1.907,0.0,2457.600,936777.600,12500504.800,0.0,0.0,0.0,2362.200
3.822,6.157,88.535,0.0,0.0,1.486,0.0,1638.400,924074.200,12298060.400,0.0,0.0,0.0,2424.800
0.607,1.012,98.178,0.0,0.0,0.202,0.0,1638.400,53270.800,604721.400,0.0,0.0,0.0,712.600
