"Dstat 0.7.2 CSV output"
"Author:","Dag Wieers <dag@wieers.com>",,,,"URL:","http://dag.wieers.com/home-made/dstat/"
"Host:","Server1",,,,"User:","mstevan"
"Cmdline:","dstat --output /home/mstevan/logs/experiment_3.4/dstat/vs_1024-vcpr_8-wtpm_64-rep_1.csv 5 16",,,,"Date:","28 Oct 2019 19:31:15 UTC"

"total cpu usage",,,,,,"dsk/total",,"net/total",,"paging",,"system",
"usr","sys","idl","wai","hiq","siq","read","writ","recv","send","in","out","int","csw"
5.469,13.148,78.962,0.196,0.0,2.225,5898.394,604735.296,0.0,0.0,0.0,0.0,0.052,3363.726
0.402,0.402,98.996,0.0,0.0,0.201,0.0,819.200,13807.400,70350.400,0.0,0.0,0.0,190.0
3.426,8.565,85.439,0.0,0.0,2.570,0.0,2457.600,714312.400,9309036.400,0.0,0.0,0.0,7213.400
4.555,9.328,83.731,0.0,0.0,2.386,0.0,1638.400,754374.0,9955774.800,0.0,0.0,0.0,7421.200
3.672,8.855,84.881,0.432,0.0,2.160,0.0,19660.800,756331.800,10024187.200,0.0,0.0,0.0,7304.600
5.217,10.652,81.087,0.0,0.0,3.043,0.0,1638.400,759813.800,10020676.600,0.0,0.0,0.0,7323.800
3.297,10.769,84.396,0.0,0.0,1.538,0.0,819.200,761497.400,10098441.400,0.0,0.0,0.0,7247.800
3.930,9.170,84.716,0.0,0.0,2.183,0.0,3276.800,764194.600,10097722.400,0.0,0.0,0.0,7381.600
5.932,9.958,80.932,0.0,0.0,3.178,0.0,1638.400,752500.400,9915265.600,0.0,0.0,0.0,7266.0
4.605,10.307,82.895,0.0,0.0,2.193,0.0,819.200,759567.400,10073727.800,0.0,0.0,0.0,7433.200
4.762,9.740,82.251,0.216,0.0,3.030,0.0,19660.800,750957.400,9881924.0,0.0,0.0,0.0,7164.400
3.275,10.044,84.279,0.0,0.0,2.402,0.0,1638.400,759085.800,10028221.600,0.0,0.0,0.0,7156.600
3.268,9.804,84.096,0.0,0.0,2.832,0.0,819.200,763471.800,10127118.400,0.0,0.0,0.0,7427.800
4.555,10.195,83.080,0.0,0.0,2.169,0.0,1638.400,762380.800,10073148.800,0.0,0.0,0.0,7559.600
2.632,9.649,85.526,0.0,0.0,2.193,0.0,2457.600,775126.400,10250270.600,0.0,0.0,0.0,7430.600
3.974,8.609,84.547,0.0,0.0,2.870,0.0,1638.400,750321.400,9920155.0,0.0,0.0,0.0,7197.200
0.800,0.200,98.600,0.400,0.0,0.0,0.0,17203.200,6558.800,2334.400,0.0,0.0,0.0,88.0
