"Dstat 0.7.2 CSV output"
"Author:","Dag Wieers <dag@wieers.com>",,,,"URL:","http://dag.wieers.com/home-made/dstat/"
"Host:","Server1",,,,"User:","mstevan"
"Cmdline:","dstat --output /home/mstevan/logs/experiment_3.4/dstat/vs_1024-vcpr_8-wtpm_8-rep_2.csv 5 16",,,,"Date:","28 Oct 2019 19:21:17 UTC"

"total cpu usage",,,,,,"dsk/total",,"net/total",,"paging",,"system",
"usr","sys","idl","wai","hiq","siq","read","writ","recv","send","in","out","int","csw"
5.491,13.205,78.869,0.197,0.0,2.238,5946.819,609664.408,0.0,0.0,0.0,0.0,0.053,3355.197
0.601,0.200,98.597,0.401,0.0,0.200,0.0,18841.600,16088.400,125623.200,0.0,0.0,0.0,186.200
3.340,6.681,88.935,0.0,0.0,1.044,0.0,4915.200,654486.400,8682723.200,0.0,0.0,0.0,3206.800
2.350,5.769,90.812,0.0,0.0,1.068,0.0,1638.400,653671.600,8718553.400,0.0,0.0,0.0,3129.400
2.132,5.970,91.471,0.0,0.0,0.426,0.0,1638.400,633965.0,8418998.600,0.0,0.0,0.0,2728.400
2.335,6.794,90.234,0.0,0.0,0.637,0.0,1638.400,623311.600,8292375.200,0.0,0.0,0.0,2572.600
2.361,5.365,91.631,0.0,0.0,0.644,0.0,1638.400,654714.0,8688636.0,0.0,0.0,0.0,3010.200
2.110,6.751,89.873,0.0,0.0,1.266,0.0,2457.600,676340.400,9016538.200,0.0,0.0,0.0,3151.0
2.537,8.245,88.372,0.423,0.0,0.423,0.0,14745.600,695500.400,9239689.600,0.0,0.0,0.0,3249.800
3.326,7.484,88.565,0.0,0.0,0.624,0.0,1638.400,621218.800,8237833.600,0.0,0.0,0.0,2782.0
2.500,6.458,90.0,0.0,0.0,1.042,0.0,819.200,664045.400,8848415.0,0.0,0.0,0.0,2946.0
2.132,5.970,91.258,0.0,0.0,0.640,0.0,1638.400,681333.600,9045347.400,0.0,0.0,0.0,3112.0
2.966,6.780,89.407,0.0,0.0,0.847,0.0,1638.400,673747.200,8942357.800,0.0,0.0,0.0,3024.0
2.929,7.113,89.121,0.0,0.0,0.837,0.0,1638.400,686697.400,9158776.600,0.0,0.0,0.0,3352.600
3.004,5.794,90.773,0.215,0.0,0.215,0.0,16384.0,667541.400,8862938.800,0.0,0.0,0.0,3011.800
2.564,5.556,91.239,0.0,0.0,0.641,0.0,819.200,642925.200,8571698.800,0.0,0.0,0.0,3003.200
0.401,0.401,99.198,0.0,0.0,0.0,0.0,1638.400,6335.200,1910.0,0.0,0.0,0.0,76.400
