"Dstat 0.7.2 CSV output"
"Author:","Dag Wieers <dag@wieers.com>",,,,"URL:","http://dag.wieers.com/home-made/dstat/"
"Host:","Server1",,,,"User:","mstevan"
"Cmdline:","dstat --output /home/mstevan/logs/experiment_3.4/dstat/vs_1024-vcpr_16-wtpm_64-rep_4.csv 5 16",,,,"Date:","28 Oct 2019 19:52:35 UTC"

"total cpu usage",,,,,,"dsk/total",,"net/total",,"paging",,"system",
"usr","sys","idl","wai","hiq","siq","read","writ","recv","send","in","out","int","csw"
5.429,13.042,79.128,0.193,0.0,2.208,5797.230,594441.131,0.0,0.0,0.0,0.0,0.052,3384.845
0.602,0.0,99.398,0.0,0.0,0.0,0.0,819.200,12969.800,61664.200,0.0,0.0,0.0,173.400
3.696,11.087,82.391,0.217,0.0,2.609,0.0,11468.800,904821.400,11960592.600,0.0,0.0,0.0,6776.800
5.298,12.583,80.353,0.0,0.0,1.766,0.0,10649.600,941650.600,12494309.600,0.0,0.0,0.0,6738.800
4.762,11.039,82.035,0.0,0.0,2.165,0.0,1638.400,937270.800,12507743.400,0.0,0.0,0.0,6652.0
5.077,11.700,81.678,0.0,0.0,1.545,0.0,1638.400,937601.400,12460799.0,0.0,0.0,0.0,6676.800
4.213,10.421,82.927,0.0,0.0,2.439,0.0,1638.400,942088.800,12516619.800,0.0,0.0,0.0,6793.0
4.555,10.195,83.731,0.0,0.0,1.518,0.0,2457.600,938307.800,12507614.800,0.0,0.0,0.0,6673.800
4.773,10.455,82.045,0.0,0.0,2.727,0.0,1638.400,941667.600,12521292.800,0.0,0.0,0.0,6635.400
17.661,12.649,65.632,0.477,0.0,3.580,0.0,22118.400,912350.200,12141926.200,0.0,0.0,0.0,5554.0
31.220,18.293,46.098,0.0,0.0,4.390,0.0,1638.400,881085.200,11734760.200,0.0,0.0,0.0,4458.800
4.656,10.643,82.705,0.0,0.0,1.996,0.0,1638.400,941331.800,12513355.800,0.0,0.0,0.0,7056.0
4.130,12.609,81.739,0.0,0.0,1.522,0.0,819.200,938097.800,12495593.0,0.0,0.0,0.0,6702.400
5.033,11.379,81.838,0.0,0.0,1.751,0.0,1638.400,935885.200,12452549.400,0.0,0.0,0.0,6733.200
4.968,12.095,81.425,0.0,0.0,1.512,0.0,3276.800,945002.600,12542266.800,0.0,0.0,0.0,6643.0
4.357,11.111,82.789,0.218,0.0,1.525,0.0,17203.200,922640.400,12293257.400,0.0,0.0,0.200,6562.200
0.402,0.201,99.398,0.0,0.0,0.0,0.0,2457.600,6267.200,1869.600,0.0,0.0,0.0,74.600
