"Dstat 0.7.2 CSV output"
"Author:","Dag Wieers <dag@wieers.com>",,,,"URL:","http://dag.wieers.com/home-made/dstat/"
"Host:","Server1",,,,"User:","mstevan"
"Cmdline:","dstat --output /home/mstevan/logs/experiment_3.4/dstat/vs_1024-vcpr_8-wtpm_32-rep_1.csv 5 16",,,,"Date:","28 Oct 2019 19:25:33 UTC"

"total cpu usage",,,,,,"dsk/total",,"net/total",,"paging",,"system",
"usr","sys","idl","wai","hiq","siq","read","writ","recv","send","in","out","int","csw"
5.479,13.174,78.919,0.196,0.0,2.232,5925.970,607542.507,0.0,0.0,0.0,0.0,0.053,3352.269
0.401,0.601,98.998,0.0,0.0,0.0,0.0,819.200,9724.400,48560.400,0.0,0.0,0.0,160.400
3.648,8.798,86.695,0.0,0.0,0.858,0.0,1638.400,702842.600,9328876.200,0.0,0.0,0.0,6666.200
3.753,8.609,86.976,0.0,0.0,0.662,0.0,2457.600,753246.600,10009588.400,0.0,0.0,0.0,6979.200
3.311,9.934,85.872,0.0,0.0,0.883,0.0,1638.400,766558.400,10225306.600,0.0,0.0,0.0,7090.400
4.656,10.421,84.257,0.222,0.0,0.443,0.0,18841.600,774504.800,10295966.200,0.0,0.0,0.0,7223.200
5.055,8.571,85.275,0.0,0.0,1.099,0.0,819.200,767755.600,10243176.800,0.0,0.0,0.0,7351.200
4.565,11.087,83.043,0.0,0.0,1.304,0.0,3276.800,763522.600,10146465.600,0.0,0.0,0.0,7110.400
4.232,9.800,85.078,0.0,0.0,0.891,0.0,1638.400,773462.600,10280358.200,0.0,0.0,0.0,7098.800
4.194,9.051,86.093,0.0,0.0,0.662,0.0,819.200,755891.200,10079936.800,0.0,0.0,0.0,6985.800
4.731,9.677,84.731,0.0,0.0,0.860,0.0,1638.400,768245.600,10207816.800,0.0,0.0,0.0,7283.600
4.185,9.692,84.141,0.441,0.0,1.542,0.0,18841.600,757779.800,10071349.0,0.0,0.0,0.0,7189.800
3.050,9.368,86.710,0.0,0.0,0.871,0.0,819.200,759430.600,10125551.400,0.0,0.0,0.0,7228.0
4.176,9.451,84.176,0.0,0.0,2.198,0.0,2457.600,763919.0,10154309.600,0.0,0.0,0.0,7030.200
4.338,8.677,85.900,0.0,0.0,1.085,0.0,1638.400,770623.400,10285876.0,0.0,0.0,0.0,6907.800
4.338,9.544,85.249,0.0,0.0,0.868,0.0,1638.400,759367.0,10081004.200,0.0,0.0,0.0,7062.200
0.402,0.201,99.197,0.0,0.0,0.201,0.0,1638.400,6254.0,1869.600,0.0,0.0,0.0,76.400
