"Dstat 0.7.2 CSV output"
"Author:","Dag Wieers <dag@wieers.com>",,,,"URL:","http://dag.wieers.com/home-made/dstat/"
"Host:","Server1",,,,"User:","mstevan"
"Cmdline:","dstat --output /home/mstevan/logs/experiment_3.4/dstat/vs_1024-vcpr_16-wtpm_8-rep_3.csv 5 16",,,,"Date:","28 Oct 2019 19:39:47 UTC"

"total cpu usage",,,,,,"dsk/total",,"net/total",,"paging",,"system",
"usr","sys","idl","wai","hiq","siq","read","writ","recv","send","in","out","int","csw"
5.452,13.101,79.033,0.195,0.0,2.220,5857.504,600574.204,0.0,0.0,0.0,0.0,0.052,3373.995
0.403,0.202,99.395,0.0,0.0,0.0,0.0,1638.400,17721.800,150774.400,0.0,0.0,0.0,184.0
2.947,5.895,90.737,0.0,0.0,0.421,0.0,1638.400,611847.800,8118503.800,0.0,0.0,0.0,2946.200
1.911,6.157,91.083,0.0,0.0,0.849,0.0,1638.400,621802.600,8287875.0,0.0,0.0,0.0,3059.200
3.983,6.499,88.470,0.0,0.0,1.048,0.0,2457.600,658543.0,8731827.0,0.0,0.0,0.0,3031.600
2.570,5.139,90.792,0.428,0.0,1.071,0.0,25395.200,661629.400,8782757.200,0.0,0.0,0.0,2830.400
3.119,7.069,88.981,0.0,0.0,0.832,0.0,819.200,665025.200,8871723.800,0.0,0.0,0.0,2880.600
3.579,5.263,90.737,0.0,0.0,0.421,0.0,3276.800,681886.800,9052338.800,0.0,0.0,0.0,3111.600
2.754,5.297,91.525,0.0,0.0,0.424,0.0,1638.400,653607.800,8665331.400,0.0,0.0,0.0,2910.400
2.526,6.526,90.105,0.0,0.0,0.842,0.0,819.200,672217.0,8964618.400,0.0,0.0,0.0,3041.800
3.340,8.559,87.265,0.0,0.0,0.835,0.0,1638.400,677610.400,8999464.800,0.0,0.0,0.0,3261.0
2.979,5.957,90.0,0.213,0.0,0.851,0.0,14745.600,661694.600,8813238.600,0.0,0.0,0.0,2945.200
2.790,5.794,90.773,0.0,0.0,0.644,0.0,1638.400,668044.800,8871397.600,0.0,0.0,0.0,3063.200
2.335,7.006,90.021,0.0,0.0,0.637,0.0,1638.400,677256.600,8989539.400,0.0,0.0,0.0,3064.800
4.202,5.882,89.286,0.0,0.0,0.630,0.0,2457.600,689399.200,9194567.400,0.0,0.0,0.0,3356.600
2.972,6.157,90.021,0.0,0.0,0.849,0.0,1638.400,669664.600,8889038.600,0.0,0.0,0.0,3297.600
0.201,0.402,99.398,0.0,0.0,0.0,0.0,1638.400,6254.0,1869.600,0.0,0.0,0.0,70.0
