"Dstat 0.7.2 CSV output"
"Author:","Dag Wieers <dag@wieers.com>",,,,"URL:","http://dag.wieers.com/home-made/dstat/"
"Host:","Server1",,,,"User:","mstevan"
"Cmdline:","dstat --output /home/mstevan/logs/experiment_3.4/dstat/vs_1024-vcpr_4-wtpm_32-rep_3.csv 5 16",,,,"Date:","28 Oct 2019 19:11:20 UTC"

"total cpu usage",,,,,,"dsk/total",,"net/total",,"paging",,"system",
"usr","sys","idl","wai","hiq","siq","read","writ","recv","send","in","out","int","csw"
5.514,13.265,78.776,0.198,0.0,2.247,5996.045,614673.734,0.0,0.0,0.0,0.0,0.053,3337.627
0.201,0.201,99.598,0.0,0.0,0.0,0.0,819.200,11378.400,74627.0,0.0,0.0,0.0,173.200
2.553,8.085,88.511,0.0,0.0,0.851,0.0,1638.400,550259.0,7286959.800,0.0,0.0,0.0,6559.800
4.051,7.463,87.633,0.0,0.0,0.853,0.0,1638.400,593416.400,7863645.800,0.0,0.0,0.0,6993.400
4.585,8.515,85.371,0.0,0.0,1.528,0.0,2457.600,623058.800,8301498.200,0.0,0.0,0.0,7484.200
3.219,9.013,86.695,0.215,0.0,0.858,0.0,24576.0,594375.600,7875069.400,0.0,0.0,0.0,7133.800
3.879,8.405,86.853,0.0,0.0,0.862,0.0,819.200,619660.600,8259458.600,0.0,0.0,0.0,7425.0
3.268,8.715,87.364,0.0,0.0,0.654,0.0,3276.800,621176.600,8236797.600,0.0,0.0,0.0,7463.0
4.741,8.836,84.698,0.0,0.0,1.724,0.0,1638.400,607800.400,8063650.200,0.0,0.0,0.0,7493.400
3.617,9.149,86.596,0.0,0.0,0.638,0.0,819.200,611404.800,8148147.0,0.0,0.0,0.0,7379.200
3.456,9.287,86.393,0.0,0.0,0.864,0.0,1638.400,609958.600,8088336.600,0.0,0.0,0.0,7240.0
4.536,7.991,86.609,0.0,0.0,0.864,0.0,1638.400,600994.400,7972118.0,0.0,0.0,0.0,7328.0
2.626,7.877,88.184,0.438,0.0,0.875,0.0,23756.800,606535.600,8085647.0,0.0,0.0,0.200,7476.800
3.846,8.974,85.897,0.0,0.0,1.282,0.0,1638.400,614943.600,8150669.200,0.0,0.0,0.0,7389.600
3.030,9.957,86.147,0.0,0.0,0.866,0.0,2457.600,600989.400,8012447.600,0.0,0.0,0.0,7372.600
3.744,7.269,88.546,0.0,0.0,0.441,0.0,1638.400,607069.800,8039139.800,0.0,0.0,0.0,7262.0
0.805,0.201,98.994,0.0,0.0,0.0,0.0,1638.400,6705.0,2340.400,0.0,0.0,0.0,86.400
