"Dstat 0.7.2 CSV output"
"Author:","Dag Wieers <dag@wieers.com>",,,,"URL:","http://dag.wieers.com/home-made/dstat/"
"Host:","Server1",,,,"User:","mstevan"
"Cmdline:","dstat --output /home/mstevan/logs/experiment_3.4/dstat/vs_1024-vcpr_16-wtpm_8-rep_1.csv 5 16",,,,"Date:","28 Oct 2019 19:36:56 UTC"

"total cpu usage",,,,,,"dsk/total",,"net/total",,"paging",,"system",
"usr","sys","idl","wai","hiq","siq","read","writ","recv","send","in","out","int","csw"
5.459,13.121,79.001,0.195,0.0,2.224,5871.076,601955.225,0.0,0.0,0.0,0.0,0.052,3376.020
0.600,0.200,99.200,0.0,0.0,0.0,0.0,819.200,4068.600,4934.800,0.0,0.0,0.0,73.0
3.333,7.083,88.958,0.0,0.0,0.625,0.0,1638.400,640718.400,8498626.200,0.0,0.0,0.0,3071.0
3.165,6.118,89.451,0.633,0.0,0.633,0.0,22118.400,663411.600,8806584.200,0.0,0.0,0.0,3031.800
2.505,7.098,89.353,0.0,0.0,1.044,0.0,2457.600,669128.600,8917723.400,0.0,0.0,0.0,3276.400
3.564,6.918,88.679,0.0,0.0,0.839,0.0,1638.400,669755.400,8894457.200,0.0,0.0,0.0,3196.800
3.594,6.131,89.641,0.0,0.0,0.634,0.0,1638.400,669731.0,8891443.400,0.0,0.0,0.0,2918.0
2.923,6.263,89.562,0.0,0.0,1.253,0.0,2457.600,663334.200,8841737.200,0.0,0.0,0.0,2978.0
3.383,6.554,89.429,0.0,0.0,0.634,0.0,1638.400,673300.400,8932170.800,0.0,0.0,0.0,3196.0
2.778,5.983,89.957,0.427,0.0,0.855,0.0,15564.800,664887.600,8861629.0,0.0,0.0,0.0,3039.200
3.376,6.540,89.451,0.0,0.0,0.633,0.0,1638.400,678485.800,9009341.200,0.0,0.0,0.0,3202.800
2.772,6.183,90.618,0.0,0.0,0.426,0.0,1638.400,662083.800,8787109.800,0.0,0.0,0.0,2828.600
2.128,5.957,91.489,0.0,0.0,0.426,0.0,819.200,659469.600,8794622.600,0.0,0.0,0.0,2799.0
2.754,5.508,90.678,0.0,0.0,1.059,0.0,1638.400,673926.600,8942388.0,0.0,0.0,0.0,2831.200
3.151,6.092,90.126,0.0,0.0,0.630,0.0,3276.800,663782.800,8811273.200,0.0,0.0,0.0,2836.600
2.954,6.540,89.451,0.422,0.0,0.633,0.0,15564.800,669852.800,8936713.200,0.0,0.0,0.0,2969.600
0.200,0.401,99.399,0.0,0.0,0.0,0.0,1638.400,6482.0,2081.200,0.0,0.0,0.200,72.600
