"Dstat 0.7.2 CSV output"
"Author:","Dag Wieers <dag@wieers.com>",,,,"URL:","http://dag.wieers.com/home-made/dstat/"
"Host:","Server1",,,,"User:","mstevan"
"Cmdline:","dstat --output /home/mstevan/logs/experiment_3.4/dstat/vs_256-vcpr_16-wtpm_64-rep_2.csv 5 16",,,,"Date:","28 Oct 2019 17:32:54 UTC"

"total cpu usage",,,,,,"dsk/total",,"net/total",,"paging",,"system",
"usr","sys","idl","wai","hiq","siq","read","writ","recv","send","in","out","int","csw"
5.707,13.791,77.940,0.212,0.0,2.351,6530.459,669055.738,0.0,0.0,0.0,0.0,0.058,3216.382
0.402,0.402,99.195,0.0,0.0,0.0,0.0,819.200,21249.600,52476.200,0.0,0.0,0.0,270.600
5.240,11.572,80.349,0.0,0.0,2.838,0.0,1638.400,919622.800,3840149.400,0.0,0.0,0.0,6906.0
5.844,10.606,81.602,0.0,0.0,1.948,0.0,1638.400,945630.600,3953032.600,0.0,0.0,0.0,6901.400
4.977,12.670,80.090,0.0,0.0,2.262,0.0,2457.600,972008.400,4083303.600,0.0,0.0,0.0,7005.400
4.773,11.136,81.364,0.0,0.0,2.727,0.0,1638.400,969182.800,4065175.0,0.0,0.0,0.0,6819.400
5.066,10.573,83.040,0.0,0.0,1.322,0.0,819.200,974472.0,4093858.200,0.0,0.0,0.0,7057.600
5.169,12.584,79.326,0.449,0.0,2.472,0.0,20480.0,965352.200,4042080.0,0.0,0.0,0.0,6944.600
4.911,12.277,79.018,0.0,0.0,3.795,0.0,1638.400,960736.200,4018613.400,0.0,0.0,0.0,7025.400
5.804,11.384,80.580,0.0,0.0,2.232,0.0,819.200,951100.800,3999977.600,0.0,0.0,0.0,7043.200
5.727,12.775,79.295,0.0,0.0,2.203,0.0,1638.400,967506.0,4052991.200,0.0,0.0,0.200,6829.600
5.727,13.656,78.414,0.0,0.0,2.203,0.0,1638.400,978970.400,4103796.400,0.0,0.0,0.0,6873.200
2.876,11.947,82.743,0.0,0.0,2.434,0.0,819.200,979003.600,4116296.600,0.0,0.0,0.0,7026.200
4.730,11.036,81.757,0.450,0.0,2.027,0.0,22118.400,972884.0,4078363.200,0.0,0.0,0.0,6863.0
5.169,12.809,80.225,0.0,0.0,1.798,0.0,1638.400,967175.0,4063596.800,0.0,0.0,0.0,6860.0
5.519,11.921,80.795,0.0,0.0,1.766,0.0,2457.600,935827.0,3913816.400,0.0,0.0,0.0,6665.400
0.201,0.201,99.598,0.0,0.0,0.0,0.0,1638.400,6267.200,1869.600,0.0,0.0,0.0,72.400
