"Dstat 0.7.2 CSV output"
"Author:","Dag Wieers <dag@wieers.com>",,,,"URL:","http://dag.wieers.com/home-made/dstat/"
"Host:","Server1",,,,"User:","mstevan"
"Cmdline:","dstat --output /home/mstevan/logs/experiment_3.4/dstat/vs_256-vcpr_32-wtpm_8-rep_4.csv 5 16",,,,"Date:","28 Oct 2019 17:41:26 UTC"

"total cpu usage",,,,,,"dsk/total",,"net/total",,"paging",,"system",
"usr","sys","idl","wai","hiq","siq","read","writ","recv","send","in","out","int","csw"
5.688,13.736,78.025,0.210,0.0,2.341,6480.387,663958.651,0.0,0.0,0.0,0.0,0.057,3222.947
0.400,0.400,98.800,0.400,0.0,0.0,0.0,23756.800,3995.400,2536.800,0.0,0.0,0.0,80.800
3.549,7.307,88.518,0.0,0.0,0.626,0.0,1638.400,607343.200,2543059.800,0.0,0.0,0.0,3314.800
2.128,7.447,89.787,0.0,0.0,0.638,0.0,1638.400,636291.400,2668536.800,0.0,0.0,0.0,3674.800
2.686,8.058,88.223,0.0,0.0,1.033,0.0,2457.600,674823.600,2842230.400,0.0,0.0,0.0,3019.800
2.345,6.183,90.618,0.0,0.0,0.853,0.0,1638.400,675874.400,2832464.600,0.0,0.0,0.0,3042.400
2.947,6.526,89.684,0.0,0.0,0.842,0.0,819.200,682910.600,2874614.600,0.0,0.0,0.0,3022.0
2.553,6.596,89.787,0.426,0.0,0.638,0.0,26214.400,680490.600,2854964.600,0.0,0.0,0.0,3121.0
3.145,6.709,89.308,0.0,0.0,0.839,0.0,1638.400,671452.800,2816175.0,0.0,0.0,0.0,2963.800
2.335,6.794,90.658,0.0,0.0,0.212,0.0,819.200,679588.400,2861770.0,0.0,0.0,0.0,3021.600
2.960,7.188,89.218,0.0,0.0,0.634,0.0,1638.400,681627.200,2859641.200,0.0,0.0,0.0,3237.600
3.609,5.520,90.446,0.0,0.0,0.425,0.0,1638.400,672702.0,2820624.600,0.0,0.0,0.0,2944.400
2.960,7.188,89.218,0.0,0.0,0.634,0.0,819.200,675303.200,2843331.0,0.0,0.0,0.0,3052.200
2.350,6.410,90.385,0.214,0.0,0.641,0.0,16384.0,678777.400,2845598.200,0.0,0.0,0.0,2927.200
2.754,6.780,90.254,0.0,0.0,0.212,0.0,2457.600,676039.200,2834206.0,0.0,0.0,0.0,2944.400
2.720,6.485,89.958,0.0,0.0,0.837,0.0,1638.400,664343.0,2797127.600,0.0,0.0,0.0,2731.600
0.813,1.626,97.561,0.0,0.0,0.0,0.0,1638.400,85224.400,335841.200,0.0,0.0,0.0,883.400
