"Dstat 0.7.2 CSV output"
"Author:","Dag Wieers <dag@wieers.com>",,,,"URL:","http://dag.wieers.com/home-made/dstat/"
"Host:","Server1",,,,"User:","mstevan"
"Cmdline:","dstat --output /home/mstevan/logs/experiment_3.4/dstat/vs_256-vcpr_16-wtpm_32-rep_2.csv 5 16",,,,"Date:","28 Oct 2019 17:27:13 UTC"

"total cpu usage",,,,,,"dsk/total",,"net/total",,"paging",,"system",
"usr","sys","idl","wai","hiq","siq","read","writ","recv","send","in","out","int","csw"
5.716,13.817,77.898,0.212,0.0,2.356,6564.277,672496.790,0.0,0.0,0.0,0.0,0.058,3204.870
0.604,0.0,98.793,0.604,0.0,0.0,0.0,18841.600,17440.400,48625.200,0.0,0.0,0.0,223.400
3.947,9.649,84.649,0.0,0.0,1.754,0.0,1638.400,930348.200,3907476.0,0.0,0.0,0.0,6743.200
5.333,11.111,81.778,0.0,0.0,1.778,0.0,819.200,966678.200,4075006.800,0.0,0.0,0.0,6901.600
4.894,12.766,80.638,0.0,0.0,1.702,0.0,3276.800,992168.200,4172538.400,0.0,0.0,0.0,6688.600
4.922,12.304,80.984,0.0,0.0,1.790,0.0,1638.400,980294.400,4125449.400,0.0,0.0,0.0,6473.600
3.704,11.983,83.007,0.0,0.0,1.307,0.0,819.200,985038.0,4153456.200,0.0,0.0,0.0,6629.800
4.605,11.842,82.675,0.0,0.0,0.877,0.0,3276.800,987306.0,4151988.200,0.0,0.0,0.0,6475.600
5.263,10.088,82.675,0.219,0.0,1.754,0.0,19660.800,986647.0,4148914.600,0.0,0.0,0.0,6469.400
5.310,10.619,82.522,0.0,0.0,1.549,0.0,819.200,987111.800,4163545.200,0.0,0.0,0.0,6536.200
5.381,12.556,80.717,0.0,0.0,1.345,0.0,1638.400,989287.600,4156465.600,0.0,0.0,0.0,6336.200
5.357,10.714,82.812,0.0,0.0,1.116,0.0,819.200,994757.0,4196506.400,0.0,0.0,0.0,6509.200
5.345,11.581,81.960,0.0,0.0,1.114,0.0,1638.400,1010172.200,4246575.0,0.0,0.0,0.0,6564.400
4.587,10.092,84.404,0.0,0.0,0.917,0.0,1638.400,978930.200,4119143.0,0.0,0.0,0.0,6405.600
4.060,11.325,83.120,0.0,0.0,1.496,0.0,16384.0,999229.400,4212784.400,0.0,0.0,0.0,6592.800
4.878,10.643,82.927,0.0,0.0,1.552,0.0,1638.400,972699.800,4085245.200,0.0,0.0,0.0,6231.400
0.401,0.200,99.399,0.0,0.0,0.0,0.0,1638.400,6254.0,1869.600,0.0,0.0,0.200,74.0
