"Dstat 0.7.2 CSV output"
"Author:","Dag Wieers <dag@wieers.com>",,,,"URL:","http://dag.wieers.com/home-made/dstat/"
"Host:","Server1",,,,"User:","mstevan"
"Cmdline:","dstat --output /home/mstevan/logs/experiment_3.4/dstat/vs_256-vcpr_16-wtpm_8-rep_3.csv 5 16",,,,"Date:","28 Oct 2019 17:22:57 UTC"

"total cpu usage",,,,,,"dsk/total",,"net/total",,"paging",,"system",
"usr","sys","idl","wai","hiq","siq","read","writ","recv","send","in","out","int","csw"
5.728,13.849,77.846,0.213,0.0,2.363,6589.878,675102.989,0.0,0.0,0.0,0.0,0.058,3204.028
0.601,0.0,99.198,0.0,0.0,0.200,0.0,1638.400,9672.800,13469.400,0.0,0.0,0.0,105.400
2.105,7.579,89.684,0.0,0.0,0.632,0.0,819.200,664154.200,2797924.800,0.0,0.0,0.0,3490.200
3.766,7.531,88.285,0.0,0.0,0.418,0.0,1638.400,640965.400,2685565.600,0.0,0.0,0.0,3288.600
2.743,6.962,89.451,0.0,0.0,0.844,0.0,3276.800,649867.800,2724080.600,0.0,0.0,0.0,3121.0
3.165,5.696,90.084,0.422,0.0,0.633,0.0,18022.400,678552.800,2858047.0,0.0,0.0,0.200,2990.800
2.772,7.249,88.913,0.0,0.0,1.066,0.0,1638.400,675256.600,2831575.800,0.0,0.0,0.0,3160.600
2.772,5.544,90.832,0.0,0.0,0.853,0.0,3276.800,678670.400,2844959.800,0.0,0.0,0.0,2915.200
2.985,5.544,90.832,0.0,0.0,0.640,0.0,819.200,688358.400,2898942.0,0.0,0.0,0.0,3098.600
2.760,6.157,90.234,0.0,0.0,0.849,0.0,1638.400,667565.0,2798330.400,0.0,0.0,0.0,2948.600
2.165,4.329,93.074,0.0,0.0,0.433,0.0,819.200,639869.400,2694373.800,0.0,0.0,0.0,2788.600
2.754,5.720,90.254,0.424,0.0,0.847,0.0,18022.400,684690.600,2871456.200,0.0,0.0,0.0,2795.0
2.947,7.158,89.263,0.0,0.0,0.632,0.0,1638.400,667562.200,2799767.600,0.0,0.0,0.0,2858.600
1.474,7.579,90.526,0.0,0.0,0.421,0.0,819.200,640117.0,2696411.400,0.0,0.0,0.0,2555.0
2.725,7.966,88.679,0.0,0.0,0.629,0.0,3276.800,688310.0,2886458.600,0.0,0.0,0.0,3016.0
3.609,5.945,89.809,0.0,0.0,0.637,0.0,1638.400,673884.600,2827304.800,0.0,0.0,0.0,2795.400
0.201,0.0,99.799,0.0,0.0,0.0,0.0,819.200,3378.200,992.400,0.0,0.0,0.0,60.200
