"Dstat 0.7.2 CSV output"
"Author:","Dag Wieers <dag@wieers.com>",,,,"URL:","http://dag.wieers.com/home-made/dstat/"
"Host:","Server1",,,,"User:","mstevan"
"Cmdline:","dstat --output /home/mstevan/logs/experiment_3.4/dstat/vs_256-vcpr_16-wtpm_64-rep_3.csv 5 16",,,,"Date:","28 Oct 2019 17:34:20 UTC"

"total cpu usage",,,,,,"dsk/total",,"net/total",,"paging",,"system",
"usr","sys","idl","wai","hiq","siq","read","writ","recv","send","in","out","int","csw"
5.705,13.785,77.948,0.211,0.0,2.350,6522.055,668199.542,0.0,0.0,0.0,0.0,0.058,3219.572
0.402,0.402,98.793,0.402,0.0,0.0,0.0,18841.600,15468.200,20324.0,0.0,0.0,0.0,191.200
4.944,12.584,80.225,0.0,0.0,2.247,0.0,1638.400,925920.0,3859315.400,0.0,0.0,0.0,6969.0
3.991,12.417,81.818,0.0,0.0,1.774,0.0,819.200,965894.600,4057729.800,0.0,0.0,0.0,7093.0
5.817,11.186,81.208,0.0,0.0,1.790,0.0,2457.600,990858.400,4157328.400,0.0,0.0,0.0,6808.600
4.989,12.698,79.819,0.0,0.0,2.494,0.0,2457.600,972478.200,4072227.400,0.0,0.0,0.0,6833.800
5.405,10.360,81.532,0.0,0.0,2.703,0.0,819.200,962322.200,4042201.600,0.0,0.0,0.0,7041.200
5.122,12.918,79.287,0.0,0.0,2.673,0.0,3276.800,978075.0,4098410.800,0.0,0.0,0.0,6875.600
5.882,10.860,80.769,0.226,0.0,2.262,0.0,22118.400,989794.200,4161762.400,0.0,0.0,0.0,7029.800
6.054,11.659,80.493,0.0,0.0,1.794,0.0,1638.400,984579.0,4135425.200,0.0,0.0,0.0,6761.400
5.580,12.723,79.688,0.0,0.0,2.009,0.0,1638.400,978751.0,4101998.200,0.0,0.0,0.0,6902.800
4.677,11.359,81.292,0.0,0.0,2.673,0.0,819.200,983841.0,4137298.200,0.0,0.0,0.0,6999.400
5.857,10.195,81.779,0.0,0.0,2.169,0.0,1638.400,974468.600,4086940.400,0.0,0.0,0.0,6827.600
4.260,12.108,82.287,0.0,0.0,1.345,0.0,1638.400,966554.0,4048714.600,0.0,0.0,0.0,7061.0
4.577,13.501,79.405,0.229,0.0,2.288,0.0,16384.0,981717.200,4129339.600,0.0,0.0,0.0,6924.400
5.240,11.354,80.568,0.0,0.0,2.838,0.0,1638.400,970475.200,4057938.0,0.0,0.0,0.0,6872.600
0.401,0.200,99.399,0.0,0.0,0.0,0.0,819.200,3167.0,1005.600,0.0,0.0,0.0,69.400
