"Dstat 0.7.2 CSV output"
"Author:","Dag Wieers <dag@wieers.com>",,,,"URL:","http://dag.wieers.com/home-made/dstat/"
"Host:","Server1",,,,"User:","mstevan"
"Cmdline:","dstat --output /home/mstevan/logs/experiment_3.4/dstat/vs_256-vcpr_4-wtpm_64-rep_2.csv 5 16",,,,"Date:","28 Oct 2019 16:58:46 UTC"

"total cpu usage",,,,,,"dsk/total",,"net/total",,"paging",,"system",
"usr","sys","idl","wai","hiq","siq","read","writ","recv","send","in","out","int","csw"
5.792,14.025,77.577,0.217,0.0,2.390,6738.768,690250.658,0.0,0.0,0.0,0.0,0.059,3167.382
0.402,0.201,99.195,0.0,0.0,0.201,0.0,2457.600,18994.800,30610.600,0.0,0.0,0.0,251.800
3.625,7.463,86.780,0.0,0.0,2.132,0.0,1638.400,568502.600,2260185.600,0.0,0.0,0.0,6837.200
3.441,7.312,87.312,0.0,0.0,1.935,0.0,819.200,593429.0,2407976.400,0.0,0.0,0.0,7173.600
4.051,8.529,85.075,0.0,0.0,2.345,0.0,27033.600,612597.600,2484464.0,0.0,0.0,0.0,7357.200
3.609,7.643,86.412,0.0,0.0,2.335,0.0,819.200,616218.800,2504806.200,0.0,0.0,0.0,7513.400
3.185,8.493,85.775,0.0,0.0,2.548,0.0,1638.400,619742.600,2518839.600,0.0,0.0,0.0,7610.200
3.625,9.168,84.222,0.0,0.0,2.985,0.0,3276.800,610995.600,2480711.600,0.0,0.0,0.0,7260.600
3.838,8.102,86.780,0.0,0.0,1.279,0.0,819.200,606780.0,2488631.0,0.0,0.0,0.0,7415.0
2.998,7.709,86.724,0.0,0.0,2.570,0.0,1638.400,615451.600,2509523.400,0.0,0.0,0.0,7398.0
3.967,9.186,84.342,0.418,0.0,2.088,0.0,17203.200,606502.800,2450784.800,0.0,0.0,0.0,7350.0
3.854,6.852,87.152,0.0,0.0,2.141,0.0,819.200,615193.0,2517730.0,0.0,0.0,0.0,7358.400
4.403,8.386,84.696,0.0,0.0,2.516,0.0,1638.400,613766.600,2480310.600,0.0,0.0,0.0,7250.200
3.830,7.872,85.745,0.0,0.0,2.553,0.0,819.200,610427.800,2498883.800,0.0,0.0,0.0,7330.200
3.854,7.709,86.510,0.0,0.0,1.927,0.0,2457.600,608924.200,2459009.400,0.0,0.0,0.0,7295.400
4.274,7.051,86.325,0.0,0.0,2.350,0.0,2457.600,595321.600,2413133.600,0.0,0.0,0.0,7153.600
0.400,0.400,98.800,0.400,0.0,0.0,0.0,18841.600,3167.0,992.400,0.0,0.0,0.0,63.600
