"Dstat 0.7.2 CSV output"
"Author:","Dag Wieers <dag@wieers.com>",,,,"URL:","http://dag.wieers.com/home-made/dstat/"
"Host:","Server1",,,,"User:","mstevan"
"Cmdline:","dstat --output /home/mstevan/logs/experiment_3.4/dstat/vs_256-vcpr_8-wtpm_64-rep_3.csv 5 16",,,,"Date:","28 Oct 2019 17:17:15 UTC"

"total cpu usage",,,,,,"dsk/total",,"net/total",,"paging",,"system",
"usr","sys","idl","wai","hiq","siq","read","writ","recv","send","in","out","int","csw"
5.743,13.890,77.784,0.214,0.0,2.369,6624.307,678607.099,0.0,0.0,0.0,0.0,0.058,3198.429
0.202,0.202,99.597,0.0,0.0,0.0,0.0,819.200,21999.200,54818.800,0.0,0.0,0.0,284.600
5.128,9.615,83.333,0.0,0.0,1.923,0.0,1638.400,723457.400,2974389.800,0.0,0.0,0.0,7227.800
5.411,9.524,81.818,0.0,0.0,3.247,0.0,1638.400,764032.200,3161160.600,0.0,0.0,0.0,7477.800
3.838,11.514,81.876,0.0,0.0,2.772,0.0,2457.600,775812.800,3218654.200,0.0,0.0,0.0,8004.200
5.066,10.132,82.599,0.0,0.0,2.203,0.0,3276.800,777743.400,3225432.600,0.0,0.0,0.0,7453.400
4.772,9.544,82.646,0.0,0.0,3.037,0.0,1638.400,775043.800,3213669.200,0.0,0.0,0.0,7190.200
4.878,10.865,80.488,0.443,0.0,3.326,0.0,28672.0,774976.0,3227159.200,0.0,0.0,0.0,7543.200
4.194,9.272,83.002,0.0,0.0,3.532,0.0,1638.400,774438.400,3209606.600,0.0,0.0,0.0,7368.600
3.982,10.841,82.965,0.0,0.0,2.212,0.0,819.200,781136.800,3259566.800,0.0,0.0,0.0,7348.800
4.772,8.243,84.599,0.0,0.0,2.386,0.0,1638.400,767180.400,3183017.600,0.0,0.0,0.0,7302.0
5.100,10.200,82.262,0.0,0.0,2.439,0.0,1638.400,767399.800,3180599.800,0.0,0.0,0.200,7198.600
4.555,9.111,83.514,0.0,0.0,2.820,0.0,819.200,769749.200,3203344.600,0.0,0.0,0.0,7313.0
5.769,10.897,79.060,0.427,0.0,3.846,0.0,14745.600,776751.400,3221529.400,0.0,0.0,0.0,7428.800
5.702,10.746,80.702,0.0,0.0,2.851,0.0,3276.800,775122.600,3222930.200,0.0,0.0,0.0,7371.600
3.084,10.352,84.141,0.0,0.0,2.423,0.0,819.200,749382.0,3118890.0,0.0,0.0,0.0,7218.800
0.803,0.0,99.197,0.0,0.0,0.0,0.0,1638.400,6254.0,1856.400,0.0,0.0,0.0,70.200
