"Dstat 0.7.2 CSV output"
"Author:","Dag Wieers <dag@wieers.com>",,,,"URL:","http://dag.wieers.com/home-made/dstat/"
"Host:","Server1",,,,"User:","mstevan"
"Cmdline:","dstat --output /home/mstevan/logs/experiment_3.4/dstat/vs_256-vcpr_8-wtpm_8-rep_1.csv 5 16",,,,"Date:","28 Oct 2019 17:03:02 UTC"

"total cpu usage",,,,,,"dsk/total",,"net/total",,"paging",,"system",
"usr","sys","idl","wai","hiq","siq","read","writ","recv","send","in","out","int","csw"
5.781,13.992,77.623,0.216,0.0,2.388,6712.004,687526.615,0.0,0.0,0.0,0.0,0.059,3178.941
0.798,0.599,98.004,0.399,0.0,0.200,0.0,19660.800,18071.400,49352.600,0.0,0.0,0.0,194.400
2.146,5.794,91.416,0.0,0.0,0.644,0.0,819.200,646842.600,2722810.0,0.0,0.0,0.0,3307.0
3.178,6.992,89.407,0.0,0.0,0.424,0.0,1638.400,666645.200,2795994.600,0.0,0.0,0.0,3577.600
2.772,6.823,89.552,0.0,0.0,0.853,0.0,3276.800,682439.400,2859518.800,0.0,0.0,0.0,3521.400
2.697,8.714,87.967,0.0,0.0,0.622,0.0,819.200,679689.0,2863313.400,0.0,0.0,0.0,3333.0
2.132,6.610,90.618,0.0,0.0,0.640,0.0,1638.400,661767.600,2774861.400,0.0,0.0,0.0,3095.800
3.165,7.384,87.975,0.422,0.0,1.055,0.0,9011.200,677862.800,2842654.400,0.0,0.0,0.0,3685.800
3.383,6.342,89.429,0.211,0.0,0.634,0.0,12288.0,691662.0,2914391.600,0.0,0.0,0.0,3394.0
2.137,7.265,89.744,0.0,0.0,0.855,0.0,1638.400,678910.400,2846866.800,0.0,0.0,0.0,3528.400
2.725,7.547,89.308,0.0,0.0,0.419,0.0,819.200,669294.0,2816172.600,0.0,0.0,0.0,3143.400
2.954,6.962,88.819,0.0,0.0,1.266,0.0,1638.400,684006.800,2868670.600,0.0,0.0,0.0,3245.600
2.326,5.708,91.543,0.0,0.0,0.423,0.0,1638.400,678180.200,2844945.200,0.0,0.0,0.0,3167.0
3.383,6.765,88.584,0.0,0.0,1.268,0.0,819.200,687162.200,2895386.800,0.0,0.0,0.0,3312.600
3.383,7.188,87.526,0.846,0.0,1.057,0.0,17203.200,696249.600,2920515.600,0.0,0.0,0.0,3574.400
2.564,6.410,90.385,0.0,0.0,0.641,0.0,2457.600,677365.400,2840483.400,0.0,0.0,0.0,3258.200
0.0,0.602,99.398,0.0,0.0,0.0,0.0,819.200,3618.0,1476.400,0.0,0.0,0.0,73.600
