"Dstat 0.7.2 CSV output"
"Author:","Dag Wieers <dag@wieers.com>",,,,"URL:","http://dag.wieers.com/home-made/dstat/"
"Host:","Server1",,,,"User:","mstevan"
"Cmdline:","dstat --output /home/mstevan/logs/experiment_3.4/dstat/vs_256-vcpr_4-wtpm_64-rep_3.csv 5 16",,,,"Date:","28 Oct 2019 17:00:11 UTC"

"total cpu usage",,,,,,"dsk/total",,"net/total",,"paging",,"system",
"usr","sys","idl","wai","hiq","siq","read","writ","recv","send","in","out","int","csw"
5.788,14.014,77.592,0.217,0.0,2.390,6729.823,689341.125,0.0,0.0,0.0,0.0,0.059,3171.165
0.402,0.402,99.195,0.0,0.0,0.0,0.0,1638.400,16503.400,23369.0,0.0,0.0,0.0,200.200
3.376,7.173,85.865,0.0,0.0,3.586,0.0,819.200,578440.0,2284030.0,0.0,0.0,0.0,6876.0
3.268,6.754,87.146,0.0,0.0,2.832,0.0,1638.400,614593.0,2502526.400,0.0,0.0,0.0,7466.800
4.301,6.882,86.237,0.0,0.0,2.581,0.0,2457.600,629994.600,2573125.600,0.0,0.0,0.0,7639.200
3.805,9.302,84.567,0.423,0.0,1.903,0.0,18841.600,630175.0,2573966.800,0.0,0.0,0.0,7583.200
4.095,8.836,85.560,0.0,0.0,1.509,0.0,1638.400,649190.600,2653347.200,0.0,0.0,0.0,7728.400
3.704,7.190,86.492,0.0,0.0,2.614,0.0,3276.800,625898.800,2568172.600,0.0,0.0,0.0,7289.800
2.991,8.547,85.897,0.0,0.0,2.564,0.0,819.200,627304.800,2593121.600,0.0,0.0,0.0,7439.200
3.922,7.843,86.492,0.0,0.0,1.743,0.0,1638.400,640141.800,2631713.200,0.0,0.0,0.0,7572.400
4.255,8.936,84.894,0.0,0.0,1.915,0.0,819.200,632086.0,2606486.400,0.0,0.0,0.0,7503.800
3.226,9.247,85.376,0.215,0.0,1.935,0.0,18841.600,633085.400,2584814.400,0.0,0.0,0.0,7490.400
4.086,7.527,85.806,0.0,0.0,2.581,0.0,819.200,644727.200,2668963.600,0.0,0.0,0.0,7728.800
3.219,9.227,85.193,0.0,0.0,2.361,0.0,1638.400,635759.200,2599793.400,0.0,0.0,0.0,7619.200
4.086,9.032,85.376,0.0,0.0,1.505,0.0,2457.600,637361.0,2636873.400,0.0,0.0,0.0,7589.400
4.894,8.085,84.468,0.0,0.0,2.553,0.0,1638.400,629296.400,2575474.0,0.0,0.0,0.0,7382.0
0.201,0.402,99.396,0.0,0.0,0.0,0.0,1638.400,6267.200,1869.600,0.0,0.0,0.0,68.600
