"Dstat 0.7.2 CSV output"
"Author:","Dag Wieers <dag@wieers.com>",,,,"URL:","http://dag.wieers.com/home-made/dstat/"
"Host:","Server1",,,,"User:","mstevan"
"Cmdline:","dstat --output /home/mstevan/logs/experiment_3.4/dstat/vs_256-vcpr_16-wtpm_8-rep_2.csv 5 16",,,,"Date:","28 Oct 2019 17:21:31 UTC"

"total cpu usage",,,,,,"dsk/total",,"net/total",,"paging",,"system",
"usr","sys","idl","wai","hiq","siq","read","writ","recv","send","in","out","int","csw"
5.733,13.861,77.827,0.213,0.0,2.366,6598.446,675974.625,0.0,0.0,0.0,0.0,0.058,3204.962
0.604,0.402,98.994,0.0,0.0,0.0,0.0,1638.400,16745.800,43958.200,0.0,0.0,0.0,162.200
2.954,5.696,90.506,0.0,0.0,0.844,0.0,1638.400,621724.400,2604415.200,0.0,0.0,0.0,2855.400
2.526,6.526,90.316,0.0,0.0,0.632,0.0,819.200,672667.800,2834540.200,0.0,0.0,0.0,3352.0
3.340,6.889,88.518,0.626,0.0,0.626,0.0,26214.400,650610.800,2725299.400,0.0,0.0,0.0,2871.800
2.941,6.513,89.706,0.0,0.0,0.840,0.0,1638.400,666613.200,2808668.600,0.0,0.0,0.0,2929.400
2.979,6.383,90.0,0.0,0.0,0.638,0.0,1638.400,665650.400,2790508.200,0.0,0.0,0.0,3025.600
2.516,6.499,89.727,0.0,0.0,1.258,0.0,3276.800,663010.0,2779313.400,0.0,0.0,0.0,3109.800
2.966,5.932,90.678,0.0,0.0,0.424,0.0,819.200,685880.800,2889135.0,0.0,0.0,0.0,2960.800
3.383,6.554,89.429,0.0,0.0,0.634,0.0,1638.400,681763.0,2858561.0,0.0,0.0,0.0,3076.800
2.748,6.554,89.641,0.423,0.0,0.634,0.0,15564.800,693211.0,2907929.600,0.0,0.0,0.0,3186.800
3.165,6.962,89.241,0.0,0.0,0.633,0.0,819.200,689053.800,2901647.800,0.0,0.0,0.0,2964.400
2.542,6.780,90.042,0.0,0.0,0.636,0.0,1638.400,675487.400,2832494.400,0.0,0.0,0.0,2923.600
2.559,6.397,90.618,0.0,0.0,0.426,0.0,819.200,688414.0,2900537.200,0.0,0.0,0.0,3011.800
3.185,6.157,90.021,0.0,0.0,0.637,0.0,3276.800,685318.400,2873819.600,0.0,0.0,0.0,2922.600
2.083,7.708,89.375,0.0,0.0,0.833,0.0,1638.400,649250.200,2722189.0,0.0,0.0,0.0,2866.600
0.0,0.201,99.195,0.604,0.0,0.0,0.0,14745.600,3261.400,1046.0,0.0,0.0,0.0,69.0
