"Dstat 0.7.2 CSV output"
"Author:","Dag Wieers <dag@wieers.com>",,,,"URL:","http://dag.wieers.com/home-made/dstat/"
"Host:","Server1",,,,"User:","mstevan"
"Cmdline:","dstat --output /home/mstevan/logs/experiment_3.4/dstat/vs_256-vcpr_32-wtpm_32-rep_4.csv 5 16",,,,"Date:","28 Oct 2019 17:47:08 UTC"

"total cpu usage",,,,,,"dsk/total",,"net/total",,"paging",,"system",
"usr","sys","idl","wai","hiq","siq","read","writ","recv","send","in","out","int","csw"
5.678,13.709,78.069,0.210,0.0,2.335,6447.420,660604.798,0.0,0.0,0.0,0.0,0.057,3225.085
0.201,0.201,99.598,0.0,0.0,0.0,0.0,819.200,11450.800,25626.800,0.0,0.0,0.0,162.200
6.265,11.369,80.742,0.0,0.0,1.624,0.0,1638.400,1103172.400,4642460.600,0.0,0.0,0.0,5110.600
6.237,10.323,82.151,0.0,0.0,1.290,0.0,1638.400,1186088.200,4990812.0,0.0,0.0,0.0,4670.0
4.328,10.023,82.916,0.0,0.0,2.733,0.0,2457.600,1153892.600,4866840.0,0.0,0.0,0.0,5040.200
5.023,11.187,81.507,0.457,0.0,1.826,0.0,18841.600,1149482.200,4835936.0,0.0,0.0,0.0,5026.200
4.944,12.360,80.449,0.0,0.0,2.247,0.0,1638.400,1183468.400,4984741.200,0.0,0.0,0.0,4955.800
4.989,11.565,81.859,0.0,0.0,1.587,0.0,2457.600,1166709.200,4923612.200,0.0,0.0,0.0,4827.400
5.310,11.283,80.973,0.0,0.0,2.434,0.0,1638.400,1171131.800,4928076.200,0.0,0.0,0.0,4776.600
4.063,12.867,81.264,0.0,0.0,1.806,0.0,819.200,1192359.400,5028975.800,0.0,0.0,0.0,4829.200
5.229,10.240,82.571,0.0,0.0,1.961,0.0,1638.400,1184210.400,4981701.600,0.0,0.0,0.0,4776.200
5.580,13.170,79.241,0.0,0.0,2.009,0.0,1638.400,1189297.400,5009491.600,0.0,0.0,0.0,4605.200
4.585,12.664,80.568,0.437,0.0,1.747,0.0,21299.200,1186768.0,5006559.400,0.0,0.0,0.0,4668.600
5.896,11.565,79.365,0.0,0.0,3.175,0.0,1638.400,1182306.800,4979235.600,0.0,0.0,0.0,4932.200
6.416,12.832,78.540,0.0,0.0,2.212,0.0,3276.800,1191568.400,5013411.600,0.0,0.0,0.0,4709.200
4.566,10.502,83.105,0.0,0.0,1.826,0.0,819.200,1170446.600,4941176.400,0.0,0.0,0.0,4686.400
1.016,1.829,97.154,0.0,0.0,0.0,0.0,1638.400,77858.0,300269.800,0.0,0.0,0.0,991.0
