"Dstat 0.7.2 CSV output"
"Author:","Dag Wieers <dag@wieers.com>",,,,"URL:","http://dag.wieers.com/home-made/dstat/"
"Host:","Server1",,,,"User:","mstevan"
"Cmdline:","dstat --output /home/mstevan/logs/experiment_3.4/dstat/vs_256-vcpr_4-wtpm_32-rep_1.csv 5 16",,,,"Date:","28 Oct 2019 16:51:39 UTC"

"total cpu usage",,,,,,"dsk/total",,"net/total",,"paging",,"system",
"usr","sys","idl","wai","hiq","siq","read","writ","recv","send","in","out","int","csw"
5.786,14.073,77.545,0.197,0.0,2.399,4481.619,690693.151,0.0,0.0,0.0,0.0,0.060,3150.223
0.800,0.600,98.600,0.0,0.0,0.0,0.0,1638.400,17949.0,41538.800,0.0,0.0,0.0,230.600
3.846,7.692,87.393,0.0,0.0,1.068,0.0,1638.400,576303.800,2411621.0,0.0,0.0,0.0,7019.200
3.185,10.616,85.138,0.0,0.0,1.062,0.0,1638.400,596635.800,2511344.200,0.0,0.0,0.0,7262.600
3.930,9.170,85.808,0.0,0.0,1.092,0.0,2457.600,635641.200,2663320.400,0.0,0.0,0.0,7615.800
3.471,9.761,86.117,0.217,0.0,0.434,0.0,26214.400,637160.200,2671669.400,0.0,0.0,0.0,7613.600
3.261,8.261,87.391,0.0,0.0,1.087,0.0,819.200,629474.600,2647240.800,0.0,0.0,0.0,7531.800
3.268,8.932,87.364,0.0,0.0,0.436,0.0,1638.400,637820.200,2687117.0,0.0,0.0,0.200,7620.200
5.411,7.792,85.931,0.0,0.0,0.866,0.0,1638.400,637401.200,2682349.600,0.0,0.0,0.0,7757.400
3.922,9.150,85.403,0.0,0.0,1.525,0.0,1638.400,645719.0,2705733.400,0.0,0.0,0.0,7668.600
2.632,9.211,87.281,0.0,0.0,0.877,0.0,819.200,639879.200,2694980.800,0.0,0.0,0.0,7738.400
3.930,8.297,86.900,0.218,0.0,0.655,0.0,14745.600,631036.600,2644493.400,0.0,0.0,0.0,7471.400
4.405,7.269,87.665,0.0,0.0,0.661,0.0,1638.400,620846.0,2601068.0,0.0,0.0,0.0,7478.400
3.939,8.534,87.309,0.0,0.0,0.219,0.0,819.200,625396.600,2634124.0,0.0,0.0,0.0,7331.800
3.077,8.571,87.473,0.0,0.0,0.879,0.0,3276.800,638609.800,2676277.0,0.0,0.0,0.0,7637.200
4.264,9.168,85.928,0.0,0.0,0.640,0.0,1638.400,619914.800,2593516.0,0.0,0.0,0.0,7369.800
0.401,0.200,99.399,0.0,0.0,0.0,0.0,819.200,3167.0,1005.600,0.0,0.0,0.0,60.200
