"Dstat 0.7.2 CSV output"
"Author:","Dag Wieers <dag@wieers.com>",,,,"URL:","http://dag.wieers.com/home-made/dstat/"
"Host:","Server1",,,,"User:","mstevan"
"Cmdline:","dstat --output /home/mstevan/logs/experiment_3.4/dstat/vs_256-vcpr_4-wtpm_32-rep_2.csv 5 16",,,,"Date:","28 Oct 2019 16:53:04 UTC"

"total cpu usage",,,,,,"dsk/total",,"net/total",,"paging",,"system",
"usr","sys","idl","wai","hiq","siq","read","writ","recv","send","in","out","int","csw"
5.782,14.063,77.561,0.197,0.0,2.397,4475.632,689776.719,0.0,0.0,0.0,0.0,0.060,3154.274
0.602,0.201,99.197,0.0,0.0,0.0,0.0,1638.400,15661.0,31287.400,0.0,0.0,0.0,207.800
3.289,6.579,89.474,0.0,0.0,0.658,0.0,819.200,555904.400,2337686.800,0.0,0.0,0.0,6876.600
11.479,10.817,76.380,0.0,0.0,1.325,0.0,1638.400,562398.400,2352490.800,0.0,0.0,0.0,6580.600
35.115,21.120,1.527,37.405,0.0,4.835,3479961.600,68812.800,502451.400,1823242.0,0.0,0.0,0.0,4368.400
15.545,11.369,0.0,70.998,0.0,2.088,7909376.0,1638.400,541338.800,2263572.200,0.0,0.0,0.0,5960.400
25.185,10.864,0.0,61.728,0.0,2.222,6528204.800,169574.400,496576.800,2077729.0,0.0,0.0,0.0,5000.200
17.943,11.483,0.0,69.378,0.0,1.196,8445132.800,2457.600,524302.600,2204140.0,0.0,0.0,0.0,5540.800
48.285,12.929,0.0,35.356,0.0,3.430,3003187.200,13116211.200,415759.200,1731492.0,0.0,0.0,0.0,3532.600
77.364,17.192,0.0,0.0,0.0,5.444,4915.200,1638.400,315771.0,1308439.0,0.0,0.0,0.0,1779.600
82.254,13.239,0.0,0.0,0.0,4.507,0.0,2457.600,317793.200,1331660.600,0.0,0.0,0.0,1923.400
86.441,8.475,0.0,0.0,0.0,5.085,0.0,1638.400,324557.200,1345031.400,0.0,0.0,0.0,1770.600
7.375,10.195,80.911,0.0,0.0,1.518,0.0,26405273.600,603240.600,2538929.400,0.0,0.0,0.0,7140.600
4.545,8.442,86.147,0.0,0.0,0.866,0.0,1638.400,628669.800,2634670.800,0.0,0.0,0.0,7527.400
4.731,8.172,86.452,0.0,0.0,0.645,0.0,3276.800,621903.400,2605641.800,0.0,0.0,0.0,7480.400
3.261,8.043,88.043,0.0,0.0,0.652,0.0,819.200,627158.800,2637536.600,0.0,0.0,0.0,7580.600
0.810,0.810,98.381,0.0,0.0,0.0,0.0,13012172.800,6705.0,2340.400,0.0,0.0,0.0,94.200
