"Dstat 0.7.2 CSV output"
"Author:","Dag Wieers <dag@wieers.com>",,,,"URL:","http://dag.wieers.com/home-made/dstat/"
"Host:","Server1",,,,"User:","mstevan"
"Cmdline:","dstat --output /home/mstevan/logs/experiment_3.4/dstat/vs_256-vcpr_4-wtpm_8-rep_4.csv 5 16",,,,"Date:","28 Oct 2019 16:50:14 UTC"

"total cpu usage",,,,,,"dsk/total",,"net/total",,"paging",,"system",
"usr","sys","idl","wai","hiq","siq","read","writ","recv","send","in","out","int","csw"
5.790,14.085,77.526,0.197,0.0,2.402,4487.625,691612.430,0.0,0.0,0.0,0.0,0.060,3147.066
0.201,0.402,99.396,0.0,0.0,0.0,0.0,1638.400,11169.0,21999.400,0.0,0.0,0.0,145.600
3.011,6.667,89.677,0.0,0.0,0.645,0.0,1638.400,499086.200,2085139.400,0.0,0.0,0.0,5950.800
2.820,6.291,90.456,0.0,0.0,0.434,0.0,819.200,522722.600,2198501.800,0.0,0.0,0.0,6371.400
2.838,6.550,89.520,0.218,0.0,0.873,0.0,20480.0,576209.600,2412521.800,0.0,0.0,0.0,6778.600
3.448,7.543,88.147,0.0,0.0,0.862,0.0,1638.400,576667.800,2415464.800,0.0,0.0,0.0,6827.400
3.838,7.463,87.633,0.0,0.0,1.066,0.0,819.200,573047.200,2410853.400,0.0,0.0,0.0,6600.0
3.463,7.792,87.879,0.0,0.0,0.866,0.0,3276.800,587477.800,2460363.800,0.0,0.0,0.0,7067.200
3.493,6.987,89.301,0.0,0.0,0.218,0.0,1638.400,564402.800,2363217.800,0.0,0.0,0.0,6697.400
3.863,6.867,88.627,0.0,0.0,0.644,0.0,819.200,576366.200,2425055.800,0.0,0.0,0.0,6789.400
3.011,7.742,88.172,0.430,0.0,0.645,0.0,22118.400,560688.400,2348403.400,0.0,0.0,0.0,6481.600
3.896,6.277,89.177,0.0,0.0,0.649,0.0,819.200,582108.400,2449927.800,0.0,0.0,0.0,6784.400
3.594,9.091,86.469,0.0,0.0,0.846,0.0,1638.400,575311.200,2409596.400,0.0,0.0,0.0,6795.200
4.506,7.082,87.554,0.0,0.0,0.858,0.0,1638.400,587081.400,2458580.0,0.0,0.0,0.0,6838.600
4.060,7.692,87.179,0.0,0.0,1.068,0.0,2457.600,577917.400,2430842.0,0.0,0.0,0.0,6930.400
3.433,6.867,88.412,0.0,0.0,1.288,0.0,1638.400,569072.200,2382333.0,0.0,0.0,0.0,6792.200
0.201,0.201,99.195,0.402,0.0,0.0,0.0,15564.800,6254.0,1869.600,0.0,0.0,0.0,76.800
