"Dstat 0.7.2 CSV output"
"Author:","Dag Wieers <dag@wieers.com>",,,,"URL:","http://dag.wieers.com/home-made/dstat/"
"Host:","Server1",,,,"User:","mstevan"
"Cmdline:","dstat --output /home/mstevan/logs/experiment_3.4/dstat/vs_256-vcpr_4-wtpm_32-rep_3.csv 5 16",,,,"Date:","28 Oct 2019 16:54:30 UTC"

"total cpu usage",,,,,,"dsk/total",,"net/total",,"paging",,"system",
"usr","sys","idl","wai","hiq","siq","read","writ","recv","send","in","out","int","csw"
5.803,14.056,77.527,0.217,0.0,2.396,6765.741,692993.644,0.0,0.0,0.0,0.0,0.060,3155.808
0.602,0.201,99.197,0.0,0.0,0.0,0.0,1638.400,11386.0,25979.400,0.0,0.0,0.0,185.600
3.728,6.798,88.596,0.0,0.0,0.877,0.0,1638.400,566558.800,2369545.200,0.0,0.0,0.0,6918.0
3.672,7.991,87.689,0.0,0.0,0.648,0.0,1638.400,613277.200,2568936.600,0.0,0.0,0.0,7381.800
3.448,8.621,86.422,0.0,0.0,1.509,0.0,2457.600,640864.400,2697177.800,0.0,0.0,0.0,7777.800
4.329,8.442,86.147,0.0,0.0,1.082,0.0,1638.400,640104.800,2682845.0,0.0,0.0,0.0,7686.800
4.449,9.322,85.381,0.0,0.0,0.847,0.0,819.200,635708.200,2673521.400,0.0,0.0,0.0,7631.800
3.728,7.675,87.719,0.439,0.0,0.439,0.0,31948.800,629989.400,2640495.200,0.0,0.0,0.0,7627.200
4.139,6.536,88.235,0.0,0.0,1.089,0.0,1638.400,623601.400,2612939.200,0.0,0.0,0.0,7506.200
3.478,8.478,87.174,0.0,0.0,0.870,0.0,819.200,623648.800,2625691.600,0.0,0.0,0.0,7640.600
4.104,10.367,84.665,0.0,0.0,0.864,0.0,1638.400,627895.800,2632031.400,0.0,0.0,0.0,7489.800
4.585,8.079,86.681,0.0,0.0,0.655,0.0,819.200,624399.200,2620990.600,0.0,0.0,0.0,7625.200
3.516,8.352,87.692,0.0,0.0,0.440,0.0,1638.400,629082.200,2643335.200,0.0,0.0,0.0,7571.400
4.095,8.621,85.560,0.647,0.0,1.078,0.0,15564.800,618243.400,2589764.600,0.0,0.0,0.0,7236.200
2.838,8.079,88.428,0.0,0.0,0.655,0.0,1638.400,625112.800,2631965.400,0.0,0.0,0.0,7298.200
3.254,9.328,86.985,0.0,0.0,0.434,0.0,2457.600,610218.0,2552956.400,0.0,0.0,0.0,7270.200
0.401,0.200,99.399,0.0,0.0,0.0,0.0,1638.400,6267.200,1869.600,0.0,0.0,0.0,73.600
