"Dstat 0.7.2 CSV output"
"Author:","Dag Wieers <dag@wieers.com>",,,,"URL:","http://dag.wieers.com/home-made/dstat/"
"Host:","Server1",,,,"User:","mstevan"
"Cmdline:","dstat --output /home/mstevan/logs/experiment_3.4/dstat/vs_256-vcpr_4-wtpm_8-rep_3.csv 5 16",,,,"Date:","28 Oct 2019 16:48:48 UTC"

"total cpu usage",,,,,,"dsk/total",,"net/total",,"paging",,"system",
"usr","sys","idl","wai","hiq","siq","read","writ","recv","send","in","out","int","csw"
5.794,14.096,77.508,0.198,0.0,2.405,4493.653,692535.649,0.0,0.0,0.0,0.0,0.060,3143.120
0.401,0.200,99.198,0.0,0.0,0.200,0.0,819.200,4290.600,2201.200,0.0,0.0,0.0,75.200
2.570,9.208,87.152,0.0,0.0,1.071,0.0,1638.400,599000.0,2508628.0,0.0,0.0,0.0,7276.800
3.050,8.497,87.582,0.436,0.0,0.436,0.0,22118.400,628133.0,2631079.800,0.0,0.0,0.0,7350.400
3.063,6.783,89.497,0.0,0.0,0.656,0.0,2457.600,629814.800,2652829.800,0.0,0.0,0.0,7271.0
3.433,9.442,86.052,0.0,0.0,1.073,0.0,1638.400,635624.800,2663532.0,0.0,0.0,0.0,7373.400
3.077,7.033,88.791,0.0,0.0,1.099,0.0,819.200,633340.800,2666666.200,0.0,0.0,0.0,7361.400
4.367,7.205,87.555,0.0,0.0,0.873,0.0,3276.800,645661.600,2705065.0,0.0,0.0,0.0,7454.400
3.501,7.221,88.840,0.0,0.0,0.438,0.0,1638.400,652484.200,2735237.800,0.0,0.0,0.0,7559.800
3.516,7.473,88.571,0.220,0.0,0.220,0.0,14745.600,648548.0,2732267.400,0.0,0.0,0.0,7637.0
4.320,8.423,86.393,0.0,0.0,0.864,0.0,1638.400,646794.400,2711687.600,0.0,0.0,0.0,7526.800
3.871,8.387,87.097,0.0,0.0,0.645,0.0,1638.400,623185.200,2611538.800,0.0,0.0,0.0,7064.600
2.820,8.243,88.069,0.0,0.0,0.868,0.0,819.200,640462.0,2697388.600,0.0,0.0,0.0,7543.400
3.712,7.424,88.210,0.0,0.0,0.655,0.0,1638.400,630076.400,2640665.400,0.0,0.0,0.0,7102.800
3.261,8.478,87.609,0.0,0.0,0.652,0.0,2457.600,638190.400,2687829.200,0.0,0.0,0.0,7425.800
3.956,7.912,86.813,0.440,0.0,0.879,0.0,14745.600,651327.800,2730129.800,0.0,0.0,0.0,7796.400
0.602,0.201,99.197,0.0,0.0,0.0,0.0,1638.400,6680.800,2549.0,0.0,0.0,0.0,83.400
