"Dstat 0.7.2 CSV output"
"Author:","Dag Wieers <dag@wieers.com>",,,,"URL:","http://dag.wieers.com/home-made/dstat/"
"Host:","Server1",,,,"User:","mstevan"
"Cmdline:","dstat --output /home/mstevan/logs/experiment_3.4/dstat/vs_256-vcpr_8-wtpm_64-rep_4.csv 5 16",,,,"Date:","28 Oct 2019 17:18:41 UTC"

"total cpu usage",,,,,,"dsk/total",,"net/total",,"paging",,"system",
"usr","sys","idl","wai","hiq","siq","read","writ","recv","send","in","out","int","csw"
5.740,13.882,77.795,0.214,0.0,2.369,6615.663,677726.770,0.0,0.0,0.0,0.0,0.058,3202.197
0.201,0.402,98.795,0.402,0.0,0.201,0.0,18022.400,13909.600,25612.0,0.0,0.0,0.0,205.400
4.017,10.148,82.241,0.0,0.0,3.594,0.0,4915.200,714657.800,2919629.800,0.0,0.0,0.0,7098.800
4.176,10.330,83.077,0.0,0.0,2.418,0.0,819.200,761343.600,3160331.600,0.0,0.0,0.0,7524.200
4.825,9.211,83.114,0.0,0.0,2.851,0.0,3276.800,764309.400,3182287.400,0.0,0.0,0.0,7252.600
4.626,9.692,83.260,0.0,0.0,2.423,0.0,1638.400,769806.800,3192162.800,0.0,0.0,0.0,7281.400
4.167,11.842,80.702,0.0,0.0,3.289,0.0,819.200,777549.800,3244036.800,0.0,0.0,0.0,7420.400
4.255,11.064,81.489,0.0,0.0,3.191,0.0,3276.800,778231.400,3234617.600,0.0,0.0,0.0,7456.200
4.077,10.944,81.760,0.215,0.0,3.004,0.0,15564.800,767814.600,3190277.200,0.0,0.0,0.0,7259.200
4.367,8.952,84.279,0.0,0.0,2.402,0.0,819.200,773608.0,3221005.200,0.0,0.0,0.0,7467.800
4.883,9.766,83.439,0.0,0.0,1.911,0.0,1638.400,773359.400,3204677.600,0.0,0.0,0.0,7680.400
3.493,9.170,84.716,0.0,0.0,2.620,0.0,1638.400,770922.200,3198788.400,0.0,0.0,0.0,7537.800
4.228,10.359,83.721,0.0,0.0,1.691,0.0,819.200,765256.800,3189996.800,0.0,0.0,0.0,7183.600
3.871,10.108,84.086,0.0,0.0,1.935,0.0,1638.400,771675.600,3201261.800,0.0,0.0,0.0,7391.400
3.247,7.792,85.714,0.433,0.0,2.814,0.0,16384.0,772408.0,3220826.0,0.0,0.0,0.0,7707.600
4.086,7.742,86.022,0.0,0.0,2.151,0.0,1638.400,767977.400,3188580.400,0.0,0.0,0.0,7000.600
0.202,0.202,99.597,0.0,0.0,0.0,0.0,1638.400,6254.0,1869.600,0.0,0.0,0.0,77.200
