"Dstat 0.7.2 CSV output"
"Author:","Dag Wieers <dag@wieers.com>",,,,"URL:","http://dag.wieers.com/home-made/dstat/"
"Host:","Server1",,,,"User:","mstevan"
"Cmdline:","dstat --output /home/mstevan/logs/experiment_3.4/dstat/vs_256-vcpr_8-wtpm_64-rep_2.csv 5 16",,,,"Date:","28 Oct 2019 17:15:50 UTC"

"total cpu usage",,,,,,"dsk/total",,"net/total",,"paging",,"system",
"usr","sys","idl","wai","hiq","siq","read","writ","recv","send","in","out","int","csw"
5.746,13.899,77.771,0.214,0.0,2.369,6632.974,679488.247,0.0,0.0,0.0,0.0,0.059,3194.634
0.201,0.402,99.195,0.0,0.0,0.201,0.0,1638.400,17272.800,27641.200,0.0,0.0,0.0,210.400
4.440,9.091,83.721,0.0,0.0,2.748,0.0,819.200,723089.800,2992727.400,0.0,0.0,0.0,7079.600
4.474,8.054,85.011,0.0,0.0,2.461,0.0,1638.400,763691.800,3169166.400,0.0,0.0,0.0,7255.0
4.357,8.497,84.967,0.0,0.0,2.179,0.0,3276.800,768535.0,3189951.0,0.0,0.0,0.0,7422.200
3.982,9.292,84.071,0.0,0.0,2.655,0.0,819.200,760262.0,3157305.400,0.0,0.0,0.0,7343.400
4.077,9.871,81.974,0.215,0.0,3.863,0.0,18841.600,763478.800,3152381.200,0.0,0.0,0.0,7552.800
5.077,10.155,82.781,0.0,0.0,1.987,0.0,2457.600,771181.400,3212293.200,0.0,0.0,0.0,7485.200
5.0,10.217,82.174,0.0,0.0,2.609,0.0,1638.400,778136.0,3228780.400,0.0,0.0,0.0,7467.600
3.501,9.847,84.683,0.0,0.0,1.969,0.0,1638.400,775408.400,3222532.800,0.0,0.0,0.0,7513.400
4.158,9.847,84.026,0.0,0.0,1.969,0.0,819.200,765899.400,3187581.0,0.0,0.0,0.0,7515.800
3.037,10.629,83.948,0.0,0.0,2.386,0.0,1638.400,766878.0,3178190.600,0.0,0.0,0.0,7340.800
4.536,10.367,82.289,0.216,0.0,2.592,0.0,22118.400,774751.600,3214869.600,0.0,0.0,0.0,7434.0
4.095,10.129,82.974,0.0,0.0,2.802,0.0,819.200,765627.0,3185395.0,0.0,0.0,0.0,7445.800
4.204,9.735,84.071,0.0,0.0,1.991,0.0,2457.600,772237.400,3193778.400,0.0,0.0,0.0,7513.600
3.656,8.817,84.301,0.0,0.0,3.226,0.0,1638.400,750006.800,3101550.400,0.0,0.0,0.0,7346.600
0.800,0.200,99.0,0.0,0.0,0.0,0.0,1638.400,6254.0,1869.600,0.0,0.0,0.0,71.200
