"Dstat 0.7.2 CSV output"
"Author:","Dag Wieers <dag@wieers.com>",,,,"URL:","http://dag.wieers.com/home-made/dstat/"
"Host:","Server1",,,,"User:","mstevan"
"Cmdline:","dstat --output /home/mstevan/logs/experiment_3.4/dstat/vs_512-vcpr_16-wtpm_8-rep_3.csv 5 16",,,,"Date:","28 Oct 2019 18:31:22 UTC"

"total cpu usage",,,,,,"dsk/total",,"net/total",,"paging",,"system",
"usr","sys","idl","wai","hiq","siq","read","writ","recv","send","in","out","int","csw"
5.582,13.448,78.481,0.203,0.0,2.286,6202.137,635645.286,0.0,0.0,0.0,0.0,0.055,3295.768
0.201,0.402,99.398,0.0,0.0,0.0,0.0,819.200,21981.800,131767.0,0.0,0.0,0.0,235.0
2.766,5.957,90.426,0.0,0.0,0.851,0.0,1638.400,653345.400,4711140.600,0.0,0.0,0.0,3010.0
2.954,6.540,89.873,0.0,0.0,0.633,0.0,819.200,652156.0,4726710.800,0.0,0.0,0.0,3390.600
3.390,5.932,89.195,0.636,0.0,0.847,0.0,20480.0,683693.600,4933593.800,0.0,0.0,0.0,3206.400
2.132,7.036,90.192,0.0,0.0,0.640,0.0,1638.400,676929.800,4885343.600,0.0,0.0,0.0,3003.600
2.516,6.709,90.147,0.0,0.0,0.629,0.0,819.200,676470.0,4904197.600,0.0,0.0,0.0,2744.200
2.960,5.920,90.275,0.0,0.0,0.846,0.0,3276.800,681671.600,4918103.200,0.0,0.0,0.0,2838.0
2.311,7.353,89.496,0.0,0.0,0.840,0.0,1638.400,670624.800,4838334.800,0.0,0.0,0.0,2703.600
3.602,6.144,89.831,0.0,0.0,0.424,0.0,819.200,684863.400,4966596.200,0.0,0.0,0.0,3009.800
2.553,6.383,89.787,0.426,0.0,0.851,0.0,18841.600,681495.600,4916954.200,0.0,0.0,0.0,2896.600
2.731,7.773,89.076,0.0,0.0,0.420,0.0,819.200,677714.800,4912677.400,0.0,0.0,0.0,2834.200
3.138,6.695,89.331,0.0,0.0,0.837,0.0,1638.400,679468.600,4904619.0,0.0,0.0,0.0,2821.600
3.219,5.794,90.773,0.0,0.0,0.215,0.0,1638.400,687597.0,4964115.800,0.0,0.0,0.0,2965.800
3.145,7.757,88.679,0.0,0.0,0.419,0.0,1638.400,673550.0,4878941.0,0.0,0.0,0.0,2827.400
3.376,6.118,89.873,0.0,0.0,0.633,0.0,2457.600,643104.600,4640227.0,0.0,0.0,0.0,2776.800
0.600,0.200,98.400,0.800,0.0,0.0,0.0,15564.800,6254.0,1869.600,0.0,0.0,0.0,77.400
