"Dstat 0.7.2 CSV output"
"Author:","Dag Wieers <dag@wieers.com>",,,,"URL:","http://dag.wieers.com/home-made/dstat/"
"Host:","Server1",,,,"User:","mstevan"
"Cmdline:","dstat --output /home/mstevan/logs/experiment_3.4/dstat/vs_512-vcpr_16-wtpm_32-rep_1.csv 5 16",,,,"Date:","28 Oct 2019 18:34:13 UTC"

"total cpu usage",,,,,,"dsk/total",,"net/total",,"paging",,"system",
"usr","sys","idl","wai","hiq","siq","read","writ","recv","send","in","out","int","csw"
5.573,13.426,78.516,0.203,0.0,2.281,6187.003,634105.258,0.0,0.0,0.0,0.0,0.055,3293.630
1.002,0.401,98.597,0.0,0.0,0.0,0.0,1638.400,21952.600,92392.600,0.0,0.0,0.0,227.0
5.531,10.398,82.301,0.0,0.0,1.770,0.0,1638.400,931810.200,6746120.600,0.0,0.0,0.0,6413.400
4.555,10.846,82.863,0.0,0.0,1.735,0.0,819.200,957539.600,6949535.0,0.0,0.0,0.0,6559.0
4.878,10.865,82.705,0.0,0.0,1.552,0.0,3276.800,987009.200,7140748.0,0.0,0.0,0.0,6479.800
3.753,10.155,84.768,0.0,0.0,1.325,0.0,819.200,959041.200,6960057.0,0.0,0.0,0.0,6714.800
5.819,11.638,80.603,0.431,0.0,1.509,0.0,19660.800,985804.800,7128783.400,0.0,0.0,0.0,6558.400
4.646,11.504,81.858,0.0,0.0,1.991,0.0,3276.800,994776.200,7201930.800,0.0,0.0,0.0,6416.200
4.626,9.912,84.361,0.0,0.0,1.101,0.0,819.200,991204.400,7196770.400,0.0,0.0,0.0,6427.800
5.217,11.522,81.739,0.0,0.0,1.522,0.0,1638.400,1001177.200,7248893.0,0.0,0.0,0.0,6475.400
6.508,10.412,81.996,0.0,0.0,1.085,0.0,1638.400,1023019.0,7406023.800,0.0,0.0,0.0,6164.0
3.297,11.648,83.736,0.0,0.0,1.319,0.0,819.200,1007516.0,7312038.200,0.0,0.0,0.0,6267.200
4.889,11.333,82.0,0.222,0.0,1.556,0.0,18841.600,1020713.600,7385302.0,0.0,0.0,0.0,6338.200
4.803,11.790,81.878,0.0,0.0,1.528,0.0,819.200,1000480.600,7264584.600,0.0,0.0,0.0,6360.800
4.933,10.090,83.184,0.0,0.0,1.794,0.0,3276.800,1012810.0,7328039.600,0.0,0.0,0.0,6380.400
5.055,9.451,84.176,0.0,0.0,1.319,0.0,1638.400,985399.600,7126412.0,0.0,0.0,0.0,6374.600
0.601,0.401,98.998,0.0,0.0,0.0,0.0,819.200,3699.200,1516.800,0.0,0.0,0.0,86.800
