"Dstat 0.7.2 CSV output"
"Author:","Dag Wieers <dag@wieers.com>",,,,"URL:","http://dag.wieers.com/home-made/dstat/"
"Host:","Server1",,,,"User:","mstevan"
"Cmdline:","dstat --output /home/mstevan/logs/experiment_3.4/dstat/vs_512-vcpr_32-wtpm_32-rep_2.csv 5 16",,,,"Date:","28 Oct 2019 18:52:42 UTC"

"total cpu usage",,,,,,"dsk/total",,"net/total",,"paging",,"system",
"usr","sys","idl","wai","hiq","siq","read","writ","recv","send","in","out","int","csw"
5.541,13.340,78.654,0.201,0.0,2.264,6090.391,624272.445,0.0,0.0,0.0,0.0,0.054,3310.661
0.200,0.200,99.599,0.0,0.0,0.0,0.0,819.200,7068.600,12841.200,0.0,0.0,0.0,115.600
5.215,12.698,80.499,0.0,0.0,1.587,0.0,1638.400,1094537.200,7918735.800,0.0,0.0,0.0,4977.0
4.222,11.556,82.222,0.0,0.0,2.0,0.0,1638.400,1175765.400,8520662.400,0.0,0.0,0.0,4680.600
4.328,12.301,81.549,0.228,0.0,1.595,0.0,19660.800,1139725.800,8266242.800,0.0,0.0,0.0,4555.200
5.618,11.461,81.348,0.0,0.0,1.573,0.0,1638.400,1156384.600,8379762.0,0.0,0.0,0.0,4700.0
4.922,13.647,80.537,0.0,0.0,0.895,0.0,1638.400,1172306.600,8496097.800,0.0,0.0,0.0,4698.400
5.0,13.182,79.545,0.0,0.0,2.273,0.0,2457.600,1160080.600,8429018.0,0.0,0.0,0.0,4724.800
3.812,11.659,82.735,0.0,0.0,1.794,0.0,1638.400,1182845.0,8558381.600,0.0,0.0,0.0,4863.800
5.470,11.160,81.619,0.0,0.0,1.751,0.0,819.200,1178272.600,8563038.600,0.0,0.0,0.0,4704.0
4.977,15.385,77.149,0.226,0.0,2.262,0.0,19660.800,1189964.600,8619517.0,0.0,0.0,0.0,4532.600
8.333,14.189,75.225,0.0,0.0,2.252,0.0,1638.400,1176697.400,8522304.600,0.0,0.0,0.0,4371.800
5.896,13.605,78.231,0.0,0.0,2.268,0.0,819.200,1185590.200,8612565.600,0.0,0.0,0.0,4491.0
5.192,13.544,79.007,0.0,0.0,2.257,0.0,1638.400,1196033.0,8665711.800,0.0,0.0,0.0,4639.200
5.442,13.379,80.045,0.0,0.0,1.134,0.0,1638.400,1166365.800,8451650.200,0.0,0.0,0.0,4548.800
5.011,12.528,79.954,0.0,0.0,2.506,0.0,2457.600,1179017.0,8561179.600,0.0,0.0,0.0,4677.800
0.405,0.810,98.178,0.607,0.0,0.0,0.0,15564.800,68597.200,450014.800,0.0,0.0,0.0,602.600
