"Dstat 0.7.2 CSV output"
"Author:","Dag Wieers <dag@wieers.com>",,,,"URL:","http://dag.wieers.com/home-made/dstat/"
"Host:","Server1",,,,"User:","mstevan"
"Cmdline:","dstat --output /home/mstevan/logs/experiment_3.4/dstat/vs_512-vcpr_8-wtpm_32-rep_1.csv 5 16",,,,"Date:","28 Oct 2019 18:17:08 UTC"

"total cpu usage",,,,,,"dsk/total",,"net/total",,"paging",,"system",
"usr","sys","idl","wai","hiq","siq","read","writ","recv","send","in","out","int","csw"
5.613,13.532,78.349,0.205,0.0,2.301,6278.957,643463.100,0.0,0.0,0.0,0.0,0.056,3271.812
0.602,0.402,98.996,0.0,0.0,0.0,0.0,1638.400,16324.200,56957.600,0.0,0.0,0.0,207.0
4.255,9.149,85.532,0.213,0.0,0.851,0.0,13926.400,717610.400,5201819.200,0.0,0.0,0.0,7234.600
4.565,9.348,85.0,0.217,0.0,0.870,0.0,21299.200,764100.600,5520422.400,0.0,0.0,0.0,7228.200
4.139,9.804,84.967,0.0,0.0,1.089,0.0,2457.600,776828.400,5612106.800,0.0,0.0,0.0,7191.400
4.565,11.957,82.174,0.0,0.0,1.304,0.0,1638.400,772181.200,5593638.400,0.0,0.0,0.0,7138.0
5.459,8.515,84.716,0.0,0.0,1.310,0.0,3276.800,769335.0,5561868.200,0.0,0.0,0.0,7219.600
3.125,9.598,86.384,0.0,0.0,0.893,0.0,2457.600,772757.600,5605691.200,0.0,0.0,0.0,7047.400
4.825,11.184,82.675,0.0,0.0,1.316,0.0,1638.400,772924.600,5581121.600,0.0,0.0,0.0,7187.200
5.252,9.847,83.151,0.219,0.0,1.532,0.0,15564.800,786309.600,5681535.0,0.0,0.0,0.0,6983.0
3.050,10.458,85.621,0.0,0.0,0.871,0.0,819.200,772496.600,5600129.400,0.0,0.0,0.0,7144.800
3.922,8.061,87.364,0.0,0.0,0.654,0.0,1638.400,778473.800,5628438.800,0.0,0.0,0.0,6806.400
4.536,7.775,86.393,0.0,0.0,1.296,0.0,1638.400,764266.400,5521418.600,0.0,0.0,0.0,6623.200
4.185,9.692,84.802,0.0,0.0,1.322,0.0,819.200,780821.400,5663821.400,0.0,0.0,0.0,6964.200
5.066,10.793,83.040,0.0,0.0,1.101,0.0,3276.800,782787.200,5657235.400,0.0,0.0,0.0,7102.800
3.084,9.692,86.123,0.441,0.0,0.661,0.0,18022.400,755889.200,5477110.400,0.0,0.0,0.0,7068.400
0.401,0.401,99.198,0.0,0.0,0.0,0.0,1638.400,6267.200,1869.600,0.0,0.0,0.0,79.200
