"Dstat 0.7.2 CSV output"
"Author:","Dag Wieers <dag@wieers.com>",,,,"URL:","http://dag.wieers.com/home-made/dstat/"
"Host:","Server1",,,,"User:","mstevan"
"Cmdline:","dstat --output /home/mstevan/logs/experiment_3.4/dstat/vs_512-vcpr_32-wtpm_32-rep_3.csv 5 16",,,,"Date:","28 Oct 2019 18:54:07 UTC"

"total cpu usage",,,,,,"dsk/total",,"net/total",,"paging",,"system",
"usr","sys","idl","wai","hiq","siq","read","writ","recv","send","in","out","int","csw"
5.540,13.336,78.661,0.201,0.0,2.263,6083.078,623528.321,0.0,0.0,0.0,0.0,0.054,3311.323
0.600,0.200,99.200,0.0,0.0,0.0,0.0,819.200,11392.200,41920.200,0.0,0.0,0.0,157.800
6.546,12.641,78.555,0.0,0.0,2.257,0.0,1638.400,1126466.600,8155711.800,0.0,0.0,0.0,5108.600
6.264,13.870,78.300,0.0,0.0,1.566,0.0,819.200,1175847.800,8542546.400,0.0,0.0,0.0,4951.0
5.459,11.790,81.223,0.0,0.0,1.528,0.0,2457.600,1146411.200,8299155.800,0.0,0.0,0.0,4936.200
6.122,13.152,77.551,0.227,0.0,2.948,0.0,19660.800,1161915.400,8415710.400,0.0,0.0,0.0,4745.0
5.455,13.864,78.636,0.0,0.0,2.045,0.0,4096.0,1165345.800,8460382.600,0.0,0.0,0.0,4563.600
6.546,11.964,79.007,0.0,0.0,2.483,0.0,3276.800,1187325.400,8606036.0,0.0,0.0,0.0,4573.200
5.556,12.667,79.778,0.0,0.0,2.0,0.0,1638.400,1182316.400,8559844.200,0.0,0.0,0.0,4559.800
5.973,14.159,78.097,0.0,0.0,1.770,0.0,819.200,1190161.800,8639855.0,0.0,0.0,0.0,4525.400
5.482,14.035,78.728,0.0,0.0,1.754,0.0,1638.400,1188799.200,8614908.200,0.0,0.0,0.0,4626.200
5.357,12.946,80.580,0.0,0.0,1.116,0.0,819.200,1180919.400,8577772.200,0.0,0.0,0.0,4599.400
4.605,12.281,81.360,0.219,0.0,1.535,0.0,15564.800,1198911.800,8686231.400,0.0,0.0,0.0,4742.0
5.482,11.623,81.140,0.0,0.0,1.754,0.0,1638.400,1194367.200,8655948.800,0.0,0.0,0.0,4702.800
4.425,12.168,81.416,0.0,0.0,1.991,0.0,2457.600,1188929.400,8635640.600,0.0,0.0,0.0,4739.800
4.338,10.412,83.731,0.0,0.0,1.518,0.0,1638.400,1175255.200,8508768.800,0.0,0.0,0.0,4912.0
0.402,0.402,99.197,0.0,0.0,0.0,0.0,1638.400,12912.400,28746.0,0.0,0.0,0.0,160.600
