"Dstat 0.7.2 CSV output"
"Author:","Dag Wieers <dag@wieers.com>",,,,"URL:","http://dag.wieers.com/home-made/dstat/"
"Host:","Server1",,,,"User:","mstevan"
"Cmdline:","dstat --output /home/mstevan/logs/experiment_3.4/dstat/vs_512-vcpr_4-wtpm_64-rep_4.csv 5 16",,,,"Date:","28 Oct 2019 18:10:02 UTC"

"total cpu usage",,,,,,"dsk/total",,"net/total",,"paging",,"system",
"usr","sys","idl","wai","hiq","siq","read","writ","recv","send","in","out","int","csw"
5.633,13.585,78.265,0.206,0.0,2.311,6318.078,647442.037,0.0,0.0,0.0,0.0,0.056,3271.382
0.400,0.600,98.800,0.0,0.0,0.200,0.0,1638.400,19340.400,54840.600,0.0,0.0,0.0,249.0
3.412,7.889,86.354,0.0,0.0,2.345,0.0,1638.400,587113.0,4093604.800,0.0,0.0,0.0,7074.800
3.648,8.584,86.052,0.0,0.0,1.717,0.0,2457.600,597373.0,4235679.0,0.0,0.0,0.0,6937.400
3.441,7.527,86.022,0.430,0.0,2.581,0.0,38502.400,623938.600,4466558.200,0.0,0.0,0.0,7528.800
4.274,8.974,84.615,0.0,0.0,2.137,0.0,1638.400,621072.600,4423998.200,0.0,0.0,0.0,7376.800
3.930,8.515,85.808,0.0,0.0,1.747,0.0,1638.400,628298.0,4464813.0,0.0,0.0,0.0,7618.200
4.412,8.403,84.664,0.0,0.0,2.521,0.0,2457.600,606343.400,4289984.800,0.0,0.0,0.0,7388.400
4.671,8.917,84.289,0.0,0.0,2.123,0.0,1638.400,629640.200,4495103.0,0.0,0.0,0.0,7531.0
4.069,8.565,84.582,0.0,0.0,2.784,0.0,1638.400,627471.400,4460921.0,0.0,0.0,0.0,7316.800
3.516,7.912,86.374,0.440,0.0,1.758,0.0,18841.600,629802.800,4531837.800,0.0,0.0,0.0,7375.800
3.030,9.091,85.065,0.0,0.0,2.814,0.0,1638.400,633437.400,4515729.0,0.0,0.0,0.0,7440.200
2.649,7.947,87.638,0.0,0.0,1.766,0.0,819.200,627834.0,4509534.0,0.0,0.0,0.0,7555.800
4.310,9.052,85.560,0.0,0.0,1.078,0.0,1638.400,626797.200,4471786.800,0.0,0.0,0.0,7570.0
3.602,9.746,84.746,0.0,0.0,1.907,0.0,3276.800,633905.800,4533345.0,0.0,0.0,0.0,7321.0
3.441,9.247,85.806,0.0,0.0,1.505,0.0,819.200,624412.600,4480900.400,0.0,0.0,0.0,7479.0
0.201,0.402,98.996,0.402,0.0,0.0,0.0,18841.600,6267.200,1869.600,0.0,0.0,0.0,74.200
