"Dstat 0.7.2 CSV output"
"Author:","Dag Wieers <dag@wieers.com>",,,,"URL:","http://dag.wieers.com/home-made/dstat/"
"Host:","Server1",,,,"User:","mstevan"
"Cmdline:","dstat --output /home/mstevan/logs/experiment_3.4/dstat/vs_512-vcpr_4-wtpm_32-rep_1.csv 5 16",,,,"Date:","28 Oct 2019 18:00:04 UTC"

"total cpu usage",,,,,,"dsk/total",,"net/total",,"paging",,"system",
"usr","sys","idl","wai","hiq","siq","read","writ","recv","send","in","out","int","csw"
5.656,13.648,78.166,0.208,0.0,2.322,6373.667,653098.083,0.0,0.0,0.0,0.0,0.056,3246.848
0.800,0.400,98.800,0.0,0.0,0.0,0.0,1638.400,17506.800,64411.400,0.0,0.0,0.0,228.600
3.463,8.658,87.013,0.216,0.0,0.649,0.0,18841.600,562207.400,4048512.200,0.0,0.0,0.0,7005.0
2.586,9.914,87.069,0.0,0.0,0.431,0.0,5734.400,610928.0,4425925.200,0.0,0.0,0.0,7219.200
3.656,8.172,86.882,0.0,0.0,1.290,0.0,2457.600,608619.600,4387151.200,0.0,0.0,0.0,7596.600
4.741,10.345,84.267,0.0,0.0,0.647,0.0,819.200,617750.200,4470997.400,0.0,0.0,0.0,7612.200
3.493,9.170,86.681,0.0,0.0,0.655,0.0,1638.400,616775.0,4446720.400,0.0,0.0,0.0,7425.600
4.320,9.719,85.097,0.0,0.0,0.864,0.0,3276.800,632575.600,4562710.200,0.0,0.0,0.0,7646.200
4.320,7.775,86.825,0.0,0.0,1.080,0.0,819.200,620267.600,4492669.200,0.0,0.0,0.0,7434.0
3.736,8.352,86.813,0.220,0.0,0.879,0.0,15564.800,619925.0,4471421.800,0.0,0.0,0.0,7433.0
2.832,8.932,87.146,0.0,0.0,1.089,0.0,1638.400,616834.200,4447764.800,0.0,0.0,0.0,7229.400
3.501,8.972,86.433,0.0,0.0,1.094,0.0,819.200,629022.0,4558095.600,0.0,0.0,0.0,7487.600
3.493,9.170,86.463,0.0,0.0,0.873,0.0,1638.400,633027.600,4567250.0,0.0,0.0,0.0,7636.400
3.532,6.843,88.521,0.0,0.0,1.104,0.0,1638.400,624773.0,4527101.400,0.0,0.0,0.0,7384.200
3.587,7.175,87.668,0.0,0.0,1.570,0.0,2457.600,632950.400,4566926.600,0.0,0.0,0.0,7618.0
2.667,8.667,87.778,0.222,0.0,0.667,0.0,18841.600,614765.200,4426208.600,0.0,0.0,0.0,7393.400
0.200,0.200,99.599,0.0,0.0,0.0,0.0,819.200,3167.0,1005.600,0.0,0.0,0.0,64.800
