"Dstat 0.7.2 CSV output"
"Author:","Dag Wieers <dag@wieers.com>",,,,"URL:","http://dag.wieers.com/home-made/dstat/"
"Host:","Server1",,,,"User:","mstevan"
"Cmdline:","dstat --output /home/mstevan/logs/experiment_3.4/dstat/vs_512-vcpr_32-wtpm_8-rep_4.csv 5 16",,,,"Date:","28 Oct 2019 18:49:51 UTC"

"total cpu usage",,,,,,"dsk/total",,"net/total",,"paging",,"system",
"usr","sys","idl","wai","hiq","siq","read","writ","recv","send","in","out","int","csw"
5.547,13.354,78.631,0.201,0.0,2.267,6105.056,625764.748,0.0,0.0,0.0,0.0,0.054,3311.018
0.0,0.402,98.996,0.402,0.0,0.201,0.0,18022.400,14968.0,82376.400,0.0,0.0,0.0,171.600
2.516,5.451,91.405,0.0,0.0,0.629,0.0,819.200,623771.600,4517635.400,0.0,0.0,0.0,2781.400
2.947,6.316,89.895,0.0,0.0,0.842,0.0,1638.400,644304.800,4649658.0,0.0,0.0,0.0,3070.800
2.559,6.397,90.405,0.0,0.0,0.640,0.0,2457.600,675467.800,4875794.400,0.0,0.0,0.0,2917.800
2.137,6.197,91.026,0.0,0.0,0.641,0.0,1638.400,675606.600,4896183.400,0.0,0.0,0.0,2980.400
2.754,5.720,90.466,0.0,0.0,1.059,0.0,1638.400,672354.200,4848974.0,0.0,0.0,0.0,3070.0
2.361,6.009,90.558,0.0,0.0,1.073,0.0,3276.800,685953.0,4951054.800,0.0,0.0,0.0,3080.600
3.609,4.883,90.446,0.637,0.0,0.425,0.0,21299.200,672191.800,4872266.800,0.0,0.0,0.0,2851.600
3.178,6.568,89.619,0.0,0.0,0.636,0.0,1638.400,660859.0,4765274.200,0.0,0.0,0.0,2751.400
3.758,7.098,88.727,0.0,0.0,0.418,0.0,1638.400,666565.200,4811071.800,0.0,0.0,0.0,2714.0
2.548,7.006,89.809,0.0,0.0,0.637,0.0,819.200,672493.0,4877123.800,0.0,0.0,0.0,3061.800
2.960,6.342,90.063,0.0,0.0,0.634,0.0,1638.400,659384.0,4755970.0,0.0,0.0,0.0,2816.800
2.311,5.882,91.176,0.0,0.0,0.630,0.0,819.200,608168.0,4402799.0,0.0,0.0,0.0,2394.0
3.782,6.303,88.866,0.210,0.0,0.840,0.0,16384.0,674611.200,4866377.800,0.0,0.0,0.0,2711.200
4.115,6.790,87.860,0.0,0.0,1.235,0.0,1638.400,656986.0,4741451.0,0.0,0.0,0.0,2736.400
0.0,0.607,99.393,0.0,0.0,0.0,0.0,819.200,24360.400,154812.400,0.0,0.0,0.0,387.200
