"Dstat 0.7.2 CSV output"
"Author:","Dag Wieers <dag@wieers.com>",,,,"URL:","http://dag.wieers.com/home-made/dstat/"
"Host:","Server1",,,,"User:","mstevan"
"Cmdline:","dstat --output /home/mstevan/logs/experiment_3.4/dstat/vs_512-vcpr_4-wtpm_8-rep_4.csv 5 16",,,,"Date:","28 Oct 2019 17:58:39 UTC"

"total cpu usage",,,,,,"dsk/total",,"net/total",,"paging",,"system",
"usr","sys","idl","wai","hiq","siq","read","writ","recv","send","in","out","int","csw"
5.660,13.658,78.149,0.208,0.0,2.324,6381.691,653914.719,0.0,0.0,0.0,0.0,0.056,3243.952
0.201,0.402,98.793,0.604,0.0,0.0,0.0,18841.600,13855.0,52354.200,0.0,0.0,0.0,195.200
3.838,6.397,89.339,0.0,0.0,0.426,0.0,1638.400,497169.200,3575347.600,0.0,0.0,0.0,6054.600
2.979,8.511,88.085,0.0,0.0,0.426,0.0,819.200,541549.0,3921237.200,0.0,0.0,0.0,6477.200
3.247,7.576,88.745,0.0,0.0,0.433,0.0,3276.800,573920.200,4134994.600,0.0,0.0,0.0,6730.0
3.426,7.923,88.009,0.0,0.0,0.642,0.0,1638.400,580269.200,4182956.800,0.0,0.0,0.0,6815.0
3.594,8.245,87.526,0.0,0.0,0.634,0.0,819.200,573067.0,4149566.200,0.0,0.0,0.0,6669.600
4.043,8.298,86.809,0.0,0.0,0.851,0.0,3276.800,584686.800,4212641.0,0.0,0.0,0.0,6819.0
2.991,8.761,86.966,0.214,0.0,1.068,0.0,18022.400,583808.200,4229107.400,0.0,0.0,0.0,6910.400
3.017,7.543,89.009,0.0,0.0,0.431,0.0,1638.400,578713.200,4171706.200,0.0,0.0,0.0,6746.0
4.310,8.190,86.853,0.0,0.0,0.647,0.0,1638.400,591992.0,4262822.600,0.0,0.0,0.0,6929.200
2.381,7.792,89.394,0.0,0.0,0.433,0.0,819.200,581185.600,4212213.600,0.0,0.0,0.0,6934.600
3.471,6.941,88.937,0.0,0.0,0.651,0.0,1638.400,581573.600,4191332.0,0.0,0.0,0.0,6921.0
2.998,8.137,88.223,0.0,0.0,0.642,0.0,1638.400,583139.200,4202376.200,0.0,0.0,0.200,6725.0
3.212,8.137,87.794,0.214,0.0,0.642,0.0,16384.0,581033.600,4210029.800,0.0,0.0,0.0,7007.0
2.548,8.705,87.898,0.0,0.0,0.849,0.0,1638.400,564419.0,4064872.400,0.0,0.0,0.0,6624.600
0.601,0.200,99.198,0.0,0.0,0.0,0.0,1638.400,6254.0,1869.600,0.0,0.0,0.0,74.200
