"Dstat 0.7.2 CSV output"
"Author:","Dag Wieers <dag@wieers.com>",,,,"URL:","http://dag.wieers.com/home-made/dstat/"
"Host:","Server1",,,,"User:","mstevan"
"Cmdline:","dstat --output /home/mstevan/logs/experiment_3.4/dstat/vs_512-vcpr_32-wtpm_8-rep_1.csv 5 16",,,,"Date:","28 Oct 2019 18:45:35 UTC"

"total cpu usage",,,,,,"dsk/total",,"net/total",,"paging",,"system",
"usr","sys","idl","wai","hiq","siq","read","writ","recv","send","in","out","int","csw"
5.559,13.386,78.580,0.202,0.0,2.274,6127.193,628018.295,0.0,0.0,0.0,0.0,0.054,3314.369
0.402,0.402,99.195,0.0,0.0,0.0,0.0,1638.400,16493.800,72230.800,0.0,0.0,0.0,160.0
2.532,6.540,90.084,0.0,0.0,0.844,0.0,819.200,648023.400,4690809.600,0.0,0.0,0.0,2944.0
2.708,7.292,88.750,0.0,0.0,1.250,0.0,1638.400,663462.800,4791367.800,0.0,0.0,0.0,3141.800
3.165,6.540,89.241,0.633,0.0,0.422,0.0,20480.0,666769.400,4814087.400,0.0,0.0,0.0,2551.200
2.532,6.962,90.084,0.0,0.0,0.422,0.0,1638.400,665528.400,4823658.800,0.0,0.0,0.0,2646.400
2.772,4.904,91.684,0.0,0.0,0.640,0.0,1638.400,632863.0,4557473.400,0.0,0.0,0.0,2426.600
2.526,6.526,89.895,0.0,0.0,1.053,0.0,3276.800,650501.800,4694081.600,0.0,0.0,0.0,2649.800
2.510,5.439,91.004,0.0,0.0,1.046,0.0,819.200,622876.0,4512514.400,0.0,0.0,0.0,2377.200
2.516,6.709,89.937,0.0,0.0,0.839,0.0,1638.400,656881.0,4742417.800,0.0,0.0,0.0,2739.400
2.954,6.751,89.873,0.0,0.0,0.422,0.0,1638.400,673304.800,4858682.200,0.0,0.0,0.200,2757.600
3.782,5.672,89.076,0.840,0.0,0.630,0.0,22118.400,679640.400,4927287.400,0.0,0.0,0.0,2824.200
2.119,7.839,89.407,0.0,0.0,0.636,0.0,1638.400,676156.0,4879347.0,0.0,0.0,0.0,2664.800
3.390,6.144,89.831,0.0,0.0,0.636,0.0,819.200,677117.800,4902986.200,0.0,0.0,0.0,2844.600
2.105,7.368,90.105,0.0,0.0,0.421,0.0,3276.800,664296.200,4791883.200,0.0,0.0,0.0,2733.200
2.808,4.968,91.577,0.0,0.0,0.648,0.0,1638.400,675983.600,4876851.0,0.0,0.0,0.0,2811.600
0.0,0.201,99.799,0.0,0.0,0.0,0.0,819.200,3167.0,1005.600,0.0,0.0,0.0,62.200
