"Dstat 0.7.2 CSV output"
"Author:","Dag Wieers <dag@wieers.com>",,,,"URL:","http://dag.wieers.com/home-made/dstat/"
"Host:","Server1",,,,"User:","mstevan"
"Cmdline:","dstat --output /home/mstevan/logs/experiment_3.4/dstat/vs_512-vcpr_32-wtpm_64-rep_1.csv 5 16",,,,"Date:","28 Oct 2019 18:56:58 UTC"

"total cpu usage",,,,,,"dsk/total",,"net/total",,"paging",,"system",
"usr","sys","idl","wai","hiq","siq","read","writ","recv","send","in","out","int","csw"
5.537,13.328,78.674,0.200,0.0,2.261,6068.516,622045.433,0.0,0.0,0.0,0.0,0.054,3312.859
0.402,0.602,98.394,0.402,0.0,0.201,0.0,19660.800,19150.400,57026.600,0.0,0.0,0.0,238.800
4.009,12.027,81.514,0.0,0.0,2.450,0.0,819.200,1112171.200,8055241.600,0.0,0.0,0.0,5861.800
5.952,12.619,80.0,0.0,0.0,1.429,0.0,1638.400,1179933.200,8553236.200,0.0,0.0,0.0,5451.600
6.364,14.091,77.727,0.0,0.0,1.818,0.0,2457.600,1151332.800,8336484.0,0.0,0.0,0.0,5821.400
5.631,12.613,79.505,0.0,0.0,2.252,0.0,1638.400,1144553.400,8305485.0,0.0,0.0,0.0,5889.800
5.708,12.785,78.995,0.0,0.0,2.511,0.0,1638.400,1149892.200,8323444.600,0.0,0.0,0.0,5774.600
5.418,11.512,80.813,0.0,0.0,2.257,0.0,2457.600,1147248.0,8334157.800,0.0,0.0,0.0,5929.200
5.987,16.851,74.279,0.443,0.0,2.439,0.0,18841.600,1171582.600,8475784.200,0.0,0.0,0.0,5704.600
5.066,14.317,78.414,0.0,0.0,2.203,0.0,1638.400,1167606.0,8460149.200,0.0,0.0,0.0,5776.0
6.517,15.056,77.079,0.0,0.0,1.348,0.0,819.200,1155431.800,8390644.0,0.0,0.0,0.0,5649.0
5.938,14.014,77.435,0.0,0.0,2.613,0.0,1638.400,1189194.800,8611514.800,0.0,0.0,0.0,5406.200
5.687,14.692,76.777,0.0,0.0,2.844,0.0,819.200,1178569.200,8555410.200,0.0,0.0,0.0,5303.0
6.542,12.617,78.505,0.0,0.0,2.336,0.0,1638.400,1192922.800,8644976.800,0.0,0.0,0.0,5437.200
5.418,15.124,76.298,0.451,0.0,2.709,0.0,16384.0,1184002.600,8578838.600,0.0,0.0,0.0,5488.0
6.264,11.633,79.642,0.0,0.0,2.461,0.0,1638.400,1152056.600,8355885.400,0.0,0.0,0.0,5531.200
0.402,0.201,99.398,0.0,0.0,0.0,0.0,1638.400,6254.0,1856.400,0.0,0.0,0.0,74.200
