"Dstat 0.7.2 CSV output"
"Author:","Dag Wieers <dag@wieers.com>",,,,"URL:","http://dag.wieers.com/home-made/dstat/"
"Host:","Server1",,,,"User:","mstevan"
"Cmdline:","dstat --output /home/mstevan/logs/experiment_3.4/dstat/vs_512-vcpr_8-wtpm_8-rep_4.csv 5 16",,,,"Date:","28 Oct 2019 18:15:43 UTC"

"total cpu usage",,,,,,"dsk/total",,"net/total",,"paging",,"system",
"usr","sys","idl","wai","hiq","siq","read","writ","recv","send","in","out","int","csw"
5.617,13.543,78.331,0.205,0.0,2.303,6286.740,644255.074,0.0,0.0,0.0,0.0,0.056,3272.770
0.802,0.0,98.597,0.601,0.0,0.0,0.0,18841.600,10146.800,24351.600,0.0,0.0,0.0,117.200
2.340,6.383,90.426,0.0,0.0,0.851,0.0,1638.400,631859.800,4558740.600,0.0,0.0,0.0,3079.200
2.123,5.945,91.083,0.0,0.0,0.849,0.0,819.200,628564.400,4553419.600,0.0,0.0,0.0,2764.200
1.895,7.368,89.895,0.0,0.0,0.842,0.0,3276.800,659573.200,4759987.200,0.0,0.0,0.0,2832.0
2.731,7.143,89.496,0.0,0.0,0.630,0.0,819.200,691744.600,5013539.800,0.0,0.0,0.0,3040.800
2.708,7.500,88.542,0.0,0.0,1.250,0.0,1638.400,681824.600,4920227.200,0.0,0.0,0.0,2965.0
2.954,6.118,90.084,0.0,0.0,0.844,0.0,3276.800,661912.200,4777567.400,0.0,0.0,0.0,2808.400
2.371,4.957,92.026,0.431,0.0,0.216,0.0,18022.400,677111.400,4909017.200,0.0,0.0,0.0,3034.800
3.145,7.757,88.470,0.0,0.0,0.629,0.0,1638.400,709320.400,5119868.0,0.0,0.0,0.0,3239.800
3.212,5.567,90.364,0.0,0.0,0.857,0.0,1638.400,687113.800,4952945.600,0.0,0.0,0.0,2977.400
2.340,6.809,90.426,0.0,0.0,0.426,0.0,819.200,697415.0,5056725.400,0.0,0.0,0.0,2934.800
2.366,6.022,91.183,0.0,0.0,0.430,0.0,1638.400,679664.800,4906291.0,0.0,0.0,0.0,2818.600
3.205,5.983,90.385,0.0,0.0,0.427,0.0,1638.400,679171.0,4901942.200,0.0,0.0,0.0,3316.200
3.347,6.695,88.703,0.418,0.0,0.837,0.0,16384.0,696670.0,5051472.200,0.0,0.0,0.0,3260.0
2.376,5.616,91.361,0.0,0.0,0.648,0.0,1638.400,676365.800,4880119.800,0.0,0.0,0.0,3279.0
0.402,0.201,99.396,0.0,0.0,0.0,0.0,819.200,3167.0,1005.600,0.0,0.0,0.0,79.400
