"Dstat 0.7.2 CSV output"
"Author:","Dag Wieers <dag@wieers.com>",,,,"URL:","http://dag.wieers.com/home-made/dstat/"
"Host:","Server1",,,,"User:","mstevan"
"Cmdline:","dstat --output /home/mstevan/logs/experiment_3.4/dstat/vs_512-vcpr_8-wtpm_32-rep_3.csv 5 16",,,,"Date:","28 Oct 2019 18:19:59 UTC"

"total cpu usage",,,,,,"dsk/total",,"net/total",,"paging",,"system",
"usr","sys","idl","wai","hiq","siq","read","writ","recv","send","in","out","int","csw"
5.607,13.517,78.375,0.205,0.0,2.297,6263.439,641884.996,0.0,0.0,0.0,0.0,0.055,3278.197
0.402,0.201,99.396,0.0,0.0,0.0,0.0,819.200,18856.400,96905.600,0.0,0.0,0.0,259.800
5.579,8.584,85.193,0.0,0.0,0.644,0.0,1638.400,710495.400,5128388.200,0.0,0.0,0.0,6961.400
3.275,7.424,87.991,0.0,0.0,1.310,0.0,819.200,742937.200,5387838.400,0.0,0.0,0.0,7103.800
3.540,10.619,84.513,0.0,0.0,1.327,0.0,3276.800,759441.600,5486410.800,0.0,0.0,0.0,7199.200
3.896,10.390,84.199,0.216,0.0,1.299,0.0,22118.400,764805.600,5523536.400,0.0,0.0,0.0,7314.800
4.338,8.677,86.117,0.0,0.0,0.868,0.0,819.200,766305.400,5559437.400,0.0,0.0,0.200,7453.800
5.217,10.217,83.261,0.0,0.0,1.304,0.0,3276.800,768252.200,5547674.200,0.0,0.0,0.0,7228.0
3.974,9.272,86.093,0.0,0.0,0.662,0.0,1638.400,768692.0,5551953.400,0.0,0.0,0.0,7259.400
4.605,8.553,86.184,0.0,0.0,0.658,0.0,819.200,766863.400,5561048.0,0.0,0.0,0.0,7104.400
3.728,10.526,84.868,0.0,0.0,0.877,0.0,1638.400,768207.800,5548043.200,0.0,0.0,0.0,7137.600
4.148,8.515,85.371,0.437,0.0,1.528,0.0,14745.600,772873.0,5590368.200,0.0,0.0,0.0,7204.200
3.974,8.389,86.093,0.0,0.0,1.545,0.0,1638.400,771880.400,5593200.0,0.0,0.0,0.0,7383.200
4.636,8.168,86.313,0.0,0.0,0.883,0.0,1638.400,756842.800,5465672.200,0.0,0.0,0.0,7108.600
3.712,8.952,85.808,0.0,0.0,1.528,0.0,2457.600,770684.200,5594074.200,0.0,0.0,0.0,7042.0
3.982,10.177,85.177,0.0,0.0,0.664,0.0,1638.400,743464.600,5364037.200,0.0,0.0,0.0,6895.0
0.402,0.402,99.197,0.0,0.0,0.0,0.0,1638.400,6267.200,1869.600,0.0,0.0,0.0,73.600
