"Dstat 0.7.2 CSV output"
"Author:","Dag Wieers <dag@wieers.com>",,,,"URL:","http://dag.wieers.com/home-made/dstat/"
"Host:","Server1",,,,"User:","mstevan"
"Cmdline:","dstat --output /home/mstevan/logs/experiment_3.4/dstat/vs_512-vcpr_8-wtpm_32-rep_4.csv 5 16",,,,"Date:","28 Oct 2019 18:21:24 UTC"

"total cpu usage",,,,,,"dsk/total",,"net/total",,"paging",,"system",
"usr","sys","idl","wai","hiq","siq","read","writ","recv","send","in","out","int","csw"
5.604,13.509,78.388,0.205,0.0,2.295,6255.716,641099.002,0.0,0.0,0.0,0.0,0.055,3281.443
0.604,0.201,99.195,0.0,0.0,0.0,0.0,1638.400,13550.400,36795.200,0.0,0.0,0.0,160.600
4.526,11.638,82.974,0.0,0.0,0.862,0.0,1638.400,708380.600,5110201.200,0.0,0.0,0.0,7097.800
4.825,7.895,86.184,0.0,0.0,1.096,0.0,819.200,748493.800,5426236.400,0.0,0.0,0.0,7122.800
4.357,8.932,85.839,0.0,0.0,0.871,0.0,2457.600,759336.400,5487779.200,0.0,0.0,0.0,6947.400
3.556,10.667,84.444,0.0,0.0,1.333,0.0,1638.400,761358.400,5518689.400,0.0,0.0,0.0,7279.400
4.425,8.850,85.398,0.221,0.0,1.106,0.0,18841.600,756377.0,5463309.0,0.0,0.0,0.0,7419.200
3.922,9.586,85.185,0.0,0.0,1.307,0.0,3276.800,757161.400,5472424.800,0.0,0.0,0.0,7219.0
4.069,8.779,85.867,0.0,0.0,1.285,0.0,819.200,748370.0,5425670.0,0.0,0.0,0.0,7039.600
4.167,7.456,87.061,0.0,0.0,1.316,0.0,1638.400,759494.200,5485956.0,0.0,0.0,0.0,6950.0
3.333,9.556,86.444,0.0,0.0,0.667,0.0,1638.400,761615.800,5499818.200,0.0,0.0,0.0,7094.400
3.947,8.553,86.184,0.0,0.0,1.316,0.0,819.200,760113.0,5509810.400,0.0,0.0,0.0,7184.200
5.411,10.390,83.333,0.216,0.0,0.649,0.0,15564.800,766716.600,5543368.0,0.0,0.0,0.0,7421.600
2.857,9.011,87.033,0.0,0.0,1.099,0.0,4096.0,757007.600,5487895.400,0.0,0.0,0.0,7307.200
5.286,9.031,84.361,0.0,0.0,1.322,0.0,3276.800,768106.600,5548115.0,0.0,0.0,0.0,7250.0
4.615,8.132,86.154,0.0,0.0,1.099,0.0,1638.400,754393.800,5446345.200,0.0,0.0,0.0,7036.0
0.401,0.200,99.399,0.0,0.0,0.0,0.0,819.200,3167.0,1005.600,0.0,0.0,0.0,66.200
