"Dstat 0.7.2 CSV output"
"Author:","Dag Wieers <dag@wieers.com>",,,,"URL:","http://dag.wieers.com/home-made/dstat/"
"Host:","Server1",,,,"User:","mstevan"
"Cmdline:","dstat --output /home/mstevan/logs/experiment_3.4/dstat/vs_64-vcpr_16-wtpm_64-rep_1.csv 5 16",,,,"Date:","28 Oct 2019 16:23:04 UTC"

"total cpu usage",,,,,,"dsk/total",,"net/total",,"paging",,"system",
"usr","sys","idl","wai","hiq","siq","read","writ","recv","send","in","out","int","csw"
5.847,14.248,77.272,0.201,0.0,2.432,4605.486,709660.398,0.0,0.0,0.0,0.0,0.061,3112.266
0.402,0.402,98.795,0.402,0.0,0.0,0.0,18022.400,17850.600,21470.800,0.0,0.0,0.0,239.800
5.157,11.211,81.614,0.0,0.0,2.018,0.0,1638.400,936616.600,1785022.800,0.0,0.0,0.0,6996.200
5.088,12.389,79.867,0.0,0.0,2.655,0.0,1638.400,966681.0,1847764.600,0.0,0.0,0.0,7050.0
5.0,11.522,81.304,0.0,0.0,2.174,0.0,2457.600,978664.600,1878614.400,0.0,0.0,0.0,7116.200
6.332,12.009,79.039,0.0,0.0,2.620,0.0,1638.400,963101.0,1839016.400,0.0,0.0,0.0,7159.0
5.111,10.889,82.0,0.0,0.0,2.0,0.0,819.200,966875.400,1851745.0,0.0,0.0,0.0,7196.200
5.169,11.011,81.124,0.0,0.0,2.697,0.0,20480.0,975470.400,1865986.600,0.0,0.0,0.0,6918.0
4.752,13.391,79.050,0.0,0.0,2.808,0.0,1638.400,975120.0,1865083.0,0.0,0.0,0.0,6927.200
6.874,12.860,78.271,0.0,0.0,1.996,0.0,819.200,974590.800,1870669.400,0.0,0.0,0.0,7155.0
5.298,11.921,80.132,0.0,0.0,2.649,0.0,1638.400,985935.600,1886027.0,0.0,0.0,0.0,6945.600
5.656,11.312,80.317,0.0,0.0,2.715,0.0,819.200,998176.400,1910258.400,0.0,0.0,0.0,6970.200
6.0,10.667,80.222,0.0,0.0,3.111,0.0,1638.400,986116.0,1890592.600,0.0,0.0,0.0,7033.600
5.145,12.752,79.642,0.224,0.0,2.237,0.0,15564.800,978358.200,1874554.600,0.0,0.0,0.0,6897.600
5.869,10.835,81.264,0.0,0.0,2.032,0.0,2457.600,986409.600,1894753.400,0.0,0.0,0.0,7014.600
4.128,13.073,80.963,0.0,0.0,1.835,0.0,1638.400,969225.200,1851702.0,0.0,0.0,0.0,6760.400
0.802,0.0,99.198,0.0,0.0,0.0,0.0,1638.400,6254.0,1869.600,0.0,0.0,0.0,75.0
