"Dstat 0.7.2 CSV output"
"Author:","Dag Wieers <dag@wieers.com>",,,,"URL:","http://dag.wieers.com/home-made/dstat/"
"Host:","Server1",,,,"User:","mstevan"
"Cmdline:","dstat --output /home/mstevan/logs/experiment_3.4/dstat/vs_64-vcpr_8-wtpm_64-rep_2.csv 5 16",,,,"Date:","28 Oct 2019 16:07:25 UTC"

"total cpu usage",,,,,,"dsk/total",,"net/total",,"paging",,"system",
"usr","sys","idl","wai","hiq","siq","read","writ","recv","send","in","out","int","csw"
5.888,14.365,77.090,0.204,0.0,2.453,4676.210,720487.401,0.0,0.0,0.0,0.0,0.062,3089.279
0.403,0.403,99.194,0.0,0.0,0.0,0.0,1638.400,18962.600,17110.0,0.0,0.0,0.0,234.400
3.922,7.407,86.492,0.0,0.0,2.179,0.0,819.200,716908.0,1342651.800,0.0,0.0,0.0,7709.0
4.077,9.442,84.764,0.0,0.0,1.717,0.0,1638.400,753798.0,1420120.400,0.0,0.0,0.0,7575.800
4.060,10.470,82.692,0.0,0.0,2.778,0.0,2457.600,766668.400,1448853.800,0.0,0.0,0.0,7324.800
4.086,8.602,84.946,0.0,0.0,2.366,0.0,1638.400,769753.400,1461661.200,0.0,0.0,0.0,7673.0
4.167,9.868,83.553,0.219,0.0,2.193,0.0,19660.800,772608.200,1466147.200,0.0,0.0,0.0,7469.0
3.922,8.932,85.403,0.0,0.0,1.743,0.0,2457.600,774097.600,1470015.200,0.0,0.0,0.0,7772.0
3.736,8.571,84.615,0.0,0.0,3.077,0.0,1638.400,767707.400,1451911.0,0.0,0.0,0.0,7410.400
4.575,8.279,84.967,0.0,0.0,2.179,0.0,1638.400,768684.600,1455585.400,0.0,0.0,0.0,7377.0
3.625,9.595,84.222,0.0,0.0,2.559,0.0,819.200,765534.800,1453654.0,0.0,0.0,0.0,7822.200
5.055,10.769,82.198,0.0,0.0,1.978,0.0,1638.400,769805.0,1457369.0,0.0,0.0,0.0,7571.0
5.128,7.479,84.615,0.427,0.0,2.350,0.0,22937.600,769514.800,1456050.400,0.0,0.0,0.0,7421.400
3.664,9.698,84.914,0.0,0.0,1.724,0.0,1638.400,767536.400,1461211.0,0.0,0.0,0.0,7512.400
4.487,9.188,84.188,0.0,0.0,2.137,0.0,2457.600,766618.600,1447923.800,0.0,0.0,0.0,7284.400
4.095,8.190,86.422,0.0,0.0,1.293,0.0,819.200,764601.600,1447646.400,0.0,0.0,0.0,7373.200
0.200,0.200,99.599,0.0,0.0,0.0,0.0,1638.400,3217.800,1018.800,0.0,0.0,0.0,64.400
