"Dstat 0.7.2 CSV output"
"Author:","Dag Wieers <dag@wieers.com>",,,,"URL:","http://dag.wieers.com/home-made/dstat/"
"Host:","Server1",,,,"User:","mstevan"
"Cmdline:","dstat --output /home/mstevan/logs/experiment_3.4/dstat/vs_64-vcpr_16-wtpm_64-rep_4.csv 5 16",,,,"Date:","28 Oct 2019 16:27:20 UTC"

"total cpu usage",,,,,,"dsk/total",,"net/total",,"paging",,"system",
"usr","sys","idl","wai","hiq","siq","read","writ","recv","send","in","out","int","csw"
5.840,14.227,77.302,0.201,0.0,2.430,4586.562,706762.752,0.0,0.0,0.0,0.0,0.061,3123.259
0.402,0.402,99.197,0.0,0.0,0.0,0.0,1638.400,18171.400,17290.600,0.0,0.0,0.0,220.0
5.217,10.217,82.391,0.0,0.0,2.174,0.0,819.200,910951.0,1737057.800,0.0,0.0,0.0,7282.800
5.757,13.859,78.038,0.0,0.0,2.345,0.0,1638.400,953543.200,1820624.600,0.0,0.0,0.0,7112.200
4.626,9.692,83.921,0.0,0.0,1.762,0.0,1638.400,972524.400,1862807.600,0.0,0.0,0.0,7359.0
4.474,11.633,81.208,0.224,0.0,2.461,0.0,19660.800,990336.0,1894746.200,0.0,0.0,0.0,6840.800
5.122,11.804,80.401,0.0,0.0,2.673,0.0,4915.200,975855.0,1866006.600,0.0,0.0,0.0,6917.200
5.495,11.648,79.780,0.0,0.0,3.077,0.0,2457.600,987216.0,1892527.800,0.0,0.0,0.0,7062.600
5.973,12.389,78.319,0.0,0.0,3.319,0.0,1638.400,991532.800,1898801.600,0.0,0.0,0.0,6939.400
5.100,11.530,80.488,0.0,0.0,2.882,0.0,1638.400,989867.200,1893372.400,0.0,0.0,0.0,7020.600
5.936,11.416,79.909,0.0,0.0,2.740,0.0,819.200,998904.400,1918592.200,0.0,0.0,0.0,6555.400
4.608,13.364,79.954,0.230,0.0,1.843,0.0,15564.800,999926.600,1914811.800,0.0,0.0,0.0,6767.400
6.250,12.500,79.018,0.0,0.0,2.232,0.0,819.200,996449.0,1912859.800,0.0,0.0,0.0,6832.400
3.863,10.300,84.120,0.0,0.0,1.717,0.0,1638.400,1007678.400,1928952.400,0.0,0.0,0.0,6858.0
5.856,13.063,78.378,0.0,0.0,2.703,0.0,3276.800,1009009.0,1931748.600,0.0,0.0,0.0,7021.0
4.795,13.699,79.224,0.0,0.0,2.283,0.0,819.200,979573.800,1877644.0,0.0,0.0,0.0,6911.0
0.599,0.399,99.002,0.0,0.0,0.0,0.0,1638.400,6348.400,1910.0,0.0,0.0,0.0,77.800
