"Dstat 0.7.2 CSV output"
"Author:","Dag Wieers <dag@wieers.com>",,,,"URL:","http://dag.wieers.com/home-made/dstat/"
"Host:","Server1",,,,"User:","mstevan"
"Cmdline:","dstat --output /home/mstevan/logs/experiment_3.4/dstat/vs_64-vcpr_4-wtpm_64-rep_1.csv 5 16",,,,"Date:","28 Oct 2019 15:48:55 UTC"

"total cpu usage",,,,,,"dsk/total",,"net/total",,"paging",,"system",
"usr","sys","idl","wai","hiq","siq","read","writ","recv","send","in","out","int","csw"
5.943,14.518,76.856,0.206,0.0,2.477,4762.650,733723.233,0.0,0.0,0.0,0.0,0.063,3053.172
0.402,0.402,99.195,0.0,0.0,0.0,0.0,1638.400,15696.200,12423.800,0.0,0.0,0.0,213.0
3.306,8.884,84.091,0.413,0.0,3.306,0.0,18022.400,574778.600,1050742.200,0.0,0.0,0.0,6897.400
4.681,8.298,84.468,0.0,0.0,2.553,0.0,4915.200,602490.400,1123777.400,0.0,0.0,0.0,7395.400
4.104,8.423,84.665,0.0,0.0,2.808,0.0,3276.800,627339.400,1171129.600,0.0,0.0,0.0,7516.400
3.830,7.021,86.170,0.0,0.0,2.979,0.0,819.200,622419.400,1165536.600,0.0,0.0,0.0,7405.600
3.205,7.479,87.179,0.0,0.0,2.137,0.0,1638.400,641280.600,1200541.200,0.0,0.0,0.0,7336.800
2.998,8.779,84.582,0.0,0.0,3.640,0.0,3276.800,621898.0,1158231.200,0.0,0.0,0.0,7352.400
3.368,10.105,85.053,0.0,0.0,1.474,0.0,819.200,632249.200,1184061.0,0.0,0.0,0.0,7687.600
3.212,9.850,85.011,0.428,0.0,1.499,0.0,15564.800,631760.0,1180809.600,0.0,0.0,0.0,7731.600
3.950,9.771,82.328,0.0,0.0,3.950,0.0,1638.400,628405.0,1167078.0,0.0,0.0,0.0,7316.400
4.449,9.110,83.898,0.0,0.0,2.542,0.0,819.200,640500.0,1207441.600,0.0,0.0,0.0,7838.0
3.672,9.935,83.801,0.0,0.0,2.592,0.0,1638.400,629326.800,1178351.600,0.0,0.0,0.0,7374.600
3.846,8.333,83.974,0.0,0.0,3.846,0.0,819.200,630366.200,1188918.800,0.0,0.0,0.200,7554.0
4.069,9.208,85.011,0.0,0.0,1.713,0.0,3276.800,636324.600,1189023.200,0.0,0.0,0.0,7570.0
4.852,9.283,82.489,0.422,0.0,2.954,0.0,15564.800,612254.600,1139453.200,0.0,0.0,0.0,7298.0
0.402,0.201,99.396,0.0,0.0,0.0,0.0,819.200,3618.0,1476.400,0.0,0.0,0.0,76.600
