"Dstat 0.7.2 CSV output"
"Author:","Dag Wieers <dag@wieers.com>",,,,"URL:","http://dag.wieers.com/home-made/dstat/"
"Host:","Server1",,,,"User:","mstevan"
"Cmdline:","dstat --output /home/mstevan/logs/experiment_3.4/dstat/vs_64-vcpr_32-wtpm_8-rep_2.csv 5 16",,,,"Date:","28 Oct 2019 16:30:10 UTC"

"total cpu usage",,,,,,"dsk/total",,"net/total",,"paging",,"system",
"usr","sys","idl","wai","hiq","siq","read","writ","recv","send","in","out","int","csw"
5.833,14.206,77.334,0.200,0.0,2.427,4574.038,704843.759,0.0,0.0,0.0,0.0,0.061,3126.043
0.600,0.200,98.800,0.400,0.0,0.0,0.0,19660.800,10669.200,9375.600,0.0,0.0,0.0,120.800
4.184,6.276,88.703,0.0,0.0,0.837,0.0,1638.400,633025.200,1210997.800,0.0,0.0,0.0,3085.600
2.340,6.596,90.426,0.0,0.0,0.638,0.0,819.200,660957.0,1270182.0,0.0,0.0,0.0,3398.600
3.119,7.069,88.773,0.0,0.0,1.040,0.0,3276.800,684605.400,1310655.200,0.0,0.0,0.0,3144.400
2.537,6.765,89.852,0.0,0.0,0.846,0.0,1638.400,677918.400,1297586.600,0.0,0.0,0.0,3162.600
3.132,6.889,89.353,0.0,0.0,0.626,0.0,819.200,665025.800,1277927.600,0.0,0.0,0.0,3080.200
3.340,6.681,88.518,0.0,0.0,1.461,0.0,3276.800,691684.200,1324607.400,0.0,0.0,0.0,3250.800
2.321,7.806,88.819,0.633,0.0,0.422,0.0,19660.800,674843.400,1291995.0,0.0,0.0,0.0,3048.600
2.532,6.962,90.084,0.0,0.0,0.422,0.0,819.200,672257.600,1291786.200,0.0,0.0,0.0,2828.200
3.165,6.751,88.819,0.0,0.0,1.266,0.0,1638.400,698521.800,1337839.400,0.0,0.0,0.0,3057.600
1.709,6.624,91.026,0.0,0.0,0.641,0.0,819.200,689210.0,1325467.400,0.0,0.0,0.0,3135.600
3.151,6.933,89.076,0.0,0.0,0.840,0.0,1638.400,689966.600,1320717.800,0.0,0.0,0.0,3017.0
3.594,6.765,89.006,0.0,0.0,0.634,0.0,1638.400,695991.400,1332410.600,0.0,0.0,0.0,3077.600
3.347,6.695,88.075,0.837,0.0,1.046,0.0,16384.0,677183.400,1301202.200,0.0,0.0,0.0,3052.0
2.947,6.316,90.105,0.0,0.0,0.632,0.0,1638.400,667966.800,1278768.0,0.0,0.0,0.0,2969.0
0.609,1.014,98.377,0.0,0.0,0.0,0.0,1638.400,61300.600,107718.200,0.0,0.0,0.200,846.200
