"Dstat 0.7.2 CSV output"
"Author:","Dag Wieers <dag@wieers.com>",,,,"URL:","http://dag.wieers.com/home-made/dstat/"
"Host:","Server1",,,,"User:","mstevan"
"Cmdline:","dstat --output /home/mstevan/logs/experiment_3.4/dstat/vs_64-vcpr_32-wtpm_32-rep_4.csv 5 16",,,,"Date:","28 Oct 2019 16:38:42 UTC"

"total cpu usage",,,,,,"dsk/total",,"net/total",,"paging",,"system",
"usr","sys","idl","wai","hiq","siq","read","writ","recv","send","in","out","int","csw"
5.811,14.146,77.430,0.199,0.0,2.414,4536.864,699150.996,0.0,0.0,0.0,0.0,0.060,3127.296
0.604,0.402,98.994,0.0,0.0,0.0,0.0,1638.400,20336.200,24968.200,0.0,0.0,0.0,263.600
4.575,14.161,79.739,0.218,0.0,1.307,0.0,18841.600,1106584.0,2125301.200,0.0,0.0,0.0,4996.600
4.454,12.695,80.846,0.0,0.0,2.004,0.0,4096.0,1183367.800,2277407.400,0.0,0.0,0.0,4884.600
3.913,11.522,82.391,0.0,0.0,2.174,0.0,3276.800,1152802.200,2213692.200,0.0,0.0,0.0,4834.0
4.222,12.444,81.111,0.0,0.0,2.222,0.0,1638.400,1172776.600,2251852.800,0.0,0.0,0.0,5103.600
4.626,10.573,83.700,0.0,0.0,1.101,0.0,819.200,1173449.0,2261489.200,0.0,0.0,0.0,4848.400
4.730,9.685,84.234,0.0,0.0,1.351,0.0,3276.800,1184290.200,2274923.400,0.0,0.0,0.0,4905.400
4.113,11.472,81.602,0.0,0.0,2.814,0.0,819.200,1177983.0,2266786.200,0.0,0.0,0.0,5080.800
4.474,11.857,81.208,0.447,0.0,2.013,0.0,14745.600,1175050.0,2255474.0,0.0,0.0,0.0,4856.800
4.626,11.233,82.159,0.0,0.0,1.982,0.0,1638.400,1189069.400,2286086.200,0.0,0.0,0.0,5069.400
4.464,12.277,81.696,0.0,0.0,1.562,0.0,819.200,1186702.200,2284225.200,0.0,0.0,0.0,4834.400
5.531,10.841,80.973,0.0,0.0,2.655,0.0,1638.400,1190701.0,2286162.600,0.0,0.0,0.0,4760.600
5.252,11.597,81.182,0.0,0.0,1.969,0.0,1638.400,1199072.600,2305620.600,0.0,0.0,0.0,4858.0
3.947,10.307,84.211,0.0,0.0,1.535,0.0,2457.600,1177827.600,2267688.600,0.0,0.0,0.0,4891.800
6.263,12.095,78.402,0.432,0.0,2.808,0.0,18841.600,1171277.200,2250014.800,0.0,0.0,0.0,4573.600
0.204,1.020,98.776,0.0,0.0,0.0,0.0,819.200,88457.0,163959.600,0.0,0.0,0.0,1063.800
