"Dstat 0.7.2 CSV output"
"Author:","Dag Wieers <dag@wieers.com>",,,,"URL:","http://dag.wieers.com/home-made/dstat/"
"Host:","Server1",,,,"User:","mstevan"
"Cmdline:","dstat --output /home/mstevan/logs/experiment_3.4/dstat/vs_64-vcpr_8-wtpm_8-rep_3.csv 5 16",,,,"Date:","28 Oct 2019 15:57:27 UTC"

"total cpu usage",,,,,,"dsk/total",,"net/total",,"paging",,"system",
"usr","sys","idl","wai","hiq","siq","read","writ","recv","send","in","out","int","csw"
5.915,14.440,76.971,0.205,0.0,2.469,4722.358,727553.744,0.0,0.0,0.0,0.0,0.063,3069.433
0.604,0.0,99.396,0.0,0.0,0.0,0.0,1638.400,19983.800,27461.400,0.0,0.0,0.0,204.200
3.233,6.897,89.440,0.0,0.0,0.431,0.0,1638.400,673178.200,1288125.400,0.0,0.0,0.0,4294.200
2.381,5.411,90.693,0.433,0.0,1.082,0.0,18022.400,703091.200,1351585.600,0.0,0.0,0.0,3819.200
2.972,6.794,89.384,0.0,0.0,0.849,0.0,3276.800,691514.800,1324462.400,0.0,0.0,0.0,3467.800
2.802,7.328,89.440,0.0,0.0,0.431,0.0,1638.400,724092.800,1386811.800,0.0,0.0,0.0,3729.200
2.935,7.757,88.050,0.0,0.0,1.258,0.0,819.200,705507.800,1356543.200,0.0,0.0,0.0,3439.600
2.979,6.596,89.574,0.0,0.0,0.851,0.0,3276.800,710392.200,1360274.0,0.0,0.0,0.0,3550.200
3.412,5.970,89.765,0.0,0.0,0.853,0.0,1638.400,700847.400,1342127.600,0.0,0.0,0.0,3435.0
2.731,7.983,88.235,0.210,0.0,0.840,0.0,18022.400,713405.400,1371790.800,0.0,0.0,0.0,3445.400
3.926,9.504,85.950,0.0,0.0,0.620,0.0,1638.400,708866.800,1356625.0,0.0,0.0,0.0,3673.400
2.725,7.338,89.518,0.0,0.0,0.419,0.0,819.200,697817.0,1341557.800,0.0,0.0,0.0,3354.200
2.991,5.769,90.385,0.0,0.0,0.855,0.0,1638.400,703116.800,1346663.400,0.0,0.0,0.0,3417.400
3.742,8.108,87.110,0.0,0.0,1.040,0.0,1638.400,706415.200,1352771.600,0.0,0.0,0.0,3298.800
2.526,6.947,89.263,0.0,0.0,1.263,0.0,2457.600,701923.600,1349716.600,0.0,0.0,0.0,3406.800
4.603,6.067,88.075,0.418,0.0,0.837,0.0,14745.600,688813.200,1318623.600,0.0,0.0,0.0,3314.400
0.802,0.200,98.998,0.0,0.0,0.0,0.0,1638.400,6267.200,1869.600,0.0,0.0,0.0,72.600
