"Dstat 0.7.2 CSV output"
"Author:","Dag Wieers <dag@wieers.com>",,,,"URL:","http://dag.wieers.com/home-made/dstat/"
"Host:","Server1",,,,"User:","mstevan"
"Cmdline:","dstat --output /home/mstevan/logs/experiment_3.4/dstat/vs_64-vcpr_4-wtpm_64-rep_4.csv 5 16",,,,"Date:","28 Oct 2019 15:53:11 UTC"

"total cpu usage",,,,,,"dsk/total",,"net/total",,"paging",,"system",
"usr","sys","idl","wai","hiq","siq","read","writ","recv","send","in","out","int","csw"
5.930,14.482,76.907,0.206,0.0,2.476,4742.419,730626.057,0.0,0.0,0.0,0.0,0.063,3066.243
0.402,0.604,98.994,0.0,0.0,0.0,0.0,819.200,17792.0,18465.200,0.0,0.0,0.0,261.400
2.542,7.627,87.500,0.0,0.0,2.331,0.0,1638.400,565958.200,1002973.400,0.0,0.0,0.0,6875.600
3.609,8.280,85.350,0.0,0.0,2.760,0.0,1638.400,602829.600,1122256.800,0.0,0.0,0.0,7411.400
3.226,7.742,86.667,0.0,0.0,2.366,0.0,2457.600,612916.800,1142623.800,0.0,0.0,0.0,7488.200
4.086,8.172,85.806,0.0,0.0,1.935,0.0,1638.400,615263.600,1144421.600,0.0,0.0,0.0,7474.400
3.486,8.497,85.621,0.218,0.0,2.179,0.0,18841.600,625835.600,1170097.200,0.0,0.0,0.0,7713.400
3.863,7.725,85.837,0.0,0.0,2.575,0.0,2457.600,619495.800,1148586.800,0.0,0.0,0.0,7493.200
4.077,7.296,86.052,0.0,0.0,2.575,0.0,1638.400,625770.600,1157586.800,0.0,0.0,0.0,7668.800
2.802,7.759,87.284,0.0,0.0,2.155,0.0,819.200,618401.0,1153294.200,0.0,0.0,0.0,7479.0
3.704,7.625,86.928,0.0,0.0,1.743,0.0,1638.400,620114.800,1150537.600,0.0,0.0,0.0,7463.800
3.412,7.676,86.354,0.0,0.0,2.559,0.0,1638.400,607067.0,1117373.0,0.0,0.0,0.0,7235.200
2.586,8.621,86.207,0.431,0.0,2.155,0.0,18022.400,610298.400,1130392.200,0.0,0.0,0.0,7462.400
3.814,9.534,84.110,0.0,0.0,2.542,0.0,1638.400,607353.400,1110521.400,0.0,0.0,0.0,7294.600
4.025,8.898,84.534,0.0,0.0,2.542,0.0,3276.800,628964.400,1172689.0,0.0,0.0,0.0,7636.400
2.998,7.923,86.510,0.0,0.0,2.570,0.0,819.200,593749.200,1107818.600,0.0,0.0,0.0,7177.0
0.201,0.201,99.598,0.0,0.0,0.0,0.0,1638.400,6338.400,2012.0,0.0,0.0,0.0,74.200
