"Dstat 0.7.2 CSV output"
"Author:","Dag Wieers <dag@wieers.com>",,,,"URL:","http://dag.wieers.com/home-made/dstat/"
"Host:","Server1",,,,"User:","mstevan"
"Cmdline:","dstat --output /home/mstevan/logs/experiment_3.4/dstat/vs_64-vcpr_16-wtpm_32-rep_4.csv 5 16",,,,"Date:","28 Oct 2019 16:21:38 UTC"

"total cpu usage",,,,,,"dsk/total",,"net/total",,"paging",,"system",
"usr","sys","idl","wai","hiq","siq","read","writ","recv","send","in","out","int","csw"
5.849,14.256,77.260,0.202,0.0,2.434,4611.826,710632.414,0.0,0.0,0.0,0.0,0.061,3109.090
0.800,0.400,98.800,0.0,0.0,0.0,0.0,1638.400,19951.400,24872.600,0.0,0.0,0.0,226.400
4.857,10.817,82.781,0.0,0.0,1.545,0.0,1638.400,943600.0,1809884.0,0.0,0.0,0.0,6642.600
4.805,10.755,83.295,0.0,0.0,1.144,0.0,819.200,979864.0,1884395.400,0.0,0.0,0.0,6913.600
5.157,10.762,82.960,0.0,0.0,1.121,0.0,3276.800,987562.0,1897322.0,0.0,0.0,0.0,6639.200
3.532,10.596,84.327,0.0,0.0,1.545,0.0,819.200,979575.200,1884746.400,0.0,0.0,0.0,6585.800
5.298,9.272,82.781,0.221,0.0,2.428,0.0,18841.600,997614.800,1914879.400,0.0,0.0,0.0,6465.0
5.652,10.870,80.652,0.0,0.0,2.826,0.0,3276.800,1008742.400,1936348.400,0.0,0.0,0.0,6455.600
5.111,10.444,82.667,0.0,0.0,1.778,0.0,819.200,1013552.200,1949696.400,0.0,0.0,0.0,6516.800
5.022,10.044,82.969,0.0,0.0,1.965,0.0,1638.400,1022176.0,1962990.200,0.0,0.0,0.0,6657.600
4.525,11.538,82.579,0.0,0.0,1.357,0.0,819.200,1009023.600,1940912.0,0.0,0.0,0.0,6764.800
5.310,11.062,82.080,0.0,0.0,1.549,0.0,819.200,1029415.0,1976607.0,0.0,0.0,0.0,6737.200
4.846,12.555,80.396,0.441,0.0,1.762,0.0,17203.200,1032151.800,1991621.200,0.0,0.0,0.0,6505.800
4.814,11.597,82.057,0.0,0.0,1.532,0.0,1638.400,1032402.0,1981206.800,0.0,0.0,0.0,6258.400
5.369,11.633,81.208,0.0,0.0,1.790,0.0,3276.800,1014871.600,1948397.600,0.0,0.0,0.0,6518.600
4.194,11.479,83.002,0.0,0.0,1.325,0.0,819.200,1006753.0,1935821.200,0.0,0.0,0.0,6436.600
0.602,0.0,99.398,0.0,0.0,0.0,0.0,1638.400,6267.200,1869.600,0.0,0.0,0.0,74.0
