"Dstat 0.7.2 CSV output"
"Author:","Dag Wieers <dag@wieers.com>",,,,"URL:","http://dag.wieers.com/home-made/dstat/"
"Host:","Server1",,,,"User:","mstevan"
"Cmdline:","dstat --output /home/mstevan/logs/experiment_3.4/dstat/vs_64-vcpr_32-wtpm_64-rep_1.csv 5 16",,,,"Date:","28 Oct 2019 16:40:08 UTC"

"total cpu usage",,,,,,"dsk/total",,"net/total",,"paging",,"system",
"usr","sys","idl","wai","hiq","siq","read","writ","recv","send","in","out","int","csw"
5.808,14.139,77.440,0.199,0.0,2.413,4530.728,698211.492,0.0,0.0,0.0,0.0,0.060,3128.607
0.601,0.401,98.998,0.0,0.0,0.0,0.0,1638.400,22344.800,24719.600,0.0,0.0,0.0,263.800
4.646,12.389,81.195,0.0,0.0,1.770,0.0,819.200,1127565.600,2165488.200,0.0,0.0,0.0,5925.200
5.300,14.747,77.189,0.230,0.0,2.535,0.0,19660.800,1186273.600,2276460.0,0.0,0.0,0.0,5717.0
5.856,13.514,77.928,0.0,0.0,2.703,0.0,2457.600,1166376.0,2236604.0,0.0,0.0,0.0,5964.400
6.346,13.567,77.462,0.0,0.0,2.626,0.0,819.200,1178664.800,2270378.400,0.0,0.0,0.0,5993.800
7.240,13.122,77.602,0.0,0.0,2.036,0.0,1638.400,1193363.600,2289612.400,0.0,0.0,0.0,5683.400
5.740,14.349,77.483,0.0,0.0,2.428,0.0,3276.800,1194992.0,2297238.400,0.0,0.0,0.0,5928.600
5.543,15.012,76.905,0.0,0.0,2.540,0.0,819.200,1193503.200,2295643.0,0.0,0.0,0.0,5648.0
5.843,14.831,76.629,0.0,0.0,2.697,0.0,1638.400,1197623.200,2298116.600,0.0,0.0,0.0,5855.200
6.195,13.938,76.770,0.885,0.0,2.212,0.0,21299.200,1220181.600,2349325.600,0.0,0.0,0.0,5639.600
5.093,15.046,77.778,0.0,0.0,2.083,0.0,1638.400,1198233.600,2299923.0,0.0,0.0,0.0,5465.800
5.936,14.840,77.169,0.0,0.0,2.055,0.0,1638.400,1198426.200,2301496.600,0.0,0.0,0.0,5655.800
7.110,13.532,76.835,0.0,0.0,2.523,0.0,819.200,1186756.400,2284947.800,0.0,0.0,0.0,5437.800
5.841,14.252,77.804,0.0,0.0,2.103,0.0,3276.800,1205384.400,2315042.800,0.0,0.0,0.0,5571.600
5.734,15.367,76.606,0.0,0.0,2.294,0.0,819.200,1182135.200,2272747.800,0.0,0.0,0.0,5825.600
1.012,0.810,96.964,0.0,0.0,1.215,0.0,20480.0,100438.600,154470.200,0.0,0.0,0.0,1074.400
