"Dstat 0.7.2 CSV output"
"Author:","Dag Wieers <dag@wieers.com>",,,,"URL:","http://dag.wieers.com/home-made/dstat/"
"Host:","Server1",,,,"User:","mstevan"
"Cmdline:","dstat --output /home/mstevan/logs/experiment_3.4/dstat/vs_64-vcpr_32-wtpm_64-rep_4.csv 5 16",,,,"Date:","28 Oct 2019 16:44:24 UTC"

"total cpu usage",,,,,,"dsk/total",,"net/total",,"paging",,"system",
"usr","sys","idl","wai","hiq","siq","read","writ","recv","send","in","out","int","csw"
5.805,14.126,77.460,0.198,0.0,2.411,4512.418,695409.339,0.0,0.0,0.0,0.0,0.060,3135.331
0.805,0.0,98.994,0.0,0.0,0.201,0.0,1638.400,18016.600,17270.200,0.0,0.0,0.0,227.200
4.709,13.677,79.596,0.0,0.0,2.018,0.0,2457.600,1107500.200,2114890.200,0.0,0.0,0.0,6038.0
5.425,14.387,78.774,0.0,0.0,1.415,0.0,819.200,1190395.0,2290748.400,0.0,0.0,0.0,5802.800
6.502,13.677,77.578,0.0,0.0,2.242,0.0,1638.400,1155943.200,2218064.0,0.0,0.0,0.0,5805.800
5.180,13.288,79.505,0.0,0.0,2.027,0.0,1638.400,1174595.200,2260693.400,0.0,0.0,0.0,6136.800
4.805,16.476,76.659,0.0,0.0,2.059,0.0,1638.400,1171953.800,2251568.200,0.0,0.0,0.0,5678.200
6.561,14.932,75.566,0.452,0.0,2.489,0.0,22937.600,1184965.200,2276971.600,0.0,0.0,0.0,5678.800
4.167,14.815,78.241,0.0,0.0,2.778,0.0,819.200,1177825.200,2265639.800,0.0,0.0,0.0,5698.0
6.772,15.350,74.944,0.0,0.0,2.935,0.0,1638.400,1174515.400,2255585.800,0.0,0.0,0.0,5655.600
4.966,13.995,78.781,0.0,0.0,2.257,0.0,819.200,1172601.400,2249819.0,0.0,0.0,0.0,5675.0
6.278,12.108,79.821,0.0,0.0,1.794,0.0,1638.400,1201601.800,2315390.800,0.0,0.0,0.0,5710.400
6.803,14.739,76.190,0.0,0.0,2.268,0.0,1638.400,1188859.0,2282455.200,0.0,0.0,0.0,5628.400
3.926,12.240,81.062,0.231,0.0,2.540,0.0,14745.600,1196544.800,2302670.600,0.0,0.0,0.0,5701.800
6.576,14.286,76.190,0.0,0.0,2.948,0.0,3276.800,1210363.400,2326937.400,0.0,0.0,0.0,5769.800
6.278,15.919,75.561,0.0,0.0,2.242,0.0,1638.400,1186594.200,2274873.400,0.0,0.0,0.0,5659.800
0.402,0.201,99.195,0.0,0.0,0.201,0.0,819.200,17286.800,16255.800,0.0,0.0,0.0,220.200
