"Dstat 0.7.2 CSV output"
"Author:","Dag Wieers <dag@wieers.com>",,,,"URL:","http://dag.wieers.com/home-made/dstat/"
"Host:","Server1",,,,"User:","mstevan"
"Cmdline:","dstat --output /home/mstevan/logs/experiment_3.4/dstat/vs_64-vcpr_8-wtpm_32-rep_3.csv 5 16",,,,"Date:","28 Oct 2019 16:03:09 UTC"

"total cpu usage",,,,,,"dsk/total",,"net/total",,"paging",,"system",
"usr","sys","idl","wai","hiq","siq","read","writ","recv","send","in","out","int","csw"
5.897,14.394,77.046,0.204,0.0,2.458,4695.878,723498.071,0.0,0.0,0.0,0.0,0.063,3076.925
0.201,0.201,98.994,0.402,0.0,0.201,0.0,18022.400,17727.200,25337.0,0.0,0.0,0.0,237.0
5.603,9.698,83.190,0.0,0.0,1.509,0.0,1638.400,712641.800,1364579.200,0.0,0.0,0.0,7208.600
5.832,9.719,83.369,0.0,0.0,1.080,0.0,1638.400,763709.400,1463080.400,0.0,0.0,0.0,7417.400
4.338,10.846,84.165,0.0,0.0,0.651,0.0,1638.400,758991.200,1459721.800,0.0,0.0,0.0,7310.600
3.982,8.407,85.619,0.0,0.0,1.991,0.0,2457.600,773141.0,1480199.800,0.0,0.0,0.0,7175.0
3.704,9.368,86.275,0.0,0.0,0.654,0.0,819.200,771087.400,1484414.200,0.0,0.0,0.0,7408.600
3.656,9.032,85.591,0.0,0.0,1.720,0.0,3276.800,772259.800,1480033.400,0.0,0.0,0.0,7072.800
3.913,9.783,83.696,0.652,0.0,1.957,0.0,22118.400,774210.200,1483480.0,0.0,0.0,0.0,7313.800
4.646,9.071,84.735,0.0,0.0,1.549,0.0,819.200,761192.400,1463376.800,0.0,0.0,0.0,6996.600
4.978,11.039,82.251,0.0,0.0,1.732,0.0,1638.400,770644.600,1476631.200,0.0,0.0,0.0,7238.800
4.435,10.643,83.814,0.0,0.0,1.109,0.0,1638.400,763127.800,1462468.400,0.0,0.0,0.0,7087.600
4.148,11.135,83.406,0.0,0.0,1.310,0.0,819.200,771372.400,1483521.400,0.0,0.0,0.0,7608.600
4.128,10.321,84.404,0.0,0.0,1.147,0.0,1638.400,764655.200,1465397.600,0.0,0.0,0.0,7207.400
3.563,10.913,83.519,0.668,0.0,1.336,0.0,16384.0,767569.400,1475204.600,0.0,0.0,0.0,7155.800
4.405,11.674,83.260,0.0,0.0,0.661,0.0,1638.400,743337.200,1422992.0,0.0,0.0,0.0,6951.0
0.800,0.200,99.0,0.0,0.0,0.0,0.0,1638.400,6254.0,1869.600,0.0,0.0,0.0,71.400
