"Dstat 0.7.2 CSV output"
"Author:","Dag Wieers <dag@wieers.com>",,,,"URL:","http://dag.wieers.com/home-made/dstat/"
"Host:","Server1",,,,"User:","mstevan"
"Cmdline:","dstat --output /home/mstevan/logs/experiment_3.4/dstat/vs_64-vcpr_4-wtpm_32-rep_3.csv 5 16",,,,"Date:","28 Oct 2019 15:46:05 UTC"

"total cpu usage",,,,,,"dsk/total",,"net/total",,"paging",,"system",
"usr","sys","idl","wai","hiq","siq","read","writ","recv","send","in","out","int","csw"
5.952,14.542,76.816,0.207,0.0,2.483,4776.230,735803.740,0.0,0.0,0.0,0.0,0.064,3044.853
0.805,0.201,98.994,0.0,0.0,0.0,0.0,1638.400,14590.200,14377.800,0.0,0.0,0.0,197.200
3.030,9.307,86.797,0.0,0.0,0.866,0.0,1638.400,539222.800,1028933.0,0.0,0.0,0.0,6701.400
2.851,8.333,88.377,0.0,0.0,0.439,0.0,819.200,597855.800,1147802.200,0.0,0.0,0.0,7452.0
4.526,9.483,84.914,0.0,0.0,1.078,0.0,3276.800,625007.600,1196252.600,0.0,0.0,0.0,7578.600
3.913,7.609,87.826,0.0,0.0,0.652,0.0,1638.400,614091.800,1174424.600,0.0,0.0,0.0,7126.400
3.043,7.826,87.826,0.217,0.0,1.087,0.0,18022.400,616478.0,1184039.0,0.0,0.0,0.0,7317.200
3.744,7.269,87.885,0.0,0.0,1.101,0.0,3276.800,624237.400,1194548.200,0.0,0.0,0.0,7478.200
3.728,9.211,86.623,0.0,0.0,0.439,0.0,1638.400,631032.600,1207330.200,0.0,0.0,0.0,7448.800
3.289,8.553,87.939,0.0,0.0,0.219,0.0,819.200,625629.800,1202098.400,0.0,0.0,0.0,7622.0
3.463,9.307,86.147,0.0,0.0,1.082,0.0,1638.400,620107.800,1186366.600,0.0,0.0,0.0,7392.600
4.086,9.677,85.806,0.0,0.0,0.430,0.0,819.200,618182.0,1187379.400,0.0,0.0,0.0,7521.600
3.896,8.658,86.364,0.433,0.0,0.649,0.0,15564.800,591801.600,1131314.400,0.0,0.0,0.0,7200.800
4.292,9.657,85.193,0.0,0.0,0.858,0.0,4915.200,619859.200,1185591.400,0.0,0.0,0.0,7513.400
4.301,8.817,86.237,0.0,0.0,0.645,0.0,1638.400,618715.400,1188539.800,0.0,0.0,0.0,7341.600
3.939,8.753,86.652,0.0,0.0,0.656,0.0,2457.600,600657.800,1147029.600,0.0,0.0,0.0,7276.0
0.602,0.201,99.197,0.0,0.0,0.0,0.0,1638.400,6254.0,1856.400,0.0,0.0,0.0,68.200
