"Dstat 0.7.2 CSV output"
"Author:","Dag Wieers <dag@wieers.com>",,,,"URL:","http://dag.wieers.com/home-made/dstat/"
"Host:","Server1",,,,"User:","mstevan"
"Cmdline:","dstat --output /home/mstevan/logs/experiment_3.4/dstat/vs_64-vcpr_8-wtpm_32-rep_1.csv 5 16",,,,"Date:","28 Oct 2019 16:00:18 UTC"

"total cpu usage",,,,,,"dsk/total",,"net/total",,"paging",,"system",
"usr","sys","idl","wai","hiq","siq","read","writ","recv","send","in","out","int","csw"
5.904,14.413,77.015,0.205,0.0,2.463,4709.080,725520.821,0.0,0.0,0.0,0.0,0.063,3068.920
0.602,0.402,98.996,0.0,0.0,0.0,0.0,1638.400,17852.600,20724.200,0.0,0.0,0.200,228.200
3.795,8.482,86.830,0.0,0.0,0.893,0.0,819.200,706345.400,1354799.600,0.0,0.0,0.0,7297.200
3.930,10.044,84.934,0.0,0.0,1.092,0.0,1638.400,748883.400,1437668.800,0.0,0.0,0.0,7404.600
4.082,10.658,84.127,0.0,0.0,1.134,0.0,3276.800,761542.600,1459133.800,0.0,0.0,0.0,7251.600
4.656,10.643,82.705,0.887,0.0,1.109,0.0,18022.400,764588.0,1470310.800,0.0,0.0,0.0,7139.400
3.939,11.160,83.807,0.0,0.0,1.094,0.0,1638.400,764130.0,1463316.200,0.0,0.0,0.0,7159.600
3.516,9.011,86.374,0.0,0.0,1.099,0.0,3276.800,751379.800,1440520.600,0.0,0.0,0.0,7068.600
3.761,10.841,83.407,0.0,0.0,1.991,0.0,819.200,757476.400,1455887.200,0.0,0.0,0.0,7183.600
4.091,11.364,83.182,0.0,0.0,1.364,0.0,1638.400,766963.400,1470255.0,0.0,0.0,0.0,7351.0
3.378,9.009,86.712,0.0,0.0,0.901,0.0,819.200,756972.600,1450794.0,0.0,0.0,0.0,7260.600
3.696,11.522,83.261,0.435,0.0,1.087,0.0,18841.600,751159.0,1442345.600,0.0,0.0,0.0,7284.600
4.846,9.692,84.361,0.0,0.0,1.101,0.0,1638.400,760414.800,1456727.600,0.0,0.0,0.0,7099.0
4.425,9.735,84.513,0.0,0.0,1.327,0.0,819.200,755889.0,1454820.800,0.0,0.0,0.0,7265.200
4.279,10.135,83.784,0.0,0.0,1.802,0.0,3276.800,762773.600,1462102.400,0.0,0.0,0.0,7341.800
4.348,8.913,86.304,0.0,0.0,0.435,0.0,1638.400,737967.800,1412275.400,0.0,0.0,0.0,6861.0
0.0,0.201,99.799,0.0,0.0,0.0,0.0,819.200,3251.400,1134.800,0.0,0.0,0.0,59.200
