"Dstat 0.7.2 CSV output"
"Author:","Dag Wieers <dag@wieers.com>",,,,"URL:","http://dag.wieers.com/home-made/dstat/"
"Host:","Server2",,,,"User:","mstevan"
"Cmdline:","dstat --output /home/mstevan/logs/experiment_2.2/dstat/vs_1024-vcpr_32-rep_3.csv 5 14",,,,"Date:","28 Oct 2019 01:55:10 UTC"

"total cpu usage",,,,,,"dsk/total",,"net/total",,"paging",,"system",
"usr","sys","idl","wai","hiq","siq","read","writ","recv","send","in","out","int","csw"
2.677,6.048,89.454,1.082,0.0,0.739,18782.397,4381721.189,0.0,0.0,0.0,0.0,0.356,1600.243
2.075,6.639,89.627,0.415,0.0,1.245,0.0,20480.0,945428.800,12581928.400,0.0,0.0,0.0,722.200
2.495,5.198,91.476,0.0,0.0,0.832,0.0,1638.400,939047.200,12499993.400,0.0,0.0,0.0,698.200
2.058,5.761,90.741,0.0,0.0,1.440,0.0,819.200,936096.400,12500129.600,0.0,0.0,0.0,687.600
3.125,6.458,89.167,0.0,0.0,1.250,0.0,1638.400,939700.200,12499797.400,0.0,0.0,0.0,707.0
1.867,6.224,91.494,0.0,0.0,0.415,0.0,819.200,939190.800,12500106.800,0.0,0.0,0.0,700.600
1.867,6.017,91.286,0.0,0.0,0.830,0.0,1638.400,937343.200,12499952.200,0.0,0.0,0.0,665.200
2.469,6.173,88.477,1.646,0.0,1.235,0.0,9011.200,939304.600,12500059.0,0.0,0.0,0.0,688.200
2.240,7.332,89.409,0.204,0.0,0.815,0.0,14745.600,936008.200,12500042.600,0.0,0.0,0.0,675.0
3.259,6.721,88.798,0.0,0.0,1.222,0.0,1638.400,938986.800,12499757.600,0.0,0.0,0.0,662.200
2.708,5.417,91.250,0.0,0.0,0.625,0.0,1638.400,939121.0,12500083.200,0.0,0.0,0.0,694.400
1.883,5.858,91.213,0.0,0.0,1.046,0.0,819.200,936031.200,12500064.0,0.0,0.0,0.0,725.0
2.062,6.804,90.309,0.0,0.0,0.825,0.0,1638.400,939406.600,12500120.0,0.0,0.0,0.0,708.800
2.669,6.366,89.938,0.0,0.0,1.027,0.0,819.200,937017.800,12499893.200,0.0,0.0,0.0,687.800
2.664,5.738,90.164,0.410,0.0,1.025,0.0,16384.0,917967.200,12198858.200,0.0,0.0,0.0,701.600
