"Dstat 0.7.2 CSV output"
"Author:","Dag Wieers <dag@wieers.com>",,,,"URL:","http://dag.wieers.com/home-made/dstat/"
"Host:","Server2",,,,"User:","mstevan"
"Cmdline:","dstat --output /home/mstevan/logs/experiment_2.2/dstat/vs_1024-vcpr_16-rep_4.csv 5 14",,,,"Date:","28 Oct 2019 01:51:37 UTC"

"total cpu usage",,,,,,"dsk/total",,"net/total",,"paging",,"system",
"usr","sys","idl","wai","hiq","siq","read","writ","recv","send","in","out","int","csw"
2.681,6.045,89.437,1.105,0.0,0.732,19192.228,4477232.243,0.0,0.0,0.0,0.0,0.364,1616.519
2.311,6.933,89.286,0.210,0.0,1.261,0.0,18841.600,950520.600,12655911.0,0.0,0.0,0.0,1181.0
1.684,6.316,90.947,0.0,0.0,1.053,0.0,4915.200,936706.400,12480699.200,0.0,0.0,0.0,1223.600
2.505,6.054,90.188,0.0,0.0,1.253,0.0,1638.400,939040.800,12513609.800,0.0,0.0,0.0,1201.600
2.516,5.870,90.566,0.0,0.0,1.048,0.0,1638.400,938952.0,12497224.200,0.0,0.0,0.0,1178.0
2.469,7.407,89.300,0.0,0.0,0.823,0.0,819.200,936041.600,12500748.600,0.0,0.0,0.0,1095.0
2.306,5.660,90.985,0.0,0.0,1.048,0.0,1638.400,938319.800,12488422.400,0.0,0.0,0.0,1174.600
2.686,7.025,88.636,0.207,0.0,1.446,0.0,18022.400,940627.0,12511287.200,0.0,0.0,0.0,1192.0
2.941,5.882,90.966,0.0,0.0,0.210,0.0,819.200,935877.0,12499506.0,0.0,0.0,0.0,1181.200
2.737,6.526,90.105,0.0,0.0,0.632,0.0,1638.400,939472.800,12499973.600,0.0,0.0,0.0,1191.800
2.923,7.307,89.144,0.0,0.0,0.626,0.0,1638.400,938553.800,12489148.400,0.0,0.0,0.0,1240.800
2.911,7.069,89.189,0.0,0.0,0.832,0.0,819.200,937372.0,12510785.600,0.0,0.0,0.0,1247.400
2.287,6.653,90.229,0.0,0.0,0.832,0.0,1638.400,938347.0,12500128.600,0.0,0.0,0.0,1200.400
2.905,6.017,90.249,0.0,0.0,0.830,0.0,819.200,936967.600,12499986.400,0.0,0.0,0.0,1202.200
2.846,7.724,87.805,0.407,0.0,1.220,0.0,17203.200,902546.400,12003900.200,0.0,0.0,0.0,1146.800
