"Dstat 0.7.2 CSV output"
"Author:","Dag Wieers <dag@wieers.com>",,,,"URL:","http://dag.wieers.com/home-made/dstat/"
"Host:","Server2",,,,"User:","mstevan"
"Cmdline:","dstat --output /home/mstevan/logs/experiment_2.2/dstat/vs_256-vcpr_8-rep_2.csv 5 14",,,,"Date:","28 Oct 2019 01:06:40 UTC"

"total cpu usage",,,,,,"dsk/total",,"net/total",,"paging",,"system",
"usr","sys","idl","wai","hiq","siq","read","writ","recv","send","in","out","int","csw"
1.635,3.166,93.378,1.455,0.0,0.366,26495.195,6179106.425,0.0,0.0,0.0,0.0,0.501,951.949
4.396,11.648,83.077,0.0,0.0,0.879,0.0,1638.400,1194251.200,5026213.200,0.0,0.0,0.0,3819.600
5.610,18.293,74.390,0.0,0.0,1.707,0.0,819.200,1231402.400,5198152.0,0.0,0.0,0.0,4109.0
9.412,17.882,71.765,0.0,0.0,0.941,0.0,1638.400,1212356.600,5101366.600,0.0,0.0,0.0,4344.800
5.882,14.480,78.281,0.0,0.0,1.357,0.0,1638.400,1196511.600,5037472.400,0.0,0.0,0.0,4072.400
6.353,14.353,77.412,0.471,0.0,1.412,0.0,18841.600,1185166.0,5000710.800,0.0,0.0,0.0,4049.400
5.708,12.100,80.822,0.0,0.0,1.370,0.0,1638.400,1189086.400,5006758.200,0.0,0.0,0.0,4049.200
6.905,17.381,73.810,0.0,0.0,1.905,0.0,3276.800,1194194.600,5030362.0,0.0,0.0,0.0,4361.800
5.869,16.432,76.056,0.0,0.0,1.643,0.0,1638.400,1191472.600,5020037.600,0.0,0.0,0.0,4286.400
6.715,16.307,74.820,0.0,0.0,2.158,0.0,1638.400,1176615.600,4951526.400,0.0,0.0,0.0,4269.600
6.203,17.618,74.442,0.0,0.0,1.737,0.0,819.200,1209364.600,5103959.600,0.0,0.0,0.0,4389.600
7.579,20.782,68.949,0.489,0.0,2.200,0.0,20480.0,1224783.600,5157930.0,0.0,0.0,0.0,4445.400
6.353,15.059,77.176,0.0,0.0,1.412,0.0,1638.400,1195893.0,5032936.0,0.0,0.0,0.0,4438.0
7.299,17.762,73.236,0.0,0.0,1.703,0.0,819.200,1211281.800,5112108.800,0.0,0.0,0.0,4507.400
6.407,14.874,77.117,0.0,0.0,1.602,0.0,1638.400,1179063.0,4962174.200,0.0,0.0,0.0,4345.400
