"Dstat 0.7.2 CSV output"
"Author:","Dag Wieers <dag@wieers.com>",,,,"URL:","http://dag.wieers.com/home-made/dstat/"
"Host:","Server2",,,,"User:","mstevan"
"Cmdline:","dstat --output /home/mstevan/logs/experiment_2.2/dstat/vs_256-vcpr_16-rep_1.csv 5 14",,,,"Date:","28 Oct 2019 01:10:11 UTC"

"total cpu usage",,,,,,"dsk/total",,"net/total",,"paging",,"system",
"usr","sys","idl","wai","hiq","siq","read","writ","recv","send","in","out","int","csw"
1.750,3.480,92.952,1.420,0.0,0.398,25728.811,6000524.322,0.0,0.0,0.0,0.0,0.487,1049.690
7.353,16.667,73.775,0.0,0.0,2.206,0.0,819.200,1470520.400,6208893.800,0.0,0.0,0.0,3173.400
7.416,17.703,72.249,0.0,0.0,2.632,0.0,1638.400,1461282.400,6156764.800,0.0,0.0,0.0,3247.600
6.699,16.507,75.359,0.0,0.0,1.435,0.0,1638.400,1446299.400,6089869.200,0.0,0.0,0.0,3062.600
7.073,19.024,71.707,0.0,0.0,2.195,0.0,819.200,1441782.0,6086813.200,0.0,0.0,0.0,3051.600
7.209,16.744,73.721,0.465,0.0,1.860,0.0,20480.0,1487378.400,6266178.0,0.0,0.0,0.0,3166.200
5.687,19.668,72.512,0.0,0.0,2.133,0.0,7372.800,1500046.200,6334248.800,0.0,0.0,0.0,3186.800
8.592,21.002,68.019,0.0,0.0,2.387,0.0,4096.0,1454694.200,6130144.0,0.0,0.0,0.0,2985.200
6.281,20.352,70.101,0.0,0.0,3.266,0.0,1638.400,1451106.400,6113119.200,0.0,0.0,0.0,3012.400
7.673,19.949,70.077,0.0,0.0,2.302,0.0,819.200,1470170.400,6206536.200,0.0,0.0,0.0,3163.400
8.232,21.065,67.797,0.0,0.0,2.906,0.0,1638.400,1426273.200,6008169.400,0.0,0.0,0.0,2906.0
6.780,19.128,71.429,0.242,0.0,2.421,0.0,15564.800,1432346.0,6033089.0,0.0,0.0,0.0,3012.600
7.729,17.874,72.464,0.0,0.0,1.932,0.0,819.200,1462213.0,6169362.400,0.0,0.0,0.0,3003.200
9.246,21.411,66.180,0.0,0.0,3.163,0.0,1638.400,1456806.600,6136727.200,0.0,0.0,0.0,3050.0
5.529,17.788,74.519,0.0,0.0,2.163,0.0,2457.600,1414756.600,5966595.200,0.0,0.0,0.0,2964.200
