"Dstat 0.7.2 CSV output"
"Author:","Dag Wieers <dag@wieers.com>",,,,"URL:","http://dag.wieers.com/home-made/dstat/"
"Host:","Server2",,,,"User:","mstevan"
"Cmdline:","dstat --output /home/mstevan/logs/experiment_2.2/dstat/vs_256-vcpr_4-rep_3.csv 5 14",,,,"Date:","28 Oct 2019 01:03:09 UTC"

"total cpu usage",,,,,,"dsk/total",,"net/total",,"paging",,"system",
"usr","sys","idl","wai","hiq","siq","read","writ","recv","send","in","out","int","csw"
1.526,2.880,93.762,1.492,0.0,0.340,27306.175,6368644.414,0.0,0.0,0.0,0.0,0.517,821.393
5.215,12.018,81.179,0.0,0.0,1.587,0.0,1638.400,1016594.0,4275413.800,0.0,0.0,0.0,5336.800
4.878,12.417,81.596,0.0,0.0,1.109,0.0,1638.400,967296.800,4067029.600,0.0,0.0,0.0,5152.0
5.643,11.738,81.941,0.0,0.0,0.677,0.0,819.200,971616.0,4095521.400,0.0,0.0,0.0,5360.600
5.531,13.274,79.425,0.221,0.0,1.549,0.0,24576.0,993382.0,4177904.800,0.0,0.0,0.0,5397.600
3.908,11.264,83.908,0.0,0.0,0.920,0.0,819.200,978994.0,4126933.0,0.0,0.0,0.0,5376.200
4.608,13.594,80.876,0.0,0.0,0.922,0.0,2457.600,986870.0,4150574.800,0.0,0.0,0.0,5314.800
4.773,11.818,82.500,0.0,0.0,0.909,0.0,3276.800,981704.800,4129013.800,0.0,0.0,0.0,5323.600
4.251,12.081,82.998,0.0,0.0,0.671,0.0,819.200,959850.400,4048557.600,0.0,0.0,0.0,5397.400
4.762,13.152,81.179,0.0,0.0,0.907,0.0,1638.400,1010179.600,4248885.200,0.0,0.0,0.0,5507.200
5.442,12.245,80.726,0.227,0.0,1.361,0.0,15564.800,985535.800,4144946.800,0.0,0.0,0.0,5355.400
4.338,10.502,84.247,0.0,0.0,0.913,0.0,819.200,958834.600,4043650.600,0.0,0.0,0.0,5028.800
5.791,11.136,81.737,0.0,0.0,1.336,0.0,1638.400,1009548.200,4246900.400,0.0,0.0,0.0,5427.400
4.474,12.975,80.984,0.0,0.0,1.566,0.0,1638.400,983428.0,4133673.400,0.0,0.0,0.0,5369.800
4.677,10.245,83.742,0.0,0.0,1.336,0.0,2457.600,974755.0,4110667.200,0.0,0.0,0.0,5451.400
