"Dstat 0.7.2 CSV output"
"Author:","Dag Wieers <dag@wieers.com>",,,,"URL:","http://dag.wieers.com/home-made/dstat/"
"Host:","Server2",,,,"User:","mstevan"
"Cmdline:","dstat --output /home/mstevan/logs/experiment_2.2/dstat/vs_512-vcpr_8-rep_4.csv 5 14",,,,"Date:","28 Oct 2019 01:27:55 UTC"

"total cpu usage",,,,,,"dsk/total",,"net/total",,"paging",,"system",
"usr","sys","idl","wai","hiq","siq","read","writ","recv","send","in","out","int","csw"
2.295,5.000,90.842,1.267,0.0,0.596,22455.051,5237613.981,0.0,0.0,0.0,0.0,0.425,1397.807
5.349,14.419,77.907,0.0,0.0,2.326,0.0,1638.400,1200267.200,8694331.400,0.0,0.0,0.0,4111.0
5.093,14.352,79.630,0.0,0.0,0.926,0.0,819.200,1245012.200,9045701.400,0.0,0.0,0.0,4494.800
5.276,12.710,80.576,0.0,0.0,1.439,0.0,1638.400,1240532.400,8986670.800,0.0,0.0,0.0,4385.0
5.647,13.176,80.0,0.0,0.0,1.176,0.0,819.200,1178811.400,8564232.600,0.0,0.0,0.0,4068.200
4.773,11.818,82.273,0.0,0.0,1.136,0.0,1638.400,1188856.0,8610612.600,0.0,0.0,0.0,4048.800
5.374,13.084,72.430,6.776,0.0,2.336,0.0,23756.800,1177765.200,8533084.200,0.0,0.0,0.0,4353.800
5.755,16.547,76.019,0.0,0.0,1.679,0.0,3276.800,1210755.800,8790270.0,0.0,0.0,0.0,4278.200
6.921,15.036,75.418,0.0,0.0,2.625,0.0,1638.400,1208217.0,8751164.400,0.0,0.0,0.0,4379.200
5.952,17.381,75.714,0.0,0.0,0.952,0.0,1638.400,1233995.800,8940588.200,0.0,0.0,0.0,4576.600
5.324,15.741,77.083,0.0,0.0,1.852,0.0,819.200,1215342.800,8828480.200,0.0,0.0,0.200,4443.800
5.425,16.038,77.358,0.0,0.0,1.179,0.0,1638.400,1197542.800,8678515.200,0.0,0.0,0.0,4410.200
5.855,14.520,77.986,0.0,0.0,1.639,0.0,14745.600,1202872.800,8734153.0,0.0,0.0,0.0,4241.0
7.547,14.858,76.415,0.0,0.0,1.179,0.0,1638.400,1207016.600,8746258.600,0.0,0.0,0.0,4175.400
6.792,13.115,79.157,0.0,0.0,0.937,0.0,2457.600,1217028.0,8816947.600,0.0,0.0,0.0,4338.400
