"Dstat 0.7.2 CSV output"
"Author:","Dag Wieers <dag@wieers.com>",,,,"URL:","http://dag.wieers.com/home-made/dstat/"
"Host:","Server2",,,,"User:","mstevan"
"Cmdline:","dstat --output /home/mstevan/logs/experiment_2.2/dstat/vs_512-vcpr_16-rep_3.csv 5 14",,,,"Date:","28 Oct 2019 01:31:26 UTC"

"total cpu usage",,,,,,"dsk/total",,"net/total",,"paging",,"system",
"usr","sys","idl","wai","hiq","siq","read","writ","recv","send","in","out","int","csw"
2.386,5.244,90.505,1.244,0.0,0.622,21902.108,5108752.088,0.0,0.0,0.0,0.0,0.415,1448.050
4.474,11.633,82.327,0.0,0.0,1.566,0.0,819.200,1367304.200,9934627.0,0.0,0.0,0.0,2448.0
4.688,13.393,80.357,0.0,0.0,1.562,0.0,1638.400,1419258.800,10289971.600,0.0,0.0,0.0,2627.0
6.858,12.168,79.867,0.0,0.0,1.106,0.0,1638.400,1419835.400,10293038.800,0.0,0.0,0.0,2690.800
4.063,12.415,82.393,0.0,0.0,1.129,0.0,819.200,1440805.0,10473648.200,0.0,0.0,0.0,2798.400
6.236,14.781,77.136,0.0,0.0,1.848,0.0,1638.400,1431440.0,10369813.400,0.0,0.0,0.0,2746.400
5.226,22.090,70.309,0.475,0.0,1.900,0.0,18841.600,1455399.0,10577037.800,0.0,0.0,0.0,3010.400
6.776,16.355,74.766,0.0,0.0,2.103,0.0,8192.0,1436332.200,10413363.800,0.0,0.0,0.0,2960.600
7.452,20.192,70.192,0.0,0.0,2.163,0.0,1638.400,1450823.200,10522399.200,0.0,0.0,0.0,2998.400
6.538,16.707,74.818,0.0,0.0,1.937,0.0,819.200,1440057.600,10465267.400,0.0,0.0,0.0,3041.200
6.682,18.894,71.659,0.0,0.0,2.765,0.0,1638.400,1476596.200,10712338.200,0.0,0.0,0.0,3086.400
7.477,17.290,71.963,0.0,0.0,3.271,0.0,1638.400,1455121.400,10550428.600,0.0,0.0,0.0,2984.600
8.046,15.172,74.253,0.0,0.0,2.529,0.0,819.200,1478498.800,10730236.800,0.0,0.0,0.0,3062.0
5.734,13.761,78.670,0.229,0.0,1.606,0.0,15564.800,1473447.600,10681018.400,0.0,0.0,0.0,2900.400
5.418,15.801,77.427,0.0,0.0,1.354,0.0,3276.800,1453003.200,10528740.200,0.0,0.0,0.0,3024.800
