"Dstat 0.7.2 CSV output"
"Author:","Dag Wieers <dag@wieers.com>",,,,"URL:","http://dag.wieers.com/home-made/dstat/"
"Host:","Server2",,,,"User:","mstevan"
"Cmdline:","dstat --output /home/mstevan/logs/experiment_2.2/dstat/vs_512-vcpr_32-rep_2.csv 5 14",,,,"Date:","28 Oct 2019 01:34:57 UTC"

"total cpu usage",,,,,,"dsk/total",,"net/total",,"paging",,"system",
"usr","sys","idl","wai","hiq","siq","read","writ","recv","send","in","out","int","csw"
2.490,5.519,90.112,1.218,0.0,0.661,21375.281,4985978.926,0.0,0.0,0.0,0.0,0.405,1477.881
9.415,22.392,63.868,0.0,0.0,4.326,0.0,3276.800,1691154.0,12275926.800,0.0,0.0,0.0,2015.600
9.487,22.564,63.333,0.0,0.0,4.615,0.0,1638.400,1695068.800,12295036.0,0.0,0.0,0.0,2048.600
7.752,22.481,66.408,0.0,0.0,3.359,0.0,819.200,1702973.600,12368832.0,0.0,0.0,0.0,2124.600
10.199,23.383,63.930,0.0,0.0,2.488,0.0,1638.400,1685389.400,12227258.200,0.0,0.0,0.0,1936.800
9.463,18.926,69.054,0.0,0.0,2.558,0.0,819.200,1679925.200,12210777.600,0.0,0.0,0.0,2034.600
9.068,22.670,64.987,0.252,0.0,3.023,0.0,18022.400,1709392.200,12402220.800,0.0,0.0,0.0,2102.800
8.557,21.760,66.015,0.0,0.0,3.667,0.0,4096.0,1694873.200,12292162.800,0.0,0.0,0.0,2018.400
6.619,19.858,70.922,0.0,0.0,2.600,0.0,819.200,1727199.200,12553062.0,0.0,0.0,0.0,2143.600
9.360,20.443,67.488,0.0,0.0,2.709,0.0,1638.400,1715991.400,12461895.0,0.0,0.0,0.0,2028.400
7.789,20.854,68.090,0.0,0.0,3.266,0.0,1638.400,1688576.400,12242597.400,0.0,0.0,0.0,2049.800
7.612,23.622,64.829,0.0,0.0,3.937,0.0,819.200,1701262.800,12366952.600,0.0,0.0,0.0,2016.600
8.924,23.622,63.255,0.0,0.0,4.199,0.0,1638.400,1672716.800,12137485.600,0.0,0.0,0.0,1975.600
6.941,25.450,63.753,0.257,0.0,3.599,0.0,17203.200,1702193.0,12371689.0,0.0,0.0,0.0,1964.0
9.429,22.084,65.012,0.0,0.0,3.474,0.0,3276.800,1641182.200,11887944.600,0.0,0.0,0.0,2029.200
