"Dstat 0.7.2 CSV output"
"Author:","Dag Wieers <dag@wieers.com>",,,,"URL:","http://dag.wieers.com/home-made/dstat/"
"Host:","Server2",,,,"User:","mstevan"
"Cmdline:","dstat --output /home/mstevan/logs/experiment_2.2/dstat/vs_512-vcpr_16-rep_4.csv 5 14",,,,"Date:","28 Oct 2019 01:32:37 UTC"

"total cpu usage",,,,,,"dsk/total",,"net/total",,"paging",,"system",
"usr","sys","idl","wai","hiq","siq","read","writ","recv","send","in","out","int","csw"
2.414,5.322,90.397,1.235,0.0,0.632,21723.688,5067168.841,0.0,0.0,0.0,0.0,0.412,1459.649
5.446,18.812,73.267,0.0,0.0,2.475,0.0,819.200,1480370.400,10763744.800,0.0,0.0,0.0,3153.200
7.470,18.072,72.048,0.0,0.0,2.410,0.0,1638.400,1462412.0,10599170.600,0.0,0.0,0.0,3123.400
6.954,19.185,71.703,0.0,0.0,2.158,0.0,1638.400,1483774.0,10764015.400,0.0,0.0,0.0,3208.400
6.429,18.095,72.143,0.476,0.0,2.857,0.0,18841.600,1506269.600,10938628.400,0.0,0.0,0.0,3134.800
7.838,17.102,73.159,0.0,0.0,1.900,0.0,5734.400,1437220.600,10422358.0,0.0,0.0,0.0,3025.200
7.371,20.639,69.779,0.0,0.0,2.211,0.0,819.200,1460982.600,10612423.800,0.0,0.0,0.0,3040.0
5.882,16.706,75.765,0.0,0.0,1.647,0.0,4096.0,1479171.800,10728030.0,0.0,0.0,0.0,3044.800
8.057,15.640,73.697,0.0,0.0,2.607,0.0,1638.400,1458043.0,10574974.200,0.0,0.0,0.0,2992.400
6.651,18.052,73.397,0.0,0.0,1.900,0.0,819.200,1484655.800,10787054.0,0.0,0.0,0.0,3239.600
7.277,15.962,74.413,0.0,0.0,2.347,0.0,1638.400,1491819.0,10818166.200,0.0,0.0,0.0,3255.800
6.178,14.645,76.888,0.229,0.0,2.059,0.0,15564.800,1470495.200,10664364.200,0.0,0.0,0.0,3164.400
7.092,16.312,73.759,0.0,0.0,2.837,0.0,819.200,1505036.600,10931264.800,0.0,0.0,0.0,3250.200
7.059,16.235,74.118,0.0,0.0,2.588,0.0,1638.400,1465624.400,10624009.600,0.0,0.0,0.0,3122.400
5.830,14.350,78.475,0.0,0.0,1.345,0.0,2457.600,1449669.200,10521643.800,0.0,0.0,0.0,3156.0
