"Dstat 0.7.2 CSV output"
"Author:","Dag Wieers <dag@wieers.com>",,,,"URL:","http://dag.wieers.com/home-made/dstat/"
"Host:","Server2",,,,"User:","mstevan"
"Cmdline:","dstat --output /home/mstevan/logs/experiment_2.2/dstat/vs_512-vcpr_8-rep_3.csv 5 14",,,,"Date:","28 Oct 2019 01:26:45 UTC"

"total cpu usage",,,,,,"dsk/total",,"net/total",,"paging",,"system",
"usr","sys","idl","wai","hiq","siq","read","writ","recv","send","in","out","int","csw"
2.267,4.925,90.943,1.276,0.0,0.589,22645.686,5282033.399,0.0,0.0,0.0,0.0,0.429,1372.023
5.505,14.220,78.211,0.459,0.0,1.606,0.0,20480.0,1169714.400,8472294.600,0.0,0.0,0.0,4252.800
6.912,14.516,77.189,0.0,0.0,1.382,0.0,819.200,1210561.600,8793504.200,0.0,0.0,0.0,4533.600
7.126,15.202,76.010,0.0,0.0,1.663,0.0,1638.400,1192376.800,8636186.0,0.0,0.0,0.0,4446.0
5.517,14.713,78.851,0.0,0.0,0.920,0.0,819.200,1176737.600,8524525.800,0.0,0.0,0.0,4130.200
5.336,13.225,80.278,0.0,0.0,1.160,0.0,1638.400,1189256.400,8640255.0,0.0,0.0,0.0,4576.600
6.697,15.704,75.982,0.0,0.0,1.617,0.0,1638.400,1182903.0,8567323.400,0.0,0.0,0.0,4500.600
5.581,13.023,79.767,0.0,0.0,1.628,0.0,3276.800,1184939.200,8603816.800,0.0,0.0,0.0,4499.800
5.324,14.352,78.472,0.463,0.0,1.389,0.0,21299.200,1184142.200,8572621.0,0.0,0.0,0.0,4453.800
7.209,16.977,74.186,0.0,0.0,1.628,0.0,1638.400,1198261.200,8679406.600,0.0,0.0,0.0,4377.200
4.630,15.509,78.009,0.0,0.0,1.852,0.0,819.200,1208985.200,8782280.600,0.0,0.0,0.0,4494.600
5.116,15.814,77.209,0.0,0.0,1.860,0.0,1638.400,1198279.600,8683830.400,0.0,0.0,0.0,4659.800
6.190,13.810,78.571,0.0,0.0,1.429,0.0,1638.400,1183400.800,8574306.200,0.0,0.0,0.0,4412.400
5.543,14.319,78.753,0.0,0.0,1.386,0.0,1638.400,1210760.0,8794905.200,0.0,0.0,0.0,4512.200
5.227,14.318,78.636,0.909,0.0,0.909,0.0,17203.200,1181961.800,8561807.0,0.0,0.0,0.0,4523.800
