"Dstat 0.7.2 CSV output"
"Author:","Dag Wieers <dag@wieers.com>",,,,"URL:","http://dag.wieers.com/home-made/dstat/"
"Host:","Server2",,,,"User:","mstevan"
"Cmdline:","dstat --output /home/mstevan/logs/experiment_2.2/dstat/vs_64-vcpr_8-rep_4.csv 5 14",,,,"Date:","28 Oct 2019 00:50:06 UTC"

"total cpu usage",,,,,,"dsk/total",,"net/total",,"paging",,"system",
"usr","sys","idl","wai","hiq","siq","read","writ","recv","send","in","out","int","csw"
0.917,1.247,96.069,1.647,0.0,0.119,30813.712,7186114.235,0.0,0.0,0.0,0.0,0.582,501.177
4.730,13.063,81.081,0.0,0.0,1.126,0.0,1638.400,1192553.0,2290969.0,0.0,0.0,0.0,4338.400
4.907,14.953,78.738,0.0,0.0,1.402,0.0,18841.600,1192472.200,2296666.400,0.0,0.0,0.0,4529.400
5.634,13.380,79.812,0.0,0.0,1.174,0.0,5734.400,1176921.400,2259506.0,0.0,0.0,0.0,4600.600
6.667,15.714,76.429,0.0,0.0,1.190,0.0,819.200,1199230.600,2309684.400,0.0,0.0,0.0,4466.800
5.747,15.862,76.782,0.0,0.0,1.609,0.0,1638.400,1177411.400,2261617.200,0.0,0.0,0.0,4468.0
6.027,12.723,79.911,0.0,0.0,1.339,0.0,1638.400,1199167.600,2303717.200,0.0,0.0,0.0,4631.600
4.911,14.062,80.134,0.0,0.0,0.893,0.0,3276.800,1221837.600,2352305.200,0.0,0.0,0.0,4605.400
5.399,14.085,79.108,0.0,0.0,1.408,0.0,1638.400,1185684.200,2277021.400,0.0,0.0,0.0,4575.800
5.505,12.385,80.734,0.229,0.0,1.147,0.0,15564.800,1168917.800,2245409.800,0.0,0.0,0.0,4359.600
5.412,14.588,78.118,0.0,0.0,1.882,0.0,819.200,1184168.600,2279745.400,0.0,0.0,0.0,4473.600
5.760,12.442,80.415,0.0,0.0,1.382,0.0,1638.400,1162100.400,2232379.600,0.0,0.0,0.0,4275.200
3.712,13.457,81.671,0.0,0.0,1.160,0.0,819.200,1202091.600,2315147.0,0.0,0.0,0.0,4615.600
5.787,17.593,75.463,0.0,0.0,1.157,0.0,1638.400,1213534.0,2331129.200,0.0,0.0,0.0,4559.400
6.306,13.739,78.604,0.0,0.0,1.351,0.0,3276.800,1167800.600,2243598.400,0.0,0.0,0.0,4472.800
