"Dstat 0.7.2 CSV output"
"Author:","Dag Wieers <dag@wieers.com>",,,,"URL:","http://dag.wieers.com/home-made/dstat/"
"Host:","Server2",,,,"User:","mstevan"
"Cmdline:","dstat --output /home/mstevan/logs/experiment_2.2/dstat/vs_64-vcpr_32-rep_2.csv 5 14",,,,"Date:","28 Oct 2019 00:57:09 UTC"

"total cpu usage",,,,,,"dsk/total",,"net/total",,"paging",,"system",
"usr","sys","idl","wai","hiq","siq","read","writ","recv","send","in","out","int","csw"
1.260,2.170,94.770,1.559,0.0,0.240,28816.360,6720608.541,0.0,0.0,0.0,0.0,0.545,673.762
7.969,24.165,63.239,0.0,0.0,4.627,0.0,1638.400,1734900.200,3337691.400,0.0,0.0,0.0,2101.600
10.380,23.038,63.797,0.0,0.0,2.785,0.0,1638.400,1701935.800,3274054.800,0.0,0.0,0.0,2157.0
8.142,22.392,65.649,0.254,0.0,3.562,0.0,18841.600,1715603.200,3304759.400,0.0,0.0,0.0,2056.800
9.158,22.525,65.347,0.0,0.0,2.970,0.0,5734.400,1721135.200,3313127.600,0.0,0.0,0.0,2139.800
8.974,22.051,67.179,0.0,0.0,1.795,0.0,819.200,1718863.400,3309052.600,0.0,0.0,0.0,2092.200
7.914,25.420,63.789,0.0,0.0,2.878,0.0,2457.600,1735651.800,3341438.600,0.0,0.0,0.200,1980.600
10.283,22.622,64.267,0.0,0.0,2.828,0.0,4096.0,1691969.400,3252948.0,0.0,0.0,0.0,2044.600
10.250,22.750,63.250,0.0,0.0,3.750,0.0,819.200,1698892.200,3273778.800,0.0,0.0,0.0,1956.400
8.010,27.649,60.982,0.258,0.0,3.101,0.0,15564.800,1706695.800,3281869.400,0.0,0.0,0.0,2034.400
9.794,24.485,61.598,0.0,0.0,4.124,0.0,819.200,1699806.800,3275674.0,0.0,0.0,0.0,1961.200
7.711,22.139,66.418,0.0,0.0,3.731,0.0,1638.400,1722210.400,3313990.0,0.0,0.0,0.0,2027.400
9.512,24.165,61.697,0.0,0.0,4.627,0.0,1638.400,1707825.200,3284599.400,0.0,0.0,0.0,2082.600
8.974,25.897,60.513,0.0,0.0,4.615,0.0,819.200,1701110.0,3278689.600,0.0,0.0,0.0,2066.600
7.769,22.556,65.915,0.0,0.0,3.759,0.0,3276.800,1683544.200,3235055.600,0.0,0.0,0.0,2151.600
