\relax 
\providecommand\hyper@newdestlabel[2]{}
\providecommand\HyperFirstAtBeginDocument{\AtBeginDocument}
\HyperFirstAtBeginDocument{\ifx\hyper@anchor\@undefined
\global\let\oldcontentsline\contentsline
\gdef\contentsline#1#2#3#4{\oldcontentsline{#1}{#2}{#3}}
\global\let\oldnewlabel\newlabel
\gdef\newlabel#1#2{\newlabelxx{#1}#2}
\gdef\newlabelxx#1#2#3#4#5#6{\oldnewlabel{#1}{{#2}{#3}}}
\AtEndDocument{\ifx\hyper@anchor\@undefined
\let\contentsline\oldcontentsline
\let\newlabel\oldnewlabel
\fi}
\fi}
\global\let\hyper@last\relax 
\gdef\HyperFirstAtBeginDocument#1{#1}
\providecommand\HyField@AuxAddToFields[1]{}
\providecommand\HyField@AuxAddToCoFields[2]{}
\providecommand \oddpage@label [2]{}
\@writefile{toc}{\contentsline {section}{\numberline {1}System Overview (80 pts)}{2}{section.1}}
\@writefile{toc}{\contentsline {subsection}{\numberline {1.1}System Description (20 pts)}{2}{subsection.1.1}}
\newlabel{sec:system_description}{{1.1}{2}{System Description (20 pts)}{subsection.1.1}{}}
\@writefile{toc}{\contentsline {subsection}{\numberline {1.2}Middleware Data-Structures (20 pts)}{2}{subsection.1.2}}
\newlabel{sec:data_structures}{{1.2}{2}{Middleware Data-Structures (20 pts)}{subsection.1.2}{}}
\@writefile{lof}{\contentsline {figure}{\numberline {1}{\ignorespaces System Overview, System Architecture and Timestamps\relax }}{3}{figure.caption.1}}
\providecommand*\caption@xref[2]{\@setref\relax\@undefined{#1}}
\newlabel{fig:system_overview}{{1}{3}{System Overview, System Architecture and Timestamps\relax }{figure.caption.1}{}}
\@writefile{toc}{\contentsline {subsubsection}{\numberline {1.2.1}RunMW.java class}{3}{subsubsection.1.2.1}}
\@writefile{toc}{\contentsline {subsubsection}{\numberline {1.2.2}MyMiddleware.java class}{3}{subsubsection.1.2.2}}
\newlabel{class:mymw}{{1.2.2}{3}{MyMiddleware.java class}{subsubsection.1.2.2}{}}
\@writefile{toc}{\contentsline {subsubsection}{\numberline {1.2.3}Request.java class}{4}{subsubsection.1.2.3}}
\newlabel{class:request}{{1.2.3}{4}{Request.java class}{subsubsection.1.2.3}{}}
\@writefile{toc}{\contentsline {subsubsection}{\numberline {1.2.4}WorkerThread.java class}{4}{subsubsection.1.2.4}}
\newlabel{class:wt}{{1.2.4}{4}{WorkerThread.java class}{subsubsection.1.2.4}{}}
\@writefile{toc}{\contentsline {subsubsection}{\numberline {1.2.5}Counter.java class}{5}{subsubsection.1.2.5}}
\newlabel{class:counter}{{1.2.5}{5}{Counter.java class}{subsubsection.1.2.5}{}}
\@writefile{toc}{\contentsline {subsubsection}{\numberline {1.2.6}Logger.java class}{5}{subsubsection.1.2.6}}
\newlabel{class:logger}{{1.2.6}{5}{Logger.java class}{subsubsection.1.2.6}{}}
\@writefile{toc}{\contentsline {subsubsection}{\numberline {1.2.7}Constants.java class}{6}{subsubsection.1.2.7}}
\@writefile{toc}{\contentsline {subsection}{\numberline {1.3}Middleware Request Handling (16 pts)}{6}{subsection.1.3}}
\@writefile{toc}{\contentsline {subsubsection}{\numberline {1.3.1}Request Parsing (8 pts)}{6}{subsubsection.1.3.1}}
\@writefile{toc}{\contentsline {subsubsection}{\numberline {1.3.2}Requests Processing (8 pts)}{6}{subsubsection.1.3.2}}
\@writefile{toc}{\contentsline {subsection}{\numberline {1.4}Work Balancing (8 pts)}{6}{subsection.1.4}}
\@writefile{lot}{\contentsline {table}{\numberline {1}{\ignorespaces Load Balance proof of equal distribution\relax }}{6}{table.caption.2}}
\newlabel{tab:round_robin}{{1}{6}{Load Balance proof of equal distribution\relax }{table.caption.2}{}}
\@writefile{toc}{\contentsline {subsection}{\numberline {1.5}Data Processing (8 pts)}{7}{subsection.1.5}}
\@writefile{toc}{\contentsline {subsection}{\numberline {1.6}Experimental Setup (8 pts)}{7}{subsection.1.6}}
\newlabel{sec:experimental_setup}{{1.6}{7}{Experimental Setup (8 pts)}{subsection.1.6}{}}
\@writefile{lot}{\contentsline {table}{\numberline {2}{\ignorespaces Max BW between pairs of servers. Cells are in format upload(UL)/download(DL)\relax }}{8}{table.caption.3}}
\newlabel{tab:iperf}{{2}{8}{Max BW between pairs of servers. Cells are in format upload(UL)/download(DL)\relax }{table.caption.3}{}}
\@writefile{toc}{\contentsline {section}{\numberline {2}Baseline without Middleware (120 pts)}{8}{section.2}}
\newlabel{sec:2}{{2}{8}{Baseline without Middleware (120 pts)}{section.2}{}}
\@writefile{toc}{\contentsline {subsection}{\numberline {2.1}One Server (50 pts)}{8}{subsection.2.1}}
\newlabel{sec:2.1}{{2.1}{8}{One Server (50 pts)}{subsection.2.1}{}}
\@writefile{toc}{\contentsline {subsubsection}{\numberline {2.1.1}Setup (5 pts)}{8}{subsubsection.2.1.1}}
\@writefile{toc}{\contentsline {subsubsection}{\numberline {2.1.2}Throughput (10 pts)}{8}{subsubsection.2.1.2}}
\@writefile{toc}{\contentsline {subsubsection}{\numberline {2.1.3}Response Time (10 pts)}{8}{subsubsection.2.1.3}}
\@writefile{toc}{\contentsline {subsubsection}{\numberline {2.1.4}Result Analysis (5 pts)}{8}{subsubsection.2.1.4}}
\newlabel{sec:2.1_il}{{2.1.4}{8}{Result Analysis (5 pts)}{subsubsection.2.1.4}{}}
\@writefile{lot}{\contentsline {table}{\numberline {3}{\ignorespaces Interactive law\relax }}{8}{table.caption.4}}
\newlabel{tab:sec2.1_il}{{3}{8}{Interactive law\relax }{table.caption.4}{}}
\@writefile{toc}{\contentsline {subsubsection}{\numberline {2.1.5}Explanation (20 pts)}{8}{subsubsection.2.1.5}}
\newlabel{sec:2.1_explanation}{{2.1.5}{8}{Explanation (20 pts)}{subsubsection.2.1.5}{}}
\@writefile{lof}{\contentsline {figure}{\numberline {2}{\ignorespaces TP as function of NumClient (left) and value size(right)\relax }}{9}{figure.caption.5}}
\newlabel{fig:2.1_tp}{{2}{9}{TP as function of NumClient (left) and value size(right)\relax }{figure.caption.5}{}}
\@writefile{lof}{\contentsline {figure}{\numberline {3}{\ignorespaces RT as function of NumClient (left) and value size(right)\relax }}{9}{figure.caption.6}}
\newlabel{fig:2.1_rt}{{3}{9}{RT as function of NumClient (left) and value size(right)\relax }{figure.caption.6}{}}
\@writefile{toc}{\contentsline {subsection}{\numberline {2.2}Three Servers (50 pts)}{10}{subsection.2.2}}
\newlabel{sec:2.2}{{2.2}{10}{Three Servers (50 pts)}{subsection.2.2}{}}
\@writefile{toc}{\contentsline {subsubsection}{\numberline {2.2.1}Setup (5 pts)}{10}{subsubsection.2.2.1}}
\@writefile{toc}{\contentsline {subsubsection}{\numberline {2.2.2}Throughput (10 pts)}{10}{subsubsection.2.2.2}}
\@writefile{lof}{\contentsline {figure}{\numberline {4}{\ignorespaces TP as function of NumClient (left) and value size(right)\relax }}{10}{figure.caption.7}}
\newlabel{fig:2.2_tp}{{4}{10}{TP as function of NumClient (left) and value size(right)\relax }{figure.caption.7}{}}
\@writefile{toc}{\contentsline {subsubsection}{\numberline {2.2.3}Response Time (10 pts)}{10}{subsubsection.2.2.3}}
\@writefile{lof}{\contentsline {figure}{\numberline {5}{\ignorespaces RT as function of NumClient (left) and value size(right)\relax }}{10}{figure.caption.8}}
\newlabel{fig:2.2_rt}{{5}{10}{RT as function of NumClient (left) and value size(right)\relax }{figure.caption.8}{}}
\@writefile{toc}{\contentsline {subsubsection}{\numberline {2.2.4}Result Analysis (5 pts)}{10}{subsubsection.2.2.4}}
\@writefile{toc}{\contentsline {subsubsection}{\numberline {2.2.5}Explanation (20 pts)}{11}{subsubsection.2.2.5}}
\newlabel{sec:2.2_explanation}{{2.2.5}{11}{Explanation (20 pts)}{subsubsection.2.2.5}{}}
\@writefile{toc}{\contentsline {subsection}{\numberline {2.3}Summary (20 pts)}{11}{subsection.2.3}}
\@writefile{toc}{\contentsline {subsubsection}{\numberline {2.3.1}Bottleneck Analysis (10 pts)}{11}{subsubsection.2.3.1}}
\newlabel{sec:2.3_bottleneck}{{2.3.1}{11}{Bottleneck Analysis (10 pts)}{subsubsection.2.3.1}{}}
\@writefile{toc}{\contentsline {subsubsection}{\numberline {2.3.2}One and Three Servers Configurations (5 pts)}{11}{subsubsection.2.3.2}}
\newlabel{sec:2.3_1vs3servers}{{2.3.2}{11}{One and Three Servers Configurations (5 pts)}{subsubsection.2.3.2}{}}
\@writefile{toc}{\contentsline {section}{\numberline {3}Baseline with Middleware (240 pts)}{12}{section.3}}
\newlabel{sec:3}{{3}{12}{Baseline with Middleware (240 pts)}{section.3}{}}
\@writefile{toc}{\contentsline {subsection}{\numberline {3.1}One Middleware, One Server (50 pts)}{12}{subsection.3.1}}
\newlabel{sec:3.1}{{3.1}{12}{One Middleware, One Server (50 pts)}{subsection.3.1}{}}
\@writefile{toc}{\contentsline {subsubsection}{\numberline {3.1.1}Setup (5 pts)}{12}{subsubsection.3.1.1}}
\@writefile{toc}{\contentsline {subsubsection}{\numberline {3.1.2}Throughput (10 pts)}{12}{subsubsection.3.1.2}}
\@writefile{toc}{\contentsline {subsubsection}{\numberline {3.1.3}Response Time (10 pts)}{12}{subsubsection.3.1.3}}
\@writefile{toc}{\contentsline {subsubsection}{\numberline {3.1.4}Result Analysis (5 pts)}{12}{subsubsection.3.1.4}}
\newlabel{sec:3.1_il}{{3.1.4}{12}{Result Analysis (5 pts)}{subsubsection.3.1.4}{}}
\@writefile{lot}{\contentsline {table}{\numberline {4}{\ignorespaces Interactive law for 8 WTPM\relax }}{12}{table.caption.9}}
\newlabel{tab:sec3.1_il_8wt}{{4}{12}{Interactive law for 8 WTPM\relax }{table.caption.9}{}}
\@writefile{lot}{\contentsline {table}{\numberline {5}{\ignorespaces Interactive law for 32 WTPM\relax }}{12}{table.caption.10}}
\newlabel{tab:sec3.1_il_32wt}{{5}{12}{Interactive law for 32 WTPM\relax }{table.caption.10}{}}
\@writefile{lot}{\contentsline {table}{\numberline {6}{\ignorespaces Interactive law for 64 WTPM\relax }}{12}{table.caption.11}}
\newlabel{tab:sec3.1_il_64wt}{{6}{12}{Interactive law for 64 WTPM\relax }{table.caption.11}{}}
\@writefile{lof}{\contentsline {figure}{\numberline {6}{\ignorespaces TP as function of NumClient (left) and value size(right) for 8 WTPM\relax }}{13}{figure.caption.12}}
\newlabel{fig:3.1_tp_8w}{{6}{13}{TP as function of NumClient (left) and value size(right) for 8 WTPM\relax }{figure.caption.12}{}}
\@writefile{lof}{\contentsline {figure}{\numberline {7}{\ignorespaces TP as function of NumClient (left) and value size (right) for 32 WTPM\relax }}{13}{figure.caption.13}}
\newlabel{fig:3.1_tp_32w}{{7}{13}{TP as function of NumClient (left) and value size (right) for 32 WTPM\relax }{figure.caption.13}{}}
\@writefile{lof}{\contentsline {figure}{\numberline {8}{\ignorespaces TP as function of NumClient (left) and value size (right) for 64 WTPM\relax }}{13}{figure.caption.14}}
\newlabel{fig:3.1_tp_64w}{{8}{13}{TP as function of NumClient (left) and value size (right) for 64 WTPM\relax }{figure.caption.14}{}}
\@writefile{lof}{\contentsline {figure}{\numberline {9}{\ignorespaces RT as function of NumClient (left) and value size (right) for 8 WTPM\relax }}{14}{figure.caption.15}}
\newlabel{fig:3.1_rt_8w}{{9}{14}{RT as function of NumClient (left) and value size (right) for 8 WTPM\relax }{figure.caption.15}{}}
\@writefile{lof}{\contentsline {figure}{\numberline {10}{\ignorespaces RT as function of NumClient (left) and value size (right) for 32 WTPM\relax }}{14}{figure.caption.16}}
\newlabel{fig:3.1_rt_32w}{{10}{14}{RT as function of NumClient (left) and value size (right) for 32 WTPM\relax }{figure.caption.16}{}}
\@writefile{lof}{\contentsline {figure}{\numberline {11}{\ignorespaces RT as function of NumClient (left) and value size (right) for 64 WTPM\relax }}{14}{figure.caption.17}}
\newlabel{fig:3.1_rt_64w}{{11}{14}{RT as function of NumClient (left) and value size (right) for 64 WTPM\relax }{figure.caption.17}{}}
\@writefile{toc}{\contentsline {subsubsection}{\numberline {3.1.5}Explanation (20pts)}{15}{subsubsection.3.1.5}}
\newlabel{sec:3.1_explanation}{{3.1.5}{15}{Explanation (20pts)}{subsubsection.3.1.5}{}}
\@writefile{toc}{\contentsline {subsection}{\numberline {3.2}One Middleware, Three Server (50 pts)}{15}{subsection.3.2}}
\newlabel{sec:3.2}{{3.2}{15}{One Middleware, Three Server (50 pts)}{subsection.3.2}{}}
\@writefile{toc}{\contentsline {subsubsection}{\numberline {3.2.1}Setup (5 pts)}{15}{subsubsection.3.2.1}}
\@writefile{toc}{\contentsline {subsubsection}{\numberline {3.2.2}Throughput (10 pts)}{15}{subsubsection.3.2.2}}
\@writefile{toc}{\contentsline {subsubsection}{\numberline {3.2.3}Response Time (10 pts)}{15}{subsubsection.3.2.3}}
\@writefile{lof}{\contentsline {figure}{\numberline {12}{\ignorespaces TP as function of NumClient (left) and value size (right) for 8 WTPM\relax }}{16}{figure.caption.18}}
\newlabel{fig:3.2_tp_8w}{{12}{16}{TP as function of NumClient (left) and value size (right) for 8 WTPM\relax }{figure.caption.18}{}}
\@writefile{lof}{\contentsline {figure}{\numberline {13}{\ignorespaces TP as function of NumClient (left) and value size (right) for 32 WTPM\relax }}{16}{figure.caption.19}}
\newlabel{fig:3.2_tp_32w}{{13}{16}{TP as function of NumClient (left) and value size (right) for 32 WTPM\relax }{figure.caption.19}{}}
\@writefile{lof}{\contentsline {figure}{\numberline {14}{\ignorespaces TP as function of NumClient (left) and value size (right) for 64 WTPM\relax }}{16}{figure.caption.20}}
\newlabel{fig:3.2_tp_64w}{{14}{16}{TP as function of NumClient (left) and value size (right) for 64 WTPM\relax }{figure.caption.20}{}}
\@writefile{lof}{\contentsline {figure}{\numberline {15}{\ignorespaces RT as function of NumClient (left) and value size (right) for 8 WTPM\relax }}{17}{figure.caption.21}}
\newlabel{fig:3.2_rt_8w}{{15}{17}{RT as function of NumClient (left) and value size (right) for 8 WTPM\relax }{figure.caption.21}{}}
\@writefile{lof}{\contentsline {figure}{\numberline {16}{\ignorespaces RT as function of NumClient (left) and value size (right) for 32 WTPM\relax }}{17}{figure.caption.22}}
\newlabel{fig:3.2_rt_32w}{{16}{17}{RT as function of NumClient (left) and value size (right) for 32 WTPM\relax }{figure.caption.22}{}}
\@writefile{lof}{\contentsline {figure}{\numberline {17}{\ignorespaces RT as function of NumClient (left) and value size (right) for 64 WTPM\relax }}{17}{figure.caption.23}}
\newlabel{fig:3.2_rt_64w}{{17}{17}{RT as function of NumClient (left) and value size (right) for 64 WTPM\relax }{figure.caption.23}{}}
\@writefile{toc}{\contentsline {subsubsection}{\numberline {3.2.4}Result Analysis (5 pts)}{17}{subsubsection.3.2.4}}
\@writefile{toc}{\contentsline {subsubsection}{\numberline {3.2.5}Explanation (pts 20)}{18}{subsubsection.3.2.5}}
\newlabel{sec:3.2_explanation}{{3.2.5}{18}{Explanation (pts 20)}{subsubsection.3.2.5}{}}
\@writefile{toc}{\contentsline {subsection}{\numberline {3.3}Two Middlewares, One Server (50 pts)}{18}{subsection.3.3}}
\newlabel{sec:3.3}{{3.3}{18}{Two Middlewares, One Server (50 pts)}{subsection.3.3}{}}
\@writefile{toc}{\contentsline {subsubsection}{\numberline {3.3.1}Setup (5 pts)}{18}{subsubsection.3.3.1}}
\@writefile{toc}{\contentsline {subsubsection}{\numberline {3.3.2}Throughput (10 pts)}{18}{subsubsection.3.3.2}}
\@writefile{toc}{\contentsline {subsubsection}{\numberline {3.3.3}Response Time (10 pts)}{18}{subsubsection.3.3.3}}
\@writefile{lof}{\contentsline {figure}{\numberline {18}{\ignorespaces TP as function of NumClient (left) and value size (right) for 8 WTPM\relax }}{19}{figure.caption.24}}
\newlabel{fig:3.3_tp_8w}{{18}{19}{TP as function of NumClient (left) and value size (right) for 8 WTPM\relax }{figure.caption.24}{}}
\@writefile{lof}{\contentsline {figure}{\numberline {19}{\ignorespaces TP as function of NumClient (left) and value size (right) for 32 WTPM\relax }}{19}{figure.caption.25}}
\newlabel{fig:3.3_tp_32w}{{19}{19}{TP as function of NumClient (left) and value size (right) for 32 WTPM\relax }{figure.caption.25}{}}
\@writefile{lof}{\contentsline {figure}{\numberline {20}{\ignorespaces TP as function of NumClient (left) and value size (right) for 64 WTPM\relax }}{19}{figure.caption.26}}
\newlabel{fig:3.3_tp_64w}{{20}{19}{TP as function of NumClient (left) and value size (right) for 64 WTPM\relax }{figure.caption.26}{}}
\@writefile{lof}{\contentsline {figure}{\numberline {21}{\ignorespaces RT as function of NumClient (left) and value size (right) for 8 WTPM\relax }}{20}{figure.caption.27}}
\newlabel{fig:3.3_rt_8w}{{21}{20}{RT as function of NumClient (left) and value size (right) for 8 WTPM\relax }{figure.caption.27}{}}
\@writefile{lof}{\contentsline {figure}{\numberline {22}{\ignorespaces RT as function of NumClient (left) and value size (right) for 32 WTPM\relax }}{20}{figure.caption.28}}
\newlabel{fig:3.3_rt_32w}{{22}{20}{RT as function of NumClient (left) and value size (right) for 32 WTPM\relax }{figure.caption.28}{}}
\@writefile{lof}{\contentsline {figure}{\numberline {23}{\ignorespaces RT as function of NumClient (left) and value size (right) for 64 WTPM\relax }}{20}{figure.caption.29}}
\newlabel{fig:3.3_rt_64w}{{23}{20}{RT as function of NumClient (left) and value size (right) for 64 WTPM\relax }{figure.caption.29}{}}
\@writefile{toc}{\contentsline {subsubsection}{\numberline {3.3.4}Result Analysis (5 pts)}{20}{subsubsection.3.3.4}}
\@writefile{toc}{\contentsline {subsubsection}{\numberline {3.3.5}Explanation (20 pts)}{21}{subsubsection.3.3.5}}
\newlabel{sec:3.3_explanation}{{3.3.5}{21}{Explanation (20 pts)}{subsubsection.3.3.5}{}}
\@writefile{toc}{\contentsline {subsection}{\numberline {3.4}Two Middlewares, Three Server (50 pts)}{21}{subsection.3.4}}
\newlabel{sec:3.4}{{3.4}{21}{Two Middlewares, Three Server (50 pts)}{subsection.3.4}{}}
\@writefile{toc}{\contentsline {subsubsection}{\numberline {3.4.1}Setup (5 pts)}{21}{subsubsection.3.4.1}}
\@writefile{toc}{\contentsline {subsubsection}{\numberline {3.4.2}Throughput (10 pts)}{21}{subsubsection.3.4.2}}
\@writefile{toc}{\contentsline {subsubsection}{\numberline {3.4.3}Response Time (10 pts)}{21}{subsubsection.3.4.3}}
\@writefile{lof}{\contentsline {figure}{\numberline {24}{\ignorespaces TP as function of NumClient (left) and value size (right) for 8 WTPM\relax }}{22}{figure.caption.30}}
\newlabel{fig:3.4_tp_8w}{{24}{22}{TP as function of NumClient (left) and value size (right) for 8 WTPM\relax }{figure.caption.30}{}}
\@writefile{lof}{\contentsline {figure}{\numberline {25}{\ignorespaces TP as function of NumClient (left) and value size (right) for 32 WTPM\relax }}{22}{figure.caption.31}}
\newlabel{fig:3.4_tp_32w}{{25}{22}{TP as function of NumClient (left) and value size (right) for 32 WTPM\relax }{figure.caption.31}{}}
\@writefile{lof}{\contentsline {figure}{\numberline {26}{\ignorespaces TP as function of NumClient (left) and value size (right) for 64 WTPM\relax }}{22}{figure.caption.32}}
\newlabel{fig:3.4_tp_64w}{{26}{22}{TP as function of NumClient (left) and value size (right) for 64 WTPM\relax }{figure.caption.32}{}}
\@writefile{lof}{\contentsline {figure}{\numberline {27}{\ignorespaces RT as function of NumClient (left) and value size (right) for 8 WTPM\relax }}{23}{figure.caption.33}}
\newlabel{fig:3.4_rt_8w}{{27}{23}{RT as function of NumClient (left) and value size (right) for 8 WTPM\relax }{figure.caption.33}{}}
\@writefile{lof}{\contentsline {figure}{\numberline {28}{\ignorespaces RT as function of NumClient (left) and value size (right) for 32 WTPM\relax }}{23}{figure.caption.34}}
\newlabel{fig:3.4_rt_32w}{{28}{23}{RT as function of NumClient (left) and value size (right) for 32 WTPM\relax }{figure.caption.34}{}}
\@writefile{lof}{\contentsline {figure}{\numberline {29}{\ignorespaces RT as function of NumClient (left) and value size (right) for 64 WTPM\relax }}{23}{figure.caption.35}}
\newlabel{fig:3.4_rt_64w}{{29}{23}{RT as function of NumClient (left) and value size (right) for 64 WTPM\relax }{figure.caption.35}{}}
\@writefile{toc}{\contentsline {subsubsection}{\numberline {3.4.4}Result Analysis (5 pts)}{23}{subsubsection.3.4.4}}
\@writefile{toc}{\contentsline {subsubsection}{\numberline {3.4.5}Explanation (20 pts)}{24}{subsubsection.3.4.5}}
\newlabel{sec:3.4_explanation}{{3.4.5}{24}{Explanation (20 pts)}{subsubsection.3.4.5}{}}
\@writefile{toc}{\contentsline {subsection}{\numberline {3.5}Summary (40 pts)}{24}{subsection.3.5}}
\newlabel{sec:maximum_table}{{3.5}{24}{Summary (40 pts)}{subsection.3.5}{}}
\@writefile{toc}{\contentsline {subsubsection}{\numberline {3.5.1}Bottleneck Analysis (10 pts)}{25}{subsubsection.3.5.1}}
\newlabel{sec:3_bottleneck}{{3.5.1}{25}{Bottleneck Analysis (10 pts)}{subsubsection.3.5.1}{}}
\@writefile{toc}{\contentsline {subsubsection}{\numberline {3.5.2}One and Two Middlewaress Configurations (10 pts)}{25}{subsubsection.3.5.2}}
\@writefile{toc}{\contentsline {subsubsection}{\numberline {3.5.3}One and Three Server Configurations (10 pts)}{25}{subsubsection.3.5.3}}
\@writefile{toc}{\contentsline {section}{\numberline {4}2K Analysis (80 pts)}{26}{section.4}}
\@writefile{toc}{\contentsline {subsection}{\numberline {4.1}2K Model (20 pts)}{26}{subsection.4.1}}
\@writefile{lot}{\contentsline {table}{\numberline {7}{\ignorespaces Primary factors and more information about them used for 2K Analysis\relax }}{26}{table.caption.36}}
\newlabel{tab:2k_setup}{{7}{26}{Primary factors and more information about them used for 2K Analysis\relax }{table.caption.36}{}}
\@writefile{lot}{\contentsline {table}{\numberline {8}{\ignorespaces Shapiro Wilk test results\relax }}{26}{table.caption.37}}
\newlabel{tab:2k_shapiro_wilk}{{8}{26}{Shapiro Wilk test results\relax }{table.caption.37}{}}
\newlabel{eq:2k_additive_model}{{1}{26}{2K Model (20 pts)}{equation.4.1}{}}
\newlabel{eq:2k_estimated_response}{{2}{27}{2K Model (20 pts)}{equation.4.2}{}}
\@writefile{lot}{\contentsline {table}{\numberline {9}{\ignorespaces Sign Tables for logarithm transformed RT\relax }}{27}{table.caption.38}}
\newlabel{tab:2k_RT_sign_table}{{9}{27}{Sign Tables for logarithm transformed RT\relax }{table.caption.38}{}}
\@writefile{lot}{\contentsline {table}{\numberline {10}{\ignorespaces Sign Tables for logarithm transformed TP\relax }}{27}{table.caption.39}}
\newlabel{tab:2k_TP_sign_table}{{10}{27}{Sign Tables for logarithm transformed TP\relax }{table.caption.39}{}}
\@writefile{lot}{\contentsline {table}{\numberline {11}{\ignorespaces Calculated factors q, multiplicative factors u and SS for RT. SST = 1.965\relax }}{27}{table.caption.40}}
\newlabel{tab:2k_factors_RT}{{11}{27}{Calculated factors q, multiplicative factors u and SS for RT. SST = 1.965\relax }{table.caption.40}{}}
\@writefile{lot}{\contentsline {table}{\numberline {12}{\ignorespaces Calculated factors q, multiplicative factors u and SS for TP. SST = 0.917\relax }}{28}{table.caption.41}}
\newlabel{tab:2k_factors_TP}{{12}{28}{Calculated factors q, multiplicative factors u and SS for TP. SST = 0.917\relax }{table.caption.41}{}}
\@writefile{toc}{\contentsline {subsection}{\numberline {4.2}Throughput and Response time Impact (40 pts)}{28}{subsection.4.2}}
\@writefile{toc}{\contentsline {subsection}{\numberline {4.3}Comparing Model Results with Experimental Results (20 pts)}{29}{subsection.4.3}}
\@writefile{toc}{\contentsline {section}{\numberline {5}Queuing Model (80 pts)}{29}{section.5}}
\@writefile{toc}{\contentsline {subsection}{\numberline {5.1}M/M/1 (30 pts)}{29}{subsection.5.1}}
\newlabel{sec:mm1}{{5.1}{29}{M/M/1 (30 pts)}{subsection.5.1}{}}
\@writefile{toc}{\contentsline {subsubsection}{\numberline {5.1.1}Model and Input Parameters}{29}{subsubsection.5.1.1}}
\newlabel{sec:mm1_model}{{5.1.1}{29}{Model and Input Parameters}{subsubsection.5.1.1}{}}
\@writefile{toc}{\contentsline {subsubsection}{\numberline {5.1.2}Formulas}{30}{subsubsection.5.1.2}}
\newlabel{sec:mm1_formulas}{{5.1.2}{30}{Formulas}{subsubsection.5.1.2}{}}
\@writefile{toc}{\contentsline {subsubsection}{\numberline {5.1.3}Results and Analysis}{30}{subsubsection.5.1.3}}
\newlabel{sec:mm1_results}{{5.1.3}{30}{Results and Analysis}{subsubsection.5.1.3}{}}
\@writefile{lot}{\contentsline {table}{\numberline {13}{\ignorespaces M/M/1 model and real values comparison for 8 WTPM\relax }}{31}{table.caption.42}}
\newlabel{tab:mm1_8wt}{{13}{31}{M/M/1 model and real values comparison for 8 WTPM\relax }{table.caption.42}{}}
\@writefile{lot}{\contentsline {table}{\numberline {14}{\ignorespaces M/M/1 model and real values comparison for 32 WTPM\relax }}{31}{table.caption.43}}
\newlabel{tab:mm1_32wt}{{14}{31}{M/M/1 model and real values comparison for 32 WTPM\relax }{table.caption.43}{}}
\@writefile{lot}{\contentsline {table}{\numberline {15}{\ignorespaces M/M/1 model and real values comparison for 64 WTPM\relax }}{31}{table.caption.44}}
\newlabel{tab:mm1_64wt}{{15}{31}{M/M/1 model and real values comparison for 64 WTPM\relax }{table.caption.44}{}}
\@writefile{toc}{\contentsline {subsection}{\numberline {5.2}M/M/m (30 pts)}{32}{subsection.5.2}}
\newlabel{sec:mmm}{{5.2}{32}{M/M/m (30 pts)}{subsection.5.2}{}}
\@writefile{toc}{\contentsline {subsubsection}{\numberline {5.2.1}Model and Input Parameters}{32}{subsubsection.5.2.1}}
\@writefile{toc}{\contentsline {subsubsection}{\numberline {5.2.2}Formulas}{32}{subsubsection.5.2.2}}
\@writefile{toc}{\contentsline {subsubsection}{\numberline {5.2.3}Results and Analysis}{32}{subsubsection.5.2.3}}
\@writefile{lot}{\contentsline {table}{\numberline {16}{\ignorespaces M/M/m model and real values comparison for 8 WTPM\relax }}{33}{table.caption.45}}
\newlabel{tab:mmm_8wt}{{16}{33}{M/M/m model and real values comparison for 8 WTPM\relax }{table.caption.45}{}}
\@writefile{lot}{\contentsline {table}{\numberline {17}{\ignorespaces M/M/m model and real values comparison for 32 WTPM\relax }}{33}{table.caption.46}}
\newlabel{tab:mmm_32wt}{{17}{33}{M/M/m model and real values comparison for 32 WTPM\relax }{table.caption.46}{}}
\@writefile{lot}{\contentsline {table}{\numberline {18}{\ignorespaces M/M/m model and real values comparison for 64 WTPM\relax }}{33}{table.caption.47}}
\newlabel{tab:mmm_64wt}{{18}{33}{M/M/m model and real values comparison for 64 WTPM\relax }{table.caption.47}{}}
\@writefile{toc}{\contentsline {subsection}{\numberline {5.3}Network of Queues (20 pts)}{34}{subsection.5.3}}
\@writefile{lof}{\contentsline {figure}{\numberline {30}{\ignorespaces Network of Queues model Overview\relax }}{34}{figure.caption.48}}
\newlabel{fig:network_of_queues_overview}{{30}{34}{Network of Queues model Overview\relax }{figure.caption.48}{}}
\@writefile{lot}{\contentsline {table}{\numberline {19}{\ignorespaces Network of queues model and real values comparison for 8 WTPM\relax }}{36}{table.caption.49}}
\newlabel{tab:netq_8wt}{{19}{36}{Network of queues model and real values comparison for 8 WTPM\relax }{table.caption.49}{}}
\@writefile{lot}{\contentsline {table}{\numberline {20}{\ignorespaces Network of queues model and real values comparison for 32 WTPM\relax }}{36}{table.caption.50}}
\newlabel{tab:netq_32wt}{{20}{36}{Network of queues model and real values comparison for 32 WTPM\relax }{table.caption.50}{}}
\@writefile{lot}{\contentsline {table}{\numberline {21}{\ignorespaces Network of queues model and real values comparison for 64 WTPM\relax }}{36}{table.caption.51}}
\newlabel{tab:netq_64wt}{{21}{36}{Network of queues model and real values comparison for 64 WTPM\relax }{table.caption.51}{}}
