"Dstat 0.7.2 CSV output"
"Author:","Dag Wieers <dag@wieers.com>",,,,"URL:","http://dag.wieers.com/home-made/dstat/"
"Host:","Middleware1",,,,"User:","mstevan"
"Cmdline:","dstat --output /home/mstevan/logs/experiment_3.2/dstat/vs_1024-vcpr_32-wtpm_8-rep_3.csv 5 16",,,,"Date:","28 Oct 2019 10:49:48 UTC"

"total cpu usage",,,,,,"dsk/total",,"net/total",,"paging",,"system",
"usr","sys","idl","wai","hiq","siq","read","writ","recv","send","in","out","int","csw"
2.119,4.522,92.463,0.063,0.0,0.833,7410.396,6229683.901,0.0,0.0,0.0,0.0,11497.871,33685.004
0.727,0.226,99.023,0.0,0.0,0.025,0.0,1638.400,209817.0,200259.0,0.0,0.0,265.600,912.400
5.470,4.833,89.166,0.0,0.0,0.531,0.0,819.200,14730547.600,14726084.600,0.0,0.0,13702.0,35447.600
4.046,3.913,91.696,0.0,0.0,0.346,0.0,2457.600,14310492.800,14306532.200,0.0,0.0,14943.200,34759.800
2.101,4.386,93.067,0.0,0.0,0.446,0.0,2457.600,15846009.600,15841000.600,0.0,0.0,16416.800,38081.400
1.765,4.504,93.363,0.0,0.0,0.369,0.0,819.200,16030117.800,16028900.200,0.0,0.0,16591.200,38608.400
1.754,4.582,92.982,0.131,0.0,0.550,0.0,36044.800,15842068.200,15835789.200,0.0,0.0,16537.800,38350.200
1.688,3.824,94.066,0.0,0.0,0.422,0.0,16384.0,15868940.600,15866410.600,0.0,0.0,16432.200,38260.800
1.944,4.283,93.300,0.0,0.0,0.473,0.0,2457.600,16187343.400,16185010.800,0.0,0.0,16652.600,38970.0
2.565,5.052,91.990,0.0,0.0,0.393,0.0,1638.400,15757767.0,15753340.200,0.0,0.0,16316.800,38185.400
1.794,4.485,93.351,0.0,0.0,0.369,0.0,819.200,15993805.600,15988814.800,0.0,0.0,16473.400,38628.800
2.040,5.492,92.181,0.0,0.0,0.288,0.0,1638.400,16207970.0,16206202.800,0.0,0.0,16570.400,38989.0
1.793,4.562,93.091,0.132,0.0,0.422,0.0,17203.200,15733092.600,15728295.400,0.0,0.0,15969.400,37625.800
1.873,4.669,93.115,0.0,0.0,0.343,0.0,12288.0,15775097.800,15773218.600,0.0,0.0,16108.0,37794.600
1.965,5.031,92.531,0.0,0.0,0.472,0.0,2457.600,15889957.400,15885655.0,0.0,0.0,16230.800,38075.0
1.821,4.248,93.509,0.0,0.0,0.422,0.0,1638.400,15156544.800,15150862.0,0.0,0.0,15659.400,36454.200
0.404,0.758,98.737,0.0,0.0,0.101,0.0,819.200,2546381.0,2543680.800,0.0,0.0,2540.200,6256.800
