"Dstat 0.7.2 CSV output"
"Author:","Dag Wieers <dag@wieers.com>",,,,"URL:","http://dag.wieers.com/home-made/dstat/"
"Host:","Middleware1",,,,"User:","mstevan"
"Cmdline:","dstat --output /home/mstevan/logs/experiment_3.2/dstat/vs_1024-vcpr_4-wtpm_64-rep_1.csv 5 16",,,,"Date:","28 Oct 2019 10:07:10 UTC"

"total cpu usage",,,,,,"dsk/total",,"net/total",,"paging",,"system",
"usr","sys","idl","wai","hiq","siq","read","writ","recv","send","in","out","int","csw"
2.030,4.304,92.820,0.066,0.0,0.780,7889.977,6632413.722,0.0,0.0,0.0,0.0,11062.932,32499.829
0.752,0.226,98.997,0.0,0.0,0.025,0.0,819.200,108620.600,108162.200,0.0,0.0,364.600,1058.0
9.298,9.045,79.888,0.028,0.0,1.742,0.0,31948.800,17032817.0,17036145.800,0.0,0.0,24776.400,67443.0
4.689,9.548,84.371,0.0,0.0,1.392,0.0,819.200,18990508.400,18995630.0,0.0,0.0,28731.0,75402.400
3.705,9.346,85.742,0.0,0.0,1.207,0.0,3276.800,18686560.400,18687229.400,0.0,0.0,28425.0,74542.0
3.683,9.040,86.021,0.0,0.0,1.256,0.0,1638.400,18978691.600,18977976.600,0.0,0.0,28822.800,75731.600
3.783,9.119,85.799,0.0,0.0,1.299,0.0,3276.800,19461034.600,19458433.600,0.0,0.0,29648.0,77792.200
3.773,9.098,85.936,0.0,0.0,1.193,0.0,9830.400,19356341.800,19353472.600,0.0,0.0,29330.0,77180.400
3.670,8.609,86.120,0.166,0.0,1.435,0.0,18022.400,18766726.600,18767857.200,0.0,0.0,28290.400,74832.600
3.565,8.691,86.240,0.0,0.0,1.504,0.0,7372.800,19359777.0,19359065.400,0.0,0.0,29179.400,76928.600
3.844,8.886,86.156,0.0,0.0,1.114,0.0,1638.400,19447538.600,19446050.800,0.0,0.0,29361.200,77368.800
3.870,9.104,85.913,0.0,0.0,1.114,0.0,1638.400,18966178.400,18964807.200,0.0,0.0,28624.0,75574.400
3.614,8.869,86.127,0.0,0.0,1.390,0.0,819.200,18872034.400,18872932.400,0.0,0.0,28298.400,75016.600
3.775,9.797,85.096,0.0,0.0,1.332,0.0,5734.400,18960044.600,18956509.800,0.0,0.0,28626.200,75700.0
3.547,9.525,85.950,0.0,0.0,0.978,0.0,2457.600,19022135.800,19022200.400,0.0,0.0,28770.200,76104.600
3.456,9.013,86.508,0.055,0.0,0.968,0.0,16384.0,18763334.400,18763257.400,0.0,0.0,28204.800,74828.600
0.025,0.025,99.950,0.0,0.0,0.0,0.0,1638.400,6375.200,2005.200,0.0,0.0,41.0,129.200
