"Dstat 0.7.2 CSV output"
"Author:","Dag Wieers <dag@wieers.com>",,,,"URL:","http://dag.wieers.com/home-made/dstat/"
"Host:","Middleware1",,,,"User:","mstevan"
"Cmdline:","dstat --output /home/mstevan/logs/experiment_3.2/dstat/vs_1024-vcpr_4-wtpm_8-rep_2.csv 5 16",,,,"Date:","28 Oct 2019 09:57:14 UTC"

"total cpu usage",,,,,,"dsk/total",,"net/total",,"paging",,"system",
"usr","sys","idl","wai","hiq","siq","read","writ","recv","send","in","out","int","csw"
2.019,4.283,92.849,0.067,0.0,0.782,8010.954,6734003.121,0.0,0.0,0.0,0.0,10978.291,32260.886
0.627,0.251,99.072,0.0,0.0,0.050,0.0,1638.400,144246.200,138857.400,0.0,0.0,236.0,784.400
6.041,4.518,88.960,0.0,0.0,0.481,0.0,1638.400,15253918.600,15249433.600,0.0,0.0,13787.0,37615.800
4.334,4.015,91.199,0.0,0.0,0.452,0.0,819.200,14586097.200,14584456.0,0.0,0.0,15306.200,36401.800
1.843,4.501,93.182,0.0,0.0,0.474,0.0,3276.800,15851887.0,15845718.0,0.0,0.0,16288.0,39220.400
1.782,4.587,93.028,0.052,0.0,0.550,0.0,36864.0,15490578.200,15486406.600,0.0,0.0,16047.800,38515.800
1.538,4.191,93.846,0.0,0.0,0.424,0.0,9830.400,15844265.600,15843557.400,0.0,0.0,16397.200,39181.800
1.798,4.177,93.735,0.0,0.0,0.291,0.0,12288.0,15549716.800,15543790.0,0.0,0.0,16065.200,38444.200
1.974,4.211,93.474,0.0,0.0,0.342,0.0,819.200,15228722.400,15226198.400,0.0,0.0,15896.800,37909.400
2.049,4.413,93.170,0.0,0.0,0.368,0.0,1638.400,15378644.600,15375574.200,0.0,0.0,16270.800,38089.200
1.891,4.649,93.039,0.0,0.0,0.420,0.0,1638.400,16228126.200,16223941.0,0.0,0.0,17044.600,40195.0
1.998,4.418,93.321,0.0,0.0,0.263,0.0,819.200,15571213.600,15567292.0,0.0,0.0,16134.0,38283.600
1.684,4.683,93.239,0.053,0.0,0.342,0.0,17203.200,15687806.400,15685018.0,0.0,0.0,16228.400,38834.400
1.858,4.946,92.881,0.0,0.0,0.314,0.0,6553.600,15543124.400,15538920.400,0.0,0.0,16024.400,38432.0
1.648,4.787,93.199,0.0,0.0,0.366,0.0,1638.400,15172437.600,15170072.0,0.0,0.0,15718.0,37435.400
1.866,4.259,93.402,0.0,0.0,0.473,0.0,1638.400,15241379.200,15237185.200,0.0,0.0,15766.400,37642.0
0.050,0.0,99.950,0.0,0.0,0.0,0.0,1638.400,6375.200,2005.200,0.0,0.0,41.0,140.600
