"Dstat 0.7.2 CSV output"
"Author:","Dag Wieers <dag@wieers.com>",,,,"URL:","http://dag.wieers.com/home-made/dstat/"
"Host:","Middleware1",,,,"User:","mstevan"
"Cmdline:","dstat --output /home/mstevan/logs/experiment_3.2/dstat/vs_1024-vcpr_32-wtpm_32-rep_2.csv 5 16",,,,"Date:","28 Oct 2019 10:54:04 UTC"

"total cpu usage",,,,,,"dsk/total",,"net/total",,"paging",,"system",
"usr","sys","idl","wai","hiq","siq","read","writ","recv","send","in","out","int","csw"
2.123,4.531,92.450,0.063,0.0,0.834,7365.627,6192089.025,0.0,0.0,0.0,0.0,11516.428,33713.511
0.803,0.201,98.947,0.0,0.0,0.050,0.0,819.200,214164.800,204946.400,0.0,0.0,355.200,1091.600
9.776,14.251,72.479,0.0,0.0,3.494,0.0,1638.400,31396546.0,31388642.400,0.0,0.0,18231.600,59133.400
4.828,13.069,79.213,0.0,0.0,2.891,0.0,819.200,33254258.800,33253897.200,0.0,0.0,20230.200,63730.400
4.718,13.687,78.274,0.031,0.0,3.290,0.0,36864.0,33249372.200,33241320.200,0.0,0.0,20311.800,64006.400
6.370,13.760,76.562,0.0,0.0,3.309,0.0,2457.600,31844847.400,31841676.600,0.0,0.0,19072.0,60896.0
5.070,13.552,77.715,0.0,0.0,3.662,0.0,819.200,32649369.400,32651609.200,0.0,0.0,19624.200,62522.0
4.224,13.284,79.094,0.0,0.0,3.398,0.0,16384.0,34145781.200,34140660.400,0.0,0.0,20927.800,65578.0
4.771,13.573,78.547,0.0,0.0,3.109,0.0,3276.800,33154348.200,33148411.200,0.0,0.0,20016.800,63480.600
4.660,14.042,78.160,0.0,0.0,3.137,0.0,819.200,34075004.800,34072305.400,0.0,0.0,20566.200,65290.400
4.609,14.012,77.822,0.031,0.0,3.526,0.0,18022.400,34175562.200,34174057.400,0.0,0.0,20701.800,65474.0
4.906,14.385,77.741,0.0,0.0,2.968,0.0,9011.200,34371737.600,34363687.800,0.0,0.0,21009.200,66087.200
5.035,14.190,77.662,0.0,0.0,3.113,0.0,1638.400,34011651.200,34012164.0,0.0,0.0,20673.200,65247.0
4.458,13.618,78.321,0.0,0.0,3.603,0.0,6553.600,34235866.400,34230966.800,0.0,0.0,20857.0,65936.200
4.519,13.525,78.985,0.0,0.0,2.971,0.0,1638.400,33896357.0,33888564.200,0.0,0.0,20653.0,65321.200
4.541,12.427,80.025,0.0,0.0,3.007,0.0,1638.400,33362830.800,33366653.600,0.0,0.0,20580.400,64370.400
0.050,0.025,99.925,0.0,0.0,0.0,0.0,16384.0,6388.400,2005.200,0.0,0.0,46.800,146.800
