"Dstat 0.7.2 CSV output"
"Author:","Dag Wieers <dag@wieers.com>",,,,"URL:","http://dag.wieers.com/home-made/dstat/"
"Host:","Middleware1",,,,"User:","mstevan"
"Cmdline:","dstat --output /home/mstevan/logs/experiment_3.2/dstat/vs_1024-vcpr_16-wtpm_8-rep_3.csv 5 16",,,,"Date:","28 Oct 2019 10:32:45 UTC"

"total cpu usage",,,,,,"dsk/total",,"net/total",,"paging",,"system",
"usr","sys","idl","wai","hiq","siq","read","writ","recv","send","in","out","int","csw"
2.081,4.416,92.639,0.064,0.0,0.800,7595.064,6384756.595,0.0,0.0,0.0,0.0,11365.117,33280.343
0.501,0.075,99.374,0.0,0.0,0.050,0.0,1638.400,67922.0,61266.400,0.0,0.0,171.800,524.400
5.256,4.082,90.101,0.027,0.0,0.534,0.0,32768.0,14306485.200,14303606.400,0.0,0.0,12910.400,34487.200
2.948,4.449,92.208,0.0,0.0,0.395,0.0,819.200,15401049.0,15398247.400,0.0,0.0,15327.600,37223.200
1.809,4.194,93.578,0.0,0.0,0.419,0.0,3276.800,14854104.200,14850050.0,0.0,0.0,15032.200,35949.600
2.893,4.366,92.294,0.0,0.0,0.447,0.0,1638.400,15040624.200,15035214.400,0.0,0.0,15587.400,36654.400
2.606,4.690,92.288,0.0,0.0,0.417,0.0,4915.200,15590581.800,15589467.0,0.0,0.0,16005.600,37741.800
2.016,4.503,93.010,0.0,0.0,0.471,0.0,9830.400,15388828.600,15384348.400,0.0,0.0,15758.0,37177.200
1.832,4.869,92.565,0.079,0.0,0.654,0.0,24576.0,15508345.800,15503266.600,0.0,0.0,15838.200,37471.400
1.663,4.224,93.717,0.0,0.0,0.396,0.0,819.200,15663898.0,15662276.0,0.0,0.0,16078.800,38028.200
1.632,4.687,93.312,0.0,0.0,0.369,0.0,1638.400,15745103.600,15740572.800,0.0,0.0,15974.200,38014.400
1.769,4.224,93.691,0.0,0.0,0.317,0.0,819.200,15700751.400,15695844.200,0.0,0.0,15870.200,37847.600
1.883,5.388,92.336,0.0,0.0,0.392,0.0,1638.400,16050687.800,16049160.0,0.0,0.0,16230.400,38787.400
1.712,4.609,93.258,0.0,0.0,0.421,0.0,1638.400,15569753.0,15564598.400,0.0,0.0,15648.800,37630.800
1.529,4.639,93.358,0.079,0.0,0.395,0.0,21299.200,15606873.0,15603644.0,0.0,0.0,15701.600,37749.0
1.929,4.484,93.300,0.0,0.0,0.287,0.0,2457.600,15041089.600,15038696.200,0.0,0.0,15259.200,36270.200
0.100,0.025,99.850,0.0,0.0,0.025,0.0,1638.400,7671.800,2898.400,0.0,0.0,54.400,158.200
