"Dstat 0.7.2 CSV output"
"Author:","Dag Wieers <dag@wieers.com>",,,,"URL:","http://dag.wieers.com/home-made/dstat/"
"Host:","Middleware1",,,,"User:","mstevan"
"Cmdline:","dstat --output /home/mstevan/logs/experiment_3.2/dstat/vs_1024-vcpr_4-wtpm_8-rep_3.csv 5 16",,,,"Date:","28 Oct 2019 09:58:39 UTC"

"total cpu usage",,,,,,"dsk/total",,"net/total",,"paging",,"system",
"usr","sys","idl","wai","hiq","siq","read","writ","recv","send","in","out","int","csw"
2.019,4.282,92.851,0.067,0.0,0.781,7993.446,6719299.433,0.0,0.0,0.0,0.0,10982.923,32259.256
0.602,0.150,99.173,0.025,0.0,0.050,0.0,41779.200,137172.800,131492.0,0.0,0.0,237.0,783.400
5.067,4.773,89.680,0.0,0.0,0.480,0.0,2457.600,15015184.200,15011746.400,0.0,0.0,13516.800,36615.800
4.455,4.161,90.824,0.0,0.0,0.560,0.0,819.200,14370805.800,14368557.800,0.0,0.0,15080.600,35655.600
1.612,4.678,93.314,0.0,0.0,0.396,0.0,2457.600,15984146.0,15978810.800,0.0,0.0,16550.800,39085.200
1.693,4.761,93.203,0.0,0.0,0.344,0.0,1638.400,15925772.200,15921194.800,0.0,0.0,16492.600,38788.200
1.831,4.944,92.754,0.0,0.0,0.471,0.0,3276.800,15600530.800,15595259.800,0.0,0.0,16150.0,38373.400
1.944,3.966,93.670,0.053,0.0,0.368,0.0,25395.200,15293721.600,15291725.400,0.0,0.0,15816.600,37532.400
2.171,5.021,92.416,0.0,0.0,0.392,0.0,819.200,15507518.0,15506618.400,0.0,0.0,15982.200,38126.800
1.912,5.030,92.743,0.0,0.0,0.314,0.0,1638.400,15971705.800,15967535.200,0.0,0.0,16374.200,39109.200
1.885,4.766,93.035,0.0,0.0,0.314,0.0,1638.400,15650863.800,15645727.400,0.0,0.0,16112.0,38526.400
1.758,4.251,93.571,0.0,0.0,0.420,0.0,819.200,15374262.200,15372822.600,0.0,0.0,15910.200,38218.600
1.739,4.005,93.939,0.0,0.0,0.316,0.0,1638.400,15381818.0,15375614.400,0.0,0.0,15920.400,38205.400
1.962,4.813,92.310,0.445,0.0,0.471,0.0,23756.800,15721269.0,15718363.600,0.0,0.0,16161.200,38838.200
1.727,4.868,93.117,0.0,0.0,0.288,0.0,2457.600,15557292.400,15552571.600,0.0,0.0,16365.600,38475.800
2.049,3.888,93.617,0.0,0.0,0.447,0.0,1638.400,14979919.400,14978256.0,0.0,0.0,15842.800,36934.800
0.075,0.0,99.925,0.0,0.0,0.0,0.0,1638.400,6398.0,1977.200,0.0,0.0,45.0,131.0
