"Dstat 0.7.2 CSV output"
"Author:","Dag Wieers <dag@wieers.com>",,,,"URL:","http://dag.wieers.com/home-made/dstat/"
"Host:","Middleware1",,,,"User:","mstevan"
"Cmdline:","dstat --output /home/mstevan/logs/experiment_3.2/dstat/vs_1024-vcpr_4-wtpm_32-rep_2.csv 5 16",,,,"Date:","28 Oct 2019 10:02:55 UTC"

"total cpu usage",,,,,,"dsk/total",,"net/total",,"paging",,"system",
"usr","sys","idl","wai","hiq","siq","read","writ","recv","send","in","out","int","csw"
2.021,4.286,92.847,0.066,0.0,0.779,7941.366,6675566.450,0.0,0.0,0.0,0.0,11009.700,32315.636
0.626,0.250,99.049,0.0,0.0,0.075,0.0,1638.400,91274.0,84528.0,0.0,0.0,300.800,876.400
8.954,9.093,80.582,0.0,0.0,1.371,0.0,2457.600,16739349.200,16738158.800,0.0,0.0,21331.0,65463.800
4.882,9.237,84.438,0.0,0.0,1.442,0.0,1638.400,19001312.0,18998221.0,0.0,0.0,24665.600,75017.200
3.607,9.444,85.628,0.028,0.0,1.294,0.0,35225.600,19100197.200,19095119.400,0.0,0.0,24859.400,75471.600
3.752,9.200,85.825,0.0,0.0,1.223,0.0,819.200,19165175.800,19162383.200,0.0,0.0,24798.800,75506.200
3.572,9.071,86.017,0.0,0.0,1.340,0.0,4096.0,19345832.200,19343195.0,0.0,0.0,24929.600,75984.800
3.778,8.806,86.111,0.0,0.0,1.306,0.0,9011.200,19247386.800,19242899.400,0.0,0.0,24894.0,75849.0
3.552,8.811,86.426,0.0,0.0,1.211,0.0,1638.400,19358040.200,19354420.0,0.0,0.0,24789.200,76133.800
3.887,9.384,85.480,0.0,0.0,1.249,0.0,1638.400,19589899.800,19585254.200,0.0,0.0,25393.800,77489.0
3.727,8.985,86.064,0.0,0.0,1.224,0.0,819.200,19276630.800,19273091.0,0.0,0.0,24845.800,75916.800
3.546,8.504,86.842,0.055,0.0,1.053,0.0,29491.200,19353245.200,19349765.400,0.0,0.0,25001.800,76411.200
3.726,9.344,85.679,0.0,0.0,1.251,0.0,4096.0,19472710.600,19468127.600,0.0,0.0,25213.200,77012.200
3.438,9.503,85.942,0.0,0.0,1.118,0.0,4915.200,19634597.200,19631725.200,0.0,0.0,25244.0,77750.200
3.526,9.245,86.285,0.0,0.0,0.944,0.0,3276.800,19298833.200,19293322.600,0.0,0.0,24839.200,75993.400
3.350,9.017,86.460,0.0,0.0,1.173,0.0,1638.400,19207785.0,19207081.600,0.0,0.0,24770.0,76098.800
0.025,0.0,99.975,0.0,0.0,0.0,0.0,819.200,3290.200,1138.200,0.0,0.0,46.400,131.200
