"Dstat 0.7.2 CSV output"
"Author:","Dag Wieers <dag@wieers.com>",,,,"URL:","http://dag.wieers.com/home-made/dstat/"
"Host:","Middleware1",,,,"User:","mstevan"
"Cmdline:","dstat --output /home/mstevan/logs/experiment_3.2/dstat/vs_1024-vcpr_16-wtpm_64-rep_1.csv 5 16",,,,"Date:","28 Oct 2019 10:41:16 UTC"

"total cpu usage",,,,,,"dsk/total",,"net/total",,"paging",,"system",
"usr","sys","idl","wai","hiq","siq","read","writ","recv","send","in","out","int","csw"
2.097,4.456,92.573,0.064,0.0,0.810,7501.595,6306266.446,0.0,0.0,0.0,0.0,11416.455,33434.078
0.852,0.376,98.747,0.0,0.0,0.025,0.0,1638.400,146729.0,143463.400,0.0,0.0,412.200,1157.200
11.819,17.395,65.241,0.0,0.0,5.545,0.0,819.200,29949355.0,29942282.600,0.0,0.0,21327.800,72162.600
6.979,17.227,70.890,0.0,0.0,4.904,0.0,1638.400,31922869.600,31914986.800,0.0,0.0,24096.0,77708.800
7.451,17.627,69.662,0.063,0.0,5.197,0.0,44236.800,31783246.400,31784289.200,0.0,0.0,23104.800,75988.600
7.341,17.776,69.166,0.0,0.0,5.717,0.0,819.200,31793994.400,31790514.600,0.0,0.0,23863.800,77502.0
6.195,17.365,70.275,0.0,0.0,6.164,0.0,5734.400,32266855.0,32259602.0,0.0,0.0,24377.400,78380.200
6.262,16.965,71.622,0.0,0.0,5.151,0.0,9830.400,32503143.400,32506395.0,0.0,0.0,25127.800,79085.600
5.622,17.088,71.762,0.0,0.0,5.527,0.0,819.200,32608546.0,32607010.800,0.0,0.0,25564.400,80303.800
5.607,16.406,72.571,0.0,0.0,5.416,0.0,1638.400,32336652.600,32323048.600,0.0,0.0,25688.600,80047.0
5.866,18.436,70.391,0.031,0.0,5.276,0.0,18841.600,32401189.800,32407151.200,0.0,0.0,25637.200,79960.400
5.864,17.623,71.809,0.0,0.0,4.704,0.0,819.200,32716143.200,32708208.600,0.0,0.0,25981.0,81381.400
6.280,17.577,71.095,0.0,0.0,5.049,0.0,1638.400,32637046.400,32633205.400,0.0,0.0,25817.0,80917.200
5.930,17.163,71.949,0.0,0.0,4.958,0.0,819.200,32999876.400,33005927.400,0.0,0.0,26011.200,81585.400
5.443,16.766,73.100,0.0,0.0,4.692,0.0,7372.800,32378148.0,32370620.200,0.0,0.0,25503.400,80216.200
5.754,16.236,72.659,0.0,0.0,5.350,0.0,1638.400,32369062.0,32367802.600,0.0,0.0,25352.800,80162.600
0.928,0.802,98.119,0.0,0.0,0.150,0.0,14745.600,1203264.200,1219143.600,0.0,0.0,1815.200,5149.0
