"Dstat 0.7.2 CSV output"
"Author:","Dag Wieers <dag@wieers.com>",,,,"URL:","http://dag.wieers.com/home-made/dstat/"
"Host:","Middleware1",,,,"User:","mstevan"
"Cmdline:","dstat --output /home/mstevan/logs/experiment_3.2/dstat/vs_1024-vcpr_16-wtpm_32-rep_3.csv 5 16",,,,"Date:","28 Oct 2019 10:38:26 UTC"

"total cpu usage",,,,,,"dsk/total",,"net/total",,"paging",,"system",
"usr","sys","idl","wai","hiq","siq","read","writ","recv","send","in","out","int","csw"
2.089,4.435,92.608,0.064,0.0,0.804,7532.487,6332207.084,0.0,0.0,0.0,0.0,11393.506,33350.318
0.702,0.301,98.947,0.0,0.0,0.050,0.0,33587.200,198732.400,190171.200,0.0,0.0,333.200,1016.200
10.781,12.342,73.544,0.0,0.0,3.333,0.0,9830.400,30464177.600,30461584.600,0.0,0.0,18351.400,60152.200
5.989,12.492,78.373,0.0,0.0,3.146,0.0,1638.400,32857582.800,32853427.600,0.0,0.0,20945.400,66113.800
6.187,12.096,78.424,0.0,0.0,3.293,0.0,2457.600,31728373.200,31728778.600,0.0,0.0,20041.600,63231.600
5.545,12.714,78.646,0.0,0.0,3.094,0.0,1638.400,32127496.800,32121012.200,0.0,0.0,20413.400,64228.400
5.011,12.677,79.384,0.0,0.0,2.928,0.0,819.200,32645770.800,32642935.600,0.0,0.0,20779.200,65496.400
4.892,12.615,79.231,0.031,0.0,3.231,0.0,29491.200,32659030.600,32653339.200,0.0,0.0,21144.200,65780.400
4.630,13.654,78.480,0.0,0.0,3.235,0.0,1638.400,32714251.200,32711790.800,0.0,0.0,21218.200,65923.0
4.068,12.022,80.905,0.0,0.0,3.005,0.0,819.200,32492135.800,32492602.200,0.0,0.0,20770.0,65140.600
4.642,13.690,78.711,0.0,0.0,2.957,0.0,1638.400,33513419.200,33505320.400,0.0,0.0,21588.400,67466.400
4.520,12.126,80.422,0.0,0.0,2.932,0.0,819.200,32843420.400,32840339.600,0.0,0.0,21176.0,66190.0
4.529,13.347,79.184,0.0,0.0,2.939,0.0,1638.400,32923529.800,32920967.0,0.0,0.0,21160.800,66334.800
4.563,12.399,80.336,0.060,0.0,2.642,0.0,21299.200,32624226.0,32615206.800,0.0,0.0,20793.800,65389.400
4.199,12.716,80.375,0.0,0.0,2.710,0.0,4915.200,33554313.400,33553568.0,0.0,0.0,21552.0,67624.800
4.189,12.690,80.237,0.0,0.0,2.884,0.0,1638.400,31809807.800,31812644.800,0.0,0.0,20584.600,64380.200
0.225,0.275,99.399,0.0,0.0,0.100,0.0,1638.400,342712.0,355597.800,0.0,0.0,566.800,1722.200
