"Dstat 0.7.2 CSV output"
"Author:","Dag Wieers <dag@wieers.com>",,,,"URL:","http://dag.wieers.com/home-made/dstat/"
"Host:","Middleware1",,,,"User:","mstevan"
"Cmdline:","dstat --output /home/mstevan/logs/experiment_3.2/dstat/vs_1024-vcpr_16-wtpm_8-rep_4.csv 5 16",,,,"Date:","28 Oct 2019 10:34:10 UTC"

"total cpu usage",,,,,,"dsk/total",,"net/total",,"paging",,"system",
"usr","sys","idl","wai","hiq","siq","read","writ","recv","send","in","out","int","csw"
2.081,4.414,92.642,0.064,0.0,0.799,7579.320,6371535.134,0.0,0.0,0.0,0.0,11367.994,33274.787
0.652,0.075,99.248,0.0,0.0,0.025,0.0,1638.400,182662.0,175230.0,0.0,0.0,252.200,867.200
4.977,4.792,89.780,0.0,0.0,0.450,0.0,1638.400,14923150.400,14917088.400,0.0,0.0,14029.600,35678.600
4.086,4.351,91.085,0.027,0.0,0.451,0.0,34406.400,14443817.800,14441946.800,0.0,0.0,15116.400,35012.600
1.968,4.644,93.046,0.0,0.0,0.341,0.0,9830.400,15411208.0,15406387.800,0.0,0.0,16186.800,37269.600
2.665,4.808,92.187,0.0,0.0,0.340,0.0,2457.600,15035616.0,15032902.400,0.0,0.0,15829.0,36582.400
2.180,4.491,92.936,0.0,0.0,0.394,0.0,819.200,15211293.600,15209302.600,0.0,0.0,16097.400,37197.600
1.962,4.473,93.094,0.0,0.0,0.471,0.0,13926.400,14967031.800,14960170.0,0.0,0.0,15786.400,36388.200
2.106,4.991,92.566,0.0,0.0,0.338,0.0,2457.600,15198498.600,15198533.400,0.0,0.0,16019.0,37061.400
1.908,4.680,93.046,0.052,0.0,0.314,0.0,18841.600,15370894.0,15366566.800,0.0,0.0,16311.600,37438.0
1.904,4.982,92.723,0.0,0.0,0.391,0.0,1638.400,15837363.400,15831451.0,0.0,0.0,16829.600,38658.600
1.761,4.468,93.482,0.0,0.0,0.289,0.0,819.200,15730147.600,15729041.600,0.0,0.0,16596.0,38429.600
1.739,3.925,93.941,0.0,0.0,0.395,0.0,1638.400,15040296.600,15036189.800,0.0,0.0,15831.400,36660.600
1.682,4.338,93.559,0.0,0.0,0.421,0.0,5734.400,15451652.800,15447133.200,0.0,0.0,16181.0,37454.0
1.586,4.123,93.975,0.0,0.0,0.317,0.0,2457.600,15854311.0,15852029.800,0.0,0.0,16574.200,38391.0
1.973,4.445,93.030,0.158,0.0,0.395,0.0,17203.200,15840116.800,15834975.800,0.0,0.0,16813.600,38700.400
0.935,0.632,98.382,0.0,0.0,0.051,0.0,3276.800,2024390.0,2020273.200,0.0,0.0,2457.0,7300.800
