"Dstat 0.7.2 CSV output"
"Author:","Dag Wieers <dag@wieers.com>",,,,"URL:","http://dag.wieers.com/home-made/dstat/"
"Host:","Middleware1",,,,"User:","mstevan"
"Cmdline:","dstat --output /home/mstevan/logs/experiment_3.2/dstat/vs_1024-vcpr_32-wtpm_64-rep_2.csv 5 16",,,,"Date:","28 Oct 2019 10:59:45 UTC"

"total cpu usage",,,,,,"dsk/total",,"net/total",,"paging",,"system",
"usr","sys","idl","wai","hiq","siq","read","writ","recv","send","in","out","int","csw"
2.139,4.583,92.365,0.062,0.0,0.851,7306.766,6142663.428,0.0,0.0,0.0,0.0,11559.874,33874.397
0.777,0.376,98.796,0.0,0.0,0.050,0.0,819.200,144632.400,135926.200,0.0,0.0,353.800,1062.600
11.453,19.398,62.032,0.0,0.0,7.117,0.0,1638.400,34954250.200,34939340.200,0.0,0.0,17441.600,60729.200
5.427,19.124,69.925,0.0,0.0,5.525,0.0,819.200,38574736.200,38580458.200,0.0,0.0,21063.800,68862.0
6.603,19.451,67.767,0.033,0.0,6.146,0.0,45056.0,38330493.800,38330243.0,0.0,0.0,20518.0,67796.200
6.840,19.349,66.840,0.0,0.0,6.971,0.0,1638.400,36824761.600,36823094.800,0.0,0.0,19676.800,65139.400
6.708,18.619,68.161,0.0,0.0,6.512,0.0,7372.800,37506775.200,37500471.400,0.0,0.0,20087.200,66417.400
6.285,20.171,66.568,0.0,0.0,6.976,0.0,9830.400,38504269.0,38496663.200,0.0,0.0,20403.200,67504.600
5.767,18.873,68.447,0.0,0.0,6.913,0.0,2457.600,38196592.600,38194845.600,0.0,0.0,20566.0,67761.400
5.442,19.287,69.032,0.0,0.0,6.238,0.0,1638.400,39369213.0,39365123.600,0.0,0.0,21546.0,70347.800
5.258,19.572,69.101,0.032,0.0,6.037,0.0,17203.200,38415693.0,38414607.200,0.0,0.0,20829.400,68488.800
5.296,18.717,69.836,0.0,0.0,6.151,0.0,819.200,38921206.400,38915114.0,0.0,0.0,21081.200,69311.600
5.397,18.808,69.371,0.0,0.0,6.424,0.0,1638.400,38633403.800,38625995.0,0.0,0.0,20743.400,68383.600
5.215,18.680,69.670,0.0,0.0,6.436,0.0,4915.200,38722556.0,38718710.200,0.0,0.0,20908.600,68781.600
5.552,18.969,69.564,0.0,0.0,5.915,0.0,3276.800,38419516.800,38419832.800,0.0,0.0,20870.600,68302.200
5.529,19.981,68.833,0.0,0.0,5.658,0.0,1638.400,38353469.800,38357314.200,0.0,0.0,21108.200,68726.600
1.313,1.161,97.248,0.076,0.0,0.202,0.0,17203.200,3168717.0,3169600.400,0.0,0.0,4659.0,12239.0
