"Dstat 0.7.2 CSV output"
"Author:","Dag Wieers <dag@wieers.com>",,,,"URL:","http://dag.wieers.com/home-made/dstat/"
"Host:","Middleware1",,,,"User:","mstevan"
"Cmdline:","dstat --output /home/mstevan/logs/experiment_3.2/dstat/vs_1024-vcpr_8-wtpm_32-rep_4.csv 5 16",,,,"Date:","28 Oct 2019 10:22:48 UTC"

"total cpu usage",,,,,,"dsk/total",,"net/total",,"paging",,"system",
"usr","sys","idl","wai","hiq","siq","read","writ","recv","send","in","out","int","csw"
2.055,4.359,92.734,0.065,0.0,0.787,7707.105,6478846.113,0.0,0.0,0.0,0.0,11235.811,32926.884
0.703,0.226,99.072,0.0,0.0,0.0,0.0,1638.400,158034.800,152162.600,0.0,0.0,346.400,1010.0
9.622,12.603,74.882,0.0,0.0,2.893,0.0,1638.400,23114697.0,23108214.600,0.0,0.0,20813.600,68843.800
8.124,11.839,76.956,0.0,0.0,3.081,0.0,1638.400,23850411.0,23849806.600,0.0,0.0,21440.600,70914.800
6.224,12.891,78.053,0.0,0.0,2.832,0.0,1638.400,24756626.400,24752038.800,0.0,0.0,22016.600,73302.600
6.315,12.660,78.284,0.060,0.0,2.681,0.0,40140.800,24516218.800,24515649.200,0.0,0.0,22135.0,73496.0
6.300,12.658,78.098,0.0,0.0,2.944,0.0,4915.200,24484938.0,24480661.200,0.0,0.0,22171.200,73624.800
5.639,12.805,78.620,0.0,0.0,2.937,0.0,9011.200,25162507.200,25159937.400,0.0,0.0,23018.0,76075.200
6.167,12.922,78.326,0.0,0.0,2.584,0.0,1638.400,24547847.400,24542036.200,0.0,0.0,22178.400,73617.800
5.442,12.281,79.066,0.0,0.0,3.211,0.0,1638.400,24498881.400,24496304.0,0.0,0.0,21921.0,73117.400
5.327,12.696,79.136,0.0,0.0,2.841,0.0,819.200,25462675.600,25459152.600,0.0,0.0,22718.0,75807.0
5.066,13.019,78.881,0.118,0.0,2.916,0.0,19660.800,24759788.400,24755349.800,0.0,0.0,22194.600,74103.200
5.074,13.027,79.139,0.0,0.0,2.760,0.0,1638.400,24838474.200,24834538.400,0.0,0.0,22045.600,73851.400
4.940,12.879,79.506,0.0,0.0,2.676,0.0,4915.200,25293994.400,25291535.200,0.0,0.0,22544.0,75702.800
5.101,12.987,78.950,0.0,0.0,2.961,0.0,3276.800,25025451.600,25021630.800,0.0,0.0,22395.0,75120.400
4.709,12.167,80.257,0.0,0.0,2.866,0.0,819.200,24401566.600,24401121.800,0.0,0.0,21995.800,73335.400
0.075,0.025,99.900,0.0,0.0,0.0,0.0,1638.400,7220.0,2414.400,0.0,0.0,47.800,133.200
