"Dstat 0.7.2 CSV output"
"Author:","Dag Wieers <dag@wieers.com>",,,,"URL:","http://dag.wieers.com/home-made/dstat/"
"Host:","Middleware1",,,,"User:","mstevan"
"Cmdline:","dstat --output /home/mstevan/logs/experiment_3.2/dstat/vs_1024-vcpr_4-wtpm_32-rep_4.csv 5 16",,,,"Date:","28 Oct 2019 10:05:45 UTC"

"total cpu usage",,,,,,"dsk/total",,"net/total",,"paging",,"system",
"usr","sys","idl","wai","hiq","siq","read","writ","recv","send","in","out","int","csw"
2.027,4.298,92.828,0.066,0.0,0.780,7907.040,6646742.235,0.0,0.0,0.0,0.0,11046.273,32441.048
0.751,0.150,99.049,0.0,0.0,0.050,0.0,31948.800,93817.400,90113.600,0.0,0.0,314.800,895.400
9.091,8.479,81.373,0.0,0.0,1.056,0.0,11468.800,16438689.600,16436524.0,0.0,0.0,20403.0,64368.800
3.961,8.698,86.205,0.0,0.0,1.136,0.0,1638.400,18594123.200,18588755.400,0.0,0.0,22978.200,73303.200
3.718,8.352,86.709,0.0,0.0,1.221,0.0,1638.400,18370420.400,18368496.400,0.0,0.0,22638.600,72157.0
3.797,8.878,86.237,0.0,0.0,1.089,0.0,2457.600,18470433.800,18466639.200,0.0,0.0,22983.800,73165.200
3.240,8.436,87.235,0.0,0.0,1.089,0.0,819.200,18805379.200,18801232.200,0.0,0.0,23135.400,74025.600
3.511,8.873,86.309,0.054,0.0,1.252,0.0,27033.600,18529988.200,18526985.200,0.0,0.0,22912.800,72956.200
3.289,7.956,87.518,0.0,0.0,1.237,0.0,1638.400,18277974.400,18273888.200,0.0,0.0,22713.800,72174.400
3.427,8.991,86.431,0.0,0.0,1.151,0.0,819.200,18812433.800,18810286.600,0.0,0.0,23305.200,74230.800
3.832,8.299,86.656,0.0,0.0,1.213,0.0,1638.400,18916468.400,18911361.400,0.0,0.0,23158.0,74258.600
3.767,8.547,86.590,0.0,0.0,1.096,0.0,1638.400,18685313.600,18680042.800,0.0,0.0,23110.600,73569.200
3.635,8.491,86.959,0.0,0.0,0.916,0.0,819.200,18529359.0,18527919.600,0.0,0.0,22851.800,72745.800
3.541,8.196,86.981,0.028,0.0,1.255,0.0,21299.200,18705518.800,18701398.600,0.0,0.0,23261.600,73907.400
3.432,8.719,86.576,0.0,0.0,1.273,0.0,4915.200,18645368.200,18640424.800,0.0,0.0,23291.200,73642.0
3.275,8.521,87.205,0.0,0.0,0.999,0.0,819.200,18303951.0,18304052.800,0.0,0.0,22900.200,72154.800
0.075,0.050,99.875,0.0,0.0,0.0,0.0,1638.400,6813.800,2449.600,0.0,0.0,52.400,139.400
