"Dstat 0.7.2 CSV output"
"Author:","Dag Wieers <dag@wieers.com>",,,,"URL:","http://dag.wieers.com/home-made/dstat/"
"Host:","Middleware1",,,,"User:","mstevan"
"Cmdline:","dstat --output /home/mstevan/logs/experiment_3.2/dstat/vs_1024-vcpr_4-wtpm_8-rep_1.csv 5 16",,,,"Date:","28 Oct 2019 09:55:48 UTC"

"total cpu usage",,,,,,"dsk/total",,"net/total",,"paging",,"system",
"usr","sys","idl","wai","hiq","siq","read","writ","recv","send","in","out","int","csw"
2.019,4.284,92.846,0.067,0.0,0.783,8028.536,6748767.513,0.0,0.0,0.0,0.0,10973.050,32261.893
0.702,0.276,99.023,0.0,0.0,0.0,0.0,819.200,199091.200,196001.0,0.0,0.0,279.0,958.400
5.741,4.951,88.781,0.0,0.0,0.527,0.0,2457.600,14551864.200,14548043.200,0.0,0.0,13664.0,35521.800
4.479,4.292,90.616,0.0,0.0,0.613,0.0,819.200,15619598.800,15616969.800,0.0,0.0,16110.800,38379.800
2.160,4.294,93.230,0.053,0.0,0.263,0.0,42598.400,15589042.600,15583148.200,0.0,0.0,16195.200,38251.400
2.068,4.555,92.801,0.0,0.0,0.576,0.0,1638.400,15817891.400,15814737.200,0.0,0.0,16333.800,38930.400
2.115,5.013,92.454,0.0,0.0,0.418,0.0,819.200,15973262.200,15971295.800,0.0,0.0,16431.600,39029.400
2.096,4.847,92.560,0.0,0.0,0.498,0.0,9830.400,16136835.600,16131333.600,0.0,0.0,16755.200,39524.200
2.004,4.404,93.275,0.0,0.0,0.316,0.0,1638.400,16151983.0,16148070.600,0.0,0.0,16724.400,39420.200
2.121,4.792,92.825,0.0,0.0,0.262,0.0,819.200,15947155.600,15944823.800,0.0,0.0,16443.0,39017.400
1.823,3.990,93.763,0.053,0.0,0.370,0.0,24576.0,16000272.0,15996624.600,0.0,0.0,16558.600,39395.0
1.789,4.368,93.500,0.0,0.0,0.342,0.0,819.200,15643226.400,15640995.200,0.0,0.0,16295.600,38351.800
2.088,4.672,92.900,0.0,0.0,0.339,0.0,1638.400,15692545.400,15686568.200,0.0,0.0,16349.200,38486.600
1.756,4.115,93.761,0.0,0.0,0.367,0.0,5734.400,15533688.800,15530533.600,0.0,0.0,16233.800,37973.800
1.740,4.376,93.514,0.0,0.0,0.369,0.0,2457.600,16169617.600,16166757.600,0.0,0.0,16866.800,39562.400
2.066,4.839,92.676,0.0,0.0,0.419,0.0,1638.400,15850268.0,15847133.0,0.0,0.0,16531.0,39037.800
0.050,0.025,99.850,0.075,0.0,0.0,0.0,18022.400,6375.200,2005.200,0.0,0.0,40.800,129.800
