"Dstat 0.7.2 CSV output"
"Author:","Dag Wieers <dag@wieers.com>",,,,"URL:","http://dag.wieers.com/home-made/dstat/"
"Host:","Middleware1",,,,"User:","mstevan"
"Cmdline:","dstat --output /home/mstevan/logs/experiment_3.2/dstat/vs_1024-vcpr_8-wtpm_64-rep_2.csv 5 16",,,,"Date:","28 Oct 2019 10:25:39 UTC"

"total cpu usage",,,,,,"dsk/total",,"net/total",,"paging",,"system",
"usr","sys","idl","wai","hiq","siq","read","writ","recv","send","in","out","int","csw"
2.066,4.381,92.695,0.065,0.0,0.793,7674.748,6451672.355,0.0,0.0,0.0,0.0,11277.407,33060.720
1.002,0.551,98.373,0.025,0.0,0.050,0.0,33587.200,182946.800,179008.200,0.0,0.0,470.800,1372.200
11.645,13.108,71.902,0.0,0.0,3.344,0.0,1638.400,22417818.200,22417280.600,0.0,0.0,25333.0,76759.0
6.390,13.689,76.560,0.0,0.0,3.362,0.0,819.200,24660939.800,24663150.0,0.0,0.0,28674.200,84470.600
5.076,14.482,77.964,0.0,0.0,2.478,0.0,2457.600,25267243.800,25261604.0,0.0,0.0,29549.600,86335.400
4.881,13.542,78.720,0.0,0.0,2.857,0.0,2457.600,25123392.600,25123188.600,0.0,0.0,30107.600,87018.600
5.444,13.595,78.072,0.0,0.0,2.889,0.0,819.200,24945563.200,24941085.800,0.0,0.0,29530.200,85777.800
5.209,14.664,76.814,0.060,0.0,3.252,0.0,27852.800,24637843.0,24634259.400,0.0,0.0,29082.400,84984.200
5.024,14.055,77.303,0.0,0.0,3.618,0.0,9011.200,25137183.200,25135280.200,0.0,0.0,29721.800,86481.200
5.189,14.178,77.798,0.0,0.0,2.836,0.0,819.200,25375318.800,25372750.600,0.0,0.0,30094.0,87517.0
5.192,14.398,77.120,0.0,0.0,3.290,0.0,1638.400,24968305.200,24967380.800,0.0,0.0,29539.0,85861.800
5.457,14.512,76.951,0.0,0.0,3.079,0.0,819.200,24977250.0,24972395.600,0.0,0.0,29596.800,85925.600
5.557,13.893,77.348,0.0,0.0,3.201,0.0,1638.400,25598038.0,25595517.800,0.0,0.0,29938.600,87411.400
5.850,13.691,77.262,0.030,0.0,3.166,0.0,22118.400,25077796.600,25075175.600,0.0,0.0,29372.600,85786.200
4.908,14.303,77.507,0.0,0.0,3.282,0.0,1638.400,25615089.800,25614305.200,0.0,0.0,29867.800,87086.600
4.795,14.414,77.705,0.0,0.0,3.087,0.0,1638.400,24577940.200,24578928.400,0.0,0.0,29074.200,84542.600
0.025,0.050,99.925,0.0,0.0,0.0,0.0,819.200,3712.600,1362.600,0.0,0.0,44.400,119.800
