"Dstat 0.7.2 CSV output"
"Author:","Dag Wieers <dag@wieers.com>",,,,"URL:","http://dag.wieers.com/home-made/dstat/"
"Host:","Middleware1",,,,"User:","mstevan"
"Cmdline:","dstat --output /home/mstevan/logs/experiment_3.2/dstat/vs_1024-vcpr_8-wtpm_64-rep_4.csv 5 16",,,,"Date:","28 Oct 2019 10:28:29 UTC"

"total cpu usage",,,,,,"dsk/total",,"net/total",,"paging",,"system",
"usr","sys","idl","wai","hiq","siq","read","writ","recv","send","in","out","int","csw"
2.076,4.407,92.653,0.064,0.0,0.799,7642.667,6424732.044,0.0,0.0,0.0,0.0,11331.163,33214.660
0.752,0.351,98.847,0.0,0.0,0.050,0.0,1638.400,202873.800,199829.0,0.0,0.0,479.800,1410.600
11.252,12.244,73.345,0.0,0.0,3.159,0.0,819.200,22690921.400,22694356.600,0.0,0.0,26272.200,76673.0
7.355,13.909,75.356,0.0,0.0,3.381,0.0,1638.400,23946108.400,23941753.400,0.0,0.0,28711.600,81863.800
5.764,13.755,77.273,0.059,0.0,3.149,0.0,35225.600,23842827.800,23843641.600,0.0,0.0,28377.400,81046.800
6.449,13.967,76.315,0.0,0.0,3.269,0.0,1638.400,24551219.800,24545936.0,0.0,0.0,29979.0,84868.400
5.590,13.589,77.401,0.0,0.0,3.420,0.0,4915.200,24539883.400,24536377.600,0.0,0.0,29473.800,83688.800
5.882,13.696,77.332,0.0,0.0,3.090,0.0,9011.200,25026780.0,25025634.800,0.0,0.0,30750.200,86707.800
5.782,12.298,78.984,0.0,0.0,2.935,0.0,1638.400,24446010.400,24442113.0,0.0,0.0,29899.200,84143.800
4.878,13.087,79.328,0.0,0.0,2.707,0.0,3276.800,25515237.800,25513691.800,0.0,0.0,31990.200,89342.0
5.102,13.527,78.760,0.059,0.0,2.551,0.0,28672.0,24756714.0,24756731.600,0.0,0.0,30569.800,85956.400
5.165,12.882,79.015,0.0,0.0,2.939,0.0,1638.400,25260192.200,25255724.800,0.0,0.0,31411.600,88317.400
4.463,12.606,80.398,0.0,0.0,2.533,0.0,819.200,24718981.800,24715233.200,0.0,0.0,30442.200,85600.800
4.651,13.745,78.831,0.0,0.0,2.773,0.0,5734.400,25030136.200,25032265.800,0.0,0.0,30917.200,86887.200
4.810,13.505,78.787,0.0,0.0,2.898,0.0,3276.800,25105020.400,25099950.800,0.0,0.0,31478.0,88174.800
4.726,12.709,79.836,0.0,0.0,2.730,0.0,819.200,24783360.800,24784644.800,0.0,0.0,30793.0,86549.0
0.050,0.025,99.850,0.075,0.0,0.0,0.0,17203.200,6375.200,1992.0,0.0,0.0,44.200,123.200
