"Dstat 0.7.2 CSV output"
"Author:","Dag Wieers <dag@wieers.com>",,,,"URL:","http://dag.wieers.com/home-made/dstat/"
"Host:","Middleware1",,,,"User:","mstevan"
"Cmdline:","dstat --output /home/mstevan/logs/experiment_3.2/dstat/vs_256-vcpr_16-wtpm_64-rep_4.csv 5 16",,,,"Date:","28 Oct 2019 08:28:51 UTC"

"total cpu usage",,,,,,"dsk/total",,"net/total",,"paging",,"system",
"usr","sys","idl","wai","hiq","siq","read","writ","recv","send","in","out","int","csw"
1.803,3.678,93.828,0.075,0.0,0.616,9274.492,7795018.527,0.0,0.0,0.0,0.0,10003.513,29462.590
0.851,0.300,98.799,0.0,0.0,0.050,0.0,1638.400,57778.0,53488.400,0.0,0.0,383.600,1109.800
10.924,18.037,65.195,0.0,0.0,5.843,0.0,1638.400,11290824.400,11288841.200,0.0,0.0,22395.200,74405.400
8.102,17.703,69.059,0.0,0.0,5.136,0.0,819.200,11526890.200,11523135.200,0.0,0.0,23505.600,76083.800
7.234,18.579,68.547,0.096,0.0,5.545,0.0,49971.200,11764647.800,11762289.600,0.0,0.0,23327.200,76867.600
7.054,17.464,70.137,0.0,0.0,5.345,0.0,819.200,11851768.0,11845631.800,0.0,0.0,23845.0,78101.800
6.658,18.617,68.811,0.0,0.0,5.915,0.0,5734.400,11906187.400,11905925.0,0.0,0.0,23888.0,78004.200
6.512,17.694,70.140,0.0,0.0,5.654,0.0,9830.400,12006224.200,12001106.600,0.0,0.0,24584.200,79334.400
5.882,17.872,70.653,0.0,0.0,5.593,0.0,2457.600,12032994.400,12031205.800,0.0,0.0,25175.0,80038.400
5.781,19.419,69.147,0.0,0.0,5.653,0.0,1638.400,12196213.800,12192821.400,0.0,0.0,25332.200,80566.800
5.299,18.611,70.695,0.065,0.0,5.331,0.0,18841.600,12026144.0,12023266.400,0.0,0.0,24990.800,79919.200
5.886,19.345,68.947,0.0,0.0,5.822,0.0,819.200,12121751.200,12113314.0,0.0,0.0,25141.400,80894.400
6.029,18.405,70.048,0.0,0.0,5.518,0.0,1638.400,11982129.600,11984521.200,0.0,0.0,25185.200,80224.800
6.038,18.243,69.840,0.0,0.0,5.879,0.0,5734.400,12071580.800,12066960.600,0.0,0.0,25272.0,80835.0
5.572,19.116,70.573,0.0,0.0,4.739,0.0,819.200,12151545.200,12149564.800,0.0,0.0,25561.400,81660.200
5.416,17.783,71.916,0.0,0.0,4.884,0.0,3276.800,11906431.800,11905791.800,0.0,0.0,24939.0,79764.800
0.075,0.025,99.900,0.0,0.0,0.0,0.0,819.200,5892.600,2445.800,0.0,0.0,48.400,146.0
