"Dstat 0.7.2 CSV output"
"Author:","Dag Wieers <dag@wieers.com>",,,,"URL:","http://dag.wieers.com/home-made/dstat/"
"Host:","Middleware1",,,,"User:","mstevan"
"Cmdline:","dstat --output /home/mstevan/logs/experiment_3.2/dstat/vs_256-vcpr_4-wtpm_64-rep_3.csv 5 16",,,,"Date:","28 Oct 2019 07:53:19 UTC"

"total cpu usage",,,,,,"dsk/total",,"net/total",,"paging",,"system",
"usr","sys","idl","wai","hiq","siq","read","writ","recv","send","in","out","int","csw"
1.689,3.387,94.300,0.079,0.0,0.545,9902.140,8322206.991,0.0,0.0,0.0,0.0,9444.234,27860.725
0.804,0.302,98.819,0.025,0.0,0.050,0.0,31948.800,79910.200,77934.800,0.0,0.0,521.800,1496.200
9.015,9.826,79.591,0.0,0.0,1.568,0.0,819.200,6399711.800,6406760.600,0.0,0.0,25638.400,69610.200
3.787,9.950,84.854,0.0,0.0,1.410,0.0,1638.400,7160124.200,7161463.200,0.0,0.0,29639.200,78504.800
4.107,9.835,84.688,0.0,0.0,1.369,0.0,2457.600,7143471.600,7142537.800,0.0,0.0,29515.200,78537.400
4.108,9.464,85.012,0.0,0.0,1.415,0.0,1638.400,7243172.400,7243437.0,0.0,0.0,29848.200,79337.600
3.878,9.474,85.429,0.0,0.0,1.219,0.0,1638.400,7115777.200,7115760.0,0.0,0.0,29350.0,78136.600
4.017,9.917,84.931,0.055,0.0,1.080,0.0,27852.800,7323418.600,7325209.0,0.0,0.0,30137.400,80288.400
4.012,9.641,84.815,0.0,0.0,1.532,0.0,8192.0,7310183.600,7309143.0,0.0,0.0,30064.0,80339.400
4.115,9.230,85.571,0.0,0.0,1.084,0.0,1638.400,7396021.400,7392267.200,0.0,0.0,30379.800,81079.800
4.091,9.908,84.943,0.0,0.0,1.058,0.0,819.200,7289531.0,7289540.800,0.0,0.0,29866.800,79897.800
3.981,10.245,84.633,0.0,0.0,1.141,0.0,1638.400,7218409.600,7217572.0,0.0,0.0,29598.200,79202.400
3.802,9.862,85.262,0.0,0.0,1.074,0.0,1638.400,7265554.200,7262321.0,0.0,0.0,29698.200,79573.800
3.773,9.570,85.548,0.055,0.0,1.054,0.0,22118.400,7125010.800,7124622.400,0.0,0.0,29045.200,78070.400
3.728,9.613,85.370,0.0,0.0,1.289,0.0,2457.600,7115570.400,7114574.0,0.0,0.0,28920.400,78020.400
3.705,9.122,86.107,0.0,0.0,1.067,0.0,1638.400,6919972.0,6921059.200,0.0,0.0,28150.400,75831.600
0.050,0.025,99.925,0.0,0.0,0.0,0.0,819.200,3371.400,1152.200,0.0,0.0,41.800,119.200
