"Dstat 0.7.2 CSV output"
"Author:","Dag Wieers <dag@wieers.com>",,,,"URL:","http://dag.wieers.com/home-made/dstat/"
"Host:","Middleware1",,,,"User:","mstevan"
"Cmdline:","dstat --output /home/mstevan/logs/experiment_3.2/dstat/vs_256-vcpr_16-wtpm_64-rep_1.csv 5 16",,,,"Date:","28 Oct 2019 08:24:35 UTC"

"total cpu usage",,,,,,"dsk/total",,"net/total",,"paging",,"system",
"usr","sys","idl","wai","hiq","siq","read","writ","recv","send","in","out","int","csw"
1.781,3.608,93.943,0.075,0.0,0.593,9345.596,7854729.943,0.0,0.0,0.0,0.0,9922.793,29182.246
0.977,0.526,98.471,0.0,0.0,0.025,0.0,1638.400,110134.800,106201.200,0.0,0.0,491.600,1466.600
11.786,18.437,64.223,0.0,0.0,5.554,0.0,819.200,11125097.0,11122661.0,0.0,0.0,22136.0,74269.400
6.892,18.748,68.448,0.0,0.0,5.912,0.0,1638.400,11610457.600,11606910.200,0.0,0.0,24083.0,77634.200
7.161,18.185,68.405,0.0,0.0,6.250,0.0,3276.800,11908803.800,11905682.200,0.0,0.0,24064.200,78276.800
6.534,18.258,69.347,0.0,0.0,5.862,0.0,819.200,12116105.200,12114326.200,0.0,0.0,24718.400,80353.800
6.466,17.263,70.935,0.031,0.0,5.304,0.0,45875.200,11835565.800,11827970.800,0.0,0.0,25079.800,79977.0
6.254,17.039,70.676,0.0,0.0,6.031,0.0,9830.400,11871093.200,11873877.200,0.0,0.0,25026.0,79715.800
4.955,17.761,71.943,0.0,0.0,5.341,0.0,2457.600,12179657.400,12174378.400,0.0,0.0,25675.0,81921.400
5.248,17.989,71.831,0.0,0.0,4.932,0.0,1638.400,12325326.800,12322964.800,0.0,0.0,26192.400,83426.600
6.081,17.606,71.283,0.0,0.0,5.030,0.0,819.200,12306803.0,12305344.200,0.0,0.0,26233.200,83498.200
5.630,17.335,72.328,0.0,0.0,4.707,0.0,1638.400,12359005.800,12355261.0,0.0,0.0,25888.800,82998.200
5.724,17.497,71.831,0.065,0.0,4.884,0.0,17203.200,12355857.200,12351089.200,0.0,0.0,26279.600,83543.800
5.543,17.330,72.189,0.0,0.0,4.938,0.0,4915.200,12354399.400,12352238.800,0.0,0.0,25812.800,82776.600
5.710,17.129,71.962,0.0,0.0,5.199,0.0,3276.800,12533869.0,12530521.200,0.0,0.0,26605.800,84620.800
5.262,16.687,72.385,0.0,0.0,5.666,0.0,1638.400,12130843.800,12130297.400,0.0,0.0,25460.400,81660.200
0.200,0.225,99.449,0.0,0.0,0.125,0.0,819.200,118997.0,133191.800,0.0,0.0,449.600,1581.400
