"Dstat 0.7.2 CSV output"
"Author:","Dag Wieers <dag@wieers.com>",,,,"URL:","http://dag.wieers.com/home-made/dstat/"
"Host:","Middleware1",,,,"User:","mstevan"
"Cmdline:","dstat --output /home/mstevan/logs/experiment_3.2/dstat/vs_256-vcpr_4-wtpm_8-rep_4.csv 5 16",,,,"Date:","28 Oct 2019 07:43:23 UTC"

"total cpu usage",,,,,,"dsk/total",,"net/total",,"paging",,"system",
"usr","sys","idl","wai","hiq","siq","read","writ","recv","send","in","out","int","csw"
1.663,3.327,94.390,0.080,0.0,0.540,10093.417,8482838.798,0.0,0.0,0.0,0.0,9251.616,27314.211
0.551,0.150,99.274,0.0,0.0,0.025,0.0,819.200,43552.0,41014.600,0.0,0.0,229.0,698.400
5.475,5.238,88.892,0.0,0.0,0.395,0.0,1638.400,5243316.400,5238324.0,0.0,0.0,13796.0,35408.200
5.249,3.924,90.350,0.0,0.0,0.477,0.0,1638.400,5137036.600,5132825.0,0.0,0.0,15038.200,34949.600
1.984,4.437,93.109,0.078,0.0,0.392,0.0,44236.800,5533681.200,5531867.600,0.0,0.0,16394.0,37723.400
1.831,4.576,93.227,0.0,0.0,0.366,0.0,1638.400,5742923.200,5738325.0,0.0,0.0,16858.800,39075.200
1.740,3.637,94.307,0.0,0.0,0.316,0.0,3276.800,5492408.0,5490231.0,0.0,0.0,16102.400,37376.600
1.993,4.379,93.104,0.0,0.0,0.524,0.0,9830.400,5721267.400,5717067.600,0.0,0.0,16643.400,39094.400
1.775,4.515,93.319,0.0,0.0,0.391,0.0,1638.400,5431870.200,5426705.600,0.0,0.0,15895.400,36939.800
1.785,3.964,93.909,0.0,0.0,0.341,0.0,819.200,5563047.200,5560992.200,0.0,0.0,16355.600,37760.200
1.822,3.511,94.403,0.053,0.0,0.211,0.0,18841.600,5431843.800,5427556.800,0.0,0.0,15987.0,36838.800
1.751,4.313,93.623,0.0,0.0,0.314,0.0,1638.400,5424874.400,5420611.200,0.0,0.0,15944.0,36820.200
1.920,4.103,93.635,0.0,0.0,0.342,0.0,819.200,5586139.600,5583357.400,0.0,0.0,16525.0,37826.400
1.866,4.284,93.430,0.0,0.0,0.420,0.0,6553.600,5735141.800,5730679.600,0.0,0.0,16801.600,38721.0
1.782,4.428,93.450,0.0,0.0,0.341,0.0,3276.800,5564188.800,5560294.600,0.0,0.0,16486.800,37737.200
1.664,4.681,93.238,0.0,0.0,0.416,0.0,819.200,5353677.400,5351714.400,0.0,0.0,15972.800,36576.0
0.025,0.025,99.900,0.050,0.0,0.0,0.0,24576.0,6375.200,1965.600,0.0,0.0,48.600,141.0
