"Dstat 0.7.2 CSV output"
"Author:","Dag Wieers <dag@wieers.com>",,,,"URL:","http://dag.wieers.com/home-made/dstat/"
"Host:","Middleware1",,,,"User:","mstevan"
"Cmdline:","dstat --output /home/mstevan/logs/experiment_3.2/dstat/vs_256-vcpr_16-wtpm_32-rep_1.csv 5 16",,,,"Date:","28 Oct 2019 08:18:54 UTC"

"total cpu usage",,,,,,"dsk/total",,"net/total",,"paging",,"system",
"usr","sys","idl","wai","hiq","siq","read","writ","recv","send","in","out","int","csw"
1.758,3.547,94.043,0.076,0.0,0.575,9442.102,7935776.320,0.0,0.0,0.0,0.0,9850.280,28926.303
0.678,0.226,98.996,0.0,0.0,0.100,0.0,3276.800,87705.600,82441.0,0.0,0.0,374.200,1129.0
9.184,13.296,73.562,0.0,0.0,3.958,0.0,1638.400,10544757.600,10541097.600,0.0,0.0,17686.800,59454.0
6.284,13.259,77.480,0.0,0.0,2.977,0.0,1638.400,11538321.400,11534178.800,0.0,0.0,19837.400,63408.400
6.474,13.194,77.171,0.0,0.0,3.160,0.0,1638.400,11373663.200,11372840.600,0.0,0.0,19387.600,62600.400
5.663,12.048,79.066,0.0,0.0,3.223,0.0,1638.400,11592809.800,11587455.600,0.0,0.0,19857.400,63929.0
4.866,13.145,78.932,0.059,0.0,2.997,0.0,27033.600,12003690.600,11999495.200,0.0,0.0,20777.600,66332.400
4.442,12.792,79.923,0.0,0.0,2.843,0.0,9011.200,12271316.400,12266182.600,0.0,0.0,21545.200,68641.200
4.370,11.683,80.975,0.0,0.0,2.973,0.0,1638.400,12017398.0,12014801.200,0.0,0.0,20952.0,67172.600
4.410,12.181,80.408,0.0,0.0,3.000,0.0,1638.400,11972075.400,11969175.800,0.0,0.0,20974.400,66580.400
4.421,12.421,80.030,0.0,0.0,3.128,0.0,819.200,11808793.800,11806152.800,0.0,0.0,20354.200,65533.200
4.799,11.493,80.865,0.0,0.0,2.844,0.0,1638.400,12225244.200,12220666.400,0.0,0.0,21156.800,67893.400
4.130,12.150,81.007,0.060,0.0,2.653,0.0,18022.400,11952759.400,11949036.400,0.0,0.0,20648.400,66314.200
4.771,12.983,79.559,0.0,0.0,2.687,0.0,11468.800,12039136.200,12036545.400,0.0,0.0,20839.800,66820.400
4.711,12.493,79.934,0.0,0.0,2.862,0.0,3276.800,12017687.200,12014686.200,0.0,0.0,20779.0,66615.800
4.391,12.150,80.722,0.0,0.0,2.737,0.0,819.200,12137353.200,12134783.0,0.0,0.0,21254.0,67775.800
1.025,1.461,97.206,0.0,0.0,0.308,0.0,1638.400,1294581.400,1290766.400,0.0,0.0,4559.600,12311.400
