"Dstat 0.7.2 CSV output"
"Author:","Dag Wieers <dag@wieers.com>",,,,"URL:","http://dag.wieers.com/home-made/dstat/"
"Host:","Middleware1",,,,"User:","mstevan"
"Cmdline:","dstat --output /home/mstevan/logs/experiment_3.2/dstat/vs_256-vcpr_32-wtpm_8-rep_3.csv 5 16",,,,"Date:","28 Oct 2019 08:33:07 UTC"

"total cpu usage",,,,,,"dsk/total",,"net/total",,"paging",,"system",
"usr","sys","idl","wai","hiq","siq","read","writ","recv","send","in","out","int","csw"
1.811,3.702,93.790,0.075,0.0,0.623,9204.473,7736222.097,0.0,0.0,0.0,0.0,10044.373,29560.578
0.602,0.175,99.198,0.0,0.0,0.025,0.0,1638.400,61536.800,52480.600,0.0,0.0,226.200,736.800
5.265,4.127,90.026,0.053,0.0,0.529,0.0,47513.600,5247018.800,5242698.800,0.0,0.0,13424.400,34631.0
4.090,4.510,90.876,0.0,0.0,0.524,0.0,1638.400,4936904.200,4932251.600,0.0,0.0,14237.0,32900.800
1.752,4.601,93.281,0.0,0.0,0.366,0.0,2457.600,5422836.600,5419614.600,0.0,0.0,15489.600,35830.400
1.918,4.545,93.221,0.0,0.0,0.315,0.0,2457.600,5773401.400,5770520.800,0.0,0.0,16442.200,38056.400
1.738,4.423,93.312,0.0,0.0,0.527,0.0,8192.0,5819483.400,5814925.600,0.0,0.0,16651.200,38550.600
1.863,4.907,92.863,0.0,0.0,0.367,0.0,9011.200,5821476.600,5819324.600,0.0,0.0,16576.0,38490.800
1.919,4.469,93.139,0.026,0.0,0.447,0.0,19660.800,5817088.0,5812586.0,0.0,0.0,16623.600,38580.800
2.530,4.428,92.541,0.0,0.0,0.501,0.0,1638.400,5543702.0,5539036.400,0.0,0.0,15902.600,36987.400
2.090,5.226,92.396,0.0,0.0,0.287,0.0,819.200,5777367.400,5775582.600,0.0,0.0,16412.200,38141.400
1.700,4.603,93.358,0.0,0.0,0.340,0.0,1638.400,5490388.800,5486281.400,0.0,0.0,15601.600,36184.600
1.549,4.149,93.986,0.0,0.0,0.315,0.0,1638.400,5388394.600,5384028.600,0.0,0.0,15594.400,35993.200
1.579,4.133,93.972,0.0,0.0,0.316,0.0,819.200,5494105.400,5491551.200,0.0,0.0,15799.0,36521.600
1.908,4.548,92.995,0.078,0.0,0.470,0.0,22118.400,5611265.800,5607867.200,0.0,0.0,16028.0,37201.600
1.867,4.182,93.635,0.0,0.0,0.316,0.0,4915.200,5505814.600,5504437.400,0.0,0.0,15838.200,36647.0
0.657,0.506,98.787,0.0,0.0,0.051,0.0,1638.400,725660.200,719507.0,0.0,0.0,1977.600,5146.0
