"Dstat 0.7.2 CSV output"
"Author:","Dag Wieers <dag@wieers.com>",,,,"URL:","http://dag.wieers.com/home-made/dstat/"
"Host:","Middleware1",,,,"User:","mstevan"
"Cmdline:","dstat --output /home/mstevan/logs/experiment_3.2/dstat/vs_256-vcpr_32-wtpm_32-rep_1.csv 5 16",,,,"Date:","28 Oct 2019 08:35:57 UTC"

"total cpu usage",,,,,,"dsk/total",,"net/total",,"paging",,"system",
"usr","sys","idl","wai","hiq","siq","read","writ","recv","send","in","out","int","csw"
1.812,3.701,93.791,0.074,0.0,0.622,9158.370,7697510.804,0.0,0.0,0.0,0.0,10059.181,29565.362
0.677,0.201,99.123,0.0,0.0,0.0,0.0,819.200,64476.600,58303.600,0.0,0.0,314.600,937.400
9.929,13.155,73.348,0.0,0.0,3.568,0.0,1638.400,11268912.200,11260911.400,0.0,0.0,18070.200,58699.0
4.734,14.202,77.651,0.0,0.0,3.412,0.0,1638.400,12380956.200,12377195.400,0.0,0.0,20727.0,64924.600
4.520,13.499,78.752,0.0,0.0,3.229,0.0,2457.600,12129254.200,12125977.800,0.0,0.0,20517.800,64066.0
6.892,13.169,76.831,0.062,0.0,3.046,0.0,44236.800,11772134.400,11769427.0,0.0,0.0,19536.600,61520.600
5.002,12.974,78.630,0.0,0.0,3.395,0.0,7372.800,12115910.200,12113103.200,0.0,0.0,20398.600,63823.800
4.797,13.684,78.044,0.0,0.0,3.475,0.0,9830.400,12184743.200,12180957.800,0.0,0.0,20578.600,64244.200
4.278,12.619,79.932,0.0,0.0,3.170,0.0,3276.800,12135203.600,12130865.0,0.0,0.0,20717.800,64327.0
5.003,13.198,78.545,0.0,0.0,3.254,0.0,1638.400,12493382.600,12488794.400,0.0,0.0,20963.400,65740.0
4.811,12.241,79.446,0.0,0.0,3.502,0.0,1638.400,12508386.400,12504641.0,0.0,0.0,21212.400,66061.600
5.039,12.671,78.742,0.060,0.0,3.488,0.0,18022.400,12539270.600,12534669.0,0.0,0.0,21069.800,65987.400
4.461,12.893,79.193,0.0,0.0,3.452,0.0,819.200,12530066.400,12528766.0,0.0,0.0,21148.400,66010.400
4.809,13.496,78.750,0.0,0.0,2.946,0.0,5734.400,12292390.0,12286962.600,0.0,0.0,20853.600,64582.800
4.506,13.577,78.923,0.0,0.0,2.994,0.0,2457.600,12374484.400,12368919.0,0.0,0.0,20893.0,65093.600
5.350,12.504,78.840,0.0,0.0,3.306,0.0,1638.400,12420008.400,12421021.600,0.0,0.0,21292.400,66221.600
0.889,1.574,97.360,0.0,0.0,0.178,0.0,1638.400,1172995.0,1168541.800,0.0,0.0,4663.400,12368.800
