"Dstat 0.7.2 CSV output"
"Author:","Dag Wieers <dag@wieers.com>",,,,"URL:","http://dag.wieers.com/home-made/dstat/"
"Host:","Middleware1",,,,"User:","mstevan"
"Cmdline:","dstat --output /home/mstevan/logs/experiment_3.2/dstat/vs_256-vcpr_4-wtpm_32-rep_4.csv 5 16",,,,"Date:","28 Oct 2019 07:49:04 UTC"

"total cpu usage",,,,,,"dsk/total",,"net/total",,"paging",,"system",
"usr","sys","idl","wai","hiq","siq","read","writ","recv","send","in","out","int","csw"
1.676,3.355,94.348,0.080,0.0,0.542,9983.211,8390290.937,0.0,0.0,0.0,0.0,9339.930,27579.755
0.752,0.301,98.872,0.0,0.0,0.075,0.0,1638.400,79621.600,75185.800,0.0,0.0,455.400,1353.0
8.567,8.343,81.691,0.0,0.0,1.400,0.0,1638.400,5964389.600,5960553.800,0.0,0.0,19873.200,63611.600
4.869,8.303,85.449,0.056,0.0,1.323,0.0,32768.0,6765313.200,6762973.400,0.0,0.0,23335.0,73265.0
3.989,9.751,85.069,0.0,0.0,1.191,0.0,1638.400,6938286.800,6934096.400,0.0,0.0,23893.0,75331.0
3.886,8.899,86.117,0.0,0.0,1.098,0.0,1638.400,6977043.200,6974623.200,0.0,0.0,23547.200,75579.400
3.706,8.805,86.542,0.0,0.0,0.947,0.0,1638.400,6992152.800,6988051.200,0.0,0.0,23431.600,75870.600
3.489,9.725,85.440,0.0,0.0,1.346,0.0,12288.0,6996523.200,6992232.600,0.0,0.0,23703.600,75937.200
3.731,9.243,85.885,0.0,0.0,1.141,0.0,819.200,6955490.200,6952752.800,0.0,0.0,23804.600,75249.200
4.002,9.894,84.936,0.056,0.0,1.112,0.0,18022.400,7118854.600,7114812.800,0.0,0.0,24475.400,77249.400
3.678,9.347,86.007,0.0,0.0,0.968,0.0,9830.400,6944497.0,6939838.400,0.0,0.0,23922.800,74913.600
3.694,9.012,86.202,0.0,0.0,1.092,0.0,819.200,6960276.200,6958276.800,0.0,0.0,24307.800,75242.200
3.626,9.219,86.031,0.0,0.0,1.124,0.0,1638.400,7101734.200,7097109.0,0.0,0.0,24928.200,77038.0
3.604,9.695,85.638,0.0,0.0,1.062,0.0,6553.600,7011753.600,7007044.400,0.0,0.0,24576.400,76021.0
3.790,9.253,85.870,0.0,0.0,1.087,0.0,1638.400,7030570.400,7028795.0,0.0,0.0,24731.0,76256.400
3.715,9.371,85.584,0.055,0.0,1.275,0.0,15564.800,6924119.0,6920833.0,0.0,0.0,24313.800,74862.800
0.025,0.025,99.950,0.0,0.0,0.0,0.0,819.200,3358.200,1178.600,0.0,0.0,43.400,120.0
