"Dstat 0.7.2 CSV output"
"Author:","Dag Wieers <dag@wieers.com>",,,,"URL:","http://dag.wieers.com/home-made/dstat/"
"Host:","Middleware1",,,,"User:","mstevan"
"Cmdline:","dstat --output /home/mstevan/logs/experiment_3.2/dstat/vs_256-vcpr_32-wtpm_64-rep_2.csv 5 16",,,,"Date:","28 Oct 2019 08:43:03 UTC"

"total cpu usage",,,,,,"dsk/total",,"net/total",,"paging",,"system",
"usr","sys","idl","wai","hiq","siq","read","writ","recv","send","in","out","int","csw"
1.841,3.787,93.650,0.074,0.0,0.648,9045.114,7602413.752,0.0,0.0,0.0,0.0,10145.270,29868.925
0.852,0.301,98.797,0.0,0.0,0.050,0.0,1638.400,84629.200,76361.0,0.0,0.0,384.400,1192.200
9.670,19.567,64.748,0.0,0.0,6.016,0.0,819.200,13056937.600,13053673.400,0.0,0.0,18405.600,63516.800
4.932,18.007,70.705,0.0,0.0,6.356,0.0,2457.600,14217643.200,14214902.800,0.0,0.0,20813.400,69038.800
6.543,18.532,68.615,0.0,0.0,6.310,0.0,2457.600,13618044.0,13612547.400,0.0,0.0,19963.200,66198.400
7.001,19.049,67.470,0.0,0.0,6.480,0.0,2457.600,13884500.200,13882516.200,0.0,0.0,19623.400,66384.400
6.281,18.974,67.807,0.099,0.0,6.840,0.0,58163.200,13944836.800,13941458.800,0.0,0.0,20207.600,67227.600
5.500,19.102,69.313,0.0,0.0,6.085,0.0,9011.200,13703981.400,13703283.200,0.0,0.0,20078.0,66536.0
5.824,18.987,68.542,0.0,0.0,6.647,0.0,3276.800,13959413.200,13954761.0,0.0,0.0,20605.600,67989.800
4.695,17.542,71.764,0.0,0.0,5.999,0.0,1638.400,14049529.600,14043635.800,0.0,0.0,21113.200,68960.200
4.785,17.634,71.747,0.0,0.0,5.834,0.0,819.200,14462697.800,14462825.400,0.0,0.0,21882.200,70842.400
5.676,18.943,69.024,0.0,0.0,6.357,0.0,1638.400,14182254.0,14174676.200,0.0,0.0,21048.0,68827.400
5.028,17.564,72.021,0.033,0.0,5.354,0.0,17203.200,14329789.200,14329651.400,0.0,0.0,21530.800,70177.0
5.073,18.374,70.439,0.0,0.0,6.114,0.0,5734.400,13965790.0,13962521.600,0.0,0.0,21065.800,68628.200
5.015,17.618,71.594,0.0,0.0,5.774,0.0,3276.800,14387002.200,14385134.800,0.0,0.0,21538.400,70325.200
5.410,17.574,71.351,0.0,0.0,5.666,0.0,819.200,14378406.200,14375937.600,0.0,0.0,21979.0,71278.800
0.892,1.682,97.096,0.0,0.0,0.331,0.0,1638.400,1589269.400,1585069.600,0.0,0.0,6172.600,16197.400
