"Dstat 0.7.2 CSV output"
"Author:","Dag Wieers <dag@wieers.com>",,,,"URL:","http://dag.wieers.com/home-made/dstat/"
"Host:","Middleware1",,,,"User:","mstevan"
"Cmdline:","dstat --output /home/mstevan/logs/experiment_3.2/dstat/vs_256-vcpr_8-wtpm_8-rep_4.csv 5 16",,,,"Date:","28 Oct 2019 08:00:26 UTC"

"total cpu usage",,,,,,"dsk/total",,"net/total",,"paging",,"system",
"usr","sys","idl","wai","hiq","siq","read","writ","recv","send","in","out","int","csw"
1.700,3.409,94.267,0.078,0.0,0.546,9769.873,8211131.588,0.0,0.0,0.0,0.0,9545.360,28062.912
0.451,0.201,99.323,0.0,0.0,0.025,0.0,40960.0,34683.800,31666.200,0.0,0.0,186.0,590.600
4.921,4.947,89.684,0.0,0.0,0.447,0.0,1638.400,5507980.400,5503593.400,0.0,0.0,14638.0,36914.800
3.317,4.167,92.197,0.0,0.0,0.318,0.0,1638.400,5636131.400,5631235.600,0.0,0.0,16175.600,37795.600
2.992,4.619,91.995,0.0,0.0,0.394,0.0,2457.600,5548743.600,5547081.0,0.0,0.0,15904.200,37142.800
2.660,5.190,91.758,0.0,0.0,0.391,0.0,1638.400,5970381.800,5965938.200,0.0,0.0,17174.200,40131.400
2.090,5.226,92.265,0.0,0.0,0.418,0.0,4915.200,5860894.400,5856380.600,0.0,0.0,16870.400,39313.600
1.920,4.681,93.111,0.079,0.0,0.210,0.0,23756.800,5763703.800,5761432.200,0.0,0.0,16430.0,38477.800
1.541,3.746,94.447,0.0,0.0,0.266,0.0,1638.400,5544328.600,5539798.600,0.0,0.0,15866.600,37170.800
1.773,4.181,93.834,0.0,0.0,0.212,0.0,819.200,5676574.200,5674168.800,0.0,0.0,16284.0,37993.200
2.145,4.579,92.909,0.0,0.0,0.366,0.0,1638.400,5679858.600,5675394.800,0.0,0.0,16383.600,37978.600
1.633,4.398,93.521,0.0,0.0,0.448,0.0,1638.400,5616439.0,5612210.0,0.0,0.0,16234.0,37622.600
1.846,4.350,93.330,0.0,0.0,0.475,0.0,819.200,5735184.400,5733054.400,0.0,0.0,16632.200,38550.800
2.005,4.274,93.483,0.053,0.0,0.185,0.0,16384.0,5724827.200,5720382.0,0.0,0.0,16485.600,38274.200
1.686,4.319,93.679,0.0,0.0,0.316,0.0,8192.0,5645997.400,5641400.600,0.0,0.0,16335.0,37847.400
1.986,4.809,92.917,0.0,0.0,0.288,0.0,1638.400,5743645.600,5741755.600,0.0,0.0,16580.600,38513.200
0.050,0.0,99.950,0.0,0.0,0.0,0.0,1638.400,6362.0,1978.800,0.0,0.0,46.200,133.800
