"Dstat 0.7.2 CSV output"
"Author:","Dag Wieers <dag@wieers.com>",,,,"URL:","http://dag.wieers.com/home-made/dstat/"
"Host:","Middleware1",,,,"User:","mstevan"
"Cmdline:","dstat --output /home/mstevan/logs/experiment_3.2/dstat/vs_512-vcpr_32-wtpm_8-rep_2.csv 5 16",,,,"Date:","28 Oct 2019 09:40:02 UTC"

"total cpu usage",,,,,,"dsk/total",,"net/total",,"paging",,"system",
"usr","sys","idl","wai","hiq","siq","read","writ","recv","send","in","out","int","csw"
1.979,4.153,93.061,0.068,0.0,0.739,8229.029,6917118.164,0.0,0.0,0.0,0.0,10850.161,31871.597
0.576,0.150,99.249,0.0,0.0,0.025,0.0,1638.400,85955.600,76618.0,0.0,0.0,219.200,746.400
5.972,4.639,88.883,0.0,0.0,0.507,0.0,819.200,8902940.400,8899035.600,0.0,0.0,13999.600,36749.0
4.106,4.238,91.020,0.106,0.0,0.530,0.0,41779.200,8348516.600,8343643.0,0.0,0.0,15061.800,35021.0
1.809,4.692,93.054,0.0,0.0,0.446,0.0,19660.800,9246203.600,9242210.0,0.0,0.0,16647.800,38545.200
1.789,4.446,93.396,0.0,0.0,0.368,0.0,819.200,9378116.400,9377247.200,0.0,0.0,16752.400,39227.200
1.840,4.522,93.165,0.0,0.0,0.473,0.0,8192.0,9372493.0,9368296.400,0.0,0.0,16713.0,39198.200
1.885,4.921,92.618,0.0,0.0,0.576,0.0,9011.200,9495511.600,9490714.600,0.0,0.0,16961.0,39767.200
1.942,5.091,92.679,0.0,0.0,0.289,0.0,3276.800,9237161.800,9235405.800,0.0,0.0,16455.0,38620.800
3.136,5.095,91.246,0.052,0.0,0.470,0.0,18841.600,9200477.200,9195759.200,0.0,0.0,16180.600,38326.200
1.903,4.414,93.286,0.0,0.0,0.397,0.0,819.200,9286257.400,9284128.800,0.0,0.0,16527.800,38563.0
2.220,5.120,92.241,0.0,0.0,0.418,0.0,1638.400,9358277.400,9353742.400,0.0,0.0,16490.600,38829.400
1.815,4.604,93.107,0.0,0.0,0.474,0.0,1638.400,9078935.800,9074614.600,0.0,0.0,16262.600,37772.200
1.699,4.220,93.763,0.0,0.0,0.318,0.0,4915.200,9386159.0,9383876.200,0.0,0.0,16737.800,39134.800
1.664,4.518,93.474,0.0,0.0,0.343,0.0,3276.800,9249682.400,9245375.0,0.0,0.0,16700.400,38587.200
1.790,4.502,93.286,0.053,0.0,0.369,0.0,19660.800,9009000.400,9004613.400,0.0,0.0,16411.400,37990.800
0.430,0.783,98.661,0.0,0.0,0.126,0.0,4915.200,1635764.400,1631902.200,0.0,0.0,3026.200,7207.400
