"Dstat 0.7.2 CSV output"
"Author:","Dag Wieers <dag@wieers.com>",,,,"URL:","http://dag.wieers.com/home-made/dstat/"
"Host:","Middleware1",,,,"User:","mstevan"
"Cmdline:","dstat --output /home/mstevan/logs/experiment_3.2/dstat/vs_512-vcpr_8-wtpm_64-rep_1.csv 5 16",,,,"Date:","28 Oct 2019 09:15:53 UTC"

"total cpu usage",,,,,,"dsk/total",,"net/total",,"paging",,"system",
"usr","sys","idl","wai","hiq","siq","read","writ","recv","send","in","out","int","csw"
1.912,3.970,93.361,0.070,0.0,0.687,8556.340,7191974.066,0.0,0.0,0.0,0.0,10546.326,30986.411
0.702,0.351,98.897,0.0,0.0,0.050,0.0,1638.400,59509.200,57068.200,0.0,0.0,335.400,978.800
11.121,13.765,71.528,0.0,0.0,3.586,0.0,2457.600,12892935.200,12887712.600,0.0,0.0,25255.200,75961.0
6.196,14.507,76.586,0.0,0.0,2.711,0.0,819.200,14126019.600,14127811.600,0.0,0.0,29220.600,83524.800
4.810,14.311,77.831,0.0,0.0,3.048,0.0,34406.400,14500487.800,14498580.400,0.0,0.0,30122.400,85935.200
4.976,15.802,76.297,0.0,0.0,2.925,0.0,8192.0,14289015.600,14285522.200,0.0,0.0,30271.200,85852.800
5.163,14.533,77.052,0.0,0.0,3.253,0.0,4915.200,14488902.0,14484879.0,0.0,0.0,30331.600,86592.600
5.258,13.983,77.622,0.0,0.0,3.137,0.0,9830.400,14552450.600,14551561.0,0.0,0.0,30658.400,87178.0
5.194,14.320,76.343,0.0,0.0,4.143,0.0,819.200,14513470.0,14511688.0,0.0,0.0,30523.400,87086.600
4.924,13.867,78.187,0.0,0.0,3.021,0.0,1638.400,14587817.600,14582505.400,0.0,0.0,30108.200,86097.800
5.030,13.675,78.042,0.060,0.0,3.193,0.0,20480.0,14166391.0,14166500.200,0.0,0.0,29848.600,84886.200
5.598,13.951,77.725,0.0,0.0,2.725,0.0,819.200,14486469.400,14484151.200,0.0,0.0,30080.200,85821.0
4.987,12.983,79.286,0.0,0.0,2.744,0.0,1638.400,14715215.800,14712684.600,0.0,0.0,30199.800,86229.800
4.667,14.815,77.356,0.0,0.0,3.162,0.0,4915.200,14762799.800,14761566.200,0.0,0.0,31068.800,88294.600
5.036,13.886,77.831,0.0,0.0,3.248,0.0,4096.0,14743031.800,14739591.200,0.0,0.0,31649.200,89279.200
4.742,13.960,78.601,0.0,0.0,2.697,0.0,1638.400,14184483.400,14185572.200,0.0,0.0,29592.200,84541.0
0.050,0.025,99.925,0.0,0.0,0.0,0.0,819.200,3277.0,1138.200,0.0,0.0,36.400,116.600
