"Dstat 0.7.2 CSV output"
"Author:","Dag Wieers <dag@wieers.com>",,,,"URL:","http://dag.wieers.com/home-made/dstat/"
"Host:","Middleware1",,,,"User:","mstevan"
"Cmdline:","dstat --output /home/mstevan/logs/experiment_3.2/dstat/vs_512-vcpr_16-wtpm_8-rep_3.csv 5 16",,,,"Date:","28 Oct 2019 09:24:24 UTC"

"total cpu usage",,,,,,"dsk/total",,"net/total",,"paging",,"system",
"usr","sys","idl","wai","hiq","siq","read","writ","recv","send","in","out","int","csw"
1.933,4.028,93.269,0.070,0.0,0.700,8437.873,7092494.158,0.0,0.0,0.0,0.0,10689.887,31356.969
0.652,0.176,99.147,0.0,0.0,0.025,0.0,1638.400,85953.400,78901.800,0.0,0.0,238.600,763.0
5.495,4.268,89.597,0.0,0.0,0.640,0.0,1638.400,9040663.400,9036399.200,0.0,0.0,14561.0,37609.400
4.132,4.397,90.914,0.0,0.0,0.556,0.0,819.200,8535775.0,8532946.800,0.0,0.0,15254.200,36079.800
2.003,4.506,93.043,0.0,0.0,0.448,0.0,3276.800,9458953.400,9455490.400,0.0,0.0,16680.600,39734.800
2.940,4.463,92.229,0.0,0.0,0.368,0.0,1638.400,8942123.600,8936755.600,0.0,0.0,15809.0,37780.800
2.341,5.124,92.120,0.0,0.0,0.416,0.0,4915.200,9333369.400,9332062.400,0.0,0.0,16307.0,39325.600
2.350,4.779,92.374,0.052,0.0,0.444,0.0,41779.200,9325175.200,9319947.0,0.0,0.0,16253.0,39164.800
1.687,4.456,93.541,0.0,0.0,0.316,0.0,2457.600,9163796.800,9161116.200,0.0,0.0,16062.400,38218.800
1.847,4.063,93.588,0.0,0.0,0.501,0.0,2457.600,9191699.800,9188462.0,0.0,0.0,16258.600,38652.800
1.944,4.624,93.011,0.0,0.0,0.420,0.0,1638.400,9297091.0,9291897.200,0.0,0.0,16350.200,38812.800
1.607,4.426,93.783,0.0,0.0,0.184,0.0,819.200,9082647.800,9080524.200,0.0,0.0,16294.200,38280.800
1.813,4.468,93.298,0.0,0.0,0.420,0.0,1638.400,9299995.600,9295100.800,0.0,0.0,16774.600,39149.400
2.004,3.902,93.673,0.053,0.0,0.369,0.0,20480.0,9210166.800,9205869.800,0.0,0.0,16427.600,38569.200
1.768,4.302,93.719,0.0,0.0,0.211,0.0,2457.600,9284680.0,9283272.0,0.0,0.0,16528.200,38826.200
2.058,4.794,92.731,0.0,0.0,0.417,0.0,1638.400,9029216.0,9025398.800,0.0,0.0,16098.0,38087.200
0.050,0.025,99.925,0.0,0.0,0.0,0.0,1638.400,8132.800,2850.800,0.0,0.0,52.400,137.400
