"Dstat 0.7.2 CSV output"
"Author:","Dag Wieers <dag@wieers.com>",,,,"URL:","http://dag.wieers.com/home-made/dstat/"
"Host:","Middleware1",,,,"User:","mstevan"
"Cmdline:","dstat --output /home/mstevan/logs/experiment_3.2/dstat/vs_512-vcpr_16-wtpm_8-rep_2.csv 5 16",,,,"Date:","28 Oct 2019 09:22:59 UTC"

"total cpu usage",,,,,,"dsk/total",,"net/total",,"paging",,"system",
"usr","sys","idl","wai","hiq","siq","read","writ","recv","send","in","out","int","csw"
1.933,4.028,93.268,0.070,0.0,0.701,8457.391,7108881.632,0.0,0.0,0.0,0.0,10682.580,31354.659
0.677,0.226,99.072,0.0,0.0,0.025,0.0,819.200,101782.400,97346.0,0.0,0.0,225.0,820.600
5.231,4.480,89.834,0.0,0.0,0.456,0.0,3276.800,8985293.0,8980677.600,0.0,0.0,14782.600,37209.600
2.952,4.797,91.776,0.0,0.0,0.474,0.0,819.200,9153258.200,9149966.600,0.0,0.0,16526.800,38342.600
2.222,5.281,91.922,0.0,0.0,0.575,0.0,2457.600,9538789.0,9535287.800,0.0,0.0,17292.800,40059.0
2.634,4.874,92.123,0.053,0.0,0.316,0.0,33587.200,9089096.400,9083933.400,0.0,0.0,16541.400,38356.0
2.296,4.644,92.639,0.0,0.0,0.422,0.0,4915.200,9408212.0,9406776.400,0.0,0.0,17134.200,39535.200
2.089,4.285,93.018,0.0,0.0,0.608,0.0,9830.400,9395206.400,9390668.600,0.0,0.0,17014.800,39614.0
2.240,4.850,92.383,0.0,0.0,0.527,0.0,1638.400,9298655.400,9293564.400,0.0,0.0,16971.200,39386.0
1.824,4.362,93.471,0.0,0.0,0.344,0.0,819.200,8899964.200,8898550.0,0.0,0.0,16179.200,37421.400
1.570,4.046,93.878,0.0,0.0,0.506,0.0,1638.400,9308128.400,9303682.800,0.0,0.0,16874.0,39201.0
1.873,4.616,93.115,0.0,0.0,0.396,0.0,819.200,9202730.200,9198304.200,0.0,0.0,16720.600,38631.400
1.764,4.791,92.946,0.053,0.0,0.447,0.0,26214.400,9320626.600,9318244.800,0.0,0.0,16917.0,39020.200
1.919,4.888,92.720,0.0,0.0,0.473,0.0,5734.400,9285341.600,9280723.600,0.0,0.0,16797.400,38824.800
1.842,4.736,92.949,0.0,0.0,0.474,0.0,4096.0,9277701.800,9274827.200,0.0,0.0,16899.800,39057.800
2.058,4.749,92.823,0.0,0.0,0.369,0.0,1638.400,9378831.0,9375515.0,0.0,0.0,17145.0,39784.0
1.212,0.707,98.005,0.0,0.0,0.076,0.0,1638.400,945547.200,940567.600,0.0,0.0,2119.600,6380.200
