"Dstat 0.7.2 CSV output"
"Author:","Dag Wieers <dag@wieers.com>",,,,"URL:","http://dag.wieers.com/home-made/dstat/"
"Host:","Middleware1",,,,"User:","mstevan"
"Cmdline:","dstat --output /home/mstevan/logs/experiment_3.2/dstat/vs_512-vcpr_16-wtpm_32-rep_3.csv 5 16",,,,"Date:","28 Oct 2019 09:30:05 UTC"

"total cpu usage",,,,,,"dsk/total",,"net/total",,"paging",,"system",
"usr","sys","idl","wai","hiq","siq","read","writ","recv","send","in","out","int","csw"
1.943,4.051,93.231,0.069,0.0,0.705,8360.708,7027695.357,0.0,0.0,0.0,0.0,10732.033,31464.706
0.551,0.200,99.223,0.0,0.0,0.025,0.0,2457.600,74340.800,69375.200,0.0,0.0,310.200,916.400
9.466,12.272,75.276,0.0,0.0,2.986,0.0,1638.400,17717104.200,17712653.800,0.0,0.0,18281.400,61144.200
5.907,12.530,78.669,0.0,0.0,2.894,0.0,1638.400,18369914.200,18364323.400,0.0,0.0,19892.0,64197.200
5.980,12.764,78.072,0.0,0.0,3.184,0.0,2457.600,18569371.200,18568707.200,0.0,0.0,19712.600,64445.600
5.209,12.901,79.134,0.0,0.0,2.756,0.0,2457.600,18554851.400,18549110.0,0.0,0.0,19854.600,64626.800
4.973,12.343,79.629,0.060,0.0,2.996,0.0,31948.800,18621488.400,18620769.200,0.0,0.0,20215.0,65024.0
5.295,11.883,79.783,0.0,0.0,3.039,0.0,13926.400,18916459.800,18909439.400,0.0,0.0,20625.600,65964.0
3.867,11.510,81.369,0.0,0.0,3.254,0.0,3276.800,18789482.0,18787064.800,0.0,0.0,20255.800,65046.0
4.793,11.893,80.228,0.0,0.0,3.086,0.0,819.200,18843629.400,18840741.200,0.0,0.0,20594.600,65990.400
4.954,12.504,79.648,0.0,0.0,2.895,0.0,1638.400,18835844.200,18831622.0,0.0,0.0,20571.400,65641.600
4.428,11.837,80.934,0.0,0.0,2.801,0.0,1638.400,18842074.600,18834875.800,0.0,0.0,20511.800,65743.400
4.144,12.039,81.337,0.060,0.0,2.420,0.0,19660.800,18943769.400,18944417.400,0.0,0.0,20870.0,66715.600
4.382,11.605,81.293,0.0,0.0,2.720,0.0,14745.600,18841698.200,18839134.0,0.0,0.0,20494.600,65732.200
4.665,12.489,79.776,0.0,0.0,3.071,0.0,2457.600,19050363.0,19048062.0,0.0,0.0,20962.400,66658.400
4.093,11.473,81.685,0.0,0.0,2.749,0.0,1638.400,18694959.400,18691807.0,0.0,0.0,20479.200,65503.600
0.175,0.150,99.649,0.0,0.0,0.025,0.0,3276.800,95329.200,99209.200,0.0,0.0,276.200,908.800
