"Dstat 0.7.2 CSV output"
"Author:","Dag Wieers <dag@wieers.com>",,,,"URL:","http://dag.wieers.com/home-made/dstat/"
"Host:","Middleware1",,,,"User:","mstevan"
"Cmdline:","dstat --output /home/mstevan/logs/experiment_3.2/dstat/vs_512-vcpr_32-wtpm_32-rep_4.csv 5 16",,,,"Date:","28 Oct 2019 09:48:34 UTC"

"total cpu usage",,,,,,"dsk/total",,"net/total",,"paging",,"system",
"usr","sys","idl","wai","hiq","siq","read","writ","recv","send","in","out","int","csw"
1.992,4.190,93.003,0.068,0.0,0.747,8119.430,6825092.060,0.0,0.0,0.0,0.0,10907.438,32010.201
0.651,0.150,99.173,0.0,0.0,0.025,0.0,1638.400,51838.0,44457.800,0.0,0.0,270.600,796.600
10.934,13.538,71.945,0.0,0.0,3.583,0.0,819.200,17719071.800,17710476.600,0.0,0.0,17773.200,58538.200
4.858,13.639,78.455,0.0,0.0,3.048,0.0,1638.400,19342021.200,19338479.600,0.0,0.0,20809.200,64689.600
5.159,14.591,76.832,0.0,0.0,3.419,0.0,3276.800,19377903.0,19369491.400,0.0,0.0,20764.0,64787.600
6.411,14.035,75.630,0.159,0.0,3.764,0.0,36044.800,17597009.0,17598322.400,0.0,0.0,19005.200,58700.800
5.172,14.432,76.494,0.0,0.0,3.902,0.0,8192.0,18589299.0,18586787.800,0.0,0.0,20513.800,61695.400
4.918,15.033,76.190,0.0,0.0,3.859,0.0,9011.200,18954173.400,18951102.200,0.0,0.0,20893.400,63048.400
4.632,13.118,78.645,0.0,0.0,3.606,0.0,3276.800,19131692.200,19123416.400,0.0,0.0,20675.400,63663.600
4.932,13.213,78.629,0.0,0.0,3.226,0.0,1638.400,19262819.400,19261258.200,0.0,0.0,20577.400,64083.200
4.766,13.807,78.413,0.0,0.0,3.014,0.0,819.200,19865628.800,19861211.0,0.0,0.0,21260.400,66063.400
4.639,13.402,79.230,0.030,0.0,2.699,0.0,30310.400,19656806.400,19652793.0,0.0,0.0,20899.800,65562.800
4.965,13.321,78.535,0.0,0.0,3.179,0.0,1638.400,19703662.200,19699428.600,0.0,0.0,21227.200,65750.600
4.550,14.613,78.005,0.0,0.0,2.832,0.0,4915.200,19777871.400,19777873.800,0.0,0.0,21327.0,65983.200
4.794,13.983,78.089,0.0,0.0,3.135,0.0,3276.800,19834263.0,19832773.0,0.0,0.0,21342.800,66057.0
4.204,13.010,79.319,0.0,0.0,3.467,0.0,1638.400,19781001.0,19776692.800,0.0,0.0,21607.600,66332.600
0.748,1.598,97.267,0.0,0.0,0.387,0.0,819.200,2979055.0,2976166.600,0.0,0.0,4837.0,13845.0
