"Dstat 0.7.2 CSV output"
"Author:","Dag Wieers <dag@wieers.com>",,,,"URL:","http://dag.wieers.com/home-made/dstat/"
"Host:","Middleware1",,,,"User:","mstevan"
"Cmdline:","dstat --output /home/mstevan/logs/experiment_3.2/dstat/vs_512-vcpr_8-wtpm_64-rep_2.csv 5 16",,,,"Date:","28 Oct 2019 09:17:18 UTC"

"total cpu usage",,,,,,"dsk/total",,"net/total",,"paging",,"system",
"usr","sys","idl","wai","hiq","siq","read","writ","recv","send","in","out","int","csw"
1.917,3.985,93.337,0.070,0.0,0.691,8536.366,7175202.382,0.0,0.0,0.0,0.0,10579.111,31078.148
0.803,0.351,98.795,0.0,0.0,0.050,0.0,1638.400,128628.400,126454.0,0.0,0.0,466.200,1356.800
11.655,14.493,70.713,0.0,0.0,3.140,0.0,819.200,13247770.800,13248578.800,0.0,0.0,25964.400,77828.400
6.130,14.423,76.082,0.0,0.0,3.365,0.0,3276.800,14240783.600,14238833.0,0.0,0.0,28949.800,85029.600
5.537,14.528,77.077,0.0,0.0,2.858,0.0,2457.600,14755865.800,14752736.200,0.0,0.0,30296.600,87933.400
4.817,14.363,77.947,0.0,0.0,2.873,0.0,819.200,14416249.0,14414205.600,0.0,0.0,30013.600,86460.600
5.478,14.558,76.868,0.030,0.0,3.066,0.0,33587.200,14454761.600,14451677.400,0.0,0.0,30352.600,86955.200
4.646,14.090,78.044,0.0,0.0,3.219,0.0,12288.0,14622567.800,14619115.600,0.0,0.0,30358.0,87812.200
5.220,13.264,78.170,0.0,0.0,3.347,0.0,1638.400,14666015.800,14663188.200,0.0,0.0,30515.400,87879.600
4.916,13.969,78.058,0.0,0.0,3.058,0.0,1638.400,14463745.400,14461247.200,0.0,0.0,30318.400,86877.0
5.011,13.951,78.248,0.0,0.0,2.790,0.0,1638.400,14486168.200,14483328.0,0.0,0.0,30538.400,87489.200
5.017,13.478,78.181,0.0,0.0,3.324,0.0,1638.400,14600074.200,14599207.200,0.0,0.0,30396.600,87080.0
5.273,13.868,77.507,0.061,0.0,3.292,0.0,23756.800,14635644.0,14630636.800,0.0,0.0,30744.600,88289.0
4.790,13.593,78.623,0.0,0.0,2.994,0.0,5734.400,14595200.800,14594016.600,0.0,0.0,30622.600,87809.600
4.856,13.202,79.363,0.0,0.0,2.580,0.0,2457.600,14513373.400,14510150.200,0.0,0.0,30537.800,86793.0
4.615,13.335,79.083,0.0,0.0,2.967,0.0,819.200,14263902.800,14266092.200,0.0,0.0,30198.200,85205.800
0.100,0.025,99.875,0.0,0.0,0.0,0.0,1638.400,6362.0,1978.800,0.0,0.0,40.200,127.600
