"Dstat 0.7.2 CSV output"
"Author:","Dag Wieers <dag@wieers.com>",,,,"URL:","http://dag.wieers.com/home-made/dstat/"
"Host:","Middleware1",,,,"User:","mstevan"
"Cmdline:","dstat --output /home/mstevan/logs/experiment_3.2/dstat/vs_512-vcpr_8-wtpm_32-rep_4.csv 5 16",,,,"Date:","28 Oct 2019 09:14:27 UTC"

"total cpu usage",,,,,,"dsk/total",,"net/total",,"paging",,"system",
"usr","sys","idl","wai","hiq","siq","read","writ","recv","send","in","out","int","csw"
1.906,3.958,93.382,0.070,0.0,0.684,8576.401,7208819.713,0.0,0.0,0.0,0.0,10525.558,30908.746
0.776,0.250,98.973,0.0,0.0,0.0,0.0,1638.400,116298.600,109362.200,0.0,0.0,375.400,1118.800
10.658,12.653,72.968,0.0,0.0,3.721,0.0,2457.600,13137752.400,13136823.800,0.0,0.0,20259.800,68591.0
6.193,12.179,78.826,0.059,0.0,2.743,0.0,33587.200,14354439.400,14352002.200,0.0,0.0,22634.800,74975.0
5.206,12.127,80.154,0.0,0.0,2.514,0.0,1638.400,14514955.800,14509971.600,0.0,0.0,23400.200,77114.800
4.706,12.324,80.294,0.0,0.0,2.676,0.0,2457.600,14505777.200,14500528.400,0.0,0.0,23503.400,77273.200
4.815,11.409,80.916,0.0,0.0,2.860,0.0,4096.0,14801577.0,14800447.0,0.0,0.0,24265.0,79532.400
4.969,11.683,80.627,0.0,0.0,2.721,0.0,10649.600,14787273.600,14782315.200,0.0,0.0,23954.800,79227.200
5.127,11.962,80.082,0.0,0.0,2.829,0.0,1638.400,14746884.800,14742904.200,0.0,0.0,24025.400,79022.200
4.756,11.920,80.299,0.147,0.0,2.877,0.0,18022.400,14916374.600,14913468.600,0.0,0.0,24161.600,79168.400
4.802,12.709,79.561,0.0,0.0,2.928,0.0,9011.200,14981879.0,14978953.600,0.0,0.0,24217.800,79763.0
4.142,11.722,81.874,0.0,0.0,2.262,0.0,819.200,14948374.400,14945679.0,0.0,0.0,24015.600,79483.400
4.874,11.588,81.144,0.0,0.0,2.393,0.0,1638.400,15123627.800,15118929.800,0.0,0.0,24278.0,80355.400
4.738,12.419,79.900,0.0,0.0,2.943,0.0,5734.400,15081219.0,15072390.600,0.0,0.0,24076.800,79874.600
4.837,12.401,80.270,0.0,0.0,2.492,0.0,2457.600,14906693.200,14908742.600,0.0,0.0,23912.0,78988.200
4.705,12.127,80.801,0.058,0.0,2.309,0.0,18841.600,14761051.800,14759014.800,0.0,0.0,23616.400,78145.800
0.050,0.0,99.950,0.0,0.0,0.0,0.0,1638.400,6375.200,1992.0,0.0,0.0,44.800,126.200
