"Dstat 0.7.2 CSV output"
"Author:","Dag Wieers <dag@wieers.com>",,,,"URL:","http://dag.wieers.com/home-made/dstat/"
"Host:","Middleware1",,,,"User:","mstevan"
"Cmdline:","dstat --output /home/mstevan/logs/experiment_3.2/dstat/vs_512-vcpr_4-wtpm_32-rep_3.csv 5 16",,,,"Date:","28 Oct 2019 08:55:59 UTC"

"total cpu usage",,,,,,"dsk/total",,"net/total",,"paging",,"system",
"usr","sys","idl","wai","hiq","siq","read","writ","recv","send","in","out","int","csw"
1.868,3.870,93.517,0.072,0.0,0.672,8846.048,7435252.474,0.0,0.0,0.0,0.0,10270.212,30224.488
0.779,0.226,98.945,0.0,0.0,0.050,0.0,2457.600,109469.600,105121.200,0.0,0.0,432.800,1228.0
9.185,8.822,80.486,0.0,0.0,1.508,0.0,1638.400,9626065.800,9620397.200,0.0,0.0,21436.400,65370.800
4.722,8.354,85.778,0.0,0.0,1.146,0.0,819.200,10489063.400,10488014.800,0.0,0.0,24338.400,71669.200
4.063,8.600,86.056,0.0,0.0,1.280,0.0,42598.400,10977712.400,10973485.800,0.0,0.0,25784.800,75480.800
3.945,8.993,85.903,0.0,0.0,1.159,0.0,1638.400,10637518.800,10631935.400,0.0,0.0,24795.800,72965.400
3.873,9.793,85.035,0.0,0.0,1.300,0.0,3276.800,10875940.600,10875159.0,0.0,0.0,25048.600,75426.800
4.221,9.025,85.448,0.0,0.0,1.305,0.0,9830.400,10888615.200,10883508.0,0.0,0.0,25089.400,75261.200
3.980,9.066,85.627,0.0,0.0,1.327,0.0,819.200,10872424.600,10869419.400,0.0,0.0,25366.600,74643.0
3.412,8.904,86.657,0.0,0.0,1.026,0.0,1638.400,11072191.400,11068878.800,0.0,0.0,25889.200,76039.600
3.833,9.432,85.521,0.055,0.0,1.158,0.0,19660.800,11014687.800,11010898.0,0.0,0.0,25757.400,75498.0
3.558,8.671,86.548,0.0,0.0,1.223,0.0,819.200,10939504.600,10936899.800,0.0,0.0,25551.400,74965.400
3.822,8.917,86.153,0.0,0.0,1.108,0.0,1638.400,10993290.600,10988589.400,0.0,0.0,25616.800,75377.400
3.372,9.425,86.014,0.0,0.0,1.189,0.0,7372.800,10792934.400,10788744.400,0.0,0.0,25112.400,73935.800
3.271,9.149,86.443,0.0,0.0,1.137,0.0,2457.600,10357744.200,10356163.600,0.0,0.0,24058.600,70824.600
3.611,8.259,87.010,0.0,0.0,1.120,0.0,1638.400,10204733.400,10201221.400,0.0,0.0,23690.0,69714.200
0.025,0.050,99.900,0.025,0.0,0.0,0.0,21299.200,6586.400,2110.800,0.0,0.0,44.800,149.200
