"Dstat 0.7.2 CSV output"
"Author:","Dag Wieers <dag@wieers.com>",,,,"URL:","http://dag.wieers.com/home-made/dstat/"
"Host:","Middleware1",,,,"User:","mstevan"
"Cmdline:","dstat --output /home/mstevan/logs/experiment_3.2/dstat/vs_512-vcpr_16-wtpm_64-rep_3.csv 5 16",,,,"Date:","28 Oct 2019 09:35:46 UTC"

"total cpu usage",,,,,,"dsk/total",,"net/total",,"paging",,"system",
"usr","sys","idl","wai","hiq","siq","read","writ","recv","send","in","out","int","csw"
1.966,4.116,93.123,0.069,0.0,0.726,8284.955,6964081.986,0.0,0.0,0.0,0.0,10802.918,31721.139
0.776,0.200,99.024,0.0,0.0,0.0,0.0,819.200,55381.400,53214.800,0.0,0.0,343.800,972.800
10.841,18.644,64.663,0.0,0.0,5.852,0.0,1638.400,17091479.200,17087471.400,0.0,0.0,21299.400,71357.800
7.379,18.638,68.590,0.0,0.0,5.393,0.0,819.200,18658801.800,18657866.200,0.0,0.0,23831.800,77597.200
8.305,18.631,67.216,0.0,0.0,5.848,0.0,3276.800,17947980.800,17942463.400,0.0,0.0,22622.200,74978.800
7.355,17.840,69.421,0.031,0.0,5.352,0.0,33587.200,17865143.400,17861748.200,0.0,0.0,22632.200,74802.0
6.978,18.503,68.172,0.032,0.0,6.315,0.0,12288.0,18069799.200,18070079.200,0.0,0.0,23137.600,76136.200
6.199,17.621,70.453,0.0,0.0,5.727,0.0,9830.400,18299683.0,18293098.400,0.0,0.0,23640.200,77223.600
6.426,17.492,70.533,0.0,0.0,5.549,0.0,1638.400,18111990.800,18108760.400,0.0,0.0,23598.800,76603.400
5.895,17.528,71.438,0.0,0.0,5.139,0.0,819.200,18073670.0,18072864.0,0.0,0.0,23432.200,76061.800
6.270,18.298,69.994,0.0,0.0,5.438,0.0,2457.600,18419192.600,18412483.200,0.0,0.0,24157.0,78306.400
5.791,18.151,71.638,0.0,0.0,4.421,0.0,819.200,19332311.200,19330086.0,0.0,0.0,25530.200,82084.800
5.585,17.072,71.758,0.0,0.0,5.585,0.0,17203.200,18705074.0,18703919.0,0.0,0.0,24871.400,79658.400
5.611,18.041,71.110,0.0,0.0,5.239,0.0,5734.400,19202024.0,19197369.800,0.0,0.0,25870.800,82586.800
5.438,17.466,71.721,0.0,0.0,5.374,0.0,2457.600,19164754.200,19162252.200,0.0,0.0,25126.0,80715.0
5.288,17.916,71.633,0.0,0.0,5.163,0.0,1638.400,18984195.0,18984163.200,0.0,0.0,25442.800,80917.0
0.753,0.502,98.493,0.0,0.0,0.251,0.0,1638.400,507638.800,537354.0,0.0,0.0,1292.200,3831.600
