"Dstat 0.7.2 CSV output"
"Author:","Dag Wieers <dag@wieers.com>",,,,"URL:","http://dag.wieers.com/home-made/dstat/"
"Host:","Middleware1",,,,"User:","mstevan"
"Cmdline:","dstat --output /home/mstevan/logs/experiment_3.2/dstat/vs_512-vcpr_4-wtpm_64-rep_2.csv 5 16",,,,"Date:","28 Oct 2019 09:00:15 UTC"

"total cpu usage",,,,,,"dsk/total",,"net/total",,"paging",,"system",
"usr","sys","idl","wai","hiq","siq","read","writ","recv","send","in","out","int","csw"
1.878,3.893,93.482,0.072,0.0,0.675,8782.329,7381743.713,0.0,0.0,0.0,0.0,10344.401,30439.023
0.678,0.301,98.996,0.0,0.0,0.025,0.0,1638.400,64410.0,61932.600,0.0,0.0,393.600,1095.600
9.762,8.951,79.608,0.028,0.0,1.650,0.0,38502.400,10048751.200,10055056.800,0.0,0.0,25215.600,69168.400
4.485,9.309,84.880,0.0,0.0,1.326,0.0,1638.400,10982405.200,10980613.0,0.0,0.0,28691.400,76433.400
4.084,10.058,84.635,0.0,0.0,1.223,0.0,2457.600,11208937.400,11210112.0,0.0,0.0,29465.400,78040.800
3.894,9.291,85.730,0.0,0.0,1.085,0.0,1638.400,11262497.0,11260990.200,0.0,0.0,29674.400,78345.0
3.800,9.081,85.974,0.0,0.0,1.146,0.0,4096.0,11124623.200,11123642.200,0.0,0.0,29337.0,77435.800
4.168,9.343,85.259,0.0,0.0,1.231,0.0,9011.200,11459778.0,11459058.400,0.0,0.0,30320.400,79721.0
4.303,9.245,85.008,0.028,0.0,1.416,0.0,18841.600,11205197.0,11204405.400,0.0,0.0,29649.200,78212.800
3.754,10.067,84.705,0.0,0.0,1.474,0.0,2457.600,11263238.200,11260660.800,0.0,0.0,29870.400,78464.0
3.524,10.042,85.147,0.0,0.0,1.287,0.0,819.200,11224191.800,11225964.0,0.0,0.0,29665.200,78397.200
3.683,10.136,85.101,0.0,0.0,1.080,0.0,1638.400,11382368.0,11377436.0,0.0,0.0,30134.0,79459.400
3.832,9.497,85.532,0.0,0.0,1.139,0.0,1638.400,11302440.400,11299814.200,0.0,0.0,29826.200,78566.400
3.692,9.189,85.980,0.0,0.0,1.138,0.0,819.200,11503149.800,11501254.600,0.0,0.0,30306.0,79895.600
3.572,9.893,85.326,0.027,0.0,1.182,0.0,22118.400,11174213.400,11176227.400,0.0,0.0,29277.0,77463.200
3.797,9.590,85.588,0.0,0.0,1.025,0.0,4915.200,11162853.0,11164176.600,0.0,0.0,29426.600,77629.800
0.050,0.025,99.925,0.0,0.0,0.0,0.0,1638.400,6375.200,1992.0,0.0,0.0,43.400,119.0
