"Dstat 0.7.2 CSV output"
"Author:","Dag Wieers <dag@wieers.com>",,,,"URL:","http://dag.wieers.com/home-made/dstat/"
"Host:","Middleware1",,,,"User:","mstevan"
"Cmdline:","dstat --output /home/mstevan/logs/experiment_3.2/dstat/vs_512-vcpr_16-wtpm_32-rep_1.csv 5 16",,,,"Date:","28 Oct 2019 09:27:15 UTC"

"total cpu usage",,,,,,"dsk/total",,"net/total",,"paging",,"system",
"usr","sys","idl","wai","hiq","siq","read","writ","recv","send","in","out","int","csw"
1.934,4.027,93.272,0.069,0.0,0.699,8399.116,7059945.846,0.0,0.0,0.0,0.0,10702.463,31359.040
0.702,0.351,98.872,0.0,0.0,0.075,0.0,1638.400,158300.400,153102.800,0.0,0.0,375.800,1179.200
10.454,11.918,74.612,0.0,0.0,3.017,0.0,1638.400,17125433.200,17120804.200,0.0,0.0,18044.400,59331.0
5.792,12.485,78.962,0.060,0.0,2.701,0.0,36044.800,18242349.0,18236784.0,0.0,0.0,19801.200,63415.400
6.199,12.942,77.623,0.0,0.0,3.236,0.0,2457.600,17885890.600,17882621.600,0.0,0.0,19519.600,62270.800
5.446,11.700,80.371,0.0,0.0,2.484,0.0,819.200,18366071.200,18364417.0,0.0,0.0,20169.600,64248.200
4.696,11.499,80.464,0.0,0.0,3.341,0.0,5734.400,18633155.0,18628041.800,0.0,0.0,20678.800,65691.0
4.233,11.702,81.494,0.0,0.0,2.570,0.0,9830.400,19000089.600,18993682.800,0.0,0.0,21122.800,67000.600
4.348,11.473,81.220,0.0,0.0,2.959,0.0,3276.800,19178122.600,19177044.600,0.0,0.0,21815.600,68305.400
4.376,12.337,80.249,0.030,0.0,3.008,0.0,20480.0,18803594.400,18802170.600,0.0,0.0,20903.400,66057.600
4.344,12.377,80.333,0.0,0.0,2.946,0.0,10649.600,18926751.800,18924200.200,0.0,0.0,21024.200,66789.600
4.670,12.415,79.988,0.0,0.0,2.926,0.0,1638.400,19131722.0,19126455.400,0.0,0.0,21251.800,67260.600
4.024,11.622,81.862,0.0,0.0,2.492,0.0,2457.600,18964854.800,18961575.800,0.0,0.0,20942.400,66426.200
4.582,12.159,80.743,0.0,0.0,2.516,0.0,4915.200,19330987.600,19325896.0,0.0,0.0,21762.800,68081.200
3.897,12.719,80.876,0.0,0.0,2.508,0.0,3276.800,19068507.0,19066069.0,0.0,0.0,21107.600,66828.600
4.387,11.749,81.100,0.030,0.0,2.734,0.0,16384.0,18610179.800,18606008.400,0.0,0.0,21043.800,66180.600
0.960,1.035,97.879,0.0,0.0,0.126,0.0,819.200,1450628.400,1449673.0,0.0,0.0,3696.400,9710.600
