"Dstat 0.7.2 CSV output"
"Author:","Dag Wieers <dag@wieers.com>",,,,"URL:","http://dag.wieers.com/home-made/dstat/"
"Host:","Middleware1",,,,"User:","mstevan"
"Cmdline:","dstat --output /home/mstevan/logs/experiment_3.2/dstat/vs_512-vcpr_8-wtpm_8-rep_3.csv 5 16",,,,"Date:","28 Oct 2019 09:07:21 UTC"

"total cpu usage",,,,,,"dsk/total",,"net/total",,"paging",,"system",
"usr","sys","idl","wai","hiq","siq","read","writ","recv","send","in","out","int","csw"
1.889,3.917,93.448,0.071,0.0,0.675,8678.147,7294256.771,0.0,0.0,0.0,0.0,10449.754,30667.484
0.750,0.250,98.974,0.0,0.0,0.025,0.0,1638.400,107859.200,102343.0,0.0,0.0,260.200,855.200
5.113,4.848,89.483,0.026,0.0,0.530,0.0,13107.200,8595560.800,8592435.200,0.0,0.0,13961.200,35975.600
4.787,4.309,90.399,0.027,0.0,0.479,0.0,27852.800,8817252.600,8813627.800,0.0,0.0,15570.400,37567.0
2.549,4.468,92.668,0.0,0.0,0.315,0.0,3276.800,8956700.200,8952743.800,0.0,0.0,15598.200,37707.200
1.948,4.291,93.525,0.0,0.0,0.237,0.0,819.200,8826678.200,8824032.200,0.0,0.0,15271.800,37189.400
1.823,3.803,93.951,0.0,0.0,0.423,0.0,4915.200,8955643.800,8951720.200,0.0,0.0,15549.400,37830.200
1.681,4.308,93.512,0.0,0.0,0.499,0.0,10649.600,8891965.200,8887387.0,0.0,0.0,15374.0,37656.400
1.872,4.483,93.275,0.0,0.0,0.369,0.0,819.200,9007027.0,9004930.400,0.0,0.0,15711.800,38213.200
1.897,4.452,93.203,0.053,0.0,0.395,0.0,18022.400,9328326.600,9323241.400,0.0,0.0,16303.600,39452.400
1.832,4.814,93.066,0.0,0.0,0.288,0.0,1638.400,9005611.400,9000659.800,0.0,0.0,15866.200,38119.400
1.476,4.532,93.597,0.0,0.0,0.395,0.0,819.200,8993849.400,8992746.600,0.0,0.0,15787.200,37935.200
1.830,4.835,92.891,0.0,0.0,0.444,0.0,1638.400,9074176.200,9069542.600,0.0,0.0,16033.400,38439.800
1.935,4.680,92.993,0.0,0.0,0.392,0.0,4915.200,8919875.800,8917114.200,0.0,0.0,15753.600,37744.200
1.534,4.311,93.864,0.0,0.0,0.291,0.0,3276.800,9161017.800,9156466.400,0.0,0.0,16073.800,38362.600
1.753,4.214,93.588,0.052,0.0,0.393,0.0,19660.800,8807354.0,8803977.0,0.0,0.0,15468.800,37147.200
0.025,0.0,99.975,0.0,0.0,0.0,0.0,819.200,3263.800,1098.600,0.0,0.0,34.800,105.400
