"Dstat 0.7.2 CSV output"
"Author:","Dag Wieers <dag@wieers.com>",,,,"URL:","http://dag.wieers.com/home-made/dstat/"
"Host:","Middleware1",,,,"User:","mstevan"
"Cmdline:","dstat --output /home/mstevan/logs/experiment_3.2/dstat/vs_512-vcpr_32-wtpm_64-rep_1.csv 5 16",,,,"Date:","28 Oct 2019 09:49:59 UTC"

"total cpu usage",,,,,,"dsk/total",,"net/total",,"paging",,"system",
"usr","sys","idl","wai","hiq","siq","read","writ","recv","send","in","out","int","csw"
1.997,4.203,92.981,0.068,0.0,0.751,8101.450,6809997.130,0.0,0.0,0.0,0.0,10921.459,32057.514
0.628,0.276,99.095,0.0,0.0,0.0,0.0,1638.400,66884.0,59346.200,0.0,0.0,348.600,1007.0
11.771,20.079,61.259,0.0,0.0,6.891,0.0,819.200,19778520.200,19774134.400,0.0,0.0,17248.800,59962.400
5.737,19.133,69.231,0.0,0.0,5.900,0.0,2457.600,22554974.0,22551996.600,0.0,0.0,20772.800,68644.0
6.189,21.498,65.635,0.0,0.0,6.678,0.0,2457.600,21577166.200,21575297.200,0.0,0.0,19831.400,65814.0
7.384,18.940,66.689,0.0,0.0,6.987,0.0,1638.400,21932688.800,21924224.600,0.0,0.0,19725.800,66303.400
6.186,19.316,67.062,0.066,0.0,7.371,0.0,22937.600,21633804.400,21633484.200,0.0,0.0,19886.200,65682.0
6.749,19.073,66.689,0.0,0.0,7.488,0.0,22937.600,21772479.400,21769245.800,0.0,0.0,19764.800,65897.800
6.020,18.963,67.592,0.0,0.0,7.425,0.0,3276.800,21057098.200,21050870.800,0.0,0.0,19501.200,64550.0
5.888,19.204,68.116,0.0,0.0,6.792,0.0,1638.400,21949383.400,21950132.600,0.0,0.0,20222.400,66928.800
5.578,18.958,69.157,0.0,0.0,6.308,0.0,819.200,22079391.400,22071635.600,0.0,0.0,20825.400,67948.800
5.340,19.017,69.847,0.0,0.0,5.796,0.0,1638.400,22388170.400,22383488.400,0.0,0.0,21004.0,68649.400
5.629,20.123,68.295,0.0,0.0,5.953,0.0,819.200,22255083.400,22251037.0,0.0,0.0,21003.400,68755.0
5.301,19.470,69.175,0.065,0.0,5.988,0.0,23756.800,22661959.600,22656094.800,0.0,0.0,21291.0,69870.200
5.464,17.808,70.968,0.0,0.0,5.760,0.0,2457.600,22709485.200,22709398.200,0.0,0.0,21607.800,70274.400
5.327,18.894,69.045,0.0,0.0,6.734,0.0,819.200,22477672.0,22480603.200,0.0,0.0,21027.200,69008.600
0.741,1.866,97.163,0.0,0.0,0.230,0.0,1638.400,2245058.800,2242089.200,0.0,0.0,5758.200,14913.600
