"Dstat 0.7.2 CSV output"
"Author:","Dag Wieers <dag@wieers.com>",,,,"URL:","http://dag.wieers.com/home-made/dstat/"
"Host:","Middleware1",,,,"User:","mstevan"
"Cmdline:","dstat --output /home/mstevan/logs/experiment_3.2/dstat/vs_512-vcpr_16-wtpm_64-rep_2.csv 5 16",,,,"Date:","28 Oct 2019 09:34:21 UTC"

"total cpu usage",,,,,,"dsk/total",,"net/total",,"paging",,"system",
"usr","sys","idl","wai","hiq","siq","read","writ","recv","send","in","out","int","csw"
1.959,4.096,93.158,0.069,0.0,0.719,8303.760,6979872.832,0.0,0.0,0.0,0.0,10781.985,31646.518
0.876,0.526,98.548,0.0,0.0,0.050,0.0,1638.400,142243.400,136538.400,0.0,0.0,450.0,1364.600
12.116,17.273,64.979,0.0,0.0,5.631,0.0,1638.400,17173312.200,17172581.200,0.0,0.0,21064.200,70932.400
7.451,18.199,69.182,0.0,0.0,5.168,0.0,1638.400,18716684.0,18712197.600,0.0,0.0,24210.600,78012.0
7.561,18.652,68.116,0.095,0.0,5.577,0.0,34406.400,18775007.400,18776634.600,0.0,0.0,23236.600,77092.600
6.864,17.731,69.368,0.0,0.0,6.037,0.0,2457.600,18444583.200,18438413.400,0.0,0.0,23311.200,76240.800
6.473,18.918,68.605,0.0,0.0,6.004,0.0,1638.400,18429710.0,18423492.800,0.0,0.0,23840.800,77394.800
7.312,17.885,68.788,0.0,0.0,6.015,0.0,13107.200,18326276.800,18325488.600,0.0,0.0,23934.200,77300.400
7.074,18.592,68.889,0.0,0.0,5.446,0.0,3276.800,18707005.800,18700493.600,0.0,0.0,24970.200,79930.600
6.029,17.992,70.896,0.0,0.0,5.082,0.0,1638.400,18691563.0,18690405.600,0.0,0.0,24911.400,79614.600
6.034,19.285,69.668,0.0,0.0,5.013,0.0,18022.400,18331525.400,18328898.400,0.0,0.0,24570.200,78442.800
5.905,18.090,70.729,0.0,0.0,5.276,0.0,8192.0,18937646.200,18932475.600,0.0,0.0,25121.600,80429.0
5.837,18.538,69.917,0.0,0.0,5.709,0.0,819.200,19206354.600,19199462.0,0.0,0.0,25674.800,81579.400
5.825,18.613,70.307,0.0,0.0,5.255,0.0,5734.400,19279752.600,19281590.200,0.0,0.0,25619.400,81357.400
5.582,18.309,69.888,0.0,0.0,6.220,0.0,4096.0,18928872.400,18923284.600,0.0,0.0,25196.600,80418.600
5.426,17.524,71.282,0.0,0.0,5.769,0.0,819.200,18969590.200,18974205.200,0.0,0.0,24706.400,79156.200
0.225,0.200,99.374,0.075,0.0,0.125,0.0,17203.200,194170.600,207267.800,0.0,0.0,470.200,1608.200
