"Dstat 0.7.2 CSV output"
"Author:","Dag Wieers <dag@wieers.com>",,,,"URL:","http://dag.wieers.com/home-made/dstat/"
"Host:","Middleware1",,,,"User:","mstevan"
"Cmdline:","dstat --output /home/mstevan/logs/experiment_3.2/dstat/vs_512-vcpr_4-wtpm_8-rep_4.csv 5 16",,,,"Date:","28 Oct 2019 08:51:43 UTC"

"total cpu usage",,,,,,"dsk/total",,"net/total",,"paging",,"system",
"usr","sys","idl","wai","hiq","siq","read","writ","recv","send","in","out","int","csw"
1.861,3.854,93.540,0.073,0.0,0.672,8910.701,7489545.854,0.0,0.0,0.0,0.0,10218.298,30073.290
0.652,0.201,99.098,0.0,0.0,0.050,0.0,2457.600,97562.600,94435.400,0.0,0.0,234.400,802.0
5.801,4.524,89.010,0.0,0.0,0.665,0.0,1638.400,8566297.600,8562599.400,0.0,0.0,13375.200,36507.800
4.335,4.811,90.325,0.0,0.0,0.529,0.0,1638.400,8902180.600,8897461.600,0.0,0.0,16124.800,38343.600
1.939,4.506,93.215,0.0,0.0,0.341,0.0,2457.600,8727219.200,8725261.400,0.0,0.0,15842.400,37411.400
1.865,4.623,93.197,0.0,0.0,0.315,0.0,1638.400,9086756.400,9082196.800,0.0,0.0,16472.800,39170.600
1.892,4.442,93.193,0.026,0.0,0.447,0.0,25395.200,9102296.800,9097851.0,0.0,0.0,16470.200,38866.600
1.815,4.630,93.265,0.0,0.0,0.289,0.0,9011.200,9285839.400,9283608.400,0.0,0.0,16892.800,39699.800
1.866,4.731,93.088,0.0,0.0,0.315,0.0,1638.400,9031269.800,9026441.0,0.0,0.0,16510.800,38871.0
1.726,4.942,92.861,0.0,0.0,0.471,0.0,1638.400,9178124.800,9174137.0,0.0,0.0,16650.0,39266.800
1.703,4.690,93.372,0.0,0.0,0.236,0.0,819.200,9002682.200,9000467.600,0.0,0.0,16409.600,38415.600
1.913,4.245,93.422,0.0,0.0,0.419,0.0,1638.400,8896445.400,8892007.0,0.0,0.0,16334.800,38317.600
1.682,4.125,93.904,0.0,0.0,0.289,0.0,6553.600,8802818.400,8800536.800,0.0,0.0,16115.200,37764.400
1.856,4.235,93.464,0.052,0.0,0.392,0.0,22937.600,8928365.200,8923898.200,0.0,0.0,16329.400,38405.400
1.658,4.789,93.158,0.0,0.0,0.395,0.0,3276.800,9300646.0,9295402.0,0.0,0.0,16854.0,39898.200
1.755,4.741,93.190,0.0,0.0,0.314,0.0,819.200,9090427.200,9089252.800,0.0,0.0,16552.400,39042.800
0.075,0.0,99.925,0.0,0.0,0.0,0.0,1638.400,6586.400,2071.200,0.0,0.0,40.800,129.600
