"Dstat 0.7.2 CSV output"
"Author:","Dag Wieers <dag@wieers.com>",,,,"URL:","http://dag.wieers.com/home-made/dstat/"
"Host:","Middleware1",,,,"User:","mstevan"
"Cmdline:","dstat --output /home/mstevan/logs/experiment_3.2/dstat/vs_64-vcpr_4-wtpm_64-rep_4.csv 5 16",,,,"Date:","28 Oct 2019 06:46:24 UTC"

"total cpu usage",,,,,,"dsk/total",,"net/total",,"paging",,"system",
"usr","sys","idl","wai","hiq","siq","read","writ","recv","send","in","out","int","csw"
1.453,2.760,95.315,0.088,0.0,0.384,11252.212,9537562.827,0.0,0.0,0.0,0.0,8316.938,24607.857
0.602,0.351,99.022,0.0,0.0,0.025,0.0,31948.800,30889.800,31584.200,0.0,0.0,375.400,1091.600
9.239,8.761,80.141,0.0,0.0,1.859,0.0,2457.600,3413622.600,3427961.0,0.0,0.0,24342.0,66334.600
5.142,8.936,84.658,0.0,0.0,1.265,0.0,1638.400,3822639.0,3825451.800,0.0,0.0,28260.600,74887.400
3.842,9.204,85.517,0.0,0.0,1.437,0.0,1638.400,3950099.200,3949816.400,0.0,0.0,29209.200,77538.200
3.578,8.891,86.485,0.0,0.0,1.046,0.0,1638.400,4027507.200,4024101.800,0.0,0.0,29773.800,79080.0
3.703,9.270,85.902,0.0,0.0,1.125,0.0,3276.800,3999541.400,4000483.200,0.0,0.0,29487.800,78507.0
3.526,8.418,86.827,0.055,0.0,1.175,0.0,27033.600,3781627.0,3793093.800,0.0,0.0,28125.0,74141.0
3.779,9.159,85.710,0.0,0.0,1.352,0.0,8192.0,3793680.400,3797090.400,0.0,0.0,28164.200,74798.0
3.601,9.538,85.596,0.0,0.0,1.264,0.0,819.200,3951919.200,3953782.200,0.0,0.0,29299.400,77552.800
3.720,9.023,86.174,0.0,0.0,1.083,0.0,1638.400,3875248.400,3874509.600,0.0,0.0,28853.800,76039.800
3.844,8.684,86.256,0.0,0.0,1.217,0.0,1638.400,3935593.0,3936561.200,0.0,0.0,29089.200,76890.200
3.812,8.804,86.286,0.0,0.0,1.097,0.0,819.200,3855355.800,3859214.0,0.0,0.0,28544.200,75456.600
3.629,8.606,86.720,0.027,0.0,1.017,0.0,21299.200,3853561.800,3856942.600,0.0,0.0,28606.0,75398.200
3.425,8.923,86.381,0.0,0.0,1.271,0.0,3276.800,3920978.800,3919722.0,0.0,0.0,29249.0,76747.200
3.721,8.738,86.521,0.0,0.0,1.020,0.0,819.200,3838638.200,3841441.800,0.0,0.0,28631.400,75500.600
0.025,0.050,99.925,0.0,0.0,0.0,0.0,1638.400,6911.400,2605.200,0.0,0.0,46.400,147.800
