"Dstat 0.7.2 CSV output"
"Author:","Dag Wieers <dag@wieers.com>",,,,"URL:","http://dag.wieers.com/home-made/dstat/"
"Host:","Middleware1",,,,"User:","mstevan"
"Cmdline:","dstat --output /home/mstevan/logs/experiment_3.2/dstat/vs_64-vcpr_8-wtpm_32-rep_1.csv 5 16",,,,"Date:","28 Oct 2019 06:53:30 UTC"

"total cpu usage",,,,,,"dsk/total",,"net/total",,"paging",,"system",
"usr","sys","idl","wai","hiq","siq","read","writ","recv","send","in","out","int","csw"
1.466,2.781,95.282,0.087,0.0,0.384,11176.038,9391965.711,0.0,0.0,0.0,0.0,8410.480,24770.456
0.727,0.326,98.897,0.0,0.0,0.050,0.0,1638.400,44685.0,40426.0,0.0,0.0,324.800,997.0
11.597,13.874,70.947,0.030,0.0,3.552,0.0,32768.0,4925966.0,4921025.800,0.0,0.0,20983.0,71673.0
5.833,13.358,77.879,0.0,0.0,2.931,0.0,819.200,5351389.800,5349238.400,0.0,0.0,24067.800,78869.200
5.472,14.324,77.362,0.0,0.0,2.841,0.0,2457.600,5416777.600,5412371.400,0.0,0.0,24524.800,80075.200
4.902,13.676,78.457,0.0,0.0,2.965,0.0,1638.400,5575619.0,5572638.600,0.0,0.0,25378.400,82323.800
5.184,13.596,77.992,0.0,0.0,3.229,0.0,1638.400,5456843.800,5453149.600,0.0,0.0,24909.600,80915.200
5.090,13.063,79.200,0.0,0.0,2.648,0.0,13107.200,5422499.800,5418093.200,0.0,0.0,24260.400,79538.800
4.562,12.900,79.426,0.060,0.0,3.051,0.0,17203.200,5427757.200,5425644.800,0.0,0.0,24634.400,80227.0
5.095,13.111,78.874,0.0,0.0,2.920,0.0,7372.800,5355236.600,5350843.800,0.0,0.0,24239.400,79240.200
4.907,13.636,78.447,0.0,0.0,3.010,0.0,1638.400,5444112.400,5440158.0,0.0,0.0,24556.400,80238.400
5.098,14.345,77.771,0.0,0.0,2.786,0.0,819.200,5406184.400,5404200.200,0.0,0.0,24538.0,80118.200
5.152,13.293,78.659,0.0,0.0,2.896,0.0,1638.400,5458871.400,5453467.400,0.0,0.0,24411.0,80056.800
5.690,14.076,77.119,0.0,0.0,3.115,0.0,6553.600,5487608.800,5481816.600,0.0,0.0,24732.600,80859.400
4.885,13.501,78.580,0.061,0.0,2.973,0.0,18022.400,5409305.200,5408609.0,0.0,0.0,24353.200,79935.200
5.036,13.963,77.955,0.0,0.0,3.046,0.0,1638.400,5274252.0,5271298.600,0.0,0.0,24024.400,78337.200
0.050,0.0,99.925,0.0,0.0,0.025,0.0,819.200,3277.0,1125.0,0.0,0.0,44.800,123.600
