"Dstat 0.7.2 CSV output"
"Author:","Dag Wieers <dag@wieers.com>",,,,"URL:","http://dag.wieers.com/home-made/dstat/"
"Host:","Middleware1",,,,"User:","mstevan"
"Cmdline:","dstat --output /home/mstevan/logs/experiment_3.2/dstat/vs_64-vcpr_32-wtpm_8-rep_3.csv 5 16",,,,"Date:","28 Oct 2019 07:24:46 UTC"

"total cpu usage",,,,,,"dsk/total",,"net/total",,"paging",,"system",
"usr","sys","idl","wai","hiq","siq","read","writ","recv","send","in","out","int","csw"
1.603,3.140,94.693,0.083,0.0,0.481,10472.007,8800753.099,0.0,0.0,0.0,0.0,9025.239,26642.099
0.501,0.226,99.223,0.0,0.0,0.050,0.0,1638.400,39381.600,30905.200,0.0,0.0,215.800,694.400
5.333,3.973,90.187,0.0,0.0,0.507,0.0,819.200,3070685.400,3066988.600,0.0,0.0,14097.600,35699.600
4.109,4.533,90.960,0.0,0.0,0.398,0.0,1638.400,3174544.800,3170046.0,0.0,0.0,15379.600,37544.400
1.821,4.354,93.430,0.0,0.0,0.396,0.0,3276.800,3278492.800,3273874.400,0.0,0.0,15682.400,38750.0
2.147,4.450,93.089,0.0,0.0,0.314,0.0,819.200,3250899.400,3248743.0,0.0,0.0,15666.200,38455.800
2.022,4.463,93.017,0.053,0.0,0.446,0.0,29491.200,3221744.800,3217610.800,0.0,0.0,15480.400,38048.0
1.759,4.516,93.358,0.0,0.0,0.368,0.0,9011.200,3274467.400,3271956.600,0.0,0.0,15744.800,38678.400
1.913,5.005,92.636,0.0,0.0,0.445,0.0,4096.0,3310346.400,3306020.400,0.0,0.0,15858.0,39082.800
2.669,4.554,92.384,0.0,0.0,0.393,0.0,1638.400,3054331.600,3049694.400,0.0,0.0,14739.200,36127.0
1.749,4.413,93.368,0.0,0.0,0.470,0.0,819.200,2959854.800,2958659.600,0.0,0.0,14176.200,34923.600
1.637,3.855,94.138,0.0,0.0,0.370,0.0,1638.400,3106273.0,3102053.800,0.0,0.0,14890.400,36761.600
1.604,4.022,93.717,0.315,0.0,0.342,0.0,32768.0,2883536.600,2878814.800,0.0,0.0,13870.400,34139.0
1.773,3.937,94.003,0.0,0.0,0.287,0.0,4915.200,2915177.400,2913704.400,0.0,0.0,13888.800,34214.400
1.750,4.415,93.548,0.0,0.0,0.287,0.0,3276.800,3011154.800,3007003.0,0.0,0.0,14342.800,35502.0
1.971,4.310,93.456,0.0,0.0,0.263,0.0,1638.400,3142304.200,3138258.0,0.0,0.0,15079.400,37143.400
0.732,0.758,98.485,0.0,0.0,0.025,0.0,819.200,589110.400,584728.600,0.0,0.0,2874.600,6768.200
