"Dstat 0.7.2 CSV output"
"Author:","Dag Wieers <dag@wieers.com>",,,,"URL:","http://dag.wieers.com/home-made/dstat/"
"Host:","Middleware1",,,,"User:","mstevan"
"Cmdline:","dstat --output /home/mstevan/logs/experiment_3.2/dstat/vs_64-vcpr_4-wtpm_32-rep_4.csv 5 16",,,,"Date:","28 Oct 2019 06:40:43 UTC"

"total cpu usage",,,,,,"dsk/total",,"net/total",,"paging",,"system",
"usr","sys","idl","wai","hiq","siq","read","writ","recv","send","in","out","int","csw"
1.429,2.703,95.403,0.089,0.0,0.376,11393.640,9657357.574,0.0,0.0,0.0,0.0,8141.019,24140.543
0.752,0.351,98.821,0.0,0.0,0.075,0.0,1638.400,52141.200,48168.400,0.0,0.0,471.200,1398.600
8.744,9.193,80.746,0.056,0.0,1.261,0.0,40960.0,3491787.400,3489724.800,0.0,0.0,20737.200,66848.800
5.025,9.608,83.932,0.0,0.0,1.436,0.0,1638.400,3807748.600,3803494.400,0.0,0.0,22789.600,73392.0
3.735,9.588,85.702,0.0,0.0,0.975,0.0,3276.800,3844059.600,3839366.200,0.0,0.0,22953.0,74211.600
3.974,9.273,85.428,0.0,0.0,1.325,0.0,819.200,3898930.400,3896840.600,0.0,0.0,23434.600,75718.600
3.743,9.897,85.057,0.0,0.0,1.303,0.0,11468.800,3896004.400,3891517.600,0.0,0.0,23400.600,75587.200
4.143,9.434,84.798,0.0,0.0,1.624,0.0,1638.400,3936218.0,3931771.800,0.0,0.0,24410.800,76277.400
3.751,9.239,85.526,0.084,0.0,1.400,0.0,18022.400,3963257.400,3961206.800,0.0,0.0,24851.800,76740.200
4.118,9.788,84.880,0.0,0.0,1.213,0.0,1638.400,3977543.800,3972950.800,0.0,0.0,24801.800,76818.400
4.432,9.369,84.909,0.0,0.0,1.290,0.0,1638.400,3973607.200,3968759.600,0.0,0.0,24846.400,76896.600
4.115,10.233,84.499,0.0,0.0,1.152,0.0,819.200,3951499.0,3949706.200,0.0,0.0,24548.200,76022.0
3.814,9.382,85.356,0.0,0.0,1.448,0.0,1638.400,3958859.800,3954838.600,0.0,0.0,24586.400,76085.400
3.507,9.428,85.774,0.0,0.0,1.291,0.0,5734.400,3919167.600,3916575.200,0.0,0.0,24334.200,75663.800
3.739,9.319,85.658,0.056,0.0,1.228,0.0,17203.200,3922389.800,3918005.600,0.0,0.0,24408.800,75502.0
4.267,9.264,85.514,0.0,0.0,0.955,0.0,4096.0,3910308.200,3907228.0,0.0,0.0,24447.400,75493.800
0.0,0.0,100.0,0.0,0.0,0.0,0.0,819.200,3371.400,1178.600,0.0,0.0,35.800,122.600
