"Dstat 0.7.2 CSV output"
"Author:","Dag Wieers <dag@wieers.com>",,,,"URL:","http://dag.wieers.com/home-made/dstat/"
"Host:","Middleware1",,,,"User:","mstevan"
"Cmdline:","dstat --output /home/mstevan/logs/experiment_3.2/dstat/vs_64-vcpr_16-wtpm_32-rep_1.csv 5 16",,,,"Date:","28 Oct 2019 07:10:33 UTC"

"total cpu usage",,,,,,"dsk/total",,"net/total",,"paging",,"system",
"usr","sys","idl","wai","hiq","siq","read","writ","recv","send","in","out","int","csw"
1.536,2.955,95.000,0.085,0.0,0.424,10780.694,9059973.484,0.0,0.0,0.0,0.0,8779.523,25845.475
0.729,0.251,98.944,0.0,0.0,0.075,0.0,819.200,56696.0,53653.600,0.0,0.0,394.400,1197.0
8.501,11.932,76.383,0.0,0.0,3.184,0.0,1638.400,6067523.400,6063257.400,0.0,0.0,17797.800,58963.400
5.832,12.363,78.827,0.0,0.0,2.977,0.0,2457.600,6469541.400,6464293.0,0.0,0.0,19623.400,63461.200
6.384,12.440,78.103,0.0,0.0,3.073,0.0,1638.400,6466876.800,6464187.200,0.0,0.0,19449.400,62769.400
5.377,12.021,79.079,0.062,0.0,3.461,0.0,33587.200,6414617.200,6410402.800,0.0,0.0,19350.0,62451.0
4.358,12.143,80.703,0.0,0.0,2.795,0.0,13107.200,6580247.800,6575874.200,0.0,0.0,20043.800,64489.200
4.138,12.565,79.860,0.0,0.0,3.438,0.0,9011.200,6706322.800,6704606.800,0.0,0.0,20633.0,65579.400
4.314,12.635,79.784,0.0,0.0,3.267,0.0,1638.400,6848432.400,6843694.200,0.0,0.0,21547.400,67079.600
4.091,12.665,80.626,0.0,0.0,2.617,0.0,819.200,6865200.800,6863516.0,0.0,0.0,20985.800,67703.200
4.695,12.171,80.203,0.0,0.0,2.931,0.0,1638.400,6799992.600,6795365.600,0.0,0.0,20792.800,67094.600
4.860,11.781,80.252,0.062,0.0,3.045,0.0,18841.600,6674497.200,6669159.200,0.0,0.0,20552.0,65277.400
4.242,13.183,79.554,0.0,0.0,3.021,0.0,819.200,6731924.600,6729779.400,0.0,0.0,21107.600,65960.400
4.020,11.660,81.467,0.0,0.0,2.854,0.0,5734.400,6769250.200,6764349.200,0.0,0.0,20880.400,66976.0
4.089,12.417,80.577,0.0,0.0,2.916,0.0,3276.800,6569961.800,6565147.600,0.0,0.0,20028.600,64761.200
4.372,11.354,81.330,0.0,0.0,2.945,0.0,819.200,6581414.200,6580679.400,0.0,0.0,20333.600,65366.200
0.856,1.082,97.936,0.0,0.0,0.126,0.0,1638.400,451976.800,448281.200,0.0,0.0,3412.0,8831.0
