"Dstat 0.7.2 CSV output"
"Author:","Dag Wieers <dag@wieers.com>",,,,"URL:","http://dag.wieers.com/home-made/dstat/"
"Host:","Middleware1",,,,"User:","mstevan"
"Cmdline:","dstat --output /home/mstevan/logs/experiment_3.2/dstat/vs_64-vcpr_8-wtpm_32-rep_3.csv 5 16",,,,"Date:","28 Oct 2019 06:56:21 UTC"

"total cpu usage",,,,,,"dsk/total",,"net/total",,"paging",,"system",
"usr","sys","idl","wai","hiq","siq","read","writ","recv","send","in","out","int","csw"
1.482,2.822,95.213,0.087,0.0,0.395,11108.145,9334951.327,0.0,0.0,0.0,0.0,8477.606,25010.335
0.602,0.100,99.197,0.0,0.0,0.100,0.0,1638.400,40721.400,35778.400,0.0,0.0,323.600,980.800
10.709,12.803,73.587,0.0,0.0,2.902,0.0,819.200,4836270.400,4834839.600,0.0,0.0,21261.600,71342.200
7.186,12.881,76.644,0.0,0.0,3.289,0.0,1638.400,4910955.0,4906102.600,0.0,0.0,20899.600,71494.600
6.665,13.810,76.554,0.030,0.0,2.942,0.0,33587.200,4958735.600,4954019.400,0.0,0.0,21462.800,72987.400
6.368,13.359,77.251,0.0,0.0,3.021,0.0,819.200,5162876.400,5161134.400,0.0,0.0,22139.600,75903.400
5.957,12.656,78.660,0.0,0.0,2.727,0.0,4915.200,5336828.0,5332281.400,0.0,0.0,23019.800,78052.400
5.900,13.120,78.075,0.0,0.0,2.906,0.0,9830.400,5344632.400,5340256.800,0.0,0.0,23487.0,78838.600
5.377,13.191,78.669,0.0,0.0,2.763,0.0,819.200,5414446.400,5412293.600,0.0,0.0,24301.200,80325.0
4.536,11.605,81.178,0.0,0.0,2.680,0.0,1638.400,5459818.0,5454960.600,0.0,0.0,24937.200,80751.800
5.283,13.135,79.103,0.0,0.0,2.479,0.0,819.200,5493915.200,5492123.800,0.0,0.0,25047.200,81144.600
5.314,13.404,78.683,0.059,0.0,2.539,0.0,24576.0,5542836.200,5538150.400,0.0,0.0,25346.400,82108.800
4.997,12.419,79.775,0.0,0.0,2.809,0.0,1638.400,5365725.0,5361119.400,0.0,0.0,24384.800,79307.0
4.939,13.002,79.679,0.0,0.0,2.380,0.0,4915.200,5537990.600,5536250.800,0.0,0.0,25213.400,81930.0
5.450,13.507,78.525,0.0,0.0,2.518,0.0,1638.400,5434883.200,5430333.400,0.0,0.0,24996.800,80769.400
4.864,13.108,78.944,0.0,0.0,3.084,0.0,3276.800,5364207.800,5360839.200,0.0,0.0,24364.400,79559.600
0.050,0.0,99.950,0.0,0.0,0.0,0.0,819.200,3277.0,1138.200,0.0,0.0,39.0,122.600
