"Dstat 0.7.2 CSV output"
"Author:","Dag Wieers <dag@wieers.com>",,,,"URL:","http://dag.wieers.com/home-made/dstat/"
"Host:","Middleware1",,,,"User:","mstevan"
"Cmdline:","dstat --output /home/mstevan/logs/experiment_3.2/dstat/vs_64-vcpr_32-wtpm_32-rep_4.csv 5 16",,,,"Date:","28 Oct 2019 07:31:52 UTC"

"total cpu usage",,,,,,"dsk/total",,"net/total",,"paging",,"system",
"usr","sys","idl","wai","hiq","siq","read","writ","recv","send","in","out","int","csw"
1.624,3.197,94.602,0.082,0.0,0.495,10324.209,8676639.719,0.0,0.0,0.0,0.0,9113.279,26892.187
0.977,0.225,98.747,0.025,0.0,0.025,0.0,37683.200,65874.0,59041.800,0.0,0.0,368.0,1165.400
10.446,13.439,72.236,0.0,0.0,3.879,0.0,1638.400,6379281.0,6373693.400,0.0,0.0,17804.800,59117.200
4.580,12.885,79.878,0.0,0.0,2.656,0.0,819.200,6953571.600,6950339.200,0.0,0.0,20529.0,65282.200
4.851,13.890,77.975,0.0,0.0,3.284,0.0,3276.800,6981431.600,6976622.0,0.0,0.0,20702.600,65152.400
6.502,13.251,77.011,0.0,0.0,3.236,0.0,1638.400,6500800.0,6496318.600,0.0,0.0,18843.800,60488.200
5.638,13.648,77.110,0.0,0.0,3.604,0.0,7372.800,6758648.200,6756709.200,0.0,0.0,19658.800,63025.0
4.627,13.540,78.634,0.062,0.0,3.137,0.0,27852.800,6815718.400,6810917.800,0.0,0.0,20086.0,63877.200
4.481,12.824,79.635,0.0,0.0,3.059,0.0,9830.400,7010159.400,7007697.0,0.0,0.0,20767.200,65648.800
4.816,12.974,79.290,0.0,0.0,2.920,0.0,1638.400,7051746.600,7047486.200,0.0,0.0,20897.400,66219.200
4.327,12.736,80.225,0.0,0.0,2.712,0.0,1638.400,7122845.600,7118199.400,0.0,0.0,20961.600,66612.200
4.130,12.361,80.736,0.0,0.0,2.774,0.0,819.200,7138883.400,7137401.600,0.0,0.0,20980.400,66795.200
4.341,14.117,78.506,0.0,0.0,3.036,0.0,1638.400,7086900.200,7082285.400,0.0,0.0,21095.600,66306.0
4.581,13.020,79.265,0.060,0.0,3.074,0.0,21299.200,6972205.0,6967306.0,0.0,0.0,20600.600,65475.400
4.344,13.683,78.902,0.0,0.0,3.072,0.0,2457.600,7165590.800,7163623.600,0.0,0.0,21030.800,66991.800
4.572,13.503,79.292,0.0,0.0,2.634,0.0,1638.400,6980414.0,6976699.200,0.0,0.0,20948.600,65752.400
1.105,1.618,96.918,0.0,0.0,0.360,0.0,819.200,862806.0,859862.0,0.0,0.0,4810.400,13140.200
