"Dstat 0.7.2 CSV output"
"Author:","Dag Wieers <dag@wieers.com>",,,,"URL:","http://dag.wieers.com/home-made/dstat/"
"Host:","Middleware1",,,,"User:","mstevan"
"Cmdline:","dstat --output /home/mstevan/logs/experiment_3.2/dstat/vs_64-vcpr_32-wtpm_32-rep_2.csv 5 16",,,,"Date:","28 Oct 2019 07:29:02 UTC"

"total cpu usage",,,,,,"dsk/total",,"net/total",,"paging",,"system",
"usr","sys","idl","wai","hiq","siq","read","writ","recv","send","in","out","int","csw"
1.611,3.162,94.660,0.082,0.0,0.485,10382.831,8725868.062,0.0,0.0,0.0,0.0,9068.575,26743.839
0.702,0.226,99.023,0.0,0.0,0.050,0.0,819.200,48310.0,43192.200,0.0,0.0,319.200,983.400
9.778,12.246,74.008,0.0,0.0,3.968,0.0,1638.400,6202128.800,6194944.400,0.0,0.0,17821.800,57376.0
4.629,13.520,78.593,0.0,0.0,3.258,0.0,1638.400,6707434.200,6702547.400,0.0,0.0,19982.800,62726.200
4.743,13.712,78.230,0.182,0.0,3.132,0.0,38502.400,6893950.0,6892113.600,0.0,0.0,20576.0,64516.800
6.712,14.326,75.295,0.0,0.0,3.667,0.0,1638.400,6387846.200,6383816.800,0.0,0.0,18957.600,59537.800
5.886,13.083,78.042,0.0,0.0,2.989,0.0,7372.800,6694930.200,6692163.800,0.0,0.0,19907.0,62923.400
4.970,12.606,79.576,0.0,0.0,2.848,0.0,9830.400,6900524.800,6895775.400,0.0,0.0,20617.0,64766.800
4.722,12.787,79.331,0.0,0.0,3.159,0.0,3276.800,6769021.400,6765212.400,0.0,0.0,20016.600,63343.600
4.646,12.170,80.006,0.0,0.0,3.177,0.0,819.200,6928331.800,6925723.200,0.0,0.0,20574.800,65087.400
4.612,12.339,80.653,0.0,0.0,2.396,0.0,30310.400,6986373.200,6981988.600,0.0,0.0,20722.0,65504.200
5.168,12.560,79.327,0.0,0.0,2.945,0.0,1638.400,6825558.800,6821633.200,0.0,0.0,20220.200,64039.800
4.431,13.015,79.415,0.0,0.0,3.138,0.0,819.200,6756925.0,6754724.600,0.0,0.0,20112.400,63303.600
5.039,13.449,78.749,0.0,0.0,2.763,0.0,1638.400,6921188.600,6915780.0,0.0,0.0,20517.200,64781.200
4.633,13.256,79.165,0.0,0.0,2.946,0.0,5734.400,6856373.0,6851814.0,0.0,0.0,20244.0,63992.0
4.803,12.083,80.606,0.0,0.0,2.508,0.0,2457.600,6816263.800,6815071.600,0.0,0.0,20504.600,64462.400
0.604,1.058,98.288,0.0,0.0,0.050,0.0,1638.400,498855.600,493264.0,0.0,0.0,3706.200,9625.600
