"Dstat 0.7.2 CSV output"
"Author:","Dag Wieers <dag@wieers.com>",,,,"URL:","http://dag.wieers.com/home-made/dstat/"
"Host:","Middleware1",,,,"User:","mstevan"
"Cmdline:","dstat --output /home/mstevan/logs/experiment_3.2/dstat/vs_64-vcpr_16-wtpm_8-rep_3.csv 5 16",,,,"Date:","28 Oct 2019 07:07:43 UTC"

"total cpu usage",,,,,,"dsk/total",,"net/total",,"paging",,"system",
"usr","sys","idl","wai","hiq","siq","read","writ","recv","send","in","out","int","csw"
1.534,2.952,95.004,0.085,0.0,0.425,10844.632,9113659.121,0.0,0.0,0.0,0.0,8756.913,25824.052
0.576,0.200,99.224,0.0,0.0,0.0,0.0,1638.400,37266.800,32877.0,0.0,0.0,215.200,737.0
4.510,4.564,90.392,0.0,0.0,0.534,0.0,1638.400,2975612.600,2970605.600,0.0,0.0,13678.200,34792.400
2.571,4.267,92.791,0.027,0.0,0.345,0.0,42598.400,3120780.200,3116484.0,0.0,0.0,15842.400,36777.0
1.680,4.542,93.384,0.0,0.0,0.394,0.0,2457.600,3114634.600,3112193.200,0.0,0.0,15887.400,36726.0
2.346,4.665,92.514,0.0,0.0,0.474,0.0,1638.400,3084362.0,3079906.200,0.0,0.0,15705.200,36368.0
1.847,4.433,93.298,0.0,0.0,0.422,0.0,5734.400,3149464.600,3145263.600,0.0,0.0,16030.400,37321.0
1.956,3.753,93.869,0.0,0.0,0.423,0.0,9011.200,3123750.400,3121520.400,0.0,0.0,15879.600,36948.800
2.169,4.861,92.629,0.0,0.0,0.340,0.0,1638.400,3101154.200,3096625.600,0.0,0.0,15842.800,36580.600
1.526,4.314,93.793,0.053,0.0,0.316,0.0,18022.400,3073095.600,3068581.800,0.0,0.0,15799.0,36517.400
1.815,3.788,94.107,0.0,0.0,0.289,0.0,819.200,2988179.800,2985916.800,0.0,0.0,15368.0,35300.800
1.680,4.226,93.727,0.0,0.0,0.367,0.0,1638.400,3062945.0,3058530.800,0.0,0.0,15732.400,36362.200
1.737,4.106,93.683,0.0,0.0,0.474,0.0,1638.400,3175468.400,3171108.200,0.0,0.0,16278.600,37633.0
1.661,4.085,93.938,0.0,0.0,0.316,0.0,4915.200,3109176.400,3106823.800,0.0,0.0,16063.200,37190.400
1.741,3.692,94.198,0.0,0.0,0.369,0.0,3276.800,3013642.0,3009142.800,0.0,0.0,15516.0,35731.200
1.831,4.838,92.965,0.052,0.0,0.314,0.0,18841.600,3227082.800,3225055.0,0.0,0.0,16611.400,38333.400
0.251,0.200,99.524,0.0,0.0,0.025,0.0,1638.400,68774.800,63447.200,0.0,0.0,580.0,1504.200
