"Dstat 0.7.2 CSV output"
"Author:","Dag Wieers <dag@wieers.com>",,,,"URL:","http://dag.wieers.com/home-made/dstat/"
"Host:","Middleware1",,,,"User:","mstevan"
"Cmdline:","dstat --output /home/mstevan/logs/experiment_3.2/dstat/vs_64-vcpr_32-wtpm_64-rep_1.csv 5 16",,,,"Date:","28 Oct 2019 07:33:17 UTC"

"total cpu usage",,,,,,"dsk/total",,"net/total",,"paging",,"system",
"usr","sys","idl","wai","hiq","siq","read","writ","recv","send","in","out","int","csw"
1.631,3.215,94.573,0.082,0.0,0.500,10295.145,8652234.707,0.0,0.0,0.0,0.0,9135.526,26968.576
0.877,0.501,98.546,0.0,0.0,0.075,0.0,1638.400,62974.800,56578.200,0.0,0.0,443.800,1334.0
10.915,20.761,60.681,0.0,0.0,7.644,0.0,36864.0,6907610.600,6908964.600,0.0,0.0,16836.200,58745.400
5.624,20.632,67.088,0.0,0.0,6.656,0.0,9011.200,8039961.0,8036181.200,0.0,0.0,20698.600,68985.400
6.561,20.188,66.622,0.0,0.0,6.629,0.0,3276.800,7949233.200,7942580.800,0.0,0.0,20160.0,67618.200
6.527,20.122,66.588,0.0,0.0,6.764,0.0,819.200,7695491.600,7695097.0,0.0,0.0,19474.400,65659.0
5.679,19.329,68.515,0.0,0.0,6.476,0.0,8192.0,8051470.600,8047246.800,0.0,0.0,20615.600,69035.800
5.547,20.143,67.629,0.0,0.0,6.682,0.0,9830.400,8240242.200,8236237.0,0.0,0.0,21546.0,70862.200
5.841,19.087,68.560,0.0,0.0,6.511,0.0,2457.600,7980849.400,7978430.200,0.0,0.0,21191.200,69396.600
5.172,19.695,69.131,0.033,0.0,5.968,0.0,18841.600,8186407.0,8181588.800,0.0,0.0,21547.800,70804.600
5.300,19.389,69.071,0.0,0.0,6.240,0.0,819.200,8117673.600,8116938.0,0.0,0.0,21118.800,69821.200
5.660,19.570,68.019,0.0,0.0,6.751,0.0,1638.400,8004064.800,7996545.0,0.0,0.0,20683.400,68618.800
5.636,20.105,67.930,0.0,0.0,6.328,0.0,1638.400,8041602.200,8039019.200,0.0,0.0,20852.800,68917.400
5.469,18.940,69.446,0.0,0.0,6.144,0.0,819.200,7903329.0,7900932.0,0.0,0.0,20627.400,68406.800
5.679,19.523,68.280,0.0,0.0,6.519,0.0,7372.800,8100376.0,8097793.600,0.0,0.0,20945.400,69707.200
5.556,18.889,69.428,0.067,0.0,6.061,0.0,18841.600,7965273.400,7960746.800,0.0,0.0,20858.200,68899.600
1.268,1.851,96.525,0.0,0.0,0.355,0.0,819.200,801309.600,801636.800,0.0,0.0,5482.200,14362.0
