PING 10.0.0.6 (10.0.0.6) 56(84) bytes of data.
64 bytes from 10.0.0.6: icmp_seq=1 ttl=64 time=40.1 ms
64 64 bytes from 10.0.0.11: icmp_seq=2 ttl=64 time=0.35364 b64 bytes from 10.0.0.11: icmp_seq=3 ttl=64 time=0.66664 bytes from 10.0.0.7: icmp_seq=4 ttl=64 time=1.15 ms
64 byt64 bytes from 10.0.0.11: icmp_seq=5 ttl=64 time=1.64 bytes from 10.0.0.6: icmp_seq=6 ttl=64 time=0.654 ms
64 bytes from 10.0.0.7: icmp_seq=7 ttl=64 time=0.983 ms
64 bytes from 10.0.0.6: icmp_seq=8 ttl=64 time=0.581 ms
64 bytes from 10.0.0.7: icmp_seq=9 ttl=64 time=0.785 ms
64 bytes f64 bytes from 10.0.0.11: icmp_seq=10 ttl=64 tim64 bytes from 10.0.0.7: icmp_seq=11 ttl=64 time=0.814 ms
64 bytes from 10.0.0.6: icmp_seq=12 ttl=64 time=0.947 ms
64 bytes from64 bytes from 10.0.0.11: icmp_seq=13 ttl=6464 bytes from 64 bytes from 10.0.0.11: icmp_seq=14 ttl=6464 bytes from 10.0.0.6: icmp_seq=15 ttl=64 time=1.02 ms
664 bytes from 10.0.0.7: icmp_seq=16 ttl=64 time=1.12 ms

--- 10.0.0.7 ping statistics ---
16 packets transmitted, 16 received, 0% packet loss, time 76780ms
rtt min/avg/max/mdev = 0.427/0.827/1.980/0.362 ms
093/6.706/1.470 ms
