PING 10.0.0.7 (10.0.0.7) 56(84) bytes of data.
64 bytes from 10.0.0.7: icmp_seq=1 ttl=64 time=0.688 ms
64 bytes from 10.0.0.7: icmp_seq=2 ttl=64 time=0.936 ms
64 bytes from 10.0.0.6: icmp_seq=3 ttl=64 time=0.624 ms
64 bytes from 10.0.0.6: icmp_seq=4 ttl=64 time=0.630 ms
64 bytes from 10.0.0.6: icmp_seq=5 ttl=64 time=0.431 ms
64 bytes from 10.0.0.7: icmp_seq=6 ttl=64 time=0.559 ms
64 bytes from 10.0.0.6: icmp_seq=7 ttl=64 time=0.580 ms
64 bytes from 10.0.0.7: icmp_seq=8 ttl=64 time=4.50 ms
664 bytes from 10.0.0.6: icmp_seq=9 ttl=64 time=0.591 m6464 bytes from 10.0.0.6: icmp_seq=10 ttl=64 time=0.737 64 64 bytes from 10.0.0.6: icmp_seq=11 ttl=64 time=0.424 64 64 bytes from 10.0.0.6: icmp_seq=12 ttl=64 time=0.837 64 64 bytes from 10.0.0.6: icmp_seq=13 ttl=64 time=0.447 64 64 bytes from 10.0.0.6: icmp_seq=14 ttl=64 time=0.401 64 64 bytes from 10.0.0.6: icmp_seq=15 ttl=64 time=0.522 64 64 bytes from 10.0.0.6: icmp_seq=16 ttl=64 time=0.641 ms

--- 10.0.0.6 ping statistics ---
16 packets transmitted, 16 received, 0% packet loss, time 76637ms
rtt min/avg/max/mdev = 0.372/0.575/0.926/0.153 ms
5.161/1.121 ms
