PING 10.0.0.6 (10.0.0.6) 56(84) bytes of data.
64 bytes from 10.0.0.6: icmp_seq=1 ttl=64 time=6.15 ms
64 bytes from 10.0.0.6: icmp_seq=2 ttl=64 time=0.495 ms
64 bytes from 10.0.0.6: icmp_seq=3 ttl=64 time=0.627 ms
64 by64 bytes from 10.0.0.11: icmp_seq=4 ttl=64 time=1.64 bytes from 10.0.0.7: icmp_seq=5 ttl=64 time=0.960 ms
64 byte64 bytes from 10.0.0.11: icmp_seq=6 ttl=64 time=064 bytes from 10.0.0.6: icmp_seq=7 ttl=64 time=1.08 ms
64 bytes f64 bytes from 10.0.0.11: icmp_seq=8 ttl=64 tim64 bytes fr64 bytes from 10.0.0.11: icmp_seq=9 ttl=64 ti64 bytes from 10.0.0.6: icmp_seq=10 ttl=64 time=0.728 ms
64 bytes from 10.0.0.6: icmp_seq=11 ttl=64 time=0.773 ms664 bytes from 10.0.0.6: icmp_seq=12 ttl=64 time=1.26 ms
64 bytes from 10.0.0.6: icmp_seq=13 ttl=64 time=0.569 ms
64 bytes from 10.0.0.6: icmp_seq=14 ttl=64 time=0.727 ms
64 bytes from 10.0.0.6: icmp_seq=15 ttl=64 time=1.37 ms
64 bytes from 10.0.0.6: icmp_seq=16 ttl=64 time=0.784 ms

--- 10.0.0.6 ping statistics ---
16 packets transmitted, 16 received, 0% packet loss, time 76544ms
rtt min/avg/max/mdev = 0.495/1.120/6.150/1.324 ms
840/1.466/0.294 ms
