PING 10.0.0.6 (10.0.0.6) 56(84) bytes of data.
64 bytes from 10.0.0.6: icmp_seq=1 ttl=64 time=0.618 ms
64 bytes from 10.0.0.6: icmp_seq=2 ttl=64 time=7.39 ms
664 bytes from 10.0.0.7: icmp_seq=3 ttl=64 time=0.622 m6464 bytes from 10.0.0.7: icmp_seq=4 ttl=64 time=0.801 m6464 byt64 bytes from 10.0.0.11: icmp_seq=5 ttl=64 time=6464 bytes from 10.0.0.7: icmp_seq=6 ttl=64 time=0.985 m6464 bytes64 bytes from 10.0.0.11: icmp_seq=7 ttl=64 tim6464 bytes from 10.0.0.7: icmp_seq=8 ttl=64 time=0.750 m6464 bytes f64 bytes from 10.0.0.11: icmp_seq=9 ttl=64 t6464 bytes fr64 bytes from 10.0.0.11: icmp_seq=10 ttl=64 6464 bytes from 10.0.0.7: icmp_seq=11 ttl=64 time=0.445 m6464 bytes from64 bytes from 10.0.0.11: icmp_seq=12 ttl=64 64 bytes from 64 bytes from 10.0.0.11: icmp_seq=13 ttl64 64 bytes from 10.0.0.7: icmp_seq=14 ttl=64 time=0.403 64 64 bytes from 10.0.0.7: icmp_seq=15 ttl=64 time=0.979 64 64 bytes from 10.64 bytes from 10.0.0.11: icmp_seq=16 ttl=64 time=0.634 ms

--- 10.0.0.11 ping statistics ---
16 packets transmitted, 16 received, 0% packet loss, time 76800ms
rtt min/avg/max/mdev = 0.423/0.661/0.896/0.148 ms
