PING 10.0.0.6 (10.0.0.6) 56(84) bytes of data.
64 bytes from 10.0.0.6: icmp_seq=1 ttl=64 time=39.0 ms
64 bytes from 10.0.0.7: icmp_seq=2 ttl=64 time=4.40 ms
664 b64 bytes from 10.0.0.11: icmp_seq=3 ttl=64 time=0.6664 bytes from 10.0.0.6: icmp_seq=4 ttl=64 time=0.529 ms664 byt64 bytes from 10.0.0.11: icmp_seq=5 ttl=64 time=0664 bytes from 10.0.0.6: icmp_seq=6 ttl=64 time=0.686 m6464 bytes from 10.0.0.6: icmp_seq=7 ttl=64 time=0.561 64 64 bytes from 10.0.0.6: icmp_seq=8 ttl=64 time=0.44964 b64 bytes from 10.0.0.6: icmp_seq=9 ttl=64 time=0.7864 by64 bytes from 10.0.0.6: icmp_seq=10 ttl=64 time=0.6564 by64 bytes from 10.0.0.6: icmp_seq=11 ttl=64 time=0.464 byt64 bytes from 10.0.0.6: icmp_seq=12 ttl=64 time=0.664 byt64 bytes from 64 bytes from 10.0.0.11: icmp_seq=13 64 byt64 bytes from 10.0.0.6: icmp_seq=14 ttl=64 time=0.464 byt64 bytes from 10.0.0.6: icmp_seq=15 ttl=64 time=1.364 by64 bytes from 10.0.0.6: icmp_seq=16 ttl=64 time=0.665 ms

--- 10.0.0.6 ping statistics ---
16 packets transmitted, 16 received, 0% packet loss, time 76660ms
rtt min/avg/max/mdev = 0.427/3.030/39.080/9.310 ms
28/1.098/0.189 ms
