PING 10.0.0.6 (10.0.0.6) 56(84) bytes of data.
64 bytes from 10.0.0.6: icmp_seq=1 ttl=64 time=40.8 ms
64 b64 bytes from 10.0.0.11: icmp_seq=2 ttl=64 time=1.6864 bytes from 10.0.0.7: icmp_seq=3 ttl=64 time=0.432 ms
64 by64 bytes from 10.0.0.11: icmp_seq=4 ttl=64 time=0.764 bytes from 10.0.0.7: icmp_seq=5 ttl=64 time=0.852 ms
64 bytes from 10.0.0.6: icmp_seq=6 ttl=64 time=2.01 ms
664 bytes from 10.0.0.7: icmp_seq=7 ttl=64 time=0.889 ms664 bytes 64 bytes from 10.0.0.11: icmp_seq=8 ttl=64 tim664 bytes from 10.0.0.7: icmp_seq=9 ttl=64 time=0.899 ms664 bytes from 10.0.0.7: icmp_seq=10 ttl=64 time=0.862 ms664 bytes from 10.0.0.7: icmp_seq=11 ttl=64 time=0.637 ms664 bytes from 10.0.0.7: icmp_seq=12 ttl=64 time=1.03 ms
64 bytes from 164 bytes from 10.0.0.11: icmp_seq=13 ttl=664 bytes from 10.0.0.7: icmp_seq=14 ttl=64 time=0.654 ms
64 bytes from 10.0.0.7: icmp_seq=15 ttl=64 time=0.707 ms
64 bytes from 10.064 bytes from 10.0.0.11: icmp_seq=16 tt
--- 10.0.0.7 ping s--- 10.0.0.11 ping statistics ---
16 packets transmitted, 16 received, 0% packet loss, time 76634ms
rtt min/avg/max/mdev = 0.426/0.723/1.685/0.303 ms
