PING 10.0.0.11 (10.0.0.11) 56(84) bytes of data.
64 bytes from 10.0.0.11: icmp_seq=1 ttl=64 time=0.558 64 64 bytes from 10.0.0.11: icmp_seq=2 ttl=64 time=0.85664 b64 bytes from 10.0.0.11: icmp_seq=3 ttl=64 time=0.664 bytes from 10.0.0.7: icmp_seq=4 ttl=64 time=0.809 ms
664 bytes from 10.0.0.6: icmp_seq=5 ttl=64 time=0.529 ms64 bytes from 10.0.0.7: icmp_seq=6 ttl=64 time=0.775 ms
664 bytes from 10.0.0.6: icmp_seq=7 ttl=64 time=1.22 ms
64 bytes from 10.0.0.7: icmp_seq=8 ttl=64 time=0.567 ms
64 bytes from 10.0.0.7: icmp_seq=9 ttl=64 time=0.820 ms
64 bytes from 10.0.0.7: icmp_seq=10 ttl=64 time=0.830 ms
64 bytes from 10.0.0.7: icmp_seq=11 ttl=64 time=0.639 ms
64 bytes from 10.0.0.7: icmp_seq=12 ttl=64 time=0.863 ms
64 bytes from 164 bytes from 10.0.0.11: icmp_seq=13 ttl=664 bytes from 10.0.0.7: icmp_seq=14 ttl=64 time=0.843 ms
64 bytes from 1064 bytes from 10.0.0.11: icmp_seq=15 ttl=64 bytes from 10.0.0.7: icmp_seq=16 ttl=64 time=0.660 ms

--- 10.0.0.7 ping statistics ---
16 packets transmitted, 16 received, 0% packet loss, time 76665ms
rtt min/avg/max/mdev = 0.380/0.751/1.582/0.263 ms
699/1.718/0.291 ms
