PING 10.0.0.7 (10.0.0.7) 56(84) bytes of data.
64 bytes from 10.0.0.7: icmp_seq=1 ttl=64 time=0.568 ms
6464 bytes from 10.0.0.11: icmp_seq=2 ttl=64 time=0.631664 bytes from 10.0.0.7: icmp_seq=3 ttl=64 time=0.982 ms664 b64 bytes from 10.0.0.11: icmp_seq=4 ttl=64 time=2.9664 bytes from 10.0.0.7: icmp_seq=5 ttl=64 time=0.896 ms664 bytes from 10.0.0.7: icmp_seq=6 ttl=64 time=0.571 ms664 bytes from 10.0.0.7: icmp_seq=7 ttl=64 time=0.479 ms664 bytes from 10.0.0.7: icmp_seq=8 ttl=64 time=0.598 ms664 bytes64 bytes from 10.0.0.11: icmp_seq=9 ttl=64 time664 bytes from 10.0.0.7: icmp_seq=10 ttl=64 time=0.520 ms664 bytes f64 bytes from 10.0.0.11: icmp_seq=11 ttl=64 ti664 bytes fr64 bytes from 10.0.0.11: icmp_seq=12 ttl=64 t664 bytes fro64 bytes from 10.0.0.11: icmp_seq=13 ttl=64 664 bytes from64 bytes from 10.0.0.11: icmp_seq=14 ttl=66464 bytes from 64 bytes from 10.0.0.11: icmp_seq=15 ttl=6464 bytes from 10.0.0.7: icmp_seq=16 ttl=64 time=1.20 ms

--- 10.0.0.7 ping statistics ---
16 packets transmitted, 16 received, 0% packet loss, time 76732ms
rtt min/avg/max/mdev = 0.431/0.630/1.208/0.216 ms
61/2.942/0.589 ms
