PING 10.0.0.6 (10.0.0.6) 56(84) bytes of data.
64 bytes from 10.0.0.6: icmp_seq=1 ttl=64 time=0.557 ms
64 bytes from 10.0.0.6: icmp_seq=2 ttl=64 time=0.621 ms
64 bytes from 10.0.0.6: icmp_seq=3 ttl=64 time=1.10 ms
664 bytes from 10.0.0.7: icmp_seq=4 ttl=64 time=0.841 ms664 byt64 bytes from 10.0.0.11: icmp_seq=5 ttl=64 time=064 bytes64 bytes from 10.0.0.11: icmp_seq=6 ttl=64 time=64 bytes from 10.0.0.6: icmp_seq=7 ttl=64 time=1.58 ms
6464 bytes from 10.0.0.7: icmp_seq=8 ttl=64 time=0.663 m6464 bytes from 10.0.0.7: icmp_seq=9 ttl=64 time=0.605 m6464 bytes from 10.0.0.7: icmp_seq=10 ttl=64 time=0.759 m6464 bytes from 10.0.0.7: icmp_seq=11 ttl=64 time=0.801 m64 bytes from 10.0.0.6: icmp_seq=12 ttl=64 time=0.571 ms
64 bytes from 10.0.0.6: icmp_seq=13 ttl=64 time=0.489 ms
64 bytes from 10.64 bytes from 10.0.0.11: icmp_seq=14 ttl6464 bytes from 1064 bytes from 10.0.0.11: icmp_seq=15 tt6464 bytes from 10.0.0.7: icmp_seq=16 ttl=64 time=0.891 ms

--- 10.0.0.7 ping statistics ---
16 packets transmitted, 16 received, 0% packet loss, time 76719ms
rtt min/avg/max/mdev = 0.381/0.660/0.946/0.162 ms
639/0.915/0.158 ms
