PING 10.0.0.7 (10.0.0.7) 56(84) bytes of data.
64 bytes from 10.0.0.7: icmp_seq=1 ttl=64 time=0.908 ms
64 bytes from 10.0.0.7: icmp_seq=2 ttl=64 time=0.794 ms
64 bytes from 10.0.0.6: icmp_seq=3 ttl=64 time=0.898 ms
64 by64 bytes from 10.0.0.11: icmp_seq=4 ttl=64 time=0.664 bytes from 10.0.0.7: icmp_seq=5 ttl=64 time=4.35 ms
664 byte64 bytes from 10.0.0.11: icmp_seq=6 ttl=64 time=64 bytes 64 bytes from 10.0.0.11: icmp_seq=7 ttl=64 time664 bytes 64 bytes from 10.0.0.11: icmp_seq=8 ttl=64 tim64 bytes fr64 bytes from 10.0.0.11: icmp_seq=9 ttl=64 ti664 bytes from 10.0.0.6: icmp_seq=10 ttl=64 time=0.870 ms64 bytes from 10.0.0.7: icmp_seq=11 ttl=64 time=0.532 ms
64 bytes from 64 bytes from 10.0.0.11: icmp_seq=12 ttl=6464 bytes from 10.0.0.7: icmp_seq=13 ttl=64 time=0.984 ms
664 bytes from 164 bytes from 10.0.0.11: icmp_seq=14 ttl=64 bytes from 10.0.0.7: icmp_seq=15 ttl=64 time=0.744 ms
64 bytes from 10.064 bytes from 10.0.0.11: icmp_seq=16 tt
--- 10.0.0.7 ping s--- 10.0.0.11 ping statistics ---
16 packets transmitted, 16 received, 0% packet loss, time 76679ms
rtt min/avg/max/mdev = 0.418/0.622/0.891/0.131 ms
