PING 10.0.0.6 (10.0.0.6) 56(84) bytes of data.
64 bytes from 10.0.0.6: icmp_seq=1 ttl=64 time=0.765 ms664 bytes from 10.0.0.6: icmp_seq=2 ttl=64 time=0.575 ms664 b64 bytes from 10.0.0.11: icmp_seq=3 ttl=64 time=0.6664 bytes from 10.0.0.6: icmp_seq=4 ttl=64 time=0.837 ms64 byte64 bytes from 10.0.0.11: icmp_seq=5 ttl=64 time=064 bytes from 10.0.0.7: icmp_seq=6 ttl=64 time=0.692 ms
64 bytes from 10.0.0.7: icmp_seq=7 ttl=64 time=0.686 ms
64 bytes f64 bytes from 10.0.0.11: icmp_seq=8 ttl=64 tim64 bytes from 10.0.0.7: icmp_seq=9 ttl=64 time=0.657 ms
64 bytes from 10.0.0.7: icmp_seq=10 ttl=64 time=1.00 ms
6464 bytes from 10.0.0.6: icmp_seq=11 ttl=64 time=0.462 m64 bytes from 10.0.0.7: icmp_seq=12 ttl=64 time=0.567 ms
64 bytes from 10.0.0.7: icmp_seq=13 ttl=64 time=0.957 ms
6464 bytes from 10.0.0.6: icmp_seq=14 ttl=64 time=1.42 ms64 bytes from 10.0.0.7: icmp_seq=15 ttl=64 time=0.699 ms
64 bytes from 10.0.0.7: icmp_seq=16 ttl=64 time=0.823 ms

--- 10.0.0.7 ping statistics ---
16 packets transmitted, 16 received, 0% packet loss, time 76693ms
rtt min/avg/max/mdev = 0.488/1.331/10.400/2.346 ms
612/1.306/0.228 ms
