PING 10.0.0.7 (10.0.0.7) 56(84) bytes of data.
64 bytes from 10.0.0.7: icmp_seq=1 ttl=64 time=6.84 ms
664 bytes from 10.0.0.6: icmp_seq=2 ttl=64 time=0.680 ms664 b64 bytes from 10.0.0.11: icmp_seq=3 ttl=64 time=0.764 bytes from 10.0.0.7: icmp_seq=4 ttl=64 time=1.07 ms
6464 byt64 bytes from 10.0.0.11: icmp_seq=5 ttl=64 time=6464 bytes from 10.0.0.6: icmp_seq=6 ttl=64 time=0.985 64 64 bytes64 bytes from 10.0.0.11: icmp_seq=7 ttl=64 ti64 bytes fro64 bytes from 10.0.0.11: icmp_seq=8 ttl=64 t64 64 bytes f64 bytes from 10.0.0.11: icmp_seq=9 ttl=64 64 bytes from 10.0.0.7: icmp_seq=10 ttl=64 time=1.43 ms
64 b64 bytes from 10.0.0.6: icmp_seq=11 ttl=64 time=0.8464 by64 bytes from64 bytes from 10.0.0.11: icmp_seq=12 tt64 by64 bytes from 10.0.0.6: icmp_seq=13 ttl=64 time=1.6764 b64 bytes from 1064 bytes from 10.0.0.11: icmp_seq=14 64 b64 bytes from 10.0.0.6: icmp_seq=15 ttl=64 time=0.63364 b64 bytes from 10.64 bytes from 10.0.0.11: icmp_seq=16 ttl
--- 10.0.0.6 ping statistics ---
16 packets transmitted, 16 received, 0% packet loss, time 76706ms
rtt min/avg/max/mdev = 0.372/0.736/1.675/0.292 ms
889/4.842/1.037 ms
