PING 10.0.0.7 (10.0.0.7) 56(84) bytes of data.
64 bytes from 10.0.0.7: icmp_seq=1 ttl=64 time=0.705 ms
64 bytes from 10.0.0.7: icmp_seq=2 ttl=64 time=0.593 ms
64 bytes from 10.0.0.6: icmp_seq=3 ttl=64 time=0.500 ms
64 bytes from 10.0.0.7: icmp_seq=4 ttl=64 time=0.562 ms
64 byt64 bytes from 10.0.0.11: icmp_seq=5 ttl=64 time=0.64 bytes from 10.0.0.6: icmp_seq=6 ttl=64 time=0.457 ms
64 bytes from 10.0.0.6: icmp_seq=7 ttl=64 time=1.41 ms
664 bytes from 10.0.0.7: icmp_seq=8 ttl=64 time=0.774 ms64 bytes from 10.0.0.6: icmp_seq=9 ttl=64 time=1.20 ms
6464 bytes fr64 bytes from 10.0.0.11: icmp_seq=10 ttl=64 6464 bytes from 10.0.0.7: icmp_seq=11 ttl=64 time=1.03 ms64 bytes from 10.0.0.6: icmp_seq=12 ttl=64 time=0.933 ms
664 bytes from 164 bytes from 10.0.0.11: icmp_seq=13 ttl=664 bytes from 10.0.0.7: icmp_seq=14 ttl=64 time=0.987 ms64 bytes from 10.064 bytes from 10.0.0.11: icmp_seq=15 tt664 bytes from 10.0.0.7: icmp_seq=16 ttl=64 time=0.759 ms

--- 10.0.0.7 ping statistics ---
16 packets transmitted, 16 received, 0% packet loss, time 76880ms
rtt min/avg/max/mdev = 0.391/0.689/1.039/0.171 ms
.609/0.900/0.154 ms
