PING 10.0.0.11 (10.0.0.11) 56(84) bytes of data.
64 bytes from 10.0.0.11: icmp_seq=1 ttl=64 time=0.501664 bytes from 10.0.0.7: icmp_seq=2 ttl=64 time=0.658 ms664 bytes from 10.0.0.7: icmp_seq=3 ttl=64 time=1.94 ms664 byt64 bytes from 10.0.0.11: icmp_seq=4 ttl=64 time=0664 bytes from 10.0.0.7: icmp_seq=5 ttl=64 time=0.733 ms664 bytes from 10.0.0.7: icmp_seq=6 ttl=64 time=0.468 ms664 bytes from 10.0.0.7: icmp_seq=7 ttl=64 time=0.646 ms664 bytes from 10.0.0.7: icmp_seq=8 ttl=64 time=0.628 ms64 bytes fro64 bytes from 10.0.0.11: icmp_seq=9 ttl=64 t664 bytes fro64 bytes from 10.0.0.11: icmp_seq=10 ttl=64 664 bytes from 10.0.0.7: icmp_seq=11 ttl=64 time=0.697 ms664 bytes from 10.0.0.7: icmp_seq=12 ttl=64 time=0.718 ms664 bytes from 10.0.0.7: icmp_seq=13 ttl=64 time=0.587 ms64 bytes from 10.0.0.6: icmp_seq=14 ttl=64 time=0.473 ms
664 bytes from 10.0.0.7: icmp_seq=15 ttl=64 time=0.738 ms664 bytes from 10.0.0.7: icmp_seq=16 ttl=64 time=0.830 ms

--- 10.0.0.7 ping statistics ---
16 packets transmitted, 16 received, 0% packet loss, time 76632ms
rtt min/avg/max/mdev = 0.396/0.694/1.944/0.344 ms
.548/0.815/0.139 ms
