PING 10.0.0.6 (10.0.0.6) 56(84) bytes of data.
64 bytes from 10.0.0.6: icmp_seq=1 ttl=64 time=4.70 ms
664 bytes from 10.0.0.7: icmp_seq=2 ttl=64 time=0.355 ms664 b64 bytes from 10.0.0.11: icmp_seq=3 ttl=64 time=1.6464 bytes from 10.0.0.7: icmp_seq=4 ttl=64 time=0.400 m6464 by64 bytes from 10.0.0.11: icmp_seq=5 ttl=64 time=06464 bytes from 10.0.0.7: icmp_seq=6 ttl=64 time=0.759 m6464 byte64 bytes from 10.0.0.11: icmp_seq=7 ttl=64 time6464 bytes from 10.0.0.7: icmp_seq=8 ttl=64 time=0.752 64 64 bytes 64 bytes from 10.0.0.11: icmp_seq=9 ttl=64 t64 64 bytes from 10.0.0.7: icmp_seq=10 ttl=64 time=0.68764 b64 bytes from 10.0.0.7: icmp_seq=11 ttl=64 time=1.16 64 64 bytes from64 bytes from 10.0.0.11: icmp_seq=12 ttl=64 64 bytes from 10.0.0.7: icmp_seq=13 ttl=64 time=0.532 64 64 bytes from 10.0.0.7: icmp_seq=14 ttl=64 time=0.843 64 64 bytes from 1064 bytes from 10.0.0.11: icmp_seq=15 t64 64 bytes from 10.0.0.7: icmp_seq=16 ttl=64 time=0.889 ms

--- 10.0.0.7 ping statistics ---
16 packets transmitted, 16 received, 0% packet loss, time 76724ms
rtt min/avg/max/mdev = 0.355/0.708/1.163/0.200 ms
627/1.025/0.173 ms
