PING 10.0.0.7 (10.0.0.7) 56(84) bytes of data.
64 bytes from 10.0.0.7: icmp_seq=1 ttl=64 time=0.740 ms
64 64 bytes from 10.0.0.11: icmp_seq=2 ttl=64 time=0.43664 b64 bytes from 10.0.0.11: icmp_seq=3 ttl=64 time=1.6464 bytes from 10.0.0.7: icmp_seq=4 ttl=64 time=0.828 m6464 bytes from 10.0.0.7: icmp_seq=5 ttl=64 time=0.488 m6464 bytes from 10.0.0.7: icmp_seq=6 ttl=64 time=0.373 m6464 bytes from 10.0.0.7: icmp_seq=7 ttl=64 time=1.00 ms664 bytes from 10.0.0.7: icmp_seq=8 ttl=64 time=0.608 ms664 bytes from 10.0.0.7: icmp_seq=9 ttl=64 time=0.748 ms664 bytes from 10.0.0.7: icmp_seq=10 ttl=64 time=4.52 ms
64 bytes from 10.0.0.7: icmp_seq=11 ttl=64 time=1.08 ms
64 bytes from 10.0.0.7: icmp_seq=12 ttl=64 time=0.836 ms
64 bytes from 10.0.0.7: icmp_seq=13 ttl=64 time=0.767 ms
64 bytes from 10.0.0.7: icmp_seq=14 ttl=64 time=0.638 ms
64 bytes from 10.0.0.6: icmp_seq=15 ttl=64 time=3.96 ms
64 bytes from 10.0.0.6: icmp_seq=16 ttl=64 time=0.760 ms

--- 10.0.0.6 ping statistics ---
16 packets transmitted, 16 received, 0% packet loss, time 76378ms
rtt min/avg/max/mdev = 0.367/0.925/3.968/0.850 ms
856/2.474/0.491 ms
