PING 10.0.0.11 (10.0.0.11) 56(84) bytes of data.
64 bytes from 10.0.0.11: icmp_seq=1 ttl=64 time=0.653 64 64 bytes from 10.0.0.11: icmp_seq=2 ttl=64 time=0.9164 by64 bytes from 10.0.0.11: icmp_seq=3 ttl=64 time=0.664 bytes from 10.0.0.6: icmp_seq=4 ttl=64 time=0.517 ms
64 bytes from 10.0.0.6: icmp_seq=5 ttl=64 time=1.44 ms
64 bytes 64 bytes from 10.0.0.11: icmp_seq=6 ttl=64 time64 bytes from 10.0.0.6: icmp_seq=7 ttl=64 time=1.39 ms
64 bytes fr64 bytes from 10.0.0.11: icmp_seq=8 ttl=64 ti64 bytes from 10.0.0.6: icmp_seq=9 ttl=64 time=1.88 ms
64 bytes from 10.0.0.6: icmp_seq=10 ttl=64 time=0.524 ms
64 bytes from 64 bytes from 10.0.0.11: icmp_seq=11 ttl=664 bytes from 10.0.0.6: icmp_seq=12 ttl=64 time=0.422 ms
64 bytes from 10.0.0.6: icmp_seq=13 ttl=64 time=3.15 ms
64 bytes from 10.064 bytes from 10.0.0.11: icmp_seq=14 tt64 bytes from 10.0.64 bytes from 10.0.0.11: icmp_seq=15 t64 64 bytes from 10.64 bytes from 10.0.0.11: icmp_seq=16 ttl=64 time=0.557 ms

--- 10.0.0.11 ping statistics ---
16 packets transmitted, 16 received, 0% packet loss, time 76667ms
rtt min/avg/max/mdev = 0.365/0.678/1.122/0.222 ms
