PING 10.0.0.6 (10.0.0.6) 56(84) bytes of data.
64 bytes from 10.0.0.6: icmp_seq=1 ttl=64 time=0.459 ms
64 bytes from 10.0.0.6: icmp_seq=2 ttl=64 time=1.05 ms
664 bytes from 10.0.0.7: icmp_seq=3 ttl=64 time=0.676 ms64 byt64 bytes from 10.0.0.11: icmp_seq=4 ttl=64 time=0.64 bytes from 10.0.0.6: icmp_seq=5 ttl=64 time=0.556 ms
664 byte64 bytes from 10.0.0.11: icmp_seq=6 ttl=64 time=664 bytes from 10.0.0.7: icmp_seq=7 ttl=64 time=0.617 ms664 bytes 64 bytes from 10.0.0.11: icmp_seq=8 ttl=64 tim664 bytes f64 bytes from 10.0.0.11: icmp_seq=9 ttl=64 ti64 bytes from 10.0.0.6: icmp_seq=10 ttl=64 time=0.789 ms
664 bytes fr64 bytes from 10.0.0.11: icmp_seq=11 ttl=64 t664 bytes from 10.0.0.7: icmp_seq=12 ttl=64 time=0.898 ms64 bytes from 64 bytes from 10.0.0.11: icmp_seq=13 ttl=64664 bytes from 10.0.0.7: icmp_seq=14 ttl=64 time=0.550 ms664 bytes from 10.0.0.7: icmp_seq=15 ttl=64 time=0.627 ms664 bytes from 1064 bytes from 10.0.0.11: icmp_seq=16 ttl=64 time=0.857 ms

--- 10.0.0.11 ping statistics ---
16 packets transmitted, 16 received, 0% packet loss, time 76593ms
rtt min/avg/max/mdev = 0.411/0.646/1.418/0.240 ms
