PING 10.0.0.7 (10.0.0.7) 56(84) bytes of data.
64 bytes from 10.0.0.7: icmp_seq=1 ttl=64 time=6.85 ms
64 bytes from 10.0.0.7: icmp_seq=2 ttl=64 time=0.722 ms
64 bytes from 10.0.0.7: icmp_seq=3 ttl=64 time=0.804 ms
64 bytes from 10.0.0.7: icmp_seq=4 ttl=64 time=0.844 ms
664 bytes from 10.0.0.6: icmp_seq=5 ttl=64 time=0.506 ms664 bytes from 10.0.0.6: icmp_seq=6 ttl=64 time=0.547 ms64 bytes from 10.0.0.7: icmp_seq=7 ttl=64 time=0.652 ms
64 bytes from 10.0.0.7: icmp_seq=8 ttl=64 time=0.781 ms
64 bytes from 10.0.0.7: icmp_seq=9 ttl=64 time=0.664 ms
64 bytes from 10.0.0.7: icmp_seq=10 ttl=64 time=0.589 ms
64 bytes from 10.0.0.7: icmp_seq=11 ttl=64 time=1.14 ms
6464 bytes from 10.0.0.6: icmp_seq=12 ttl=64 time=0.578 64 64 bytes from 10.0.0.6: icmp_seq=13 ttl=64 time=0.516 64 64 bytes from 10.0.0.6: icmp_seq=14 ttl=64 time=0.553 64 64 bytes from 10.0.0.6: icmp_seq=15 ttl=64 time=0.543 64 64 bytes from 10.0.0.6: icmp_seq=16 ttl=64 time=0.569 ms

--- 10.0.0.6 ping statistics ---
16 packets transmitted, 16 received, 0% packet loss, time 76807ms
rtt min/avg/max/mdev = 0.474/0.608/0.818/0.104 ms
/7.068/1.698 ms
