PING 10.0.0.6 (10.0.0.6) 56(84) bytes of data.
64 bytes from 10.0.0.6: icmp_seq=1 ttl=64 time=0.641 ms
64 bytes from 10.0.0.6: icmp_seq=2 ttl=64 time=1.52 ms
664 bytes from 10.0.0.7: icmp_seq=3 ttl=64 time=0.710 ms664 bytes from 10.0.0.7: icmp_seq=4 ttl=64 time=0.482 ms664 by64 bytes from 10.0.0.11: icmp_seq=5 ttl=64 time=0.664 bytes from 10.0.0.7: icmp_seq=6 ttl=64 time=1.47 ms
64 bytes64 bytes from 10.0.0.11: icmp_seq=7 ttl=64 time=64 bytes from 10.0.0.7: icmp_seq=8 ttl=64 time=0.646 ms
64 bytes from 10.0.0.7: icmp_seq=9 ttl=64 time=0.761 ms
64 bytes from 10.0.0.7: icmp_seq=10 ttl=64 time=0.960 ms
64 bytes fro64 bytes from 10.0.0.11: icmp_seq=11 ttl=64 t64 bytes from64 bytes from 10.0.0.11: icmp_seq=12 ttl=64 64 bytes from 10.0.0.7: icmp_seq=13 ttl=64 time=0.451 ms
64 bytes from 10.0.0.7: icmp_seq=14 ttl=64 time=0.767 ms
64 bytes from 10.0.0.7: icmp_seq=15 ttl=64 time=2.72 ms
64 bytes from 10.064 bytes from 10.0.0.11: icmp_seq=16 ttl=64 time=0.912 ms

--- 10.0.0.11 ping statistics ---
16 packets transmitted, 16 received, 0% packet loss, time 76811ms
rtt min/avg/max/mdev = 0.371/0.593/1.081/0.193 ms
