PING 10.0.0.7 (10.0.0.7) 56(84) bytes of data.
64 bytes from 10.0.0.7: icmp_seq=1 ttl=64 time=0.752 ms
64 bytes from 10.0.0.7: icmp_seq=2 ttl=64 time=0.445 ms664 b64 bytes from 10.0.0.11: icmp_seq=3 ttl=64 time=0.9664 bytes from 10.0.0.7: icmp_seq=4 ttl=64 time=0.618 ms664 bytes from 10.0.0.7: icmp_seq=5 ttl=64 time=0.602 ms664 bytes from 10.0.0.7: icmp_seq=6 ttl=64 time=0.692 ms64 bytes from 10.0.0.6: icmp_seq=7 ttl=64 time=0.473 ms
664 bytes 64 bytes from 10.0.0.11: icmp_seq=8 ttl=64 tim664 bytes from 10.0.0.7: icmp_seq=9 ttl=64 time=0.721 ms664 bytes from 10.0.0.7: icmp_seq=10 ttl=64 time=0.772 ms664 bytes from 10.0.0.7: icmp_seq=11 ttl=64 time=1.07 ms
64 bytes from64 bytes from 10.0.0.11: icmp_seq=12 ttl=64 64 bytes from 10.0.0.6: icmp_seq=13 ttl=64 time=0.486 ms
64 bytes from 10.0.0.7: icmp_seq=14 ttl=64 time=0.597 ms
64 bytes from 10.0.0.6: icmp_seq=15 ttl=64 time=0.839 ms
64 bytes from 10.0.0.7: icmp_seq=16 ttl=64 time=0.971 ms

--- 10.0.0.7 ping statistics ---
16 packets transmitted, 16 received, 0% packet loss, time 76696ms
rtt min/avg/max/mdev = 0.394/0.663/1.076/0.174 ms
699/1.622/0.281 ms
