PING 10.0.0.7 (10.0.0.7) 56(84) bytes of data.
64 bytes from 10.0.0.7: icmp_seq=1 ttl=64 time=0.902 ms
64 bytes from 10.0.0.7: icmp_seq=2 ttl=64 time=1.23 ms
664 bytes from 10.0.0.6: icmp_seq=3 ttl=64 time=0.709 m6464 bytes from 10.0.0.6: icmp_seq=4 ttl=64 time=0.752 m6464 bytes from 10.0.0.6: icmp_seq=5 ttl=64 time=0.401 m6464 byt64 bytes from 10.0.0.11: icmp_seq=6 ttl=64 time=6464 bytes from 10.0.0.6: icmp_seq=7 ttl=64 time=0.996 m6464 bytes64 bytes from 10.0.0.11: icmp_seq=8 ttl=64 tim6464 bytes from 10.0.0.6: icmp_seq=9 ttl=64 time=0.557 m6464 bytes 64 bytes from 10.0.0.11: icmp_seq=10 ttl=64 ti6464 bytes f64 bytes from 10.0.0.11: icmp_seq=11 ttl=64 t6464 bytes fr64 bytes from 10.0.0.11: icmp_seq=12 ttl=64 6464 bytes from 10.0.0.6: icmp_seq=13 ttl=64 time=0.466 m6464 bytes from 10.0.0.6: icmp_seq=14 ttl=64 time=0.478 m6464 bytes from 10.0.0.6: icmp_seq=15 ttl=64 time=0.413 m6464 bytes from 164 bytes from 10.0.0.11: icmp_seq=16 ttl=64 time=0.720 ms

--- 10.0.0.11 ping statistics ---
16 packets transmitted, 16 received, 0% packet loss, time 76655ms
rtt min/avg/max/mdev = 0.388/0.663/1.052/0.229 ms
