PING 10.0.0.6 (10.0.0.6) 56(84) bytes of data.
64 bytes from 10.0.0.6: icmp_seq=1 ttl=64 time=3.09 ms
64 bytes from 10.0.0.6: icmp_seq=2 ttl=64 time=2.24 ms
664 b64 bytes from 10.0.0.11: icmp_seq=3 ttl=64 time=5.8664 bytes from 10.0.0.7: icmp_seq=4 ttl=64 time=0.441 ms664 bytes from 10.0.0.7: icmp_seq=5 ttl=64 time=0.773 ms664 byt64 bytes from 10.0.0.11: icmp_seq=6 ttl=64 time=0664 bytes from 10.0.0.7: icmp_seq=7 ttl=64 time=1.68 ms
64 bytes 64 bytes from 10.0.0.11: icmp_seq=8 ttl=64 time64 bytes from 10.0.0.7: icmp_seq=9 ttl=64 time=0.442 ms
64 bytes from 10.0.0.7: icmp_seq=10 ttl=64 time=0.837 ms
64 bytes from 10.0.0.7: icmp_seq=11 ttl=64 time=0.975 ms
64 bytes from64 bytes from 10.0.0.11: icmp_seq=12 ttl=64 64 bytes from 64 bytes from 10.0.0.11: icmp_seq=13 ttl=6464 bytes from 164 bytes from 10.0.0.11: icmp_seq=14 ttl=664 bytes from 10.0.0.7: icmp_seq=15 ttl=64 time=0.580 ms
64 bytes from 10.64 bytes from 10.0.0.11: icmp_seq=16 ttl=64 time=0.686 ms

--- 10.0.0.11 ping statistics ---
16 packets transmitted, 16 received, 0% packet loss, time 76760ms
rtt min/avg/max/mdev = 0.435/1.035/5.880/1.274 ms
