PING 10.0.0.6 (10.0.0.6) 56(84) bytes of data.
64 bytes from 10.0.0.6: icmp_seq=1 ttl=64 time=8.54 ms
64 bytes from 10.0.0.6: icmp_seq=2 ttl=64 time=0.455 ms
664 b64 bytes from 10.0.0.11: icmp_seq=3 ttl=64 time=0.9664 bytes from 10.0.0.7: icmp_seq=4 ttl=64 time=0.729 ms64 bytes from 10.0.0.6: icmp_seq=5 ttl=64 time=0.796 ms
64 bytes64 bytes from 10.0.0.11: icmp_seq=6 ttl=64 time=64 bytes from 10.0.0.6: icmp_seq=7 ttl=64 time=1.08 ms
6464 bytes from 10.0.0.7: icmp_seq=8 ttl=64 time=0.837 64 64 bytes from 10.0.0.7: icmp_seq=9 ttl=64 time=0.69164 b64 bytes from 10.0.0.7: icmp_seq=10 ttl=64 time=0.94764 b64 bytes from 10.0.0.7: icmp_seq=11 ttl=64 time=0.74264 b64 bytes from 10.0.0.7: icmp_seq=12 ttl=64 time=0.69364 b64 bytes from 64 bytes from 10.0.0.11: icmp_seq=13 tt64 b64 bytes from 164 bytes from 10.0.0.11: icmp_seq=14 t64 b64 bytes from 1064 bytes from 10.0.0.11: icmp_seq=15 64 b64 bytes from 10.0.0.7: icmp_seq=16 ttl=64 time=0.739 ms

--- 10.0.0.7 ping statistics ---
16 packets transmitted, 16 received, 0% packet loss, time 76690ms
rtt min/avg/max/mdev = 0.483/0.673/0.947/0.129 ms
639/0.977/0.140 ms
