PING 10.0.0.6 (10.0.0.6) 56(84) bytes of data.
64 bytes from 10.0.0.6: icmp_seq=1 ttl=64 time=0.736 ms
64 bytes from 10.0.0.6: icmp_seq=2 ttl=64 time=0.635 ms
64 bytes from 10.0.0.6: icmp_seq=3 ttl=64 time=0.487 ms
64 bytes from 10.0.0.6: icmp_seq=4 ttl=64 time=0.454 ms
64 bytes from 10.0.0.6: icmp_seq=5 ttl=64 time=0.612 ms
64 bytes from 10.0.0.6: icmp_seq=6 ttl=64 time=0.885 ms
64 bytes from 10.0.0.6: icmp_seq=7 ttl=64 time=0.506 ms
64 bytes from 10.0.0.6: icmp_seq=8 ttl=64 time=0.496 ms
64 bytes from 10.0.0.6: icmp_seq=9 ttl=64 time=0.692 ms
64 bytes from 10.0.0.6: icmp_seq=10 ttl=64 time=0.459 ms
64 bytes from 10.0.0.6: icmp_seq=11 ttl=64 time=0.529 ms
64 bytes from 10.0.0.6: icmp_seq=12 ttl=64 time=0.714 ms
64 bytes from 10.0.0.6: icmp_seq=13 ttl=64 time=0.955 ms
64 bytes from 10.0.0.6: icmp_seq=14 ttl=64 time=0.660 ms
64 bytes from 10.0.0.6: icmp_seq=15 ttl=64 time=0.597 ms
64 bytes from 10.0.0.6: icmp_seq=16 ttl=64 time=0.499 ms

--- 10.0.0.6 ping statistics ---
16 packets transmitted, 16 received, 0% packet loss, time 76715ms
rtt min/avg/max/mdev = 0.454/0.619/0.955/0.147 ms
9/1.925/0.388 ms
