PING 10.0.0.6 (10.0.0.6) 56(84) bytes of data.
64 bytes from 10.0.0.6: icmp_seq=1 ttl=64 time=0.522 ms664 bytes from 10.0.0.6: icmp_seq=2 ttl=64 time=6.55 ms
64 bytes from 10.0.0.7: icmp_seq=3 ttl=64 time=0.830 ms
64 byt64 bytes from 10.0.0.11: icmp_seq=4 ttl=64 time=0.64 bytes from 10.0.0.7: icmp_seq=5 ttl=64 time=0.658 ms
64 bytes from 10.0.0.7: icmp_seq=6 ttl=64 time=2.06 ms
664 bytes from 10.0.0.6: icmp_seq=7 ttl=64 time=1.00 ms
64 bytes from 10.0.0.7: icmp_seq=8 ttl=64 time=0.574 ms
64 bytes from 10.0.0.6: icmp_seq=9 ttl=64 time=0.562 ms
64 bytes from64 bytes from 10.0.0.11: icmp_seq=10 ttl=64 64 bytes from 10.0.0.7: icmp_seq=11 ttl=64 time=0.400 ms
64 bytes from 10.0.0.7: icmp_seq=12 ttl=64 time=0.911 ms
64 bytes from 10.0.0.6: icmp_seq=13 ttl=64 time=0.535 ms
64 bytes from 10.0.0.7: icmp_seq=14 ttl=64 time=0.686 ms
64 bytes from 10.0.0.7: icmp_seq=15 ttl=64 time=0.668 ms
64 bytes from 10.0.0.6: icmp_seq=16 ttl=64 time=2.20 ms

--- 10.0.0.6 ping statistics ---
16 packets transmitted, 16 received, 0% packet loss, time 76616ms
rtt min/avg/max/mdev = 0.455/1.072/6.551/1.472 ms

678/1.661/0.307 ms
