PING 10.0.0.11 (10.0.0.11) 56(84) bytes of data.
64 bytes from 10.0.0.11: icmp_seq=1 ttl=64 time=0.865 64 64 bytes from 10.0.0.11: icmp_seq=2 ttl=64 time=0.34664 bytes from 10.0.0.7: icmp_seq=3 ttl=64 time=0.614 ms
64 bytes from 10.0.0.6: icmp_seq=4 ttl=64 time=0.616 ms
64 byt64 bytes from 10.0.0.11: icmp_seq=5 ttl=64 time=0.64 byte64 bytes from 10.0.0.11: icmp_seq=6 ttl=64 time=064 bytes from 10.0.0.7: icmp_seq=7 ttl=64 time=0.751 ms
64 bytes from 10.0.0.7: icmp_seq=8 ttl=64 time=0.533 ms
64 bytes from 10.0.0.7: icmp_seq=9 ttl=64 time=1.25 ms
664 bytes fr64 bytes from 10.0.0.11: icmp_seq=10 ttl=64 t664 bytes from 10.0.0.6: icmp_seq=11 ttl=64 time=1.14 ms
64 bytes from 10.0.0.7: icmp_seq=12 ttl=64 time=0.638 ms
64 bytes from 10.0.0.7: icmp_seq=13 ttl=64 time=0.813 ms
64 bytes from 10.0.0.6: icmp_seq=14 ttl=64 time=0.579 ms
64 bytes from 10.0.0.7: icmp_seq=15 ttl=64 time=0.474 ms
64 bytes from 10.0.0.6: icmp_seq=16 ttl=64 time=0.757 ms

--- 10.0.0.6 ping statistics ---
16 packets transmitted, 16 received, 0% packet loss, time 76599ms
rtt min/avg/max/mdev = 0.454/0.631/1.144/0.194 ms
.570/0.903/0.147 ms
