PING 10.0.0.11 (10.0.0.11) 56(84) bytes of data.
64 bytes from 10.0.0.11: icmp_seq=1 ttl=64 time=0.732 64 64 bytes from 10.0.0.11: icmp_seq=2 ttl=64 time=0.45664 bytes from 10.0.0.7: icmp_seq=3 ttl=64 time=0.679 ms664 by64 bytes from 10.0.0.11: icmp_seq=4 ttl=64 time=1.64 bytes from 10.0.0.7: icmp_seq=5 ttl=64 time=0.876 ms
64 byte64 bytes from 10.0.0.11: icmp_seq=6 ttl=64 time=064 bytes64 bytes from 10.0.0.11: icmp_seq=7 ttl=64 time=64 bytes 64 bytes from 10.0.0.11: icmp_seq=8 ttl=64 tim664 bytes f64 bytes from 10.0.0.11: icmp_seq=9 ttl=64 ti664 bytes from 10.0.0.7: icmp_seq=10 ttl=64 time=0.502 ms664 bytes from 10.0.0.7: icmp_seq=11 ttl=64 time=0.441 ms664 bytes from64 bytes from 10.0.0.11: icmp_seq=12 ttl=64664 bytes from 10.0.0.7: icmp_seq=13 ttl=64 time=0.539 ms664 bytes from 164 bytes from 10.0.0.11: icmp_seq=14 ttl=664 bytes from 10.0.0.7: icmp_seq=15 ttl=64 time=0.633 ms664 bytes from 10.0.0.7: icmp_seq=16 ttl=64 time=0.613 ms

--- 10.0.0.7 ping statistics ---
16 packets transmitted, 16 received, 0% packet loss, time 76719ms
rtt min/avg/max/mdev = 0.328/0.609/1.138/0.204 ms
581/1.146/0.175 ms
