PING 10.0.0.6 (10.0.0.6) 56(84) bytes of data.
64 bytes from 10.0.0.6: icmp_seq=1 ttl=64 time=0.685 ms
64 bytes from 10.0.0.6: icmp_seq=2 ttl=64 time=0.678 ms
64 bytes from 10.0.0.7: icmp_seq=3 ttl=64 time=0.757 ms
64 bytes from 10.0.0.6: icmp_seq=4 ttl=64 time=0.334 ms
64 bytes from 10.0.0.6: icmp_seq=5 ttl=64 time=0.498 ms
64 byte64 bytes from 10.0.0.11: icmp_seq=6 ttl=64 time=064 bytes from 10.0.0.6: icmp_seq=7 ttl=64 time=0.656 ms
64 bytes from 10.0.0.7: icmp_seq=8 ttl=64 time=1.27 ms
664 bytes f64 bytes from 10.0.0.11: icmp_seq=9 ttl=64 ti664 bytes from 10.0.0.6: icmp_seq=10 ttl=64 time=0.950 ms664 bytes from 10.0.0.6: icmp_seq=11 ttl=64 time=5.06 ms
64 bytes from 10.0.0.7: icmp_seq=12 ttl=64 time=0.398 ms
64 bytes from 164 bytes from 10.0.0.11: icmp_seq=13 ttl=664 bytes from 1064 bytes from 10.0.0.11: icmp_seq=14 ttl64 bytes from 10.64 bytes from 10.0.0.11: icmp_seq=15 ttl64 bytes from 10.0.0.6: icmp_seq=16 ttl=64 time=0.698 ms

--- 10.0.0.6 ping statistics ---
16 packets transmitted, 16 received, 0% packet loss, time 76654ms
rtt min/avg/max/mdev = 0.334/0.925/5.061/1.086 ms
.635/1.513/0.263 ms
