PING 10.0.0.11 (10.0.0.11) 56(84) bytes of data.
64 bytes from 10.0.0.11: icmp_seq=1 ttl=64 time=0.76164 bytes from 10.0.0.6: icmp_seq=2 ttl=64 time=0.708 ms
64 by64 bytes from 10.0.0.11: icmp_seq=3 ttl=64 time=0.664 bytes from 10.0.0.7: icmp_seq=4 ttl=64 time=0.643 ms
64 byte64 bytes from 10.0.0.11: icmp_seq=5 ttl=64 time=064 bytes from 10.0.0.7: icmp_seq=6 ttl=64 time=0.698 ms
64 bytes from 10.0.0.7: icmp_seq=7 ttl=64 time=0.984 ms
64 bytes from 10.0.0.6: icmp_seq=8 ttl=64 time=0.868 ms
64 bytes from 10.0.0.7: icmp_seq=9 ttl=64 time=0.695 ms
64 bytes from 10.0.0.7: icmp_seq=10 ttl=64 time=0.566 ms
64 bytes from 10.0.0.7: icmp_seq=11 ttl=64 time=0.519 ms
64 bytes from 10.0.0.7: icmp_seq=12 ttl=64 time=0.604 ms
64 bytes from 164 bytes from 10.0.0.11: icmp_seq=13 ttl=664 bytes from 1064 bytes from 10.0.0.11: icmp_seq=14 ttl=64 bytes from 10.0.0.7: icmp_seq=15 ttl=64 time=0.825 ms
64 bytes from 10.0.0.7: icmp_seq=16 ttl=64 time=0.892 ms

--- 10.0.0.7 ping statistics ---
16 packets transmitted, 16 received, 0% packet loss, time 76644ms
rtt min/avg/max/mdev = 0.468/0.678/1.280/0.213 ms
.586/0.890/0.140 ms
