PING 10.0.0.7 (10.0.0.7) 56(84) bytes of data.
64 bytes from 10.0.0.7: icmp_seq=1 ttl=64 time=0.673 ms
64 bytes from 10.0.0.7: icmp_seq=2 ttl=64 time=0.437 ms
64 bytes from 10.0.0.6: icmp_seq=3 ttl=64 time=0.916 ms
64 bytes from 10.0.0.6: icmp_seq=4 ttl=64 time=3.25 ms
64 byte64 bytes from 10.0.0.11: icmp_seq=5 ttl=64 time=064 bytes64 bytes from 10.0.0.11: icmp_seq=6 ttl=64 time=64 bytes from 10.0.0.7: icmp_seq=7 ttl=64 time=1.09 ms
664 bytes f64 bytes from 10.0.0.11: icmp_seq=8 ttl=64 ti64 bytes from 10.0.0.7: icmp_seq=9 ttl=64 time=0.435 ms
64 bytes from 10.0.0.7: icmp_seq=10 ttl=64 time=0.720 ms
64 bytes from 10.0.0.6: icmp_seq=11 ttl=64 time=0.768 ms
64 bytes from 10.0.0.6: icmp_seq=12 ttl=64 time=1.06 ms
664 bytes from 10.0.0.7: icmp_seq=13 ttl=64 time=0.407 m6464 bytes from 10.0.0.7: icmp_seq=14 ttl=64 time=0.607 m6464 bytes from 10.0.0.7: icmp_seq=15 ttl=64 time=0.551 m6464 bytes from 10.0.0.7: icmp_seq=16 ttl=64 time=0.852 ms

--- 10.0.0.7 ping statistics ---
16 packets transmitted, 16 received, 0% packet loss, time 76690ms
rtt min/avg/max/mdev = 0.407/0.655/1.208/0.226 ms
.607/1.322/0.211 ms
