PING 10.0.0.6 (10.0.0.6) 56(84) bytes of data.
64 bytes from 10.0.0.6: icmp_seq=1 ttl=64 time=0.743 ms
64 bytes from 10.0.0.6: icmp_seq=2 ttl=64 time=0.544 ms664 64 bytes from 10.0.0.11: icmp_seq=3 ttl=64 time=0.48664 bytes from 10.0.0.6: icmp_seq=4 ttl=64 time=1.03 ms
64 bytes from 10.0.0.7: icmp_seq=5 ttl=64 time=0.471 ms664 bytes from 10.0.0.7: icmp_seq=6 ttl=64 time=0.685 ms664 bytes from 10.0.0.7: icmp_seq=7 ttl=64 time=0.985 ms664 bytes 64 bytes from 10.0.0.11: icmp_seq=8 ttl=64 tim664 bytes from 10.0.0.7: icmp_seq=9 ttl=64 time=0.947 ms664 bytes from 10.0.0.7: icmp_seq=10 ttl=64 time=0.593 ms664 bytes fro64 bytes from 10.0.0.11: icmp_seq=11 ttl=64 664 bytes from 10.0.0.7: icmp_seq=12 ttl=64 time=0.508 ms664 bytes from64 bytes from 10.0.0.11: icmp_seq=13 ttl=64664 bytes from 64 bytes from 10.0.0.11: icmp_seq=14 ttl=6664 bytes from 10.0.0.7: icmp_seq=15 ttl=64 time=0.700 ms664 bytes from 1064 bytes from 10.0.0.11: icmp_seq=16 ttl=64 time=0.824 ms

--- 10.0.0.11 ping statistics ---
16 packets transmitted, 16 received, 0% packet loss, time 76642ms
rtt min/avg/max/mdev = 0.360/0.654/1.034/0.187 ms
