PING 10.0.0.11 (10.0.0.11) 56(84) bytes of data.
64 bytes from 10.0.0.11: icmp_seq=1 ttl=64 time=0.67064 b64 bytes from 10.0.0.11: icmp_seq=2 ttl=64 time=0.764 byt64 bytes from 10.0.0.11: icmp_seq=3 ttl=64 time=0.6464 by64 bytes from 10.0.0.11: icmp_seq=4 ttl=64 time=76464 by64 bytes from 10.0.0.11: icmp_seq=5 ttl=64 time=06464 byt64 bytes from 10.0.0.11: icmp_seq=6 ttl=64 time=64 bytes 64 bytes from 10.0.0.11: icmp_seq=7 ttl=64 time6464 bytes64 bytes from 10.0.0.11: icmp_seq=8 ttl=64 ti6464 bytes f64 bytes from 10.0.0.11: icmp_seq=9 ttl=64 t64 bytes from64 bytes from 10.0.0.11: icmp_seq=10 ttl=64 64 bytes from 64 bytes from 10.0.0.11: icmp_seq=11 ttl=6464 bytes from 164 bytes from 10.0.0.11: icmp_seq=12 ttl=664 bytes from 1064 bytes from 10.0.0.11: icmp_seq=13 ttl=64 bytes from 10.64 bytes from 10.0.0.11: icmp_seq=14 ttl64 bytes from 10.064 bytes from 10.0.0.11: icmp_seq=15 tt64 bytes from 10.0.64 bytes from 10.0.0.11: icmp_seq=16 ttl=64 time=0.675 ms

--- 10.0.0.11 ping statistics ---
16 packets transmitted, 16 received, 0% packet loss, time 76715ms
rtt min/avg/max/mdev = 0.403/1.004/7.244/1.616 ms
