PING 10.0.0.7 (10.0.0.7) 56(84) bytes of data.
64 bytes from 10.0.0.7: icmp_seq=1 ttl=64 time=0.658 ms664 bytes from 10.0.0.7: icmp_seq=2 ttl=64 time=0.573 ms664 bytes from 10.0.0.7: icmp_seq=3 ttl=64 time=0.713 ms64 bytes from 10.0.0.6: icmp_seq=4 ttl=64 time=0.493 ms
664 bytes from 10.0.0.7: icmp_seq=5 ttl=64 time=0.813 ms664 byt64 bytes from 10.0.0.11: icmp_seq=6 ttl=64 time=064 bytes from 10.0.0.6: icmp_seq=7 ttl=64 time=2.02 ms
6464 bytes from 10.0.0.7: icmp_seq=8 ttl=64 time=0.453 m64 bytes from 10.0.0.6: icmp_seq=9 ttl=64 time=0.553 ms
64 bytes from 10.0.0.6: icmp_seq=10 ttl=64 time=0.544 ms
6464 bytes fr64 bytes from 10.0.0.11: icmp_seq=11 ttl=64 6464 bytes fro64 bytes from 10.0.0.11: icmp_seq=12 ttl=6464 bytes from 164 bytes from 10.0.0.11: icmp_seq=13 ttl=664 bytes from 10.0.0.6: icmp_seq=14 ttl=64 time=0.687 ms
6464 bytes from 10.0.0.7: icmp_seq=15 ttl=64 time=0.726 m6464 bytes from 10.0.0.7: icmp_seq=16 ttl=64 time=0.808 m
----- 10.0.0.7 ping statistics ---
16 packets transmitted, 16 received, 0% packet loss, time 76742ms
rtt min/avg/max/mdev = 0.453/0.628/0.932/0.143 ms
68/6.923/1.539 ms
