PING 10.0.0.7 (10.0.0.7) 56(84) bytes of data.
64 bytes from 10.0.0.7: icmp_seq=1 ttl=64 time=32.8 ms
64 bytes from 10.0.0.6: icmp_seq=2 ttl=64 time=0.628 ms664 by64 bytes from 10.0.0.11: icmp_seq=3 ttl=64 time=0.64 bytes from 10.0.0.7: icmp_seq=4 ttl=64 time=0.585 ms
64 bytes64 bytes from 10.0.0.11: icmp_seq=5 ttl=64 time=664 bytes from 10.0.0.6: icmp_seq=6 ttl=64 time=1.13 ms
64 bytes from 10.0.0.7: icmp_seq=7 ttl=64 time=0.657 ms
64 bytes f64 bytes from 10.0.0.11: icmp_seq=8 ttl=64 tim64 bytes from 10.0.0.6: icmp_seq=9 ttl=64 time=0.617 ms
64 bytes from 10.0.0.7: icmp_seq=10 ttl=64 time=0.882 ms
64 bytes from 10.0.0.7: icmp_seq=11 ttl=64 time=2.60 ms
664 bytes from 10.0.0.6: icmp_seq=12 ttl=64 time=0.546 m6464 bytes from 164 bytes from 10.0.0.11: icmp_seq=13 ttl6464 bytes from 1064 bytes from 10.0.0.11: icmp_seq=14 tt6464 bytes from 10.0.0.6: icmp_seq=15 ttl=64 time=0.545 m6464 bytes from 10.0.0.6: icmp_seq=16 ttl=64 time=1.13 ms

--- 10.0.0.6 ping s--- 10.0.0.11 ping statistics ---
16 packets transmitted, 16 received, 0% packet loss, time 76587ms
rtt min/avg/max/mdev = 0.400/0.651/1.140/0.225 ms
