PING 10.0.0.6 (10.0.0.6) 56(84) bytes of data.
64 bytes from 10.0.0.6: icmp_seq=1 ttl=64 time=0.614 ms
64 bytes from 10.0.0.6: icmp_seq=2 ttl=64 time=0.657 ms
64 bytes from 10.0.0.6: icmp_seq=3 ttl=64 time=0.407 ms
64 bytes from 10.0.0.6: icmp_seq=4 ttl=64 time=0.583 ms664 bytes from 10.0.0.6: icmp_seq=5 ttl=64 time=0.587 ms664 bytes from 10.0.0.6: icmp_seq=6 ttl=64 time=1.21 ms
64 bytes from 10.0.0.6: icmp_seq=7 ttl=64 time=0.610 ms664 bytes from 10.0.0.6: icmp_seq=8 ttl=64 time=1.26 ms664 bytes from 10.0.0.6: icmp_seq=9 ttl=64 time=0.378 ms664 bytes from 10.0.0.6: icmp_seq=10 ttl=64 time=0.663 ms664 bytes from 10.0.0.6: icmp_seq=11 ttl=64 time=0.472 ms664 bytes from 10.0.0.6: icmp_seq=12 ttl=64 time=0.701 ms664 bytes from 10.0.0.6: icmp_seq=13 ttl=64 time=1.24 ms
64 bytes from 10.0.0.6: icmp_seq=14 ttl=64 time=1.03 ms
64 bytes from 10.0.0.6: icmp_seq=15 ttl=64 time=0.596 ms
64 bytes from 10.0.0.6: icmp_seq=16 ttl=64 time=0.652 ms

--- 10.0.0.6 ping statistics ---
16 packets transmitted, 16 received, 0% packet loss, time 76637ms
rtt min/avg/max/mdev = 0.378/0.730/1.266/0.284 ms

142/6.625/1.434 ms
