PING 10.0.0.6 (10.0.0.6) 56(84) bytes of data.
64 bytes from 10.0.0.6: icmp_seq=1 ttl=64 time=0.649 ms
64 bytes from 10.0.0.6: icmp_seq=2 ttl=64 time=0.934 ms
64 bytes from 10.0.0.7: icmp_seq=3 ttl=64 time=0.688 ms
64 bytes from 10.0.0.7: icmp_seq=4 ttl=64 time=0.784 ms
64 bytes from 10.0.0.6: icmp_seq=5 ttl=64 time=0.555 ms
64 bytes from 10.0.0.7: icmp_seq=6 ttl=64 time=0.894 ms
64 bytes from 10.0.0.7: icmp_seq=7 ttl=64 time=0.649 ms
64 bytes from 10.0.0.7: icmp_seq=8 ttl=64 time=0.643 ms
64 bytes from 10.0.0.6: icmp_seq=9 ttl=64 time=0.939 ms
64 bytes from 10.0.0.7: icmp_seq=10 ttl=64 time=0.900 ms
64 bytes from 10.0.0.7: icmp_seq=11 ttl=64 time=1.00 ms
664 bytes from 10.0.0.6: icmp_seq=12 ttl=64 time=0.478 ms64 bytes from 10.0.0.7: icmp_seq=13 ttl=64 time=0.716 ms
64 bytes from 10.0.0.7: icmp_seq=14 ttl=64 time=0.589 ms
64 bytes from 10.0.0.7: icmp_seq=15 ttl=64 time=0.993 ms
664 bytes from 10.0.0.6: icmp_seq=16 ttl=64 time=0.689 ms

--- 10.0.0.6 ping statistics ---
16 packets transmitted, 16 received, 0% packet loss, time 76754ms
rtt min/avg/max/mdev = 0.478/0.670/0.939/0.156 ms
12/1.117/0.210 ms
