PING 10.0.0.11 (10.0.0.11) 56(84) bytes of data.
64 bytes from 10.0.0.11: icmp_seq=1 ttl=64 time=1.32 m6464 bytes from 10.0.0.11: icmp_seq=2 ttl=64 time=0.739664 bytes from 10.0.0.6: icmp_seq=3 ttl=64 time=0.610 ms664 b64 bytes from 10.0.0.11: icmp_seq=4 ttl=64 time=1.6664 bytes from 10.0.0.6: icmp_seq=5 ttl=64 time=0.467 ms664 bytes from 10.0.0.6: icmp_seq=6 ttl=64 time=0.741 ms664 byt64 bytes from 10.0.0.11: icmp_seq=7 ttl=64 time=0664 bytes from 10.0.0.6: icmp_seq=8 ttl=64 time=0.711 ms664 bytes from 10.0.0.6: icmp_seq=9 ttl=64 time=0.841 ms664 bytes from 10.0.0.6: icmp_seq=10 ttl=64 time=0.628 ms664 bytes f64 bytes from 10.0.0.11: icmp_seq=11 ttl=64 ti664 bytes fr64 bytes from 10.0.0.11: icmp_seq=12 ttl=64 t664 bytes fro64 bytes from 10.0.0.11: icmp_seq=13 ttl=64 664 bytes from 10.0.0.6: icmp_seq=14 ttl=64 time=0.656 ms664 bytes from 64 bytes from 10.0.0.11: icmp_seq=15 ttl=6664 bytes from 10.0.0.6: icmp_seq=16 ttl=64 time=1.09 ms

--- 10.0.0.6 ping statistics ---
16 packets transmitted, 16 received, 0% packet loss, time 76792ms
rtt min/avg/max/mdev = 0.383/0.652/1.099/0.177 ms
4/1.620/0.344 ms
