PING 10.0.0.11 (10.0.0.11) 56(84) bytes of data.
64 bytes from 10.0.0.11: icmp_seq=1 ttl=64 time=1.17 64 64 bytes from 10.0.0.11: icmp_seq=2 ttl=64 time=0.99764 bytes from 10.0.0.7: icmp_seq=3 ttl=64 time=0.655 ms
64 bytes from 10.0.0.7: icmp_seq=4 ttl=64 time=0.680 ms
64 bytes from 10.0.0.7: icmp_seq=5 ttl=64 time=0.723 ms
64 bytes from 10.0.0.7: icmp_seq=6 ttl=64 time=0.952 ms
64 bytes from 10.0.0.7: icmp_seq=7 ttl=64 time=0.460 ms
64 bytes from 10.0.0.7: icmp_seq=8 ttl=64 time=0.414 ms
64 bytes from 10.0.0.7: icmp_seq=9 ttl=64 time=0.918 ms
64 bytes from 10.0.0.7: icmp_seq=10 ttl=64 time=0.648 ms
64 bytes from 10.0.0.7: icmp_seq=11 ttl=64 time=0.454 ms664 bytes from 10.0.0.7: icmp_seq=12 ttl=64 time=0.560 ms664 bytes from 10.0.0.7: icmp_seq=13 ttl=64 time=0.424 ms664 bytes from 10.0.0.7: icmp_seq=14 ttl=64 time=6.74 ms
64 bytes from 10.0.0.7: icmp_seq=15 ttl=64 time=0.544 ms
64 bytes from 10.0.0.7: icmp_seq=16 ttl=64 time=1.23 ms

--- 10.0.0.7 ping statistics ---
16 packets transmitted, 16 received, 0% packet loss, time 76815ms
rtt min/avg/max/mdev = 0.414/1.069/6.747/1.489 ms

776/2.492/0.497 ms
