PING 10.0.0.7 (10.0.0.7) 56(84) bytes of data.
64 bytes from 10.0.0.7: icmp_seq=1 ttl=64 time=1.24 ms
64 bytes from 10.0.0.7: icmp_seq=2 ttl=64 time=0.660 ms
664 bytes from 10.0.0.6: icmp_seq=3 ttl=64 time=1.16 ms
64 byt64 bytes from 10.0.0.11: icmp_seq=4 ttl=64 time=0.64 bytes from 10.0.0.7: icmp_seq=5 ttl=64 time=0.557 ms
64 bytes from 10.0.0.7: icmp_seq=6 ttl=64 time=0.699 ms
64 bytes from 10.0.0.7: icmp_seq=7 ttl=64 time=0.657 ms
64 bytes from 10.0.0.7: icmp_seq=8 ttl=64 time=0.714 ms
64 bytes from 10.0.0.6: icmp_seq=9 ttl=64 time=0.699 ms
64 bytes fro64 bytes from 10.0.0.11: icmp_seq=10 ttl=64 t64 bytes from 10.0.0.7: icmp_seq=11 ttl=64 time=0.721 ms
64 bytes from 10.0.0.6: icmp_seq=12 ttl=64 time=0.496 ms
64 bytes from 10.0.0.7: icmp_seq=13 ttl=64 time=0.925 ms
64 bytes from 10.0.0.6: icmp_seq=14 ttl=64 time=0.682 ms
64 bytes from 10.0.0.6: icmp_seq=15 ttl=64 time=0.827 ms
64 bytes from 10.0.0.7: icmp_seq=16 ttl=64 time=0.809 ms

--- 10.0.0.7 ping statistics ---
16 packets transmitted, 16 received, 0% packet loss, time 76672ms
rtt min/avg/max/mdev = 0.459/0.725/1.244/0.183 ms
668/1.855/0.338 ms
