,Total number of clients,64,256,512,1024
0,24,1.5311666666666666,1.5389166666666667,1.5521666666666667,1.5401666666666665
1,48,2.311416666666667,2.3269166666666665,2.3156666666666665,2.3522499999999997
2,96,3.5072500000000004,3.5102499999999996,3.5421666666666667,3.5716666666666668
3,192,5.951583333333333,6.011416666666666,6.017,6.076416666666668
