,Total number of clients,1024,512,256,64
0,24,15.552817796610169,15.600233050847457,15.14437711864407,15.688313559322035
1,48,21.204978813559322,21.483665254237287,21.74192372881356,21.677114406779662
2,96,26.7371186440678,27.104406779661016,26.999474576271187,26.97678813559322
3,192,27.61956355932203,27.74421610169491,27.96007627118644,27.96652966101695
