------------Middleware started!------------
LOG: Waiting for connection in MyMiddleware.run()
LOG: Accepted client: /10.0.0.7:38590in MyMiddleware.run()
LOG: Accepted client: /10.0.0.7:38578in MyMiddleware.run()
LOG: Accepted client: /10.0.0.7:38592in MyMiddleware.run()
LOG: Accepted client: /10.0.0.7:38580in MyMiddleware.run()
LOG: Accepted client: /10.0.0.7:38582in MyMiddleware.run()
LOG: Accepted client: /10.0.0.7:38588in MyMiddleware.run()
LOG: Accepted client: /10.0.0.7:38584in MyMiddleware.run()
LOG: Accepted client: /10.0.0.7:38586in MyMiddleware.run()
LOG: Accepted client: /10.0.0.11:37874in MyMiddleware.run()
LOG: Accepted client: /10.0.0.11:37868in MyMiddleware.run()
LOG: Accepted client: /10.0.0.11:37872in MyMiddleware.run()
LOG: Accepted client: /10.0.0.11:37870in MyMiddleware.run()
LOG: Accepted client: /10.0.0.11:37862in MyMiddleware.run()
LOG: Accepted client: /10.0.0.11:37860in MyMiddleware.run()
LOG: Accepted client: /10.0.0.11:37866in MyMiddleware.run()
LOG: Accepted client: /10.0.0.11:37864in MyMiddleware.run()
LOG: Accepted client: /10.0.0.6:48814in MyMiddleware.run()
LOG: Accepted client: /10.0.0.6:48800in MyMiddleware.run()
LOG: Accepted client: /10.0.0.6:48802in MyMiddleware.run()
LOG: Accepted client: /10.0.0.6:48804in MyMiddleware.run()
LOG: Accepted client: /10.0.0.6:48806in MyMiddleware.run()
LOG: Accepted client: /10.0.0.6:48812in MyMiddleware.run()
LOG: Accepted client: /10.0.0.6:48808in MyMiddleware.run()
LOG: Accepted client: /10.0.0.6:48810in MyMiddleware.run()
LOG: Closed client: /10.0.0.7:38578in MyMiddleware.run()
LOG: Closed client: /10.0.0.7:38580in MyMiddleware.run()
LOG: Closed client: /10.0.0.7:38592in MyMiddleware.run()
LOG: Closed client: /10.0.0.7:38582in MyMiddleware.run()
LOG: Closed client: /10.0.0.7:38586in MyMiddleware.run()
LOG: Closed client: /10.0.0.7:38590in MyMiddleware.run()
LOG: Closed client: /10.0.0.7:38584in MyMiddleware.run()
LOG: Closed client: /10.0.0.7:38588in MyMiddleware.run()
LOG: Closed client: /10.0.0.11:37864in MyMiddleware.run()
LOG: Closed client: /10.0.0.11:37860in MyMiddleware.run()
LOG: Closed client: /10.0.0.11:37862in MyMiddleware.run()
LOG: Closed client: /10.0.0.11:37870in MyMiddleware.run()
LOG: Closed client: /10.0.0.11:37872in MyMiddleware.run()
LOG: Closed client: /10.0.0.11:37866in MyMiddleware.run()
LOG: Closed client: /10.0.0.11:37868in MyMiddleware.run()
LOG: Closed client: /10.0.0.11:37874in MyMiddleware.run()
LOG: Closed client: /10.0.0.6:48804in MyMiddleware.run()
LOG: Closed client: /10.0.0.6:48810in MyMiddleware.run()
LOG: Closed client: /10.0.0.6:48812in MyMiddleware.run()
LOG: Closed client: /10.0.0.6:48814in MyMiddleware.run()
LOG: Closed client: /10.0.0.6:48806in MyMiddleware.run()
LOG: Closed client: /10.0.0.6:48802in MyMiddleware.run()
LOG: Closed client: /10.0.0.6:48800in MyMiddleware.run()
LOG: Closed client: /10.0.0.6:48808in MyMiddleware.run()
