------------Middleware started!------------
LOG: Waiting for connection in MyMiddleware.run()
LOG: Accepted client: /10.0.0.6:43142in MyMiddleware.run()
LOG: Accepted client: /10.0.0.11:60416in MyMiddleware.run()
LOG: Accepted client: /10.0.0.11:60404in MyMiddleware.run()
LOG: Accepted client: /10.0.0.6:43108in MyMiddleware.run()
LOG: Accepted client: /10.0.0.11:60412in MyMiddleware.run()
LOG: Accepted client: /10.0.0.11:60456in MyMiddleware.run()
LOG: Accepted client: /10.0.0.11:60442in MyMiddleware.run()
LOG: Accepted client: /10.0.0.6:43140in MyMiddleware.run()
LOG: Accepted client: /10.0.0.11:60508in MyMiddleware.run()
LOG: Accepted client: /10.0.0.11:60460in MyMiddleware.run()
LOG: Accepted client: /10.0.0.11:60396in MyMiddleware.run()
LOG: Accepted client: /10.0.0.11:60484in MyMiddleware.run()
LOG: Accepted client: /10.0.0.11:60432in MyMiddleware.run()
LOG: Accepted client: /10.0.0.11:60504in MyMiddleware.run()
LOG: Accepted client: /10.0.0.11:60420in MyMiddleware.run()
LOG: Accepted client: /10.0.0.6:43166in MyMiddleware.run()
LOG: Accepted client: /10.0.0.6:43136in MyMiddleware.run()
LOG: Accepted client: /10.0.0.7:32920in MyMiddleware.run()
LOG: Accepted client: /10.0.0.11:60398in MyMiddleware.run()
LOG: Accepted client: /10.0.0.6:43134in MyMiddleware.run()
LOG: Accepted client: /10.0.0.11:60518in MyMiddleware.run()
LOG: Accepted client: /10.0.0.11:60414in MyMiddleware.run()
LOG: Accepted client: /10.0.0.7:32984in MyMiddleware.run()
LOG: Accepted client: /10.0.0.11:60472in MyMiddleware.run()
LOG: Accepted client: /10.0.0.11:60400in MyMiddleware.run()
LOG: Accepted client: /10.0.0.6:43192in MyMiddleware.run()
LOG: Accepted client: /10.0.0.11:60434in MyMiddleware.run()
LOG: Accepted client: /10.0.0.7:32938in MyMiddleware.run()
LOG: Accepted client: /10.0.0.11:60488in MyMiddleware.run()
LOG: Accepted client: /10.0.0.7:32936in MyMiddleware.run()
LOG: Accepted client: /10.0.0.11:60480in MyMiddleware.run()
LOG: Accepted client: /10.0.0.11:60466in MyMiddleware.run()
LOG: Accepted client: /10.0.0.6:43132in MyMiddleware.run()
LOG: Accepted client: /10.0.0.6:43160in MyMiddleware.run()
LOG: Accepted client: /10.0.0.6:43144in MyMiddleware.run()
LOG: Accepted client: /10.0.0.11:60520in MyMiddleware.run()
LOG: Accepted client: /10.0.0.6:43178in MyMiddleware.run()
LOG: Accepted client: /10.0.0.6:43176in MyMiddleware.run()
LOG: Accepted client: /10.0.0.7:33004in MyMiddleware.run()
LOG: Accepted client: /10.0.0.6:43112in MyMiddleware.run()
LOG: Accepted client: /10.0.0.6:43180in MyMiddleware.run()
LOG: Accepted client: /10.0.0.6:43156in MyMiddleware.run()
LOG: Accepted client: /10.0.0.6:43152in MyMiddleware.run()
LOG: Accepted client: /10.0.0.6:43120in MyMiddleware.run()
LOG: Accepted client: /10.0.0.7:32912in MyMiddleware.run()
LOG: Accepted client: /10.0.0.6:43188in MyMiddleware.run()
LOG: Accepted client: /10.0.0.11:60446in MyMiddleware.run()
LOG: Accepted client: /10.0.0.7:32964in MyMiddleware.run()
LOG: Accepted client: /10.0.0.7:33006in MyMiddleware.run()
LOG: Accepted client: /10.0.0.6:43158in MyMiddleware.run()
LOG: Accepted client: /10.0.0.11:60418in MyMiddleware.run()
LOG: Accepted client: /10.0.0.7:32960in MyMiddleware.run()
LOG: Accepted client: /10.0.0.6:43200in MyMiddleware.run()
LOG: Accepted client: /10.0.0.7:32922in MyMiddleware.run()
LOG: Accepted client: /10.0.0.7:32950in MyMiddleware.run()
LOG: Accepted client: /10.0.0.6:43164in MyMiddleware.run()
LOG: Accepted client: /10.0.0.7:32940in MyMiddleware.run()
LOG: Accepted client: /10.0.0.11:60464in MyMiddleware.run()
LOG: Accepted client: /10.0.0.6:43124in MyMiddleware.run()
LOG: Accepted client: /10.0.0.7:32896in MyMiddleware.run()
LOG: Accepted client: /10.0.0.7:32886in MyMiddleware.run()
LOG: Accepted client: /10.0.0.6:43224in MyMiddleware.run()
LOG: Accepted client: /10.0.0.6:43208in MyMiddleware.run()
LOG: Accepted client: /10.0.0.6:43212in MyMiddleware.run()
LOG: Accepted client: /10.0.0.11:60454in MyMiddleware.run()
LOG: Accepted client: /10.0.0.7:32934in MyMiddleware.run()
LOG: Accepted client: /10.0.0.7:32976in MyMiddleware.run()
LOG: Accepted client: /10.0.0.7:32980in MyMiddleware.run()
LOG: Accepted client: /10.0.0.7:32954in MyMiddleware.run()
LOG: Accepted client: /10.0.0.7:32968in MyMiddleware.run()
LOG: Accepted client: /10.0.0.7:32978in MyMiddleware.run()
LOG: Accepted client: /10.0.0.7:32956in MyMiddleware.run()
LOG: Accepted client: /10.0.0.7:32906in MyMiddleware.run()
LOG: Accepted client: /10.0.0.7:32952in MyMiddleware.run()
LOG: Accepted client: /10.0.0.7:32974in MyMiddleware.run()
LOG: Accepted client: /10.0.0.7:33008in MyMiddleware.run()
LOG: Accepted client: /10.0.0.7:32990in MyMiddleware.run()
LOG: Accepted client: /10.0.0.7:33000in MyMiddleware.run()
LOG: Accepted client: /10.0.0.7:33002in MyMiddleware.run()
LOG: Accepted client: /10.0.0.6:43194in MyMiddleware.run()
LOG: Accepted client: /10.0.0.6:43204in MyMiddleware.run()
LOG: Accepted client: /10.0.0.6:43174in MyMiddleware.run()
LOG: Accepted client: /10.0.0.6:43184in MyMiddleware.run()
LOG: Accepted client: /10.0.0.6:43148in MyMiddleware.run()
LOG: Accepted client: /10.0.0.6:43126in MyMiddleware.run()
LOG: Accepted client: /10.0.0.6:43110in MyMiddleware.run()
LOG: Accepted client: /10.0.0.6:43186in MyMiddleware.run()
LOG: Accepted client: /10.0.0.6:43154in MyMiddleware.run()
LOG: Accepted client: /10.0.0.6:43198in MyMiddleware.run()
LOG: Accepted client: /10.0.0.6:43150in MyMiddleware.run()
LOG: Accepted client: /10.0.0.6:43128in MyMiddleware.run()
LOG: Accepted client: /10.0.0.6:43170in MyMiddleware.run()
LOG: Accepted client: /10.0.0.6:43122in MyMiddleware.run()
LOG: Accepted client: /10.0.0.6:43130in MyMiddleware.run()
LOG: Accepted client: /10.0.0.6:43168in MyMiddleware.run()
LOG: Accepted client: /10.0.0.6:43196in MyMiddleware.run()
LOG: Accepted client: /10.0.0.6:43162in MyMiddleware.run()
LOG: Accepted client: /10.0.0.6:43202in MyMiddleware.run()
LOG: Accepted client: /10.0.0.6:43190in MyMiddleware.run()
LOG: Accepted client: /10.0.0.11:60512in MyMiddleware.run()
LOG: Accepted client: /10.0.0.11:60514in MyMiddleware.run()
LOG: Accepted client: /10.0.0.11:60406in MyMiddleware.run()
LOG: Accepted client: /10.0.0.11:60496in MyMiddleware.run()
LOG: Accepted client: /10.0.0.11:60498in MyMiddleware.run()
LOG: Accepted client: /10.0.0.11:60474in MyMiddleware.run()
LOG: Accepted client: /10.0.0.11:60422in MyMiddleware.run()
LOG: Accepted client: /10.0.0.11:60522in MyMiddleware.run()
LOG: Accepted client: /10.0.0.7:32946in MyMiddleware.run()
LOG: Accepted client: /10.0.0.7:32966in MyMiddleware.run()
LOG: Accepted client: /10.0.0.11:60468in MyMiddleware.run()
LOG: Accepted client: /10.0.0.11:60410in MyMiddleware.run()
LOG: Accepted client: /10.0.0.11:60426in MyMiddleware.run()
LOG: Accepted client: /10.0.0.11:60438in MyMiddleware.run()
LOG: Accepted client: /10.0.0.11:60486in MyMiddleware.run()
LOG: Accepted client: /10.0.0.11:60436in MyMiddleware.run()
LOG: Accepted client: /10.0.0.11:60440in MyMiddleware.run()
LOG: Accepted client: /10.0.0.11:60452in MyMiddleware.run()
LOG: Accepted client: /10.0.0.11:60492in MyMiddleware.run()
LOG: Accepted client: /10.0.0.11:60470in MyMiddleware.run()
LOG: Accepted client: /10.0.0.7:32928in MyMiddleware.run()
LOG: Accepted client: /10.0.0.7:32902in MyMiddleware.run()
LOG: Accepted client: /10.0.0.7:32924in MyMiddleware.run()
LOG: Accepted client: /10.0.0.7:32932in MyMiddleware.run()
LOG: Accepted client: /10.0.0.11:60516in MyMiddleware.run()
LOG: Accepted client: /10.0.0.11:60490in MyMiddleware.run()
LOG: Accepted client: /10.0.0.7:32972in MyMiddleware.run()
LOG: Accepted client: /10.0.0.6:43146in MyMiddleware.run()
LOG: Accepted client: /10.0.0.6:43106in MyMiddleware.run()
LOG: Accepted client: /10.0.0.6:43172in MyMiddleware.run()
LOG: Accepted client: /10.0.0.6:43104in MyMiddleware.run()
LOG: Accepted client: /10.0.0.6:43116in MyMiddleware.run()
LOG: Accepted client: /10.0.0.6:43118in MyMiddleware.run()
LOG: Accepted client: /10.0.0.7:32894in MyMiddleware.run()
LOG: Accepted client: /10.0.0.7:32892in MyMiddleware.run()
LOG: Accepted client: /10.0.0.7:32926in MyMiddleware.run()
LOG: Accepted client: /10.0.0.7:32888in MyMiddleware.run()
LOG: Accepted client: /10.0.0.11:60476in MyMiddleware.run()
LOG: Accepted client: /10.0.0.11:60482in MyMiddleware.run()
LOG: Accepted client: /10.0.0.11:60430in MyMiddleware.run()
LOG: Accepted client: /10.0.0.11:60502in MyMiddleware.run()
LOG: Accepted client: /10.0.0.11:60402in MyMiddleware.run()
LOG: Accepted client: /10.0.0.11:60428in MyMiddleware.run()
LOG: Accepted client: /10.0.0.11:60448in MyMiddleware.run()
LOG: Accepted client: /10.0.0.7:32900in MyMiddleware.run()
LOG: Accepted client: /10.0.0.11:60424in MyMiddleware.run()
LOG: Accepted client: /10.0.0.7:32996in MyMiddleware.run()
LOG: Accepted client: /10.0.0.7:32992in MyMiddleware.run()
LOG: Accepted client: /10.0.0.7:32994in MyMiddleware.run()
LOG: Accepted client: /10.0.0.7:32988in MyMiddleware.run()
LOG: Accepted client: /10.0.0.11:60478in MyMiddleware.run()
LOG: Accepted client: /10.0.0.11:60500in MyMiddleware.run()
LOG: Accepted client: /10.0.0.7:32904in MyMiddleware.run()
LOG: Accepted client: /10.0.0.7:32884in MyMiddleware.run()
LOG: Accepted client: /10.0.0.7:32916in MyMiddleware.run()
LOG: Accepted client: /10.0.0.7:32908in MyMiddleware.run()
LOG: Accepted client: /10.0.0.7:32918in MyMiddleware.run()
LOG: Accepted client: /10.0.0.7:32944in MyMiddleware.run()
LOG: Accepted client: /10.0.0.7:32962in MyMiddleware.run()
LOG: Accepted client: /10.0.0.7:32948in MyMiddleware.run()
LOG: Accepted client: /10.0.0.11:60444in MyMiddleware.run()
LOG: Accepted client: /10.0.0.7:32882in MyMiddleware.run()
LOG: Accepted client: /10.0.0.11:60506in MyMiddleware.run()
LOG: Accepted client: /10.0.0.11:60462in MyMiddleware.run()
LOG: Accepted client: /10.0.0.11:60408in MyMiddleware.run()
LOG: Accepted client: /10.0.0.11:60450in MyMiddleware.run()
LOG: Accepted client: /10.0.0.11:60494in MyMiddleware.run()
LOG: Accepted client: /10.0.0.6:43206in MyMiddleware.run()
LOG: Accepted client: /10.0.0.6:43222in MyMiddleware.run()
LOG: Accepted client: /10.0.0.6:43210in MyMiddleware.run()
LOG: Accepted client: /10.0.0.6:43220in MyMiddleware.run()
LOG: Accepted client: /10.0.0.6:43138in MyMiddleware.run()
LOG: Accepted client: /10.0.0.6:43114in MyMiddleware.run()
LOG: Accepted client: /10.0.0.6:43226in MyMiddleware.run()
LOG: Accepted client: /10.0.0.6:43182in MyMiddleware.run()
LOG: Accepted client: /10.0.0.6:43214in MyMiddleware.run()
LOG: Accepted client: /10.0.0.6:43216in MyMiddleware.run()
LOG: Accepted client: /10.0.0.6:43218in MyMiddleware.run()
LOG: Accepted client: /10.0.0.6:43230in MyMiddleware.run()
LOG: Accepted client: /10.0.0.6:43228in MyMiddleware.run()
LOG: Accepted client: /10.0.0.7:32958in MyMiddleware.run()
LOG: Accepted client: /10.0.0.7:32986in MyMiddleware.run()
LOG: Accepted client: /10.0.0.7:32898in MyMiddleware.run()
LOG: Accepted client: /10.0.0.7:32998in MyMiddleware.run()
LOG: Accepted client: /10.0.0.7:32942in MyMiddleware.run()
LOG: Accepted client: /10.0.0.7:32914in MyMiddleware.run()
LOG: Accepted client: /10.0.0.7:32890in MyMiddleware.run()
LOG: Accepted client: /10.0.0.7:32970in MyMiddleware.run()
LOG: Accepted client: /10.0.0.7:32982in MyMiddleware.run()
LOG: Accepted client: /10.0.0.7:32930in MyMiddleware.run()
LOG: Accepted client: /10.0.0.7:32910in MyMiddleware.run()
LOG: Accepted client: /10.0.0.11:60510in MyMiddleware.run()
LOG: Accepted client: /10.0.0.11:60458in MyMiddleware.run()
LOG: Closed client: /10.0.0.6:43112in MyMiddleware.run()
LOG: Closed client: /10.0.0.6:43146in MyMiddleware.run()
LOG: Closed client: /10.0.0.6:43104in MyMiddleware.run()
LOG: Closed client: /10.0.0.6:43126in MyMiddleware.run()
LOG: Closed client: /10.0.0.6:43108in MyMiddleware.run()
LOG: Closed client: /10.0.0.6:43138in MyMiddleware.run()
LOG: Closed client: /10.0.0.6:43110in MyMiddleware.run()
LOG: Closed client: /10.0.0.6:43144in MyMiddleware.run()
LOG: Closed client: /10.0.0.6:43174in MyMiddleware.run()
LOG: Closed client: /10.0.0.6:43156in MyMiddleware.run()
LOG: Closed client: /10.0.0.6:43152in MyMiddleware.run()
LOG: Closed client: /10.0.0.6:43128in MyMiddleware.run()
LOG: Closed client: /10.0.0.6:43196in MyMiddleware.run()
LOG: Closed client: /10.0.0.6:43164in MyMiddleware.run()
LOG: Closed client: /10.0.0.6:43192in MyMiddleware.run()
LOG: Closed client: /10.0.0.6:43114in MyMiddleware.run()
LOG: Closed client: /10.0.0.6:43188in MyMiddleware.run()
LOG: Closed client: /10.0.0.6:43172in MyMiddleware.run()
LOG: Closed client: /10.0.0.6:43142in MyMiddleware.run()
LOG: Closed client: /10.0.0.6:43116in MyMiddleware.run()
LOG: Closed client: /10.0.0.6:43194in MyMiddleware.run()
LOG: Closed client: /10.0.0.6:43136in MyMiddleware.run()
LOG: Closed client: /10.0.0.6:43132in MyMiddleware.run()
LOG: Closed client: /10.0.0.6:43122in MyMiddleware.run()
LOG: Closed client: /10.0.0.6:43124in MyMiddleware.run()
LOG: Closed client: /10.0.0.6:43148in MyMiddleware.run()
LOG: Closed client: /10.0.0.6:43120in MyMiddleware.run()
LOG: Closed client: /10.0.0.6:43166in MyMiddleware.run()
LOG: Closed client: /10.0.0.6:43154in MyMiddleware.run()
LOG: Closed client: /10.0.0.6:43150in MyMiddleware.run()
LOG: Closed client: /10.0.0.6:43134in MyMiddleware.run()
LOG: Closed client: /10.0.0.6:43106in MyMiddleware.run()
LOG: Closed client: /10.0.0.6:43118in MyMiddleware.run()
LOG: Closed client: /10.0.0.6:43160in MyMiddleware.run()
LOG: Closed client: /10.0.0.6:43198in MyMiddleware.run()
LOG: Closed client: /10.0.0.6:43186in MyMiddleware.run()
LOG: Closed client: /10.0.0.6:43176in MyMiddleware.run()
LOG: Closed client: /10.0.0.6:43168in MyMiddleware.run()
LOG: Closed client: /10.0.0.6:43162in MyMiddleware.run()
LOG: Closed client: /10.0.0.6:43158in MyMiddleware.run()
LOG: Closed client: /10.0.0.6:43130in MyMiddleware.run()
LOG: Closed client: /10.0.0.6:43180in MyMiddleware.run()
LOG: Closed client: /10.0.0.6:43140in MyMiddleware.run()
LOG: Closed client: /10.0.0.6:43184in MyMiddleware.run()
LOG: Closed client: /10.0.0.6:43170in MyMiddleware.run()
LOG: Closed client: /10.0.0.6:43202in MyMiddleware.run()
LOG: Closed client: /10.0.0.6:43200in MyMiddleware.run()
LOG: Closed client: /10.0.0.6:43190in MyMiddleware.run()
LOG: Closed client: /10.0.0.6:43178in MyMiddleware.run()
LOG: Closed client: /10.0.0.6:43228in MyMiddleware.run()
LOG: Closed client: /10.0.0.6:43224in MyMiddleware.run()
LOG: Closed client: /10.0.0.6:43222in MyMiddleware.run()
LOG: Closed client: /10.0.0.6:43216in MyMiddleware.run()
LOG: Closed client: /10.0.0.6:43182in MyMiddleware.run()
LOG: Closed client: /10.0.0.6:43230in MyMiddleware.run()
LOG: Closed client: /10.0.0.6:43226in MyMiddleware.run()
LOG: Closed client: /10.0.0.6:43208in MyMiddleware.run()
LOG: Closed client: /10.0.0.6:43204in MyMiddleware.run()
LOG: Closed client: /10.0.0.6:43220in MyMiddleware.run()
LOG: Closed client: /10.0.0.6:43206in MyMiddleware.run()
LOG: Closed client: /10.0.0.6:43210in MyMiddleware.run()
LOG: Closed client: /10.0.0.6:43214in MyMiddleware.run()
LOG: Closed client: /10.0.0.6:43212in MyMiddleware.run()
LOG: Closed client: /10.0.0.6:43218in MyMiddleware.run()
LOG: Closed client: /10.0.0.11:60464in MyMiddleware.run()
LOG: Closed client: /10.0.0.11:60404in MyMiddleware.run()
LOG: Closed client: /10.0.0.11:60440in MyMiddleware.run()
LOG: Closed client: /10.0.0.11:60470in MyMiddleware.run()
LOG: Closed client: /10.0.0.11:60410in MyMiddleware.run()
LOG: Closed client: /10.0.0.11:60402in MyMiddleware.run()
LOG: Closed client: /10.0.0.11:60482in MyMiddleware.run()
LOG: Closed client: /10.0.0.11:60422in MyMiddleware.run()
LOG: Closed client: /10.0.0.11:60444in MyMiddleware.run()
LOG: Closed client: /10.0.0.11:60430in MyMiddleware.run()
LOG: Closed client: /10.0.0.11:60450in MyMiddleware.run()
LOG: Closed client: /10.0.0.11:60462in MyMiddleware.run()
LOG: Closed client: /10.0.0.11:60428in MyMiddleware.run()
LOG: Closed client: /10.0.0.11:60436in MyMiddleware.run()
LOG: Closed client: /10.0.0.11:60468in MyMiddleware.run()
LOG: Closed client: /10.0.0.11:60474in MyMiddleware.run()
LOG: Closed client: /10.0.0.11:60396in MyMiddleware.run()
LOG: Closed client: /10.0.0.11:60478in MyMiddleware.run()
LOG: Closed client: /10.0.0.11:60426in MyMiddleware.run()
LOG: Closed client: /10.0.0.11:60398in MyMiddleware.run()
LOG: Closed client: /10.0.0.11:60454in MyMiddleware.run()
LOG: Closed client: /10.0.0.11:60476in MyMiddleware.run()
LOG: Closed client: /10.0.0.11:60416in MyMiddleware.run()
LOG: Closed client: /10.0.0.11:60486in MyMiddleware.run()
LOG: Closed client: /10.0.0.11:60448in MyMiddleware.run()
LOG: Closed client: /10.0.0.11:60406in MyMiddleware.run()
LOG: Closed client: /10.0.0.11:60418in MyMiddleware.run()
LOG: Closed client: /10.0.0.11:60460in MyMiddleware.run()
LOG: Closed client: /10.0.0.11:60506in MyMiddleware.run()
LOG: Closed client: /10.0.0.11:60516in MyMiddleware.run()
LOG: Closed client: /10.0.0.11:60496in MyMiddleware.run()
LOG: Closed client: /10.0.0.11:60494in MyMiddleware.run()
LOG: Closed client: /10.0.0.11:60446in MyMiddleware.run()
LOG: Closed client: /10.0.0.11:60514in MyMiddleware.run()
LOG: Closed client: /10.0.0.11:60420in MyMiddleware.run()
LOG: Closed client: /10.0.0.11:60484in MyMiddleware.run()
LOG: Closed client: /10.0.0.11:60510in MyMiddleware.run()
LOG: Closed client: /10.0.0.11:60456in MyMiddleware.run()
LOG: Closed client: /10.0.0.11:60522in MyMiddleware.run()
LOG: Closed client: /10.0.0.11:60424in MyMiddleware.run()
LOG: Closed client: /10.0.0.11:60414in MyMiddleware.run()
LOG: Closed client: /10.0.0.11:60432in MyMiddleware.run()
LOG: Closed client: /10.0.0.11:60490in MyMiddleware.run()
LOG: Closed client: /10.0.0.11:60434in MyMiddleware.run()
LOG: Closed client: /10.0.0.11:60492in MyMiddleware.run()
LOG: Closed client: /10.0.0.11:60498in MyMiddleware.run()
LOG: Closed client: /10.0.0.11:60480in MyMiddleware.run()
LOG: Closed client: /10.0.0.11:60442in MyMiddleware.run()
LOG: Closed client: /10.0.0.11:60502in MyMiddleware.run()
LOG: Closed client: /10.0.0.11:60508in MyMiddleware.run()
LOG: Closed client: /10.0.0.11:60408in MyMiddleware.run()
LOG: Closed client: /10.0.0.11:60504in MyMiddleware.run()
LOG: Closed client: /10.0.0.11:60452in MyMiddleware.run()
LOG: Closed client: /10.0.0.11:60472in MyMiddleware.run()
LOG: Closed client: /10.0.0.11:60520in MyMiddleware.run()
LOG: Closed client: /10.0.0.11:60438in MyMiddleware.run()
LOG: Closed client: /10.0.0.11:60518in MyMiddleware.run()
LOG: Closed client: /10.0.0.11:60466in MyMiddleware.run()
LOG: Closed client: /10.0.0.11:60400in MyMiddleware.run()
LOG: Closed client: /10.0.0.11:60488in MyMiddleware.run()
LOG: Closed client: /10.0.0.11:60500in MyMiddleware.run()
LOG: Closed client: /10.0.0.11:60512in MyMiddleware.run()
LOG: Closed client: /10.0.0.11:60458in MyMiddleware.run()
LOG: Closed client: /10.0.0.11:60412in MyMiddleware.run()
LOG: Closed client: /10.0.0.7:32900in MyMiddleware.run()
LOG: Closed client: /10.0.0.7:32902in MyMiddleware.run()
LOG: Closed client: /10.0.0.7:32882in MyMiddleware.run()
LOG: Closed client: /10.0.0.7:32918in MyMiddleware.run()
LOG: Closed client: /10.0.0.7:32916in MyMiddleware.run()
LOG: Closed client: /10.0.0.7:32892in MyMiddleware.run()
LOG: Closed client: /10.0.0.7:32904in MyMiddleware.run()
LOG: Closed client: /10.0.0.7:32888in MyMiddleware.run()
LOG: Closed client: /10.0.0.7:32938in MyMiddleware.run()
LOG: Closed client: /10.0.0.7:32936in MyMiddleware.run()
LOG: Closed client: /10.0.0.7:32928in MyMiddleware.run()
LOG: Closed client: /10.0.0.7:32920in MyMiddleware.run()
LOG: Closed client: /10.0.0.7:32908in MyMiddleware.run()
LOG: Closed client: /10.0.0.7:32942in MyMiddleware.run()
LOG: Closed client: /10.0.0.7:32934in MyMiddleware.run()
LOG: Closed client: /10.0.0.7:32898in MyMiddleware.run()
LOG: Closed client: /10.0.0.7:32896in MyMiddleware.run()
LOG: Closed client: /10.0.0.7:32932in MyMiddleware.run()
LOG: Closed client: /10.0.0.7:32910in MyMiddleware.run()
LOG: Closed client: /10.0.0.7:32940in MyMiddleware.run()
LOG: Closed client: /10.0.0.7:32886in MyMiddleware.run()
LOG: Closed client: /10.0.0.7:32926in MyMiddleware.run()
LOG: Closed client: /10.0.0.7:32922in MyMiddleware.run()
LOG: Closed client: /10.0.0.7:32930in MyMiddleware.run()
LOG: Closed client: /10.0.0.7:32906in MyMiddleware.run()
LOG: Closed client: /10.0.0.7:32884in MyMiddleware.run()
LOG: Closed client: /10.0.0.7:32924in MyMiddleware.run()
LOG: Closed client: /10.0.0.7:32890in MyMiddleware.run()
LOG: Closed client: /10.0.0.7:32912in MyMiddleware.run()
LOG: Closed client: /10.0.0.7:32894in MyMiddleware.run()
LOG: Closed client: /10.0.0.7:32914in MyMiddleware.run()
LOG: Closed client: /10.0.0.7:32978in MyMiddleware.run()
LOG: Closed client: /10.0.0.7:32984in MyMiddleware.run()
LOG: Closed client: /10.0.0.7:32990in MyMiddleware.run()
LOG: Closed client: /10.0.0.7:32988in MyMiddleware.run()
LOG: Closed client: /10.0.0.7:32946in MyMiddleware.run()
LOG: Closed client: /10.0.0.7:32966in MyMiddleware.run()
LOG: Closed client: /10.0.0.7:32962in MyMiddleware.run()
LOG: Closed client: /10.0.0.7:32944in MyMiddleware.run()
LOG: Closed client: /10.0.0.7:32986in MyMiddleware.run()
LOG: Closed client: /10.0.0.7:32980in MyMiddleware.run()
LOG: Closed client: /10.0.0.7:32970in MyMiddleware.run()
LOG: Closed client: /10.0.0.7:32972in MyMiddleware.run()
LOG: Closed client: /10.0.0.7:32976in MyMiddleware.run()
LOG: Closed client: /10.0.0.7:32964in MyMiddleware.run()
LOG: Closed client: /10.0.0.7:32956in MyMiddleware.run()
LOG: Closed client: /10.0.0.7:32958in MyMiddleware.run()
LOG: Closed client: /10.0.0.7:32974in MyMiddleware.run()
LOG: Closed client: /10.0.0.7:32960in MyMiddleware.run()
LOG: Closed client: /10.0.0.7:32948in MyMiddleware.run()
LOG: Closed client: /10.0.0.7:32982in MyMiddleware.run()
LOG: Closed client: /10.0.0.7:32952in MyMiddleware.run()
LOG: Closed client: /10.0.0.7:32968in MyMiddleware.run()
LOG: Closed client: /10.0.0.7:32954in MyMiddleware.run()
LOG: Closed client: /10.0.0.7:32950in MyMiddleware.run()
LOG: Closed client: /10.0.0.7:33000in MyMiddleware.run()
LOG: Closed client: /10.0.0.7:33002in MyMiddleware.run()
LOG: Closed client: /10.0.0.7:32994in MyMiddleware.run()
LOG: Closed client: /10.0.0.7:32996in MyMiddleware.run()
LOG: Closed client: /10.0.0.7:32992in MyMiddleware.run()
LOG: Closed client: /10.0.0.7:33006in MyMiddleware.run()
LOG: Closed client: /10.0.0.7:33004in MyMiddleware.run()
LOG: Closed client: /10.0.0.7:33008in MyMiddleware.run()
LOG: Closed client: /10.0.0.7:32998in MyMiddleware.run()
