------------Middleware started!------------
LOG: Waiting for connection in MyMiddleware.run()
LOG: Accepted client: /10.0.0.6:37416in MyMiddleware.run()
LOG: Accepted client: /10.0.0.6:37422in MyMiddleware.run()
LOG: Accepted client: /10.0.0.6:37438in MyMiddleware.run()
LOG: Accepted client: /10.0.0.6:37436in MyMiddleware.run()
LOG: Accepted client: /10.0.0.6:37410in MyMiddleware.run()
LOG: Accepted client: /10.0.0.6:37424in MyMiddleware.run()
LOG: Accepted client: /10.0.0.6:37414in MyMiddleware.run()
LOG: Accepted client: /10.0.0.6:37426in MyMiddleware.run()
LOG: Accepted client: /10.0.0.6:37432in MyMiddleware.run()
LOG: Accepted client: /10.0.0.6:37412in MyMiddleware.run()
LOG: Accepted client: /10.0.0.6:37434in MyMiddleware.run()
LOG: Accepted client: /10.0.0.6:37420in MyMiddleware.run()
LOG: Accepted client: /10.0.0.6:37430in MyMiddleware.run()
LOG: Accepted client: /10.0.0.6:37428in MyMiddleware.run()
LOG: Accepted client: /10.0.0.6:37440in MyMiddleware.run()
LOG: Accepted client: /10.0.0.6:37418in MyMiddleware.run()
LOG: Accepted client: /10.0.0.11:54736in MyMiddleware.run()
LOG: Accepted client: /10.0.0.11:54738in MyMiddleware.run()
LOG: Accepted client: /10.0.0.11:54742in MyMiddleware.run()
LOG: Accepted client: /10.0.0.11:54720in MyMiddleware.run()
LOG: Accepted client: /10.0.0.11:54722in MyMiddleware.run()
LOG: Accepted client: /10.0.0.11:54740in MyMiddleware.run()
LOG: Accepted client: /10.0.0.11:54714in MyMiddleware.run()
LOG: Accepted client: /10.0.0.11:54734in MyMiddleware.run()
LOG: Accepted client: /10.0.0.11:54712in MyMiddleware.run()
LOG: Accepted client: /10.0.0.11:54718in MyMiddleware.run()
LOG: Accepted client: /10.0.0.11:54730in MyMiddleware.run()
LOG: Accepted client: /10.0.0.11:54728in MyMiddleware.run()
LOG: Accepted client: /10.0.0.11:54724in MyMiddleware.run()
LOG: Accepted client: /10.0.0.11:54732in MyMiddleware.run()
LOG: Accepted client: /10.0.0.11:54716in MyMiddleware.run()
LOG: Accepted client: /10.0.0.11:54726in MyMiddleware.run()
LOG: Accepted client: /10.0.0.7:55436in MyMiddleware.run()
LOG: Accepted client: /10.0.0.7:55424in MyMiddleware.run()
LOG: Accepted client: /10.0.0.7:55426in MyMiddleware.run()
LOG: Accepted client: /10.0.0.7:55438in MyMiddleware.run()
LOG: Accepted client: /10.0.0.7:55446in MyMiddleware.run()
LOG: Accepted client: /10.0.0.7:55422in MyMiddleware.run()
LOG: Accepted client: /10.0.0.7:55420in MyMiddleware.run()
LOG: Accepted client: /10.0.0.7:55444in MyMiddleware.run()
LOG: Accepted client: /10.0.0.7:55450in MyMiddleware.run()
LOG: Accepted client: /10.0.0.7:55448in MyMiddleware.run()
LOG: Accepted client: /10.0.0.7:55440in MyMiddleware.run()
LOG: Accepted client: /10.0.0.7:55442in MyMiddleware.run()
LOG: Accepted client: /10.0.0.7:55430in MyMiddleware.run()
LOG: Accepted client: /10.0.0.7:55428in MyMiddleware.run()
LOG: Accepted client: /10.0.0.7:55432in MyMiddleware.run()
LOG: Accepted client: /10.0.0.7:55434in MyMiddleware.run()
LOG: Closed client: /10.0.0.6:37414in MyMiddleware.run()
LOG: Closed client: /10.0.0.6:37432in MyMiddleware.run()
LOG: Closed client: /10.0.0.6:37434in MyMiddleware.run()
LOG: Closed client: /10.0.0.6:37420in MyMiddleware.run()
LOG: Closed client: /10.0.0.6:37412in MyMiddleware.run()
LOG: Closed client: /10.0.0.6:37436in MyMiddleware.run()
LOG: Closed client: /10.0.0.6:37438in MyMiddleware.run()
LOG: Closed client: /10.0.0.6:37422in MyMiddleware.run()
LOG: Closed client: /10.0.0.6:37418in MyMiddleware.run()
LOG: Closed client: /10.0.0.6:37440in MyMiddleware.run()
LOG: Closed client: /10.0.0.6:37430in MyMiddleware.run()
LOG: Closed client: /10.0.0.6:37424in MyMiddleware.run()
LOG: Closed client: /10.0.0.6:37426in MyMiddleware.run()
LOG: Closed client: /10.0.0.6:37410in MyMiddleware.run()
LOG: Closed client: /10.0.0.6:37416in MyMiddleware.run()
LOG: Closed client: /10.0.0.6:37428in MyMiddleware.run()
LOG: Closed client: /10.0.0.11:54726in MyMiddleware.run()
LOG: Closed client: /10.0.0.11:54732in MyMiddleware.run()
LOG: Closed client: /10.0.0.11:54724in MyMiddleware.run()
LOG: Closed client: /10.0.0.11:54734in MyMiddleware.run()
LOG: Closed client: /10.0.0.11:54716in MyMiddleware.run()
LOG: Closed client: /10.0.0.11:54714in MyMiddleware.run()
LOG: Closed client: /10.0.0.11:54720in MyMiddleware.run()
LOG: Closed client: /10.0.0.11:54736in MyMiddleware.run()
LOG: Closed client: /10.0.0.11:54742in MyMiddleware.run()
LOG: Closed client: /10.0.0.11:54722in MyMiddleware.run()
LOG: Closed client: /10.0.0.11:54728in MyMiddleware.run()
LOG: Closed client: /10.0.0.11:54730in MyMiddleware.run()
LOG: Closed client: /10.0.0.11:54740in MyMiddleware.run()
LOG: Closed client: /10.0.0.11:54738in MyMiddleware.run()
LOG: Closed client: /10.0.0.11:54718in MyMiddleware.run()
LOG: Closed client: /10.0.0.11:54712in MyMiddleware.run()
LOG: Closed client: /10.0.0.7:55438in MyMiddleware.run()
LOG: Closed client: /10.0.0.7:55428in MyMiddleware.run()
LOG: Closed client: /10.0.0.7:55426in MyMiddleware.run()
LOG: Closed client: /10.0.0.7:55424in MyMiddleware.run()
LOG: Closed client: /10.0.0.7:55432in MyMiddleware.run()
LOG: Closed client: /10.0.0.7:55422in MyMiddleware.run()
LOG: Closed client: /10.0.0.7:55434in MyMiddleware.run()
LOG: Closed client: /10.0.0.7:55420in MyMiddleware.run()
LOG: Closed client: /10.0.0.7:55450in MyMiddleware.run()
LOG: Closed client: /10.0.0.7:55444in MyMiddleware.run()
LOG: Closed client: /10.0.0.7:55442in MyMiddleware.run()
LOG: Closed client: /10.0.0.7:55436in MyMiddleware.run()
LOG: Closed client: /10.0.0.7:55446in MyMiddleware.run()
LOG: Closed client: /10.0.0.7:55448in MyMiddleware.run()
LOG: Closed client: /10.0.0.7:55440in MyMiddleware.run()
LOG: Closed client: /10.0.0.7:55430in MyMiddleware.run()
