------------Middleware started!------------
LOG: Waiting for connection in MyMiddleware.run()
LOG: Accepted client: /10.0.0.7:34354in MyMiddleware.run()
LOG: Accepted client: /10.0.0.7:34396in MyMiddleware.run()
LOG: Accepted client: /10.0.0.7:34398in MyMiddleware.run()
LOG: Accepted client: /10.0.0.7:34464in MyMiddleware.run()
LOG: Accepted client: /10.0.0.7:34404in MyMiddleware.run()
LOG: Accepted client: /10.0.0.7:34406in MyMiddleware.run()
LOG: Accepted client: /10.0.0.7:34462in MyMiddleware.run()
LOG: Accepted client: /10.0.0.7:34460in MyMiddleware.run()
LOG: Accepted client: /10.0.0.7:34392in MyMiddleware.run()
LOG: Accepted client: /10.0.0.7:34456in MyMiddleware.run()
LOG: Accepted client: /10.0.0.7:34400in MyMiddleware.run()
LOG: Accepted client: /10.0.0.7:34368in MyMiddleware.run()
LOG: Accepted client: /10.0.0.7:34374in MyMiddleware.run()
LOG: Accepted client: /10.0.0.7:34432in MyMiddleware.run()
LOG: Accepted client: /10.0.0.7:34394in MyMiddleware.run()
LOG: Accepted client: /10.0.0.7:34458in MyMiddleware.run()
LOG: Accepted client: /10.0.0.7:34468in MyMiddleware.run()
LOG: Accepted client: /10.0.0.7:34470in MyMiddleware.run()
LOG: Accepted client: /10.0.0.7:34466in MyMiddleware.run()
LOG: Accepted client: /10.0.0.7:34426in MyMiddleware.run()
LOG: Accepted client: /10.0.0.7:34402in MyMiddleware.run()
LOG: Accepted client: /10.0.0.7:34438in MyMiddleware.run()
LOG: Accepted client: /10.0.0.7:34436in MyMiddleware.run()
LOG: Accepted client: /10.0.0.7:34370in MyMiddleware.run()
LOG: Accepted client: /10.0.0.7:34428in MyMiddleware.run()
LOG: Accepted client: /10.0.0.7:34358in MyMiddleware.run()
LOG: Accepted client: /10.0.0.7:34430in MyMiddleware.run()
LOG: Accepted client: /10.0.0.7:34356in MyMiddleware.run()
LOG: Accepted client: /10.0.0.7:34372in MyMiddleware.run()
LOG: Accepted client: /10.0.0.7:34434in MyMiddleware.run()
LOG: Accepted client: /10.0.0.7:34424in MyMiddleware.run()
LOG: Accepted client: /10.0.0.11:33694in MyMiddleware.run()
LOG: Accepted client: /10.0.0.11:33660in MyMiddleware.run()
LOG: Accepted client: /10.0.0.11:33692in MyMiddleware.run()
LOG: Accepted client: /10.0.0.11:33670in MyMiddleware.run()
LOG: Accepted client: /10.0.0.11:33666in MyMiddleware.run()
LOG: Accepted client: /10.0.0.11:33664in MyMiddleware.run()
LOG: Accepted client: /10.0.0.11:33638in MyMiddleware.run()
LOG: Accepted client: /10.0.0.11:33700in MyMiddleware.run()
LOG: Accepted client: /10.0.0.11:33696in MyMiddleware.run()
LOG: Accepted client: /10.0.0.11:33658in MyMiddleware.run()
LOG: Accepted client: /10.0.0.7:34378in MyMiddleware.run()
LOG: Accepted client: /10.0.0.7:34382in MyMiddleware.run()
LOG: Accepted client: /10.0.0.7:34408in MyMiddleware.run()
LOG: Accepted client: /10.0.0.7:34388in MyMiddleware.run()
LOG: Accepted client: /10.0.0.7:34386in MyMiddleware.run()
LOG: Accepted client: /10.0.0.7:34362in MyMiddleware.run()
LOG: Accepted client: /10.0.0.7:34410in MyMiddleware.run()
LOG: Accepted client: /10.0.0.7:34412in MyMiddleware.run()
LOG: Accepted client: /10.0.0.7:34442in MyMiddleware.run()
LOG: Accepted client: /10.0.0.7:34454in MyMiddleware.run()
LOG: Accepted client: /10.0.0.7:34448in MyMiddleware.run()
LOG: Accepted client: /10.0.0.7:34420in MyMiddleware.run()
LOG: Accepted client: /10.0.0.7:34446in MyMiddleware.run()
LOG: Accepted client: /10.0.0.7:34444in MyMiddleware.run()
LOG: Accepted client: /10.0.0.7:34422in MyMiddleware.run()
LOG: Accepted client: /10.0.0.7:34416in MyMiddleware.run()
LOG: Accepted client: /10.0.0.7:34414in MyMiddleware.run()
LOG: Accepted client: /10.0.0.7:34390in MyMiddleware.run()
LOG: Accepted client: /10.0.0.7:34384in MyMiddleware.run()
LOG: Accepted client: /10.0.0.6:44568in MyMiddleware.run()
LOG: Accepted client: /10.0.0.7:34376in MyMiddleware.run()
LOG: Accepted client: /10.0.0.7:34364in MyMiddleware.run()
LOG: Accepted client: /10.0.0.7:34452in MyMiddleware.run()
LOG: Accepted client: /10.0.0.7:34450in MyMiddleware.run()
LOG: Accepted client: /10.0.0.7:34440in MyMiddleware.run()
LOG: Accepted client: /10.0.0.7:34360in MyMiddleware.run()
LOG: Accepted client: /10.0.0.7:34380in MyMiddleware.run()
LOG: Accepted client: /10.0.0.7:34366in MyMiddleware.run()
LOG: Accepted client: /10.0.0.6:44596in MyMiddleware.run()
LOG: Accepted client: /10.0.0.6:44608in MyMiddleware.run()
LOG: Accepted client: /10.0.0.7:34472in MyMiddleware.run()
LOG: Accepted client: /10.0.0.6:44614in MyMiddleware.run()
LOG: Accepted client: /10.0.0.6:44594in MyMiddleware.run()
LOG: Accepted client: /10.0.0.6:44590in MyMiddleware.run()
LOG: Accepted client: /10.0.0.7:34474in MyMiddleware.run()
LOG: Accepted client: /10.0.0.7:34418in MyMiddleware.run()
LOG: Accepted client: /10.0.0.7:34478in MyMiddleware.run()
LOG: Accepted client: /10.0.0.7:34480in MyMiddleware.run()
LOG: Accepted client: /10.0.0.6:44610in MyMiddleware.run()
LOG: Accepted client: /10.0.0.6:44598in MyMiddleware.run()
LOG: Accepted client: /10.0.0.6:44592in MyMiddleware.run()
LOG: Accepted client: /10.0.0.7:34476in MyMiddleware.run()
LOG: Accepted client: /10.0.0.6:44584in MyMiddleware.run()
LOG: Accepted client: /10.0.0.6:44588in MyMiddleware.run()
LOG: Accepted client: /10.0.0.6:44612in MyMiddleware.run()
LOG: Accepted client: /10.0.0.6:44586in MyMiddleware.run()
LOG: Accepted client: /10.0.0.11:33646in MyMiddleware.run()
LOG: Accepted client: /10.0.0.11:33650in MyMiddleware.run()
LOG: Accepted client: /10.0.0.11:33718in MyMiddleware.run()
LOG: Accepted client: /10.0.0.11:33686in MyMiddleware.run()
LOG: Accepted client: /10.0.0.11:33706in MyMiddleware.run()
LOG: Accepted client: /10.0.0.11:33684in MyMiddleware.run()
LOG: Accepted client: /10.0.0.11:33644in MyMiddleware.run()
LOG: Accepted client: /10.0.0.11:33690in MyMiddleware.run()
LOG: Accepted client: /10.0.0.11:33642in MyMiddleware.run()
LOG: Accepted client: /10.0.0.11:33722in MyMiddleware.run()
LOG: Accepted client: /10.0.0.11:33662in MyMiddleware.run()
LOG: Accepted client: /10.0.0.11:33720in MyMiddleware.run()
LOG: Accepted client: /10.0.0.11:33716in MyMiddleware.run()
LOG: Accepted client: /10.0.0.11:33668in MyMiddleware.run()
LOG: Accepted client: /10.0.0.11:33640in MyMiddleware.run()
LOG: Accepted client: /10.0.0.11:33688in MyMiddleware.run()
LOG: Accepted client: /10.0.0.11:33708in MyMiddleware.run()
LOG: Accepted client: /10.0.0.11:33710in MyMiddleware.run()
LOG: Accepted client: /10.0.0.11:33698in MyMiddleware.run()
LOG: Accepted client: /10.0.0.11:33724in MyMiddleware.run()
LOG: Accepted client: /10.0.0.11:33714in MyMiddleware.run()
LOG: Accepted client: /10.0.0.11:33712in MyMiddleware.run()
LOG: Accepted client: /10.0.0.11:33704in MyMiddleware.run()
LOG: Accepted client: /10.0.0.6:44572in MyMiddleware.run()
LOG: Accepted client: /10.0.0.6:44626in MyMiddleware.run()
LOG: Accepted client: /10.0.0.6:44618in MyMiddleware.run()
LOG: Accepted client: /10.0.0.6:44630in MyMiddleware.run()
LOG: Accepted client: /10.0.0.6:44582in MyMiddleware.run()
LOG: Accepted client: /10.0.0.6:44624in MyMiddleware.run()
LOG: Accepted client: /10.0.0.6:44616in MyMiddleware.run()
LOG: Accepted client: /10.0.0.6:44578in MyMiddleware.run()
LOG: Accepted client: /10.0.0.6:44580in MyMiddleware.run()
LOG: Accepted client: /10.0.0.6:44604in MyMiddleware.run()
LOG: Accepted client: /10.0.0.6:44628in MyMiddleware.run()
LOG: Accepted client: /10.0.0.6:44606in MyMiddleware.run()
LOG: Accepted client: /10.0.0.6:44576in MyMiddleware.run()
LOG: Accepted client: /10.0.0.6:44574in MyMiddleware.run()
LOG: Accepted client: /10.0.0.11:33680in MyMiddleware.run()
LOG: Accepted client: /10.0.0.11:33654in MyMiddleware.run()
LOG: Accepted client: /10.0.0.11:33656in MyMiddleware.run()
LOG: Accepted client: /10.0.0.11:33682in MyMiddleware.run()
LOG: Accepted client: /10.0.0.11:33702in MyMiddleware.run()
LOG: Accepted client: /10.0.0.11:33672in MyMiddleware.run()
LOG: Accepted client: /10.0.0.11:33674in MyMiddleware.run()
LOG: Accepted client: /10.0.0.6:44602in MyMiddleware.run()
LOG: Accepted client: /10.0.0.6:44620in MyMiddleware.run()
LOG: Accepted client: /10.0.0.6:44600in MyMiddleware.run()
LOG: Accepted client: /10.0.0.6:44622in MyMiddleware.run()
LOG: Accepted client: /10.0.0.11:33648in MyMiddleware.run()
LOG: Accepted client: /10.0.0.6:44570in MyMiddleware.run()
LOG: Accepted client: /10.0.0.11:33652in MyMiddleware.run()
LOG: Accepted client: /10.0.0.11:33678in MyMiddleware.run()
LOG: Accepted client: /10.0.0.11:33676in MyMiddleware.run()
LOG: Accepted client: /10.0.0.11:33748in MyMiddleware.run()
LOG: Accepted client: /10.0.0.11:33730in MyMiddleware.run()
LOG: Accepted client: /10.0.0.11:33728in MyMiddleware.run()
LOG: Accepted client: /10.0.0.11:33736in MyMiddleware.run()
LOG: Accepted client: /10.0.0.11:33758in MyMiddleware.run()
LOG: Accepted client: /10.0.0.11:33746in MyMiddleware.run()
LOG: Accepted client: /10.0.0.11:33762in MyMiddleware.run()
LOG: Accepted client: /10.0.0.11:33760in MyMiddleware.run()
LOG: Accepted client: /10.0.0.11:33754in MyMiddleware.run()
LOG: Accepted client: /10.0.0.11:33726in MyMiddleware.run()
LOG: Accepted client: /10.0.0.11:33742in MyMiddleware.run()
LOG: Accepted client: /10.0.0.11:33764in MyMiddleware.run()
LOG: Accepted client: /10.0.0.11:33738in MyMiddleware.run()
LOG: Accepted client: /10.0.0.11:33734in MyMiddleware.run()
LOG: Accepted client: /10.0.0.11:33756in MyMiddleware.run()
LOG: Accepted client: /10.0.0.11:33732in MyMiddleware.run()
LOG: Accepted client: /10.0.0.11:33740in MyMiddleware.run()
LOG: Accepted client: /10.0.0.11:33744in MyMiddleware.run()
LOG: Accepted client: /10.0.0.11:33750in MyMiddleware.run()
LOG: Accepted client: /10.0.0.11:33752in MyMiddleware.run()
LOG: Accepted client: /10.0.0.6:44694in MyMiddleware.run()
LOG: Accepted client: /10.0.0.6:44666in MyMiddleware.run()
LOG: Accepted client: /10.0.0.6:44688in MyMiddleware.run()
LOG: Accepted client: /10.0.0.6:44664in MyMiddleware.run()
LOG: Accepted client: /10.0.0.6:44680in MyMiddleware.run()
LOG: Accepted client: /10.0.0.6:44660in MyMiddleware.run()
LOG: Accepted client: /10.0.0.6:44668in MyMiddleware.run()
LOG: Accepted client: /10.0.0.6:44642in MyMiddleware.run()
LOG: Accepted client: /10.0.0.6:44670in MyMiddleware.run()
LOG: Accepted client: /10.0.0.6:44692in MyMiddleware.run()
LOG: Accepted client: /10.0.0.6:44686in MyMiddleware.run()
LOG: Accepted client: /10.0.0.6:44632in MyMiddleware.run()
LOG: Accepted client: /10.0.0.6:44640in MyMiddleware.run()
LOG: Accepted client: /10.0.0.6:44634in MyMiddleware.run()
LOG: Accepted client: /10.0.0.6:44682in MyMiddleware.run()
LOG: Accepted client: /10.0.0.6:44646in MyMiddleware.run()
LOG: Accepted client: /10.0.0.6:44656in MyMiddleware.run()
LOG: Accepted client: /10.0.0.6:44644in MyMiddleware.run()
LOG: Accepted client: /10.0.0.6:44684in MyMiddleware.run()
LOG: Accepted client: /10.0.0.6:44636in MyMiddleware.run()
LOG: Accepted client: /10.0.0.6:44638in MyMiddleware.run()
LOG: Accepted client: /10.0.0.6:44676in MyMiddleware.run()
LOG: Accepted client: /10.0.0.6:44690in MyMiddleware.run()
LOG: Accepted client: /10.0.0.6:44658in MyMiddleware.run()
LOG: Accepted client: /10.0.0.6:44652in MyMiddleware.run()
LOG: Accepted client: /10.0.0.6:44650in MyMiddleware.run()
LOG: Accepted client: /10.0.0.6:44674in MyMiddleware.run()
LOG: Accepted client: /10.0.0.6:44648in MyMiddleware.run()
LOG: Accepted client: /10.0.0.6:44672in MyMiddleware.run()
LOG: Accepted client: /10.0.0.6:44662in MyMiddleware.run()
LOG: Accepted client: /10.0.0.6:44654in MyMiddleware.run()
LOG: Accepted client: /10.0.0.6:44678in MyMiddleware.run()
LOG: Closed client: /10.0.0.7:34406in MyMiddleware.run()
LOG: Closed client: /10.0.0.7:34354in MyMiddleware.run()
LOG: Closed client: /10.0.0.7:34386in MyMiddleware.run()
LOG: Closed client: /10.0.0.7:34400in MyMiddleware.run()
LOG: Closed client: /10.0.0.7:34404in MyMiddleware.run()
LOG: Closed client: /10.0.0.7:34396in MyMiddleware.run()
LOG: Closed client: /10.0.0.7:34392in MyMiddleware.run()
LOG: Closed client: /10.0.0.7:34382in MyMiddleware.run()
LOG: Closed client: /10.0.0.7:34398in MyMiddleware.run()
LOG: Closed client: /10.0.0.7:34378in MyMiddleware.run()
LOG: Closed client: /10.0.0.7:34408in MyMiddleware.run()
LOG: Closed client: /10.0.0.7:34424in MyMiddleware.run()
LOG: Closed client: /10.0.0.7:34454in MyMiddleware.run()
LOG: Closed client: /10.0.0.7:34468in MyMiddleware.run()
LOG: Closed client: /10.0.0.7:34480in MyMiddleware.run()
LOG: Closed client: /10.0.0.7:34362in MyMiddleware.run()
LOG: Closed client: /10.0.0.7:34390in MyMiddleware.run()
LOG: Closed client: /10.0.0.7:34388in MyMiddleware.run()
LOG: Closed client: /10.0.0.7:34372in MyMiddleware.run()
LOG: Closed client: /10.0.0.7:34394in MyMiddleware.run()
LOG: Closed client: /10.0.0.7:34440in MyMiddleware.run()
LOG: Closed client: /10.0.0.7:34466in MyMiddleware.run()
LOG: Closed client: /10.0.0.7:34368in MyMiddleware.run()
LOG: Closed client: /10.0.0.7:34360in MyMiddleware.run()
LOG: Closed client: /10.0.0.7:34464in MyMiddleware.run()
LOG: Closed client: /10.0.0.7:34450in MyMiddleware.run()
LOG: Closed client: /10.0.0.7:34448in MyMiddleware.run()
LOG: Closed client: /10.0.0.7:34422in MyMiddleware.run()
LOG: Closed client: /10.0.0.7:34380in MyMiddleware.run()
LOG: Closed client: /10.0.0.7:34366in MyMiddleware.run()
LOG: Closed client: /10.0.0.7:34462in MyMiddleware.run()
LOG: Closed client: /10.0.0.7:34438in MyMiddleware.run()
LOG: Closed client: /10.0.0.7:34410in MyMiddleware.run()
LOG: Closed client: /10.0.0.7:34472in MyMiddleware.run()
LOG: Closed client: /10.0.0.7:34442in MyMiddleware.run()
LOG: Closed client: /10.0.0.7:34384in MyMiddleware.run()
LOG: Closed client: /10.0.0.7:34458in MyMiddleware.run()
LOG: Closed client: /10.0.0.7:34364in MyMiddleware.run()
LOG: Closed client: /10.0.0.7:34474in MyMiddleware.run()
LOG: Closed client: /10.0.0.7:34478in MyMiddleware.run()
LOG: Closed client: /10.0.0.7:34426in MyMiddleware.run()
LOG: Closed client: /10.0.0.7:34356in MyMiddleware.run()
LOG: Closed client: /10.0.0.7:34436in MyMiddleware.run()
LOG: Closed client: /10.0.0.7:34418in MyMiddleware.run()
LOG: Closed client: /10.0.0.7:34430in MyMiddleware.run()
LOG: Closed client: /10.0.0.7:34452in MyMiddleware.run()
LOG: Closed client: /10.0.0.7:34374in MyMiddleware.run()
LOG: Closed client: /10.0.0.7:34476in MyMiddleware.run()
LOG: Closed client: /10.0.0.7:34460in MyMiddleware.run()
LOG: Closed client: /10.0.0.7:34412in MyMiddleware.run()
LOG: Closed client: /10.0.0.7:34428in MyMiddleware.run()
LOG: Closed client: /10.0.0.7:34434in MyMiddleware.run()
LOG: Closed client: /10.0.0.7:34370in MyMiddleware.run()
LOG: Closed client: /10.0.0.7:34376in MyMiddleware.run()
LOG: Closed client: /10.0.0.7:34456in MyMiddleware.run()
LOG: Closed client: /10.0.0.7:34414in MyMiddleware.run()
LOG: Closed client: /10.0.0.7:34402in MyMiddleware.run()
LOG: Closed client: /10.0.0.7:34420in MyMiddleware.run()
LOG: Closed client: /10.0.0.7:34432in MyMiddleware.run()
LOG: Closed client: /10.0.0.7:34470in MyMiddleware.run()
LOG: Closed client: /10.0.0.7:34446in MyMiddleware.run()
LOG: Closed client: /10.0.0.7:34416in MyMiddleware.run()
LOG: Closed client: /10.0.0.7:34444in MyMiddleware.run()
LOG: Closed client: /10.0.0.7:34358in MyMiddleware.run()
LOG: Closed client: /10.0.0.11:33692in MyMiddleware.run()
LOG: Closed client: /10.0.0.11:33650in MyMiddleware.run()
LOG: Closed client: /10.0.0.11:33660in MyMiddleware.run()
LOG: Closed client: /10.0.0.11:33676in MyMiddleware.run()
LOG: Closed client: /10.0.0.11:33658in MyMiddleware.run()
LOG: Closed client: /10.0.0.11:33662in MyMiddleware.run()
LOG: Closed client: /10.0.0.11:33638in MyMiddleware.run()
LOG: Closed client: /10.0.0.11:33684in MyMiddleware.run()
LOG: Closed client: /10.0.0.11:33682in MyMiddleware.run()
LOG: Closed client: /10.0.0.11:33652in MyMiddleware.run()
LOG: Closed client: /10.0.0.11:33646in MyMiddleware.run()
LOG: Closed client: /10.0.0.11:33674in MyMiddleware.run()
LOG: Closed client: /10.0.0.11:33718in MyMiddleware.run()
LOG: Closed client: /10.0.0.11:33694in MyMiddleware.run()
LOG: Closed client: /10.0.0.11:33696in MyMiddleware.run()
LOG: Closed client: /10.0.0.11:33726in MyMiddleware.run()
LOG: Closed client: /10.0.0.11:33686in MyMiddleware.run()
LOG: Closed client: /10.0.0.11:33708in MyMiddleware.run()
LOG: Closed client: /10.0.0.11:33752in MyMiddleware.run()
LOG: Closed client: /10.0.0.11:33670in MyMiddleware.run()
LOG: Closed client: /10.0.0.11:33724in MyMiddleware.run()
LOG: Closed client: /10.0.0.11:33720in MyMiddleware.run()
LOG: Closed client: /10.0.0.11:33702in MyMiddleware.run()
LOG: Closed client: /10.0.0.11:33654in MyMiddleware.run()
LOG: Closed client: /10.0.0.11:33648in MyMiddleware.run()
LOG: Closed client: /10.0.0.11:33712in MyMiddleware.run()
LOG: Closed client: /10.0.0.11:33644in MyMiddleware.run()
LOG: Closed client: /10.0.0.11:33656in MyMiddleware.run()
LOG: Closed client: /10.0.0.11:33736in MyMiddleware.run()
LOG: Closed client: /10.0.0.11:33738in MyMiddleware.run()
LOG: Closed client: /10.0.0.11:33690in MyMiddleware.run()
LOG: Closed client: /10.0.0.11:33744in MyMiddleware.run()
LOG: Closed client: /10.0.0.11:33742in MyMiddleware.run()
LOG: Closed client: /10.0.0.11:33664in MyMiddleware.run()
LOG: Closed client: /10.0.0.11:33672in MyMiddleware.run()
LOG: Closed client: /10.0.0.11:33750in MyMiddleware.run()
LOG: Closed client: /10.0.0.11:33698in MyMiddleware.run()
LOG: Closed client: /10.0.0.11:33706in MyMiddleware.run()
LOG: Closed client: /10.0.0.11:33688in MyMiddleware.run()
LOG: Closed client: /10.0.0.11:33740in MyMiddleware.run()
LOG: Closed client: /10.0.0.11:33700in MyMiddleware.run()
LOG: Closed client: /10.0.0.11:33748in MyMiddleware.run()
LOG: Closed client: /10.0.0.11:33678in MyMiddleware.run()
LOG: Closed client: /10.0.0.11:33680in MyMiddleware.run()
LOG: Closed client: /10.0.0.11:33642in MyMiddleware.run()
LOG: Closed client: /10.0.0.11:33640in MyMiddleware.run()
LOG: Closed client: /10.0.0.11:33722in MyMiddleware.run()
LOG: Closed client: /10.0.0.11:33732in MyMiddleware.run()
LOG: Closed client: /10.0.0.11:33734in MyMiddleware.run()
LOG: Closed client: /10.0.0.11:33666in MyMiddleware.run()
LOG: Closed client: /10.0.0.11:33746in MyMiddleware.run()
LOG: Closed client: /10.0.0.11:33758in MyMiddleware.run()
LOG: Closed client: /10.0.0.11:33714in MyMiddleware.run()
LOG: Closed client: /10.0.0.11:33760in MyMiddleware.run()
LOG: Closed client: /10.0.0.11:33754in MyMiddleware.run()
LOG: Closed client: /10.0.0.11:33730in MyMiddleware.run()
LOG: Closed client: /10.0.0.11:33728in MyMiddleware.run()
LOG: Closed client: /10.0.0.11:33756in MyMiddleware.run()
LOG: Closed client: /10.0.0.11:33762in MyMiddleware.run()
LOG: Closed client: /10.0.0.11:33764in MyMiddleware.run()
LOG: Closed client: /10.0.0.11:33710in MyMiddleware.run()
LOG: Closed client: /10.0.0.11:33716in MyMiddleware.run()
LOG: Closed client: /10.0.0.11:33668in MyMiddleware.run()
LOG: Closed client: /10.0.0.11:33704in MyMiddleware.run()
LOG: Closed client: /10.0.0.6:44584in MyMiddleware.run()
LOG: Closed client: /10.0.0.6:44586in MyMiddleware.run()
LOG: Closed client: /10.0.0.6:44576in MyMiddleware.run()
LOG: Closed client: /10.0.0.6:44590in MyMiddleware.run()
LOG: Closed client: /10.0.0.6:44568in MyMiddleware.run()
LOG: Closed client: /10.0.0.6:44574in MyMiddleware.run()
LOG: Closed client: /10.0.0.6:44572in MyMiddleware.run()
LOG: Closed client: /10.0.0.6:44592in MyMiddleware.run()
LOG: Closed client: /10.0.0.6:44588in MyMiddleware.run()
LOG: Closed client: /10.0.0.6:44614in MyMiddleware.run()
LOG: Closed client: /10.0.0.6:44606in MyMiddleware.run()
LOG: Closed client: /10.0.0.6:44632in MyMiddleware.run()
LOG: Closed client: /10.0.0.6:44594in MyMiddleware.run()
LOG: Closed client: /10.0.0.6:44612in MyMiddleware.run()
LOG: Closed client: /10.0.0.6:44596in MyMiddleware.run()
LOG: Closed client: /10.0.0.6:44626in MyMiddleware.run()
LOG: Closed client: /10.0.0.6:44570in MyMiddleware.run()
LOG: Closed client: /10.0.0.6:44580in MyMiddleware.run()
LOG: Closed client: /10.0.0.6:44628in MyMiddleware.run()
LOG: Closed client: /10.0.0.6:44582in MyMiddleware.run()
LOG: Closed client: /10.0.0.6:44578in MyMiddleware.run()
LOG: Closed client: /10.0.0.6:44598in MyMiddleware.run()
LOG: Closed client: /10.0.0.6:44600in MyMiddleware.run()
LOG: Closed client: /10.0.0.6:44604in MyMiddleware.run()
LOG: Closed client: /10.0.0.6:44608in MyMiddleware.run()
LOG: Closed client: /10.0.0.6:44610in MyMiddleware.run()
LOG: Closed client: /10.0.0.6:44602in MyMiddleware.run()
LOG: Closed client: /10.0.0.6:44648in MyMiddleware.run()
LOG: Closed client: /10.0.0.6:44616in MyMiddleware.run()
LOG: Closed client: /10.0.0.6:44620in MyMiddleware.run()
LOG: Closed client: /10.0.0.6:44622in MyMiddleware.run()
LOG: Closed client: /10.0.0.6:44618in MyMiddleware.run()
LOG: Closed client: /10.0.0.6:44650in MyMiddleware.run()
LOG: Closed client: /10.0.0.6:44654in MyMiddleware.run()
LOG: Closed client: /10.0.0.6:44672in MyMiddleware.run()
LOG: Closed client: /10.0.0.6:44644in MyMiddleware.run()
LOG: Closed client: /10.0.0.6:44630in MyMiddleware.run()
LOG: Closed client: /10.0.0.6:44674in MyMiddleware.run()
LOG: Closed client: /10.0.0.6:44624in MyMiddleware.run()
LOG: Closed client: /10.0.0.6:44640in MyMiddleware.run()
LOG: Closed client: /10.0.0.6:44676in MyMiddleware.run()
LOG: Closed client: /10.0.0.6:44646in MyMiddleware.run()
LOG: Closed client: /10.0.0.6:44652in MyMiddleware.run()
LOG: Closed client: /10.0.0.6:44678in MyMiddleware.run()
LOG: Closed client: /10.0.0.6:44664in MyMiddleware.run()
LOG: Closed client: /10.0.0.6:44660in MyMiddleware.run()
LOG: Closed client: /10.0.0.6:44680in MyMiddleware.run()
LOG: Closed client: /10.0.0.6:44638in MyMiddleware.run()
LOG: Closed client: /10.0.0.6:44658in MyMiddleware.run()
LOG: Closed client: /10.0.0.6:44634in MyMiddleware.run()
LOG: Closed client: /10.0.0.6:44682in MyMiddleware.run()
LOG: Closed client: /10.0.0.6:44642in MyMiddleware.run()
LOG: Closed client: /10.0.0.6:44662in MyMiddleware.run()
LOG: Closed client: /10.0.0.6:44656in MyMiddleware.run()
LOG: Closed client: /10.0.0.6:44636in MyMiddleware.run()
LOG: Closed client: /10.0.0.6:44668in MyMiddleware.run()
LOG: Closed client: /10.0.0.6:44666in MyMiddleware.run()
LOG: Closed client: /10.0.0.6:44670in MyMiddleware.run()
LOG: Closed client: /10.0.0.6:44684in MyMiddleware.run()
LOG: Closed client: /10.0.0.6:44686in MyMiddleware.run()
LOG: Closed client: /10.0.0.6:44694in MyMiddleware.run()
LOG: Closed client: /10.0.0.6:44690in MyMiddleware.run()
LOG: Closed client: /10.0.0.6:44692in MyMiddleware.run()
LOG: Closed client: /10.0.0.6:44688in MyMiddleware.run()
