------------Middleware started!------------
LOG: Waiting for connection in MyMiddleware.run()
LOG: Accepted client: /10.0.0.11:35104in MyMiddleware.run()
LOG: Accepted client: /10.0.0.11:35106in MyMiddleware.run()
LOG: Accepted client: /10.0.0.11:35128in MyMiddleware.run()
LOG: Accepted client: /10.0.0.11:35132in MyMiddleware.run()
LOG: Accepted client: /10.0.0.11:35100in MyMiddleware.run()
LOG: Accepted client: /10.0.0.11:35190in MyMiddleware.run()
LOG: Accepted client: /10.0.0.11:35102in MyMiddleware.run()
LOG: Accepted client: /10.0.0.11:35130in MyMiddleware.run()
LOG: Accepted client: /10.0.0.11:35108in MyMiddleware.run()
LOG: Accepted client: /10.0.0.11:35210in MyMiddleware.run()
LOG: Accepted client: /10.0.0.11:35178in MyMiddleware.run()
LOG: Accepted client: /10.0.0.11:35154in MyMiddleware.run()
LOG: Accepted client: /10.0.0.11:35156in MyMiddleware.run()
LOG: Accepted client: /10.0.0.11:35144in MyMiddleware.run()
LOG: Accepted client: /10.0.0.11:35098in MyMiddleware.run()
LOG: Accepted client: /10.0.0.11:35158in MyMiddleware.run()
LOG: Accepted client: /10.0.0.11:35186in MyMiddleware.run()
LOG: Accepted client: /10.0.0.11:35188in MyMiddleware.run()
LOG: Accepted client: /10.0.0.11:35184in MyMiddleware.run()
LOG: Accepted client: /10.0.0.11:35208in MyMiddleware.run()
LOG: Accepted client: /10.0.0.11:35110in MyMiddleware.run()
LOG: Accepted client: /10.0.0.11:35180in MyMiddleware.run()
LOG: Accepted client: /10.0.0.11:35148in MyMiddleware.run()
LOG: Accepted client: /10.0.0.11:35176in MyMiddleware.run()
LOG: Accepted client: /10.0.0.11:35150in MyMiddleware.run()
LOG: Accepted client: /10.0.0.11:35182in MyMiddleware.run()
LOG: Accepted client: /10.0.0.11:35212in MyMiddleware.run()
LOG: Accepted client: /10.0.0.11:35214in MyMiddleware.run()
LOG: Accepted client: /10.0.0.11:35146in MyMiddleware.run()
LOG: Accepted client: /10.0.0.11:35134in MyMiddleware.run()
LOG: Accepted client: /10.0.0.11:35152in MyMiddleware.run()
LOG: Accepted client: /10.0.0.11:35096in MyMiddleware.run()
LOG: Accepted client: /10.0.0.11:35124in MyMiddleware.run()
LOG: Accepted client: /10.0.0.11:35118in MyMiddleware.run()
LOG: Accepted client: /10.0.0.11:35116in MyMiddleware.run()
LOG: Accepted client: /10.0.0.11:35160in MyMiddleware.run()
LOG: Accepted client: /10.0.0.11:35142in MyMiddleware.run()
LOG: Accepted client: /10.0.0.11:35088in MyMiddleware.run()
LOG: Accepted client: /10.0.0.11:35202in MyMiddleware.run()
LOG: Accepted client: /10.0.0.11:35136in MyMiddleware.run()
LOG: Accepted client: /10.0.0.11:35162in MyMiddleware.run()
LOG: Accepted client: /10.0.0.11:35112in MyMiddleware.run()
LOG: Accepted client: /10.0.0.11:35094in MyMiddleware.run()
LOG: Accepted client: /10.0.0.11:35164in MyMiddleware.run()
LOG: Accepted client: /10.0.0.11:35170in MyMiddleware.run()
LOG: Accepted client: /10.0.0.11:35114in MyMiddleware.run()
LOG: Accepted client: /10.0.0.11:35200in MyMiddleware.run()
LOG: Accepted client: /10.0.0.11:35166in MyMiddleware.run()
LOG: Accepted client: /10.0.0.11:35092in MyMiddleware.run()
LOG: Accepted client: /10.0.0.11:35168in MyMiddleware.run()
LOG: Accepted client: /10.0.0.11:35090in MyMiddleware.run()
LOG: Accepted client: /10.0.0.11:35126in MyMiddleware.run()
LOG: Accepted client: /10.0.0.11:35192in MyMiddleware.run()
LOG: Accepted client: /10.0.0.11:35174in MyMiddleware.run()
LOG: Accepted client: /10.0.0.11:35172in MyMiddleware.run()
LOG: Accepted client: /10.0.0.11:35198in MyMiddleware.run()
LOG: Accepted client: /10.0.0.11:35196in MyMiddleware.run()
LOG: Accepted client: /10.0.0.11:35194in MyMiddleware.run()
LOG: Accepted client: /10.0.0.11:35206in MyMiddleware.run()
LOG: Accepted client: /10.0.0.11:35204in MyMiddleware.run()
LOG: Accepted client: /10.0.0.11:35138in MyMiddleware.run()
LOG: Accepted client: /10.0.0.11:35140in MyMiddleware.run()
LOG: Accepted client: /10.0.0.11:35120in MyMiddleware.run()
LOG: Accepted client: /10.0.0.11:35122in MyMiddleware.run()
LOG: Accepted client: /10.0.0.7:35902in MyMiddleware.run()
LOG: Accepted client: /10.0.0.7:35926in MyMiddleware.run()
LOG: Accepted client: /10.0.0.7:35904in MyMiddleware.run()
LOG: Accepted client: /10.0.0.7:35870in MyMiddleware.run()
LOG: Accepted client: /10.0.0.7:35850in MyMiddleware.run()
LOG: Accepted client: /10.0.0.7:35890in MyMiddleware.run()
LOG: Accepted client: /10.0.0.7:35868in MyMiddleware.run()
LOG: Accepted client: /10.0.0.7:35814in MyMiddleware.run()
LOG: Accepted client: /10.0.0.7:35928in MyMiddleware.run()
LOG: Accepted client: /10.0.0.7:35882in MyMiddleware.run()
LOG: Accepted client: /10.0.0.7:35836in MyMiddleware.run()
LOG: Accepted client: /10.0.0.7:35914in MyMiddleware.run()
LOG: Accepted client: /10.0.0.7:35894in MyMiddleware.run()
LOG: Accepted client: /10.0.0.7:35822in MyMiddleware.run()
LOG: Accepted client: /10.0.0.7:35896in MyMiddleware.run()
LOG: Accepted client: /10.0.0.7:35816in MyMiddleware.run()
LOG: Accepted client: /10.0.0.7:35906in MyMiddleware.run()
LOG: Accepted client: /10.0.0.7:35888in MyMiddleware.run()
LOG: Accepted client: /10.0.0.7:35866in MyMiddleware.run()
LOG: Accepted client: /10.0.0.7:35826in MyMiddleware.run()
LOG: Accepted client: /10.0.0.7:35864in MyMiddleware.run()
LOG: Accepted client: /10.0.0.7:35910in MyMiddleware.run()
LOG: Accepted client: /10.0.0.7:35884in MyMiddleware.run()
LOG: Accepted client: /10.0.0.7:35908in MyMiddleware.run()
LOG: Accepted client: /10.0.0.7:35892in MyMiddleware.run()
LOG: Accepted client: /10.0.0.7:35812in MyMiddleware.run()
LOG: Accepted client: /10.0.0.7:35806in MyMiddleware.run()
LOG: Accepted client: /10.0.0.7:35876in MyMiddleware.run()
LOG: Accepted client: /10.0.0.7:35820in MyMiddleware.run()
LOG: Accepted client: /10.0.0.7:35862in MyMiddleware.run()
LOG: Accepted client: /10.0.0.7:35808in MyMiddleware.run()
LOG: Accepted client: /10.0.0.7:35818in MyMiddleware.run()
LOG: Accepted client: /10.0.0.7:35834in MyMiddleware.run()
LOG: Accepted client: /10.0.0.7:35810in MyMiddleware.run()
LOG: Accepted client: /10.0.0.7:35854in MyMiddleware.run()
LOG: Accepted client: /10.0.0.7:35874in MyMiddleware.run()
LOG: Accepted client: /10.0.0.7:35856in MyMiddleware.run()
LOG: Accepted client: /10.0.0.7:35846in MyMiddleware.run()
LOG: Accepted client: /10.0.0.7:35920in MyMiddleware.run()
LOG: Accepted client: /10.0.0.7:35828in MyMiddleware.run()
LOG: Accepted client: /10.0.0.7:35840in MyMiddleware.run()
LOG: Accepted client: /10.0.0.7:35848in MyMiddleware.run()
LOG: Accepted client: /10.0.0.7:35858in MyMiddleware.run()
LOG: Accepted client: /10.0.0.7:35852in MyMiddleware.run()
LOG: Accepted client: /10.0.0.7:35830in MyMiddleware.run()
LOG: Accepted client: /10.0.0.7:35922in MyMiddleware.run()
LOG: Accepted client: /10.0.0.7:35824in MyMiddleware.run()
LOG: Accepted client: /10.0.0.7:35872in MyMiddleware.run()
LOG: Accepted client: /10.0.0.7:35918in MyMiddleware.run()
LOG: Accepted client: /10.0.0.7:35900in MyMiddleware.run()
LOG: Accepted client: /10.0.0.7:35860in MyMiddleware.run()
LOG: Accepted client: /10.0.0.7:35916in MyMiddleware.run()
LOG: Accepted client: /10.0.0.7:35912in MyMiddleware.run()
LOG: Accepted client: /10.0.0.7:35898in MyMiddleware.run()
LOG: Accepted client: /10.0.0.7:35924in MyMiddleware.run()
LOG: Accepted client: /10.0.0.7:35878in MyMiddleware.run()
LOG: Accepted client: /10.0.0.7:35838in MyMiddleware.run()
LOG: Accepted client: /10.0.0.7:35886in MyMiddleware.run()
LOG: Accepted client: /10.0.0.7:35842in MyMiddleware.run()
LOG: Accepted client: /10.0.0.7:35930in MyMiddleware.run()
LOG: Accepted client: /10.0.0.7:35932in MyMiddleware.run()
LOG: Accepted client: /10.0.0.7:35880in MyMiddleware.run()
LOG: Accepted client: /10.0.0.7:35832in MyMiddleware.run()
LOG: Accepted client: /10.0.0.7:35844in MyMiddleware.run()
LOG: Accepted client: /10.0.0.6:46098in MyMiddleware.run()
LOG: Accepted client: /10.0.0.6:46108in MyMiddleware.run()
LOG: Accepted client: /10.0.0.6:46150in MyMiddleware.run()
LOG: Accepted client: /10.0.0.6:46128in MyMiddleware.run()
LOG: Accepted client: /10.0.0.6:46114in MyMiddleware.run()
LOG: Accepted client: /10.0.0.6:46088in MyMiddleware.run()
LOG: Accepted client: /10.0.0.6:46040in MyMiddleware.run()
LOG: Accepted client: /10.0.0.6:46044in MyMiddleware.run()
LOG: Accepted client: /10.0.0.6:46030in MyMiddleware.run()
LOG: Accepted client: /10.0.0.6:46092in MyMiddleware.run()
LOG: Accepted client: /10.0.0.6:46076in MyMiddleware.run()
LOG: Accepted client: /10.0.0.6:46078in MyMiddleware.run()
LOG: Accepted client: /10.0.0.6:46082in MyMiddleware.run()
LOG: Accepted client: /10.0.0.6:46130in MyMiddleware.run()
LOG: Accepted client: /10.0.0.6:46126in MyMiddleware.run()
LOG: Accepted client: /10.0.0.6:46042in MyMiddleware.run()
LOG: Accepted client: /10.0.0.6:46080in MyMiddleware.run()
LOG: Accepted client: /10.0.0.6:46032in MyMiddleware.run()
LOG: Accepted client: /10.0.0.6:46124in MyMiddleware.run()
LOG: Accepted client: /10.0.0.6:46050in MyMiddleware.run()
LOG: Accepted client: /10.0.0.6:46090in MyMiddleware.run()
LOG: Accepted client: /10.0.0.6:46048in MyMiddleware.run()
LOG: Accepted client: /10.0.0.6:46148in MyMiddleware.run()
LOG: Accepted client: /10.0.0.6:46070in MyMiddleware.run()
LOG: Accepted client: /10.0.0.6:46110in MyMiddleware.run()
LOG: Accepted client: /10.0.0.6:46064in MyMiddleware.run()
LOG: Accepted client: /10.0.0.6:46034in MyMiddleware.run()
LOG: Accepted client: /10.0.0.6:46118in MyMiddleware.run()
LOG: Accepted client: /10.0.0.6:46112in MyMiddleware.run()
LOG: Accepted client: /10.0.0.6:46028in MyMiddleware.run()
LOG: Accepted client: /10.0.0.6:46094in MyMiddleware.run()
LOG: Accepted client: /10.0.0.6:46046in MyMiddleware.run()
LOG: Accepted client: /10.0.0.6:46068in MyMiddleware.run()
LOG: Accepted client: /10.0.0.6:46116in MyMiddleware.run()
LOG: Accepted client: /10.0.0.6:46084in MyMiddleware.run()
LOG: Accepted client: /10.0.0.6:46074in MyMiddleware.run()
LOG: Accepted client: /10.0.0.6:46072in MyMiddleware.run()
LOG: Accepted client: /10.0.0.6:46036in MyMiddleware.run()
LOG: Accepted client: /10.0.0.6:46120in MyMiddleware.run()
LOG: Accepted client: /10.0.0.6:46086in MyMiddleware.run()
LOG: Accepted client: /10.0.0.6:46122in MyMiddleware.run()
LOG: Accepted client: /10.0.0.6:46038in MyMiddleware.run()
LOG: Accepted client: /10.0.0.6:46096in MyMiddleware.run()
LOG: Accepted client: /10.0.0.6:46142in MyMiddleware.run()
LOG: Accepted client: /10.0.0.6:46140in MyMiddleware.run()
LOG: Accepted client: /10.0.0.6:46062in MyMiddleware.run()
LOG: Accepted client: /10.0.0.6:46154in MyMiddleware.run()
LOG: Accepted client: /10.0.0.6:46060in MyMiddleware.run()
LOG: Accepted client: /10.0.0.6:46152in MyMiddleware.run()
LOG: Accepted client: /10.0.0.6:46066in MyMiddleware.run()
LOG: Accepted client: /10.0.0.6:46144in MyMiddleware.run()
LOG: Accepted client: /10.0.0.6:46146in MyMiddleware.run()
LOG: Accepted client: /10.0.0.6:46134in MyMiddleware.run()
LOG: Accepted client: /10.0.0.6:46106in MyMiddleware.run()
LOG: Accepted client: /10.0.0.6:46136in MyMiddleware.run()
LOG: Accepted client: /10.0.0.6:46056in MyMiddleware.run()
LOG: Accepted client: /10.0.0.6:46138in MyMiddleware.run()
LOG: Accepted client: /10.0.0.6:46132in MyMiddleware.run()
LOG: Accepted client: /10.0.0.6:46104in MyMiddleware.run()
LOG: Accepted client: /10.0.0.6:46054in MyMiddleware.run()
LOG: Accepted client: /10.0.0.6:46100in MyMiddleware.run()
LOG: Accepted client: /10.0.0.6:46052in MyMiddleware.run()
LOG: Accepted client: /10.0.0.6:46102in MyMiddleware.run()
LOG: Accepted client: /10.0.0.6:46058in MyMiddleware.run()
LOG: Closed client: /10.0.0.11:35094in MyMiddleware.run()
LOG: Closed client: /10.0.0.11:35092in MyMiddleware.run()
LOG: Closed client: /10.0.0.11:35144in MyMiddleware.run()
LOG: Closed client: /10.0.0.11:35118in MyMiddleware.run()
LOG: Closed client: /10.0.0.11:35104in MyMiddleware.run()
LOG: Closed client: /10.0.0.11:35098in MyMiddleware.run()
LOG: Closed client: /10.0.0.11:35120in MyMiddleware.run()
LOG: Closed client: /10.0.0.11:35148in MyMiddleware.run()
LOG: Closed client: /10.0.0.11:35134in MyMiddleware.run()
LOG: Closed client: /10.0.0.11:35154in MyMiddleware.run()
LOG: Closed client: /10.0.0.11:35090in MyMiddleware.run()
LOG: Closed client: /10.0.0.11:35116in MyMiddleware.run()
LOG: Closed client: /10.0.0.11:35136in MyMiddleware.run()
LOG: Closed client: /10.0.0.11:35126in MyMiddleware.run()
LOG: Closed client: /10.0.0.11:35100in MyMiddleware.run()
LOG: Closed client: /10.0.0.11:35152in MyMiddleware.run()
LOG: Closed client: /10.0.0.11:35146in MyMiddleware.run()
LOG: Closed client: /10.0.0.11:35158in MyMiddleware.run()
LOG: Closed client: /10.0.0.11:35124in MyMiddleware.run()
LOG: Closed client: /10.0.0.11:35140in MyMiddleware.run()
LOG: Closed client: /10.0.0.11:35128in MyMiddleware.run()
LOG: Closed client: /10.0.0.11:35110in MyMiddleware.run()
LOG: Closed client: /10.0.0.11:35138in MyMiddleware.run()
LOG: Closed client: /10.0.0.11:35166in MyMiddleware.run()
LOG: Closed client: /10.0.0.11:35096in MyMiddleware.run()
LOG: Closed client: /10.0.0.11:35130in MyMiddleware.run()
LOG: Closed client: /10.0.0.11:35156in MyMiddleware.run()
LOG: Closed client: /10.0.0.11:35102in MyMiddleware.run()
LOG: Closed client: /10.0.0.11:35114in MyMiddleware.run()
LOG: Closed client: /10.0.0.11:35112in MyMiddleware.run()
LOG: Closed client: /10.0.0.11:35132in MyMiddleware.run()
LOG: Closed client: /10.0.0.11:35122in MyMiddleware.run()
LOG: Closed client: /10.0.0.11:35160in MyMiddleware.run()
LOG: Closed client: /10.0.0.11:35150in MyMiddleware.run()
LOG: Closed client: /10.0.0.11:35106in MyMiddleware.run()
LOG: Closed client: /10.0.0.11:35142in MyMiddleware.run()
LOG: Closed client: /10.0.0.11:35162in MyMiddleware.run()
LOG: Closed client: /10.0.0.11:35088in MyMiddleware.run()
LOG: Closed client: /10.0.0.11:35108in MyMiddleware.run()
LOG: Closed client: /10.0.0.11:35174in MyMiddleware.run()
LOG: Closed client: /10.0.0.11:35214in MyMiddleware.run()
LOG: Closed client: /10.0.0.11:35186in MyMiddleware.run()
LOG: Closed client: /10.0.0.11:35168in MyMiddleware.run()
LOG: Closed client: /10.0.0.11:35184in MyMiddleware.run()
LOG: Closed client: /10.0.0.11:35188in MyMiddleware.run()
LOG: Closed client: /10.0.0.11:35192in MyMiddleware.run()
LOG: Closed client: /10.0.0.11:35202in MyMiddleware.run()
LOG: Closed client: /10.0.0.11:35196in MyMiddleware.run()
LOG: Closed client: /10.0.0.11:35198in MyMiddleware.run()
LOG: Closed client: /10.0.0.11:35208in MyMiddleware.run()
LOG: Closed client: /10.0.0.11:35164in MyMiddleware.run()
LOG: Closed client: /10.0.0.11:35200in MyMiddleware.run()
LOG: Closed client: /10.0.0.11:35204in MyMiddleware.run()
LOG: Closed client: /10.0.0.11:35176in MyMiddleware.run()
LOG: Closed client: /10.0.0.11:35178in MyMiddleware.run()
LOG: Closed client: /10.0.0.11:35182in MyMiddleware.run()
LOG: Closed client: /10.0.0.11:35190in MyMiddleware.run()
LOG: Closed client: /10.0.0.11:35206in MyMiddleware.run()
LOG: Closed client: /10.0.0.11:35210in MyMiddleware.run()
LOG: Closed client: /10.0.0.11:35170in MyMiddleware.run()
LOG: Closed client: /10.0.0.11:35194in MyMiddleware.run()
LOG: Closed client: /10.0.0.11:35180in MyMiddleware.run()
LOG: Closed client: /10.0.0.11:35172in MyMiddleware.run()
LOG: Closed client: /10.0.0.11:35212in MyMiddleware.run()
LOG: Closed client: /10.0.0.7:35818in MyMiddleware.run()
LOG: Closed client: /10.0.0.7:35808in MyMiddleware.run()
LOG: Closed client: /10.0.0.7:35812in MyMiddleware.run()
LOG: Closed client: /10.0.0.7:35814in MyMiddleware.run()
LOG: Closed client: /10.0.0.7:35860in MyMiddleware.run()
LOG: Closed client: /10.0.0.7:35882in MyMiddleware.run()
LOG: Closed client: /10.0.0.7:35916in MyMiddleware.run()
LOG: Closed client: /10.0.0.7:35836in MyMiddleware.run()
LOG: Closed client: /10.0.0.7:35908in MyMiddleware.run()
LOG: Closed client: /10.0.0.7:35928in MyMiddleware.run()
LOG: Closed client: /10.0.0.7:35806in MyMiddleware.run()
LOG: Closed client: /10.0.0.7:35866in MyMiddleware.run()
LOG: Closed client: /10.0.0.7:35856in MyMiddleware.run()
LOG: Closed client: /10.0.0.7:35838in MyMiddleware.run()
LOG: Closed client: /10.0.0.7:35876in MyMiddleware.run()
LOG: Closed client: /10.0.0.7:35878in MyMiddleware.run()
LOG: Closed client: /10.0.0.7:35840in MyMiddleware.run()
LOG: Closed client: /10.0.0.7:35854in MyMiddleware.run()
LOG: Closed client: /10.0.0.7:35820in MyMiddleware.run()
LOG: Closed client: /10.0.0.7:35846in MyMiddleware.run()
LOG: Closed client: /10.0.0.7:35822in MyMiddleware.run()
LOG: Closed client: /10.0.0.7:35824in MyMiddleware.run()
LOG: Closed client: /10.0.0.7:35902in MyMiddleware.run()
LOG: Closed client: /10.0.0.7:35844in MyMiddleware.run()
LOG: Closed client: /10.0.0.7:35896in MyMiddleware.run()
LOG: Closed client: /10.0.0.7:35912in MyMiddleware.run()
LOG: Closed client: /10.0.0.7:35880in MyMiddleware.run()
LOG: Closed client: /10.0.0.7:35898in MyMiddleware.run()
LOG: Closed client: /10.0.0.7:35900in MyMiddleware.run()
LOG: Closed client: /10.0.0.7:35848in MyMiddleware.run()
LOG: Closed client: /10.0.0.7:35834in MyMiddleware.run()
LOG: Closed client: /10.0.0.7:35832in MyMiddleware.run()
LOG: Closed client: /10.0.0.7:35914in MyMiddleware.run()
LOG: Closed client: /10.0.0.7:35884in MyMiddleware.run()
LOG: Closed client: /10.0.0.7:35858in MyMiddleware.run()
LOG: Closed client: /10.0.0.7:35874in MyMiddleware.run()
LOG: Closed client: /10.0.0.7:35888in MyMiddleware.run()
LOG: Closed client: /10.0.0.7:35872in MyMiddleware.run()
LOG: Closed client: /10.0.0.7:35894in MyMiddleware.run()
LOG: Closed client: /10.0.0.7:35828in MyMiddleware.run()
LOG: Closed client: /10.0.0.7:35892in MyMiddleware.run()
LOG: Closed client: /10.0.0.7:35886in MyMiddleware.run()
LOG: Closed client: /10.0.0.7:35826in MyMiddleware.run()
LOG: Closed client: /10.0.0.7:35904in MyMiddleware.run()
LOG: Closed client: /10.0.0.7:35850in MyMiddleware.run()
LOG: Closed client: /10.0.0.7:35852in MyMiddleware.run()
LOG: Closed client: /10.0.0.7:35926in MyMiddleware.run()
LOG: Closed client: /10.0.0.7:35864in MyMiddleware.run()
LOG: Closed client: /10.0.0.7:35862in MyMiddleware.run()
LOG: Closed client: /10.0.0.7:35842in MyMiddleware.run()
LOG: Closed client: /10.0.0.7:35830in MyMiddleware.run()
LOG: Closed client: /10.0.0.7:35816in MyMiddleware.run()
LOG: Closed client: /10.0.0.7:35868in MyMiddleware.run()
LOG: Closed client: /10.0.0.7:35906in MyMiddleware.run()
LOG: Closed client: /10.0.0.7:35870in MyMiddleware.run()
LOG: Closed client: /10.0.0.7:35918in MyMiddleware.run()
LOG: Closed client: /10.0.0.7:35922in MyMiddleware.run()
LOG: Closed client: /10.0.0.7:35920in MyMiddleware.run()
LOG: Closed client: /10.0.0.7:35810in MyMiddleware.run()
LOG: Closed client: /10.0.0.7:35924in MyMiddleware.run()
LOG: Closed client: /10.0.0.7:35930in MyMiddleware.run()
LOG: Closed client: /10.0.0.7:35932in MyMiddleware.run()
LOG: Closed client: /10.0.0.7:35890in MyMiddleware.run()
LOG: Closed client: /10.0.0.7:35910in MyMiddleware.run()
LOG: Closed client: /10.0.0.6:46028in MyMiddleware.run()
LOG: Closed client: /10.0.0.6:46042in MyMiddleware.run()
LOG: Closed client: /10.0.0.6:46050in MyMiddleware.run()
LOG: Closed client: /10.0.0.6:46032in MyMiddleware.run()
LOG: Closed client: /10.0.0.6:46048in MyMiddleware.run()
LOG: Closed client: /10.0.0.6:46030in MyMiddleware.run()
LOG: Closed client: /10.0.0.6:46040in MyMiddleware.run()
LOG: Closed client: /10.0.0.6:46044in MyMiddleware.run()
LOG: Closed client: /10.0.0.6:46036in MyMiddleware.run()
LOG: Closed client: /10.0.0.6:46046in MyMiddleware.run()
LOG: Closed client: /10.0.0.6:46052in MyMiddleware.run()
LOG: Closed client: /10.0.0.6:46038in MyMiddleware.run()
LOG: Closed client: /10.0.0.6:46034in MyMiddleware.run()
LOG: Closed client: /10.0.0.6:46060in MyMiddleware.run()
LOG: Closed client: /10.0.0.6:46078in MyMiddleware.run()
LOG: Closed client: /10.0.0.6:46088in MyMiddleware.run()
LOG: Closed client: /10.0.0.6:46072in MyMiddleware.run()
LOG: Closed client: /10.0.0.6:46058in MyMiddleware.run()
LOG: Closed client: /10.0.0.6:46080in MyMiddleware.run()
LOG: Closed client: /10.0.0.6:46084in MyMiddleware.run()
LOG: Closed client: /10.0.0.6:46064in MyMiddleware.run()
LOG: Closed client: /10.0.0.6:46066in MyMiddleware.run()
LOG: Closed client: /10.0.0.6:46086in MyMiddleware.run()
LOG: Closed client: /10.0.0.6:46070in MyMiddleware.run()
LOG: Closed client: /10.0.0.6:46062in MyMiddleware.run()
LOG: Closed client: /10.0.0.6:46076in MyMiddleware.run()
LOG: Closed client: /10.0.0.6:46068in MyMiddleware.run()
LOG: Closed client: /10.0.0.6:46056in MyMiddleware.run()
LOG: Closed client: /10.0.0.6:46054in MyMiddleware.run()
LOG: Closed client: /10.0.0.6:46074in MyMiddleware.run()
LOG: Closed client: /10.0.0.6:46090in MyMiddleware.run()
LOG: Closed client: /10.0.0.6:46134in MyMiddleware.run()
LOG: Closed client: /10.0.0.6:46136in MyMiddleware.run()
LOG: Closed client: /10.0.0.6:46142in MyMiddleware.run()
LOG: Closed client: /10.0.0.6:46092in MyMiddleware.run()
LOG: Closed client: /10.0.0.6:46108in MyMiddleware.run()
LOG: Closed client: /10.0.0.6:46138in MyMiddleware.run()
LOG: Closed client: /10.0.0.6:46098in MyMiddleware.run()
LOG: Closed client: /10.0.0.6:46102in MyMiddleware.run()
LOG: Closed client: /10.0.0.6:46140in MyMiddleware.run()
LOG: Closed client: /10.0.0.6:46110in MyMiddleware.run()
LOG: Closed client: /10.0.0.6:46116in MyMiddleware.run()
LOG: Closed client: /10.0.0.6:46120in MyMiddleware.run()
LOG: Closed client: /10.0.0.6:46146in MyMiddleware.run()
LOG: Closed client: /10.0.0.6:46094in MyMiddleware.run()
LOG: Closed client: /10.0.0.6:46128in MyMiddleware.run()
LOG: Closed client: /10.0.0.6:46114in MyMiddleware.run()
LOG: Closed client: /10.0.0.6:46130in MyMiddleware.run()
LOG: Closed client: /10.0.0.6:46104in MyMiddleware.run()
LOG: Closed client: /10.0.0.6:46096in MyMiddleware.run()
LOG: Closed client: /10.0.0.6:46132in MyMiddleware.run()
LOG: Closed client: /10.0.0.6:46126in MyMiddleware.run()
LOG: Closed client: /10.0.0.6:46106in MyMiddleware.run()
LOG: Closed client: /10.0.0.6:46118in MyMiddleware.run()
LOG: Closed client: /10.0.0.6:46112in MyMiddleware.run()
LOG: Closed client: /10.0.0.6:46100in MyMiddleware.run()
LOG: Closed client: /10.0.0.6:46082in MyMiddleware.run()
LOG: Closed client: /10.0.0.6:46124in MyMiddleware.run()
LOG: Closed client: /10.0.0.6:46144in MyMiddleware.run()
LOG: Closed client: /10.0.0.6:46122in MyMiddleware.run()
LOG: Closed client: /10.0.0.6:46148in MyMiddleware.run()
LOG: Closed client: /10.0.0.6:46152in MyMiddleware.run()
LOG: Closed client: /10.0.0.6:46154in MyMiddleware.run()
LOG: Closed client: /10.0.0.6:46150in MyMiddleware.run()
