------------Middleware started!------------
LOG: Waiting for connection in MyMiddleware.run()
LOG: Accepted client: /10.0.0.6:43484in MyMiddleware.run()
LOG: Accepted client: /10.0.0.6:43548in MyMiddleware.run()
LOG: Accepted client: /10.0.0.6:43498in MyMiddleware.run()
LOG: Accepted client: /10.0.0.6:43470in MyMiddleware.run()
LOG: Accepted client: /10.0.0.6:43492in MyMiddleware.run()
LOG: Accepted client: /10.0.0.6:43546in MyMiddleware.run()
LOG: Accepted client: /10.0.0.6:43534in MyMiddleware.run()
LOG: Accepted client: /10.0.0.6:43540in MyMiddleware.run()
LOG: Accepted client: /10.0.0.6:43588in MyMiddleware.run()
LOG: Accepted client: /10.0.0.6:43504in MyMiddleware.run()
LOG: Accepted client: /10.0.0.6:43462in MyMiddleware.run()
LOG: Accepted client: /10.0.0.6:43488in MyMiddleware.run()
LOG: Accepted client: /10.0.0.6:43468in MyMiddleware.run()
LOG: Accepted client: /10.0.0.6:43554in MyMiddleware.run()
LOG: Accepted client: /10.0.0.6:43494in MyMiddleware.run()
LOG: Accepted client: /10.0.0.6:43490in MyMiddleware.run()
LOG: Accepted client: /10.0.0.6:43508in MyMiddleware.run()
LOG: Accepted client: /10.0.0.6:43544in MyMiddleware.run()
LOG: Accepted client: /10.0.0.6:43486in MyMiddleware.run()
LOG: Accepted client: /10.0.0.6:43580in MyMiddleware.run()
LOG: Accepted client: /10.0.0.6:43478in MyMiddleware.run()
LOG: Accepted client: /10.0.0.6:43502in MyMiddleware.run()
LOG: Accepted client: /10.0.0.6:43524in MyMiddleware.run()
LOG: Accepted client: /10.0.0.6:43500in MyMiddleware.run()
LOG: Accepted client: /10.0.0.6:43574in MyMiddleware.run()
LOG: Accepted client: /10.0.0.6:43542in MyMiddleware.run()
LOG: Accepted client: /10.0.0.6:43558in MyMiddleware.run()
LOG: Accepted client: /10.0.0.6:43536in MyMiddleware.run()
LOG: Accepted client: /10.0.0.6:43560in MyMiddleware.run()
LOG: Accepted client: /10.0.0.6:43480in MyMiddleware.run()
LOG: Accepted client: /10.0.0.6:43582in MyMiddleware.run()
LOG: Accepted client: /10.0.0.6:43512in MyMiddleware.run()
LOG: Accepted client: /10.0.0.6:43576in MyMiddleware.run()
LOG: Accepted client: /10.0.0.6:43530in MyMiddleware.run()
LOG: Accepted client: /10.0.0.6:43520in MyMiddleware.run()
LOG: Accepted client: /10.0.0.6:43514in MyMiddleware.run()
LOG: Accepted client: /10.0.0.6:43472in MyMiddleware.run()
LOG: Accepted client: /10.0.0.6:43572in MyMiddleware.run()
LOG: Accepted client: /10.0.0.6:43562in MyMiddleware.run()
LOG: Accepted client: /10.0.0.6:43550in MyMiddleware.run()
LOG: Accepted client: /10.0.0.6:43522in MyMiddleware.run()
LOG: Accepted client: /10.0.0.6:43516in MyMiddleware.run()
LOG: Accepted client: /10.0.0.6:43518in MyMiddleware.run()
LOG: Accepted client: /10.0.0.6:43552in MyMiddleware.run()
LOG: Accepted client: /10.0.0.6:43532in MyMiddleware.run()
LOG: Accepted client: /10.0.0.6:43506in MyMiddleware.run()
LOG: Accepted client: /10.0.0.6:43482in MyMiddleware.run()
LOG: Accepted client: /10.0.0.6:43578in MyMiddleware.run()
LOG: Accepted client: /10.0.0.6:43538in MyMiddleware.run()
LOG: Accepted client: /10.0.0.6:43526in MyMiddleware.run()
LOG: Accepted client: /10.0.0.6:43496in MyMiddleware.run()
LOG: Accepted client: /10.0.0.6:43474in MyMiddleware.run()
LOG: Accepted client: /10.0.0.6:43528in MyMiddleware.run()
LOG: Accepted client: /10.0.0.11:60836in MyMiddleware.run()
LOG: Accepted client: /10.0.0.11:60838in MyMiddleware.run()
LOG: Accepted client: /10.0.0.11:60842in MyMiddleware.run()
LOG: Accepted client: /10.0.0.11:60840in MyMiddleware.run()
LOG: Accepted client: /10.0.0.11:60844in MyMiddleware.run()
LOG: Accepted client: /10.0.0.11:60890in MyMiddleware.run()
LOG: Accepted client: /10.0.0.11:60846in MyMiddleware.run()
LOG: Accepted client: /10.0.0.11:60864in MyMiddleware.run()
LOG: Accepted client: /10.0.0.11:60856in MyMiddleware.run()
LOG: Accepted client: /10.0.0.6:43564in MyMiddleware.run()
LOG: Accepted client: /10.0.0.6:43566in MyMiddleware.run()
LOG: Accepted client: /10.0.0.6:43568in MyMiddleware.run()
LOG: Accepted client: /10.0.0.6:43570in MyMiddleware.run()
LOG: Accepted client: /10.0.0.6:43510in MyMiddleware.run()
LOG: Accepted client: /10.0.0.6:43586in MyMiddleware.run()
LOG: Accepted client: /10.0.0.6:43584in MyMiddleware.run()
LOG: Accepted client: /10.0.0.6:43556in MyMiddleware.run()
LOG: Accepted client: /10.0.0.6:43464in MyMiddleware.run()
LOG: Accepted client: /10.0.0.6:43476in MyMiddleware.run()
LOG: Accepted client: /10.0.0.6:43466in MyMiddleware.run()
LOG: Accepted client: /10.0.0.11:60884in MyMiddleware.run()
LOG: Accepted client: /10.0.0.11:60886in MyMiddleware.run()
LOG: Accepted client: /10.0.0.11:60878in MyMiddleware.run()
LOG: Accepted client: /10.0.0.11:60880in MyMiddleware.run()
LOG: Accepted client: /10.0.0.11:60868in MyMiddleware.run()
LOG: Accepted client: /10.0.0.11:60848in MyMiddleware.run()
LOG: Accepted client: /10.0.0.11:60882in MyMiddleware.run()
LOG: Accepted client: /10.0.0.11:60888in MyMiddleware.run()
LOG: Accepted client: /10.0.0.11:60858in MyMiddleware.run()
LOG: Accepted client: /10.0.0.11:60870in MyMiddleware.run()
LOG: Accepted client: /10.0.0.11:60850in MyMiddleware.run()
LOG: Accepted client: /10.0.0.11:60876in MyMiddleware.run()
LOG: Accepted client: /10.0.0.11:60852in MyMiddleware.run()
LOG: Accepted client: /10.0.0.7:33372in MyMiddleware.run()
LOG: Accepted client: /10.0.0.7:33356in MyMiddleware.run()
LOG: Accepted client: /10.0.0.7:33334in MyMiddleware.run()
LOG: Accepted client: /10.0.0.7:33250in MyMiddleware.run()
LOG: Accepted client: /10.0.0.7:33348in MyMiddleware.run()
LOG: Accepted client: /10.0.0.7:33358in MyMiddleware.run()
LOG: Accepted client: /10.0.0.7:33322in MyMiddleware.run()
LOG: Accepted client: /10.0.0.11:60768in MyMiddleware.run()
LOG: Accepted client: /10.0.0.11:60808in MyMiddleware.run()
LOG: Accepted client: /10.0.0.7:33350in MyMiddleware.run()
LOG: Accepted client: /10.0.0.11:60800in MyMiddleware.run()
LOG: Accepted client: /10.0.0.7:33328in MyMiddleware.run()
LOG: Accepted client: /10.0.0.11:60854in MyMiddleware.run()
LOG: Accepted client: /10.0.0.7:33330in MyMiddleware.run()
LOG: Accepted client: /10.0.0.7:33260in MyMiddleware.run()
LOG: Accepted client: /10.0.0.7:33296in MyMiddleware.run()
LOG: Accepted client: /10.0.0.7:33262in MyMiddleware.run()
LOG: Accepted client: /10.0.0.7:33342in MyMiddleware.run()
LOG: Accepted client: /10.0.0.7:33354in MyMiddleware.run()
LOG: Accepted client: /10.0.0.11:60866in MyMiddleware.run()
LOG: Accepted client: /10.0.0.7:33280in MyMiddleware.run()
LOG: Accepted client: /10.0.0.11:60826in MyMiddleware.run()
LOG: Accepted client: /10.0.0.7:33278in MyMiddleware.run()
LOG: Accepted client: /10.0.0.7:33270in MyMiddleware.run()
LOG: Accepted client: /10.0.0.7:33360in MyMiddleware.run()
LOG: Accepted client: /10.0.0.7:33374in MyMiddleware.run()
LOG: Accepted client: /10.0.0.7:33288in MyMiddleware.run()
LOG: Accepted client: /10.0.0.7:33320in MyMiddleware.run()
LOG: Accepted client: /10.0.0.11:60786in MyMiddleware.run()
LOG: Accepted client: /10.0.0.11:60834in MyMiddleware.run()
LOG: Accepted client: /10.0.0.11:60832in MyMiddleware.run()
LOG: Accepted client: /10.0.0.11:60776in MyMiddleware.run()
LOG: Accepted client: /10.0.0.7:33338in MyMiddleware.run()
LOG: Accepted client: /10.0.0.7:33340in MyMiddleware.run()
LOG: Accepted client: /10.0.0.7:33352in MyMiddleware.run()
LOG: Accepted client: /10.0.0.11:60804in MyMiddleware.run()
LOG: Accepted client: /10.0.0.11:60780in MyMiddleware.run()
LOG: Accepted client: /10.0.0.7:33326in MyMiddleware.run()
LOG: Accepted client: /10.0.0.11:60774in MyMiddleware.run()
LOG: Accepted client: /10.0.0.11:60796in MyMiddleware.run()
LOG: Accepted client: /10.0.0.11:60802in MyMiddleware.run()
LOG: Accepted client: /10.0.0.11:60818in MyMiddleware.run()
LOG: Accepted client: /10.0.0.11:60874in MyMiddleware.run()
LOG: Accepted client: /10.0.0.11:60862in MyMiddleware.run()
LOG: Accepted client: /10.0.0.7:33268in MyMiddleware.run()
LOG: Accepted client: /10.0.0.11:60824in MyMiddleware.run()
LOG: Accepted client: /10.0.0.11:60764in MyMiddleware.run()
LOG: Accepted client: /10.0.0.7:33292in MyMiddleware.run()
LOG: Accepted client: /10.0.0.7:33316in MyMiddleware.run()
LOG: Accepted client: /10.0.0.11:60790in MyMiddleware.run()
LOG: Accepted client: /10.0.0.7:33266in MyMiddleware.run()
LOG: Accepted client: /10.0.0.7:33308in MyMiddleware.run()
LOG: Accepted client: /10.0.0.7:33366in MyMiddleware.run()
LOG: Accepted client: /10.0.0.7:33274in MyMiddleware.run()
LOG: Accepted client: /10.0.0.7:33264in MyMiddleware.run()
LOG: Accepted client: /10.0.0.7:33284in MyMiddleware.run()
LOG: Accepted client: /10.0.0.7:33248in MyMiddleware.run()
LOG: Accepted client: /10.0.0.7:33310in MyMiddleware.run()
LOG: Accepted client: /10.0.0.7:33294in MyMiddleware.run()
LOG: Accepted client: /10.0.0.11:60828in MyMiddleware.run()
LOG: Accepted client: /10.0.0.7:33282in MyMiddleware.run()
LOG: Accepted client: /10.0.0.11:60766in MyMiddleware.run()
LOG: Accepted client: /10.0.0.7:33368in MyMiddleware.run()
LOG: Accepted client: /10.0.0.7:33314in MyMiddleware.run()
LOG: Accepted client: /10.0.0.7:33318in MyMiddleware.run()
LOG: Accepted client: /10.0.0.7:33324in MyMiddleware.run()
LOG: Accepted client: /10.0.0.11:60784in MyMiddleware.run()
LOG: Accepted client: /10.0.0.7:33298in MyMiddleware.run()
LOG: Accepted client: /10.0.0.11:60788in MyMiddleware.run()
LOG: Accepted client: /10.0.0.11:60792in MyMiddleware.run()
LOG: Accepted client: /10.0.0.11:60830in MyMiddleware.run()
LOG: Accepted client: /10.0.0.11:60812in MyMiddleware.run()
LOG: Accepted client: /10.0.0.7:33290in MyMiddleware.run()
LOG: Accepted client: /10.0.0.7:33272in MyMiddleware.run()
LOG: Accepted client: /10.0.0.7:33286in MyMiddleware.run()
LOG: Accepted client: /10.0.0.7:33362in MyMiddleware.run()
LOG: Accepted client: /10.0.0.7:33364in MyMiddleware.run()
LOG: Accepted client: /10.0.0.11:60820in MyMiddleware.run()
LOG: Accepted client: /10.0.0.7:33312in MyMiddleware.run()
LOG: Accepted client: /10.0.0.11:60814in MyMiddleware.run()
LOG: Accepted client: /10.0.0.11:60794in MyMiddleware.run()
LOG: Accepted client: /10.0.0.7:33302in MyMiddleware.run()
LOG: Accepted client: /10.0.0.7:33256in MyMiddleware.run()
LOG: Accepted client: /10.0.0.7:33306in MyMiddleware.run()
LOG: Accepted client: /10.0.0.7:33252in MyMiddleware.run()
LOG: Accepted client: /10.0.0.7:33346in MyMiddleware.run()
LOG: Accepted client: /10.0.0.7:33344in MyMiddleware.run()
LOG: Accepted client: /10.0.0.11:60810in MyMiddleware.run()
LOG: Accepted client: /10.0.0.7:33300in MyMiddleware.run()
LOG: Accepted client: /10.0.0.11:60806in MyMiddleware.run()
LOG: Accepted client: /10.0.0.11:60782in MyMiddleware.run()
LOG: Accepted client: /10.0.0.7:33258in MyMiddleware.run()
LOG: Accepted client: /10.0.0.7:33336in MyMiddleware.run()
LOG: Accepted client: /10.0.0.11:60778in MyMiddleware.run()
LOG: Accepted client: /10.0.0.11:60860in MyMiddleware.run()
LOG: Accepted client: /10.0.0.11:60770in MyMiddleware.run()
LOG: Accepted client: /10.0.0.11:60798in MyMiddleware.run()
LOG: Accepted client: /10.0.0.11:60822in MyMiddleware.run()
LOG: Accepted client: /10.0.0.11:60872in MyMiddleware.run()
LOG: Accepted client: /10.0.0.11:60816in MyMiddleware.run()
LOG: Accepted client: /10.0.0.11:60772in MyMiddleware.run()
LOG: Accepted client: /10.0.0.7:33370in MyMiddleware.run()
LOG: Accepted client: /10.0.0.7:33276in MyMiddleware.run()
LOG: Accepted client: /10.0.0.7:33254in MyMiddleware.run()
LOG: Accepted client: /10.0.0.7:33332in MyMiddleware.run()
LOG: Accepted client: /10.0.0.7:33304in MyMiddleware.run()
LOG: Closed client: /10.0.0.6:43464in MyMiddleware.run()
LOG: Closed client: /10.0.0.6:43516in MyMiddleware.run()
LOG: Closed client: /10.0.0.6:43518in MyMiddleware.run()
LOG: Closed client: /10.0.0.6:43496in MyMiddleware.run()
LOG: Closed client: /10.0.0.6:43504in MyMiddleware.run()
LOG: Closed client: /10.0.0.6:43498in MyMiddleware.run()
LOG: Closed client: /10.0.0.6:43480in MyMiddleware.run()
LOG: Closed client: /10.0.0.6:43482in MyMiddleware.run()
LOG: Closed client: /10.0.0.6:43506in MyMiddleware.run()
LOG: Closed client: /10.0.0.6:43524in MyMiddleware.run()
LOG: Closed client: /10.0.0.6:43484in MyMiddleware.run()
LOG: Closed client: /10.0.0.6:43494in MyMiddleware.run()
LOG: Closed client: /10.0.0.6:43508in MyMiddleware.run()
LOG: Closed client: /10.0.0.6:43488in MyMiddleware.run()
LOG: Closed client: /10.0.0.6:43510in MyMiddleware.run()
LOG: Closed client: /10.0.0.6:43502in MyMiddleware.run()
LOG: Closed client: /10.0.0.6:43470in MyMiddleware.run()
LOG: Closed client: /10.0.0.6:43490in MyMiddleware.run()
LOG: Closed client: /10.0.0.6:43476in MyMiddleware.run()
LOG: Closed client: /10.0.0.6:43468in MyMiddleware.run()
LOG: Closed client: /10.0.0.6:43474in MyMiddleware.run()
LOG: Closed client: /10.0.0.6:43462in MyMiddleware.run()
LOG: Closed client: /10.0.0.6:43466in MyMiddleware.run()
LOG: Closed client: /10.0.0.6:43500in MyMiddleware.run()
LOG: Closed client: /10.0.0.6:43486in MyMiddleware.run()
LOG: Closed client: /10.0.0.6:43514in MyMiddleware.run()
LOG: Closed client: /10.0.0.6:43522in MyMiddleware.run()
LOG: Closed client: /10.0.0.6:43520in MyMiddleware.run()
LOG: Closed client: /10.0.0.6:43478in MyMiddleware.run()
LOG: Closed client: /10.0.0.6:43512in MyMiddleware.run()
LOG: Closed client: /10.0.0.6:43472in MyMiddleware.run()
LOG: Closed client: /10.0.0.6:43492in MyMiddleware.run()
LOG: Closed client: /10.0.0.6:43536in MyMiddleware.run()
LOG: Closed client: /10.0.0.6:43532in MyMiddleware.run()
LOG: Closed client: /10.0.0.6:43550in MyMiddleware.run()
LOG: Closed client: /10.0.0.6:43542in MyMiddleware.run()
LOG: Closed client: /10.0.0.6:43586in MyMiddleware.run()
LOG: Closed client: /10.0.0.6:43576in MyMiddleware.run()
LOG: Closed client: /10.0.0.6:43546in MyMiddleware.run()
LOG: Closed client: /10.0.0.6:43552in MyMiddleware.run()
LOG: Closed client: /10.0.0.6:43558in MyMiddleware.run()
LOG: Closed client: /10.0.0.6:43582in MyMiddleware.run()
LOG: Closed client: /10.0.0.6:43534in MyMiddleware.run()
LOG: Closed client: /10.0.0.6:43538in MyMiddleware.run()
LOG: Closed client: /10.0.0.6:43530in MyMiddleware.run()
LOG: Closed client: /10.0.0.6:43588in MyMiddleware.run()
LOG: Closed client: /10.0.0.6:43554in MyMiddleware.run()
LOG: Closed client: /10.0.0.6:43526in MyMiddleware.run()
LOG: Closed client: /10.0.0.6:43540in MyMiddleware.run()
LOG: Closed client: /10.0.0.6:43556in MyMiddleware.run()
LOG: Closed client: /10.0.0.6:43566in MyMiddleware.run()
LOG: Closed client: /10.0.0.6:43528in MyMiddleware.run()
LOG: Closed client: /10.0.0.6:43574in MyMiddleware.run()
LOG: Closed client: /10.0.0.6:43560in MyMiddleware.run()
LOG: Closed client: /10.0.0.6:43568in MyMiddleware.run()
LOG: Closed client: /10.0.0.6:43570in MyMiddleware.run()
LOG: Closed client: /10.0.0.6:43548in MyMiddleware.run()
LOG: Closed client: /10.0.0.6:43564in MyMiddleware.run()
LOG: Closed client: /10.0.0.6:43544in MyMiddleware.run()
LOG: Closed client: /10.0.0.6:43578in MyMiddleware.run()
LOG: Closed client: /10.0.0.6:43580in MyMiddleware.run()
LOG: Closed client: /10.0.0.6:43562in MyMiddleware.run()
LOG: Closed client: /10.0.0.6:43572in MyMiddleware.run()
LOG: Closed client: /10.0.0.6:43584in MyMiddleware.run()
LOG: Closed client: /10.0.0.7:33248in MyMiddleware.run()
LOG: Closed client: /10.0.0.7:33254in MyMiddleware.run()
LOG: Closed client: /10.0.0.7:33250in MyMiddleware.run()
LOG: Closed client: /10.0.0.7:33256in MyMiddleware.run()
LOG: Closed client: /10.0.0.7:33296in MyMiddleware.run()
LOG: Closed client: /10.0.0.7:33302in MyMiddleware.run()
LOG: Closed client: /10.0.0.7:33310in MyMiddleware.run()
LOG: Closed client: /10.0.0.7:33262in MyMiddleware.run()
LOG: Closed client: /10.0.0.7:33260in MyMiddleware.run()
LOG: Closed client: /10.0.0.7:33264in MyMiddleware.run()
LOG: Closed client: /10.0.0.7:33258in MyMiddleware.run()
LOG: Closed client: /10.0.0.7:33308in MyMiddleware.run()
LOG: Closed client: /10.0.0.7:33268in MyMiddleware.run()
LOG: Closed client: /10.0.0.7:33272in MyMiddleware.run()
LOG: Closed client: /10.0.0.7:33286in MyMiddleware.run()
LOG: Closed client: /10.0.0.7:33280in MyMiddleware.run()
LOG: Closed client: /10.0.0.7:33294in MyMiddleware.run()
LOG: Closed client: /10.0.0.7:33306in MyMiddleware.run()
LOG: Closed client: /10.0.0.7:33298in MyMiddleware.run()
LOG: Closed client: /10.0.0.7:33282in MyMiddleware.run()
LOG: Closed client: /10.0.0.7:33284in MyMiddleware.run()
LOG: Closed client: /10.0.0.7:33292in MyMiddleware.run()
LOG: Closed client: /10.0.0.7:33252in MyMiddleware.run()
LOG: Closed client: /10.0.0.7:33270in MyMiddleware.run()
LOG: Closed client: /10.0.0.7:33274in MyMiddleware.run()
LOG: Closed client: /10.0.0.7:33276in MyMiddleware.run()
LOG: Closed client: /10.0.0.7:33290in MyMiddleware.run()
LOG: Closed client: /10.0.0.7:33300in MyMiddleware.run()
LOG: Closed client: /10.0.0.7:33288in MyMiddleware.run()
LOG: Closed client: /10.0.0.7:33266in MyMiddleware.run()
LOG: Closed client: /10.0.0.7:33304in MyMiddleware.run()
LOG: Closed client: /10.0.0.7:33278in MyMiddleware.run()
LOG: Closed client: /10.0.0.7:33336in MyMiddleware.run()
LOG: Closed client: /10.0.0.7:33348in MyMiddleware.run()
LOG: Closed client: /10.0.0.7:33350in MyMiddleware.run()
LOG: Closed client: /10.0.0.7:33362in MyMiddleware.run()
LOG: Closed client: /10.0.0.7:33326in MyMiddleware.run()
LOG: Closed client: /10.0.0.7:33346in MyMiddleware.run()
LOG: Closed client: /10.0.0.7:33338in MyMiddleware.run()
LOG: Closed client: /10.0.0.7:33360in MyMiddleware.run()
LOG: Closed client: /10.0.0.7:33368in MyMiddleware.run()
LOG: Closed client: /10.0.0.7:33344in MyMiddleware.run()
LOG: Closed client: /10.0.0.7:33340in MyMiddleware.run()
LOG: Closed client: /10.0.0.7:33332in MyMiddleware.run()
LOG: Closed client: /10.0.0.7:33352in MyMiddleware.run()
LOG: Closed client: /10.0.0.7:33322in MyMiddleware.run()
LOG: Closed client: /10.0.0.7:33366in MyMiddleware.run()
LOG: Closed client: /10.0.0.7:33312in MyMiddleware.run()
LOG: Closed client: /10.0.0.7:33364in MyMiddleware.run()
LOG: Closed client: /10.0.0.7:33324in MyMiddleware.run()
LOG: Closed client: /10.0.0.7:33356in MyMiddleware.run()
LOG: Closed client: /10.0.0.7:33342in MyMiddleware.run()
LOG: Closed client: /10.0.0.7:33316in MyMiddleware.run()
LOG: Closed client: /10.0.0.7:33354in MyMiddleware.run()
LOG: Closed client: /10.0.0.7:33334in MyMiddleware.run()
LOG: Closed client: /10.0.0.7:33372in MyMiddleware.run()
LOG: Closed client: /10.0.0.7:33314in MyMiddleware.run()
LOG: Closed client: /10.0.0.7:33374in MyMiddleware.run()
LOG: Closed client: /10.0.0.7:33370in MyMiddleware.run()
LOG: Closed client: /10.0.0.7:33328in MyMiddleware.run()
LOG: Closed client: /10.0.0.7:33358in MyMiddleware.run()
LOG: Closed client: /10.0.0.7:33318in MyMiddleware.run()
LOG: Closed client: /10.0.0.7:33330in MyMiddleware.run()
LOG: Closed client: /10.0.0.7:33320in MyMiddleware.run()
LOG: Closed client: /10.0.0.11:60764in MyMiddleware.run()
LOG: Closed client: /10.0.0.11:60770in MyMiddleware.run()
LOG: Closed client: /10.0.0.11:60780in MyMiddleware.run()
LOG: Closed client: /10.0.0.11:60766in MyMiddleware.run()
LOG: Closed client: /10.0.0.11:60772in MyMiddleware.run()
LOG: Closed client: /10.0.0.11:60792in MyMiddleware.run()
LOG: Closed client: /10.0.0.11:60774in MyMiddleware.run()
LOG: Closed client: /10.0.0.11:60778in MyMiddleware.run()
LOG: Closed client: /10.0.0.11:60788in MyMiddleware.run()
LOG: Closed client: /10.0.0.11:60776in MyMiddleware.run()
LOG: Closed client: /10.0.0.11:60786in MyMiddleware.run()
LOG: Closed client: /10.0.0.11:60794in MyMiddleware.run()
LOG: Closed client: /10.0.0.11:60790in MyMiddleware.run()
LOG: Closed client: /10.0.0.11:60768in MyMiddleware.run()
LOG: Closed client: /10.0.0.11:60784in MyMiddleware.run()
LOG: Closed client: /10.0.0.11:60782in MyMiddleware.run()
LOG: Closed client: /10.0.0.11:60816in MyMiddleware.run()
LOG: Closed client: /10.0.0.11:60814in MyMiddleware.run()
LOG: Closed client: /10.0.0.11:60812in MyMiddleware.run()
LOG: Closed client: /10.0.0.11:60806in MyMiddleware.run()
LOG: Closed client: /10.0.0.11:60810in MyMiddleware.run()
LOG: Closed client: /10.0.0.11:60802in MyMiddleware.run()
LOG: Closed client: /10.0.0.11:60796in MyMiddleware.run()
LOG: Closed client: /10.0.0.11:60822in MyMiddleware.run()
LOG: Closed client: /10.0.0.11:60818in MyMiddleware.run()
LOG: Closed client: /10.0.0.11:60824in MyMiddleware.run()
LOG: Closed client: /10.0.0.11:60820in MyMiddleware.run()
LOG: Closed client: /10.0.0.11:60808in MyMiddleware.run()
LOG: Closed client: /10.0.0.11:60800in MyMiddleware.run()
LOG: Closed client: /10.0.0.11:60804in MyMiddleware.run()
LOG: Closed client: /10.0.0.11:60798in MyMiddleware.run()
LOG: Closed client: /10.0.0.11:60856in MyMiddleware.run()
LOG: Closed client: /10.0.0.11:60834in MyMiddleware.run()
LOG: Closed client: /10.0.0.11:60830in MyMiddleware.run()
LOG: Closed client: /10.0.0.11:60848in MyMiddleware.run()
LOG: Closed client: /10.0.0.11:60840in MyMiddleware.run()
LOG: Closed client: /10.0.0.11:60828in MyMiddleware.run()
LOG: Closed client: /10.0.0.11:60836in MyMiddleware.run()
LOG: Closed client: /10.0.0.11:60832in MyMiddleware.run()
LOG: Closed client: /10.0.0.11:60846in MyMiddleware.run()
LOG: Closed client: /10.0.0.11:60826in MyMiddleware.run()
LOG: Closed client: /10.0.0.11:60854in MyMiddleware.run()
LOG: Closed client: /10.0.0.11:60838in MyMiddleware.run()
LOG: Closed client: /10.0.0.11:60858in MyMiddleware.run()
LOG: Closed client: /10.0.0.11:60844in MyMiddleware.run()
LOG: Closed client: /10.0.0.11:60842in MyMiddleware.run()
LOG: Closed client: /10.0.0.11:60868in MyMiddleware.run()
LOG: Closed client: /10.0.0.11:60880in MyMiddleware.run()
LOG: Closed client: /10.0.0.11:60862in MyMiddleware.run()
LOG: Closed client: /10.0.0.11:60866in MyMiddleware.run()
LOG: Closed client: /10.0.0.11:60850in MyMiddleware.run()
LOG: Closed client: /10.0.0.11:60864in MyMiddleware.run()
LOG: Closed client: /10.0.0.11:60886in MyMiddleware.run()
LOG: Closed client: /10.0.0.11:60852in MyMiddleware.run()
LOG: Closed client: /10.0.0.11:60884in MyMiddleware.run()
LOG: Closed client: /10.0.0.11:60870in MyMiddleware.run()
LOG: Closed client: /10.0.0.11:60874in MyMiddleware.run()
LOG: Closed client: /10.0.0.11:60860in MyMiddleware.run()
LOG: Closed client: /10.0.0.11:60882in MyMiddleware.run()
LOG: Closed client: /10.0.0.11:60888in MyMiddleware.run()
LOG: Closed client: /10.0.0.11:60890in MyMiddleware.run()
LOG: Closed client: /10.0.0.11:60876in MyMiddleware.run()
LOG: Closed client: /10.0.0.11:60872in MyMiddleware.run()
LOG: Closed client: /10.0.0.11:60878in MyMiddleware.run()
