------------Middleware started!------------
LOG: Waiting for connection in MyMiddleware.run()
LOG: Accepted client: /10.0.0.6:36028in MyMiddleware.run()
LOG: Accepted client: /10.0.0.6:36018in MyMiddleware.run()
LOG: Accepted client: /10.0.0.6:36024in MyMiddleware.run()
LOG: Accepted client: /10.0.0.6:36026in MyMiddleware.run()
LOG: Accepted client: /10.0.0.6:36004in MyMiddleware.run()
LOG: Accepted client: /10.0.0.6:36002in MyMiddleware.run()
LOG: Accepted client: /10.0.0.6:36022in MyMiddleware.run()
LOG: Accepted client: /10.0.0.6:36016in MyMiddleware.run()
LOG: Accepted client: /10.0.0.6:36030in MyMiddleware.run()
LOG: Accepted client: /10.0.0.6:36020in MyMiddleware.run()
LOG: Accepted client: /10.0.0.6:36000in MyMiddleware.run()
LOG: Accepted client: /10.0.0.6:36006in MyMiddleware.run()
LOG: Accepted client: /10.0.0.6:36014in MyMiddleware.run()
LOG: Accepted client: /10.0.0.6:36012in MyMiddleware.run()
LOG: Accepted client: /10.0.0.6:36010in MyMiddleware.run()
LOG: Accepted client: /10.0.0.6:36008in MyMiddleware.run()
LOG: Accepted client: /10.0.0.7:54022in MyMiddleware.run()
LOG: Accepted client: /10.0.0.7:54010in MyMiddleware.run()
LOG: Accepted client: /10.0.0.7:54020in MyMiddleware.run()
LOG: Accepted client: /10.0.0.7:54012in MyMiddleware.run()
LOG: Accepted client: /10.0.0.7:54014in MyMiddleware.run()
LOG: Accepted client: /10.0.0.7:54016in MyMiddleware.run()
LOG: Accepted client: /10.0.0.7:54008in MyMiddleware.run()
LOG: Accepted client: /10.0.0.7:54038in MyMiddleware.run()
LOG: Accepted client: /10.0.0.7:54018in MyMiddleware.run()
LOG: Accepted client: /10.0.0.7:54036in MyMiddleware.run()
LOG: Accepted client: /10.0.0.7:54030in MyMiddleware.run()
LOG: Accepted client: /10.0.0.7:54024in MyMiddleware.run()
LOG: Accepted client: /10.0.0.7:54028in MyMiddleware.run()
LOG: Accepted client: /10.0.0.7:54026in MyMiddleware.run()
LOG: Accepted client: /10.0.0.7:54032in MyMiddleware.run()
LOG: Accepted client: /10.0.0.7:54034in MyMiddleware.run()
LOG: Accepted client: /10.0.0.11:53322in MyMiddleware.run()
LOG: Accepted client: /10.0.0.11:53324in MyMiddleware.run()
LOG: Accepted client: /10.0.0.11:53330in MyMiddleware.run()
LOG: Accepted client: /10.0.0.11:53318in MyMiddleware.run()
LOG: Accepted client: /10.0.0.11:53316in MyMiddleware.run()
LOG: Accepted client: /10.0.0.11:53326in MyMiddleware.run()
LOG: Accepted client: /10.0.0.11:53310in MyMiddleware.run()
LOG: Accepted client: /10.0.0.11:53332in MyMiddleware.run()
LOG: Accepted client: /10.0.0.11:53308in MyMiddleware.run()
LOG: Accepted client: /10.0.0.11:53336in MyMiddleware.run()
LOG: Accepted client: /10.0.0.11:53328in MyMiddleware.run()
LOG: Accepted client: /10.0.0.11:53320in MyMiddleware.run()
LOG: Accepted client: /10.0.0.11:53306in MyMiddleware.run()
LOG: Accepted client: /10.0.0.11:53334in MyMiddleware.run()
LOG: Accepted client: /10.0.0.11:53314in MyMiddleware.run()
LOG: Accepted client: /10.0.0.11:53312in MyMiddleware.run()
LOG: Closed client: /10.0.0.7:54020in MyMiddleware.run()
LOG: Closed client: /10.0.0.7:54018in MyMiddleware.run()
LOG: Closed client: /10.0.0.7:54010in MyMiddleware.run()
LOG: Closed client: /10.0.0.7:54012in MyMiddleware.run()
LOG: Closed client: /10.0.0.7:54008in MyMiddleware.run()
LOG: Closed client: /10.0.0.7:54016in MyMiddleware.run()
LOG: Closed client: /10.0.0.11:53320in MyMiddleware.run()
LOG: Closed client: /10.0.0.11:53312in MyMiddleware.run()
LOG: Closed client: /10.0.0.11:53308in MyMiddleware.run()
LOG: Closed client: /10.0.0.11:53318in MyMiddleware.run()
LOG: Closed client: /10.0.0.7:54024in MyMiddleware.run()
LOG: Closed client: /10.0.0.7:54014in MyMiddleware.run()
LOG: Closed client: /10.0.0.7:54034in MyMiddleware.run()
LOG: Closed client: /10.0.0.7:54030in MyMiddleware.run()
LOG: Closed client: /10.0.0.7:54022in MyMiddleware.run()
LOG: Closed client: /10.0.0.7:54032in MyMiddleware.run()
LOG: Closed client: /10.0.0.7:54028in MyMiddleware.run()
LOG: Closed client: /10.0.0.11:53306in MyMiddleware.run()
LOG: Closed client: /10.0.0.11:53322in MyMiddleware.run()
LOG: Closed client: /10.0.0.11:53310in MyMiddleware.run()
LOG: Closed client: /10.0.0.7:54036in MyMiddleware.run()
LOG: Closed client: /10.0.0.11:53324in MyMiddleware.run()
LOG: Closed client: /10.0.0.7:54026in MyMiddleware.run()
LOG: Closed client: /10.0.0.11:53314in MyMiddleware.run()
LOG: Closed client: /10.0.0.11:53316in MyMiddleware.run()
LOG: Closed client: /10.0.0.7:54038in MyMiddleware.run()
LOG: Closed client: /10.0.0.11:53336in MyMiddleware.run()
LOG: Closed client: /10.0.0.11:53328in MyMiddleware.run()
LOG: Closed client: /10.0.0.11:53330in MyMiddleware.run()
LOG: Closed client: /10.0.0.11:53332in MyMiddleware.run()
LOG: Closed client: /10.0.0.11:53326in MyMiddleware.run()
LOG: Closed client: /10.0.0.11:53334in MyMiddleware.run()
LOG: Closed client: /10.0.0.6:36026in MyMiddleware.run()
LOG: Closed client: /10.0.0.6:36008in MyMiddleware.run()
LOG: Closed client: /10.0.0.6:36028in MyMiddleware.run()
LOG: Closed client: /10.0.0.6:36010in MyMiddleware.run()
LOG: Closed client: /10.0.0.6:36014in MyMiddleware.run()
LOG: Closed client: /10.0.0.6:36016in MyMiddleware.run()
LOG: Closed client: /10.0.0.6:36020in MyMiddleware.run()
LOG: Closed client: /10.0.0.6:36024in MyMiddleware.run()
LOG: Closed client: /10.0.0.6:36022in MyMiddleware.run()
LOG: Closed client: /10.0.0.6:36006in MyMiddleware.run()
LOG: Closed client: /10.0.0.6:36002in MyMiddleware.run()
LOG: Closed client: /10.0.0.6:36000in MyMiddleware.run()
LOG: Closed client: /10.0.0.6:36030in MyMiddleware.run()
LOG: Closed client: /10.0.0.6:36012in MyMiddleware.run()
LOG: Closed client: /10.0.0.6:36004in MyMiddleware.run()
LOG: Closed client: /10.0.0.6:36018in MyMiddleware.run()
