------------Middleware started!------------
LOG: Waiting for connection in MyMiddleware.run()
LOG: Accepted client: /10.0.0.7:36460in MyMiddleware.run()
LOG: Accepted client: /10.0.0.7:36462in MyMiddleware.run()
LOG: Accepted client: /10.0.0.7:36464in MyMiddleware.run()
LOG: Accepted client: /10.0.0.7:36470in MyMiddleware.run()
LOG: Accepted client: /10.0.0.7:36474in MyMiddleware.run()
LOG: Accepted client: /10.0.0.7:36466in MyMiddleware.run()
LOG: Accepted client: /10.0.0.7:36468in MyMiddleware.run()
LOG: Accepted client: /10.0.0.7:36472in MyMiddleware.run()
LOG: Accepted client: /10.0.0.11:35760in MyMiddleware.run()
LOG: Accepted client: /10.0.0.11:35770in MyMiddleware.run()
LOG: Accepted client: /10.0.0.11:35766in MyMiddleware.run()
LOG: Accepted client: /10.0.0.11:35764in MyMiddleware.run()
LOG: Accepted client: /10.0.0.11:35768in MyMiddleware.run()
LOG: Accepted client: /10.0.0.11:35762in MyMiddleware.run()
LOG: Accepted client: /10.0.0.11:35772in MyMiddleware.run()
LOG: Accepted client: /10.0.0.11:35774in MyMiddleware.run()
LOG: Accepted client: /10.0.0.6:46682in MyMiddleware.run()
LOG: Accepted client: /10.0.0.6:46674in MyMiddleware.run()
LOG: Accepted client: /10.0.0.6:46676in MyMiddleware.run()
LOG: Accepted client: /10.0.0.6:46678in MyMiddleware.run()
LOG: Accepted client: /10.0.0.6:46684in MyMiddleware.run()
LOG: Accepted client: /10.0.0.6:46680in MyMiddleware.run()
LOG: Accepted client: /10.0.0.6:46688in MyMiddleware.run()
LOG: Accepted client: /10.0.0.6:46686in MyMiddleware.run()
LOG: Closed client: /10.0.0.11:35764in MyMiddleware.run()
LOG: Closed client: /10.0.0.11:35766in MyMiddleware.run()
LOG: Closed client: /10.0.0.11:35760in MyMiddleware.run()
LOG: Closed client: /10.0.0.11:35762in MyMiddleware.run()
LOG: Closed client: /10.0.0.11:35774in MyMiddleware.run()
LOG: Closed client: /10.0.0.11:35772in MyMiddleware.run()
LOG: Closed client: /10.0.0.11:35768in MyMiddleware.run()
LOG: Closed client: /10.0.0.11:35770in MyMiddleware.run()
LOG: Closed client: /10.0.0.6:46680in MyMiddleware.run()
LOG: Closed client: /10.0.0.6:46676in MyMiddleware.run()
LOG: Closed client: /10.0.0.6:46674in MyMiddleware.run()
LOG: Closed client: /10.0.0.6:46678in MyMiddleware.run()
LOG: Closed client: /10.0.0.6:46682in MyMiddleware.run()
LOG: Closed client: /10.0.0.6:46684in MyMiddleware.run()
LOG: Closed client: /10.0.0.6:46686in MyMiddleware.run()
LOG: Closed client: /10.0.0.6:46688in MyMiddleware.run()
LOG: Closed client: /10.0.0.7:36460in MyMiddleware.run()
LOG: Closed client: /10.0.0.7:36462in MyMiddleware.run()
LOG: Closed client: /10.0.0.7:36470in MyMiddleware.run()
LOG: Closed client: /10.0.0.7:36464in MyMiddleware.run()
LOG: Closed client: /10.0.0.7:36468in MyMiddleware.run()
LOG: Closed client: /10.0.0.7:36472in MyMiddleware.run()
LOG: Closed client: /10.0.0.7:36466in MyMiddleware.run()
LOG: Closed client: /10.0.0.7:36474in MyMiddleware.run()
