------------Middleware started!------------
LOG: Waiting for connection in MyMiddleware.run()
LOG: Accepted client: /10.0.0.6:53316in MyMiddleware.run()
LOG: Accepted client: /10.0.0.6:53336in MyMiddleware.run()
LOG: Accepted client: /10.0.0.6:53374in MyMiddleware.run()
LOG: Accepted client: /10.0.0.6:53332in MyMiddleware.run()
LOG: Accepted client: /10.0.0.6:53370in MyMiddleware.run()
LOG: Accepted client: /10.0.0.6:53326in MyMiddleware.run()
LOG: Accepted client: /10.0.0.6:53346in MyMiddleware.run()
LOG: Accepted client: /10.0.0.6:53368in MyMiddleware.run()
LOG: Accepted client: /10.0.0.6:53340in MyMiddleware.run()
LOG: Accepted client: /10.0.0.6:53348in MyMiddleware.run()
LOG: Accepted client: /10.0.0.6:53330in MyMiddleware.run()
LOG: Accepted client: /10.0.0.6:53350in MyMiddleware.run()
LOG: Accepted client: /10.0.0.6:53312in MyMiddleware.run()
LOG: Accepted client: /10.0.0.6:53322in MyMiddleware.run()
LOG: Accepted client: /10.0.0.6:53334in MyMiddleware.run()
LOG: Accepted client: /10.0.0.6:53356in MyMiddleware.run()
LOG: Accepted client: /10.0.0.6:53338in MyMiddleware.run()
LOG: Accepted client: /10.0.0.6:53364in MyMiddleware.run()
LOG: Accepted client: /10.0.0.6:53360in MyMiddleware.run()
LOG: Accepted client: /10.0.0.6:53362in MyMiddleware.run()
LOG: Accepted client: /10.0.0.6:53352in MyMiddleware.run()
LOG: Accepted client: /10.0.0.6:53314in MyMiddleware.run()
LOG: Accepted client: /10.0.0.6:53366in MyMiddleware.run()
LOG: Accepted client: /10.0.0.6:53342in MyMiddleware.run()
LOG: Accepted client: /10.0.0.6:53358in MyMiddleware.run()
LOG: Accepted client: /10.0.0.6:53320in MyMiddleware.run()
LOG: Accepted client: /10.0.0.6:53344in MyMiddleware.run()
LOG: Accepted client: /10.0.0.6:53324in MyMiddleware.run()
LOG: Accepted client: /10.0.0.6:53372in MyMiddleware.run()
LOG: Accepted client: /10.0.0.6:53328in MyMiddleware.run()
LOG: Accepted client: /10.0.0.6:53354in MyMiddleware.run()
LOG: Accepted client: /10.0.0.6:53318in MyMiddleware.run()
LOG: Accepted client: /10.0.0.7:43102in MyMiddleware.run()
LOG: Accepted client: /10.0.0.7:43090in MyMiddleware.run()
LOG: Accepted client: /10.0.0.7:43100in MyMiddleware.run()
LOG: Accepted client: /10.0.0.7:43106in MyMiddleware.run()
LOG: Accepted client: /10.0.0.7:43108in MyMiddleware.run()
LOG: Accepted client: /10.0.0.7:43122in MyMiddleware.run()
LOG: Accepted client: /10.0.0.7:43134in MyMiddleware.run()
LOG: Accepted client: /10.0.0.7:43096in MyMiddleware.run()
LOG: Accepted client: /10.0.0.7:43148in MyMiddleware.run()
LOG: Accepted client: /10.0.0.7:43130in MyMiddleware.run()
LOG: Accepted client: /10.0.0.7:43142in MyMiddleware.run()
LOG: Accepted client: /10.0.0.7:43094in MyMiddleware.run()
LOG: Accepted client: /10.0.0.7:43118in MyMiddleware.run()
LOG: Accepted client: /10.0.0.7:43116in MyMiddleware.run()
LOG: Accepted client: /10.0.0.7:43152in MyMiddleware.run()
LOG: Accepted client: /10.0.0.7:43140in MyMiddleware.run()
LOG: Accepted client: /10.0.0.7:43128in MyMiddleware.run()
LOG: Accepted client: /10.0.0.7:43092in MyMiddleware.run()
LOG: Accepted client: /10.0.0.7:43146in MyMiddleware.run()
LOG: Accepted client: /10.0.0.7:43144in MyMiddleware.run()
LOG: Accepted client: /10.0.0.7:43150in MyMiddleware.run()
LOG: Accepted client: /10.0.0.7:43110in MyMiddleware.run()
LOG: Accepted client: /10.0.0.7:43126in MyMiddleware.run()
LOG: Accepted client: /10.0.0.11:42384in MyMiddleware.run()
LOG: Accepted client: /10.0.0.7:43114in MyMiddleware.run()
LOG: Accepted client: /10.0.0.7:43098in MyMiddleware.run()
LOG: Accepted client: /10.0.0.7:43138in MyMiddleware.run()
LOG: Accepted client: /10.0.0.11:42392in MyMiddleware.run()
LOG: Accepted client: /10.0.0.11:42434in MyMiddleware.run()
LOG: Accepted client: /10.0.0.11:42414in MyMiddleware.run()
LOG: Accepted client: /10.0.0.11:42382in MyMiddleware.run()
LOG: Accepted client: /10.0.0.11:42422in MyMiddleware.run()
LOG: Accepted client: /10.0.0.11:42394in MyMiddleware.run()
LOG: Accepted client: /10.0.0.11:42402in MyMiddleware.run()
LOG: Accepted client: /10.0.0.11:42412in MyMiddleware.run()
LOG: Accepted client: /10.0.0.11:42400in MyMiddleware.run()
LOG: Accepted client: /10.0.0.11:42386in MyMiddleware.run()
LOG: Accepted client: /10.0.0.11:42440in MyMiddleware.run()
LOG: Accepted client: /10.0.0.11:42428in MyMiddleware.run()
LOG: Accepted client: /10.0.0.11:42396in MyMiddleware.run()
LOG: Accepted client: /10.0.0.11:42436in MyMiddleware.run()
LOG: Accepted client: /10.0.0.11:42398in MyMiddleware.run()
LOG: Accepted client: /10.0.0.11:42416in MyMiddleware.run()
LOG: Accepted client: /10.0.0.7:43136in MyMiddleware.run()
LOG: Accepted client: /10.0.0.7:43120in MyMiddleware.run()
LOG: Accepted client: /10.0.0.7:43112in MyMiddleware.run()
LOG: Accepted client: /10.0.0.11:42404in MyMiddleware.run()
LOG: Accepted client: /10.0.0.7:43124in MyMiddleware.run()
LOG: Accepted client: /10.0.0.11:42408in MyMiddleware.run()
LOG: Accepted client: /10.0.0.11:42410in MyMiddleware.run()
LOG: Accepted client: /10.0.0.7:43104in MyMiddleware.run()
LOG: Accepted client: /10.0.0.7:43132in MyMiddleware.run()
LOG: Accepted client: /10.0.0.11:42444in MyMiddleware.run()
LOG: Accepted client: /10.0.0.11:42426in MyMiddleware.run()
LOG: Accepted client: /10.0.0.11:42390in MyMiddleware.run()
LOG: Accepted client: /10.0.0.11:42442in MyMiddleware.run()
LOG: Accepted client: /10.0.0.11:42424in MyMiddleware.run()
LOG: Accepted client: /10.0.0.11:42388in MyMiddleware.run()
LOG: Accepted client: /10.0.0.11:42430in MyMiddleware.run()
LOG: Accepted client: /10.0.0.11:42406in MyMiddleware.run()
LOG: Accepted client: /10.0.0.11:42420in MyMiddleware.run()
LOG: Accepted client: /10.0.0.11:42432in MyMiddleware.run()
LOG: Accepted client: /10.0.0.11:42438in MyMiddleware.run()
LOG: Accepted client: /10.0.0.11:42418in MyMiddleware.run()
LOG: Closed client: /10.0.0.7:43090in MyMiddleware.run()
LOG: Closed client: /10.0.0.7:43132in MyMiddleware.run()
LOG: Closed client: /10.0.0.7:43094in MyMiddleware.run()
LOG: Closed client: /10.0.0.7:43140in MyMiddleware.run()
LOG: Closed client: /10.0.0.7:43130in MyMiddleware.run()
LOG: Closed client: /10.0.0.7:43142in MyMiddleware.run()
LOG: Closed client: /10.0.0.7:43146in MyMiddleware.run()
LOG: Closed client: /10.0.0.7:43098in MyMiddleware.run()
LOG: Closed client: /10.0.0.7:43144in MyMiddleware.run()
LOG: Closed client: /10.0.0.7:43118in MyMiddleware.run()
LOG: Closed client: /10.0.0.7:43128in MyMiddleware.run()
LOG: Closed client: /10.0.0.7:43096in MyMiddleware.run()
LOG: Closed client: /10.0.0.7:43110in MyMiddleware.run()
LOG: Closed client: /10.0.0.7:43134in MyMiddleware.run()
LOG: Closed client: /10.0.0.7:43112in MyMiddleware.run()
LOG: Closed client: /10.0.0.7:43152in MyMiddleware.run()
LOG: Closed client: /10.0.0.7:43116in MyMiddleware.run()
LOG: Closed client: /10.0.0.7:43122in MyMiddleware.run()
LOG: Closed client: /10.0.0.7:43136in MyMiddleware.run()
LOG: Closed client: /10.0.0.7:43092in MyMiddleware.run()
LOG: Closed client: /10.0.0.7:43106in MyMiddleware.run()
LOG: Closed client: /10.0.0.7:43148in MyMiddleware.run()
LOG: Closed client: /10.0.0.7:43100in MyMiddleware.run()
LOG: Closed client: /10.0.0.7:43120in MyMiddleware.run()
LOG: Closed client: /10.0.0.7:43104in MyMiddleware.run()
LOG: Closed client: /10.0.0.7:43150in MyMiddleware.run()
LOG: Closed client: /10.0.0.7:43124in MyMiddleware.run()
LOG: Closed client: /10.0.0.7:43102in MyMiddleware.run()
LOG: Closed client: /10.0.0.7:43108in MyMiddleware.run()
LOG: Closed client: /10.0.0.7:43126in MyMiddleware.run()
LOG: Closed client: /10.0.0.7:43138in MyMiddleware.run()
LOG: Closed client: /10.0.0.7:43114in MyMiddleware.run()
LOG: Closed client: /10.0.0.6:53332in MyMiddleware.run()
LOG: Closed client: /10.0.0.6:53356in MyMiddleware.run()
LOG: Closed client: /10.0.0.6:53348in MyMiddleware.run()
LOG: Closed client: /10.0.0.6:53344in MyMiddleware.run()
LOG: Closed client: /10.0.0.6:53346in MyMiddleware.run()
LOG: Closed client: /10.0.0.6:53320in MyMiddleware.run()
LOG: Closed client: /10.0.0.6:53366in MyMiddleware.run()
LOG: Closed client: /10.0.0.6:53368in MyMiddleware.run()
LOG: Closed client: /10.0.0.6:53338in MyMiddleware.run()
LOG: Closed client: /10.0.0.6:53326in MyMiddleware.run()
LOG: Closed client: /10.0.0.6:53370in MyMiddleware.run()
LOG: Closed client: /10.0.0.6:53314in MyMiddleware.run()
LOG: Closed client: /10.0.0.6:53312in MyMiddleware.run()
LOG: Closed client: /10.0.0.6:53324in MyMiddleware.run()
LOG: Closed client: /10.0.0.6:53362in MyMiddleware.run()
LOG: Closed client: /10.0.0.6:53374in MyMiddleware.run()
LOG: Closed client: /10.0.0.6:53354in MyMiddleware.run()
LOG: Closed client: /10.0.0.6:53330in MyMiddleware.run()
LOG: Closed client: /10.0.0.6:53328in MyMiddleware.run()
LOG: Closed client: /10.0.0.6:53340in MyMiddleware.run()
LOG: Closed client: /10.0.0.6:53322in MyMiddleware.run()
LOG: Closed client: /10.0.0.6:53342in MyMiddleware.run()
LOG: Closed client: /10.0.0.6:53360in MyMiddleware.run()
LOG: Closed client: /10.0.0.6:53316in MyMiddleware.run()
LOG: Closed client: /10.0.0.6:53334in MyMiddleware.run()
LOG: Closed client: /10.0.0.6:53352in MyMiddleware.run()
LOG: Closed client: /10.0.0.6:53318in MyMiddleware.run()
LOG: Closed client: /10.0.0.6:53358in MyMiddleware.run()
LOG: Closed client: /10.0.0.6:53364in MyMiddleware.run()
LOG: Closed client: /10.0.0.6:53372in MyMiddleware.run()
LOG: Closed client: /10.0.0.6:53350in MyMiddleware.run()
LOG: Closed client: /10.0.0.6:53336in MyMiddleware.run()
LOG: Closed client: /10.0.0.11:42382in MyMiddleware.run()
LOG: Closed client: /10.0.0.11:42384in MyMiddleware.run()
LOG: Closed client: /10.0.0.11:42396in MyMiddleware.run()
LOG: Closed client: /10.0.0.11:42392in MyMiddleware.run()
LOG: Closed client: /10.0.0.11:42398in MyMiddleware.run()
LOG: Closed client: /10.0.0.11:42386in MyMiddleware.run()
LOG: Closed client: /10.0.0.11:42402in MyMiddleware.run()
LOG: Closed client: /10.0.0.11:42414in MyMiddleware.run()
LOG: Closed client: /10.0.0.11:42416in MyMiddleware.run()
LOG: Closed client: /10.0.0.11:42404in MyMiddleware.run()
LOG: Closed client: /10.0.0.11:42406in MyMiddleware.run()
LOG: Closed client: /10.0.0.11:42400in MyMiddleware.run()
LOG: Closed client: /10.0.0.11:42408in MyMiddleware.run()
LOG: Closed client: /10.0.0.11:42394in MyMiddleware.run()
LOG: Closed client: /10.0.0.11:42412in MyMiddleware.run()
LOG: Closed client: /10.0.0.11:42410in MyMiddleware.run()
LOG: Closed client: /10.0.0.11:42434in MyMiddleware.run()
LOG: Closed client: /10.0.0.11:42418in MyMiddleware.run()
LOG: Closed client: /10.0.0.11:42428in MyMiddleware.run()
LOG: Closed client: /10.0.0.11:42438in MyMiddleware.run()
LOG: Closed client: /10.0.0.11:42432in MyMiddleware.run()
LOG: Closed client: /10.0.0.11:42440in MyMiddleware.run()
LOG: Closed client: /10.0.0.11:42422in MyMiddleware.run()
LOG: Closed client: /10.0.0.11:42420in MyMiddleware.run()
LOG: Closed client: /10.0.0.11:42430in MyMiddleware.run()
LOG: Closed client: /10.0.0.11:42442in MyMiddleware.run()
LOG: Closed client: /10.0.0.11:42436in MyMiddleware.run()
LOG: Closed client: /10.0.0.11:42388in MyMiddleware.run()
LOG: Closed client: /10.0.0.11:42424in MyMiddleware.run()
LOG: Closed client: /10.0.0.11:42390in MyMiddleware.run()
LOG: Closed client: /10.0.0.11:42426in MyMiddleware.run()
LOG: Closed client: /10.0.0.11:42444in MyMiddleware.run()
