------------Middleware started!------------
LOG: Waiting for connection in MyMiddleware.run()
LOG: Accepted client: /10.0.0.11:37362in MyMiddleware.run()
LOG: Accepted client: /10.0.0.11:37364in MyMiddleware.run()
LOG: Accepted client: /10.0.0.11:37356in MyMiddleware.run()
LOG: Accepted client: /10.0.0.11:37354in MyMiddleware.run()
LOG: Accepted client: /10.0.0.11:37358in MyMiddleware.run()
LOG: Accepted client: /10.0.0.11:37360in MyMiddleware.run()
LOG: Accepted client: /10.0.0.11:37352in MyMiddleware.run()
LOG: Accepted client: /10.0.0.11:37366in MyMiddleware.run()
LOG: Accepted client: /10.0.0.7:38076in MyMiddleware.run()
LOG: Accepted client: /10.0.0.7:38088in MyMiddleware.run()
LOG: Accepted client: /10.0.0.7:38086in MyMiddleware.run()
LOG: Accepted client: /10.0.0.7:38080in MyMiddleware.run()
LOG: Accepted client: /10.0.0.7:38084in MyMiddleware.run()
LOG: Accepted client: /10.0.0.7:38082in MyMiddleware.run()
LOG: Accepted client: /10.0.0.7:38078in MyMiddleware.run()
LOG: Accepted client: /10.0.0.7:38090in MyMiddleware.run()
LOG: Accepted client: /10.0.0.6:48298in MyMiddleware.run()
LOG: Accepted client: /10.0.0.6:48304in MyMiddleware.run()
LOG: Accepted client: /10.0.0.6:48290in MyMiddleware.run()
LOG: Accepted client: /10.0.0.6:48302in MyMiddleware.run()
LOG: Accepted client: /10.0.0.6:48294in MyMiddleware.run()
LOG: Accepted client: /10.0.0.6:48292in MyMiddleware.run()
LOG: Accepted client: /10.0.0.6:48296in MyMiddleware.run()
LOG: Accepted client: /10.0.0.6:48300in MyMiddleware.run()
LOG: Closed client: /10.0.0.11:37352in MyMiddleware.run()
LOG: Closed client: /10.0.0.11:37358in MyMiddleware.run()
LOG: Closed client: /10.0.0.11:37354in MyMiddleware.run()
LOG: Closed client: /10.0.0.11:37356in MyMiddleware.run()
LOG: Closed client: /10.0.0.11:37366in MyMiddleware.run()
LOG: Closed client: /10.0.0.11:37360in MyMiddleware.run()
LOG: Closed client: /10.0.0.11:37362in MyMiddleware.run()
LOG: Closed client: /10.0.0.11:37364in MyMiddleware.run()
LOG: Closed client: /10.0.0.7:38088in MyMiddleware.run()
LOG: Closed client: /10.0.0.7:38090in MyMiddleware.run()
LOG: Closed client: /10.0.0.7:38076in MyMiddleware.run()
LOG: Closed client: /10.0.0.7:38078in MyMiddleware.run()
LOG: Closed client: /10.0.0.7:38082in MyMiddleware.run()
LOG: Closed client: /10.0.0.7:38086in MyMiddleware.run()
LOG: Closed client: /10.0.0.7:38080in MyMiddleware.run()
LOG: Closed client: /10.0.0.7:38084in MyMiddleware.run()
LOG: Closed client: /10.0.0.6:48290in MyMiddleware.run()
LOG: Closed client: /10.0.0.6:48298in MyMiddleware.run()
LOG: Closed client: /10.0.0.6:48294in MyMiddleware.run()
LOG: Closed client: /10.0.0.6:48300in MyMiddleware.run()
LOG: Closed client: /10.0.0.6:48292in MyMiddleware.run()
LOG: Closed client: /10.0.0.6:48296in MyMiddleware.run()
LOG: Closed client: /10.0.0.6:48302in MyMiddleware.run()
LOG: Closed client: /10.0.0.6:48304in MyMiddleware.run()
