------------Middleware started!------------
LOG: Waiting for connection in MyMiddleware.run()
LOG: Accepted client: /10.0.0.6:33418in MyMiddleware.run()
LOG: Accepted client: /10.0.0.6:33422in MyMiddleware.run()
LOG: Accepted client: /10.0.0.6:33428in MyMiddleware.run()
LOG: Accepted client: /10.0.0.6:33430in MyMiddleware.run()
LOG: Accepted client: /10.0.0.6:33416in MyMiddleware.run()
LOG: Accepted client: /10.0.0.6:33420in MyMiddleware.run()
LOG: Accepted client: /10.0.0.6:33424in MyMiddleware.run()
LOG: Accepted client: /10.0.0.11:50738in MyMiddleware.run()
LOG: Accepted client: /10.0.0.11:50734in MyMiddleware.run()
LOG: Accepted client: /10.0.0.11:50728in MyMiddleware.run()
LOG: Accepted client: /10.0.0.11:50732in MyMiddleware.run()
LOG: Accepted client: /10.0.0.11:50736in MyMiddleware.run()
LOG: Accepted client: /10.0.0.11:50730in MyMiddleware.run()
LOG: Accepted client: /10.0.0.6:33426in MyMiddleware.run()
LOG: Accepted client: /10.0.0.11:50740in MyMiddleware.run()
LOG: Accepted client: /10.0.0.11:50742in MyMiddleware.run()
LOG: Accepted client: /10.0.0.7:51430in MyMiddleware.run()
LOG: Accepted client: /10.0.0.7:51442in MyMiddleware.run()
LOG: Accepted client: /10.0.0.7:51436in MyMiddleware.run()
LOG: Accepted client: /10.0.0.7:51444in MyMiddleware.run()
LOG: Accepted client: /10.0.0.7:51438in MyMiddleware.run()
LOG: Accepted client: /10.0.0.7:51440in MyMiddleware.run()
LOG: Accepted client: /10.0.0.7:51434in MyMiddleware.run()
LOG: Accepted client: /10.0.0.7:51432in MyMiddleware.run()
LOG: Closed client: /10.0.0.6:33420in MyMiddleware.run()
LOG: Closed client: /10.0.0.6:33416in MyMiddleware.run()
LOG: Closed client: /10.0.0.6:33418in MyMiddleware.run()
LOG: Closed client: /10.0.0.6:33422in MyMiddleware.run()
LOG: Closed client: /10.0.0.6:33424in MyMiddleware.run()
LOG: Closed client: /10.0.0.6:33430in MyMiddleware.run()
LOG: Closed client: /10.0.0.6:33428in MyMiddleware.run()
LOG: Closed client: /10.0.0.6:33426in MyMiddleware.run()
LOG: Closed client: /10.0.0.11:50728in MyMiddleware.run()
LOG: Closed client: /10.0.0.7:51436in MyMiddleware.run()
LOG: Closed client: /10.0.0.11:50736in MyMiddleware.run()
LOG: Closed client: /10.0.0.11:50730in MyMiddleware.run()
LOG: Closed client: /10.0.0.11:50738in MyMiddleware.run()
LOG: Closed client: /10.0.0.7:51430in MyMiddleware.run()
LOG: Closed client: /10.0.0.7:51438in MyMiddleware.run()
LOG: Closed client: /10.0.0.7:51432in MyMiddleware.run()
LOG: Closed client: /10.0.0.11:50742in MyMiddleware.run()
LOG: Closed client: /10.0.0.7:51440in MyMiddleware.run()
LOG: Closed client: /10.0.0.7:51434in MyMiddleware.run()
LOG: Closed client: /10.0.0.7:51442in MyMiddleware.run()
LOG: Closed client: /10.0.0.11:50734in MyMiddleware.run()
LOG: Closed client: /10.0.0.11:50732in MyMiddleware.run()
LOG: Closed client: /10.0.0.7:51444in MyMiddleware.run()
LOG: Closed client: /10.0.0.11:50740in MyMiddleware.run()
