------------Middleware started!------------
LOG: Waiting for connection in MyMiddleware.run()
LOG: Accepted client: /10.0.0.11:34746in MyMiddleware.run()
LOG: Accepted client: /10.0.0.11:34748in MyMiddleware.run()
LOG: Accepted client: /10.0.0.11:34766in MyMiddleware.run()
LOG: Accepted client: /10.0.0.11:34728in MyMiddleware.run()
LOG: Accepted client: /10.0.0.11:34778in MyMiddleware.run()
LOG: Accepted client: /10.0.0.11:34786in MyMiddleware.run()
LOG: Accepted client: /10.0.0.11:34750in MyMiddleware.run()
LOG: Accepted client: /10.0.0.11:34760in MyMiddleware.run()
LOG: Accepted client: /10.0.0.6:45706in MyMiddleware.run()
LOG: Accepted client: /10.0.0.6:45668in MyMiddleware.run()
LOG: Accepted client: /10.0.0.11:34730in MyMiddleware.run()
LOG: Accepted client: /10.0.0.11:34830in MyMiddleware.run()
LOG: Accepted client: /10.0.0.11:34732in MyMiddleware.run()
LOG: Accepted client: /10.0.0.6:45778in MyMiddleware.run()
LOG: Accepted client: /10.0.0.6:45734in MyMiddleware.run()
LOG: Accepted client: /10.0.0.11:34762in MyMiddleware.run()
LOG: Accepted client: /10.0.0.6:45728in MyMiddleware.run()
LOG: Accepted client: /10.0.0.11:34788in MyMiddleware.run()
LOG: Accepted client: /10.0.0.11:34850in MyMiddleware.run()
LOG: Accepted client: /10.0.0.6:45782in MyMiddleware.run()
LOG: Accepted client: /10.0.0.11:34842in MyMiddleware.run()
LOG: Accepted client: /10.0.0.6:45708in MyMiddleware.run()
LOG: Accepted client: /10.0.0.6:45666in MyMiddleware.run()
LOG: Accepted client: /10.0.0.11:34790in MyMiddleware.run()
LOG: Accepted client: /10.0.0.6:45730in MyMiddleware.run()
LOG: Accepted client: /10.0.0.11:34754in MyMiddleware.run()
LOG: Accepted client: /10.0.0.11:34798in MyMiddleware.run()
LOG: Accepted client: /10.0.0.11:34742in MyMiddleware.run()
LOG: Accepted client: /10.0.0.6:45746in MyMiddleware.run()
LOG: Accepted client: /10.0.0.11:34736in MyMiddleware.run()
LOG: Accepted client: /10.0.0.11:34806in MyMiddleware.run()
LOG: Accepted client: /10.0.0.11:34782in MyMiddleware.run()
LOG: Accepted client: /10.0.0.11:34776in MyMiddleware.run()
LOG: Accepted client: /10.0.0.11:34734in MyMiddleware.run()
LOG: Accepted client: /10.0.0.6:45766in MyMiddleware.run()
LOG: Accepted client: /10.0.0.6:45700in MyMiddleware.run()
LOG: Accepted client: /10.0.0.11:34838in MyMiddleware.run()
LOG: Accepted client: /10.0.0.6:45750in MyMiddleware.run()
LOG: Accepted client: /10.0.0.11:34832in MyMiddleware.run()
LOG: Accepted client: /10.0.0.11:34726in MyMiddleware.run()
LOG: Accepted client: /10.0.0.11:34844in MyMiddleware.run()
LOG: Accepted client: /10.0.0.6:45740in MyMiddleware.run()
LOG: Accepted client: /10.0.0.6:45738in MyMiddleware.run()
LOG: Accepted client: /10.0.0.11:34846in MyMiddleware.run()
LOG: Accepted client: /10.0.0.11:34836in MyMiddleware.run()
LOG: Accepted client: /10.0.0.6:45788in MyMiddleware.run()
LOG: Accepted client: /10.0.0.6:45780in MyMiddleware.run()
LOG: Accepted client: /10.0.0.6:45736in MyMiddleware.run()
LOG: Accepted client: /10.0.0.6:45710in MyMiddleware.run()
LOG: Accepted client: /10.0.0.11:34740in MyMiddleware.run()
LOG: Accepted client: /10.0.0.6:45670in MyMiddleware.run()
LOG: Accepted client: /10.0.0.6:45702in MyMiddleware.run()
LOG: Accepted client: /10.0.0.11:34800in MyMiddleware.run()
LOG: Accepted client: /10.0.0.11:34756in MyMiddleware.run()
LOG: Accepted client: /10.0.0.6:45696in MyMiddleware.run()
LOG: Accepted client: /10.0.0.6:45722in MyMiddleware.run()
LOG: Accepted client: /10.0.0.6:45726in MyMiddleware.run()
LOG: Accepted client: /10.0.0.6:45672in MyMiddleware.run()
LOG: Accepted client: /10.0.0.6:45686in MyMiddleware.run()
LOG: Accepted client: /10.0.0.6:45716in MyMiddleware.run()
LOG: Accepted client: /10.0.0.6:45692in MyMiddleware.run()
LOG: Accepted client: /10.0.0.6:45680in MyMiddleware.run()
LOG: Accepted client: /10.0.0.6:45684in MyMiddleware.run()
LOG: Accepted client: /10.0.0.6:45698in MyMiddleware.run()
LOG: Accepted client: /10.0.0.11:34738in MyMiddleware.run()
LOG: Accepted client: /10.0.0.11:34758in MyMiddleware.run()
LOG: Accepted client: /10.0.0.11:34744in MyMiddleware.run()
LOG: Accepted client: /10.0.0.11:34764in MyMiddleware.run()
LOG: Accepted client: /10.0.0.6:45768in MyMiddleware.run()
LOG: Accepted client: /10.0.0.6:45712in MyMiddleware.run()
LOG: Accepted client: /10.0.0.6:45688in MyMiddleware.run()
LOG: Accepted client: /10.0.0.6:45756in MyMiddleware.run()
LOG: Accepted client: /10.0.0.11:34808in MyMiddleware.run()
LOG: Accepted client: /10.0.0.11:34772in MyMiddleware.run()
LOG: Accepted client: /10.0.0.11:34816in MyMiddleware.run()
LOG: Accepted client: /10.0.0.6:45674in MyMiddleware.run()
LOG: Accepted client: /10.0.0.6:45784in MyMiddleware.run()
LOG: Accepted client: /10.0.0.11:34794in MyMiddleware.run()
LOG: Accepted client: /10.0.0.11:34834in MyMiddleware.run()
LOG: Accepted client: /10.0.0.11:34792in MyMiddleware.run()
LOG: Accepted client: /10.0.0.6:45764in MyMiddleware.run()
LOG: Accepted client: /10.0.0.6:45724in MyMiddleware.run()
LOG: Accepted client: /10.0.0.6:45744in MyMiddleware.run()
LOG: Accepted client: /10.0.0.11:34804in MyMiddleware.run()
LOG: Accepted client: /10.0.0.11:34848in MyMiddleware.run()
LOG: Accepted client: /10.0.0.11:34828in MyMiddleware.run()
LOG: Accepted client: /10.0.0.6:45772in MyMiddleware.run()
LOG: Accepted client: /10.0.0.6:45752in MyMiddleware.run()
LOG: Accepted client: /10.0.0.6:45676in MyMiddleware.run()
LOG: Accepted client: /10.0.0.6:45694in MyMiddleware.run()
LOG: Accepted client: /10.0.0.6:45718in MyMiddleware.run()
LOG: Accepted client: /10.0.0.6:45678in MyMiddleware.run()
LOG: Accepted client: /10.0.0.6:45774in MyMiddleware.run()
LOG: Accepted client: /10.0.0.6:45790in MyMiddleware.run()
LOG: Accepted client: /10.0.0.6:45754in MyMiddleware.run()
LOG: Accepted client: /10.0.0.11:34752in MyMiddleware.run()
LOG: Accepted client: /10.0.0.11:34768in MyMiddleware.run()
LOG: Accepted client: /10.0.0.11:34796in MyMiddleware.run()
LOG: Accepted client: /10.0.0.11:34820in MyMiddleware.run()
LOG: Accepted client: /10.0.0.11:34814in MyMiddleware.run()
LOG: Accepted client: /10.0.0.11:34812in MyMiddleware.run()
LOG: Accepted client: /10.0.0.11:34770in MyMiddleware.run()
LOG: Accepted client: /10.0.0.11:34822in MyMiddleware.run()
LOG: Accepted client: /10.0.0.6:45704in MyMiddleware.run()
LOG: Accepted client: /10.0.0.6:45664in MyMiddleware.run()
LOG: Accepted client: /10.0.0.6:45776in MyMiddleware.run()
LOG: Accepted client: /10.0.0.6:45732in MyMiddleware.run()
LOG: Accepted client: /10.0.0.11:34784in MyMiddleware.run()
LOG: Accepted client: /10.0.0.11:34840in MyMiddleware.run()
LOG: Accepted client: /10.0.0.6:45748in MyMiddleware.run()
LOG: Accepted client: /10.0.0.6:45760in MyMiddleware.run()
LOG: Accepted client: /10.0.0.6:45720in MyMiddleware.run()
LOG: Accepted client: /10.0.0.6:45762in MyMiddleware.run()
LOG: Accepted client: /10.0.0.6:45682in MyMiddleware.run()
LOG: Accepted client: /10.0.0.11:34826in MyMiddleware.run()
LOG: Accepted client: /10.0.0.11:34802in MyMiddleware.run()
LOG: Accepted client: /10.0.0.11:34780in MyMiddleware.run()
LOG: Accepted client: /10.0.0.11:34852in MyMiddleware.run()
LOG: Accepted client: /10.0.0.11:34824in MyMiddleware.run()
LOG: Accepted client: /10.0.0.6:45758in MyMiddleware.run()
LOG: Accepted client: /10.0.0.6:45714in MyMiddleware.run()
LOG: Accepted client: /10.0.0.6:45786in MyMiddleware.run()
LOG: Accepted client: /10.0.0.6:45742in MyMiddleware.run()
LOG: Accepted client: /10.0.0.6:45770in MyMiddleware.run()
LOG: Accepted client: /10.0.0.6:45690in MyMiddleware.run()
LOG: Accepted client: /10.0.0.7:35500in MyMiddleware.run()
LOG: Accepted client: /10.0.0.7:35540in MyMiddleware.run()
LOG: Accepted client: /10.0.0.7:35542in MyMiddleware.run()
LOG: Accepted client: /10.0.0.7:35456in MyMiddleware.run()
LOG: Accepted client: /10.0.0.7:35546in MyMiddleware.run()
LOG: Accepted client: /10.0.0.7:35568in MyMiddleware.run()
LOG: Accepted client: /10.0.0.7:35514in MyMiddleware.run()
LOG: Accepted client: /10.0.0.7:35548in MyMiddleware.run()
LOG: Accepted client: /10.0.0.7:35560in MyMiddleware.run()
LOG: Accepted client: /10.0.0.7:35532in MyMiddleware.run()
LOG: Accepted client: /10.0.0.7:35534in MyMiddleware.run()
LOG: Accepted client: /10.0.0.7:35556in MyMiddleware.run()
LOG: Accepted client: /10.0.0.7:35554in MyMiddleware.run()
LOG: Accepted client: /10.0.0.7:35516in MyMiddleware.run()
LOG: Accepted client: /10.0.0.7:35524in MyMiddleware.run()
LOG: Accepted client: /10.0.0.7:35444in MyMiddleware.run()
LOG: Accepted client: /10.0.0.7:35522in MyMiddleware.run()
LOG: Accepted client: /10.0.0.7:35550in MyMiddleware.run()
LOG: Accepted client: /10.0.0.7:35448in MyMiddleware.run()
LOG: Accepted client: /10.0.0.7:35504in MyMiddleware.run()
LOG: Accepted client: /10.0.0.7:35488in MyMiddleware.run()
LOG: Accepted client: /10.0.0.7:35472in MyMiddleware.run()
LOG: Accepted client: /10.0.0.7:35484in MyMiddleware.run()
LOG: Accepted client: /10.0.0.7:35528in MyMiddleware.run()
LOG: Accepted client: /10.0.0.7:35552in MyMiddleware.run()
LOG: Accepted client: /10.0.0.7:35454in MyMiddleware.run()
LOG: Accepted client: /10.0.0.7:35486in MyMiddleware.run()
LOG: Accepted client: /10.0.0.7:35544in MyMiddleware.run()
LOG: Accepted client: /10.0.0.7:35512in MyMiddleware.run()
LOG: Accepted client: /10.0.0.7:35466in MyMiddleware.run()
LOG: Accepted client: /10.0.0.7:35442in MyMiddleware.run()
LOG: Accepted client: /10.0.0.7:35502in MyMiddleware.run()
LOG: Accepted client: /10.0.0.7:35510in MyMiddleware.run()
LOG: Accepted client: /10.0.0.7:35494in MyMiddleware.run()
LOG: Accepted client: /10.0.0.7:35470in MyMiddleware.run()
LOG: Accepted client: /10.0.0.7:35492in MyMiddleware.run()
LOG: Accepted client: /10.0.0.7:35536in MyMiddleware.run()
LOG: Accepted client: /10.0.0.7:35490in MyMiddleware.run()
LOG: Accepted client: /10.0.0.7:35518in MyMiddleware.run()
LOG: Accepted client: /10.0.0.7:35482in MyMiddleware.run()
LOG: Accepted client: /10.0.0.7:35564in MyMiddleware.run()
LOG: Accepted client: /10.0.0.7:35508in MyMiddleware.run()
LOG: Accepted client: /10.0.0.7:35506in MyMiddleware.run()
LOG: Accepted client: /10.0.0.7:35452in MyMiddleware.run()
LOG: Accepted client: /10.0.0.7:35476in MyMiddleware.run()
LOG: Accepted client: /10.0.0.7:35478in MyMiddleware.run()
LOG: Accepted client: /10.0.0.7:35566in MyMiddleware.run()
LOG: Accepted client: /10.0.0.7:35464in MyMiddleware.run()
LOG: Accepted client: /10.0.0.7:35450in MyMiddleware.run()
LOG: Accepted client: /10.0.0.7:35498in MyMiddleware.run()
LOG: Accepted client: /10.0.0.7:35538in MyMiddleware.run()
LOG: Accepted client: /10.0.0.7:35460in MyMiddleware.run()
LOG: Accepted client: /10.0.0.7:35496in MyMiddleware.run()
LOG: Accepted client: /10.0.0.7:35562in MyMiddleware.run()
LOG: Accepted client: /10.0.0.7:35462in MyMiddleware.run()
LOG: Accepted client: /10.0.0.7:35468in MyMiddleware.run()
LOG: Accepted client: /10.0.0.7:35530in MyMiddleware.run()
LOG: Accepted client: /10.0.0.7:35458in MyMiddleware.run()
LOG: Accepted client: /10.0.0.7:35480in MyMiddleware.run()
LOG: Accepted client: /10.0.0.7:35526in MyMiddleware.run()
LOG: Accepted client: /10.0.0.7:35558in MyMiddleware.run()
LOG: Accepted client: /10.0.0.7:35520in MyMiddleware.run()
LOG: Accepted client: /10.0.0.7:35446in MyMiddleware.run()
LOG: Accepted client: /10.0.0.7:35474in MyMiddleware.run()
LOG: Accepted client: /10.0.0.11:34810in MyMiddleware.run()
LOG: Accepted client: /10.0.0.11:34818in MyMiddleware.run()
LOG: Accepted client: /10.0.0.11:34774in MyMiddleware.run()
LOG: Closed client: /10.0.0.11:34742in MyMiddleware.run()
LOG: Closed client: /10.0.0.11:34740in MyMiddleware.run()
LOG: Closed client: /10.0.0.11:34756in MyMiddleware.run()
LOG: Closed client: /10.0.0.11:34772in MyMiddleware.run()
LOG: Closed client: /10.0.0.11:34734in MyMiddleware.run()
LOG: Closed client: /10.0.0.11:34746in MyMiddleware.run()
LOG: Closed client: /10.0.0.11:34736in MyMiddleware.run()
LOG: Closed client: /10.0.0.11:34764in MyMiddleware.run()
LOG: Closed client: /10.0.0.11:34752in MyMiddleware.run()
LOG: Closed client: /10.0.0.11:34788in MyMiddleware.run()
LOG: Closed client: /10.0.0.11:34812in MyMiddleware.run()
LOG: Closed client: /10.0.0.11:34774in MyMiddleware.run()
LOG: Closed client: /10.0.0.11:34726in MyMiddleware.run()
LOG: Closed client: /10.0.0.11:34800in MyMiddleware.run()
LOG: Closed client: /10.0.0.6:45664in MyMiddleware.run()
LOG: Closed client: /10.0.0.11:34778in MyMiddleware.run()
LOG: Closed client: /10.0.0.11:34770in MyMiddleware.run()
LOG: Closed client: /10.0.0.11:34794in MyMiddleware.run()
LOG: Closed client: /10.0.0.11:34738in MyMiddleware.run()
LOG: Closed client: /10.0.0.11:34780in MyMiddleware.run()
LOG: Closed client: /10.0.0.11:34806in MyMiddleware.run()
LOG: Closed client: /10.0.0.11:34762in MyMiddleware.run()
LOG: Closed client: /10.0.0.11:34776in MyMiddleware.run()
LOG: Closed client: /10.0.0.11:34768in MyMiddleware.run()
LOG: Closed client: /10.0.0.11:34790in MyMiddleware.run()
LOG: Closed client: /10.0.0.11:34766in MyMiddleware.run()
LOG: Closed client: /10.0.0.11:34730in MyMiddleware.run()
LOG: Closed client: /10.0.0.11:34754in MyMiddleware.run()
LOG: Closed client: /10.0.0.11:34786in MyMiddleware.run()
LOG: Closed client: /10.0.0.11:34744in MyMiddleware.run()
LOG: Closed client: /10.0.0.11:34784in MyMiddleware.run()
LOG: Closed client: /10.0.0.11:34758in MyMiddleware.run()
LOG: Closed client: /10.0.0.11:34782in MyMiddleware.run()
LOG: Closed client: /10.0.0.11:34732in MyMiddleware.run()
LOG: Closed client: /10.0.0.11:34760in MyMiddleware.run()
LOG: Closed client: /10.0.0.11:34750in MyMiddleware.run()
LOG: Closed client: /10.0.0.11:34810in MyMiddleware.run()
LOG: Closed client: /10.0.0.11:34728in MyMiddleware.run()
LOG: Closed client: /10.0.0.11:34748in MyMiddleware.run()
LOG: Closed client: /10.0.0.11:34792in MyMiddleware.run()
LOG: Closed client: /10.0.0.11:34826in MyMiddleware.run()
LOG: Closed client: /10.0.0.6:45778in MyMiddleware.run()
LOG: Closed client: /10.0.0.6:45734in MyMiddleware.run()
LOG: Closed client: /10.0.0.6:45666in MyMiddleware.run()
LOG: Closed client: /10.0.0.6:45684in MyMiddleware.run()
LOG: Closed client: /10.0.0.11:34802in MyMiddleware.run()
LOG: Closed client: /10.0.0.6:45738in MyMiddleware.run()
LOG: Closed client: /10.0.0.11:34816in MyMiddleware.run()
LOG: Closed client: /10.0.0.6:45728in MyMiddleware.run()
LOG: Closed client: /10.0.0.11:34830in MyMiddleware.run()
LOG: Closed client: /10.0.0.11:34850in MyMiddleware.run()
LOG: Closed client: /10.0.0.11:34808in MyMiddleware.run()
LOG: Closed client: /10.0.0.6:45718in MyMiddleware.run()
LOG: Closed client: /10.0.0.6:45744in MyMiddleware.run()
LOG: Closed client: /10.0.0.6:45670in MyMiddleware.run()
LOG: Closed client: /10.0.0.11:34818in MyMiddleware.run()
LOG: Closed client: /10.0.0.6:45748in MyMiddleware.run()
LOG: Closed client: /10.0.0.6:45710in MyMiddleware.run()
LOG: Closed client: /10.0.0.6:45714in MyMiddleware.run()
LOG: Closed client: /10.0.0.6:45678in MyMiddleware.run()
LOG: Closed client: /10.0.0.11:34822in MyMiddleware.run()
LOG: Closed client: /10.0.0.6:45702in MyMiddleware.run()
LOG: Closed client: /10.0.0.6:45758in MyMiddleware.run()
LOG: Closed client: /10.0.0.11:34820in MyMiddleware.run()
LOG: Closed client: /10.0.0.11:34796in MyMiddleware.run()
LOG: Closed client: /10.0.0.11:34834in MyMiddleware.run()
LOG: Closed client: /10.0.0.11:34832in MyMiddleware.run()
LOG: Closed client: /10.0.0.6:45726in MyMiddleware.run()
LOG: Closed client: /10.0.0.6:45746in MyMiddleware.run()
LOG: Closed client: /10.0.0.6:45722in MyMiddleware.run()
LOG: Closed client: /10.0.0.11:34852in MyMiddleware.run()
LOG: Closed client: /10.0.0.11:34824in MyMiddleware.run()
LOG: Closed client: /10.0.0.6:45682in MyMiddleware.run()
LOG: Closed client: /10.0.0.11:34846in MyMiddleware.run()
LOG: Closed client: /10.0.0.6:45694in MyMiddleware.run()
LOG: Closed client: /10.0.0.6:45780in MyMiddleware.run()
LOG: Closed client: /10.0.0.6:45716in MyMiddleware.run()
LOG: Closed client: /10.0.0.6:45674in MyMiddleware.run()
LOG: Closed client: /10.0.0.6:45680in MyMiddleware.run()
LOG: Closed client: /10.0.0.6:45732in MyMiddleware.run()
LOG: Closed client: /10.0.0.11:34814in MyMiddleware.run()
LOG: Closed client: /10.0.0.6:45724in MyMiddleware.run()
LOG: Closed client: /10.0.0.11:34842in MyMiddleware.run()
LOG: Closed client: /10.0.0.6:45720in MyMiddleware.run()
LOG: Closed client: /10.0.0.6:45704in MyMiddleware.run()
LOG: Closed client: /10.0.0.6:45692in MyMiddleware.run()
LOG: Closed client: /10.0.0.6:45686in MyMiddleware.run()
LOG: Closed client: /10.0.0.6:45668in MyMiddleware.run()
LOG: Closed client: /10.0.0.11:34836in MyMiddleware.run()
LOG: Closed client: /10.0.0.6:45676in MyMiddleware.run()
LOG: Closed client: /10.0.0.6:45672in MyMiddleware.run()
LOG: Closed client: /10.0.0.11:34804in MyMiddleware.run()
LOG: Closed client: /10.0.0.6:45708in MyMiddleware.run()
LOG: Closed client: /10.0.0.6:45696in MyMiddleware.run()
LOG: Closed client: /10.0.0.11:34848in MyMiddleware.run()
LOG: Closed client: /10.0.0.6:45690in MyMiddleware.run()
LOG: Closed client: /10.0.0.6:45740in MyMiddleware.run()
LOG: Closed client: /10.0.0.6:45698in MyMiddleware.run()
LOG: Closed client: /10.0.0.6:45712in MyMiddleware.run()
LOG: Closed client: /10.0.0.6:45700in MyMiddleware.run()
LOG: Closed client: /10.0.0.11:34838in MyMiddleware.run()
LOG: Closed client: /10.0.0.6:45742in MyMiddleware.run()
LOG: Closed client: /10.0.0.11:34840in MyMiddleware.run()
LOG: Closed client: /10.0.0.11:34844in MyMiddleware.run()
LOG: Closed client: /10.0.0.6:45688in MyMiddleware.run()
LOG: Closed client: /10.0.0.6:45706in MyMiddleware.run()
LOG: Closed client: /10.0.0.11:34828in MyMiddleware.run()
LOG: Closed client: /10.0.0.11:34798in MyMiddleware.run()
LOG: Closed client: /10.0.0.6:45752in MyMiddleware.run()
LOG: Closed client: /10.0.0.6:45762in MyMiddleware.run()
LOG: Closed client: /10.0.0.6:45754in MyMiddleware.run()
LOG: Closed client: /10.0.0.6:45766in MyMiddleware.run()
LOG: Closed client: /10.0.0.6:45774in MyMiddleware.run()
LOG: Closed client: /10.0.0.6:45760in MyMiddleware.run()
LOG: Closed client: /10.0.0.6:45782in MyMiddleware.run()
LOG: Closed client: /10.0.0.6:45776in MyMiddleware.run()
LOG: Closed client: /10.0.0.6:45770in MyMiddleware.run()
LOG: Closed client: /10.0.0.6:45772in MyMiddleware.run()
LOG: Closed client: /10.0.0.6:45784in MyMiddleware.run()
LOG: Closed client: /10.0.0.6:45736in MyMiddleware.run()
LOG: Closed client: /10.0.0.6:45786in MyMiddleware.run()
LOG: Closed client: /10.0.0.6:45768in MyMiddleware.run()
LOG: Closed client: /10.0.0.6:45788in MyMiddleware.run()
LOG: Closed client: /10.0.0.6:45730in MyMiddleware.run()
LOG: Closed client: /10.0.0.6:45790in MyMiddleware.run()
LOG: Closed client: /10.0.0.6:45756in MyMiddleware.run()
LOG: Closed client: /10.0.0.6:45750in MyMiddleware.run()
LOG: Closed client: /10.0.0.6:45764in MyMiddleware.run()
LOG: Closed client: /10.0.0.7:35448in MyMiddleware.run()
LOG: Closed client: /10.0.0.7:35450in MyMiddleware.run()
LOG: Closed client: /10.0.0.7:35444in MyMiddleware.run()
LOG: Closed client: /10.0.0.7:35446in MyMiddleware.run()
LOG: Closed client: /10.0.0.7:35454in MyMiddleware.run()
LOG: Closed client: /10.0.0.7:35468in MyMiddleware.run()
LOG: Closed client: /10.0.0.7:35458in MyMiddleware.run()
LOG: Closed client: /10.0.0.7:35482in MyMiddleware.run()
LOG: Closed client: /10.0.0.7:35460in MyMiddleware.run()
LOG: Closed client: /10.0.0.7:35498in MyMiddleware.run()
LOG: Closed client: /10.0.0.7:35456in MyMiddleware.run()
LOG: Closed client: /10.0.0.7:35484in MyMiddleware.run()
LOG: Closed client: /10.0.0.7:35488in MyMiddleware.run()
LOG: Closed client: /10.0.0.7:35464in MyMiddleware.run()
LOG: Closed client: /10.0.0.7:35504in MyMiddleware.run()
LOG: Closed client: /10.0.0.7:35462in MyMiddleware.run()
LOG: Closed client: /10.0.0.7:35494in MyMiddleware.run()
LOG: Closed client: /10.0.0.7:35490in MyMiddleware.run()
LOG: Closed client: /10.0.0.7:35500in MyMiddleware.run()
LOG: Closed client: /10.0.0.7:35478in MyMiddleware.run()
LOG: Closed client: /10.0.0.7:35496in MyMiddleware.run()
LOG: Closed client: /10.0.0.7:35486in MyMiddleware.run()
LOG: Closed client: /10.0.0.7:35442in MyMiddleware.run()
LOG: Closed client: /10.0.0.7:35492in MyMiddleware.run()
LOG: Closed client: /10.0.0.7:35502in MyMiddleware.run()
LOG: Closed client: /10.0.0.7:35474in MyMiddleware.run()
LOG: Closed client: /10.0.0.7:35470in MyMiddleware.run()
LOG: Closed client: /10.0.0.7:35472in MyMiddleware.run()
LOG: Closed client: /10.0.0.7:35480in MyMiddleware.run()
LOG: Closed client: /10.0.0.7:35476in MyMiddleware.run()
LOG: Closed client: /10.0.0.7:35452in MyMiddleware.run()
LOG: Closed client: /10.0.0.7:35466in MyMiddleware.run()
LOG: Closed client: /10.0.0.7:35510in MyMiddleware.run()
LOG: Closed client: /10.0.0.7:35546in MyMiddleware.run()
LOG: Closed client: /10.0.0.7:35526in MyMiddleware.run()
LOG: Closed client: /10.0.0.7:35544in MyMiddleware.run()
LOG: Closed client: /10.0.0.7:35536in MyMiddleware.run()
LOG: Closed client: /10.0.0.7:35508in MyMiddleware.run()
LOG: Closed client: /10.0.0.7:35540in MyMiddleware.run()
LOG: Closed client: /10.0.0.7:35534in MyMiddleware.run()
LOG: Closed client: /10.0.0.7:35538in MyMiddleware.run()
LOG: Closed client: /10.0.0.7:35566in MyMiddleware.run()
LOG: Closed client: /10.0.0.7:35554in MyMiddleware.run()
LOG: Closed client: /10.0.0.7:35552in MyMiddleware.run()
LOG: Closed client: /10.0.0.7:35514in MyMiddleware.run()
LOG: Closed client: /10.0.0.7:35512in MyMiddleware.run()
LOG: Closed client: /10.0.0.7:35548in MyMiddleware.run()
LOG: Closed client: /10.0.0.7:35542in MyMiddleware.run()
LOG: Closed client: /10.0.0.7:35522in MyMiddleware.run()
LOG: Closed client: /10.0.0.7:35532in MyMiddleware.run()
LOG: Closed client: /10.0.0.7:35550in MyMiddleware.run()
LOG: Closed client: /10.0.0.7:35568in MyMiddleware.run()
LOG: Closed client: /10.0.0.7:35520in MyMiddleware.run()
LOG: Closed client: /10.0.0.7:35506in MyMiddleware.run()
LOG: Closed client: /10.0.0.7:35564in MyMiddleware.run()
LOG: Closed client: /10.0.0.7:35562in MyMiddleware.run()
LOG: Closed client: /10.0.0.7:35524in MyMiddleware.run()
LOG: Closed client: /10.0.0.7:35560in MyMiddleware.run()
LOG: Closed client: /10.0.0.7:35556in MyMiddleware.run()
LOG: Closed client: /10.0.0.7:35558in MyMiddleware.run()
LOG: Closed client: /10.0.0.7:35516in MyMiddleware.run()
LOG: Closed client: /10.0.0.7:35530in MyMiddleware.run()
LOG: Closed client: /10.0.0.7:35518in MyMiddleware.run()
LOG: Closed client: /10.0.0.7:35528in MyMiddleware.run()
