------------Middleware started!------------
LOG: Waiting for connection in MyMiddleware.run()
LOG: Accepted client: /10.0.0.7:50496in MyMiddleware.run()
LOG: Accepted client: /10.0.0.7:50502in MyMiddleware.run()
LOG: Accepted client: /10.0.0.7:50500in MyMiddleware.run()
LOG: Accepted client: /10.0.0.7:50508in MyMiddleware.run()
LOG: Accepted client: /10.0.0.7:50498in MyMiddleware.run()
LOG: Accepted client: /10.0.0.7:50504in MyMiddleware.run()
LOG: Accepted client: /10.0.0.7:50494in MyMiddleware.run()
LOG: Accepted client: /10.0.0.7:50506in MyMiddleware.run()
LOG: Accepted client: /10.0.0.11:49792in MyMiddleware.run()
LOG: Accepted client: /10.0.0.11:49796in MyMiddleware.run()
LOG: Accepted client: /10.0.0.11:49800in MyMiddleware.run()
LOG: Accepted client: /10.0.0.11:49806in MyMiddleware.run()
LOG: Accepted client: /10.0.0.11:49798in MyMiddleware.run()
LOG: Accepted client: /10.0.0.11:49804in MyMiddleware.run()
LOG: Accepted client: /10.0.0.11:49802in MyMiddleware.run()
LOG: Accepted client: /10.0.0.11:49794in MyMiddleware.run()
LOG: Accepted client: /10.0.0.6:60718in MyMiddleware.run()
LOG: Accepted client: /10.0.0.6:60716in MyMiddleware.run()
LOG: Accepted client: /10.0.0.6:60720in MyMiddleware.run()
LOG: Accepted client: /10.0.0.6:60726in MyMiddleware.run()
LOG: Accepted client: /10.0.0.6:60724in MyMiddleware.run()
LOG: Accepted client: /10.0.0.6:60728in MyMiddleware.run()
LOG: Accepted client: /10.0.0.6:60722in MyMiddleware.run()
LOG: Accepted client: /10.0.0.6:60730in MyMiddleware.run()
LOG: Closed client: /10.0.0.11:49794in MyMiddleware.run()
LOG: Closed client: /10.0.0.11:49798in MyMiddleware.run()
LOG: Closed client: /10.0.0.11:49792in MyMiddleware.run()
LOG: Closed client: /10.0.0.7:50500in MyMiddleware.run()
LOG: Closed client: /10.0.0.7:50494in MyMiddleware.run()
LOG: Closed client: /10.0.0.11:49806in MyMiddleware.run()
LOG: Closed client: /10.0.0.7:50496in MyMiddleware.run()
LOG: Closed client: /10.0.0.11:49802in MyMiddleware.run()
LOG: Closed client: /10.0.0.7:50506in MyMiddleware.run()
LOG: Closed client: /10.0.0.11:49800in MyMiddleware.run()
LOG: Closed client: /10.0.0.11:49804in MyMiddleware.run()
LOG: Closed client: /10.0.0.7:50498in MyMiddleware.run()
LOG: Closed client: /10.0.0.7:50502in MyMiddleware.run()
LOG: Closed client: /10.0.0.11:49796in MyMiddleware.run()
LOG: Closed client: /10.0.0.7:50508in MyMiddleware.run()
LOG: Closed client: /10.0.0.7:50504in MyMiddleware.run()
LOG: Closed client: /10.0.0.6:60728in MyMiddleware.run()
LOG: Closed client: /10.0.0.6:60716in MyMiddleware.run()
LOG: Closed client: /10.0.0.6:60720in MyMiddleware.run()
LOG: Closed client: /10.0.0.6:60718in MyMiddleware.run()
LOG: Closed client: /10.0.0.6:60722in MyMiddleware.run()
LOG: Closed client: /10.0.0.6:60726in MyMiddleware.run()
LOG: Closed client: /10.0.0.6:60724in MyMiddleware.run()
LOG: Closed client: /10.0.0.6:60730in MyMiddleware.run()
