------------Middleware started!------------
LOG: Waiting for connection in MyMiddleware.run()
LOG: Accepted client: /10.0.0.11:56366in MyMiddleware.run()
LOG: Accepted client: /10.0.0.11:56408in MyMiddleware.run()
LOG: Accepted client: /10.0.0.11:56360in MyMiddleware.run()
LOG: Accepted client: /10.0.0.11:56364in MyMiddleware.run()
LOG: Accepted client: /10.0.0.11:56368in MyMiddleware.run()
LOG: Accepted client: /10.0.0.11:56414in MyMiddleware.run()
LOG: Accepted client: /10.0.0.11:56412in MyMiddleware.run()
LOG: Accepted client: /10.0.0.11:56378in MyMiddleware.run()
LOG: Accepted client: /10.0.0.11:56384in MyMiddleware.run()
LOG: Accepted client: /10.0.0.11:56388in MyMiddleware.run()
LOG: Accepted client: /10.0.0.11:56398in MyMiddleware.run()
LOG: Accepted client: /10.0.0.11:56376in MyMiddleware.run()
LOG: Accepted client: /10.0.0.11:56362in MyMiddleware.run()
LOG: Accepted client: /10.0.0.11:56392in MyMiddleware.run()
LOG: Accepted client: /10.0.0.11:56400in MyMiddleware.run()
LOG: Accepted client: /10.0.0.11:56402in MyMiddleware.run()
LOG: Accepted client: /10.0.0.11:56410in MyMiddleware.run()
LOG: Accepted client: /10.0.0.11:56406in MyMiddleware.run()
LOG: Accepted client: /10.0.0.11:56372in MyMiddleware.run()
LOG: Accepted client: /10.0.0.11:56404in MyMiddleware.run()
LOG: Accepted client: /10.0.0.11:56386in MyMiddleware.run()
LOG: Accepted client: /10.0.0.11:56374in MyMiddleware.run()
LOG: Accepted client: /10.0.0.11:56390in MyMiddleware.run()
LOG: Accepted client: /10.0.0.11:56370in MyMiddleware.run()
LOG: Accepted client: /10.0.0.11:56380in MyMiddleware.run()
LOG: Accepted client: /10.0.0.11:56396in MyMiddleware.run()
LOG: Accepted client: /10.0.0.11:56420in MyMiddleware.run()
LOG: Accepted client: /10.0.0.11:56394in MyMiddleware.run()
LOG: Accepted client: /10.0.0.11:56382in MyMiddleware.run()
LOG: Accepted client: /10.0.0.11:56418in MyMiddleware.run()
LOG: Accepted client: /10.0.0.11:56422in MyMiddleware.run()
LOG: Accepted client: /10.0.0.7:57092in MyMiddleware.run()
LOG: Accepted client: /10.0.0.7:57078in MyMiddleware.run()
LOG: Accepted client: /10.0.0.7:57100in MyMiddleware.run()
LOG: Accepted client: /10.0.0.7:57096in MyMiddleware.run()
LOG: Accepted client: /10.0.0.7:57104in MyMiddleware.run()
LOG: Accepted client: /10.0.0.7:57118in MyMiddleware.run()
LOG: Accepted client: /10.0.0.11:56416in MyMiddleware.run()
LOG: Accepted client: /10.0.0.7:57128in MyMiddleware.run()
LOG: Accepted client: /10.0.0.7:57094in MyMiddleware.run()
LOG: Accepted client: /10.0.0.7:57120in MyMiddleware.run()
LOG: Accepted client: /10.0.0.7:57098in MyMiddleware.run()
LOG: Accepted client: /10.0.0.7:57106in MyMiddleware.run()
LOG: Accepted client: /10.0.0.7:57076in MyMiddleware.run()
LOG: Accepted client: /10.0.0.7:57130in MyMiddleware.run()
LOG: Accepted client: /10.0.0.7:57112in MyMiddleware.run()
LOG: Accepted client: /10.0.0.7:57086in MyMiddleware.run()
LOG: Accepted client: /10.0.0.7:57084in MyMiddleware.run()
LOG: Accepted client: /10.0.0.7:57110in MyMiddleware.run()
LOG: Accepted client: /10.0.0.7:57108in MyMiddleware.run()
LOG: Accepted client: /10.0.0.7:57082in MyMiddleware.run()
LOG: Accepted client: /10.0.0.7:57132in MyMiddleware.run()
LOG: Accepted client: /10.0.0.7:57138in MyMiddleware.run()
LOG: Accepted client: /10.0.0.6:39058in MyMiddleware.run()
LOG: Accepted client: /10.0.0.6:39062in MyMiddleware.run()
LOG: Accepted client: /10.0.0.6:39084in MyMiddleware.run()
LOG: Accepted client: /10.0.0.6:39060in MyMiddleware.run()
LOG: Accepted client: /10.0.0.7:57080in MyMiddleware.run()
LOG: Accepted client: /10.0.0.6:39086in MyMiddleware.run()
LOG: Accepted client: /10.0.0.6:39088in MyMiddleware.run()
LOG: Accepted client: /10.0.0.7:57102in MyMiddleware.run()
LOG: Accepted client: /10.0.0.7:57136in MyMiddleware.run()
LOG: Accepted client: /10.0.0.6:39072in MyMiddleware.run()
LOG: Accepted client: /10.0.0.6:39078in MyMiddleware.run()
LOG: Accepted client: /10.0.0.6:39100in MyMiddleware.run()
LOG: Accepted client: /10.0.0.6:39076in MyMiddleware.run()
LOG: Accepted client: /10.0.0.6:39102in MyMiddleware.run()
LOG: Accepted client: /10.0.0.6:39120in MyMiddleware.run()
LOG: Accepted client: /10.0.0.6:39070in MyMiddleware.run()
LOG: Accepted client: /10.0.0.6:39066in MyMiddleware.run()
LOG: Accepted client: /10.0.0.6:39110in MyMiddleware.run()
LOG: Accepted client: /10.0.0.6:39090in MyMiddleware.run()
LOG: Accepted client: /10.0.0.6:39092in MyMiddleware.run()
LOG: Accepted client: /10.0.0.6:39068in MyMiddleware.run()
LOG: Accepted client: /10.0.0.6:39064in MyMiddleware.run()
LOG: Accepted client: /10.0.0.6:39114in MyMiddleware.run()
LOG: Accepted client: /10.0.0.6:39074in MyMiddleware.run()
LOG: Accepted client: /10.0.0.6:39104in MyMiddleware.run()
LOG: Accepted client: /10.0.0.6:39112in MyMiddleware.run()
LOG: Accepted client: /10.0.0.6:39106in MyMiddleware.run()
LOG: Accepted client: /10.0.0.6:39108in MyMiddleware.run()
LOG: Accepted client: /10.0.0.6:39094in MyMiddleware.run()
LOG: Accepted client: /10.0.0.7:57134in MyMiddleware.run()
LOG: Accepted client: /10.0.0.6:39118in MyMiddleware.run()
LOG: Accepted client: /10.0.0.6:39098in MyMiddleware.run()
LOG: Accepted client: /10.0.0.6:39116in MyMiddleware.run()
LOG: Accepted client: /10.0.0.6:39096in MyMiddleware.run()
LOG: Accepted client: /10.0.0.7:57126in MyMiddleware.run()
LOG: Accepted client: /10.0.0.7:57124in MyMiddleware.run()
LOG: Accepted client: /10.0.0.7:57122in MyMiddleware.run()
LOG: Accepted client: /10.0.0.7:57114in MyMiddleware.run()
LOG: Accepted client: /10.0.0.7:57088in MyMiddleware.run()
LOG: Accepted client: /10.0.0.7:57090in MyMiddleware.run()
LOG: Accepted client: /10.0.0.7:57116in MyMiddleware.run()
LOG: Accepted client: /10.0.0.6:39082in MyMiddleware.run()
LOG: Accepted client: /10.0.0.6:39080in MyMiddleware.run()
LOG: Closed client: /10.0.0.11:56388in MyMiddleware.run()
LOG: Closed client: /10.0.0.11:56390in MyMiddleware.run()
LOG: Closed client: /10.0.0.11:56370in MyMiddleware.run()
LOG: Closed client: /10.0.0.11:56366in MyMiddleware.run()
LOG: Closed client: /10.0.0.11:56382in MyMiddleware.run()
LOG: Closed client: /10.0.0.11:56368in MyMiddleware.run()
LOG: Closed client: /10.0.0.11:56374in MyMiddleware.run()
LOG: Closed client: /10.0.0.11:56364in MyMiddleware.run()
LOG: Closed client: /10.0.0.11:56402in MyMiddleware.run()
LOG: Closed client: /10.0.0.11:56362in MyMiddleware.run()
LOG: Closed client: /10.0.0.11:56394in MyMiddleware.run()
LOG: Closed client: /10.0.0.11:56420in MyMiddleware.run()
LOG: Closed client: /10.0.0.11:56404in MyMiddleware.run()
LOG: Closed client: /10.0.0.11:56360in MyMiddleware.run()
LOG: Closed client: /10.0.0.11:56422in MyMiddleware.run()
LOG: Closed client: /10.0.0.11:56412in MyMiddleware.run()
LOG: Closed client: /10.0.0.11:56396in MyMiddleware.run()
LOG: Closed client: /10.0.0.11:56398in MyMiddleware.run()
LOG: Closed client: /10.0.0.11:56418in MyMiddleware.run()
LOG: Closed client: /10.0.0.11:56384in MyMiddleware.run()
LOG: Closed client: /10.0.0.11:56416in MyMiddleware.run()
LOG: Closed client: /10.0.0.11:56392in MyMiddleware.run()
LOG: Closed client: /10.0.0.11:56372in MyMiddleware.run()
LOG: Closed client: /10.0.0.11:56400in MyMiddleware.run()
LOG: Closed client: /10.0.0.11:56378in MyMiddleware.run()
LOG: Closed client: /10.0.0.11:56386in MyMiddleware.run()
LOG: Closed client: /10.0.0.11:56380in MyMiddleware.run()
LOG: Closed client: /10.0.0.11:56406in MyMiddleware.run()
LOG: Closed client: /10.0.0.11:56410in MyMiddleware.run()
LOG: Closed client: /10.0.0.11:56376in MyMiddleware.run()
LOG: Closed client: /10.0.0.11:56414in MyMiddleware.run()
LOG: Closed client: /10.0.0.11:56408in MyMiddleware.run()
LOG: Closed client: /10.0.0.7:57076in MyMiddleware.run()
LOG: Closed client: /10.0.0.7:57084in MyMiddleware.run()
LOG: Closed client: /10.0.0.7:57098in MyMiddleware.run()
LOG: Closed client: /10.0.0.7:57106in MyMiddleware.run()
LOG: Closed client: /10.0.0.7:57082in MyMiddleware.run()
LOG: Closed client: /10.0.0.7:57080in MyMiddleware.run()
LOG: Closed client: /10.0.0.7:57094in MyMiddleware.run()
LOG: Closed client: /10.0.0.7:57086in MyMiddleware.run()
LOG: Closed client: /10.0.0.7:57088in MyMiddleware.run()
LOG: Closed client: /10.0.0.7:57078in MyMiddleware.run()
LOG: Closed client: /10.0.0.7:57112in MyMiddleware.run()
LOG: Closed client: /10.0.0.7:57126in MyMiddleware.run()
LOG: Closed client: /10.0.0.7:57132in MyMiddleware.run()
LOG: Closed client: /10.0.0.7:57092in MyMiddleware.run()
LOG: Closed client: /10.0.0.7:57090in MyMiddleware.run()
LOG: Closed client: /10.0.0.7:57100in MyMiddleware.run()
LOG: Closed client: /10.0.0.7:57120in MyMiddleware.run()
LOG: Closed client: /10.0.0.7:57134in MyMiddleware.run()
LOG: Closed client: /10.0.0.7:57102in MyMiddleware.run()
LOG: Closed client: /10.0.0.7:57136in MyMiddleware.run()
LOG: Closed client: /10.0.0.7:57114in MyMiddleware.run()
LOG: Closed client: /10.0.0.7:57122in MyMiddleware.run()
LOG: Closed client: /10.0.0.7:57130in MyMiddleware.run()
LOG: Closed client: /10.0.0.7:57110in MyMiddleware.run()
LOG: Closed client: /10.0.0.7:57128in MyMiddleware.run()
LOG: Closed client: /10.0.0.7:57124in MyMiddleware.run()
LOG: Closed client: /10.0.0.7:57108in MyMiddleware.run()
LOG: Closed client: /10.0.0.7:57116in MyMiddleware.run()
LOG: Closed client: /10.0.0.7:57104in MyMiddleware.run()
LOG: Closed client: /10.0.0.7:57096in MyMiddleware.run()
LOG: Closed client: /10.0.0.7:57138in MyMiddleware.run()
LOG: Closed client: /10.0.0.7:57118in MyMiddleware.run()
LOG: Closed client: /10.0.0.6:39064in MyMiddleware.run()
LOG: Closed client: /10.0.0.6:39074in MyMiddleware.run()
LOG: Closed client: /10.0.0.6:39080in MyMiddleware.run()
LOG: Closed client: /10.0.0.6:39070in MyMiddleware.run()
LOG: Closed client: /10.0.0.6:39068in MyMiddleware.run()
LOG: Closed client: /10.0.0.6:39072in MyMiddleware.run()
LOG: Closed client: /10.0.0.6:39066in MyMiddleware.run()
LOG: Closed client: /10.0.0.6:39084in MyMiddleware.run()
LOG: Closed client: /10.0.0.6:39082in MyMiddleware.run()
LOG: Closed client: /10.0.0.6:39078in MyMiddleware.run()
LOG: Closed client: /10.0.0.6:39076in MyMiddleware.run()
LOG: Closed client: /10.0.0.6:39086in MyMiddleware.run()
LOG: Closed client: /10.0.0.6:39062in MyMiddleware.run()
LOG: Closed client: /10.0.0.6:39060in MyMiddleware.run()
LOG: Closed client: /10.0.0.6:39092in MyMiddleware.run()
LOG: Closed client: /10.0.0.6:39096in MyMiddleware.run()
LOG: Closed client: /10.0.0.6:39098in MyMiddleware.run()
LOG: Closed client: /10.0.0.6:39090in MyMiddleware.run()
LOG: Closed client: /10.0.0.6:39110in MyMiddleware.run()
LOG: Closed client: /10.0.0.6:39104in MyMiddleware.run()
LOG: Closed client: /10.0.0.6:39120in MyMiddleware.run()
LOG: Closed client: /10.0.0.6:39100in MyMiddleware.run()
LOG: Closed client: /10.0.0.6:39118in MyMiddleware.run()
LOG: Closed client: /10.0.0.6:39094in MyMiddleware.run()
LOG: Closed client: /10.0.0.6:39116in MyMiddleware.run()
LOG: Closed client: /10.0.0.6:39112in MyMiddleware.run()
LOG: Closed client: /10.0.0.6:39088in MyMiddleware.run()
LOG: Closed client: /10.0.0.6:39106in MyMiddleware.run()
LOG: Closed client: /10.0.0.6:39108in MyMiddleware.run()
LOG: Closed client: /10.0.0.6:39058in MyMiddleware.run()
LOG: Closed client: /10.0.0.6:39114in MyMiddleware.run()
LOG: Closed client: /10.0.0.6:39102in MyMiddleware.run()
