------------Middleware started!------------
LOG: Waiting for connection in MyMiddleware.run()
LOG: Accepted client: /10.0.0.6:60644in MyMiddleware.run()
LOG: Accepted client: /10.0.0.6:60646in MyMiddleware.run()
LOG: Accepted client: /10.0.0.6:60642in MyMiddleware.run()
LOG: Accepted client: /10.0.0.6:60640in MyMiddleware.run()
LOG: Accepted client: /10.0.0.6:60636in MyMiddleware.run()
LOG: Accepted client: /10.0.0.6:60638in MyMiddleware.run()
LOG: Accepted client: /10.0.0.6:60648in MyMiddleware.run()
LOG: Accepted client: /10.0.0.6:60650in MyMiddleware.run()
LOG: Accepted client: /10.0.0.7:50414in MyMiddleware.run()
LOG: Accepted client: /10.0.0.7:50410in MyMiddleware.run()
LOG: Accepted client: /10.0.0.7:50420in MyMiddleware.run()
LOG: Accepted client: /10.0.0.7:50422in MyMiddleware.run()
LOG: Accepted client: /10.0.0.7:50412in MyMiddleware.run()
LOG: Accepted client: /10.0.0.7:50424in MyMiddleware.run()
LOG: Accepted client: /10.0.0.7:50418in MyMiddleware.run()
LOG: Accepted client: /10.0.0.7:50416in MyMiddleware.run()
LOG: Accepted client: /10.0.0.11:49712in MyMiddleware.run()
LOG: Accepted client: /10.0.0.11:49714in MyMiddleware.run()
LOG: Accepted client: /10.0.0.11:49724in MyMiddleware.run()
LOG: Accepted client: /10.0.0.11:49716in MyMiddleware.run()
LOG: Accepted client: /10.0.0.11:49710in MyMiddleware.run()
LOG: Accepted client: /10.0.0.11:49718in MyMiddleware.run()
LOG: Accepted client: /10.0.0.11:49722in MyMiddleware.run()
LOG: Accepted client: /10.0.0.11:49720in MyMiddleware.run()
LOG: Closed client: /10.0.0.7:50422in MyMiddleware.run()
LOG: Closed client: /10.0.0.7:50412in MyMiddleware.run()
LOG: Closed client: /10.0.0.7:50420in MyMiddleware.run()
LOG: Closed client: /10.0.0.7:50414in MyMiddleware.run()
LOG: Closed client: /10.0.0.7:50410in MyMiddleware.run()
LOG: Closed client: /10.0.0.7:50416in MyMiddleware.run()
LOG: Closed client: /10.0.0.7:50418in MyMiddleware.run()
LOG: Closed client: /10.0.0.7:50424in MyMiddleware.run()
LOG: Closed client: /10.0.0.11:49714in MyMiddleware.run()
LOG: Closed client: /10.0.0.11:49716in MyMiddleware.run()
LOG: Closed client: /10.0.0.11:49712in MyMiddleware.run()
LOG: Closed client: /10.0.0.11:49718in MyMiddleware.run()
LOG: Closed client: /10.0.0.11:49710in MyMiddleware.run()
LOG: Closed client: /10.0.0.11:49720in MyMiddleware.run()
LOG: Closed client: /10.0.0.11:49724in MyMiddleware.run()
LOG: Closed client: /10.0.0.11:49722in MyMiddleware.run()
LOG: Closed client: /10.0.0.6:60640in MyMiddleware.run()
LOG: Closed client: /10.0.0.6:60642in MyMiddleware.run()
LOG: Closed client: /10.0.0.6:60648in MyMiddleware.run()
LOG: Closed client: /10.0.0.6:60644in MyMiddleware.run()
LOG: Closed client: /10.0.0.6:60638in MyMiddleware.run()
LOG: Closed client: /10.0.0.6:60650in MyMiddleware.run()
LOG: Closed client: /10.0.0.6:60636in MyMiddleware.run()
LOG: Closed client: /10.0.0.6:60646in MyMiddleware.run()
