------------Middleware started!------------
LOG: Waiting for connection in MyMiddleware.run()
LOG: Accepted client: /10.0.0.11:36776in MyMiddleware.run()
LOG: Accepted client: /10.0.0.7:37482in MyMiddleware.run()
LOG: Accepted client: /10.0.0.7:37478in MyMiddleware.run()
LOG: Accepted client: /10.0.0.11:36784in MyMiddleware.run()
LOG: Accepted client: /10.0.0.11:36780in MyMiddleware.run()
LOG: Accepted client: /10.0.0.7:37484in MyMiddleware.run()
LOG: Accepted client: /10.0.0.6:47704in MyMiddleware.run()
LOG: Accepted client: /10.0.0.6:47712in MyMiddleware.run()
LOG: Accepted client: /10.0.0.6:47700in MyMiddleware.run()
LOG: Accepted client: /10.0.0.6:47710in MyMiddleware.run()
LOG: Accepted client: /10.0.0.6:47714in MyMiddleware.run()
LOG: Accepted client: /10.0.0.11:36778in MyMiddleware.run()
LOG: Accepted client: /10.0.0.6:47708in MyMiddleware.run()
LOG: Accepted client: /10.0.0.11:36786in MyMiddleware.run()
LOG: Accepted client: /10.0.0.11:36782in MyMiddleware.run()
LOG: Accepted client: /10.0.0.11:36790in MyMiddleware.run()
LOG: Accepted client: /10.0.0.7:37490in MyMiddleware.run()
LOG: Accepted client: /10.0.0.11:36788in MyMiddleware.run()
LOG: Accepted client: /10.0.0.6:47702in MyMiddleware.run()
LOG: Accepted client: /10.0.0.7:37488in MyMiddleware.run()
LOG: Accepted client: /10.0.0.7:37480in MyMiddleware.run()
LOG: Accepted client: /10.0.0.7:37492in MyMiddleware.run()
LOG: Accepted client: /10.0.0.7:37486in MyMiddleware.run()
LOG: Accepted client: /10.0.0.6:47706in MyMiddleware.run()
LOG: Closed client: /10.0.0.11:36780in MyMiddleware.run()
LOG: Closed client: /10.0.0.11:36776in MyMiddleware.run()
LOG: Closed client: /10.0.0.11:36782in MyMiddleware.run()
LOG: Closed client: /10.0.0.11:36778in MyMiddleware.run()
LOG: Closed client: /10.0.0.7:37484in MyMiddleware.run()
LOG: Closed client: /10.0.0.11:36784in MyMiddleware.run()
LOG: Closed client: /10.0.0.7:37490in MyMiddleware.run()
LOG: Closed client: /10.0.0.7:37480in MyMiddleware.run()
LOG: Closed client: /10.0.0.7:37478in MyMiddleware.run()
LOG: Closed client: /10.0.0.11:36790in MyMiddleware.run()
LOG: Closed client: /10.0.0.7:37482in MyMiddleware.run()
LOG: Closed client: /10.0.0.11:36786in MyMiddleware.run()
LOG: Closed client: /10.0.0.7:37486in MyMiddleware.run()
LOG: Closed client: /10.0.0.7:37492in MyMiddleware.run()
LOG: Closed client: /10.0.0.11:36788in MyMiddleware.run()
LOG: Closed client: /10.0.0.7:37488in MyMiddleware.run()
LOG: Closed client: /10.0.0.6:47710in MyMiddleware.run()
LOG: Closed client: /10.0.0.6:47712in MyMiddleware.run()
LOG: Closed client: /10.0.0.6:47704in MyMiddleware.run()
LOG: Closed client: /10.0.0.6:47702in MyMiddleware.run()
LOG: Closed client: /10.0.0.6:47706in MyMiddleware.run()
LOG: Closed client: /10.0.0.6:47714in MyMiddleware.run()
LOG: Closed client: /10.0.0.6:47700in MyMiddleware.run()
LOG: Closed client: /10.0.0.6:47708in MyMiddleware.run()
