------------Middleware started!------------
LOG: Waiting for connection in MyMiddleware.run()
LOG: Accepted client: /10.0.0.11:52784in MyMiddleware.run()
LOG: Accepted client: /10.0.0.11:52782in MyMiddleware.run()
LOG: Accepted client: /10.0.0.11:52790in MyMiddleware.run()
LOG: Accepted client: /10.0.0.11:52776in MyMiddleware.run()
LOG: Accepted client: /10.0.0.11:52786in MyMiddleware.run()
LOG: Accepted client: /10.0.0.11:52780in MyMiddleware.run()
LOG: Accepted client: /10.0.0.11:52800in MyMiddleware.run()
LOG: Accepted client: /10.0.0.11:52788in MyMiddleware.run()
LOG: Accepted client: /10.0.0.11:52792in MyMiddleware.run()
LOG: Accepted client: /10.0.0.11:52774in MyMiddleware.run()
LOG: Accepted client: /10.0.0.11:52794in MyMiddleware.run()
LOG: Accepted client: /10.0.0.11:52802in MyMiddleware.run()
LOG: Accepted client: /10.0.0.11:52796in MyMiddleware.run()
LOG: Accepted client: /10.0.0.11:52798in MyMiddleware.run()
LOG: Accepted client: /10.0.0.11:52778in MyMiddleware.run()
LOG: Accepted client: /10.0.0.11:52804in MyMiddleware.run()
LOG: Accepted client: /10.0.0.7:53492in MyMiddleware.run()
LOG: Accepted client: /10.0.0.7:53466in MyMiddleware.run()
LOG: Accepted client: /10.0.0.7:53494in MyMiddleware.run()
LOG: Accepted client: /10.0.0.7:53476in MyMiddleware.run()
LOG: Accepted client: /10.0.0.7:53496in MyMiddleware.run()
LOG: Accepted client: /10.0.0.7:53486in MyMiddleware.run()
LOG: Accepted client: /10.0.0.7:53484in MyMiddleware.run()
LOG: Accepted client: /10.0.0.7:53474in MyMiddleware.run()
LOG: Accepted client: /10.0.0.7:53472in MyMiddleware.run()
LOG: Accepted client: /10.0.0.7:53478in MyMiddleware.run()
LOG: Accepted client: /10.0.0.7:53482in MyMiddleware.run()
LOG: Accepted client: /10.0.0.7:53480in MyMiddleware.run()
LOG: Accepted client: /10.0.0.6:35464in MyMiddleware.run()
LOG: Accepted client: /10.0.0.6:35468in MyMiddleware.run()
LOG: Accepted client: /10.0.0.6:35474in MyMiddleware.run()
LOG: Accepted client: /10.0.0.6:35470in MyMiddleware.run()
LOG: Accepted client: /10.0.0.6:35472in MyMiddleware.run()
LOG: Accepted client: /10.0.0.6:35460in MyMiddleware.run()
LOG: Accepted client: /10.0.0.6:35466in MyMiddleware.run()
LOG: Accepted client: /10.0.0.6:35490in MyMiddleware.run()
LOG: Accepted client: /10.0.0.6:35484in MyMiddleware.run()
LOG: Accepted client: /10.0.0.6:35462in MyMiddleware.run()
LOG: Accepted client: /10.0.0.6:35486in MyMiddleware.run()
LOG: Accepted client: /10.0.0.6:35488in MyMiddleware.run()
LOG: Accepted client: /10.0.0.7:53490in MyMiddleware.run()
LOG: Accepted client: /10.0.0.7:53468in MyMiddleware.run()
LOG: Accepted client: /10.0.0.7:53488in MyMiddleware.run()
LOG: Accepted client: /10.0.0.7:53470in MyMiddleware.run()
LOG: Accepted client: /10.0.0.6:35482in MyMiddleware.run()
LOG: Accepted client: /10.0.0.6:35480in MyMiddleware.run()
LOG: Accepted client: /10.0.0.6:35478in MyMiddleware.run()
LOG: Accepted client: /10.0.0.6:35476in MyMiddleware.run()
LOG: Closed client: /10.0.0.11:52788in MyMiddleware.run()
LOG: Closed client: /10.0.0.11:52774in MyMiddleware.run()
LOG: Closed client: /10.0.0.11:52776in MyMiddleware.run()
LOG: Closed client: /10.0.0.11:52804in MyMiddleware.run()
LOG: Closed client: /10.0.0.11:52784in MyMiddleware.run()
LOG: Closed client: /10.0.0.11:52778in MyMiddleware.run()
LOG: Closed client: /10.0.0.11:52796in MyMiddleware.run()
LOG: Closed client: /10.0.0.11:52790in MyMiddleware.run()
LOG: Closed client: /10.0.0.11:52800in MyMiddleware.run()
LOG: Closed client: /10.0.0.11:52802in MyMiddleware.run()
LOG: Closed client: /10.0.0.11:52780in MyMiddleware.run()
LOG: Closed client: /10.0.0.11:52794in MyMiddleware.run()
LOG: Closed client: /10.0.0.11:52792in MyMiddleware.run()
LOG: Closed client: /10.0.0.11:52798in MyMiddleware.run()
LOG: Closed client: /10.0.0.11:52786in MyMiddleware.run()
LOG: Closed client: /10.0.0.11:52782in MyMiddleware.run()
LOG: Closed client: /10.0.0.7:53472in MyMiddleware.run()
LOG: Closed client: /10.0.0.7:53474in MyMiddleware.run()
LOG: Closed client: /10.0.0.7:53470in MyMiddleware.run()
LOG: Closed client: /10.0.0.7:53490in MyMiddleware.run()
LOG: Closed client: /10.0.0.7:53476in MyMiddleware.run()
LOG: Closed client: /10.0.0.7:53492in MyMiddleware.run()
LOG: Closed client: /10.0.0.7:53478in MyMiddleware.run()
LOG: Closed client: /10.0.0.7:53486in MyMiddleware.run()
LOG: Closed client: /10.0.0.7:53494in MyMiddleware.run()
LOG: Closed client: /10.0.0.7:53480in MyMiddleware.run()
LOG: Closed client: /10.0.0.7:53496in MyMiddleware.run()
LOG: Closed client: /10.0.0.7:53482in MyMiddleware.run()
LOG: Closed client: /10.0.0.7:53466in MyMiddleware.run()
LOG: Closed client: /10.0.0.7:53484in MyMiddleware.run()
LOG: Closed client: /10.0.0.7:53468in MyMiddleware.run()
LOG: Closed client: /10.0.0.7:53488in MyMiddleware.run()
LOG: Closed client: /10.0.0.6:35460in MyMiddleware.run()
LOG: Closed client: /10.0.0.6:35462in MyMiddleware.run()
LOG: Closed client: /10.0.0.6:35466in MyMiddleware.run()
LOG: Closed client: /10.0.0.6:35470in MyMiddleware.run()
LOG: Closed client: /10.0.0.6:35464in MyMiddleware.run()
LOG: Closed client: /10.0.0.6:35468in MyMiddleware.run()
LOG: Closed client: /10.0.0.6:35476in MyMiddleware.run()
LOG: Closed client: /10.0.0.6:35490in MyMiddleware.run()
LOG: Closed client: /10.0.0.6:35474in MyMiddleware.run()
LOG: Closed client: /10.0.0.6:35472in MyMiddleware.run()
LOG: Closed client: /10.0.0.6:35488in MyMiddleware.run()
LOG: Closed client: /10.0.0.6:35486in MyMiddleware.run()
LOG: Closed client: /10.0.0.6:35478in MyMiddleware.run()
LOG: Closed client: /10.0.0.6:35480in MyMiddleware.run()
LOG: Closed client: /10.0.0.6:35484in MyMiddleware.run()
LOG: Closed client: /10.0.0.6:35482in MyMiddleware.run()
