------------Middleware started!------------
LOG: Waiting for connection in MyMiddleware.run()
LOG: Accepted client: /10.0.0.11:42108in MyMiddleware.run()
LOG: Accepted client: /10.0.0.11:42084in MyMiddleware.run()
LOG: Accepted client: /10.0.0.11:42088in MyMiddleware.run()
LOG: Accepted client: /10.0.0.11:42098in MyMiddleware.run()
LOG: Accepted client: /10.0.0.11:42138in MyMiddleware.run()
LOG: Accepted client: /10.0.0.11:42130in MyMiddleware.run()
LOG: Accepted client: /10.0.0.11:42132in MyMiddleware.run()
LOG: Accepted client: /10.0.0.6:53058in MyMiddleware.run()
LOG: Accepted client: /10.0.0.11:42092in MyMiddleware.run()
LOG: Accepted client: /10.0.0.11:42110in MyMiddleware.run()
LOG: Accepted client: /10.0.0.6:53014in MyMiddleware.run()
LOG: Accepted client: /10.0.0.6:53034in MyMiddleware.run()
LOG: Accepted client: /10.0.0.11:42122in MyMiddleware.run()
LOG: Accepted client: /10.0.0.6:53004in MyMiddleware.run()
LOG: Accepted client: /10.0.0.6:53008in MyMiddleware.run()
LOG: Accepted client: /10.0.0.11:42134in MyMiddleware.run()
LOG: Accepted client: /10.0.0.7:42822in MyMiddleware.run()
LOG: Accepted client: /10.0.0.7:42782in MyMiddleware.run()
LOG: Accepted client: /10.0.0.11:42106in MyMiddleware.run()
LOG: Accepted client: /10.0.0.11:42082in MyMiddleware.run()
LOG: Accepted client: /10.0.0.11:42100in MyMiddleware.run()
LOG: Accepted client: /10.0.0.11:42140in MyMiddleware.run()
LOG: Accepted client: /10.0.0.11:42112in MyMiddleware.run()
LOG: Accepted client: /10.0.0.7:42836in MyMiddleware.run()
LOG: Accepted client: /10.0.0.6:53046in MyMiddleware.run()
LOG: Accepted client: /10.0.0.11:42104in MyMiddleware.run()
LOG: Accepted client: /10.0.0.11:42124in MyMiddleware.run()
LOG: Accepted client: /10.0.0.6:53020in MyMiddleware.run()
LOG: Accepted client: /10.0.0.11:42144in MyMiddleware.run()
LOG: Accepted client: /10.0.0.11:42090in MyMiddleware.run()
LOG: Accepted client: /10.0.0.11:42102in MyMiddleware.run()
LOG: Accepted client: /10.0.0.11:42096in MyMiddleware.run()
LOG: Accepted client: /10.0.0.11:42142in MyMiddleware.run()
LOG: Accepted client: /10.0.0.7:42804in MyMiddleware.run()
LOG: Accepted client: /10.0.0.7:42816in MyMiddleware.run()
LOG: Accepted client: /10.0.0.7:42844in MyMiddleware.run()
LOG: Accepted client: /10.0.0.6:53040in MyMiddleware.run()
LOG: Accepted client: /10.0.0.7:42786in MyMiddleware.run()
LOG: Accepted client: /10.0.0.7:42828in MyMiddleware.run()
LOG: Accepted client: /10.0.0.7:42838in MyMiddleware.run()
LOG: Accepted client: /10.0.0.6:53056in MyMiddleware.run()
LOG: Accepted client: /10.0.0.6:53010in MyMiddleware.run()
LOG: Accepted client: /10.0.0.6:53012in MyMiddleware.run()
LOG: Accepted client: /10.0.0.6:53066in MyMiddleware.run()
LOG: Accepted client: /10.0.0.11:42128in MyMiddleware.run()
LOG: Accepted client: /10.0.0.11:42114in MyMiddleware.run()
LOG: Accepted client: /10.0.0.6:53050in MyMiddleware.run()
LOG: Accepted client: /10.0.0.6:53052in MyMiddleware.run()
LOG: Accepted client: /10.0.0.6:53064in MyMiddleware.run()
LOG: Accepted client: /10.0.0.7:42826in MyMiddleware.run()
LOG: Accepted client: /10.0.0.7:42808in MyMiddleware.run()
LOG: Accepted client: /10.0.0.6:53018in MyMiddleware.run()
LOG: Accepted client: /10.0.0.7:42784in MyMiddleware.run()
LOG: Accepted client: /10.0.0.6:53062in MyMiddleware.run()
LOG: Accepted client: /10.0.0.11:42094in MyMiddleware.run()
LOG: Accepted client: /10.0.0.7:42790in MyMiddleware.run()
LOG: Accepted client: /10.0.0.11:42118in MyMiddleware.run()
LOG: Accepted client: /10.0.0.7:42832in MyMiddleware.run()
LOG: Accepted client: /10.0.0.7:42788in MyMiddleware.run()
LOG: Accepted client: /10.0.0.11:42120in MyMiddleware.run()
LOG: Accepted client: /10.0.0.11:42136in MyMiddleware.run()
LOG: Accepted client: /10.0.0.11:42116in MyMiddleware.run()
LOG: Accepted client: /10.0.0.11:42126in MyMiddleware.run()
LOG: Accepted client: /10.0.0.11:42086in MyMiddleware.run()
LOG: Accepted client: /10.0.0.7:42806in MyMiddleware.run()
LOG: Accepted client: /10.0.0.7:42818in MyMiddleware.run()
LOG: Accepted client: /10.0.0.7:42830in MyMiddleware.run()
LOG: Accepted client: /10.0.0.7:42842in MyMiddleware.run()
LOG: Accepted client: /10.0.0.7:42834in MyMiddleware.run()
LOG: Accepted client: /10.0.0.7:42810in MyMiddleware.run()
LOG: Accepted client: /10.0.0.7:42798in MyMiddleware.run()
LOG: Accepted client: /10.0.0.7:42792in MyMiddleware.run()
LOG: Accepted client: /10.0.0.6:53022in MyMiddleware.run()
LOG: Accepted client: /10.0.0.6:53030in MyMiddleware.run()
LOG: Accepted client: /10.0.0.6:53024in MyMiddleware.run()
LOG: Accepted client: /10.0.0.6:53026in MyMiddleware.run()
LOG: Accepted client: /10.0.0.6:53028in MyMiddleware.run()
LOG: Accepted client: /10.0.0.6:53032in MyMiddleware.run()
LOG: Accepted client: /10.0.0.6:53006in MyMiddleware.run()
LOG: Accepted client: /10.0.0.7:42814in MyMiddleware.run()
LOG: Accepted client: /10.0.0.7:42812in MyMiddleware.run()
LOG: Accepted client: /10.0.0.7:42824in MyMiddleware.run()
LOG: Accepted client: /10.0.0.6:53016in MyMiddleware.run()
LOG: Accepted client: /10.0.0.7:42820in MyMiddleware.run()
LOG: Accepted client: /10.0.0.7:42802in MyMiddleware.run()
LOG: Accepted client: /10.0.0.7:42800in MyMiddleware.run()
LOG: Accepted client: /10.0.0.6:53044in MyMiddleware.run()
LOG: Accepted client: /10.0.0.6:53060in MyMiddleware.run()
LOG: Accepted client: /10.0.0.6:53048in MyMiddleware.run()
LOG: Accepted client: /10.0.0.6:53036in MyMiddleware.run()
LOG: Accepted client: /10.0.0.6:53042in MyMiddleware.run()
LOG: Accepted client: /10.0.0.6:53038in MyMiddleware.run()
LOG: Accepted client: /10.0.0.6:53054in MyMiddleware.run()
LOG: Accepted client: /10.0.0.7:42794in MyMiddleware.run()
LOG: Accepted client: /10.0.0.7:42840in MyMiddleware.run()
LOG: Accepted client: /10.0.0.7:42796in MyMiddleware.run()
LOG: Closed client: /10.0.0.6:53012in MyMiddleware.run()
LOG: Closed client: /10.0.0.6:53066in MyMiddleware.run()
LOG: Closed client: /10.0.0.6:53052in MyMiddleware.run()
LOG: Closed client: /10.0.0.6:53010in MyMiddleware.run()
LOG: Closed client: /10.0.0.6:53020in MyMiddleware.run()
LOG: Closed client: /10.0.0.6:53042in MyMiddleware.run()
LOG: Closed client: /10.0.0.6:53024in MyMiddleware.run()
LOG: Closed client: /10.0.0.6:53060in MyMiddleware.run()
LOG: Closed client: /10.0.0.6:53036in MyMiddleware.run()
LOG: Closed client: /10.0.0.6:53018in MyMiddleware.run()
LOG: Closed client: /10.0.0.6:53064in MyMiddleware.run()
LOG: Closed client: /10.0.0.6:53062in MyMiddleware.run()
LOG: Closed client: /10.0.0.6:53014in MyMiddleware.run()
LOG: Closed client: /10.0.0.6:53032in MyMiddleware.run()
LOG: Closed client: /10.0.0.6:53050in MyMiddleware.run()
LOG: Closed client: /10.0.0.6:53048in MyMiddleware.run()
LOG: Closed client: /10.0.0.6:53044in MyMiddleware.run()
LOG: Closed client: /10.0.0.6:53004in MyMiddleware.run()
LOG: Closed client: /10.0.0.6:53022in MyMiddleware.run()
LOG: Closed client: /10.0.0.6:53026in MyMiddleware.run()
LOG: Closed client: /10.0.0.6:53006in MyMiddleware.run()
LOG: Closed client: /10.0.0.6:53008in MyMiddleware.run()
LOG: Closed client: /10.0.0.6:53056in MyMiddleware.run()
LOG: Closed client: /10.0.0.6:53058in MyMiddleware.run()
LOG: Closed client: /10.0.0.6:53030in MyMiddleware.run()
LOG: Closed client: /10.0.0.6:53028in MyMiddleware.run()
LOG: Closed client: /10.0.0.6:53016in MyMiddleware.run()
LOG: Closed client: /10.0.0.6:53038in MyMiddleware.run()
LOG: Closed client: /10.0.0.6:53046in MyMiddleware.run()
LOG: Closed client: /10.0.0.6:53034in MyMiddleware.run()
LOG: Closed client: /10.0.0.6:53054in MyMiddleware.run()
LOG: Closed client: /10.0.0.6:53040in MyMiddleware.run()
LOG: Closed client: /10.0.0.11:42082in MyMiddleware.run()
LOG: Closed client: /10.0.0.11:42086in MyMiddleware.run()
LOG: Closed client: /10.0.0.11:42084in MyMiddleware.run()
LOG: Closed client: /10.0.0.11:42098in MyMiddleware.run()
LOG: Closed client: /10.0.0.11:42110in MyMiddleware.run()
LOG: Closed client: /10.0.0.11:42102in MyMiddleware.run()
LOG: Closed client: /10.0.0.11:42088in MyMiddleware.run()
LOG: Closed client: /10.0.0.11:42104in MyMiddleware.run()
LOG: Closed client: /10.0.0.11:42090in MyMiddleware.run()
LOG: Closed client: /10.0.0.11:42092in MyMiddleware.run()
LOG: Closed client: /10.0.0.11:42112in MyMiddleware.run()
LOG: Closed client: /10.0.0.11:42100in MyMiddleware.run()
LOG: Closed client: /10.0.0.11:42096in MyMiddleware.run()
LOG: Closed client: /10.0.0.11:42134in MyMiddleware.run()
LOG: Closed client: /10.0.0.11:42136in MyMiddleware.run()
LOG: Closed client: /10.0.0.11:42116in MyMiddleware.run()
LOG: Closed client: /10.0.0.11:42122in MyMiddleware.run()
LOG: Closed client: /10.0.0.11:42124in MyMiddleware.run()
LOG: Closed client: /10.0.0.11:42132in MyMiddleware.run()
LOG: Closed client: /10.0.0.11:42128in MyMiddleware.run()
LOG: Closed client: /10.0.0.11:42114in MyMiddleware.run()
LOG: Closed client: /10.0.0.11:42106in MyMiddleware.run()
LOG: Closed client: /10.0.0.11:42108in MyMiddleware.run()
LOG: Closed client: /10.0.0.11:42120in MyMiddleware.run()
LOG: Closed client: /10.0.0.11:42126in MyMiddleware.run()
LOG: Closed client: /10.0.0.11:42144in MyMiddleware.run()
LOG: Closed client: /10.0.0.11:42142in MyMiddleware.run()
LOG: Closed client: /10.0.0.11:42130in MyMiddleware.run()
LOG: Closed client: /10.0.0.11:42138in MyMiddleware.run()
LOG: Closed client: /10.0.0.11:42094in MyMiddleware.run()
LOG: Closed client: /10.0.0.11:42118in MyMiddleware.run()
LOG: Closed client: /10.0.0.11:42140in MyMiddleware.run()
LOG: Closed client: /10.0.0.7:42792in MyMiddleware.run()
LOG: Closed client: /10.0.0.7:42808in MyMiddleware.run()
LOG: Closed client: /10.0.0.7:42790in MyMiddleware.run()
LOG: Closed client: /10.0.0.7:42786in MyMiddleware.run()
LOG: Closed client: /10.0.0.7:42794in MyMiddleware.run()
LOG: Closed client: /10.0.0.7:42784in MyMiddleware.run()
LOG: Closed client: /10.0.0.7:42788in MyMiddleware.run()
LOG: Closed client: /10.0.0.7:42820in MyMiddleware.run()
LOG: Closed client: /10.0.0.7:42824in MyMiddleware.run()
LOG: Closed client: /10.0.0.7:42832in MyMiddleware.run()
LOG: Closed client: /10.0.0.7:42796in MyMiddleware.run()
LOG: Closed client: /10.0.0.7:42798in MyMiddleware.run()
LOG: Closed client: /10.0.0.7:42838in MyMiddleware.run()
LOG: Closed client: /10.0.0.7:42828in MyMiddleware.run()
LOG: Closed client: /10.0.0.7:42804in MyMiddleware.run()
LOG: Closed client: /10.0.0.7:42800in MyMiddleware.run()
LOG: Closed client: /10.0.0.7:42836in MyMiddleware.run()
LOG: Closed client: /10.0.0.7:42840in MyMiddleware.run()
LOG: Closed client: /10.0.0.7:42826in MyMiddleware.run()
LOG: Closed client: /10.0.0.7:42844in MyMiddleware.run()
LOG: Closed client: /10.0.0.7:42816in MyMiddleware.run()
LOG: Closed client: /10.0.0.7:42810in MyMiddleware.run()
LOG: Closed client: /10.0.0.7:42842in MyMiddleware.run()
LOG: Closed client: /10.0.0.7:42814in MyMiddleware.run()
LOG: Closed client: /10.0.0.7:42812in MyMiddleware.run()
LOG: Closed client: /10.0.0.7:42782in MyMiddleware.run()
LOG: Closed client: /10.0.0.7:42822in MyMiddleware.run()
LOG: Closed client: /10.0.0.7:42806in MyMiddleware.run()
LOG: Closed client: /10.0.0.7:42834in MyMiddleware.run()
LOG: Closed client: /10.0.0.7:42818in MyMiddleware.run()
LOG: Closed client: /10.0.0.7:42830in MyMiddleware.run()
LOG: Closed client: /10.0.0.7:42802in MyMiddleware.run()
