------------Middleware started!------------
LOG: Waiting for connection in MyMiddleware.run()
LOG: Accepted client: /10.0.0.7:52956in MyMiddleware.run()
LOG: Accepted client: /10.0.0.7:52966in MyMiddleware.run()
LOG: Accepted client: /10.0.0.7:52964in MyMiddleware.run()
LOG: Accepted client: /10.0.0.7:52958in MyMiddleware.run()
LOG: Accepted client: /10.0.0.7:52968in MyMiddleware.run()
LOG: Accepted client: /10.0.0.7:52960in MyMiddleware.run()
LOG: Accepted client: /10.0.0.7:52970in MyMiddleware.run()
LOG: Accepted client: /10.0.0.7:52962in MyMiddleware.run()
LOG: Accepted client: /10.0.0.11:52258in MyMiddleware.run()
LOG: Accepted client: /10.0.0.11:52264in MyMiddleware.run()
LOG: Accepted client: /10.0.0.11:52256in MyMiddleware.run()
LOG: Accepted client: /10.0.0.11:52260in MyMiddleware.run()
LOG: Accepted client: /10.0.0.11:52262in MyMiddleware.run()
LOG: Accepted client: /10.0.0.11:52266in MyMiddleware.run()
LOG: Accepted client: /10.0.0.11:52268in MyMiddleware.run()
LOG: Accepted client: /10.0.0.11:52270in MyMiddleware.run()
LOG: Accepted client: /10.0.0.6:34952in MyMiddleware.run()
LOG: Accepted client: /10.0.0.6:34960in MyMiddleware.run()
LOG: Accepted client: /10.0.0.6:34962in MyMiddleware.run()
LOG: Accepted client: /10.0.0.6:34954in MyMiddleware.run()
LOG: Accepted client: /10.0.0.6:34950in MyMiddleware.run()
LOG: Accepted client: /10.0.0.6:34964in MyMiddleware.run()
LOG: Accepted client: /10.0.0.6:34958in MyMiddleware.run()
LOG: Accepted client: /10.0.0.6:34956in MyMiddleware.run()
LOG: Closed client: /10.0.0.7:52962in MyMiddleware.run()
LOG: Closed client: /10.0.0.7:52956in MyMiddleware.run()
LOG: Closed client: /10.0.0.7:52960in MyMiddleware.run()
LOG: Closed client: /10.0.0.7:52958in MyMiddleware.run()
LOG: Closed client: /10.0.0.7:52964in MyMiddleware.run()
LOG: Closed client: /10.0.0.7:52966in MyMiddleware.run()
LOG: Closed client: /10.0.0.7:52968in MyMiddleware.run()
LOG: Closed client: /10.0.0.7:52970in MyMiddleware.run()
LOG: Closed client: /10.0.0.11:52256in MyMiddleware.run()
LOG: Closed client: /10.0.0.11:52258in MyMiddleware.run()
LOG: Closed client: /10.0.0.11:52270in MyMiddleware.run()
LOG: Closed client: /10.0.0.11:52266in MyMiddleware.run()
LOG: Closed client: /10.0.0.11:52262in MyMiddleware.run()
LOG: Closed client: /10.0.0.11:52260in MyMiddleware.run()
LOG: Closed client: /10.0.0.11:52268in MyMiddleware.run()
LOG: Closed client: /10.0.0.11:52264in MyMiddleware.run()
LOG: Closed client: /10.0.0.6:34956in MyMiddleware.run()
LOG: Closed client: /10.0.0.6:34954in MyMiddleware.run()
LOG: Closed client: /10.0.0.6:34964in MyMiddleware.run()
LOG: Closed client: /10.0.0.6:34952in MyMiddleware.run()
LOG: Closed client: /10.0.0.6:34950in MyMiddleware.run()
LOG: Closed client: /10.0.0.6:34962in MyMiddleware.run()
LOG: Closed client: /10.0.0.6:34960in MyMiddleware.run()
LOG: Closed client: /10.0.0.6:34958in MyMiddleware.run()
