------------Middleware started!------------
LOG: Waiting for connection in MyMiddleware.run()
LOG: Accepted client: /10.0.0.6:51096in MyMiddleware.run()
LOG: Accepted client: /10.0.0.6:51112in MyMiddleware.run()
LOG: Accepted client: /10.0.0.6:51104in MyMiddleware.run()
LOG: Accepted client: /10.0.0.6:51098in MyMiddleware.run()
LOG: Accepted client: /10.0.0.11:40180in MyMiddleware.run()
LOG: Accepted client: /10.0.0.11:40166in MyMiddleware.run()
LOG: Accepted client: /10.0.0.11:40186in MyMiddleware.run()
LOG: Accepted client: /10.0.0.11:40170in MyMiddleware.run()
LOG: Accepted client: /10.0.0.6:51106in MyMiddleware.run()
LOG: Accepted client: /10.0.0.11:40188in MyMiddleware.run()
LOG: Accepted client: /10.0.0.11:40176in MyMiddleware.run()
LOG: Accepted client: /10.0.0.11:40164in MyMiddleware.run()
LOG: Accepted client: /10.0.0.11:40182in MyMiddleware.run()
LOG: Accepted client: /10.0.0.11:40184in MyMiddleware.run()
LOG: Accepted client: /10.0.0.11:40172in MyMiddleware.run()
LOG: Accepted client: /10.0.0.11:40194in MyMiddleware.run()
LOG: Accepted client: /10.0.0.11:40168in MyMiddleware.run()
LOG: Accepted client: /10.0.0.11:40192in MyMiddleware.run()
LOG: Accepted client: /10.0.0.6:51102in MyMiddleware.run()
LOG: Accepted client: /10.0.0.11:40190in MyMiddleware.run()
LOG: Accepted client: /10.0.0.6:51108in MyMiddleware.run()
LOG: Accepted client: /10.0.0.6:51100in MyMiddleware.run()
LOG: Accepted client: /10.0.0.6:51110in MyMiddleware.run()
LOG: Accepted client: /10.0.0.11:40174in MyMiddleware.run()
LOG: Accepted client: /10.0.0.11:40178in MyMiddleware.run()
LOG: Accepted client: /10.0.0.6:51116in MyMiddleware.run()
LOG: Accepted client: /10.0.0.6:51114in MyMiddleware.run()
LOG: Accepted client: /10.0.0.6:51126in MyMiddleware.run()
LOG: Accepted client: /10.0.0.6:51120in MyMiddleware.run()
LOG: Accepted client: /10.0.0.6:51118in MyMiddleware.run()
LOG: Accepted client: /10.0.0.6:51124in MyMiddleware.run()
LOG: Accepted client: /10.0.0.6:51122in MyMiddleware.run()
LOG: Accepted client: /10.0.0.7:40888in MyMiddleware.run()
LOG: Accepted client: /10.0.0.7:40894in MyMiddleware.run()
LOG: Accepted client: /10.0.0.7:40904in MyMiddleware.run()
LOG: Accepted client: /10.0.0.7:40890in MyMiddleware.run()
LOG: Accepted client: /10.0.0.7:40892in MyMiddleware.run()
LOG: Accepted client: /10.0.0.7:40880in MyMiddleware.run()
LOG: Accepted client: /10.0.0.7:40900in MyMiddleware.run()
LOG: Accepted client: /10.0.0.7:40874in MyMiddleware.run()
LOG: Accepted client: /10.0.0.7:40876in MyMiddleware.run()
LOG: Accepted client: /10.0.0.7:40878in MyMiddleware.run()
LOG: Accepted client: /10.0.0.7:40882in MyMiddleware.run()
LOG: Accepted client: /10.0.0.7:40902in MyMiddleware.run()
LOG: Accepted client: /10.0.0.7:40898in MyMiddleware.run()
LOG: Accepted client: /10.0.0.7:40886in MyMiddleware.run()
LOG: Accepted client: /10.0.0.7:40884in MyMiddleware.run()
LOG: Accepted client: /10.0.0.7:40896in MyMiddleware.run()
LOG: Closed client: /10.0.0.6:51104in MyMiddleware.run()
LOG: Closed client: /10.0.0.6:51106in MyMiddleware.run()
LOG: Closed client: /10.0.0.6:51122in MyMiddleware.run()
LOG: Closed client: /10.0.0.6:51098in MyMiddleware.run()
LOG: Closed client: /10.0.0.6:51118in MyMiddleware.run()
LOG: Closed client: /10.0.0.6:51120in MyMiddleware.run()
LOG: Closed client: /10.0.0.6:51112in MyMiddleware.run()
LOG: Closed client: /10.0.0.6:51110in MyMiddleware.run()
LOG: Closed client: /10.0.0.6:51124in MyMiddleware.run()
LOG: Closed client: /10.0.0.6:51102in MyMiddleware.run()
LOG: Closed client: /10.0.0.6:51096in MyMiddleware.run()
LOG: Closed client: /10.0.0.6:51108in MyMiddleware.run()
LOG: Closed client: /10.0.0.6:51126in MyMiddleware.run()
LOG: Closed client: /10.0.0.6:51114in MyMiddleware.run()
LOG: Closed client: /10.0.0.6:51100in MyMiddleware.run()
LOG: Closed client: /10.0.0.6:51116in MyMiddleware.run()
LOG: Closed client: /10.0.0.11:40174in MyMiddleware.run()
LOG: Closed client: /10.0.0.11:40170in MyMiddleware.run()
LOG: Closed client: /10.0.0.11:40166in MyMiddleware.run()
LOG: Closed client: /10.0.0.11:40176in MyMiddleware.run()
LOG: Closed client: /10.0.0.11:40164in MyMiddleware.run()
LOG: Closed client: /10.0.0.11:40172in MyMiddleware.run()
LOG: Closed client: /10.0.0.11:40182in MyMiddleware.run()
LOG: Closed client: /10.0.0.11:40180in MyMiddleware.run()
LOG: Closed client: /10.0.0.11:40168in MyMiddleware.run()
LOG: Closed client: /10.0.0.11:40178in MyMiddleware.run()
LOG: Closed client: /10.0.0.11:40188in MyMiddleware.run()
LOG: Closed client: /10.0.0.11:40186in MyMiddleware.run()
LOG: Closed client: /10.0.0.11:40194in MyMiddleware.run()
LOG: Closed client: /10.0.0.11:40190in MyMiddleware.run()
LOG: Closed client: /10.0.0.11:40184in MyMiddleware.run()
LOG: Closed client: /10.0.0.11:40192in MyMiddleware.run()
LOG: Closed client: /10.0.0.7:40880in MyMiddleware.run()
LOG: Closed client: /10.0.0.7:40882in MyMiddleware.run()
LOG: Closed client: /10.0.0.7:40890in MyMiddleware.run()
LOG: Closed client: /10.0.0.7:40896in MyMiddleware.run()
LOG: Closed client: /10.0.0.7:40900in MyMiddleware.run()
LOG: Closed client: /10.0.0.7:40876in MyMiddleware.run()
LOG: Closed client: /10.0.0.7:40886in MyMiddleware.run()
LOG: Closed client: /10.0.0.7:40874in MyMiddleware.run()
LOG: Closed client: /10.0.0.7:40888in MyMiddleware.run()
LOG: Closed client: /10.0.0.7:40892in MyMiddleware.run()
LOG: Closed client: /10.0.0.7:40878in MyMiddleware.run()
LOG: Closed client: /10.0.0.7:40894in MyMiddleware.run()
LOG: Closed client: /10.0.0.7:40884in MyMiddleware.run()
LOG: Closed client: /10.0.0.7:40902in MyMiddleware.run()
LOG: Closed client: /10.0.0.7:40904in MyMiddleware.run()
LOG: Closed client: /10.0.0.7:40898in MyMiddleware.run()
