------------Middleware started!------------
LOG: Waiting for connection in MyMiddleware.run()
LOG: Accepted client: /10.0.0.7:49034in MyMiddleware.run()
LOG: Accepted client: /10.0.0.7:49036in MyMiddleware.run()
LOG: Accepted client: /10.0.0.11:48288in MyMiddleware.run()
LOG: Accepted client: /10.0.0.7:49018in MyMiddleware.run()
LOG: Accepted client: /10.0.0.11:48306in MyMiddleware.run()
LOG: Accepted client: /10.0.0.7:49048in MyMiddleware.run()
LOG: Accepted client: /10.0.0.7:49016in MyMiddleware.run()
LOG: Accepted client: /10.0.0.11:48320in MyMiddleware.run()
LOG: Accepted client: /10.0.0.7:49032in MyMiddleware.run()
LOG: Accepted client: /10.0.0.7:49056in MyMiddleware.run()
LOG: Accepted client: /10.0.0.7:49038in MyMiddleware.run()
LOG: Accepted client: /10.0.0.7:49086in MyMiddleware.run()
LOG: Accepted client: /10.0.0.7:49094in MyMiddleware.run()
LOG: Accepted client: /10.0.0.11:48326in MyMiddleware.run()
LOG: Accepted client: /10.0.0.7:49108in MyMiddleware.run()
LOG: Accepted client: /10.0.0.7:49062in MyMiddleware.run()
LOG: Accepted client: /10.0.0.7:49106in MyMiddleware.run()
LOG: Accepted client: /10.0.0.11:48344in MyMiddleware.run()
LOG: Accepted client: /10.0.0.11:48300in MyMiddleware.run()
LOG: Accepted client: /10.0.0.11:48272in MyMiddleware.run()
LOG: Accepted client: /10.0.0.11:48310in MyMiddleware.run()
LOG: Accepted client: /10.0.0.7:49104in MyMiddleware.run()
LOG: Accepted client: /10.0.0.7:49126in MyMiddleware.run()
LOG: Accepted client: /10.0.0.7:49102in MyMiddleware.run()
LOG: Accepted client: /10.0.0.7:49008in MyMiddleware.run()
LOG: Accepted client: /10.0.0.7:49088in MyMiddleware.run()
LOG: Accepted client: /10.0.0.11:48322in MyMiddleware.run()
LOG: Accepted client: /10.0.0.11:48382in MyMiddleware.run()
LOG: Accepted client: /10.0.0.7:49026in MyMiddleware.run()
LOG: Accepted client: /10.0.0.7:49070in MyMiddleware.run()
LOG: Accepted client: /10.0.0.7:49014in MyMiddleware.run()
LOG: Accepted client: /10.0.0.7:49130in MyMiddleware.run()
LOG: Accepted client: /10.0.0.11:48304in MyMiddleware.run()
LOG: Accepted client: /10.0.0.7:49058in MyMiddleware.run()
LOG: Accepted client: /10.0.0.7:49110in MyMiddleware.run()
LOG: Accepted client: /10.0.0.7:49060in MyMiddleware.run()
LOG: Accepted client: /10.0.0.7:49074in MyMiddleware.run()
LOG: Accepted client: /10.0.0.11:48324in MyMiddleware.run()
LOG: Accepted client: /10.0.0.7:49114in MyMiddleware.run()
LOG: Accepted client: /10.0.0.7:49076in MyMiddleware.run()
LOG: Accepted client: /10.0.0.7:49042in MyMiddleware.run()
LOG: Accepted client: /10.0.0.11:48346in MyMiddleware.run()
LOG: Accepted client: /10.0.0.7:49020in MyMiddleware.run()
LOG: Accepted client: /10.0.0.7:49040in MyMiddleware.run()
LOG: Accepted client: /10.0.0.7:49044in MyMiddleware.run()
LOG: Accepted client: /10.0.0.7:49100in MyMiddleware.run()
LOG: Accepted client: /10.0.0.7:49080in MyMiddleware.run()
LOG: Accepted client: /10.0.0.11:48296in MyMiddleware.run()
LOG: Accepted client: /10.0.0.7:49082in MyMiddleware.run()
LOG: Accepted client: /10.0.0.7:49122in MyMiddleware.run()
LOG: Accepted client: /10.0.0.11:48308in MyMiddleware.run()
LOG: Accepted client: /10.0.0.11:48356in MyMiddleware.run()
LOG: Accepted client: /10.0.0.11:48348in MyMiddleware.run()
LOG: Accepted client: /10.0.0.11:48394in MyMiddleware.run()
LOG: Accepted client: /10.0.0.11:48396in MyMiddleware.run()
LOG: Accepted client: /10.0.0.11:48298in MyMiddleware.run()
LOG: Accepted client: /10.0.0.11:48362in MyMiddleware.run()
LOG: Accepted client: /10.0.0.11:48372in MyMiddleware.run()
LOG: Accepted client: /10.0.0.11:48286in MyMiddleware.run()
LOG: Accepted client: /10.0.0.11:48328in MyMiddleware.run()
LOG: Accepted client: /10.0.0.11:48316in MyMiddleware.run()
LOG: Accepted client: /10.0.0.11:48292in MyMiddleware.run()
LOG: Accepted client: /10.0.0.11:48336in MyMiddleware.run()
LOG: Accepted client: /10.0.0.11:48360in MyMiddleware.run()
LOG: Accepted client: /10.0.0.11:48284in MyMiddleware.run()
LOG: Accepted client: /10.0.0.11:48370in MyMiddleware.run()
LOG: Accepted client: /10.0.0.11:48350in MyMiddleware.run()
LOG: Accepted client: /10.0.0.7:49120in MyMiddleware.run()
LOG: Accepted client: /10.0.0.6:59294in MyMiddleware.run()
LOG: Accepted client: /10.0.0.11:48290in MyMiddleware.run()
LOG: Accepted client: /10.0.0.11:48368in MyMiddleware.run()
LOG: Accepted client: /10.0.0.7:49022in MyMiddleware.run()
LOG: Accepted client: /10.0.0.7:49052in MyMiddleware.run()
LOG: Accepted client: /10.0.0.7:49072in MyMiddleware.run()
LOG: Accepted client: /10.0.0.7:49092in MyMiddleware.run()
LOG: Accepted client: /10.0.0.7:49012in MyMiddleware.run()
LOG: Accepted client: /10.0.0.6:59238in MyMiddleware.run()
LOG: Accepted client: /10.0.0.11:48340in MyMiddleware.run()
LOG: Accepted client: /10.0.0.11:48390in MyMiddleware.run()
LOG: Accepted client: /10.0.0.11:48376in MyMiddleware.run()
LOG: Accepted client: /10.0.0.7:49054in MyMiddleware.run()
LOG: Accepted client: /10.0.0.6:59236in MyMiddleware.run()
LOG: Accepted client: /10.0.0.6:59226in MyMiddleware.run()
LOG: Accepted client: /10.0.0.6:59298in MyMiddleware.run()
LOG: Accepted client: /10.0.0.6:59270in MyMiddleware.run()
LOG: Accepted client: /10.0.0.6:59256in MyMiddleware.run()
LOG: Accepted client: /10.0.0.6:59324in MyMiddleware.run()
LOG: Accepted client: /10.0.0.6:59258in MyMiddleware.run()
LOG: Accepted client: /10.0.0.6:59292in MyMiddleware.run()
LOG: Accepted client: /10.0.0.7:49004in MyMiddleware.run()
LOG: Accepted client: /10.0.0.7:49006in MyMiddleware.run()
LOG: Accepted client: /10.0.0.7:49046in MyMiddleware.run()
LOG: Accepted client: /10.0.0.11:48302in MyMiddleware.run()
LOG: Accepted client: /10.0.0.11:48270in MyMiddleware.run()
LOG: Accepted client: /10.0.0.7:49050in MyMiddleware.run()
LOG: Accepted client: /10.0.0.11:48392in MyMiddleware.run()
LOG: Accepted client: /10.0.0.7:49090in MyMiddleware.run()
LOG: Accepted client: /10.0.0.7:49124in MyMiddleware.run()
LOG: Accepted client: /10.0.0.7:49098in MyMiddleware.run()
LOG: Accepted client: /10.0.0.7:49078in MyMiddleware.run()
LOG: Accepted client: /10.0.0.7:49096in MyMiddleware.run()
LOG: Accepted client: /10.0.0.7:49084in MyMiddleware.run()
LOG: Accepted client: /10.0.0.11:48294in MyMiddleware.run()
LOG: Accepted client: /10.0.0.11:48374in MyMiddleware.run()
LOG: Accepted client: /10.0.0.11:48338in MyMiddleware.run()
LOG: Accepted client: /10.0.0.11:48384in MyMiddleware.run()
LOG: Accepted client: /10.0.0.7:49010in MyMiddleware.run()
LOG: Accepted client: /10.0.0.6:59268in MyMiddleware.run()
LOG: Accepted client: /10.0.0.6:59264in MyMiddleware.run()
LOG: Accepted client: /10.0.0.6:59240in MyMiddleware.run()
LOG: Accepted client: /10.0.0.6:59232in MyMiddleware.run()
LOG: Accepted client: /10.0.0.6:59224in MyMiddleware.run()
LOG: Accepted client: /10.0.0.6:59296in MyMiddleware.run()
LOG: Accepted client: /10.0.0.6:59234in MyMiddleware.run()
LOG: Accepted client: /10.0.0.11:48280in MyMiddleware.run()
LOG: Accepted client: /10.0.0.11:48364in MyMiddleware.run()
LOG: Accepted client: /10.0.0.11:48282in MyMiddleware.run()
LOG: Accepted client: /10.0.0.11:48366in MyMiddleware.run()
LOG: Accepted client: /10.0.0.6:59228in MyMiddleware.run()
LOG: Accepted client: /10.0.0.6:59278in MyMiddleware.run()
LOG: Accepted client: /10.0.0.6:59242in MyMiddleware.run()
LOG: Accepted client: /10.0.0.6:59276in MyMiddleware.run()
LOG: Accepted client: /10.0.0.6:59216in MyMiddleware.run()
LOG: Accepted client: /10.0.0.6:59218in MyMiddleware.run()
LOG: Accepted client: /10.0.0.6:59304in MyMiddleware.run()
LOG: Accepted client: /10.0.0.6:59244in MyMiddleware.run()
LOG: Accepted client: /10.0.0.6:59306in MyMiddleware.run()
LOG: Accepted client: /10.0.0.6:59246in MyMiddleware.run()
LOG: Accepted client: /10.0.0.6:59314in MyMiddleware.run()
LOG: Accepted client: /10.0.0.6:59254in MyMiddleware.run()
LOG: Accepted client: /10.0.0.6:59312in MyMiddleware.run()
LOG: Accepted client: /10.0.0.6:59252in MyMiddleware.run()
LOG: Accepted client: /10.0.0.6:59282in MyMiddleware.run()
LOG: Accepted client: /10.0.0.6:59222in MyMiddleware.run()
LOG: Accepted client: /10.0.0.6:59280in MyMiddleware.run()
LOG: Accepted client: /10.0.0.6:59220in MyMiddleware.run()
LOG: Accepted client: /10.0.0.11:48358in MyMiddleware.run()
LOG: Accepted client: /10.0.0.11:48330in MyMiddleware.run()
LOG: Accepted client: /10.0.0.11:48278in MyMiddleware.run()
LOG: Accepted client: /10.0.0.11:48276in MyMiddleware.run()
LOG: Accepted client: /10.0.0.11:48334in MyMiddleware.run()
LOG: Accepted client: /10.0.0.11:48354in MyMiddleware.run()
LOG: Accepted client: /10.0.0.11:48314in MyMiddleware.run()
LOG: Accepted client: /10.0.0.11:48352in MyMiddleware.run()
LOG: Accepted client: /10.0.0.11:48312in MyMiddleware.run()
LOG: Accepted client: /10.0.0.11:48332in MyMiddleware.run()
LOG: Accepted client: /10.0.0.11:48318in MyMiddleware.run()
LOG: Accepted client: /10.0.0.11:48274in MyMiddleware.run()
LOG: Accepted client: /10.0.0.11:48378in MyMiddleware.run()
LOG: Accepted client: /10.0.0.11:48388in MyMiddleware.run()
LOG: Accepted client: /10.0.0.11:48342in MyMiddleware.run()
LOG: Accepted client: /10.0.0.11:48386in MyMiddleware.run()
LOG: Accepted client: /10.0.0.11:48380in MyMiddleware.run()
LOG: Accepted client: /10.0.0.7:49030in MyMiddleware.run()
LOG: Accepted client: /10.0.0.7:49064in MyMiddleware.run()
LOG: Accepted client: /10.0.0.7:49066in MyMiddleware.run()
LOG: Accepted client: /10.0.0.7:49116in MyMiddleware.run()
LOG: Accepted client: /10.0.0.7:49028in MyMiddleware.run()
LOG: Accepted client: /10.0.0.7:49112in MyMiddleware.run()
LOG: Accepted client: /10.0.0.7:49128in MyMiddleware.run()
LOG: Accepted client: /10.0.0.7:49118in MyMiddleware.run()
LOG: Accepted client: /10.0.0.7:49024in MyMiddleware.run()
LOG: Accepted client: /10.0.0.7:49068in MyMiddleware.run()
LOG: Accepted client: /10.0.0.6:59336in MyMiddleware.run()
LOG: Accepted client: /10.0.0.6:59316in MyMiddleware.run()
LOG: Accepted client: /10.0.0.6:59318in MyMiddleware.run()
LOG: Accepted client: /10.0.0.6:59248in MyMiddleware.run()
LOG: Accepted client: /10.0.0.6:59334in MyMiddleware.run()
LOG: Accepted client: /10.0.0.6:59332in MyMiddleware.run()
LOG: Accepted client: /10.0.0.6:59274in MyMiddleware.run()
LOG: Accepted client: /10.0.0.6:59272in MyMiddleware.run()
LOG: Accepted client: /10.0.0.6:59328in MyMiddleware.run()
LOG: Accepted client: /10.0.0.6:59322in MyMiddleware.run()
LOG: Accepted client: /10.0.0.6:59288in MyMiddleware.run()
LOG: Accepted client: /10.0.0.6:59310in MyMiddleware.run()
LOG: Accepted client: /10.0.0.6:59308in MyMiddleware.run()
LOG: Accepted client: /10.0.0.6:59326in MyMiddleware.run()
LOG: Accepted client: /10.0.0.6:59290in MyMiddleware.run()
LOG: Accepted client: /10.0.0.6:59262in MyMiddleware.run()
LOG: Accepted client: /10.0.0.6:59300in MyMiddleware.run()
LOG: Accepted client: /10.0.0.6:59342in MyMiddleware.run()
LOG: Accepted client: /10.0.0.6:59302in MyMiddleware.run()
LOG: Accepted client: /10.0.0.6:59320in MyMiddleware.run()
LOG: Accepted client: /10.0.0.6:59266in MyMiddleware.run()
LOG: Accepted client: /10.0.0.6:59286in MyMiddleware.run()
LOG: Accepted client: /10.0.0.6:59230in MyMiddleware.run()
LOG: Accepted client: /10.0.0.6:59330in MyMiddleware.run()
LOG: Accepted client: /10.0.0.6:59250in MyMiddleware.run()
LOG: Accepted client: /10.0.0.6:59338in MyMiddleware.run()
LOG: Accepted client: /10.0.0.6:59340in MyMiddleware.run()
LOG: Accepted client: /10.0.0.6:59284in MyMiddleware.run()
LOG: Accepted client: /10.0.0.6:59260in MyMiddleware.run()
LOG: Closed client: /10.0.0.7:49006in MyMiddleware.run()
LOG: Closed client: /10.0.0.7:49030in MyMiddleware.run()
LOG: Closed client: /10.0.0.7:49048in MyMiddleware.run()
LOG: Closed client: /10.0.0.7:49034in MyMiddleware.run()
LOG: Closed client: /10.0.0.7:49032in MyMiddleware.run()
LOG: Closed client: /10.0.0.7:49020in MyMiddleware.run()
LOG: Closed client: /10.0.0.11:48290in MyMiddleware.run()
LOG: Closed client: /10.0.0.7:49070in MyMiddleware.run()
LOG: Closed client: /10.0.0.7:49004in MyMiddleware.run()
LOG: Closed client: /10.0.0.7:49122in MyMiddleware.run()
LOG: Closed client: /10.0.0.7:49062in MyMiddleware.run()
LOG: Closed client: /10.0.0.7:49014in MyMiddleware.run()
LOG: Closed client: /10.0.0.7:49114in MyMiddleware.run()
LOG: Closed client: /10.0.0.7:49100in MyMiddleware.run()
LOG: Closed client: /10.0.0.7:49040in MyMiddleware.run()
LOG: Closed client: /10.0.0.11:48286in MyMiddleware.run()
LOG: Closed client: /10.0.0.11:48304in MyMiddleware.run()
LOG: Closed client: /10.0.0.11:48326in MyMiddleware.run()
LOG: Closed client: /10.0.0.7:49128in MyMiddleware.run()
LOG: Closed client: /10.0.0.7:49110in MyMiddleware.run()
LOG: Closed client: /10.0.0.7:49058in MyMiddleware.run()
LOG: Closed client: /10.0.0.7:49038in MyMiddleware.run()
LOG: Closed client: /10.0.0.7:49010in MyMiddleware.run()
LOG: Closed client: /10.0.0.7:49098in MyMiddleware.run()
LOG: Closed client: /10.0.0.11:48282in MyMiddleware.run()
LOG: Closed client: /10.0.0.11:48350in MyMiddleware.run()
LOG: Closed client: /10.0.0.11:48288in MyMiddleware.run()
LOG: Closed client: /10.0.0.11:48284in MyMiddleware.run()
LOG: Closed client: /10.0.0.11:48308in MyMiddleware.run()
LOG: Closed client: /10.0.0.11:48298in MyMiddleware.run()
LOG: Closed client: /10.0.0.7:49120in MyMiddleware.run()
LOG: Closed client: /10.0.0.11:48306in MyMiddleware.run()
LOG: Closed client: /10.0.0.11:48280in MyMiddleware.run()
LOG: Closed client: /10.0.0.11:48310in MyMiddleware.run()
LOG: Closed client: /10.0.0.11:48366in MyMiddleware.run()
LOG: Closed client: /10.0.0.11:48270in MyMiddleware.run()
LOG: Closed client: /10.0.0.7:49054in MyMiddleware.run()
LOG: Closed client: /10.0.0.7:49050in MyMiddleware.run()
LOG: Closed client: /10.0.0.7:49028in MyMiddleware.run()
LOG: Closed client: /10.0.0.7:49080in MyMiddleware.run()
LOG: Closed client: /10.0.0.7:49044in MyMiddleware.run()
LOG: Closed client: /10.0.0.7:49052in MyMiddleware.run()
LOG: Closed client: /10.0.0.11:48354in MyMiddleware.run()
LOG: Closed client: /10.0.0.11:48342in MyMiddleware.run()
LOG: Closed client: /10.0.0.7:49056in MyMiddleware.run()
LOG: Closed client: /10.0.0.7:49022in MyMiddleware.run()
LOG: Closed client: /10.0.0.7:49130in MyMiddleware.run()
LOG: Closed client: /10.0.0.7:49060in MyMiddleware.run()
LOG: Closed client: /10.0.0.7:49018in MyMiddleware.run()
LOG: Closed client: /10.0.0.7:49082in MyMiddleware.run()
LOG: Closed client: /10.0.0.11:48328in MyMiddleware.run()
LOG: Closed client: /10.0.0.7:49036in MyMiddleware.run()
LOG: Closed client: /10.0.0.11:48314in MyMiddleware.run()
LOG: Closed client: /10.0.0.7:49108in MyMiddleware.run()
LOG: Closed client: /10.0.0.11:48336in MyMiddleware.run()
LOG: Closed client: /10.0.0.7:49012in MyMiddleware.run()
LOG: Closed client: /10.0.0.7:49046in MyMiddleware.run()
LOG: Closed client: /10.0.0.11:48294in MyMiddleware.run()
LOG: Closed client: /10.0.0.11:48320in MyMiddleware.run()
LOG: Closed client: /10.0.0.7:49076in MyMiddleware.run()
LOG: Closed client: /10.0.0.11:48340in MyMiddleware.run()
LOG: Closed client: /10.0.0.7:49064in MyMiddleware.run()
LOG: Closed client: /10.0.0.11:48300in MyMiddleware.run()
LOG: Closed client: /10.0.0.7:49124in MyMiddleware.run()
LOG: Closed client: /10.0.0.7:49074in MyMiddleware.run()
LOG: Closed client: /10.0.0.11:48302in MyMiddleware.run()
LOG: Closed client: /10.0.0.11:48322in MyMiddleware.run()
LOG: Closed client: /10.0.0.11:48346in MyMiddleware.run()
LOG: Closed client: /10.0.0.7:49104in MyMiddleware.run()
LOG: Closed client: /10.0.0.7:49092in MyMiddleware.run()
LOG: Closed client: /10.0.0.7:49088in MyMiddleware.run()
LOG: Closed client: /10.0.0.11:48316in MyMiddleware.run()
LOG: Closed client: /10.0.0.11:48338in MyMiddleware.run()
LOG: Closed client: /10.0.0.7:49072in MyMiddleware.run()
LOG: Closed client: /10.0.0.11:48360in MyMiddleware.run()
LOG: Closed client: /10.0.0.7:49086in MyMiddleware.run()
LOG: Closed client: /10.0.0.7:49078in MyMiddleware.run()
LOG: Closed client: /10.0.0.7:49016in MyMiddleware.run()
LOG: Closed client: /10.0.0.7:49116in MyMiddleware.run()
LOG: Closed client: /10.0.0.11:48324in MyMiddleware.run()
LOG: Closed client: /10.0.0.11:48296in MyMiddleware.run()
LOG: Closed client: /10.0.0.7:49026in MyMiddleware.run()
LOG: Closed client: /10.0.0.7:49102in MyMiddleware.run()
LOG: Closed client: /10.0.0.7:49126in MyMiddleware.run()
LOG: Closed client: /10.0.0.11:48292in MyMiddleware.run()
LOG: Closed client: /10.0.0.7:49096in MyMiddleware.run()
LOG: Closed client: /10.0.0.11:48334in MyMiddleware.run()
LOG: Closed client: /10.0.0.11:48272in MyMiddleware.run()
LOG: Closed client: /10.0.0.11:48356in MyMiddleware.run()
LOG: Closed client: /10.0.0.7:49042in MyMiddleware.run()
LOG: Closed client: /10.0.0.7:49094in MyMiddleware.run()
LOG: Closed client: /10.0.0.7:49106in MyMiddleware.run()
LOG: Closed client: /10.0.0.11:48278in MyMiddleware.run()
LOG: Closed client: /10.0.0.11:48348in MyMiddleware.run()
LOG: Closed client: /10.0.0.11:48362in MyMiddleware.run()
LOG: Closed client: /10.0.0.7:49008in MyMiddleware.run()
LOG: Closed client: /10.0.0.7:49090in MyMiddleware.run()
LOG: Closed client: /10.0.0.7:49084in MyMiddleware.run()
LOG: Closed client: /10.0.0.11:48390in MyMiddleware.run()
LOG: Closed client: /10.0.0.7:49066in MyMiddleware.run()
LOG: Closed client: /10.0.0.11:48388in MyMiddleware.run()
LOG: Closed client: /10.0.0.11:48382in MyMiddleware.run()
LOG: Closed client: /10.0.0.11:48374in MyMiddleware.run()
LOG: Closed client: /10.0.0.11:48370in MyMiddleware.run()
LOG: Closed client: /10.0.0.11:48344in MyMiddleware.run()
LOG: Closed client: /10.0.0.11:48332in MyMiddleware.run()
LOG: Closed client: /10.0.0.11:48312in MyMiddleware.run()
LOG: Closed client: /10.0.0.7:49024in MyMiddleware.run()
LOG: Closed client: /10.0.0.11:48358in MyMiddleware.run()
LOG: Closed client: /10.0.0.7:49118in MyMiddleware.run()
LOG: Closed client: /10.0.0.11:48274in MyMiddleware.run()
LOG: Closed client: /10.0.0.11:48378in MyMiddleware.run()
LOG: Closed client: /10.0.0.11:48352in MyMiddleware.run()
LOG: Closed client: /10.0.0.11:48380in MyMiddleware.run()
LOG: Closed client: /10.0.0.11:48396in MyMiddleware.run()
LOG: Closed client: /10.0.0.11:48276in MyMiddleware.run()
LOG: Closed client: /10.0.0.7:49112in MyMiddleware.run()
LOG: Closed client: /10.0.0.11:48384in MyMiddleware.run()
LOG: Closed client: /10.0.0.11:48364in MyMiddleware.run()
LOG: Closed client: /10.0.0.11:48386in MyMiddleware.run()
LOG: Closed client: /10.0.0.11:48318in MyMiddleware.run()
LOG: Closed client: /10.0.0.11:48330in MyMiddleware.run()
LOG: Closed client: /10.0.0.7:49068in MyMiddleware.run()
LOG: Closed client: /10.0.0.11:48368in MyMiddleware.run()
LOG: Closed client: /10.0.0.11:48372in MyMiddleware.run()
LOG: Closed client: /10.0.0.11:48376in MyMiddleware.run()
LOG: Closed client: /10.0.0.11:48392in MyMiddleware.run()
LOG: Closed client: /10.0.0.11:48394in MyMiddleware.run()
LOG: Closed client: /10.0.0.6:59264in MyMiddleware.run()
LOG: Closed client: /10.0.0.6:59270in MyMiddleware.run()
LOG: Closed client: /10.0.0.6:59240in MyMiddleware.run()
LOG: Closed client: /10.0.0.6:59260in MyMiddleware.run()
LOG: Closed client: /10.0.0.6:59248in MyMiddleware.run()
LOG: Closed client: /10.0.0.6:59252in MyMiddleware.run()
LOG: Closed client: /10.0.0.6:59250in MyMiddleware.run()
LOG: Closed client: /10.0.0.6:59224in MyMiddleware.run()
LOG: Closed client: /10.0.0.6:59232in MyMiddleware.run()
LOG: Closed client: /10.0.0.6:59244in MyMiddleware.run()
LOG: Closed client: /10.0.0.6:59268in MyMiddleware.run()
LOG: Closed client: /10.0.0.6:59228in MyMiddleware.run()
LOG: Closed client: /10.0.0.6:59220in MyMiddleware.run()
LOG: Closed client: /10.0.0.6:59242in MyMiddleware.run()
LOG: Closed client: /10.0.0.6:59262in MyMiddleware.run()
LOG: Closed client: /10.0.0.6:59234in MyMiddleware.run()
LOG: Closed client: /10.0.0.6:59274in MyMiddleware.run()
LOG: Closed client: /10.0.0.6:59222in MyMiddleware.run()
LOG: Closed client: /10.0.0.6:59254in MyMiddleware.run()
LOG: Closed client: /10.0.0.6:59276in MyMiddleware.run()
LOG: Closed client: /10.0.0.6:59266in MyMiddleware.run()
LOG: Closed client: /10.0.0.6:59216in MyMiddleware.run()
LOG: Closed client: /10.0.0.6:59246in MyMiddleware.run()
LOG: Closed client: /10.0.0.6:59278in MyMiddleware.run()
LOG: Closed client: /10.0.0.6:59238in MyMiddleware.run()
LOG: Closed client: /10.0.0.6:59226in MyMiddleware.run()
LOG: Closed client: /10.0.0.6:59218in MyMiddleware.run()
LOG: Closed client: /10.0.0.6:59236in MyMiddleware.run()
LOG: Closed client: /10.0.0.6:59256in MyMiddleware.run()
LOG: Closed client: /10.0.0.6:59230in MyMiddleware.run()
LOG: Closed client: /10.0.0.6:59258in MyMiddleware.run()
LOG: Closed client: /10.0.0.6:59272in MyMiddleware.run()
LOG: Closed client: /10.0.0.6:59312in MyMiddleware.run()
LOG: Closed client: /10.0.0.6:59298in MyMiddleware.run()
LOG: Closed client: /10.0.0.6:59288in MyMiddleware.run()
LOG: Closed client: /10.0.0.6:59342in MyMiddleware.run()
LOG: Closed client: /10.0.0.6:59292in MyMiddleware.run()
LOG: Closed client: /10.0.0.6:59284in MyMiddleware.run()
LOG: Closed client: /10.0.0.6:59336in MyMiddleware.run()
LOG: Closed client: /10.0.0.6:59314in MyMiddleware.run()
LOG: Closed client: /10.0.0.6:59318in MyMiddleware.run()
LOG: Closed client: /10.0.0.6:59338in MyMiddleware.run()
LOG: Closed client: /10.0.0.6:59332in MyMiddleware.run()
LOG: Closed client: /10.0.0.6:59290in MyMiddleware.run()
LOG: Closed client: /10.0.0.6:59320in MyMiddleware.run()
LOG: Closed client: /10.0.0.6:59294in MyMiddleware.run()
LOG: Closed client: /10.0.0.6:59310in MyMiddleware.run()
LOG: Closed client: /10.0.0.6:59306in MyMiddleware.run()
LOG: Closed client: /10.0.0.6:59282in MyMiddleware.run()
LOG: Closed client: /10.0.0.6:59330in MyMiddleware.run()
LOG: Closed client: /10.0.0.6:59280in MyMiddleware.run()
LOG: Closed client: /10.0.0.6:59296in MyMiddleware.run()
LOG: Closed client: /10.0.0.6:59334in MyMiddleware.run()
LOG: Closed client: /10.0.0.6:59340in MyMiddleware.run()
LOG: Closed client: /10.0.0.6:59328in MyMiddleware.run()
LOG: Closed client: /10.0.0.6:59326in MyMiddleware.run()
LOG: Closed client: /10.0.0.6:59322in MyMiddleware.run()
LOG: Closed client: /10.0.0.6:59302in MyMiddleware.run()
LOG: Closed client: /10.0.0.6:59308in MyMiddleware.run()
LOG: Closed client: /10.0.0.6:59304in MyMiddleware.run()
LOG: Closed client: /10.0.0.6:59286in MyMiddleware.run()
LOG: Closed client: /10.0.0.6:59300in MyMiddleware.run()
LOG: Closed client: /10.0.0.6:59324in MyMiddleware.run()
LOG: Closed client: /10.0.0.6:59316in MyMiddleware.run()
