------------Middleware started!------------
LOG: Waiting for connection in MyMiddleware.run()
LOG: Accepted client: /10.0.0.6:54860in MyMiddleware.run()
LOG: Accepted client: /10.0.0.6:54910in MyMiddleware.run()
LOG: Accepted client: /10.0.0.6:54908in MyMiddleware.run()
LOG: Accepted client: /10.0.0.11:43908in MyMiddleware.run()
LOG: Accepted client: /10.0.0.6:54872in MyMiddleware.run()
LOG: Accepted client: /10.0.0.6:54906in MyMiddleware.run()
LOG: Accepted client: /10.0.0.6:54894in MyMiddleware.run()
LOG: Accepted client: /10.0.0.6:54884in MyMiddleware.run()
LOG: Accepted client: /10.0.0.6:54880in MyMiddleware.run()
LOG: Accepted client: /10.0.0.6:54854in MyMiddleware.run()
LOG: Accepted client: /10.0.0.6:54882in MyMiddleware.run()
LOG: Accepted client: /10.0.0.6:54886in MyMiddleware.run()
LOG: Accepted client: /10.0.0.6:54862in MyMiddleware.run()
LOG: Accepted client: /10.0.0.6:54904in MyMiddleware.run()
LOG: Accepted client: /10.0.0.6:54902in MyMiddleware.run()
LOG: Accepted client: /10.0.0.11:43910in MyMiddleware.run()
LOG: Accepted client: /10.0.0.6:54888in MyMiddleware.run()
LOG: Accepted client: /10.0.0.6:54856in MyMiddleware.run()
LOG: Accepted client: /10.0.0.11:43966in MyMiddleware.run()
LOG: Accepted client: /10.0.0.11:43930in MyMiddleware.run()
LOG: Accepted client: /10.0.0.6:54916in MyMiddleware.run()
LOG: Accepted client: /10.0.0.6:54890in MyMiddleware.run()
LOG: Accepted client: /10.0.0.6:54892in MyMiddleware.run()
LOG: Accepted client: /10.0.0.6:54896in MyMiddleware.run()
LOG: Accepted client: /10.0.0.6:54878in MyMiddleware.run()
LOG: Accepted client: /10.0.0.11:43942in MyMiddleware.run()
LOG: Accepted client: /10.0.0.11:43964in MyMiddleware.run()
LOG: Accepted client: /10.0.0.11:43938in MyMiddleware.run()
LOG: Accepted client: /10.0.0.11:43960in MyMiddleware.run()
LOG: Accepted client: /10.0.0.11:43936in MyMiddleware.run()
LOG: Accepted client: /10.0.0.6:54912in MyMiddleware.run()
LOG: Accepted client: /10.0.0.11:43932in MyMiddleware.run()
LOG: Accepted client: /10.0.0.6:54914in MyMiddleware.run()
LOG: Accepted client: /10.0.0.6:54864in MyMiddleware.run()
LOG: Accepted client: /10.0.0.6:54858in MyMiddleware.run()
LOG: Accepted client: /10.0.0.6:54874in MyMiddleware.run()
LOG: Accepted client: /10.0.0.11:43934in MyMiddleware.run()
LOG: Accepted client: /10.0.0.6:54866in MyMiddleware.run()
LOG: Accepted client: /10.0.0.6:54900in MyMiddleware.run()
LOG: Accepted client: /10.0.0.11:43928in MyMiddleware.run()
LOG: Accepted client: /10.0.0.6:54870in MyMiddleware.run()
LOG: Accepted client: /10.0.0.11:43940in MyMiddleware.run()
LOG: Accepted client: /10.0.0.6:54876in MyMiddleware.run()
LOG: Accepted client: /10.0.0.6:54868in MyMiddleware.run()
LOG: Accepted client: /10.0.0.6:54898in MyMiddleware.run()
LOG: Accepted client: /10.0.0.11:43962in MyMiddleware.run()
LOG: Accepted client: /10.0.0.7:44636in MyMiddleware.run()
LOG: Accepted client: /10.0.0.11:43950in MyMiddleware.run()
LOG: Accepted client: /10.0.0.11:43944in MyMiddleware.run()
LOG: Accepted client: /10.0.0.11:43946in MyMiddleware.run()
LOG: Accepted client: /10.0.0.11:43920in MyMiddleware.run()
LOG: Accepted client: /10.0.0.11:43948in MyMiddleware.run()
LOG: Accepted client: /10.0.0.11:43926in MyMiddleware.run()
LOG: Accepted client: /10.0.0.11:43918in MyMiddleware.run()
LOG: Accepted client: /10.0.0.7:44632in MyMiddleware.run()
LOG: Accepted client: /10.0.0.7:44654in MyMiddleware.run()
LOG: Accepted client: /10.0.0.11:43916in MyMiddleware.run()
LOG: Accepted client: /10.0.0.11:43924in MyMiddleware.run()
LOG: Accepted client: /10.0.0.11:43922in MyMiddleware.run()
LOG: Accepted client: /10.0.0.11:43912in MyMiddleware.run()
LOG: Accepted client: /10.0.0.11:43914in MyMiddleware.run()
LOG: Accepted client: /10.0.0.7:44638in MyMiddleware.run()
LOG: Accepted client: /10.0.0.7:44640in MyMiddleware.run()
LOG: Accepted client: /10.0.0.11:43956in MyMiddleware.run()
LOG: Accepted client: /10.0.0.11:43968in MyMiddleware.run()
LOG: Accepted client: /10.0.0.11:43954in MyMiddleware.run()
LOG: Accepted client: /10.0.0.7:44642in MyMiddleware.run()
LOG: Accepted client: /10.0.0.11:43958in MyMiddleware.run()
LOG: Accepted client: /10.0.0.11:43970in MyMiddleware.run()
LOG: Accepted client: /10.0.0.7:44646in MyMiddleware.run()
LOG: Accepted client: /10.0.0.11:43952in MyMiddleware.run()
LOG: Accepted client: /10.0.0.7:44684in MyMiddleware.run()
LOG: Accepted client: /10.0.0.7:44688in MyMiddleware.run()
LOG: Accepted client: /10.0.0.7:44686in MyMiddleware.run()
LOG: Accepted client: /10.0.0.7:44660in MyMiddleware.run()
LOG: Accepted client: /10.0.0.7:44694in MyMiddleware.run()
LOG: Accepted client: /10.0.0.7:44672in MyMiddleware.run()
LOG: Accepted client: /10.0.0.7:44670in MyMiddleware.run()
LOG: Accepted client: /10.0.0.7:44634in MyMiddleware.run()
LOG: Accepted client: /10.0.0.7:44678in MyMiddleware.run()
LOG: Accepted client: /10.0.0.7:44648in MyMiddleware.run()
LOG: Accepted client: /10.0.0.7:44662in MyMiddleware.run()
LOG: Accepted client: /10.0.0.7:44692in MyMiddleware.run()
LOG: Accepted client: /10.0.0.7:44652in MyMiddleware.run()
LOG: Accepted client: /10.0.0.7:44668in MyMiddleware.run()
LOG: Accepted client: /10.0.0.7:44666in MyMiddleware.run()
LOG: Accepted client: /10.0.0.7:44650in MyMiddleware.run()
LOG: Accepted client: /10.0.0.7:44676in MyMiddleware.run()
LOG: Accepted client: /10.0.0.7:44674in MyMiddleware.run()
LOG: Accepted client: /10.0.0.7:44664in MyMiddleware.run()
LOG: Accepted client: /10.0.0.7:44682in MyMiddleware.run()
LOG: Accepted client: /10.0.0.7:44680in MyMiddleware.run()
LOG: Accepted client: /10.0.0.7:44658in MyMiddleware.run()
LOG: Accepted client: /10.0.0.7:44656in MyMiddleware.run()
LOG: Accepted client: /10.0.0.7:44690in MyMiddleware.run()
LOG: Accepted client: /10.0.0.7:44644in MyMiddleware.run()
LOG: Closed client: /10.0.0.11:43908in MyMiddleware.run()
LOG: Closed client: /10.0.0.11:43910in MyMiddleware.run()
LOG: Closed client: /10.0.0.11:43916in MyMiddleware.run()
LOG: Closed client: /10.0.0.11:43918in MyMiddleware.run()
LOG: Closed client: /10.0.0.11:43932in MyMiddleware.run()
LOG: Closed client: /10.0.0.11:43944in MyMiddleware.run()
LOG: Closed client: /10.0.0.11:43936in MyMiddleware.run()
LOG: Closed client: /10.0.0.11:43946in MyMiddleware.run()
LOG: Closed client: /10.0.0.11:43912in MyMiddleware.run()
LOG: Closed client: /10.0.0.11:43962in MyMiddleware.run()
LOG: Closed client: /10.0.0.11:43928in MyMiddleware.run()
LOG: Closed client: /10.0.0.11:43966in MyMiddleware.run()
LOG: Closed client: /10.0.0.11:43922in MyMiddleware.run()
LOG: Closed client: /10.0.0.11:43934in MyMiddleware.run()
LOG: Closed client: /10.0.0.11:43938in MyMiddleware.run()
LOG: Closed client: /10.0.0.11:43940in MyMiddleware.run()
LOG: Closed client: /10.0.0.11:43964in MyMiddleware.run()
LOG: Closed client: /10.0.0.11:43954in MyMiddleware.run()
LOG: Closed client: /10.0.0.11:43942in MyMiddleware.run()
LOG: Closed client: /10.0.0.11:43914in MyMiddleware.run()
LOG: Closed client: /10.0.0.11:43956in MyMiddleware.run()
LOG: Closed client: /10.0.0.11:43950in MyMiddleware.run()
LOG: Closed client: /10.0.0.11:43960in MyMiddleware.run()
LOG: Closed client: /10.0.0.11:43968in MyMiddleware.run()
LOG: Closed client: /10.0.0.11:43952in MyMiddleware.run()
LOG: Closed client: /10.0.0.11:43920in MyMiddleware.run()
LOG: Closed client: /10.0.0.11:43924in MyMiddleware.run()
LOG: Closed client: /10.0.0.11:43930in MyMiddleware.run()
LOG: Closed client: /10.0.0.11:43948in MyMiddleware.run()
LOG: Closed client: /10.0.0.11:43958in MyMiddleware.run()
LOG: Closed client: /10.0.0.11:43970in MyMiddleware.run()
LOG: Closed client: /10.0.0.11:43926in MyMiddleware.run()
LOG: Closed client: /10.0.0.6:54880in MyMiddleware.run()
LOG: Closed client: /10.0.0.6:54862in MyMiddleware.run()
LOG: Closed client: /10.0.0.6:54860in MyMiddleware.run()
LOG: Closed client: /10.0.0.6:54854in MyMiddleware.run()
LOG: Closed client: /10.0.0.6:54874in MyMiddleware.run()
LOG: Closed client: /10.0.0.6:54900in MyMiddleware.run()
LOG: Closed client: /10.0.0.6:54902in MyMiddleware.run()
LOG: Closed client: /10.0.0.6:54884in MyMiddleware.run()
LOG: Closed client: /10.0.0.6:54868in MyMiddleware.run()
LOG: Closed client: /10.0.0.6:54890in MyMiddleware.run()
LOG: Closed client: /10.0.0.6:54904in MyMiddleware.run()
LOG: Closed client: /10.0.0.6:54856in MyMiddleware.run()
LOG: Closed client: /10.0.0.6:54858in MyMiddleware.run()
LOG: Closed client: /10.0.0.6:54864in MyMiddleware.run()
LOG: Closed client: /10.0.0.6:54882in MyMiddleware.run()
LOG: Closed client: /10.0.0.6:54886in MyMiddleware.run()
LOG: Closed client: /10.0.0.6:54894in MyMiddleware.run()
LOG: Closed client: /10.0.0.6:54866in MyMiddleware.run()
LOG: Closed client: /10.0.0.6:54896in MyMiddleware.run()
LOG: Closed client: /10.0.0.6:54892in MyMiddleware.run()
LOG: Closed client: /10.0.0.6:54870in MyMiddleware.run()
LOG: Closed client: /10.0.0.6:54872in MyMiddleware.run()
LOG: Closed client: /10.0.0.6:54888in MyMiddleware.run()
LOG: Closed client: /10.0.0.6:54878in MyMiddleware.run()
LOG: Closed client: /10.0.0.6:54876in MyMiddleware.run()
LOG: Closed client: /10.0.0.6:54898in MyMiddleware.run()
LOG: Closed client: /10.0.0.6:54910in MyMiddleware.run()
LOG: Closed client: /10.0.0.6:54912in MyMiddleware.run()
LOG: Closed client: /10.0.0.6:54914in MyMiddleware.run()
LOG: Closed client: /10.0.0.6:54908in MyMiddleware.run()
LOG: Closed client: /10.0.0.6:54906in MyMiddleware.run()
LOG: Closed client: /10.0.0.6:54916in MyMiddleware.run()
LOG: Closed client: /10.0.0.7:44646in MyMiddleware.run()
LOG: Closed client: /10.0.0.7:44634in MyMiddleware.run()
LOG: Closed client: /10.0.0.7:44694in MyMiddleware.run()
LOG: Closed client: /10.0.0.7:44652in MyMiddleware.run()
LOG: Closed client: /10.0.0.7:44670in MyMiddleware.run()
LOG: Closed client: /10.0.0.7:44682in MyMiddleware.run()
LOG: Closed client: /10.0.0.7:44672in MyMiddleware.run()
LOG: Closed client: /10.0.0.7:44660in MyMiddleware.run()
LOG: Closed client: /10.0.0.7:44686in MyMiddleware.run()
LOG: Closed client: /10.0.0.7:44638in MyMiddleware.run()
LOG: Closed client: /10.0.0.7:44644in MyMiddleware.run()
LOG: Closed client: /10.0.0.7:44650in MyMiddleware.run()
LOG: Closed client: /10.0.0.7:44684in MyMiddleware.run()
LOG: Closed client: /10.0.0.7:44664in MyMiddleware.run()
LOG: Closed client: /10.0.0.7:44640in MyMiddleware.run()
LOG: Closed client: /10.0.0.7:44680in MyMiddleware.run()
LOG: Closed client: /10.0.0.7:44658in MyMiddleware.run()
LOG: Closed client: /10.0.0.7:44674in MyMiddleware.run()
LOG: Closed client: /10.0.0.7:44692in MyMiddleware.run()
LOG: Closed client: /10.0.0.7:44642in MyMiddleware.run()
LOG: Closed client: /10.0.0.7:44668in MyMiddleware.run()
LOG: Closed client: /10.0.0.7:44662in MyMiddleware.run()
LOG: Closed client: /10.0.0.7:44666in MyMiddleware.run()
LOG: Closed client: /10.0.0.7:44678in MyMiddleware.run()
LOG: Closed client: /10.0.0.7:44654in MyMiddleware.run()
LOG: Closed client: /10.0.0.7:44656in MyMiddleware.run()
LOG: Closed client: /10.0.0.7:44648in MyMiddleware.run()
LOG: Closed client: /10.0.0.7:44676in MyMiddleware.run()
LOG: Closed client: /10.0.0.7:44690in MyMiddleware.run()
LOG: Closed client: /10.0.0.7:44632in MyMiddleware.run()
LOG: Closed client: /10.0.0.7:44636in MyMiddleware.run()
LOG: Closed client: /10.0.0.7:44688in MyMiddleware.run()
