------------Middleware started!------------
LOG: Waiting for connection in MyMiddleware.run()
LOG: Accepted client: /10.0.0.6:54218in MyMiddleware.run()
LOG: Accepted client: /10.0.0.6:54216in MyMiddleware.run()
LOG: Accepted client: /10.0.0.6:54222in MyMiddleware.run()
LOG: Accepted client: /10.0.0.6:54232in MyMiddleware.run()
LOG: Accepted client: /10.0.0.6:54234in MyMiddleware.run()
LOG: Accepted client: /10.0.0.6:54268in MyMiddleware.run()
LOG: Accepted client: /10.0.0.6:54244in MyMiddleware.run()
LOG: Accepted client: /10.0.0.6:54270in MyMiddleware.run()
LOG: Accepted client: /10.0.0.6:54224in MyMiddleware.run()
LOG: Accepted client: /10.0.0.6:54240in MyMiddleware.run()
LOG: Accepted client: /10.0.0.6:54236in MyMiddleware.run()
LOG: Accepted client: /10.0.0.6:54242in MyMiddleware.run()
LOG: Accepted client: /10.0.0.6:54238in MyMiddleware.run()
LOG: Accepted client: /10.0.0.6:54266in MyMiddleware.run()
LOG: Accepted client: /10.0.0.6:54264in MyMiddleware.run()
LOG: Accepted client: /10.0.0.6:54246in MyMiddleware.run()
LOG: Accepted client: /10.0.0.6:54278in MyMiddleware.run()
LOG: Accepted client: /10.0.0.6:54220in MyMiddleware.run()
LOG: Accepted client: /10.0.0.6:54256in MyMiddleware.run()
LOG: Accepted client: /10.0.0.6:54228in MyMiddleware.run()
LOG: Accepted client: /10.0.0.6:54248in MyMiddleware.run()
LOG: Accepted client: /10.0.0.6:54226in MyMiddleware.run()
LOG: Accepted client: /10.0.0.6:54272in MyMiddleware.run()
LOG: Accepted client: /10.0.0.6:54254in MyMiddleware.run()
LOG: Accepted client: /10.0.0.6:54230in MyMiddleware.run()
LOG: Accepted client: /10.0.0.6:54260in MyMiddleware.run()
LOG: Accepted client: /10.0.0.6:54276in MyMiddleware.run()
LOG: Accepted client: /10.0.0.6:54262in MyMiddleware.run()
LOG: Accepted client: /10.0.0.6:54258in MyMiddleware.run()
LOG: Accepted client: /10.0.0.6:54250in MyMiddleware.run()
LOG: Accepted client: /10.0.0.6:54252in MyMiddleware.run()
LOG: Accepted client: /10.0.0.6:54274in MyMiddleware.run()
LOG: Accepted client: /10.0.0.7:44036in MyMiddleware.run()
LOG: Accepted client: /10.0.0.7:44042in MyMiddleware.run()
LOG: Accepted client: /10.0.0.7:44046in MyMiddleware.run()
LOG: Accepted client: /10.0.0.7:44010in MyMiddleware.run()
LOG: Accepted client: /10.0.0.7:44038in MyMiddleware.run()
LOG: Accepted client: /10.0.0.7:44054in MyMiddleware.run()
LOG: Accepted client: /10.0.0.7:44052in MyMiddleware.run()
LOG: Accepted client: /10.0.0.7:44000in MyMiddleware.run()
LOG: Accepted client: /10.0.0.7:44012in MyMiddleware.run()
LOG: Accepted client: /10.0.0.7:44050in MyMiddleware.run()
LOG: Accepted client: /10.0.0.7:44016in MyMiddleware.run()
LOG: Accepted client: /10.0.0.7:44040in MyMiddleware.run()
LOG: Accepted client: /10.0.0.7:44018in MyMiddleware.run()
LOG: Accepted client: /10.0.0.7:43998in MyMiddleware.run()
LOG: Accepted client: /10.0.0.7:44028in MyMiddleware.run()
LOG: Accepted client: /10.0.0.7:44014in MyMiddleware.run()
LOG: Accepted client: /10.0.0.7:44032in MyMiddleware.run()
LOG: Accepted client: /10.0.0.7:44020in MyMiddleware.run()
LOG: Accepted client: /10.0.0.7:44024in MyMiddleware.run()
LOG: Accepted client: /10.0.0.7:44002in MyMiddleware.run()
LOG: Accepted client: /10.0.0.7:44034in MyMiddleware.run()
LOG: Accepted client: /10.0.0.7:44048in MyMiddleware.run()
LOG: Accepted client: /10.0.0.7:43996in MyMiddleware.run()
LOG: Accepted client: /10.0.0.7:44044in MyMiddleware.run()
LOG: Accepted client: /10.0.0.7:44022in MyMiddleware.run()
LOG: Accepted client: /10.0.0.7:43994in MyMiddleware.run()
LOG: Accepted client: /10.0.0.7:44030in MyMiddleware.run()
LOG: Accepted client: /10.0.0.7:44026in MyMiddleware.run()
LOG: Accepted client: /10.0.0.7:44008in MyMiddleware.run()
LOG: Accepted client: /10.0.0.7:44056in MyMiddleware.run()
LOG: Accepted client: /10.0.0.7:44006in MyMiddleware.run()
LOG: Accepted client: /10.0.0.7:44004in MyMiddleware.run()
LOG: Accepted client: /10.0.0.11:43330in MyMiddleware.run()
LOG: Accepted client: /10.0.0.11:43288in MyMiddleware.run()
LOG: Accepted client: /10.0.0.11:43306in MyMiddleware.run()
LOG: Accepted client: /10.0.0.11:43318in MyMiddleware.run()
LOG: Accepted client: /10.0.0.11:43286in MyMiddleware.run()
LOG: Accepted client: /10.0.0.11:43314in MyMiddleware.run()
LOG: Accepted client: /10.0.0.11:43304in MyMiddleware.run()
LOG: Accepted client: /10.0.0.11:43324in MyMiddleware.run()
LOG: Accepted client: /10.0.0.11:43340in MyMiddleware.run()
LOG: Accepted client: /10.0.0.11:43316in MyMiddleware.run()
LOG: Accepted client: /10.0.0.11:43292in MyMiddleware.run()
LOG: Accepted client: /10.0.0.11:43344in MyMiddleware.run()
LOG: Accepted client: /10.0.0.11:43312in MyMiddleware.run()
LOG: Accepted client: /10.0.0.11:43298in MyMiddleware.run()
LOG: Accepted client: /10.0.0.11:43332in MyMiddleware.run()
LOG: Accepted client: /10.0.0.11:43308in MyMiddleware.run()
LOG: Accepted client: /10.0.0.11:43310in MyMiddleware.run()
LOG: Accepted client: /10.0.0.11:43326in MyMiddleware.run()
LOG: Accepted client: /10.0.0.11:43300in MyMiddleware.run()
LOG: Accepted client: /10.0.0.11:43342in MyMiddleware.run()
LOG: Accepted client: /10.0.0.11:43320in MyMiddleware.run()
LOG: Accepted client: /10.0.0.11:43322in MyMiddleware.run()
LOG: Accepted client: /10.0.0.11:43338in MyMiddleware.run()
LOG: Accepted client: /10.0.0.11:43328in MyMiddleware.run()
LOG: Accepted client: /10.0.0.11:43336in MyMiddleware.run()
LOG: Accepted client: /10.0.0.11:43290in MyMiddleware.run()
LOG: Accepted client: /10.0.0.11:43334in MyMiddleware.run()
LOG: Accepted client: /10.0.0.11:43296in MyMiddleware.run()
LOG: Accepted client: /10.0.0.11:43294in MyMiddleware.run()
LOG: Accepted client: /10.0.0.11:43348in MyMiddleware.run()
LOG: Accepted client: /10.0.0.11:43302in MyMiddleware.run()
LOG: Accepted client: /10.0.0.11:43346in MyMiddleware.run()
LOG: Closed client: /10.0.0.6:54232in MyMiddleware.run()
LOG: Closed client: /10.0.0.6:54250in MyMiddleware.run()
LOG: Closed client: /10.0.0.6:54246in MyMiddleware.run()
LOG: Closed client: /10.0.0.6:54216in MyMiddleware.run()
LOG: Closed client: /10.0.0.6:54252in MyMiddleware.run()
LOG: Closed client: /10.0.0.6:54262in MyMiddleware.run()
LOG: Closed client: /10.0.0.6:54260in MyMiddleware.run()
LOG: Closed client: /10.0.0.6:54244in MyMiddleware.run()
LOG: Closed client: /10.0.0.6:54254in MyMiddleware.run()
LOG: Closed client: /10.0.0.6:54234in MyMiddleware.run()
LOG: Closed client: /10.0.0.6:54218in MyMiddleware.run()
LOG: Closed client: /10.0.0.6:54248in MyMiddleware.run()
LOG: Closed client: /10.0.0.6:54240in MyMiddleware.run()
LOG: Closed client: /10.0.0.6:54274in MyMiddleware.run()
LOG: Closed client: /10.0.0.6:54264in MyMiddleware.run()
LOG: Closed client: /10.0.0.6:54270in MyMiddleware.run()
LOG: Closed client: /10.0.0.6:54256in MyMiddleware.run()
LOG: Closed client: /10.0.0.6:54276in MyMiddleware.run()
LOG: Closed client: /10.0.0.6:54226in MyMiddleware.run()
LOG: Closed client: /10.0.0.6:54266in MyMiddleware.run()
LOG: Closed client: /10.0.0.6:54220in MyMiddleware.run()
LOG: Closed client: /10.0.0.6:54236in MyMiddleware.run()
LOG: Closed client: /10.0.0.6:54242in MyMiddleware.run()
LOG: Closed client: /10.0.0.6:54222in MyMiddleware.run()
LOG: Closed client: /10.0.0.6:54258in MyMiddleware.run()
LOG: Closed client: /10.0.0.6:54272in MyMiddleware.run()
LOG: Closed client: /10.0.0.6:54224in MyMiddleware.run()
LOG: Closed client: /10.0.0.6:54228in MyMiddleware.run()
LOG: Closed client: /10.0.0.6:54238in MyMiddleware.run()
LOG: Closed client: /10.0.0.6:54268in MyMiddleware.run()
LOG: Closed client: /10.0.0.6:54278in MyMiddleware.run()
LOG: Closed client: /10.0.0.6:54230in MyMiddleware.run()
LOG: Closed client: /10.0.0.7:43998in MyMiddleware.run()
LOG: Closed client: /10.0.0.7:43994in MyMiddleware.run()
LOG: Closed client: /10.0.0.7:44002in MyMiddleware.run()
LOG: Closed client: /10.0.0.7:44010in MyMiddleware.run()
LOG: Closed client: /10.0.0.7:44032in MyMiddleware.run()
LOG: Closed client: /10.0.0.7:44020in MyMiddleware.run()
LOG: Closed client: /10.0.0.7:44026in MyMiddleware.run()
LOG: Closed client: /10.0.0.7:44006in MyMiddleware.run()
LOG: Closed client: /10.0.0.7:44000in MyMiddleware.run()
LOG: Closed client: /10.0.0.7:44030in MyMiddleware.run()
LOG: Closed client: /10.0.0.7:44040in MyMiddleware.run()
LOG: Closed client: /10.0.0.7:44036in MyMiddleware.run()
LOG: Closed client: /10.0.0.7:44038in MyMiddleware.run()
LOG: Closed client: /10.0.0.7:44046in MyMiddleware.run()
LOG: Closed client: /10.0.0.7:44042in MyMiddleware.run()
LOG: Closed client: /10.0.0.7:44008in MyMiddleware.run()
LOG: Closed client: /10.0.0.7:44004in MyMiddleware.run()
LOG: Closed client: /10.0.0.7:44014in MyMiddleware.run()
LOG: Closed client: /10.0.0.7:44056in MyMiddleware.run()
LOG: Closed client: /10.0.0.7:44024in MyMiddleware.run()
LOG: Closed client: /10.0.0.7:44012in MyMiddleware.run()
LOG: Closed client: /10.0.0.7:44034in MyMiddleware.run()
LOG: Closed client: /10.0.0.7:44022in MyMiddleware.run()
LOG: Closed client: /10.0.0.7:44048in MyMiddleware.run()
LOG: Closed client: /10.0.0.7:44028in MyMiddleware.run()
LOG: Closed client: /10.0.0.7:44018in MyMiddleware.run()
LOG: Closed client: /10.0.0.7:44052in MyMiddleware.run()
LOG: Closed client: /10.0.0.7:44050in MyMiddleware.run()
LOG: Closed client: /10.0.0.7:44054in MyMiddleware.run()
LOG: Closed client: /10.0.0.7:44044in MyMiddleware.run()
LOG: Closed client: /10.0.0.7:43996in MyMiddleware.run()
LOG: Closed client: /10.0.0.7:44016in MyMiddleware.run()
LOG: Closed client: /10.0.0.11:43344in MyMiddleware.run()
LOG: Closed client: /10.0.0.11:43342in MyMiddleware.run()
LOG: Closed client: /10.0.0.11:43300in MyMiddleware.run()
LOG: Closed client: /10.0.0.11:43322in MyMiddleware.run()
LOG: Closed client: /10.0.0.11:43308in MyMiddleware.run()
LOG: Closed client: /10.0.0.11:43286in MyMiddleware.run()
LOG: Closed client: /10.0.0.11:43346in MyMiddleware.run()
LOG: Closed client: /10.0.0.11:43302in MyMiddleware.run()
LOG: Closed client: /10.0.0.11:43324in MyMiddleware.run()
LOG: Closed client: /10.0.0.11:43314in MyMiddleware.run()
LOG: Closed client: /10.0.0.11:43290in MyMiddleware.run()
LOG: Closed client: /10.0.0.11:43332in MyMiddleware.run()
LOG: Closed client: /10.0.0.11:43296in MyMiddleware.run()
LOG: Closed client: /10.0.0.11:43298in MyMiddleware.run()
LOG: Closed client: /10.0.0.11:43334in MyMiddleware.run()
LOG: Closed client: /10.0.0.11:43294in MyMiddleware.run()
LOG: Closed client: /10.0.0.11:43288in MyMiddleware.run()
LOG: Closed client: /10.0.0.11:43312in MyMiddleware.run()
LOG: Closed client: /10.0.0.11:43336in MyMiddleware.run()
LOG: Closed client: /10.0.0.11:43292in MyMiddleware.run()
LOG: Closed client: /10.0.0.11:43316in MyMiddleware.run()
LOG: Closed client: /10.0.0.11:43306in MyMiddleware.run()
LOG: Closed client: /10.0.0.11:43320in MyMiddleware.run()
LOG: Closed client: /10.0.0.11:43326in MyMiddleware.run()
LOG: Closed client: /10.0.0.11:43330in MyMiddleware.run()
LOG: Closed client: /10.0.0.11:43304in MyMiddleware.run()
LOG: Closed client: /10.0.0.11:43318in MyMiddleware.run()
LOG: Closed client: /10.0.0.11:43348in MyMiddleware.run()
LOG: Closed client: /10.0.0.11:43310in MyMiddleware.run()
LOG: Closed client: /10.0.0.11:43328in MyMiddleware.run()
LOG: Closed client: /10.0.0.11:43338in MyMiddleware.run()
LOG: Closed client: /10.0.0.11:43340in MyMiddleware.run()
