------------Middleware started!------------
LOG: Waiting for connection in MyMiddleware.run()
LOG: Accepted client: /10.0.0.7:58884in MyMiddleware.run()
LOG: Accepted client: /10.0.0.7:58906in MyMiddleware.run()
LOG: Accepted client: /10.0.0.7:58878in MyMiddleware.run()
LOG: Accepted client: /10.0.0.7:58914in MyMiddleware.run()
LOG: Accepted client: /10.0.0.7:58882in MyMiddleware.run()
LOG: Accepted client: /10.0.0.11:58190in MyMiddleware.run()
LOG: Accepted client: /10.0.0.7:58926in MyMiddleware.run()
LOG: Accepted client: /10.0.0.7:58892in MyMiddleware.run()
LOG: Accepted client: /10.0.0.7:58890in MyMiddleware.run()
LOG: Accepted client: /10.0.0.7:58908in MyMiddleware.run()
LOG: Accepted client: /10.0.0.7:58916in MyMiddleware.run()
LOG: Accepted client: /10.0.0.7:58928in MyMiddleware.run()
LOG: Accepted client: /10.0.0.7:58912in MyMiddleware.run()
LOG: Accepted client: /10.0.0.11:58188in MyMiddleware.run()
LOG: Accepted client: /10.0.0.7:58918in MyMiddleware.run()
LOG: Accepted client: /10.0.0.7:58934in MyMiddleware.run()
LOG: Accepted client: /10.0.0.11:58216in MyMiddleware.run()
LOG: Accepted client: /10.0.0.11:58196in MyMiddleware.run()
LOG: Accepted client: /10.0.0.11:58220in MyMiddleware.run()
LOG: Accepted client: /10.0.0.11:58194in MyMiddleware.run()
LOG: Accepted client: /10.0.0.11:58176in MyMiddleware.run()
LOG: Accepted client: /10.0.0.7:58900in MyMiddleware.run()
LOG: Accepted client: /10.0.0.7:58898in MyMiddleware.run()
LOG: Accepted client: /10.0.0.7:58902in MyMiddleware.run()
LOG: Accepted client: /10.0.0.11:58200in MyMiddleware.run()
LOG: Accepted client: /10.0.0.7:58896in MyMiddleware.run()
LOG: Accepted client: /10.0.0.7:58894in MyMiddleware.run()
LOG: Accepted client: /10.0.0.7:58920in MyMiddleware.run()
LOG: Accepted client: /10.0.0.11:58222in MyMiddleware.run()
LOG: Accepted client: /10.0.0.11:58232in MyMiddleware.run()
LOG: Accepted client: /10.0.0.7:58940in MyMiddleware.run()
LOG: Accepted client: /10.0.0.11:58178in MyMiddleware.run()
LOG: Accepted client: /10.0.0.11:58180in MyMiddleware.run()
LOG: Accepted client: /10.0.0.11:58228in MyMiddleware.run()
LOG: Accepted client: /10.0.0.11:58214in MyMiddleware.run()
LOG: Accepted client: /10.0.0.11:58174in MyMiddleware.run()
LOG: Accepted client: /10.0.0.7:58924in MyMiddleware.run()
LOG: Accepted client: /10.0.0.11:58172in MyMiddleware.run()
LOG: Accepted client: /10.0.0.11:58184in MyMiddleware.run()
LOG: Accepted client: /10.0.0.11:58208in MyMiddleware.run()
LOG: Accepted client: /10.0.0.7:58888in MyMiddleware.run()
LOG: Accepted client: /10.0.0.7:58880in MyMiddleware.run()
LOG: Accepted client: /10.0.0.11:58186in MyMiddleware.run()
LOG: Accepted client: /10.0.0.7:58904in MyMiddleware.run()
LOG: Accepted client: /10.0.0.7:58910in MyMiddleware.run()
LOG: Accepted client: /10.0.0.11:58212in MyMiddleware.run()
LOG: Accepted client: /10.0.0.7:58930in MyMiddleware.run()
LOG: Accepted client: /10.0.0.11:58204in MyMiddleware.run()
LOG: Accepted client: /10.0.0.11:58192in MyMiddleware.run()
LOG: Accepted client: /10.0.0.11:58230in MyMiddleware.run()
LOG: Accepted client: /10.0.0.11:58182in MyMiddleware.run()
LOG: Accepted client: /10.0.0.11:58224in MyMiddleware.run()
LOG: Accepted client: /10.0.0.7:58932in MyMiddleware.run()
LOG: Accepted client: /10.0.0.11:58198in MyMiddleware.run()
LOG: Accepted client: /10.0.0.11:58218in MyMiddleware.run()
LOG: Accepted client: /10.0.0.11:58170in MyMiddleware.run()
LOG: Accepted client: /10.0.0.7:58922in MyMiddleware.run()
LOG: Accepted client: /10.0.0.7:58938in MyMiddleware.run()
LOG: Accepted client: /10.0.0.7:58936in MyMiddleware.run()
LOG: Accepted client: /10.0.0.11:58210in MyMiddleware.run()
LOG: Accepted client: /10.0.0.11:58226in MyMiddleware.run()
LOG: Accepted client: /10.0.0.11:58206in MyMiddleware.run()
LOG: Accepted client: /10.0.0.7:58886in MyMiddleware.run()
LOG: Accepted client: /10.0.0.11:58202in MyMiddleware.run()
LOG: Accepted client: /10.0.0.6:40898in MyMiddleware.run()
LOG: Accepted client: /10.0.0.6:40870in MyMiddleware.run()
LOG: Accepted client: /10.0.0.6:40914in MyMiddleware.run()
LOG: Accepted client: /10.0.0.6:40868in MyMiddleware.run()
LOG: Accepted client: /10.0.0.6:40886in MyMiddleware.run()
LOG: Accepted client: /10.0.0.6:40912in MyMiddleware.run()
LOG: Accepted client: /10.0.0.6:40910in MyMiddleware.run()
LOG: Accepted client: /10.0.0.6:40922in MyMiddleware.run()
LOG: Accepted client: /10.0.0.6:40902in MyMiddleware.run()
LOG: Accepted client: /10.0.0.6:40864in MyMiddleware.run()
LOG: Accepted client: /10.0.0.6:40862in MyMiddleware.run()
LOG: Accepted client: /10.0.0.6:40866in MyMiddleware.run()
LOG: Accepted client: /10.0.0.6:40904in MyMiddleware.run()
LOG: Accepted client: /10.0.0.6:40892in MyMiddleware.run()
LOG: Accepted client: /10.0.0.6:40906in MyMiddleware.run()
LOG: Accepted client: /10.0.0.6:40908in MyMiddleware.run()
LOG: Accepted client: /10.0.0.6:40860in MyMiddleware.run()
LOG: Accepted client: /10.0.0.6:40890in MyMiddleware.run()
LOG: Accepted client: /10.0.0.6:40900in MyMiddleware.run()
LOG: Accepted client: /10.0.0.6:40880in MyMiddleware.run()
LOG: Accepted client: /10.0.0.6:40894in MyMiddleware.run()
LOG: Accepted client: /10.0.0.6:40888in MyMiddleware.run()
LOG: Accepted client: /10.0.0.6:40918in MyMiddleware.run()
LOG: Accepted client: /10.0.0.6:40916in MyMiddleware.run()
LOG: Accepted client: /10.0.0.6:40872in MyMiddleware.run()
LOG: Accepted client: /10.0.0.6:40882in MyMiddleware.run()
LOG: Accepted client: /10.0.0.6:40874in MyMiddleware.run()
LOG: Accepted client: /10.0.0.6:40884in MyMiddleware.run()
LOG: Accepted client: /10.0.0.6:40878in MyMiddleware.run()
LOG: Accepted client: /10.0.0.6:40896in MyMiddleware.run()
LOG: Accepted client: /10.0.0.6:40876in MyMiddleware.run()
LOG: Accepted client: /10.0.0.6:40920in MyMiddleware.run()
LOG: Closed client: /10.0.0.11:58180in MyMiddleware.run()
LOG: Closed client: /10.0.0.11:58178in MyMiddleware.run()
LOG: Closed client: /10.0.0.11:58174in MyMiddleware.run()
LOG: Closed client: /10.0.0.11:58192in MyMiddleware.run()
LOG: Closed client: /10.0.0.11:58230in MyMiddleware.run()
LOG: Closed client: /10.0.0.11:58210in MyMiddleware.run()
LOG: Closed client: /10.0.0.11:58184in MyMiddleware.run()
LOG: Closed client: /10.0.0.11:58212in MyMiddleware.run()
LOG: Closed client: /10.0.0.11:58208in MyMiddleware.run()
LOG: Closed client: /10.0.0.11:58220in MyMiddleware.run()
LOG: Closed client: /10.0.0.11:58188in MyMiddleware.run()
LOG: Closed client: /10.0.0.11:58196in MyMiddleware.run()
LOG: Closed client: /10.0.0.11:58214in MyMiddleware.run()
LOG: Closed client: /10.0.0.11:58228in MyMiddleware.run()
LOG: Closed client: /10.0.0.11:58226in MyMiddleware.run()
LOG: Closed client: /10.0.0.11:58202in MyMiddleware.run()
LOG: Closed client: /10.0.0.11:58172in MyMiddleware.run()
LOG: Closed client: /10.0.0.11:58204in MyMiddleware.run()
LOG: Closed client: /10.0.0.11:58222in MyMiddleware.run()
LOG: Closed client: /10.0.0.11:58206in MyMiddleware.run()
LOG: Closed client: /10.0.0.11:58182in MyMiddleware.run()
LOG: Closed client: /10.0.0.11:58194in MyMiddleware.run()
LOG: Closed client: /10.0.0.11:58224in MyMiddleware.run()
LOG: Closed client: /10.0.0.11:58170in MyMiddleware.run()
LOG: Closed client: /10.0.0.11:58190in MyMiddleware.run()
LOG: Closed client: /10.0.0.11:58216in MyMiddleware.run()
LOG: Closed client: /10.0.0.11:58176in MyMiddleware.run()
LOG: Closed client: /10.0.0.11:58198in MyMiddleware.run()
LOG: Closed client: /10.0.0.11:58218in MyMiddleware.run()
LOG: Closed client: /10.0.0.11:58200in MyMiddleware.run()
LOG: Closed client: /10.0.0.11:58186in MyMiddleware.run()
LOG: Closed client: /10.0.0.7:58908in MyMiddleware.run()
LOG: Closed client: /10.0.0.7:58914in MyMiddleware.run()
LOG: Closed client: /10.0.0.11:58232in MyMiddleware.run()
LOG: Closed client: /10.0.0.7:58906in MyMiddleware.run()
LOG: Closed client: /10.0.0.7:58934in MyMiddleware.run()
LOG: Closed client: /10.0.0.7:58940in MyMiddleware.run()
LOG: Closed client: /10.0.0.7:58918in MyMiddleware.run()
LOG: Closed client: /10.0.0.7:58886in MyMiddleware.run()
LOG: Closed client: /10.0.0.7:58892in MyMiddleware.run()
LOG: Closed client: /10.0.0.7:58904in MyMiddleware.run()
LOG: Closed client: /10.0.0.7:58936in MyMiddleware.run()
LOG: Closed client: /10.0.0.7:58924in MyMiddleware.run()
LOG: Closed client: /10.0.0.7:58920in MyMiddleware.run()
LOG: Closed client: /10.0.0.7:58894in MyMiddleware.run()
LOG: Closed client: /10.0.0.7:58880in MyMiddleware.run()
LOG: Closed client: /10.0.0.7:58900in MyMiddleware.run()
LOG: Closed client: /10.0.0.7:58896in MyMiddleware.run()
LOG: Closed client: /10.0.0.7:58916in MyMiddleware.run()
LOG: Closed client: /10.0.0.7:58928in MyMiddleware.run()
LOG: Closed client: /10.0.0.7:58926in MyMiddleware.run()
LOG: Closed client: /10.0.0.7:58878in MyMiddleware.run()
LOG: Closed client: /10.0.0.7:58902in MyMiddleware.run()
LOG: Closed client: /10.0.0.7:58898in MyMiddleware.run()
LOG: Closed client: /10.0.0.7:58890in MyMiddleware.run()
LOG: Closed client: /10.0.0.7:58938in MyMiddleware.run()
LOG: Closed client: /10.0.0.7:58888in MyMiddleware.run()
LOG: Closed client: /10.0.0.7:58912in MyMiddleware.run()
LOG: Closed client: /10.0.0.7:58882in MyMiddleware.run()
LOG: Closed client: /10.0.0.7:58884in MyMiddleware.run()
LOG: Closed client: /10.0.0.7:58932in MyMiddleware.run()
LOG: Closed client: /10.0.0.7:58922in MyMiddleware.run()
LOG: Closed client: /10.0.0.7:58930in MyMiddleware.run()
LOG: Closed client: /10.0.0.7:58910in MyMiddleware.run()
LOG: Closed client: /10.0.0.6:40882in MyMiddleware.run()
LOG: Closed client: /10.0.0.6:40870in MyMiddleware.run()
LOG: Closed client: /10.0.0.6:40862in MyMiddleware.run()
LOG: Closed client: /10.0.0.6:40868in MyMiddleware.run()
LOG: Closed client: /10.0.0.6:40866in MyMiddleware.run()
LOG: Closed client: /10.0.0.6:40880in MyMiddleware.run()
LOG: Closed client: /10.0.0.6:40884in MyMiddleware.run()
LOG: Closed client: /10.0.0.6:40874in MyMiddleware.run()
LOG: Closed client: /10.0.0.6:40878in MyMiddleware.run()
LOG: Closed client: /10.0.0.6:40872in MyMiddleware.run()
LOG: Closed client: /10.0.0.6:40864in MyMiddleware.run()
LOG: Closed client: /10.0.0.6:40890in MyMiddleware.run()
LOG: Closed client: /10.0.0.6:40888in MyMiddleware.run()
LOG: Closed client: /10.0.0.6:40886in MyMiddleware.run()
LOG: Closed client: /10.0.0.6:40860in MyMiddleware.run()
LOG: Closed client: /10.0.0.6:40876in MyMiddleware.run()
LOG: Closed client: /10.0.0.6:40922in MyMiddleware.run()
LOG: Closed client: /10.0.0.6:40912in MyMiddleware.run()
LOG: Closed client: /10.0.0.6:40906in MyMiddleware.run()
LOG: Closed client: /10.0.0.6:40892in MyMiddleware.run()
LOG: Closed client: /10.0.0.6:40904in MyMiddleware.run()
LOG: Closed client: /10.0.0.6:40900in MyMiddleware.run()
LOG: Closed client: /10.0.0.6:40914in MyMiddleware.run()
LOG: Closed client: /10.0.0.6:40894in MyMiddleware.run()
LOG: Closed client: /10.0.0.6:40898in MyMiddleware.run()
LOG: Closed client: /10.0.0.6:40910in MyMiddleware.run()
LOG: Closed client: /10.0.0.6:40908in MyMiddleware.run()
LOG: Closed client: /10.0.0.6:40896in MyMiddleware.run()
LOG: Closed client: /10.0.0.6:40920in MyMiddleware.run()
LOG: Closed client: /10.0.0.6:40916in MyMiddleware.run()
LOG: Closed client: /10.0.0.6:40918in MyMiddleware.run()
LOG: Closed client: /10.0.0.6:40902in MyMiddleware.run()
