------------Middleware started!------------
LOG: Waiting for connection in MyMiddleware.run()
LOG: Accepted client: /10.0.0.11:49968in MyMiddleware.run()
LOG: Accepted client: /10.0.0.11:49974in MyMiddleware.run()
LOG: Accepted client: /10.0.0.11:49982in MyMiddleware.run()
LOG: Accepted client: /10.0.0.11:49972in MyMiddleware.run()
LOG: Accepted client: /10.0.0.11:49970in MyMiddleware.run()
LOG: Accepted client: /10.0.0.11:49980in MyMiddleware.run()
LOG: Accepted client: /10.0.0.11:49978in MyMiddleware.run()
LOG: Accepted client: /10.0.0.11:49976in MyMiddleware.run()
LOG: Accepted client: /10.0.0.6:60908in MyMiddleware.run()
LOG: Accepted client: /10.0.0.6:60906in MyMiddleware.run()
LOG: Accepted client: /10.0.0.6:60904in MyMiddleware.run()
LOG: Accepted client: /10.0.0.6:60898in MyMiddleware.run()
LOG: Accepted client: /10.0.0.6:60900in MyMiddleware.run()
LOG: Accepted client: /10.0.0.6:60896in MyMiddleware.run()
LOG: Accepted client: /10.0.0.6:60894in MyMiddleware.run()
LOG: Accepted client: /10.0.0.6:60902in MyMiddleware.run()
LOG: Accepted client: /10.0.0.7:50670in MyMiddleware.run()
LOG: Accepted client: /10.0.0.7:50676in MyMiddleware.run()
LOG: Accepted client: /10.0.0.7:50682in MyMiddleware.run()
LOG: Accepted client: /10.0.0.7:50680in MyMiddleware.run()
LOG: Accepted client: /10.0.0.7:50678in MyMiddleware.run()
LOG: Accepted client: /10.0.0.7:50668in MyMiddleware.run()
LOG: Accepted client: /10.0.0.7:50672in MyMiddleware.run()
LOG: Accepted client: /10.0.0.7:50674in MyMiddleware.run()
LOG: Closed client: /10.0.0.6:60908in MyMiddleware.run()
LOG: Closed client: /10.0.0.6:60906in MyMiddleware.run()
LOG: Closed client: /10.0.0.6:60902in MyMiddleware.run()
LOG: Closed client: /10.0.0.6:60898in MyMiddleware.run()
LOG: Closed client: /10.0.0.6:60894in MyMiddleware.run()
LOG: Closed client: /10.0.0.6:60900in MyMiddleware.run()
LOG: Closed client: /10.0.0.6:60904in MyMiddleware.run()
LOG: Closed client: /10.0.0.6:60896in MyMiddleware.run()
LOG: Closed client: /10.0.0.11:49972in MyMiddleware.run()
LOG: Closed client: /10.0.0.11:49968in MyMiddleware.run()
LOG: Closed client: /10.0.0.11:49970in MyMiddleware.run()
LOG: Closed client: /10.0.0.11:49974in MyMiddleware.run()
LOG: Closed client: /10.0.0.11:49982in MyMiddleware.run()
LOG: Closed client: /10.0.0.11:49978in MyMiddleware.run()
LOG: Closed client: /10.0.0.11:49976in MyMiddleware.run()
LOG: Closed client: /10.0.0.11:49980in MyMiddleware.run()
LOG: Closed client: /10.0.0.7:50672in MyMiddleware.run()
LOG: Closed client: /10.0.0.7:50674in MyMiddleware.run()
LOG: Closed client: /10.0.0.7:50668in MyMiddleware.run()
LOG: Closed client: /10.0.0.7:50682in MyMiddleware.run()
LOG: Closed client: /10.0.0.7:50676in MyMiddleware.run()
LOG: Closed client: /10.0.0.7:50680in MyMiddleware.run()
LOG: Closed client: /10.0.0.7:50670in MyMiddleware.run()
LOG: Closed client: /10.0.0.7:50678in MyMiddleware.run()
