------------Middleware started!------------
LOG: Waiting for connection in MyMiddleware.run()
LOG: Accepted client: /10.0.0.7:39020in MyMiddleware.run()
LOG: Accepted client: /10.0.0.7:39018in MyMiddleware.run()
LOG: Accepted client: /10.0.0.7:39016in MyMiddleware.run()
LOG: Accepted client: /10.0.0.7:39014in MyMiddleware.run()
LOG: Accepted client: /10.0.0.7:39008in MyMiddleware.run()
LOG: Accepted client: /10.0.0.7:39010in MyMiddleware.run()
LOG: Accepted client: /10.0.0.7:39006in MyMiddleware.run()
LOG: Accepted client: /10.0.0.7:39012in MyMiddleware.run()
LOG: Accepted client: /10.0.0.6:49240in MyMiddleware.run()
LOG: Accepted client: /10.0.0.6:49228in MyMiddleware.run()
LOG: Accepted client: /10.0.0.6:49238in MyMiddleware.run()
LOG: Accepted client: /10.0.0.6:49242in MyMiddleware.run()
LOG: Accepted client: /10.0.0.6:49230in MyMiddleware.run()
LOG: Accepted client: /10.0.0.6:49236in MyMiddleware.run()
LOG: Accepted client: /10.0.0.11:38298in MyMiddleware.run()
LOG: Accepted client: /10.0.0.11:38304in MyMiddleware.run()
LOG: Accepted client: /10.0.0.11:38310in MyMiddleware.run()
LOG: Accepted client: /10.0.0.11:38306in MyMiddleware.run()
LOG: Accepted client: /10.0.0.11:38308in MyMiddleware.run()
LOG: Accepted client: /10.0.0.6:49232in MyMiddleware.run()
LOG: Accepted client: /10.0.0.6:49234in MyMiddleware.run()
LOG: Accepted client: /10.0.0.11:38300in MyMiddleware.run()
LOG: Accepted client: /10.0.0.11:38302in MyMiddleware.run()
LOG: Accepted client: /10.0.0.11:38312in MyMiddleware.run()
LOG: Closed client: /10.0.0.6:49232in MyMiddleware.run()
LOG: Closed client: /10.0.0.6:49234in MyMiddleware.run()
LOG: Closed client: /10.0.0.6:49238in MyMiddleware.run()
LOG: Closed client: /10.0.0.6:49228in MyMiddleware.run()
LOG: Closed client: /10.0.0.6:49236in MyMiddleware.run()
LOG: Closed client: /10.0.0.6:49230in MyMiddleware.run()
LOG: Closed client: /10.0.0.6:49242in MyMiddleware.run()
LOG: Closed client: /10.0.0.6:49240in MyMiddleware.run()
LOG: Closed client: /10.0.0.7:39012in MyMiddleware.run()
LOG: Closed client: /10.0.0.7:39010in MyMiddleware.run()
LOG: Closed client: /10.0.0.7:39016in MyMiddleware.run()
LOG: Closed client: /10.0.0.7:39018in MyMiddleware.run()
LOG: Closed client: /10.0.0.7:39008in MyMiddleware.run()
LOG: Closed client: /10.0.0.7:39020in MyMiddleware.run()
LOG: Closed client: /10.0.0.7:39006in MyMiddleware.run()
LOG: Closed client: /10.0.0.7:39014in MyMiddleware.run()
LOG: Closed client: /10.0.0.11:38304in MyMiddleware.run()
LOG: Closed client: /10.0.0.11:38312in MyMiddleware.run()
LOG: Closed client: /10.0.0.11:38300in MyMiddleware.run()
LOG: Closed client: /10.0.0.11:38310in MyMiddleware.run()
LOG: Closed client: /10.0.0.11:38308in MyMiddleware.run()
LOG: Closed client: /10.0.0.11:38306in MyMiddleware.run()
LOG: Closed client: /10.0.0.11:38302in MyMiddleware.run()
LOG: Closed client: /10.0.0.11:38298in MyMiddleware.run()
