------------Middleware started!------------
LOG: Waiting for connection in MyMiddleware.run()
LOG: Accepted client: /10.0.0.11:48704in MyMiddleware.run()
LOG: Accepted client: /10.0.0.11:48692in MyMiddleware.run()
LOG: Accepted client: /10.0.0.11:48706in MyMiddleware.run()
LOG: Accepted client: /10.0.0.11:48710in MyMiddleware.run()
LOG: Accepted client: /10.0.0.11:48688in MyMiddleware.run()
LOG: Accepted client: /10.0.0.11:48708in MyMiddleware.run()
LOG: Accepted client: /10.0.0.11:48760in MyMiddleware.run()
LOG: Accepted client: /10.0.0.11:48694in MyMiddleware.run()
LOG: Accepted client: /10.0.0.11:48734in MyMiddleware.run()
LOG: Accepted client: /10.0.0.11:48730in MyMiddleware.run()
LOG: Accepted client: /10.0.0.11:48764in MyMiddleware.run()
LOG: Accepted client: /10.0.0.11:48728in MyMiddleware.run()
LOG: Accepted client: /10.0.0.11:48762in MyMiddleware.run()
LOG: Accepted client: /10.0.0.11:48742in MyMiddleware.run()
LOG: Accepted client: /10.0.0.11:48740in MyMiddleware.run()
LOG: Accepted client: /10.0.0.11:48738in MyMiddleware.run()
LOG: Accepted client: /10.0.0.11:48690in MyMiddleware.run()
LOG: Accepted client: /10.0.0.11:48736in MyMiddleware.run()
LOG: Accepted client: /10.0.0.11:48732in MyMiddleware.run()
LOG: Accepted client: /10.0.0.11:48766in MyMiddleware.run()
LOG: Accepted client: /10.0.0.7:49392in MyMiddleware.run()
LOG: Accepted client: /10.0.0.7:49410in MyMiddleware.run()
LOG: Accepted client: /10.0.0.7:49404in MyMiddleware.run()
LOG: Accepted client: /10.0.0.7:49418in MyMiddleware.run()
LOG: Accepted client: /10.0.0.7:49448in MyMiddleware.run()
LOG: Accepted client: /10.0.0.7:49402in MyMiddleware.run()
LOG: Accepted client: /10.0.0.7:49506in MyMiddleware.run()
LOG: Accepted client: /10.0.0.7:49502in MyMiddleware.run()
LOG: Accepted client: /10.0.0.7:49428in MyMiddleware.run()
LOG: Accepted client: /10.0.0.7:49466in MyMiddleware.run()
LOG: Accepted client: /10.0.0.7:49396in MyMiddleware.run()
LOG: Accepted client: /10.0.0.7:49390in MyMiddleware.run()
LOG: Accepted client: /10.0.0.7:49388in MyMiddleware.run()
LOG: Accepted client: /10.0.0.7:49434in MyMiddleware.run()
LOG: Accepted client: /10.0.0.7:49394in MyMiddleware.run()
LOG: Accepted client: /10.0.0.7:49420in MyMiddleware.run()
LOG: Accepted client: /10.0.0.7:49412in MyMiddleware.run()
LOG: Accepted client: /10.0.0.7:49432in MyMiddleware.run()
LOG: Accepted client: /10.0.0.7:49504in MyMiddleware.run()
LOG: Accepted client: /10.0.0.7:49430in MyMiddleware.run()
LOG: Accepted client: /10.0.0.7:49484in MyMiddleware.run()
LOG: Accepted client: /10.0.0.7:49464in MyMiddleware.run()
LOG: Accepted client: /10.0.0.7:49398in MyMiddleware.run()
LOG: Accepted client: /10.0.0.7:49498in MyMiddleware.run()
LOG: Accepted client: /10.0.0.7:49422in MyMiddleware.run()
LOG: Accepted client: /10.0.0.7:49400in MyMiddleware.run()
LOG: Accepted client: /10.0.0.7:49454in MyMiddleware.run()
LOG: Accepted client: /10.0.0.7:49492in MyMiddleware.run()
LOG: Accepted client: /10.0.0.7:49510in MyMiddleware.run()
LOG: Accepted client: /10.0.0.7:49450in MyMiddleware.run()
LOG: Accepted client: /10.0.0.7:49408in MyMiddleware.run()
LOG: Accepted client: /10.0.0.7:49446in MyMiddleware.run()
LOG: Accepted client: /10.0.0.7:49460in MyMiddleware.run()
LOG: Accepted client: /10.0.0.7:49424in MyMiddleware.run()
LOG: Accepted client: /10.0.0.7:49496in MyMiddleware.run()
LOG: Accepted client: /10.0.0.7:49474in MyMiddleware.run()
LOG: Accepted client: /10.0.0.7:49426in MyMiddleware.run()
LOG: Accepted client: /10.0.0.7:49452in MyMiddleware.run()
LOG: Accepted client: /10.0.0.7:49470in MyMiddleware.run()
LOG: Accepted client: /10.0.0.7:49500in MyMiddleware.run()
LOG: Accepted client: /10.0.0.7:49406in MyMiddleware.run()
LOG: Accepted client: /10.0.0.7:49482in MyMiddleware.run()
LOG: Accepted client: /10.0.0.7:49480in MyMiddleware.run()
LOG: Accepted client: /10.0.0.7:49512in MyMiddleware.run()
LOG: Accepted client: /10.0.0.7:49456in MyMiddleware.run()
LOG: Accepted client: /10.0.0.7:49436in MyMiddleware.run()
LOG: Accepted client: /10.0.0.7:49476in MyMiddleware.run()
LOG: Accepted client: /10.0.0.7:49478in MyMiddleware.run()
LOG: Accepted client: /10.0.0.7:49438in MyMiddleware.run()
LOG: Accepted client: /10.0.0.7:49458in MyMiddleware.run()
LOG: Accepted client: /10.0.0.7:49472in MyMiddleware.run()
LOG: Accepted client: /10.0.0.7:49486in MyMiddleware.run()
LOG: Accepted client: /10.0.0.11:48700in MyMiddleware.run()
LOG: Accepted client: /10.0.0.11:48712in MyMiddleware.run()
LOG: Accepted client: /10.0.0.11:48756in MyMiddleware.run()
LOG: Accepted client: /10.0.0.11:48748in MyMiddleware.run()
LOG: Accepted client: /10.0.0.11:48724in MyMiddleware.run()
LOG: Accepted client: /10.0.0.11:48744in MyMiddleware.run()
LOG: Accepted client: /10.0.0.7:49440in MyMiddleware.run()
LOG: Accepted client: /10.0.0.7:49442in MyMiddleware.run()
LOG: Accepted client: /10.0.0.11:48788in MyMiddleware.run()
LOG: Accepted client: /10.0.0.7:49514in MyMiddleware.run()
LOG: Accepted client: /10.0.0.11:48774in MyMiddleware.run()
LOG: Accepted client: /10.0.0.11:48780in MyMiddleware.run()
LOG: Accepted client: /10.0.0.7:49416in MyMiddleware.run()
LOG: Accepted client: /10.0.0.7:49444in MyMiddleware.run()
LOG: Accepted client: /10.0.0.7:49490in MyMiddleware.run()
LOG: Accepted client: /10.0.0.7:49414in MyMiddleware.run()
LOG: Accepted client: /10.0.0.11:48798in MyMiddleware.run()
LOG: Accepted client: /10.0.0.7:49468in MyMiddleware.run()
LOG: Accepted client: /10.0.0.11:48806in MyMiddleware.run()
LOG: Accepted client: /10.0.0.11:48786in MyMiddleware.run()
LOG: Accepted client: /10.0.0.11:48778in MyMiddleware.run()
LOG: Accepted client: /10.0.0.11:48772in MyMiddleware.run()
LOG: Accepted client: /10.0.0.11:48790in MyMiddleware.run()
LOG: Accepted client: /10.0.0.11:48758in MyMiddleware.run()
LOG: Accepted client: /10.0.0.7:49462in MyMiddleware.run()
LOG: Accepted client: /10.0.0.11:48812in MyMiddleware.run()
LOG: Accepted client: /10.0.0.7:49488in MyMiddleware.run()
LOG: Accepted client: /10.0.0.7:49508in MyMiddleware.run()
LOG: Accepted client: /10.0.0.11:48726in MyMiddleware.run()
LOG: Accepted client: /10.0.0.11:48750in MyMiddleware.run()
LOG: Accepted client: /10.0.0.11:48796in MyMiddleware.run()
LOG: Accepted client: /10.0.0.11:48746in MyMiddleware.run()
LOG: Accepted client: /10.0.0.11:48718in MyMiddleware.run()
LOG: Accepted client: /10.0.0.11:48714in MyMiddleware.run()
LOG: Accepted client: /10.0.0.11:48698in MyMiddleware.run()
LOG: Accepted client: /10.0.0.11:48702in MyMiddleware.run()
LOG: Accepted client: /10.0.0.11:48716in MyMiddleware.run()
LOG: Accepted client: /10.0.0.11:48696in MyMiddleware.run()
LOG: Accepted client: /10.0.0.11:48754in MyMiddleware.run()
LOG: Accepted client: /10.0.0.11:48752in MyMiddleware.run()
LOG: Accepted client: /10.0.0.7:49494in MyMiddleware.run()
LOG: Accepted client: /10.0.0.11:48720in MyMiddleware.run()
LOG: Accepted client: /10.0.0.11:48722in MyMiddleware.run()
LOG: Accepted client: /10.0.0.11:48770in MyMiddleware.run()
LOG: Accepted client: /10.0.0.11:48800in MyMiddleware.run()
LOG: Accepted client: /10.0.0.11:48784in MyMiddleware.run()
LOG: Accepted client: /10.0.0.11:48814in MyMiddleware.run()
LOG: Accepted client: /10.0.0.11:48782in MyMiddleware.run()
LOG: Accepted client: /10.0.0.11:48802in MyMiddleware.run()
LOG: Accepted client: /10.0.0.11:48808in MyMiddleware.run()
LOG: Accepted client: /10.0.0.11:48804in MyMiddleware.run()
LOG: Accepted client: /10.0.0.11:48794in MyMiddleware.run()
LOG: Accepted client: /10.0.0.11:48810in MyMiddleware.run()
LOG: Accepted client: /10.0.0.11:48776in MyMiddleware.run()
LOG: Accepted client: /10.0.0.11:48792in MyMiddleware.run()
LOG: Accepted client: /10.0.0.11:48768in MyMiddleware.run()
LOG: Accepted client: /10.0.0.6:59646in MyMiddleware.run()
LOG: Accepted client: /10.0.0.6:59720in MyMiddleware.run()
LOG: Accepted client: /10.0.0.6:59644in MyMiddleware.run()
LOG: Accepted client: /10.0.0.6:59722in MyMiddleware.run()
LOG: Accepted client: /10.0.0.6:59688in MyMiddleware.run()
LOG: Accepted client: /10.0.0.6:59630in MyMiddleware.run()
LOG: Accepted client: /10.0.0.6:59654in MyMiddleware.run()
LOG: Accepted client: /10.0.0.6:59694in MyMiddleware.run()
LOG: Accepted client: /10.0.0.6:59714in MyMiddleware.run()
LOG: Accepted client: /10.0.0.6:59686in MyMiddleware.run()
LOG: Accepted client: /10.0.0.6:59636in MyMiddleware.run()
LOG: Accepted client: /10.0.0.6:59650in MyMiddleware.run()
LOG: Accepted client: /10.0.0.6:59642in MyMiddleware.run()
LOG: Accepted client: /10.0.0.6:59612in MyMiddleware.run()
LOG: Accepted client: /10.0.0.6:59664in MyMiddleware.run()
LOG: Accepted client: /10.0.0.6:59648in MyMiddleware.run()
LOG: Accepted client: /10.0.0.6:59730in MyMiddleware.run()
LOG: Accepted client: /10.0.0.6:59710in MyMiddleware.run()
LOG: Accepted client: /10.0.0.6:59704in MyMiddleware.run()
LOG: Accepted client: /10.0.0.6:59724in MyMiddleware.run()
LOG: Accepted client: /10.0.0.6:59628in MyMiddleware.run()
LOG: Accepted client: /10.0.0.6:59702in MyMiddleware.run()
LOG: Accepted client: /10.0.0.6:59666in MyMiddleware.run()
LOG: Accepted client: /10.0.0.6:59626in MyMiddleware.run()
LOG: Accepted client: /10.0.0.6:59670in MyMiddleware.run()
LOG: Accepted client: /10.0.0.6:59726in MyMiddleware.run()
LOG: Accepted client: /10.0.0.6:59656in MyMiddleware.run()
LOG: Accepted client: /10.0.0.6:59662in MyMiddleware.run()
LOG: Accepted client: /10.0.0.6:59610in MyMiddleware.run()
LOG: Accepted client: /10.0.0.6:59652in MyMiddleware.run()
LOG: Accepted client: /10.0.0.6:59680in MyMiddleware.run()
LOG: Accepted client: /10.0.0.6:59696in MyMiddleware.run()
LOG: Accepted client: /10.0.0.6:59614in MyMiddleware.run()
LOG: Accepted client: /10.0.0.6:59676in MyMiddleware.run()
LOG: Accepted client: /10.0.0.6:59732in MyMiddleware.run()
LOG: Accepted client: /10.0.0.6:59618in MyMiddleware.run()
LOG: Accepted client: /10.0.0.6:59684in MyMiddleware.run()
LOG: Accepted client: /10.0.0.6:59624in MyMiddleware.run()
LOG: Accepted client: /10.0.0.6:59632in MyMiddleware.run()
LOG: Accepted client: /10.0.0.6:59674in MyMiddleware.run()
LOG: Accepted client: /10.0.0.6:59706in MyMiddleware.run()
LOG: Accepted client: /10.0.0.6:59638in MyMiddleware.run()
LOG: Accepted client: /10.0.0.6:59734in MyMiddleware.run()
LOG: Accepted client: /10.0.0.6:59708in MyMiddleware.run()
LOG: Accepted client: /10.0.0.6:59634in MyMiddleware.run()
LOG: Accepted client: /10.0.0.6:59716in MyMiddleware.run()
LOG: Accepted client: /10.0.0.6:59728in MyMiddleware.run()
LOG: Accepted client: /10.0.0.6:59690in MyMiddleware.run()
LOG: Accepted client: /10.0.0.6:59682in MyMiddleware.run()
LOG: Accepted client: /10.0.0.6:59620in MyMiddleware.run()
LOG: Accepted client: /10.0.0.6:59660in MyMiddleware.run()
LOG: Accepted client: /10.0.0.6:59668in MyMiddleware.run()
LOG: Accepted client: /10.0.0.6:59658in MyMiddleware.run()
LOG: Accepted client: /10.0.0.6:59640in MyMiddleware.run()
LOG: Accepted client: /10.0.0.6:59712in MyMiddleware.run()
LOG: Accepted client: /10.0.0.6:59622in MyMiddleware.run()
LOG: Accepted client: /10.0.0.6:59678in MyMiddleware.run()
LOG: Accepted client: /10.0.0.6:59616in MyMiddleware.run()
LOG: Accepted client: /10.0.0.6:59700in MyMiddleware.run()
LOG: Accepted client: /10.0.0.6:59698in MyMiddleware.run()
LOG: Accepted client: /10.0.0.6:59672in MyMiddleware.run()
LOG: Accepted client: /10.0.0.6:59718in MyMiddleware.run()
LOG: Accepted client: /10.0.0.6:59692in MyMiddleware.run()
LOG: Accepted client: /10.0.0.6:59736in MyMiddleware.run()
LOG: Closed client: /10.0.0.7:49424in MyMiddleware.run()
LOG: Closed client: /10.0.0.7:49434in MyMiddleware.run()
LOG: Closed client: /10.0.0.7:49408in MyMiddleware.run()
LOG: Closed client: /10.0.0.7:49430in MyMiddleware.run()
LOG: Closed client: /10.0.0.7:49440in MyMiddleware.run()
LOG: Closed client: /10.0.0.7:49426in MyMiddleware.run()
LOG: Closed client: /10.0.0.7:49392in MyMiddleware.run()
LOG: Closed client: /10.0.0.7:49388in MyMiddleware.run()
LOG: Closed client: /10.0.0.7:49390in MyMiddleware.run()
LOG: Closed client: /10.0.0.7:49432in MyMiddleware.run()
LOG: Closed client: /10.0.0.7:49404in MyMiddleware.run()
LOG: Closed client: /10.0.0.7:49480in MyMiddleware.run()
LOG: Closed client: /10.0.0.7:49466in MyMiddleware.run()
LOG: Closed client: /10.0.0.7:49478in MyMiddleware.run()
LOG: Closed client: /10.0.0.7:49398in MyMiddleware.run()
LOG: Closed client: /10.0.0.7:49502in MyMiddleware.run()
LOG: Closed client: /10.0.0.7:49414in MyMiddleware.run()
LOG: Closed client: /10.0.0.7:49450in MyMiddleware.run()
LOG: Closed client: /10.0.0.7:49494in MyMiddleware.run()
LOG: Closed client: /10.0.0.7:49510in MyMiddleware.run()
LOG: Closed client: /10.0.0.7:49394in MyMiddleware.run()
LOG: Closed client: /10.0.0.7:49446in MyMiddleware.run()
LOG: Closed client: /10.0.0.7:49460in MyMiddleware.run()
LOG: Closed client: /10.0.0.7:49488in MyMiddleware.run()
LOG: Closed client: /10.0.0.7:49504in MyMiddleware.run()
LOG: Closed client: /10.0.0.7:49396in MyMiddleware.run()
LOG: Closed client: /10.0.0.7:49428in MyMiddleware.run()
LOG: Closed client: /10.0.0.7:49474in MyMiddleware.run()
LOG: Closed client: /10.0.0.7:49498in MyMiddleware.run()
LOG: Closed client: /10.0.0.7:49462in MyMiddleware.run()
LOG: Closed client: /10.0.0.7:49468in MyMiddleware.run()
LOG: Closed client: /10.0.0.7:49454in MyMiddleware.run()
LOG: Closed client: /10.0.0.7:49500in MyMiddleware.run()
LOG: Closed client: /10.0.0.7:49490in MyMiddleware.run()
LOG: Closed client: /10.0.0.7:49418in MyMiddleware.run()
LOG: Closed client: /10.0.0.7:49482in MyMiddleware.run()
LOG: Closed client: /10.0.0.7:49514in MyMiddleware.run()
LOG: Closed client: /10.0.0.7:49508in MyMiddleware.run()
LOG: Closed client: /10.0.0.7:49402in MyMiddleware.run()
LOG: Closed client: /10.0.0.7:49406in MyMiddleware.run()
LOG: Closed client: /10.0.0.7:49470in MyMiddleware.run()
LOG: Closed client: /10.0.0.7:49422in MyMiddleware.run()
LOG: Closed client: /10.0.0.7:49452in MyMiddleware.run()
LOG: Closed client: /10.0.0.7:49492in MyMiddleware.run()
LOG: Closed client: /10.0.0.7:49438in MyMiddleware.run()
LOG: Closed client: /10.0.0.7:49410in MyMiddleware.run()
LOG: Closed client: /10.0.0.7:49400in MyMiddleware.run()
LOG: Closed client: /10.0.0.7:49496in MyMiddleware.run()
LOG: Closed client: /10.0.0.7:49416in MyMiddleware.run()
LOG: Closed client: /10.0.0.7:49464in MyMiddleware.run()
LOG: Closed client: /10.0.0.7:49458in MyMiddleware.run()
LOG: Closed client: /10.0.0.7:49420in MyMiddleware.run()
LOG: Closed client: /10.0.0.7:49448in MyMiddleware.run()
LOG: Closed client: /10.0.0.7:49412in MyMiddleware.run()
LOG: Closed client: /10.0.0.7:49484in MyMiddleware.run()
LOG: Closed client: /10.0.0.7:49442in MyMiddleware.run()
LOG: Closed client: /10.0.0.7:49486in MyMiddleware.run()
LOG: Closed client: /10.0.0.7:49472in MyMiddleware.run()
LOG: Closed client: /10.0.0.7:49444in MyMiddleware.run()
LOG: Closed client: /10.0.0.7:49506in MyMiddleware.run()
LOG: Closed client: /10.0.0.7:49456in MyMiddleware.run()
LOG: Closed client: /10.0.0.7:49476in MyMiddleware.run()
LOG: Closed client: /10.0.0.7:49436in MyMiddleware.run()
LOG: Closed client: /10.0.0.7:49512in MyMiddleware.run()
LOG: Closed client: /10.0.0.11:48688in MyMiddleware.run()
LOG: Closed client: /10.0.0.11:48712in MyMiddleware.run()
LOG: Closed client: /10.0.0.11:48704in MyMiddleware.run()
LOG: Closed client: /10.0.0.11:48706in MyMiddleware.run()
LOG: Closed client: /10.0.0.11:48700in MyMiddleware.run()
LOG: Closed client: /10.0.0.11:48696in MyMiddleware.run()
LOG: Closed client: /10.0.0.11:48718in MyMiddleware.run()
LOG: Closed client: /10.0.0.11:48708in MyMiddleware.run()
LOG: Closed client: /10.0.0.11:48690in MyMiddleware.run()
LOG: Closed client: /10.0.0.11:48714in MyMiddleware.run()
LOG: Closed client: /10.0.0.11:48710in MyMiddleware.run()
LOG: Closed client: /10.0.0.11:48698in MyMiddleware.run()
LOG: Closed client: /10.0.0.11:48702in MyMiddleware.run()
LOG: Closed client: /10.0.0.11:48694in MyMiddleware.run()
LOG: Closed client: /10.0.0.11:48692in MyMiddleware.run()
LOG: Closed client: /10.0.0.11:48716in MyMiddleware.run()
LOG: Closed client: /10.0.0.11:48722in MyMiddleware.run()
LOG: Closed client: /10.0.0.11:48740in MyMiddleware.run()
LOG: Closed client: /10.0.0.11:48738in MyMiddleware.run()
LOG: Closed client: /10.0.0.11:48736in MyMiddleware.run()
LOG: Closed client: /10.0.0.11:48756in MyMiddleware.run()
LOG: Closed client: /10.0.0.11:48758in MyMiddleware.run()
LOG: Closed client: /10.0.0.11:48762in MyMiddleware.run()
LOG: Closed client: /10.0.0.11:48732in MyMiddleware.run()
LOG: Closed client: /10.0.0.11:48726in MyMiddleware.run()
LOG: Closed client: /10.0.0.11:48750in MyMiddleware.run()
LOG: Closed client: /10.0.0.11:48744in MyMiddleware.run()
LOG: Closed client: /10.0.0.11:48754in MyMiddleware.run()
LOG: Closed client: /10.0.0.11:48720in MyMiddleware.run()
LOG: Closed client: /10.0.0.11:48748in MyMiddleware.run()
LOG: Closed client: /10.0.0.11:48724in MyMiddleware.run()
LOG: Closed client: /10.0.0.11:48752in MyMiddleware.run()
LOG: Closed client: /10.0.0.11:48728in MyMiddleware.run()
LOG: Closed client: /10.0.0.11:48746in MyMiddleware.run()
LOG: Closed client: /10.0.0.11:48760in MyMiddleware.run()
LOG: Closed client: /10.0.0.11:48734in MyMiddleware.run()
LOG: Closed client: /10.0.0.11:48742in MyMiddleware.run()
LOG: Closed client: /10.0.0.11:48730in MyMiddleware.run()
LOG: Closed client: /10.0.0.11:48770in MyMiddleware.run()
LOG: Closed client: /10.0.0.11:48766in MyMiddleware.run()
LOG: Closed client: /10.0.0.11:48806in MyMiddleware.run()
LOG: Closed client: /10.0.0.11:48774in MyMiddleware.run()
LOG: Closed client: /10.0.0.11:48790in MyMiddleware.run()
LOG: Closed client: /10.0.0.11:48802in MyMiddleware.run()
LOG: Closed client: /10.0.0.11:48786in MyMiddleware.run()
LOG: Closed client: /10.0.0.11:48796in MyMiddleware.run()
LOG: Closed client: /10.0.0.11:48782in MyMiddleware.run()
LOG: Closed client: /10.0.0.11:48778in MyMiddleware.run()
LOG: Closed client: /10.0.0.11:48812in MyMiddleware.run()
LOG: Closed client: /10.0.0.11:48768in MyMiddleware.run()
LOG: Closed client: /10.0.0.11:48800in MyMiddleware.run()
LOG: Closed client: /10.0.0.11:48776in MyMiddleware.run()
LOG: Closed client: /10.0.0.11:48784in MyMiddleware.run()
LOG: Closed client: /10.0.0.11:48814in MyMiddleware.run()
LOG: Closed client: /10.0.0.11:48794in MyMiddleware.run()
LOG: Closed client: /10.0.0.11:48792in MyMiddleware.run()
LOG: Closed client: /10.0.0.11:48764in MyMiddleware.run()
LOG: Closed client: /10.0.0.11:48798in MyMiddleware.run()
LOG: Closed client: /10.0.0.11:48808in MyMiddleware.run()
LOG: Closed client: /10.0.0.11:48780in MyMiddleware.run()
LOG: Closed client: /10.0.0.11:48810in MyMiddleware.run()
LOG: Closed client: /10.0.0.11:48772in MyMiddleware.run()
LOG: Closed client: /10.0.0.11:48804in MyMiddleware.run()
LOG: Closed client: /10.0.0.11:48788in MyMiddleware.run()
LOG: Closed client: /10.0.0.6:59620in MyMiddleware.run()
LOG: Closed client: /10.0.0.6:59626in MyMiddleware.run()
LOG: Closed client: /10.0.0.6:59614in MyMiddleware.run()
LOG: Closed client: /10.0.0.6:59610in MyMiddleware.run()
LOG: Closed client: /10.0.0.6:59618in MyMiddleware.run()
LOG: Closed client: /10.0.0.6:59658in MyMiddleware.run()
LOG: Closed client: /10.0.0.6:59650in MyMiddleware.run()
LOG: Closed client: /10.0.0.6:59652in MyMiddleware.run()
LOG: Closed client: /10.0.0.6:59630in MyMiddleware.run()
LOG: Closed client: /10.0.0.6:59648in MyMiddleware.run()
LOG: Closed client: /10.0.0.6:59646in MyMiddleware.run()
LOG: Closed client: /10.0.0.6:59634in MyMiddleware.run()
LOG: Closed client: /10.0.0.6:59670in MyMiddleware.run()
LOG: Closed client: /10.0.0.6:59632in MyMiddleware.run()
LOG: Closed client: /10.0.0.6:59668in MyMiddleware.run()
LOG: Closed client: /10.0.0.6:59612in MyMiddleware.run()
LOG: Closed client: /10.0.0.6:59654in MyMiddleware.run()
LOG: Closed client: /10.0.0.6:59616in MyMiddleware.run()
LOG: Closed client: /10.0.0.6:59636in MyMiddleware.run()
LOG: Closed client: /10.0.0.6:59640in MyMiddleware.run()
LOG: Closed client: /10.0.0.6:59662in MyMiddleware.run()
LOG: Closed client: /10.0.0.6:59644in MyMiddleware.run()
LOG: Closed client: /10.0.0.6:59672in MyMiddleware.run()
LOG: Closed client: /10.0.0.6:59624in MyMiddleware.run()
LOG: Closed client: /10.0.0.6:59642in MyMiddleware.run()
LOG: Closed client: /10.0.0.6:59622in MyMiddleware.run()
LOG: Closed client: /10.0.0.6:59638in MyMiddleware.run()
LOG: Closed client: /10.0.0.6:59660in MyMiddleware.run()
LOG: Closed client: /10.0.0.6:59656in MyMiddleware.run()
LOG: Closed client: /10.0.0.6:59628in MyMiddleware.run()
LOG: Closed client: /10.0.0.6:59666in MyMiddleware.run()
LOG: Closed client: /10.0.0.6:59684in MyMiddleware.run()
LOG: Closed client: /10.0.0.6:59682in MyMiddleware.run()
LOG: Closed client: /10.0.0.6:59678in MyMiddleware.run()
LOG: Closed client: /10.0.0.6:59676in MyMiddleware.run()
LOG: Closed client: /10.0.0.6:59680in MyMiddleware.run()
LOG: Closed client: /10.0.0.6:59664in MyMiddleware.run()
LOG: Closed client: /10.0.0.6:59674in MyMiddleware.run()
LOG: Closed client: /10.0.0.6:59690in MyMiddleware.run()
LOG: Closed client: /10.0.0.6:59686in MyMiddleware.run()
LOG: Closed client: /10.0.0.6:59692in MyMiddleware.run()
LOG: Closed client: /10.0.0.6:59694in MyMiddleware.run()
LOG: Closed client: /10.0.0.6:59696in MyMiddleware.run()
LOG: Closed client: /10.0.0.6:59698in MyMiddleware.run()
LOG: Closed client: /10.0.0.6:59708in MyMiddleware.run()
LOG: Closed client: /10.0.0.6:59688in MyMiddleware.run()
LOG: Closed client: /10.0.0.6:59712in MyMiddleware.run()
LOG: Closed client: /10.0.0.6:59702in MyMiddleware.run()
LOG: Closed client: /10.0.0.6:59714in MyMiddleware.run()
LOG: Closed client: /10.0.0.6:59700in MyMiddleware.run()
LOG: Closed client: /10.0.0.6:59704in MyMiddleware.run()
LOG: Closed client: /10.0.0.6:59720in MyMiddleware.run()
LOG: Closed client: /10.0.0.6:59724in MyMiddleware.run()
LOG: Closed client: /10.0.0.6:59706in MyMiddleware.run()
LOG: Closed client: /10.0.0.6:59728in MyMiddleware.run()
LOG: Closed client: /10.0.0.6:59730in MyMiddleware.run()
LOG: Closed client: /10.0.0.6:59732in MyMiddleware.run()
LOG: Closed client: /10.0.0.6:59726in MyMiddleware.run()
LOG: Closed client: /10.0.0.6:59718in MyMiddleware.run()
LOG: Closed client: /10.0.0.6:59716in MyMiddleware.run()
LOG: Closed client: /10.0.0.6:59710in MyMiddleware.run()
LOG: Closed client: /10.0.0.6:59722in MyMiddleware.run()
LOG: Closed client: /10.0.0.6:59734in MyMiddleware.run()
LOG: Closed client: /10.0.0.6:59736in MyMiddleware.run()
