------------Middleware started!------------
LOG: Waiting for connection in MyMiddleware.run()
LOG: Accepted client: /10.0.0.7:59484in MyMiddleware.run()
LOG: Accepted client: /10.0.0.7:59486in MyMiddleware.run()
LOG: Accepted client: /10.0.0.11:58790in MyMiddleware.run()
LOG: Accepted client: /10.0.0.7:59510in MyMiddleware.run()
LOG: Accepted client: /10.0.0.7:59502in MyMiddleware.run()
LOG: Accepted client: /10.0.0.7:59524in MyMiddleware.run()
LOG: Accepted client: /10.0.0.7:59500in MyMiddleware.run()
LOG: Accepted client: /10.0.0.7:59494in MyMiddleware.run()
LOG: Accepted client: /10.0.0.7:59542in MyMiddleware.run()
LOG: Accepted client: /10.0.0.11:58798in MyMiddleware.run()
LOG: Accepted client: /10.0.0.7:59490in MyMiddleware.run()
LOG: Accepted client: /10.0.0.7:59492in MyMiddleware.run()
LOG: Accepted client: /10.0.0.11:58814in MyMiddleware.run()
LOG: Accepted client: /10.0.0.7:59518in MyMiddleware.run()
LOG: Accepted client: /10.0.0.11:58802in MyMiddleware.run()
LOG: Accepted client: /10.0.0.7:59504in MyMiddleware.run()
LOG: Accepted client: /10.0.0.11:58822in MyMiddleware.run()
LOG: Accepted client: /10.0.0.7:59526in MyMiddleware.run()
LOG: Accepted client: /10.0.0.7:59544in MyMiddleware.run()
LOG: Accepted client: /10.0.0.11:58816in MyMiddleware.run()
LOG: Accepted client: /10.0.0.7:59530in MyMiddleware.run()
LOG: Accepted client: /10.0.0.11:58826in MyMiddleware.run()
LOG: Accepted client: /10.0.0.11:58804in MyMiddleware.run()
LOG: Accepted client: /10.0.0.11:58776in MyMiddleware.run()
LOG: Accepted client: /10.0.0.11:58768in MyMiddleware.run()
LOG: Accepted client: /10.0.0.11:58812in MyMiddleware.run()
LOG: Accepted client: /10.0.0.7:59522in MyMiddleware.run()
LOG: Accepted client: /10.0.0.7:59496in MyMiddleware.run()
LOG: Accepted client: /10.0.0.7:59498in MyMiddleware.run()
LOG: Accepted client: /10.0.0.11:58774in MyMiddleware.run()
LOG: Accepted client: /10.0.0.11:58828in MyMiddleware.run()
LOG: Accepted client: /10.0.0.6:41482in MyMiddleware.run()
LOG: Accepted client: /10.0.0.11:58770in MyMiddleware.run()
LOG: Accepted client: /10.0.0.11:58784in MyMiddleware.run()
LOG: Accepted client: /10.0.0.11:58810in MyMiddleware.run()
LOG: Accepted client: /10.0.0.11:58824in MyMiddleware.run()
LOG: Accepted client: /10.0.0.11:58808in MyMiddleware.run()
LOG: Accepted client: /10.0.0.11:58782in MyMiddleware.run()
LOG: Accepted client: /10.0.0.7:59488in MyMiddleware.run()
LOG: Accepted client: /10.0.0.7:59508in MyMiddleware.run()
LOG: Accepted client: /10.0.0.7:59506in MyMiddleware.run()
LOG: Accepted client: /10.0.0.7:59528in MyMiddleware.run()
LOG: Accepted client: /10.0.0.11:58772in MyMiddleware.run()
LOG: Accepted client: /10.0.0.7:59546in MyMiddleware.run()
LOG: Accepted client: /10.0.0.11:58800in MyMiddleware.run()
LOG: Accepted client: /10.0.0.11:58786in MyMiddleware.run()
LOG: Accepted client: /10.0.0.11:58820in MyMiddleware.run()
LOG: Accepted client: /10.0.0.6:41480in MyMiddleware.run()
LOG: Accepted client: /10.0.0.11:58788in MyMiddleware.run()
LOG: Accepted client: /10.0.0.11:58806in MyMiddleware.run()
LOG: Accepted client: /10.0.0.11:58780in MyMiddleware.run()
LOG: Accepted client: /10.0.0.11:58766in MyMiddleware.run()
LOG: Accepted client: /10.0.0.11:58818in MyMiddleware.run()
LOG: Accepted client: /10.0.0.6:41504in MyMiddleware.run()
LOG: Accepted client: /10.0.0.6:41476in MyMiddleware.run()
LOG: Accepted client: /10.0.0.6:41502in MyMiddleware.run()
LOG: Accepted client: /10.0.0.6:41496in MyMiddleware.run()
LOG: Accepted client: /10.0.0.6:41470in MyMiddleware.run()
LOG: Accepted client: /10.0.0.6:41510in MyMiddleware.run()
LOG: Accepted client: /10.0.0.6:41478in MyMiddleware.run()
LOG: Accepted client: /10.0.0.7:59536in MyMiddleware.run()
LOG: Accepted client: /10.0.0.7:59512in MyMiddleware.run()
LOG: Accepted client: /10.0.0.7:59516in MyMiddleware.run()
LOG: Accepted client: /10.0.0.7:59514in MyMiddleware.run()
LOG: Accepted client: /10.0.0.7:59540in MyMiddleware.run()
LOG: Accepted client: /10.0.0.7:59538in MyMiddleware.run()
LOG: Accepted client: /10.0.0.7:59520in MyMiddleware.run()
LOG: Accepted client: /10.0.0.6:41468in MyMiddleware.run()
LOG: Accepted client: /10.0.0.6:41500in MyMiddleware.run()
LOG: Accepted client: /10.0.0.6:41526in MyMiddleware.run()
LOG: Accepted client: /10.0.0.6:41522in MyMiddleware.run()
LOG: Accepted client: /10.0.0.6:41506in MyMiddleware.run()
LOG: Accepted client: /10.0.0.6:41514in MyMiddleware.run()
LOG: Accepted client: /10.0.0.6:41488in MyMiddleware.run()
LOG: Accepted client: /10.0.0.6:41466in MyMiddleware.run()
LOG: Accepted client: /10.0.0.6:41498in MyMiddleware.run()
LOG: Accepted client: /10.0.0.6:41486in MyMiddleware.run()
LOG: Accepted client: /10.0.0.6:41474in MyMiddleware.run()
LOG: Accepted client: /10.0.0.6:41512in MyMiddleware.run()
LOG: Accepted client: /10.0.0.6:41524in MyMiddleware.run()
LOG: Accepted client: /10.0.0.6:41518in MyMiddleware.run()
LOG: Accepted client: /10.0.0.6:41484in MyMiddleware.run()
LOG: Accepted client: /10.0.0.6:41472in MyMiddleware.run()
LOG: Accepted client: /10.0.0.6:41516in MyMiddleware.run()
LOG: Accepted client: /10.0.0.11:58792in MyMiddleware.run()
LOG: Accepted client: /10.0.0.11:58794in MyMiddleware.run()
LOG: Accepted client: /10.0.0.7:59534in MyMiddleware.run()
LOG: Accepted client: /10.0.0.7:59532in MyMiddleware.run()
LOG: Accepted client: /10.0.0.6:41508in MyMiddleware.run()
LOG: Accepted client: /10.0.0.11:58778in MyMiddleware.run()
LOG: Accepted client: /10.0.0.11:58796in MyMiddleware.run()
LOG: Accepted client: /10.0.0.6:41494in MyMiddleware.run()
LOG: Accepted client: /10.0.0.6:41520in MyMiddleware.run()
LOG: Accepted client: /10.0.0.6:41528in MyMiddleware.run()
LOG: Accepted client: /10.0.0.6:41492in MyMiddleware.run()
LOG: Accepted client: /10.0.0.6:41490in MyMiddleware.run()
LOG: Closed client: /10.0.0.7:59504in MyMiddleware.run()
LOG: Closed client: /10.0.0.7:59484in MyMiddleware.run()
LOG: Closed client: /10.0.0.7:59496in MyMiddleware.run()
LOG: Closed client: /10.0.0.7:59490in MyMiddleware.run()
LOG: Closed client: /10.0.0.7:59486in MyMiddleware.run()
LOG: Closed client: /10.0.0.7:59518in MyMiddleware.run()
LOG: Closed client: /10.0.0.7:59546in MyMiddleware.run()
LOG: Closed client: /10.0.0.7:59516in MyMiddleware.run()
LOG: Closed client: /10.0.0.7:59534in MyMiddleware.run()
LOG: Closed client: /10.0.0.7:59512in MyMiddleware.run()
LOG: Closed client: /10.0.0.7:59530in MyMiddleware.run()
LOG: Closed client: /10.0.0.7:59492in MyMiddleware.run()
LOG: Closed client: /10.0.0.7:59524in MyMiddleware.run()
LOG: Closed client: /10.0.0.7:59532in MyMiddleware.run()
LOG: Closed client: /10.0.0.7:59536in MyMiddleware.run()
LOG: Closed client: /10.0.0.7:59544in MyMiddleware.run()
LOG: Closed client: /10.0.0.7:59526in MyMiddleware.run()
LOG: Closed client: /10.0.0.7:59520in MyMiddleware.run()
LOG: Closed client: /10.0.0.7:59538in MyMiddleware.run()
LOG: Closed client: /10.0.0.7:59494in MyMiddleware.run()
LOG: Closed client: /10.0.0.7:59500in MyMiddleware.run()
LOG: Closed client: /10.0.0.7:59528in MyMiddleware.run()
LOG: Closed client: /10.0.0.7:59510in MyMiddleware.run()
LOG: Closed client: /10.0.0.7:59514in MyMiddleware.run()
LOG: Closed client: /10.0.0.7:59508in MyMiddleware.run()
LOG: Closed client: /10.0.0.7:59502in MyMiddleware.run()
LOG: Closed client: /10.0.0.7:59506in MyMiddleware.run()
LOG: Closed client: /10.0.0.7:59540in MyMiddleware.run()
LOG: Closed client: /10.0.0.7:59488in MyMiddleware.run()
LOG: Closed client: /10.0.0.7:59542in MyMiddleware.run()
LOG: Closed client: /10.0.0.7:59522in MyMiddleware.run()
LOG: Closed client: /10.0.0.7:59498in MyMiddleware.run()
LOG: Closed client: /10.0.0.11:58778in MyMiddleware.run()
LOG: Closed client: /10.0.0.11:58776in MyMiddleware.run()
LOG: Closed client: /10.0.0.11:58790in MyMiddleware.run()
LOG: Closed client: /10.0.0.11:58780in MyMiddleware.run()
LOG: Closed client: /10.0.0.11:58782in MyMiddleware.run()
LOG: Closed client: /10.0.0.11:58816in MyMiddleware.run()
LOG: Closed client: /10.0.0.11:58770in MyMiddleware.run()
LOG: Closed client: /10.0.0.11:58784in MyMiddleware.run()
LOG: Closed client: /10.0.0.11:58802in MyMiddleware.run()
LOG: Closed client: /10.0.0.11:58804in MyMiddleware.run()
LOG: Closed client: /10.0.0.11:58774in MyMiddleware.run()
LOG: Closed client: /10.0.0.11:58820in MyMiddleware.run()
LOG: Closed client: /10.0.0.11:58772in MyMiddleware.run()
LOG: Closed client: /10.0.0.11:58822in MyMiddleware.run()
LOG: Closed client: /10.0.0.11:58812in MyMiddleware.run()
LOG: Closed client: /10.0.0.11:58806in MyMiddleware.run()
LOG: Closed client: /10.0.0.11:58798in MyMiddleware.run()
LOG: Closed client: /10.0.0.11:58800in MyMiddleware.run()
LOG: Closed client: /10.0.0.11:58796in MyMiddleware.run()
LOG: Closed client: /10.0.0.11:58826in MyMiddleware.run()
LOG: Closed client: /10.0.0.11:58814in MyMiddleware.run()
LOG: Closed client: /10.0.0.11:58786in MyMiddleware.run()
LOG: Closed client: /10.0.0.11:58788in MyMiddleware.run()
LOG: Closed client: /10.0.0.11:58792in MyMiddleware.run()
LOG: Closed client: /10.0.0.11:58810in MyMiddleware.run()
LOG: Closed client: /10.0.0.11:58824in MyMiddleware.run()
LOG: Closed client: /10.0.0.11:58768in MyMiddleware.run()
LOG: Closed client: /10.0.0.11:58766in MyMiddleware.run()
LOG: Closed client: /10.0.0.11:58818in MyMiddleware.run()
LOG: Closed client: /10.0.0.11:58808in MyMiddleware.run()
LOG: Closed client: /10.0.0.11:58794in MyMiddleware.run()
LOG: Closed client: /10.0.0.11:58828in MyMiddleware.run()
LOG: Closed client: /10.0.0.6:41468in MyMiddleware.run()
LOG: Closed client: /10.0.0.6:41470in MyMiddleware.run()
LOG: Closed client: /10.0.0.6:41480in MyMiddleware.run()
LOG: Closed client: /10.0.0.6:41482in MyMiddleware.run()
LOG: Closed client: /10.0.0.6:41476in MyMiddleware.run()
LOG: Closed client: /10.0.0.6:41504in MyMiddleware.run()
LOG: Closed client: /10.0.0.6:41488in MyMiddleware.run()
LOG: Closed client: /10.0.0.6:41498in MyMiddleware.run()
LOG: Closed client: /10.0.0.6:41486in MyMiddleware.run()
LOG: Closed client: /10.0.0.6:41510in MyMiddleware.run()
LOG: Closed client: /10.0.0.6:41472in MyMiddleware.run()
LOG: Closed client: /10.0.0.6:41494in MyMiddleware.run()
LOG: Closed client: /10.0.0.6:41506in MyMiddleware.run()
LOG: Closed client: /10.0.0.6:41502in MyMiddleware.run()
LOG: Closed client: /10.0.0.6:41478in MyMiddleware.run()
LOG: Closed client: /10.0.0.6:41484in MyMiddleware.run()
LOG: Closed client: /10.0.0.6:41490in MyMiddleware.run()
LOG: Closed client: /10.0.0.6:41466in MyMiddleware.run()
LOG: Closed client: /10.0.0.6:41514in MyMiddleware.run()
LOG: Closed client: /10.0.0.6:41508in MyMiddleware.run()
LOG: Closed client: /10.0.0.6:41516in MyMiddleware.run()
LOG: Closed client: /10.0.0.6:41500in MyMiddleware.run()
LOG: Closed client: /10.0.0.6:41492in MyMiddleware.run()
LOG: Closed client: /10.0.0.6:41526in MyMiddleware.run()
LOG: Closed client: /10.0.0.6:41528in MyMiddleware.run()
LOG: Closed client: /10.0.0.6:41520in MyMiddleware.run()
LOG: Closed client: /10.0.0.6:41474in MyMiddleware.run()
LOG: Closed client: /10.0.0.6:41524in MyMiddleware.run()
LOG: Closed client: /10.0.0.6:41522in MyMiddleware.run()
LOG: Closed client: /10.0.0.6:41512in MyMiddleware.run()
LOG: Closed client: /10.0.0.6:41518in MyMiddleware.run()
LOG: Closed client: /10.0.0.6:41496in MyMiddleware.run()
