------------Middleware started!------------
LOG: Waiting for connection in MyMiddleware.run()
LOG: Accepted client: /10.0.0.7:54824in MyMiddleware.run()
LOG: Accepted client: /10.0.0.7:54830in MyMiddleware.run()
LOG: Accepted client: /10.0.0.7:54828in MyMiddleware.run()
LOG: Accepted client: /10.0.0.7:54844in MyMiddleware.run()
LOG: Accepted client: /10.0.0.7:54816in MyMiddleware.run()
LOG: Accepted client: /10.0.0.7:54832in MyMiddleware.run()
LOG: Accepted client: /10.0.0.7:54820in MyMiddleware.run()
LOG: Accepted client: /10.0.0.7:54838in MyMiddleware.run()
LOG: Accepted client: /10.0.0.7:54834in MyMiddleware.run()
LOG: Accepted client: /10.0.0.7:54826in MyMiddleware.run()
LOG: Accepted client: /10.0.0.7:54822in MyMiddleware.run()
LOG: Accepted client: /10.0.0.7:54840in MyMiddleware.run()
LOG: Accepted client: /10.0.0.7:54836in MyMiddleware.run()
LOG: Accepted client: /10.0.0.7:54842in MyMiddleware.run()
LOG: Accepted client: /10.0.0.7:54846in MyMiddleware.run()
LOG: Accepted client: /10.0.0.7:54818in MyMiddleware.run()
LOG: Accepted client: /10.0.0.11:54118in MyMiddleware.run()
LOG: Accepted client: /10.0.0.11:54116in MyMiddleware.run()
LOG: Accepted client: /10.0.0.11:54130in MyMiddleware.run()
LOG: Accepted client: /10.0.0.11:54128in MyMiddleware.run()
LOG: Accepted client: /10.0.0.11:54120in MyMiddleware.run()
LOG: Accepted client: /10.0.0.11:54126in MyMiddleware.run()
LOG: Accepted client: /10.0.0.11:54124in MyMiddleware.run()
LOG: Accepted client: /10.0.0.11:54138in MyMiddleware.run()
LOG: Accepted client: /10.0.0.11:54140in MyMiddleware.run()
LOG: Accepted client: /10.0.0.11:54132in MyMiddleware.run()
LOG: Accepted client: /10.0.0.11:54134in MyMiddleware.run()
LOG: Accepted client: /10.0.0.11:54144in MyMiddleware.run()
LOG: Accepted client: /10.0.0.11:54146in MyMiddleware.run()
LOG: Accepted client: /10.0.0.11:54122in MyMiddleware.run()
LOG: Accepted client: /10.0.0.11:54136in MyMiddleware.run()
LOG: Accepted client: /10.0.0.11:54142in MyMiddleware.run()
LOG: Accepted client: /10.0.0.6:36816in MyMiddleware.run()
LOG: Accepted client: /10.0.0.6:36830in MyMiddleware.run()
LOG: Accepted client: /10.0.0.6:36828in MyMiddleware.run()
LOG: Accepted client: /10.0.0.6:36840in MyMiddleware.run()
LOG: Accepted client: /10.0.0.6:36838in MyMiddleware.run()
LOG: Accepted client: /10.0.0.6:36836in MyMiddleware.run()
LOG: Accepted client: /10.0.0.6:36810in MyMiddleware.run()
LOG: Accepted client: /10.0.0.6:36818in MyMiddleware.run()
LOG: Accepted client: /10.0.0.6:36814in MyMiddleware.run()
LOG: Accepted client: /10.0.0.6:36812in MyMiddleware.run()
LOG: Accepted client: /10.0.0.6:36834in MyMiddleware.run()
LOG: Accepted client: /10.0.0.6:36832in MyMiddleware.run()
LOG: Accepted client: /10.0.0.6:36820in MyMiddleware.run()
LOG: Accepted client: /10.0.0.6:36822in MyMiddleware.run()
LOG: Accepted client: /10.0.0.6:36826in MyMiddleware.run()
LOG: Accepted client: /10.0.0.6:36824in MyMiddleware.run()
LOG: Closed client: /10.0.0.7:54816in MyMiddleware.run()
LOG: Closed client: /10.0.0.7:54824in MyMiddleware.run()
LOG: Closed client: /10.0.0.7:54826in MyMiddleware.run()
LOG: Closed client: /10.0.0.7:54820in MyMiddleware.run()
LOG: Closed client: /10.0.0.7:54818in MyMiddleware.run()
LOG: Closed client: /10.0.0.7:54834in MyMiddleware.run()
LOG: Closed client: /10.0.0.7:54836in MyMiddleware.run()
LOG: Closed client: /10.0.0.7:54832in MyMiddleware.run()
LOG: Closed client: /10.0.0.7:54838in MyMiddleware.run()
LOG: Closed client: /10.0.0.7:54842in MyMiddleware.run()
LOG: Closed client: /10.0.0.7:54822in MyMiddleware.run()
LOG: Closed client: /10.0.0.7:54840in MyMiddleware.run()
LOG: Closed client: /10.0.0.7:54844in MyMiddleware.run()
LOG: Closed client: /10.0.0.7:54846in MyMiddleware.run()
LOG: Closed client: /10.0.0.7:54828in MyMiddleware.run()
LOG: Closed client: /10.0.0.7:54830in MyMiddleware.run()
LOG: Closed client: /10.0.0.11:54124in MyMiddleware.run()
LOG: Closed client: /10.0.0.11:54128in MyMiddleware.run()
LOG: Closed client: /10.0.0.11:54142in MyMiddleware.run()
LOG: Closed client: /10.0.0.11:54122in MyMiddleware.run()
LOG: Closed client: /10.0.0.11:54146in MyMiddleware.run()
LOG: Closed client: /10.0.0.11:54118in MyMiddleware.run()
LOG: Closed client: /10.0.0.11:54130in MyMiddleware.run()
LOG: Closed client: /10.0.0.11:54120in MyMiddleware.run()
LOG: Closed client: /10.0.0.11:54144in MyMiddleware.run()
LOG: Closed client: /10.0.0.11:54134in MyMiddleware.run()
LOG: Closed client: /10.0.0.11:54126in MyMiddleware.run()
LOG: Closed client: /10.0.0.11:54116in MyMiddleware.run()
LOG: Closed client: /10.0.0.11:54132in MyMiddleware.run()
LOG: Closed client: /10.0.0.11:54140in MyMiddleware.run()
LOG: Closed client: /10.0.0.11:54138in MyMiddleware.run()
LOG: Closed client: /10.0.0.11:54136in MyMiddleware.run()
LOG: Closed client: /10.0.0.6:36818in MyMiddleware.run()
LOG: Closed client: /10.0.0.6:36816in MyMiddleware.run()
LOG: Closed client: /10.0.0.6:36840in MyMiddleware.run()
LOG: Closed client: /10.0.0.6:36836in MyMiddleware.run()
LOG: Closed client: /10.0.0.6:36824in MyMiddleware.run()
LOG: Closed client: /10.0.0.6:36810in MyMiddleware.run()
LOG: Closed client: /10.0.0.6:36822in MyMiddleware.run()
LOG: Closed client: /10.0.0.6:36814in MyMiddleware.run()
LOG: Closed client: /10.0.0.6:36832in MyMiddleware.run()
LOG: Closed client: /10.0.0.6:36838in MyMiddleware.run()
LOG: Closed client: /10.0.0.6:36812in MyMiddleware.run()
LOG: Closed client: /10.0.0.6:36828in MyMiddleware.run()
LOG: Closed client: /10.0.0.6:36830in MyMiddleware.run()
LOG: Closed client: /10.0.0.6:36826in MyMiddleware.run()
LOG: Closed client: /10.0.0.6:36834in MyMiddleware.run()
LOG: Closed client: /10.0.0.6:36820in MyMiddleware.run()
