------------Middleware started!------------
LOG: Waiting for connection in MyMiddleware.run()
LOG: Accepted client: /10.0.0.7:57950in MyMiddleware.run()
LOG: Accepted client: /10.0.0.7:57944in MyMiddleware.run()
LOG: Accepted client: /10.0.0.7:57970in MyMiddleware.run()
LOG: Accepted client: /10.0.0.7:57972in MyMiddleware.run()
LOG: Accepted client: /10.0.0.7:57946in MyMiddleware.run()
LOG: Accepted client: /10.0.0.7:57966in MyMiddleware.run()
LOG: Accepted client: /10.0.0.7:57938in MyMiddleware.run()
LOG: Accepted client: /10.0.0.7:57962in MyMiddleware.run()
LOG: Accepted client: /10.0.0.7:57968in MyMiddleware.run()
LOG: Accepted client: /10.0.0.7:57986in MyMiddleware.run()
LOG: Accepted client: /10.0.0.11:57248in MyMiddleware.run()
LOG: Accepted client: /10.0.0.11:57260in MyMiddleware.run()
LOG: Accepted client: /10.0.0.7:57960in MyMiddleware.run()
LOG: Accepted client: /10.0.0.7:57990in MyMiddleware.run()
LOG: Accepted client: /10.0.0.11:57294in MyMiddleware.run()
LOG: Accepted client: /10.0.0.7:57994in MyMiddleware.run()
LOG: Accepted client: /10.0.0.7:57958in MyMiddleware.run()
LOG: Accepted client: /10.0.0.11:57292in MyMiddleware.run()
LOG: Accepted client: /10.0.0.11:57262in MyMiddleware.run()
LOG: Accepted client: /10.0.0.11:57238in MyMiddleware.run()
LOG: Accepted client: /10.0.0.11:57236in MyMiddleware.run()
LOG: Accepted client: /10.0.0.7:57992in MyMiddleware.run()
LOG: Accepted client: /10.0.0.7:57952in MyMiddleware.run()
LOG: Accepted client: /10.0.0.11:57258in MyMiddleware.run()
LOG: Accepted client: /10.0.0.7:57964in MyMiddleware.run()
LOG: Accepted client: /10.0.0.7:57996in MyMiddleware.run()
LOG: Accepted client: /10.0.0.7:57940in MyMiddleware.run()
LOG: Accepted client: /10.0.0.11:57246in MyMiddleware.run()
LOG: Accepted client: /10.0.0.7:57982in MyMiddleware.run()
LOG: Accepted client: /10.0.0.7:57988in MyMiddleware.run()
LOG: Accepted client: /10.0.0.11:57256in MyMiddleware.run()
LOG: Accepted client: /10.0.0.7:57948in MyMiddleware.run()
LOG: Accepted client: /10.0.0.7:57976in MyMiddleware.run()
LOG: Accepted client: /10.0.0.11:57286in MyMiddleware.run()
LOG: Accepted client: /10.0.0.11:57264in MyMiddleware.run()
LOG: Accepted client: /10.0.0.7:57978in MyMiddleware.run()
LOG: Accepted client: /10.0.0.7:57942in MyMiddleware.run()
LOG: Accepted client: /10.0.0.7:57974in MyMiddleware.run()
LOG: Accepted client: /10.0.0.11:57276in MyMiddleware.run()
LOG: Accepted client: /10.0.0.7:57956in MyMiddleware.run()
LOG: Accepted client: /10.0.0.11:57278in MyMiddleware.run()
LOG: Accepted client: /10.0.0.11:57234in MyMiddleware.run()
LOG: Accepted client: /10.0.0.7:57998in MyMiddleware.run()
LOG: Accepted client: /10.0.0.7:57954in MyMiddleware.run()
LOG: Accepted client: /10.0.0.11:57268in MyMiddleware.run()
LOG: Accepted client: /10.0.0.11:57296in MyMiddleware.run()
LOG: Accepted client: /10.0.0.7:58000in MyMiddleware.run()
LOG: Accepted client: /10.0.0.11:57266in MyMiddleware.run()
LOG: Accepted client: /10.0.0.11:57280in MyMiddleware.run()
LOG: Accepted client: /10.0.0.11:57250in MyMiddleware.run()
LOG: Accepted client: /10.0.0.7:57984in MyMiddleware.run()
LOG: Accepted client: /10.0.0.11:57272in MyMiddleware.run()
LOG: Accepted client: /10.0.0.11:57254in MyMiddleware.run()
LOG: Accepted client: /10.0.0.6:39966in MyMiddleware.run()
LOG: Accepted client: /10.0.0.6:39940in MyMiddleware.run()
LOG: Accepted client: /10.0.0.11:57284in MyMiddleware.run()
LOG: Accepted client: /10.0.0.11:57244in MyMiddleware.run()
LOG: Accepted client: /10.0.0.11:57290in MyMiddleware.run()
LOG: Accepted client: /10.0.0.11:57288in MyMiddleware.run()
LOG: Accepted client: /10.0.0.6:39968in MyMiddleware.run()
LOG: Accepted client: /10.0.0.6:39970in MyMiddleware.run()
LOG: Accepted client: /10.0.0.6:39950in MyMiddleware.run()
LOG: Accepted client: /10.0.0.6:39962in MyMiddleware.run()
LOG: Accepted client: /10.0.0.6:39956in MyMiddleware.run()
LOG: Accepted client: /10.0.0.6:39990in MyMiddleware.run()
LOG: Accepted client: /10.0.0.11:57252in MyMiddleware.run()
LOG: Accepted client: /10.0.0.11:57240in MyMiddleware.run()
LOG: Accepted client: /10.0.0.11:57270in MyMiddleware.run()
LOG: Accepted client: /10.0.0.11:57282in MyMiddleware.run()
LOG: Accepted client: /10.0.0.11:57242in MyMiddleware.run()
LOG: Accepted client: /10.0.0.7:57980in MyMiddleware.run()
LOG: Accepted client: /10.0.0.6:39946in MyMiddleware.run()
LOG: Accepted client: /10.0.0.6:39974in MyMiddleware.run()
LOG: Accepted client: /10.0.0.6:39958in MyMiddleware.run()
LOG: Accepted client: /10.0.0.6:39976in MyMiddleware.run()
LOG: Accepted client: /10.0.0.6:39942in MyMiddleware.run()
LOG: Accepted client: /10.0.0.6:39978in MyMiddleware.run()
LOG: Accepted client: /10.0.0.11:57274in MyMiddleware.run()
LOG: Accepted client: /10.0.0.6:39948in MyMiddleware.run()
LOG: Accepted client: /10.0.0.6:39936in MyMiddleware.run()
LOG: Accepted client: /10.0.0.6:39980in MyMiddleware.run()
LOG: Accepted client: /10.0.0.6:39938in MyMiddleware.run()
LOG: Accepted client: /10.0.0.6:39982in MyMiddleware.run()
LOG: Accepted client: /10.0.0.6:39998in MyMiddleware.run()
LOG: Accepted client: /10.0.0.6:39954in MyMiddleware.run()
LOG: Accepted client: /10.0.0.6:39996in MyMiddleware.run()
LOG: Accepted client: /10.0.0.6:39944in MyMiddleware.run()
LOG: Accepted client: /10.0.0.6:39952in MyMiddleware.run()
LOG: Accepted client: /10.0.0.6:39988in MyMiddleware.run()
LOG: Accepted client: /10.0.0.6:39992in MyMiddleware.run()
LOG: Accepted client: /10.0.0.6:39972in MyMiddleware.run()
LOG: Accepted client: /10.0.0.6:39960in MyMiddleware.run()
LOG: Accepted client: /10.0.0.6:39994in MyMiddleware.run()
LOG: Accepted client: /10.0.0.6:39964in MyMiddleware.run()
LOG: Accepted client: /10.0.0.6:39984in MyMiddleware.run()
LOG: Accepted client: /10.0.0.6:39986in MyMiddleware.run()
LOG: Closed client: /10.0.0.11:57248in MyMiddleware.run()
LOG: Closed client: /10.0.0.11:57260in MyMiddleware.run()
LOG: Closed client: /10.0.0.11:57240in MyMiddleware.run()
LOG: Closed client: /10.0.0.11:57238in MyMiddleware.run()
LOG: Closed client: /10.0.0.7:57986in MyMiddleware.run()
LOG: Closed client: /10.0.0.7:57948in MyMiddleware.run()
LOG: Closed client: /10.0.0.7:57978in MyMiddleware.run()
LOG: Closed client: /10.0.0.7:57972in MyMiddleware.run()
LOG: Closed client: /10.0.0.11:57242in MyMiddleware.run()
LOG: Closed client: /10.0.0.11:57280in MyMiddleware.run()
LOG: Closed client: /10.0.0.7:57988in MyMiddleware.run()
LOG: Closed client: /10.0.0.11:57250in MyMiddleware.run()
LOG: Closed client: /10.0.0.7:57944in MyMiddleware.run()
LOG: Closed client: /10.0.0.7:57994in MyMiddleware.run()
LOG: Closed client: /10.0.0.11:57256in MyMiddleware.run()
LOG: Closed client: /10.0.0.11:57276in MyMiddleware.run()
LOG: Closed client: /10.0.0.11:57294in MyMiddleware.run()
LOG: Closed client: /10.0.0.11:57296in MyMiddleware.run()
LOG: Closed client: /10.0.0.11:57274in MyMiddleware.run()
LOG: Closed client: /10.0.0.7:57956in MyMiddleware.run()
LOG: Closed client: /10.0.0.7:57962in MyMiddleware.run()
LOG: Closed client: /10.0.0.11:57262in MyMiddleware.run()
LOG: Closed client: /10.0.0.7:57954in MyMiddleware.run()
LOG: Closed client: /10.0.0.11:57288in MyMiddleware.run()
LOG: Closed client: /10.0.0.7:57976in MyMiddleware.run()
LOG: Closed client: /10.0.0.7:57942in MyMiddleware.run()
LOG: Closed client: /10.0.0.11:57246in MyMiddleware.run()
LOG: Closed client: /10.0.0.7:57940in MyMiddleware.run()
LOG: Closed client: /10.0.0.11:57234in MyMiddleware.run()
LOG: Closed client: /10.0.0.7:57992in MyMiddleware.run()
LOG: Closed client: /10.0.0.7:57990in MyMiddleware.run()
LOG: Closed client: /10.0.0.11:57252in MyMiddleware.run()
LOG: Closed client: /10.0.0.11:57264in MyMiddleware.run()
LOG: Closed client: /10.0.0.11:57292in MyMiddleware.run()
LOG: Closed client: /10.0.0.11:57286in MyMiddleware.run()
LOG: Closed client: /10.0.0.7:57996in MyMiddleware.run()
LOG: Closed client: /10.0.0.7:57938in MyMiddleware.run()
LOG: Closed client: /10.0.0.7:57974in MyMiddleware.run()
LOG: Closed client: /10.0.0.7:57970in MyMiddleware.run()
LOG: Closed client: /10.0.0.11:57266in MyMiddleware.run()
LOG: Closed client: /10.0.0.11:57258in MyMiddleware.run()
LOG: Closed client: /10.0.0.7:57982in MyMiddleware.run()
LOG: Closed client: /10.0.0.7:57952in MyMiddleware.run()
LOG: Closed client: /10.0.0.7:57980in MyMiddleware.run()
LOG: Closed client: /10.0.0.7:57968in MyMiddleware.run()
LOG: Closed client: /10.0.0.7:57984in MyMiddleware.run()
LOG: Closed client: /10.0.0.11:57290in MyMiddleware.run()
LOG: Closed client: /10.0.0.11:57272in MyMiddleware.run()
LOG: Closed client: /10.0.0.11:57284in MyMiddleware.run()
LOG: Closed client: /10.0.0.11:57278in MyMiddleware.run()
LOG: Closed client: /10.0.0.7:57960in MyMiddleware.run()
LOG: Closed client: /10.0.0.11:57270in MyMiddleware.run()
LOG: Closed client: /10.0.0.11:57282in MyMiddleware.run()
LOG: Closed client: /10.0.0.7:57966in MyMiddleware.run()
LOG: Closed client: /10.0.0.7:57946in MyMiddleware.run()
LOG: Closed client: /10.0.0.7:57958in MyMiddleware.run()
LOG: Closed client: /10.0.0.7:57950in MyMiddleware.run()
LOG: Closed client: /10.0.0.11:57254in MyMiddleware.run()
LOG: Closed client: /10.0.0.11:57236in MyMiddleware.run()
LOG: Closed client: /10.0.0.11:57244in MyMiddleware.run()
LOG: Closed client: /10.0.0.7:57964in MyMiddleware.run()
LOG: Closed client: /10.0.0.7:58000in MyMiddleware.run()
LOG: Closed client: /10.0.0.7:57998in MyMiddleware.run()
LOG: Closed client: /10.0.0.11:57268in MyMiddleware.run()
LOG: Closed client: /10.0.0.6:39946in MyMiddleware.run()
LOG: Closed client: /10.0.0.6:39968in MyMiddleware.run()
LOG: Closed client: /10.0.0.6:39948in MyMiddleware.run()
LOG: Closed client: /10.0.0.6:39962in MyMiddleware.run()
LOG: Closed client: /10.0.0.6:39942in MyMiddleware.run()
LOG: Closed client: /10.0.0.6:39960in MyMiddleware.run()
LOG: Closed client: /10.0.0.6:39998in MyMiddleware.run()
LOG: Closed client: /10.0.0.6:39972in MyMiddleware.run()
LOG: Closed client: /10.0.0.6:39994in MyMiddleware.run()
LOG: Closed client: /10.0.0.6:39978in MyMiddleware.run()
LOG: Closed client: /10.0.0.6:39976in MyMiddleware.run()
LOG: Closed client: /10.0.0.6:39970in MyMiddleware.run()
LOG: Closed client: /10.0.0.6:39958in MyMiddleware.run()
LOG: Closed client: /10.0.0.6:39956in MyMiddleware.run()
LOG: Closed client: /10.0.0.6:39954in MyMiddleware.run()
LOG: Closed client: /10.0.0.6:39938in MyMiddleware.run()
LOG: Closed client: /10.0.0.6:39950in MyMiddleware.run()
LOG: Closed client: /10.0.0.6:39990in MyMiddleware.run()
LOG: Closed client: /10.0.0.6:39996in MyMiddleware.run()
LOG: Closed client: /10.0.0.6:39936in MyMiddleware.run()
LOG: Closed client: /10.0.0.6:39964in MyMiddleware.run()
LOG: Closed client: /10.0.0.6:39952in MyMiddleware.run()
LOG: Closed client: /10.0.0.6:39944in MyMiddleware.run()
LOG: Closed client: /10.0.0.6:39966in MyMiddleware.run()
LOG: Closed client: /10.0.0.6:39984in MyMiddleware.run()
LOG: Closed client: /10.0.0.6:39940in MyMiddleware.run()
LOG: Closed client: /10.0.0.6:39974in MyMiddleware.run()
LOG: Closed client: /10.0.0.6:39992in MyMiddleware.run()
LOG: Closed client: /10.0.0.6:39988in MyMiddleware.run()
LOG: Closed client: /10.0.0.6:39982in MyMiddleware.run()
LOG: Closed client: /10.0.0.6:39980in MyMiddleware.run()
LOG: Closed client: /10.0.0.6:39986in MyMiddleware.run()
