------------Middleware started!------------
LOG: Waiting for connection in MyMiddleware.run()
LOG: Accepted client: /10.0.0.11:50818in MyMiddleware.run()
LOG: Accepted client: /10.0.0.11:50816in MyMiddleware.run()
LOG: Accepted client: /10.0.0.11:50812in MyMiddleware.run()
LOG: Accepted client: /10.0.0.11:50804in MyMiddleware.run()
LOG: Accepted client: /10.0.0.11:50808in MyMiddleware.run()
LOG: Accepted client: /10.0.0.11:50814in MyMiddleware.run()
LOG: Accepted client: /10.0.0.11:50810in MyMiddleware.run()
LOG: Accepted client: /10.0.0.11:50806in MyMiddleware.run()
LOG: Accepted client: /10.0.0.7:51520in MyMiddleware.run()
LOG: Accepted client: /10.0.0.7:51516in MyMiddleware.run()
LOG: Accepted client: /10.0.0.7:51518in MyMiddleware.run()
LOG: Accepted client: /10.0.0.7:51514in MyMiddleware.run()
LOG: Accepted client: /10.0.0.7:51512in MyMiddleware.run()
LOG: Accepted client: /10.0.0.7:51522in MyMiddleware.run()
LOG: Accepted client: /10.0.0.7:51526in MyMiddleware.run()
LOG: Accepted client: /10.0.0.7:51524in MyMiddleware.run()
LOG: Accepted client: /10.0.0.6:33512in MyMiddleware.run()
LOG: Accepted client: /10.0.0.6:33514in MyMiddleware.run()
LOG: Accepted client: /10.0.0.6:33510in MyMiddleware.run()
LOG: Accepted client: /10.0.0.6:33508in MyMiddleware.run()
LOG: Accepted client: /10.0.0.6:33502in MyMiddleware.run()
LOG: Accepted client: /10.0.0.6:33506in MyMiddleware.run()
LOG: Accepted client: /10.0.0.6:33504in MyMiddleware.run()
LOG: Accepted client: /10.0.0.6:33516in MyMiddleware.run()
LOG: Closed client: /10.0.0.11:50806in MyMiddleware.run()
LOG: Closed client: /10.0.0.11:50814in MyMiddleware.run()
LOG: Closed client: /10.0.0.11:50810in MyMiddleware.run()
LOG: Closed client: /10.0.0.11:50804in MyMiddleware.run()
LOG: Closed client: /10.0.0.11:50808in MyMiddleware.run()
LOG: Closed client: /10.0.0.11:50818in MyMiddleware.run()
LOG: Closed client: /10.0.0.11:50812in MyMiddleware.run()
LOG: Closed client: /10.0.0.11:50816in MyMiddleware.run()
LOG: Closed client: /10.0.0.7:51524in MyMiddleware.run()
LOG: Closed client: /10.0.0.7:51522in MyMiddleware.run()
LOG: Closed client: /10.0.0.7:51520in MyMiddleware.run()
LOG: Closed client: /10.0.0.7:51526in MyMiddleware.run()
LOG: Closed client: /10.0.0.7:51516in MyMiddleware.run()
LOG: Closed client: /10.0.0.7:51518in MyMiddleware.run()
LOG: Closed client: /10.0.0.7:51514in MyMiddleware.run()
LOG: Closed client: /10.0.0.7:51512in MyMiddleware.run()
LOG: Closed client: /10.0.0.6:33502in MyMiddleware.run()
LOG: Closed client: /10.0.0.6:33504in MyMiddleware.run()
LOG: Closed client: /10.0.0.6:33506in MyMiddleware.run()
LOG: Closed client: /10.0.0.6:33508in MyMiddleware.run()
LOG: Closed client: /10.0.0.6:33512in MyMiddleware.run()
LOG: Closed client: /10.0.0.6:33510in MyMiddleware.run()
LOG: Closed client: /10.0.0.6:33514in MyMiddleware.run()
LOG: Closed client: /10.0.0.6:33516in MyMiddleware.run()
