------------Middleware started!------------
LOG: Waiting for connection in MyMiddleware.run()
LOG: Accepted client: /10.0.0.6:55114in MyMiddleware.run()
LOG: Accepted client: /10.0.0.6:55130in MyMiddleware.run()
LOG: Accepted client: /10.0.0.6:55170in MyMiddleware.run()
LOG: Accepted client: /10.0.0.6:55138in MyMiddleware.run()
LOG: Accepted client: /10.0.0.6:55174in MyMiddleware.run()
LOG: Accepted client: /10.0.0.6:55136in MyMiddleware.run()
LOG: Accepted client: /10.0.0.6:55172in MyMiddleware.run()
LOG: Accepted client: /10.0.0.6:55166in MyMiddleware.run()
LOG: Accepted client: /10.0.0.6:55142in MyMiddleware.run()
LOG: Accepted client: /10.0.0.6:55160in MyMiddleware.run()
LOG: Accepted client: /10.0.0.6:55140in MyMiddleware.run()
LOG: Accepted client: /10.0.0.6:55168in MyMiddleware.run()
LOG: Accepted client: /10.0.0.6:55164in MyMiddleware.run()
LOG: Accepted client: /10.0.0.6:55128in MyMiddleware.run()
LOG: Accepted client: /10.0.0.6:55162in MyMiddleware.run()
LOG: Accepted client: /10.0.0.11:44194in MyMiddleware.run()
LOG: Accepted client: /10.0.0.11:44204in MyMiddleware.run()
LOG: Accepted client: /10.0.0.11:44220in MyMiddleware.run()
LOG: Accepted client: /10.0.0.11:44200in MyMiddleware.run()
LOG: Accepted client: /10.0.0.11:44192in MyMiddleware.run()
LOG: Accepted client: /10.0.0.11:44246in MyMiddleware.run()
LOG: Accepted client: /10.0.0.11:44202in MyMiddleware.run()
LOG: Accepted client: /10.0.0.11:44232in MyMiddleware.run()
LOG: Accepted client: /10.0.0.11:44252in MyMiddleware.run()
LOG: Accepted client: /10.0.0.11:44248in MyMiddleware.run()
LOG: Accepted client: /10.0.0.11:44244in MyMiddleware.run()
LOG: Accepted client: /10.0.0.11:44206in MyMiddleware.run()
LOG: Accepted client: /10.0.0.11:44222in MyMiddleware.run()
LOG: Accepted client: /10.0.0.11:44234in MyMiddleware.run()
LOG: Accepted client: /10.0.0.11:44250in MyMiddleware.run()
LOG: Accepted client: /10.0.0.11:44228in MyMiddleware.run()
LOG: Accepted client: /10.0.0.11:44190in MyMiddleware.run()
LOG: Accepted client: /10.0.0.11:44210in MyMiddleware.run()
LOG: Accepted client: /10.0.0.11:44230in MyMiddleware.run()
LOG: Accepted client: /10.0.0.11:44208in MyMiddleware.run()
LOG: Accepted client: /10.0.0.6:55126in MyMiddleware.run()
LOG: Accepted client: /10.0.0.6:55124in MyMiddleware.run()
LOG: Accepted client: /10.0.0.6:55158in MyMiddleware.run()
LOG: Accepted client: /10.0.0.6:55144in MyMiddleware.run()
LOG: Accepted client: /10.0.0.6:55120in MyMiddleware.run()
LOG: Accepted client: /10.0.0.6:55146in MyMiddleware.run()
LOG: Accepted client: /10.0.0.6:55112in MyMiddleware.run()
LOG: Accepted client: /10.0.0.6:55122in MyMiddleware.run()
LOG: Accepted client: /10.0.0.6:55156in MyMiddleware.run()
LOG: Accepted client: /10.0.0.11:44196in MyMiddleware.run()
LOG: Accepted client: /10.0.0.11:44242in MyMiddleware.run()
LOG: Accepted client: /10.0.0.11:44240in MyMiddleware.run()
LOG: Accepted client: /10.0.0.11:44198in MyMiddleware.run()
LOG: Accepted client: /10.0.0.6:55134in MyMiddleware.run()
LOG: Accepted client: /10.0.0.6:55154in MyMiddleware.run()
LOG: Accepted client: /10.0.0.6:55132in MyMiddleware.run()
LOG: Accepted client: /10.0.0.6:55152in MyMiddleware.run()
LOG: Accepted client: /10.0.0.7:44912in MyMiddleware.run()
LOG: Accepted client: /10.0.0.7:44892in MyMiddleware.run()
LOG: Accepted client: /10.0.0.7:44900in MyMiddleware.run()
LOG: Accepted client: /10.0.0.7:44942in MyMiddleware.run()
LOG: Accepted client: /10.0.0.7:44902in MyMiddleware.run()
LOG: Accepted client: /10.0.0.7:44930in MyMiddleware.run()
LOG: Accepted client: /10.0.0.7:44924in MyMiddleware.run()
LOG: Accepted client: /10.0.0.7:44904in MyMiddleware.run()
LOG: Accepted client: /10.0.0.7:44920in MyMiddleware.run()
LOG: Accepted client: /10.0.0.7:44946in MyMiddleware.run()
LOG: Accepted client: /10.0.0.7:44928in MyMiddleware.run()
LOG: Accepted client: /10.0.0.6:55116in MyMiddleware.run()
LOG: Accepted client: /10.0.0.6:55118in MyMiddleware.run()
LOG: Accepted client: /10.0.0.6:55150in MyMiddleware.run()
LOG: Accepted client: /10.0.0.6:55148in MyMiddleware.run()
LOG: Accepted client: /10.0.0.7:44918in MyMiddleware.run()
LOG: Accepted client: /10.0.0.7:44890in MyMiddleware.run()
LOG: Accepted client: /10.0.0.7:44916in MyMiddleware.run()
LOG: Accepted client: /10.0.0.7:44914in MyMiddleware.run()
LOG: Accepted client: /10.0.0.7:44894in MyMiddleware.run()
LOG: Accepted client: /10.0.0.7:44952in MyMiddleware.run()
LOG: Accepted client: /10.0.0.7:44940in MyMiddleware.run()
LOG: Accepted client: /10.0.0.7:44906in MyMiddleware.run()
LOG: Accepted client: /10.0.0.7:44950in MyMiddleware.run()
LOG: Accepted client: /10.0.0.7:44926in MyMiddleware.run()
LOG: Accepted client: /10.0.0.7:44948in MyMiddleware.run()
LOG: Accepted client: /10.0.0.7:44944in MyMiddleware.run()
LOG: Accepted client: /10.0.0.7:44922in MyMiddleware.run()
LOG: Accepted client: /10.0.0.7:44938in MyMiddleware.run()
LOG: Accepted client: /10.0.0.7:44898in MyMiddleware.run()
LOG: Accepted client: /10.0.0.7:44932in MyMiddleware.run()
LOG: Accepted client: /10.0.0.7:44934in MyMiddleware.run()
LOG: Accepted client: /10.0.0.7:44908in MyMiddleware.run()
LOG: Accepted client: /10.0.0.7:44910in MyMiddleware.run()
LOG: Accepted client: /10.0.0.7:44896in MyMiddleware.run()
LOG: Accepted client: /10.0.0.7:44936in MyMiddleware.run()
LOG: Accepted client: /10.0.0.11:44214in MyMiddleware.run()
LOG: Accepted client: /10.0.0.11:44224in MyMiddleware.run()
LOG: Accepted client: /10.0.0.11:44218in MyMiddleware.run()
LOG: Accepted client: /10.0.0.11:44238in MyMiddleware.run()
LOG: Accepted client: /10.0.0.11:44216in MyMiddleware.run()
LOG: Accepted client: /10.0.0.11:44236in MyMiddleware.run()
LOG: Accepted client: /10.0.0.11:44226in MyMiddleware.run()
LOG: Accepted client: /10.0.0.11:44212in MyMiddleware.run()
LOG: Closed client: /10.0.0.6:55128in MyMiddleware.run()
LOG: Closed client: /10.0.0.6:55156in MyMiddleware.run()
LOG: Closed client: /10.0.0.6:55114in MyMiddleware.run()
LOG: Closed client: /10.0.0.6:55162in MyMiddleware.run()
LOG: Closed client: /10.0.0.6:55122in MyMiddleware.run()
LOG: Closed client: /10.0.0.6:55168in MyMiddleware.run()
LOG: Closed client: /10.0.0.6:55140in MyMiddleware.run()
LOG: Closed client: /10.0.0.6:55136in MyMiddleware.run()
LOG: Closed client: /10.0.0.6:55154in MyMiddleware.run()
LOG: Closed client: /10.0.0.6:55170in MyMiddleware.run()
LOG: Closed client: /10.0.0.6:55160in MyMiddleware.run()
LOG: Closed client: /10.0.0.6:55148in MyMiddleware.run()
LOG: Closed client: /10.0.0.6:55132in MyMiddleware.run()
LOG: Closed client: /10.0.0.6:55150in MyMiddleware.run()
LOG: Closed client: /10.0.0.6:55164in MyMiddleware.run()
LOG: Closed client: /10.0.0.6:55166in MyMiddleware.run()
LOG: Closed client: /10.0.0.6:55172in MyMiddleware.run()
LOG: Closed client: /10.0.0.6:55134in MyMiddleware.run()
LOG: Closed client: /10.0.0.6:55112in MyMiddleware.run()
LOG: Closed client: /10.0.0.6:55138in MyMiddleware.run()
LOG: Closed client: /10.0.0.6:55116in MyMiddleware.run()
LOG: Closed client: /10.0.0.6:55126in MyMiddleware.run()
LOG: Closed client: /10.0.0.6:55120in MyMiddleware.run()
LOG: Closed client: /10.0.0.6:55152in MyMiddleware.run()
LOG: Closed client: /10.0.0.6:55130in MyMiddleware.run()
LOG: Closed client: /10.0.0.6:55124in MyMiddleware.run()
LOG: Closed client: /10.0.0.6:55174in MyMiddleware.run()
LOG: Closed client: /10.0.0.6:55146in MyMiddleware.run()
LOG: Closed client: /10.0.0.6:55118in MyMiddleware.run()
LOG: Closed client: /10.0.0.6:55158in MyMiddleware.run()
LOG: Closed client: /10.0.0.6:55144in MyMiddleware.run()
LOG: Closed client: /10.0.0.6:55142in MyMiddleware.run()
LOG: Closed client: /10.0.0.11:44194in MyMiddleware.run()
LOG: Closed client: /10.0.0.11:44192in MyMiddleware.run()
LOG: Closed client: /10.0.0.11:44210in MyMiddleware.run()
LOG: Closed client: /10.0.0.11:44204in MyMiddleware.run()
LOG: Closed client: /10.0.0.11:44200in MyMiddleware.run()
LOG: Closed client: /10.0.0.11:44198in MyMiddleware.run()
LOG: Closed client: /10.0.0.11:44202in MyMiddleware.run()
LOG: Closed client: /10.0.0.11:44190in MyMiddleware.run()
LOG: Closed client: /10.0.0.11:44206in MyMiddleware.run()
LOG: Closed client: /10.0.0.11:44230in MyMiddleware.run()
LOG: Closed client: /10.0.0.11:44232in MyMiddleware.run()
LOG: Closed client: /10.0.0.11:44224in MyMiddleware.run()
LOG: Closed client: /10.0.0.11:44240in MyMiddleware.run()
LOG: Closed client: /10.0.0.11:44250in MyMiddleware.run()
LOG: Closed client: /10.0.0.11:44252in MyMiddleware.run()
LOG: Closed client: /10.0.0.11:44222in MyMiddleware.run()
LOG: Closed client: /10.0.0.11:44212in MyMiddleware.run()
LOG: Closed client: /10.0.0.11:44246in MyMiddleware.run()
LOG: Closed client: /10.0.0.11:44244in MyMiddleware.run()
LOG: Closed client: /10.0.0.11:44220in MyMiddleware.run()
LOG: Closed client: /10.0.0.11:44196in MyMiddleware.run()
LOG: Closed client: /10.0.0.11:44214in MyMiddleware.run()
LOG: Closed client: /10.0.0.11:44218in MyMiddleware.run()
LOG: Closed client: /10.0.0.11:44226in MyMiddleware.run()
LOG: Closed client: /10.0.0.11:44242in MyMiddleware.run()
LOG: Closed client: /10.0.0.11:44208in MyMiddleware.run()
LOG: Closed client: /10.0.0.11:44238in MyMiddleware.run()
LOG: Closed client: /10.0.0.11:44248in MyMiddleware.run()
LOG: Closed client: /10.0.0.11:44236in MyMiddleware.run()
LOG: Closed client: /10.0.0.11:44216in MyMiddleware.run()
LOG: Closed client: /10.0.0.11:44228in MyMiddleware.run()
LOG: Closed client: /10.0.0.11:44234in MyMiddleware.run()
LOG: Closed client: /10.0.0.7:44942in MyMiddleware.run()
LOG: Closed client: /10.0.0.7:44892in MyMiddleware.run()
LOG: Closed client: /10.0.0.7:44904in MyMiddleware.run()
LOG: Closed client: /10.0.0.7:44896in MyMiddleware.run()
LOG: Closed client: /10.0.0.7:44906in MyMiddleware.run()
LOG: Closed client: /10.0.0.7:44898in MyMiddleware.run()
LOG: Closed client: /10.0.0.7:44932in MyMiddleware.run()
LOG: Closed client: /10.0.0.7:44890in MyMiddleware.run()
LOG: Closed client: /10.0.0.7:44900in MyMiddleware.run()
LOG: Closed client: /10.0.0.7:44908in MyMiddleware.run()
LOG: Closed client: /10.0.0.7:44916in MyMiddleware.run()
LOG: Closed client: /10.0.0.7:44912in MyMiddleware.run()
LOG: Closed client: /10.0.0.7:44894in MyMiddleware.run()
LOG: Closed client: /10.0.0.7:44914in MyMiddleware.run()
LOG: Closed client: /10.0.0.7:44910in MyMiddleware.run()
LOG: Closed client: /10.0.0.7:44902in MyMiddleware.run()
LOG: Closed client: /10.0.0.7:44940in MyMiddleware.run()
LOG: Closed client: /10.0.0.7:44928in MyMiddleware.run()
LOG: Closed client: /10.0.0.7:44950in MyMiddleware.run()
LOG: Closed client: /10.0.0.7:44918in MyMiddleware.run()
LOG: Closed client: /10.0.0.7:44946in MyMiddleware.run()
LOG: Closed client: /10.0.0.7:44926in MyMiddleware.run()
LOG: Closed client: /10.0.0.7:44936in MyMiddleware.run()
LOG: Closed client: /10.0.0.7:44920in MyMiddleware.run()
LOG: Closed client: /10.0.0.7:44924in MyMiddleware.run()
LOG: Closed client: /10.0.0.7:44952in MyMiddleware.run()
LOG: Closed client: /10.0.0.7:44930in MyMiddleware.run()
LOG: Closed client: /10.0.0.7:44934in MyMiddleware.run()
LOG: Closed client: /10.0.0.7:44948in MyMiddleware.run()
LOG: Closed client: /10.0.0.7:44922in MyMiddleware.run()
LOG: Closed client: /10.0.0.7:44944in MyMiddleware.run()
LOG: Closed client: /10.0.0.7:44938in MyMiddleware.run()
