------------Middleware started!------------
LOG: Waiting for connection in MyMiddleware.run()
LOG: Accepted client: /10.0.0.6:50620in MyMiddleware.run()
LOG: Accepted client: /10.0.0.6:50630in MyMiddleware.run()
LOG: Accepted client: /10.0.0.6:50624in MyMiddleware.run()
LOG: Accepted client: /10.0.0.6:50628in MyMiddleware.run()
LOG: Accepted client: /10.0.0.6:50626in MyMiddleware.run()
LOG: Accepted client: /10.0.0.6:50632in MyMiddleware.run()
LOG: Accepted client: /10.0.0.6:50634in MyMiddleware.run()
LOG: Accepted client: /10.0.0.6:50622in MyMiddleware.run()
LOG: Accepted client: /10.0.0.6:50648in MyMiddleware.run()
LOG: Accepted client: /10.0.0.6:50650in MyMiddleware.run()
LOG: Accepted client: /10.0.0.6:50640in MyMiddleware.run()
LOG: Accepted client: /10.0.0.6:50644in MyMiddleware.run()
LOG: Accepted client: /10.0.0.6:50646in MyMiddleware.run()
LOG: Accepted client: /10.0.0.6:50636in MyMiddleware.run()
LOG: Accepted client: /10.0.0.6:50642in MyMiddleware.run()
LOG: Accepted client: /10.0.0.6:50638in MyMiddleware.run()
LOG: Accepted client: /10.0.0.7:40412in MyMiddleware.run()
LOG: Accepted client: /10.0.0.7:40420in MyMiddleware.run()
LOG: Accepted client: /10.0.0.7:40422in MyMiddleware.run()
LOG: Accepted client: /10.0.0.7:40416in MyMiddleware.run()
LOG: Accepted client: /10.0.0.7:40432in MyMiddleware.run()
LOG: Accepted client: /10.0.0.7:40410in MyMiddleware.run()
LOG: Accepted client: /10.0.0.7:40424in MyMiddleware.run()
LOG: Accepted client: /10.0.0.7:40408in MyMiddleware.run()
LOG: Accepted client: /10.0.0.7:40428in MyMiddleware.run()
LOG: Accepted client: /10.0.0.7:40436in MyMiddleware.run()
LOG: Accepted client: /10.0.0.7:40430in MyMiddleware.run()
LOG: Accepted client: /10.0.0.7:40426in MyMiddleware.run()
LOG: Accepted client: /10.0.0.7:40406in MyMiddleware.run()
LOG: Accepted client: /10.0.0.7:40418in MyMiddleware.run()
LOG: Accepted client: /10.0.0.7:40414in MyMiddleware.run()
LOG: Accepted client: /10.0.0.7:40434in MyMiddleware.run()
LOG: Accepted client: /10.0.0.11:39706in MyMiddleware.run()
LOG: Accepted client: /10.0.0.11:39704in MyMiddleware.run()
LOG: Accepted client: /10.0.0.11:39696in MyMiddleware.run()
LOG: Accepted client: /10.0.0.11:39684in MyMiddleware.run()
LOG: Accepted client: /10.0.0.11:39682in MyMiddleware.run()
LOG: Accepted client: /10.0.0.11:39686in MyMiddleware.run()
LOG: Accepted client: /10.0.0.11:39698in MyMiddleware.run()
LOG: Accepted client: /10.0.0.11:39690in MyMiddleware.run()
LOG: Accepted client: /10.0.0.11:39710in MyMiddleware.run()
LOG: Accepted client: /10.0.0.11:39688in MyMiddleware.run()
LOG: Accepted client: /10.0.0.11:39694in MyMiddleware.run()
LOG: Accepted client: /10.0.0.11:39700in MyMiddleware.run()
LOG: Accepted client: /10.0.0.11:39708in MyMiddleware.run()
LOG: Accepted client: /10.0.0.11:39712in MyMiddleware.run()
LOG: Accepted client: /10.0.0.11:39702in MyMiddleware.run()
LOG: Accepted client: /10.0.0.11:39692in MyMiddleware.run()
LOG: Closed client: /10.0.0.6:50628in MyMiddleware.run()
LOG: Closed client: /10.0.0.6:50620in MyMiddleware.run()
LOG: Closed client: /10.0.0.6:50622in MyMiddleware.run()
LOG: Closed client: /10.0.0.6:50624in MyMiddleware.run()
LOG: Closed client: /10.0.0.6:50634in MyMiddleware.run()
LOG: Closed client: /10.0.0.6:50632in MyMiddleware.run()
LOG: Closed client: /10.0.0.6:50626in MyMiddleware.run()
LOG: Closed client: /10.0.0.6:50630in MyMiddleware.run()
LOG: Closed client: /10.0.0.6:50638in MyMiddleware.run()
LOG: Closed client: /10.0.0.6:50642in MyMiddleware.run()
LOG: Closed client: /10.0.0.6:50646in MyMiddleware.run()
LOG: Closed client: /10.0.0.6:50650in MyMiddleware.run()
LOG: Closed client: /10.0.0.6:50644in MyMiddleware.run()
LOG: Closed client: /10.0.0.6:50640in MyMiddleware.run()
LOG: Closed client: /10.0.0.6:50648in MyMiddleware.run()
LOG: Closed client: /10.0.0.6:50636in MyMiddleware.run()
LOG: Closed client: /10.0.0.7:40410in MyMiddleware.run()
LOG: Closed client: /10.0.0.7:40422in MyMiddleware.run()
LOG: Closed client: /10.0.0.7:40416in MyMiddleware.run()
LOG: Closed client: /10.0.0.7:40420in MyMiddleware.run()
LOG: Closed client: /10.0.0.7:40436in MyMiddleware.run()
LOG: Closed client: /10.0.0.7:40418in MyMiddleware.run()
LOG: Closed client: /10.0.0.7:40424in MyMiddleware.run()
LOG: Closed client: /10.0.0.7:40408in MyMiddleware.run()
LOG: Closed client: /10.0.0.7:40426in MyMiddleware.run()
LOG: Closed client: /10.0.0.7:40432in MyMiddleware.run()
LOG: Closed client: /10.0.0.7:40434in MyMiddleware.run()
LOG: Closed client: /10.0.0.7:40430in MyMiddleware.run()
LOG: Closed client: /10.0.0.7:40428in MyMiddleware.run()
LOG: Closed client: /10.0.0.7:40412in MyMiddleware.run()
LOG: Closed client: /10.0.0.7:40414in MyMiddleware.run()
LOG: Closed client: /10.0.0.7:40406in MyMiddleware.run()
LOG: Closed client: /10.0.0.11:39700in MyMiddleware.run()
LOG: Closed client: /10.0.0.11:39692in MyMiddleware.run()
LOG: Closed client: /10.0.0.11:39688in MyMiddleware.run()
LOG: Closed client: /10.0.0.11:39684in MyMiddleware.run()
LOG: Closed client: /10.0.0.11:39694in MyMiddleware.run()
LOG: Closed client: /10.0.0.11:39696in MyMiddleware.run()
LOG: Closed client: /10.0.0.11:39690in MyMiddleware.run()
LOG: Closed client: /10.0.0.11:39698in MyMiddleware.run()
LOG: Closed client: /10.0.0.11:39686in MyMiddleware.run()
LOG: Closed client: /10.0.0.11:39682in MyMiddleware.run()
LOG: Closed client: /10.0.0.11:39710in MyMiddleware.run()
LOG: Closed client: /10.0.0.11:39708in MyMiddleware.run()
LOG: Closed client: /10.0.0.11:39706in MyMiddleware.run()
LOG: Closed client: /10.0.0.11:39704in MyMiddleware.run()
LOG: Closed client: /10.0.0.11:39702in MyMiddleware.run()
LOG: Closed client: /10.0.0.11:39712in MyMiddleware.run()
