------------Middleware started!------------
LOG: Waiting for connection in MyMiddleware.run()
LOG: Accepted client: /10.0.0.7:44340in MyMiddleware.run()
LOG: Accepted client: /10.0.0.7:44338in MyMiddleware.run()
LOG: Accepted client: /10.0.0.7:44364in MyMiddleware.run()
LOG: Accepted client: /10.0.0.7:44358in MyMiddleware.run()
LOG: Accepted client: /10.0.0.7:44384in MyMiddleware.run()
LOG: Accepted client: /10.0.0.7:44394in MyMiddleware.run()
LOG: Accepted client: /10.0.0.7:44392in MyMiddleware.run()
LOG: Accepted client: /10.0.0.7:44366in MyMiddleware.run()
LOG: Accepted client: /10.0.0.7:44386in MyMiddleware.run()
LOG: Accepted client: /10.0.0.7:44378in MyMiddleware.run()
LOG: Accepted client: /10.0.0.7:44380in MyMiddleware.run()
LOG: Accepted client: /10.0.0.7:44368in MyMiddleware.run()
LOG: Accepted client: /10.0.0.7:44334in MyMiddleware.run()
LOG: Accepted client: /10.0.0.7:44382in MyMiddleware.run()
LOG: Accepted client: /10.0.0.7:44370in MyMiddleware.run()
LOG: Accepted client: /10.0.0.7:44396in MyMiddleware.run()
LOG: Accepted client: /10.0.0.7:44354in MyMiddleware.run()
LOG: Accepted client: /10.0.0.7:44388in MyMiddleware.run()
LOG: Accepted client: /10.0.0.7:44348in MyMiddleware.run()
LOG: Accepted client: /10.0.0.7:44362in MyMiddleware.run()
LOG: Accepted client: /10.0.0.7:44390in MyMiddleware.run()
LOG: Accepted client: /10.0.0.7:44336in MyMiddleware.run()
LOG: Accepted client: /10.0.0.7:44344in MyMiddleware.run()
LOG: Accepted client: /10.0.0.7:44360in MyMiddleware.run()
LOG: Accepted client: /10.0.0.7:44346in MyMiddleware.run()
LOG: Accepted client: /10.0.0.7:44372in MyMiddleware.run()
LOG: Accepted client: /10.0.0.7:44350in MyMiddleware.run()
LOG: Accepted client: /10.0.0.7:44352in MyMiddleware.run()
LOG: Accepted client: /10.0.0.7:44374in MyMiddleware.run()
LOG: Accepted client: /10.0.0.7:44356in MyMiddleware.run()
LOG: Accepted client: /10.0.0.7:44342in MyMiddleware.run()
LOG: Accepted client: /10.0.0.7:44376in MyMiddleware.run()
LOG: Accepted client: /10.0.0.11:43602in MyMiddleware.run()
LOG: Accepted client: /10.0.0.11:43614in MyMiddleware.run()
LOG: Accepted client: /10.0.0.11:43626in MyMiddleware.run()
LOG: Accepted client: /10.0.0.11:43620in MyMiddleware.run()
LOG: Accepted client: /10.0.0.11:43608in MyMiddleware.run()
LOG: Accepted client: /10.0.0.11:43630in MyMiddleware.run()
LOG: Accepted client: /10.0.0.11:43648in MyMiddleware.run()
LOG: Accepted client: /10.0.0.11:43610in MyMiddleware.run()
LOG: Accepted client: /10.0.0.11:43644in MyMiddleware.run()
LOG: Accepted client: /10.0.0.11:43632in MyMiddleware.run()
LOG: Accepted client: /10.0.0.11:43636in MyMiddleware.run()
LOG: Accepted client: /10.0.0.11:43654in MyMiddleware.run()
LOG: Accepted client: /10.0.0.11:43652in MyMiddleware.run()
LOG: Accepted client: /10.0.0.11:43628in MyMiddleware.run()
LOG: Accepted client: /10.0.0.11:43638in MyMiddleware.run()
LOG: Accepted client: /10.0.0.11:43640in MyMiddleware.run()
LOG: Accepted client: /10.0.0.11:43634in MyMiddleware.run()
LOG: Accepted client: /10.0.0.11:43604in MyMiddleware.run()
LOG: Accepted client: /10.0.0.11:43618in MyMiddleware.run()
LOG: Accepted client: /10.0.0.11:43612in MyMiddleware.run()
LOG: Accepted client: /10.0.0.11:43616in MyMiddleware.run()
LOG: Accepted client: /10.0.0.11:43646in MyMiddleware.run()
LOG: Accepted client: /10.0.0.11:43622in MyMiddleware.run()
LOG: Accepted client: /10.0.0.11:43658in MyMiddleware.run()
LOG: Accepted client: /10.0.0.11:43662in MyMiddleware.run()
LOG: Accepted client: /10.0.0.11:43656in MyMiddleware.run()
LOG: Accepted client: /10.0.0.11:43642in MyMiddleware.run()
LOG: Accepted client: /10.0.0.11:43650in MyMiddleware.run()
LOG: Accepted client: /10.0.0.11:43606in MyMiddleware.run()
LOG: Accepted client: /10.0.0.11:43624in MyMiddleware.run()
LOG: Accepted client: /10.0.0.6:54552in MyMiddleware.run()
LOG: Accepted client: /10.0.0.6:54574in MyMiddleware.run()
LOG: Accepted client: /10.0.0.6:54566in MyMiddleware.run()
LOG: Accepted client: /10.0.0.6:54602in MyMiddleware.run()
LOG: Accepted client: /10.0.0.6:54568in MyMiddleware.run()
LOG: Accepted client: /10.0.0.6:54584in MyMiddleware.run()
LOG: Accepted client: /10.0.0.6:54578in MyMiddleware.run()
LOG: Accepted client: /10.0.0.6:54586in MyMiddleware.run()
LOG: Accepted client: /10.0.0.6:54598in MyMiddleware.run()
LOG: Accepted client: /10.0.0.6:54580in MyMiddleware.run()
LOG: Accepted client: /10.0.0.6:54582in MyMiddleware.run()
LOG: Accepted client: /10.0.0.6:54588in MyMiddleware.run()
LOG: Accepted client: /10.0.0.6:54550in MyMiddleware.run()
LOG: Accepted client: /10.0.0.6:54570in MyMiddleware.run()
LOG: Accepted client: /10.0.0.6:54560in MyMiddleware.run()
LOG: Accepted client: /10.0.0.6:54576in MyMiddleware.run()
LOG: Accepted client: /10.0.0.6:54548in MyMiddleware.run()
LOG: Accepted client: /10.0.0.6:54556in MyMiddleware.run()
LOG: Accepted client: /10.0.0.6:54558in MyMiddleware.run()
LOG: Accepted client: /10.0.0.6:54594in MyMiddleware.run()
LOG: Accepted client: /10.0.0.6:54554in MyMiddleware.run()
LOG: Accepted client: /10.0.0.6:54592in MyMiddleware.run()
LOG: Accepted client: /10.0.0.6:54562in MyMiddleware.run()
LOG: Accepted client: /10.0.0.6:54608in MyMiddleware.run()
LOG: Accepted client: /10.0.0.6:54572in MyMiddleware.run()
LOG: Accepted client: /10.0.0.6:54564in MyMiddleware.run()
LOG: Accepted client: /10.0.0.6:54610in MyMiddleware.run()
LOG: Accepted client: /10.0.0.11:43660in MyMiddleware.run()
LOG: Accepted client: /10.0.0.11:43664in MyMiddleware.run()
LOG: Accepted client: /10.0.0.6:54606in MyMiddleware.run()
LOG: Accepted client: /10.0.0.6:54604in MyMiddleware.run()
LOG: Accepted client: /10.0.0.6:54596in MyMiddleware.run()
LOG: Accepted client: /10.0.0.6:54600in MyMiddleware.run()
LOG: Accepted client: /10.0.0.6:54590in MyMiddleware.run()
LOG: Closed client: /10.0.0.11:43620in MyMiddleware.run()
LOG: Closed client: /10.0.0.11:43634in MyMiddleware.run()
LOG: Closed client: /10.0.0.11:43604in MyMiddleware.run()
LOG: Closed client: /10.0.0.11:43628in MyMiddleware.run()
LOG: Closed client: /10.0.0.11:43610in MyMiddleware.run()
LOG: Closed client: /10.0.0.11:43642in MyMiddleware.run()
LOG: Closed client: /10.0.0.11:43602in MyMiddleware.run()
LOG: Closed client: /10.0.0.11:43608in MyMiddleware.run()
LOG: Closed client: /10.0.0.11:43632in MyMiddleware.run()
LOG: Closed client: /10.0.0.11:43626in MyMiddleware.run()
LOG: Closed client: /10.0.0.11:43614in MyMiddleware.run()
LOG: Closed client: /10.0.0.11:43606in MyMiddleware.run()
LOG: Closed client: /10.0.0.11:43630in MyMiddleware.run()
LOG: Closed client: /10.0.0.11:43640in MyMiddleware.run()
LOG: Closed client: /10.0.0.11:43624in MyMiddleware.run()
LOG: Closed client: /10.0.0.11:43618in MyMiddleware.run()
LOG: Closed client: /10.0.0.11:43612in MyMiddleware.run()
LOG: Closed client: /10.0.0.11:43616in MyMiddleware.run()
LOG: Closed client: /10.0.0.11:43622in MyMiddleware.run()
LOG: Closed client: /10.0.0.11:43636in MyMiddleware.run()
LOG: Closed client: /10.0.0.11:43638in MyMiddleware.run()
LOG: Closed client: /10.0.0.11:43660in MyMiddleware.run()
LOG: Closed client: /10.0.0.11:43650in MyMiddleware.run()
LOG: Closed client: /10.0.0.11:43648in MyMiddleware.run()
LOG: Closed client: /10.0.0.11:43654in MyMiddleware.run()
LOG: Closed client: /10.0.0.11:43664in MyMiddleware.run()
LOG: Closed client: /10.0.0.11:43656in MyMiddleware.run()
LOG: Closed client: /10.0.0.11:43658in MyMiddleware.run()
LOG: Closed client: /10.0.0.11:43644in MyMiddleware.run()
LOG: Closed client: /10.0.0.11:43662in MyMiddleware.run()
LOG: Closed client: /10.0.0.11:43646in MyMiddleware.run()
LOG: Closed client: /10.0.0.11:43652in MyMiddleware.run()
LOG: Closed client: /10.0.0.7:44378in MyMiddleware.run()
LOG: Closed client: /10.0.0.7:44376in MyMiddleware.run()
LOG: Closed client: /10.0.0.7:44338in MyMiddleware.run()
LOG: Closed client: /10.0.0.7:44370in MyMiddleware.run()
LOG: Closed client: /10.0.0.7:44366in MyMiddleware.run()
LOG: Closed client: /10.0.0.7:44348in MyMiddleware.run()
LOG: Closed client: /10.0.0.7:44350in MyMiddleware.run()
LOG: Closed client: /10.0.0.7:44382in MyMiddleware.run()
LOG: Closed client: /10.0.0.7:44372in MyMiddleware.run()
LOG: Closed client: /10.0.0.7:44380in MyMiddleware.run()
LOG: Closed client: /10.0.0.7:44392in MyMiddleware.run()
LOG: Closed client: /10.0.0.7:44364in MyMiddleware.run()
LOG: Closed client: /10.0.0.7:44360in MyMiddleware.run()
LOG: Closed client: /10.0.0.7:44386in MyMiddleware.run()
LOG: Closed client: /10.0.0.7:44334in MyMiddleware.run()
LOG: Closed client: /10.0.0.7:44394in MyMiddleware.run()
LOG: Closed client: /10.0.0.7:44358in MyMiddleware.run()
LOG: Closed client: /10.0.0.7:44356in MyMiddleware.run()
LOG: Closed client: /10.0.0.7:44396in MyMiddleware.run()
LOG: Closed client: /10.0.0.7:44342in MyMiddleware.run()
LOG: Closed client: /10.0.0.7:44352in MyMiddleware.run()
LOG: Closed client: /10.0.0.7:44336in MyMiddleware.run()
LOG: Closed client: /10.0.0.7:44388in MyMiddleware.run()
LOG: Closed client: /10.0.0.7:44368in MyMiddleware.run()
LOG: Closed client: /10.0.0.7:44374in MyMiddleware.run()
LOG: Closed client: /10.0.0.7:44344in MyMiddleware.run()
LOG: Closed client: /10.0.0.7:44362in MyMiddleware.run()
LOG: Closed client: /10.0.0.7:44384in MyMiddleware.run()
LOG: Closed client: /10.0.0.7:44354in MyMiddleware.run()
LOG: Closed client: /10.0.0.7:44340in MyMiddleware.run()
LOG: Closed client: /10.0.0.7:44390in MyMiddleware.run()
LOG: Closed client: /10.0.0.7:44346in MyMiddleware.run()
LOG: Closed client: /10.0.0.6:54566in MyMiddleware.run()
LOG: Closed client: /10.0.0.6:54580in MyMiddleware.run()
LOG: Closed client: /10.0.0.6:54586in MyMiddleware.run()
LOG: Closed client: /10.0.0.6:54548in MyMiddleware.run()
LOG: Closed client: /10.0.0.6:54552in MyMiddleware.run()
LOG: Closed client: /10.0.0.6:54592in MyMiddleware.run()
LOG: Closed client: /10.0.0.6:54602in MyMiddleware.run()
LOG: Closed client: /10.0.0.6:54550in MyMiddleware.run()
LOG: Closed client: /10.0.0.6:54588in MyMiddleware.run()
LOG: Closed client: /10.0.0.6:54574in MyMiddleware.run()
LOG: Closed client: /10.0.0.6:54554in MyMiddleware.run()
LOG: Closed client: /10.0.0.6:54568in MyMiddleware.run()
LOG: Closed client: /10.0.0.6:54594in MyMiddleware.run()
LOG: Closed client: /10.0.0.6:54598in MyMiddleware.run()
LOG: Closed client: /10.0.0.6:54584in MyMiddleware.run()
LOG: Closed client: /10.0.0.6:54578in MyMiddleware.run()
LOG: Closed client: /10.0.0.6:54558in MyMiddleware.run()
LOG: Closed client: /10.0.0.6:54590in MyMiddleware.run()
LOG: Closed client: /10.0.0.6:54582in MyMiddleware.run()
LOG: Closed client: /10.0.0.6:54570in MyMiddleware.run()
LOG: Closed client: /10.0.0.6:54606in MyMiddleware.run()
LOG: Closed client: /10.0.0.6:54576in MyMiddleware.run()
LOG: Closed client: /10.0.0.6:54604in MyMiddleware.run()
LOG: Closed client: /10.0.0.6:54560in MyMiddleware.run()
LOG: Closed client: /10.0.0.6:54610in MyMiddleware.run()
LOG: Closed client: /10.0.0.6:54562in MyMiddleware.run()
LOG: Closed client: /10.0.0.6:54556in MyMiddleware.run()
LOG: Closed client: /10.0.0.6:54608in MyMiddleware.run()
LOG: Closed client: /10.0.0.6:54596in MyMiddleware.run()
LOG: Closed client: /10.0.0.6:54564in MyMiddleware.run()
LOG: Closed client: /10.0.0.6:54572in MyMiddleware.run()
LOG: Closed client: /10.0.0.6:54600in MyMiddleware.run()
