------------Middleware started!------------
LOG: Waiting for connection in MyMiddleware.run()
LOG: Accepted client: /10.0.0.7:55648in MyMiddleware.run()
LOG: Accepted client: /10.0.0.7:55630in MyMiddleware.run()
LOG: Accepted client: /10.0.0.7:55632in MyMiddleware.run()
LOG: Accepted client: /10.0.0.7:55652in MyMiddleware.run()
LOG: Accepted client: /10.0.0.7:55638in MyMiddleware.run()
LOG: Accepted client: /10.0.0.6:37620in MyMiddleware.run()
LOG: Accepted client: /10.0.0.7:55646in MyMiddleware.run()
LOG: Accepted client: /10.0.0.7:55650in MyMiddleware.run()
LOG: Accepted client: /10.0.0.7:55642in MyMiddleware.run()
LOG: Accepted client: /10.0.0.7:55644in MyMiddleware.run()
LOG: Accepted client: /10.0.0.7:55636in MyMiddleware.run()
LOG: Accepted client: /10.0.0.7:55634in MyMiddleware.run()
LOG: Accepted client: /10.0.0.7:55640in MyMiddleware.run()
LOG: Accepted client: /10.0.0.7:55656in MyMiddleware.run()
LOG: Accepted client: /10.0.0.7:55654in MyMiddleware.run()
LOG: Accepted client: /10.0.0.7:55628in MyMiddleware.run()
LOG: Accepted client: /10.0.0.6:37622in MyMiddleware.run()
LOG: Accepted client: /10.0.0.7:55658in MyMiddleware.run()
LOG: Accepted client: /10.0.0.6:37642in MyMiddleware.run()
LOG: Accepted client: /10.0.0.6:37638in MyMiddleware.run()
LOG: Accepted client: /10.0.0.6:37632in MyMiddleware.run()
LOG: Accepted client: /10.0.0.6:37636in MyMiddleware.run()
LOG: Accepted client: /10.0.0.6:37634in MyMiddleware.run()
LOG: Accepted client: /10.0.0.6:37624in MyMiddleware.run()
LOG: Accepted client: /10.0.0.6:37618in MyMiddleware.run()
LOG: Accepted client: /10.0.0.6:37644in MyMiddleware.run()
LOG: Accepted client: /10.0.0.6:37630in MyMiddleware.run()
LOG: Accepted client: /10.0.0.6:37640in MyMiddleware.run()
LOG: Accepted client: /10.0.0.6:37626in MyMiddleware.run()
LOG: Accepted client: /10.0.0.6:37646in MyMiddleware.run()
LOG: Accepted client: /10.0.0.6:37628in MyMiddleware.run()
LOG: Accepted client: /10.0.0.6:37648in MyMiddleware.run()
LOG: Accepted client: /10.0.0.11:54946in MyMiddleware.run()
LOG: Accepted client: /10.0.0.11:54936in MyMiddleware.run()
LOG: Accepted client: /10.0.0.11:54958in MyMiddleware.run()
LOG: Accepted client: /10.0.0.11:54948in MyMiddleware.run()
LOG: Accepted client: /10.0.0.11:54938in MyMiddleware.run()
LOG: Accepted client: /10.0.0.11:54956in MyMiddleware.run()
LOG: Accepted client: /10.0.0.11:54950in MyMiddleware.run()
LOG: Accepted client: /10.0.0.11:54944in MyMiddleware.run()
LOG: Accepted client: /10.0.0.11:54934in MyMiddleware.run()
LOG: Accepted client: /10.0.0.11:54932in MyMiddleware.run()
LOG: Accepted client: /10.0.0.11:54952in MyMiddleware.run()
LOG: Accepted client: /10.0.0.11:54954in MyMiddleware.run()
LOG: Accepted client: /10.0.0.11:54942in MyMiddleware.run()
LOG: Accepted client: /10.0.0.11:54940in MyMiddleware.run()
LOG: Accepted client: /10.0.0.11:54960in MyMiddleware.run()
LOG: Accepted client: /10.0.0.11:54962in MyMiddleware.run()
LOG: Closed client: /10.0.0.7:55648in MyMiddleware.run()
LOG: Closed client: /10.0.0.7:55630in MyMiddleware.run()
LOG: Closed client: /10.0.0.7:55634in MyMiddleware.run()
LOG: Closed client: /10.0.0.7:55628in MyMiddleware.run()
LOG: Closed client: /10.0.0.7:55656in MyMiddleware.run()
LOG: Closed client: /10.0.0.7:55650in MyMiddleware.run()
LOG: Closed client: /10.0.0.7:55640in MyMiddleware.run()
LOG: Closed client: /10.0.0.7:55654in MyMiddleware.run()
LOG: Closed client: /10.0.0.7:55646in MyMiddleware.run()
LOG: Closed client: /10.0.0.7:55652in MyMiddleware.run()
LOG: Closed client: /10.0.0.7:55632in MyMiddleware.run()
LOG: Closed client: /10.0.0.7:55638in MyMiddleware.run()
LOG: Closed client: /10.0.0.7:55636in MyMiddleware.run()
LOG: Closed client: /10.0.0.7:55644in MyMiddleware.run()
LOG: Closed client: /10.0.0.7:55658in MyMiddleware.run()
LOG: Closed client: /10.0.0.7:55642in MyMiddleware.run()
LOG: Closed client: /10.0.0.6:37638in MyMiddleware.run()
LOG: Closed client: /10.0.0.6:37636in MyMiddleware.run()
LOG: Closed client: /10.0.0.6:37634in MyMiddleware.run()
LOG: Closed client: /10.0.0.6:37624in MyMiddleware.run()
LOG: Closed client: /10.0.0.6:37632in MyMiddleware.run()
LOG: Closed client: /10.0.0.6:37630in MyMiddleware.run()
LOG: Closed client: /10.0.0.6:37628in MyMiddleware.run()
LOG: Closed client: /10.0.0.6:37626in MyMiddleware.run()
LOG: Closed client: /10.0.0.6:37648in MyMiddleware.run()
LOG: Closed client: /10.0.0.6:37618in MyMiddleware.run()
LOG: Closed client: /10.0.0.6:37646in MyMiddleware.run()
LOG: Closed client: /10.0.0.6:37640in MyMiddleware.run()
LOG: Closed client: /10.0.0.6:37622in MyMiddleware.run()
LOG: Closed client: /10.0.0.6:37644in MyMiddleware.run()
LOG: Closed client: /10.0.0.6:37620in MyMiddleware.run()
LOG: Closed client: /10.0.0.6:37642in MyMiddleware.run()
LOG: Closed client: /10.0.0.11:54946in MyMiddleware.run()
LOG: Closed client: /10.0.0.11:54944in MyMiddleware.run()
LOG: Closed client: /10.0.0.11:54936in MyMiddleware.run()
LOG: Closed client: /10.0.0.11:54954in MyMiddleware.run()
LOG: Closed client: /10.0.0.11:54940in MyMiddleware.run()
LOG: Closed client: /10.0.0.11:54958in MyMiddleware.run()
LOG: Closed client: /10.0.0.11:54932in MyMiddleware.run()
LOG: Closed client: /10.0.0.11:54948in MyMiddleware.run()
LOG: Closed client: /10.0.0.11:54960in MyMiddleware.run()
LOG: Closed client: /10.0.0.11:54952in MyMiddleware.run()
LOG: Closed client: /10.0.0.11:54938in MyMiddleware.run()
LOG: Closed client: /10.0.0.11:54934in MyMiddleware.run()
LOG: Closed client: /10.0.0.11:54956in MyMiddleware.run()
LOG: Closed client: /10.0.0.11:54950in MyMiddleware.run()
LOG: Closed client: /10.0.0.11:54942in MyMiddleware.run()
LOG: Closed client: /10.0.0.11:54962in MyMiddleware.run()
