------------Middleware started!------------
LOG: Waiting for connection in MyMiddleware.run()
LOG: Accepted client: /10.0.0.11:36094in MyMiddleware.run()
LOG: Accepted client: /10.0.0.11:36090in MyMiddleware.run()
LOG: Accepted client: /10.0.0.11:36104in MyMiddleware.run()
LOG: Accepted client: /10.0.0.11:36092in MyMiddleware.run()
LOG: Accepted client: /10.0.0.6:47034in MyMiddleware.run()
LOG: Accepted client: /10.0.0.6:47032in MyMiddleware.run()
LOG: Accepted client: /10.0.0.6:47036in MyMiddleware.run()
LOG: Accepted client: /10.0.0.6:47038in MyMiddleware.run()
LOG: Accepted client: /10.0.0.6:47042in MyMiddleware.run()
LOG: Accepted client: /10.0.0.6:47030in MyMiddleware.run()
LOG: Accepted client: /10.0.0.6:47040in MyMiddleware.run()
LOG: Accepted client: /10.0.0.6:47028in MyMiddleware.run()
LOG: Accepted client: /10.0.0.11:36096in MyMiddleware.run()
LOG: Accepted client: /10.0.0.11:36100in MyMiddleware.run()
LOG: Accepted client: /10.0.0.11:36098in MyMiddleware.run()
LOG: Accepted client: /10.0.0.11:36102in MyMiddleware.run()
LOG: Accepted client: /10.0.0.7:36814in MyMiddleware.run()
LOG: Accepted client: /10.0.0.7:36806in MyMiddleware.run()
LOG: Accepted client: /10.0.0.7:36816in MyMiddleware.run()
LOG: Accepted client: /10.0.0.7:36812in MyMiddleware.run()
LOG: Accepted client: /10.0.0.7:36808in MyMiddleware.run()
LOG: Accepted client: /10.0.0.7:36818in MyMiddleware.run()
LOG: Accepted client: /10.0.0.7:36810in MyMiddleware.run()
LOG: Accepted client: /10.0.0.7:36820in MyMiddleware.run()
LOG: Closed client: /10.0.0.11:36092in MyMiddleware.run()
LOG: Closed client: /10.0.0.11:36102in MyMiddleware.run()
LOG: Closed client: /10.0.0.11:36094in MyMiddleware.run()
LOG: Closed client: /10.0.0.11:36098in MyMiddleware.run()
LOG: Closed client: /10.0.0.11:36096in MyMiddleware.run()
LOG: Closed client: /10.0.0.11:36100in MyMiddleware.run()
LOG: Closed client: /10.0.0.11:36090in MyMiddleware.run()
LOG: Closed client: /10.0.0.11:36104in MyMiddleware.run()
LOG: Closed client: /10.0.0.6:47036in MyMiddleware.run()
LOG: Closed client: /10.0.0.6:47028in MyMiddleware.run()
LOG: Closed client: /10.0.0.6:47038in MyMiddleware.run()
LOG: Closed client: /10.0.0.6:47032in MyMiddleware.run()
LOG: Closed client: /10.0.0.6:47040in MyMiddleware.run()
LOG: Closed client: /10.0.0.6:47042in MyMiddleware.run()
LOG: Closed client: /10.0.0.6:47034in MyMiddleware.run()
LOG: Closed client: /10.0.0.6:47030in MyMiddleware.run()
LOG: Closed client: /10.0.0.7:36818in MyMiddleware.run()
LOG: Closed client: /10.0.0.7:36806in MyMiddleware.run()
LOG: Closed client: /10.0.0.7:36816in MyMiddleware.run()
LOG: Closed client: /10.0.0.7:36820in MyMiddleware.run()
LOG: Closed client: /10.0.0.7:36812in MyMiddleware.run()
LOG: Closed client: /10.0.0.7:36814in MyMiddleware.run()
LOG: Closed client: /10.0.0.7:36810in MyMiddleware.run()
LOG: Closed client: /10.0.0.7:36808in MyMiddleware.run()
