------------Middleware started!------------
LOG: Waiting for connection in MyMiddleware.run()
LOG: Accepted client: /10.0.0.7:37736in MyMiddleware.run()
LOG: Accepted client: /10.0.0.7:37738in MyMiddleware.run()
LOG: Accepted client: /10.0.0.7:37750in MyMiddleware.run()
LOG: Accepted client: /10.0.0.7:37744in MyMiddleware.run()
LOG: Accepted client: /10.0.0.7:37740in MyMiddleware.run()
LOG: Accepted client: /10.0.0.7:37748in MyMiddleware.run()
LOG: Accepted client: /10.0.0.7:37746in MyMiddleware.run()
LOG: Accepted client: /10.0.0.7:37742in MyMiddleware.run()
LOG: Accepted client: /10.0.0.6:47958in MyMiddleware.run()
LOG: Accepted client: /10.0.0.6:47960in MyMiddleware.run()
LOG: Accepted client: /10.0.0.6:47962in MyMiddleware.run()
LOG: Accepted client: /10.0.0.6:47966in MyMiddleware.run()
LOG: Accepted client: /10.0.0.6:47970in MyMiddleware.run()
LOG: Accepted client: /10.0.0.6:47968in MyMiddleware.run()
LOG: Accepted client: /10.0.0.6:47972in MyMiddleware.run()
LOG: Accepted client: /10.0.0.6:47964in MyMiddleware.run()
LOG: Accepted client: /10.0.0.11:37036in MyMiddleware.run()
LOG: Accepted client: /10.0.0.11:37038in MyMiddleware.run()
LOG: Accepted client: /10.0.0.11:37042in MyMiddleware.run()
LOG: Accepted client: /10.0.0.11:37046in MyMiddleware.run()
LOG: Accepted client: /10.0.0.11:37040in MyMiddleware.run()
LOG: Accepted client: /10.0.0.11:37050in MyMiddleware.run()
LOG: Accepted client: /10.0.0.11:37044in MyMiddleware.run()
LOG: Accepted client: /10.0.0.11:37048in MyMiddleware.run()
LOG: Closed client: /10.0.0.11:37036in MyMiddleware.run()
LOG: Closed client: /10.0.0.11:37038in MyMiddleware.run()
LOG: Closed client: /10.0.0.11:37042in MyMiddleware.run()
LOG: Closed client: /10.0.0.11:37040in MyMiddleware.run()
LOG: Closed client: /10.0.0.11:37048in MyMiddleware.run()
LOG: Closed client: /10.0.0.11:37044in MyMiddleware.run()
LOG: Closed client: /10.0.0.11:37050in MyMiddleware.run()
LOG: Closed client: /10.0.0.11:37046in MyMiddleware.run()
LOG: Closed client: /10.0.0.6:47960in MyMiddleware.run()
LOG: Closed client: /10.0.0.6:47964in MyMiddleware.run()
LOG: Closed client: /10.0.0.6:47968in MyMiddleware.run()
LOG: Closed client: /10.0.0.6:47958in MyMiddleware.run()
LOG: Closed client: /10.0.0.6:47962in MyMiddleware.run()
LOG: Closed client: /10.0.0.6:47966in MyMiddleware.run()
LOG: Closed client: /10.0.0.6:47970in MyMiddleware.run()
LOG: Closed client: /10.0.0.6:47972in MyMiddleware.run()
LOG: Closed client: /10.0.0.7:37742in MyMiddleware.run()
LOG: Closed client: /10.0.0.7:37740in MyMiddleware.run()
LOG: Closed client: /10.0.0.7:37736in MyMiddleware.run()
LOG: Closed client: /10.0.0.7:37738in MyMiddleware.run()
LOG: Closed client: /10.0.0.7:37748in MyMiddleware.run()
LOG: Closed client: /10.0.0.7:37746in MyMiddleware.run()
LOG: Closed client: /10.0.0.7:37744in MyMiddleware.run()
LOG: Closed client: /10.0.0.7:37750in MyMiddleware.run()
