------------Middleware started!------------
LOG: Waiting for connection in MyMiddleware.run()
LOG: Accepted client: /10.0.0.11:52010in MyMiddleware.run()
LOG: Accepted client: /10.0.0.11:51996in MyMiddleware.run()
LOG: Accepted client: /10.0.0.11:52008in MyMiddleware.run()
LOG: Accepted client: /10.0.0.11:51998in MyMiddleware.run()
LOG: Accepted client: /10.0.0.11:52006in MyMiddleware.run()
LOG: Accepted client: /10.0.0.11:52000in MyMiddleware.run()
LOG: Accepted client: /10.0.0.11:52002in MyMiddleware.run()
LOG: Accepted client: /10.0.0.7:52706in MyMiddleware.run()
LOG: Accepted client: /10.0.0.7:52700in MyMiddleware.run()
LOG: Accepted client: /10.0.0.7:52708in MyMiddleware.run()
LOG: Accepted client: /10.0.0.7:52698in MyMiddleware.run()
LOG: Accepted client: /10.0.0.7:52704in MyMiddleware.run()
LOG: Accepted client: /10.0.0.11:52004in MyMiddleware.run()
LOG: Accepted client: /10.0.0.7:52710in MyMiddleware.run()
LOG: Accepted client: /10.0.0.7:52702in MyMiddleware.run()
LOG: Accepted client: /10.0.0.7:52712in MyMiddleware.run()
LOG: Accepted client: /10.0.0.6:34702in MyMiddleware.run()
LOG: Accepted client: /10.0.0.6:34700in MyMiddleware.run()
LOG: Accepted client: /10.0.0.6:34696in MyMiddleware.run()
LOG: Accepted client: /10.0.0.6:34698in MyMiddleware.run()
LOG: Accepted client: /10.0.0.6:34694in MyMiddleware.run()
LOG: Accepted client: /10.0.0.6:34692in MyMiddleware.run()
LOG: Accepted client: /10.0.0.6:34706in MyMiddleware.run()
LOG: Accepted client: /10.0.0.6:34704in MyMiddleware.run()
LOG: Closed client: /10.0.0.7:52698in MyMiddleware.run()
LOG: Closed client: /10.0.0.7:52700in MyMiddleware.run()
LOG: Closed client: /10.0.0.7:52712in MyMiddleware.run()
LOG: Closed client: /10.0.0.7:52710in MyMiddleware.run()
LOG: Closed client: /10.0.0.7:52704in MyMiddleware.run()
LOG: Closed client: /10.0.0.7:52706in MyMiddleware.run()
LOG: Closed client: /10.0.0.7:52702in MyMiddleware.run()
LOG: Closed client: /10.0.0.7:52708in MyMiddleware.run()
LOG: Closed client: /10.0.0.11:51996in MyMiddleware.run()
LOG: Closed client: /10.0.0.11:52006in MyMiddleware.run()
LOG: Closed client: /10.0.0.11:52000in MyMiddleware.run()
LOG: Closed client: /10.0.0.11:52008in MyMiddleware.run()
LOG: Closed client: /10.0.0.11:52004in MyMiddleware.run()
LOG: Closed client: /10.0.0.11:52010in MyMiddleware.run()
LOG: Closed client: /10.0.0.11:52002in MyMiddleware.run()
LOG: Closed client: /10.0.0.11:51998in MyMiddleware.run()
LOG: Closed client: /10.0.0.6:34702in MyMiddleware.run()
LOG: Closed client: /10.0.0.6:34700in MyMiddleware.run()
LOG: Closed client: /10.0.0.6:34698in MyMiddleware.run()
LOG: Closed client: /10.0.0.6:34704in MyMiddleware.run()
LOG: Closed client: /10.0.0.6:34692in MyMiddleware.run()
LOG: Closed client: /10.0.0.6:34694in MyMiddleware.run()
LOG: Closed client: /10.0.0.6:34696in MyMiddleware.run()
LOG: Closed client: /10.0.0.6:34706in MyMiddleware.run()
