------------Middleware started!------------
LOG: Waiting for connection in MyMiddleware.run()
LOG: Accepted client: /10.0.0.11:41292in MyMiddleware.run()
LOG: Accepted client: /10.0.0.11:41312in MyMiddleware.run()
LOG: Accepted client: /10.0.0.11:41310in MyMiddleware.run()
LOG: Accepted client: /10.0.0.11:41296in MyMiddleware.run()
LOG: Accepted client: /10.0.0.11:41314in MyMiddleware.run()
LOG: Accepted client: /10.0.0.11:41308in MyMiddleware.run()
LOG: Accepted client: /10.0.0.6:52264in MyMiddleware.run()
LOG: Accepted client: /10.0.0.6:52250in MyMiddleware.run()
LOG: Accepted client: /10.0.0.11:41316in MyMiddleware.run()
LOG: Accepted client: /10.0.0.6:52256in MyMiddleware.run()
LOG: Accepted client: /10.0.0.6:52248in MyMiddleware.run()
LOG: Accepted client: /10.0.0.11:41306in MyMiddleware.run()
LOG: Accepted client: /10.0.0.11:41318in MyMiddleware.run()
LOG: Accepted client: /10.0.0.11:41294in MyMiddleware.run()
LOG: Accepted client: /10.0.0.11:41304in MyMiddleware.run()
LOG: Accepted client: /10.0.0.11:41322in MyMiddleware.run()
LOG: Accepted client: /10.0.0.11:41320in MyMiddleware.run()
LOG: Accepted client: /10.0.0.6:52240in MyMiddleware.run()
LOG: Accepted client: /10.0.0.6:52246in MyMiddleware.run()
LOG: Accepted client: /10.0.0.6:52266in MyMiddleware.run()
LOG: Accepted client: /10.0.0.6:52258in MyMiddleware.run()
LOG: Accepted client: /10.0.0.11:41298in MyMiddleware.run()
LOG: Accepted client: /10.0.0.6:52242in MyMiddleware.run()
LOG: Accepted client: /10.0.0.6:52262in MyMiddleware.run()
LOG: Accepted client: /10.0.0.6:52244in MyMiddleware.run()
LOG: Accepted client: /10.0.0.6:52254in MyMiddleware.run()
LOG: Accepted client: /10.0.0.6:52260in MyMiddleware.run()
LOG: Accepted client: /10.0.0.11:41300in MyMiddleware.run()
LOG: Accepted client: /10.0.0.11:41302in MyMiddleware.run()
LOG: Accepted client: /10.0.0.6:52238in MyMiddleware.run()
LOG: Accepted client: /10.0.0.6:52252in MyMiddleware.run()
LOG: Accepted client: /10.0.0.6:52268in MyMiddleware.run()
LOG: Accepted client: /10.0.0.7:42028in MyMiddleware.run()
LOG: Accepted client: /10.0.0.7:42046in MyMiddleware.run()
LOG: Accepted client: /10.0.0.7:42016in MyMiddleware.run()
LOG: Accepted client: /10.0.0.7:42024in MyMiddleware.run()
LOG: Accepted client: /10.0.0.7:42022in MyMiddleware.run()
LOG: Accepted client: /10.0.0.7:42020in MyMiddleware.run()
LOG: Accepted client: /10.0.0.7:42026in MyMiddleware.run()
LOG: Accepted client: /10.0.0.7:42040in MyMiddleware.run()
LOG: Accepted client: /10.0.0.7:42044in MyMiddleware.run()
LOG: Accepted client: /10.0.0.7:42038in MyMiddleware.run()
LOG: Accepted client: /10.0.0.7:42036in MyMiddleware.run()
LOG: Accepted client: /10.0.0.7:42030in MyMiddleware.run()
LOG: Accepted client: /10.0.0.7:42042in MyMiddleware.run()
LOG: Accepted client: /10.0.0.7:42034in MyMiddleware.run()
LOG: Accepted client: /10.0.0.7:42032in MyMiddleware.run()
LOG: Accepted client: /10.0.0.7:42018in MyMiddleware.run()
LOG: Closed client: /10.0.0.11:41298in MyMiddleware.run()
LOG: Closed client: /10.0.0.11:41294in MyMiddleware.run()
LOG: Closed client: /10.0.0.11:41292in MyMiddleware.run()
LOG: Closed client: /10.0.0.11:41304in MyMiddleware.run()
LOG: Closed client: /10.0.0.11:41296in MyMiddleware.run()
LOG: Closed client: /10.0.0.11:41312in MyMiddleware.run()
LOG: Closed client: /10.0.0.11:41300in MyMiddleware.run()
LOG: Closed client: /10.0.0.11:41314in MyMiddleware.run()
LOG: Closed client: /10.0.0.11:41306in MyMiddleware.run()
LOG: Closed client: /10.0.0.11:41302in MyMiddleware.run()
LOG: Closed client: /10.0.0.11:41322in MyMiddleware.run()
LOG: Closed client: /10.0.0.11:41318in MyMiddleware.run()
LOG: Closed client: /10.0.0.11:41310in MyMiddleware.run()
LOG: Closed client: /10.0.0.11:41320in MyMiddleware.run()
LOG: Closed client: /10.0.0.11:41308in MyMiddleware.run()
LOG: Closed client: /10.0.0.11:41316in MyMiddleware.run()
LOG: Closed client: /10.0.0.6:52242in MyMiddleware.run()
LOG: Closed client: /10.0.0.6:52244in MyMiddleware.run()
LOG: Closed client: /10.0.0.6:52238in MyMiddleware.run()
LOG: Closed client: /10.0.0.6:52246in MyMiddleware.run()
LOG: Closed client: /10.0.0.6:52240in MyMiddleware.run()
LOG: Closed client: /10.0.0.6:52266in MyMiddleware.run()
LOG: Closed client: /10.0.0.6:52268in MyMiddleware.run()
LOG: Closed client: /10.0.0.6:52250in MyMiddleware.run()
LOG: Closed client: /10.0.0.6:52264in MyMiddleware.run()
LOG: Closed client: /10.0.0.6:52262in MyMiddleware.run()
LOG: Closed client: /10.0.0.6:52258in MyMiddleware.run()
LOG: Closed client: /10.0.0.6:52248in MyMiddleware.run()
LOG: Closed client: /10.0.0.6:52254in MyMiddleware.run()
LOG: Closed client: /10.0.0.6:52256in MyMiddleware.run()
LOG: Closed client: /10.0.0.6:52252in MyMiddleware.run()
LOG: Closed client: /10.0.0.6:52260in MyMiddleware.run()
LOG: Closed client: /10.0.0.7:42028in MyMiddleware.run()
LOG: Closed client: /10.0.0.7:42046in MyMiddleware.run()
LOG: Closed client: /10.0.0.7:42030in MyMiddleware.run()
LOG: Closed client: /10.0.0.7:42034in MyMiddleware.run()
LOG: Closed client: /10.0.0.7:42038in MyMiddleware.run()
LOG: Closed client: /10.0.0.7:42024in MyMiddleware.run()
LOG: Closed client: /10.0.0.7:42036in MyMiddleware.run()
LOG: Closed client: /10.0.0.7:42020in MyMiddleware.run()
LOG: Closed client: /10.0.0.7:42026in MyMiddleware.run()
LOG: Closed client: /10.0.0.7:42018in MyMiddleware.run()
LOG: Closed client: /10.0.0.7:42016in MyMiddleware.run()
LOG: Closed client: /10.0.0.7:42032in MyMiddleware.run()
LOG: Closed client: /10.0.0.7:42040in MyMiddleware.run()
LOG: Closed client: /10.0.0.7:42022in MyMiddleware.run()
LOG: Closed client: /10.0.0.7:42044in MyMiddleware.run()
LOG: Closed client: /10.0.0.7:42042in MyMiddleware.run()
