Second,Ops/sec,Hits/sec,Misses/sec,Latency,KB/sec,Request_Creation_Time,Request_Buffer_Time,MW_Writes_To_Memcached_Time,Memcached_Process_Time,MW_Writes_To_Memtier_Time,Queue_Size
4,4067.00,4067.00,0.00,2.365,453,0.015,0.958,0.025,1.325,0.041,26.8
5,19190.00,19190.00,0.00,7.835,2134,0.005,6.193,0.009,1.614,0.013,113.1
6,20291.00,20291.00,0.00,8.874,2256,0.004,7.295,0.006,1.560,0.010,137.0
7,21157.00,21157.00,0.00,8.378,2351,0.003,6.874,0.006,1.485,0.010,134.7
8,21227.00,21227.00,0.00,8.366,2358,0.003,6.849,0.006,1.498,0.009,134.0
9,20567.00,20567.00,0.00,8.609,2287,0.003,7.058,0.006,1.533,0.010,134.7
10,20706.00,20706.00,0.00,8.647,2300,0.003,7.093,0.006,1.535,0.010,135.3
11,20954.00,20954.00,0.00,8.610,2329,0.003,7.080,0.006,1.512,0.010,137.1
12,19684.00,19684.00,0.00,9.115,2187,0.003,7.499,0.006,1.597,0.010,136.4
13,21434.00,21434.00,0.00,8.472,2380,0.003,6.962,0.007,1.491,0.010,136.3
14,20670.00,20670.00,0.00,8.660,2296,0.003,7.116,0.006,1.526,0.009,138.0
15,20649.00,20649.00,0.00,8.646,2295,0.003,7.108,0.006,1.520,0.009,135.0
16,20542.00,20542.00,0.00,8.853,2282,0.002,7.282,0.006,1.553,0.009,136.9
17,21863.00,21863.00,0.00,8.301,2429,0.002,6.834,0.006,1.449,0.009,137.2
18,21213.00,21213.00,0.00,8.370,2356,0.002,6.861,0.006,1.491,0.010,135.1
19,20334.00,20334.00,0.00,8.906,2260,0.003,7.332,0.006,1.555,0.010,136.6
20,20463.00,20463.00,0.00,8.739,2274,0.002,7.180,0.006,1.542,0.009,135.2
21,20667.00,20667.00,0.00,8.696,2297,0.002,7.142,0.006,1.537,0.009,137.0
22,20518.00,20518.00,0.00,8.823,2280,0.002,7.266,0.006,1.539,0.010,137.1
23,21194.00,21194.00,0.00,8.484,2356,0.002,6.969,0.006,1.496,0.010,135.8
24,20837.00,20837.00,0.00,8.625,2315,0.003,7.091,0.006,1.516,0.009,137.0
25,20301.00,20301.00,0.00,8.885,2256,0.002,7.305,0.007,1.559,0.011,136.8
26,21216.00,21216.00,0.00,8.416,2357,0.002,6.917,0.006,1.482,0.009,136.5
27,21110.00,21058.00,52.00,8.508,2339,0.003,6.980,0.007,1.506,0.013,136.2
28,21044.00,20915.00,129.00,8.524,2323,0.002,7.008,0.007,1.497,0.010,135.4
29,20757.00,20746.00,11.00,8.652,2304,0.003,7.110,0.006,1.523,0.010,136.0
30,21212.00,21212.00,0.00,8.462,2356,0.002,6.949,0.006,1.496,0.009,135.1
31,21692.00,21692.00,0.00,8.219,2407,0.002,6.745,0.006,1.455,0.010,133.6
32,21453.00,21453.00,0.00,8.316,2384,0.002,6.822,0.006,1.475,0.010,135.3
33,21126.00,21126.00,0.00,8.427,2347,0.003,6.920,0.006,1.487,0.010,135.3
34,20658.00,20658.00,0.00,8.745,2295,0.002,7.196,0.006,1.531,0.010,137.3
35,20830.00,20830.00,0.00,8.689,2315,0.002,7.142,0.006,1.529,0.009,137.0
36,21017.00,21017.00,0.00,8.465,2335,0.003,6.964,0.007,1.482,0.010,135.3
37,20543.00,20543.00,0.00,8.800,2282,0.002,7.237,0.006,1.545,0.009,136.3
38,21182.00,21182.00,0.00,8.304,2354,0.002,6.810,0.007,1.475,0.010,134.1
39,20670.00,20670.00,0.00,8.612,2298,0.002,7.065,0.006,1.530,0.009,134.7
40,20591.00,20591.00,0.00,8.775,2289,0.002,7.229,0.006,1.529,0.009,137.7
41,21525.00,21525.00,0.00,8.417,2392,0.002,6.921,0.006,1.479,0.009,137.2
42,20854.00,20854.00,0.00,8.563,2318,0.003,7.035,0.006,1.510,0.009,136.2
43,20190.00,20190.00,0.00,8.960,2245,0.002,7.370,0.006,1.572,0.009,136.5
44,21209.00,21209.00,0.00,8.513,2355,0.002,6.997,0.006,1.497,0.010,136.9
45,20715.00,20715.00,0.00,8.751,2300,0.002,7.205,0.006,1.528,0.010,137.6
46,20847.00,20847.00,0.00,8.575,2316,0.002,7.040,0.006,1.517,0.009,137.1
47,21773.00,21773.00,0.00,8.230,2420,0.003,6.762,0.006,1.451,0.009,136.2
48,20760.00,20760.00,0.00,8.607,2306,0.003,7.071,0.006,1.518,0.009,136.2
49,20896.00,20896.00,0.00,8.546,2321,0.002,7.011,0.006,1.518,0.010,136.6
50,21356.00,21356.00,0.00,8.373,2372,0.002,6.877,0.006,1.479,0.009,135.3
51,21214.00,21214.00,0.00,8.442,2357,0.002,6.931,0.006,1.493,0.010,135.7
52,21209.00,21209.00,0.00,8.460,2355,0.002,6.957,0.006,1.486,0.009,136.2
53,20696.00,20696.00,0.00,8.608,2298,0.002,7.065,0.006,1.525,0.009,134.3
54,20848.00,20848.00,0.00,8.765,2316,0.002,7.218,0.006,1.530,0.009,137.9
55,21311.00,21311.00,0.00,8.297,2369,0.003,6.793,0.007,1.482,0.011,133.0
56,21030.00,21030.00,0.00,8.547,2337,0.003,7.025,0.006,1.505,0.009,136.1
57,21282.00,21282.00,0.00,8.416,2365,0.002,6.913,0.006,1.485,0.009,135.5
58,21166.00,21166.00,0.00,8.463,2352,0.002,6.948,0.006,1.497,0.010,136.1
59,21072.00,21072.00,0.00,8.530,2341,0.002,7.021,0.006,1.492,0.009,137.3
60,21325.00,21325.00,0.00,8.327,2369,0.002,6.830,0.006,1.480,0.009,135.6
61,22423.00,22423.00,0.00,7.905,2490,0.003,6.483,0.006,1.404,0.009,132.5
62,22070.00,22070.00,0.00,8.186,2451,0.002,6.723,0.006,1.446,0.009,135.3
63,21886.00,21886.00,0.00,8.187,2432,0.003,6.727,0.007,1.441,0.010,134.7
64,20914.00,20914.00,0.00,8.566,2324,0.003,7.035,0.006,1.513,0.010,135.5
65,19982.00,19982.00,0.00,8.876,2220,0.003,7.276,0.006,1.581,0.010,132.9
66,20914.00,20914.00,0.00,8.409,2324,0.003,6.888,0.006,1.502,0.010,134.2
67,21344.00,21344.00,0.00,8.449,2373,0.002,6.942,0.006,1.490,0.009,136.5
68,20371.00,20371.00,0.00,8.797,2265,0.002,7.228,0.006,1.552,0.009,136.2
69,20603.00,20602.00,1.00,8.733,2290,0.002,7.187,0.006,1.529,0.009,136.7
70,20615.00,20598.00,17.00,8.751,2290,0.002,7.187,0.006,1.546,0.009,135.6
71,20163.00,20093.00,70.00,8.698,2233,0.002,7.110,0.006,1.569,0.010,132.1
72,20317.00,20251.00,66.00,8.842,2250,0.002,7.267,0.006,1.556,0.009,136.1
73,20829.00,20799.00,30.00,8.634,2310,0.002,7.103,0.006,1.513,0.009,137.5
74,17868.00,17861.00,7.00,7.513,1983,0.002,6.053,0.007,1.441,0.009,114.4
75,7901.00,7901.00,0.00,0.931,878,0.004,0.146,0.010,0.761,0.010,0.7
