Second,Ops/sec,Hits/sec,Misses/sec,Latency,KB/sec,Request_Creation_Time,Request_Buffer_Time,MW_Writes_To_Memcached_Time,Memcached_Process_Time,MW_Writes_To_Memtier_Time,Queue_Size
4,3309.00,3309.00,0.00,2.798,992,0.023,1.347,0.062,1.259,0.107,23.9
5,19311.00,19311.00,0.00,6.267,5787,0.005,4.614,0.008,1.628,0.012,80.8
6,20495.00,20495.00,0.00,8.763,6141,0.004,7.199,0.006,1.544,0.010,136.5
7,21631.00,21631.00,0.00,8.320,6481,0.003,6.839,0.006,1.463,0.009,135.2
8,21318.00,21318.00,0.00,8.354,6387,0.003,6.855,0.007,1.479,0.010,135.9
9,21894.00,21894.00,0.00,8.172,6560,0.003,6.704,0.006,1.450,0.010,134.2
10,21046.00,21046.00,0.00,8.458,6306,0.003,6.938,0.007,1.500,0.011,135.1
11,20194.00,20194.00,0.00,8.986,6050,0.002,7.401,0.006,1.567,0.009,137.8
12,21032.00,21032.00,0.00,8.423,6300,0.003,6.900,0.006,1.504,0.010,135.2
13,20845.00,20845.00,0.00,8.680,6244,0.002,7.143,0.006,1.520,0.009,137.6
14,20301.00,20301.00,0.00,8.883,6081,0.002,7.316,0.006,1.549,0.010,137.5
15,20825.00,20825.00,0.00,8.606,6239,0.003,7.066,0.007,1.522,0.009,137.3
16,19918.00,19918.00,0.00,9.033,5967,0.003,7.429,0.006,1.585,0.010,137.1
17,20051.00,20051.00,0.00,8.948,6006,0.002,7.355,0.006,1.574,0.010,136.6
18,20882.00,20882.00,0.00,8.722,6256,0.002,7.180,0.006,1.524,0.010,137.3
19,20856.00,20856.00,0.00,8.539,6249,0.003,7.006,0.006,1.515,0.010,135.6
20,19862.00,19862.00,0.00,9.027,5950,0.003,7.413,0.006,1.595,0.010,136.2
21,21607.00,21607.00,0.00,8.266,6474,0.002,6.790,0.006,1.458,0.009,136.7
22,20860.00,20860.00,0.00,8.514,6250,0.002,6.980,0.006,1.516,0.010,134.5
23,19545.00,19545.00,0.00,9.212,5856,0.002,7.574,0.006,1.620,0.010,137.2
24,20567.00,20567.00,0.00,8.781,6162,0.002,7.233,0.006,1.530,0.010,138.0
25,20527.00,20527.00,0.00,8.760,6150,0.002,7.189,0.006,1.553,0.010,135.8
26,20376.00,20376.00,0.00,8.881,6104,0.002,7.312,0.006,1.551,0.009,137.5
27,20391.00,20316.00,75.00,8.816,6087,0.002,7.252,0.008,1.542,0.011,137.3
28,19669.00,19619.00,50.00,9.179,5877,0.002,7.541,0.007,1.618,0.010,137.0
29,20659.00,20597.00,62.00,8.692,6170,0.003,7.149,0.007,1.524,0.010,136.4
30,20212.00,20207.00,5.00,8.916,6052,0.002,7.327,0.006,1.571,0.010,137.4
31,20336.00,20336.00,0.00,8.892,6091,0.002,7.320,0.006,1.553,0.010,136.8
32,20559.00,20559.00,0.00,8.756,6158,0.002,7.201,0.006,1.536,0.010,137.4
33,19923.00,19923.00,0.00,9.133,5968,0.002,7.522,0.006,1.593,0.010,137.9
34,19924.00,19924.00,0.00,8.854,5969,0.002,7.257,0.007,1.576,0.011,135.2
35,20856.00,20856.00,0.00,8.620,6248,0.003,7.083,0.006,1.519,0.010,137.1
36,20428.00,20428.00,0.00,8.661,6120,0.003,7.103,0.006,1.539,0.011,135.8
37,20786.00,20786.00,0.00,8.683,6227,0.002,7.140,0.006,1.524,0.010,136.5
38,20306.00,20306.00,0.00,8.907,6084,0.002,7.334,0.006,1.556,0.009,137.7
39,20241.00,20241.00,0.00,8.933,6064,0.002,7.348,0.006,1.567,0.010,137.0
40,20945.00,20945.00,0.00,8.490,6276,0.003,6.964,0.006,1.508,0.009,134.6
41,20454.00,20454.00,0.00,8.716,6128,0.003,7.156,0.006,1.542,0.010,135.6
42,20357.00,20357.00,0.00,8.798,6100,0.003,7.223,0.006,1.557,0.010,135.1
43,20063.00,20063.00,0.00,8.925,6012,0.002,7.323,0.006,1.585,0.010,135.6
44,20997.00,20997.00,0.00,8.587,6290,0.002,7.062,0.006,1.508,0.009,137.3
45,20474.00,20474.00,0.00,8.848,6133,0.002,7.283,0.006,1.546,0.009,137.7
46,21122.00,21122.00,0.00,8.266,6327,0.003,6.758,0.006,1.488,0.010,133.9
47,20852.00,20852.00,0.00,8.567,6247,0.002,7.019,0.007,1.529,0.010,135.1
48,19708.00,19708.00,0.00,9.125,5904,0.002,7.501,0.006,1.606,0.010,135.3
49,20905.00,20905.00,0.00,8.602,6263,0.002,7.069,0.006,1.515,0.009,136.1
50,20459.00,20459.00,0.00,8.777,6129,0.003,7.212,0.006,1.546,0.010,138.1
51,20441.00,20441.00,0.00,8.849,6123,0.002,7.282,0.006,1.549,0.009,136.6
52,20324.00,20324.00,0.00,8.755,6088,0.002,7.179,0.006,1.557,0.010,134.6
53,20569.00,20569.00,0.00,8.766,6161,0.002,7.221,0.006,1.527,0.010,137.3
54,19978.00,19978.00,0.00,9.026,5985,0.003,7.414,0.006,1.593,0.009,136.2
55,20626.00,20626.00,0.00,8.726,6179,0.002,7.174,0.006,1.534,0.010,136.9
56,20082.00,20082.00,0.00,8.927,6016,0.002,7.338,0.006,1.571,0.010,136.5
57,20332.00,20332.00,0.00,8.643,6092,0.003,7.079,0.006,1.544,0.010,134.4
58,20161.00,20161.00,0.00,8.969,6040,0.003,7.391,0.006,1.559,0.010,137.7
59,21021.00,21021.00,0.00,8.564,6298,0.002,7.035,0.006,1.511,0.010,136.0
60,19844.00,19844.00,0.00,8.978,5945,0.003,7.365,0.006,1.593,0.011,134.6
61,20724.00,20724.00,0.00,8.675,6208,0.002,7.129,0.006,1.528,0.009,136.9
62,20740.00,20740.00,0.00,8.456,6212,0.002,6.915,0.006,1.522,0.010,134.7
63,19987.00,19987.00,0.00,9.024,5987,0.003,7.424,0.006,1.581,0.010,135.6
64,19973.00,19973.00,0.00,9.014,5983,0.003,7.413,0.006,1.583,0.010,136.0
65,20425.00,20425.00,0.00,8.781,6119,0.003,7.218,0.006,1.545,0.009,137.4
66,20062.00,20062.00,0.00,8.997,6010,0.002,7.394,0.007,1.584,0.010,136.5
67,20111.00,20111.00,0.00,8.780,6025,0.003,7.195,0.007,1.565,0.010,135.1
68,20399.00,20399.00,0.00,8.776,6112,0.003,7.211,0.006,1.545,0.011,136.8
69,20424.00,20424.00,0.00,8.842,6120,0.003,7.268,0.006,1.557,0.009,136.9
70,21563.00,21563.00,0.00,8.208,6461,0.003,6.733,0.006,1.456,0.010,135.6
71,20718.00,20694.00,24.00,8.700,6201,0.003,7.146,0.006,1.536,0.010,135.1
72,20589.00,20547.00,42.00,8.761,6157,0.002,7.201,0.006,1.542,0.010,136.5
73,19591.00,19540.00,51.00,9.181,5854,0.002,7.548,0.006,1.615,0.010,136.9
74,20869.00,20812.00,57.00,6.828,6235,0.002,5.331,0.006,1.479,0.009,102.3
75,14387.00,14369.00,18.00,2.302,4304,0.003,0.848,0.008,1.433,0.009,10.8
