Second,Ops/sec,Hits/sec,Misses/sec,Latency,KB/sec,Request_Creation_Time,Request_Buffer_Time,MW_Writes_To_Memcached_Time,Memcached_Process_Time,MW_Writes_To_Memtier_Time,Queue_Size
4,3833.00,3833.00,0.00,2.277,1149,0.019,0.756,0.052,1.398,0.051,9.3
5,18369.00,18369.00,0.00,2.548,5504,0.010,0.553,0.018,1.943,0.022,6.5
6,23450.00,23450.00,0.00,3.304,7026,0.003,0.905,0.011,2.374,0.011,8.8
7,24578.00,24578.00,0.00,3.264,7364,0.003,0.934,0.008,2.310,0.009,9.7
8,24385.00,24385.00,0.00,3.242,7305,0.004,0.886,0.008,2.334,0.010,8.9
9,24547.00,24547.00,0.00,3.358,7354,0.003,0.956,0.008,2.382,0.009,9.1
10,24568.00,24568.00,0.00,3.311,7360,0.003,0.943,0.008,2.347,0.009,8.9
11,22864.00,22864.00,0.00,3.610,6850,0.003,1.034,0.008,2.556,0.009,9.3
12,24820.00,24820.00,0.00,3.229,7436,0.003,0.914,0.008,2.292,0.012,9.4
13,25364.00,25363.00,1.00,3.190,7599,0.003,0.914,0.008,2.254,0.010,9.3
14,23413.00,23362.00,51.00,3.390,6999,0.003,0.958,0.010,2.408,0.011,9.1
15,23774.00,23757.00,17.00,3.433,7116,0.003,0.990,0.009,2.421,0.010,9.1
16,24536.00,24509.00,27.00,3.361,7342,0.003,0.976,0.010,2.363,0.010,9.9
17,24731.00,24731.00,0.00,3.259,7408,0.003,0.924,0.009,2.312,0.010,9.3
18,24132.00,24132.00,0.00,3.429,7230,0.003,1.022,0.009,2.385,0.010,9.5
19,24721.00,24721.00,0.00,3.315,7407,0.003,0.950,0.009,2.342,0.011,9.5
20,24380.00,24380.00,0.00,3.347,7305,0.003,0.955,0.010,2.368,0.011,9.2
21,23766.00,23766.00,0.00,3.380,7120,0.003,0.971,0.009,2.387,0.011,9.5
22,24360.00,24360.00,0.00,3.394,7298,0.003,0.980,0.009,2.392,0.010,9.4
23,24497.00,24497.00,0.00,3.378,7339,0.003,0.965,0.011,2.390,0.010,9.0
24,23548.00,23548.00,0.00,3.525,7054,0.003,1.051,0.009,2.453,0.010,9.7
25,24575.00,24575.00,0.00,3.310,7362,0.003,0.953,0.009,2.334,0.011,9.4
26,24537.00,24537.00,0.00,3.344,7351,0.003,0.973,0.009,2.348,0.010,9.8
27,23763.00,23763.00,0.00,3.489,7119,0.003,1.012,0.009,2.455,0.011,9.4
28,24133.00,24133.00,0.00,3.404,7230,0.003,0.993,0.009,2.390,0.010,9.3
29,24256.00,24256.00,0.00,3.298,7267,0.003,0.928,0.011,2.345,0.012,9.5
30,23205.00,23205.00,0.00,3.523,6952,0.003,0.999,0.009,2.503,0.010,9.5
31,24212.00,24206.00,6.00,3.355,7252,0.003,0.982,0.009,2.352,0.010,9.3
32,24494.00,24473.00,21.00,3.362,7332,0.003,0.980,0.009,2.361,0.010,9.7
33,23499.00,23480.00,19.00,3.417,7034,0.003,1.030,0.009,2.364,0.011,10.2
34,23696.00,23679.00,17.00,3.381,7094,0.003,0.983,0.010,2.374,0.011,9.9
35,24036.00,24024.00,12.00,3.477,7197,0.003,1.009,0.008,2.447,0.010,9.7
36,23275.00,23262.00,13.00,3.479,6969,0.003,1.024,0.008,2.433,0.010,10.4
37,24324.00,24318.00,6.00,3.340,7285,0.003,0.951,0.008,2.367,0.011,9.4
38,24186.00,24184.00,2.00,3.398,7245,0.003,0.977,0.009,2.401,0.010,9.4
39,23199.00,23199.00,0.00,3.569,6950,0.003,1.017,0.008,2.532,0.010,9.0
40,24072.00,24072.00,0.00,3.330,7212,0.003,0.948,0.008,2.361,0.010,9.0
41,24825.00,24825.00,0.00,3.210,7437,0.003,0.906,0.008,2.284,0.009,8.8
42,24086.00,24086.00,0.00,3.386,7216,0.003,0.932,0.008,2.433,0.010,8.6
43,24581.00,24581.00,0.00,3.282,7365,0.003,0.925,0.009,2.333,0.011,8.8
44,24503.00,24503.00,0.00,3.335,7341,0.003,0.952,0.008,2.362,0.010,8.7
45,23095.00,23095.00,0.00,3.561,6919,0.003,1.030,0.008,2.511,0.009,9.1
46,24342.00,24342.00,0.00,3.305,7293,0.003,0.960,0.008,2.325,0.009,9.1
47,24634.00,24634.00,0.00,3.336,7380,0.003,0.955,0.008,2.362,0.009,8.9
48,23464.00,23464.00,0.00,3.500,7030,0.003,1.016,0.008,2.464,0.009,9.2
49,24328.00,24328.00,0.00,3.384,7289,0.003,0.989,0.008,2.375,0.009,9.6
50,24428.00,24428.00,0.00,3.358,7319,0.003,0.948,0.008,2.390,0.009,9.2
51,23922.00,23922.00,0.00,3.399,7167,0.003,0.966,0.008,2.412,0.010,9.1
52,23644.00,23644.00,0.00,3.530,7084,0.003,1.029,0.008,2.480,0.010,9.3
53,25108.00,25108.00,0.00,3.274,7522,0.003,0.938,0.008,2.315,0.010,9.4
54,25027.00,25027.00,0.00,3.249,7498,0.003,0.927,0.008,2.302,0.011,9.0
55,24317.00,24317.00,0.00,3.274,7285,0.003,0.928,0.008,2.323,0.011,8.8
56,24744.00,24744.00,0.00,3.334,7413,0.003,0.956,0.008,2.358,0.010,8.8
57,24526.00,24526.00,0.00,3.355,7348,0.003,0.966,0.009,2.368,0.010,9.3
58,24285.00,24285.00,0.00,3.336,7276,0.003,0.966,0.008,2.349,0.010,9.5
59,24344.00,24344.00,0.00,3.401,7293,0.003,0.990,0.008,2.391,0.009,9.0
60,24163.00,24163.00,0.00,3.369,7239,0.003,0.963,0.008,2.385,0.009,8.9
61,23629.00,23629.00,0.00,3.461,7079,0.003,1.006,0.008,2.435,0.010,9.2
62,24270.00,24270.00,0.00,3.400,7271,0.003,0.979,0.008,2.401,0.010,9.3
63,23922.00,23922.00,0.00,3.415,7167,0.003,0.974,0.008,2.420,0.011,9.2
64,23521.00,23521.00,0.00,3.491,7047,0.003,1.029,0.008,2.441,0.010,10.2
65,24752.00,24752.00,0.00,3.307,7416,0.003,0.961,0.008,2.326,0.009,10.0
66,25051.00,25051.00,0.00,3.244,7505,0.003,0.920,0.008,2.304,0.010,8.9
67,23569.00,23569.00,0.00,3.491,7061,0.003,1.005,0.008,2.467,0.009,9.4
68,24463.00,24463.00,0.00,3.321,7329,0.003,0.952,0.008,2.349,0.010,9.5
69,24983.00,24983.00,0.00,3.265,7485,0.003,0.934,0.008,2.311,0.009,9.4
70,23994.00,23994.00,0.00,3.373,7188,0.003,0.961,0.009,2.390,0.010,9.1
71,23411.00,23411.00,0.00,3.501,7014,0.003,0.987,0.008,2.494,0.009,9.1
72,24664.00,24664.00,0.00,3.342,7389,0.003,0.968,0.008,2.355,0.009,8.8
73,23583.00,23583.00,0.00,3.502,7065,0.003,1.023,0.008,2.459,0.009,9.7
74,20920.00,20920.00,0.00,2.767,6267,0.004,0.741,0.009,2.002,0.010,7.5
75,9434.00,9434.00,0.00,0.970,2826,0.003,0.148,0.010,0.800,0.010,1.2
