Second,Ops/sec,Hits/sec,Misses/sec,Latency,KB/sec,Request_Creation_Time,Request_Buffer_Time,MW_Writes_To_Memcached_Time,Memcached_Process_Time,MW_Writes_To_Memtier_Time,Queue_Size
4,3679.00,3679.00,0.00,3.635,3865,0.026,1.416,0.057,2.073,0.063,15.2
5,11171.00,11171.00,0.00,11.084,11737,0.004,5.511,0.013,5.543,0.013,38.6
6,11013.00,11013.00,0.00,16.545,11571,0.003,10.757,0.007,5.769,0.010,90.6
7,11232.00,11232.00,0.00,16.587,11800,0.004,10.879,0.006,5.688,0.010,90.7
8,11118.00,11118.00,0.00,16.594,11681,0.003,10.840,0.007,5.734,0.010,91.2
9,11122.00,11122.00,0.00,16.541,11684,0.003,10.793,0.006,5.729,0.010,91.5
10,11122.00,11122.00,0.00,16.621,11684,0.003,10.863,0.007,5.739,0.010,91.1
11,11109.00,11109.00,0.00,16.561,11671,0.003,10.802,0.006,5.740,0.009,90.8
12,11130.00,11130.00,0.00,16.550,11693,0.003,10.800,0.006,5.731,0.010,90.5
13,11122.00,11122.00,0.00,16.585,11685,0.003,10.823,0.006,5.742,0.010,91.8
14,11118.00,11118.00,0.00,16.451,11680,0.003,10.710,0.007,5.721,0.010,90.7
15,11122.00,11122.00,0.00,16.619,11684,0.003,10.873,0.007,5.727,0.011,91.2
16,11122.00,11122.00,0.00,16.614,11684,0.003,10.854,0.007,5.741,0.010,91.9
17,11056.00,11056.00,0.00,16.639,11615,0.002,10.859,0.006,5.763,0.010,91.0
18,11184.00,11184.00,0.00,16.613,11749,0.003,10.885,0.006,5.710,0.010,92.9
19,11123.00,11123.00,0.00,16.522,11685,0.003,10.766,0.007,5.735,0.011,89.8
20,11122.00,11122.00,0.00,16.603,11684,0.003,10.849,0.006,5.734,0.011,91.5
21,11116.00,11116.00,0.00,16.641,11677,0.003,10.881,0.007,5.739,0.011,91.8
22,11124.00,11124.00,0.00,16.602,11686,0.003,10.851,0.006,5.733,0.010,91.4
23,11122.00,11122.00,0.00,16.571,11684,0.003,10.813,0.007,5.737,0.010,90.2
24,11119.00,11119.00,0.00,16.611,11681,0.003,10.861,0.007,5.731,0.010,90.7
25,11117.00,11117.00,0.00,16.543,11679,0.003,10.782,0.007,5.740,0.011,90.6
26,11127.00,11127.00,0.00,16.622,11690,0.002,10.870,0.007,5.732,0.011,90.4
27,11118.00,11118.00,0.00,16.654,11680,0.003,10.893,0.007,5.741,0.011,92.3
28,11122.00,11122.00,0.00,16.631,11684,0.003,10.878,0.007,5.733,0.010,91.3
29,11106.00,11106.00,0.00,16.641,11667,0.002,10.875,0.006,5.747,0.010,91.3
30,11134.00,11134.00,0.00,16.610,11697,0.002,10.865,0.006,5.724,0.012,92.0
31,11122.00,11122.00,0.00,16.651,11684,0.002,10.895,0.007,5.737,0.010,91.0
32,11122.00,11122.00,0.00,16.619,11685,0.003,10.863,0.007,5.736,0.010,92.4
33,11119.00,11119.00,0.00,16.507,11681,0.003,10.759,0.009,5.721,0.015,90.7
34,11122.00,11122.00,0.00,16.588,11685,0.002,10.887,0.007,5.681,0.011,92.2
35,11009.00,11009.00,0.00,16.611,11566,0.002,10.810,0.007,5.781,0.011,92.5
36,11231.00,11231.00,0.00,16.552,11799,0.003,10.839,0.007,5.691,0.011,91.4
37,11122.00,11122.00,0.00,16.659,11685,0.003,10.900,0.007,5.740,0.010,91.7
38,11293.00,11293.00,0.00,16.322,11864,0.003,10.667,0.007,5.635,0.010,91.3
39,11121.00,11121.00,0.00,16.601,11684,0.003,10.847,0.007,5.734,0.011,91.1
40,11122.00,11122.00,0.00,16.563,11685,0.002,10.811,0.007,5.731,0.011,92.1
41,11295.00,11295.00,0.00,16.202,11866,0.003,10.544,0.007,5.636,0.012,90.3
42,11118.00,11118.00,0.00,16.520,11681,0.003,10.766,0.008,5.731,0.013,91.4
43,11122.00,11122.00,0.00,16.613,11685,0.003,10.869,0.007,5.722,0.011,91.0
44,11123.00,11123.00,0.00,16.575,11685,0.003,10.818,0.007,5.738,0.010,91.8
45,11126.00,11117.00,9.00,16.520,11679,0.003,10.768,0.008,5.729,0.012,92.3
46,11146.00,11109.00,37.00,16.569,11671,0.003,10.831,0.008,5.718,0.010,91.8
47,11172.00,11131.00,41.00,16.560,11694,0.003,10.831,0.007,5.709,0.011,91.8
48,11157.00,11115.00,42.00,16.590,11677,0.003,10.857,0.008,5.711,0.011,92.0
49,11149.00,11120.00,29.00,16.603,11682,0.002,10.864,0.007,5.720,0.010,92.1
50,11138.00,11122.00,16.00,16.602,11684,0.002,10.857,0.007,5.725,0.011,92.7
51,11132.00,11118.00,14.00,16.632,11680,0.003,10.891,0.007,5.722,0.010,92.5
52,11124.00,11120.00,4.00,16.476,11681,0.003,10.718,0.007,5.738,0.011,89.6
53,11124.00,11124.00,0.00,16.489,11686,0.002,10.742,0.007,5.725,0.011,91.7
54,11119.00,11119.00,0.00,16.593,11680,0.002,10.834,0.007,5.739,0.012,90.9
55,11122.00,11122.00,0.00,16.562,11684,0.002,10.812,0.007,5.729,0.011,92.4
56,11122.00,11122.00,0.00,16.640,11684,0.003,10.884,0.007,5.736,0.010,92.6
57,11112.00,11112.00,0.00,16.617,11674,0.002,10.858,0.007,5.739,0.011,90.7
58,11126.00,11126.00,0.00,16.604,11688,0.003,10.849,0.007,5.733,0.013,91.9
59,11123.00,11123.00,0.00,16.596,11685,0.002,10.842,0.007,5.734,0.011,90.8
60,11122.00,11122.00,0.00,16.614,11684,0.003,10.853,0.007,5.740,0.010,91.6
61,11118.00,11118.00,0.00,16.622,11680,0.003,10.867,0.007,5.734,0.011,91.6
62,11122.00,11122.00,0.00,16.624,11684,0.003,10.870,0.007,5.734,0.010,92.5
63,11123.00,11123.00,0.00,16.516,11685,0.003,10.769,0.007,5.726,0.011,90.7
64,11118.00,11118.00,0.00,16.470,11680,0.003,10.720,0.007,5.729,0.011,91.3
65,11122.00,11122.00,0.00,16.616,11684,0.003,10.860,0.007,5.735,0.011,92.2
66,11122.00,11122.00,0.00,16.614,11684,0.003,10.858,0.008,5.734,0.011,92.3
67,11292.00,11292.00,0.00,16.354,11863,0.003,10.684,0.006,5.651,0.010,91.1
68,11122.00,11122.00,0.00,16.526,11685,0.003,10.770,0.007,5.735,0.011,91.4
69,11121.00,11121.00,0.00,16.549,11684,0.003,10.792,0.007,5.737,0.010,91.8
70,11118.00,11118.00,0.00,16.624,11681,0.003,10.865,0.006,5.741,0.009,91.9
71,11122.00,11122.00,0.00,16.524,11685,0.003,10.768,0.006,5.738,0.010,90.2
72,11102.00,11102.00,0.00,16.579,11664,0.003,10.816,0.006,5.743,0.010,92.1
73,11138.00,11138.00,0.00,16.596,11702,0.003,10.847,0.007,5.729,0.011,91.2
74,11121.00,11121.00,0.00,13.237,11684,0.003,7.708,0.008,5.509,0.010,62.0
75,7711.00,7711.00,0.00,6.507,8101,0.003,1.387,0.008,5.100,0.009,5.7
