Second,Ops/sec,Hits/sec,Misses/sec,Latency,KB/sec,Request_Creation_Time,Request_Buffer_Time,MW_Writes_To_Memcached_Time,Memcached_Process_Time,MW_Writes_To_Memtier_Time,Queue_Size
4,2820.00,2820.00,0.00,1.220,1550,0.017,0.278,0.033,0.847,0.045,1.8
5,11309.00,11309.00,0.00,1.273,6216,0.008,0.137,0.013,1.103,0.012,0.8
6,13635.00,13635.00,0.00,1.102,7493,0.006,0.159,0.010,0.917,0.010,1.0
7,13097.00,13097.00,0.00,1.254,7198,0.005,0.116,0.012,1.112,0.010,1.0
8,13082.00,13082.00,0.00,1.273,7190,0.004,0.145,0.014,1.099,0.013,1.1
9,12398.00,12374.00,24.00,1.335,6800,0.005,0.137,0.012,1.171,0.010,0.9
10,11784.00,11784.00,0.00,1.396,6476,0.004,0.118,0.012,1.250,0.012,0.9
11,12821.00,12821.00,0.00,1.329,7046,0.003,0.108,0.011,1.198,0.010,0.8
12,13120.00,13120.00,0.00,1.183,7211,0.003,0.195,0.010,0.963,0.012,1.4
13,13142.00,13142.00,0.00,1.311,7222,0.003,0.145,0.010,1.142,0.011,1.1
14,12737.00,12737.00,0.00,1.362,7000,0.003,0.131,0.010,1.208,0.010,0.8
15,13306.00,13306.00,0.00,1.243,7313,0.003,0.121,0.010,1.096,0.012,1.0
16,13047.00,13047.00,0.00,1.254,7170,0.004,0.124,0.010,1.099,0.016,0.9
17,13823.00,13820.00,3.00,1.122,7596,0.004,0.129,0.012,0.965,0.012,0.9
18,13087.00,13069.00,18.00,1.269,7183,0.004,0.143,0.010,1.102,0.010,1.1
19,12822.00,12819.00,3.00,1.317,7045,0.003,0.162,0.010,1.130,0.012,0.9
20,13824.00,13824.00,0.00,1.139,7598,0.004,0.149,0.012,0.963,0.011,1.0
21,13335.00,13335.00,0.00,1.172,7329,0.004,0.132,0.012,1.013,0.011,1.0
22,12911.00,12911.00,0.00,1.315,7096,0.004,0.132,0.011,1.158,0.010,0.9
23,13180.00,13180.00,0.00,1.224,7244,0.005,0.145,0.010,1.053,0.011,0.9
24,13155.00,13155.00,0.00,1.257,7230,0.004,0.156,0.011,1.075,0.011,1.0
25,12691.00,12691.00,0.00,1.318,6975,0.003,0.139,0.012,1.155,0.010,1.0
26,13593.00,13593.00,0.00,1.210,7471,0.004,0.107,0.010,1.078,0.010,0.9
27,13573.00,13573.00,0.00,1.120,7460,0.005,0.150,0.010,0.945,0.010,1.0
28,13259.00,13259.00,0.00,1.270,7287,0.003,0.117,0.010,1.130,0.010,0.9
29,12531.00,12531.00,0.00,1.352,6887,0.004,0.176,0.011,1.150,0.011,1.1
30,13216.00,13216.00,0.00,1.267,7264,0.003,0.127,0.013,1.110,0.013,0.9
31,12452.00,12452.00,0.00,1.411,6844,0.004,0.120,0.010,1.267,0.010,0.8
32,13568.00,13568.00,0.00,1.191,7457,0.004,0.138,0.013,1.026,0.010,0.9
33,13621.00,13621.00,0.00,1.177,7486,0.004,0.108,0.011,1.042,0.012,0.9
34,13297.00,13297.00,0.00,1.201,7308,0.005,0.150,0.012,1.022,0.011,1.1
35,14453.00,14453.00,0.00,0.937,7943,0.005,0.140,0.010,0.769,0.013,1.0
36,13456.00,13456.00,0.00,1.185,7395,0.003,0.123,0.010,1.039,0.010,0.8
37,13248.00,13248.00,0.00,1.378,7281,0.003,0.087,0.009,1.270,0.010,0.7
38,13395.00,13395.00,0.00,1.225,7362,0.003,0.114,0.011,1.086,0.011,0.9
39,13246.00,13244.00,2.00,1.224,7279,0.003,0.124,0.010,1.077,0.010,1.0
40,12967.00,12966.00,1.00,1.307,7126,0.003,0.135,0.010,1.149,0.010,1.1
41,13248.00,13237.00,11.00,1.258,7275,0.003,0.106,0.011,1.125,0.013,0.8
42,13672.00,13665.00,7.00,1.213,7510,0.003,0.133,0.010,1.056,0.011,0.9
43,13056.00,13043.00,13.00,1.251,7168,0.003,0.108,0.011,1.118,0.010,0.8
44,13888.00,13878.00,10.00,1.141,7627,0.005,0.127,0.010,0.987,0.012,0.9
45,13061.00,13046.00,15.00,1.306,7170,0.003,0.127,0.010,1.156,0.010,1.0
46,12815.00,12807.00,8.00,1.397,7039,0.003,0.110,0.011,1.264,0.010,0.9
47,13130.00,13126.00,4.00,1.261,7214,0.004,0.142,0.011,1.094,0.010,1.0
48,13369.00,13368.00,1.00,1.295,7347,0.003,0.105,0.010,1.167,0.010,0.8
49,13120.00,13120.00,0.00,1.217,7210,0.003,0.127,0.010,1.065,0.011,0.9
50,12875.00,12875.00,0.00,1.415,7076,0.003,0.120,0.011,1.273,0.010,0.8
51,13762.00,13762.00,0.00,1.205,7563,0.003,0.136,0.011,1.045,0.010,1.0
52,12991.00,12991.00,0.00,1.250,7140,0.004,0.145,0.011,1.081,0.010,1.1
53,12887.00,12887.00,0.00,1.351,7082,0.003,0.120,0.010,1.209,0.010,0.9
54,13074.00,13074.00,0.00,1.297,7185,0.003,0.138,0.010,1.136,0.010,1.0
55,13637.00,13637.00,0.00,1.197,7495,0.004,0.132,0.011,1.039,0.012,0.9
56,12305.00,12305.00,0.00,1.414,6763,0.003,0.207,0.010,1.184,0.010,1.5
57,13895.00,13895.00,0.00,1.121,7636,0.004,0.147,0.010,0.948,0.011,1.0
58,13466.00,13466.00,0.00,1.191,7401,0.004,0.135,0.011,1.032,0.010,0.9
59,12880.00,12880.00,0.00,1.370,7079,0.003,0.109,0.010,1.238,0.010,0.8
60,13369.00,13369.00,0.00,1.224,7347,0.003,0.164,0.010,1.038,0.010,1.0
61,12950.00,12950.00,0.00,1.380,7117,0.003,0.134,0.010,1.222,0.011,0.9
62,13640.00,13640.00,0.00,1.256,7496,0.003,0.124,0.010,1.109,0.010,0.9
63,13578.00,13578.00,0.00,1.213,7462,0.003,0.121,0.011,1.068,0.011,0.9
64,12805.00,12805.00,0.00,1.372,7037,0.003,0.116,0.009,1.233,0.010,0.9
65,13016.00,13016.00,0.00,1.349,7154,0.003,0.130,0.010,1.196,0.011,0.8
66,12898.00,12898.00,0.00,1.202,7089,0.004,0.151,0.011,1.023,0.012,1.1
67,13136.00,13136.00,0.00,1.340,7219,0.003,0.135,0.010,1.182,0.010,1.0
68,12706.00,12706.00,0.00,1.346,6983,0.004,0.129,0.010,1.192,0.011,0.9
69,12941.00,12941.00,0.00,1.370,7112,0.003,0.094,0.010,1.253,0.010,0.7
70,13180.00,13180.00,0.00,1.228,7244,0.004,0.118,0.011,1.085,0.010,0.8
71,12792.00,12792.00,0.00,1.326,7030,0.005,0.146,0.011,1.154,0.010,1.0
72,13234.00,13234.00,0.00,1.266,7273,0.004,0.124,0.011,1.118,0.010,1.0
73,13001.00,13001.00,0.00,1.361,7145,0.003,0.117,0.010,1.222,0.010,0.9
74,8552.00,8552.00,0.00,1.438,4700,0.003,0.089,0.010,1.326,0.010,0.7
