Second,Ops/sec,Hits/sec,Misses/sec,Latency,KB/sec,Request_Creation_Time,Request_Buffer_Time,MW_Writes_To_Memcached_Time,Memcached_Process_Time,MW_Writes_To_Memtier_Time,Queue_Size
4,2059.00,2059.00,0.00,1.434,1132,0.021,0.676,0.034,0.667,0.036,7.3
5,11448.00,11448.00,0.00,1.438,6292,0.004,0.761,0.008,0.652,0.012,6.7
6,11394.00,11394.00,0.00,1.614,6262,0.004,0.923,0.006,0.670,0.010,7.7
7,12293.00,12293.00,0.00,1.500,6756,0.004,0.854,0.006,0.625,0.010,7.4
8,12580.00,12580.00,0.00,1.372,6914,0.003,0.751,0.006,0.600,0.011,7.9
9,11866.00,11852.00,14.00,1.493,6514,0.003,0.824,0.006,0.648,0.012,7.2
10,10807.00,10797.00,10.00,1.627,5933,0.004,0.900,0.006,0.706,0.010,7.1
11,11931.00,11931.00,0.00,1.497,6557,0.003,0.830,0.006,0.648,0.010,7.3
12,11034.00,11034.00,0.00,1.641,6064,0.003,0.940,0.006,0.682,0.011,7.6
13,12502.00,12502.00,0.00,1.451,6871,0.003,0.814,0.005,0.617,0.011,7.9
14,12473.00,12473.00,0.00,1.480,6855,0.003,0.839,0.006,0.622,0.011,7.8
15,11823.00,11823.00,0.00,1.526,6497,0.003,0.858,0.006,0.648,0.011,7.7
16,11424.00,11424.00,0.00,1.630,6279,0.003,0.936,0.006,0.675,0.011,7.7
17,11845.00,11845.00,0.00,1.461,6510,0.003,0.820,0.006,0.622,0.011,7.5
18,12067.00,12066.00,1.00,1.531,6632,0.003,0.872,0.006,0.640,0.011,8.2
19,13400.00,13381.00,19.00,1.264,7354,0.003,0.681,0.006,0.562,0.011,7.5
20,12132.00,12128.00,4.00,1.521,6665,0.003,0.869,0.005,0.634,0.010,7.9
21,12345.00,12345.00,0.00,1.504,6785,0.003,0.857,0.006,0.627,0.011,8.1
22,12429.00,12429.00,0.00,1.469,6831,0.003,0.831,0.006,0.619,0.011,7.9
23,12809.00,12809.00,0.00,1.318,7040,0.003,0.712,0.006,0.585,0.011,8.3
24,12819.00,12819.00,0.00,1.373,7045,0.003,0.766,0.006,0.587,0.012,7.9
25,11838.00,11838.00,0.00,1.570,6506,0.003,0.900,0.006,0.651,0.011,7.8
26,12517.00,12517.00,0.00,1.460,6879,0.003,0.823,0.006,0.617,0.012,8.1
27,12440.00,12440.00,0.00,1.462,6837,0.003,0.825,0.005,0.618,0.010,7.8
28,12588.00,12588.00,0.00,1.439,6919,0.003,0.805,0.006,0.614,0.011,7.8
29,12262.00,12262.00,0.00,1.482,6739,0.003,0.838,0.006,0.624,0.011,7.8
30,12368.00,12368.00,0.00,1.472,6797,0.003,0.832,0.006,0.621,0.011,7.8
31,11545.00,11545.00,0.00,1.635,6345,0.003,0.939,0.006,0.676,0.011,7.6
32,12070.00,12070.00,0.00,1.529,6634,0.003,0.873,0.006,0.637,0.011,7.5
33,12165.00,12165.00,0.00,1.514,6686,0.003,0.859,0.006,0.636,0.011,7.7
34,11039.00,11039.00,0.00,1.655,6067,0.003,0.941,0.006,0.694,0.011,7.8
35,12674.00,12674.00,0.00,1.445,6965,0.003,0.817,0.006,0.608,0.011,8.2
36,11793.00,11793.00,0.00,1.597,6481,0.003,0.925,0.006,0.652,0.011,7.9
37,11520.00,11520.00,0.00,1.624,6331,0.003,0.935,0.006,0.669,0.011,8.2
38,12378.00,12378.00,0.00,1.503,6803,0.003,0.856,0.005,0.628,0.011,8.2
39,12189.00,12189.00,0.00,1.502,6699,0.003,0.857,0.006,0.625,0.011,7.4
40,11956.00,11956.00,0.00,1.542,6571,0.003,0.880,0.006,0.642,0.011,7.8
41,13092.00,13092.00,0.00,1.372,7195,0.003,0.767,0.006,0.585,0.012,7.8
42,12197.00,12197.00,0.00,1.488,6703,0.003,0.841,0.006,0.628,0.011,7.9
43,12093.00,12090.00,3.00,1.520,6645,0.003,0.867,0.006,0.634,0.011,7.5
44,12806.00,12796.00,10.00,1.421,7033,0.003,0.798,0.006,0.603,0.011,8.1
45,12705.00,12697.00,8.00,1.438,6978,0.003,0.810,0.006,0.609,0.011,8.2
46,11725.00,11718.00,7.00,1.599,6440,0.003,0.917,0.006,0.663,0.011,8.0
47,11915.00,11904.00,11.00,1.572,6542,0.003,0.902,0.006,0.651,0.011,7.9
48,12149.00,12136.00,13.00,1.532,6670,0.003,0.879,0.006,0.634,0.011,8.0
49,11507.00,11495.00,12.00,1.612,6318,0.003,0.925,0.006,0.668,0.011,7.9
50,12017.00,12011.00,6.00,1.531,6601,0.003,0.873,0.006,0.638,0.011,8.1
51,11650.00,11648.00,2.00,1.593,6402,0.003,0.911,0.006,0.662,0.012,8.1
52,11702.00,11702.00,0.00,1.604,6431,0.003,0.923,0.006,0.662,0.011,7.6
53,12052.00,12052.00,0.00,1.548,6624,0.003,0.888,0.006,0.641,0.011,7.8
54,12367.00,12367.00,0.00,1.487,6796,0.003,0.844,0.006,0.624,0.010,7.0
55,12047.00,12047.00,0.00,1.563,6621,0.003,0.902,0.006,0.642,0.010,7.5
56,13237.00,13237.00,0.00,1.361,7275,0.003,0.759,0.006,0.583,0.011,8.0
57,12775.00,12775.00,0.00,1.403,7021,0.003,0.779,0.006,0.604,0.012,8.7
58,13805.00,13805.00,0.00,1.265,7587,0.003,0.686,0.006,0.559,0.012,8.2
59,13759.00,13759.00,0.00,1.225,7562,0.003,0.648,0.006,0.556,0.012,8.4
60,13359.00,13359.00,0.00,1.331,7342,0.003,0.734,0.006,0.576,0.012,8.6
61,13484.00,13484.00,0.00,1.256,7410,0.003,0.675,0.006,0.561,0.012,8.4
62,13138.00,13138.00,0.00,1.376,7220,0.003,0.769,0.006,0.588,0.011,8.3
63,12392.00,12392.00,0.00,1.475,6810,0.003,0.830,0.006,0.625,0.011,8.1
64,11940.00,11940.00,0.00,1.504,6562,0.003,0.850,0.006,0.635,0.011,7.6
65,12342.00,12342.00,0.00,1.490,6783,0.003,0.843,0.006,0.626,0.012,8.4
66,12453.00,12453.00,0.00,1.472,6844,0.003,0.831,0.006,0.622,0.011,7.8
67,12279.00,12279.00,0.00,1.500,6748,0.003,0.851,0.005,0.631,0.011,7.7
68,12841.00,12841.00,0.00,1.409,7057,0.003,0.788,0.006,0.600,0.012,8.3
69,11978.00,11978.00,0.00,1.520,6583,0.003,0.862,0.006,0.639,0.011,7.9
70,12625.00,12625.00,0.00,1.387,6939,0.003,0.765,0.006,0.602,0.011,7.9
71,11692.00,11692.00,0.00,1.553,6426,0.003,0.882,0.006,0.652,0.011,7.8
72,12315.00,12315.00,0.00,1.461,6768,0.003,0.821,0.006,0.621,0.011,7.9
73,12287.00,12287.00,0.00,1.494,6753,0.003,0.847,0.006,0.627,0.011,8.1
74,8547.00,8547.00,0.00,1.611,4697,0.003,0.923,0.006,0.669,0.011,7.9
