Second,Ops/sec,Hits/sec,Misses/sec,Latency,KB/sec,Request_Creation_Time,Request_Buffer_Time,MW_Writes_To_Memcached_Time,Memcached_Process_Time,MW_Writes_To_Memtier_Time,Queue_Size
4,2021.00,2021.00,0.00,2.903,606,0.020,2.121,0.036,0.674,0.052,23.7
5,11584.00,11584.00,0.00,3.322,3471,0.005,2.635,0.007,0.663,0.012,28.9
6,11998.00,11998.00,0.00,3.508,3595,0.004,2.843,0.006,0.644,0.011,31.0
7,11702.00,11702.00,0.00,3.628,3506,0.004,2.941,0.006,0.667,0.011,31.3
8,11703.00,11703.00,0.00,3.578,3505,0.003,2.893,0.006,0.666,0.010,31.1
9,11673.00,11673.00,0.00,3.660,3497,0.003,2.976,0.006,0.664,0.011,31.7
10,12421.00,12421.00,0.00,3.251,3721,0.003,2.606,0.006,0.624,0.012,30.4
11,11391.00,11391.00,0.00,3.544,3413,0.003,2.849,0.006,0.676,0.011,30.2
12,11650.00,11650.00,0.00,3.651,3490,0.003,2.965,0.005,0.667,0.011,31.6
13,11710.00,11710.00,0.00,3.578,3508,0.003,2.895,0.006,0.664,0.011,30.6
14,11965.00,11956.00,9.00,3.540,3582,0.003,2.869,0.006,0.651,0.011,31.4
15,13084.00,13045.00,39.00,3.072,3908,0.003,2.465,0.008,0.583,0.013,31.1
16,12317.00,12317.00,0.00,3.398,3689,0.003,2.749,0.007,0.626,0.012,31.2
17,12450.00,12450.00,0.00,3.347,3730,0.003,2.708,0.007,0.616,0.012,32.6
18,11428.00,11428.00,0.00,3.508,3424,0.003,2.828,0.008,0.658,0.012,31.3
19,12887.00,12887.00,0.00,3.242,3861,0.003,2.622,0.007,0.597,0.012,32.3
20,12080.00,12080.00,0.00,3.499,3619,0.003,2.841,0.007,0.637,0.012,31.9
21,12335.00,12335.00,0.00,3.433,3696,0.003,2.780,0.007,0.630,0.013,32.0
22,11834.00,11834.00,0.00,3.504,3544,0.003,2.831,0.006,0.652,0.012,31.2
23,12129.00,12129.00,0.00,3.431,3634,0.002,2.777,0.006,0.634,0.011,31.7
24,11329.00,11329.00,0.00,3.796,3394,0.002,3.088,0.006,0.689,0.011,31.7
25,11889.00,11889.00,0.00,3.585,3561,0.002,2.912,0.006,0.654,0.011,31.4
26,12848.00,12848.00,0.00,3.252,3849,0.002,2.628,0.006,0.604,0.012,31.9
27,12916.00,12916.00,0.00,3.225,3870,0.003,2.607,0.006,0.599,0.011,31.6
28,11703.00,11703.00,0.00,3.593,3506,0.003,2.916,0.006,0.657,0.011,31.6
29,11858.00,11858.00,0.00,3.519,3552,0.002,2.843,0.006,0.656,0.011,30.8
30,11888.00,11888.00,0.00,3.545,3561,0.002,2.871,0.006,0.655,0.011,31.0
31,12597.00,12597.00,0.00,3.361,3774,0.003,2.726,0.006,0.616,0.011,31.8
32,12681.00,12681.00,0.00,3.324,3800,0.003,2.691,0.006,0.613,0.011,31.5
33,12276.00,12248.00,28.00,3.416,3670,0.002,2.765,0.005,0.633,0.011,31.4
34,11850.00,11830.00,20.00,3.610,3544,0.002,2.933,0.006,0.659,0.011,32.0
35,11828.00,11828.00,0.00,3.506,3543,0.002,2.835,0.005,0.652,0.010,30.7
36,11811.00,11811.00,0.00,3.586,3538,0.002,2.905,0.005,0.662,0.011,31.4
37,12356.00,12356.00,0.00,3.394,3702,0.003,2.745,0.006,0.629,0.011,31.7
38,12276.00,12276.00,0.00,3.434,3678,0.002,2.782,0.005,0.634,0.011,31.4
39,12460.00,12460.00,0.00,3.305,3733,0.003,2.669,0.006,0.617,0.011,31.5
40,12414.00,12414.00,0.00,3.380,3719,0.003,2.733,0.006,0.627,0.011,31.1
41,13103.00,13103.00,0.00,3.154,3926,0.003,2.541,0.006,0.594,0.011,31.3
42,12980.00,12980.00,0.00,3.208,3889,0.003,2.591,0.006,0.597,0.011,31.7
43,11452.00,11452.00,0.00,3.694,3431,0.003,2.999,0.006,0.676,0.011,31.4
44,12515.00,12515.00,0.00,3.328,3750,0.002,2.688,0.006,0.621,0.011,31.2
45,12663.00,12663.00,0.00,3.333,3794,0.002,2.699,0.006,0.615,0.011,31.7
46,11787.00,11787.00,0.00,3.620,3531,0.003,2.940,0.006,0.661,0.011,32.0
47,12217.00,12217.00,0.00,3.434,3660,0.003,2.778,0.006,0.636,0.012,32.0
48,13452.00,13452.00,0.00,3.127,4030,0.002,2.531,0.006,0.577,0.011,32.1
49,12050.00,12050.00,0.00,3.422,3610,0.002,2.763,0.006,0.640,0.011,31.2
50,11668.00,11668.00,0.00,3.525,3496,0.002,2.850,0.006,0.655,0.011,31.0
51,11993.00,11993.00,0.00,3.551,3594,0.003,2.879,0.006,0.652,0.011,31.7
52,12379.00,12379.00,0.00,3.392,3709,0.003,2.745,0.006,0.627,0.012,31.7
53,12210.00,12210.00,0.00,3.434,3658,0.003,2.779,0.006,0.636,0.011,31.8
54,12750.00,12750.00,0.00,3.191,3819,0.002,2.569,0.006,0.603,0.011,31.0
55,12184.00,12184.00,0.00,3.322,3650,0.003,2.680,0.006,0.623,0.011,31.0
56,13441.00,13441.00,0.00,3.047,4027,0.003,2.454,0.006,0.573,0.011,31.4
57,12569.00,12569.00,0.00,3.318,3766,0.002,2.684,0.006,0.616,0.010,30.9
58,11807.00,11807.00,0.00,3.556,3537,0.003,2.878,0.006,0.658,0.011,31.6
59,12100.00,12100.00,0.00,3.511,3625,0.003,2.847,0.006,0.644,0.011,31.9
60,12376.00,12376.00,0.00,3.311,3708,0.002,2.671,0.006,0.621,0.011,30.7
61,12816.00,12816.00,0.00,3.285,3840,0.003,2.657,0.006,0.609,0.011,31.0
62,12098.00,12098.00,0.00,3.438,3625,0.003,2.780,0.006,0.637,0.011,31.3
63,12767.00,12767.00,0.00,3.270,3825,0.003,2.644,0.006,0.606,0.012,31.7
64,12065.00,12065.00,0.00,3.407,3615,0.003,2.747,0.006,0.641,0.011,30.6
65,12710.00,12710.00,0.00,3.198,3808,0.003,2.575,0.006,0.604,0.011,30.6
66,12825.00,12825.00,0.00,3.265,3842,0.003,2.638,0.006,0.608,0.011,31.0
67,11637.00,11637.00,0.00,3.605,3486,0.003,2.917,0.006,0.668,0.011,31.1
68,11865.00,11865.00,0.00,3.518,3554,0.003,2.849,0.006,0.649,0.012,31.5
69,13324.00,13324.00,0.00,3.048,3991,0.003,2.450,0.005,0.578,0.011,31.5
70,12758.00,12758.00,0.00,3.307,3822,0.002,2.679,0.005,0.610,0.011,31.8
71,11458.00,11458.00,0.00,3.393,3433,0.003,2.721,0.006,0.652,0.011,30.1
72,11796.00,11796.00,0.00,3.611,3534,0.003,2.932,0.006,0.659,0.012,31.9
73,12449.00,12449.00,0.00,3.360,3730,0.002,2.718,0.006,0.623,0.011,31.2
74,8956.00,8956.00,0.00,3.580,2683,0.003,2.898,0.006,0.663,0.011,31.4
