Second,Ops/sec,Hits/sec,Misses/sec,Latency,KB/sec,Request_Creation_Time,Request_Buffer_Time,MW_Writes_To_Memcached_Time,Memcached_Process_Time,MW_Writes_To_Memtier_Time,Queue_Size
4,2479.00,2479.00,0.00,2.563,276,0.018,1.160,0.028,1.284,0.074,15.1
5,19966.00,19966.00,0.00,8.243,2220,0.004,6.647,0.008,1.573,0.011,123.8
6,20600.00,20600.00,0.00,8.797,2290,0.003,7.235,0.007,1.543,0.010,136.6
7,21003.00,21003.00,0.00,8.531,2334,0.003,7.006,0.007,1.506,0.010,135.5
8,21225.00,21225.00,0.00,8.316,2358,0.004,6.821,0.007,1.475,0.010,135.4
9,20976.00,20976.00,0.00,8.478,2332,0.003,6.947,0.006,1.512,0.010,135.2
10,22082.00,22082.00,0.00,8.102,2453,0.003,6.649,0.006,1.435,0.010,135.2
11,21692.00,21692.00,0.00,8.162,2411,0.002,6.692,0.007,1.450,0.010,134.0
12,21496.00,21496.00,0.00,8.433,2388,0.002,6.943,0.006,1.471,0.010,136.1
13,20738.00,20738.00,0.00,8.629,2303,0.003,7.085,0.006,1.526,0.010,136.3
14,21246.00,21246.00,0.00,8.428,2360,0.003,6.929,0.006,1.481,0.010,135.7
15,20324.00,20324.00,0.00,8.962,2259,0.002,7.377,0.006,1.567,0.009,137.8
16,21028.00,21028.00,0.00,8.523,2336,0.002,7.006,0.006,1.500,0.009,136.4
17,21369.00,21369.00,0.00,8.494,2374,0.003,6.988,0.006,1.488,0.009,137.1
18,20373.00,20373.00,0.00,8.796,2263,0.002,7.232,0.006,1.546,0.010,136.1
19,20627.00,20627.00,0.00,8.804,2292,0.002,7.242,0.006,1.544,0.009,138.1
20,21046.00,21046.00,0.00,8.616,2339,0.002,7.094,0.006,1.504,0.009,137.6
21,20015.00,20015.00,0.00,9.001,2224,0.002,7.408,0.006,1.575,0.010,136.3
22,20602.00,20602.00,0.00,8.698,2290,0.003,7.142,0.006,1.538,0.010,136.3
23,20709.00,20709.00,0.00,8.628,2302,0.002,7.087,0.006,1.523,0.010,135.3
24,20701.00,20701.00,0.00,8.691,2300,0.003,7.144,0.006,1.529,0.010,137.5
25,20959.00,20959.00,0.00,8.605,2330,0.003,7.076,0.006,1.511,0.010,137.2
26,20858.00,20858.00,0.00,8.631,2317,0.002,7.089,0.006,1.523,0.011,136.2
27,20123.00,20067.00,56.00,8.778,2229,0.004,7.188,0.008,1.567,0.011,135.3
28,21180.00,21049.00,131.00,8.498,2338,0.003,6.983,0.007,1.495,0.010,136.6
29,20844.00,20839.00,5.00,8.603,2314,0.003,7.076,0.007,1.509,0.010,136.3
30,20632.00,20632.00,0.00,8.821,2291,0.002,7.268,0.006,1.535,0.010,137.7
31,20678.00,20678.00,0.00,8.671,2295,0.003,7.131,0.006,1.521,0.010,136.5
32,20879.00,20879.00,0.00,8.532,2320,0.003,6.993,0.006,1.520,0.010,135.8
33,20171.00,20171.00,0.00,8.829,2241,0.002,7.251,0.006,1.558,0.010,135.5
34,21314.00,21314.00,0.00,8.350,2368,0.002,6.848,0.006,1.484,0.009,135.9
35,21423.00,21423.00,0.00,8.373,2380,0.002,6.880,0.006,1.474,0.011,136.5
36,20185.00,20185.00,0.00,8.886,2242,0.003,7.302,0.007,1.565,0.010,135.7
37,20570.00,20570.00,0.00,8.767,2285,0.003,7.217,0.006,1.531,0.009,137.7
38,20951.00,20951.00,0.00,8.625,2328,0.002,7.089,0.006,1.518,0.010,136.8
39,20663.00,20663.00,0.00,8.661,2297,0.002,7.112,0.006,1.530,0.011,135.9
40,20983.00,20983.00,0.00,8.499,2333,0.003,6.973,0.007,1.506,0.011,136.2
41,20855.00,20855.00,0.00,8.650,2317,0.002,7.120,0.006,1.512,0.010,137.0
42,21333.00,21333.00,0.00,8.470,2371,0.002,6.965,0.006,1.486,0.010,136.7
43,20899.00,20899.00,0.00,8.640,2324,0.002,7.109,0.006,1.513,0.010,137.0
44,20779.00,20779.00,0.00,8.627,2308,0.002,7.085,0.006,1.524,0.010,136.1
45,20810.00,20810.00,0.00,8.590,2310,0.002,7.050,0.006,1.522,0.010,136.0
46,20303.00,20303.00,0.00,8.903,2255,0.002,7.328,0.006,1.557,0.009,137.6
47,21341.00,21341.00,0.00,8.452,2372,0.002,6.946,0.006,1.487,0.010,136.9
48,20488.00,20488.00,0.00,8.662,2276,0.002,7.113,0.006,1.532,0.009,136.2
49,21114.00,21114.00,0.00,8.564,2345,0.002,7.042,0.006,1.504,0.010,135.9
50,20955.00,20955.00,0.00,8.636,2328,0.002,7.102,0.006,1.517,0.009,137.7
51,21211.00,21211.00,0.00,8.438,2356,0.002,6.929,0.007,1.490,0.010,136.1
52,20307.00,20307.00,0.00,8.809,2255,0.003,7.246,0.006,1.545,0.010,136.8
53,21264.00,21264.00,0.00,8.472,2362,0.002,6.958,0.006,1.496,0.009,135.8
54,21076.00,21076.00,0.00,8.559,2341,0.002,7.045,0.006,1.497,0.009,136.3
55,20488.00,20488.00,0.00,8.878,2277,0.002,7.312,0.006,1.549,0.009,137.8
56,20323.00,20323.00,0.00,8.710,2258,0.003,7.152,0.006,1.540,0.009,134.7
57,21415.00,21415.00,0.00,8.444,2380,0.002,6.949,0.006,1.476,0.009,137.4
58,20936.00,20936.00,0.00,8.477,2326,0.003,6.949,0.006,1.511,0.010,134.1
59,21242.00,21242.00,0.00,8.373,2360,0.002,6.858,0.006,1.496,0.010,136.1
60,21443.00,21443.00,0.00,8.371,2382,0.003,6.876,0.006,1.476,0.010,135.8
61,21420.00,21420.00,0.00,8.392,2379,0.002,6.897,0.006,1.477,0.010,136.5
62,21545.00,21545.00,0.00,8.319,2393,0.002,6.835,0.006,1.465,0.010,136.3
63,21953.00,21953.00,0.00,8.104,2439,0.002,6.643,0.006,1.441,0.011,136.1
64,20522.00,20522.00,0.00,8.832,2281,0.002,7.270,0.006,1.544,0.010,136.9
65,20836.00,20836.00,0.00,8.665,2315,0.002,7.130,0.006,1.518,0.009,136.6
66,20986.00,20986.00,0.00,8.518,2332,0.003,6.990,0.006,1.509,0.010,136.9
67,20530.00,20530.00,0.00,8.716,2282,0.003,7.168,0.007,1.526,0.012,135.7
68,21376.00,21376.00,0.00,8.307,2377,0.002,6.815,0.007,1.473,0.010,134.4
69,21362.00,21362.00,0.00,8.461,2375,0.002,6.955,0.006,1.488,0.010,136.3
70,20651.00,20629.00,22.00,8.638,2293,0.002,7.095,0.006,1.526,0.010,135.7
71,20871.00,20826.00,45.00,8.606,2315,0.003,7.067,0.006,1.521,0.009,135.5
72,21510.00,21421.00,89.00,8.379,2380,0.002,6.890,0.006,1.472,0.009,136.4
73,21103.00,21071.00,32.00,8.517,2341,0.002,6.998,0.006,1.501,0.010,135.9
74,17162.00,17159.00,3.00,7.934,1905,0.002,6.505,0.006,1.411,0.010,134.8
