Second,Ops/sec,Hits/sec,Misses/sec,Latency,KB/sec,Request_Creation_Time,Request_Buffer_Time,MW_Writes_To_Memcached_Time,Memcached_Process_Time,MW_Writes_To_Memtier_Time,Queue_Size
4,1716.00,1716.00,0.00,4.987,191,0.018,4.049,0.031,0.830,0.059,37.4
5,10568.00,10568.00,0.00,14.441,1176,0.005,13.694,0.007,0.724,0.012,147.3
6,13307.00,13307.00,0.00,13.924,1479,0.004,13.319,0.006,0.584,0.011,174.9
7,11914.00,11914.00,0.00,15.604,1325,0.003,14.928,0.006,0.655,0.011,175.3
8,11843.00,11843.00,0.00,15.647,1316,0.003,14.973,0.006,0.653,0.012,174.5
9,13155.00,13155.00,0.00,14.081,1462,0.003,13.470,0.006,0.591,0.011,175.5
10,11048.00,11048.00,0.00,16.709,1227,0.003,15.985,0.006,0.704,0.012,174.1
11,11623.00,11623.00,0.00,15.765,1291,0.003,15.072,0.006,0.673,0.011,173.2
12,13075.00,13075.00,0.00,14.035,1453,0.003,13.421,0.006,0.594,0.011,172.1
13,11736.00,11736.00,0.00,15.836,1305,0.003,15.154,0.006,0.663,0.011,174.9
14,12415.00,12415.00,0.00,14.959,1379,0.003,14.311,0.006,0.629,0.011,173.6
15,11977.00,11977.00,0.00,15.389,1330,0.003,14.718,0.006,0.651,0.011,174.7
16,12962.00,12962.00,0.00,14.310,1440,0.003,13.691,0.006,0.599,0.011,174.3
17,11245.00,11245.00,0.00,16.389,1250,0.003,15.675,0.006,0.694,0.011,175.3
18,12598.00,12598.00,0.00,14.821,1399,0.003,14.185,0.006,0.616,0.011,175.5
19,12096.00,12096.00,0.00,15.365,1343,0.003,14.700,0.006,0.645,0.011,175.8
20,11159.00,11159.00,0.00,16.759,1240,0.003,16.040,0.006,0.699,0.011,174.8
21,11848.00,11848.00,0.00,15.505,1316,0.003,14.832,0.006,0.653,0.012,174.8
22,12182.00,12182.00,0.00,15.319,1353,0.003,14.656,0.006,0.644,0.011,175.4
23,11153.00,11153.00,0.00,16.602,1240,0.003,15.882,0.006,0.701,0.011,174.2
24,11950.00,11950.00,0.00,15.592,1328,0.003,14.920,0.006,0.652,0.011,175.4
25,12044.00,12044.00,0.00,15.494,1338,0.003,14.827,0.006,0.647,0.011,176.0
26,11535.00,11535.00,0.00,16.046,1282,0.003,15.351,0.006,0.675,0.012,175.2
27,11946.00,11946.00,0.00,15.514,1327,0.003,14.846,0.006,0.649,0.011,174.9
28,12534.00,12534.00,0.00,14.865,1392,0.003,14.221,0.006,0.624,0.012,175.0
29,11729.00,11729.00,0.00,15.858,1303,0.003,15.175,0.006,0.664,0.012,175.9
30,12639.00,12639.00,0.00,14.690,1405,0.003,14.055,0.005,0.616,0.011,175.4
31,12283.00,12283.00,0.00,15.034,1365,0.003,14.381,0.006,0.633,0.012,174.8
32,10862.00,10862.00,0.00,17.156,1207,0.003,16.419,0.005,0.718,0.011,175.3
33,13048.00,13048.00,0.00,14.283,1450,0.003,13.666,0.005,0.597,0.012,175.7
34,11380.00,11380.00,0.00,16.408,1265,0.003,15.703,0.005,0.686,0.011,175.5
35,11768.00,11768.00,0.00,15.822,1308,0.003,15.140,0.006,0.663,0.011,175.8
36,11922.00,11922.00,0.00,15.513,1325,0.003,14.844,0.005,0.649,0.012,175.1
37,12289.00,12289.00,0.00,14.999,1367,0.003,14.342,0.006,0.637,0.011,174.2
38,13502.00,13502.00,0.00,13.746,1500,0.003,13.152,0.006,0.574,0.011,175.2
39,12829.00,12829.00,0.00,14.327,1425,0.003,13.704,0.006,0.603,0.012,175.1
40,12478.00,12478.00,0.00,15.001,1387,0.003,14.354,0.006,0.627,0.011,175.3
41,12416.00,12416.00,0.00,14.869,1380,0.003,14.223,0.006,0.628,0.011,174.9
42,12203.00,12203.00,0.00,15.240,1355,0.003,14.587,0.006,0.634,0.011,175.2
43,11082.00,11082.00,0.00,16.695,1230,0.003,15.967,0.006,0.709,0.011,174.2
44,11218.00,11167.00,51.00,16.507,1241,0.003,15.796,0.006,0.690,0.011,173.8
45,11889.00,11764.00,125.00,15.693,1307,0.003,15.014,0.006,0.660,0.011,174.6
46,12852.00,12836.00,16.00,14.423,1425,0.003,13.799,0.005,0.605,0.011,175.2
47,11053.00,11053.00,0.00,16.844,1227,0.003,16.118,0.006,0.707,0.011,175.2
48,12612.00,12612.00,0.00,14.571,1401,0.003,13.935,0.006,0.616,0.012,173.7
49,12221.00,12221.00,0.00,15.255,1357,0.003,14.599,0.006,0.636,0.011,175.0
50,12025.00,12025.00,0.00,15.397,1334,0.003,14.730,0.006,0.647,0.011,174.8
51,12752.00,12752.00,0.00,14.574,1415,0.003,13.945,0.006,0.609,0.011,175.6
52,11471.00,11471.00,0.00,16.232,1275,0.003,15.532,0.006,0.680,0.011,175.6
53,12134.00,12134.00,0.00,15.366,1349,0.002,14.705,0.006,0.642,0.011,175.0
54,11791.00,11791.00,0.00,15.651,1309,0.002,14.971,0.006,0.660,0.012,174.7
55,11408.00,11408.00,0.00,16.392,1267,0.002,15.688,0.005,0.684,0.011,176.0
56,11747.00,11747.00,0.00,15.915,1305,0.003,15.232,0.006,0.664,0.011,175.8
57,13584.00,13584.00,0.00,13.555,1509,0.003,12.966,0.006,0.570,0.011,174.9
58,11354.00,11354.00,0.00,16.313,1262,0.003,15.607,0.006,0.687,0.011,174.7
59,11112.00,11112.00,0.00,16.669,1234,0.003,15.945,0.006,0.704,0.012,175.5
60,11677.00,11677.00,0.00,16.025,1297,0.003,15.338,0.005,0.668,0.011,174.4
61,12543.00,12543.00,0.00,14.878,1394,0.003,14.238,0.006,0.620,0.011,176.0
62,12176.00,12176.00,0.00,15.166,1353,0.003,14.511,0.006,0.636,0.011,174.9
63,12580.00,12580.00,0.00,14.865,1399,0.003,14.223,0.005,0.622,0.012,175.6
64,11055.00,11055.00,0.00,16.750,1229,0.003,16.025,0.006,0.705,0.012,175.4
65,11910.00,11910.00,0.00,15.689,1324,0.003,15.015,0.006,0.655,0.011,175.4
66,12639.00,12639.00,0.00,14.677,1406,0.003,14.042,0.005,0.616,0.012,174.9
67,13237.00,13237.00,0.00,13.946,1472,0.003,13.340,0.006,0.587,0.012,174.2
68,12060.00,12060.00,0.00,15.331,1339,0.003,14.670,0.006,0.642,0.011,174.3
69,11140.00,11140.00,0.00,16.714,1238,0.003,15.990,0.006,0.705,0.011,174.6
70,11800.00,11800.00,0.00,15.761,1312,0.002,15.083,0.006,0.659,0.011,174.8
71,12255.00,12255.00,0.00,15.175,1363,0.003,14.518,0.006,0.638,0.011,175.0
72,12655.00,12655.00,0.00,14.668,1407,0.003,14.034,0.005,0.616,0.011,175.3
73,12212.00,12212.00,0.00,15.144,1355,0.002,14.490,0.005,0.636,0.011,175.2
74,11504.00,11504.00,0.00,13.204,1277,0.003,12.523,0.006,0.662,0.011,141.4
75,8450.00,8450.00,0.00,1.250,939,0.003,0.540,0.006,0.691,0.010,3.2
