Second,Ops/sec,Hits/sec,Misses/sec,Latency,KB/sec,Request_Creation_Time,Request_Buffer_Time,MW_Writes_To_Memcached_Time,Memcached_Process_Time,MW_Writes_To_Memtier_Time,Queue_Size
4,3972.00,3972.00,0.00,4.655,4173,0.017,2.122,0.034,2.443,0.038,20.9
5,11049.00,11049.00,0.00,13.332,11609,0.005,7.591,0.008,5.719,0.010,58.5
6,11117.00,11117.00,0.00,16.621,11680,0.004,10.863,0.006,5.740,0.009,92.6
7,11090.00,11090.00,0.00,16.626,11651,0.003,10.854,0.006,5.753,0.009,91.9
8,11158.00,11158.00,0.00,16.492,11722,0.003,10.753,0.006,5.721,0.009,90.4
9,11140.00,11140.00,0.00,16.648,11703,0.003,10.899,0.006,5.730,0.009,92.5
10,11123.00,11123.00,0.00,16.649,11685,0.003,10.895,0.006,5.736,0.009,92.9
11,11098.00,11098.00,0.00,16.524,11659,0.003,10.760,0.006,5.746,0.009,92.4
12,11107.00,11107.00,0.00,16.362,11669,0.003,10.607,0.006,5.737,0.009,90.8
13,11117.00,11117.00,0.00,16.610,11680,0.003,10.852,0.006,5.740,0.009,92.4
14,11154.00,11154.00,0.00,16.636,11718,0.003,10.893,0.006,5.725,0.009,92.2
15,11131.00,11131.00,0.00,16.422,11693,0.003,10.688,0.006,5.714,0.010,91.2
16,11108.00,11108.00,0.00,16.582,11670,0.003,10.822,0.006,5.742,0.009,91.1
17,11120.00,11120.00,0.00,16.657,11683,0.003,10.901,0.006,5.738,0.009,93.2
18,11248.00,11248.00,0.00,16.323,11817,0.003,10.633,0.006,5.672,0.009,92.4
19,11209.00,11209.00,0.00,16.561,11775,0.003,10.846,0.006,5.698,0.009,92.7
20,11051.00,11051.00,0.00,16.667,11609,0.003,10.876,0.006,5.772,0.009,92.5
21,11133.00,11133.00,0.00,16.566,11695,0.003,10.817,0.006,5.731,0.009,93.0
22,11095.00,11095.00,0.00,16.586,11656,0.003,10.818,0.006,5.750,0.009,92.5
23,11145.00,11145.00,0.00,16.612,11708,0.003,10.865,0.006,5.729,0.009,92.6
24,11315.00,11315.00,0.00,16.359,11887,0.003,10.701,0.006,5.640,0.009,92.1
25,11082.00,11082.00,0.00,16.655,11643,0.003,10.881,0.006,5.756,0.009,92.6
26,11110.00,11110.00,0.00,16.689,11672,0.003,10.928,0.006,5.744,0.009,92.8
27,11177.00,11177.00,0.00,16.674,11742,0.003,10.942,0.006,5.715,0.009,92.8
28,11088.00,11088.00,0.00,16.644,11648,0.003,10.872,0.007,5.753,0.010,92.9
29,11113.00,11113.00,0.00,16.648,11675,0.002,10.889,0.006,5.741,0.009,93.9
30,11149.00,11149.00,0.00,16.613,11713,0.002,10.869,0.006,5.726,0.009,92.7
31,11264.00,11264.00,0.00,16.364,11834,0.003,10.681,0.006,5.666,0.009,92.3
32,11119.00,11119.00,0.00,16.595,11682,0.002,10.837,0.006,5.740,0.010,91.7
33,11306.00,11306.00,0.00,16.289,11878,0.003,10.632,0.006,5.640,0.009,90.8
34,11095.00,11095.00,0.00,16.608,11656,0.003,10.839,0.006,5.752,0.009,93.0
35,11150.00,11150.00,0.00,16.631,11714,0.003,10.886,0.006,5.727,0.009,92.3
36,11098.00,11098.00,0.00,16.604,11660,0.003,10.838,0.006,5.748,0.009,92.1
37,11351.00,11351.00,0.00,16.325,11925,0.003,10.681,0.006,5.626,0.009,91.8
38,11060.00,11060.00,0.00,16.594,11620,0.003,10.809,0.006,5.768,0.009,91.7
39,11226.00,11226.00,0.00,16.606,11794,0.003,10.892,0.006,5.697,0.009,92.6
40,11061.00,11061.00,0.00,16.594,11621,0.003,10.814,0.006,5.763,0.009,92.4
41,11085.00,11085.00,0.00,16.634,11646,0.002,10.862,0.006,5.754,0.009,92.7
42,11320.00,11320.00,0.00,16.327,11893,0.003,10.671,0.006,5.638,0.009,91.1
43,11085.00,11085.00,0.00,16.590,11646,0.003,10.816,0.006,5.756,0.009,91.3
44,11164.00,11164.00,0.00,16.611,11729,0.003,10.874,0.006,5.719,0.010,92.5
45,11081.00,11077.00,4.00,16.494,11637,0.003,10.721,0.007,5.753,0.010,92.8
46,11144.00,11118.00,26.00,16.596,11680,0.003,10.859,0.007,5.718,0.010,93.5
47,11169.00,11117.00,52.00,16.563,11679,0.003,10.837,0.007,5.707,0.009,93.3
48,11172.00,11118.00,54.00,16.529,11680,0.003,10.797,0.006,5.714,0.009,91.8
49,11178.00,11145.00,33.00,16.612,11708,0.003,10.879,0.006,5.715,0.009,92.3
50,11110.00,11093.00,17.00,16.620,11654,0.003,10.858,0.006,5.744,0.009,93.0
51,11149.00,11143.00,6.00,16.681,11706,0.003,10.938,0.006,5.727,0.009,93.5
52,11098.00,11098.00,0.00,16.716,11658,0.003,10.948,0.006,5.750,0.009,93.8
53,11157.00,11157.00,0.00,16.492,11720,0.003,10.752,0.006,5.723,0.009,91.9
54,11082.00,11082.00,0.00,16.630,11641,0.003,10.862,0.006,5.750,0.009,93.6
55,11127.00,11127.00,0.00,16.656,11689,0.003,10.896,0.006,5.742,0.009,93.2
56,11147.00,11147.00,0.00,16.644,11710,0.003,10.899,0.006,5.726,0.009,92.8
57,11090.00,11090.00,0.00,16.673,11651,0.003,10.907,0.006,5.748,0.009,91.9
58,11156.00,11156.00,0.00,16.602,11720,0.003,10.857,0.006,5.726,0.010,92.1
59,11082.00,11082.00,0.00,16.649,11642,0.003,10.880,0.006,5.752,0.009,92.8
60,11135.00,11135.00,0.00,16.647,11698,0.003,10.892,0.006,5.738,0.009,91.8
61,11144.00,11144.00,0.00,16.578,11707,0.003,10.835,0.006,5.725,0.009,90.3
62,11088.00,11088.00,0.00,16.587,11649,0.003,10.817,0.006,5.751,0.009,92.1
63,11124.00,11124.00,0.00,16.618,11686,0.003,10.864,0.006,5.736,0.009,91.6
64,11159.00,11159.00,0.00,16.562,11723,0.003,10.823,0.006,5.722,0.009,92.3
65,11080.00,11080.00,0.00,16.644,11640,0.003,10.868,0.006,5.758,0.009,91.5
66,11122.00,11122.00,0.00,16.647,11684,0.003,10.891,0.006,5.738,0.009,93.6
67,11151.00,11151.00,0.00,16.600,11715,0.003,10.857,0.006,5.725,0.009,91.5
68,11065.00,11065.00,0.00,16.630,11625,0.003,10.877,0.006,5.736,0.009,91.8
69,11136.00,11136.00,0.00,16.614,11700,0.003,10.848,0.006,5.748,0.009,92.3
70,11132.00,11132.00,0.00,16.587,11695,0.003,10.822,0.006,5.748,0.009,91.8
71,11118.00,11118.00,0.00,16.546,11681,0.003,10.790,0.006,5.737,0.010,92.4
72,11130.00,11130.00,0.00,16.635,11693,0.003,10.882,0.006,5.735,0.009,92.3
73,11135.00,11135.00,0.00,16.624,11698,0.003,10.874,0.006,5.732,0.009,91.8
74,11079.00,11079.00,0.00,12.419,11640,0.003,7.436,0.007,4.965,0.009,62.7
75,7480.00,7480.00,0.00,3.699,7858,0.003,0.174,0.010,3.503,0.009,2.2
