Second,Ops/sec,Hits/sec,Misses/sec,Latency,KB/sec,Request_Creation_Time,Request_Buffer_Time,MW_Writes_To_Memcached_Time,Memcached_Process_Time,MW_Writes_To_Memtier_Time,Queue_Size
4,3150.00,3150.00,0.00,2.184,944,0.019,0.702,0.047,1.348,0.067,6.9
5,15471.00,15471.00,0.00,2.053,4635,0.006,0.193,0.013,1.830,0.012,2.2
6,18027.00,18027.00,0.00,1.988,5401,0.004,0.214,0.011,1.748,0.011,2.8
7,18719.00,18719.00,0.00,1.880,5607,0.005,0.224,0.011,1.628,0.012,2.6
8,19074.00,19074.00,0.00,1.840,5714,0.005,0.288,0.013,1.525,0.010,2.7
9,18040.00,18040.00,0.00,2.035,5405,0.004,0.169,0.012,1.840,0.010,2.0
10,18329.00,18328.00,1.00,1.998,5491,0.004,0.228,0.012,1.744,0.010,2.9
11,18531.00,18488.00,43.00,2.003,5538,0.004,0.184,0.011,1.794,0.010,2.6
12,18450.00,18446.00,4.00,2.102,5525,0.003,0.156,0.010,1.924,0.009,2.4
13,18781.00,18781.00,0.00,1.984,5626,0.003,0.223,0.010,1.738,0.010,2.6
14,19237.00,19237.00,0.00,1.952,5764,0.003,0.173,0.010,1.756,0.009,2.4
15,18048.00,18048.00,0.00,2.028,5407,0.003,0.210,0.011,1.792,0.012,2.6
16,19493.00,19493.00,0.00,1.990,5840,0.003,0.159,0.009,1.810,0.009,2.4
17,19469.00,19469.00,0.00,1.988,5832,0.003,0.135,0.010,1.831,0.009,2.3
18,19330.00,19330.00,0.00,1.923,5791,0.003,0.175,0.011,1.722,0.012,2.3
19,18278.00,18278.00,0.00,2.065,5476,0.003,0.219,0.010,1.822,0.011,2.6
20,18844.00,18844.00,0.00,1.986,5645,0.004,0.195,0.010,1.767,0.010,2.6
21,19242.00,19241.00,1.00,2.000,5764,0.003,0.182,0.010,1.795,0.010,2.8
22,18510.00,18506.00,4.00,2.095,5545,0.003,0.170,0.010,1.904,0.010,2.4
23,19174.00,19153.00,21.00,1.940,5738,0.003,0.200,0.010,1.716,0.011,2.7
24,19103.00,19084.00,19.00,1.909,5717,0.005,0.189,0.012,1.691,0.012,2.3
25,17837.00,17834.00,3.00,2.143,5343,0.003,0.197,0.010,1.925,0.009,2.9
26,19114.00,19114.00,0.00,2.037,5726,0.003,0.141,0.009,1.873,0.010,2.1
27,18666.00,18666.00,0.00,1.979,5592,0.003,0.191,0.010,1.765,0.010,2.8
28,18399.00,18399.00,0.00,2.097,5512,0.003,0.151,0.009,1.924,0.009,2.1
29,19212.00,19212.00,0.00,1.961,5756,0.003,0.202,0.010,1.736,0.010,2.6
30,18834.00,18834.00,0.00,2.036,5643,0.003,0.179,0.009,1.835,0.010,2.4
31,18283.00,18283.00,0.00,2.105,5478,0.003,0.204,0.009,1.880,0.010,2.9
32,18658.00,18658.00,0.00,2.042,5590,0.003,0.194,0.009,1.826,0.010,2.7
33,18454.00,18454.00,0.00,1.969,5529,0.003,0.205,0.012,1.738,0.011,2.9
34,18816.00,18816.00,0.00,2.067,5637,0.003,0.202,0.009,1.844,0.009,2.9
35,19093.00,19093.00,0.00,1.941,5720,0.003,0.168,0.011,1.749,0.010,2.6
36,19803.00,19803.00,0.00,1.845,5933,0.003,0.243,0.011,1.577,0.011,2.5
37,18554.00,18554.00,0.00,2.046,5558,0.003,0.226,0.011,1.796,0.010,2.8
38,19187.00,19187.00,0.00,2.022,5748,0.003,0.164,0.010,1.836,0.009,2.5
39,18616.00,18616.00,0.00,2.035,5577,0.003,0.177,0.011,1.833,0.011,2.7
40,19085.00,19085.00,0.00,1.946,5718,0.004,0.202,0.011,1.719,0.011,2.3
41,18850.00,18850.00,0.00,2.033,5647,0.003,0.183,0.009,1.828,0.010,2.5
42,19597.00,19597.00,0.00,1.889,5871,0.003,0.215,0.011,1.650,0.010,2.8
43,18951.00,18951.00,0.00,2.033,5678,0.003,0.169,0.010,1.841,0.010,2.6
44,18586.00,18586.00,0.00,2.044,5568,0.003,0.190,0.010,1.830,0.010,2.5
45,19493.00,19493.00,0.00,1.983,5840,0.003,0.147,0.010,1.814,0.009,2.4
46,17575.00,17575.00,0.00,2.137,5265,0.003,0.228,0.010,1.884,0.011,2.9
47,18417.00,18417.00,0.00,2.090,5517,0.003,0.219,0.009,1.848,0.011,3.0
48,18725.00,18725.00,0.00,1.955,5610,0.003,0.214,0.011,1.716,0.010,2.9
49,17967.00,17967.00,0.00,2.168,5383,0.003,0.198,0.009,1.949,0.010,2.7
50,19235.00,19235.00,0.00,1.960,5763,0.003,0.195,0.011,1.742,0.009,2.5
51,18866.00,18865.00,1.00,1.994,5652,0.003,0.208,0.010,1.763,0.010,2.8
52,18596.00,18596.00,0.00,2.078,5571,0.003,0.150,0.009,1.907,0.010,2.6
53,19170.00,19166.00,4.00,1.903,5742,0.004,0.156,0.010,1.722,0.011,2.6
54,19240.00,19238.00,2.00,1.969,5764,0.003,0.151,0.009,1.795,0.010,2.5
55,18823.00,18811.00,12.00,1.970,5636,0.003,0.187,0.009,1.760,0.010,2.7
56,18134.00,18127.00,7.00,2.011,5431,0.003,0.202,0.011,1.782,0.013,2.7
57,18769.00,18756.00,13.00,1.872,5619,0.004,0.268,0.010,1.579,0.011,3.2
58,18893.00,18878.00,15.00,1.970,5656,0.003,0.252,0.010,1.694,0.011,3.2
59,17655.00,17641.00,14.00,2.032,5285,0.003,0.245,0.009,1.765,0.010,3.3
60,18557.00,18544.00,13.00,2.079,5556,0.003,0.204,0.010,1.853,0.009,2.9
61,18890.00,18871.00,19.00,1.906,5654,0.003,0.177,0.011,1.704,0.011,2.7
62,17535.00,17522.00,13.00,2.224,5249,0.003,0.174,0.009,2.029,0.009,2.9
63,19052.00,19040.00,12.00,1.948,5704,0.004,0.225,0.010,1.700,0.009,3.0
64,18926.00,18912.00,14.00,1.992,5666,0.003,0.169,0.010,1.800,0.009,2.4
65,18268.00,18266.00,2.00,2.020,5472,0.003,0.212,0.009,1.785,0.010,2.5
66,19256.00,19253.00,3.00,1.959,5768,0.003,0.177,0.011,1.760,0.009,2.5
67,19199.00,19199.00,0.00,1.944,5752,0.003,0.181,0.011,1.739,0.010,2.5
68,17991.00,17991.00,0.00,2.118,5390,0.003,0.240,0.011,1.854,0.010,3.0
69,18937.00,18937.00,0.00,2.027,5673,0.003,0.205,0.010,1.800,0.010,2.7
70,18671.00,18671.00,0.00,1.947,5593,0.003,0.192,0.010,1.732,0.010,2.9
71,18020.00,18020.00,0.00,2.125,5398,0.003,0.170,0.010,1.932,0.009,2.6
72,18642.00,18642.00,0.00,1.915,5585,0.003,0.236,0.011,1.653,0.012,3.0
73,18800.00,18800.00,0.00,1.888,5632,0.003,0.295,0.012,1.566,0.011,2.9
74,12380.00,12380.00,0.00,1.941,3709,0.003,0.188,0.011,1.727,0.012,2.4
