Second,Ops/sec,Hits/sec,Misses/sec,Latency,KB/sec,Request_Creation_Time,Request_Buffer_Time,MW_Writes_To_Memcached_Time,Memcached_Process_Time,MW_Writes_To_Memtier_Time,Queue_Size
4,3934.00,3934.00,0.00,1.828,438,0.019,0.556,0.065,1.147,0.041,3.4
5,15712.00,15712.00,0.00,2.004,1746,0.005,0.269,0.013,1.703,0.014,2.6
6,18916.00,18916.00,0.00,1.967,2102,0.004,0.189,0.009,1.754,0.010,2.6
7,18756.00,18756.00,0.00,1.854,2083,0.004,0.275,0.011,1.554,0.010,3.4
8,18618.00,18618.00,0.00,1.878,2068,0.004,0.223,0.013,1.627,0.012,2.7
9,18177.00,18177.00,0.00,2.003,2020,0.003,0.201,0.011,1.778,0.009,2.6
10,19612.00,19611.00,1.00,1.914,2179,0.003,0.199,0.009,1.695,0.009,2.6
11,18411.00,18365.00,46.00,1.727,2040,0.005,0.294,0.013,1.401,0.014,3.1
12,18255.00,18254.00,1.00,2.017,2027,0.003,0.236,0.012,1.756,0.010,2.9
13,18630.00,18630.00,0.00,1.990,2070,0.004,0.259,0.011,1.707,0.010,3.3
14,18955.00,18955.00,0.00,1.838,2107,0.003,0.285,0.010,1.528,0.012,3.0
15,19165.00,19165.00,0.00,1.893,2130,0.004,0.180,0.011,1.688,0.010,2.7
16,18934.00,18934.00,0.00,1.936,2103,0.004,0.193,0.011,1.715,0.013,2.8
17,18893.00,18893.00,0.00,1.980,2099,0.003,0.206,0.010,1.750,0.011,2.7
18,18703.00,18703.00,0.00,1.940,2078,0.003,0.198,0.012,1.717,0.010,2.7
19,18864.00,18864.00,0.00,1.990,2096,0.003,0.216,0.010,1.751,0.010,3.0
20,19434.00,19434.00,0.00,1.856,2159,0.004,0.233,0.011,1.598,0.010,2.8
21,19122.00,19122.00,0.00,1.966,2125,0.003,0.160,0.010,1.783,0.010,2.5
22,18825.00,18818.00,7.00,1.991,2092,0.003,0.148,0.012,1.817,0.011,2.3
23,19199.00,19171.00,28.00,1.773,2131,0.005,0.213,0.011,1.533,0.011,3.0
24,19329.00,19316.00,13.00,1.961,2146,0.003,0.201,0.011,1.736,0.010,2.7
25,18820.00,18820.00,0.00,2.049,2091,0.003,0.158,0.010,1.868,0.010,2.7
26,19580.00,19580.00,0.00,1.952,2176,0.003,0.154,0.011,1.775,0.009,2.6
27,19425.00,19425.00,0.00,2.000,2158,0.003,0.159,0.009,1.819,0.010,2.4
28,18643.00,18643.00,0.00,2.060,2072,0.003,0.223,0.010,1.815,0.010,2.8
29,18384.00,18384.00,0.00,1.954,2043,0.003,0.269,0.011,1.659,0.012,3.4
30,19148.00,19148.00,0.00,1.975,2128,0.003,0.159,0.010,1.794,0.009,2.6
31,18729.00,18729.00,0.00,2.041,2081,0.003,0.151,0.009,1.869,0.009,2.5
32,19594.00,19594.00,0.00,1.921,2177,0.003,0.145,0.012,1.751,0.009,2.2
33,18303.00,18303.00,0.00,2.041,2034,0.004,0.196,0.010,1.821,0.010,2.8
34,18761.00,18761.00,0.00,1.928,2085,0.003,0.222,0.011,1.684,0.009,3.0
35,19878.00,19878.00,0.00,1.814,2209,0.003,0.200,0.011,1.590,0.010,2.6
36,19121.00,19121.00,0.00,2.003,2124,0.003,0.149,0.009,1.833,0.009,2.4
37,18168.00,18168.00,0.00,2.091,2018,0.003,0.157,0.009,1.914,0.009,2.2
38,19061.00,19061.00,0.00,2.005,2118,0.003,0.175,0.009,1.809,0.009,2.7
39,19675.00,19675.00,0.00,1.797,2186,0.004,0.238,0.009,1.535,0.011,2.9
40,19059.00,19059.00,0.00,2.049,2118,0.003,0.161,0.009,1.867,0.009,2.6
41,19645.00,19645.00,0.00,1.909,2183,0.003,0.160,0.009,1.728,0.009,2.4
42,19225.00,19225.00,0.00,1.999,2136,0.003,0.160,0.008,1.819,0.009,2.7
43,18361.00,18361.00,0.00,2.114,2040,0.003,0.149,0.009,1.944,0.009,2.3
44,19393.00,19393.00,0.00,1.946,2155,0.003,0.183,0.009,1.741,0.009,2.6
45,19737.00,19737.00,0.00,1.876,2193,0.004,0.161,0.009,1.693,0.009,2.3
46,19191.00,19191.00,0.00,1.971,2132,0.003,0.169,0.009,1.781,0.009,2.5
47,18946.00,18946.00,0.00,1.942,2105,0.003,0.178,0.010,1.742,0.009,2.6
48,19150.00,19150.00,0.00,1.999,2128,0.003,0.149,0.009,1.830,0.009,2.6
49,18923.00,18923.00,0.00,2.078,2103,0.003,0.155,0.009,1.903,0.009,2.5
50,19760.00,19760.00,0.00,1.855,2196,0.004,0.192,0.012,1.637,0.010,2.7
51,19212.00,19212.00,0.00,1.968,2135,0.003,0.185,0.010,1.760,0.010,2.6
52,18727.00,18726.00,1.00,2.053,2081,0.003,0.148,0.009,1.884,0.009,2.3
53,18681.00,18677.00,4.00,2.045,2075,0.003,0.124,0.009,1.901,0.009,2.2
54,19108.00,19102.00,6.00,2.013,2123,0.003,0.172,0.010,1.820,0.009,2.4
55,18397.00,18385.00,12.00,2.066,2043,0.003,0.192,0.009,1.853,0.009,2.6
56,19486.00,19476.00,10.00,1.890,2164,0.004,0.171,0.009,1.697,0.009,2.4
57,19153.00,19137.00,16.00,1.870,2127,0.003,0.198,0.009,1.651,0.010,2.6
58,18760.00,18746.00,14.00,1.996,2083,0.003,0.167,0.011,1.804,0.010,2.4
59,18898.00,18879.00,19.00,1.991,2098,0.003,0.168,0.009,1.801,0.009,2.5
60,19198.00,19185.00,13.00,1.993,2132,0.003,0.228,0.009,1.744,0.009,2.7
61,19704.00,19682.00,22.00,1.933,2187,0.003,0.169,0.009,1.744,0.009,2.8
62,18903.00,18893.00,10.00,2.052,2099,0.003,0.158,0.009,1.874,0.009,2.4
63,18730.00,18720.00,10.00,2.056,2080,0.003,0.163,0.009,1.873,0.009,2.6
64,19347.00,19342.00,5.00,2.008,2149,0.003,0.145,0.009,1.843,0.009,2.3
65,19176.00,19174.00,2.00,1.833,2130,0.004,0.191,0.010,1.616,0.011,2.6
66,19135.00,19135.00,0.00,1.926,2126,0.003,0.168,0.009,1.737,0.011,2.2
67,19109.00,19109.00,0.00,2.008,2123,0.003,0.159,0.009,1.827,0.010,2.4
68,18685.00,18685.00,0.00,2.030,2076,0.003,0.163,0.008,1.846,0.009,2.5
69,19383.00,19383.00,0.00,1.982,2153,0.003,0.165,0.009,1.795,0.010,2.6
70,19170.00,19170.00,0.00,1.992,2130,0.003,0.174,0.009,1.797,0.009,2.8
71,18936.00,18936.00,0.00,1.863,2104,0.003,0.221,0.011,1.617,0.010,2.4
72,20105.00,20105.00,0.00,1.825,2234,0.004,0.156,0.009,1.647,0.010,2.4
73,19375.00,19375.00,0.00,1.848,2153,0.004,0.261,0.010,1.563,0.010,3.1
74,12369.00,12369.00,0.00,1.813,1374,0.003,0.220,0.013,1.565,0.013,2.7
