Second,Ops/sec,Hits/sec,Misses/sec,Latency,KB/sec,Request_Creation_Time,Request_Buffer_Time,MW_Writes_To_Memcached_Time,Memcached_Process_Time,MW_Writes_To_Memtier_Time,Queue_Size
4,3899.00,3899.00,0.00,1.853,1169,0.019,0.509,0.037,1.250,0.038,5.0
5,16516.00,16516.00,0.00,1.979,4948,0.006,0.520,0.011,1.429,0.013,3.6
6,18757.00,18757.00,0.00,2.089,5620,0.003,0.583,0.008,1.484,0.010,3.9
7,18128.00,18128.00,0.00,2.098,5430,0.004,0.564,0.009,1.513,0.009,3.9
8,18288.00,18288.00,0.00,2.091,5479,0.004,0.563,0.009,1.506,0.010,3.9
9,18677.00,18677.00,0.00,1.922,5596,0.004,0.492,0.009,1.407,0.011,3.6
10,19253.00,19252.00,1.00,1.963,5768,0.003,0.512,0.009,1.427,0.012,3.9
11,16945.00,16903.00,42.00,2.035,5063,0.004,0.529,0.010,1.480,0.011,3.8
12,19188.00,19183.00,5.00,1.947,5746,0.004,0.513,0.010,1.410,0.010,4.0
13,18851.00,18851.00,0.00,2.004,5647,0.003,0.532,0.009,1.449,0.010,3.9
14,18299.00,18299.00,0.00,2.122,5483,0.003,0.581,0.010,1.518,0.011,3.8
15,19219.00,19219.00,0.00,1.902,5758,0.003,0.479,0.010,1.398,0.012,4.0
16,19065.00,19065.00,0.00,1.983,5711,0.003,0.513,0.009,1.447,0.010,3.6
17,18063.00,18063.00,0.00,2.132,5411,0.003,0.595,0.009,1.515,0.010,4.3
18,18792.00,18792.00,0.00,1.972,5629,0.004,0.515,0.010,1.433,0.010,4.0
19,18495.00,18495.00,0.00,2.007,5541,0.003,0.536,0.010,1.448,0.011,4.2
20,18238.00,18238.00,0.00,2.053,5463,0.004,0.564,0.009,1.464,0.011,4.3
21,19044.00,19044.00,0.00,1.977,5705,0.003,0.522,0.009,1.433,0.010,4.1
22,18924.00,18921.00,3.00,1.992,5669,0.003,0.563,0.009,1.407,0.010,4.4
23,18381.00,18352.00,29.00,2.081,5498,0.004,0.558,0.010,1.500,0.010,4.2
24,19307.00,19294.00,13.00,1.953,5780,0.003,0.546,0.009,1.384,0.011,4.1
25,20162.00,20159.00,3.00,1.916,6039,0.003,0.534,0.009,1.361,0.010,3.9
26,18931.00,18931.00,0.00,2.034,5672,0.003,0.590,0.009,1.423,0.010,4.1
27,18834.00,18834.00,0.00,2.004,5642,0.003,0.558,0.009,1.424,0.011,4.3
28,18718.00,18718.00,0.00,2.054,5608,0.003,0.583,0.010,1.448,0.010,4.1
29,18147.00,18147.00,0.00,2.117,5437,0.003,0.578,0.009,1.516,0.011,3.8
30,19247.00,19247.00,0.00,1.907,5767,0.004,0.494,0.009,1.389,0.011,3.9
31,18544.00,18544.00,0.00,2.063,5556,0.003,0.576,0.009,1.466,0.010,4.1
32,18293.00,18293.00,0.00,2.065,5481,0.003,0.573,0.010,1.470,0.010,4.0
33,19146.00,19146.00,0.00,1.925,5736,0.004,0.526,0.009,1.377,0.010,4.4
34,18639.00,18639.00,0.00,2.074,5585,0.003,0.563,0.008,1.490,0.010,3.9
35,18985.00,18985.00,0.00,2.049,5688,0.003,0.560,0.009,1.468,0.009,3.9
36,19098.00,19098.00,0.00,1.936,5721,0.003,0.498,0.008,1.416,0.010,4.0
37,18796.00,18796.00,0.00,2.004,5631,0.003,0.550,0.009,1.433,0.010,4.1
38,19001.00,19001.00,0.00,2.050,5693,0.003,0.574,0.008,1.455,0.009,4.0
39,18409.00,18409.00,0.00,2.085,5515,0.003,0.572,0.008,1.490,0.011,3.9
40,19122.00,19122.00,0.00,1.990,5729,0.003,0.540,0.008,1.430,0.009,3.8
41,19078.00,19078.00,0.00,1.945,5716,0.003,0.531,0.009,1.392,0.010,4.1
42,18680.00,18680.00,0.00,2.040,5596,0.003,0.549,0.009,1.470,0.010,3.6
43,19430.00,19430.00,0.00,1.998,5821,0.003,0.546,0.008,1.432,0.009,3.8
44,18672.00,18672.00,0.00,2.006,5594,0.003,0.558,0.009,1.426,0.010,4.0
45,18201.00,18201.00,0.00,2.120,5453,0.003,0.573,0.008,1.527,0.009,3.8
46,19580.00,19580.00,0.00,1.910,5866,0.003,0.513,0.008,1.377,0.010,3.8
47,19440.00,19440.00,0.00,1.982,5824,0.003,0.539,0.008,1.422,0.010,3.8
48,18828.00,18828.00,0.00,2.033,5641,0.003,0.562,0.008,1.452,0.009,3.9
49,18188.00,18188.00,0.00,2.159,5449,0.003,0.610,0.008,1.529,0.009,4.0
50,18944.00,18944.00,0.00,2.012,5675,0.003,0.547,0.008,1.446,0.009,3.8
51,18417.00,18417.00,0.00,2.075,5517,0.003,0.555,0.009,1.499,0.009,3.5
52,19171.00,19171.00,0.00,1.988,5743,0.003,0.555,0.008,1.412,0.011,4.0
53,19169.00,19166.00,3.00,2.000,5742,0.003,0.529,0.008,1.449,0.011,3.9
54,18111.00,18107.00,4.00,2.148,5425,0.003,0.597,0.008,1.531,0.009,3.7
55,18621.00,18612.00,9.00,2.092,5577,0.003,0.583,0.008,1.490,0.009,4.0
56,18972.00,18955.00,17.00,2.052,5679,0.003,0.579,0.008,1.453,0.009,4.1
57,19080.00,19073.00,7.00,1.991,5714,0.003,0.530,0.008,1.440,0.009,3.8
58,18935.00,18926.00,9.00,2.002,5670,0.003,0.556,0.008,1.426,0.009,3.9
59,18900.00,18879.00,21.00,2.044,5656,0.003,0.568,0.008,1.456,0.009,4.0
60,18707.00,18685.00,22.00,1.999,5598,0.003,0.549,0.009,1.429,0.009,4.0
61,19115.00,19101.00,14.00,2.028,5722,0.003,0.551,0.008,1.457,0.010,3.9
62,18386.00,18369.00,17.00,2.133,5503,0.003,0.597,0.008,1.516,0.009,4.1
63,18496.00,18489.00,7.00,2.038,5539,0.003,0.546,0.008,1.472,0.010,4.0
64,19095.00,19087.00,8.00,2.020,5718,0.003,0.560,0.008,1.441,0.009,4.0
65,19173.00,19169.00,4.00,2.035,5743,0.003,0.564,0.008,1.451,0.009,4.0
66,18226.00,18225.00,1.00,2.135,5460,0.003,0.603,0.008,1.513,0.009,4.1
67,18267.00,18266.00,1.00,2.165,5472,0.003,0.611,0.008,1.534,0.009,3.9
68,18989.00,18989.00,0.00,2.036,5689,0.003,0.561,0.009,1.454,0.010,4.0
69,18318.00,18318.00,0.00,2.148,5487,0.003,0.588,0.008,1.539,0.009,4.0
70,18786.00,18786.00,0.00,2.041,5627,0.003,0.569,0.008,1.451,0.010,3.7
71,18847.00,18847.00,0.00,2.011,5646,0.003,0.560,0.008,1.431,0.009,4.0
72,18850.00,18850.00,0.00,2.079,5647,0.003,0.572,0.008,1.487,0.009,3.9
73,18936.00,18936.00,0.00,2.065,5673,0.003,0.568,0.008,1.477,0.009,3.8
74,12499.00,12499.00,0.00,2.109,3745,0.003,0.586,0.008,1.501,0.011,3.8
