Second,Ops/sec,Hits/sec,Misses/sec,Latency,KB/sec,Request_Creation_Time,Request_Buffer_Time,MW_Writes_To_Memcached_Time,Memcached_Process_Time,MW_Writes_To_Memtier_Time,Queue_Size
4,1690.00,1690.00,0.00,3.655,507,0.027,2.804,0.025,0.751,0.048,29.7
5,11639.00,11639.00,0.00,12.125,3488,0.005,11.436,0.007,0.664,0.012,133.9
6,11023.00,11023.00,0.00,16.854,3303,0.003,16.127,0.006,0.706,0.011,175.6
7,12044.00,12044.00,0.00,15.608,3609,0.004,14.942,0.006,0.645,0.012,175.7
8,12920.00,12920.00,0.00,14.242,3871,0.003,13.622,0.006,0.600,0.011,174.1
9,12391.00,12391.00,0.00,14.906,3712,0.003,14.259,0.006,0.627,0.012,174.8
10,11801.00,11801.00,0.00,15.586,3535,0.003,14.907,0.006,0.658,0.011,173.4
11,11456.00,11456.00,0.00,16.167,3432,0.003,15.467,0.006,0.680,0.012,175.6
12,11878.00,11878.00,0.00,15.564,3559,0.003,14.892,0.006,0.652,0.012,174.3
13,11784.00,11784.00,0.00,15.855,3531,0.003,15.170,0.006,0.664,0.012,175.2
14,11925.00,11925.00,0.00,15.481,3573,0.003,14.811,0.006,0.650,0.012,175.6
15,12953.00,12953.00,0.00,14.373,3880,0.003,13.751,0.006,0.602,0.012,175.7
16,12459.00,12459.00,0.00,14.885,3733,0.003,14.241,0.006,0.623,0.012,175.3
17,12192.00,12192.00,0.00,15.185,3653,0.003,14.528,0.006,0.637,0.011,174.9
18,12635.00,12635.00,0.00,14.698,3784,0.003,14.064,0.006,0.615,0.011,175.5
19,11505.00,11505.00,0.00,16.169,3446,0.003,15.469,0.006,0.680,0.012,175.7
20,12202.00,12202.00,0.00,15.179,3655,0.003,14.526,0.006,0.633,0.012,175.2
21,12950.00,12950.00,0.00,14.261,3879,0.003,13.639,0.006,0.601,0.012,173.6
22,11607.00,11607.00,0.00,16.047,3477,0.003,15.355,0.005,0.673,0.011,174.8
23,12068.00,12068.00,0.00,15.368,3616,0.003,14.702,0.005,0.647,0.011,175.7
24,12520.00,12520.00,0.00,14.901,3751,0.003,14.260,0.006,0.621,0.012,175.6
25,11848.00,11848.00,0.00,15.673,3549,0.003,14.996,0.006,0.657,0.012,175.2
26,12692.00,12692.00,0.00,14.511,3802,0.003,13.878,0.006,0.612,0.012,175.1
27,11985.00,11985.00,0.00,15.538,3590,0.003,14.869,0.006,0.650,0.012,174.7
28,12351.00,12351.00,0.00,15.007,3700,0.003,14.357,0.005,0.630,0.011,174.2
29,11733.00,11733.00,0.00,15.731,3515,0.003,15.048,0.006,0.664,0.011,175.1
30,13839.00,13839.00,0.00,13.324,4147,0.003,12.744,0.006,0.559,0.012,175.0
31,12310.00,12310.00,0.00,15.081,3688,0.003,14.428,0.006,0.633,0.012,175.7
32,12787.00,12787.00,0.00,14.410,3831,0.003,13.781,0.006,0.608,0.011,175.1
33,13165.00,13165.00,0.00,14.146,3944,0.003,13.536,0.005,0.590,0.012,175.3
34,12347.00,12347.00,0.00,14.921,3700,0.003,14.273,0.006,0.628,0.012,174.7
35,13100.00,13100.00,0.00,14.169,3925,0.003,13.554,0.006,0.595,0.012,175.3
36,11554.00,11554.00,0.00,16.063,3462,0.003,15.372,0.005,0.672,0.011,175.2
37,12115.00,12115.00,0.00,15.402,3630,0.003,14.736,0.006,0.645,0.012,175.4
38,12390.00,12390.00,0.00,14.862,3712,0.003,14.214,0.006,0.628,0.012,175.6
39,12169.00,12169.00,0.00,15.213,3646,0.003,14.553,0.005,0.639,0.012,174.6
40,11661.00,11661.00,0.00,15.978,3494,0.003,15.289,0.006,0.669,0.012,175.7
41,11740.00,11740.00,0.00,15.763,3517,0.003,15.083,0.006,0.661,0.012,175.1
42,12845.00,12845.00,0.00,14.440,3847,0.003,13.817,0.006,0.604,0.012,175.5
43,10858.00,10847.00,11.00,17.153,3249,0.003,16.411,0.007,0.720,0.012,175.4
44,11249.00,11129.00,120.00,16.502,3334,0.003,15.787,0.006,0.695,0.011,175.1
45,12545.00,12485.00,60.00,14.805,3740,0.003,14.166,0.006,0.619,0.012,175.4
46,10956.00,10955.00,1.00,17.026,3281,0.003,16.299,0.006,0.708,0.011,175.4
47,12055.00,12055.00,0.00,15.423,3611,0.003,14.754,0.006,0.650,0.011,174.0
48,12726.00,12726.00,0.00,14.486,3812,0.003,13.856,0.006,0.609,0.013,175.4
49,12621.00,12621.00,0.00,14.626,3779,0.003,13.989,0.007,0.615,0.013,175.6
50,11509.00,11509.00,0.00,16.115,3446,0.003,15.421,0.006,0.674,0.011,174.6
51,12166.00,12166.00,0.00,15.118,3644,0.003,14.457,0.006,0.641,0.012,173.9
52,11697.00,11697.00,0.00,15.858,3504,0.003,15.171,0.006,0.667,0.011,174.4
53,12182.00,12182.00,0.00,15.312,3650,0.003,14.654,0.006,0.638,0.012,175.6
54,12318.00,12318.00,0.00,15.083,3690,0.003,14.433,0.006,0.629,0.011,174.9
55,13515.00,13515.00,0.00,13.653,4049,0.003,13.059,0.006,0.574,0.012,175.9
56,12849.00,12849.00,0.00,14.442,3849,0.003,13.815,0.006,0.605,0.013,175.9
57,13162.00,13162.00,0.00,13.806,3944,0.003,13.196,0.006,0.588,0.013,173.2
58,13731.00,13731.00,0.00,13.373,4113,0.003,12.788,0.006,0.565,0.012,174.9
59,13022.00,13022.00,0.00,14.101,3901,0.003,13.485,0.006,0.596,0.012,174.8
60,13922.00,13922.00,0.00,13.281,4171,0.003,12.704,0.006,0.556,0.013,176.2
61,12673.00,12673.00,0.00,14.482,3797,0.003,13.850,0.006,0.611,0.012,175.9
62,11579.00,11579.00,0.00,16.111,3469,0.003,15.417,0.006,0.673,0.013,175.7
63,12784.00,12784.00,0.00,14.549,3830,0.003,13.921,0.006,0.607,0.012,175.3
64,11623.00,11623.00,0.00,15.796,3483,0.003,15.106,0.005,0.670,0.012,173.6
65,12513.00,12513.00,0.00,14.807,3750,0.003,14.165,0.006,0.622,0.011,175.2
66,13348.00,13348.00,0.00,13.889,3999,0.003,13.288,0.006,0.580,0.012,175.6
67,11390.00,11390.00,0.00,16.329,3412,0.003,15.627,0.006,0.683,0.011,175.8
68,11375.00,11375.00,0.00,16.375,3408,0.003,15.666,0.006,0.688,0.012,175.8
69,12860.00,12860.00,0.00,14.472,3854,0.003,13.848,0.006,0.604,0.012,176.3
70,12604.00,12604.00,0.00,14.683,3777,0.003,14.046,0.006,0.617,0.011,176.2
71,11450.00,11450.00,0.00,16.232,3430,0.003,15.532,0.006,0.681,0.011,174.7
72,12181.00,12181.00,0.00,15.244,3648,0.003,14.589,0.006,0.635,0.012,175.6
73,11631.00,11631.00,0.00,16.090,3483,0.003,15.395,0.006,0.675,0.011,175.6
74,12075.00,12075.00,0.00,12.666,3616,0.003,12.000,0.006,0.645,0.012,142.7
75,10524.00,10524.00,0.00,2.500,3153,0.003,1.894,0.006,0.585,0.012,24.0
