Second,Ops/sec,Hits/sec,Misses/sec,Latency,KB/sec,Request_Creation_Time,Request_Buffer_Time,MW_Writes_To_Memcached_Time,Memcached_Process_Time,MW_Writes_To_Memtier_Time,Queue_Size
4,3644.00,3644.00,0.00,3.238,3829,0.023,0.839,0.067,2.210,0.100,10.2
5,11122.00,11122.00,0.00,7.524,11685,0.004,2.087,0.008,5.416,0.009,7.9
6,11122.00,11122.00,0.00,8.046,11685,0.003,2.535,0.008,5.491,0.008,10.0
7,11118.00,11118.00,0.00,8.005,11680,0.003,2.520,0.008,5.465,0.009,10.2
8,11122.00,11122.00,0.00,8.045,11685,0.003,2.551,0.008,5.474,0.008,10.3
9,11122.00,11122.00,0.00,8.028,11685,0.003,2.515,0.008,5.494,0.008,9.9
10,11118.00,11118.00,0.00,8.032,11680,0.003,2.518,0.008,5.495,0.008,10.1
11,11122.00,11122.00,0.00,8.026,11685,0.003,2.502,0.008,5.505,0.009,9.4
12,11122.00,11122.00,0.00,7.988,11683,0.003,2.461,0.008,5.508,0.009,10.0
13,11119.00,11119.00,0.00,8.050,11681,0.003,2.533,0.008,5.498,0.009,10.1
14,11120.00,11120.00,0.00,8.036,11682,0.003,2.522,0.008,5.496,0.009,10.2
15,11122.00,11122.00,0.00,8.063,11684,0.003,2.572,0.008,5.472,0.009,10.5
16,11119.00,11119.00,0.00,8.015,11681,0.003,2.515,0.008,5.481,0.008,10.0
17,11121.00,11121.00,0.00,8.040,11683,0.003,2.537,0.008,5.484,0.009,10.2
18,11122.00,11122.00,0.00,8.038,11685,0.003,2.498,0.008,5.521,0.009,9.5
19,11118.00,11118.00,0.00,8.000,11680,0.003,2.518,0.008,5.462,0.008,9.5
20,11122.00,11122.00,0.00,8.023,11685,0.003,2.511,0.008,5.492,0.009,9.7
21,11122.00,11122.00,0.00,8.045,11685,0.003,2.532,0.008,5.494,0.009,10.2
22,11118.00,11118.00,0.00,8.027,11680,0.003,2.506,0.008,5.502,0.009,9.8
23,11122.00,11122.00,0.00,8.039,11685,0.003,2.542,0.008,5.477,0.009,9.9
24,11125.00,11122.00,3.00,7.998,11685,0.003,2.461,0.010,5.514,0.010,9.6
25,11138.00,11117.00,21.00,8.018,11679,0.003,2.513,0.009,5.484,0.010,10.6
26,11166.00,11119.00,47.00,8.042,11681,0.003,2.535,0.009,5.487,0.009,9.8
27,11138.00,11121.00,17.00,8.034,11683,0.003,2.516,0.009,5.497,0.010,9.9
28,11125.00,11119.00,6.00,8.007,11681,0.003,2.530,0.009,5.456,0.010,10.0
29,11124.00,11122.00,2.00,8.001,11684,0.003,2.542,0.009,5.438,0.009,10.2
30,11123.00,11123.00,0.00,8.044,11685,0.003,2.519,0.009,5.504,0.009,9.5
31,11118.00,11118.00,0.00,8.027,11680,0.003,2.509,0.009,5.496,0.009,9.8
32,11121.00,11121.00,0.00,8.035,11683,0.003,2.510,0.009,5.504,0.009,9.8
33,11123.00,11123.00,0.00,8.056,11685,0.003,2.531,0.009,5.505,0.009,10.1
34,11120.00,11120.00,0.00,8.027,11682,0.003,2.499,0.009,5.507,0.009,9.5
35,11120.00,11120.00,0.00,8.057,11682,0.003,2.533,0.009,5.504,0.009,10.1
36,11122.00,11122.00,0.00,8.035,11685,0.003,2.520,0.009,5.495,0.009,10.5
37,11122.00,11122.00,0.00,8.010,11685,0.003,2.496,0.009,5.493,0.010,9.8
38,11118.00,11118.00,0.00,8.067,11681,0.003,2.536,0.009,5.510,0.009,10.0
39,11122.00,11122.00,0.00,8.046,11685,0.003,2.524,0.009,5.502,0.009,10.2
40,11122.00,11122.00,0.00,8.050,11685,0.003,2.513,0.009,5.516,0.010,10.2
41,11118.00,11118.00,0.00,8.059,11680,0.003,2.534,0.009,5.504,0.010,10.4
42,11296.00,11296.00,0.00,7.890,11867,0.003,2.480,0.009,5.389,0.010,10.3
43,11122.00,11122.00,0.00,7.985,11684,0.003,2.475,0.009,5.488,0.010,9.8
44,11292.00,11292.00,0.00,7.912,11863,0.003,2.480,0.009,5.411,0.009,10.2
45,11123.00,11123.00,0.00,8.059,11685,0.003,2.516,0.008,5.522,0.009,9.7
46,11122.00,11122.00,0.00,7.986,11684,0.003,2.483,0.009,5.482,0.010,10.1
47,11118.00,11118.00,0.00,8.075,11680,0.003,2.542,0.008,5.513,0.009,10.2
48,11122.00,11122.00,0.00,8.004,11684,0.003,2.478,0.008,5.507,0.009,9.6
49,11123.00,11123.00,0.00,8.028,11685,0.003,2.511,0.008,5.497,0.009,9.9
50,11118.00,11118.00,0.00,7.924,11680,0.003,2.473,0.008,5.431,0.009,11.0
51,11122.00,11122.00,0.00,8.039,11684,0.003,2.549,0.008,5.469,0.009,11.1
52,11122.00,11122.00,0.00,7.706,11684,0.003,2.452,0.009,5.230,0.012,11.3
53,11118.00,11118.00,0.00,7.919,11680,0.003,2.496,0.008,5.402,0.010,10.9
54,11123.00,11123.00,0.00,8.053,11685,0.003,2.539,0.008,5.494,0.009,10.8
55,11121.00,11121.00,0.00,8.019,11683,0.003,2.519,0.008,5.480,0.009,10.9
56,11119.00,11119.00,0.00,8.039,11681,0.003,2.528,0.008,5.492,0.009,10.1
57,11122.00,11122.00,0.00,8.044,11684,0.003,2.521,0.008,5.503,0.009,10.4
58,11122.00,11122.00,0.00,8.035,11684,0.003,2.569,0.008,5.446,0.009,11.3
59,11118.00,11118.00,0.00,7.994,11680,0.003,2.494,0.008,5.480,0.009,10.5
60,11122.00,11122.00,0.00,8.065,11684,0.003,2.546,0.008,5.499,0.009,10.8
61,11123.00,11122.00,1.00,8.047,11685,0.003,2.532,0.008,5.496,0.009,10.9
62,11118.00,11118.00,0.00,8.021,11680,0.003,2.510,0.008,5.491,0.009,10.4
63,11125.00,11122.00,3.00,8.010,11685,0.003,2.507,0.008,5.484,0.009,10.4
64,11127.00,11121.00,6.00,8.054,11684,0.003,2.545,0.008,5.489,0.009,10.5
65,11126.00,11118.00,8.00,8.008,11681,0.003,2.542,0.009,5.445,0.009,10.5
66,11136.00,11120.00,16.00,8.068,11683,0.003,2.572,0.008,5.476,0.009,10.9
67,11142.00,11121.00,21.00,8.029,11683,0.003,2.544,0.008,5.466,0.009,11.6
68,11129.00,11118.00,11.00,7.996,11680,0.003,2.516,0.008,5.460,0.009,11.2
69,11129.00,11121.00,8.00,8.009,11683,0.003,2.517,0.009,5.472,0.009,11.0
70,11131.00,11122.00,9.00,8.055,11684,0.003,2.540,0.008,5.495,0.009,10.9
71,11121.00,11118.00,3.00,8.024,11680,0.003,2.517,0.008,5.488,0.009,10.6
72,11127.00,11122.00,5.00,8.014,11684,0.003,2.508,0.008,5.486,0.009,10.4
73,11123.00,11122.00,1.00,8.029,11684,0.003,2.524,0.008,5.485,0.009,11.2
74,8411.00,8409.00,2.00,7.347,8834,0.003,2.276,0.009,5.048,0.010,9.1
75,2040.00,2040.00,0.00,0.752,2143,0.005,0.098,0.018,0.616,0.016,0.0
