Second,Ops/sec,Hits/sec,Misses/sec,Latency,KB/sec,Request_Creation_Time,Request_Buffer_Time,MW_Writes_To_Memcached_Time,Memcached_Process_Time,MW_Writes_To_Memtier_Time,Queue_Size
4,2913.00,2913.00,0.00,1.342,1601,0.024,0.269,0.030,0.979,0.040,1.2
5,11700.00,11700.00,0.00,1.407,6431,0.005,0.125,0.012,1.252,0.012,0.8
6,13104.00,13104.00,0.00,1.332,7201,0.004,0.112,0.011,1.193,0.012,0.9
7,13192.00,13192.00,0.00,1.345,7250,0.004,0.108,0.010,1.214,0.010,0.8
8,14205.00,14205.00,0.00,1.169,7807,0.003,0.120,0.012,1.022,0.012,0.9
9,12737.00,12713.00,24.00,1.324,6987,0.004,0.155,0.011,1.142,0.011,1.1
10,12808.00,12808.00,0.00,1.304,7039,0.004,0.102,0.012,1.177,0.010,0.8
11,12550.00,12550.00,0.00,1.394,6898,0.003,0.154,0.011,1.216,0.011,1.2
12,13433.00,13433.00,0.00,1.315,7383,0.003,0.119,0.009,1.174,0.010,0.9
13,13959.00,13959.00,0.00,1.232,7671,0.003,0.135,0.011,1.072,0.010,1.2
14,13293.00,13293.00,0.00,1.333,7305,0.003,0.115,0.010,1.195,0.010,0.8
15,13362.00,13362.00,0.00,1.358,7344,0.003,0.108,0.010,1.227,0.010,0.8
16,13303.00,13303.00,0.00,1.343,7311,0.003,0.094,0.010,1.226,0.009,0.8
17,13654.00,13648.00,6.00,1.250,7501,0.004,0.124,0.010,1.101,0.012,0.8
18,14206.00,14188.00,18.00,1.171,7797,0.003,0.141,0.012,1.005,0.010,1.0
19,14600.00,14600.00,0.00,1.087,8024,0.003,0.134,0.010,0.928,0.012,1.0
20,15958.00,15958.00,0.00,0.959,8770,0.004,0.196,0.010,0.738,0.011,1.4
21,13300.00,13300.00,0.00,1.279,7310,0.003,0.175,0.010,1.080,0.011,1.1
22,13333.00,13333.00,0.00,1.333,7328,0.003,0.110,0.011,1.199,0.009,0.8
23,13882.00,13882.00,0.00,1.173,7630,0.004,0.149,0.011,0.998,0.012,1.1
24,13910.00,13910.00,0.00,1.231,7645,0.003,0.127,0.010,1.081,0.010,0.9
25,13557.00,13557.00,0.00,1.328,7451,0.003,0.132,0.010,1.173,0.010,1.1
26,13691.00,13691.00,0.00,1.271,7525,0.003,0.120,0.010,1.129,0.010,1.0
27,13543.00,13543.00,0.00,1.303,7443,0.003,0.123,0.010,1.158,0.010,0.9
28,12515.00,12515.00,0.00,1.399,6878,0.003,0.145,0.010,1.232,0.010,1.0
29,14150.00,14150.00,0.00,1.169,7777,0.004,0.119,0.011,1.026,0.010,0.9
30,14132.00,14132.00,0.00,1.215,7767,0.003,0.120,0.010,1.072,0.010,0.9
31,12953.00,12953.00,0.00,1.352,7119,0.003,0.139,0.010,1.190,0.010,1.0
32,14227.00,14227.00,0.00,1.208,7819,0.003,0.101,0.010,1.084,0.010,0.8
33,13782.00,13782.00,0.00,1.290,7574,0.003,0.093,0.010,1.175,0.010,0.9
34,13563.00,13563.00,0.00,1.277,7454,0.003,0.136,0.010,1.118,0.010,1.0
35,13470.00,13470.00,0.00,1.319,7403,0.003,0.088,0.010,1.209,0.010,0.8
36,14009.00,14009.00,0.00,1.204,7699,0.003,0.131,0.010,1.048,0.011,0.9
37,13493.00,13493.00,0.00,1.295,7415,0.003,0.137,0.011,1.135,0.010,1.0
38,14840.00,14840.00,0.00,1.046,8156,0.003,0.125,0.010,0.898,0.011,0.8
39,13957.00,13953.00,4.00,1.206,7669,0.003,0.122,0.010,1.062,0.010,0.9
40,13739.00,13725.00,14.00,1.261,7543,0.003,0.126,0.011,1.111,0.011,0.8
41,14876.00,14868.00,8.00,1.125,8171,0.003,0.128,0.012,0.972,0.011,0.9
42,13362.00,13350.00,12.00,1.307,7337,0.003,0.138,0.009,1.147,0.010,1.0
43,13176.00,13165.00,11.00,1.315,7235,0.004,0.131,0.012,1.155,0.012,0.9
44,14024.00,14007.00,17.00,1.170,7698,0.003,0.136,0.011,1.010,0.010,0.9
45,14157.00,14151.00,6.00,1.211,7777,0.003,0.117,0.011,1.070,0.011,0.9
46,13433.00,13433.00,0.00,1.302,7383,0.003,0.104,0.010,1.174,0.010,0.8
47,14066.00,14066.00,0.00,1.192,7730,0.003,0.109,0.011,1.059,0.010,0.8
48,14119.00,14119.00,0.00,1.152,7759,0.003,0.158,0.010,0.970,0.011,1.0
49,14755.00,14755.00,0.00,1.095,8109,0.003,0.140,0.011,0.929,0.011,1.0
50,13653.00,13653.00,0.00,1.301,7503,0.003,0.099,0.010,1.181,0.010,0.8
51,13539.00,13539.00,0.00,1.286,7441,0.003,0.110,0.010,1.153,0.010,0.8
52,13327.00,13327.00,0.00,1.321,7325,0.003,0.101,0.010,1.197,0.010,0.7
53,12663.00,12663.00,0.00,1.378,6960,0.003,0.179,0.010,1.177,0.010,1.3
54,13794.00,13794.00,0.00,1.256,7581,0.003,0.127,0.010,1.106,0.011,0.9
55,14075.00,14075.00,0.00,1.214,7735,0.003,0.123,0.010,1.068,0.010,0.9
56,12995.00,12995.00,0.00,1.362,7142,0.003,0.111,0.010,1.228,0.010,0.9
57,13746.00,13746.00,0.00,1.280,7555,0.003,0.101,0.010,1.155,0.011,0.8
58,13123.00,13123.00,0.00,1.370,7212,0.003,0.127,0.010,1.220,0.011,0.9
59,12674.00,12674.00,0.00,1.408,6965,0.003,0.135,0.010,1.250,0.010,0.9
60,13308.00,13308.00,0.00,1.345,7314,0.003,0.147,0.009,1.176,0.010,1.1
61,14667.00,14667.00,0.00,1.103,8061,0.004,0.142,0.010,0.936,0.010,1.1
62,13846.00,13846.00,0.00,1.249,7610,0.003,0.112,0.011,1.112,0.010,0.8
63,13611.00,13611.00,0.00,1.251,7481,0.004,0.146,0.010,1.082,0.010,1.1
64,12868.00,12868.00,0.00,1.414,7072,0.003,0.110,0.010,1.282,0.010,0.9
65,13287.00,13287.00,0.00,1.372,7302,0.003,0.089,0.010,1.261,0.010,0.8
66,13602.00,13602.00,0.00,1.238,7476,0.004,0.142,0.010,1.072,0.010,1.0
67,13412.00,13412.00,0.00,1.335,7371,0.003,0.109,0.009,1.205,0.010,0.8
68,13268.00,13268.00,0.00,1.296,7292,0.003,0.142,0.010,1.131,0.010,0.9
69,13435.00,13435.00,0.00,1.297,7384,0.003,0.118,0.012,1.153,0.011,0.9
70,13677.00,13677.00,0.00,1.291,7517,0.003,0.124,0.010,1.144,0.010,0.8
71,13453.00,13453.00,0.00,1.268,7394,0.003,0.176,0.010,1.069,0.010,1.1
72,13155.00,13155.00,0.00,1.335,7230,0.003,0.111,0.010,1.201,0.010,0.8
73,13509.00,13509.00,0.00,1.302,7424,0.003,0.132,0.011,1.146,0.009,0.8
74,9076.00,9076.00,0.00,1.358,4988,0.004,0.096,0.010,1.239,0.010,0.7
