Second,Ops/sec,Hits/sec,Misses/sec,Latency,KB/sec,Request_Creation_Time,Request_Buffer_Time,MW_Writes_To_Memcached_Time,Memcached_Process_Time,MW_Writes_To_Memtier_Time,Queue_Size
4,4268.00,4268.00,0.00,2.644,2346,0.009,0.792,0.049,1.755,0.039,11.9
5,19756.00,19756.00,0.00,3.156,10859,0.007,0.880,0.015,2.234,0.020,9.8
6,20450.00,20450.00,0.00,3.896,11239,0.005,1.102,0.010,2.767,0.013,9.3
7,20461.00,20461.00,0.00,3.917,11246,0.004,1.185,0.010,2.708,0.010,10.4
8,20556.00,20556.00,0.00,3.953,11297,0.004,1.096,0.008,2.835,0.010,9.5
9,20332.00,20332.00,0.00,3.998,11173,0.003,1.130,0.009,2.846,0.010,9.4
10,20531.00,20531.00,0.00,4.038,11284,0.003,1.188,0.009,2.829,0.010,10.1
11,20419.00,20419.00,0.00,4.101,11222,0.003,1.221,0.008,2.858,0.010,9.8
12,20600.00,20600.00,0.00,3.944,11322,0.003,1.130,0.009,2.789,0.013,10.0
13,20462.00,20462.00,0.00,4.025,11246,0.003,1.165,0.009,2.839,0.010,9.9
14,20324.00,20324.00,0.00,4.053,11170,0.003,1.198,0.009,2.833,0.010,9.8
15,20597.00,20590.00,7.00,3.766,11316,0.003,1.022,0.011,2.716,0.014,9.6
16,20361.00,20302.00,59.00,4.081,11157,0.003,1.186,0.011,2.871,0.011,9.7
17,20524.00,20494.00,30.00,3.936,11262,0.004,1.122,0.009,2.790,0.010,9.7
18,20404.00,20404.00,0.00,4.008,11213,0.003,1.138,0.010,2.845,0.011,9.7
19,20634.00,20634.00,0.00,4.010,11340,0.003,1.155,0.010,2.833,0.010,9.4
20,20276.00,20276.00,0.00,3.933,11143,0.004,1.124,0.009,2.787,0.010,9.3
21,20320.00,20320.00,0.00,3.847,11168,0.003,1.096,0.010,2.726,0.011,9.7
22,20782.00,20782.00,0.00,3.723,11422,0.006,1.029,0.010,2.667,0.012,10.0
23,20462.00,20462.00,0.00,4.081,11246,0.003,1.227,0.009,2.832,0.010,10.9
24,20281.00,20281.00,0.00,3.981,11146,0.003,1.176,0.010,2.782,0.011,10.8
25,20455.00,20455.00,0.00,3.975,11241,0.005,1.152,0.009,2.798,0.012,10.1
26,20589.00,20589.00,0.00,4.088,11315,0.003,1.237,0.010,2.828,0.010,10.9
27,20509.00,20509.00,0.00,3.719,11271,0.005,1.044,0.009,2.649,0.012,9.9
28,20325.00,20325.00,0.00,3.991,11170,0.004,1.163,0.009,2.805,0.010,10.2
29,20451.00,20451.00,0.00,4.019,11239,0.003,1.199,0.009,2.798,0.011,10.9
30,20450.00,20450.00,0.00,4.029,11239,0.003,1.177,0.010,2.830,0.010,10.2
31,20429.00,20429.00,0.00,4.000,11227,0.003,1.197,0.009,2.782,0.010,10.4
32,20575.00,20575.00,0.00,4.004,11308,0.003,1.188,0.011,2.793,0.010,10.6
33,20421.00,20421.00,0.00,3.999,11223,0.003,1.173,0.010,2.802,0.011,10.1
34,20748.00,20748.00,0.00,3.967,11403,0.003,1.127,0.009,2.817,0.011,10.2
35,20457.00,20456.00,1.00,4.037,11242,0.003,1.184,0.009,2.831,0.010,9.9
36,20469.00,20463.00,6.00,3.940,11247,0.004,1.138,0.011,2.776,0.011,10.4
37,20610.00,20597.00,13.00,3.966,11321,0.003,1.131,0.009,2.814,0.009,9.8
38,20466.00,20445.00,21.00,4.060,11237,0.003,1.160,0.010,2.878,0.010,9.8
39,20346.00,20324.00,22.00,3.880,11170,0.003,1.136,0.009,2.718,0.013,10.8
40,20362.00,20347.00,15.00,4.035,11182,0.003,1.191,0.008,2.824,0.010,10.4
41,20682.00,20668.00,14.00,4.017,11359,0.003,1.215,0.009,2.779,0.010,10.2
42,20298.00,20294.00,4.00,4.021,11153,0.003,1.225,0.009,2.773,0.011,11.5
43,20533.00,20533.00,0.00,4.044,11285,0.003,1.177,0.010,2.844,0.010,10.1
44,20398.00,20398.00,0.00,4.010,11211,0.003,1.167,0.009,2.819,0.011,9.9
45,20587.00,20587.00,0.00,3.981,11314,0.003,1.132,0.009,2.827,0.010,9.9
46,20464.00,20464.00,0.00,3.996,11247,0.004,1.157,0.009,2.817,0.010,9.9
47,20529.00,20529.00,0.00,4.091,11283,0.003,1.207,0.010,2.862,0.010,9.9
48,20460.00,20460.00,0.00,4.012,11245,0.003,1.173,0.009,2.818,0.010,10.2
49,20252.00,20252.00,0.00,4.021,11131,0.004,1.212,0.009,2.785,0.011,10.3
50,20602.00,20602.00,0.00,3.994,11323,0.003,1.192,0.008,2.781,0.010,10.5
51,20304.00,20304.00,0.00,3.980,11159,0.004,1.171,0.008,2.787,0.011,9.8
52,20574.00,20574.00,0.00,3.991,11308,0.003,1.177,0.009,2.792,0.010,9.9
53,20385.00,20385.00,0.00,4.077,11204,0.003,1.181,0.009,2.872,0.011,9.7
54,20641.00,20641.00,0.00,4.080,11344,0.003,1.207,0.008,2.853,0.009,10.0
55,20416.00,20416.00,0.00,4.067,11221,0.003,1.191,0.008,2.856,0.010,9.9
56,20819.00,20819.00,0.00,3.978,11442,0.003,1.164,0.008,2.794,0.009,9.4
57,20462.00,20462.00,0.00,4.099,11246,0.003,1.221,0.008,2.858,0.009,9.6
58,20328.00,20328.00,0.00,4.134,11172,0.003,1.220,0.008,2.893,0.010,9.3
59,20417.00,20417.00,0.00,4.112,11221,0.003,1.213,0.008,2.879,0.009,10.5
60,20551.00,20551.00,0.00,4.066,11295,0.003,1.187,0.008,2.859,0.009,9.2
61,20451.00,20451.00,0.00,4.076,11240,0.003,1.169,0.008,2.887,0.009,9.0
62,20517.00,20517.00,0.00,4.039,11276,0.003,1.194,0.008,2.823,0.010,9.4
63,20492.00,20492.00,0.00,4.034,11262,0.003,1.177,0.008,2.836,0.009,9.6
64,20360.00,20360.00,0.00,4.074,11190,0.003,1.183,0.009,2.870,0.009,9.1
65,20389.00,20389.00,0.00,4.088,11206,0.003,1.203,0.008,2.865,0.009,9.3
66,20408.00,20408.00,0.00,4.115,11216,0.003,1.232,0.008,2.863,0.009,10.3
67,20670.00,20670.00,0.00,3.998,11360,0.003,1.135,0.009,2.842,0.010,9.2
68,20464.00,20464.00,0.00,4.088,11247,0.003,1.216,0.008,2.852,0.010,9.7
69,20462.00,20462.00,0.00,4.098,11246,0.003,1.174,0.008,2.904,0.009,9.2
70,20781.00,20781.00,0.00,3.978,11421,0.003,1.148,0.009,2.808,0.010,9.5
71,20295.00,20295.00,0.00,4.100,11154,0.003,1.225,0.008,2.855,0.010,10.2
72,20435.00,20435.00,0.00,4.107,11231,0.003,1.271,0.008,2.814,0.010,10.7
73,20500.00,20500.00,0.00,4.021,11267,0.003,1.138,0.009,2.861,0.010,9.3
74,14165.00,14165.00,0.00,4.014,7785,0.003,1.162,0.008,2.831,0.010,9.1
75,944.00,944.00,0.00,0.757,519,0.007,0.069,0.019,0.649,0.014,0.0
