Second,Ops/sec,Hits/sec,Misses/sec,Latency,KB/sec,Request_Creation_Time,Request_Buffer_Time,MW_Writes_To_Memcached_Time,Memcached_Process_Time,MW_Writes_To_Memtier_Time,Queue_Size
4,3548.00,3548.00,0.00,1.927,1063,0.023,0.516,0.038,1.223,0.126,4.2
5,15603.00,15603.00,0.00,2.118,4675,0.005,0.278,0.012,1.808,0.015,2.7
6,19244.00,19244.00,0.00,1.922,5766,0.004,0.168,0.010,1.729,0.011,2.7
7,19706.00,19706.00,0.00,1.903,5903,0.004,0.152,0.012,1.725,0.010,2.4
8,18825.00,18825.00,0.00,2.002,5640,0.003,0.188,0.009,1.793,0.009,2.6
9,17320.00,17320.00,0.00,2.019,5189,0.004,0.153,0.010,1.843,0.009,2.1
10,18619.00,18618.00,1.00,2.066,5578,0.003,0.160,0.010,1.885,0.009,2.3
11,17814.00,17770.00,44.00,1.954,5323,0.004,0.270,0.014,1.653,0.013,2.6
12,18679.00,18676.00,3.00,2.063,5594,0.003,0.144,0.010,1.896,0.010,2.3
13,18834.00,18834.00,0.00,1.976,5642,0.003,0.219,0.014,1.729,0.011,2.8
14,18771.00,18771.00,0.00,1.971,5624,0.003,0.222,0.011,1.725,0.010,2.8
15,18022.00,18022.00,0.00,2.107,5400,0.003,0.224,0.010,1.860,0.011,3.2
16,19377.00,19377.00,0.00,1.956,5805,0.003,0.164,0.010,1.768,0.010,2.5
17,19142.00,19142.00,0.00,1.951,5734,0.003,0.201,0.010,1.728,0.010,2.6
18,18709.00,18709.00,0.00,2.074,5605,0.002,0.155,0.010,1.897,0.009,2.4
19,19273.00,19273.00,0.00,1.966,5774,0.003,0.200,0.012,1.742,0.010,2.3
20,19081.00,19081.00,0.00,1.885,5716,0.003,0.226,0.012,1.633,0.012,2.6
21,18625.00,18625.00,0.00,2.081,5580,0.002,0.163,0.011,1.895,0.010,2.3
22,18867.00,18862.00,5.00,1.732,5652,0.003,0.252,0.013,1.452,0.012,2.9
23,19565.00,19537.00,28.00,1.885,5853,0.003,0.222,0.012,1.636,0.013,2.6
24,18662.00,18648.00,14.00,1.999,5586,0.003,0.172,0.012,1.801,0.011,2.1
25,18574.00,18573.00,1.00,1.858,5564,0.004,0.265,0.010,1.567,0.011,3.1
26,19807.00,19807.00,0.00,1.858,5934,0.003,0.184,0.011,1.646,0.014,2.6
27,17559.00,17559.00,0.00,2.220,5261,0.003,0.195,0.011,2.002,0.010,2.7
28,19113.00,19113.00,0.00,1.970,5726,0.003,0.189,0.010,1.758,0.010,2.4
29,18945.00,18945.00,0.00,2.024,5676,0.003,0.151,0.011,1.850,0.010,2.6
30,17889.00,17889.00,0.00,2.134,5360,0.003,0.162,0.010,1.949,0.009,2.4
31,18995.00,18995.00,0.00,1.993,5691,0.003,0.155,0.010,1.816,0.010,2.4
32,19266.00,19266.00,0.00,1.973,5772,0.004,0.131,0.010,1.819,0.010,2.2
33,18386.00,18386.00,0.00,2.102,5508,0.002,0.160,0.011,1.919,0.010,2.5
34,19203.00,19203.00,0.00,1.973,5754,0.003,0.158,0.010,1.792,0.010,2.4
35,18923.00,18923.00,0.00,2.023,5670,0.003,0.150,0.010,1.850,0.009,2.3
36,18285.00,18285.00,0.00,2.079,5478,0.003,0.189,0.009,1.868,0.010,3.0
37,18929.00,18929.00,0.00,2.021,5671,0.003,0.155,0.010,1.844,0.009,2.3
38,18770.00,18770.00,0.00,2.021,5623,0.003,0.198,0.010,1.801,0.010,2.7
39,18895.00,18895.00,0.00,2.060,5661,0.002,0.165,0.009,1.874,0.009,2.4
40,18589.00,18589.00,0.00,1.992,5569,0.003,0.221,0.010,1.748,0.010,2.5
41,19122.00,19122.00,0.00,2.019,5729,0.003,0.162,0.009,1.836,0.009,2.5
42,18419.00,18419.00,0.00,2.096,5518,0.002,0.149,0.009,1.927,0.009,2.1
43,19311.00,19311.00,0.00,1.890,5786,0.003,0.211,0.010,1.656,0.010,2.6
44,19100.00,19100.00,0.00,2.028,5722,0.003,0.162,0.009,1.845,0.009,2.3
45,18105.00,18105.00,0.00,2.131,5424,0.002,0.192,0.009,1.919,0.009,2.4
46,19212.00,19212.00,0.00,2.006,5756,0.003,0.177,0.010,1.807,0.009,2.6
47,19141.00,19141.00,0.00,1.977,5734,0.003,0.153,0.009,1.803,0.010,2.5
48,18457.00,18457.00,0.00,2.030,5530,0.003,0.212,0.010,1.795,0.010,2.9
49,19351.00,19351.00,0.00,1.982,5797,0.002,0.196,0.010,1.765,0.009,3.0
50,19329.00,19329.00,0.00,1.918,5791,0.004,0.165,0.010,1.730,0.009,2.7
51,18853.00,18853.00,0.00,1.953,5648,0.003,0.166,0.011,1.763,0.010,2.4
52,18838.00,18838.00,0.00,2.022,5644,0.003,0.193,0.010,1.807,0.010,2.5
53,19634.00,19631.00,3.00,1.943,5881,0.002,0.160,0.009,1.760,0.011,2.5
54,18705.00,18700.00,5.00,2.053,5603,0.003,0.178,0.009,1.855,0.009,2.6
55,18717.00,18707.00,10.00,2.081,5605,0.003,0.154,0.009,1.906,0.009,2.4
56,19262.00,19252.00,10.00,1.963,5768,0.003,0.135,0.010,1.805,0.010,2.2
57,19109.00,19096.00,13.00,2.023,5721,0.003,0.170,0.009,1.832,0.009,2.5
58,18555.00,18539.00,16.00,2.082,5554,0.003,0.188,0.009,1.872,0.010,2.5
59,18769.00,18752.00,17.00,2.040,5618,0.003,0.174,0.009,1.845,0.010,2.4
60,19038.00,19021.00,17.00,1.985,5699,0.003,0.139,0.009,1.824,0.010,2.4
61,18858.00,18844.00,14.00,1.933,5645,0.003,0.188,0.010,1.723,0.009,2.9
62,18998.00,18982.00,16.00,1.913,5687,0.004,0.204,0.010,1.685,0.010,2.7
63,19053.00,19041.00,12.00,1.966,5705,0.003,0.207,0.009,1.738,0.010,3.0
64,18504.00,18497.00,7.00,2.074,5541,0.003,0.151,0.009,1.901,0.010,2.4
65,18909.00,18906.00,3.00,2.037,5664,0.003,0.155,0.009,1.861,0.009,2.6
66,19231.00,19230.00,1.00,1.979,5761,0.003,0.166,0.009,1.790,0.011,2.5
67,19147.00,19147.00,0.00,1.988,5736,0.003,0.177,0.010,1.788,0.011,2.5
68,18825.00,18825.00,0.00,2.004,5639,0.002,0.179,0.010,1.803,0.009,2.6
69,19175.00,19175.00,0.00,2.001,5744,0.003,0.180,0.009,1.800,0.010,2.7
70,18090.00,18090.00,0.00,2.122,5419,0.002,0.167,0.009,1.934,0.009,2.6
71,19424.00,19424.00,0.00,1.960,5819,0.003,0.157,0.009,1.782,0.009,2.4
72,19122.00,19122.00,0.00,2.054,5728,0.002,0.153,0.009,1.880,0.009,2.4
73,18541.00,18541.00,0.00,2.037,5554,0.003,0.207,0.011,1.805,0.011,2.8
74,11969.00,11969.00,0.00,2.098,3586,0.003,0.233,0.009,1.843,0.010,3.4
