Second,Ops/sec,Hits/sec,Misses/sec,Latency,KB/sec,Request_Creation_Time,Request_Buffer_Time,MW_Writes_To_Memcached_Time,Memcached_Process_Time,MW_Writes_To_Memtier_Time,Queue_Size
4,1790.00,1790.00,0.00,4.657,1881,0.014,3.806,0.024,0.762,0.052,40.2
5,11500.00,11500.00,0.00,11.209,12083,0.004,10.518,0.009,0.665,0.014,121.5
6,11129.00,11129.00,0.00,16.756,11693,0.003,16.031,0.006,0.705,0.011,175.2
7,11114.00,11114.00,0.00,16.814,11677,0.004,16.093,0.006,0.700,0.012,176.3
8,11126.00,11126.00,0.00,16.754,11689,0.003,16.033,0.006,0.700,0.011,175.7
9,11117.00,11117.00,0.00,16.710,11679,0.003,15.993,0.006,0.697,0.011,175.5
10,10677.00,10677.00,0.00,17.511,11217,0.003,16.757,0.006,0.733,0.011,175.8
11,11421.00,11421.00,0.00,15.818,11999,0.003,15.120,0.006,0.678,0.011,172.8
12,11129.00,11129.00,0.00,16.610,11692,0.003,15.883,0.006,0.706,0.012,174.3
13,11111.00,11111.00,0.00,16.638,11674,0.003,15.920,0.006,0.698,0.012,175.1
14,11121.00,11121.00,0.00,16.839,11684,0.003,16.115,0.006,0.705,0.011,175.6
15,11130.00,11130.00,0.00,16.654,11692,0.003,15.932,0.006,0.703,0.011,175.4
16,11110.00,11110.00,0.00,16.696,11672,0.003,15.978,0.006,0.697,0.012,175.2
17,11061.00,11061.00,0.00,16.892,11621,0.003,16.162,0.006,0.709,0.012,176.2
18,11189.00,11189.00,0.00,16.575,11755,0.003,15.858,0.006,0.697,0.012,175.5
19,11021.00,11021.00,0.00,16.967,11578,0.003,16.240,0.006,0.706,0.012,175.9
20,11212.00,11212.00,0.00,16.441,11778,0.003,15.731,0.006,0.691,0.011,174.5
21,11130.00,11130.00,0.00,16.675,11692,0.003,15.949,0.006,0.708,0.011,174.3
22,10899.00,10899.00,0.00,17.015,11450,0.003,16.280,0.006,0.714,0.012,175.5
23,11334.00,11334.00,0.00,16.470,11907,0.003,15.766,0.005,0.685,0.012,175.8
24,11296.00,11296.00,0.00,16.493,11867,0.003,15.785,0.006,0.689,0.012,176.0
25,11122.00,11122.00,0.00,16.789,11685,0.003,16.067,0.005,0.704,0.011,175.6
26,11232.00,11232.00,0.00,16.522,11800,0.003,15.804,0.005,0.699,0.011,175.3
27,11182.00,11182.00,0.00,16.717,11747,0.003,16.003,0.006,0.694,0.011,176.2
28,11122.00,11122.00,0.00,16.751,11684,0.003,16.030,0.005,0.702,0.011,175.9
29,11118.00,11118.00,0.00,16.751,11680,0.003,16.031,0.006,0.700,0.012,176.3
30,11122.00,11122.00,0.00,16.759,11684,0.003,16.038,0.005,0.701,0.012,176.1
31,11123.00,11123.00,0.00,16.809,11685,0.003,16.083,0.006,0.706,0.012,175.9
32,11118.00,11118.00,0.00,16.671,11681,0.003,15.952,0.005,0.700,0.012,175.7
33,11064.00,11064.00,0.00,16.778,11624,0.003,16.052,0.005,0.706,0.012,174.5
34,11179.00,11179.00,0.00,16.625,11744,0.003,15.909,0.005,0.696,0.012,175.6
35,11119.00,11119.00,0.00,16.724,11681,0.003,16.001,0.005,0.703,0.012,175.6
36,11122.00,11122.00,0.00,16.715,11685,0.003,15.996,0.005,0.700,0.012,175.1
37,11122.00,11122.00,0.00,16.745,11685,0.003,16.022,0.005,0.703,0.011,175.6
38,11118.00,11118.00,0.00,16.777,11680,0.003,16.055,0.005,0.702,0.011,176.2
39,11121.00,11121.00,0.00,16.834,11684,0.003,16.109,0.005,0.705,0.012,177.0
40,11123.00,11123.00,0.00,16.748,11686,0.003,16.029,0.005,0.700,0.011,175.9
41,11107.00,11107.00,0.00,16.736,11669,0.003,16.011,0.005,0.706,0.011,175.2
42,11133.00,11133.00,0.00,16.754,11696,0.003,16.038,0.005,0.696,0.011,175.4
43,11121.00,11121.00,0.00,16.764,11684,0.003,16.043,0.005,0.702,0.012,176.0
44,11119.00,11119.00,0.00,16.832,11682,0.003,16.106,0.005,0.706,0.012,176.2
45,11121.00,11121.00,0.00,16.747,11683,0.003,16.026,0.005,0.700,0.012,176.4
46,11081.00,11081.00,0.00,16.839,11641,0.003,16.114,0.006,0.706,0.012,175.6
47,11208.00,11158.00,50.00,16.428,11722,0.003,15.717,0.008,0.688,0.013,175.0
48,11200.00,11116.00,84.00,16.601,11678,0.003,15.885,0.006,0.696,0.011,174.8
49,11126.00,11068.00,58.00,16.739,11627,0.003,16.019,0.005,0.700,0.012,175.8
50,11037.00,11037.00,0.00,16.924,11594,0.003,16.192,0.006,0.711,0.012,176.4
51,11254.00,11254.00,0.00,16.562,11823,0.003,15.852,0.006,0.688,0.013,176.2
52,11070.00,11070.00,0.00,16.817,11630,0.003,16.091,0.006,0.706,0.012,176.7
53,11171.00,11171.00,0.00,16.630,11734,0.003,15.915,0.006,0.694,0.012,176.0
54,11123.00,11123.00,0.00,16.712,11684,0.003,15.992,0.006,0.700,0.012,176.3
55,11122.00,11122.00,0.00,16.718,11684,0.003,15.992,0.006,0.705,0.012,175.6
56,11119.00,11119.00,0.00,16.669,11681,0.003,15.951,0.005,0.698,0.012,175.9
57,11122.00,11122.00,0.00,16.711,11685,0.003,15.989,0.006,0.702,0.011,175.5
58,11122.00,11122.00,0.00,16.744,11684,0.003,16.022,0.006,0.702,0.012,176.1
59,10838.00,10838.00,0.00,17.257,11386,0.003,16.514,0.006,0.723,0.012,176.0
60,11402.00,11402.00,0.00,16.227,11978,0.003,15.528,0.006,0.679,0.012,176.0
61,11123.00,11123.00,0.00,16.811,11685,0.003,16.089,0.005,0.702,0.011,176.0
62,11093.00,11093.00,0.00,16.854,11654,0.003,16.127,0.006,0.707,0.012,175.5
63,11147.00,11147.00,0.00,16.632,11710,0.003,15.917,0.005,0.696,0.012,176.3
64,11122.00,11122.00,0.00,16.769,11684,0.003,16.047,0.006,0.700,0.013,176.5
65,10640.00,10640.00,0.00,17.517,11178,0.003,16.759,0.006,0.738,0.012,175.3
66,11600.00,11600.00,0.00,15.994,12186,0.003,15.307,0.006,0.668,0.012,175.2
67,11122.00,11122.00,0.00,16.751,11685,0.003,16.029,0.006,0.702,0.012,175.7
68,10988.00,10988.00,0.00,16.843,11544,0.003,16.112,0.005,0.711,0.012,175.4
69,11252.00,11252.00,0.00,16.672,11821,0.003,15.961,0.005,0.692,0.012,176.3
70,11122.00,11122.00,0.00,16.776,11685,0.003,16.054,0.006,0.701,0.012,176.2
71,11122.00,11122.00,0.00,16.654,11685,0.003,15.931,0.006,0.703,0.012,175.1
72,11112.00,11112.00,0.00,16.752,11674,0.003,16.027,0.006,0.705,0.012,176.0
73,11128.00,11128.00,0.00,16.691,11690,0.003,15.973,0.006,0.697,0.012,175.6
74,11122.00,11122.00,0.00,13.997,11684,0.003,13.280,0.006,0.697,0.012,144.8
75,8918.00,8918.00,0.00,4.198,9370,0.003,3.490,0.006,0.687,0.013,38.4
