Second,Ops/sec,Hits/sec,Misses/sec,Latency,KB/sec,Request_Creation_Time,Request_Buffer_Time,MW_Writes_To_Memcached_Time,Memcached_Process_Time,MW_Writes_To_Memtier_Time,Queue_Size
4,2219.00,2219.00,0.00,3.067,2331,0.013,2.309,0.023,0.672,0.049,26.7
5,10947.00,10947.00,0.00,3.507,11501,0.005,2.779,0.007,0.705,0.012,29.6
6,11057.00,11057.00,0.00,3.748,11616,0.004,3.027,0.006,0.698,0.012,31.5
7,11154.00,11154.00,0.00,3.802,11718,0.003,3.081,0.006,0.699,0.012,32.1
8,11150.00,11150.00,0.00,3.791,11713,0.004,3.075,0.006,0.695,0.012,32.6
9,11072.00,11072.00,0.00,3.826,11632,0.003,3.102,0.007,0.702,0.012,32.2
10,10871.00,10871.00,0.00,3.819,11421,0.003,3.088,0.006,0.711,0.011,31.5
11,11388.00,11388.00,0.00,3.449,11964,0.003,2.743,0.006,0.686,0.012,28.5
12,11130.00,11130.00,0.00,3.823,11693,0.002,3.103,0.005,0.701,0.011,31.6
13,11131.00,11131.00,0.00,3.791,11694,0.002,3.071,0.005,0.701,0.011,31.3
14,11111.00,11111.00,0.00,3.831,11673,0.002,3.110,0.006,0.702,0.011,31.3
15,10775.00,10734.00,41.00,3.833,11276,0.003,3.100,0.008,0.710,0.012,30.9
16,11535.00,11528.00,7.00,3.624,12110,0.002,2.932,0.007,0.671,0.012,31.3
17,11092.00,11092.00,0.00,3.701,11652,0.003,2.992,0.007,0.688,0.012,31.1
18,11102.00,11102.00,0.00,3.790,11663,0.003,3.071,0.006,0.696,0.013,31.6
19,11055.00,11055.00,0.00,3.826,11614,0.002,3.106,0.006,0.700,0.012,31.8
20,11229.00,11229.00,0.00,3.832,11797,0.002,3.115,0.006,0.698,0.011,31.8
21,10912.00,10912.00,0.00,3.891,11464,0.002,3.158,0.006,0.715,0.011,31.5
22,11279.00,11279.00,0.00,3.755,11850,0.004,3.044,0.006,0.690,0.012,31.6
23,11313.00,11313.00,0.00,3.724,11884,0.002,3.018,0.006,0.686,0.011,31.9
24,10775.00,10775.00,0.00,3.864,11320,0.002,3.125,0.006,0.720,0.011,31.2
25,11488.00,11488.00,0.00,3.706,12069,0.002,3.008,0.006,0.678,0.012,31.8
26,11122.00,11122.00,0.00,3.741,11684,0.003,3.024,0.006,0.696,0.012,30.9
27,10861.00,10861.00,0.00,3.878,11410,0.002,3.144,0.006,0.713,0.012,31.6
28,11191.00,11191.00,0.00,3.817,11757,0.003,3.095,0.006,0.701,0.012,31.9
29,11260.00,11260.00,0.00,3.737,11830,0.002,3.025,0.006,0.692,0.011,31.8
30,11063.00,11063.00,0.00,3.768,11622,0.002,3.052,0.006,0.697,0.011,31.6
31,11263.00,11263.00,0.00,3.819,11832,0.002,3.102,0.005,0.697,0.011,31.7
32,11123.00,11123.00,0.00,3.825,11685,0.002,3.104,0.006,0.700,0.013,31.9
33,11079.00,11079.00,0.00,3.799,11639,0.003,3.074,0.006,0.704,0.012,32.0
34,11118.00,11118.00,0.00,3.821,11681,0.002,3.100,0.005,0.701,0.012,31.6
35,11144.00,11136.00,8.00,3.780,11700,0.002,3.068,0.006,0.693,0.011,31.3
36,11161.00,11126.00,35.00,3.777,11689,0.002,3.065,0.006,0.692,0.012,31.3
37,11109.00,11104.00,5.00,3.778,11665,0.002,3.062,0.006,0.696,0.012,30.9
38,11101.00,11101.00,0.00,3.826,11662,0.002,3.108,0.006,0.698,0.011,31.6
39,11150.00,11150.00,0.00,3.830,11714,0.002,3.113,0.006,0.698,0.012,32.1
40,11059.00,11059.00,0.00,3.806,11618,0.002,3.085,0.006,0.702,0.011,31.6
41,11103.00,11103.00,0.00,3.822,11665,0.002,3.106,0.006,0.697,0.011,31.5
42,11230.00,11230.00,0.00,3.798,11798,0.002,3.085,0.006,0.694,0.011,30.7
43,10980.00,10980.00,0.00,3.899,11535,0.003,3.169,0.006,0.710,0.011,32.1
44,11212.00,11212.00,0.00,3.774,11779,0.002,3.062,0.006,0.692,0.012,31.5
45,11153.00,11153.00,0.00,3.789,11717,0.002,3.071,0.006,0.698,0.012,32.0
46,11101.00,11101.00,0.00,3.850,11663,0.002,3.128,0.006,0.702,0.012,31.7
47,11083.00,11083.00,0.00,3.742,11643,0.003,3.024,0.006,0.698,0.012,31.4
48,11162.00,11162.00,0.00,3.830,11727,0.002,3.112,0.006,0.700,0.011,31.4
49,11102.00,11102.00,0.00,3.852,11664,0.002,3.130,0.006,0.703,0.012,32.0
50,11137.00,11137.00,0.00,3.807,11700,0.002,3.088,0.006,0.699,0.012,31.9
51,11107.00,11107.00,0.00,3.814,11668,0.002,3.094,0.005,0.701,0.011,31.4
52,11098.00,11098.00,0.00,3.759,11659,0.002,3.043,0.005,0.695,0.013,31.2
53,11163.00,11163.00,0.00,3.743,11728,0.002,3.039,0.006,0.685,0.011,31.4
54,11127.00,11127.00,0.00,3.798,11690,0.002,3.077,0.006,0.702,0.011,31.1
55,11094.00,11094.00,0.00,3.797,11655,0.003,3.079,0.006,0.698,0.012,31.4
56,11126.00,11126.00,0.00,3.855,11689,0.003,3.135,0.006,0.701,0.011,31.6
57,11133.00,11133.00,0.00,3.752,11696,0.002,3.038,0.005,0.694,0.012,31.2
58,11115.00,11115.00,0.00,3.770,11677,0.002,3.052,0.006,0.699,0.011,31.5
59,11107.00,11107.00,0.00,3.818,11668,0.003,3.097,0.006,0.702,0.011,31.5
60,11099.00,11099.00,0.00,3.814,11660,0.002,3.092,0.006,0.702,0.012,31.5
61,11156.00,11156.00,0.00,3.735,11720,0.003,3.020,0.006,0.694,0.012,31.8
62,11127.00,11127.00,0.00,3.680,11690,0.002,2.967,0.007,0.693,0.012,31.6
63,11101.00,11101.00,0.00,3.775,11662,0.002,3.060,0.006,0.695,0.012,32.5
64,11117.00,11117.00,0.00,3.770,11679,0.003,3.050,0.006,0.700,0.013,32.1
65,11177.00,11177.00,0.00,3.794,11742,0.003,3.076,0.006,0.697,0.011,31.6
66,11205.00,11205.00,0.00,3.751,11772,0.003,3.038,0.006,0.694,0.011,31.2
67,10961.00,10961.00,0.00,3.870,11516,0.002,3.142,0.006,0.709,0.011,30.8
68,11359.00,11359.00,0.00,3.772,11934,0.002,3.068,0.006,0.686,0.011,31.1
69,11074.00,11074.00,0.00,3.830,11634,0.002,3.110,0.005,0.702,0.011,31.4
70,10814.00,10814.00,0.00,3.917,11361,0.003,3.179,0.006,0.718,0.012,31.4
71,11422.00,11422.00,0.00,3.727,11999,0.002,3.025,0.006,0.683,0.011,31.7
72,11134.00,11134.00,0.00,3.813,11697,0.002,3.094,0.006,0.700,0.011,32.1
73,11092.00,11092.00,0.00,3.803,11653,0.003,3.081,0.006,0.702,0.013,32.2
74,8649.00,8649.00,0.00,3.637,9086,0.003,2.936,0.006,0.681,0.011,31.1
