Second,Ops/sec,Hits/sec,Misses/sec,Latency,KB/sec,Request_Creation_Time,Request_Buffer_Time,MW_Writes_To_Memcached_Time,Memcached_Process_Time,MW_Writes_To_Memtier_Time,Queue_Size
4,1904.00,1904.00,0.00,3.756,571,0.023,2.856,0.024,0.810,0.042,26.0
5,11648.00,11648.00,0.00,3.207,3490,0.006,2.532,0.007,0.650,0.013,28.7
6,14642.00,14642.00,0.00,2.775,4387,0.004,2.228,0.006,0.526,0.011,31.6
7,14072.00,14072.00,0.00,2.876,4216,0.004,2.310,0.006,0.544,0.011,31.1
8,13020.00,13020.00,0.00,3.155,3900,0.003,2.544,0.006,0.590,0.011,31.4
9,13643.00,13643.00,0.00,2.930,4087,0.003,2.349,0.006,0.560,0.011,31.6
10,13004.00,13004.00,0.00,3.204,3896,0.003,2.586,0.006,0.598,0.011,32.0
11,12633.00,12633.00,0.00,3.298,3785,0.003,2.668,0.006,0.610,0.012,31.5
12,12241.00,12241.00,0.00,3.403,3668,0.003,2.747,0.006,0.637,0.011,31.4
13,12097.00,12093.00,4.00,3.494,3623,0.003,2.832,0.006,0.643,0.011,31.6
14,11488.00,11444.00,44.00,3.581,3428,0.003,2.890,0.007,0.670,0.011,30.9
15,12456.00,12456.00,0.00,3.318,3731,0.002,2.680,0.007,0.617,0.012,31.5
16,12196.00,12196.00,0.00,3.419,3654,0.002,2.766,0.007,0.633,0.012,31.3
17,12156.00,12156.00,0.00,3.465,3642,0.003,2.808,0.007,0.635,0.011,31.9
18,11116.00,11116.00,0.00,3.728,3330,0.003,3.023,0.007,0.683,0.011,31.3
19,12828.00,12828.00,0.00,3.216,3844,0.002,2.596,0.007,0.600,0.012,31.6
20,12174.00,12174.00,0.00,3.320,3648,0.003,2.671,0.007,0.628,0.012,31.3
21,12710.00,12710.00,0.00,3.165,3807,0.003,2.545,0.006,0.598,0.012,32.0
22,13373.00,13373.00,0.00,3.073,4007,0.003,2.478,0.007,0.574,0.012,32.0
23,11138.00,11138.00,0.00,3.824,3337,0.003,3.105,0.006,0.700,0.011,31.4
24,11476.00,11476.00,0.00,3.706,3438,0.002,3.006,0.006,0.681,0.011,31.3
25,12283.00,12283.00,0.00,3.423,3680,0.002,2.770,0.006,0.634,0.011,31.7
26,11657.00,11657.00,0.00,3.564,3493,0.003,2.884,0.006,0.661,0.011,31.3
27,13935.00,13935.00,0.00,2.975,4175,0.002,2.400,0.005,0.556,0.011,32.1
28,14521.00,14521.00,0.00,2.807,4350,0.003,2.258,0.006,0.530,0.011,31.9
29,12454.00,12454.00,0.00,3.312,3731,0.003,2.669,0.006,0.624,0.011,31.5
30,12710.00,12710.00,0.00,3.222,3808,0.002,2.598,0.006,0.605,0.011,31.1
31,12704.00,12704.00,0.00,3.115,3807,0.002,2.496,0.006,0.600,0.011,30.8
32,12756.00,12726.00,30.00,3.190,3813,0.003,2.568,0.005,0.603,0.012,31.6
33,13435.00,13417.00,18.00,3.043,4019,0.003,2.447,0.006,0.576,0.012,32.2
34,12402.00,12402.00,0.00,3.379,3715,0.003,2.732,0.006,0.628,0.011,31.4
35,11821.00,11821.00,0.00,3.488,3541,0.002,2.817,0.006,0.652,0.011,31.1
36,12541.00,12541.00,0.00,3.323,3757,0.003,2.685,0.006,0.617,0.012,31.3
37,11996.00,11996.00,0.00,3.472,3594,0.003,2.805,0.005,0.648,0.011,31.4
38,11654.00,11654.00,0.00,3.655,3491,0.003,2.968,0.006,0.668,0.011,31.7
39,12252.00,12252.00,0.00,3.420,3671,0.003,2.769,0.006,0.631,0.011,31.9
40,12408.00,12408.00,0.00,3.407,3717,0.003,2.758,0.006,0.630,0.011,31.4
41,11673.00,11673.00,0.00,3.624,3497,0.003,2.939,0.006,0.665,0.011,31.6
42,12267.00,12267.00,0.00,3.413,3675,0.003,2.759,0.006,0.635,0.011,31.3
43,12267.00,12267.00,0.00,3.427,3675,0.003,2.774,0.006,0.634,0.011,31.5
44,11468.00,11468.00,0.00,3.705,3436,0.003,3.006,0.006,0.680,0.011,31.6
45,11637.00,11637.00,0.00,3.597,3486,0.002,2.911,0.006,0.666,0.011,31.4
46,12535.00,12535.00,0.00,3.332,3755,0.003,2.690,0.006,0.622,0.012,31.7
47,12076.00,12076.00,0.00,3.487,3618,0.003,2.823,0.006,0.644,0.012,31.9
48,11459.00,11459.00,0.00,3.719,3433,0.003,3.018,0.006,0.681,0.012,31.3
49,12372.00,12372.00,0.00,3.351,3707,0.002,2.709,0.006,0.623,0.011,31.5
50,11234.00,11234.00,0.00,3.793,3366,0.002,3.080,0.006,0.693,0.011,31.5
51,12455.00,12455.00,0.00,3.248,3732,0.003,2.610,0.006,0.617,0.012,31.3
52,11935.00,11935.00,0.00,3.543,3576,0.003,2.871,0.006,0.651,0.013,32.0
53,11762.00,11762.00,0.00,3.645,3523,0.002,2.963,0.006,0.664,0.011,31.7
54,11256.00,11256.00,0.00,3.716,3372,0.003,3.010,0.006,0.686,0.011,31.2
55,12658.00,12658.00,0.00,3.313,3792,0.003,2.681,0.006,0.612,0.011,32.0
56,11428.00,11428.00,0.00,3.736,3424,0.002,3.034,0.006,0.683,0.011,31.5
57,12361.00,12361.00,0.00,3.388,3703,0.003,2.739,0.006,0.629,0.011,31.5
58,12907.00,12907.00,0.00,3.202,3867,0.002,2.581,0.006,0.602,0.011,31.0
59,11418.00,11418.00,0.00,3.717,3421,0.002,3.016,0.006,0.682,0.011,31.4
60,12489.00,12489.00,0.00,3.329,3742,0.003,2.690,0.006,0.621,0.011,31.3
61,11972.00,11972.00,0.00,3.510,3587,0.003,2.845,0.005,0.647,0.011,31.5
62,12321.00,12321.00,0.00,3.426,3691,0.002,2.779,0.005,0.628,0.011,31.8
63,12518.00,12518.00,0.00,3.358,3750,0.003,2.715,0.006,0.624,0.012,31.6
64,12152.00,12152.00,0.00,3.380,3641,0.003,2.730,0.006,0.630,0.012,31.8
65,13741.00,13741.00,0.00,2.995,4116,0.003,2.414,0.006,0.561,0.012,32.4
66,13718.00,13718.00,0.00,2.964,4110,0.003,2.382,0.006,0.562,0.012,31.7
67,12873.00,12873.00,0.00,3.225,3857,0.003,2.606,0.006,0.599,0.012,32.0
68,13466.00,13466.00,0.00,3.080,4034,0.003,2.484,0.006,0.576,0.012,31.9
69,12955.00,12955.00,0.00,3.135,3881,0.003,2.519,0.006,0.595,0.012,31.6
70,12519.00,12519.00,0.00,3.322,3751,0.003,2.686,0.006,0.616,0.012,31.6
71,11810.00,11810.00,0.00,3.606,3538,0.002,2.927,0.006,0.660,0.011,31.5
72,12017.00,12017.00,0.00,3.474,3600,0.003,2.810,0.006,0.643,0.013,31.1
73,13398.00,13398.00,0.00,3.079,4014,0.003,2.484,0.006,0.574,0.012,31.5
74,8675.00,8675.00,0.00,3.621,2599,0.003,2.931,0.006,0.670,0.011,31.3
