Second,Ops/sec,Hits/sec,Misses/sec,Latency,KB/sec,Request_Creation_Time,Request_Buffer_Time,MW_Writes_To_Memcached_Time,Memcached_Process_Time,MW_Writes_To_Memtier_Time,Queue_Size
4,2249.00,2249.00,0.00,3.520,1236,0.019,2.664,0.020,0.782,0.035,27.0
5,11867.00,11867.00,0.00,3.195,6522,0.005,2.526,0.008,0.645,0.011,29.5
6,12865.00,12865.00,0.00,3.149,7071,0.003,2.527,0.006,0.601,0.011,30.8
7,13895.00,13895.00,0.00,2.840,7637,0.004,2.275,0.006,0.544,0.012,31.3
8,13242.00,13242.00,0.00,3.050,7277,0.003,2.452,0.006,0.578,0.011,30.7
9,11488.00,11488.00,0.00,3.672,6314,0.003,2.974,0.006,0.679,0.011,31.3
10,11730.00,11730.00,0.00,3.284,6446,0.003,2.600,0.006,0.664,0.011,28.4
11,11315.00,11315.00,0.00,3.572,6219,0.003,2.863,0.006,0.690,0.011,30.5
12,11788.00,11788.00,0.00,3.585,6479,0.002,2.905,0.006,0.662,0.011,31.2
13,12434.00,12434.00,0.00,3.300,6834,0.003,2.659,0.006,0.621,0.011,30.6
14,11835.00,11793.00,42.00,3.401,6481,0.003,2.730,0.007,0.650,0.012,30.6
15,11380.00,11374.00,6.00,3.742,6250,0.003,3.038,0.007,0.683,0.012,31.8
16,11481.00,11481.00,0.00,3.651,6309,0.003,2.957,0.007,0.672,0.012,31.7
17,12548.00,12548.00,0.00,3.307,6896,0.003,2.675,0.007,0.611,0.012,31.9
18,12659.00,12659.00,0.00,3.234,6957,0.003,2.604,0.007,0.607,0.013,32.2
19,11718.00,11718.00,0.00,3.587,6441,0.003,2.906,0.006,0.660,0.012,31.3
20,11844.00,11844.00,0.00,3.536,6510,0.002,2.866,0.006,0.650,0.012,31.8
21,11838.00,11838.00,0.00,3.580,6506,0.003,2.907,0.007,0.652,0.012,32.3
22,12806.00,12806.00,0.00,3.253,7037,0.003,2.626,0.006,0.606,0.013,32.2
23,12594.00,12594.00,0.00,3.281,6922,0.003,2.646,0.006,0.615,0.012,31.5
24,11381.00,11381.00,0.00,3.659,6255,0.003,2.963,0.006,0.677,0.011,31.1
25,12207.00,12207.00,0.00,3.391,6708,0.003,2.737,0.006,0.634,0.011,31.3
26,12628.00,12628.00,0.00,3.288,6940,0.003,2.652,0.006,0.614,0.013,32.1
27,13289.00,13289.00,0.00,3.035,7304,0.003,2.436,0.006,0.579,0.012,31.7
28,12334.00,12334.00,0.00,3.359,6778,0.003,2.710,0.005,0.630,0.011,31.1
29,11924.00,11924.00,0.00,3.525,6553,0.003,2.855,0.005,0.651,0.011,31.5
30,11464.00,11464.00,0.00,3.675,6301,0.003,2.977,0.005,0.678,0.012,31.4
31,12770.00,12770.00,0.00,3.272,7019,0.003,2.646,0.005,0.607,0.011,30.7
32,12687.00,12686.00,1.00,3.278,6973,0.003,2.646,0.005,0.613,0.011,30.7
33,13439.00,13397.00,42.00,3.064,7363,0.003,2.471,0.006,0.574,0.011,31.2
34,11981.00,11976.00,5.00,3.484,6581,0.003,2.817,0.005,0.648,0.011,31.0
35,11957.00,11957.00,0.00,3.496,6571,0.002,2.827,0.005,0.651,0.010,31.1
36,13008.00,13008.00,0.00,3.147,7149,0.002,2.532,0.007,0.595,0.011,31.5
37,11589.00,11589.00,0.00,3.607,6370,0.002,2.923,0.006,0.664,0.011,30.7
38,13020.00,13020.00,0.00,3.134,7156,0.003,2.522,0.006,0.591,0.011,31.6
39,12445.00,12445.00,0.00,3.334,6839,0.003,2.690,0.006,0.625,0.011,31.0
40,11415.00,11415.00,0.00,3.649,6274,0.003,2.953,0.005,0.676,0.011,31.3
41,12396.00,12396.00,0.00,3.364,6813,0.003,2.713,0.005,0.632,0.011,30.7
42,14036.00,14036.00,0.00,2.890,7714,0.003,2.321,0.006,0.549,0.012,31.5
43,12508.00,12508.00,0.00,3.322,6874,0.003,2.680,0.006,0.622,0.012,31.3
44,13103.00,13103.00,0.00,3.137,7202,0.003,2.527,0.006,0.590,0.011,31.7
45,12326.00,12326.00,0.00,3.424,6775,0.002,2.773,0.005,0.633,0.011,31.5
46,12688.00,12688.00,0.00,3.273,6973,0.003,2.643,0.005,0.611,0.011,31.4
47,12619.00,12619.00,0.00,3.288,6935,0.003,2.653,0.006,0.614,0.011,31.7
48,12573.00,12573.00,0.00,3.255,6910,0.003,2.620,0.006,0.615,0.013,31.1
49,12750.00,12750.00,0.00,3.231,7008,0.003,2.605,0.006,0.607,0.012,31.8
50,11663.00,11663.00,0.00,3.641,6410,0.003,2.952,0.006,0.669,0.011,31.5
51,12599.00,12599.00,0.00,3.284,6925,0.003,2.649,0.006,0.615,0.011,31.3
52,12272.00,12272.00,0.00,3.406,6745,0.002,2.752,0.006,0.635,0.011,31.3
53,11986.00,11986.00,0.00,3.448,6587,0.003,2.786,0.005,0.643,0.011,31.3
54,13002.00,13002.00,0.00,3.161,7145,0.003,2.548,0.006,0.593,0.011,31.5
55,11588.00,11588.00,0.00,3.673,6368,0.003,2.977,0.006,0.676,0.011,31.7
56,12440.00,12440.00,0.00,3.285,6837,0.003,2.642,0.006,0.622,0.013,30.8
57,11577.00,11577.00,0.00,3.539,6363,0.003,2.857,0.006,0.661,0.011,30.7
58,11971.00,11971.00,0.00,3.511,6579,0.003,2.840,0.006,0.652,0.011,31.2
59,12238.00,12238.00,0.00,3.323,6726,0.003,2.672,0.006,0.631,0.012,30.9
60,12227.00,12227.00,0.00,3.404,6720,0.003,2.753,0.005,0.632,0.012,31.5
61,11837.00,11837.00,0.00,3.602,6506,0.003,2.924,0.006,0.659,0.011,31.9
62,12241.00,12241.00,0.00,3.383,6728,0.003,2.728,0.005,0.634,0.012,30.8
63,12278.00,12278.00,0.00,3.367,6748,0.003,2.719,0.006,0.627,0.012,32.1
64,11730.00,11730.00,0.00,3.509,6447,0.003,2.833,0.006,0.656,0.011,31.5
65,12884.00,12884.00,0.00,3.219,7081,0.003,2.593,0.006,0.605,0.012,31.7
66,13124.00,13124.00,0.00,3.177,7213,0.003,2.571,0.006,0.586,0.011,32.2
67,11764.00,11764.00,0.00,3.531,6465,0.003,2.853,0.006,0.657,0.012,31.7
68,12417.00,12417.00,0.00,3.310,6824,0.003,2.666,0.006,0.624,0.011,31.6
69,11815.00,11815.00,0.00,3.568,6493,0.003,2.887,0.006,0.662,0.012,31.8
70,12151.00,12151.00,0.00,3.425,6678,0.003,2.766,0.006,0.638,0.012,31.7
71,11992.00,11992.00,0.00,3.516,6591,0.003,2.845,0.006,0.651,0.012,31.9
72,12328.00,12328.00,0.00,3.385,6775,0.003,2.738,0.006,0.627,0.012,31.6
73,11566.00,11566.00,0.00,3.516,6357,0.003,2.833,0.006,0.664,0.011,30.8
74,9043.00,9043.00,0.00,3.362,4970,0.003,2.707,0.006,0.635,0.012,31.3
