Second,Ops/sec,Hits/sec,Misses/sec,Latency,KB/sec,Request_Creation_Time,Request_Buffer_Time,MW_Writes_To_Memcached_Time,Memcached_Process_Time,MW_Writes_To_Memtier_Time,Queue_Size
4,3070.00,3070.00,0.00,1.774,1688,0.025,0.483,0.036,1.147,0.083,4.7
5,16685.00,16685.00,0.00,1.851,9170,0.006,0.543,0.014,1.273,0.014,4.5
6,19108.00,19108.00,0.00,1.972,10502,0.003,0.536,0.009,1.414,0.010,3.7
7,18244.00,18244.00,0.00,2.105,10026,0.003,0.578,0.008,1.507,0.009,3.8
8,18820.00,18820.00,0.00,2.023,10343,0.003,0.564,0.009,1.436,0.010,3.9
9,18956.00,18956.00,0.00,1.885,10418,0.004,0.488,0.010,1.373,0.010,3.7
10,18872.00,18872.00,0.00,1.937,10372,0.003,0.520,0.009,1.395,0.010,3.7
11,17796.00,17748.00,48.00,1.774,9754,0.005,0.405,0.014,1.335,0.015,3.6
12,19079.00,19079.00,0.00,1.881,10485,0.005,0.481,0.010,1.374,0.011,3.9
13,18552.00,18552.00,0.00,2.035,10196,0.003,0.566,0.010,1.444,0.012,4.1
14,18934.00,18934.00,0.00,2.017,10406,0.003,0.555,0.010,1.439,0.010,4.0
15,19559.00,19559.00,0.00,1.859,10750,0.004,0.483,0.010,1.350,0.012,4.0
16,18923.00,18923.00,0.00,2.058,10399,0.003,0.563,0.009,1.473,0.010,3.9
17,18356.00,18356.00,0.00,2.056,10088,0.004,0.562,0.009,1.472,0.010,4.1
18,18595.00,18595.00,0.00,1.991,10219,0.004,0.562,0.010,1.404,0.011,4.7
19,17905.00,17905.00,0.00,2.080,9841,0.004,0.591,0.010,1.466,0.010,4.7
20,19546.00,19546.00,0.00,1.859,10742,0.004,0.502,0.009,1.334,0.009,4.1
21,19258.00,19258.00,0.00,1.961,10584,0.003,0.541,0.010,1.397,0.011,4.2
22,18233.00,18229.00,4.00,2.059,10019,0.003,0.568,0.009,1.469,0.010,4.1
23,19146.00,19119.00,27.00,2.025,10508,0.003,0.568,0.009,1.436,0.010,4.3
24,19086.00,19069.00,17.00,1.974,10480,0.003,0.540,0.009,1.413,0.010,4.0
25,19132.00,19132.00,0.00,1.984,10515,0.003,0.536,0.010,1.425,0.011,3.9
26,18859.00,18859.00,0.00,2.001,10365,0.003,0.539,0.009,1.441,0.010,4.2
27,18585.00,18585.00,0.00,2.017,10214,0.003,0.546,0.009,1.449,0.011,4.1
28,19163.00,19163.00,0.00,1.968,10532,0.003,0.537,0.009,1.409,0.010,4.2
29,18665.00,18665.00,0.00,2.087,10258,0.003,0.574,0.009,1.492,0.010,4.1
30,19401.00,19401.00,0.00,1.936,10663,0.003,0.514,0.009,1.400,0.010,4.0
31,19499.00,19499.00,0.00,1.895,10717,0.003,0.497,0.009,1.376,0.009,3.9
32,17865.00,17865.00,0.00,2.138,9818,0.003,0.597,0.009,1.518,0.011,4.5
33,19462.00,19462.00,0.00,1.909,10696,0.003,0.537,0.009,1.351,0.010,4.5
34,19059.00,19059.00,0.00,1.989,10475,0.003,0.542,0.010,1.425,0.010,4.1
35,19513.00,19513.00,0.00,1.770,10725,0.003,0.458,0.009,1.288,0.012,4.0
36,18838.00,18838.00,0.00,1.987,10353,0.003,0.568,0.009,1.398,0.010,4.6
37,19080.00,19080.00,0.00,1.981,10486,0.003,0.533,0.009,1.426,0.010,4.0
38,18672.00,18672.00,0.00,2.067,10262,0.003,0.578,0.009,1.468,0.009,4.0
39,19342.00,19342.00,0.00,1.958,10630,0.003,0.547,0.009,1.389,0.009,4.1
40,19250.00,19250.00,0.00,1.978,10580,0.003,0.534,0.008,1.423,0.009,3.7
41,18504.00,18504.00,0.00,2.083,10170,0.003,0.571,0.008,1.491,0.010,4.0
42,19031.00,19031.00,0.00,2.015,10460,0.003,0.554,0.009,1.440,0.010,4.1
43,18817.00,18817.00,0.00,2.024,10342,0.003,0.558,0.008,1.447,0.009,4.0
44,18662.00,18662.00,0.00,2.112,10256,0.003,0.584,0.008,1.508,0.009,3.9
45,18269.00,18269.00,0.00,2.113,10040,0.003,0.592,0.008,1.500,0.009,4.1
46,18863.00,18863.00,0.00,1.935,10367,0.003,0.508,0.008,1.406,0.010,3.9
47,18316.00,18316.00,0.00,2.069,10066,0.003,0.555,0.009,1.492,0.010,3.7
48,18885.00,18885.00,0.00,2.007,10379,0.003,0.569,0.008,1.416,0.011,4.1
49,18807.00,18807.00,0.00,2.064,10336,0.003,0.576,0.008,1.467,0.009,3.6
50,19045.00,19045.00,0.00,1.977,10467,0.003,0.518,0.008,1.438,0.010,3.7
51,19064.00,19064.00,0.00,1.984,10477,0.003,0.549,0.008,1.415,0.009,3.9
52,18724.00,18724.00,0.00,2.041,10291,0.003,0.557,0.009,1.463,0.009,3.9
53,18735.00,18734.00,1.00,2.043,10296,0.003,0.565,0.009,1.457,0.009,4.0
54,19133.00,19128.00,5.00,2.021,10513,0.003,0.563,0.008,1.438,0.009,3.7
55,18679.00,18666.00,13.00,2.032,10259,0.003,0.567,0.008,1.445,0.010,4.1
56,18852.00,18844.00,8.00,2.038,10357,0.003,0.552,0.008,1.466,0.009,3.8
57,18326.00,18314.00,12.00,2.095,10065,0.003,0.576,0.008,1.498,0.009,3.9
58,19186.00,19167.00,19.00,2.006,10534,0.003,0.561,0.008,1.425,0.010,4.2
59,18534.00,18520.00,14.00,2.066,10179,0.003,0.573,0.009,1.472,0.009,4.2
60,19190.00,19170.00,20.00,2.002,10536,0.003,0.558,0.009,1.421,0.010,3.9
61,18851.00,18834.00,17.00,2.032,10351,0.003,0.551,0.008,1.461,0.009,3.6
62,18102.00,18085.00,17.00,2.113,9939,0.003,0.576,0.009,1.517,0.009,3.7
63,18947.00,18937.00,10.00,1.993,10408,0.003,0.550,0.009,1.421,0.009,3.9
64,19602.00,19594.00,8.00,1.921,10768,0.003,0.506,0.008,1.395,0.010,3.6
65,19326.00,19326.00,0.00,1.925,10621,0.003,0.530,0.008,1.375,0.010,3.9
66,19053.00,19053.00,0.00,2.000,10471,0.003,0.550,0.008,1.430,0.009,3.8
67,18942.00,18942.00,0.00,2.048,10410,0.003,0.562,0.008,1.466,0.009,4.0
68,19124.00,19124.00,0.00,2.018,10510,0.003,0.563,0.008,1.435,0.009,4.0
69,19142.00,19142.00,0.00,2.030,10520,0.003,0.557,0.008,1.453,0.009,3.8
70,20263.00,20263.00,0.00,1.912,11136,0.003,0.547,0.008,1.347,0.009,3.8
71,20451.00,20451.00,0.00,1.862,11239,0.003,0.513,0.008,1.330,0.009,3.6
72,18924.00,18924.00,0.00,2.011,10400,0.003,0.556,0.009,1.435,0.009,3.7
73,19421.00,19421.00,0.00,1.985,10674,0.003,0.561,0.008,1.404,0.009,4.0
74,13605.00,13605.00,0.00,1.995,7477,0.003,0.541,0.008,1.434,0.009,3.8
