Second,Ops/sec,Hits/sec,Misses/sec,Latency,KB/sec,Request_Creation_Time,Request_Buffer_Time,MW_Writes_To_Memcached_Time,Memcached_Process_Time,MW_Writes_To_Memtier_Time,Queue_Size
4,2229.00,2229.00,0.00,1.283,1225,0.017,0.562,0.023,0.620,0.060,5.5
5,11081.00,11081.00,0.00,1.353,6090,0.004,0.659,0.008,0.667,0.015,6.7
6,12036.00,12036.00,0.00,1.508,6615,0.004,0.844,0.006,0.642,0.011,8.4
7,12395.00,12395.00,0.00,1.414,6812,0.004,0.778,0.006,0.613,0.012,8.4
8,12516.00,12516.00,0.00,1.453,6879,0.003,0.812,0.007,0.619,0.012,8.3
9,11815.00,11797.00,18.00,1.479,6484,0.003,0.812,0.007,0.645,0.012,7.9
10,11512.00,11506.00,6.00,1.549,6323,0.003,0.858,0.007,0.669,0.012,8.5
11,11961.00,11961.00,0.00,1.513,6573,0.003,0.853,0.006,0.640,0.011,8.0
12,12315.00,12315.00,0.00,1.487,6769,0.003,0.839,0.006,0.628,0.011,8.1
13,12350.00,12350.00,0.00,1.459,6787,0.003,0.814,0.006,0.624,0.011,7.8
14,12831.00,12831.00,0.00,1.378,7052,0.003,0.762,0.006,0.595,0.012,8.6
15,11747.00,11747.00,0.00,1.526,6456,0.003,0.854,0.006,0.652,0.011,8.1
16,11528.00,11528.00,0.00,1.624,6336,0.003,0.931,0.006,0.673,0.011,8.3
17,12196.00,12196.00,0.00,1.483,6702,0.003,0.837,0.006,0.626,0.011,8.0
18,11619.00,11618.00,1.00,1.598,6386,0.003,0.910,0.006,0.667,0.012,8.0
19,12199.00,12178.00,21.00,1.472,6693,0.003,0.819,0.006,0.632,0.012,8.2
20,11783.00,11781.00,2.00,1.560,6474,0.003,0.889,0.006,0.651,0.011,8.1
21,11842.00,11842.00,0.00,1.569,6508,0.003,0.892,0.006,0.658,0.011,8.2
22,11615.00,11615.00,0.00,1.587,6383,0.003,0.902,0.006,0.665,0.011,7.9
23,12426.00,12426.00,0.00,1.463,6829,0.003,0.818,0.006,0.624,0.012,8.3
24,12549.00,12549.00,0.00,1.426,6897,0.003,0.794,0.006,0.612,0.012,8.0
25,12457.00,12457.00,0.00,1.408,6847,0.003,0.778,0.007,0.609,0.012,8.3
26,12234.00,12234.00,0.00,1.417,6724,0.002,0.785,0.006,0.613,0.011,8.3
27,12087.00,12087.00,0.00,1.485,6643,0.003,0.835,0.006,0.631,0.011,8.5
28,12066.00,12066.00,0.00,1.519,6632,0.003,0.858,0.006,0.642,0.011,8.1
29,12279.00,12279.00,0.00,1.439,6748,0.003,0.791,0.006,0.628,0.011,8.1
30,12079.00,12079.00,0.00,1.487,6638,0.003,0.832,0.006,0.635,0.012,8.3
31,12343.00,12343.00,0.00,1.475,6784,0.003,0.831,0.006,0.624,0.011,8.4
32,12645.00,12645.00,0.00,1.413,6950,0.003,0.788,0.006,0.605,0.011,8.2
33,11935.00,11935.00,0.00,1.528,6560,0.003,0.864,0.006,0.644,0.012,8.1
34,12959.00,12959.00,0.00,1.381,7122,0.003,0.766,0.006,0.595,0.011,8.0
35,12281.00,12281.00,0.00,1.456,6749,0.003,0.812,0.006,0.624,0.012,8.1
36,11729.00,11729.00,0.00,1.557,6446,0.003,0.879,0.006,0.657,0.012,8.4
37,12457.00,12457.00,0.00,1.471,6846,0.003,0.827,0.006,0.624,0.011,7.8
38,11924.00,11924.00,0.00,1.536,6553,0.003,0.868,0.006,0.649,0.011,7.9
39,12459.00,12459.00,0.00,1.431,6847,0.003,0.793,0.006,0.617,0.012,8.1
40,12350.00,12350.00,0.00,1.447,6787,0.003,0.802,0.006,0.624,0.012,8.2
41,12458.00,12458.00,0.00,1.422,6847,0.003,0.787,0.006,0.614,0.012,8.8
42,11929.00,11929.00,0.00,1.544,6556,0.003,0.875,0.006,0.648,0.012,8.3
43,12436.00,12430.00,6.00,1.450,6832,0.003,0.809,0.006,0.622,0.011,8.0
44,12978.00,12971.00,7.00,1.345,7129,0.003,0.734,0.006,0.590,0.013,8.1
45,12583.00,12574.00,9.00,1.419,6911,0.003,0.794,0.006,0.604,0.012,8.6
46,12877.00,12869.00,8.00,1.351,7073,0.003,0.737,0.006,0.592,0.012,8.2
47,12305.00,12294.00,11.00,1.487,6757,0.003,0.841,0.006,0.625,0.013,8.2
48,12187.00,12171.00,16.00,1.404,6689,0.003,0.768,0.006,0.615,0.011,7.8
49,11472.00,11461.00,11.00,1.611,6299,0.003,0.919,0.006,0.671,0.012,8.1
50,12690.00,12686.00,4.00,1.430,6972,0.003,0.801,0.006,0.609,0.012,8.4
51,11874.00,11874.00,0.00,1.496,6526,0.003,0.838,0.006,0.636,0.012,8.1
52,11796.00,11796.00,0.00,1.568,6483,0.003,0.897,0.006,0.652,0.011,8.1
53,12045.00,12045.00,0.00,1.482,6620,0.003,0.828,0.006,0.634,0.011,8.0
54,11981.00,11981.00,0.00,1.498,6584,0.003,0.840,0.006,0.639,0.011,8.0
55,11842.00,11842.00,0.00,1.523,6508,0.003,0.852,0.006,0.650,0.012,8.1
56,11944.00,11944.00,0.00,1.509,6564,0.003,0.841,0.006,0.647,0.012,8.4
57,12317.00,12317.00,0.00,1.445,6769,0.003,0.804,0.006,0.621,0.012,8.2
58,11059.00,11059.00,0.00,1.691,6078,0.003,0.968,0.006,0.702,0.013,8.2
59,11815.00,11815.00,0.00,1.516,6493,0.003,0.846,0.006,0.650,0.012,8.3
60,11904.00,11904.00,0.00,1.535,6542,0.003,0.863,0.006,0.652,0.012,8.1
61,12067.00,12067.00,0.00,1.501,6632,0.003,0.844,0.006,0.636,0.012,8.3
62,12729.00,12729.00,0.00,1.423,6996,0.003,0.800,0.006,0.602,0.012,8.5
63,12105.00,12105.00,0.00,1.490,6653,0.003,0.831,0.006,0.638,0.012,8.1
64,12341.00,12341.00,0.00,1.400,6782,0.003,0.763,0.006,0.616,0.012,7.6
65,11585.00,11585.00,0.00,1.574,6367,0.004,0.892,0.006,0.661,0.012,8.3
66,11809.00,11809.00,0.00,1.540,6490,0.003,0.865,0.006,0.654,0.012,8.4
67,11969.00,11969.00,0.00,1.511,6578,0.003,0.846,0.006,0.644,0.013,8.7
68,11882.00,11882.00,0.00,1.542,6530,0.003,0.868,0.006,0.653,0.013,8.5
69,14349.00,14349.00,0.00,1.197,7886,0.003,0.647,0.006,0.530,0.011,8.2
70,12034.00,12034.00,0.00,1.483,6614,0.003,0.829,0.006,0.635,0.011,7.8
71,11842.00,11842.00,0.00,1.546,6508,0.003,0.873,0.006,0.653,0.011,8.0
72,13024.00,13024.00,0.00,1.341,7158,0.003,0.735,0.006,0.586,0.011,8.4
73,10798.00,10798.00,0.00,1.770,5934,0.003,1.026,0.006,0.725,0.011,8.2
74,9022.00,9022.00,0.00,1.502,4958,0.003,0.842,0.006,0.641,0.011,8.1
