Second,Ops/sec,Hits/sec,Misses/sec,Latency,KB/sec,Request_Creation_Time,Request_Buffer_Time,MW_Writes_To_Memcached_Time,Memcached_Process_Time,MW_Writes_To_Memtier_Time,Queue_Size
4,3833.00,3833.00,0.00,2.808,4027,0.021,1.197,0.038,1.522,0.030,16.0
5,11128.00,11128.00,0.00,7.414,11691,0.004,4.547,0.008,2.842,0.012,35.5
6,11122.00,11122.00,0.00,8.091,11685,0.004,5.210,0.006,2.861,0.010,42.6
7,11114.00,11114.00,0.00,8.041,11676,0.004,5.161,0.006,2.860,0.010,41.3
8,11126.00,11126.00,0.00,8.044,11689,0.003,5.167,0.006,2.858,0.010,42.2
9,11122.00,11122.00,0.00,8.100,11685,0.003,5.225,0.006,2.857,0.010,42.9
10,11118.00,11118.00,0.00,8.095,11680,0.003,5.214,0.006,2.862,0.010,42.3
11,11122.00,11122.00,0.00,8.036,11685,0.003,5.158,0.006,2.860,0.010,42.2
12,11123.00,11123.00,0.00,7.989,11684,0.003,5.125,0.006,2.846,0.010,40.8
13,11118.00,11118.00,0.00,8.120,11680,0.002,5.239,0.006,2.863,0.010,42.4
14,11122.00,11122.00,0.00,8.081,11685,0.002,5.203,0.006,2.860,0.009,43.1
15,11122.00,11122.00,0.00,8.111,11684,0.002,5.233,0.006,2.860,0.010,42.8
16,11118.00,11118.00,0.00,8.103,11680,0.002,5.222,0.006,2.864,0.010,43.0
17,11123.00,11123.00,0.00,8.107,11685,0.002,5.231,0.006,2.858,0.010,43.1
18,11122.00,11122.00,0.00,8.100,11685,0.002,5.221,0.006,2.861,0.009,43.6
19,11118.00,11118.00,0.00,8.111,11680,0.002,5.231,0.006,2.863,0.009,43.7
20,11122.00,11122.00,0.00,8.119,11685,0.002,5.243,0.006,2.859,0.009,43.2
21,11121.00,11121.00,0.00,8.110,11684,0.002,5.238,0.006,2.854,0.010,43.3
22,11119.00,11119.00,0.00,8.113,11682,0.002,5.231,0.006,2.863,0.010,43.5
23,11117.00,11117.00,0.00,8.092,11679,0.002,5.214,0.006,2.860,0.010,42.8
24,11128.00,11127.00,1.00,8.058,11690,0.002,5.181,0.006,2.858,0.010,42.7
25,11111.00,11097.00,14.00,8.035,11658,0.002,5.153,0.007,2.861,0.012,43.1
26,11198.00,11139.00,59.00,8.064,11702,0.003,5.207,0.007,2.838,0.011,43.6
27,11138.00,11121.00,17.00,8.072,11683,0.002,5.198,0.007,2.855,0.011,43.2
28,11123.00,11118.00,5.00,8.087,11680,0.002,5.211,0.007,2.856,0.010,42.9
29,11122.00,11122.00,0.00,8.094,11683,0.002,5.217,0.007,2.858,0.010,43.2
30,11123.00,11123.00,0.00,8.097,11685,0.002,5.221,0.006,2.858,0.010,43.7
31,11117.00,11117.00,0.00,8.096,11679,0.002,5.219,0.007,2.857,0.010,43.6
32,11122.00,11122.00,0.00,8.082,11684,0.002,5.207,0.006,2.856,0.010,42.6
33,11110.00,11110.00,0.00,8.039,11672,0.002,5.172,0.006,2.849,0.010,42.6
34,11117.00,11117.00,0.00,8.105,11679,0.002,5.224,0.006,2.862,0.010,43.8
35,11136.00,11136.00,0.00,8.049,11699,0.002,5.178,0.007,2.853,0.010,42.8
36,11295.00,11295.00,0.00,7.991,11866,0.002,5.159,0.006,2.814,0.010,43.5
37,11118.00,11118.00,0.00,8.118,11681,0.002,5.239,0.006,2.860,0.010,42.9
38,11122.00,11122.00,0.00,8.101,11685,0.002,5.223,0.007,2.859,0.010,42.3
39,11122.00,11122.00,0.00,8.049,11685,0.002,5.172,0.006,2.858,0.010,43.1
40,11120.00,11120.00,0.00,8.127,11683,0.002,5.247,0.006,2.861,0.010,43.2
41,11120.00,11120.00,0.00,8.108,11682,0.002,5.232,0.006,2.857,0.010,43.1
42,11100.00,11100.00,0.00,8.098,11661,0.002,5.211,0.006,2.868,0.010,42.4
43,11145.00,11145.00,0.00,8.080,11708,0.002,5.211,0.006,2.851,0.010,42.8
44,11114.00,11114.00,0.00,8.110,11676,0.002,5.236,0.006,2.855,0.010,43.4
45,11126.00,11126.00,0.00,8.096,11688,0.002,5.214,0.006,2.863,0.011,42.9
46,11122.00,11122.00,0.00,8.114,11684,0.002,5.235,0.006,2.861,0.010,43.7
47,11119.00,11119.00,0.00,8.068,11681,0.003,5.202,0.006,2.847,0.010,43.2
48,11120.00,11120.00,0.00,8.079,11682,0.002,5.199,0.006,2.862,0.010,43.2
49,11118.00,11118.00,0.00,8.110,11680,0.002,5.230,0.006,2.860,0.010,43.2
50,11124.00,11124.00,0.00,8.100,11686,0.002,5.224,0.006,2.857,0.010,43.5
51,11122.00,11122.00,0.00,8.091,11684,0.002,5.214,0.006,2.859,0.010,42.9
52,11122.00,11122.00,0.00,8.053,11685,0.002,5.176,0.007,2.858,0.010,42.5
53,11119.00,11119.00,0.00,8.024,11681,0.002,5.148,0.006,2.857,0.010,41.6
54,11098.00,11098.00,0.00,8.060,11659,0.002,5.175,0.006,2.866,0.010,41.9
55,11144.00,11144.00,0.00,8.023,11707,0.002,5.160,0.007,2.843,0.010,42.4
56,11111.00,11111.00,0.00,8.128,11673,0.002,5.247,0.006,2.862,0.010,43.2
57,11115.00,11115.00,0.00,8.042,11677,0.002,5.165,0.006,2.859,0.010,42.8
58,11136.00,11136.00,0.00,8.118,11699,0.002,5.245,0.006,2.855,0.010,44.1
59,11105.00,11105.00,0.00,8.137,11666,0.002,5.255,0.006,2.864,0.010,44.1
60,11135.00,11135.00,0.00,8.036,11698,0.002,5.166,0.006,2.851,0.010,42.3
61,11123.00,11123.00,0.00,8.118,11685,0.002,5.241,0.006,2.859,0.010,43.5
62,11118.00,11118.00,0.00,8.086,11680,0.003,5.208,0.006,2.859,0.010,42.9
63,11100.00,11099.00,1.00,8.068,11661,0.002,5.190,0.006,2.859,0.011,42.7
64,11145.00,11144.00,1.00,8.090,11708,0.003,5.219,0.006,2.853,0.010,43.8
65,11125.00,11118.00,7.00,8.095,11681,0.003,5.218,0.006,2.858,0.010,43.4
66,11134.00,11121.00,13.00,8.076,11684,0.002,5.202,0.006,2.856,0.010,42.7
67,11146.00,11120.00,26.00,8.093,11682,0.002,5.219,0.006,2.855,0.010,43.0
68,11142.00,11114.00,28.00,8.085,11676,0.002,5.216,0.006,2.851,0.010,43.6
69,11133.00,11124.00,9.00,8.071,11686,0.003,5.194,0.006,2.859,0.010,42.8
70,11129.00,11121.00,8.00,8.079,11683,0.002,5.205,0.006,2.855,0.010,43.0
71,11120.00,11119.00,1.00,8.112,11681,0.002,5.235,0.006,2.859,0.010,42.3
72,11125.00,11123.00,2.00,8.055,11685,0.003,5.188,0.006,2.849,0.010,42.6
73,11121.00,11121.00,0.00,8.118,11683,0.002,5.239,0.006,2.861,0.010,42.7
74,8729.00,8729.00,0.00,7.057,9170,0.003,4.476,0.007,2.560,0.010,36.5
75,2866.00,2866.00,0.00,0.764,3011,0.004,0.122,0.016,0.609,0.014,0.1
