Second,Ops/sec,Hits/sec,Misses/sec,Latency,KB/sec,Request_Creation_Time,Request_Buffer_Time,MW_Writes_To_Memcached_Time,Memcached_Process_Time,MW_Writes_To_Memtier_Time,Queue_Size
4,3513.00,3513.00,0.00,2.358,391,0.023,0.978,0.031,1.285,0.041,15.7
5,19942.00,19942.00,0.00,3.040,2217,0.006,1.555,0.010,1.455,0.013,27.2
6,21136.00,21136.00,0.00,4.023,2349,0.003,2.502,0.006,1.502,0.010,40.4
7,20717.00,20717.00,0.00,4.068,2302,0.003,2.527,0.006,1.523,0.009,40.7
8,21417.00,21417.00,0.00,3.715,2379,0.003,2.236,0.007,1.458,0.011,38.5
9,21262.00,21262.00,0.00,3.945,2362,0.003,2.437,0.006,1.488,0.010,39.8
10,20235.00,20235.00,0.00,4.174,2248,0.003,2.602,0.006,1.553,0.009,40.8
11,20997.00,20997.00,0.00,3.987,2333,0.002,2.475,0.006,1.494,0.010,41.8
12,20362.00,20362.00,0.00,4.155,2263,0.003,2.582,0.006,1.554,0.010,41.3
13,20469.00,20469.00,0.00,4.139,2275,0.003,2.575,0.006,1.546,0.009,40.9
14,20952.00,20952.00,0.00,4.059,2329,0.002,2.530,0.007,1.509,0.011,41.9
15,20324.00,20314.00,10.00,4.012,2257,0.003,2.460,0.007,1.532,0.011,40.4
16,20584.00,20515.00,69.00,4.113,2279,0.003,2.560,0.008,1.533,0.010,41.8
17,21096.00,21079.00,17.00,3.969,2341,0.003,2.454,0.008,1.492,0.012,40.5
18,21055.00,21055.00,0.00,4.002,2338,0.003,2.483,0.007,1.498,0.012,41.6
19,20380.00,20380.00,0.00,4.165,2264,0.002,2.597,0.007,1.548,0.010,41.1
20,21477.00,21477.00,0.00,3.935,2386,0.002,2.451,0.007,1.464,0.011,41.7
21,21044.00,21044.00,0.00,4.036,2339,0.002,2.521,0.008,1.494,0.010,41.9
22,20774.00,20774.00,0.00,4.075,2309,0.003,2.534,0.007,1.521,0.010,40.4
23,21528.00,21528.00,0.00,3.944,2393,0.002,2.460,0.007,1.465,0.010,40.8
24,21587.00,21587.00,0.00,3.874,2398,0.002,2.394,0.007,1.460,0.010,40.7
25,21007.00,21007.00,0.00,4.014,2333,0.002,2.499,0.007,1.495,0.010,41.4
26,20278.00,20278.00,0.00,4.224,2253,0.002,2.647,0.007,1.559,0.010,41.8
27,21513.00,21513.00,0.00,3.886,2390,0.003,2.398,0.007,1.468,0.010,41.0
28,21299.00,21299.00,0.00,3.889,2366,0.003,2.391,0.007,1.477,0.010,40.5
29,20619.00,20619.00,0.00,4.026,2291,0.003,2.497,0.007,1.509,0.011,40.1
30,21224.00,21224.00,0.00,4.036,2359,0.002,2.527,0.007,1.490,0.010,41.9
31,20801.00,20801.00,0.00,4.072,2311,0.002,2.536,0.006,1.517,0.010,40.8
32,20193.00,20193.00,0.00,4.138,2243,0.002,2.565,0.006,1.553,0.010,41.1
33,21232.00,21232.00,0.00,4.003,2358,0.003,2.496,0.006,1.489,0.010,41.2
34,20658.00,20658.00,0.00,4.028,2295,0.002,2.499,0.006,1.511,0.010,40.7
35,20262.00,20262.00,0.00,4.130,2252,0.003,2.550,0.007,1.561,0.010,41.4
36,20763.00,20760.00,3.00,4.093,2308,0.002,2.552,0.006,1.523,0.010,41.2
37,20946.00,20925.00,21.00,3.963,2326,0.002,2.458,0.007,1.485,0.011,41.2
38,20968.00,20929.00,39.00,4.037,2326,0.003,2.511,0.006,1.507,0.010,41.2
39,20888.00,20862.00,26.00,4.002,2317,0.003,2.477,0.007,1.505,0.011,40.4
40,20948.00,20941.00,7.00,4.030,2326,0.002,2.508,0.007,1.503,0.010,41.1
41,19945.00,19945.00,0.00,4.259,2216,0.003,2.656,0.006,1.584,0.010,42.0
42,21185.00,21185.00,0.00,3.969,2354,0.002,2.478,0.006,1.473,0.010,41.7
43,21084.00,21084.00,0.00,3.995,2343,0.002,2.482,0.006,1.495,0.010,41.8
44,21305.00,21305.00,0.00,3.875,2367,0.003,2.379,0.007,1.476,0.010,40.3
45,21056.00,21056.00,0.00,4.010,2339,0.002,2.488,0.006,1.503,0.010,41.1
46,20318.00,20318.00,0.00,4.087,2257,0.003,2.534,0.006,1.532,0.011,41.8
47,20059.00,20059.00,0.00,4.081,2229,0.003,2.504,0.007,1.557,0.010,40.5
48,21012.00,21012.00,0.00,4.052,2335,0.002,2.522,0.006,1.511,0.010,42.0
49,21383.00,21383.00,0.00,3.904,2376,0.002,2.416,0.006,1.470,0.010,40.5
50,21290.00,21290.00,0.00,3.928,2366,0.003,2.425,0.007,1.483,0.010,39.8
51,21544.00,21544.00,0.00,3.887,2394,0.003,2.403,0.006,1.465,0.010,41.6
52,21728.00,21728.00,0.00,3.824,2415,0.002,2.375,0.006,1.431,0.010,41.8
53,20999.00,20999.00,0.00,3.957,2334,0.002,2.428,0.006,1.508,0.012,39.9
54,21426.00,21426.00,0.00,3.826,2381,0.003,2.347,0.008,1.455,0.013,40.0
55,21728.00,21728.00,0.00,3.838,2414,0.003,2.368,0.006,1.451,0.010,41.1
56,20409.00,20409.00,0.00,4.132,2268,0.002,2.569,0.006,1.544,0.010,40.8
57,21361.00,21361.00,0.00,3.935,2374,0.002,2.441,0.006,1.475,0.010,41.2
58,21676.00,21676.00,0.00,3.861,2409,0.003,2.383,0.006,1.458,0.010,40.9
59,21056.00,21056.00,0.00,3.993,2340,0.003,2.477,0.006,1.498,0.010,39.9
60,21213.00,21213.00,0.00,4.031,2357,0.002,2.519,0.006,1.495,0.009,41.4
61,21007.00,21007.00,0.00,4.042,2334,0.002,2.527,0.006,1.497,0.010,41.2
62,21086.00,21086.00,0.00,3.932,2343,0.003,2.422,0.006,1.491,0.010,40.6
63,21360.00,21360.00,0.00,3.923,2373,0.002,2.437,0.006,1.468,0.009,40.6
64,21030.00,21030.00,0.00,4.076,2337,0.002,2.548,0.006,1.511,0.009,41.8
65,21163.00,21163.00,0.00,3.911,2351,0.002,2.412,0.006,1.481,0.010,40.6
66,19907.00,19907.00,0.00,4.248,2212,0.003,2.652,0.006,1.577,0.009,41.6
67,21255.00,21255.00,0.00,3.926,2362,0.003,2.427,0.006,1.481,0.010,40.5
68,20356.00,20356.00,0.00,4.019,2262,0.003,2.488,0.007,1.512,0.010,40.6
69,20443.00,20443.00,0.00,4.151,2272,0.002,2.594,0.006,1.539,0.009,41.2
70,21140.00,21140.00,0.00,4.003,2349,0.002,2.490,0.006,1.494,0.010,40.7
71,21017.00,21017.00,0.00,3.996,2336,0.002,2.482,0.006,1.496,0.010,41.4
72,20090.00,20090.00,0.00,4.244,2233,0.002,2.642,0.006,1.584,0.010,41.6
73,21203.00,21203.00,0.00,3.945,2356,0.003,2.441,0.006,1.485,0.011,41.1
74,18092.00,18092.00,0.00,3.436,2010,0.003,2.066,0.007,1.350,0.010,35.5
75,6350.00,6350.00,0.00,0.799,706,0.003,0.108,0.012,0.667,0.010,0.3
