Second,Ops/sec,Hits/sec,Misses/sec,Latency,KB/sec,Request_Creation_Time,Request_Buffer_Time,MW_Writes_To_Memcached_Time,Memcached_Process_Time,MW_Writes_To_Memtier_Time,Queue_Size
4,2927.00,2927.00,0.00,1.982,3075,0.026,0.526,0.067,1.309,0.055,5.5
5,11530.00,11530.00,0.00,3.028,12113,0.006,0.767,0.012,2.231,0.011,3.1
6,11102.00,11102.00,0.00,3.779,11664,0.003,1.127,0.008,2.631,0.009,3.9
7,11113.00,11113.00,0.00,3.798,11675,0.003,1.139,0.008,2.639,0.009,4.1
8,11152.00,11152.00,0.00,3.843,11715,0.003,1.179,0.008,2.644,0.009,3.7
9,11115.00,11115.00,0.00,3.830,11677,0.004,1.162,0.008,2.646,0.009,3.7
10,11125.00,11125.00,0.00,3.818,11687,0.003,1.154,0.008,2.645,0.009,3.9
11,11113.00,11113.00,0.00,3.676,11675,0.003,1.062,0.009,2.593,0.010,3.9
12,11128.00,11128.00,0.00,3.794,11691,0.003,1.135,0.008,2.640,0.009,4.0
13,11117.00,11117.00,0.00,3.812,11679,0.003,1.142,0.008,2.650,0.009,3.9
14,11099.00,11098.00,1.00,3.830,11659,0.003,1.150,0.008,2.660,0.009,4.0
15,11114.00,11077.00,37.00,3.780,11637,0.003,1.109,0.009,2.647,0.013,3.9
16,11199.00,11189.00,10.00,3.779,11754,0.003,1.134,0.010,2.623,0.010,4.3
17,11123.00,11123.00,0.00,3.843,11685,0.003,1.159,0.009,2.663,0.010,4.2
18,11103.00,11103.00,0.00,3.833,11664,0.003,1.148,0.009,2.664,0.010,4.0
19,11108.00,11108.00,0.00,3.778,11670,0.003,1.129,0.010,2.626,0.011,4.2
20,11151.00,11151.00,0.00,3.831,11715,0.003,1.155,0.009,2.654,0.010,4.0
21,11110.00,11110.00,0.00,3.830,11672,0.003,1.157,0.009,2.651,0.010,3.9
22,11126.00,11126.00,0.00,3.806,11689,0.003,1.141,0.009,2.644,0.010,4.2
23,11107.00,11107.00,0.00,3.803,11668,0.003,1.126,0.009,2.656,0.009,4.0
24,11126.00,11126.00,0.00,3.831,11688,0.003,1.156,0.009,2.654,0.010,4.3
25,11100.00,11100.00,0.00,3.814,11661,0.003,1.152,0.009,2.641,0.010,4.2
26,11131.00,11131.00,0.00,3.818,11693,0.003,1.162,0.009,2.635,0.009,4.6
27,11147.00,11147.00,0.00,3.828,11710,0.003,1.157,0.009,2.650,0.010,4.1
28,11118.00,11118.00,0.00,3.806,11680,0.003,1.142,0.010,2.643,0.009,4.1
29,11099.00,11099.00,0.00,3.826,11660,0.003,1.148,0.009,2.658,0.009,4.1
30,11098.00,11098.00,0.00,3.836,11659,0.003,1.168,0.009,2.648,0.009,4.2
31,11140.00,11140.00,0.00,3.783,11703,0.003,1.123,0.009,2.640,0.010,4.3
32,11147.00,11147.00,0.00,3.815,11710,0.003,1.155,0.008,2.640,0.009,3.9
33,11074.00,11074.00,0.00,3.835,11634,0.003,1.148,0.008,2.668,0.009,4.2
34,11152.00,11148.00,4.00,3.811,11712,0.003,1.139,0.008,2.652,0.009,4.0
35,11059.00,11045.00,14.00,3.833,11604,0.003,1.146,0.008,2.666,0.009,4.1
36,11186.00,11172.00,14.00,3.818,11737,0.003,1.154,0.008,2.644,0.009,4.3
37,11299.00,11286.00,13.00,3.754,11856,0.003,1.134,0.008,2.600,0.009,3.9
38,11141.00,11138.00,3.00,3.821,11701,0.003,1.147,0.009,2.654,0.010,4.0
39,11089.00,11089.00,0.00,3.832,11650,0.003,1.159,0.009,2.653,0.009,4.1
40,11182.00,11182.00,0.00,3.791,11748,0.003,1.138,0.008,2.634,0.009,4.0
41,11120.00,11120.00,0.00,3.829,11682,0.003,1.174,0.008,2.635,0.009,4.1
42,11122.00,11122.00,0.00,3.857,11684,0.003,1.171,0.008,2.665,0.009,4.0
43,11120.00,11120.00,0.00,3.829,11682,0.003,1.171,0.008,2.638,0.009,4.3
44,11106.00,11106.00,0.00,3.834,11668,0.003,1.150,0.008,2.665,0.009,4.1
45,11119.00,11119.00,0.00,3.859,11681,0.003,1.166,0.008,2.674,0.009,4.0
46,11094.00,11094.00,0.00,3.847,11655,0.003,1.154,0.008,2.672,0.010,4.1
47,11165.00,11165.00,0.00,3.771,11730,0.003,1.113,0.008,2.638,0.010,3.8
48,11112.00,11112.00,0.00,3.860,11674,0.003,1.177,0.008,2.665,0.009,4.2
49,11125.00,11125.00,0.00,3.822,11688,0.003,1.160,0.008,2.643,0.009,4.2
50,11289.00,11289.00,0.00,3.703,11860,0.003,1.098,0.008,2.586,0.009,3.9
51,11085.00,11085.00,0.00,3.825,11646,0.003,1.149,0.008,2.657,0.009,4.1
52,11115.00,11115.00,0.00,3.836,11677,0.003,1.160,0.008,2.657,0.009,4.2
53,11173.00,11173.00,0.00,3.772,11738,0.003,1.120,0.008,2.633,0.009,3.9
54,11094.00,11094.00,0.00,3.832,11655,0.003,1.151,0.008,2.662,0.008,3.9
55,11112.00,11112.00,0.00,3.826,11674,0.003,1.138,0.007,2.669,0.008,4.1
56,11119.00,11119.00,0.00,3.784,11681,0.003,1.138,0.008,2.627,0.009,3.8
57,11109.00,11109.00,0.00,3.828,11671,0.002,1.151,0.008,2.658,0.009,3.9
58,11290.00,11290.00,0.00,3.753,11861,0.003,1.119,0.008,2.616,0.008,3.9
59,11174.00,11174.00,0.00,3.685,11739,0.003,1.079,0.008,2.586,0.009,3.9
60,11084.00,11084.00,0.00,3.859,11644,0.003,1.166,0.008,2.672,0.010,4.2
61,11129.00,11129.00,0.00,3.794,11692,0.002,1.141,0.008,2.634,0.009,3.9
62,11128.00,11128.00,0.00,3.782,11691,0.003,1.140,0.008,2.623,0.009,4.0
63,11136.00,11136.00,0.00,3.824,11699,0.003,1.159,0.008,2.646,0.009,3.9
64,11127.00,11127.00,0.00,3.818,11690,0.003,1.153,0.008,2.646,0.009,4.0
65,11090.00,11090.00,0.00,3.848,11651,0.003,1.169,0.008,2.659,0.009,4.1
66,11152.00,11152.00,0.00,3.790,11716,0.003,1.138,0.008,2.633,0.009,4.0
67,11122.00,11122.00,0.00,3.846,11685,0.003,1.156,0.008,2.671,0.009,3.7
68,11115.00,11115.00,0.00,3.824,11677,0.003,1.150,0.008,2.655,0.009,4.0
69,11112.00,11112.00,0.00,3.850,11674,0.002,1.167,0.008,2.664,0.009,4.1
70,11118.00,11118.00,0.00,3.810,11680,0.003,1.148,0.008,2.642,0.009,4.0
71,11135.00,11135.00,0.00,3.780,11698,0.003,1.150,0.008,2.610,0.010,4.0
72,11112.00,11112.00,0.00,3.788,11674,0.003,1.152,0.008,2.617,0.009,4.2
73,11101.00,11101.00,0.00,3.844,11662,0.003,1.164,0.008,2.661,0.009,3.9
74,7901.00,7901.00,0.00,3.814,8301,0.003,1.133,0.008,2.661,0.009,3.7
