Second,Ops/sec,Hits/sec,Misses/sec,Latency,KB/sec,Request_Creation_Time,Request_Buffer_Time,MW_Writes_To_Memcached_Time,Memcached_Process_Time,MW_Writes_To_Memtier_Time,Queue_Size
4,2682.00,2682.00,0.00,1.491,804,0.026,0.181,0.039,1.193,0.051,1.1
5,11371.00,11371.00,0.00,1.331,3407,0.005,0.183,0.014,1.112,0.017,1.0
6,12993.00,12993.00,0.00,1.376,3892,0.004,0.145,0.010,1.208,0.010,1.0
7,12710.00,12710.00,0.00,1.398,3808,0.004,0.139,0.010,1.235,0.010,0.9
8,12602.00,12602.00,0.00,1.385,3776,0.004,0.148,0.011,1.214,0.010,0.9
9,13147.00,13123.00,24.00,1.263,3931,0.004,0.175,0.011,1.061,0.011,1.1
10,13819.00,13819.00,0.00,1.029,4139,0.006,0.130,0.012,0.869,0.012,0.9
11,12905.00,12905.00,0.00,1.323,3866,0.003,0.150,0.011,1.149,0.011,1.1
12,12848.00,12848.00,0.00,1.393,3849,0.003,0.118,0.010,1.250,0.011,0.8
13,13578.00,13578.00,0.00,1.313,4068,0.003,0.115,0.010,1.175,0.011,0.9
14,13015.00,13015.00,0.00,1.355,3899,0.003,0.136,0.011,1.196,0.009,1.0
15,13916.00,13916.00,0.00,1.212,4169,0.003,0.111,0.012,1.077,0.010,0.9
16,13661.00,13661.00,0.00,1.268,4092,0.003,0.128,0.010,1.116,0.011,1.0
17,12365.00,12362.00,3.00,1.434,3704,0.003,0.126,0.010,1.285,0.010,1.0
18,13998.00,13978.00,20.00,1.251,4188,0.003,0.122,0.010,1.106,0.011,0.8
19,12609.00,12608.00,1.00,1.335,3777,0.004,0.189,0.009,1.122,0.011,1.5
20,12749.00,12749.00,0.00,1.386,3820,0.003,0.133,0.009,1.230,0.010,1.1
21,13413.00,13413.00,0.00,1.301,4018,0.003,0.127,0.009,1.152,0.010,0.9
22,13023.00,13023.00,0.00,1.304,3902,0.003,0.137,0.011,1.143,0.010,1.0
23,13460.00,13460.00,0.00,1.266,4033,0.003,0.147,0.010,1.095,0.010,0.9
24,15557.00,15557.00,0.00,1.012,4661,0.003,0.142,0.010,0.846,0.010,1.0
25,14374.00,14374.00,0.00,1.103,4307,0.004,0.144,0.010,0.936,0.010,1.2
26,13740.00,13740.00,0.00,1.188,4117,0.004,0.166,0.010,0.997,0.011,1.1
27,14379.00,14379.00,0.00,1.134,4308,0.003,0.137,0.011,0.974,0.009,0.9
28,13967.00,13967.00,0.00,1.095,4184,0.004,0.203,0.009,0.868,0.011,1.4
29,13744.00,13744.00,0.00,1.219,4118,0.003,0.162,0.009,1.033,0.011,1.1
30,13735.00,13735.00,0.00,1.248,4115,0.004,0.130,0.011,1.094,0.010,1.0
31,13859.00,13859.00,0.00,1.132,4152,0.003,0.181,0.010,0.927,0.010,1.2
32,13424.00,13424.00,0.00,1.226,4022,0.003,0.172,0.010,1.031,0.010,1.1
33,13267.00,13267.00,0.00,1.348,3975,0.003,0.128,0.010,1.198,0.009,1.1
34,12739.00,12739.00,0.00,1.400,3816,0.003,0.163,0.009,1.215,0.010,1.3
35,13085.00,13085.00,0.00,1.318,3920,0.004,0.161,0.010,1.133,0.010,1.2
36,13209.00,13209.00,0.00,1.338,3957,0.003,0.116,0.010,1.198,0.010,0.9
37,13326.00,13326.00,0.00,1.299,3992,0.003,0.171,0.010,1.105,0.009,1.1
38,13416.00,13416.00,0.00,1.270,4019,0.003,0.141,0.011,1.106,0.010,1.2
39,13643.00,13642.00,1.00,1.249,4087,0.003,0.122,0.009,1.105,0.009,0.9
40,13054.00,13042.00,12.00,1.369,3908,0.003,0.127,0.010,1.220,0.009,0.9
41,13496.00,13491.00,5.00,1.323,4042,0.003,0.110,0.010,1.190,0.009,0.9
42,13121.00,13112.00,9.00,1.357,3928,0.003,0.123,0.010,1.212,0.009,0.8
43,13762.00,13749.00,13.00,1.255,4119,0.003,0.126,0.010,1.106,0.010,0.9
44,13217.00,13199.00,18.00,1.303,3954,0.003,0.137,0.010,1.142,0.010,1.0
45,13694.00,13687.00,7.00,1.277,4100,0.003,0.121,0.009,1.135,0.009,1.0
46,13586.00,13580.00,6.00,1.292,4069,0.003,0.089,0.010,1.180,0.009,0.8
47,14131.00,14131.00,0.00,1.154,4233,0.004,0.112,0.011,1.017,0.011,0.9
48,13122.00,13121.00,1.00,1.341,3931,0.003,0.108,0.009,1.209,0.011,0.7
49,13431.00,13431.00,0.00,1.287,4023,0.003,0.130,0.009,1.135,0.010,1.0
50,13553.00,13553.00,0.00,1.259,4060,0.004,0.164,0.010,1.072,0.010,1.1
51,12592.00,12592.00,0.00,1.447,3772,0.003,0.111,0.010,1.314,0.010,0.8
52,12839.00,12839.00,0.00,1.418,3846,0.003,0.101,0.009,1.296,0.009,0.9
53,13647.00,13647.00,0.00,1.245,4089,0.003,0.121,0.009,1.101,0.012,0.8
54,13163.00,13163.00,0.00,1.316,3943,0.003,0.126,0.011,1.166,0.010,0.8
55,13007.00,13007.00,0.00,1.360,3897,0.003,0.110,0.010,1.228,0.009,0.9
56,13186.00,13186.00,0.00,1.319,3950,0.004,0.109,0.009,1.187,0.010,0.8
57,12752.00,12752.00,0.00,1.400,3820,0.003,0.112,0.009,1.267,0.009,0.8
58,14194.00,14194.00,0.00,1.169,4252,0.004,0.107,0.010,1.038,0.010,0.8
59,13306.00,13306.00,0.00,1.306,3986,0.003,0.096,0.010,1.187,0.010,0.8
60,13262.00,13262.00,0.00,1.315,3973,0.003,0.127,0.011,1.164,0.010,0.9
61,13136.00,13136.00,0.00,1.350,3935,0.003,0.148,0.009,1.180,0.009,1.1
62,13223.00,13223.00,0.00,1.332,3962,0.003,0.114,0.011,1.196,0.009,0.9
63,13190.00,13190.00,0.00,1.354,3952,0.003,0.098,0.010,1.233,0.010,0.7
64,13674.00,13674.00,0.00,1.269,4097,0.003,0.101,0.010,1.146,0.010,0.7
65,13799.00,13799.00,0.00,1.270,4134,0.003,0.101,0.010,1.147,0.009,0.7
66,14672.00,14672.00,0.00,1.058,4396,0.003,0.216,0.012,0.817,0.011,1.3
67,14978.00,14978.00,0.00,1.090,4487,0.003,0.161,0.010,0.906,0.010,1.0
68,12406.00,12406.00,0.00,1.389,3716,0.003,0.153,0.010,1.212,0.011,1.1
69,12751.00,12751.00,0.00,1.312,3820,0.003,0.135,0.010,1.154,0.010,1.1
70,13369.00,13369.00,0.00,1.309,4005,0.003,0.125,0.010,1.162,0.010,0.8
71,13097.00,13097.00,0.00,1.359,3924,0.003,0.127,0.009,1.211,0.009,1.0
72,12390.00,12390.00,0.00,1.470,3712,0.003,0.108,0.010,1.340,0.009,0.8
73,13241.00,13241.00,0.00,1.305,3967,0.003,0.136,0.010,1.147,0.009,0.9
74,8790.00,8790.00,0.00,1.342,2633,0.003,0.123,0.009,1.198,0.009,0.8
