Second,Ops/sec,Hits/sec,Misses/sec,Latency,KB/sec,Request_Creation_Time,Request_Buffer_Time,MW_Writes_To_Memcached_Time,Memcached_Process_Time,MW_Writes_To_Memtier_Time,Queue_Size
4,4499.00,4499.00,0.00,2.673,2473,0.023,0.927,0.043,1.646,0.033,18.0
5,20427.00,20427.00,0.00,5.075,11228,0.006,2.468,0.013,2.563,0.024,43.0
6,20378.00,20378.00,0.00,8.722,11200,0.003,5.580,0.007,3.122,0.009,90.5
7,20528.00,20528.00,0.00,8.610,11282,0.003,5.499,0.007,3.092,0.011,91.6
8,20410.00,20410.00,0.00,8.701,11218,0.003,5.571,0.006,3.111,0.010,90.4
9,20412.00,20412.00,0.00,8.629,11219,0.003,5.489,0.006,3.121,0.009,90.7
10,20543.00,20543.00,0.00,8.728,11291,0.003,5.611,0.006,3.099,0.010,91.5
11,20490.00,20490.00,0.00,8.718,11261,0.003,5.595,0.006,3.105,0.009,91.2
12,20411.00,20411.00,0.00,8.787,11217,0.003,5.648,0.006,3.120,0.009,91.9
13,20431.00,20431.00,0.00,8.723,11228,0.003,5.590,0.006,3.114,0.009,91.1
14,20544.00,20544.00,0.00,8.706,11290,0.003,5.588,0.006,3.100,0.009,90.9
15,20270.00,20270.00,0.00,8.761,11140,0.002,5.609,0.007,3.133,0.009,90.4
16,20592.00,20592.00,0.00,8.644,11317,0.002,5.533,0.006,3.093,0.009,91.5
17,20392.00,20392.00,0.00,8.760,11207,0.003,5.628,0.006,3.114,0.009,91.0
18,20409.00,20409.00,0.00,8.738,11216,0.003,5.604,0.006,3.117,0.009,91.9
19,20625.00,20625.00,0.00,8.659,11335,0.003,5.573,0.006,3.068,0.009,92.5
20,20359.00,20359.00,0.00,8.739,11189,0.003,5.596,0.006,3.125,0.009,91.1
21,20539.00,20539.00,0.00,8.720,11288,0.003,5.604,0.006,3.097,0.010,92.2
22,20447.00,20447.00,0.00,8.790,11238,0.002,5.659,0.006,3.113,0.009,93.3
23,20336.00,20336.00,0.00,8.775,11177,0.003,5.633,0.006,3.125,0.009,91.2
24,20450.00,20450.00,0.00,8.768,11240,0.002,5.641,0.006,3.109,0.010,92.3
25,20413.00,20413.00,0.00,8.649,11219,0.002,5.532,0.006,3.096,0.013,91.3
26,20624.00,20618.00,6.00,8.278,11331,0.003,5.207,0.008,3.049,0.011,86.7
27,20326.00,20274.00,52.00,8.846,11142,0.002,5.698,0.007,3.129,0.010,93.5
28,20714.00,20652.00,62.00,8.668,11349,0.003,5.577,0.007,3.072,0.009,91.6
29,20499.00,20438.00,61.00,8.709,11232,0.003,5.587,0.007,3.103,0.010,92.3
30,20435.00,20424.00,11.00,8.673,11223,0.003,5.548,0.007,3.104,0.011,91.4
31,20487.00,20487.00,0.00,8.658,11258,0.003,5.538,0.007,3.099,0.010,90.5
32,20814.00,20814.00,0.00,8.604,11438,0.003,5.528,0.007,3.058,0.009,92.0
33,20412.00,20412.00,0.00,8.659,11218,0.002,5.551,0.007,3.090,0.010,90.4
34,20548.00,20548.00,0.00,8.727,11293,0.003,5.608,0.007,3.100,0.010,90.9
35,20350.00,20350.00,0.00,8.818,11184,0.003,5.676,0.007,3.123,0.010,92.7
36,20516.00,20516.00,0.00,8.650,11275,0.002,5.529,0.006,3.103,0.010,91.1
37,20411.00,20411.00,0.00,8.696,11218,0.003,5.562,0.006,3.115,0.009,91.0
38,20532.00,20532.00,0.00,8.621,11284,0.002,5.514,0.006,3.088,0.009,91.7
39,20219.00,20219.00,0.00,8.823,11113,0.002,5.673,0.006,3.132,0.009,92.1
40,20643.00,20643.00,0.00,8.686,11346,0.002,5.589,0.006,3.080,0.009,92.2
41,20425.00,20425.00,0.00,8.782,11226,0.002,5.647,0.006,3.117,0.009,91.6
42,20403.00,20403.00,0.00,8.797,11214,0.003,5.663,0.006,3.116,0.009,92.3
43,20555.00,20555.00,0.00,8.714,11297,0.003,5.600,0.007,3.095,0.010,91.7
44,20522.00,20522.00,0.00,8.738,11279,0.003,5.618,0.006,3.102,0.009,91.0
45,20532.00,20532.00,0.00,8.694,11283,0.002,5.590,0.006,3.086,0.009,92.3
46,20648.00,20648.00,0.00,8.717,11347,0.003,5.599,0.006,3.100,0.009,91.7
47,20460.00,20460.00,0.00,8.688,11244,0.003,5.571,0.007,3.099,0.009,91.8
48,20425.00,20425.00,0.00,8.799,11225,0.002,5.667,0.006,3.115,0.009,93.1
49,20442.00,20442.00,0.00,8.748,11234,0.002,5.614,0.006,3.116,0.009,92.4
50,20580.00,20580.00,0.00,8.723,11310,0.003,5.610,0.006,3.096,0.009,91.0
51,20599.00,20599.00,0.00,8.656,11320,0.002,5.555,0.006,3.084,0.009,90.9
52,20405.00,20405.00,0.00,8.745,11214,0.002,5.612,0.006,3.115,0.009,92.2
53,20646.00,20646.00,0.00,8.637,11346,0.003,5.524,0.006,3.095,0.009,89.9
54,20468.00,20468.00,0.00,8.769,11248,0.003,5.642,0.006,3.108,0.009,91.1
55,20499.00,20499.00,0.00,8.748,11266,0.003,5.623,0.006,3.107,0.010,91.3
56,20247.00,20247.00,0.00,8.802,11128,0.003,5.648,0.006,3.136,0.010,91.4
57,20614.00,20614.00,0.00,8.745,11330,0.002,5.631,0.006,3.096,0.009,92.1
58,20369.00,20369.00,0.00,8.745,11195,0.002,5.603,0.006,3.125,0.009,89.7
59,20565.00,20565.00,0.00,8.685,11302,0.003,5.569,0.006,3.098,0.009,90.9
60,20424.00,20424.00,0.00,8.730,11224,0.002,5.607,0.006,3.106,0.009,92.0
61,20314.00,20314.00,0.00,8.775,11164,0.002,5.631,0.006,3.127,0.009,92.4
62,20645.00,20645.00,0.00,8.646,11346,0.003,5.537,0.006,3.092,0.009,88.3
63,20286.00,20286.00,0.00,8.814,11148,0.002,5.664,0.006,3.132,0.009,92.5
64,20353.00,20353.00,0.00,8.765,11185,0.002,5.633,0.006,3.114,0.009,91.6
65,20630.00,20630.00,0.00,8.683,11338,0.002,5.559,0.006,3.106,0.009,92.2
66,20454.00,20454.00,0.00,8.760,11241,0.003,5.630,0.006,3.111,0.009,90.8
67,20518.00,20518.00,0.00,8.753,11277,0.002,5.632,0.006,3.104,0.009,92.6
68,20490.00,20490.00,0.00,8.746,11262,0.002,5.618,0.006,3.110,0.009,91.9
69,20469.00,20465.00,4.00,8.750,11248,0.002,5.624,0.006,3.109,0.009,92.0
70,20339.00,20325.00,14.00,8.750,11171,0.002,5.610,0.006,3.123,0.009,91.4
71,20560.00,20535.00,25.00,8.721,11287,0.003,5.601,0.006,3.102,0.009,91.4
72,20523.00,20495.00,28.00,8.723,11265,0.003,5.604,0.006,3.102,0.009,91.8
73,20526.00,20489.00,37.00,8.707,11261,0.002,5.590,0.006,3.100,0.009,93.1
74,20215.00,20181.00,34.00,6.686,11091,0.002,3.832,0.008,2.835,0.009,61.2
75,13722.00,13707.00,15.00,1.900,7533,0.004,0.281,0.013,1.592,0.010,4.3
