Second,Ops/sec,Hits/sec,Misses/sec,Latency,KB/sec,Request_Creation_Time,Request_Buffer_Time,MW_Writes_To_Memcached_Time,Memcached_Process_Time,MW_Writes_To_Memtier_Time,Queue_Size
4,1992.00,1992.00,0.00,4.319,2093,0.023,3.515,0.028,0.699,0.054,40.6
5,10785.00,10785.00,0.00,7.451,11331,0.004,6.706,0.009,0.717,0.015,71.3
6,11112.00,11112.00,0.00,8.079,11674,0.003,7.358,0.006,0.700,0.011,79.0
7,10979.00,10979.00,0.00,8.213,11534,0.003,7.486,0.006,0.708,0.011,79.2
8,11273.00,11273.00,0.00,7.921,11843,0.003,7.209,0.006,0.692,0.011,78.5
9,11093.00,11093.00,0.00,8.117,11655,0.003,7.395,0.006,0.702,0.011,79.5
10,11153.00,11153.00,0.00,8.067,11717,0.003,7.347,0.006,0.699,0.012,79.4
11,11105.00,11105.00,0.00,7.851,11667,0.003,7.131,0.006,0.700,0.011,76.8
12,10746.00,10746.00,0.00,8.337,11288,0.003,7.594,0.006,0.723,0.011,78.2
13,11505.00,11505.00,0.00,7.860,12086,0.003,7.159,0.006,0.680,0.012,79.3
14,11111.00,11111.00,0.00,8.097,11673,0.003,7.376,0.005,0.703,0.011,79.1
15,11123.00,11123.00,0.00,8.139,11686,0.003,7.418,0.006,0.701,0.012,80.0
16,11105.00,11105.00,0.00,8.162,11667,0.003,7.440,0.006,0.702,0.011,79.9
17,11093.00,11093.00,0.00,8.178,11653,0.003,7.455,0.006,0.704,0.011,78.9
18,10929.00,10929.00,0.00,8.207,11482,0.003,7.473,0.006,0.714,0.012,79.5
19,11346.00,11346.00,0.00,7.947,11920,0.003,7.240,0.006,0.688,0.011,79.5
20,11122.00,11122.00,0.00,8.165,11685,0.003,7.444,0.006,0.701,0.012,80.0
21,11080.00,11080.00,0.00,8.169,11640,0.003,7.444,0.006,0.705,0.012,79.9
22,10971.00,10971.00,0.00,8.157,11526,0.003,7.432,0.006,0.705,0.011,79.4
23,11312.00,11312.00,0.00,7.931,11884,0.003,7.218,0.006,0.693,0.012,78.5
24,10846.00,10846.00,0.00,8.396,11395,0.003,7.656,0.005,0.721,0.011,79.5
25,11399.00,11399.00,0.00,7.904,11975,0.003,7.200,0.006,0.683,0.012,80.0
26,11196.00,11119.00,77.00,7.840,11681,0.003,7.133,0.009,0.681,0.013,78.5
27,10960.00,10941.00,19.00,8.242,11494,0.003,7.513,0.006,0.708,0.011,79.3
28,11283.00,11283.00,0.00,8.012,11853,0.003,7.299,0.006,0.693,0.011,79.3
29,11134.00,11134.00,0.00,8.117,11696,0.003,7.396,0.006,0.700,0.012,79.5
30,11130.00,11130.00,0.00,8.162,11692,0.003,7.441,0.006,0.700,0.012,80.1
31,11109.00,11109.00,0.00,8.100,11671,0.003,7.378,0.006,0.701,0.012,79.9
32,11130.00,11130.00,0.00,8.071,11693,0.003,7.350,0.006,0.701,0.011,78.6
33,11103.00,11103.00,0.00,8.175,11665,0.003,7.453,0.005,0.702,0.012,80.1
34,11113.00,11113.00,0.00,8.092,11675,0.003,7.371,0.006,0.702,0.011,79.3
35,11129.00,11129.00,0.00,8.149,11692,0.003,7.427,0.006,0.701,0.012,80.2
36,11297.00,11297.00,0.00,8.028,11869,0.003,7.317,0.005,0.691,0.011,80.0
37,11125.00,11125.00,0.00,8.078,11688,0.003,7.356,0.006,0.702,0.012,79.9
38,11130.00,11130.00,0.00,8.158,11694,0.003,7.437,0.005,0.701,0.011,79.2
39,11114.00,11114.00,0.00,8.093,11676,0.003,7.371,0.006,0.703,0.011,79.8
40,11110.00,11110.00,0.00,8.062,11673,0.003,7.347,0.006,0.695,0.011,79.0
41,11122.00,11122.00,0.00,8.086,11685,0.003,7.364,0.006,0.701,0.012,79.3
42,11123.00,11123.00,0.00,8.112,11684,0.003,7.391,0.006,0.700,0.012,79.6
43,11131.00,11131.00,0.00,8.131,11693,0.003,7.410,0.005,0.702,0.011,79.3
44,11126.00,11126.00,0.00,8.167,11689,0.003,7.446,0.006,0.701,0.011,79.4
45,11105.00,11105.00,0.00,8.077,11667,0.003,7.356,0.005,0.702,0.011,79.5
46,11134.00,11134.00,0.00,8.131,11697,0.003,7.410,0.006,0.700,0.013,79.3
47,11095.00,11095.00,0.00,8.133,11656,0.003,7.413,0.006,0.700,0.012,80.1
48,11142.00,11142.00,0.00,8.093,11705,0.003,7.370,0.006,0.703,0.011,79.0
49,11033.00,11033.00,0.00,8.240,11590,0.003,7.513,0.006,0.707,0.012,79.8
50,11206.00,11206.00,0.00,7.991,11772,0.003,7.275,0.006,0.697,0.011,79.0
51,11063.00,11063.00,0.00,8.177,11622,0.003,7.452,0.006,0.705,0.012,79.6
52,11179.00,11179.00,0.00,8.072,11745,0.003,7.354,0.006,0.699,0.011,79.5
53,11114.00,11114.00,0.00,8.059,11676,0.003,7.339,0.006,0.701,0.011,78.5
54,11122.00,11122.00,0.00,8.150,11685,0.003,7.429,0.005,0.702,0.011,79.3
55,11109.00,11109.00,0.00,8.134,11671,0.003,7.412,0.005,0.703,0.011,79.8
56,11139.00,11139.00,0.00,8.133,11702,0.003,7.412,0.006,0.700,0.012,80.7
57,11114.00,11114.00,0.00,8.128,11676,0.003,7.406,0.006,0.701,0.013,80.3
58,11127.00,11127.00,0.00,8.175,11689,0.003,7.453,0.005,0.702,0.011,79.4
59,11124.00,11124.00,0.00,8.163,11686,0.003,7.443,0.005,0.701,0.011,79.2
60,11104.00,11104.00,0.00,8.103,11666,0.003,7.381,0.006,0.702,0.011,79.0
61,11120.00,11120.00,0.00,8.084,11682,0.003,7.364,0.006,0.699,0.012,79.1
62,11135.00,11135.00,0.00,8.135,11698,0.003,7.414,0.006,0.702,0.011,79.5
63,11121.00,11121.00,0.00,8.129,11684,0.003,7.408,0.006,0.701,0.012,79.5
64,11111.00,11111.00,0.00,8.142,11674,0.003,7.419,0.006,0.702,0.012,79.7
65,11009.00,11009.00,0.00,8.236,11566,0.003,7.506,0.006,0.708,0.012,79.9
66,11222.00,11219.00,3.00,7.888,11787,0.003,7.173,0.005,0.695,0.012,79.1
67,11073.00,11038.00,35.00,8.174,11597,0.003,7.448,0.006,0.704,0.013,80.1
68,11261.00,11213.00,48.00,7.962,11780,0.003,7.252,0.006,0.689,0.013,80.3
69,11128.00,11118.00,10.00,8.118,11680,0.003,7.396,0.006,0.700,0.012,80.3
70,10902.00,10902.00,0.00,8.303,11452,0.003,7.567,0.006,0.716,0.012,80.0
71,11355.00,11355.00,0.00,7.946,11928,0.003,7.240,0.005,0.688,0.011,79.6
72,11101.00,11101.00,0.00,8.079,11662,0.003,7.357,0.006,0.702,0.012,79.1
73,11130.00,11130.00,0.00,8.117,11693,0.003,7.395,0.006,0.701,0.012,79.2
74,9746.00,9746.00,0.00,7.216,10238,0.003,6.514,0.007,0.680,0.012,71.3
75,3363.00,3363.00,0.00,0.771,3533,0.004,0.147,0.018,0.588,0.014,0.1
