Second,Ops/sec,Hits/sec,Misses/sec,Latency,KB/sec,Request_Creation_Time,Request_Buffer_Time,MW_Writes_To_Memcached_Time,Memcached_Process_Time,MW_Writes_To_Memtier_Time,Queue_Size
4,3733.00,3733.00,0.00,3.399,3922,0.016,0.966,0.040,2.331,0.046,8.9
5,11215.00,11215.00,0.00,7.538,11783,0.004,2.158,0.008,5.358,0.009,8.9
6,11122.00,11122.00,0.00,8.042,11685,0.003,2.526,0.008,5.496,0.009,9.7
7,11122.00,11122.00,0.00,7.897,11684,0.005,2.491,0.008,5.382,0.010,9.7
8,11118.00,11118.00,0.00,8.007,11680,0.003,2.529,0.008,5.458,0.009,10.5
9,11122.00,11122.00,0.00,7.959,11685,0.003,2.482,0.008,5.456,0.009,10.1
10,11122.00,11122.00,0.00,8.036,11684,0.003,2.515,0.008,5.501,0.009,9.5
11,11118.00,11118.00,0.00,8.037,11680,0.003,2.508,0.008,5.510,0.009,9.7
12,11123.00,11123.00,0.00,7.978,11684,0.003,2.476,0.008,5.483,0.009,9.8
13,11122.00,11122.00,0.00,7.986,11684,0.003,2.480,0.008,5.487,0.009,10.0
14,11118.00,11118.00,0.00,8.055,11680,0.003,2.528,0.008,5.508,0.009,10.1
15,11122.00,11122.00,0.00,8.059,11684,0.003,2.521,0.008,5.519,0.008,9.9
16,11122.00,11122.00,0.00,7.967,11684,0.003,2.529,0.008,5.417,0.010,10.4
17,11118.00,11118.00,0.00,8.055,11680,0.003,2.542,0.008,5.494,0.009,10.2
18,11123.00,11123.00,0.00,8.050,11686,0.003,2.530,0.008,5.499,0.009,10.7
19,11122.00,11122.00,0.00,8.007,11685,0.003,2.512,0.008,5.475,0.009,10.0
20,11118.00,11118.00,0.00,8.077,11680,0.003,2.552,0.008,5.505,0.009,10.2
21,11122.00,11122.00,0.00,8.076,11685,0.003,2.549,0.008,5.507,0.009,10.6
22,11122.00,11122.00,0.00,8.031,11685,0.003,2.514,0.008,5.497,0.009,10.9
23,11118.00,11118.00,0.00,8.040,11680,0.003,2.525,0.008,5.496,0.009,10.5
24,11127.00,11121.00,6.00,8.028,11683,0.003,2.497,0.008,5.510,0.009,10.4
25,11147.00,11121.00,26.00,7.862,11683,0.003,2.387,0.010,5.454,0.010,9.4
26,11154.00,11116.00,38.00,8.061,11678,0.003,2.539,0.009,5.502,0.009,10.2
27,11133.00,11121.00,12.00,8.011,11683,0.003,2.497,0.009,5.493,0.009,10.4
28,11135.00,11122.00,13.00,8.005,11684,0.003,2.516,0.009,5.469,0.009,11.0
29,11120.00,11119.00,1.00,8.023,11680,0.003,2.523,0.009,5.478,0.010,11.0
30,11121.00,11121.00,0.00,8.006,11683,0.003,2.500,0.009,5.484,0.009,10.8
31,11123.00,11123.00,0.00,8.058,11685,0.003,2.557,0.009,5.479,0.010,10.6
32,11118.00,11118.00,0.00,8.043,11680,0.003,2.531,0.009,5.491,0.009,10.9
33,11122.00,11122.00,0.00,8.027,11684,0.003,2.546,0.009,5.459,0.010,10.9
34,11122.00,11122.00,0.00,8.052,11684,0.003,2.526,0.008,5.506,0.009,10.1
35,11118.00,11118.00,0.00,8.050,11680,0.003,2.542,0.008,5.489,0.009,10.6
36,11121.00,11121.00,0.00,8.047,11684,0.003,2.523,0.008,5.504,0.010,10.3
37,11123.00,11123.00,0.00,8.065,11686,0.003,2.541,0.008,5.504,0.009,10.4
38,11120.00,11120.00,0.00,8.080,11683,0.003,2.531,0.008,5.529,0.009,9.8
39,11120.00,11120.00,0.00,8.035,11682,0.003,2.529,0.008,5.487,0.009,10.1
40,11122.00,11122.00,0.00,8.023,11684,0.003,2.508,0.008,5.495,0.009,10.3
41,11122.00,11122.00,0.00,8.033,11684,0.003,2.521,0.008,5.492,0.009,10.1
42,11118.00,11118.00,0.00,8.052,11680,0.003,2.516,0.008,5.516,0.009,9.7
43,11122.00,11122.00,0.00,8.050,11684,0.003,2.528,0.008,5.503,0.009,9.8
44,11122.00,11122.00,0.00,8.075,11684,0.003,2.558,0.008,5.498,0.009,10.5
45,11292.00,11292.00,0.00,7.879,11863,0.003,2.470,0.008,5.390,0.009,10.3
46,11122.00,11122.00,0.00,7.986,11684,0.003,2.500,0.008,5.465,0.010,10.0
47,11123.00,11123.00,0.00,8.022,11685,0.003,2.530,0.008,5.472,0.009,9.9
48,11008.00,11008.00,0.00,8.086,11564,0.003,2.509,0.008,5.557,0.009,9.9
49,11221.00,11221.00,0.00,8.010,11788,0.003,2.538,0.008,5.452,0.010,9.7
50,11122.00,11122.00,0.00,7.976,11684,0.003,2.468,0.008,5.488,0.010,9.6
51,11291.00,11291.00,0.00,7.852,11862,0.003,2.459,0.008,5.374,0.009,9.8
52,11123.00,11123.00,0.00,8.027,11685,0.003,2.511,0.008,5.496,0.009,9.8
53,11122.00,11122.00,0.00,8.025,11684,0.003,2.504,0.008,5.502,0.009,9.8
54,11118.00,11118.00,0.00,8.071,11680,0.003,2.536,0.008,5.515,0.009,10.2
55,11122.00,11122.00,0.00,8.063,11684,0.003,2.521,0.008,5.523,0.009,10.1
56,11123.00,11123.00,0.00,8.037,11685,0.003,2.498,0.008,5.519,0.009,9.8
57,11118.00,11118.00,0.00,7.989,11680,0.003,2.507,0.008,5.462,0.009,10.1
58,11122.00,11122.00,0.00,8.058,11684,0.003,2.516,0.008,5.522,0.009,10.1
59,11122.00,11122.00,0.00,7.968,11684,0.003,2.474,0.008,5.474,0.010,10.0
60,11118.00,11118.00,0.00,8.062,11680,0.003,2.540,0.008,5.502,0.009,9.6
61,11122.00,11122.00,0.00,8.034,11685,0.003,2.532,0.008,5.481,0.010,10.6
62,11122.00,11122.00,0.00,8.005,11685,0.003,2.505,0.008,5.479,0.010,10.5
63,11125.00,11118.00,7.00,8.046,11680,0.003,2.516,0.008,5.510,0.009,9.3
64,11133.00,11121.00,12.00,8.038,11684,0.003,2.519,0.008,5.499,0.010,9.6
65,11131.00,11121.00,10.00,8.006,11684,0.003,2.528,0.008,5.458,0.010,10.1
66,11124.00,11118.00,6.00,8.035,11680,0.003,2.522,0.008,5.493,0.009,10.1
67,11310.00,11295.00,15.00,7.903,11866,0.003,2.477,0.009,5.405,0.010,10.1
68,11132.00,11121.00,11.00,7.974,11683,0.003,2.473,0.008,5.481,0.009,9.7
69,11131.00,11118.00,13.00,8.037,11680,0.003,2.524,0.008,5.493,0.010,10.4
70,11125.00,11121.00,4.00,8.018,11683,0.003,2.498,0.008,5.499,0.009,9.9
71,11127.00,11123.00,4.00,7.991,11685,0.003,2.515,0.008,5.455,0.009,10.3
72,11122.00,11117.00,5.00,8.034,11679,0.003,2.515,0.008,5.498,0.010,10.2
73,11126.00,11122.00,4.00,8.038,11684,0.003,2.528,0.008,5.490,0.009,10.1
74,7401.00,7400.00,1.00,8.057,7774,0.003,2.512,0.009,5.524,0.010,9.9
