Second,Ops/sec,Hits/sec,Misses/sec,Latency,KB/sec,Request_Creation_Time,Request_Buffer_Time,MW_Writes_To_Memcached_Time,Memcached_Process_Time,MW_Writes_To_Memtier_Time,Queue_Size
4,2913.00,2913.00,0.00,1.362,873,0.019,0.260,0.043,1.004,0.036,1.4
5,12533.00,12533.00,0.00,1.151,3755,0.005,0.125,0.013,0.995,0.014,0.8
6,13521.00,13521.00,0.00,1.271,4050,0.004,0.113,0.011,1.135,0.009,0.8
7,13237.00,13237.00,0.00,1.282,3966,0.004,0.110,0.013,1.145,0.010,0.7
8,13887.00,13887.00,0.00,1.234,4161,0.003,0.138,0.010,1.073,0.009,1.1
9,12814.00,12790.00,24.00,1.291,3831,0.004,0.140,0.012,1.123,0.011,1.0
10,13044.00,13044.00,0.00,1.304,3908,0.003,0.116,0.010,1.164,0.010,0.8
11,14084.00,14084.00,0.00,1.207,4220,0.003,0.105,0.010,1.079,0.010,0.9
12,12997.00,12997.00,0.00,1.370,3894,0.003,0.110,0.010,1.238,0.010,0.7
13,13310.00,13310.00,0.00,1.299,3987,0.003,0.123,0.011,1.152,0.010,1.1
14,13937.00,13937.00,0.00,1.263,4175,0.003,0.121,0.010,1.118,0.010,0.8
15,13387.00,13387.00,0.00,1.341,4010,0.003,0.091,0.010,1.227,0.010,0.7
16,13853.00,13853.00,0.00,1.269,4150,0.003,0.132,0.009,1.115,0.009,0.9
17,13757.00,13742.00,15.00,1.236,4117,0.003,0.108,0.011,1.103,0.010,0.8
18,13453.00,13444.00,9.00,1.316,4027,0.003,0.133,0.010,1.161,0.010,1.1
19,13664.00,13664.00,0.00,1.315,4094,0.003,0.094,0.010,1.200,0.009,0.8
20,14041.00,14041.00,0.00,1.234,4207,0.003,0.107,0.011,1.105,0.009,0.8
21,13198.00,13198.00,0.00,1.382,3954,0.003,0.095,0.009,1.266,0.009,0.7
22,13357.00,13357.00,0.00,1.292,4002,0.003,0.104,0.010,1.166,0.009,0.9
23,13140.00,13140.00,0.00,1.336,3937,0.003,0.101,0.010,1.210,0.011,0.9
24,12829.00,12829.00,0.00,1.426,3844,0.003,0.104,0.009,1.300,0.009,0.7
25,13835.00,13835.00,0.00,1.243,4145,0.003,0.111,0.010,1.108,0.010,0.8
26,13487.00,13487.00,0.00,1.328,4041,0.003,0.111,0.009,1.195,0.009,0.8
27,13067.00,13067.00,0.00,1.356,3915,0.003,0.106,0.009,1.229,0.009,0.8
28,13660.00,13660.00,0.00,1.305,4092,0.003,0.086,0.010,1.198,0.009,0.8
29,13176.00,13176.00,0.00,1.306,3947,0.003,0.160,0.010,1.123,0.010,1.0
30,13255.00,13255.00,0.00,1.349,3971,0.003,0.146,0.009,1.181,0.010,0.9
31,13665.00,13665.00,0.00,1.272,4094,0.003,0.108,0.010,1.140,0.010,0.7
32,13568.00,13568.00,0.00,1.263,4065,0.003,0.108,0.011,1.129,0.011,0.7
33,13190.00,13190.00,0.00,1.283,3951,0.003,0.124,0.010,1.137,0.010,0.9
34,13660.00,13660.00,0.00,1.268,4092,0.003,0.105,0.010,1.141,0.009,0.8
35,13620.00,13620.00,0.00,1.296,4080,0.003,0.125,0.009,1.150,0.009,0.7
36,13694.00,13694.00,0.00,1.293,4103,0.003,0.087,0.009,1.184,0.010,0.7
37,14842.00,14842.00,0.00,1.054,4446,0.004,0.133,0.010,0.897,0.009,0.9
38,13271.00,13271.00,0.00,1.301,3976,0.003,0.118,0.010,1.161,0.010,0.7
39,13240.00,13236.00,4.00,1.338,3966,0.003,0.145,0.010,1.170,0.010,1.0
40,13401.00,13391.00,10.00,1.323,4012,0.003,0.094,0.010,1.207,0.010,0.7
41,13091.00,13085.00,6.00,1.375,3920,0.003,0.096,0.009,1.256,0.010,0.8
42,13021.00,13009.00,12.00,1.394,3897,0.003,0.093,0.009,1.280,0.009,0.7
43,13602.00,13589.00,13.00,1.304,4071,0.003,0.115,0.010,1.166,0.010,0.8
44,13481.00,13468.00,13.00,1.307,4035,0.003,0.136,0.009,1.149,0.009,1.0
45,13317.00,13309.00,8.00,1.329,3987,0.003,0.109,0.009,1.198,0.009,0.8
46,13083.00,13078.00,5.00,1.357,3918,0.003,0.113,0.009,1.222,0.011,0.8
47,12834.00,12833.00,1.00,1.418,3844,0.003,0.092,0.009,1.304,0.009,0.7
48,13739.00,13739.00,0.00,1.272,4116,0.003,0.096,0.010,1.154,0.009,0.7
49,12784.00,12784.00,0.00,1.396,3830,0.003,0.097,0.010,1.277,0.009,0.9
50,13626.00,13626.00,0.00,1.249,4082,0.003,0.111,0.010,1.116,0.009,0.8
51,13537.00,13537.00,0.00,1.257,4055,0.003,0.099,0.011,1.135,0.009,0.8
52,12860.00,12860.00,0.00,1.395,3853,0.003,0.129,0.010,1.244,0.010,0.9
53,13908.00,13908.00,0.00,1.210,4167,0.003,0.159,0.010,1.029,0.009,1.0
54,13390.00,13390.00,0.00,1.294,4011,0.003,0.104,0.010,1.168,0.009,0.7
55,13886.00,13886.00,0.00,1.219,4160,0.003,0.115,0.009,1.081,0.010,0.9
56,13231.00,13231.00,0.00,1.357,3964,0.003,0.112,0.009,1.223,0.009,0.9
57,13386.00,13386.00,0.00,1.328,4010,0.003,0.120,0.010,1.186,0.009,0.9
58,13128.00,13128.00,0.00,1.376,3933,0.003,0.117,0.010,1.237,0.010,0.8
59,13947.00,13947.00,0.00,1.194,4178,0.003,0.136,0.010,1.033,0.013,0.9
60,13766.00,13766.00,0.00,1.277,4124,0.003,0.114,0.010,1.142,0.009,0.8
61,13920.00,13920.00,0.00,1.201,4170,0.003,0.101,0.011,1.077,0.009,0.7
62,12532.00,12532.00,0.00,1.409,3754,0.003,0.099,0.011,1.286,0.010,0.8
63,13783.00,13783.00,0.00,1.244,4129,0.003,0.113,0.012,1.106,0.010,0.8
64,13639.00,13639.00,0.00,1.267,4086,0.003,0.127,0.009,1.119,0.010,0.9
65,13670.00,13670.00,0.00,1.265,4095,0.003,0.102,0.009,1.141,0.009,0.8
66,13068.00,13068.00,0.00,1.368,3915,0.003,0.098,0.009,1.248,0.009,0.9
67,12709.00,12709.00,0.00,1.391,3807,0.003,0.105,0.009,1.265,0.009,0.8
68,13481.00,13481.00,0.00,1.307,4039,0.003,0.120,0.010,1.166,0.009,0.8
69,13379.00,13379.00,0.00,1.256,4008,0.004,0.107,0.010,1.125,0.010,0.8
70,13457.00,13457.00,0.00,1.303,4032,0.003,0.098,0.010,1.183,0.009,0.8
71,13383.00,13383.00,0.00,1.272,4010,0.003,0.159,0.010,1.091,0.009,0.9
72,13574.00,13574.00,0.00,1.323,4067,0.003,0.082,0.009,1.220,0.009,0.7
73,13745.00,13745.00,0.00,1.304,4118,0.003,0.119,0.009,1.163,0.009,0.8
74,8456.00,8456.00,0.00,1.376,2533,0.003,0.125,0.009,1.230,0.009,1.0
