Second,Ops/sec,Hits/sec,Misses/sec,Latency,KB/sec,Request_Creation_Time,Request_Buffer_Time,MW_Writes_To_Memcached_Time,Memcached_Process_Time,MW_Writes_To_Memtier_Time,Queue_Size
4,2779.00,2779.00,0.00,1.567,2920,0.021,0.388,0.050,1.067,0.041,1.5
5,10857.00,10857.00,0.00,1.429,11406,0.004,0.136,0.012,1.263,0.012,0.8
6,11120.00,11120.00,0.00,1.665,11682,0.004,0.131,0.010,1.510,0.010,0.9
7,11129.00,11129.00,0.00,1.659,11692,0.004,0.134,0.010,1.501,0.010,0.8
8,11192.00,11192.00,0.00,1.633,11758,0.003,0.144,0.010,1.466,0.010,1.0
9,11082.00,11079.00,3.00,1.618,11639,0.004,0.199,0.011,1.395,0.010,1.1
10,11107.00,11086.00,21.00,1.563,11646,0.003,0.120,0.012,1.417,0.010,0.9
11,11130.00,11130.00,0.00,1.579,11693,0.003,0.136,0.011,1.419,0.010,1.1
12,11183.00,11183.00,0.00,1.641,11749,0.003,0.174,0.010,1.444,0.010,1.2
13,11103.00,11103.00,0.00,1.664,11665,0.003,0.166,0.010,1.474,0.010,1.1
14,11096.00,11096.00,0.00,1.648,11657,0.003,0.128,0.010,1.497,0.010,1.0
15,11150.00,11150.00,0.00,1.692,11714,0.003,0.122,0.010,1.548,0.011,1.0
16,11117.00,11117.00,0.00,1.651,11679,0.003,0.148,0.010,1.480,0.010,0.9
17,11001.00,11001.00,0.00,1.648,11557,0.003,0.128,0.011,1.497,0.010,0.9
18,11224.00,11224.00,0.00,1.634,11791,0.003,0.150,0.010,1.460,0.011,1.2
19,11126.00,11124.00,2.00,1.679,11687,0.003,0.130,0.010,1.526,0.009,0.8
20,11111.00,11095.00,16.00,1.655,11656,0.003,0.135,0.011,1.497,0.010,0.9
21,11153.00,11147.00,6.00,1.657,11710,0.003,0.140,0.010,1.494,0.010,1.1
22,11152.00,11152.00,0.00,1.683,11716,0.003,0.127,0.010,1.534,0.010,0.8
23,11076.00,11076.00,0.00,1.642,11636,0.003,0.162,0.010,1.458,0.010,1.1
24,11120.00,11120.00,0.00,1.674,11682,0.003,0.133,0.010,1.518,0.011,0.9
25,10980.00,10980.00,0.00,1.686,11535,0.003,0.101,0.010,1.562,0.010,0.7
26,11420.00,11420.00,0.00,1.607,11998,0.003,0.116,0.011,1.468,0.010,0.7
27,11133.00,11133.00,0.00,1.674,11696,0.003,0.119,0.011,1.532,0.010,0.7
28,11019.00,11019.00,0.00,1.688,11576,0.003,0.150,0.010,1.515,0.010,0.9
29,11225.00,11225.00,0.00,1.630,11793,0.003,0.149,0.010,1.459,0.010,0.8
30,11102.00,11102.00,0.00,1.660,11664,0.003,0.135,0.010,1.502,0.009,0.9
31,11027.00,11027.00,0.00,1.671,11585,0.003,0.147,0.010,1.501,0.010,1.0
32,11134.00,11134.00,0.00,1.641,11697,0.003,0.112,0.010,1.506,0.009,0.9
33,11265.00,11265.00,0.00,1.541,11835,0.004,0.177,0.011,1.338,0.011,1.1
34,11077.00,11077.00,0.00,1.632,11637,0.003,0.168,0.011,1.440,0.011,1.3
35,11167.00,11167.00,0.00,1.648,11732,0.003,0.116,0.010,1.509,0.010,0.8
36,11113.00,11113.00,0.00,1.662,11675,0.003,0.138,0.010,1.501,0.010,1.0
37,11110.00,11110.00,0.00,1.698,11672,0.003,0.114,0.010,1.562,0.010,0.9
38,11105.00,11105.00,0.00,1.699,11667,0.003,0.100,0.010,1.577,0.010,0.8
39,11095.00,11095.00,0.00,1.622,11656,0.003,0.160,0.011,1.438,0.010,1.0
40,11141.00,11141.00,0.00,1.665,11704,0.003,0.137,0.010,1.506,0.010,0.8
41,11126.00,11126.00,0.00,1.582,11689,0.003,0.217,0.011,1.341,0.011,1.4
42,11104.00,11104.00,0.00,1.651,11665,0.003,0.133,0.010,1.496,0.010,0.8
43,11137.00,11137.00,0.00,1.678,11700,0.003,0.135,0.010,1.520,0.009,0.9
44,11156.00,11156.00,0.00,1.665,11720,0.003,0.135,0.010,1.507,0.010,0.9
45,11061.00,11061.00,0.00,1.654,11620,0.003,0.133,0.010,1.499,0.009,1.0
46,11157.00,11155.00,2.00,1.637,11719,0.003,0.126,0.011,1.486,0.011,0.9
47,11076.00,11067.00,9.00,1.667,11627,0.003,0.165,0.010,1.479,0.010,1.2
48,11148.00,11143.00,5.00,1.680,11707,0.003,0.108,0.010,1.550,0.009,0.9
49,11110.00,11105.00,5.00,1.665,11667,0.003,0.116,0.011,1.526,0.010,0.7
50,11159.00,11146.00,13.00,1.655,11710,0.003,0.134,0.011,1.497,0.009,0.8
51,11143.00,11134.00,9.00,1.602,11697,0.004,0.137,0.013,1.438,0.011,1.0
52,11147.00,11137.00,10.00,1.660,11700,0.003,0.124,0.010,1.514,0.010,0.7
53,11123.00,11114.00,9.00,1.653,11676,0.003,0.113,0.010,1.517,0.010,0.8
54,11099.00,11094.00,5.00,1.666,11655,0.003,0.138,0.010,1.506,0.010,0.9
55,11133.00,11128.00,5.00,1.675,11691,0.003,0.108,0.010,1.544,0.010,0.7
56,11105.00,11105.00,0.00,1.651,11666,0.003,0.137,0.010,1.491,0.010,0.7
57,11125.00,11125.00,0.00,1.651,11687,0.003,0.145,0.010,1.483,0.010,0.8
58,11135.00,11135.00,0.00,1.648,11698,0.003,0.139,0.010,1.485,0.010,0.9
59,11127.00,11127.00,0.00,1.683,11689,0.003,0.116,0.010,1.545,0.010,0.8
60,11079.00,11079.00,0.00,1.703,11639,0.003,0.110,0.010,1.570,0.010,0.8
61,11159.00,11159.00,0.00,1.636,11723,0.003,0.144,0.011,1.467,0.011,1.0
62,11105.00,11105.00,0.00,1.656,11666,0.003,0.134,0.010,1.500,0.010,0.9
63,11154.00,11154.00,0.00,1.668,11718,0.003,0.126,0.010,1.520,0.010,1.0
64,11089.00,11089.00,0.00,1.704,11650,0.003,0.102,0.010,1.580,0.009,0.8
65,11100.00,11100.00,0.00,1.711,11661,0.003,0.114,0.010,1.575,0.010,0.7
66,11151.00,11151.00,0.00,1.664,11715,0.003,0.111,0.010,1.530,0.010,0.7
67,11082.00,11082.00,0.00,1.657,11642,0.003,0.157,0.010,1.478,0.010,1.0
68,11071.00,11071.00,0.00,1.658,11631,0.003,0.174,0.010,1.463,0.010,1.1
69,11197.00,11197.00,0.00,1.621,11763,0.003,0.119,0.010,1.479,0.010,0.8
70,11126.00,11126.00,0.00,1.606,11689,0.003,0.154,0.010,1.430,0.010,0.9
71,11089.00,11089.00,0.00,1.678,11650,0.003,0.120,0.010,1.536,0.010,0.9
72,11124.00,11124.00,0.00,1.647,11686,0.003,0.168,0.010,1.457,0.010,1.1
73,11136.00,11136.00,0.00,1.611,11699,0.003,0.191,0.011,1.397,0.010,1.1
74,7421.00,7421.00,0.00,1.641,7796,0.003,0.136,0.010,1.481,0.011,1.0
