Second,Ops/sec,Hits/sec,Misses/sec,Latency,KB/sec,Request_Creation_Time,Request_Buffer_Time,MW_Writes_To_Memcached_Time,Memcached_Process_Time,MW_Writes_To_Memtier_Time,Queue_Size
4,2795.00,2795.00,0.00,1.164,311,0.014,0.244,0.025,0.829,0.053,1.6
5,11782.00,11782.00,0.00,1.255,1310,0.006,0.160,0.013,1.065,0.011,1.0
6,13943.00,13943.00,0.00,1.209,1549,0.004,0.155,0.010,1.030,0.010,1.0
7,13845.00,13845.00,0.00,1.256,1538,0.004,0.122,0.010,1.111,0.010,0.8
8,13006.00,13006.00,0.00,1.372,1445,0.003,0.102,0.011,1.246,0.009,0.7
9,12884.00,12860.00,24.00,1.344,1428,0.005,0.116,0.011,1.203,0.009,0.7
10,13464.00,13464.00,0.00,1.140,1496,0.004,0.130,0.011,0.986,0.010,0.9
11,13759.00,13759.00,0.00,1.272,1529,0.003,0.119,0.010,1.132,0.009,0.9
12,13008.00,13008.00,0.00,1.329,1445,0.003,0.143,0.009,1.165,0.009,1.1
13,13182.00,13182.00,0.00,1.364,1464,0.003,0.107,0.011,1.233,0.010,0.8
14,13816.00,13816.00,0.00,1.266,1535,0.003,0.107,0.009,1.138,0.009,0.8
15,14001.00,14001.00,0.00,1.241,1556,0.003,0.096,0.010,1.122,0.010,0.8
16,13858.00,13858.00,0.00,1.266,1540,0.003,0.145,0.010,1.099,0.009,1.1
17,14050.00,14039.00,11.00,1.229,1560,0.003,0.145,0.009,1.063,0.009,1.1
18,13836.00,13823.00,13.00,1.264,1536,0.003,0.121,0.010,1.121,0.010,0.9
19,14253.00,14253.00,0.00,1.177,1584,0.003,0.129,0.009,1.025,0.010,1.0
20,13647.00,13647.00,0.00,1.295,1516,0.003,0.126,0.009,1.147,0.009,0.8
21,13983.00,13983.00,0.00,1.228,1554,0.003,0.125,0.010,1.081,0.009,1.0
22,14289.00,14289.00,0.00,1.194,1588,0.003,0.134,0.011,1.036,0.010,0.8
23,13628.00,13628.00,0.00,1.267,1515,0.003,0.093,0.009,1.153,0.009,0.8
24,14095.00,14095.00,0.00,1.237,1566,0.003,0.106,0.011,1.108,0.009,0.8
25,13895.00,13895.00,0.00,1.236,1544,0.003,0.099,0.009,1.115,0.010,0.8
26,13886.00,13886.00,0.00,1.232,1543,0.003,0.106,0.010,1.103,0.011,0.7
27,13942.00,13942.00,0.00,1.190,1549,0.003,0.132,0.009,1.035,0.010,0.9
28,13078.00,13078.00,0.00,1.369,1453,0.003,0.106,0.011,1.241,0.009,0.8
29,14032.00,14032.00,0.00,1.199,1559,0.003,0.089,0.010,1.089,0.009,0.8
30,14755.00,14755.00,0.00,1.163,1640,0.003,0.130,0.010,1.011,0.009,0.9
31,14026.00,14026.00,0.00,1.205,1559,0.003,0.107,0.010,1.075,0.010,0.8
32,13820.00,13820.00,0.00,1.272,1535,0.003,0.116,0.009,1.135,0.009,0.9
33,14165.00,14165.00,0.00,1.228,1574,0.003,0.118,0.010,1.087,0.010,1.0
34,13342.00,13342.00,0.00,1.328,1482,0.003,0.132,0.009,1.174,0.010,0.9
35,14305.00,14305.00,0.00,1.201,1589,0.003,0.098,0.010,1.081,0.009,0.8
36,14253.00,14253.00,0.00,1.173,1584,0.003,0.125,0.010,1.025,0.010,0.8
37,13972.00,13972.00,0.00,1.199,1553,0.003,0.141,0.009,1.036,0.010,1.1
38,13511.00,13508.00,3.00,1.304,1501,0.003,0.102,0.009,1.181,0.009,0.8
39,13892.00,13884.00,8.00,1.234,1543,0.003,0.122,0.010,1.090,0.009,1.0
40,13819.00,13811.00,8.00,1.238,1535,0.003,0.111,0.011,1.103,0.009,0.8
41,14318.00,14303.00,15.00,1.149,1589,0.003,0.123,0.011,1.002,0.010,0.9
42,14670.00,14661.00,9.00,1.118,1629,0.003,0.142,0.010,0.951,0.012,1.0
43,12909.00,12897.00,12.00,1.389,1433,0.003,0.124,0.010,1.243,0.009,0.8
44,13498.00,13488.00,10.00,1.281,1499,0.004,0.103,0.010,1.156,0.009,0.8
45,14546.00,14540.00,6.00,1.120,1615,0.003,0.121,0.010,0.977,0.009,0.9
46,13772.00,13771.00,1.00,1.280,1530,0.003,0.134,0.010,1.123,0.010,1.1
47,14287.00,14287.00,0.00,1.194,1587,0.003,0.114,0.010,1.057,0.010,0.9
48,13992.00,13992.00,0.00,1.254,1554,0.003,0.118,0.010,1.114,0.009,0.9
49,14706.00,14706.00,0.00,1.088,1634,0.003,0.114,0.010,0.950,0.009,0.8
50,14417.00,14417.00,0.00,1.178,1602,0.003,0.154,0.010,1.001,0.010,1.2
51,14621.00,14621.00,0.00,1.189,1624,0.003,0.108,0.010,1.059,0.009,0.7
52,14632.00,14632.00,0.00,1.158,1626,0.003,0.113,0.009,1.023,0.009,0.8
53,13974.00,13974.00,0.00,1.217,1553,0.003,0.116,0.009,1.079,0.010,0.8
54,14338.00,14338.00,0.00,1.214,1593,0.003,0.104,0.011,1.087,0.010,0.8
55,14588.00,14588.00,0.00,1.184,1621,0.003,0.114,0.010,1.047,0.010,0.8
56,14244.00,14244.00,0.00,1.232,1583,0.003,0.097,0.011,1.112,0.010,0.9
57,14161.00,14161.00,0.00,1.180,1573,0.003,0.126,0.009,1.032,0.010,1.0
58,13629.00,13629.00,0.00,1.265,1514,0.003,0.104,0.010,1.139,0.010,0.9
59,13881.00,13881.00,0.00,1.239,1542,0.003,0.124,0.009,1.094,0.009,0.9
60,13915.00,13915.00,0.00,1.201,1546,0.003,0.139,0.010,1.040,0.009,1.0
61,13544.00,13544.00,0.00,1.311,1505,0.003,0.098,0.009,1.193,0.009,0.8
62,14349.00,14349.00,0.00,1.177,1594,0.004,0.123,0.009,1.031,0.010,0.9
63,14161.00,14161.00,0.00,1.210,1573,0.003,0.112,0.010,1.076,0.009,0.8
64,13361.00,13361.00,0.00,1.321,1485,0.003,0.096,0.011,1.202,0.009,0.7
65,14857.00,14857.00,0.00,1.098,1651,0.003,0.119,0.010,0.955,0.011,1.0
66,14283.00,14283.00,0.00,1.173,1587,0.003,0.139,0.009,1.013,0.010,1.0
67,13899.00,13899.00,0.00,1.233,1544,0.003,0.112,0.010,1.098,0.009,0.8
68,13768.00,13768.00,0.00,1.276,1530,0.003,0.129,0.009,1.124,0.010,1.0
69,14610.00,14610.00,0.00,1.146,1623,0.003,0.113,0.010,1.011,0.010,0.8
70,14014.00,14014.00,0.00,1.248,1557,0.003,0.105,0.009,1.122,0.009,0.8
71,13449.00,13449.00,0.00,1.311,1494,0.003,0.105,0.011,1.184,0.009,0.8
72,13609.00,13609.00,0.00,1.297,1512,0.003,0.110,0.009,1.166,0.009,0.9
73,13401.00,13401.00,0.00,1.293,1489,0.003,0.149,0.010,1.121,0.011,1.1
74,9901.00,9901.00,0.00,1.212,1100,0.003,0.128,0.011,1.060,0.011,0.8
