Second,Ops/sec,Hits/sec,Misses/sec,Latency,KB/sec,Request_Creation_Time,Request_Buffer_Time,MW_Writes_To_Memcached_Time,Memcached_Process_Time,MW_Writes_To_Memtier_Time,Queue_Size
4,2763.00,2763.00,0.00,1.680,307,0.022,0.341,0.042,1.221,0.054,1.4
5,12420.00,12420.00,0.00,1.201,1380,0.004,0.193,0.012,0.979,0.013,1.2
6,13506.00,13506.00,0.00,1.250,1500,0.004,0.145,0.010,1.082,0.010,1.0
7,12513.00,12513.00,0.00,1.353,1390,0.003,0.169,0.011,1.160,0.010,1.3
8,13493.00,13493.00,0.00,1.257,1500,0.004,0.138,0.011,1.095,0.010,1.1
9,12379.00,12355.00,24.00,1.354,1372,0.003,0.093,0.011,1.236,0.011,0.7
10,12572.00,12572.00,0.00,1.374,1396,0.003,0.080,0.010,1.272,0.010,0.6
11,13400.00,13400.00,0.00,1.257,1489,0.003,0.094,0.010,1.140,0.010,0.9
12,13368.00,13368.00,0.00,1.309,1485,0.003,0.161,0.010,1.127,0.009,1.1
13,13732.00,13732.00,0.00,1.259,1526,0.003,0.117,0.010,1.119,0.010,0.9
14,13323.00,13323.00,0.00,1.289,1480,0.003,0.134,0.010,1.132,0.009,0.9
15,14703.00,14703.00,0.00,1.151,1634,0.003,0.124,0.010,1.005,0.010,1.1
16,13694.00,13694.00,0.00,1.260,1521,0.003,0.123,0.012,1.110,0.012,1.0
17,13296.00,13286.00,10.00,1.292,1477,0.004,0.127,0.010,1.141,0.009,1.0
18,14101.00,14087.00,14.00,1.189,1565,0.003,0.144,0.010,1.023,0.009,0.9
19,12876.00,12876.00,0.00,1.374,1431,0.003,0.147,0.009,1.204,0.010,1.0
20,14060.00,14060.00,0.00,1.201,1562,0.003,0.131,0.010,1.046,0.011,0.9
21,13864.00,13864.00,0.00,1.243,1541,0.003,0.110,0.011,1.110,0.009,0.9
22,13401.00,13401.00,0.00,1.316,1489,0.003,0.110,0.009,1.185,0.009,0.8
23,13849.00,13849.00,0.00,1.229,1539,0.003,0.146,0.010,1.060,0.011,1.0
24,13469.00,13469.00,0.00,1.312,1497,0.003,0.125,0.010,1.165,0.009,1.0
25,13099.00,13099.00,0.00,1.345,1456,0.003,0.117,0.010,1.207,0.009,0.9
26,13591.00,13591.00,0.00,1.295,1510,0.003,0.118,0.010,1.155,0.009,0.9
27,13783.00,13783.00,0.00,1.283,1531,0.003,0.121,0.009,1.140,0.010,1.0
28,13196.00,13196.00,0.00,1.338,1466,0.003,0.118,0.009,1.198,0.009,1.0
29,13394.00,13394.00,0.00,1.322,1488,0.003,0.123,0.010,1.176,0.010,0.9
30,14452.00,14452.00,0.00,1.159,1606,0.003,0.123,0.009,1.014,0.010,0.9
31,14032.00,14032.00,0.00,1.202,1559,0.003,0.108,0.012,1.069,0.011,0.9
32,13024.00,13024.00,0.00,1.340,1447,0.003,0.144,0.010,1.174,0.009,1.1
33,14435.00,14435.00,0.00,1.114,1604,0.003,0.139,0.011,0.952,0.009,1.2
34,12840.00,12840.00,0.00,1.354,1427,0.003,0.145,0.011,1.185,0.010,1.2
35,13225.00,13225.00,0.00,1.349,1469,0.003,0.118,0.010,1.210,0.009,1.0
36,13749.00,13749.00,0.00,1.213,1528,0.004,0.124,0.010,1.066,0.010,0.9
37,13771.00,13771.00,0.00,1.246,1530,0.003,0.115,0.009,1.108,0.010,0.8
38,13252.00,13252.00,0.00,1.329,1473,0.003,0.107,0.010,1.200,0.009,0.8
39,13755.00,13750.00,5.00,1.224,1528,0.003,0.123,0.010,1.079,0.010,1.0
40,13520.00,13511.00,9.00,1.331,1502,0.003,0.128,0.009,1.181,0.009,1.1
41,13436.00,13428.00,8.00,1.283,1492,0.003,0.111,0.010,1.150,0.009,0.9
42,14341.00,14330.00,11.00,1.150,1592,0.003,0.122,0.011,1.004,0.011,1.0
43,13655.00,13641.00,14.00,1.279,1516,0.003,0.098,0.010,1.160,0.009,0.7
44,13733.00,13720.00,13.00,1.280,1524,0.003,0.096,0.010,1.162,0.009,0.8
45,13468.00,13459.00,9.00,1.299,1495,0.003,0.122,0.009,1.155,0.009,1.0
46,14329.00,14326.00,3.00,1.204,1592,0.003,0.112,0.011,1.069,0.010,1.0
47,13455.00,13455.00,0.00,1.309,1495,0.003,0.108,0.010,1.180,0.009,0.8
48,14137.00,14137.00,0.00,1.217,1571,0.003,0.081,0.010,1.114,0.009,0.6
49,13970.00,13970.00,0.00,1.230,1552,0.003,0.132,0.009,1.075,0.011,0.9
50,12774.00,12774.00,0.00,1.404,1419,0.003,0.139,0.010,1.243,0.009,1.0
51,14053.00,14053.00,0.00,1.179,1561,0.003,0.117,0.010,1.037,0.012,0.9
52,13985.00,13985.00,0.00,1.229,1554,0.003,0.117,0.010,1.090,0.009,0.9
53,14204.00,14204.00,0.00,1.220,1578,0.003,0.111,0.010,1.086,0.010,0.8
54,13820.00,13820.00,0.00,1.222,1536,0.004,0.117,0.010,1.080,0.011,1.0
55,13796.00,13796.00,0.00,1.213,1533,0.003,0.117,0.010,1.074,0.009,0.8
56,12745.00,12745.00,0.00,1.334,1416,0.003,0.130,0.010,1.181,0.010,1.0
57,15203.00,15203.00,0.00,1.007,1689,0.003,0.130,0.011,0.853,0.010,1.0
58,14037.00,14037.00,0.00,1.192,1560,0.003,0.097,0.009,1.072,0.010,0.7
59,13574.00,13574.00,0.00,1.278,1508,0.003,0.123,0.010,1.132,0.009,0.9
60,13615.00,13615.00,0.00,1.272,1513,0.003,0.108,0.010,1.141,0.010,0.9
61,13846.00,13846.00,0.00,1.162,1538,0.003,0.140,0.010,0.997,0.010,1.1
62,13839.00,13839.00,0.00,1.249,1538,0.003,0.116,0.010,1.111,0.010,0.8
63,13933.00,13933.00,0.00,1.234,1548,0.003,0.120,0.011,1.092,0.010,0.9
64,13594.00,13594.00,0.00,1.284,1511,0.003,0.113,0.009,1.149,0.010,0.9
65,13100.00,13100.00,0.00,1.315,1456,0.003,0.146,0.010,1.147,0.009,1.0
66,13714.00,13714.00,0.00,1.236,1524,0.004,0.157,0.009,1.056,0.009,1.1
67,12559.00,12559.00,0.00,1.377,1395,0.003,0.155,0.009,1.200,0.010,1.0
68,13396.00,13396.00,0.00,1.257,1488,0.003,0.117,0.010,1.117,0.010,0.8
69,13659.00,13659.00,0.00,1.232,1518,0.003,0.127,0.009,1.082,0.009,0.9
70,13987.00,13987.00,0.00,1.260,1554,0.003,0.106,0.010,1.132,0.009,0.8
71,13330.00,13330.00,0.00,1.275,1481,0.003,0.133,0.011,1.120,0.009,0.9
72,13777.00,13777.00,0.00,1.170,1531,0.003,0.129,0.012,1.014,0.012,0.8
73,13580.00,13580.00,0.00,1.258,1509,0.003,0.123,0.012,1.109,0.010,0.9
74,9094.00,9094.00,0.00,1.267,1010,0.003,0.095,0.009,1.151,0.009,0.7
