Second,Ops/sec,Hits/sec,Misses/sec,Latency,KB/sec,Request_Creation_Time,Request_Buffer_Time,MW_Writes_To_Memcached_Time,Memcached_Process_Time,MW_Writes_To_Memtier_Time,Queue_Size
4,4179.00,4179.00,0.00,4.361,4391,0.016,1.822,0.037,2.447,0.039,17.8
5,11122.00,11122.00,0.00,13.518,11685,0.004,7.771,0.009,5.724,0.010,61.5
6,11121.00,11121.00,0.00,16.598,11684,0.003,10.843,0.006,5.736,0.009,91.4
7,11122.00,11122.00,0.00,16.466,11685,0.005,10.714,0.006,5.732,0.009,90.4
8,11118.00,11118.00,0.00,16.368,11680,0.003,10.579,0.006,5.771,0.009,89.1
9,11122.00,11122.00,0.00,16.341,11684,0.003,10.610,0.007,5.712,0.010,87.6
10,11122.00,11122.00,0.00,16.410,11684,0.003,10.660,0.006,5.732,0.009,88.6
11,11119.00,11119.00,0.00,16.300,11681,0.003,10.542,0.006,5.740,0.009,91.5
12,11122.00,11122.00,0.00,16.091,11685,0.003,10.331,0.006,5.742,0.010,87.6
13,11293.00,11293.00,0.00,15.473,11865,0.003,9.811,0.006,5.642,0.011,87.2
14,11118.00,11118.00,0.00,16.265,11681,0.002,10.505,0.007,5.741,0.010,91.8
15,11121.00,11121.00,0.00,16.197,11683,0.002,10.436,0.006,5.743,0.009,90.3
16,11297.00,11297.00,0.00,15.927,11868,0.003,10.276,0.006,5.633,0.009,89.7
17,11118.00,11118.00,0.00,16.405,11681,0.003,10.632,0.007,5.753,0.010,91.9
18,11122.00,11122.00,0.00,16.235,11685,0.002,10.492,0.006,5.725,0.009,91.5
19,11122.00,11122.00,0.00,16.421,11683,0.003,10.666,0.007,5.737,0.009,90.9
20,11119.00,11119.00,0.00,16.264,11680,0.002,10.484,0.006,5.762,0.010,89.3
21,11120.00,11120.00,0.00,15.338,11682,0.002,9.604,0.008,5.713,0.010,85.3
22,11124.00,11124.00,0.00,14.413,11686,0.003,8.673,0.007,5.718,0.013,76.9
23,11111.00,11111.00,0.00,15.294,11673,0.002,9.506,0.006,5.770,0.009,80.2
24,11129.00,11129.00,0.00,16.050,11692,0.002,10.327,0.006,5.705,0.009,91.3
25,11122.00,11122.00,0.00,16.615,11685,0.003,10.852,0.006,5.745,0.009,94.7
26,11079.00,11079.00,0.00,16.618,11639,0.002,10.858,0.006,5.743,0.010,95.8
27,11161.00,11161.00,0.00,16.639,11725,0.002,10.884,0.007,5.736,0.009,95.9
28,11122.00,11122.00,0.00,16.560,11684,0.003,10.819,0.006,5.723,0.009,92.7
29,11123.00,11123.00,0.00,16.644,11685,0.002,10.893,0.006,5.733,0.009,93.3
30,11118.00,11118.00,0.00,16.585,11680,0.002,10.833,0.006,5.735,0.009,92.7
31,11122.00,11122.00,0.00,16.621,11684,0.003,10.870,0.006,5.733,0.009,92.5
32,11122.00,11122.00,0.00,16.643,11685,0.003,10.887,0.006,5.739,0.009,92.5
33,11118.00,11118.00,0.00,16.617,11680,0.002,10.860,0.006,5.739,0.009,92.9
34,11122.00,11122.00,0.00,16.574,11684,0.003,10.819,0.007,5.735,0.009,91.6
35,11122.00,11122.00,0.00,16.642,11684,0.003,10.894,0.006,5.730,0.009,91.8
36,11118.00,11118.00,0.00,16.590,11681,0.003,10.831,0.007,5.740,0.010,92.5
37,11122.00,11122.00,0.00,16.621,11685,0.002,10.868,0.007,5.735,0.009,92.4
38,11122.00,11122.00,0.00,16.580,11685,0.002,10.831,0.007,5.731,0.009,91.8
39,11118.00,11118.00,0.00,16.612,11681,0.002,10.853,0.006,5.741,0.009,93.0
40,11122.00,11122.00,0.00,16.530,11685,0.003,10.771,0.006,5.741,0.009,91.2
41,11121.00,11121.00,0.00,16.607,11683,0.003,10.857,0.006,5.732,0.009,91.2
42,11117.00,11117.00,0.00,16.548,11679,0.003,10.791,0.006,5.737,0.011,92.2
43,11121.00,11121.00,0.00,16.533,11684,0.003,10.784,0.006,5.731,0.009,90.9
44,11122.00,11122.00,0.00,16.506,11685,0.003,10.753,0.006,5.736,0.009,90.6
45,11120.00,11118.00,2.00,16.538,11680,0.003,10.775,0.006,5.746,0.009,91.8
46,11142.00,11122.00,20.00,16.387,11684,0.003,10.652,0.007,5.714,0.011,91.3
47,11176.00,11118.00,58.00,16.533,11680,0.003,10.805,0.007,5.709,0.010,91.9
48,11170.00,11115.00,55.00,16.536,11677,0.002,10.820,0.007,5.698,0.009,92.1
49,11161.00,11120.00,41.00,16.532,11682,0.003,10.782,0.007,5.731,0.009,91.5
50,11134.00,11121.00,13.00,16.446,11683,0.003,10.731,0.007,5.695,0.009,91.9
51,11121.00,11118.00,3.00,16.646,11680,0.003,10.888,0.007,5.739,0.009,93.4
52,11123.00,11123.00,0.00,16.600,11685,0.003,10.849,0.007,5.731,0.010,91.7
53,11122.00,11122.00,0.00,16.604,11683,0.003,10.849,0.007,5.736,0.009,92.4
54,11123.00,11123.00,0.00,16.591,11684,0.003,10.835,0.007,5.737,0.010,91.6
55,11118.00,11118.00,0.00,16.632,11679,0.002,10.876,0.006,5.738,0.009,92.0
56,11122.00,11122.00,0.00,16.633,11684,0.003,10.880,0.006,5.734,0.009,92.9
57,11123.00,11123.00,0.00,16.544,11685,0.003,10.784,0.008,5.740,0.010,91.0
58,11118.00,11118.00,0.00,16.578,11680,0.003,10.824,0.006,5.736,0.009,91.8
59,11122.00,11122.00,0.00,16.566,11684,0.002,10.827,0.006,5.721,0.009,93.0
60,11122.00,11122.00,0.00,16.593,11684,0.003,10.839,0.006,5.735,0.009,91.8
61,11118.00,11118.00,0.00,16.568,11680,0.003,10.808,0.006,5.741,0.009,92.0
62,11296.00,11296.00,0.00,16.379,11867,0.003,10.714,0.007,5.645,0.010,92.3
63,11122.00,11122.00,0.00,16.588,11684,0.003,10.833,0.006,5.737,0.009,91.5
64,11118.00,11118.00,0.00,16.537,11680,0.003,10.780,0.006,5.738,0.009,90.7
65,11123.00,11123.00,0.00,16.638,11685,0.003,10.882,0.006,5.737,0.009,92.2
66,11121.00,11121.00,0.00,16.574,11683,0.003,10.816,0.006,5.740,0.010,90.1
67,11119.00,11119.00,0.00,16.629,11681,0.003,10.870,0.006,5.741,0.009,92.0
68,11122.00,11122.00,0.00,16.580,11685,0.002,10.827,0.006,5.733,0.010,92.6
69,11122.00,11122.00,0.00,16.652,11685,0.002,10.901,0.006,5.733,0.009,94.2
70,11117.00,11117.00,0.00,16.599,11680,0.003,10.840,0.007,5.740,0.010,92.3
71,11122.00,11122.00,0.00,16.654,11685,0.003,10.900,0.006,5.735,0.010,92.0
72,11122.00,11122.00,0.00,16.624,11685,0.003,10.865,0.006,5.740,0.009,92.1
73,11116.00,11116.00,0.00,16.580,11678,0.004,10.820,0.006,5.740,0.009,92.3
74,11122.00,11122.00,0.00,11.850,11685,0.002,6.938,0.007,4.892,0.009,58.0
75,7181.00,7181.00,0.00,3.512,7544,0.003,0.200,0.010,3.291,0.009,2.5
