Second,Ops/sec,Hits/sec,Misses/sec,Latency,KB/sec,Request_Creation_Time,Request_Buffer_Time,MW_Writes_To_Memcached_Time,Memcached_Process_Time,MW_Writes_To_Memtier_Time,Queue_Size
4,4135.00,4135.00,0.00,2.874,2273,0.015,0.841,0.069,1.888,0.061,7.2
5,17177.00,17177.00,0.00,3.069,9441,0.005,0.701,0.014,2.337,0.013,6.1
6,20606.00,20606.00,0.00,3.972,11325,0.003,1.184,0.009,2.766,0.010,9.7
7,20460.00,20460.00,0.00,3.911,11245,0.004,1.144,0.009,2.743,0.011,10.4
8,20304.00,20304.00,0.00,4.089,11159,0.003,1.170,0.008,2.898,0.009,9.6
9,20641.00,20641.00,0.00,3.893,11344,0.004,1.032,0.008,2.838,0.009,8.7
10,20335.00,20335.00,0.00,4.080,11176,0.003,1.186,0.009,2.873,0.009,9.6
11,20471.00,20471.00,0.00,4.094,11250,0.003,1.186,0.008,2.888,0.009,10.0
12,20571.00,20571.00,0.00,4.021,11306,0.003,1.150,0.009,2.846,0.013,9.7
13,20457.00,20457.00,0.00,4.066,11243,0.003,1.202,0.008,2.843,0.010,9.9
14,20416.00,20416.00,0.00,4.147,11221,0.003,1.210,0.008,2.917,0.009,9.6
15,20314.00,20303.00,11.00,3.546,11158,0.004,0.922,0.013,2.592,0.015,9.2
16,20574.00,20529.00,45.00,4.016,11282,0.003,1.133,0.009,2.860,0.011,9.4
17,20618.00,20583.00,35.00,3.949,11311,0.003,1.128,0.010,2.798,0.010,9.6
18,20297.00,20292.00,5.00,3.968,11151,0.004,1.164,0.010,2.777,0.012,10.3
19,20471.00,20471.00,0.00,4.007,11250,0.003,1.167,0.010,2.817,0.011,9.8
20,20585.00,20585.00,0.00,4.075,11313,0.003,1.196,0.009,2.857,0.010,9.6
21,20306.00,20306.00,0.00,4.153,11160,0.003,1.208,0.009,2.923,0.010,10.0
22,20642.00,20642.00,0.00,4.004,11345,0.003,1.177,0.010,2.803,0.012,9.9
23,20313.00,20313.00,0.00,4.118,11164,0.003,1.208,0.009,2.888,0.010,9.5
24,20611.00,20611.00,0.00,3.983,11328,0.004,1.166,0.010,2.792,0.011,10.1
25,20463.00,20463.00,0.00,4.070,11246,0.003,1.176,0.009,2.871,0.011,10.0
26,19992.00,19992.00,0.00,4.217,10987,0.003,1.241,0.009,2.954,0.010,9.6
27,20926.00,20926.00,0.00,3.933,11500,0.003,1.149,0.009,2.760,0.011,9.8
28,20346.00,20346.00,0.00,4.068,11181,0.003,1.180,0.010,2.864,0.011,9.7
29,20197.00,20197.00,0.00,4.069,11100,0.003,1.168,0.011,2.877,0.011,10.0
30,20729.00,20729.00,0.00,3.961,11392,0.003,1.125,0.009,2.813,0.011,9.2
31,20186.00,20186.00,0.00,4.219,11094,0.003,1.243,0.009,2.954,0.010,10.4
32,20660.00,20660.00,0.00,3.976,11354,0.003,1.144,0.010,2.808,0.011,10.0
33,20508.00,20508.00,0.00,4.083,11271,0.003,1.192,0.009,2.868,0.010,9.9
34,20424.00,20424.00,0.00,4.095,11224,0.003,1.201,0.009,2.871,0.010,10.2
35,20525.00,20524.00,1.00,4.078,11280,0.003,1.219,0.009,2.838,0.010,9.8
36,20557.00,20555.00,2.00,3.902,11297,0.004,1.107,0.009,2.770,0.011,10.0
37,20476.00,20463.00,13.00,3.995,11247,0.004,1.165,0.009,2.807,0.011,10.4
38,20483.00,20460.00,23.00,4.146,11245,0.003,1.234,0.009,2.891,0.009,10.0
39,20391.00,20368.00,23.00,4.089,11194,0.003,1.200,0.009,2.867,0.010,9.4
40,20419.00,20401.00,18.00,4.103,11212,0.003,1.260,0.009,2.822,0.010,11.2
41,20505.00,20492.00,13.00,4.055,11262,0.003,1.200,0.008,2.834,0.010,10.4
42,20486.00,20483.00,3.00,4.075,11257,0.003,1.180,0.009,2.874,0.010,10.0
43,20494.00,20494.00,0.00,4.024,11263,0.003,1.181,0.009,2.820,0.010,10.2
44,20400.00,20400.00,0.00,4.090,11212,0.003,1.213,0.010,2.852,0.011,10.1
45,20558.00,20558.00,0.00,4.110,11298,0.003,1.188,0.009,2.901,0.010,10.0
46,20334.00,20334.00,0.00,4.158,11176,0.003,1.234,0.009,2.903,0.010,10.3
47,20599.00,20599.00,0.00,4.119,11321,0.003,1.222,0.008,2.876,0.009,10.3
48,20455.00,20455.00,0.00,4.100,11242,0.003,1.202,0.008,2.878,0.009,10.0
49,20462.00,20462.00,0.00,3.957,11246,0.004,1.134,0.009,2.799,0.011,9.6
50,20453.00,20453.00,0.00,4.127,11241,0.003,1.212,0.008,2.896,0.009,10.1
51,20367.00,20367.00,0.00,4.036,11194,0.004,1.177,0.009,2.835,0.010,10.3
52,20403.00,20403.00,0.00,4.099,11214,0.003,1.211,0.008,2.867,0.009,10.0
53,20445.00,20445.00,0.00,4.093,11237,0.003,1.202,0.009,2.869,0.010,10.0
54,20409.00,20409.00,0.00,4.133,11217,0.003,1.239,0.009,2.873,0.009,10.4
55,20648.00,20648.00,0.00,3.984,11348,0.004,1.186,0.010,2.774,0.010,10.6
56,20487.00,20487.00,0.00,4.151,11260,0.003,1.266,0.008,2.864,0.010,10.3
57,20768.00,20768.00,0.00,3.976,11414,0.003,1.172,0.008,2.784,0.009,10.0
58,20296.00,20296.00,0.00,4.141,11155,0.003,1.218,0.008,2.902,0.009,10.1
59,20507.00,20507.00,0.00,4.016,11271,0.003,1.177,0.009,2.817,0.010,9.7
60,20232.00,20232.00,0.00,4.106,11120,0.003,1.176,0.008,2.908,0.010,9.5
61,20814.00,20814.00,0.00,4.024,11439,0.003,1.178,0.008,2.824,0.011,10.1
62,20421.00,20421.00,0.00,4.107,11223,0.003,1.199,0.008,2.887,0.010,9.6
63,20317.00,20317.00,0.00,4.184,11166,0.003,1.239,0.008,2.923,0.010,10.4
64,20640.00,20640.00,0.00,4.096,11344,0.003,1.232,0.008,2.843,0.009,9.9
65,20431.00,20431.00,0.00,4.029,11229,0.003,1.166,0.008,2.841,0.010,9.6
66,20290.00,20290.00,0.00,4.150,11151,0.003,1.222,0.008,2.908,0.010,10.3
67,20658.00,20658.00,0.00,4.063,11353,0.003,1.215,0.008,2.828,0.010,10.4
68,20358.00,20358.00,0.00,4.083,11189,0.003,1.189,0.009,2.873,0.010,9.8
69,20362.00,20362.00,0.00,4.092,11191,0.003,1.216,0.008,2.855,0.009,9.9
70,20474.00,20474.00,0.00,4.101,11253,0.003,1.197,0.008,2.883,0.009,10.0
71,20636.00,20636.00,0.00,4.053,11342,0.003,1.185,0.008,2.848,0.010,10.0
72,20377.00,20377.00,0.00,4.026,11199,0.003,1.143,0.009,2.859,0.012,9.6
73,20401.00,20401.00,0.00,4.154,11212,0.003,1.215,0.008,2.919,0.010,9.6
74,17984.00,17984.00,0.00,3.156,9884,0.003,0.906,0.009,2.227,0.011,7.3
75,9856.00,9856.00,0.00,0.648,5417,0.003,0.132,0.010,0.494,0.010,1.3
