Second,Ops/sec,Hits/sec,Misses/sec,Latency,KB/sec,Request_Creation_Time,Request_Buffer_Time,MW_Writes_To_Memcached_Time,Memcached_Process_Time,MW_Writes_To_Memtier_Time,Queue_Size
4,4070.00,4070.00,0.00,2.445,1220,0.018,0.917,0.039,1.410,0.063,19.8
5,18556.00,18556.00,0.00,3.817,5560,0.006,2.188,0.009,1.597,0.017,34.9
6,19420.00,19420.00,0.00,4.310,5818,0.004,2.679,0.006,1.611,0.010,41.6
7,20169.00,20169.00,0.00,4.163,6043,0.004,2.584,0.007,1.558,0.010,41.8
8,19835.00,19835.00,0.00,4.214,5943,0.003,2.615,0.007,1.579,0.010,42.0
9,20418.00,20418.00,0.00,3.977,6116,0.003,2.426,0.006,1.530,0.011,41.3
10,20354.00,20354.00,0.00,4.168,6098,0.003,2.598,0.006,1.552,0.009,43.0
11,19835.00,19835.00,0.00,4.225,5942,0.002,2.630,0.006,1.577,0.009,42.2
12,20199.00,20199.00,0.00,4.244,6052,0.003,2.656,0.006,1.570,0.009,43.0
13,20668.00,20668.00,0.00,4.071,6192,0.002,2.531,0.007,1.521,0.010,42.5
14,20063.00,20063.00,0.00,4.198,6011,0.003,2.623,0.006,1.557,0.010,42.7
15,20840.00,20840.00,0.00,4.013,6244,0.003,2.472,0.006,1.522,0.010,41.1
16,20435.00,20370.00,65.00,3.985,6102,0.003,2.436,0.009,1.526,0.012,40.5
17,19582.00,19552.00,30.00,4.319,5857,0.003,2.684,0.007,1.613,0.011,42.8
18,20523.00,20522.00,1.00,4.045,6146,0.003,2.501,0.007,1.523,0.011,41.9
19,20357.00,20357.00,0.00,4.154,6098,0.002,2.588,0.007,1.546,0.011,42.1
20,20818.00,20818.00,0.00,3.951,6237,0.002,2.429,0.008,1.499,0.013,42.9
21,20843.00,20843.00,0.00,3.889,6244,0.003,2.390,0.007,1.478,0.011,40.7
22,20009.00,20009.00,0.00,4.169,5995,0.002,2.586,0.007,1.562,0.012,41.6
23,20374.00,20374.00,0.00,4.147,6104,0.003,2.590,0.007,1.536,0.010,43.0
24,20455.00,20455.00,0.00,4.122,6129,0.004,2.554,0.007,1.547,0.010,42.1
25,20174.00,20174.00,0.00,4.232,6043,0.003,2.646,0.007,1.567,0.011,42.8
26,20429.00,20429.00,0.00,4.102,6120,0.003,2.540,0.007,1.540,0.013,42.0
27,19345.00,19345.00,0.00,4.272,5795,0.003,2.636,0.007,1.614,0.011,41.6
28,20648.00,20648.00,0.00,4.112,6185,0.003,2.565,0.006,1.528,0.010,42.2
29,20410.00,20410.00,0.00,4.200,6114,0.002,2.627,0.007,1.554,0.010,42.9
30,19784.00,19784.00,0.00,4.252,5927,0.002,2.644,0.006,1.589,0.010,41.2
31,20691.00,20691.00,0.00,4.006,6199,0.003,2.485,0.006,1.502,0.010,42.0
32,20266.00,20266.00,0.00,4.122,6072,0.003,2.576,0.006,1.527,0.010,43.2
33,20380.00,20380.00,0.00,4.200,6105,0.002,2.621,0.006,1.561,0.010,41.6
34,20842.00,20842.00,0.00,4.033,6243,0.002,2.513,0.006,1.502,0.010,42.6
35,20809.00,20809.00,0.00,4.114,6234,0.002,2.567,0.006,1.530,0.009,43.1
36,19901.00,19901.00,0.00,4.207,5963,0.002,2.605,0.006,1.584,0.010,41.5
37,20915.00,20915.00,0.00,3.972,6267,0.003,2.453,0.007,1.500,0.010,42.5
38,20193.00,20169.00,24.00,4.211,6044,0.002,2.633,0.006,1.560,0.010,43.0
39,20027.00,19980.00,47.00,4.224,5986,0.003,2.634,0.006,1.572,0.010,42.4
40,20462.00,20440.00,22.00,4.180,6123,0.002,2.613,0.006,1.549,0.010,42.6
41,20415.00,20412.00,3.00,4.113,6115,0.003,2.563,0.006,1.531,0.010,42.4
42,20199.00,20199.00,0.00,4.120,6051,0.003,2.549,0.006,1.552,0.010,41.1
43,20311.00,20311.00,0.00,4.220,6085,0.002,2.642,0.006,1.560,0.010,42.3
44,20458.00,20458.00,0.00,4.081,6129,0.003,2.529,0.006,1.533,0.011,42.0
45,19774.00,19774.00,0.00,4.314,5924,0.003,2.697,0.006,1.598,0.010,42.4
46,19965.00,19965.00,0.00,4.243,5981,0.002,2.648,0.007,1.576,0.010,42.8
47,20501.00,20501.00,0.00,4.180,6142,0.003,2.610,0.006,1.552,0.010,42.4
48,19076.00,19076.00,0.00,4.453,5715,0.002,2.777,0.007,1.657,0.010,42.2
49,20110.00,20110.00,0.00,4.257,6025,0.002,2.664,0.006,1.575,0.010,42.7
50,20463.00,20463.00,0.00,4.123,6131,0.002,2.568,0.006,1.537,0.010,41.6
51,19980.00,19980.00,0.00,4.250,5986,0.003,2.644,0.006,1.587,0.010,41.7
52,20788.00,20788.00,0.00,4.042,6229,0.003,2.519,0.006,1.504,0.010,42.2
53,20672.00,20672.00,0.00,4.089,6194,0.002,2.542,0.006,1.530,0.010,41.6
54,19982.00,19982.00,0.00,4.247,5987,0.003,2.646,0.006,1.584,0.009,42.1
55,20444.00,20444.00,0.00,4.087,6125,0.002,2.535,0.006,1.534,0.009,41.3
56,20438.00,20438.00,0.00,4.183,6123,0.002,2.613,0.006,1.551,0.010,42.9
57,20172.00,20172.00,0.00,4.170,6044,0.002,2.596,0.006,1.556,0.010,42.4
58,20198.00,20198.00,0.00,4.204,6052,0.003,2.616,0.006,1.570,0.009,41.8
59,20099.00,20099.00,0.00,4.219,6022,0.002,2.639,0.007,1.560,0.010,43.7
60,20498.00,20498.00,0.00,4.030,6142,0.003,2.479,0.006,1.531,0.011,41.2
61,20150.00,20150.00,0.00,4.210,6037,0.002,2.624,0.006,1.568,0.010,42.0
62,21072.00,21072.00,0.00,4.042,6313,0.002,2.518,0.006,1.506,0.009,43.2
63,20756.00,20756.00,0.00,4.097,6218,0.002,2.563,0.006,1.516,0.010,42.8
64,20135.00,20135.00,0.00,4.219,6032,0.003,2.634,0.006,1.568,0.009,43.4
65,20242.00,20242.00,0.00,4.200,6064,0.002,2.621,0.006,1.562,0.009,42.6
66,19956.00,19956.00,0.00,4.293,5979,0.002,2.682,0.006,1.595,0.009,41.8
67,20463.00,20463.00,0.00,4.144,6131,0.002,2.583,0.006,1.543,0.010,42.5
68,20187.00,20187.00,0.00,4.194,6048,0.003,2.621,0.006,1.555,0.009,42.5
69,20571.00,20571.00,0.00,4.143,6163,0.003,2.587,0.006,1.537,0.010,42.9
70,20146.00,20146.00,0.00,4.173,6036,0.003,2.580,0.006,1.575,0.010,41.8
71,20560.00,20560.00,0.00,4.139,6160,0.002,2.591,0.006,1.531,0.009,42.9
72,20575.00,20575.00,0.00,4.147,6164,0.002,2.596,0.006,1.534,0.009,42.6
73,20060.00,20060.00,0.00,4.178,6010,0.003,2.600,0.006,1.559,0.010,41.8
74,14890.00,14890.00,0.00,3.935,4461,0.003,2.422,0.006,1.494,0.010,40.2
75,1462.00,1462.00,0.00,0.840,438,0.006,0.085,0.017,0.719,0.014,0.1
