Second,Ops/sec,Hits/sec,Misses/sec,Latency,KB/sec,Request_Creation_Time,Request_Buffer_Time,MW_Writes_To_Memcached_Time,Memcached_Process_Time,MW_Writes_To_Memtier_Time,Queue_Size
4,1794.00,1794.00,0.00,4.212,986,0.020,3.396,0.022,0.716,0.058,37.0
5,11652.00,11652.00,0.00,6.348,6405,0.004,5.668,0.007,0.657,0.013,66.2
6,12003.00,12003.00,0.00,7.434,6597,0.004,6.766,0.006,0.646,0.012,78.7
7,12266.00,12266.00,0.00,7.273,6741,0.003,6.622,0.006,0.630,0.012,78.7
8,11977.00,11977.00,0.00,7.404,6583,0.003,6.736,0.006,0.647,0.011,77.7
9,12834.00,12834.00,0.00,6.916,7053,0.003,6.293,0.006,0.601,0.012,78.9
10,13669.00,13669.00,0.00,6.377,7513,0.003,5.788,0.006,0.569,0.011,77.3
11,11819.00,11819.00,0.00,7.368,6495,0.003,6.689,0.006,0.659,0.012,77.1
12,12936.00,12936.00,0.00,6.974,7109,0.003,6.354,0.006,0.599,0.012,79.5
13,11984.00,11984.00,0.00,7.477,6586,0.003,6.808,0.006,0.649,0.011,79.1
14,12710.00,12710.00,0.00,6.989,6985,0.003,6.357,0.006,0.611,0.012,78.9
15,13094.00,13094.00,0.00,6.805,7196,0.003,6.196,0.006,0.589,0.012,80.0
16,12187.00,12187.00,0.00,7.413,6698,0.003,6.751,0.006,0.642,0.011,79.2
17,11949.00,11949.00,0.00,7.484,6567,0.003,6.814,0.007,0.650,0.011,79.0
18,12583.00,12583.00,0.00,7.157,6916,0.003,6.518,0.006,0.619,0.012,79.6
19,12231.00,12231.00,0.00,7.235,6722,0.003,6.580,0.006,0.636,0.011,77.9
20,12428.00,12428.00,0.00,7.151,6831,0.003,6.505,0.006,0.626,0.012,79.6
21,11239.00,11239.00,0.00,7.975,6177,0.003,7.261,0.006,0.694,0.011,79.3
22,12276.00,12276.00,0.00,7.216,6747,0.003,6.567,0.006,0.629,0.011,78.3
23,12656.00,12656.00,0.00,7.116,6955,0.003,6.481,0.006,0.615,0.011,78.9
24,11058.00,10977.00,81.00,8.019,6033,0.003,7.297,0.007,0.701,0.012,78.3
25,13369.00,13354.00,15.00,6.721,7339,0.003,6.118,0.006,0.582,0.012,80.3
26,12252.00,12252.00,0.00,7.234,6733,0.003,6.580,0.006,0.634,0.011,79.2
27,11742.00,11742.00,0.00,7.632,6452,0.003,6.949,0.006,0.663,0.012,78.9
28,12483.00,12483.00,0.00,7.122,6860,0.003,6.482,0.006,0.619,0.012,79.2
29,12781.00,12781.00,0.00,6.946,7024,0.003,6.319,0.006,0.608,0.012,78.7
30,12704.00,12704.00,0.00,7.063,6982,0.003,6.432,0.006,0.611,0.012,80.0
31,12804.00,12804.00,0.00,6.946,7037,0.003,6.319,0.006,0.607,0.012,78.6
32,11495.00,11495.00,0.00,7.783,6317,0.003,7.085,0.006,0.677,0.012,78.6
33,12287.00,12287.00,0.00,7.248,6753,0.003,6.594,0.006,0.633,0.012,79.1
34,12055.00,12055.00,0.00,7.474,6626,0.003,6.809,0.006,0.645,0.012,79.4
35,12373.00,12373.00,0.00,7.280,6800,0.003,6.632,0.006,0.628,0.012,79.9
36,12620.00,12620.00,0.00,7.115,6936,0.003,6.479,0.006,0.616,0.012,80.0
37,11930.00,11930.00,0.00,7.557,6558,0.003,6.884,0.006,0.653,0.011,79.5
38,12185.00,12185.00,0.00,7.355,6696,0.003,6.696,0.006,0.640,0.011,79.1
39,11226.00,11226.00,0.00,7.967,6169,0.003,7.256,0.006,0.691,0.012,78.5
40,11477.00,11477.00,0.00,7.828,6308,0.003,7.130,0.006,0.678,0.012,79.2
41,12483.00,12483.00,0.00,7.054,6861,0.003,6.413,0.006,0.622,0.012,78.2
42,11975.00,11975.00,0.00,7.528,6581,0.003,6.858,0.006,0.651,0.012,79.5
43,11343.00,11343.00,0.00,7.924,6234,0.003,7.217,0.006,0.688,0.011,79.4
44,12411.00,12411.00,0.00,7.239,6821,0.003,6.592,0.006,0.627,0.011,79.0
45,11939.00,11939.00,0.00,7.487,6561,0.003,6.815,0.006,0.652,0.011,79.3
46,12682.00,12682.00,0.00,7.058,6969,0.003,6.427,0.006,0.611,0.012,79.6
47,12062.00,12062.00,0.00,7.375,6629,0.003,6.710,0.006,0.644,0.012,78.3
48,12303.00,12303.00,0.00,7.314,6762,0.003,6.662,0.006,0.632,0.012,79.9
49,12099.00,12099.00,0.00,7.302,6650,0.003,6.638,0.006,0.644,0.012,77.9
50,12521.00,12521.00,0.00,7.135,6882,0.003,6.495,0.006,0.619,0.012,79.6
51,11521.00,11521.00,0.00,7.758,6332,0.003,7.061,0.006,0.677,0.011,78.7
52,13015.00,13015.00,0.00,6.899,7153,0.003,6.283,0.006,0.595,0.012,79.9
53,12060.00,12060.00,0.00,7.453,6627,0.003,6.787,0.006,0.646,0.012,80.2
54,11396.00,11396.00,0.00,7.902,6263,0.003,7.202,0.005,0.681,0.011,79.7
55,12549.00,12549.00,0.00,7.158,6897,0.003,6.517,0.006,0.621,0.012,79.4
56,12178.00,12178.00,0.00,7.386,6693,0.003,6.727,0.006,0.639,0.011,79.4
57,12410.00,12410.00,0.00,7.184,6821,0.003,6.535,0.006,0.630,0.012,78.6
58,11915.00,11915.00,0.00,7.487,6549,0.003,6.819,0.006,0.648,0.012,79.0
59,12222.00,12222.00,0.00,7.360,6718,0.003,6.700,0.006,0.640,0.012,78.9
60,12417.00,12417.00,0.00,7.134,6825,0.003,6.490,0.006,0.623,0.012,78.9
61,11490.00,11473.00,17.00,7.831,6306,0.003,7.133,0.006,0.678,0.012,79.2
62,12435.00,12374.00,61.00,7.177,6801,0.003,6.535,0.006,0.623,0.012,79.6
63,11908.00,11892.00,16.00,7.586,6535,0.003,6.908,0.006,0.657,0.012,79.5
64,12057.00,12055.00,2.00,7.414,6624,0.003,6.749,0.006,0.643,0.013,79.7
65,13708.00,13708.00,0.00,6.440,7533,0.003,5.855,0.006,0.566,0.012,79.3
66,12801.00,12801.00,0.00,6.985,7035,0.003,6.359,0.006,0.606,0.012,78.8
67,12515.00,12515.00,0.00,7.069,6878,0.003,6.432,0.006,0.618,0.011,78.7
68,12668.00,12668.00,0.00,6.994,6961,0.003,6.360,0.006,0.614,0.012,78.7
69,12308.00,12308.00,0.00,7.303,6765,0.003,6.648,0.006,0.634,0.011,79.3
70,12557.00,12557.00,0.00,7.132,6902,0.003,6.493,0.006,0.620,0.011,80.0
71,14142.00,14142.00,0.00,6.277,7773,0.003,5.709,0.006,0.548,0.012,79.9
72,13015.00,13015.00,0.00,6.882,7153,0.003,6.264,0.006,0.597,0.012,79.5
73,12781.00,12781.00,0.00,6.931,7024,0.003,6.308,0.006,0.603,0.012,78.9
74,11291.00,11291.00,0.00,6.363,6205,0.003,5.727,0.006,0.615,0.012,69.4
75,5580.00,5580.00,0.00,0.662,3067,0.003,0.173,0.010,0.465,0.011,1.2
