Second,Ops/sec,Hits/sec,Misses/sec,Latency,KB/sec,Request_Creation_Time,Request_Buffer_Time,MW_Writes_To_Memcached_Time,Memcached_Process_Time,MW_Writes_To_Memtier_Time,Queue_Size
4,3590.00,3590.00,0.00,2.241,3772,0.022,0.765,0.053,1.346,0.054,5.1
5,11157.00,11157.00,0.00,3.535,11721,0.005,0.248,0.010,3.261,0.011,2.3
6,11075.00,11075.00,0.00,3.798,11635,0.003,0.228,0.010,3.547,0.009,2.2
7,11364.00,11364.00,0.00,3.661,11939,0.004,0.190,0.010,3.449,0.009,2.4
8,11140.00,11140.00,0.00,3.755,11703,0.003,0.296,0.010,3.435,0.010,3.0
9,11115.00,11115.00,0.00,3.805,11677,0.003,0.187,0.009,3.597,0.009,2.5
10,11081.00,11081.00,0.00,3.772,11641,0.003,0.165,0.009,3.586,0.009,2.2
11,11065.00,11065.00,0.00,3.674,11625,0.003,0.142,0.009,3.511,0.009,1.7
12,11182.00,11182.00,0.00,3.700,11748,0.003,0.141,0.009,3.539,0.009,1.9
13,11101.00,11101.00,0.00,3.786,11663,0.003,0.136,0.009,3.630,0.009,1.8
14,11186.00,11178.00,8.00,3.681,11743,0.003,0.167,0.010,3.493,0.009,1.9
15,11120.00,11095.00,25.00,3.802,11656,0.002,0.157,0.009,3.625,0.008,2.0
16,11116.00,11103.00,13.00,3.774,11664,0.003,0.199,0.009,3.554,0.009,2.1
17,11121.00,11119.00,2.00,3.802,11681,0.003,0.153,0.009,3.629,0.008,2.1
18,11136.00,11136.00,0.00,3.809,11699,0.002,0.136,0.009,3.653,0.008,2.1
19,11069.00,11069.00,0.00,3.810,11629,0.003,0.173,0.009,3.617,0.009,2.1
20,11173.00,11173.00,0.00,3.784,11738,0.002,0.136,0.009,3.627,0.008,1.9
21,11283.00,11283.00,0.00,3.749,11854,0.002,0.132,0.009,3.598,0.009,2.1
22,11082.00,11082.00,0.00,3.777,11643,0.002,0.190,0.009,3.567,0.009,2.4
23,11160.00,11160.00,0.00,3.764,11724,0.002,0.177,0.010,3.566,0.009,2.1
24,11089.00,11089.00,0.00,3.788,11650,0.003,0.150,0.009,3.618,0.009,1.9
25,11136.00,11136.00,0.00,3.782,11699,0.002,0.182,0.009,3.580,0.009,2.4
26,11146.00,11146.00,0.00,3.778,11709,0.002,0.136,0.009,3.621,0.009,1.8
27,11107.00,11107.00,0.00,3.792,11668,0.002,0.181,0.009,3.590,0.009,2.5
28,11047.00,11047.00,0.00,3.809,11606,0.003,0.168,0.009,3.621,0.008,2.2
29,11209.00,11209.00,0.00,3.745,11776,0.002,0.155,0.009,3.570,0.008,2.0
30,11086.00,11086.00,0.00,3.818,11646,0.002,0.147,0.009,3.651,0.008,2.1
31,11129.00,11129.00,0.00,3.737,11692,0.002,0.150,0.009,3.567,0.008,2.1
32,11099.00,11098.00,1.00,3.812,11659,0.002,0.176,0.009,3.616,0.009,2.2
33,11154.00,11149.00,5.00,3.798,11713,0.002,0.153,0.009,3.625,0.008,2.3
34,11154.00,11149.00,5.00,3.758,11713,0.002,0.163,0.009,3.575,0.008,2.2
35,11094.00,11083.00,11.00,3.772,11644,0.003,0.232,0.009,3.520,0.009,2.6
36,11144.00,11135.00,9.00,3.778,11698,0.002,0.167,0.009,3.591,0.009,2.1
37,11117.00,11111.00,6.00,3.767,11673,0.002,0.173,0.009,3.573,0.009,2.1
38,11155.00,11150.00,5.00,3.763,11714,0.002,0.167,0.010,3.573,0.010,2.1
39,11085.00,11081.00,4.00,3.776,11641,0.003,0.170,0.009,3.586,0.008,1.9
40,11155.00,11153.00,2.00,3.781,11717,0.003,0.158,0.009,3.603,0.009,2.2
41,11098.00,11098.00,0.00,3.805,11659,0.003,0.166,0.009,3.618,0.009,2.4
42,11149.00,11149.00,0.00,3.773,11713,0.002,0.141,0.009,3.612,0.009,2.1
43,11238.00,11238.00,0.00,3.710,11806,0.002,0.169,0.009,3.521,0.009,1.9
44,11159.00,11159.00,0.00,3.748,11723,0.003,0.155,0.009,3.571,0.010,2.1
45,11318.00,11318.00,0.00,3.734,11890,0.003,0.160,0.010,3.554,0.008,2.3
46,11099.00,11099.00,0.00,3.797,11660,0.003,0.159,0.009,3.618,0.009,2.4
47,11127.00,11127.00,0.00,3.781,11690,0.002,0.193,0.009,3.567,0.009,2.5
48,11130.00,11130.00,0.00,3.777,11693,0.003,0.206,0.009,3.551,0.009,2.4
49,11090.00,11090.00,0.00,3.815,11651,0.002,0.149,0.009,3.646,0.009,2.2
50,11104.00,11104.00,0.00,3.797,11666,0.003,0.170,0.009,3.606,0.009,2.2
51,11069.00,11069.00,0.00,3.813,11629,0.003,0.149,0.009,3.644,0.008,2.0
52,11196.00,11196.00,0.00,3.775,11762,0.003,0.205,0.009,3.550,0.009,2.2
53,11104.00,11104.00,0.00,3.806,11666,0.002,0.143,0.009,3.643,0.009,1.8
54,11172.00,11172.00,0.00,3.768,11737,0.003,0.196,0.009,3.553,0.009,2.4
55,11060.00,11060.00,0.00,3.820,11619,0.002,0.149,0.009,3.652,0.009,2.0
56,11153.00,11153.00,0.00,3.754,11717,0.003,0.177,0.009,3.557,0.009,2.1
57,11080.00,11080.00,0.00,3.779,11640,0.003,0.146,0.010,3.612,0.009,2.3
58,11135.00,11135.00,0.00,3.797,11698,0.002,0.162,0.009,3.615,0.008,2.3
59,11157.00,11157.00,0.00,3.777,11721,0.002,0.157,0.010,3.599,0.009,2.2
60,11091.00,11091.00,0.00,3.812,11652,0.003,0.152,0.009,3.639,0.009,2.1
61,11121.00,11121.00,0.00,3.788,11683,0.003,0.173,0.009,3.594,0.009,2.2
62,11125.00,11125.00,0.00,3.791,11688,0.002,0.158,0.009,3.613,0.009,2.2
63,11105.00,11105.00,0.00,3.812,11666,0.002,0.138,0.009,3.654,0.008,2.1
64,11163.00,11163.00,0.00,3.764,11728,0.002,0.185,0.009,3.559,0.008,2.3
65,11118.00,11118.00,0.00,3.779,11680,0.003,0.145,0.009,3.615,0.008,2.1
66,11092.00,11092.00,0.00,3.798,11653,0.002,0.160,0.009,3.618,0.009,2.2
67,11133.00,11133.00,0.00,3.800,11696,0.002,0.152,0.009,3.628,0.008,2.2
68,11100.00,11100.00,0.00,3.749,11661,0.003,0.176,0.009,3.552,0.009,2.3
69,11127.00,11127.00,0.00,3.781,11690,0.002,0.161,0.009,3.600,0.009,2.1
70,11129.00,11129.00,0.00,3.799,11692,0.003,0.140,0.009,3.639,0.009,2.0
71,11122.00,11122.00,0.00,3.745,11684,0.003,0.174,0.010,3.550,0.009,2.2
72,11090.00,11090.00,0.00,3.807,11651,0.002,0.155,0.009,3.632,0.009,1.9
73,11148.00,11148.00,0.00,3.782,11712,0.002,0.169,0.009,3.592,0.009,2.4
74,7516.00,7516.00,0.00,3.694,7896,0.003,0.217,0.009,3.457,0.008,2.7
