Second,Ops/sec,Hits/sec,Misses/sec,Latency,KB/sec,Request_Creation_Time,Request_Buffer_Time,MW_Writes_To_Memcached_Time,Memcached_Process_Time,MW_Writes_To_Memtier_Time,Queue_Size
4,2166.00,2166.00,0.00,3.599,1191,0.017,2.867,0.038,0.645,0.033,36.7
5,12084.00,12084.00,0.00,7.393,6642,0.004,6.729,0.007,0.641,0.012,78.9
6,12494.00,12494.00,0.00,14.830,6868,0.004,14.188,0.007,0.620,0.012,174.9
7,13255.00,13255.00,0.00,13.928,7285,0.004,13.323,0.007,0.582,0.013,175.6
8,14058.00,14058.00,0.00,12.984,7727,0.003,12.413,0.006,0.550,0.012,172.9
9,13698.00,13698.00,0.00,13.216,7528,0.004,12.629,0.006,0.565,0.012,174.4
10,13134.00,13134.00,0.00,14.183,7219,0.003,13.572,0.006,0.590,0.012,174.7
11,14302.00,14302.00,0.00,12.822,7861,0.003,12.261,0.006,0.541,0.012,174.2
12,13278.00,13278.00,0.00,13.837,7297,0.003,13.232,0.006,0.585,0.012,174.3
13,11795.00,11795.00,0.00,15.674,6483,0.003,14.998,0.006,0.655,0.012,176.2
14,12229.00,12229.00,0.00,15.199,6721,0.003,14.540,0.006,0.638,0.012,175.6
15,12968.00,12968.00,0.00,14.228,7127,0.003,13.609,0.006,0.600,0.011,174.2
16,12822.00,12822.00,0.00,14.568,7046,0.003,13.942,0.006,0.606,0.011,174.8
17,12702.00,12702.00,0.00,14.490,6981,0.003,13.862,0.006,0.609,0.011,173.8
18,12512.00,12512.00,0.00,14.850,6876,0.003,14.204,0.006,0.625,0.011,175.2
19,12988.00,12988.00,0.00,14.197,7137,0.003,13.579,0.006,0.598,0.012,175.3
20,14867.00,14867.00,0.00,12.297,8170,0.003,11.756,0.006,0.520,0.012,174.0
21,13377.00,13377.00,0.00,13.938,7352,0.003,13.338,0.006,0.580,0.012,176.1
22,12522.00,12522.00,0.00,14.842,6882,0.003,14.201,0.006,0.621,0.012,176.1
23,11871.00,11871.00,0.00,15.646,6525,0.002,14.971,0.006,0.656,0.011,175.3
24,12184.00,12184.00,0.00,15.261,6696,0.002,14.603,0.006,0.639,0.011,174.5
25,11734.00,11734.00,0.00,15.770,6449,0.003,15.086,0.006,0.665,0.011,172.9
26,12341.00,12341.00,0.00,15.033,6782,0.003,14.384,0.006,0.629,0.012,175.3
27,12888.00,12888.00,0.00,14.397,7083,0.003,13.774,0.006,0.603,0.012,175.5
28,12702.00,12702.00,0.00,14.576,6981,0.003,13.950,0.006,0.607,0.011,175.4
29,12963.00,12963.00,0.00,14.346,7124,0.003,13.724,0.006,0.601,0.012,175.3
30,13757.00,13757.00,0.00,13.484,7561,0.003,12.898,0.006,0.567,0.011,174.9
31,12213.00,12213.00,0.00,14.974,6712,0.003,14.319,0.006,0.634,0.012,174.1
32,13246.00,13246.00,0.00,13.839,7280,0.003,13.234,0.006,0.585,0.012,173.0
33,12727.00,12727.00,0.00,14.508,6995,0.003,13.881,0.006,0.608,0.012,175.2
34,12594.00,12594.00,0.00,14.812,6922,0.003,14.171,0.006,0.621,0.011,175.6
35,12849.00,12849.00,0.00,14.477,7062,0.003,13.851,0.006,0.605,0.011,175.3
36,12691.00,12691.00,0.00,14.616,6975,0.002,13.980,0.006,0.616,0.011,175.2
37,12728.00,12728.00,0.00,14.493,6996,0.003,13.866,0.006,0.607,0.011,174.5
38,12949.00,12949.00,0.00,14.208,7117,0.002,13.591,0.006,0.597,0.011,174.1
39,12609.00,12609.00,0.00,14.750,6930,0.002,14.113,0.006,0.618,0.011,175.2
40,12611.00,12607.00,4.00,14.587,6929,0.003,13.950,0.007,0.615,0.012,174.6
41,14155.00,14076.00,79.00,12.850,7735,0.003,12.287,0.007,0.542,0.011,173.4
42,13673.00,13670.00,3.00,13.547,7513,0.003,12.959,0.006,0.568,0.012,175.8
43,12442.00,12337.00,105.00,14.884,6780,0.003,14.237,0.006,0.626,0.012,175.3
44,12626.00,12625.00,1.00,14.655,6938,0.002,14.020,0.006,0.616,0.011,173.8
45,12665.00,12665.00,0.00,14.525,6960,0.002,13.892,0.006,0.614,0.011,174.4
46,13155.00,13155.00,0.00,14.145,7229,0.003,13.535,0.006,0.591,0.011,174.3
47,13072.00,13072.00,0.00,14.083,7184,0.003,13.469,0.006,0.595,0.011,174.9
48,12322.00,12322.00,0.00,15.166,6771,0.003,14.518,0.005,0.629,0.011,175.2
49,12300.00,12300.00,0.00,15.014,6759,0.002,14.362,0.005,0.633,0.011,174.1
50,12127.00,12127.00,0.00,15.238,6665,0.002,14.580,0.005,0.638,0.011,175.0
51,12250.00,12250.00,0.00,15.244,6733,0.002,14.585,0.005,0.640,0.011,174.7
52,12502.00,12502.00,0.00,14.811,6870,0.003,14.169,0.005,0.623,0.011,174.5
53,12308.00,12308.00,0.00,15.146,6764,0.002,14.496,0.005,0.632,0.011,175.5
54,13549.00,13549.00,0.00,13.610,7446,0.003,13.017,0.006,0.574,0.011,174.1
55,12203.00,12203.00,0.00,15.210,6706,0.003,14.552,0.006,0.639,0.011,175.2
56,13093.00,13093.00,0.00,14.128,7196,0.003,13.516,0.006,0.591,0.012,174.4
57,11986.00,11986.00,0.00,15.498,6587,0.003,14.831,0.006,0.648,0.011,175.0
58,11861.00,11861.00,0.00,15.689,6519,0.003,15.009,0.006,0.660,0.012,175.0
59,11929.00,11929.00,0.00,15.527,6556,0.003,14.859,0.006,0.647,0.012,175.6
60,12431.00,12431.00,0.00,15.006,6832,0.003,14.358,0.006,0.628,0.011,175.1
61,11971.00,11971.00,0.00,15.496,6580,0.003,14.823,0.006,0.653,0.011,175.1
62,12881.00,12881.00,0.00,14.332,7080,0.003,13.709,0.006,0.603,0.011,174.8
63,12294.00,12294.00,0.00,15.121,6757,0.003,14.470,0.006,0.632,0.011,174.8
64,12506.00,12506.00,0.00,14.847,6874,0.003,14.203,0.006,0.624,0.011,174.9
65,12517.00,12517.00,0.00,14.721,6879,0.003,14.080,0.006,0.621,0.012,174.3
66,11852.00,11852.00,0.00,15.667,6514,0.003,14.993,0.006,0.655,0.011,174.0
67,12860.00,12860.00,0.00,14.392,7069,0.003,13.767,0.006,0.606,0.012,174.7
68,12306.00,12306.00,0.00,14.882,6763,0.003,14.230,0.006,0.633,0.011,173.7
69,12122.00,12122.00,0.00,15.255,6662,0.003,14.592,0.006,0.643,0.012,173.9
70,12899.00,12899.00,0.00,14.264,7088,0.003,13.646,0.006,0.597,0.012,175.1
71,12346.00,12346.00,0.00,15.023,6784,0.003,14.371,0.006,0.632,0.012,174.7
72,13084.00,13084.00,0.00,14.140,7190,0.003,13.524,0.006,0.596,0.012,175.4
73,12721.00,12721.00,0.00,14.632,6991,0.003,14.000,0.006,0.612,0.011,174.6
74,12088.00,12088.00,0.00,13.738,6644,0.002,13.075,0.006,0.644,0.011,155.9
75,10045.00,10045.00,0.00,7.682,5521,0.003,7.051,0.006,0.611,0.012,88.3
