Second,Ops/sec,Hits/sec,Misses/sec,Latency,KB/sec,Request_Creation_Time,Request_Buffer_Time,MW_Writes_To_Memcached_Time,Memcached_Process_Time,MW_Writes_To_Memtier_Time,Queue_Size
4,1580.00,1580.00,0.00,3.339,869,0.015,2.542,0.032,0.697,0.053,26.5
5,10902.00,10902.00,0.00,5.646,5993,0.004,4.989,0.008,0.633,0.013,59.5
6,11985.00,11985.00,0.00,15.404,6588,0.004,14.735,0.006,0.647,0.012,175.3
7,11942.00,11942.00,0.00,15.522,6563,0.003,14.850,0.006,0.650,0.011,174.6
8,11673.00,11673.00,0.00,15.795,6416,0.003,15.108,0.007,0.665,0.012,173.5
9,12406.00,12406.00,0.00,14.921,6818,0.003,14.275,0.006,0.627,0.011,174.6
10,11648.00,11648.00,0.00,15.915,6402,0.003,15.227,0.006,0.667,0.012,174.4
11,11486.00,11486.00,0.00,16.186,6313,0.003,15.488,0.006,0.679,0.011,175.2
12,12543.00,12543.00,0.00,14.815,6894,0.003,14.175,0.005,0.620,0.011,175.6
13,12588.00,12588.00,0.00,14.687,6918,0.004,14.049,0.006,0.617,0.012,174.5
14,11788.00,11788.00,0.00,15.627,6480,0.003,14.946,0.006,0.660,0.012,174.3
15,11550.00,11550.00,0.00,16.192,6348,0.003,15.498,0.006,0.674,0.012,175.0
16,12727.00,12727.00,0.00,14.537,6994,0.003,13.907,0.006,0.609,0.012,175.5
17,11554.00,11554.00,0.00,16.022,6349,0.003,15.328,0.006,0.672,0.013,175.3
18,12250.00,12250.00,0.00,14.996,6733,0.003,14.341,0.006,0.635,0.012,173.6
19,12832.00,12832.00,0.00,14.457,7051,0.003,13.832,0.006,0.604,0.013,174.4
20,11672.00,11672.00,0.00,15.917,6414,0.003,15.230,0.006,0.667,0.012,175.5
21,12062.00,12062.00,0.00,15.449,6629,0.003,14.783,0.006,0.645,0.012,175.8
22,12716.00,12716.00,0.00,14.411,6988,0.003,13.779,0.006,0.609,0.013,173.5
23,11396.00,11396.00,0.00,16.306,6263,0.003,15.603,0.006,0.682,0.012,175.2
24,12122.00,12122.00,0.00,15.297,6662,0.003,14.635,0.006,0.642,0.012,174.9
25,12118.00,12118.00,0.00,15.114,6660,0.003,14.451,0.006,0.643,0.012,172.5
26,11688.00,11688.00,0.00,15.787,6423,0.003,15.101,0.006,0.665,0.012,174.5
27,11531.00,11531.00,0.00,15.972,6338,0.003,15.280,0.006,0.671,0.013,175.5
28,12670.00,12670.00,0.00,14.847,6963,0.003,14.210,0.006,0.617,0.012,175.7
29,11531.00,11531.00,0.00,15.944,6337,0.003,15.248,0.006,0.676,0.012,173.9
30,11997.00,11997.00,0.00,15.438,6593,0.003,14.768,0.006,0.649,0.012,174.0
31,14103.00,14103.00,0.00,13.017,7751,0.003,12.448,0.006,0.548,0.012,174.8
32,11877.00,11877.00,0.00,15.450,6528,0.003,14.775,0.006,0.656,0.012,175.8
33,12134.00,12134.00,0.00,15.469,6669,0.003,14.807,0.006,0.640,0.013,175.6
34,11915.00,11915.00,0.00,15.452,6549,0.003,14.779,0.006,0.653,0.012,174.8
35,12399.00,12399.00,0.00,14.965,6815,0.003,14.318,0.006,0.627,0.012,174.3
36,12668.00,12668.00,0.00,14.623,6962,0.003,13.990,0.006,0.614,0.011,175.2
37,14154.00,14154.00,0.00,13.012,7779,0.003,12.445,0.006,0.546,0.013,174.9
38,14404.00,14404.00,0.00,12.718,7917,0.003,12.160,0.006,0.537,0.013,174.5
39,13325.00,13325.00,0.00,13.861,7323,0.003,13.258,0.006,0.581,0.013,175.6
40,13669.00,13669.00,0.00,13.431,7512,0.003,12.842,0.006,0.567,0.013,175.4
41,12885.00,12881.00,4.00,14.112,7080,0.003,13.491,0.006,0.600,0.013,173.0
42,13071.00,13025.00,46.00,14.109,7158,0.003,13.496,0.007,0.591,0.013,175.2
43,13102.00,13088.00,14.00,14.076,7192,0.004,13.462,0.006,0.592,0.012,175.4
44,13384.00,13336.00,48.00,13.717,7329,0.003,13.118,0.006,0.578,0.012,173.9
45,13159.00,13079.00,80.00,14.120,7188,0.003,13.511,0.006,0.589,0.011,175.7
46,13641.00,13641.00,0.00,13.340,7496,0.003,12.751,0.006,0.568,0.012,173.0
47,13059.00,13059.00,0.00,14.109,7176,0.003,13.495,0.006,0.594,0.012,174.5
48,12886.00,12886.00,0.00,14.398,7081,0.003,13.775,0.006,0.603,0.011,175.8
49,14093.00,14093.00,0.00,12.988,7744,0.003,12.419,0.006,0.549,0.012,174.2
50,13603.00,13603.00,0.00,13.610,7475,0.003,13.020,0.006,0.570,0.012,174.5
51,12907.00,12907.00,0.00,14.232,7094,0.003,13.612,0.006,0.599,0.012,174.9
52,13611.00,13611.00,0.00,13.482,7481,0.003,12.891,0.006,0.571,0.012,173.0
53,13173.00,13173.00,0.00,13.961,7239,0.003,13.352,0.006,0.588,0.012,174.8
54,13493.00,13493.00,0.00,13.706,7416,0.003,13.110,0.006,0.575,0.012,175.6
55,12864.00,12864.00,0.00,14.383,7070,0.003,13.758,0.006,0.604,0.012,174.6
56,12670.00,12670.00,0.00,14.662,6963,0.003,14.029,0.007,0.612,0.012,175.0
57,12156.00,12156.00,0.00,15.089,6681,0.003,14.433,0.006,0.635,0.012,173.7
58,12588.00,12588.00,0.00,14.701,6918,0.003,14.059,0.006,0.621,0.012,173.7
59,12018.00,12018.00,0.00,15.391,6605,0.003,14.724,0.006,0.647,0.012,175.5
60,12585.00,12585.00,0.00,14.771,6916,0.003,14.133,0.006,0.618,0.012,175.6
61,12405.00,12405.00,0.00,14.991,6818,0.003,14.344,0.006,0.627,0.012,176.1
62,12030.00,12030.00,0.00,15.335,6612,0.003,14.668,0.006,0.647,0.012,174.2
63,11294.00,11294.00,0.00,16.267,6208,0.003,15.556,0.007,0.688,0.014,174.7
64,11201.00,11201.00,0.00,16.573,6156,0.003,15.858,0.006,0.695,0.012,174.1
65,12694.00,12694.00,0.00,14.550,6978,0.003,13.918,0.006,0.612,0.012,175.5
66,11950.00,11950.00,0.00,15.364,6568,0.003,14.692,0.006,0.651,0.012,174.0
67,12386.00,12386.00,0.00,14.887,6807,0.003,14.242,0.006,0.624,0.012,174.6
68,12625.00,12625.00,0.00,14.729,6939,0.003,14.091,0.007,0.616,0.012,175.5
69,11496.00,11496.00,0.00,16.151,6318,0.003,15.454,0.006,0.676,0.012,175.1
70,12629.00,12629.00,0.00,14.735,6941,0.003,14.097,0.006,0.618,0.012,175.2
71,13518.00,13518.00,0.00,13.760,7428,0.003,13.166,0.006,0.575,0.011,175.3
72,13228.00,13228.00,0.00,13.735,7269,0.003,13.130,0.006,0.584,0.012,173.5
73,11777.00,11777.00,0.00,15.870,6472,0.003,15.186,0.006,0.663,0.012,175.0
74,11307.00,11307.00,0.00,15.358,6214,0.003,14.648,0.006,0.690,0.012,162.4
75,9463.00,9463.00,0.00,10.462,5201,0.003,9.758,0.006,0.683,0.012,107.9
