Second,Ops/sec,Hits/sec,Misses/sec,Latency,KB/sec,Request_Creation_Time,Request_Buffer_Time,MW_Writes_To_Memcached_Time,Memcached_Process_Time,MW_Writes_To_Memtier_Time,Queue_Size
4,3498.00,3498.00,0.00,1.996,1923,0.021,0.584,0.043,1.197,0.150,5.2
5,17352.00,17352.00,0.00,1.929,9537,0.004,0.494,0.012,1.407,0.012,3.5
6,18716.00,18716.00,0.00,2.002,10287,0.004,0.540,0.009,1.440,0.009,3.8
7,19686.00,19686.00,0.00,1.849,10819,0.004,0.484,0.009,1.341,0.010,4.1
8,19377.00,19377.00,0.00,1.819,10649,0.004,0.458,0.011,1.335,0.011,3.6
9,19201.00,19201.00,0.00,1.912,10553,0.003,0.495,0.009,1.395,0.010,3.7
10,19713.00,19706.00,7.00,1.837,10830,0.003,0.456,0.010,1.357,0.011,3.8
11,18604.00,18563.00,41.00,1.990,10201,0.003,0.550,0.011,1.416,0.010,4.1
12,18504.00,18504.00,0.00,2.021,10169,0.003,0.552,0.009,1.447,0.010,4.2
13,18875.00,18875.00,0.00,1.930,10373,0.004,0.504,0.011,1.401,0.011,3.8
14,19092.00,19092.00,0.00,1.945,10493,0.003,0.534,0.010,1.388,0.010,4.2
15,18133.00,18133.00,0.00,2.081,9966,0.003,0.583,0.009,1.476,0.010,4.2
16,18932.00,18932.00,0.00,1.910,10404,0.004,0.523,0.011,1.361,0.011,4.3
17,19150.00,19150.00,0.00,2.022,10524,0.003,0.561,0.009,1.439,0.010,4.0
18,18476.00,18476.00,0.00,2.004,10154,0.003,0.564,0.010,1.418,0.010,4.0
19,18887.00,18887.00,0.00,2.028,10380,0.003,0.583,0.009,1.424,0.010,3.9
20,19618.00,19618.00,0.00,1.932,10781,0.003,0.523,0.009,1.388,0.009,3.8
21,18261.00,18261.00,0.00,2.040,10036,0.003,0.559,0.009,1.460,0.010,4.1
22,19234.00,19226.00,8.00,1.955,10567,0.003,0.531,0.009,1.403,0.009,4.1
23,19292.00,19259.00,33.00,2.008,10585,0.003,0.549,0.008,1.439,0.009,3.9
24,18444.00,18437.00,7.00,2.080,10132,0.003,0.575,0.009,1.483,0.010,4.1
25,19426.00,19426.00,0.00,1.946,10676,0.003,0.548,0.008,1.378,0.009,4.0
26,18999.00,18999.00,0.00,1.956,10442,0.003,0.535,0.008,1.399,0.010,4.0
27,18595.00,18595.00,0.00,1.993,10219,0.004,0.539,0.012,1.427,0.011,3.9
28,19451.00,19451.00,0.00,1.970,10690,0.003,0.547,0.009,1.402,0.009,3.9
29,19316.00,19316.00,0.00,1.922,10616,0.003,0.511,0.009,1.389,0.010,3.8
30,18931.00,18931.00,0.00,2.001,10405,0.003,0.547,0.009,1.434,0.009,3.9
31,19039.00,19039.00,0.00,2.028,10464,0.003,0.551,0.008,1.456,0.009,3.8
32,19839.00,19839.00,0.00,1.914,10903,0.003,0.520,0.009,1.373,0.009,4.1
33,18672.00,18672.00,0.00,2.043,10262,0.003,0.568,0.009,1.453,0.010,4.0
34,19180.00,19180.00,0.00,2.014,10542,0.003,0.552,0.009,1.441,0.009,4.2
35,18586.00,18586.00,0.00,2.045,10215,0.003,0.558,0.010,1.465,0.010,3.8
36,18585.00,18585.00,0.00,2.098,10214,0.003,0.589,0.009,1.488,0.010,4.0
37,19668.00,19668.00,0.00,1.906,10809,0.003,0.519,0.009,1.365,0.010,3.9
38,19492.00,19492.00,0.00,1.923,10713,0.003,0.516,0.010,1.382,0.012,3.9
39,19126.00,19126.00,0.00,1.941,10512,0.003,0.519,0.009,1.399,0.010,3.8
40,19680.00,19680.00,0.00,1.903,10816,0.003,0.514,0.009,1.366,0.011,3.8
41,19311.00,19311.00,0.00,2.006,10613,0.003,0.539,0.009,1.446,0.010,4.0
42,19311.00,19311.00,0.00,1.940,10613,0.003,0.527,0.008,1.391,0.011,4.0
43,19544.00,19544.00,0.00,1.959,10741,0.003,0.541,0.008,1.398,0.009,3.9
44,19781.00,19781.00,0.00,1.897,10871,0.003,0.508,0.010,1.366,0.010,3.8
45,19526.00,19526.00,0.00,1.940,10731,0.003,0.523,0.009,1.395,0.011,3.8
46,19352.00,19352.00,0.00,1.998,10635,0.003,0.568,0.009,1.410,0.009,4.0
47,19591.00,19591.00,0.00,1.982,10767,0.003,0.544,0.008,1.418,0.009,4.0
48,19224.00,19224.00,0.00,1.914,10565,0.003,0.528,0.009,1.364,0.010,4.0
49,18859.00,18859.00,0.00,2.059,10365,0.003,0.574,0.008,1.465,0.009,3.9
50,19003.00,19003.00,0.00,1.966,10444,0.003,0.539,0.010,1.403,0.012,4.1
51,18993.00,18993.00,0.00,1.990,10438,0.003,0.537,0.010,1.430,0.011,3.6
52,19005.00,19004.00,1.00,2.032,10444,0.003,0.559,0.008,1.454,0.009,4.0
53,19171.00,19167.00,4.00,1.986,10534,0.003,0.540,0.009,1.424,0.010,3.9
54,18992.00,18983.00,9.00,1.996,10433,0.003,0.542,0.009,1.432,0.010,3.9
55,19452.00,19442.00,10.00,1.980,10686,0.003,0.536,0.008,1.423,0.010,3.6
56,19600.00,19583.00,17.00,1.870,10763,0.004,0.512,0.010,1.333,0.010,3.7
57,19363.00,19346.00,17.00,1.956,10633,0.003,0.548,0.010,1.386,0.009,3.9
58,19691.00,19682.00,9.00,1.905,10817,0.003,0.534,0.009,1.349,0.010,3.7
59,20068.00,20046.00,22.00,1.894,11017,0.003,0.521,0.008,1.351,0.010,3.9
60,18975.00,18960.00,15.00,2.004,10420,0.003,0.540,0.008,1.443,0.009,3.7
61,19330.00,19305.00,25.00,2.002,10610,0.003,0.545,0.009,1.437,0.009,4.0
62,19300.00,19292.00,8.00,1.956,10603,0.003,0.546,0.008,1.389,0.010,3.7
63,20023.00,20016.00,7.00,1.893,11000,0.003,0.500,0.010,1.370,0.010,3.7
64,18988.00,18988.00,0.00,2.052,10436,0.003,0.565,0.008,1.468,0.009,3.9
65,19244.00,19244.00,0.00,1.986,10576,0.003,0.535,0.009,1.430,0.009,3.9
66,18981.00,18981.00,0.00,2.075,10432,0.003,0.595,0.008,1.461,0.009,4.2
67,18610.00,18610.00,0.00,2.038,10227,0.003,0.555,0.008,1.462,0.010,3.8
68,19351.00,19351.00,0.00,1.975,10635,0.003,0.541,0.009,1.413,0.009,3.9
69,18682.00,18682.00,0.00,1.954,10267,0.003,0.528,0.009,1.403,0.012,3.9
70,19515.00,19515.00,0.00,1.925,10725,0.003,0.518,0.009,1.385,0.010,3.8
71,18841.00,18841.00,0.00,2.042,10354,0.003,0.566,0.009,1.455,0.009,3.8
72,19015.00,19015.00,0.00,2.029,10450,0.003,0.561,0.008,1.448,0.009,3.9
73,18422.00,18422.00,0.00,2.116,10125,0.003,0.599,0.008,1.497,0.009,4.0
74,13059.00,13059.00,0.00,1.958,7177,0.003,0.547,0.008,1.391,0.009,4.0
