Second,Ops/sec,Hits/sec,Misses/sec,Latency,KB/sec,Request_Creation_Time,Request_Buffer_Time,MW_Writes_To_Memcached_Time,Memcached_Process_Time,MW_Writes_To_Memtier_Time,Queue_Size
4,3331.00,3331.00,0.00,1.715,3500,0.024,0.433,0.050,1.129,0.078,4.7
5,11182.00,11182.00,0.00,3.417,11748,0.006,0.910,0.015,2.473,0.012,3.1
6,11121.00,11121.00,0.00,3.774,11684,0.003,1.134,0.008,2.619,0.009,3.7
7,11118.00,11118.00,0.00,3.804,11680,0.004,1.131,0.009,2.650,0.009,4.0
8,11123.00,11123.00,0.00,3.770,11685,0.004,1.130,0.008,2.619,0.009,3.9
9,11122.00,11122.00,0.00,3.817,11684,0.003,1.154,0.010,2.641,0.009,4.1
10,11118.00,11118.00,0.00,3.810,11680,0.003,1.153,0.008,2.637,0.009,4.0
11,11121.00,11121.00,0.00,3.759,11683,0.004,1.134,0.010,2.601,0.010,4.0
12,11122.00,11122.00,0.00,3.820,11685,0.003,1.158,0.008,2.642,0.009,3.9
13,11119.00,11119.00,0.00,3.824,11682,0.003,1.147,0.009,2.656,0.009,3.9
14,11125.00,11121.00,4.00,3.702,11683,0.003,1.106,0.010,2.574,0.010,4.1
15,11154.00,11121.00,33.00,3.802,11683,0.003,1.133,0.010,2.646,0.010,4.2
16,11128.00,11117.00,11.00,3.794,11678,0.003,1.120,0.009,2.652,0.010,3.8
17,11123.00,11123.00,0.00,3.813,11685,0.003,1.155,0.009,2.636,0.010,4.2
18,11295.00,11295.00,0.00,3.705,11866,0.003,1.098,0.009,2.583,0.010,4.2
19,11118.00,11118.00,0.00,3.771,11680,0.003,1.107,0.010,2.641,0.011,4.2
20,11122.00,11122.00,0.00,3.836,11685,0.003,1.175,0.009,2.640,0.010,4.3
21,11122.00,11122.00,0.00,3.811,11685,0.003,1.140,0.009,2.649,0.010,3.8
22,11118.00,11118.00,0.00,3.817,11680,0.003,1.144,0.009,2.651,0.010,4.4
23,11122.00,11122.00,0.00,3.813,11684,0.003,1.151,0.009,2.641,0.009,4.2
24,11123.00,11123.00,0.00,3.842,11685,0.003,1.159,0.009,2.661,0.010,4.2
25,11121.00,11121.00,0.00,3.828,11683,0.003,1.161,0.010,2.645,0.010,3.9
26,11119.00,11119.00,0.00,3.770,11681,0.004,1.131,0.009,2.616,0.010,4.1
27,11122.00,11122.00,0.00,3.822,11684,0.003,1.139,0.009,2.661,0.010,3.9
28,11122.00,11122.00,0.00,3.801,11684,0.003,1.157,0.009,2.622,0.009,4.4
29,11118.00,11118.00,0.00,3.831,11680,0.003,1.152,0.009,2.658,0.010,4.1
30,11123.00,11123.00,0.00,3.804,11685,0.003,1.134,0.009,2.649,0.009,4.0
31,11122.00,11122.00,0.00,3.804,11684,0.003,1.138,0.009,2.644,0.009,4.0
32,11118.00,11118.00,0.00,3.840,11680,0.003,1.153,0.009,2.666,0.010,4.0
33,11123.00,11122.00,1.00,3.829,11685,0.003,1.144,0.009,2.664,0.009,4.2
34,11129.00,11121.00,8.00,3.804,11684,0.003,1.154,0.009,2.628,0.010,4.2
35,11127.00,11118.00,9.00,3.808,11680,0.003,1.151,0.009,2.636,0.009,4.1
36,11311.00,11295.00,16.00,3.714,11866,0.003,1.115,0.009,2.578,0.009,3.9
37,11129.00,11121.00,8.00,3.807,11683,0.003,1.153,0.009,2.633,0.009,4.2
38,11124.00,11119.00,5.00,3.826,11681,0.003,1.158,0.008,2.647,0.010,4.4
39,11123.00,11122.00,1.00,3.788,11684,0.003,1.131,0.009,2.636,0.009,3.8
40,11122.00,11122.00,0.00,3.777,11684,0.003,1.148,0.009,2.607,0.010,4.1
41,11118.00,11118.00,0.00,3.767,11680,0.003,1.143,0.008,2.603,0.009,4.3
42,11122.00,11122.00,0.00,3.819,11684,0.003,1.147,0.009,2.651,0.009,4.1
43,11122.00,11122.00,0.00,3.817,11684,0.003,1.152,0.008,2.644,0.010,3.9
44,11118.00,11118.00,0.00,3.798,11680,0.003,1.135,0.009,2.642,0.010,4.0
45,11122.00,11122.00,0.00,3.787,11684,0.003,1.135,0.009,2.631,0.010,4.0
46,11122.00,11122.00,0.00,3.838,11685,0.003,1.172,0.009,2.646,0.010,4.1
47,11118.00,11118.00,0.00,3.820,11680,0.003,1.141,0.008,2.660,0.009,3.9
48,11122.00,11122.00,0.00,3.830,11685,0.002,1.160,0.008,2.651,0.009,4.1
49,11122.00,11122.00,0.00,3.781,11685,0.003,1.127,0.008,2.634,0.009,4.3
50,11118.00,11118.00,0.00,3.822,11680,0.003,1.155,0.008,2.648,0.009,4.1
51,11122.00,11122.00,0.00,3.842,11684,0.003,1.168,0.008,2.653,0.009,3.9
52,11122.00,11122.00,0.00,3.714,11685,0.003,1.089,0.008,2.605,0.009,3.6
53,11118.00,11118.00,0.00,3.804,11680,0.003,1.135,0.008,2.649,0.009,4.0
54,11122.00,11122.00,0.00,3.831,11685,0.003,1.149,0.008,2.663,0.009,3.7
55,11120.00,11120.00,0.00,3.812,11682,0.003,1.121,0.008,2.671,0.010,3.9
56,11118.00,11118.00,0.00,3.836,11680,0.003,1.159,0.008,2.658,0.009,4.1
57,11122.00,11122.00,0.00,3.853,11685,0.003,1.162,0.008,2.672,0.009,3.9
58,11122.00,11122.00,0.00,3.821,11684,0.003,1.150,0.008,2.652,0.009,3.7
59,11119.00,11119.00,0.00,3.835,11681,0.003,1.157,0.008,2.658,0.009,3.9
60,11122.00,11122.00,0.00,3.858,11684,0.003,1.165,0.008,2.674,0.009,4.1
61,11122.00,11122.00,0.00,3.798,11684,0.003,1.127,0.008,2.652,0.009,3.7
62,11118.00,11118.00,0.00,3.816,11680,0.003,1.163,0.008,2.634,0.009,4.1
63,11122.00,11122.00,0.00,3.806,11684,0.003,1.152,0.008,2.634,0.009,4.1
64,11243.00,11243.00,0.00,3.859,11812,0.003,1.163,0.008,2.677,0.009,3.9
65,10965.00,10965.00,0.00,3.792,11520,0.003,1.137,0.008,2.634,0.010,3.9
66,11154.00,11154.00,0.00,3.829,11718,0.003,1.158,0.008,2.652,0.009,3.7
67,11122.00,11122.00,0.00,3.841,11685,0.003,1.156,0.008,2.666,0.009,3.9
68,11117.00,11117.00,0.00,3.831,11679,0.003,1.150,0.008,2.661,0.009,3.9
69,11123.00,11123.00,0.00,3.837,11685,0.003,1.174,0.008,2.644,0.009,4.1
70,11122.00,11122.00,0.00,3.813,11684,0.003,1.166,0.008,2.629,0.009,3.8
71,11122.00,11122.00,0.00,3.837,11684,0.003,1.166,0.008,2.652,0.009,4.1
72,11118.00,11118.00,0.00,3.852,11680,0.003,1.168,0.008,2.665,0.009,3.9
73,11122.00,11122.00,0.00,3.832,11684,0.003,1.148,0.008,2.665,0.009,4.1
74,8067.00,8067.00,0.00,3.697,8475,0.003,1.110,0.008,2.567,0.009,4.0
