Second,Ops/sec,Hits/sec,Misses/sec,Latency,KB/sec,Request_Creation_Time,Request_Buffer_Time,MW_Writes_To_Memcached_Time,Memcached_Process_Time,MW_Writes_To_Memtier_Time,Queue_Size
4,3021.00,3021.00,0.00,1.307,336,0.016,0.264,0.063,0.928,0.037,1.4
5,11174.00,11174.00,0.00,1.211,1242,0.005,0.119,0.012,1.063,0.012,0.9
6,13000.00,13000.00,0.00,1.239,1444,0.006,0.119,0.011,1.092,0.011,0.8
7,13199.00,13199.00,0.00,1.269,1467,0.005,0.107,0.011,1.136,0.010,0.8
8,13143.00,13143.00,0.00,1.308,1461,0.004,0.127,0.010,1.157,0.010,0.9
9,11817.00,11793.00,24.00,1.330,1310,0.006,0.110,0.012,1.191,0.011,0.8
10,12713.00,12713.00,0.00,1.209,1412,0.006,0.154,0.011,1.027,0.011,1.0
11,13644.00,13644.00,0.00,1.140,1516,0.004,0.127,0.011,0.986,0.012,1.0
12,13764.00,13764.00,0.00,1.126,1530,0.005,0.120,0.011,0.979,0.011,0.9
13,13587.00,13587.00,0.00,1.225,1509,0.004,0.136,0.009,1.066,0.010,1.1
14,13055.00,13055.00,0.00,1.289,1450,0.003,0.126,0.010,1.140,0.010,0.9
15,13219.00,13219.00,0.00,1.286,1469,0.003,0.153,0.010,1.110,0.010,1.0
16,13338.00,13338.00,0.00,1.255,1482,0.003,0.139,0.011,1.093,0.009,1.1
17,13887.00,13882.00,5.00,1.090,1543,0.004,0.139,0.011,0.926,0.011,1.0
18,13074.00,13056.00,18.00,1.287,1450,0.003,0.144,0.010,1.120,0.010,0.9
19,13272.00,13271.00,1.00,1.310,1474,0.003,0.105,0.010,1.181,0.011,1.0
20,13511.00,13511.00,0.00,1.242,1501,0.003,0.099,0.010,1.119,0.011,0.9
21,13155.00,13155.00,0.00,1.334,1462,0.003,0.141,0.009,1.172,0.009,1.1
22,13690.00,13690.00,0.00,1.188,1521,0.004,0.134,0.011,1.029,0.010,0.9
23,13868.00,13868.00,0.00,1.191,1541,0.004,0.105,0.010,1.061,0.010,0.9
24,12948.00,12948.00,0.00,1.269,1439,0.003,0.139,0.010,1.106,0.011,0.9
25,13855.00,13855.00,0.00,1.188,1540,0.003,0.109,0.010,1.056,0.010,0.8
26,13878.00,13878.00,0.00,1.229,1542,0.004,0.114,0.011,1.092,0.009,0.9
27,13247.00,13247.00,0.00,1.258,1472,0.003,0.124,0.010,1.111,0.010,0.8
28,13322.00,13322.00,0.00,1.236,1480,0.003,0.141,0.010,1.072,0.010,1.0
29,12997.00,12997.00,0.00,1.312,1444,0.003,0.105,0.010,1.185,0.010,0.8
30,13884.00,13884.00,0.00,1.156,1543,0.004,0.121,0.009,1.011,0.011,0.9
31,13179.00,13179.00,0.00,1.291,1465,0.003,0.124,0.010,1.144,0.010,1.0
32,13670.00,13670.00,0.00,1.145,1519,0.003,0.128,0.010,0.993,0.011,0.9
33,12925.00,12925.00,0.00,1.285,1436,0.003,0.166,0.009,1.097,0.010,1.1
34,12692.00,12692.00,0.00,1.338,1410,0.004,0.122,0.010,1.192,0.011,0.9
35,13805.00,13805.00,0.00,1.217,1534,0.003,0.125,0.010,1.069,0.010,0.9
36,13910.00,13910.00,0.00,1.094,1546,0.004,0.138,0.010,0.930,0.011,1.0
37,13327.00,13327.00,0.00,1.212,1481,0.003,0.138,0.010,1.049,0.011,1.0
38,13810.00,13810.00,0.00,1.143,1534,0.003,0.164,0.010,0.955,0.010,1.1
39,13111.00,13111.00,0.00,1.244,1457,0.004,0.120,0.010,1.099,0.011,0.9
40,13312.00,13304.00,8.00,1.298,1479,0.004,0.121,0.010,1.154,0.010,0.9
41,14302.00,14289.00,13.00,1.115,1588,0.004,0.121,0.010,0.969,0.011,1.0
42,13543.00,13541.00,2.00,1.241,1505,0.003,0.112,0.010,1.106,0.011,0.8
43,13291.00,13277.00,14.00,1.244,1475,0.004,0.134,0.010,1.087,0.009,1.0
44,13701.00,13681.00,20.00,1.178,1520,0.005,0.140,0.009,1.014,0.009,1.0
45,13560.00,13550.00,10.00,1.193,1505,0.004,0.126,0.010,1.042,0.011,0.9
46,13050.00,13046.00,4.00,1.205,1449,0.004,0.167,0.011,1.013,0.010,1.1
47,13564.00,13563.00,1.00,1.264,1507,0.003,0.097,0.011,1.144,0.010,0.8
48,13432.00,13432.00,0.00,1.268,1492,0.004,0.095,0.009,1.148,0.011,0.8
49,13180.00,13180.00,0.00,1.257,1464,0.003,0.105,0.010,1.128,0.010,0.9
50,13731.00,13731.00,0.00,1.216,1525,0.003,0.124,0.010,1.068,0.010,0.9
51,13509.00,13509.00,0.00,1.262,1500,0.003,0.111,0.010,1.129,0.009,0.9
52,13198.00,13198.00,0.00,1.279,1466,0.003,0.109,0.011,1.147,0.009,0.8
53,13393.00,13393.00,0.00,1.276,1488,0.003,0.100,0.010,1.153,0.010,0.8
54,13014.00,13014.00,0.00,1.298,1446,0.004,0.100,0.011,1.172,0.011,0.9
55,12997.00,12997.00,0.00,1.262,1444,0.003,0.149,0.010,1.090,0.009,1.0
56,13711.00,13711.00,0.00,1.160,1523,0.004,0.131,0.010,1.005,0.010,0.9
57,13880.00,13880.00,0.00,1.073,1542,0.004,0.135,0.012,0.911,0.011,0.8
58,13780.00,13780.00,0.00,1.189,1531,0.004,0.122,0.011,1.041,0.011,0.8
59,13133.00,13133.00,0.00,1.203,1459,0.004,0.166,0.010,1.014,0.010,1.1
60,14196.00,14196.00,0.00,1.052,1577,0.004,0.115,0.011,0.911,0.010,0.9
61,13491.00,13491.00,0.00,1.178,1499,0.004,0.200,0.011,0.954,0.010,1.5
62,13804.00,13804.00,0.00,1.187,1534,0.003,0.134,0.011,1.029,0.010,0.9
63,13993.00,13993.00,0.00,1.159,1555,0.003,0.122,0.009,1.015,0.009,0.9
64,13003.00,13003.00,0.00,1.356,1445,0.003,0.145,0.010,1.188,0.010,1.0
65,13480.00,13480.00,0.00,1.213,1498,0.004,0.154,0.010,1.035,0.010,1.1
66,13537.00,13537.00,0.00,1.208,1504,0.004,0.131,0.011,1.052,0.010,0.9
67,13826.00,13826.00,0.00,1.175,1536,0.003,0.109,0.010,1.042,0.011,0.8
68,12940.00,12940.00,0.00,1.349,1438,0.003,0.108,0.013,1.216,0.009,0.8
69,13663.00,13663.00,0.00,1.271,1518,0.003,0.122,0.009,1.127,0.010,0.9
70,13317.00,13317.00,0.00,1.260,1480,0.004,0.124,0.011,1.111,0.010,0.9
71,13615.00,13615.00,0.00,1.211,1513,0.003,0.152,0.012,1.034,0.010,0.9
72,13620.00,13620.00,0.00,1.204,1514,0.003,0.096,0.011,1.082,0.011,0.7
73,14033.00,14033.00,0.00,1.119,1559,0.003,0.109,0.010,0.987,0.010,0.9
74,8573.00,8573.00,0.00,1.374,952,0.003,0.098,0.009,1.254,0.009,0.8
