Second,Ops/sec,Hits/sec,Misses/sec,Latency,KB/sec,Request_Creation_Time,Request_Buffer_Time,MW_Writes_To_Memcached_Time,Memcached_Process_Time,MW_Writes_To_Memtier_Time,Queue_Size
4,1925.00,1925.00,0.00,3.807,577,0.016,2.996,0.035,0.724,0.036,35.5
5,12071.00,12071.00,0.00,6.646,3617,0.005,5.982,0.008,0.638,0.013,70.9
6,11916.00,11916.00,0.00,7.641,3570,0.004,6.967,0.006,0.653,0.011,79.6
7,12553.00,12553.00,0.00,7.075,3761,0.004,6.438,0.006,0.617,0.011,78.8
8,12621.00,12621.00,0.00,6.989,3782,0.003,6.355,0.006,0.614,0.011,78.2
9,11548.00,11548.00,0.00,7.814,3460,0.003,7.119,0.006,0.674,0.012,79.1
10,11263.00,11263.00,0.00,7.555,3374,0.003,6.843,0.006,0.693,0.010,74.5
11,11524.00,11524.00,0.00,7.475,3452,0.003,6.778,0.006,0.678,0.010,75.5
12,11813.00,11813.00,0.00,7.653,3538,0.003,6.973,0.006,0.660,0.011,79.4
13,12877.00,12877.00,0.00,6.884,3858,0.002,6.260,0.006,0.605,0.011,78.5
14,12388.00,12388.00,0.00,7.197,3712,0.003,6.550,0.006,0.628,0.011,78.2
15,12369.00,12369.00,0.00,7.300,3706,0.003,6.651,0.006,0.630,0.011,79.2
16,13088.00,13088.00,0.00,6.697,3921,0.003,6.086,0.006,0.592,0.011,78.0
17,12634.00,12634.00,0.00,7.069,3785,0.003,6.434,0.006,0.616,0.011,78.7
18,13004.00,13004.00,0.00,6.782,3896,0.003,6.167,0.006,0.595,0.011,78.6
19,12644.00,12644.00,0.00,7.129,3788,0.002,6.495,0.006,0.616,0.011,79.9
20,12012.00,12012.00,0.00,7.503,3599,0.002,6.832,0.006,0.651,0.012,79.1
21,11239.00,11239.00,0.00,7.999,3367,0.003,7.287,0.006,0.693,0.010,78.9
22,11860.00,11860.00,0.00,7.611,3554,0.003,6.933,0.005,0.659,0.011,78.7
23,12440.00,12440.00,0.00,7.221,3726,0.002,6.577,0.005,0.626,0.011,78.9
24,12100.00,12025.00,75.00,7.352,3603,0.003,6.692,0.006,0.636,0.014,78.5
25,12073.00,12052.00,21.00,7.444,3610,0.003,6.779,0.006,0.646,0.011,78.9
26,11647.00,11647.00,0.00,7.667,3489,0.002,6.979,0.005,0.669,0.012,78.8
27,11986.00,11986.00,0.00,7.501,3589,0.003,6.833,0.006,0.649,0.011,78.9
28,12779.00,12779.00,0.00,7.068,3828,0.002,6.440,0.006,0.609,0.011,79.6
29,12552.00,12552.00,0.00,7.135,3760,0.002,6.497,0.006,0.620,0.011,78.9
30,12125.00,12125.00,0.00,7.456,3632,0.003,6.793,0.006,0.644,0.011,79.1
31,12166.00,12166.00,0.00,7.293,3645,0.003,6.635,0.005,0.639,0.010,78.0
32,11961.00,11961.00,0.00,7.473,3583,0.003,6.806,0.006,0.648,0.011,79.2
33,11780.00,11780.00,0.00,7.630,3529,0.002,6.951,0.005,0.661,0.011,78.4
34,11941.00,11941.00,0.00,7.544,3578,0.003,6.869,0.006,0.656,0.011,79.3
35,12256.00,12256.00,0.00,7.254,3673,0.002,6.600,0.006,0.636,0.011,78.2
36,11931.00,11931.00,0.00,7.537,3574,0.002,6.864,0.005,0.653,0.011,79.0
37,12072.00,12072.00,0.00,7.333,3618,0.003,6.671,0.006,0.642,0.011,78.6
38,12341.00,12341.00,0.00,7.230,3697,0.003,6.578,0.006,0.632,0.011,78.6
39,12966.00,12966.00,0.00,6.918,3883,0.003,6.301,0.006,0.598,0.011,79.2
40,11737.00,11737.00,0.00,7.688,3516,0.003,7.006,0.006,0.663,0.011,79.2
41,11618.00,11618.00,0.00,7.819,3481,0.003,7.125,0.006,0.675,0.011,78.9
42,12338.00,12338.00,0.00,7.248,3696,0.002,6.599,0.006,0.630,0.011,79.5
43,11412.00,11412.00,0.00,8.001,3419,0.002,7.296,0.006,0.686,0.011,79.3
44,13206.00,13206.00,0.00,6.772,3956,0.003,6.164,0.005,0.589,0.011,79.4
45,13012.00,13012.00,0.00,6.862,3898,0.003,6.245,0.005,0.597,0.011,78.8
46,12712.00,12712.00,0.00,6.973,3808,0.003,6.342,0.005,0.612,0.011,78.5
47,12670.00,12670.00,0.00,7.113,3796,0.002,6.480,0.006,0.614,0.011,79.3
48,12700.00,12700.00,0.00,7.087,3805,0.003,6.454,0.005,0.613,0.012,79.0
49,12402.00,12402.00,0.00,7.260,3716,0.003,6.613,0.006,0.628,0.011,79.0
50,14055.00,14055.00,0.00,6.236,4211,0.003,5.669,0.006,0.549,0.011,78.4
51,12530.00,12530.00,0.00,7.053,3754,0.002,6.414,0.006,0.619,0.011,77.6
52,12184.00,12184.00,0.00,7.401,3650,0.003,6.742,0.005,0.640,0.011,79.1
53,12714.00,12714.00,0.00,6.958,3808,0.002,6.328,0.006,0.611,0.011,77.7
54,13643.00,13643.00,0.00,6.563,4087,0.003,5.975,0.005,0.570,0.011,79.2
55,12451.00,12451.00,0.00,7.190,3730,0.003,6.547,0.005,0.625,0.011,78.9
56,13348.00,13348.00,0.00,6.588,3999,0.003,5.989,0.005,0.580,0.011,77.8
57,12489.00,12489.00,0.00,7.220,3742,0.003,6.576,0.006,0.625,0.011,79.0
58,12125.00,12125.00,0.00,7.394,3633,0.003,6.732,0.005,0.644,0.011,78.8
59,12700.00,12700.00,0.00,7.056,3805,0.003,6.424,0.006,0.613,0.011,79.0
60,13241.00,13236.00,5.00,6.761,3966,0.003,6.154,0.006,0.587,0.011,79.2
61,12747.00,12693.00,54.00,7.025,3803,0.003,6.396,0.005,0.610,0.011,79.5
62,11688.00,11652.00,36.00,7.719,3491,0.002,7.034,0.006,0.665,0.011,79.2
63,12705.00,12704.00,1.00,7.056,3805,0.002,6.424,0.005,0.614,0.010,78.4
64,12670.00,12670.00,0.00,7.131,3795,0.002,6.496,0.005,0.617,0.010,79.2
65,12100.00,12100.00,0.00,7.414,3625,0.003,6.751,0.006,0.644,0.011,78.2
66,12664.00,12664.00,0.00,7.083,3794,0.002,6.452,0.005,0.613,0.011,79.0
67,12030.00,12030.00,0.00,7.479,3603,0.003,6.810,0.006,0.650,0.011,79.2
68,12391.00,12391.00,0.00,7.200,3712,0.003,6.554,0.006,0.627,0.011,78.3
69,12830.00,12830.00,0.00,6.956,3844,0.003,6.333,0.006,0.604,0.011,79.2
70,12983.00,12983.00,0.00,6.827,3890,0.003,6.210,0.006,0.595,0.013,78.7
71,12826.00,12826.00,0.00,6.967,3843,0.003,6.343,0.006,0.605,0.011,79.2
72,12077.00,12077.00,0.00,7.434,3618,0.002,6.769,0.005,0.647,0.011,78.9
73,12606.00,12606.00,0.00,7.175,3776,0.002,6.536,0.005,0.621,0.011,79.9
74,10306.00,10306.00,0.00,6.695,3087,0.003,6.063,0.006,0.612,0.011,74.6
75,1550.00,1550.00,0.00,0.804,464,0.005,0.077,0.017,0.692,0.014,0.0
