Second,Ops/sec,Hits/sec,Misses/sec,Latency,KB/sec,Request_Creation_Time,Request_Buffer_Time,MW_Writes_To_Memcached_Time,Memcached_Process_Time,MW_Writes_To_Memtier_Time,Queue_Size
4,3251.00,3251.00,0.00,1.358,974,0.015,0.352,0.031,0.925,0.035,1.9
5,11106.00,11106.00,0.00,1.287,3328,0.005,0.162,0.013,1.095,0.013,1.0
6,12981.00,12981.00,0.00,1.297,3889,0.004,0.150,0.011,1.121,0.011,0.7
7,12822.00,12822.00,0.00,1.354,3841,0.003,0.123,0.012,1.206,0.009,0.9
8,13187.00,13187.00,0.00,1.323,3951,0.003,0.109,0.010,1.191,0.010,0.8
9,13052.00,13028.00,24.00,1.239,3903,0.004,0.107,0.011,1.104,0.012,0.8
10,12554.00,12554.00,0.00,1.306,3761,0.003,0.099,0.011,1.181,0.012,0.7
11,12521.00,12521.00,0.00,1.324,3751,0.004,0.138,0.010,1.161,0.010,1.0
12,13870.00,13870.00,0.00,1.205,4155,0.003,0.121,0.010,1.061,0.010,0.9
13,13432.00,13432.00,0.00,1.160,4024,0.003,0.133,0.012,1.000,0.011,0.9
14,13007.00,13007.00,0.00,1.407,3896,0.003,0.095,0.010,1.290,0.010,0.8
15,13750.00,13750.00,0.00,1.253,4119,0.003,0.124,0.010,1.107,0.009,0.8
16,13065.00,13065.00,0.00,1.313,3914,0.003,0.140,0.010,1.150,0.010,1.0
17,12732.00,12728.00,4.00,1.416,3814,0.003,0.123,0.011,1.270,0.009,0.9
18,13485.00,13467.00,18.00,1.304,4034,0.003,0.119,0.010,1.164,0.009,0.9
19,13259.00,13257.00,2.00,1.296,3971,0.003,0.111,0.010,1.161,0.010,0.8
20,13999.00,13999.00,0.00,1.103,4194,0.005,0.142,0.011,0.932,0.013,0.8
21,13945.00,13945.00,0.00,1.157,4178,0.004,0.120,0.011,1.011,0.012,0.8
22,13502.00,13502.00,0.00,1.188,4045,0.005,0.202,0.010,0.961,0.009,1.2
23,12463.00,12463.00,0.00,1.400,3734,0.003,0.118,0.011,1.257,0.010,0.8
24,12893.00,12893.00,0.00,1.372,3863,0.003,0.093,0.010,1.255,0.010,0.7
25,13348.00,13348.00,0.00,1.280,3999,0.003,0.118,0.012,1.137,0.010,0.9
26,13175.00,13175.00,0.00,1.302,3948,0.004,0.101,0.009,1.179,0.009,0.9
27,12457.00,12457.00,0.00,1.411,3732,0.003,0.154,0.011,1.233,0.011,1.0
28,13489.00,13489.00,0.00,1.226,4041,0.003,0.118,0.010,1.085,0.010,0.8
29,13214.00,13214.00,0.00,1.324,3959,0.003,0.098,0.010,1.203,0.009,0.9
30,13175.00,13175.00,0.00,1.301,3947,0.003,0.117,0.010,1.162,0.009,0.8
31,13002.00,13002.00,0.00,1.346,3895,0.003,0.142,0.011,1.181,0.009,0.9
32,13328.00,13328.00,0.00,1.303,3993,0.004,0.105,0.011,1.174,0.010,0.8
33,13803.00,13803.00,0.00,1.107,4135,0.004,0.152,0.011,0.929,0.011,1.1
34,14390.00,14390.00,0.00,1.125,4311,0.003,0.143,0.011,0.958,0.010,1.0
35,14702.00,14702.00,0.00,1.025,4405,0.003,0.134,0.011,0.869,0.009,0.9
36,13231.00,13231.00,0.00,1.265,3964,0.003,0.143,0.011,1.097,0.011,0.8
37,14466.00,14466.00,0.00,1.048,4334,0.004,0.112,0.010,0.909,0.012,0.8
38,13290.00,13290.00,0.00,1.253,3981,0.003,0.163,0.011,1.066,0.010,0.9
39,12882.00,12882.00,0.00,1.402,3860,0.003,0.103,0.010,1.276,0.009,0.7
40,13161.00,13153.00,8.00,1.322,3941,0.003,0.084,0.010,1.216,0.009,0.7
41,13262.00,13253.00,9.00,1.326,3971,0.003,0.112,0.010,1.191,0.009,0.8
42,12803.00,12795.00,8.00,1.402,3833,0.003,0.105,0.010,1.275,0.010,0.9
43,13857.00,13848.00,9.00,1.170,4149,0.004,0.132,0.011,1.011,0.011,1.0
44,14184.00,14167.00,17.00,1.189,4244,0.003,0.127,0.010,1.039,0.010,0.9
45,13202.00,13189.00,13.00,1.277,3951,0.003,0.147,0.010,1.108,0.009,0.9
46,13524.00,13518.00,6.00,1.273,4050,0.003,0.118,0.010,1.131,0.011,0.9
47,12891.00,12889.00,2.00,1.304,3861,0.004,0.149,0.010,1.131,0.011,1.0
48,13787.00,13787.00,0.00,1.205,4130,0.003,0.147,0.010,1.035,0.009,0.9
49,13045.00,13045.00,0.00,1.307,3908,0.003,0.162,0.010,1.121,0.010,1.2
50,13739.00,13739.00,0.00,1.221,4116,0.004,0.148,0.011,1.048,0.011,0.9
51,12791.00,12791.00,0.00,1.374,3832,0.004,0.109,0.010,1.241,0.010,0.8
52,13310.00,13310.00,0.00,1.306,3987,0.003,0.103,0.009,1.180,0.011,0.9
53,13911.00,13911.00,0.00,1.219,4168,0.003,0.136,0.010,1.060,0.010,0.9
54,13322.00,13322.00,0.00,1.273,3991,0.003,0.139,0.011,1.111,0.010,1.0
55,13320.00,13320.00,0.00,1.218,3990,0.003,0.128,0.009,1.068,0.009,1.0
56,13327.00,13327.00,0.00,1.289,3992,0.003,0.106,0.011,1.159,0.010,0.8
57,12397.00,12397.00,0.00,1.378,3714,0.005,0.141,0.010,1.212,0.010,0.9
58,13587.00,13587.00,0.00,1.278,4070,0.003,0.114,0.011,1.140,0.010,0.9
59,13591.00,13591.00,0.00,1.191,4072,0.005,0.138,0.011,1.026,0.012,1.0
60,12726.00,12726.00,0.00,1.318,3812,0.003,0.198,0.010,1.097,0.011,1.3
61,13524.00,13524.00,0.00,1.255,4052,0.003,0.122,0.011,1.105,0.014,0.9
62,13898.00,13898.00,0.00,1.185,4164,0.005,0.134,0.010,1.025,0.010,0.8
63,13147.00,13147.00,0.00,1.358,3939,0.003,0.106,0.009,1.229,0.010,0.7
64,13491.00,13491.00,0.00,1.258,4042,0.003,0.142,0.010,1.093,0.010,1.0
65,13447.00,13447.00,0.00,1.260,4029,0.005,0.150,0.010,1.086,0.009,1.1
66,13083.00,13083.00,0.00,1.383,3920,0.003,0.127,0.010,1.233,0.010,0.8
67,12485.00,12485.00,0.00,1.423,3740,0.003,0.132,0.010,1.268,0.010,0.8
68,13143.00,13143.00,0.00,1.320,3937,0.003,0.116,0.010,1.182,0.010,0.8
69,13574.00,13574.00,0.00,1.238,4067,0.004,0.124,0.011,1.090,0.010,0.8
70,13448.00,13448.00,0.00,1.233,4029,0.004,0.129,0.010,1.079,0.010,1.0
71,13225.00,13225.00,0.00,1.303,3962,0.003,0.114,0.011,1.164,0.011,0.8
72,12796.00,12796.00,0.00,1.391,3834,0.003,0.115,0.010,1.254,0.010,0.9
73,13186.00,13186.00,0.00,1.333,3950,0.003,0.118,0.010,1.192,0.010,0.9
74,8444.00,8444.00,0.00,1.380,2530,0.004,0.097,0.011,1.260,0.009,0.8
