Second,Ops/sec,Hits/sec,Misses/sec,Latency,KB/sec,Request_Creation_Time,Request_Buffer_Time,MW_Writes_To_Memcached_Time,Memcached_Process_Time,MW_Writes_To_Memtier_Time,Queue_Size
4,3583.00,3583.00,0.00,2.391,399,0.014,0.928,0.040,1.353,0.056,8.5
5,18744.00,18744.00,0.00,2.648,2084,0.006,0.595,0.012,2.018,0.016,5.8
6,24452.00,24452.00,0.00,3.306,2718,0.003,0.938,0.009,2.345,0.010,9.2
7,23993.00,23993.00,0.00,3.345,2666,0.004,0.927,0.009,2.395,0.010,8.7
8,22548.00,22548.00,0.00,3.231,2504,0.005,0.878,0.012,2.326,0.010,8.7
9,24084.00,24084.00,0.00,3.258,2676,0.003,0.925,0.009,2.312,0.009,9.2
10,24066.00,24066.00,0.00,3.440,2674,0.003,0.999,0.008,2.421,0.009,9.1
11,24504.00,24504.00,0.00,3.281,2723,0.003,0.933,0.008,2.328,0.009,9.5
12,25125.00,25125.00,0.00,3.319,2792,0.003,0.971,0.008,2.327,0.010,9.2
13,24005.00,24004.00,1.00,3.307,2668,0.003,0.933,0.009,2.351,0.011,9.3
14,24796.00,24757.00,39.00,3.191,2751,0.003,0.872,0.011,2.293,0.011,9.4
15,25890.00,25839.00,51.00,3.017,2870,0.003,0.839,0.010,2.154,0.011,9.1
16,25073.00,25068.00,5.00,3.253,2784,0.003,0.925,0.009,2.307,0.010,9.2
17,25298.00,25298.00,0.00,3.130,2810,0.003,0.847,0.010,2.259,0.011,9.1
18,24873.00,24873.00,0.00,3.263,2764,0.003,0.924,0.009,2.316,0.010,9.0
19,24245.00,24245.00,0.00,3.239,2694,0.003,0.888,0.017,2.318,0.013,9.4
20,23917.00,23917.00,0.00,3.409,2658,0.003,0.970,0.010,2.417,0.010,9.8
21,25354.00,25354.00,0.00,3.144,2817,0.003,0.891,0.009,2.230,0.011,9.5
22,25163.00,25163.00,0.00,3.183,2795,0.003,0.891,0.008,2.271,0.010,9.2
23,24851.00,24851.00,0.00,3.223,2761,0.003,0.913,0.009,2.287,0.011,9.2
24,25638.00,25638.00,0.00,3.039,2848,0.003,0.868,0.009,2.146,0.012,10.0
25,25489.00,25489.00,0.00,3.133,2831,0.003,0.861,0.009,2.250,0.010,9.0
26,24217.00,24217.00,0.00,3.404,2691,0.003,0.989,0.008,2.394,0.010,9.4
27,24787.00,24787.00,0.00,3.170,2754,0.003,0.882,0.012,2.263,0.011,9.1
28,24552.00,24552.00,0.00,3.306,2728,0.003,0.934,0.009,2.351,0.010,8.5
29,24507.00,24507.00,0.00,3.273,2723,0.003,0.950,0.009,2.300,0.010,9.5
30,24971.00,24971.00,0.00,3.207,2775,0.003,0.904,0.009,2.280,0.011,9.2
31,25181.00,25169.00,12.00,3.123,2797,0.004,0.878,0.010,2.221,0.010,9.1
32,24429.00,24413.00,16.00,3.342,2713,0.003,0.963,0.008,2.357,0.010,9.4
33,24442.00,24417.00,25.00,3.319,2714,0.003,0.931,0.009,2.368,0.009,8.9
34,24349.00,24318.00,31.00,3.246,2702,0.003,0.921,0.009,2.302,0.010,9.0
35,24719.00,24710.00,9.00,3.322,2745,0.003,0.963,0.008,2.338,0.010,9.0
36,24174.00,24171.00,3.00,3.228,2685,0.003,0.911,0.011,2.292,0.010,10.0
37,24825.00,24825.00,0.00,3.243,2758,0.003,0.955,0.008,2.267,0.010,9.6
38,23844.00,23844.00,0.00,3.474,2650,0.003,1.030,0.008,2.425,0.009,9.5
39,24835.00,24835.00,0.00,3.341,2760,0.003,0.971,0.008,2.350,0.009,9.0
40,24523.00,24523.00,0.00,3.309,2725,0.003,0.947,0.008,2.341,0.010,9.2
41,23996.00,23996.00,0.00,3.442,2667,0.003,1.002,0.008,2.420,0.009,9.4
42,23167.00,23167.00,0.00,3.594,2574,0.003,1.053,0.008,2.520,0.010,9.8
43,24185.00,24185.00,0.00,3.274,2688,0.003,0.950,0.008,2.303,0.010,9.9
44,24195.00,24195.00,0.00,3.307,2689,0.003,0.928,0.008,2.359,0.009,9.7
45,24643.00,24643.00,0.00,3.345,2739,0.003,0.991,0.008,2.334,0.009,9.4
46,26256.00,26256.00,0.00,3.058,2918,0.003,0.870,0.008,2.169,0.009,9.2
47,24027.00,24027.00,0.00,3.435,2670,0.003,1.005,0.008,2.409,0.010,9.3
48,24493.00,24493.00,0.00,3.243,2722,0.003,0.925,0.009,2.297,0.009,9.0
49,24604.00,24604.00,0.00,3.312,2734,0.003,0.946,0.008,2.345,0.010,9.7
50,24586.00,24586.00,0.00,3.311,2733,0.003,0.950,0.008,2.342,0.009,9.0
51,23934.00,23934.00,0.00,3.385,2660,0.003,0.972,0.008,2.392,0.010,9.6
52,24675.00,24675.00,0.00,3.267,2742,0.003,0.971,0.008,2.276,0.009,9.8
53,24594.00,24594.00,0.00,3.341,2733,0.003,0.948,0.008,2.372,0.009,8.9
54,24013.00,24013.00,0.00,3.466,2668,0.003,1.023,0.008,2.424,0.009,9.0
55,24919.00,24919.00,0.00,3.302,2769,0.003,0.946,0.008,2.337,0.009,9.0
56,24703.00,24703.00,0.00,3.336,2745,0.003,0.958,0.008,2.359,0.009,8.9
57,25168.00,25168.00,0.00,3.266,2797,0.003,0.933,0.008,2.313,0.009,8.8
58,24528.00,24528.00,0.00,3.373,2726,0.003,0.969,0.009,2.383,0.009,9.2
59,23975.00,23975.00,0.00,3.415,2664,0.003,0.989,0.008,2.405,0.009,9.3
60,24227.00,24227.00,0.00,3.410,2692,0.003,0.981,0.008,2.409,0.009,8.9
61,25025.00,25025.00,0.00,3.224,2781,0.003,0.893,0.008,2.311,0.009,8.7
62,24978.00,24978.00,0.00,3.198,2776,0.003,0.909,0.009,2.268,0.009,9.3
63,23288.00,23288.00,0.00,3.560,2588,0.003,1.022,0.008,2.518,0.009,8.9
64,24485.00,24485.00,0.00,3.327,2721,0.003,0.951,0.008,2.356,0.009,9.2
65,24483.00,24483.00,0.00,3.353,2720,0.003,0.975,0.008,2.358,0.009,9.4
66,24425.00,24425.00,0.00,3.350,2714,0.003,0.955,0.008,2.375,0.009,9.0
67,24993.00,24993.00,0.00,3.203,2777,0.003,0.902,0.009,2.280,0.010,9.3
68,24437.00,24437.00,0.00,3.309,2715,0.003,0.949,0.008,2.340,0.010,9.0
69,24316.00,24316.00,0.00,3.424,2702,0.003,0.998,0.008,2.406,0.010,9.6
70,24709.00,24709.00,0.00,3.187,2745,0.004,0.919,0.009,2.241,0.014,9.4
71,25013.00,25013.00,0.00,3.251,2779,0.003,0.919,0.010,2.311,0.009,9.0
72,24524.00,24524.00,0.00,3.297,2725,0.003,0.937,0.009,2.335,0.012,9.1
73,24934.00,24934.00,0.00,3.177,2770,0.003,0.895,0.009,2.259,0.011,9.0
74,20571.00,20571.00,0.00,2.952,2286,0.004,0.802,0.008,2.128,0.010,7.2
75,9314.00,9314.00,0.00,0.793,1035,0.003,0.175,0.010,0.597,0.009,1.6
