Second,Ops/sec,Hits/sec,Misses/sec,Latency,KB/sec,Request_Creation_Time,Request_Buffer_Time,MW_Writes_To_Memcached_Time,Memcached_Process_Time,MW_Writes_To_Memtier_Time,Queue_Size
4,3273.00,3273.00,0.00,2.726,3439,0.019,1.309,0.041,1.289,0.066,27.3
5,11336.00,11336.00,0.00,13.967,11910,0.005,11.145,0.007,2.800,0.011,112.3
6,11117.00,11117.00,0.00,16.714,11680,0.003,13.837,0.006,2.858,0.010,137.9
7,11122.00,11122.00,0.00,16.680,11685,0.004,13.801,0.006,2.859,0.010,137.4
8,11122.00,11122.00,0.00,16.659,11685,0.003,13.781,0.006,2.859,0.009,136.9
9,11018.00,11018.00,0.00,16.733,11575,0.003,13.832,0.006,2.883,0.010,138.6
10,11223.00,11223.00,0.00,16.727,11790,0.003,13.868,0.006,2.839,0.010,138.6
11,11121.00,11121.00,0.00,16.540,11683,0.003,13.661,0.006,2.859,0.010,137.3
12,11122.00,11122.00,0.00,16.710,11685,0.003,13.832,0.006,2.859,0.010,138.0
13,11291.00,11291.00,0.00,16.423,11863,0.002,13.586,0.006,2.819,0.010,138.2
14,11122.00,11122.00,0.00,16.691,11685,0.003,13.816,0.006,2.856,0.010,139.0
15,11122.00,11122.00,0.00,16.684,11684,0.003,13.803,0.006,2.862,0.010,137.8
16,11119.00,11119.00,0.00,16.661,11681,0.003,13.782,0.006,2.860,0.010,137.8
17,11121.00,11121.00,0.00,16.687,11684,0.002,13.807,0.006,2.862,0.010,138.5
18,11122.00,11122.00,0.00,16.698,11685,0.002,13.820,0.006,2.859,0.010,138.2
19,11119.00,11119.00,0.00,16.699,11680,0.002,13.819,0.006,2.862,0.010,138.0
20,11114.00,11114.00,0.00,16.701,11675,0.002,13.822,0.006,2.861,0.010,138.2
21,11131.00,11131.00,0.00,16.648,11693,0.002,13.770,0.006,2.861,0.010,138.5
22,11118.00,11118.00,0.00,16.722,11680,0.002,13.841,0.006,2.863,0.009,138.6
23,11122.00,11122.00,0.00,16.680,11684,0.002,13.804,0.006,2.859,0.009,138.3
24,11122.00,11122.00,0.00,16.687,11684,0.002,13.807,0.006,2.862,0.010,138.1
25,11118.00,11118.00,0.00,16.728,11681,0.002,13.849,0.006,2.860,0.010,138.7
26,11123.00,11123.00,0.00,16.663,11685,0.003,13.783,0.006,2.861,0.011,137.4
27,11122.00,11122.00,0.00,16.739,11684,0.002,13.861,0.006,2.860,0.010,138.8
28,11118.00,11118.00,0.00,16.712,11680,0.002,13.833,0.006,2.862,0.010,139.1
29,11123.00,11123.00,0.00,16.684,11685,0.002,13.807,0.006,2.859,0.010,137.7
30,11295.00,11295.00,0.00,16.479,11866,0.002,13.644,0.006,2.817,0.010,139.2
31,11118.00,11118.00,0.00,16.688,11680,0.002,13.809,0.006,2.861,0.010,138.8
32,11123.00,11123.00,0.00,16.706,11686,0.002,13.825,0.006,2.864,0.009,137.3
33,11121.00,11121.00,0.00,16.716,11684,0.002,13.839,0.006,2.859,0.010,138.7
34,11118.00,11118.00,0.00,16.716,11680,0.002,13.836,0.006,2.862,0.009,138.2
35,11123.00,11123.00,0.00,16.709,11686,0.002,13.828,0.006,2.862,0.010,138.1
36,11121.00,11121.00,0.00,16.718,11684,0.002,13.845,0.006,2.855,0.010,138.6
37,11118.00,11118.00,0.00,16.645,11680,0.003,13.763,0.006,2.863,0.010,138.1
38,11122.00,11122.00,0.00,16.686,11684,0.002,13.808,0.006,2.860,0.010,138.8
39,11116.00,11116.00,0.00,16.716,11679,0.002,13.834,0.006,2.865,0.009,138.5
40,11124.00,11124.00,0.00,16.733,11687,0.002,13.853,0.006,2.862,0.009,139.2
41,11122.00,11122.00,0.00,16.717,11684,0.002,13.842,0.006,2.857,0.010,138.5
42,11122.00,11122.00,0.00,16.691,11684,0.002,13.813,0.006,2.858,0.011,137.7
43,11118.00,11118.00,0.00,16.697,11681,0.002,13.817,0.006,2.862,0.010,138.1
44,11122.00,11122.00,0.00,16.721,11685,0.002,13.840,0.006,2.863,0.010,138.5
45,11122.00,11122.00,0.00,16.685,11684,0.002,13.803,0.006,2.864,0.010,138.6
46,11124.00,11118.00,6.00,16.607,11679,0.003,13.733,0.007,2.854,0.011,138.7
47,11173.00,11119.00,54.00,16.653,11681,0.002,13.790,0.006,2.845,0.010,139.7
48,11210.00,11116.00,94.00,16.531,11678,0.003,13.669,0.006,2.843,0.010,137.9
49,11146.00,11117.00,29.00,16.651,11679,0.002,13.779,0.006,2.853,0.010,138.1
50,11131.00,11122.00,9.00,16.702,11684,0.002,13.826,0.007,2.857,0.010,138.4
51,11122.00,11122.00,0.00,16.703,11684,0.002,13.824,0.006,2.861,0.009,139.0
52,11121.00,11121.00,0.00,16.737,11683,0.003,13.860,0.006,2.859,0.009,139.2
53,11120.00,11120.00,0.00,16.716,11681,0.002,13.837,0.006,2.860,0.010,138.3
54,11122.00,11122.00,0.00,16.696,11683,0.002,13.821,0.006,2.857,0.009,138.1
55,11123.00,11123.00,0.00,16.710,11685,0.002,13.831,0.006,2.862,0.010,138.9
56,11118.00,11118.00,0.00,16.728,11680,0.002,13.850,0.006,2.860,0.010,139.3
57,11122.00,11122.00,0.00,16.636,11684,0.002,13.759,0.006,2.858,0.010,137.8
58,11122.00,11122.00,0.00,16.691,11684,0.002,13.812,0.006,2.861,0.010,138.1
59,11119.00,11119.00,0.00,16.727,11681,0.002,13.845,0.006,2.864,0.010,138.3
60,11122.00,11122.00,0.00,16.663,11684,0.002,13.789,0.006,2.856,0.010,136.9
61,11122.00,11122.00,0.00,16.573,11684,0.002,13.692,0.006,2.862,0.010,137.1
62,11118.00,11118.00,0.00,16.716,11680,0.002,13.843,0.006,2.855,0.010,138.4
63,11120.00,11120.00,0.00,16.703,11682,0.003,13.823,0.006,2.862,0.010,136.6
64,11122.00,11122.00,0.00,16.697,11684,0.003,13.819,0.007,2.857,0.011,137.2
65,11118.00,11118.00,0.00,16.707,11680,0.002,13.828,0.007,2.861,0.010,137.9
66,11123.00,11123.00,0.00,16.704,11685,0.002,13.828,0.006,2.858,0.010,138.1
67,11122.00,11122.00,0.00,16.718,11685,0.002,13.839,0.006,2.862,0.010,139.2
68,11117.00,11117.00,0.00,16.741,11680,0.002,13.862,0.006,2.862,0.010,139.2
69,11122.00,11122.00,0.00,16.734,11685,0.002,13.858,0.006,2.857,0.010,138.9
70,11122.00,11122.00,0.00,16.744,11685,0.002,13.865,0.006,2.861,0.010,139.7
71,11117.00,11117.00,0.00,16.735,11680,0.002,13.856,0.007,2.860,0.010,139.1
72,11122.00,11122.00,0.00,16.657,11685,0.002,13.779,0.006,2.860,0.010,138.0
73,11122.00,11122.00,0.00,16.698,11684,0.002,13.817,0.006,2.862,0.010,138.9
74,11119.00,11119.00,0.00,12.489,11681,0.002,9.952,0.007,2.518,0.010,98.3
75,7893.00,7893.00,0.00,1.783,8292,0.003,0.173,0.010,1.588,0.009,0.9
