Second,Ops/sec,Hits/sec,Misses/sec,Latency,KB/sec,Request_Creation_Time,Request_Buffer_Time,MW_Writes_To_Memcached_Time,Memcached_Process_Time,MW_Writes_To_Memtier_Time,Queue_Size
4,2719.00,2719.00,0.00,1.431,2857,0.018,0.312,0.035,1.008,0.059,1.5
5,11209.00,11209.00,0.00,1.366,11776,0.004,0.131,0.013,1.202,0.016,0.9
6,11122.00,11122.00,0.00,1.669,11684,0.004,0.115,0.010,1.531,0.010,1.1
7,11122.00,11122.00,0.00,1.686,11684,0.004,0.109,0.010,1.553,0.010,1.0
8,10992.00,10992.00,0.00,1.665,11548,0.003,0.140,0.011,1.499,0.011,1.0
9,11251.00,11248.00,3.00,1.651,11817,0.003,0.140,0.012,1.484,0.011,1.1
10,11142.00,11121.00,21.00,1.547,11683,0.004,0.167,0.012,1.351,0.013,1.2
11,11122.00,11122.00,0.00,1.576,11684,0.004,0.137,0.010,1.413,0.012,0.9
12,11118.00,11118.00,0.00,1.658,11680,0.003,0.124,0.010,1.510,0.011,0.8
13,11122.00,11122.00,0.00,1.720,11685,0.003,0.119,0.009,1.577,0.011,1.0
14,11122.00,11122.00,0.00,1.683,11684,0.003,0.097,0.010,1.559,0.013,0.9
15,11119.00,11119.00,0.00,1.674,11681,0.004,0.129,0.010,1.521,0.010,0.9
16,11122.00,11122.00,0.00,1.701,11684,0.003,0.116,0.010,1.561,0.011,1.0
17,11122.00,11122.00,0.00,1.685,11684,0.003,0.106,0.010,1.555,0.011,0.8
18,11118.00,11118.00,0.00,1.700,11680,0.003,0.128,0.010,1.549,0.011,0.8
19,11289.00,11288.00,1.00,1.677,11859,0.003,0.096,0.009,1.558,0.011,0.8
20,11148.00,11128.00,20.00,1.660,11691,0.003,0.117,0.009,1.521,0.010,1.0
21,11283.00,11280.00,3.00,1.663,11850,0.003,0.124,0.010,1.516,0.010,0.8
22,11134.00,11134.00,0.00,1.678,11697,0.003,0.126,0.009,1.530,0.011,1.2
23,11122.00,11122.00,0.00,1.705,11684,0.003,0.103,0.010,1.578,0.011,0.8
24,11119.00,11119.00,0.00,1.687,11681,0.003,0.111,0.010,1.553,0.011,0.8
25,11122.00,11122.00,0.00,1.699,11685,0.004,0.111,0.010,1.564,0.011,0.7
26,11122.00,11122.00,0.00,1.687,11685,0.003,0.115,0.010,1.549,0.011,0.8
27,11117.00,11117.00,0.00,1.662,11679,0.003,0.130,0.010,1.508,0.012,0.9
28,11122.00,11122.00,0.00,1.695,11684,0.003,0.123,0.010,1.549,0.010,0.9
29,11122.00,11122.00,0.00,1.702,11685,0.003,0.149,0.010,1.529,0.011,0.9
30,11116.00,11116.00,0.00,1.705,11678,0.003,0.109,0.009,1.573,0.010,0.8
31,11122.00,11122.00,0.00,1.703,11684,0.003,0.108,0.010,1.573,0.011,0.9
32,11122.00,11122.00,0.00,1.705,11684,0.003,0.104,0.009,1.577,0.011,0.8
33,11118.00,11118.00,0.00,1.645,11680,0.003,0.194,0.010,1.428,0.010,1.3
34,11122.00,11122.00,0.00,1.633,11684,0.003,0.141,0.010,1.468,0.011,1.0
35,11296.00,11296.00,0.00,1.670,11867,0.003,0.098,0.010,1.550,0.010,0.8
36,11118.00,11118.00,0.00,1.678,11680,0.003,0.134,0.009,1.521,0.010,1.0
37,11122.00,11122.00,0.00,1.671,11684,0.003,0.130,0.009,1.517,0.010,0.9
38,11122.00,11122.00,0.00,1.680,11684,0.003,0.166,0.009,1.491,0.010,1.2
39,11119.00,11119.00,0.00,1.695,11681,0.003,0.120,0.010,1.551,0.011,0.9
40,11121.00,11121.00,0.00,1.716,11683,0.003,0.096,0.009,1.598,0.010,0.8
41,11123.00,11123.00,0.00,1.688,11685,0.003,0.138,0.010,1.528,0.010,1.0
42,11118.00,11118.00,0.00,1.701,11680,0.003,0.121,0.009,1.558,0.010,0.7
43,11122.00,11122.00,0.00,1.665,11684,0.003,0.174,0.010,1.468,0.011,0.9
44,11122.00,11122.00,0.00,1.658,11684,0.003,0.138,0.010,1.497,0.011,0.8
45,11119.00,11118.00,1.00,1.672,11680,0.003,0.152,0.010,1.498,0.009,0.9
46,11297.00,11296.00,1.00,1.652,11867,0.003,0.153,0.009,1.478,0.010,1.0
47,11128.00,11121.00,7.00,1.675,11684,0.003,0.136,0.010,1.517,0.009,0.8
48,11023.00,11014.00,9.00,1.726,11571,0.003,0.110,0.009,1.596,0.009,0.8
49,11232.00,11225.00,7.00,1.620,11793,0.003,0.220,0.009,1.378,0.010,1.3
50,11129.00,11122.00,7.00,1.700,11684,0.003,0.119,0.009,1.560,0.009,0.7
51,11131.00,11122.00,9.00,1.676,11684,0.003,0.142,0.009,1.513,0.009,1.0
52,11131.00,11117.00,14.00,1.680,11679,0.003,0.154,0.009,1.505,0.009,1.0
53,11131.00,11121.00,10.00,1.713,11683,0.003,0.111,0.009,1.580,0.010,0.8
54,11127.00,11122.00,5.00,1.647,11684,0.003,0.150,0.010,1.475,0.009,0.9
55,11120.00,11118.00,2.00,1.682,11680,0.003,0.150,0.009,1.511,0.009,1.0
56,11122.00,11122.00,0.00,1.645,11684,0.003,0.200,0.010,1.422,0.010,1.3
57,11122.00,11122.00,0.00,1.682,11684,0.003,0.170,0.010,1.490,0.010,1.2
58,11119.00,11119.00,0.00,1.676,11681,0.003,0.130,0.009,1.523,0.010,0.8
59,11122.00,11122.00,0.00,1.701,11684,0.003,0.138,0.010,1.539,0.010,1.0
60,11122.00,11122.00,0.00,1.671,11684,0.003,0.170,0.010,1.479,0.010,1.3
61,11118.00,11118.00,0.00,1.694,11680,0.003,0.136,0.009,1.536,0.009,1.0
62,11296.00,11296.00,0.00,1.659,11867,0.003,0.119,0.009,1.518,0.009,0.9
63,11296.00,11296.00,0.00,1.642,11867,0.003,0.158,0.009,1.463,0.009,1.1
64,11117.00,11117.00,0.00,1.646,11679,0.003,0.189,0.009,1.435,0.010,1.5
65,11123.00,11123.00,0.00,1.647,11685,0.003,0.162,0.009,1.463,0.010,1.1
66,11122.00,11122.00,0.00,1.667,11684,0.003,0.154,0.010,1.491,0.009,1.0
67,11119.00,11119.00,0.00,1.691,11681,0.003,0.131,0.010,1.537,0.010,1.0
68,11122.00,11122.00,0.00,1.666,11684,0.003,0.125,0.010,1.518,0.010,0.9
69,11122.00,11122.00,0.00,1.692,11684,0.003,0.137,0.009,1.534,0.010,0.9
70,11118.00,11118.00,0.00,1.665,11680,0.003,0.141,0.010,1.499,0.012,0.9
71,11122.00,11122.00,0.00,1.641,11684,0.003,0.190,0.010,1.428,0.010,1.2
72,11122.00,11122.00,0.00,1.631,11684,0.003,0.213,0.010,1.396,0.009,1.3
73,11118.00,11118.00,0.00,1.681,11680,0.003,0.162,0.010,1.496,0.010,0.9
74,7557.00,7557.00,0.00,1.689,7939,0.003,0.115,0.010,1.552,0.010,0.9
