Second,Ops/sec,Hits/sec,Misses/sec,Latency,KB/sec,Request_Creation_Time,Request_Buffer_Time,MW_Writes_To_Memcached_Time,Memcached_Process_Time,MW_Writes_To_Memtier_Time,Queue_Size
4,3272.00,3272.00,0.00,1.476,1799,0.027,0.313,0.042,1.062,0.031,1.4
5,11674.00,11674.00,0.00,1.334,6416,0.005,0.129,0.012,1.177,0.011,0.9
6,13959.00,13959.00,0.00,1.231,7671,0.004,0.107,0.010,1.100,0.010,0.8
7,14385.00,14385.00,0.00,1.132,7906,0.005,0.151,0.011,0.955,0.010,1.0
8,13016.00,13016.00,0.00,1.385,7154,0.003,0.110,0.010,1.253,0.009,0.9
9,12942.00,12918.00,24.00,1.292,7099,0.003,0.098,0.013,1.166,0.011,0.7
10,12749.00,12749.00,0.00,1.416,7006,0.003,0.110,0.010,1.283,0.011,0.8
11,13504.00,13504.00,0.00,1.255,7422,0.003,0.146,0.010,1.086,0.009,0.9
12,14321.00,14321.00,0.00,1.138,7871,0.004,0.153,0.010,0.960,0.011,1.1
13,13058.00,13058.00,0.00,1.295,7176,0.003,0.168,0.010,1.104,0.009,1.3
14,14208.00,14208.00,0.00,1.163,7808,0.003,0.120,0.012,1.017,0.010,0.9
15,13057.00,13057.00,0.00,1.338,7176,0.003,0.120,0.009,1.196,0.010,0.9
16,13504.00,13504.00,0.00,1.292,7422,0.003,0.125,0.011,1.144,0.011,0.9
17,13517.00,13503.00,14.00,1.289,7422,0.003,0.113,0.010,1.154,0.010,0.7
18,13384.00,13374.00,10.00,1.298,7350,0.003,0.142,0.011,1.133,0.010,1.0
19,13006.00,13006.00,0.00,1.357,7148,0.003,0.144,0.010,1.191,0.009,1.0
20,13110.00,13110.00,0.00,1.386,7205,0.003,0.106,0.009,1.258,0.009,0.7
21,12704.00,12704.00,0.00,1.420,6982,0.003,0.104,0.010,1.294,0.010,0.8
22,13379.00,13379.00,0.00,1.346,7353,0.003,0.094,0.010,1.229,0.010,0.7
23,13368.00,13368.00,0.00,1.260,7347,0.003,0.161,0.010,1.078,0.010,1.1
24,13500.00,13500.00,0.00,1.261,7420,0.003,0.128,0.011,1.110,0.010,1.1
25,13049.00,13049.00,0.00,1.392,7172,0.003,0.108,0.009,1.262,0.009,0.8
26,12846.00,12846.00,0.00,1.416,7060,0.003,0.095,0.009,1.299,0.009,0.7
27,13697.00,13697.00,0.00,1.247,7528,0.003,0.123,0.010,1.102,0.010,0.8
28,13750.00,13750.00,0.00,1.246,7557,0.003,0.178,0.010,1.045,0.010,1.1
29,12914.00,12914.00,0.00,1.326,7098,0.003,0.196,0.010,1.107,0.011,1.3
30,12788.00,12788.00,0.00,1.419,7028,0.003,0.109,0.010,1.287,0.009,0.8
31,13258.00,13258.00,0.00,1.286,7287,0.003,0.123,0.010,1.140,0.010,0.9
32,14018.00,14018.00,0.00,1.196,7704,0.003,0.141,0.010,1.031,0.010,1.1
33,12718.00,12718.00,0.00,1.417,6990,0.003,0.120,0.010,1.275,0.009,0.9
34,13462.00,13462.00,0.00,1.271,7399,0.003,0.146,0.010,1.102,0.009,1.0
35,13316.00,13316.00,0.00,1.336,7318,0.003,0.113,0.010,1.200,0.010,0.9
36,13417.00,13417.00,0.00,1.297,7374,0.003,0.102,0.010,1.173,0.010,0.8
37,13662.00,13662.00,0.00,1.265,7508,0.003,0.107,0.011,1.134,0.010,0.9
38,12460.00,12460.00,0.00,1.410,6848,0.003,0.146,0.011,1.241,0.010,0.8
39,12721.00,12719.00,2.00,1.408,6990,0.003,0.130,0.010,1.256,0.010,0.9
40,13436.00,13428.00,8.00,1.315,7380,0.003,0.103,0.010,1.191,0.009,0.8
41,13146.00,13140.00,6.00,1.334,7222,0.003,0.115,0.010,1.196,0.010,0.9
42,14010.00,13996.00,14.00,1.214,7692,0.003,0.104,0.011,1.086,0.010,0.7
43,12985.00,12976.00,9.00,1.383,7132,0.003,0.113,0.010,1.248,0.009,0.8
44,13517.00,13505.00,12.00,1.292,7422,0.003,0.122,0.010,1.146,0.011,0.9
45,12932.00,12919.00,13.00,1.330,7100,0.003,0.184,0.009,1.124,0.010,1.3
46,13454.00,13446.00,8.00,1.276,7390,0.003,0.162,0.010,1.091,0.009,1.1
47,13498.00,13498.00,0.00,1.311,7418,0.003,0.148,0.011,1.139,0.010,1.1
48,13689.00,13689.00,0.00,1.268,7523,0.003,0.122,0.010,1.125,0.009,0.7
49,14205.00,14205.00,0.00,1.227,7807,0.003,0.093,0.010,1.110,0.010,0.8
50,13538.00,13538.00,0.00,1.286,7440,0.003,0.111,0.010,1.153,0.009,0.9
51,13051.00,13051.00,0.00,1.297,7172,0.004,0.167,0.011,1.105,0.010,1.1
52,13896.00,13896.00,0.00,1.249,7637,0.003,0.101,0.011,1.125,0.009,0.8
53,13455.00,13455.00,0.00,1.306,7395,0.003,0.107,0.010,1.177,0.009,1.0
54,12829.00,12829.00,0.00,1.385,7051,0.003,0.115,0.011,1.247,0.010,0.8
55,13448.00,13448.00,0.00,1.290,7391,0.003,0.104,0.010,1.165,0.010,0.8
56,13591.00,13591.00,0.00,1.298,7469,0.003,0.127,0.012,1.144,0.012,0.9
57,13210.00,13210.00,0.00,1.251,7260,0.004,0.150,0.010,1.077,0.010,1.1
58,12948.00,12948.00,0.00,1.359,7116,0.003,0.110,0.010,1.228,0.009,0.7
59,13362.00,13362.00,0.00,1.310,7344,0.003,0.143,0.010,1.144,0.010,0.9
60,13511.00,13511.00,0.00,1.205,7425,0.004,0.132,0.010,1.049,0.010,0.8
61,14995.00,14995.00,0.00,1.096,8241,0.004,0.123,0.012,0.946,0.011,0.9
62,14684.00,14684.00,0.00,1.137,8070,0.003,0.143,0.011,0.970,0.010,1.0
63,13515.00,13515.00,0.00,1.222,7428,0.004,0.162,0.010,1.034,0.012,1.0
64,14597.00,14597.00,0.00,1.132,8022,0.003,0.145,0.010,0.964,0.010,0.9
65,13741.00,13741.00,0.00,1.214,7552,0.003,0.154,0.011,1.036,0.010,1.1
66,13351.00,13351.00,0.00,1.306,7337,0.003,0.101,0.009,1.182,0.010,0.8
67,13230.00,13230.00,0.00,1.328,7271,0.003,0.137,0.009,1.168,0.011,1.0
68,12911.00,12911.00,0.00,1.361,7096,0.003,0.146,0.010,1.192,0.010,0.9
69,12970.00,12970.00,0.00,1.346,7128,0.003,0.116,0.010,1.207,0.010,0.9
70,13325.00,13325.00,0.00,1.322,7323,0.003,0.115,0.010,1.184,0.010,0.8
71,14307.00,14307.00,0.00,1.178,7863,0.003,0.139,0.010,1.017,0.010,0.9
72,14459.00,14459.00,0.00,1.173,7946,0.003,0.130,0.011,1.020,0.010,0.9
73,12856.00,12856.00,0.00,1.286,7066,0.003,0.197,0.010,1.065,0.011,1.4
74,8923.00,8923.00,0.00,1.254,4904,0.003,0.120,0.010,1.112,0.010,0.8
