Second,Ops/sec,Hits/sec,Misses/sec,Latency,KB/sec,Request_Creation_Time,Request_Buffer_Time,MW_Writes_To_Memcached_Time,Memcached_Process_Time,MW_Writes_To_Memtier_Time,Queue_Size
4,1844.00,1844.00,0.00,4.056,205,0.014,3.250,0.032,0.711,0.048,37.3
5,10647.00,10647.00,0.00,12.207,1184,0.004,11.456,0.007,0.728,0.012,122.4
6,11533.00,11533.00,0.00,16.008,1282,0.004,15.317,0.006,0.670,0.011,174.1
7,11963.00,11963.00,0.00,15.484,1330,0.004,14.810,0.006,0.654,0.011,173.4
8,11879.00,11879.00,0.00,15.689,1320,0.003,15.014,0.006,0.654,0.011,174.3
9,12512.00,12512.00,0.00,14.880,1390,0.003,14.238,0.006,0.620,0.012,175.6
10,10972.00,10972.00,0.00,16.866,1219,0.003,16.139,0.006,0.708,0.011,173.3
11,12084.00,12084.00,0.00,15.069,1343,0.003,14.402,0.006,0.647,0.011,172.2
12,11957.00,11957.00,0.00,15.686,1329,0.002,15.015,0.006,0.652,0.011,175.2
13,13145.00,13145.00,0.00,14.052,1461,0.003,13.440,0.006,0.592,0.011,174.4
14,12966.00,12966.00,0.00,14.223,1441,0.003,13.605,0.006,0.599,0.011,175.2
15,12154.00,12154.00,0.00,15.224,1350,0.003,14.569,0.006,0.636,0.011,173.8
16,11273.00,11273.00,0.00,16.589,1253,0.003,15.873,0.006,0.696,0.012,174.4
17,11801.00,11801.00,0.00,15.710,1312,0.002,15.032,0.006,0.658,0.012,174.4
18,12184.00,12184.00,0.00,15.204,1353,0.003,14.547,0.006,0.637,0.011,174.5
19,11339.00,11339.00,0.00,16.377,1259,0.003,15.666,0.006,0.691,0.011,174.8
20,12529.00,12529.00,0.00,14.800,1391,0.003,14.161,0.006,0.619,0.012,174.4
21,11857.00,11857.00,0.00,15.678,1317,0.003,15.002,0.006,0.655,0.012,174.9
22,11917.00,11917.00,0.00,15.587,1324,0.003,14.913,0.006,0.654,0.011,175.4
23,12093.00,12093.00,0.00,15.268,1344,0.002,14.608,0.006,0.640,0.011,174.3
24,11991.00,11991.00,0.00,15.322,1332,0.003,14.651,0.006,0.650,0.012,172.5
25,12148.00,12148.00,0.00,15.286,1350,0.003,14.623,0.006,0.642,0.012,174.9
26,12132.00,12132.00,0.00,15.167,1348,0.003,14.508,0.006,0.640,0.011,174.3
27,11706.00,11706.00,0.00,15.941,1300,0.002,15.257,0.006,0.665,0.011,174.9
28,12697.00,12697.00,0.00,14.533,1411,0.003,13.901,0.006,0.612,0.011,174.6
29,12310.00,12310.00,0.00,15.068,1367,0.002,14.414,0.006,0.634,0.011,173.8
30,12266.00,12266.00,0.00,15.173,1363,0.003,14.518,0.006,0.635,0.011,175.3
31,13079.00,13079.00,0.00,14.003,1454,0.003,13.390,0.006,0.594,0.011,173.1
32,12366.00,12366.00,0.00,14.999,1374,0.003,14.350,0.006,0.628,0.012,174.8
33,12727.00,12727.00,0.00,14.502,1414,0.003,13.874,0.006,0.608,0.011,174.5
34,12158.00,12158.00,0.00,15.370,1352,0.003,14.706,0.006,0.643,0.012,174.5
35,11862.00,11862.00,0.00,15.536,1318,0.003,14.864,0.006,0.652,0.011,174.5
36,12317.00,12317.00,0.00,15.207,1369,0.003,14.551,0.006,0.636,0.012,174.8
37,12297.00,12297.00,0.00,15.088,1367,0.002,14.435,0.006,0.633,0.011,173.8
38,11966.00,11966.00,0.00,15.492,1330,0.002,14.824,0.006,0.650,0.011,174.2
39,12223.00,12223.00,0.00,15.161,1358,0.003,14.502,0.006,0.638,0.012,174.4
40,11571.00,11571.00,0.00,16.113,1286,0.003,15.420,0.006,0.674,0.011,174.5
41,13327.00,13327.00,0.00,13.848,1481,0.003,13.245,0.006,0.583,0.012,174.8
42,11335.00,11335.00,0.00,16.441,1259,0.003,15.734,0.006,0.688,0.012,175.4
43,12452.00,12451.00,1.00,14.990,1383,0.002,14.346,0.006,0.624,0.011,174.9
44,12114.00,12010.00,104.00,15.274,1335,0.003,14.612,0.008,0.638,0.013,174.7
45,12311.00,12237.00,74.00,15.047,1359,0.002,14.396,0.006,0.631,0.011,175.0
46,12253.00,12240.00,13.00,15.027,1359,0.003,14.373,0.006,0.634,0.011,174.1
47,11254.00,11254.00,0.00,16.596,1250,0.002,15.884,0.006,0.692,0.012,174.1
48,11805.00,11805.00,0.00,15.794,1312,0.002,15.114,0.006,0.661,0.011,174.2
49,11340.00,11340.00,0.00,16.378,1259,0.003,15.672,0.006,0.686,0.011,175.0
50,11241.00,11241.00,0.00,16.595,1248,0.003,15.882,0.006,0.694,0.011,175.5
51,11595.00,11595.00,0.00,15.988,1287,0.003,15.295,0.006,0.672,0.012,174.5
52,12129.00,12129.00,0.00,15.216,1348,0.003,14.555,0.006,0.641,0.012,174.7
53,11260.00,11260.00,0.00,16.424,1252,0.003,15.711,0.007,0.691,0.012,173.5
54,12318.00,12318.00,0.00,14.966,1368,0.003,14.315,0.006,0.631,0.011,174.7
55,12519.00,12519.00,0.00,14.850,1391,0.002,14.209,0.006,0.622,0.011,174.8
56,11736.00,11736.00,0.00,15.798,1304,0.002,15.115,0.006,0.664,0.011,175.3
57,12016.00,12016.00,0.00,15.405,1335,0.003,14.740,0.006,0.645,0.012,174.3
58,12468.00,12468.00,0.00,14.829,1386,0.003,14.184,0.006,0.625,0.011,173.5
59,11169.00,11169.00,0.00,16.666,1241,0.003,15.945,0.006,0.702,0.011,174.8
60,12035.00,12035.00,0.00,15.479,1337,0.003,14.812,0.006,0.647,0.011,174.6
61,12120.00,12120.00,0.00,15.363,1346,0.003,14.701,0.006,0.642,0.012,175.0
62,12079.00,12079.00,0.00,15.311,1342,0.003,14.648,0.006,0.644,0.011,174.8
63,12573.00,12573.00,0.00,14.739,1398,0.002,14.101,0.006,0.619,0.011,174.7
64,11496.00,11496.00,0.00,16.195,1278,0.002,15.497,0.006,0.679,0.011,174.6
65,11403.00,11403.00,0.00,16.149,1267,0.003,15.448,0.006,0.682,0.011,173.3
66,12060.00,12060.00,0.00,15.519,1341,0.003,14.852,0.006,0.648,0.011,174.5
67,12934.00,12934.00,0.00,14.309,1438,0.002,13.688,0.006,0.601,0.011,175.5
68,11624.00,11624.00,0.00,15.816,1291,0.002,15.126,0.006,0.670,0.011,172.9
69,11961.00,11961.00,0.00,15.660,1329,0.002,14.989,0.006,0.652,0.011,175.2
70,11470.00,11470.00,0.00,16.137,1275,0.003,15.437,0.006,0.681,0.011,173.9
71,13738.00,13738.00,0.00,13.469,1528,0.003,12.889,0.006,0.561,0.011,175.2
72,14387.00,14387.00,0.00,12.871,1599,0.003,12.310,0.006,0.541,0.012,175.3
73,13219.00,13219.00,0.00,13.956,1467,0.003,13.348,0.006,0.588,0.011,173.9
74,13068.00,13068.00,0.00,11.518,1451,0.003,10.916,0.006,0.581,0.012,141.1
75,10385.00,10385.00,0.00,2.292,1153,0.003,1.759,0.007,0.511,0.012,24.5
