Second,Ops/sec,Hits/sec,Misses/sec,Latency,KB/sec,Request_Creation_Time,Request_Buffer_Time,MW_Writes_To_Memcached_Time,Memcached_Process_Time,MW_Writes_To_Memtier_Time,Queue_Size
4,2823.00,2823.00,0.00,2.209,846,0.019,0.694,0.054,1.397,0.045,5.7
5,14811.00,14811.00,0.00,2.005,4438,0.006,0.355,0.015,1.616,0.014,3.1
6,18109.00,18109.00,0.00,2.038,5426,0.003,0.218,0.010,1.798,0.009,2.7
7,19664.00,19664.00,0.00,1.785,5891,0.004,0.205,0.012,1.552,0.011,2.6
8,19086.00,19086.00,0.00,1.977,5718,0.004,0.169,0.010,1.785,0.010,2.0
9,18197.00,18197.00,0.00,1.978,5452,0.004,0.250,0.011,1.703,0.010,2.7
10,19661.00,19661.00,0.00,1.898,5891,0.003,0.163,0.009,1.714,0.010,2.5
11,16905.00,16857.00,48.00,2.118,5050,0.004,0.205,0.013,1.883,0.013,2.5
12,19221.00,19221.00,0.00,1.763,5757,0.004,0.277,0.014,1.453,0.015,3.0
13,18517.00,18517.00,0.00,1.992,5547,0.003,0.170,0.010,1.797,0.012,2.7
14,18687.00,18687.00,0.00,1.978,5599,0.003,0.214,0.011,1.740,0.010,2.9
15,18761.00,18761.00,0.00,1.887,5621,0.004,0.207,0.010,1.656,0.010,2.4
16,19173.00,19173.00,0.00,2.015,5743,0.003,0.170,0.010,1.823,0.009,2.6
17,17954.00,17954.00,0.00,1.730,5379,0.003,0.293,0.017,1.399,0.017,3.0
18,19005.00,19005.00,0.00,1.918,5693,0.003,0.227,0.013,1.663,0.011,3.0
19,19101.00,19101.00,0.00,1.990,5723,0.003,0.180,0.010,1.787,0.011,2.7
20,18919.00,18919.00,0.00,2.014,5668,0.003,0.171,0.011,1.818,0.010,2.5
21,18804.00,18804.00,0.00,2.089,5633,0.003,0.172,0.010,1.894,0.010,2.6
22,19190.00,19186.00,4.00,1.751,5749,0.004,0.196,0.012,1.525,0.013,2.7
23,18225.00,18203.00,22.00,1.964,5454,0.004,0.246,0.015,1.685,0.013,3.0
24,18853.00,18831.00,22.00,1.948,5641,0.004,0.255,0.010,1.668,0.012,2.8
25,18791.00,18791.00,0.00,1.982,5629,0.003,0.224,0.011,1.734,0.010,3.1
26,18298.00,18298.00,0.00,1.972,5482,0.003,0.186,0.009,1.763,0.010,3.0
27,19462.00,19462.00,0.00,1.875,5831,0.004,0.186,0.011,1.662,0.012,2.8
28,19183.00,19183.00,0.00,1.954,5747,0.003,0.160,0.010,1.771,0.010,2.5
29,18674.00,18674.00,0.00,2.044,5595,0.003,0.219,0.011,1.800,0.010,2.9
30,18806.00,18806.00,0.00,2.026,5634,0.003,0.169,0.010,1.834,0.010,2.5
31,18649.00,18649.00,0.00,2.079,5587,0.003,0.184,0.010,1.872,0.010,2.7
32,18600.00,18600.00,0.00,2.038,5573,0.002,0.157,0.010,1.859,0.010,2.5
33,18862.00,18862.00,0.00,2.069,5651,0.003,0.159,0.009,1.888,0.010,2.6
34,19356.00,19356.00,0.00,2.011,5799,0.002,0.138,0.010,1.851,0.010,2.4
35,18628.00,18628.00,0.00,2.012,5581,0.003,0.164,0.010,1.826,0.010,2.5
36,18448.00,18448.00,0.00,2.119,5527,0.003,0.182,0.010,1.914,0.011,2.4
37,19047.00,19047.00,0.00,1.822,5706,0.004,0.258,0.013,1.530,0.017,2.9
38,19225.00,19225.00,0.00,1.954,5759,0.003,0.158,0.010,1.772,0.011,2.4
39,18686.00,18686.00,0.00,2.047,5598,0.003,0.180,0.010,1.845,0.010,2.5
40,19765.00,19765.00,0.00,1.917,5922,0.003,0.182,0.010,1.713,0.009,2.7
41,18474.00,18474.00,0.00,1.976,5535,0.003,0.272,0.010,1.680,0.010,3.3
42,18790.00,18790.00,0.00,2.053,5629,0.003,0.171,0.009,1.861,0.010,2.4
43,19385.00,19385.00,0.00,1.930,5808,0.003,0.208,0.010,1.699,0.011,2.4
44,19284.00,19284.00,0.00,1.865,5777,0.003,0.183,0.011,1.658,0.011,2.5
45,18618.00,18618.00,0.00,2.032,5578,0.002,0.152,0.010,1.858,0.009,2.1
46,18569.00,18569.00,0.00,2.049,5563,0.003,0.156,0.009,1.873,0.009,2.4
47,18784.00,18784.00,0.00,1.991,5627,0.003,0.204,0.010,1.765,0.010,2.6
48,18428.00,18428.00,0.00,2.072,5521,0.003,0.182,0.010,1.867,0.010,2.7
49,19475.00,19475.00,0.00,1.970,5834,0.003,0.131,0.009,1.818,0.009,2.1
50,19042.00,19042.00,0.00,1.996,5705,0.003,0.158,0.009,1.816,0.009,2.3
51,18112.00,18112.00,0.00,2.163,5426,0.003,0.164,0.009,1.979,0.009,2.3
52,18838.00,18838.00,0.00,1.865,5644,0.003,0.247,0.012,1.590,0.012,2.5
53,19287.00,19283.00,4.00,1.959,5777,0.002,0.130,0.009,1.809,0.009,2.0
54,18844.00,18838.00,6.00,2.046,5644,0.003,0.160,0.009,1.865,0.009,2.4
55,19311.00,19303.00,8.00,1.961,5784,0.003,0.149,0.009,1.790,0.010,2.1
56,18304.00,18295.00,9.00,2.064,5481,0.003,0.146,0.009,1.897,0.009,2.2
57,18782.00,18771.00,11.00,2.044,5624,0.003,0.170,0.009,1.853,0.009,2.5
58,18887.00,18869.00,18.00,2.009,5653,0.002,0.157,0.009,1.830,0.009,2.5
59,18974.00,18958.00,16.00,1.977,5680,0.003,0.192,0.010,1.763,0.009,2.4
60,18584.00,18570.00,14.00,2.014,5563,0.003,0.171,0.010,1.820,0.010,2.3
61,18829.00,18813.00,16.00,2.028,5636,0.002,0.155,0.009,1.850,0.010,2.4
62,18910.00,18890.00,20.00,2.045,5659,0.003,0.163,0.010,1.860,0.009,2.3
63,18106.00,18098.00,8.00,2.132,5422,0.003,0.228,0.010,1.882,0.010,3.1
64,19338.00,19328.00,10.00,1.991,5790,0.003,0.164,0.009,1.807,0.009,2.5
65,19446.00,19443.00,3.00,1.926,5825,0.003,0.190,0.011,1.712,0.010,2.5
66,18050.00,18049.00,1.00,2.134,5407,0.003,0.160,0.010,1.952,0.009,2.4
67,19124.00,19124.00,0.00,1.945,5729,0.003,0.187,0.009,1.737,0.010,2.6
68,19111.00,19111.00,0.00,1.948,5725,0.003,0.195,0.010,1.730,0.010,2.9
69,18563.00,18563.00,0.00,2.108,5561,0.003,0.164,0.009,1.923,0.009,2.3
70,18870.00,18870.00,0.00,2.059,5653,0.002,0.167,0.009,1.871,0.009,2.3
71,17977.00,17977.00,0.00,2.063,5385,0.004,0.199,0.011,1.838,0.011,2.4
72,18626.00,18626.00,0.00,2.067,5580,0.002,0.176,0.010,1.869,0.010,2.4
73,18521.00,18521.00,0.00,2.059,5549,0.003,0.175,0.009,1.864,0.009,2.6
74,13538.00,13538.00,0.00,1.988,4056,0.003,0.195,0.009,1.771,0.011,2.7
