"Dstat 0.7.2 CSV output"
"Author:","Dag Wieers <dag@wieers.com>",,,,"URL:","http://dag.wieers.com/home-made/dstat/"
"Host:","Server2",,,,"User:","mstevan"
"Cmdline:","dstat --output /home/mstevan/logs/experiment_3.4/dstat/vs_1024-vcpr_8-wtpm_8-rep_1.csv 5 16",,,,"Date:","28 Oct 2019 19:19:52 UTC"

"total cpu usage",,,,,,"dsk/total",,"net/total",,"paging",,"system",
"usr","sys","idl","wai","hiq","siq","read","writ","recv","send","in","out","int","csw"
1.637,3.354,94.306,0.277,0.0,0.426,5962.945,609939.036,0.0,0.0,0.0,0.0,0.052,1702.577
0.600,0.400,99.0,0.0,0.0,0.0,0.0,1638.400,13975.0,97301.0,0.0,0.0,0.0,139.600
2.326,5.920,91.121,0.0,0.0,0.634,0.0,819.200,635867.200,8477531.800,0.0,0.0,0.0,2869.0
2.361,6.009,91.202,0.0,0.0,0.429,0.0,2457.600,642733.400,8518356.800,0.0,0.0,0.0,2918.0
2.966,6.992,89.407,0.0,0.0,0.636,0.0,2457.600,680721.600,9037643.600,0.0,0.0,0.0,3017.400
2.119,6.568,89.619,1.059,0.0,0.636,0.0,18841.600,672908.600,8972777.600,0.0,0.0,0.0,2722.800
2.737,7.158,89.263,0.0,0.0,0.842,0.0,1638.400,689877.400,9159974.600,0.0,0.0,0.0,3010.400
2.708,7.708,88.750,0.0,0.0,0.833,0.0,3276.800,669703.0,8887019.600,0.0,0.0,0.0,2780.200
2.340,6.170,90.426,0.0,0.0,1.064,0.0,819.200,652856.200,8709029.400,0.0,0.0,0.0,2848.400
3.165,5.696,90.717,0.0,0.0,0.422,0.0,1638.400,669399.800,8882969.600,0.0,0.0,0.0,2746.400
2.105,5.263,92.0,0.0,0.0,0.632,0.0,819.200,630546.200,8400802.400,0.0,0.0,0.0,2426.200
3.383,7.188,88.372,0.423,0.0,0.634,0.0,15564.800,683641.0,9077836.800,0.0,0.0,0.0,3089.400
2.537,7.400,89.218,0.0,0.0,0.846,0.0,5734.400,685405.0,9098449.800,0.0,0.0,0.0,3128.800
3.112,7.884,88.382,0.0,0.0,0.622,0.0,819.200,677271.600,9033112.0,0.0,0.0,0.0,2917.400
3.333,6.667,88.958,0.0,0.0,1.042,0.0,3276.800,662637.800,8796640.800,0.0,0.0,0.0,2898.600
2.998,6.424,90.150,0.0,0.0,0.428,0.0,1638.400,658657.0,8737133.600,0.0,0.0,0.0,2853.800
0.201,0.201,99.598,0.0,0.0,0.0,0.0,819.200,3251.400,1147.600,0.0,0.0,0.0,66.0
