"Dstat 0.7.2 CSV output"
"Author:","Dag Wieers <dag@wieers.com>",,,,"URL:","http://dag.wieers.com/home-made/dstat/"
"Host:","Server2",,,,"User:","mstevan"
"Cmdline:","dstat --output /home/mstevan/logs/experiment_3.4/dstat/vs_1024-vcpr_32-wtpm_64-rep_3.csv 5 16",,,,"Date:","28 Oct 2019 20:08:14 UTC"

"total cpu usage",,,,,,"dsk/total",,"net/total",,"paging",,"system",
"usr","sys","idl","wai","hiq","siq","read","writ","recv","send","in","out","int","csw"
1.684,3.485,94.116,0.271,0.0,0.445,5734.003,586692.678,0.0,0.0,0.0,0.0,0.050,1769.595
0.400,0.400,99.200,0.0,0.0,0.0,0.0,819.200,16015.0,97592.400,0.0,0.0,0.0,227.800
2.766,7.447,87.872,0.0,0.0,1.915,0.0,1638.400,934740.800,12379289.800,0.0,0.0,0.0,3616.600
1.895,8.421,89.263,0.0,0.0,0.421,0.0,819.200,938581.400,12538937.400,0.0,0.0,0.0,2636.200
3.145,7.128,88.679,0.0,0.0,1.048,0.0,3276.800,938105.0,12493855.800,0.0,0.0,0.0,2624.200
3.165,8.228,86.287,1.055,0.0,1.266,0.0,19660.800,942793.0,12506287.0,0.0,0.0,0.0,2945.200
2.917,8.750,87.292,0.0,0.0,1.042,0.0,819.200,936216.600,12499941.200,0.0,0.0,0.0,2747.200
3.132,8.768,87.056,0.0,0.0,1.044,0.0,3276.800,941370.400,12538890.0,0.0,0.0,0.0,3182.600
2.923,7.933,87.474,0.0,0.0,1.670,0.0,819.200,937608.200,12500039.0,0.0,0.0,0.0,2447.200
3.198,6.823,88.699,0.0,0.0,1.279,0.0,1638.400,938131.200,12500035.400,0.0,0.0,0.0,2909.0
2.966,8.051,88.136,0.0,0.0,0.847,0.0,1638.400,939756.600,12499964.600,0.0,0.0,0.0,2888.400
2.725,8.595,87.002,0.419,0.0,1.258,0.0,14745.600,936493.200,12499953.400,0.0,0.0,0.0,2979.200
3.158,8.421,87.579,0.0,0.0,0.842,0.0,5734.400,942172.200,12562784.0,0.0,0.0,0.0,2350.800
3.354,6.709,88.260,0.0,0.0,1.677,0.0,1638.400,939763.600,12498866.400,0.0,0.0,0.0,2165.0
2.714,6.889,89.144,0.0,0.0,1.253,0.0,2457.600,936166.400,12501323.0,0.0,0.0,0.200,2054.800
4.440,5.920,88.584,0.0,0.0,1.057,0.0,1638.400,926414.800,12309785.600,0.0,0.0,0.0,2772.600
0.602,0.803,98.193,0.0,0.0,0.402,0.0,819.200,38725.400,418871.200,0.0,0.0,0.0,452.0
