"Dstat 0.7.2 CSV output"
"Author:","Dag Wieers <dag@wieers.com>",,,,"URL:","http://dag.wieers.com/home-made/dstat/"
"Host:","Server2",,,,"User:","mstevan"
"Cmdline:","dstat --output /home/mstevan/logs/experiment_3.4/dstat/vs_1024-vcpr_4-wtpm_32-rep_3.csv 5 16",,,,"Date:","28 Oct 2019 19:11:20 UTC"

"total cpu usage",,,,,,"dsk/total",,"net/total",,"paging",,"system",
"usr","sys","idl","wai","hiq","siq","read","writ","recv","send","in","out","int","csw"
1.628,3.329,94.346,0.279,0.0,0.419,6005.251,614232.877,0.0,0.0,0.0,0.0,0.052,1677.982
0.803,0.402,98.795,0.0,0.0,0.0,0.0,1638.400,15602.0,90553.200,0.0,0.0,0.0,181.600
2.820,7.375,88.937,0.0,0.0,0.868,0.0,819.200,548353.400,7299736.200,0.0,0.0,0.0,6200.400
4.301,9.032,84.301,1.075,0.0,1.290,0.0,27033.600,593467.200,7865251.800,0.0,0.0,0.0,6627.800
2.418,9.231,87.692,0.0,0.0,0.659,0.0,12288.0,622370.200,8297740.0,0.0,0.0,0.0,6914.600
3.282,8.096,87.527,0.0,0.0,1.094,0.0,1638.400,594185.400,7872590.200,0.0,0.0,0.0,6598.400
3.084,8.811,87.665,0.0,0.0,0.441,0.0,1638.400,623205.0,8261102.800,0.0,0.0,0.0,6765.600
3.696,8.913,86.739,0.0,0.0,0.652,0.0,2457.600,617563.600,8231892.0,0.0,0.0,0.0,6632.0
3.648,10.086,85.193,0.0,0.0,1.073,0.0,1638.400,607740.800,8061059.0,0.0,0.0,0.0,6742.200
4.139,9.586,85.185,0.218,0.0,0.871,0.0,15564.800,614169.400,8139470.600,0.0,0.0,0.0,6381.800
4.185,8.150,87.004,0.0,0.0,0.661,0.0,819.200,607519.400,8095819.0,0.0,0.0,0.0,6704.600
3.896,8.658,86.797,0.0,0.0,0.649,0.0,1638.400,601706.600,7982441.200,0.0,0.0,0.0,6498.200
3.448,9.267,86.422,0.0,0.0,0.862,0.0,819.200,606372.600,8083128.400,0.0,0.0,0.200,6702.600
3.486,9.150,86.492,0.0,0.0,0.871,0.0,1638.400,614972.0,8154454.0,0.0,0.0,0.0,6401.400
3.830,9.362,85.957,0.0,0.0,0.851,0.0,3276.800,603230.200,8000245.400,0.0,0.0,0.0,6295.800
2.991,7.051,89.316,0.0,0.0,0.641,0.0,819.200,602554.600,8019423.600,0.0,0.0,0.0,5398.200
0.401,0.0,98.998,0.601,0.0,0.0,0.0,17203.200,6254.0,1868.800,0.0,0.0,0.0,78.0
