"Dstat 0.7.2 CSV output"
"Author:","Dag Wieers <dag@wieers.com>",,,,"URL:","http://dag.wieers.com/home-made/dstat/"
"Host:","Server2",,,,"User:","mstevan"
"Cmdline:","dstat --output /home/mstevan/logs/experiment_3.4/dstat/vs_1024-vcpr_32-wtpm_8-rep_3.csv 5 16",,,,"Date:","28 Oct 2019 19:56:51 UTC"

"total cpu usage",,,,,,"dsk/total",,"net/total",,"paging",,"system",
"usr","sys","idl","wai","hiq","siq","read","writ","recv","send","in","out","int","csw"
1.676,3.462,94.148,0.273,0.0,0.442,5786.279,592000.390,0.0,0.0,0.0,0.0,0.050,1766.465
0.601,0.401,98.397,0.601,0.0,0.0,0.0,19660.800,14531.400,103065.0,0.0,0.0,0.0,157.200
1.903,7.188,90.698,0.0,0.0,0.211,0.0,819.200,658190.0,8775713.0,0.0,0.0,0.0,3151.400
2.917,7.917,88.750,0.0,0.0,0.417,0.0,1638.400,634471.400,8419375.800,0.0,0.0,0.0,3000.400
1.948,6.494,91.126,0.0,0.0,0.433,0.0,3276.800,685583.200,9095370.200,0.0,0.0,0.0,2769.200
1.927,7.066,90.792,0.0,0.0,0.214,0.0,819.200,700342.0,9341187.0,0.0,0.0,0.0,2886.400
3.178,6.356,89.831,0.0,0.0,0.636,0.0,1638.400,678337.800,8993400.800,0.0,0.0,0.0,2886.600
3.361,6.303,89.496,0.420,0.0,0.420,0.0,20480.0,682873.800,9104952.200,0.0,0.0,0.0,2713.200
3.171,6.342,89.641,0.0,0.0,0.846,0.0,1638.400,690792.400,9178744.0,0.0,0.0,0.0,2803.400
3.419,5.556,90.385,0.0,0.0,0.641,0.0,1638.400,700356.800,9302534.0,0.0,0.0,0.0,2785.200
2.748,6.977,89.852,0.0,0.0,0.423,0.0,819.200,696377.200,9286419.0,0.0,0.0,0.0,2759.400
3.205,5.769,90.598,0.0,0.0,0.427,0.0,1638.400,671419.0,8913898.0,0.0,0.0,0.0,2762.0
2.960,6.977,89.429,0.0,0.0,0.634,0.0,1638.400,671942.0,8921467.800,0.0,0.0,0.0,2701.600
3.151,6.933,88.655,0.630,0.0,0.630,0.0,14745.600,688725.200,9174029.600,0.0,0.0,0.0,2741.0
2.748,6.342,90.486,0.0,0.0,0.423,0.0,3276.800,658145.200,8736170.0,0.0,0.0,0.0,2569.0
2.935,6.709,89.727,0.0,0.0,0.629,0.0,1638.400,643839.600,8542773.400,0.0,0.0,0.0,2558.400
0.403,1.008,98.589,0.0,0.0,0.0,0.0,819.200,25920.0,299292.800,0.0,0.0,0.0,401.800
