"Dstat 0.7.2 CSV output"
"Author:","Dag Wieers <dag@wieers.com>",,,,"URL:","http://dag.wieers.com/home-made/dstat/"
"Host:","Server2",,,,"User:","mstevan"
"Cmdline:","dstat --output /home/mstevan/logs/experiment_3.4/dstat/vs_1024-vcpr_16-wtpm_64-rep_2.csv 5 16",,,,"Date:","28 Oct 2019 19:49:44 UTC"

"total cpu usage",,,,,,"dsk/total",,"net/total",,"paging",,"system",
"usr","sys","idl","wai","hiq","siq","read","writ","recv","send","in","out","int","csw"
1.667,3.438,94.183,0.273,0.0,0.438,5819.438,595367.143,0.0,0.0,0.0,0.0,0.051,1754.617
0.202,0.202,98.992,0.605,0.0,0.0,0.0,21299.200,16272.600,101065.200,0.0,0.0,0.0,223.400
5.322,11.973,80.710,0.0,0.0,1.996,0.0,1638.400,909021.600,12013089.0,0.0,0.0,0.0,6188.0
4.027,10.962,82.774,0.0,0.0,2.237,0.0,1638.400,938096.400,12463312.400,0.0,0.0,0.0,6100.0
5.122,10.913,82.405,0.0,0.0,1.559,0.0,2457.600,937862.0,12510226.0,0.0,0.0,0.0,5884.600
4.656,12.639,80.710,0.0,0.0,1.996,0.0,1638.400,942027.200,12516379.0,0.0,0.0,0.0,5868.600
4.922,11.409,81.655,0.0,0.0,2.013,0.0,819.200,941116.800,12488929.0,0.0,0.0,0.0,6085.200
4.232,11.581,80.846,0.0,0.0,3.341,0.0,3276.800,937805.0,12526826.400,0.0,0.0,0.0,6005.200
5.150,12.446,80.043,0.429,0.0,1.931,0.0,22118.400,940578.800,12503097.800,0.0,0.0,0.0,6041.0
4.603,11.715,82.008,0.0,0.0,1.674,0.0,819.200,937882.200,12505100.200,0.0,0.0,0.0,6198.800
4.762,11.905,81.602,0.0,0.0,1.732,0.0,1638.400,939726.0,12501668.400,0.0,0.0,0.0,6226.400
3.905,11.931,81.779,0.0,0.0,2.386,0.0,1638.400,939250.800,12483701.0,0.0,0.0,0.0,6371.800
4.018,10.491,83.929,0.0,0.0,1.562,0.0,819.200,938550.800,12515153.400,0.0,0.0,0.0,6060.400
4.977,13.348,80.090,0.0,0.0,1.584,0.0,1638.400,939792.400,12492307.600,0.0,0.0,0.0,5864.400
4.338,14.155,79.224,0.457,0.0,1.826,0.0,14745.600,937397.800,12483344.600,0.0,0.0,0.0,5739.600
4.575,10.240,84.096,0.0,0.0,1.089,0.0,3276.800,921244.600,12248514.400,0.0,0.0,0.0,5395.200
0.401,0.0,99.599,0.0,0.0,0.0,0.0,1638.400,6254.0,1868.800,0.0,0.0,0.0,73.200
