"Dstat 0.7.2 CSV output"
"Author:","Dag Wieers <dag@wieers.com>",,,,"URL:","http://dag.wieers.com/home-made/dstat/"
"Host:","Server2",,,,"User:","mstevan"
"Cmdline:","dstat --output /home/mstevan/logs/experiment_3.4/dstat/vs_1024-vcpr_32-wtpm_8-rep_2.csv 5 16",,,,"Date:","28 Oct 2019 19:55:26 UTC"

"total cpu usage",,,,,,"dsk/total",,"net/total",,"paging",,"system",
"usr","sys","idl","wai","hiq","siq","read","writ","recv","send","in","out","int","csw"
1.675,3.460,94.150,0.273,0.0,0.442,5792.880,592671.427,0.0,0.0,0.0,0.0,0.050,1765.712
0.201,0.402,99.396,0.0,0.0,0.0,0.0,1638.400,16527.600,130570.800,0.0,0.0,0.0,165.200
2.553,5.532,91.489,0.0,0.0,0.426,0.0,819.200,663399.200,8843120.800,0.0,0.0,0.0,3196.400
2.123,6.369,90.658,0.0,0.0,0.849,0.0,1638.400,652955.600,8666892.0,0.0,0.0,0.0,3327.0
2.929,7.113,88.703,0.0,0.0,1.255,0.0,2457.600,691834.0,9190661.800,0.0,0.0,0.0,3147.400
2.960,6.554,90.063,0.0,0.0,0.423,0.0,1638.400,675350.200,9000762.200,0.0,0.0,0.0,2796.0
1.903,7.400,89.429,0.634,0.0,0.634,0.0,19660.800,681057.200,9033287.600,0.0,0.0,0.0,3042.600
1.480,5.920,91.543,0.0,0.0,1.057,0.0,3276.800,656305.200,8709445.400,0.0,0.0,0.0,2628.600
2.141,5.353,92.505,0.0,0.0,0.0,0.0,819.200,657694.200,8766712.800,0.0,0.0,0.0,2751.400
2.548,6.369,90.870,0.0,0.0,0.212,0.0,1638.400,650815.400,8636735.400,0.0,0.0,0.0,2633.200
2.521,6.092,90.756,0.0,0.0,0.630,0.0,819.200,675126.0,9004949.600,0.0,0.0,0.0,2783.0
2.754,7.203,89.831,0.0,0.0,0.212,0.0,1638.400,690956.400,9176687.200,0.0,0.0,0.0,2980.0
2.954,6.329,89.030,0.633,0.0,1.055,0.0,19660.800,671022.800,8905204.0,0.0,0.0,0.0,2848.0
2.169,4.338,92.842,0.0,0.0,0.651,0.0,819.200,689783.800,9187455.400,0.0,0.0,0.0,2824.200
2.766,5.957,90.426,0.0,0.0,0.851,0.0,3276.800,679670.200,9027170.400,0.0,0.0,0.0,2653.200
3.347,6.695,89.331,0.0,0.0,0.628,0.0,1638.400,673728.800,8943488.400,0.0,0.0,0.0,2742.800
0.407,0.611,98.982,0.0,0.0,0.0,0.0,819.200,60233.0,763221.600,0.0,0.0,0.0,795.600
