"Dstat 0.7.2 CSV output"
"Author:","Dag Wieers <dag@wieers.com>",,,,"URL:","http://dag.wieers.com/home-made/dstat/"
"Host:","Server2",,,,"User:","mstevan"
"Cmdline:","dstat --output /home/mstevan/logs/experiment_3.4/dstat/vs_1024-vcpr_16-wtpm_64-rep_4.csv 5 16",,,,"Date:","28 Oct 2019 19:52:35 UTC"

"total cpu usage",,,,,,"dsk/total",,"net/total",,"paging",,"system",
"usr","sys","idl","wai","hiq","siq","read","writ","recv","send","in","out","int","csw"
1.672,3.451,94.163,0.273,0.0,0.441,5806.126,594016.238,0.0,0.0,0.0,0.0,0.050,1761.590
0.402,0.402,99.197,0.0,0.0,0.0,0.0,1638.400,18314.600,89871.400,0.0,0.0,0.0,211.600
4.204,11.283,82.080,0.0,0.0,2.434,0.0,1638.400,904902.800,11970773.600,0.0,0.0,0.0,6088.200
4.762,11.905,81.602,0.0,0.0,1.732,0.0,819.200,937999.200,12496450.400,0.0,0.0,0.0,5820.200
4.415,12.141,81.236,0.662,0.0,1.545,0.0,21299.200,942682.200,12517991.400,0.0,0.0,0.0,5903.200
3.939,11.160,83.370,0.0,0.0,1.532,0.0,1638.400,936376.0,12454083.400,0.0,0.0,0.0,5869.0
4.772,12.364,80.911,0.0,0.0,1.952,0.0,819.200,939900.0,12526023.400,0.0,0.0,0.0,5713.0
4.405,11.674,81.498,0.0,0.0,2.423,0.0,3276.800,942400.800,12512749.0,0.0,0.0,0.0,5945.800
4.194,12.141,81.457,0.0,0.0,2.208,0.0,819.200,937449.0,12507188.0,0.0,0.0,0.0,6087.200
3.640,11.777,82.869,0.0,0.0,1.713,0.0,1638.400,915629.400,12147456.200,0.0,0.0,0.0,5368.200
3.540,9.513,84.735,0.664,0.0,1.549,0.0,19660.800,882276.400,11735833.200,0.0,0.0,0.0,5214.600
4.204,11.726,82.522,0.0,0.0,1.549,0.0,819.200,938084.400,12503719.800,0.0,0.0,0.0,6299.200
4.709,11.659,81.614,0.0,0.0,2.018,0.0,1638.400,941040.600,12508528.200,0.0,0.0,0.0,6205.800
5.345,12.472,80.178,0.0,0.0,2.004,0.0,1638.400,935856.800,12446365.600,0.0,0.0,0.0,5791.0
4.889,11.111,82.222,0.0,0.0,1.778,0.0,2457.600,942274.0,12553648.200,0.0,0.0,0.0,5990.200
4.656,10.865,81.596,0.0,0.0,2.882,0.0,1638.400,921743.800,12238673.0,0.0,0.0,0.200,5839.0
0.200,0.200,98.196,1.403,0.0,0.0,0.0,14745.600,3251.400,1147.600,0.0,0.0,0.0,67.200
