"Dstat 0.7.2 CSV output"
"Author:","Dag Wieers <dag@wieers.com>",,,,"URL:","http://dag.wieers.com/home-made/dstat/"
"Host:","Server2",,,,"User:","mstevan"
"Cmdline:","dstat --output /home/mstevan/logs/experiment_3.4/dstat/vs_1024-vcpr_8-wtpm_8-rep_4.csv 5 16",,,,"Date:","28 Oct 2019 19:24:08 UTC"

"total cpu usage",,,,,,"dsk/total",,"net/total",,"paging",,"system",
"usr","sys","idl","wai","hiq","siq","read","writ","recv","send","in","out","int","csw"
1.639,3.361,94.297,0.277,0.0,0.426,5942.012,607812.873,0.0,0.0,0.0,0.0,0.052,1704.694
0.401,0.401,99.198,0.0,0.0,0.0,0.0,819.200,12767.200,120039.0,0.0,0.0,0.0,156.200
2.725,7.128,89.727,0.0,0.0,0.419,0.0,1638.400,639039.400,8475659.800,0.0,0.0,0.0,2781.400
1.903,6.342,90.698,0.634,0.0,0.423,0.0,20480.0,629500.0,8353081.200,0.0,0.0,0.0,2831.600
3.132,6.889,89.353,0.0,0.0,0.626,0.0,1638.400,671762.800,8958289.200,0.0,0.0,0.0,2829.200
2.954,6.751,89.873,0.0,0.0,0.422,0.0,1638.400,658293.400,8731679.600,0.0,0.0,0.0,2583.400
2.941,6.933,89.916,0.0,0.0,0.210,0.0,819.200,647454.600,8635819.600,0.0,0.0,0.0,2714.600
2.553,6.809,89.787,0.0,0.0,0.851,0.0,3276.800,674810.400,8957815.0,0.0,0.0,0.0,2874.600
2.772,5.757,90.618,0.0,0.0,0.853,0.0,1638.400,668726.200,8875552.0,0.0,0.0,0.0,3121.0
2.110,7.173,89.662,0.633,0.0,0.422,0.0,18841.600,658471.400,8780503.800,0.0,0.0,0.0,2855.600
2.345,7.036,90.192,0.0,0.0,0.426,0.0,1638.400,673507.0,8936671.800,0.0,0.0,0.0,2977.600
2.553,5.319,91.277,0.0,0.0,0.851,0.0,1638.400,655254.200,8692354.800,0.0,0.0,0.0,2635.400
2.905,6.017,90.456,0.0,0.0,0.622,0.0,819.200,620682.600,8273771.800,0.0,0.0,0.0,2260.0
2.743,6.962,89.662,0.0,0.0,0.633,0.0,1638.400,669358.200,8883380.400,0.0,0.0,0.0,2747.800
2.141,6.210,91.221,0.0,0.0,0.428,0.0,3276.800,668075.800,8867616.0,0.0,0.0,0.0,2687.600
2.725,6.709,89.518,0.629,0.0,0.419,0.0,14745.600,645645.400,8608564.0,0.0,0.0,0.0,2839.800
0.202,0.0,99.798,0.0,0.0,0.0,0.0,1638.400,6254.0,1868.800,0.0,0.0,0.0,67.0
