"Dstat 0.7.2 CSV output"
"Author:","Dag Wieers <dag@wieers.com>",,,,"URL:","http://dag.wieers.com/home-made/dstat/"
"Host:","Server2",,,,"User:","mstevan"
"Cmdline:","dstat --output /home/mstevan/logs/experiment_3.4/dstat/vs_1024-vcpr_32-wtpm_32-rep_2.csv 5 16",,,,"Date:","28 Oct 2019 20:01:07 UTC"

"total cpu usage",,,,,,"dsk/total",,"net/total",,"paging",,"system",
"usr","sys","idl","wai","hiq","siq","read","writ","recv","send","in","out","int","csw"
1.678,3.469,94.138,0.272,0.0,0.442,5766.564,589998.865,0.0,0.0,0.0,0.0,0.050,1767.993
0.600,0.600,98.800,0.0,0.0,0.0,0.0,819.200,16755.600,142987.200,0.0,0.0,0.0,217.0
2.570,8.137,88.009,0.0,0.0,1.285,0.0,1638.400,935939.800,12455931.400,0.0,0.0,0.0,3160.600
3.602,6.356,88.983,0.0,0.0,1.059,0.0,1638.400,939779.200,12505620.400,0.0,0.0,0.0,2548.800
2.754,7.203,89.619,0.0,0.0,0.424,0.0,2457.600,937495.400,12509219.400,0.0,0.0,0.0,2559.200
3.383,7.188,87.949,0.423,0.0,1.057,0.0,24576.0,938359.600,12479215.800,0.0,0.0,0.0,2674.0
2.548,7.219,89.172,0.0,0.0,1.062,0.0,819.200,936935.0,12522863.600,0.0,0.0,0.0,2402.200
3.340,7.724,87.891,0.0,0.0,1.044,0.0,3276.800,939385.800,12500892.800,0.0,0.0,0.0,2260.0
2.778,6.410,89.316,0.0,0.0,1.496,0.0,1638.400,938719.400,12493030.600,0.0,0.0,0.0,2180.200
3.145,6.918,88.889,0.0,0.0,1.048,0.0,819.200,937420.0,12506913.200,0.0,0.0,0.0,2155.600
2.766,6.170,89.362,0.0,0.0,1.702,0.0,1638.400,938770.200,12499993.200,0.0,0.0,0.0,2413.0
3.983,6.499,87.841,0.839,0.0,0.839,0.0,14745.600,938284.200,12489051.600,0.0,0.0,0.0,2427.0
2.954,7.173,89.030,0.0,0.0,0.844,0.0,1638.400,936912.200,12509776.0,0.0,0.0,0.0,2417.0
3.830,7.447,87.872,0.0,0.0,0.851,0.0,1638.400,939140.600,12490985.200,0.0,0.0,0.0,2366.200
2.720,7.113,88.912,0.0,0.0,1.255,0.0,2457.600,936311.200,12503631.400,0.0,0.0,0.0,2030.600
2.714,7.724,87.891,0.0,0.0,1.670,0.0,1638.400,920348.800,12236872.400,0.0,0.0,0.0,2314.200
0.0,0.402,99.398,0.0,0.0,0.201,0.0,1638.400,12783.600,49524.400,0.0,0.0,0.0,158.800
