"Dstat 0.7.2 CSV output"
"Author:","Dag Wieers <dag@wieers.com>",,,,"URL:","http://dag.wieers.com/home-made/dstat/"
"Host:","Server2",,,,"User:","mstevan"
"Cmdline:","dstat --output /home/mstevan/logs/experiment_3.4/dstat/vs_1024-vcpr_8-wtpm_64-rep_2.csv 5 16",,,,"Date:","28 Oct 2019 19:32:40 UTC"

"total cpu usage",,,,,,"dsk/total",,"net/total",,"paging",,"system",
"usr","sys","idl","wai","hiq","siq","read","writ","recv","send","in","out","int","csw"
1.649,3.389,94.258,0.276,0.0,0.429,5900.589,603606.820,0.0,0.0,0.0,0.0,0.051,1725.087
0.600,0.200,99.0,0.0,0.0,0.200,0.0,819.200,16337.0,99586.0,0.0,0.0,0.0,224.400
4.615,8.571,83.516,0.0,0.0,3.297,0.0,1638.400,725174.400,9488157.800,0.0,0.0,0.0,6426.200
3.965,9.912,83.480,0.0,0.0,2.643,0.0,1638.400,771803.800,10174433.200,0.0,0.0,0.0,6816.600
3.863,11.159,82.403,0.0,0.0,2.575,0.0,2457.600,774721.400,10291320.800,0.0,0.0,0.0,6547.600
5.161,9.032,82.151,0.860,0.0,2.796,0.0,21299.200,773629.600,10232364.800,0.0,0.0,0.200,6352.800
4.878,11.086,81.596,0.0,0.0,2.439,0.0,2457.600,772896.400,10251744.800,0.0,0.0,0.0,6600.600
4.536,10.583,82.505,0.0,0.0,2.376,0.0,3276.800,779722.200,10307176.0,0.0,0.0,0.0,6961.600
3.913,10.0,82.609,0.0,0.0,3.478,0.0,1638.400,786279.0,10394647.400,0.0,0.0,0.0,6945.0
5.973,9.956,81.416,0.0,0.0,2.655,0.0,819.200,779580.400,10343609.600,0.0,0.0,0.0,6247.400
3.761,10.177,84.292,0.0,0.0,1.770,0.0,1638.400,786363.200,10391592.0,0.0,0.0,0.0,6501.0
4.978,9.957,81.385,0.866,0.0,2.814,0.0,26214.400,777114.200,10263556.0,0.0,0.0,0.0,6681.800
3.471,9.328,84.165,0.0,0.0,3.037,0.0,819.200,770271.600,10217254.0,0.0,0.0,0.0,6390.0
3.361,9.874,84.034,0.0,0.0,2.731,0.0,1638.400,766092.200,10102599.200,0.0,0.0,0.0,5687.400
4.086,9.247,83.656,0.0,0.0,3.011,0.0,2457.600,767270.800,10175910.400,0.0,0.0,0.0,6685.600
4.651,10.359,82.030,0.0,0.0,2.960,0.0,1638.400,750015.600,9874877.600,0.0,0.0,0.0,6050.600
0.402,0.0,99.598,0.0,0.0,0.0,0.0,1638.400,6254.0,1868.800,0.0,0.0,0.0,74.0
