"Dstat 0.7.2 CSV output"
"Author:","Dag Wieers <dag@wieers.com>",,,,"URL:","http://dag.wieers.com/home-made/dstat/"
"Host:","Server2",,,,"User:","mstevan"
"Cmdline:","dstat --output /home/mstevan/logs/experiment_3.4/dstat/vs_1024-vcpr_32-wtpm_8-rep_4.csv 5 16",,,,"Date:","28 Oct 2019 19:58:16 UTC"

"total cpu usage",,,,,,"dsk/total",,"net/total",,"paging",,"system",
"usr","sys","idl","wai","hiq","siq","read","writ","recv","send","in","out","int","csw"
1.677,3.464,94.145,0.272,0.0,0.442,5779.695,591331.967,0.0,0.0,0.0,0.0,0.050,1767.105
0.200,0.401,99.399,0.0,0.0,0.0,0.0,1638.400,9644.400,39081.600,0.0,0.0,0.0,102.400
2.575,3.863,92.489,0.644,0.0,0.429,0.0,23756.800,630799.400,8408192.0,0.0,0.0,0.0,2678.800
2.559,5.757,91.045,0.0,0.0,0.640,0.0,1638.400,657643.600,8728229.600,0.0,0.0,0.0,2817.600
2.972,5.520,90.870,0.0,0.0,0.637,0.0,2457.600,674487.600,8971812.800,0.0,0.0,0.0,2529.0
3.549,7.307,88.727,0.0,0.0,0.418,0.0,1638.400,690389.400,9193586.0,0.0,0.0,0.0,2747.800
2.748,6.342,90.486,0.0,0.0,0.423,0.0,1638.400,657699.600,8714674.400,0.0,0.0,0.0,2785.600
3.125,7.292,88.958,0.0,0.0,0.625,0.0,2457.600,662268.0,8835099.800,0.0,0.0,0.0,2715.200
2.548,5.945,90.446,0.425,0.0,0.637,0.0,15564.800,656356.800,8707340.400,0.0,0.0,0.0,2525.200
3.178,6.356,90.042,0.0,0.0,0.424,0.0,1638.400,655354.400,8700250.600,0.0,0.0,0.200,2528.400
1.709,6.410,91.667,0.0,0.0,0.214,0.0,819.200,659126.600,8790319.800,0.0,0.0,0.0,2557.400
2.778,5.342,91.239,0.0,0.0,0.641,0.0,1638.400,656133.200,8700705.600,0.0,0.0,0.0,2473.600
2.542,6.568,90.254,0.0,0.0,0.636,0.0,1638.400,670934.800,8911651.800,0.0,0.0,0.0,2614.0
2.542,6.568,90.466,0.0,0.0,0.424,0.0,819.200,677467.0,9021294.400,0.0,0.0,0.0,2787.200
2.935,7.966,88.050,0.629,0.0,0.419,0.0,16384.0,685823.600,9102427.800,0.0,0.0,0.0,2862.400
2.537,5.920,90.909,0.0,0.0,0.634,0.0,1638.400,677965.200,9044216.0,0.0,0.0,0.0,2703.200
0.602,1.205,98.193,0.0,0.0,0.0,0.0,1638.400,50686.600,593259.0,0.0,0.0,0.0,406.800
