"Dstat 0.7.2 CSV output"
"Author:","Dag Wieers <dag@wieers.com>",,,,"URL:","http://dag.wieers.com/home-made/dstat/"
"Host:","Server2",,,,"User:","mstevan"
"Cmdline:","dstat --output /home/mstevan/logs/experiment_3.4/dstat/vs_1024-vcpr_32-wtpm_32-rep_1.csv 5 16",,,,"Date:","28 Oct 2019 19:59:42 UTC"

"total cpu usage",,,,,,"dsk/total",,"net/total",,"paging",,"system",
"usr","sys","idl","wai","hiq","siq","read","writ","recv","send","in","out","int","csw"
1.677,3.466,94.143,0.272,0.0,0.442,5773.121,590664.646,0.0,0.0,0.0,0.0,0.050,1767.621
0.202,0.202,99.194,0.0,0.0,0.403,0.0,1638.400,23543.0,179793.800,0.0,0.0,0.0,220.200
3.185,7.643,88.535,0.0,0.0,0.637,0.0,819.200,934104.200,12483393.200,0.0,0.0,0.0,2849.400
2.532,7.806,87.764,0.844,0.0,1.055,0.0,19660.800,938990.0,12496185.600,0.0,0.0,0.0,2215.600
3.093,8.660,87.010,0.0,0.0,1.237,0.0,1638.400,937547.200,12504240.400,0.0,0.0,0.0,2127.600
3.368,8.0,87.368,0.0,0.0,1.263,0.0,2457.600,939109.200,12500021.200,0.0,0.0,0.0,2431.200
3.632,7.051,88.248,0.0,0.0,1.068,0.0,1638.400,942318.0,12527832.400,0.0,0.0,0.0,2558.800
3.814,7.203,88.136,0.0,0.0,0.847,0.0,2457.600,935204.200,12499978.800,0.0,0.0,0.0,2952.0
2.941,7.983,87.185,0.0,0.0,1.891,0.0,1638.400,939385.600,12496879.0,0.0,0.0,0.0,2560.600
3.165,6.540,89.241,0.0,0.0,1.055,0.0,819.200,936155.0,12501346.400,0.0,0.0,0.0,2425.800
3.165,8.228,86.920,0.633,0.0,1.055,0.0,19660.800,940038.200,12501627.400,0.0,0.0,0.0,2618.400
2.559,7.036,89.552,0.0,0.0,0.853,0.0,1638.400,938540.200,12489910.800,0.0,0.0,0.0,2510.600
2.311,7.983,88.866,0.0,0.0,0.840,0.0,819.200,936812.0,12510292.0,0.0,0.0,0.0,2564.400
2.737,8.211,88.421,0.0,0.0,0.632,0.0,1638.400,939482.400,12499932.600,0.0,0.0,0.0,2512.200
2.537,7.400,89.006,0.0,0.0,1.057,0.0,3276.800,938868.400,12499973.600,0.0,0.0,0.0,2412.200
2.505,7.933,89.144,0.0,0.0,0.418,0.0,819.200,915982.0,12233353.800,0.0,0.0,0.0,2264.0
0.601,1.002,97.595,0.601,0.0,0.200,0.0,15564.800,40865.0,458765.400,0.0,0.0,0.0,449.400
