"Dstat 0.7.2 CSV output"
"Author:","Dag Wieers <dag@wieers.com>",,,,"URL:","http://dag.wieers.com/home-made/dstat/"
"Host:","Server2",,,,"User:","mstevan"
"Cmdline:","dstat --output /home/mstevan/logs/experiment_3.4/dstat/vs_1024-vcpr_32-wtpm_64-rep_4.csv 5 16",,,,"Date:","28 Oct 2019 20:09:39 UTC"

"total cpu usage",,,,,,"dsk/total",,"net/total",,"paging",,"system",
"usr","sys","idl","wai","hiq","siq","read","writ","recv","send","in","out","int","csw"
1.686,3.488,94.109,0.271,0.0,0.446,5727.535,586036.743,0.0,0.0,0.0,0.0,0.052,1770.209
0.604,0.201,99.195,0.0,0.0,0.0,0.0,2457.600,21640.0,171504.400,0.0,0.0,0.0,249.800
2.941,7.353,88.235,0.0,0.0,1.471,0.0,4915.200,900890.200,11962057.600,0.0,0.0,0.0,2537.400
2.537,7.188,89.006,0.0,0.0,1.268,0.0,2457.600,931668.400,12442503.400,0.0,0.0,0.0,2397.600
3.219,7.511,87.768,0.0,0.0,1.502,0.0,6553.600,927902.0,12293993.600,0.0,0.0,0.0,3160.0
2.960,6.977,89.006,0.0,0.0,1.057,0.0,4915.200,940714.0,12534858.0,0.0,0.0,0.0,2501.600
2.760,6.582,88.110,1.699,0.0,0.849,0.0,128614.400,938954.400,12512755.600,0.0,0.0,0.0,2595.800
3.594,6.554,86.469,1.903,0.0,1.480,0.0,308838.400,938985.400,12500014.0,0.0,0.0,0.0,2718.600
3.983,7.547,87.212,0.0,0.0,1.258,0.0,4915.200,942086.200,12538972.0,0.0,0.0,0.0,2707.800
3.125,8.333,87.917,0.0,0.0,0.625,0.0,2457.600,935473.200,12500121.0,0.0,0.0,0.0,2875.800
2.979,7.872,88.085,0.0,0.0,1.064,0.0,4915.200,940600.400,12499985.400,0.0,0.0,0.0,3280.400
2.526,8.0,88.421,0.0,0.0,1.053,0.0,2457.600,936438.0,12499966.0,0.0,0.0,0.0,3044.400
3.602,7.415,88.136,0.0,0.0,0.847,0.0,4915.200,938592.0,12499912.600,0.0,0.0,0.0,2748.600
2.754,8.051,87.288,0.847,0.0,1.059,0.0,54886.400,939000.800,12500062.600,0.0,0.0,0.0,2661.800
3.171,7.188,88.372,0.0,0.0,1.268,0.0,4096.0,936757.800,12499978.600,0.0,0.0,0.0,2835.600
3.132,7.933,87.265,0.0,0.0,1.670,0.0,4915.200,918850.600,12236046.0,0.0,0.0,0.0,2839.400
0.607,1.215,97.976,0.0,0.0,0.202,0.0,4915.200,63318.400,753515.600,0.0,0.0,0.0,602.800
