"Dstat 0.7.2 CSV output"
"Author:","Dag Wieers <dag@wieers.com>",,,,"URL:","http://dag.wieers.com/home-made/dstat/"
"Host:","Server2",,,,"User:","mstevan"
"Cmdline:","dstat --output /home/mstevan/logs/experiment_3.4/dstat/vs_1024-vcpr_4-wtpm_8-rep_2.csv 5 16",,,,"Date:","28 Oct 2019 19:04:13 UTC"

"total cpu usage",,,,,,"dsk/total",,"net/total",,"paging",,"system",
"usr","sys","idl","wai","hiq","siq","read","writ","recv","send","in","out","int","csw"
1.620,3.310,94.373,0.279,0.0,0.418,6040.968,617857.793,0.0,0.0,0.0,0.0,0.052,1656.937
0.200,0.401,99.399,0.0,0.0,0.0,0.0,819.200,9746.600,80477.600,0.0,0.0,0.0,138.800
3.782,8.613,86.134,0.840,0.0,0.630,0.0,19660.800,537082.0,7110917.800,0.0,0.0,0.0,5932.0
3.888,7.559,88.121,0.0,0.0,0.432,0.0,6553.600,582164.400,7717977.800,0.0,0.0,0.0,6279.200
1.948,6.926,90.476,0.0,0.0,0.649,0.0,2457.600,587158.400,7823678.400,0.0,0.0,0.0,6067.400
3.185,7.219,88.323,0.0,0.0,1.274,0.0,1638.400,585090.600,7758425.200,0.0,0.0,0.0,6190.400
3.247,7.576,88.095,0.0,0.0,1.082,0.0,1638.400,605224.0,8023212.400,0.0,0.0,0.0,6625.400
3.433,8.155,87.983,0.0,0.0,0.429,0.0,2457.600,591156.0,7875474.0,0.0,0.0,0.0,6375.0
3.905,7.375,88.286,0.0,0.0,0.434,0.0,1638.400,601960.600,7980676.600,0.0,0.0,0.0,6427.800
3.471,7.592,88.069,0.434,0.0,0.434,0.0,14745.600,603174.800,8040970.400,0.0,0.0,0.0,6715.800
2.820,8.677,87.636,0.0,0.0,0.868,0.0,1638.400,600877.200,7969232.0,0.0,0.0,0.0,6395.200
3.240,9.071,86.609,0.0,0.0,1.080,0.0,1638.400,595120.0,7883786.800,0.0,0.0,0.0,6064.800
2.609,7.826,88.913,0.0,0.0,0.652,0.0,819.200,593018.800,7906980.800,0.0,0.0,0.0,6230.600
3.501,7.221,88.840,0.0,0.0,0.438,0.0,1638.400,580984.600,7701494.200,0.0,0.0,0.0,6242.600
3.905,7.375,88.286,0.0,0.0,0.434,0.0,3276.800,598221.400,7935044.0,0.0,0.0,0.0,6325.200
3.011,7.312,87.742,1.075,0.0,0.860,0.0,14745.600,580522.200,7731626.200,0.0,0.0,0.0,6200.200
0.401,0.200,99.399,0.0,0.0,0.0,0.0,1638.400,6254.0,1855.600,0.0,0.0,0.0,69.400
