"Dstat 0.7.2 CSV output"
"Author:","Dag Wieers <dag@wieers.com>",,,,"URL:","http://dag.wieers.com/home-made/dstat/"
"Host:","Server2",,,,"User:","mstevan"
"Cmdline:","dstat --output /home/mstevan/logs/experiment_3.4/dstat/vs_256-vcpr_32-wtpm_32-rep_4.csv 5 16",,,,"Date:","28 Oct 2019 17:47:08 UTC"

"total cpu usage",,,,,,"dsk/total",,"net/total",,"paging",,"system",
"usr","sys","idl","wai","hiq","siq","read","writ","recv","send","in","out","int","csw"
1.506,3.001,94.833,0.291,0.0,0.369,6457.332,660128.772,0.0,0.0,0.0,0.0,0.056,1480.212
0.601,0.401,98.998,0.0,0.0,0.0,0.0,1638.400,16544.600,34795.200,0.0,0.0,0.0,176.600
3.947,11.623,83.333,0.0,0.0,1.096,0.0,1638.400,1104681.200,4648092.0,0.0,0.0,0.0,4652.800
4.545,11.039,82.035,0.649,0.0,1.732,0.0,19660.800,1182929.0,4990680.200,0.0,0.0,0.0,4251.0
5.251,10.502,82.648,0.0,0.0,1.598,0.0,3276.800,1157336.800,4870377.600,0.0,0.0,0.0,4539.600
4.535,13.605,80.272,0.0,0.0,1.587,0.0,819.200,1151119.600,4842483.600,0.0,0.0,0.0,4348.400
5.708,13.699,78.539,0.0,0.0,2.055,0.0,1638.400,1178661.400,4974461.800,0.0,0.0,0.0,4330.0
5.467,13.212,79.727,0.0,0.0,1.595,0.0,3276.800,1168712.800,4922216.600,0.0,0.0,0.0,4180.600
3.778,14.444,80.444,0.0,0.0,1.333,0.0,819.200,1169438.200,4930266.0,0.0,0.0,0.0,4197.800
5.134,14.062,78.125,0.670,0.0,2.009,0.0,21299.200,1194574.400,5029109.0,0.0,0.0,0.0,4245.400
5.357,12.054,80.580,0.0,0.0,2.009,0.0,1638.400,1185073.800,4986015.0,0.0,0.0,0.0,3979.0
4.698,14.094,79.642,0.0,0.0,1.566,0.0,819.200,1185998.0,5006391.0,0.0,0.0,0.0,4148.200
4.444,11.333,82.444,0.0,0.0,1.778,0.0,1638.400,1188567.600,5003256.400,0.0,0.0,0.0,3865.600
5.405,12.162,81.306,0.0,0.0,1.126,0.0,819.200,1182449.200,4989088.800,0.0,0.0,0.0,3818.800
5.217,13.696,78.913,0.0,0.0,2.174,0.0,3276.800,1189767.400,5006643.600,0.0,0.0,0.0,4097.600
5.804,11.607,80.804,0.223,0.0,1.562,0.0,15564.800,1170588.0,4929625.400,0.0,0.0,0.0,4221.400
0.406,1.014,98.580,0.0,0.0,0.0,0.0,819.200,73435.800,294493.400,0.0,0.0,0.0,811.600
