"Dstat 0.7.2 CSV output"
"Author:","Dag Wieers <dag@wieers.com>",,,,"URL:","http://dag.wieers.com/home-made/dstat/"
"Host:","Server2",,,,"User:","mstevan"
"Cmdline:","dstat --output /home/mstevan/logs/experiment_3.4/dstat/vs_256-vcpr_16-wtpm_8-rep_4.csv 5 16",,,,"Date:","28 Oct 2019 17:24:22 UTC"

"total cpu usage",,,,,,"dsk/total",,"net/total",,"paging",,"system",
"usr","sys","idl","wai","hiq","siq","read","writ","recv","send","in","out","int","csw"
1.469,2.903,94.978,0.295,0.0,0.355,6591.441,673744.813,0.0,0.0,0.0,0.0,0.057,1432.381
0.600,0.400,98.200,0.600,0.0,0.200,0.0,20480.0,19850.600,57018.200,0.0,0.0,0.0,193.400
1.931,5.365,92.275,0.0,0.0,0.429,0.0,819.200,646441.800,2722425.800,0.0,0.0,0.0,2713.0
3.138,5.649,90.377,0.0,0.0,0.837,0.0,1638.400,624477.600,2616215.400,0.0,0.0,0.0,2514.600
2.985,5.117,91.471,0.0,0.0,0.426,0.0,3276.800,648070.600,2715796.200,0.0,0.0,0.0,2464.0
2.510,7.531,89.540,0.0,0.0,0.418,0.0,819.200,676351.0,2848415.200,0.0,0.0,0.0,2835.0
2.697,7.469,89.419,0.0,0.0,0.415,0.0,1638.400,671876.0,2817889.200,0.0,0.0,0.0,2556.800
3.178,5.508,90.042,0.636,0.0,0.636,0.0,17203.200,673115.800,2821597.400,0.0,0.0,0.0,2693.0
2.505,5.846,91.023,0.0,0.0,0.626,0.0,5734.400,665105.0,2799361.200,0.0,0.0,0.0,2445.400
2.731,5.672,90.756,0.0,0.0,0.840,0.0,1638.400,671573.800,2816890.600,0.0,0.0,0.0,2656.800
2.929,6.067,90.586,0.0,0.0,0.418,0.0,819.200,673053.200,2835474.400,0.0,0.0,0.0,2549.200
2.760,6.157,90.870,0.0,0.0,0.212,0.0,1638.400,676299.800,2835971.200,0.0,0.0,0.0,2646.600
2.917,6.875,89.167,0.0,0.0,1.042,0.0,1638.400,671660.400,2817090.200,0.0,0.0,0.0,2593.800
2.911,7.069,89.397,0.0,0.0,0.624,0.0,819.200,683918.800,2880735.200,0.0,0.0,0.0,2631.200
2.960,6.131,89.641,0.634,0.0,0.634,0.0,17203.200,675572.600,2833505.800,0.0,0.0,0.0,2595.800
2.345,5.970,91.258,0.0,0.0,0.426,0.0,1638.400,659695.800,2765423.200,0.0,0.0,0.0,2716.600
0.200,0.200,99.600,0.0,0.0,0.0,0.0,819.200,3167.0,992.0,0.0,0.0,0.0,66.200
