"Dstat 0.7.2 CSV output"
"Author:","Dag Wieers <dag@wieers.com>",,,,"URL:","http://dag.wieers.com/home-made/dstat/"
"Host:","Server2",,,,"User:","mstevan"
"Cmdline:","dstat --output /home/mstevan/logs/experiment_3.4/dstat/vs_256-vcpr_8-wtpm_8-rep_1.csv 5 16",,,,"Date:","28 Oct 2019 17:03:02 UTC"

"total cpu usage",,,,,,"dsk/total",,"net/total",,"paging",,"system",
"usr","sys","idl","wai","hiq","siq","read","writ","recv","send","in","out","int","csw"
1.441,2.830,95.087,0.299,0.0,0.343,6722.335,687033.146,0.0,0.0,0.0,0.0,0.058,1381.910
0.402,0.201,99.398,0.0,0.0,0.0,0.0,1638.400,16561.200,42892.600,0.0,0.0,0.0,163.0
3.347,6.485,89.331,0.0,0.0,0.837,0.0,1638.400,648800.800,2720381.200,0.0,0.0,0.0,2988.800
2.778,6.410,90.385,0.0,0.0,0.427,0.0,819.200,664339.400,2796268.400,0.0,0.0,0.0,3227.200
1.940,5.819,91.379,0.0,0.0,0.862,0.0,3276.800,681943.200,2859817.0,0.0,0.0,0.0,3124.600
2.128,7.234,90.426,0.0,0.0,0.213,0.0,1638.400,683176.400,2866087.0,0.0,0.0,0.0,3038.400
2.350,5.769,90.598,0.855,0.0,0.427,0.0,23756.800,658086.0,2771255.200,0.0,0.0,0.0,2712.800
3.185,7.006,89.172,0.0,0.0,0.637,0.0,3276.800,678263.800,2844388.800,0.0,0.0,0.0,3325.200
2.570,5.567,91.221,0.0,0.0,0.642,0.0,819.200,691938.400,2915179.800,0.0,0.0,0.0,2992.800
3.426,6.210,89.722,0.0,0.0,0.642,0.0,1638.400,679214.0,2847888.0,0.0,0.0,0.0,3153.400
3.797,6.962,88.397,0.0,0.0,0.844,0.0,1638.400,672046.400,2814667.600,0.0,0.0,0.0,2826.600
2.703,7.900,88.981,0.0,0.0,0.416,0.0,819.200,681674.200,2872138.0,0.0,0.0,0.0,2976.800
2.947,6.947,88.632,0.632,0.0,0.842,0.0,15564.800,677877.0,2842867.600,0.0,0.0,0.0,2823.200
2.954,7.173,89.030,0.0,0.0,0.844,0.0,1638.400,689997.200,2895202.0,0.0,0.0,0.0,3093.800
3.205,6.410,89.957,0.0,0.0,0.427,0.0,2457.600,692869.800,2918649.600,0.0,0.0,0.0,3218.600
2.748,7.400,89.429,0.0,0.0,0.423,0.0,1638.400,679432.0,2848790.200,0.0,0.0,0.0,2981.600
0.602,0.201,99.197,0.0,0.0,0.0,0.0,1638.400,6335.200,1909.200,0.0,0.0,0.0,79.800
