"Dstat 0.7.2 CSV output"
"Author:","Dag Wieers <dag@wieers.com>",,,,"URL:","http://dag.wieers.com/home-made/dstat/"
"Host:","Server2",,,,"User:","mstevan"
"Cmdline:","dstat --output /home/mstevan/logs/experiment_3.4/dstat/vs_256-vcpr_32-wtpm_64-rep_2.csv 5 16",,,,"Date:","28 Oct 2019 17:49:58 UTC"

"total cpu usage",,,,,,"dsk/total",,"net/total",,"paging",,"system",
"usr","sys","idl","wai","hiq","siq","read","writ","recv","send","in","out","int","csw"
1.512,3.019,94.806,0.291,0.0,0.372,6440.951,658465.830,0.0,0.0,0.0,0.0,0.056,1486.463
0.402,0.402,99.197,0.0,0.0,0.0,0.0,1638.400,23159.0,51562.800,0.0,0.0,0.0,244.200
4.027,11.857,82.550,0.0,0.0,1.566,0.0,1638.400,1094936.200,4606505.400,0.0,0.0,0.0,5362.400
5.069,12.903,79.724,0.0,0.0,2.304,0.0,1638.400,1185936.600,4991055.600,0.0,0.0,0.0,5240.200
5.594,12.354,79.953,0.0,0.0,2.098,0.0,2457.600,1145127.200,4812384.600,0.0,0.0,0.0,5198.800
4.299,11.991,82.127,0.0,0.0,1.584,0.0,819.200,1179865.800,4976474.800,0.0,0.0,0.0,5122.800
5.727,12.775,78.634,1.322,0.0,1.542,0.0,19660.800,1193097.200,5021919.600,0.0,0.0,0.0,5184.800
5.470,11.379,81.619,0.0,0.0,1.532,0.0,2457.600,1177153.600,4964295.400,0.0,0.0,0.0,5570.600
4.933,11.659,80.942,0.0,0.0,2.466,0.0,1638.400,1185942.400,4989220.0,0.0,0.0,0.0,5617.0
5.664,12.636,79.739,0.0,0.0,1.961,0.0,1638.400,1191641.400,5008371.200,0.0,0.0,0.0,5309.600
6.557,13.817,78.454,0.0,0.0,1.171,0.0,819.200,1171695.200,4946171.600,0.0,0.0,0.0,5055.200
4.513,14.964,78.385,0.0,0.0,2.138,0.0,1638.400,1195665.0,5031883.0,0.0,0.0,0.0,5025.400
6.407,15.561,75.515,0.458,0.0,2.059,0.0,19660.800,1178112.0,4955780.800,0.0,0.0,0.0,5069.200
4.348,13.043,80.549,0.0,0.0,2.059,0.0,819.200,1179752.800,4977604.0,0.0,0.0,0.0,5216.600
6.019,14.120,77.315,0.0,0.0,2.546,0.0,3276.800,1187721.0,4997930.400,0.0,0.0,0.0,4957.0
4.922,13.423,79.642,0.0,0.0,2.013,0.0,819.200,1178136.400,4964472.200,0.0,0.0,0.0,5250.0
0.803,1.606,96.787,0.0,0.0,0.803,0.0,1638.400,93720.800,322549.600,0.0,0.0,0.0,882.200
