"Dstat 0.7.2 CSV output"
"Author:","Dag Wieers <dag@wieers.com>",,,,"URL:","http://dag.wieers.com/home-made/dstat/"
"Host:","Server2",,,,"User:","mstevan"
"Cmdline:","dstat --output /home/mstevan/logs/experiment_3.4/dstat/vs_256-vcpr_16-wtpm_8-rep_2.csv 5 16",,,,"Date:","28 Oct 2019 17:21:31 UTC"

"total cpu usage",,,,,,"dsk/total",,"net/total",,"paging",,"system",
"usr","sys","idl","wai","hiq","siq","read","writ","recv","send","in","out","int","csw"
1.467,2.898,94.985,0.295,0.0,0.355,6608.599,675487.707,0.0,0.0,0.0,0.0,0.057,1430.291
0.601,0.200,99.198,0.0,0.0,0.0,0.0,1638.400,15351.200,37567.200,0.0,0.0,0.0,134.0
2.923,5.637,91.232,0.0,0.0,0.209,0.0,1638.400,620798.800,2600480.0,0.0,0.0,0.0,2545.800
2.778,5.556,90.812,0.0,0.0,0.855,0.0,819.200,672663.0,2833182.800,0.0,0.0,0.0,3053.400
2.306,7.338,89.727,0.0,0.0,0.629,0.0,2457.600,650843.0,2727196.200,0.0,0.0,0.0,2641.600
2.105,7.579,88.842,1.053,0.0,0.421,0.0,19660.800,666302.400,2806025.600,0.0,0.0,0.0,2762.0
2.311,5.882,90.966,0.0,0.0,0.840,0.0,6553.600,666115.600,2792686.400,0.0,0.0,0.0,2707.600
1.907,7.203,90.466,0.0,0.0,0.424,0.0,3276.800,662809.200,2779302.400,0.0,0.0,0.0,2694.0
3.797,5.274,90.295,0.0,0.0,0.633,0.0,819.200,685514.0,2886681.400,0.0,0.0,0.0,2640.800
2.335,7.006,89.809,0.0,0.0,0.849,0.0,1638.400,681808.600,2859799.400,0.0,0.0,0.0,2818.800
2.137,6.624,91.026,0.0,0.0,0.214,0.0,1638.400,692324.600,2904416.600,0.0,0.0,0.0,2834.200
2.137,5.983,90.812,0.641,0.0,0.427,0.0,14745.600,690429.200,2906993.400,0.0,0.0,0.0,2700.800
2.564,5.556,91.667,0.0,0.0,0.214,0.0,1638.400,674621.600,2830638.800,0.0,0.0,0.0,2611.600
2.553,5.957,91.064,0.0,0.0,0.426,0.0,1638.400,690744.0,2901901.400,0.0,0.0,0.0,2758.800
3.178,6.144,90.254,0.0,0.0,0.424,0.0,2457.600,683353.800,2874049.600,0.0,0.0,0.0,2710.800
2.941,6.513,90.126,0.0,0.0,0.420,0.0,1638.400,651952.200,2732381.600,0.0,0.0,0.0,2627.0
0.200,0.0,99.800,0.0,0.0,0.0,0.0,819.200,3167.0,1005.200,0.0,0.0,0.0,68.600
