"Dstat 0.7.2 CSV output"
"Author:","Dag Wieers <dag@wieers.com>",,,,"URL:","http://dag.wieers.com/home-made/dstat/"
"Host:","Server2",,,,"User:","mstevan"
"Cmdline:","dstat --output /home/mstevan/logs/experiment_3.4/dstat/vs_256-vcpr_4-wtpm_8-rep_4.csv 5 16",,,,"Date:","28 Oct 2019 16:50:14 UTC"

"total cpu usage",,,,,,"dsk/total",,"net/total",,"paging",,"system",
"usr","sys","idl","wai","hiq","siq","read","writ","recv","send","in","out","int","csw"
1.425,2.788,95.154,0.301,0.0,0.332,6803.390,695262.673,0.0,0.0,0.0,0.0,0.059,1336.428
0.400,0.200,99.400,0.0,0.0,0.0,0.0,819.200,9712.0,26268.0,0.0,0.0,0.0,161.200
2.123,5.945,91.507,0.0,0.0,0.425,0.0,1638.400,499174.400,2086478.0,0.0,0.0,0.0,4641.400
2.966,5.720,91.102,0.0,0.0,0.212,0.0,819.200,523808.400,2203039.400,0.0,0.0,0.0,5126.200
3.609,7.431,87.898,0.0,0.0,1.062,0.0,3276.800,575574.600,2410764.200,0.0,0.0,0.0,5922.800
2.371,7.759,89.440,0.0,0.0,0.431,0.0,1638.400,576840.400,2414867.0,0.0,0.0,0.0,5974.0
3.838,6.397,88.486,0.640,0.0,0.640,0.0,18841.600,572944.0,2411616.600,0.0,0.0,0.0,5911.200
2.972,9.979,86.412,0.0,0.0,0.637,0.0,3276.800,586820.200,2457236.800,0.0,0.0,0.0,6459.800
3.913,7.609,87.826,0.0,0.0,0.652,0.0,1638.400,564679.400,2363227.200,0.0,0.0,0.0,6239.600
3.004,7.296,88.412,0.0,0.0,1.288,0.0,819.200,577154.200,2428636.400,0.0,0.0,0.0,6189.0
3.896,6.926,88.745,0.0,0.0,0.433,0.0,1638.400,560553.800,2347097.600,0.0,0.0,0.0,5622.800
2.790,8.155,88.627,0.0,0.0,0.429,0.0,819.200,582985.600,2453421.200,0.0,0.0,0.0,5995.800
3.185,8.493,86.837,0.637,0.0,0.849,0.0,20480.0,574243.200,2404703.800,0.0,0.0,0.0,6204.400
2.626,6.565,89.716,0.0,0.0,1.094,0.0,1638.400,586711.0,2458381.800,0.0,0.0,0.0,6311.400
3.191,7.872,88.723,0.0,0.0,0.213,0.0,2457.600,577748.600,2431514.600,0.0,0.0,0.0,6118.800
3.789,8.632,86.737,0.0,0.0,0.842,0.0,1638.400,567384.600,2374688.600,0.0,0.0,0.0,6047.600
0.602,0.0,99.398,0.0,0.0,0.0,0.0,1638.400,6254.0,1868.800,0.0,0.0,0.0,71.200
