"Dstat 0.7.2 CSV output"
"Author:","Dag Wieers <dag@wieers.com>",,,,"URL:","http://dag.wieers.com/home-made/dstat/"
"Host:","Server2",,,,"User:","mstevan"
"Cmdline:","dstat --output /home/mstevan/logs/experiment_3.4/dstat/vs_256-vcpr_4-wtpm_64-rep_3.csv 5 16",,,,"Date:","28 Oct 2019 17:00:11 UTC"

"total cpu usage",,,,,,"dsk/total",,"net/total",,"paging",,"system",
"usr","sys","idl","wai","hiq","siq","read","writ","recv","send","in","out","int","csw"
1.437,2.821,95.104,0.299,0.0,0.339,6740.180,688844.342,0.0,0.0,0.0,0.0,0.058,1371.233
0.402,0.402,98.994,0.0,0.0,0.201,0.0,1638.400,16986.400,25254.400,0.0,0.0,0.0,226.0
2.802,5.819,88.362,0.0,0.0,3.017,0.0,1638.400,581337.800,2284047.600,0.0,0.0,0.0,6291.600
2.548,8.280,85.563,0.637,0.0,2.972,0.0,24576.0,610572.0,2500525.0,0.0,0.0,0.0,6604.800
2.790,9.227,85.408,0.0,0.0,2.575,0.0,3276.800,631778.400,2571886.0,0.0,0.0,0.0,6894.200
4.237,7.415,86.653,0.0,0.0,1.695,0.0,819.200,634126.600,2577175.200,0.0,0.0,0.0,6640.600
3.361,8.824,85.924,0.0,0.0,1.891,0.0,1638.400,646289.200,2653145.200,0.0,0.0,0.0,6657.400
2.132,8.102,88.273,0.0,0.0,1.493,0.0,3276.800,625912.800,2567543.200,0.0,0.0,0.0,5648.200
3.586,8.439,85.865,0.0,0.0,2.110,0.0,819.200,629173.600,2593266.200,0.0,0.0,0.0,6258.800
2.820,9.111,85.683,0.651,0.0,1.735,0.0,15564.800,639212.400,2631926.800,0.0,0.0,0.0,6757.800
3.896,8.442,84.848,0.0,0.0,2.814,0.0,1638.400,635445.400,2607269.200,0.0,0.0,0.0,6477.0
3.397,9.554,85.138,0.0,0.0,1.911,0.0,819.200,630311.400,2585787.0,0.0,0.0,0.0,6920.200
3.219,8.798,85.622,0.0,0.0,2.361,0.0,819.200,644829.600,2668242.800,0.0,0.0,0.0,6823.400
4.526,8.621,84.914,0.0,0.0,1.940,0.0,1638.400,636333.800,2598612.400,0.0,0.0,0.0,6780.400
3.871,9.247,85.161,0.0,0.0,1.720,0.0,3276.800,640007.200,2636817.600,0.0,0.0,0.0,6765.800
3.198,7.889,87.207,0.0,0.0,1.706,0.0,819.200,625151.800,2574408.800,0.0,0.0,0.0,6290.400
0.402,0.201,98.996,0.402,0.0,0.0,0.0,18841.600,6267.200,1868.800,0.0,0.0,0.0,78.800
