"Dstat 0.7.2 CSV output"
"Author:","Dag Wieers <dag@wieers.com>",,,,"URL:","http://dag.wieers.com/home-made/dstat/"
"Host:","Server2",,,,"User:","mstevan"
"Cmdline:","dstat --output /home/mstevan/logs/experiment_3.4/dstat/vs_256-vcpr_16-wtpm_32-rep_3.csv 5 16",,,,"Date:","28 Oct 2019 17:28:38 UTC"

"total cpu usage",,,,,,"dsk/total",,"net/total",,"paging",,"system",
"usr","sys","idl","wai","hiq","siq","read","writ","recv","send","in","out","int","csw"
1.476,2.921,94.952,0.294,0.0,0.357,6565.878,671150.135,0.0,0.0,0.0,0.0,0.057,1441.190
0.201,0.201,99.598,0.0,0.0,0.0,0.0,819.200,12993.800,30309.800,0.0,0.0,0.0,171.400
4.783,11.304,82.826,0.0,0.0,1.087,0.0,1638.400,927589.800,3898766.0,0.0,0.0,0.0,5855.600
5.122,9.800,84.187,0.0,0.0,0.891,0.0,819.200,972263.200,4099734.800,0.0,0.0,0.0,6132.400
4.167,12.500,81.579,0.0,0.0,1.754,0.0,3276.800,974751.200,4097488.600,0.0,0.0,0.0,5671.800
4.626,10.352,83.700,0.220,0.0,1.101,0.0,19660.800,983284.600,4134994.400,0.0,0.0,0.0,5549.600
4.515,11.738,83.070,0.0,0.0,0.677,0.0,819.200,994362.800,4192624.400,0.0,0.0,0.0,5983.600
4.213,10.865,83.370,0.0,0.0,1.552,0.0,3276.800,992033.800,4172158.400,0.0,0.0,0.0,5862.800
4.825,12.500,81.140,0.0,0.0,1.535,0.0,1638.400,1002452.800,4213718.0,0.0,0.0,0.0,5907.400
3.974,10.817,84.106,0.0,0.0,1.104,0.0,819.200,998594.0,4214452.800,0.0,0.0,0.0,5679.400
4.348,11.087,82.826,0.0,0.0,1.739,0.0,1638.400,1008614.400,4241014.400,0.0,0.0,0.0,5873.200
4.027,11.409,83.221,0.671,0.0,0.671,0.0,18841.600,1028215.600,4328377.200,0.0,0.0,0.0,6047.400
4.270,11.910,82.472,0.0,0.0,1.348,0.0,1638.400,1012223.600,4262923.0,0.0,0.0,0.0,5529.800
4.911,10.491,83.259,0.0,0.0,1.339,0.0,1638.400,1004379.600,4226512.400,0.0,0.0,0.0,5658.400
4.241,13.393,81.027,0.0,0.0,1.339,0.0,1638.400,1018180.600,4293487.400,0.0,0.0,0.0,5619.600
4.751,9.955,83.937,0.0,0.0,1.357,0.0,2457.600,989760.0,4157827.400,0.0,0.0,0.0,5758.800
0.600,0.600,98.600,0.0,0.0,0.200,0.0,1638.400,6718.200,2339.600,0.0,0.0,0.0,88.800
