"Dstat 0.7.2 CSV output"
"Author:","Dag Wieers <dag@wieers.com>",,,,"URL:","http://dag.wieers.com/home-made/dstat/"
"Host:","Server2",,,,"User:","mstevan"
"Cmdline:","dstat --output /home/mstevan/logs/experiment_3.4/dstat/vs_256-vcpr_32-wtpm_8-rep_3.csv 5 16",,,,"Date:","28 Oct 2019 17:40:01 UTC"

"total cpu usage",,,,,,"dsk/total",,"net/total",,"paging",,"system",
"usr","sys","idl","wai","hiq","siq","read","writ","recv","send","in","out","int","csw"
1.495,2.970,94.877,0.292,0.0,0.365,6498.651,664323.568,0.0,0.0,0.0,0.0,0.056,1470.053
0.402,0.201,99.398,0.0,0.0,0.0,0.0,1638.400,14461.600,33422.400,0.0,0.0,0.0,160.200
3.185,5.945,89.809,0.425,0.0,0.637,0.0,19660.800,657573.800,2756064.600,0.0,0.0,0.0,2978.200
2.748,6.342,90.698,0.0,0.0,0.211,0.0,819.200,662195.800,2790518.0,0.0,0.0,0.0,2833.200
3.158,6.947,89.684,0.0,0.0,0.211,0.0,2457.600,666758.200,2795935.600,0.0,0.0,0.0,2594.600
2.123,6.157,91.295,0.0,0.0,0.425,0.0,1638.400,678540.600,2857746.0,0.0,0.0,0.0,2804.0
3.412,5.544,90.192,0.0,0.0,0.853,0.0,1638.400,684041.200,2865429.600,0.0,0.0,0.0,2931.200
2.941,5.882,90.546,0.0,0.0,0.630,0.0,3276.800,660729.0,2770874.200,0.0,0.0,0.0,2698.0
3.132,5.846,90.605,0.0,0.0,0.418,0.0,819.200,663482.0,2794935.0,0.0,0.0,0.0,2589.600
2.340,5.745,90.638,0.638,0.0,0.638,0.0,19660.800,674392.0,2828968.200,0.0,0.0,0.0,2592.200
2.972,6.157,90.658,0.0,0.0,0.212,0.0,1638.400,678149.400,2843547.800,0.0,0.0,0.0,2662.200
3.404,5.319,90.426,0.0,0.0,0.851,0.0,819.200,663536.0,2794501.400,0.0,0.0,0.0,2468.0
1.899,6.751,90.928,0.0,0.0,0.422,0.0,1638.400,662702.200,2779615.0,0.0,0.0,0.0,2407.600
1.667,5.833,92.083,0.0,0.0,0.417,0.0,1638.400,605783.800,2547340.600,0.0,0.0,0.0,2096.400
2.954,6.751,89.873,0.0,0.0,0.422,0.0,2457.600,675558.600,2832527.800,0.0,0.0,0.0,2621.400
2.575,5.579,90.558,0.858,0.0,0.429,0.0,22118.400,656320.800,2751133.400,0.0,0.0,0.0,2523.0
0.200,0.200,99.399,0.0,0.0,0.200,0.0,819.200,3167.0,1005.200,0.0,0.0,0.0,66.400
