"Dstat 0.7.2 CSV output"
"Author:","Dag Wieers <dag@wieers.com>",,,,"URL:","http://dag.wieers.com/home-made/dstat/"
"Host:","Server2",,,,"User:","mstevan"
"Cmdline:","dstat --output /home/mstevan/logs/experiment_3.4/dstat/vs_256-vcpr_16-wtpm_64-rep_1.csv 5 16",,,,"Date:","28 Oct 2019 17:31:29 UTC"

"total cpu usage",,,,,,"dsk/total",,"net/total",,"paging",,"system",
"usr","sys","idl","wai","hiq","siq","read","writ","recv","send","in","out","int","csw"
1.481,2.935,94.931,0.294,0.0,0.359,6548.946,669430.049,0.0,0.0,0.0,0.0,0.057,1449.661
0.601,0.601,97.996,0.802,0.0,0.0,0.0,19660.800,11873.200,9530.800,0.0,0.0,0.0,164.0
4.835,10.769,81.758,0.0,0.0,2.637,0.0,819.200,922022.400,3845658.200,0.0,0.0,0.0,6089.400
4.922,10.515,83.221,0.0,0.0,1.342,0.0,1638.400,957921.800,4009441.600,0.0,0.0,0.0,6405.200
5.286,12.555,79.515,0.0,0.0,2.643,0.0,3276.800,948486.400,3961601.600,0.0,0.0,0.0,6396.400
5.286,10.573,81.498,0.0,0.0,2.643,0.0,819.200,954244.200,4009964.600,0.0,0.0,0.0,6408.400
5.568,12.027,80.178,0.0,0.0,2.227,0.0,1638.400,954529.600,3996803.800,0.0,0.0,0.0,6180.600
5.100,11.973,80.266,0.0,0.0,2.661,0.0,17203.200,963171.800,4037005.600,0.0,0.0,0.0,6165.200
4.825,12.719,80.702,0.0,0.0,1.754,0.0,4915.200,963319.200,4046339.600,0.0,0.0,0.0,6310.600
5.333,10.444,81.333,0.0,0.0,2.889,0.0,1638.400,970315.800,4069071.600,0.0,0.0,0.0,5909.0
3.556,11.556,82.889,0.0,0.0,2.0,0.0,819.200,965349.400,4053614.600,0.0,0.0,0.0,5965.400
4.825,10.307,82.675,0.0,0.0,2.193,0.0,1638.400,970559.200,4071730.200,0.0,0.0,0.0,5884.600
3.728,7.456,87.719,0.0,0.0,1.096,0.0,1638.400,978955.400,4099530.200,0.0,0.0,0.0,5557.600
3.922,10.240,83.878,0.0,0.0,1.961,0.0,819.200,989841.0,4164492.0,0.0,0.0,0.0,5728.800
4.425,9.956,83.628,0.885,0.0,1.106,0.0,17203.200,978607.400,4102161.0,0.0,0.0,0.0,5846.0
4.619,14.319,78.984,0.0,0.0,2.079,0.0,1638.400,993757.200,4160607.200,0.0,0.0,0.0,6058.800
0.200,0.200,99.599,0.0,0.0,0.0,0.0,819.200,3404.600,1005.200,0.0,0.0,0.0,67.0
