"Dstat 0.7.2 CSV output"
"Author:","Dag Wieers <dag@wieers.com>",,,,"URL:","http://dag.wieers.com/home-made/dstat/"
"Host:","Server2",,,,"User:","mstevan"
"Cmdline:","dstat --output /home/mstevan/logs/experiment_3.4/dstat/vs_256-vcpr_16-wtpm_64-rep_4.csv 5 16",,,,"Date:","28 Oct 2019 17:35:45 UTC"

"total cpu usage",,,,,,"dsk/total",,"net/total",,"paging",,"system",
"usr","sys","idl","wai","hiq","siq","read","writ","recv","send","in","out","int","csw"
1.490,2.957,94.896,0.293,0.0,0.364,6523.698,666867.255,0.0,0.0,0.0,0.0,0.056,1463.720
0.400,0.400,99.0,0.0,0.0,0.200,0.0,819.200,19663.0,48347.0,0.0,0.0,0.0,221.400
3.939,11.160,82.276,0.0,0.0,2.626,0.0,1638.400,923453.800,3853415.400,0.0,0.0,0.0,6067.600
4.933,10.762,82.287,0.0,0.0,2.018,0.0,1638.400,949112.400,3974326.600,0.0,0.0,0.0,6183.400
3.974,9.934,84.989,0.0,0.0,1.104,0.0,2457.600,959569.200,4032069.600,0.0,0.0,0.0,6020.800
4.719,11.461,81.573,0.449,0.0,1.798,0.0,20480.0,961547.0,4029103.400,0.0,0.0,0.0,6165.800
4.222,10.667,83.778,0.0,0.0,1.333,0.0,819.200,956829.600,4018425.600,0.0,0.0,0.0,6169.200
4.783,11.304,81.522,0.0,0.0,2.391,0.0,3276.800,975673.0,4090716.800,0.0,0.0,0.0,6377.400
5.150,12.446,80.043,0.0,0.0,2.361,0.0,1638.400,979299.600,4105923.600,0.0,0.0,0.0,6177.200
4.176,12.967,81.319,0.0,0.0,1.538,0.0,819.200,973279.800,4093091.600,0.0,0.0,0.0,6081.200
5.333,12.222,79.778,0.0,0.0,2.667,0.0,1638.400,976405.600,4096437.600,0.0,0.0,0.0,5854.0
5.695,12.984,79.271,0.456,0.0,1.595,0.0,20480.0,977295.0,4095134.800,0.0,0.0,0.0,5832.200
4.688,10.938,82.366,0.0,0.0,2.009,0.0,1638.400,978355.400,4121725.0,0.0,0.0,0.0,6060.200
4.861,12.037,80.093,0.0,0.0,3.009,0.0,1638.400,964303.800,4041064.800,0.0,0.0,0.0,5755.0
5.605,10.987,80.717,0.0,0.0,2.691,0.0,2457.600,976597.800,4105735.400,0.0,0.0,0.0,5781.0
4.825,9.868,82.675,0.0,0.0,2.632,0.0,1638.400,959220.200,4013719.0,0.0,0.0,0.0,5820.200
0.402,0.201,99.398,0.0,0.0,0.0,0.0,1638.400,6335.200,1909.200,0.0,0.0,0.0,73.0
