"Dstat 0.7.2 CSV output"
"Author:","Dag Wieers <dag@wieers.com>",,,,"URL:","http://dag.wieers.com/home-made/dstat/"
"Host:","Server2",,,,"User:","mstevan"
"Cmdline:","dstat --output /home/mstevan/logs/experiment_3.4/dstat/vs_512-vcpr_4-wtpm_8-rep_4.csv 5 16",,,,"Date:","28 Oct 2019 17:58:39 UTC"

"total cpu usage",,,,,,"dsk/total",,"net/total",,"paging",,"system",
"usr","sys","idl","wai","hiq","siq","read","writ","recv","send","in","out","int","csw"
1.528,3.059,94.746,0.289,0.0,0.377,6391.500,653444.737,0.0,0.0,0.0,0.0,0.055,1510.991
0.402,0.201,99.398,0.0,0.0,0.0,0.0,819.200,14600.600,61300.400,0.0,0.0,0.0,163.400
2.575,6.652,90.558,0.0,0.0,0.215,0.0,1638.400,496438.400,3589157.200,0.0,0.0,0.0,4497.200
3.441,6.882,89.247,0.0,0.0,0.430,0.0,1638.400,544446.0,3920668.0,0.0,0.0,0.0,4878.800
2.169,7.592,89.588,0.0,0.0,0.651,0.0,2457.600,570742.400,4130289.200,0.0,0.0,0.0,4963.0
2.972,9.130,87.261,0.0,0.0,0.637,0.0,2457.600,580781.600,4187240.800,0.0,0.0,0.0,5768.0
4.069,4.283,90.150,0.642,0.0,0.857,0.0,20480.0,575143.400,4143259.600,0.0,0.0,0.0,4996.800
2.355,7.281,89.722,0.0,0.0,0.642,0.0,1638.400,582212.600,4216505.600,0.0,0.0,0.0,5716.400
3.212,7.709,88.009,0.0,0.0,1.071,0.0,1638.400,586918.200,4230084.400,0.0,0.0,0.0,6175.0
3.254,7.158,88.720,0.0,0.0,0.868,0.0,1638.400,578618.0,4170225.400,0.0,0.0,0.0,5980.800
4.086,7.312,88.172,0.0,0.0,0.430,0.0,819.200,588242.200,4261741.200,0.0,0.0,0.0,6244.200
3.084,7.048,89.648,0.0,0.0,0.220,0.0,1638.400,584497.200,4212132.200,0.0,0.0,0.0,6393.200
3.830,9.149,85.957,0.638,0.0,0.426,0.0,15564.800,579236.800,4196571.200,0.0,0.0,0.0,6199.0
2.575,9.013,87.768,0.0,0.0,0.644,0.0,7372.800,582744.800,4199758.200,0.0,0.0,0.200,5959.200
4.237,8.475,86.441,0.0,0.0,0.847,0.0,2457.600,584389.0,4212970.0,0.0,0.0,0.0,6361.800
3.024,7.127,89.417,0.0,0.0,0.432,0.0,819.200,558150.400,4041338.600,0.0,0.0,0.0,5910.800
0.401,0.401,99.198,0.0,0.0,0.0,0.0,1638.400,6705.0,2326.400,0.0,0.0,0.0,83.600
