"Dstat 0.7.2 CSV output"
"Author:","Dag Wieers <dag@wieers.com>",,,,"URL:","http://dag.wieers.com/home-made/dstat/"
"Host:","Server2",,,,"User:","mstevan"
"Cmdline:","dstat --output /home/mstevan/logs/experiment_3.4/dstat/vs_512-vcpr_16-wtpm_64-rep_3.csv 5 16",,,,"Date:","28 Oct 2019 18:42:45 UTC"

"total cpu usage",,,,,,"dsk/total",,"net/total",,"paging",,"system",
"usr","sys","idl","wai","hiq","siq","read","writ","recv","send","in","out","int","csw"
1.585,3.214,94.514,0.282,0.0,0.404,6151.478,629077.768,0.0,0.0,0.0,0.0,0.053,1620.275
0.402,0.402,99.197,0.0,0.0,0.0,0.0,1638.400,14698.0,28017.0,0.0,0.0,0.0,163.400
4.009,12.249,81.514,0.0,0.0,2.227,0.0,1638.400,920566.200,6627922.800,0.0,0.0,0.0,6192.200
5.157,11.659,79.821,0.673,0.0,2.691,0.0,20480.0,965375.800,6975144.0,0.0,0.0,0.0,6206.800
5.169,14.157,77.753,0.0,0.0,2.921,0.0,2457.600,961168.0,6940328.400,0.0,0.0,0.0,6097.0
4.139,12.636,80.392,0.0,0.0,2.832,0.0,819.200,961468.800,6968224.200,0.0,0.0,0.0,6268.0
5.531,13.274,78.540,0.0,0.0,2.655,0.0,1638.400,962392.0,6949910.600,0.0,0.0,0.0,6441.200
4.484,12.556,81.166,0.0,0.0,1.794,0.0,2457.600,969986.200,7029862.600,0.0,0.0,0.0,6027.800
5.122,12.918,79.065,0.0,0.0,2.895,0.0,1638.400,970089.0,7001756.200,0.0,0.0,0.0,6122.400
4.783,11.304,80.652,0.652,0.0,2.609,0.0,22118.400,971865.0,7030373.800,0.0,0.0,0.0,6039.200
4.656,11.752,82.040,0.0,0.0,1.552,0.0,819.200,965701.0,6993983.400,0.0,0.0,0.0,6074.0
5.322,11.752,80.710,0.0,0.0,2.217,0.0,1638.400,970460.200,7010571.0,0.0,0.0,0.0,6313.0
4.525,12.217,80.995,0.0,0.0,2.262,0.0,1638.400,977688.0,7061249.400,0.0,0.0,0.0,5913.400
5.689,12.910,79.431,0.0,0.0,1.969,0.0,819.200,965432.600,6986840.600,0.0,0.0,0.0,6200.200
4.595,11.379,82.713,0.0,0.0,1.313,0.0,3276.800,972683.200,7035799.0,0.0,0.0,0.0,6356.200
4.444,11.778,81.778,0.667,0.0,1.333,0.0,15564.800,969701.800,7014361.600,0.0,0.0,0.0,6380.400
0.602,0.201,99.197,0.0,0.0,0.0,0.0,1638.400,6757.800,2339.600,0.0,0.0,0.0,89.200
