"Dstat 0.7.2 CSV output"
"Author:","Dag Wieers <dag@wieers.com>",,,,"URL:","http://dag.wieers.com/home-made/dstat/"
"Host:","Server2",,,,"User:","mstevan"
"Cmdline:","dstat --output /home/mstevan/logs/experiment_3.4/dstat/vs_512-vcpr_8-wtpm_64-rep_2.csv 5 16",,,,"Date:","28 Oct 2019 18:24:15 UTC"

"total cpu usage",,,,,,"dsk/total",,"net/total",,"paging",,"system",
"usr","sys","idl","wai","hiq","siq","read","writ","recv","send","in","out","int","csw"
1.560,3.144,94.620,0.285,0.0,0.391,6249.904,639071.393,0.0,0.0,0.0,0.0,0.054,1580.204
0.601,0.401,98.798,0.0,0.0,0.200,0.0,1638.400,20830.200,63636.400,0.0,0.0,0.0,215.400
3.070,9.649,84.649,0.0,0.0,2.632,0.0,1638.400,726893.600,5153742.600,0.0,0.0,0.0,6202.600
3.024,11.663,83.369,0.0,0.0,1.944,0.0,1638.400,769217.200,5545237.800,0.0,0.0,0.0,6643.0
5.616,9.503,81.425,0.432,0.0,3.024,0.0,20480.0,766101.400,5493355.600,0.0,0.0,0.0,6670.600
3.753,10.375,83.444,0.0,0.0,2.428,0.0,819.200,766049.600,5516801.800,0.0,0.0,0.0,6866.200
4.989,9.761,82.646,0.0,0.0,2.603,0.0,1638.400,775470.200,5567981.600,0.0,0.0,0.0,6484.800
4.228,7.822,85.412,0.0,0.0,2.537,0.0,3276.800,780312.400,5609003.400,0.0,0.0,0.0,5951.200
5.206,10.195,82.430,0.0,0.0,2.169,0.0,819.200,771615.600,5565830.0,0.0,0.0,0.0,6518.800
4.968,10.799,81.425,0.0,0.0,2.808,0.0,1638.400,771599.800,5534614.200,0.0,0.0,0.0,6792.0
5.0,10.0,82.391,0.0,0.0,2.609,0.0,1638.400,775429.0,5565302.0,0.0,0.0,0.0,6703.600
4.762,9.957,81.818,0.649,0.0,2.814,0.0,22118.400,766552.400,5524392.0,0.0,0.0,0.0,6870.200
3.441,11.183,83.226,0.0,0.0,2.151,0.0,1638.400,782543.800,5627081.200,0.0,0.0,0.0,6761.0
3.037,7.809,86.985,0.0,0.0,2.169,0.0,819.200,772474.800,5566924.200,0.0,0.0,0.0,6790.0
3.617,9.362,84.468,0.0,0.0,2.553,0.0,3276.800,765952.200,5501724.0,0.0,0.0,0.0,6488.600
4.651,9.302,83.932,0.0,0.0,2.114,0.0,1638.400,763653.0,5475410.400,0.0,0.0,0.0,6625.400
0.200,0.200,99.599,0.0,0.0,0.0,0.0,819.200,3167.0,1005.200,0.0,0.0,0.0,63.800
