"Dstat 0.7.2 CSV output"
"Author:","Dag Wieers <dag@wieers.com>",,,,"URL:","http://dag.wieers.com/home-made/dstat/"
"Host:","Server2",,,,"User:","mstevan"
"Cmdline:","dstat --output /home/mstevan/logs/experiment_3.4/dstat/vs_512-vcpr_4-wtpm_64-rep_4.csv 5 16",,,,"Date:","28 Oct 2019 18:10:02 UTC"

"total cpu usage",,,,,,"dsk/total",,"net/total",,"paging",,"system",
"usr","sys","idl","wai","hiq","siq","read","writ","recv","send","in","out","int","csw"
1.543,3.098,94.686,0.288,0.0,0.385,6327.786,646976.875,0.0,0.0,0.0,0.0,0.055,1548.310
0.401,0.601,98.998,0.0,0.0,0.0,0.0,1638.400,18925.800,68636.800,0.0,0.0,0.200,238.600
2.340,7.234,88.085,0.0,0.0,2.340,0.0,1638.400,590703.800,4102295.800,0.0,0.0,0.0,5780.200
4.0,8.211,85.684,0.0,0.0,2.105,0.0,1638.400,597868.0,4235538.0,0.0,0.0,0.0,6264.200
2.754,8.898,85.593,0.636,0.0,2.119,0.0,27033.600,624892.600,4469713.200,0.0,0.0,0.0,6623.0
3.404,7.872,86.383,0.0,0.0,2.340,0.0,1638.400,620666.0,4417774.800,0.0,0.0,0.0,6425.400
3.441,9.032,85.806,0.0,0.0,1.720,0.0,2457.600,627786.400,4464248.800,0.0,0.0,0.0,6833.200
2.731,7.773,86.555,0.0,0.0,2.941,0.0,819.200,605911.800,4292919.400,0.0,0.0,0.0,6383.600
3.609,8.068,86.412,0.0,0.0,1.911,0.0,2457.600,629715.400,4492179.800,0.0,0.0,0.0,6466.400
3.383,7.822,87.315,0.0,0.0,1.480,0.0,819.200,624874.200,4466434.200,0.0,0.0,0.0,6421.0
3.838,7.249,86.141,0.640,0.0,2.132,0.0,15564.800,632215.400,4530145.0,0.0,0.0,0.0,6546.0
4.228,8.245,85.835,0.0,0.0,1.691,0.0,12288.0,632909.200,4511196.0,0.0,0.0,0.0,6518.200
4.255,8.298,86.170,0.0,0.0,1.277,0.0,819.200,627738.600,4507292.800,0.0,0.0,0.0,6311.400
3.240,7.991,87.041,0.0,0.0,1.728,0.0,2457.600,626810.600,4480567.600,0.0,0.0,0.0,6590.0
3.609,8.705,85.987,0.0,0.0,1.699,0.0,1638.400,634956.0,4534804.0,0.0,0.0,0.0,6691.0
3.158,8.632,86.526,0.0,0.0,1.684,0.0,1638.400,620964.400,4456142.200,0.0,0.0,0.0,6250.800
0.402,0.0,98.795,0.803,0.0,0.0,0.0,22118.400,6267.200,1868.800,0.0,0.0,0.0,76.800
