"Dstat 0.7.2 CSV output"
"Author:","Dag Wieers <dag@wieers.com>",,,,"URL:","http://dag.wieers.com/home-made/dstat/"
"Host:","Server2",,,,"User:","mstevan"
"Cmdline:","dstat --output /home/mstevan/logs/experiment_3.4/dstat/vs_512-vcpr_8-wtpm_32-rep_4.csv 5 16",,,,"Date:","28 Oct 2019 18:21:24 UTC"

"total cpu usage",,,,,,"dsk/total",,"net/total",,"paging",,"system",
"usr","sys","idl","wai","hiq","siq","read","writ","recv","send","in","out","int","csw"
1.555,3.132,94.638,0.286,0.0,0.389,6265.330,640637.223,0.0,0.0,0.0,0.0,0.054,1570.990
0.200,0.401,99.399,0.0,0.0,0.0,0.0,819.200,11350.600,42162.200,0.0,0.0,0.0,147.400
3.803,7.606,87.025,0.671,0.0,0.895,0.0,20480.0,708798.600,5117246.600,0.0,0.0,0.0,6627.600
3.004,7.940,87.554,0.0,0.0,1.502,0.0,1638.400,750869.800,5422406.400,0.0,0.0,0.0,5784.800
3.888,10.583,84.665,0.0,0.0,0.864,0.0,2457.600,757133.600,5491296.800,0.0,0.0,0.0,6474.200
4.027,10.067,85.459,0.0,0.0,0.447,0.0,1638.400,764311.200,5520363.400,0.0,0.0,0.0,6742.600
4.846,10.132,83.700,0.0,0.0,1.322,0.0,819.200,753409.200,5463766.600,0.0,0.0,0.0,6701.0
3.456,10.367,84.233,0.0,0.0,1.944,0.0,3276.800,756489.600,5464286.600,0.0,0.0,0.0,6444.0
4.555,9.328,84.816,0.434,0.0,0.868,0.0,15564.800,751869.600,5428437.600,0.0,0.0,0.0,6019.400
3.304,10.793,84.802,0.0,0.0,1.101,0.0,5734.400,756592.0,5485570.200,0.0,0.0,0.0,6507.800
4.405,10.132,84.141,0.0,0.0,1.322,0.0,1638.400,761960.400,5503095.200,0.0,0.0,0.0,6609.600
4.194,11.700,83.223,0.0,0.0,0.883,0.0,1638.400,762739.800,5509388.600,0.0,0.0,0.0,6701.200
4.204,9.513,85.398,0.0,0.0,0.885,0.0,819.200,763954.200,5542879.600,0.0,0.0,0.0,6416.0
5.077,10.596,83.664,0.0,0.0,0.662,0.0,1638.400,760459.600,5492437.200,0.0,0.0,0.0,6347.400
3.905,10.629,83.731,0.0,0.0,1.735,0.0,2457.600,764074.400,5544206.0,0.0,0.0,0.0,6405.200
4.0,10.667,83.111,0.667,0.0,1.556,0.0,15564.800,752855.0,5432909.600,0.0,0.0,0.0,6458.200
0.200,0.200,99.400,0.0,0.0,0.200,0.0,1638.400,6254.0,1868.800,0.0,0.0,0.0,70.600
