"Dstat 0.7.2 CSV output"
"Author:","Dag Wieers <dag@wieers.com>",,,,"URL:","http://dag.wieers.com/home-made/dstat/"
"Host:","Server2",,,,"User:","mstevan"
"Cmdline:","dstat --output /home/mstevan/logs/experiment_3.4/dstat/vs_512-vcpr_16-wtpm_32-rep_4.csv 5 16",,,,"Date:","28 Oct 2019 18:38:29 UTC"

"total cpu usage",,,,,,"dsk/total",,"net/total",,"paging",,"system",
"usr","sys","idl","wai","hiq","siq","read","writ","recv","send","in","out","int","csw"
1.577,3.191,94.549,0.283,0.0,0.400,6173.911,631355.162,0.0,0.0,0.0,0.0,0.053,1608.054
0.201,0.402,99.398,0.0,0.0,0.0,0.0,819.200,16866.600,79308.200,0.0,0.0,0.0,187.0
3.837,11.287,84.199,0.0,0.0,0.677,0.0,1638.400,929578.200,6727555.200,0.0,0.0,0.0,6090.600
5.447,10.893,81.699,0.0,0.0,1.961,0.0,2457.600,986162.0,7133286.200,0.0,0.0,0.0,5646.0
3.704,11.983,82.571,0.0,0.0,1.743,0.0,1638.400,1001243.0,7271764.800,0.0,0.0,0.0,5791.0
5.310,10.177,82.080,0.664,0.0,1.770,0.0,19660.800,999727.600,7230944.800,0.0,0.0,0.0,5477.600
5.240,11.790,81.878,0.0,0.0,1.092,0.0,1638.400,996969.400,7211299.400,0.0,0.0,0.0,5762.0
4.222,10.889,82.667,0.0,0.0,2.222,0.0,2457.600,1009841.400,7336067.0,0.0,0.0,0.0,5519.400
4.944,11.461,82.022,0.0,0.0,1.573,0.0,1638.400,1007027.200,7287558.0,0.0,0.0,0.0,6200.400
4.167,10.965,83.553,0.0,0.0,1.316,0.0,819.200,1000528.600,7260964.800,0.0,0.0,0.0,6000.600
5.652,12.826,80.0,0.0,0.0,1.522,0.0,1638.400,1009392.600,7309502.600,0.0,0.0,0.0,5665.800
4.185,12.335,81.278,0.441,0.0,1.762,0.0,19660.800,1008555.200,7296372.200,0.0,0.0,0.0,5708.0
4.104,11.663,83.153,0.0,0.0,1.080,0.0,819.200,996630.400,7238010.800,0.0,0.0,0.0,5826.200
4.367,12.009,83.188,0.0,0.0,0.437,0.0,1638.400,1011177.200,7313722.600,0.0,0.0,0.0,5999.600
4.072,11.538,82.805,0.0,0.0,1.584,0.0,3276.800,1003444.200,7264154.400,0.0,0.0,0.0,5674.600
5.405,9.685,83.784,0.0,0.0,1.126,0.0,819.200,984767.400,7142329.200,0.0,0.0,0.0,5746.200
0.401,0.200,99.399,0.0,0.0,0.0,0.0,1638.400,6254.0,1868.800,0.0,0.0,0.0,74.800
