"Dstat 0.7.2 CSV output"
"Author:","Dag Wieers <dag@wieers.com>",,,,"URL:","http://dag.wieers.com/home-made/dstat/"
"Host:","Server2",,,,"User:","mstevan"
"Cmdline:","dstat --output /home/mstevan/logs/experiment_3.4/dstat/vs_512-vcpr_16-wtpm_64-rep_4.csv 5 16",,,,"Date:","28 Oct 2019 18:44:10 UTC"

"total cpu usage",,,,,,"dsk/total",,"net/total",,"paging",,"system",
"usr","sys","idl","wai","hiq","siq","read","writ","recv","send","in","out","int","csw"
1.588,3.222,94.502,0.282,0.0,0.405,6144.033,628322.205,0.0,0.0,0.0,0.0,0.053,1624.480
0.200,0.0,99.599,0.0,0.0,0.200,0.0,819.200,10252.600,17384.200,0.0,0.0,0.0,146.0
3.956,10.110,84.176,0.0,0.0,1.758,0.0,1638.400,910321.800,6528842.800,0.0,0.0,0.0,6238.600
5.950,10.755,81.922,0.0,0.0,1.373,0.0,1638.400,954710.800,6892968.200,0.0,0.0,0.0,6079.200
4.222,10.667,82.222,0.889,0.0,2.0,0.0,27033.600,969107.800,7029673.0,0.0,0.0,0.0,6338.0
5.695,12.984,78.588,0.0,0.0,2.733,0.0,1638.400,969836.200,7007431.0,0.0,0.0,0.0,6298.600
5.708,12.557,79.909,0.0,0.0,1.826,0.0,1638.400,974490.400,7033272.0,0.0,0.0,0.0,6083.400
4.185,12.115,81.718,0.0,0.0,1.982,0.0,2457.600,968640.400,7024124.200,0.0,0.0,0.0,6405.400
4.454,13.140,80.178,0.0,0.0,2.227,0.0,1638.400,975829.600,7052823.400,0.0,0.0,0.0,6222.600
4.545,9.773,84.091,0.0,0.0,1.591,0.0,819.200,980182.600,7104479.0,0.0,0.0,0.0,6182.600
5.543,13.525,78.936,0.222,0.0,1.774,0.0,15564.800,974223.600,7040091.800,0.0,0.0,0.0,6088.800
5.100,12.860,79.601,0.0,0.0,2.439,0.0,1638.400,969104.600,6998916.200,0.0,0.0,0.0,5997.800
4.054,12.387,81.081,0.0,0.0,2.477,0.0,819.200,974954.800,7067361.0,0.0,0.0,0.0,6154.400
4.911,12.723,80.134,0.0,0.0,2.232,0.0,1638.400,994978.600,7185741.600,0.0,0.0,0.0,6128.200
5.116,11.395,80.930,0.0,0.0,2.558,0.0,3276.800,966718.800,6985122.200,0.0,0.0,0.0,6268.400
3.304,12.115,82.819,0.0,0.0,1.762,0.0,819.200,963493.200,6971745.400,0.0,0.0,0.0,6261.400
0.797,0.199,98.008,0.996,0.0,0.0,0.0,16384.0,6419.600,2051.600,0.0,0.0,0.0,85.200
