"Dstat 0.7.2 CSV output"
"Author:","Dag Wieers <dag@wieers.com>",,,,"URL:","http://dag.wieers.com/home-made/dstat/"
"Host:","Server2",,,,"User:","mstevan"
"Cmdline:","dstat --output /home/mstevan/logs/experiment_3.4/dstat/vs_512-vcpr_16-wtpm_32-rep_1.csv 5 16",,,,"Date:","28 Oct 2019 18:34:13 UTC"

"total cpu usage",,,,,,"dsk/total",,"net/total",,"paging",,"system",
"usr","sys","idl","wai","hiq","siq","read","writ","recv","send","in","out","int","csw"
1.570,3.172,94.577,0.284,0.0,0.398,6196.511,633650.579,0.0,0.0,0.0,0.0,0.054,1596.733
0.402,0.402,99.195,0.0,0.0,0.0,0.0,3276.800,19687.0,80822.200,0.0,0.0,0.0,218.0
4.825,10.746,83.333,0.0,0.0,1.096,0.0,1638.400,930790.0,6729662.0,0.0,0.0,0.0,5821.600
3.922,9.150,86.057,0.0,0.0,0.871,0.0,819.200,959442.400,6966185.400,0.0,0.0,0.0,5903.600
4.338,11.497,83.080,0.0,0.0,1.085,0.0,3276.800,985307.400,7131793.800,0.0,0.0,0.0,5814.200
4.077,12.661,82.618,0.0,0.0,0.644,0.0,1638.400,962144.600,6962094.200,0.0,0.0,0.0,6043.600
3.939,8.753,86.433,0.0,0.0,0.875,0.0,819.200,982642.0,7130682.400,0.0,0.0,0.0,5888.0
3.905,11.714,82.646,0.868,0.0,0.868,0.0,19660.800,995940.600,7207990.0,0.0,0.0,0.0,5659.600
3.712,11.572,84.061,0.0,0.0,0.655,0.0,819.200,991332.0,7190378.200,0.0,0.0,0.0,5826.400
4.515,10.158,84.424,0.0,0.0,0.903,0.0,1638.400,1000662.200,7247548.800,0.0,0.0,0.0,5784.800
4.474,12.528,81.432,0.0,0.0,1.566,0.0,1638.400,1021870.800,7398424.600,0.0,0.0,0.0,5547.600
4.740,10.609,83.521,0.0,0.0,1.129,0.0,819.200,1006087.800,7303605.600,0.0,0.0,0.0,5889.600
5.947,10.352,82.159,0.0,0.0,1.542,0.0,1638.400,1022360.600,7394861.800,0.0,0.0,0.0,5843.800
5.682,10.0,82.500,0.455,0.0,1.364,0.0,18022.400,1004061.0,7268149.0,0.0,0.0,0.0,5718.800
4.626,10.132,84.361,0.0,0.0,0.881,0.0,2457.600,1011472.600,7341384.600,0.0,0.0,0.0,5770.200
3.863,10.300,84.764,0.0,0.0,1.073,0.0,1638.400,986171.600,7129324.600,0.0,0.0,0.0,5726.600
0.200,0.200,99.599,0.0,0.0,0.0,0.0,819.200,3167.0,992.0,0.0,0.0,0.0,60.400
