"Dstat 0.7.2 CSV output"
"Author:","Dag Wieers <dag@wieers.com>",,,,"URL:","http://dag.wieers.com/home-made/dstat/"
"Host:","Server2",,,,"User:","mstevan"
"Cmdline:","dstat --output /home/mstevan/logs/experiment_3.4/dstat/vs_512-vcpr_32-wtpm_64-rep_2.csv 5 16",,,,"Date:","28 Oct 2019 18:58:23 UTC"

"total cpu usage",,,,,,"dsk/total",,"net/total",,"paging",,"system",
"usr","sys","idl","wai","hiq","siq","read","writ","recv","send","in","out","int","csw"
1.609,3.279,94.419,0.280,0.0,0.413,6070.576,620863.658,0.0,0.0,0.0,0.0,0.053,1643.661
0.800,0.400,98.800,0.0,0.0,0.0,0.0,1638.400,12971.200,18915.0,0.0,0.0,0.0,163.200
4.515,12.867,80.135,0.0,0.0,2.483,0.0,1638.400,1098318.200,7917360.0,0.0,0.0,0.0,5354.800
4.977,13.122,79.638,0.0,0.0,2.262,0.0,819.200,1176232.400,8545295.800,0.0,0.0,0.0,5208.0
6.292,14.157,77.528,0.0,0.0,2.022,0.0,3276.800,1141373.200,8259441.800,0.0,0.0,0.0,5220.400
5.669,13.379,78.005,0.680,0.0,2.268,0.0,19660.800,1152966.200,8349149.600,0.0,0.0,0.0,5153.0
4.817,13.303,79.128,0.0,0.0,2.752,0.0,819.200,1156439.0,8396409.800,0.0,0.0,0.0,5071.200
4.977,14.027,78.959,0.0,0.0,2.036,0.0,3276.800,1191249.400,8632815.400,0.0,0.0,0.0,5078.800
5.580,12.054,80.804,0.0,0.0,1.562,0.0,819.200,1176311.800,8540059.200,0.0,0.0,0.0,5011.200
5.227,15.0,77.045,0.0,0.0,2.727,0.0,1638.400,1179017.800,8530549.600,0.0,0.0,0.0,5038.200
5.430,15.837,76.471,0.0,0.0,2.262,0.0,1638.400,1173727.400,8503918.400,0.0,0.0,0.0,4920.800
4.299,14.932,79.186,0.0,0.0,1.584,0.0,819.200,1178356.400,8555883.200,0.0,0.0,0.0,5194.800
4.270,13.034,80.449,0.225,0.0,2.022,0.0,22937.600,1179237.0,8540874.400,0.0,0.0,0.0,4880.400
5.066,13.216,79.295,0.0,0.0,2.423,0.0,1638.400,1176902.800,8525334.800,0.0,0.0,0.0,4707.200
6.561,14.027,76.697,0.0,0.0,2.715,0.0,2457.600,1187386.200,8622316.0,0.0,0.0,0.0,4880.400
5.543,15.935,76.212,0.0,0.0,2.309,0.0,1638.400,1179405.600,8545430.600,0.0,0.0,0.0,5132.200
0.601,0.802,97.595,0.0,0.0,1.002,0.0,1638.400,76252.400,370622.200,0.0,0.0,0.0,720.0
