"Dstat 0.7.2 CSV output"
"Author:","Dag Wieers <dag@wieers.com>",,,,"URL:","http://dag.wieers.com/home-made/dstat/"
"Host:","Server2",,,,"User:","mstevan"
"Cmdline:","dstat --output /home/mstevan/logs/experiment_3.4/dstat/vs_512-vcpr_32-wtpm_64-rep_3.csv 5 16",,,,"Date:","28 Oct 2019 18:59:49 UTC"

"total cpu usage",,,,,,"dsk/total",,"net/total",,"paging",,"system",
"usr","sys","idl","wai","hiq","siq","read","writ","recv","send","in","out","int","csw"
1.612,3.288,94.406,0.280,0.0,0.414,6063.326,620128.033,0.0,0.0,0.0,0.0,0.053,1646.723
0.802,0.200,98.998,0.0,0.0,0.0,0.0,1638.400,16628.800,39661.0,0.0,0.0,0.0,179.400
3.769,11.973,82.705,0.0,0.0,1.552,0.0,1638.400,1095488.400,7903854.800,0.0,0.0,0.0,4841.800
6.221,16.590,75.346,0.0,0.0,1.843,0.0,1638.400,1188359.600,8632180.400,0.0,0.0,0.0,4854.200
4.656,11.308,82.262,0.0,0.0,1.774,0.0,2457.600,1143860.400,8279809.200,0.0,0.0,0.0,5068.600
4.595,12.473,81.182,0.0,0.0,1.751,0.0,819.200,1146697.600,8323558.200,0.0,0.0,0.0,4686.600
4.966,14.673,78.555,0.0,0.0,1.806,0.0,1638.400,1168046.600,8462239.200,0.0,0.0,0.0,4605.400
4.505,13.288,79.955,0.676,0.0,1.577,0.0,25395.200,1154136.600,8356619.400,0.0,0.0,0.0,4451.600
5.605,12.780,79.596,0.0,0.0,2.018,0.0,819.200,1159060.400,8404635.600,0.0,0.0,0.0,4733.200
5.239,12.528,80.182,0.0,0.0,2.050,0.0,1638.400,1184817.600,8591028.600,0.0,0.0,0.0,4415.400
4.435,13.082,81.153,0.0,0.0,1.330,0.0,819.200,1167881.200,8468132.200,0.0,0.0,0.0,4714.0
4.966,13.318,80.587,0.0,0.0,1.129,0.0,819.200,1170860.800,8514357.800,0.0,0.0,0.0,4725.0
6.236,14.550,76.674,0.0,0.0,2.540,0.0,1638.400,1173071.600,8496821.200,0.0,0.0,0.0,4769.200
6.697,16.628,73.903,0.462,0.0,2.309,0.0,14745.600,1190737.600,8625770.400,0.0,0.0,0.0,5285.400
6.161,14.929,75.355,0.0,0.0,3.555,0.0,2457.600,1175590.200,8537250.200,0.0,0.0,0.0,4953.200
7.126,17.340,71.971,0.0,0.0,3.563,0.0,1638.400,1160203.0,8397437.800,0.0,0.0,0.0,4732.200
0.803,1.004,97.992,0.0,0.0,0.201,0.0,1638.400,57356.400,361315.600,0.0,0.0,0.0,603.0
