"Dstat 0.7.2 CSV output"
"Author:","Dag Wieers <dag@wieers.com>",,,,"URL:","http://dag.wieers.com/home-made/dstat/"
"Host:","Server2",,,,"User:","mstevan"
"Cmdline:","dstat --output /home/mstevan/logs/experiment_3.4/dstat/vs_64-vcpr_32-wtpm_64-rep_1.csv 5 16",,,,"Date:","28 Oct 2019 16:40:08 UTC"

"total cpu usage",,,,,,"dsk/total",,"net/total",,"paging",,"system",
"usr","sys","idl","wai","hiq","siq","read","writ","recv","send","in","out","int","csw"
1.385,2.730,95.280,0.282,0.0,0.323,4541.215,697715.550,0.0,0.0,0.0,0.0,0.059,1305.874
0.601,0.401,98.798,0.0,0.0,0.200,0.0,1638.400,16684.600,14594.600,0.0,0.0,0.0,202.200
4.955,12.387,80.405,0.0,0.0,2.252,0.0,819.200,1124753.0,2157382.600,0.0,0.0,0.0,5632.800
5.505,12.156,80.275,0.0,0.0,2.064,0.0,1638.400,1184320.800,2275863.0,0.0,0.0,0.0,4984.600
4.329,12.987,79.870,0.433,0.0,2.381,0.0,22118.400,1165402.800,2236732.400,0.0,0.0,0.0,5289.400
4.251,13.199,78.971,0.0,0.0,3.579,0.0,819.200,1179485.600,2270114.200,0.0,0.0,0.0,5378.400
5.066,11.233,81.718,0.0,0.0,1.982,0.0,1638.400,1192056.600,2288660.400,0.0,0.0,0.0,5367.0
4.752,11.879,81.425,0.0,0.0,1.944,0.0,2457.600,1191096.800,2292377.400,0.0,0.0,0.0,5541.400
5.869,11.512,80.361,0.0,0.0,2.257,0.0,1638.400,1197768.200,2299036.200,0.0,0.0,0.0,5328.400
5.425,16.745,75.472,0.0,0.0,2.358,0.0,1638.400,1199003.0,2303682.0,0.0,0.0,0.0,5127.200
4.850,13.857,78.984,0.0,0.0,2.309,0.0,819.200,1219916.400,2348557.400,0.0,0.0,0.0,5032.600
4.709,12.556,79.821,0.673,0.0,2.242,0.0,36864.0,1197042.400,2298375.800,0.0,0.0,0.0,5046.200
4.630,13.194,80.324,0.0,0.0,1.852,0.0,1638.400,1197644.400,2300557.800,0.0,0.0,0.0,5063.0
5.695,13.667,78.815,0.0,0.0,1.822,0.0,819.200,1189818.400,2289850.600,0.0,0.0,0.0,5010.0
5.011,12.984,80.182,0.0,0.0,1.822,0.0,2457.600,1203644.800,2312696.600,0.0,0.0,0.0,4886.800
5.936,13.927,76.941,0.0,0.0,3.196,0.0,1638.400,1187066.400,2281119.800,0.0,0.0,0.0,5386.200
0.808,1.212,97.374,0.0,0.0,0.606,0.0,1638.400,105772.800,162564.800,0.0,0.0,0.0,961.800
