"Dstat 0.7.2 CSV output"
"Author:","Dag Wieers <dag@wieers.com>",,,,"URL:","http://dag.wieers.com/home-made/dstat/"
"Host:","Server2",,,,"User:","mstevan"
"Cmdline:","dstat --output /home/mstevan/logs/experiment_3.4/dstat/vs_64-vcpr_4-wtpm_8-rep_1.csv 5 16",,,,"Date:","28 Oct 2019 15:37:32 UTC"

"total cpu usage",,,,,,"dsk/total",,"net/total",,"paging",,"system",
"usr","sys","idl","wai","hiq","siq","read","writ","recv","send","in","out","int","csw"
1.274,2.447,95.708,0.294,0.0,0.276,4828.605,741555.010,0.0,0.0,0.0,0.0,0.063,1110.439
0.601,0.200,99.198,0.0,0.0,0.0,0.0,1638.400,13035.600,14070.400,0.0,0.0,0.0,144.800
3.233,8.836,87.500,0.0,0.0,0.431,0.0,819.200,576778.600,1107489.400,0.0,0.0,0.0,6564.200
2.814,8.874,82.468,5.195,0.0,0.649,0.0,353075.200,601213.400,1149700.400,0.0,0.0,0.0,6893.400
2.366,9.462,87.527,0.0,0.0,0.645,0.0,819.200,640670.800,1231070.800,0.0,0.0,0.0,6829.200
4.104,6.911,88.121,0.0,0.0,0.864,0.0,3276.800,620071.600,1186399.0,0.0,0.0,0.0,6789.800
3.191,9.362,87.021,0.0,0.0,0.426,0.0,2457.600,612644.800,1171654.0,0.0,0.0,0.0,6111.600
4.219,8.439,87.131,0.0,0.0,0.211,0.0,2457.600,627470.200,1205954.0,0.0,0.0,0.0,6389.800
3.478,7.391,88.261,0.0,0.0,0.870,0.0,1638.400,626814.200,1199411.200,0.0,0.0,0.0,6626.800
2.609,8.478,88.043,0.217,0.0,0.652,0.0,16384.0,629834.600,1204949.400,0.0,0.0,0.0,6723.200
2.826,7.391,89.348,0.0,0.0,0.435,0.0,819.200,617545.600,1186738.400,0.0,0.0,0.0,6428.400
3.478,7.826,88.261,0.0,0.0,0.435,0.0,1638.400,635871.600,1217211.0,0.0,0.0,0.0,6577.0
4.121,8.026,87.419,0.0,0.0,0.434,0.0,1638.400,625474.400,1196222.400,0.0,0.0,0.0,6556.0
2.991,9.188,87.179,0.0,0.0,0.641,0.0,819.200,616696.200,1185336.800,0.0,0.0,0.0,6423.400
4.925,8.994,85.011,0.0,0.0,1.071,0.0,3276.800,632356.600,1209538.400,0.0,0.0,0.0,6575.400
2.985,8.529,87.207,0.426,0.0,0.853,0.0,16384.0,595738.200,1144175.600,0.0,0.0,0.0,6063.0
0.401,0.200,99.399,0.0,0.0,0.0,0.0,1638.400,6285.200,1886.800,0.0,0.0,0.0,70.400
