"Dstat 0.7.2 CSV output"
"Author:","Dag Wieers <dag@wieers.com>",,,,"URL:","http://dag.wieers.com/home-made/dstat/"
"Host:","Server2",,,,"User:","mstevan"
"Cmdline:","dstat --output /home/mstevan/logs/experiment_3.4/dstat/vs_64-vcpr_32-wtpm_8-rep_3.csv 5 16",,,,"Date:","28 Oct 2019 16:31:36 UTC"

"total cpu usage",,,,,,"dsk/total",,"net/total",,"paging",,"system",
"usr","sys","idl","wai","hiq","siq","read","writ","recv","send","in","out","int","csw"
1.369,2.688,95.341,0.283,0.0,0.318,4578.373,703387.263,0.0,0.0,0.0,0.0,0.060,1290.564
0.802,0.0,99.198,0.0,0.0,0.0,0.0,1638.400,14259.0,15990.0,0.0,0.0,0.0,154.0
4.0,5.474,90.105,0.0,0.0,0.421,0.0,819.200,633728.200,1217889.400,0.0,0.0,0.0,2909.400
2.345,5.117,91.898,0.213,0.0,0.426,0.0,19660.800,630783.800,1206786.0,0.0,0.0,0.0,2615.800
2.386,4.989,91.974,0.0,0.0,0.651,0.0,3276.800,688992.200,1318901.800,0.0,0.0,0.0,2850.400
2.119,6.568,90.678,0.0,0.0,0.636,0.0,819.200,688686.600,1323784.600,0.0,0.0,0.0,2694.0
2.381,4.978,92.208,0.0,0.0,0.433,0.0,1638.400,662496.400,1267345.800,0.0,0.0,0.0,2856.400
2.548,5.732,91.295,0.0,0.0,0.425,0.0,2457.600,678904.200,1305550.400,0.0,0.0,0.0,2763.400
3.198,5.757,90.405,0.0,0.0,0.640,0.0,1638.400,695174.200,1330609.800,0.0,0.0,0.0,2938.600
2.911,7.277,88.358,0.416,0.0,1.040,0.0,15564.800,684730.0,1311272.0,0.0,0.0,0.0,3023.400
2.321,6.329,90.928,0.0,0.0,0.422,0.0,4915.200,677820.200,1303013.200,0.0,0.0,0.0,2772.800
2.526,6.947,89.684,0.0,0.0,0.842,0.0,1638.400,692805.200,1326788.200,0.0,0.0,0.0,2761.400
1.915,5.532,91.702,0.0,0.0,0.851,0.0,1638.400,676007.0,1294390.200,0.0,0.0,0.0,2733.0
2.137,6.624,90.812,0.0,0.0,0.427,0.0,819.200,682205.600,1310630.800,0.0,0.0,0.0,2857.800
2.998,5.567,90.792,0.0,0.0,0.642,0.0,2457.600,689830.600,1320966.0,0.0,0.0,0.0,2856.0
3.165,6.118,89.451,0.422,0.0,0.844,0.0,16384.0,673402.600,1288479.0,0.0,0.0,0.0,2645.200
0.200,0.200,99.599,0.0,0.0,0.0,0.0,819.200,3167.0,1005.200,0.0,0.0,0.0,64.0
