"Dstat 0.7.2 CSV output"
"Author:","Dag Wieers <dag@wieers.com>",,,,"URL:","http://dag.wieers.com/home-made/dstat/"
"Host:","Server2",,,,"User:","mstevan"
"Cmdline:","dstat --output /home/mstevan/logs/experiment_3.4/dstat/vs_64-vcpr_32-wtpm_64-rep_4.csv 5 16",,,,"Date:","28 Oct 2019 16:44:24 UTC"

"total cpu usage",,,,,,"dsk/total",,"net/total",,"paging",,"system",
"usr","sys","idl","wai","hiq","siq","read","writ","recv","send","in","out","int","csw"
1.396,2.761,95.232,0.281,0.0,0.329,4522.860,694914.224,0.0,0.0,0.0,0.0,0.059,1318.001
0.402,0.201,99.396,0.0,0.0,0.0,0.0,1638.400,18079.0,17316.200,0.0,0.0,0.0,220.400
4.957,12.284,80.388,0.216,0.0,2.155,0.0,19660.800,1106285.400,2114710.600,0.0,0.0,0.0,5739.600
4.260,12.780,81.839,0.0,0.0,1.121,0.0,819.200,1190089.800,2290664.0,0.0,0.0,0.0,5448.600
4.922,11.633,81.879,0.0,0.0,1.566,0.0,3276.800,1156530.200,2218797.800,0.0,0.0,0.0,5431.800
5.973,11.947,80.310,0.0,0.0,1.770,0.0,1638.400,1174364.200,2255163.800,0.0,0.0,0.0,5252.200
3.956,10.330,84.396,0.0,0.0,1.319,0.0,819.200,1172437.400,2256507.800,0.0,0.0,0.0,4764.400
5.312,15.012,77.367,0.0,0.0,2.309,0.0,3276.800,1184536.0,2275463.200,0.0,0.0,0.0,4936.600
4.119,15.561,78.490,0.0,0.0,1.831,0.0,4915.200,1177731.800,2266717.200,0.0,0.0,0.0,5244.200
5.180,15.541,76.351,0.450,0.0,2.477,0.0,15564.800,1176665.800,2256518.800,0.0,0.0,0.0,5217.200
3.756,12.441,81.455,0.0,0.0,2.347,0.0,1638.400,1170700.600,2251312.400,0.0,0.0,0.0,5310.0
5.128,14.452,79.021,0.0,0.0,1.399,0.0,819.200,1201286.200,2311806.200,0.0,0.0,0.0,5373.0
6.193,14.679,77.752,0.0,0.0,1.376,0.0,1638.400,1188655.0,2282644.0,0.0,0.0,0.0,5014.0
6.527,13.986,77.622,0.0,0.0,1.865,0.0,1638.400,1200606.0,2306908.800,0.0,0.0,0.0,4943.600
4.505,14.414,79.505,0.0,0.0,1.577,0.0,1638.400,1206618.400,2323464.600,0.0,0.0,0.0,5342.400
5.134,13.170,79.018,0.446,0.0,2.232,0.0,19660.800,1186955.600,2275491.800,0.0,0.0,0.0,5291.200
0.201,0.402,98.994,0.0,0.0,0.402,0.0,819.200,17373.600,16385.200,0.0,0.0,0.0,215.800
