"Dstat 0.7.2 CSV output"
"Author:","Dag Wieers <dag@wieers.com>",,,,"URL:","http://dag.wieers.com/home-made/dstat/"
"Host:","Server2",,,,"User:","mstevan"
"Cmdline:","dstat --output /home/mstevan/logs/experiment_3.4/dstat/vs_64-vcpr_16-wtpm_32-rep_2.csv 5 16",,,,"Date:","28 Oct 2019 16:18:47 UTC"

"total cpu usage",,,,,,"dsk/total",,"net/total",,"paging",,"system",
"usr","sys","idl","wai","hiq","siq","read","writ","recv","send","in","out","int","csw"
1.342,2.622,95.443,0.286,0.0,0.307,4635.267,712073.315,0.0,0.0,0.0,0.0,0.060,1251.905
0.401,0.200,99.198,0.0,0.0,0.200,0.0,1638.400,17945.0,20823.0,0.0,0.0,0.0,195.200
3.696,10.435,84.565,0.0,0.0,1.304,0.0,819.200,961521.0,1849590.200,0.0,0.0,0.0,5953.800
5.345,9.800,83.519,0.223,0.0,1.114,0.0,24576.0,999085.0,1916995.400,0.0,0.0,0.0,5808.400
3.939,11.816,83.151,0.0,0.0,1.094,0.0,2457.600,996682.200,1919423.0,0.0,0.0,0.0,6318.200
5.369,9.396,83.669,0.0,0.0,1.566,0.0,1638.400,989834.200,1898878.800,0.0,0.0,0.0,6114.800
4.110,10.274,84.018,0.0,0.0,1.598,0.0,1638.400,1008429.200,1935516.0,0.0,0.0,0.0,5721.400
4.376,10.066,83.807,0.0,0.0,1.751,0.0,2457.600,1010325.0,1943805.0,0.0,0.0,0.0,5715.0
4.148,12.227,82.096,0.0,0.0,1.528,0.0,1638.400,1015404.400,1948501.0,0.0,0.0,0.0,6180.600
5.263,11.623,81.140,0.219,0.0,1.754,0.0,15564.800,1028743.0,1975282.0,0.0,0.0,0.0,6083.800
5.324,11.806,81.481,0.0,0.0,1.389,0.0,819.200,1025340.0,1974276.200,0.0,0.0,0.0,6076.200
4.328,11.617,82.005,0.0,0.0,2.050,0.0,1638.400,1032269.600,1981696.0,0.0,0.0,0.0,5939.600
5.322,11.530,82.040,0.0,0.0,1.109,0.0,819.200,1024224.800,1969453.600,0.0,0.0,0.0,5625.600
4.957,9.914,84.267,0.0,0.0,0.862,0.0,1638.400,1033807.800,1986085.800,0.0,0.0,0.0,5860.400
4.251,10.738,83.893,0.0,0.0,1.119,0.0,1638.400,1031011.800,1979296.200,0.0,0.0,0.0,5953.600
4.454,8.463,85.523,0.445,0.0,1.114,0.0,16384.0,1004685.800,1931926.800,0.0,0.0,0.0,5461.800
0.200,0.200,99.599,0.0,0.0,0.0,0.0,1638.400,6267.200,1868.800,0.0,0.0,0.0,69.600
