"Dstat 0.7.2 CSV output"
"Author:","Dag Wieers <dag@wieers.com>",,,,"URL:","http://dag.wieers.com/home-made/dstat/"
"Host:","Server2",,,,"User:","mstevan"
"Cmdline:","dstat --output /home/mstevan/logs/experiment_3.4/dstat/vs_64-vcpr_4-wtpm_64-rep_2.csv 5 16",,,,"Date:","28 Oct 2019 15:50:21 UTC"

"total cpu usage",,,,,,"dsk/total",,"net/total",,"paging",,"system",
"usr","sys","idl","wai","hiq","siq","read","writ","recv","send","in","out","int","csw"
1.296,2.502,95.628,0.291,0.0,0.282,4766.898,732162.808,0.0,0.0,0.0,0.0,0.062,1166.670
0.0,0.404,99.596,0.0,0.0,0.0,0.0,1638.400,21087.400,22163.0,0.0,0.0,0.0,260.800
3.119,7.900,85.239,0.208,0.0,3.534,0.0,20480.0,575495.800,1041132.200,0.0,0.0,0.0,6388.0
3.333,8.333,85.0,0.0,0.0,3.333,0.0,819.200,599821.400,1112202.400,0.0,0.0,0.0,6778.200
3.579,8.632,85.895,0.0,0.0,1.895,0.0,3276.800,616746.400,1145711.0,0.0,0.0,0.0,6726.800
3.165,8.439,85.021,0.0,0.0,3.376,0.0,1638.400,614366.400,1138056.800,0.0,0.0,0.0,6762.800
2.979,8.511,86.383,0.0,0.0,2.128,0.0,819.200,614035.200,1145097.400,0.0,0.0,0.0,6854.200
3.863,7.296,86.266,0.0,0.0,2.575,0.0,3276.800,617288.200,1150573.0,0.0,0.0,0.0,7002.200
3.625,8.316,85.501,0.0,0.0,2.559,0.0,22118.400,618631.0,1157755.400,0.0,0.0,0.0,6437.400
2.542,9.534,85.381,0.0,0.0,2.542,0.0,819.200,614503.200,1141382.600,0.0,0.0,0.0,6680.0
3.397,9.554,84.713,0.0,0.0,2.335,0.0,1638.400,619406.0,1155566.400,0.0,0.0,0.0,6697.0
3.191,8.723,85.957,0.0,0.0,2.128,0.0,819.200,616928.600,1152044.800,0.0,0.0,0.0,7016.800
4.264,8.316,84.435,0.0,0.0,2.985,0.0,1638.400,612575.400,1135119.400,0.0,0.0,0.0,6640.600
2.802,7.759,86.638,0.0,0.0,2.802,0.0,1638.400,627390.200,1167741.0,0.0,0.0,0.0,6737.400
2.966,8.263,85.169,0.636,0.0,2.966,0.0,17203.200,618595.600,1156281.0,0.0,0.0,0.0,6709.0
3.750,8.125,86.042,0.0,0.0,2.083,0.0,1638.400,596299.200,1097666.400,0.0,0.0,0.0,6099.600
0.802,0.0,99.198,0.0,0.0,0.0,0.0,1638.400,6254.0,1855.600,0.0,0.0,0.0,65.200
