"Dstat 0.7.2 CSV output"
"Author:","Dag Wieers <dag@wieers.com>",,,,"URL:","http://dag.wieers.com/home-made/dstat/"
"Host:","Server2",,,,"User:","mstevan"
"Cmdline:","dstat --output /home/mstevan/logs/experiment_3.4/dstat/vs_64-vcpr_4-wtpm_32-rep_1.csv 5 16",,,,"Date:","28 Oct 2019 15:43:14 UTC"

"total cpu usage",,,,,,"dsk/total",,"net/total",,"paging",,"system",
"usr","sys","idl","wai","hiq","siq","read","writ","recv","send","in","out","int","csw"
1.283,2.470,95.676,0.293,0.0,0.278,4800.984,737366.971,0.0,0.0,0.0,0.0,0.062,1135.178
0.401,0.200,98.998,0.401,0.0,0.0,0.0,18841.600,14295.600,13987.600,0.0,0.0,0.0,183.600
4.264,7.463,86.994,0.0,0.0,1.279,0.0,1638.400,570078.200,1089218.400,0.0,0.0,0.0,6248.200
3.024,9.071,87.041,0.0,0.0,0.864,0.0,1638.400,585712.200,1123255.0,0.0,0.0,0.0,6845.800
3.282,9.409,86.214,0.0,0.0,1.094,0.0,2457.600,615625.800,1177441.0,0.0,0.0,0.0,6957.0
3.486,8.715,86.710,0.0,0.0,1.089,0.0,819.200,611861.200,1174157.400,0.0,0.0,0.0,6972.800
4.139,9.804,84.749,0.0,0.0,1.307,0.0,1638.400,608052.400,1161879.0,0.0,0.0,0.0,6842.800
4.176,9.231,85.934,0.0,0.0,0.659,0.0,3276.800,622132.400,1190418.400,0.0,0.0,0.0,7069.200
3.463,9.091,86.364,0.216,0.0,0.866,0.0,21299.200,624059.600,1198277.400,0.0,0.0,0.0,7026.400
3.974,7.285,87.638,0.0,0.0,1.104,0.0,1638.400,637362.800,1219265.0,0.0,0.0,0.0,7258.400
3.043,9.565,86.957,0.0,0.0,0.435,0.0,1638.400,628736.600,1203262.0,0.0,0.0,0.0,6960.400
3.625,8.955,86.780,0.0,0.0,0.640,0.0,819.200,626057.400,1202459.600,0.0,0.0,0.0,7081.600
3.888,8.639,85.961,0.0,0.0,1.512,0.0,1638.400,623806.600,1193745.800,0.0,0.0,0.0,6849.200
3.456,8.207,87.257,0.0,0.0,1.080,0.0,1638.400,637322.200,1223169.0,0.0,0.0,0.0,6945.400
3.486,7.190,88.671,0.0,0.0,0.654,0.0,15564.800,627787.800,1202178.400,0.0,0.0,0.0,6762.200
3.268,7.407,88.453,0.0,0.0,0.871,0.0,1638.400,627377.200,1198980.800,0.0,0.0,0.0,6709.0
0.201,0.0,99.799,0.0,0.0,0.0,0.0,819.200,3167.0,1005.200,0.0,0.0,0.0,59.400
