------------Middleware started!------------
LOG: Waiting for connection in MyMiddleware.run()
LOG: Accepted client: /10.0.0.11:48852in MyMiddleware.run()
LOG: Accepted client: /10.0.0.11:48856in MyMiddleware.run()
LOG: Accepted client: /10.0.0.11:48858in MyMiddleware.run()
LOG: Accepted client: /10.0.0.11:48854in MyMiddleware.run()
LOG: Accepted client: /10.0.0.7:50182in MyMiddleware.run()
LOG: Accepted client: /10.0.0.7:50180in MyMiddleware.run()
LOG: Accepted client: /10.0.0.7:50178in MyMiddleware.run()
LOG: Accepted client: /10.0.0.7:50184in MyMiddleware.run()
LOG: Accepted client: /10.0.0.6:56628in MyMiddleware.run()
LOG: Accepted client: /10.0.0.6:56632in MyMiddleware.run()
LOG: Accepted client: /10.0.0.6:56630in MyMiddleware.run()
LOG: Accepted client: /10.0.0.6:56634in MyMiddleware.run()
LOG: Closed client: /10.0.0.11:48852in MyMiddleware.run()
LOG: Closed client: /10.0.0.11:48854in MyMiddleware.run()
LOG: Closed client: /10.0.0.11:48858in MyMiddleware.run()
LOG: Closed client: /10.0.0.11:48856in MyMiddleware.run()
LOG: Closed client: /10.0.0.6:56630in MyMiddleware.run()
LOG: Closed client: /10.0.0.6:56628in MyMiddleware.run()
LOG: Closed client: /10.0.0.6:56632in MyMiddleware.run()
LOG: Closed client: /10.0.0.6:56634in MyMiddleware.run()
LOG: Closed client: /10.0.0.7:50184in MyMiddleware.run()
LOG: Closed client: /10.0.0.7:50180in MyMiddleware.run()
LOG: Closed client: /10.0.0.7:50182in MyMiddleware.run()
LOG: Closed client: /10.0.0.7:50178in MyMiddleware.run()
