------------Middleware started!------------
LOG: Waiting for connection in MyMiddleware.run()
LOG: Accepted client: /10.0.0.7:36290in MyMiddleware.run()
LOG: Accepted client: /10.0.0.7:36286in MyMiddleware.run()
LOG: Accepted client: /10.0.0.7:36288in MyMiddleware.run()
LOG: Accepted client: /10.0.0.7:36292in MyMiddleware.run()
LOG: Accepted client: /10.0.0.6:42734in MyMiddleware.run()
LOG: Accepted client: /10.0.0.6:42732in MyMiddleware.run()
LOG: Accepted client: /10.0.0.6:42736in MyMiddleware.run()
LOG: Accepted client: /10.0.0.6:42738in MyMiddleware.run()
LOG: Accepted client: /10.0.0.11:34870in MyMiddleware.run()
LOG: Accepted client: /10.0.0.11:34868in MyMiddleware.run()
LOG: Accepted client: /10.0.0.11:34872in MyMiddleware.run()
LOG: Accepted client: /10.0.0.11:34866in MyMiddleware.run()
LOG: Closed client: /10.0.0.7:36288in MyMiddleware.run()
LOG: Closed client: /10.0.0.7:36286in MyMiddleware.run()
LOG: Closed client: /10.0.0.7:36292in MyMiddleware.run()
LOG: Closed client: /10.0.0.7:36290in MyMiddleware.run()
LOG: Closed client: /10.0.0.6:42738in MyMiddleware.run()
LOG: Closed client: /10.0.0.6:42732in MyMiddleware.run()
LOG: Closed client: /10.0.0.6:42736in MyMiddleware.run()
LOG: Closed client: /10.0.0.6:42734in MyMiddleware.run()
LOG: Closed client: /10.0.0.11:34868in MyMiddleware.run()
LOG: Closed client: /10.0.0.11:34872in MyMiddleware.run()
LOG: Closed client: /10.0.0.11:34870in MyMiddleware.run()
LOG: Closed client: /10.0.0.11:34866in MyMiddleware.run()
