------------Middleware started!------------
LOG: Waiting for connection in MyMiddleware.run()
LOG: Accepted client: /10.0.0.11:47708in MyMiddleware.run()
LOG: Accepted client: /10.0.0.11:47670in MyMiddleware.run()
LOG: Accepted client: /10.0.0.11:47684in MyMiddleware.run()
LOG: Accepted client: /10.0.0.11:47686in MyMiddleware.run()
LOG: Accepted client: /10.0.0.11:47710in MyMiddleware.run()
LOG: Accepted client: /10.0.0.11:47680in MyMiddleware.run()
LOG: Accepted client: /10.0.0.11:47718in MyMiddleware.run()
LOG: Accepted client: /10.0.0.11:47714in MyMiddleware.run()
LOG: Accepted client: /10.0.0.11:47716in MyMiddleware.run()
LOG: Accepted client: /10.0.0.11:47704in MyMiddleware.run()
LOG: Accepted client: /10.0.0.11:47712in MyMiddleware.run()
LOG: Accepted client: /10.0.0.11:47682in MyMiddleware.run()
LOG: Accepted client: /10.0.0.11:47706in MyMiddleware.run()
LOG: Accepted client: /10.0.0.11:47696in MyMiddleware.run()
LOG: Accepted client: /10.0.0.11:47722in MyMiddleware.run()
LOG: Accepted client: /10.0.0.11:47720in MyMiddleware.run()
LOG: Accepted client: /10.0.0.11:47690in MyMiddleware.run()
LOG: Accepted client: /10.0.0.11:47726in MyMiddleware.run()
LOG: Accepted client: /10.0.0.11:47678in MyMiddleware.run()
LOG: Accepted client: /10.0.0.11:47724in MyMiddleware.run()
LOG: Accepted client: /10.0.0.11:47688in MyMiddleware.run()
LOG: Accepted client: /10.0.0.11:47698in MyMiddleware.run()
LOG: Accepted client: /10.0.0.11:47676in MyMiddleware.run()
LOG: Accepted client: /10.0.0.11:47728in MyMiddleware.run()
LOG: Accepted client: /10.0.0.11:47672in MyMiddleware.run()
LOG: Accepted client: /10.0.0.11:47732in MyMiddleware.run()
LOG: Accepted client: /10.0.0.11:47730in MyMiddleware.run()
LOG: Accepted client: /10.0.0.11:47702in MyMiddleware.run()
LOG: Accepted client: /10.0.0.11:47692in MyMiddleware.run()
LOG: Accepted client: /10.0.0.11:47700in MyMiddleware.run()
LOG: Accepted client: /10.0.0.11:47694in MyMiddleware.run()
LOG: Accepted client: /10.0.0.11:47674in MyMiddleware.run()
LOG: Accepted client: /10.0.0.6:55632in MyMiddleware.run()
LOG: Accepted client: /10.0.0.6:55610in MyMiddleware.run()
LOG: Accepted client: /10.0.0.6:55646in MyMiddleware.run()
LOG: Accepted client: /10.0.0.6:55624in MyMiddleware.run()
LOG: Accepted client: /10.0.0.6:55644in MyMiddleware.run()
LOG: Accepted client: /10.0.0.6:55640in MyMiddleware.run()
LOG: Accepted client: /10.0.0.7:49160in MyMiddleware.run()
LOG: Accepted client: /10.0.0.7:49134in MyMiddleware.run()
LOG: Accepted client: /10.0.0.6:55634in MyMiddleware.run()
LOG: Accepted client: /10.0.0.6:55620in MyMiddleware.run()
LOG: Accepted client: /10.0.0.6:55656in MyMiddleware.run()
LOG: Accepted client: /10.0.0.6:55600in MyMiddleware.run()
LOG: Accepted client: /10.0.0.7:49156in MyMiddleware.run()
LOG: Accepted client: /10.0.0.7:49168in MyMiddleware.run()
LOG: Accepted client: /10.0.0.7:49146in MyMiddleware.run()
LOG: Accepted client: /10.0.0.6:55658in MyMiddleware.run()
LOG: Accepted client: /10.0.0.6:55602in MyMiddleware.run()
LOG: Accepted client: /10.0.0.7:49144in MyMiddleware.run()
LOG: Accepted client: /10.0.0.6:55622in MyMiddleware.run()
LOG: Accepted client: /10.0.0.6:55654in MyMiddleware.run()
LOG: Accepted client: /10.0.0.6:55614in MyMiddleware.run()
LOG: Accepted client: /10.0.0.6:55626in MyMiddleware.run()
LOG: Accepted client: /10.0.0.6:55608in MyMiddleware.run()
LOG: Accepted client: /10.0.0.6:55612in MyMiddleware.run()
LOG: Accepted client: /10.0.0.6:55628in MyMiddleware.run()
LOG: Accepted client: /10.0.0.6:55648in MyMiddleware.run()
LOG: Accepted client: /10.0.0.6:55652in MyMiddleware.run()
LOG: Accepted client: /10.0.0.7:49142in MyMiddleware.run()
LOG: Accepted client: /10.0.0.6:55630in MyMiddleware.run()
LOG: Accepted client: /10.0.0.7:49164in MyMiddleware.run()
LOG: Accepted client: /10.0.0.7:49186in MyMiddleware.run()
LOG: Accepted client: /10.0.0.7:49166in MyMiddleware.run()
LOG: Accepted client: /10.0.0.7:49188in MyMiddleware.run()
LOG: Accepted client: /10.0.0.7:49162in MyMiddleware.run()
LOG: Accepted client: /10.0.0.7:49158in MyMiddleware.run()
LOG: Accepted client: /10.0.0.7:49132in MyMiddleware.run()
LOG: Accepted client: /10.0.0.7:49192in MyMiddleware.run()
LOG: Accepted client: /10.0.0.7:49148in MyMiddleware.run()
LOG: Accepted client: /10.0.0.7:49174in MyMiddleware.run()
LOG: Accepted client: /10.0.0.7:49172in MyMiddleware.run()
LOG: Accepted client: /10.0.0.7:49150in MyMiddleware.run()
LOG: Accepted client: /10.0.0.7:49180in MyMiddleware.run()
LOG: Accepted client: /10.0.0.7:49202in MyMiddleware.run()
LOG: Accepted client: /10.0.0.7:49182in MyMiddleware.run()
LOG: Accepted client: /10.0.0.7:49140in MyMiddleware.run()
LOG: Accepted client: /10.0.0.7:49170in MyMiddleware.run()
LOG: Accepted client: /10.0.0.7:49138in MyMiddleware.run()
LOG: Accepted client: /10.0.0.6:55650in MyMiddleware.run()
LOG: Accepted client: /10.0.0.6:55642in MyMiddleware.run()
LOG: Accepted client: /10.0.0.6:55616in MyMiddleware.run()
LOG: Accepted client: /10.0.0.6:55604in MyMiddleware.run()
LOG: Accepted client: /10.0.0.6:55660in MyMiddleware.run()
LOG: Accepted client: /10.0.0.6:55662in MyMiddleware.run()
LOG: Accepted client: /10.0.0.6:55618in MyMiddleware.run()
LOG: Accepted client: /10.0.0.6:55606in MyMiddleware.run()
LOG: Accepted client: /10.0.0.6:55636in MyMiddleware.run()
LOG: Accepted client: /10.0.0.6:55638in MyMiddleware.run()
LOG: Accepted client: /10.0.0.7:49154in MyMiddleware.run()
LOG: Accepted client: /10.0.0.7:49152in MyMiddleware.run()
LOG: Accepted client: /10.0.0.7:49196in MyMiddleware.run()
LOG: Accepted client: /10.0.0.7:49184in MyMiddleware.run()
LOG: Accepted client: /10.0.0.7:49176in MyMiddleware.run()
LOG: Accepted client: /10.0.0.7:49178in MyMiddleware.run()
LOG: Accepted client: /10.0.0.7:49136in MyMiddleware.run()
LOG: Closed client: /10.0.0.11:47674in MyMiddleware.run()
LOG: Closed client: /10.0.0.11:47712in MyMiddleware.run()
LOG: Closed client: /10.0.0.11:47672in MyMiddleware.run()
LOG: Closed client: /10.0.0.11:47710in MyMiddleware.run()
LOG: Closed client: /10.0.0.11:47694in MyMiddleware.run()
LOG: Closed client: /10.0.0.11:47708in MyMiddleware.run()
LOG: Closed client: /10.0.0.11:47692in MyMiddleware.run()
LOG: Closed client: /10.0.0.11:47696in MyMiddleware.run()
LOG: Closed client: /10.0.0.11:47698in MyMiddleware.run()
LOG: Closed client: /10.0.0.11:47704in MyMiddleware.run()
LOG: Closed client: /10.0.0.11:47732in MyMiddleware.run()
LOG: Closed client: /10.0.0.11:47682in MyMiddleware.run()
LOG: Closed client: /10.0.0.11:47686in MyMiddleware.run()
LOG: Closed client: /10.0.0.11:47676in MyMiddleware.run()
LOG: Closed client: /10.0.0.11:47726in MyMiddleware.run()
LOG: Closed client: /10.0.0.11:47706in MyMiddleware.run()
LOG: Closed client: /10.0.0.11:47728in MyMiddleware.run()
LOG: Closed client: /10.0.0.11:47716in MyMiddleware.run()
LOG: Closed client: /10.0.0.11:47730in MyMiddleware.run()
LOG: Closed client: /10.0.0.11:47678in MyMiddleware.run()
LOG: Closed client: /10.0.0.11:47684in MyMiddleware.run()
LOG: Closed client: /10.0.0.11:47724in MyMiddleware.run()
LOG: Closed client: /10.0.0.11:47688in MyMiddleware.run()
LOG: Closed client: /10.0.0.11:47702in MyMiddleware.run()
LOG: Closed client: /10.0.0.11:47680in MyMiddleware.run()
LOG: Closed client: /10.0.0.11:47700in MyMiddleware.run()
LOG: Closed client: /10.0.0.11:47670in MyMiddleware.run()
LOG: Closed client: /10.0.0.11:47720in MyMiddleware.run()
LOG: Closed client: /10.0.0.11:47714in MyMiddleware.run()
LOG: Closed client: /10.0.0.11:47718in MyMiddleware.run()
LOG: Closed client: /10.0.0.11:47722in MyMiddleware.run()
LOG: Closed client: /10.0.0.11:47690in MyMiddleware.run()
LOG: Closed client: /10.0.0.6:55622in MyMiddleware.run()
LOG: Closed client: /10.0.0.6:55606in MyMiddleware.run()
LOG: Closed client: /10.0.0.6:55608in MyMiddleware.run()
LOG: Closed client: /10.0.0.6:55620in MyMiddleware.run()
LOG: Closed client: /10.0.0.6:55616in MyMiddleware.run()
LOG: Closed client: /10.0.0.6:55600in MyMiddleware.run()
LOG: Closed client: /10.0.0.6:55602in MyMiddleware.run()
LOG: Closed client: /10.0.0.6:55618in MyMiddleware.run()
LOG: Closed client: /10.0.0.6:55604in MyMiddleware.run()
LOG: Closed client: /10.0.0.6:55628in MyMiddleware.run()
LOG: Closed client: /10.0.0.6:55630in MyMiddleware.run()
LOG: Closed client: /10.0.0.6:55612in MyMiddleware.run()
LOG: Closed client: /10.0.0.6:55610in MyMiddleware.run()
LOG: Closed client: /10.0.0.6:55640in MyMiddleware.run()
LOG: Closed client: /10.0.0.6:55614in MyMiddleware.run()
LOG: Closed client: /10.0.0.6:55626in MyMiddleware.run()
LOG: Closed client: /10.0.0.6:55632in MyMiddleware.run()
LOG: Closed client: /10.0.0.6:55636in MyMiddleware.run()
LOG: Closed client: /10.0.0.6:55654in MyMiddleware.run()
LOG: Closed client: /10.0.0.6:55656in MyMiddleware.run()
LOG: Closed client: /10.0.0.6:55624in MyMiddleware.run()
LOG: Closed client: /10.0.0.6:55658in MyMiddleware.run()
LOG: Closed client: /10.0.0.6:55650in MyMiddleware.run()
LOG: Closed client: /10.0.0.6:55648in MyMiddleware.run()
LOG: Closed client: /10.0.0.6:55660in MyMiddleware.run()
LOG: Closed client: /10.0.0.6:55644in MyMiddleware.run()
LOG: Closed client: /10.0.0.6:55638in MyMiddleware.run()
LOG: Closed client: /10.0.0.6:55642in MyMiddleware.run()
LOG: Closed client: /10.0.0.6:55634in MyMiddleware.run()
LOG: Closed client: /10.0.0.6:55646in MyMiddleware.run()
LOG: Closed client: /10.0.0.6:55652in MyMiddleware.run()
LOG: Closed client: /10.0.0.6:55662in MyMiddleware.run()
LOG: Closed client: /10.0.0.7:49142in MyMiddleware.run()
LOG: Closed client: /10.0.0.7:49134in MyMiddleware.run()
LOG: Closed client: /10.0.0.7:49156in MyMiddleware.run()
LOG: Closed client: /10.0.0.7:49154in MyMiddleware.run()
LOG: Closed client: /10.0.0.7:49152in MyMiddleware.run()
LOG: Closed client: /10.0.0.7:49144in MyMiddleware.run()
LOG: Closed client: /10.0.0.7:49138in MyMiddleware.run()
LOG: Closed client: /10.0.0.7:49182in MyMiddleware.run()
LOG: Closed client: /10.0.0.7:49148in MyMiddleware.run()
LOG: Closed client: /10.0.0.7:49180in MyMiddleware.run()
LOG: Closed client: /10.0.0.7:49162in MyMiddleware.run()
LOG: Closed client: /10.0.0.7:49172in MyMiddleware.run()
LOG: Closed client: /10.0.0.7:49136in MyMiddleware.run()
LOG: Closed client: /10.0.0.7:49140in MyMiddleware.run()
LOG: Closed client: /10.0.0.7:49168in MyMiddleware.run()
LOG: Closed client: /10.0.0.7:49160in MyMiddleware.run()
LOG: Closed client: /10.0.0.7:49146in MyMiddleware.run()
LOG: Closed client: /10.0.0.7:49166in MyMiddleware.run()
LOG: Closed client: /10.0.0.7:49150in MyMiddleware.run()
LOG: Closed client: /10.0.0.7:49170in MyMiddleware.run()
LOG: Closed client: /10.0.0.7:49164in MyMiddleware.run()
LOG: Closed client: /10.0.0.7:49174in MyMiddleware.run()
LOG: Closed client: /10.0.0.7:49186in MyMiddleware.run()
LOG: Closed client: /10.0.0.7:49176in MyMiddleware.run()
LOG: Closed client: /10.0.0.7:49202in MyMiddleware.run()
LOG: Closed client: /10.0.0.7:49196in MyMiddleware.run()
LOG: Closed client: /10.0.0.7:49184in MyMiddleware.run()
LOG: Closed client: /10.0.0.7:49158in MyMiddleware.run()
LOG: Closed client: /10.0.0.7:49188in MyMiddleware.run()
LOG: Closed client: /10.0.0.7:49178in MyMiddleware.run()
LOG: Closed client: /10.0.0.7:49132in MyMiddleware.run()
LOG: Closed client: /10.0.0.7:49192in MyMiddleware.run()
