------------Middleware started!------------
LOG: Waiting for connection in MyMiddleware.run()
LOG: Accepted client: /10.0.0.7:42416in MyMiddleware.run()
LOG: Accepted client: /10.0.0.7:42418in MyMiddleware.run()
LOG: Accepted client: /10.0.0.7:42426in MyMiddleware.run()
LOG: Accepted client: /10.0.0.7:42420in MyMiddleware.run()
LOG: Accepted client: /10.0.0.7:42398in MyMiddleware.run()
LOG: Accepted client: /10.0.0.7:42404in MyMiddleware.run()
LOG: Accepted client: /10.0.0.7:42428in MyMiddleware.run()
LOG: Accepted client: /10.0.0.7:42406in MyMiddleware.run()
LOG: Accepted client: /10.0.0.7:42410in MyMiddleware.run()
LOG: Accepted client: /10.0.0.7:42424in MyMiddleware.run()
LOG: Accepted client: /10.0.0.7:42408in MyMiddleware.run()
LOG: Accepted client: /10.0.0.7:42414in MyMiddleware.run()
LOG: Accepted client: /10.0.0.7:42412in MyMiddleware.run()
LOG: Accepted client: /10.0.0.7:42400in MyMiddleware.run()
LOG: Accepted client: /10.0.0.7:42402in MyMiddleware.run()
LOG: Accepted client: /10.0.0.7:42422in MyMiddleware.run()
LOG: Accepted client: /10.0.0.11:40996in MyMiddleware.run()
LOG: Accepted client: /10.0.0.11:40998in MyMiddleware.run()
LOG: Accepted client: /10.0.0.11:41016in MyMiddleware.run()
LOG: Accepted client: /10.0.0.11:41008in MyMiddleware.run()
LOG: Accepted client: /10.0.0.11:41014in MyMiddleware.run()
LOG: Accepted client: /10.0.0.11:41012in MyMiddleware.run()
LOG: Accepted client: /10.0.0.11:41002in MyMiddleware.run()
LOG: Accepted client: /10.0.0.11:40994in MyMiddleware.run()
LOG: Accepted client: /10.0.0.11:41024in MyMiddleware.run()
LOG: Accepted client: /10.0.0.11:41000in MyMiddleware.run()
LOG: Accepted client: /10.0.0.11:41018in MyMiddleware.run()
LOG: Accepted client: /10.0.0.11:41010in MyMiddleware.run()
LOG: Accepted client: /10.0.0.11:41006in MyMiddleware.run()
LOG: Accepted client: /10.0.0.11:41004in MyMiddleware.run()
LOG: Accepted client: /10.0.0.11:41020in MyMiddleware.run()
LOG: Accepted client: /10.0.0.6:48916in MyMiddleware.run()
LOG: Accepted client: /10.0.0.11:41022in MyMiddleware.run()
LOG: Accepted client: /10.0.0.6:48920in MyMiddleware.run()
LOG: Accepted client: /10.0.0.6:48922in MyMiddleware.run()
LOG: Accepted client: /10.0.0.6:48902in MyMiddleware.run()
LOG: Accepted client: /10.0.0.6:48898in MyMiddleware.run()
LOG: Accepted client: /10.0.0.6:48900in MyMiddleware.run()
LOG: Accepted client: /10.0.0.6:48896in MyMiddleware.run()
LOG: Accepted client: /10.0.0.6:48918in MyMiddleware.run()
LOG: Accepted client: /10.0.0.6:48892in MyMiddleware.run()
LOG: Accepted client: /10.0.0.6:48904in MyMiddleware.run()
LOG: Accepted client: /10.0.0.6:48912in MyMiddleware.run()
LOG: Accepted client: /10.0.0.6:48914in MyMiddleware.run()
LOG: Accepted client: /10.0.0.6:48910in MyMiddleware.run()
LOG: Accepted client: /10.0.0.6:48908in MyMiddleware.run()
LOG: Accepted client: /10.0.0.6:48894in MyMiddleware.run()
LOG: Accepted client: /10.0.0.6:48906in MyMiddleware.run()
LOG: Closed client: /10.0.0.7:42400in MyMiddleware.run()
LOG: Closed client: /10.0.0.7:42408in MyMiddleware.run()
LOG: Closed client: /10.0.0.7:42406in MyMiddleware.run()
LOG: Closed client: /10.0.0.7:42428in MyMiddleware.run()
LOG: Closed client: /10.0.0.7:42398in MyMiddleware.run()
LOG: Closed client: /10.0.0.7:42416in MyMiddleware.run()
LOG: Closed client: /10.0.0.7:42412in MyMiddleware.run()
LOG: Closed client: /10.0.0.7:42414in MyMiddleware.run()
LOG: Closed client: /10.0.0.7:42424in MyMiddleware.run()
LOG: Closed client: /10.0.0.7:42410in MyMiddleware.run()
LOG: Closed client: /10.0.0.7:42420in MyMiddleware.run()
LOG: Closed client: /10.0.0.7:42426in MyMiddleware.run()
LOG: Closed client: /10.0.0.7:42418in MyMiddleware.run()
LOG: Closed client: /10.0.0.7:42404in MyMiddleware.run()
LOG: Closed client: /10.0.0.7:42402in MyMiddleware.run()
LOG: Closed client: /10.0.0.7:42422in MyMiddleware.run()
LOG: Closed client: /10.0.0.11:40996in MyMiddleware.run()
LOG: Closed client: /10.0.0.11:41008in MyMiddleware.run()
LOG: Closed client: /10.0.0.11:40994in MyMiddleware.run()
LOG: Closed client: /10.0.0.11:41002in MyMiddleware.run()
LOG: Closed client: /10.0.0.11:41000in MyMiddleware.run()
LOG: Closed client: /10.0.0.11:40998in MyMiddleware.run()
LOG: Closed client: /10.0.0.11:41004in MyMiddleware.run()
LOG: Closed client: /10.0.0.11:41006in MyMiddleware.run()
LOG: Closed client: /10.0.0.11:41010in MyMiddleware.run()
LOG: Closed client: /10.0.0.11:41022in MyMiddleware.run()
LOG: Closed client: /10.0.0.11:41018in MyMiddleware.run()
LOG: Closed client: /10.0.0.11:41016in MyMiddleware.run()
LOG: Closed client: /10.0.0.11:41014in MyMiddleware.run()
LOG: Closed client: /10.0.0.11:41024in MyMiddleware.run()
LOG: Closed client: /10.0.0.11:41020in MyMiddleware.run()
LOG: Closed client: /10.0.0.11:41012in MyMiddleware.run()
LOG: Closed client: /10.0.0.6:48912in MyMiddleware.run()
LOG: Closed client: /10.0.0.6:48914in MyMiddleware.run()
LOG: Closed client: /10.0.0.6:48900in MyMiddleware.run()
LOG: Closed client: /10.0.0.6:48902in MyMiddleware.run()
LOG: Closed client: /10.0.0.6:48918in MyMiddleware.run()
LOG: Closed client: /10.0.0.6:48904in MyMiddleware.run()
LOG: Closed client: /10.0.0.6:48920in MyMiddleware.run()
LOG: Closed client: /10.0.0.6:48922in MyMiddleware.run()
LOG: Closed client: /10.0.0.6:48910in MyMiddleware.run()
LOG: Closed client: /10.0.0.6:48906in MyMiddleware.run()
LOG: Closed client: /10.0.0.6:48898in MyMiddleware.run()
LOG: Closed client: /10.0.0.6:48892in MyMiddleware.run()
LOG: Closed client: /10.0.0.6:48916in MyMiddleware.run()
LOG: Closed client: /10.0.0.6:48908in MyMiddleware.run()
LOG: Closed client: /10.0.0.6:48896in MyMiddleware.run()
LOG: Closed client: /10.0.0.6:48894in MyMiddleware.run()
