------------Middleware started!------------
LOG: Waiting for connection in MyMiddleware.run()
LOG: Accepted client: /10.0.0.6:47476in MyMiddleware.run()
LOG: Accepted client: /10.0.0.6:47470in MyMiddleware.run()
LOG: Accepted client: /10.0.0.6:47472in MyMiddleware.run()
LOG: Accepted client: /10.0.0.6:47474in MyMiddleware.run()
LOG: Accepted client: /10.0.0.6:47464in MyMiddleware.run()
LOG: Accepted client: /10.0.0.6:47468in MyMiddleware.run()
LOG: Accepted client: /10.0.0.6:47466in MyMiddleware.run()
LOG: Accepted client: /10.0.0.6:47462in MyMiddleware.run()
LOG: Accepted client: /10.0.0.7:40996in MyMiddleware.run()
LOG: Accepted client: /10.0.0.7:40994in MyMiddleware.run()
LOG: Accepted client: /10.0.0.7:40998in MyMiddleware.run()
LOG: Accepted client: /10.0.0.7:40992in MyMiddleware.run()
LOG: Accepted client: /10.0.0.7:41002in MyMiddleware.run()
LOG: Accepted client: /10.0.0.7:41000in MyMiddleware.run()
LOG: Accepted client: /10.0.0.7:41004in MyMiddleware.run()
LOG: Accepted client: /10.0.0.7:41006in MyMiddleware.run()
LOG: Accepted client: /10.0.0.11:39582in MyMiddleware.run()
LOG: Accepted client: /10.0.0.11:39586in MyMiddleware.run()
LOG: Accepted client: /10.0.0.11:39580in MyMiddleware.run()
LOG: Accepted client: /10.0.0.11:39574in MyMiddleware.run()
LOG: Accepted client: /10.0.0.11:39576in MyMiddleware.run()
LOG: Accepted client: /10.0.0.11:39578in MyMiddleware.run()
LOG: Accepted client: /10.0.0.11:39572in MyMiddleware.run()
LOG: Accepted client: /10.0.0.11:39584in MyMiddleware.run()
LOG: Closed client: /10.0.0.7:40992in MyMiddleware.run()
LOG: Closed client: /10.0.0.7:40994in MyMiddleware.run()
LOG: Closed client: /10.0.0.7:41002in MyMiddleware.run()
LOG: Closed client: /10.0.0.7:41006in MyMiddleware.run()
LOG: Closed client: /10.0.0.7:41004in MyMiddleware.run()
LOG: Closed client: /10.0.0.7:40998in MyMiddleware.run()
LOG: Closed client: /10.0.0.7:41000in MyMiddleware.run()
LOG: Closed client: /10.0.0.7:40996in MyMiddleware.run()
LOG: Closed client: /10.0.0.6:47462in MyMiddleware.run()
LOG: Closed client: /10.0.0.6:47474in MyMiddleware.run()
LOG: Closed client: /10.0.0.6:47464in MyMiddleware.run()
LOG: Closed client: /10.0.0.6:47472in MyMiddleware.run()
LOG: Closed client: /10.0.0.6:47470in MyMiddleware.run()
LOG: Closed client: /10.0.0.6:47466in MyMiddleware.run()
LOG: Closed client: /10.0.0.6:47476in MyMiddleware.run()
LOG: Closed client: /10.0.0.6:47468in MyMiddleware.run()
LOG: Closed client: /10.0.0.11:39574in MyMiddleware.run()
LOG: Closed client: /10.0.0.11:39572in MyMiddleware.run()
LOG: Closed client: /10.0.0.11:39586in MyMiddleware.run()
LOG: Closed client: /10.0.0.11:39584in MyMiddleware.run()
LOG: Closed client: /10.0.0.11:39576in MyMiddleware.run()
LOG: Closed client: /10.0.0.11:39582in MyMiddleware.run()
LOG: Closed client: /10.0.0.11:39578in MyMiddleware.run()
LOG: Closed client: /10.0.0.11:39580in MyMiddleware.run()
