------------Middleware started!------------
LOG: Waiting for connection in MyMiddleware.run()
LOG: Accepted client: /10.0.0.11:59768in MyMiddleware.run()
LOG: Accepted client: /10.0.0.11:59780in MyMiddleware.run()
LOG: Accepted client: /10.0.0.11:59762in MyMiddleware.run()
LOG: Accepted client: /10.0.0.11:59778in MyMiddleware.run()
LOG: Accepted client: /10.0.0.11:59774in MyMiddleware.run()
LOG: Accepted client: /10.0.0.11:59766in MyMiddleware.run()
LOG: Accepted client: /10.0.0.11:59786in MyMiddleware.run()
LOG: Accepted client: /10.0.0.11:59806in MyMiddleware.run()
LOG: Accepted client: /10.0.0.11:59764in MyMiddleware.run()
LOG: Accepted client: /10.0.0.11:59794in MyMiddleware.run()
LOG: Accepted client: /10.0.0.11:59790in MyMiddleware.run()
LOG: Accepted client: /10.0.0.11:59758in MyMiddleware.run()
LOG: Accepted client: /10.0.0.11:59810in MyMiddleware.run()
LOG: Accepted client: /10.0.0.11:59802in MyMiddleware.run()
LOG: Accepted client: /10.0.0.11:59812in MyMiddleware.run()
LOG: Accepted client: /10.0.0.11:59804in MyMiddleware.run()
LOG: Accepted client: /10.0.0.11:59782in MyMiddleware.run()
LOG: Accepted client: /10.0.0.11:59792in MyMiddleware.run()
LOG: Accepted client: /10.0.0.11:59814in MyMiddleware.run()
LOG: Accepted client: /10.0.0.11:59770in MyMiddleware.run()
LOG: Accepted client: /10.0.0.11:59784in MyMiddleware.run()
LOG: Accepted client: /10.0.0.11:59820in MyMiddleware.run()
LOG: Accepted client: /10.0.0.11:59788in MyMiddleware.run()
LOG: Accepted client: /10.0.0.11:59808in MyMiddleware.run()
LOG: Accepted client: /10.0.0.11:59776in MyMiddleware.run()
LOG: Accepted client: /10.0.0.11:59798in MyMiddleware.run()
LOG: Accepted client: /10.0.0.11:59772in MyMiddleware.run()
LOG: Accepted client: /10.0.0.11:59796in MyMiddleware.run()
LOG: Accepted client: /10.0.0.11:59816in MyMiddleware.run()
LOG: Accepted client: /10.0.0.11:59818in MyMiddleware.run()
LOG: Accepted client: /10.0.0.11:59800in MyMiddleware.run()
LOG: Accepted client: /10.0.0.11:59760in MyMiddleware.run()
LOG: Accepted client: /10.0.0.7:32976in MyMiddleware.run()
LOG: Accepted client: /10.0.0.7:32978in MyMiddleware.run()
LOG: Accepted client: /10.0.0.7:32982in MyMiddleware.run()
LOG: Accepted client: /10.0.0.7:32998in MyMiddleware.run()
LOG: Accepted client: /10.0.0.7:32970in MyMiddleware.run()
LOG: Accepted client: /10.0.0.7:32958in MyMiddleware.run()
LOG: Accepted client: /10.0.0.7:32996in MyMiddleware.run()
LOG: Accepted client: /10.0.0.7:33008in MyMiddleware.run()
LOG: Accepted client: /10.0.0.7:32986in MyMiddleware.run()
LOG: Accepted client: /10.0.0.7:32984in MyMiddleware.run()
LOG: Accepted client: /10.0.0.7:33016in MyMiddleware.run()
LOG: Accepted client: /10.0.0.7:32962in MyMiddleware.run()
LOG: Accepted client: /10.0.0.7:32990in MyMiddleware.run()
LOG: Accepted client: /10.0.0.7:32960in MyMiddleware.run()
LOG: Accepted client: /10.0.0.7:32988in MyMiddleware.run()
LOG: Accepted client: /10.0.0.7:32994in MyMiddleware.run()
LOG: Accepted client: /10.0.0.7:32992in MyMiddleware.run()
LOG: Accepted client: /10.0.0.7:33000in MyMiddleware.run()
LOG: Accepted client: /10.0.0.7:32964in MyMiddleware.run()
LOG: Accepted client: /10.0.0.7:33010in MyMiddleware.run()
LOG: Accepted client: /10.0.0.7:33012in MyMiddleware.run()
LOG: Accepted client: /10.0.0.7:32980in MyMiddleware.run()
LOG: Accepted client: /10.0.0.7:33014in MyMiddleware.run()
LOG: Accepted client: /10.0.0.7:32972in MyMiddleware.run()
LOG: Accepted client: /10.0.0.7:32956in MyMiddleware.run()
LOG: Accepted client: /10.0.0.7:32974in MyMiddleware.run()
LOG: Accepted client: /10.0.0.7:32968in MyMiddleware.run()
LOG: Accepted client: /10.0.0.7:32954in MyMiddleware.run()
LOG: Accepted client: /10.0.0.7:33006in MyMiddleware.run()
LOG: Accepted client: /10.0.0.7:33004in MyMiddleware.run()
LOG: Accepted client: /10.0.0.6:39474in MyMiddleware.run()
LOG: Accepted client: /10.0.0.6:39510in MyMiddleware.run()
LOG: Accepted client: /10.0.0.6:39484in MyMiddleware.run()
LOG: Accepted client: /10.0.0.6:39486in MyMiddleware.run()
LOG: Accepted client: /10.0.0.6:39506in MyMiddleware.run()
LOG: Accepted client: /10.0.0.7:32966in MyMiddleware.run()
LOG: Accepted client: /10.0.0.7:33002in MyMiddleware.run()
LOG: Accepted client: /10.0.0.6:39512in MyMiddleware.run()
LOG: Accepted client: /10.0.0.6:39518in MyMiddleware.run()
LOG: Accepted client: /10.0.0.6:39508in MyMiddleware.run()
LOG: Accepted client: /10.0.0.6:39480in MyMiddleware.run()
LOG: Accepted client: /10.0.0.6:39482in MyMiddleware.run()
LOG: Accepted client: /10.0.0.6:39498in MyMiddleware.run()
LOG: Accepted client: /10.0.0.6:39502in MyMiddleware.run()
LOG: Accepted client: /10.0.0.6:39522in MyMiddleware.run()
LOG: Accepted client: /10.0.0.6:39514in MyMiddleware.run()
LOG: Accepted client: /10.0.0.6:39528in MyMiddleware.run()
LOG: Accepted client: /10.0.0.6:39476in MyMiddleware.run()
LOG: Accepted client: /10.0.0.6:39534in MyMiddleware.run()
LOG: Accepted client: /10.0.0.6:39504in MyMiddleware.run()
LOG: Accepted client: /10.0.0.6:39530in MyMiddleware.run()
LOG: Accepted client: /10.0.0.6:39524in MyMiddleware.run()
LOG: Accepted client: /10.0.0.6:39526in MyMiddleware.run()
LOG: Accepted client: /10.0.0.6:39496in MyMiddleware.run()
LOG: Accepted client: /10.0.0.6:39494in MyMiddleware.run()
LOG: Accepted client: /10.0.0.6:39472in MyMiddleware.run()
LOG: Accepted client: /10.0.0.6:39492in MyMiddleware.run()
LOG: Accepted client: /10.0.0.6:39532in MyMiddleware.run()
LOG: Accepted client: /10.0.0.6:39488in MyMiddleware.run()
LOG: Accepted client: /10.0.0.6:39478in MyMiddleware.run()
LOG: Accepted client: /10.0.0.6:39490in MyMiddleware.run()
LOG: Accepted client: /10.0.0.6:39520in MyMiddleware.run()
LOG: Accepted client: /10.0.0.6:39500in MyMiddleware.run()
LOG: Accepted client: /10.0.0.6:39516in MyMiddleware.run()
LOG: Closed client: /10.0.0.6:39476in MyMiddleware.run()
LOG: Closed client: /10.0.0.6:39472in MyMiddleware.run()
LOG: Closed client: /10.0.0.6:39474in MyMiddleware.run()
LOG: Closed client: /10.0.0.6:39532in MyMiddleware.run()
LOG: Closed client: /10.0.0.6:39534in MyMiddleware.run()
LOG: Closed client: /10.0.0.6:39482in MyMiddleware.run()
LOG: Closed client: /10.0.0.6:39518in MyMiddleware.run()
LOG: Closed client: /10.0.0.6:39488in MyMiddleware.run()
LOG: Closed client: /10.0.0.6:39486in MyMiddleware.run()
LOG: Closed client: /10.0.0.6:39524in MyMiddleware.run()
LOG: Closed client: /10.0.0.6:39516in MyMiddleware.run()
LOG: Closed client: /10.0.0.6:39508in MyMiddleware.run()
LOG: Closed client: /10.0.0.6:39480in MyMiddleware.run()
LOG: Closed client: /10.0.0.6:39498in MyMiddleware.run()
LOG: Closed client: /10.0.0.6:39506in MyMiddleware.run()
LOG: Closed client: /10.0.0.6:39526in MyMiddleware.run()
LOG: Closed client: /10.0.0.6:39478in MyMiddleware.run()
LOG: Closed client: /10.0.0.6:39528in MyMiddleware.run()
LOG: Closed client: /10.0.0.6:39502in MyMiddleware.run()
LOG: Closed client: /10.0.0.6:39494in MyMiddleware.run()
LOG: Closed client: /10.0.0.6:39492in MyMiddleware.run()
LOG: Closed client: /10.0.0.6:39514in MyMiddleware.run()
LOG: Closed client: /10.0.0.6:39530in MyMiddleware.run()
LOG: Closed client: /10.0.0.6:39504in MyMiddleware.run()
LOG: Closed client: /10.0.0.6:39490in MyMiddleware.run()
LOG: Closed client: /10.0.0.6:39496in MyMiddleware.run()
LOG: Closed client: /10.0.0.6:39500in MyMiddleware.run()
LOG: Closed client: /10.0.0.6:39510in MyMiddleware.run()
LOG: Closed client: /10.0.0.6:39484in MyMiddleware.run()
LOG: Closed client: /10.0.0.6:39512in MyMiddleware.run()
LOG: Closed client: /10.0.0.6:39520in MyMiddleware.run()
LOG: Closed client: /10.0.0.6:39522in MyMiddleware.run()
LOG: Closed client: /10.0.0.7:32954in MyMiddleware.run()
LOG: Closed client: /10.0.0.7:32960in MyMiddleware.run()
LOG: Closed client: /10.0.0.7:32958in MyMiddleware.run()
LOG: Closed client: /10.0.0.7:32974in MyMiddleware.run()
LOG: Closed client: /10.0.0.7:32962in MyMiddleware.run()
LOG: Closed client: /10.0.0.7:32968in MyMiddleware.run()
LOG: Closed client: /10.0.0.7:32978in MyMiddleware.run()
LOG: Closed client: /10.0.0.7:32990in MyMiddleware.run()
LOG: Closed client: /10.0.0.7:32956in MyMiddleware.run()
LOG: Closed client: /10.0.0.7:32984in MyMiddleware.run()
LOG: Closed client: /10.0.0.7:32966in MyMiddleware.run()
LOG: Closed client: /10.0.0.7:32964in MyMiddleware.run()
LOG: Closed client: /10.0.0.7:32982in MyMiddleware.run()
LOG: Closed client: /10.0.0.7:32976in MyMiddleware.run()
LOG: Closed client: /10.0.0.7:32980in MyMiddleware.run()
LOG: Closed client: /10.0.0.7:32970in MyMiddleware.run()
LOG: Closed client: /10.0.0.7:32972in MyMiddleware.run()
LOG: Closed client: /10.0.0.7:32986in MyMiddleware.run()
LOG: Closed client: /10.0.0.7:33008in MyMiddleware.run()
LOG: Closed client: /10.0.0.7:32988in MyMiddleware.run()
LOG: Closed client: /10.0.0.7:33010in MyMiddleware.run()
LOG: Closed client: /10.0.0.7:33006in MyMiddleware.run()
LOG: Closed client: /10.0.0.7:33016in MyMiddleware.run()
LOG: Closed client: /10.0.0.7:33012in MyMiddleware.run()
LOG: Closed client: /10.0.0.7:33000in MyMiddleware.run()
LOG: Closed client: /10.0.0.7:32996in MyMiddleware.run()
LOG: Closed client: /10.0.0.7:33002in MyMiddleware.run()
LOG: Closed client: /10.0.0.7:32994in MyMiddleware.run()
LOG: Closed client: /10.0.0.7:32998in MyMiddleware.run()
LOG: Closed client: /10.0.0.7:33004in MyMiddleware.run()
LOG: Closed client: /10.0.0.7:32992in MyMiddleware.run()
LOG: Closed client: /10.0.0.7:33014in MyMiddleware.run()
LOG: Closed client: /10.0.0.11:59758in MyMiddleware.run()
LOG: Closed client: /10.0.0.11:59768in MyMiddleware.run()
LOG: Closed client: /10.0.0.11:59778in MyMiddleware.run()
LOG: Closed client: /10.0.0.11:59782in MyMiddleware.run()
LOG: Closed client: /10.0.0.11:59786in MyMiddleware.run()
LOG: Closed client: /10.0.0.11:59772in MyMiddleware.run()
LOG: Closed client: /10.0.0.11:59780in MyMiddleware.run()
LOG: Closed client: /10.0.0.11:59774in MyMiddleware.run()
LOG: Closed client: /10.0.0.11:59762in MyMiddleware.run()
LOG: Closed client: /10.0.0.11:59760in MyMiddleware.run()
LOG: Closed client: /10.0.0.11:59766in MyMiddleware.run()
LOG: Closed client: /10.0.0.11:59770in MyMiddleware.run()
LOG: Closed client: /10.0.0.11:59764in MyMiddleware.run()
LOG: Closed client: /10.0.0.11:59784in MyMiddleware.run()
LOG: Closed client: /10.0.0.11:59776in MyMiddleware.run()
LOG: Closed client: /10.0.0.11:59792in MyMiddleware.run()
LOG: Closed client: /10.0.0.11:59796in MyMiddleware.run()
LOG: Closed client: /10.0.0.11:59800in MyMiddleware.run()
LOG: Closed client: /10.0.0.11:59802in MyMiddleware.run()
LOG: Closed client: /10.0.0.11:59806in MyMiddleware.run()
LOG: Closed client: /10.0.0.11:59794in MyMiddleware.run()
LOG: Closed client: /10.0.0.11:59816in MyMiddleware.run()
LOG: Closed client: /10.0.0.11:59804in MyMiddleware.run()
LOG: Closed client: /10.0.0.11:59818in MyMiddleware.run()
LOG: Closed client: /10.0.0.11:59814in MyMiddleware.run()
LOG: Closed client: /10.0.0.11:59798in MyMiddleware.run()
LOG: Closed client: /10.0.0.11:59808in MyMiddleware.run()
LOG: Closed client: /10.0.0.11:59820in MyMiddleware.run()
LOG: Closed client: /10.0.0.11:59788in MyMiddleware.run()
LOG: Closed client: /10.0.0.11:59790in MyMiddleware.run()
LOG: Closed client: /10.0.0.11:59812in MyMiddleware.run()
LOG: Closed client: /10.0.0.11:59810in MyMiddleware.run()
