------------Middleware started!------------
LOG: Waiting for connection in MyMiddleware.run()
LOG: Accepted client: /10.0.0.11:39810in MyMiddleware.run()
LOG: Accepted client: /10.0.0.11:39822in MyMiddleware.run()
LOG: Accepted client: /10.0.0.11:39824in MyMiddleware.run()
LOG: Accepted client: /10.0.0.11:39814in MyMiddleware.run()
LOG: Accepted client: /10.0.0.11:39820in MyMiddleware.run()
LOG: Accepted client: /10.0.0.11:39812in MyMiddleware.run()
LOG: Accepted client: /10.0.0.11:39818in MyMiddleware.run()
LOG: Accepted client: /10.0.0.11:39816in MyMiddleware.run()
LOG: Accepted client: /10.0.0.6:47674in MyMiddleware.run()
LOG: Accepted client: /10.0.0.6:47660in MyMiddleware.run()
LOG: Accepted client: /10.0.0.6:47662in MyMiddleware.run()
LOG: Accepted client: /10.0.0.6:47668in MyMiddleware.run()
LOG: Accepted client: /10.0.0.6:47672in MyMiddleware.run()
LOG: Accepted client: /10.0.0.6:47664in MyMiddleware.run()
LOG: Accepted client: /10.0.0.6:47670in MyMiddleware.run()
LOG: Accepted client: /10.0.0.6:47666in MyMiddleware.run()
LOG: Accepted client: /10.0.0.7:41228in MyMiddleware.run()
LOG: Accepted client: /10.0.0.7:41224in MyMiddleware.run()
LOG: Accepted client: /10.0.0.7:41226in MyMiddleware.run()
LOG: Accepted client: /10.0.0.7:41214in MyMiddleware.run()
LOG: Accepted client: /10.0.0.7:41216in MyMiddleware.run()
LOG: Accepted client: /10.0.0.7:41218in MyMiddleware.run()
LOG: Accepted client: /10.0.0.7:41222in MyMiddleware.run()
LOG: Accepted client: /10.0.0.7:41220in MyMiddleware.run()
LOG: Closed client: /10.0.0.11:39814in MyMiddleware.run()
LOG: Closed client: /10.0.0.11:39812in MyMiddleware.run()
LOG: Closed client: /10.0.0.11:39824in MyMiddleware.run()
LOG: Closed client: /10.0.0.11:39820in MyMiddleware.run()
LOG: Closed client: /10.0.0.11:39822in MyMiddleware.run()
LOG: Closed client: /10.0.0.11:39816in MyMiddleware.run()
LOG: Closed client: /10.0.0.11:39818in MyMiddleware.run()
LOG: Closed client: /10.0.0.11:39810in MyMiddleware.run()
LOG: Closed client: /10.0.0.6:47672in MyMiddleware.run()
LOG: Closed client: /10.0.0.6:47664in MyMiddleware.run()
LOG: Closed client: /10.0.0.6:47668in MyMiddleware.run()
LOG: Closed client: /10.0.0.6:47662in MyMiddleware.run()
LOG: Closed client: /10.0.0.6:47660in MyMiddleware.run()
LOG: Closed client: /10.0.0.6:47666in MyMiddleware.run()
LOG: Closed client: /10.0.0.6:47674in MyMiddleware.run()
LOG: Closed client: /10.0.0.6:47670in MyMiddleware.run()
LOG: Closed client: /10.0.0.7:41220in MyMiddleware.run()
LOG: Closed client: /10.0.0.7:41222in MyMiddleware.run()
LOG: Closed client: /10.0.0.7:41224in MyMiddleware.run()
LOG: Closed client: /10.0.0.7:41228in MyMiddleware.run()
LOG: Closed client: /10.0.0.7:41226in MyMiddleware.run()
LOG: Closed client: /10.0.0.7:41214in MyMiddleware.run()
LOG: Closed client: /10.0.0.7:41216in MyMiddleware.run()
LOG: Closed client: /10.0.0.7:41218in MyMiddleware.run()
