------------Middleware started!------------
LOG: Waiting for connection in MyMiddleware.run()
LOG: Accepted client: /10.0.0.6:41902in MyMiddleware.run()
LOG: Accepted client: /10.0.0.6:41904in MyMiddleware.run()
LOG: Accepted client: /10.0.0.11:34086in MyMiddleware.run()
LOG: Accepted client: /10.0.0.11:34084in MyMiddleware.run()
LOG: Accepted client: /10.0.0.6:41908in MyMiddleware.run()
LOG: Accepted client: /10.0.0.6:41906in MyMiddleware.run()
LOG: Accepted client: /10.0.0.11:34090in MyMiddleware.run()
LOG: Accepted client: /10.0.0.11:34088in MyMiddleware.run()
LOG: Accepted client: /10.0.0.7:35464in MyMiddleware.run()
LOG: Accepted client: /10.0.0.7:35472in MyMiddleware.run()
LOG: Accepted client: /10.0.0.7:35468in MyMiddleware.run()
LOG: Accepted client: /10.0.0.7:35476in MyMiddleware.run()
LOG: Closed client: /10.0.0.11:34088in MyMiddleware.run()
LOG: Closed client: /10.0.0.11:34086in MyMiddleware.run()
LOG: Closed client: /10.0.0.11:34084in MyMiddleware.run()
LOG: Closed client: /10.0.0.11:34090in MyMiddleware.run()
LOG: Closed client: /10.0.0.6:41904in MyMiddleware.run()
LOG: Closed client: /10.0.0.6:41906in MyMiddleware.run()
LOG: Closed client: /10.0.0.6:41902in MyMiddleware.run()
LOG: Closed client: /10.0.0.6:41908in MyMiddleware.run()
LOG: Closed client: /10.0.0.7:35476in MyMiddleware.run()
LOG: Closed client: /10.0.0.7:35468in MyMiddleware.run()
LOG: Closed client: /10.0.0.7:35472in MyMiddleware.run()
LOG: Closed client: /10.0.0.7:35464in MyMiddleware.run()
