------------Middleware started!------------
LOG: Waiting for connection in MyMiddleware.run()
LOG: Accepted client: /10.0.0.11:47396in MyMiddleware.run()
LOG: Accepted client: /10.0.0.11:47412in MyMiddleware.run()
LOG: Accepted client: /10.0.0.11:47414in MyMiddleware.run()
LOG: Accepted client: /10.0.0.11:47436in MyMiddleware.run()
LOG: Accepted client: /10.0.0.11:47422in MyMiddleware.run()
LOG: Accepted client: /10.0.0.11:47400in MyMiddleware.run()
LOG: Accepted client: /10.0.0.11:47416in MyMiddleware.run()
LOG: Accepted client: /10.0.0.11:47410in MyMiddleware.run()
LOG: Accepted client: /10.0.0.11:47380in MyMiddleware.run()
LOG: Accepted client: /10.0.0.11:47398in MyMiddleware.run()
LOG: Accepted client: /10.0.0.11:47404in MyMiddleware.run()
LOG: Accepted client: /10.0.0.11:47424in MyMiddleware.run()
LOG: Accepted client: /10.0.0.11:47406in MyMiddleware.run()
LOG: Accepted client: /10.0.0.11:47386in MyMiddleware.run()
LOG: Accepted client: /10.0.0.11:47426in MyMiddleware.run()
LOG: Accepted client: /10.0.0.11:47382in MyMiddleware.run()
LOG: Accepted client: /10.0.0.11:47402in MyMiddleware.run()
LOG: Accepted client: /10.0.0.11:47408in MyMiddleware.run()
LOG: Accepted client: /10.0.0.11:47428in MyMiddleware.run()
LOG: Accepted client: /10.0.0.11:47430in MyMiddleware.run()
LOG: Accepted client: /10.0.0.7:48802in MyMiddleware.run()
LOG: Accepted client: /10.0.0.7:48798in MyMiddleware.run()
LOG: Accepted client: /10.0.0.7:48810in MyMiddleware.run()
LOG: Accepted client: /10.0.0.7:48808in MyMiddleware.run()
LOG: Accepted client: /10.0.0.6:55268in MyMiddleware.run()
LOG: Accepted client: /10.0.0.7:48816in MyMiddleware.run()
LOG: Accepted client: /10.0.0.7:48800in MyMiddleware.run()
LOG: Accepted client: /10.0.0.7:48852in MyMiddleware.run()
LOG: Accepted client: /10.0.0.7:48854in MyMiddleware.run()
LOG: Accepted client: /10.0.0.7:48796in MyMiddleware.run()
LOG: Accepted client: /10.0.0.7:48818in MyMiddleware.run()
LOG: Accepted client: /10.0.0.6:55240in MyMiddleware.run()
LOG: Accepted client: /10.0.0.7:48838in MyMiddleware.run()
LOG: Accepted client: /10.0.0.6:55270in MyMiddleware.run()
LOG: Accepted client: /10.0.0.6:55278in MyMiddleware.run()
LOG: Accepted client: /10.0.0.7:48804in MyMiddleware.run()
LOG: Accepted client: /10.0.0.7:48812in MyMiddleware.run()
LOG: Accepted client: /10.0.0.7:48814in MyMiddleware.run()
LOG: Accepted client: /10.0.0.6:55276in MyMiddleware.run()
LOG: Accepted client: /10.0.0.6:55258in MyMiddleware.run()
LOG: Accepted client: /10.0.0.6:55256in MyMiddleware.run()
LOG: Accepted client: /10.0.0.7:48844in MyMiddleware.run()
LOG: Accepted client: /10.0.0.6:55284in MyMiddleware.run()
LOG: Accepted client: /10.0.0.7:48836in MyMiddleware.run()
LOG: Accepted client: /10.0.0.6:55286in MyMiddleware.run()
LOG: Accepted client: /10.0.0.6:55242in MyMiddleware.run()
LOG: Accepted client: /10.0.0.6:55274in MyMiddleware.run()
LOG: Accepted client: /10.0.0.6:55244in MyMiddleware.run()
LOG: Accepted client: /10.0.0.6:55246in MyMiddleware.run()
LOG: Accepted client: /10.0.0.7:48792in MyMiddleware.run()
LOG: Accepted client: /10.0.0.6:55264in MyMiddleware.run()
LOG: Accepted client: /10.0.0.7:48820in MyMiddleware.run()
LOG: Accepted client: /10.0.0.7:48834in MyMiddleware.run()
LOG: Accepted client: /10.0.0.7:48822in MyMiddleware.run()
LOG: Accepted client: /10.0.0.7:48832in MyMiddleware.run()
LOG: Accepted client: /10.0.0.6:55260in MyMiddleware.run()
LOG: Accepted client: /10.0.0.6:55282in MyMiddleware.run()
LOG: Accepted client: /10.0.0.6:55294in MyMiddleware.run()
LOG: Accepted client: /10.0.0.6:55280in MyMiddleware.run()
LOG: Accepted client: /10.0.0.6:55238in MyMiddleware.run()
LOG: Accepted client: /10.0.0.6:55272in MyMiddleware.run()
LOG: Accepted client: /10.0.0.7:48840in MyMiddleware.run()
LOG: Accepted client: /10.0.0.7:48828in MyMiddleware.run()
LOG: Accepted client: /10.0.0.6:55288in MyMiddleware.run()
LOG: Accepted client: /10.0.0.6:55252in MyMiddleware.run()
LOG: Accepted client: /10.0.0.6:55296in MyMiddleware.run()
LOG: Accepted client: /10.0.0.7:48842in MyMiddleware.run()
LOG: Accepted client: /10.0.0.6:55262in MyMiddleware.run()
LOG: Accepted client: /10.0.0.6:55292in MyMiddleware.run()
LOG: Accepted client: /10.0.0.6:55300in MyMiddleware.run()
LOG: Accepted client: /10.0.0.6:55248in MyMiddleware.run()
LOG: Accepted client: /10.0.0.6:55250in MyMiddleware.run()
LOG: Accepted client: /10.0.0.6:55266in MyMiddleware.run()
LOG: Accepted client: /10.0.0.7:48806in MyMiddleware.run()
LOG: Accepted client: /10.0.0.7:48830in MyMiddleware.run()
LOG: Accepted client: /10.0.0.11:47438in MyMiddleware.run()
LOG: Accepted client: /10.0.0.11:47418in MyMiddleware.run()
LOG: Accepted client: /10.0.0.11:47384in MyMiddleware.run()
LOG: Accepted client: /10.0.0.11:47442in MyMiddleware.run()
LOG: Accepted client: /10.0.0.11:47440in MyMiddleware.run()
LOG: Accepted client: /10.0.0.7:48850in MyMiddleware.run()
LOG: Accepted client: /10.0.0.7:48848in MyMiddleware.run()
LOG: Accepted client: /10.0.0.11:47392in MyMiddleware.run()
LOG: Accepted client: /10.0.0.11:47394in MyMiddleware.run()
LOG: Accepted client: /10.0.0.11:47390in MyMiddleware.run()
LOG: Accepted client: /10.0.0.11:47388in MyMiddleware.run()
LOG: Accepted client: /10.0.0.7:48794in MyMiddleware.run()
LOG: Accepted client: /10.0.0.7:48824in MyMiddleware.run()
LOG: Accepted client: /10.0.0.7:48826in MyMiddleware.run()
LOG: Accepted client: /10.0.0.7:48846in MyMiddleware.run()
LOG: Accepted client: /10.0.0.11:47432in MyMiddleware.run()
LOG: Accepted client: /10.0.0.11:47420in MyMiddleware.run()
LOG: Accepted client: /10.0.0.11:47434in MyMiddleware.run()
LOG: Accepted client: /10.0.0.6:55298in MyMiddleware.run()
LOG: Accepted client: /10.0.0.6:55254in MyMiddleware.run()
LOG: Accepted client: /10.0.0.6:55290in MyMiddleware.run()
LOG: Closed client: /10.0.0.7:48796in MyMiddleware.run()
LOG: Closed client: /10.0.0.7:48798in MyMiddleware.run()
LOG: Closed client: /10.0.0.7:48822in MyMiddleware.run()
LOG: Closed client: /10.0.0.7:48794in MyMiddleware.run()
LOG: Closed client: /10.0.0.7:48844in MyMiddleware.run()
LOG: Closed client: /10.0.0.7:48838in MyMiddleware.run()
LOG: Closed client: /10.0.0.7:48824in MyMiddleware.run()
LOG: Closed client: /10.0.0.7:48828in MyMiddleware.run()
LOG: Closed client: /10.0.0.7:48816in MyMiddleware.run()
LOG: Closed client: /10.0.0.7:48810in MyMiddleware.run()
LOG: Closed client: /10.0.0.7:48830in MyMiddleware.run()
LOG: Closed client: /10.0.0.7:48804in MyMiddleware.run()
LOG: Closed client: /10.0.0.7:48808in MyMiddleware.run()
LOG: Closed client: /10.0.0.7:48806in MyMiddleware.run()
LOG: Closed client: /10.0.0.7:48842in MyMiddleware.run()
LOG: Closed client: /10.0.0.7:48800in MyMiddleware.run()
LOG: Closed client: /10.0.0.7:48812in MyMiddleware.run()
LOG: Closed client: /10.0.0.7:48848in MyMiddleware.run()
LOG: Closed client: /10.0.0.7:48836in MyMiddleware.run()
LOG: Closed client: /10.0.0.7:48818in MyMiddleware.run()
LOG: Closed client: /10.0.0.7:48826in MyMiddleware.run()
LOG: Closed client: /10.0.0.7:48802in MyMiddleware.run()
LOG: Closed client: /10.0.0.7:48850in MyMiddleware.run()
LOG: Closed client: /10.0.0.7:48852in MyMiddleware.run()
LOG: Closed client: /10.0.0.7:48854in MyMiddleware.run()
LOG: Closed client: /10.0.0.7:48814in MyMiddleware.run()
LOG: Closed client: /10.0.0.7:48846in MyMiddleware.run()
LOG: Closed client: /10.0.0.7:48834in MyMiddleware.run()
LOG: Closed client: /10.0.0.7:48840in MyMiddleware.run()
LOG: Closed client: /10.0.0.7:48832in MyMiddleware.run()
LOG: Closed client: /10.0.0.7:48792in MyMiddleware.run()
LOG: Closed client: /10.0.0.7:48820in MyMiddleware.run()
LOG: Closed client: /10.0.0.11:47390in MyMiddleware.run()
LOG: Closed client: /10.0.0.11:47398in MyMiddleware.run()
LOG: Closed client: /10.0.0.11:47442in MyMiddleware.run()
LOG: Closed client: /10.0.0.11:47438in MyMiddleware.run()
LOG: Closed client: /10.0.0.11:47424in MyMiddleware.run()
LOG: Closed client: /10.0.0.11:47436in MyMiddleware.run()
LOG: Closed client: /10.0.0.11:47420in MyMiddleware.run()
LOG: Closed client: /10.0.0.11:47404in MyMiddleware.run()
LOG: Closed client: /10.0.0.11:47408in MyMiddleware.run()
LOG: Closed client: /10.0.0.11:47406in MyMiddleware.run()
LOG: Closed client: /10.0.0.11:47440in MyMiddleware.run()
LOG: Closed client: /10.0.0.11:47380in MyMiddleware.run()
LOG: Closed client: /10.0.0.11:47434in MyMiddleware.run()
LOG: Closed client: /10.0.0.11:47428in MyMiddleware.run()
LOG: Closed client: /10.0.0.11:47414in MyMiddleware.run()
LOG: Closed client: /10.0.0.11:47430in MyMiddleware.run()
LOG: Closed client: /10.0.0.11:47394in MyMiddleware.run()
LOG: Closed client: /10.0.0.11:47418in MyMiddleware.run()
LOG: Closed client: /10.0.0.11:47422in MyMiddleware.run()
LOG: Closed client: /10.0.0.11:47388in MyMiddleware.run()
LOG: Closed client: /10.0.0.11:47392in MyMiddleware.run()
LOG: Closed client: /10.0.0.11:47396in MyMiddleware.run()
LOG: Closed client: /10.0.0.11:47400in MyMiddleware.run()
LOG: Closed client: /10.0.0.11:47386in MyMiddleware.run()
LOG: Closed client: /10.0.0.11:47412in MyMiddleware.run()
LOG: Closed client: /10.0.0.11:47382in MyMiddleware.run()
LOG: Closed client: /10.0.0.11:47410in MyMiddleware.run()
LOG: Closed client: /10.0.0.11:47416in MyMiddleware.run()
LOG: Closed client: /10.0.0.11:47432in MyMiddleware.run()
LOG: Closed client: /10.0.0.11:47426in MyMiddleware.run()
LOG: Closed client: /10.0.0.11:47384in MyMiddleware.run()
LOG: Closed client: /10.0.0.11:47402in MyMiddleware.run()
LOG: Closed client: /10.0.0.6:55244in MyMiddleware.run()
LOG: Closed client: /10.0.0.6:55264in MyMiddleware.run()
LOG: Closed client: /10.0.0.6:55238in MyMiddleware.run()
LOG: Closed client: /10.0.0.6:55240in MyMiddleware.run()
LOG: Closed client: /10.0.0.6:55250in MyMiddleware.run()
LOG: Closed client: /10.0.0.6:55252in MyMiddleware.run()
LOG: Closed client: /10.0.0.6:55246in MyMiddleware.run()
LOG: Closed client: /10.0.0.6:55242in MyMiddleware.run()
LOG: Closed client: /10.0.0.6:55256in MyMiddleware.run()
LOG: Closed client: /10.0.0.6:55254in MyMiddleware.run()
LOG: Closed client: /10.0.0.6:55262in MyMiddleware.run()
LOG: Closed client: /10.0.0.6:55266in MyMiddleware.run()
LOG: Closed client: /10.0.0.6:55248in MyMiddleware.run()
LOG: Closed client: /10.0.0.6:55268in MyMiddleware.run()
LOG: Closed client: /10.0.0.6:55282in MyMiddleware.run()
LOG: Closed client: /10.0.0.6:55272in MyMiddleware.run()
LOG: Closed client: /10.0.0.6:55276in MyMiddleware.run()
LOG: Closed client: /10.0.0.6:55278in MyMiddleware.run()
LOG: Closed client: /10.0.0.6:55270in MyMiddleware.run()
LOG: Closed client: /10.0.0.6:55274in MyMiddleware.run()
LOG: Closed client: /10.0.0.6:55284in MyMiddleware.run()
LOG: Closed client: /10.0.0.6:55288in MyMiddleware.run()
LOG: Closed client: /10.0.0.6:55296in MyMiddleware.run()
LOG: Closed client: /10.0.0.6:55294in MyMiddleware.run()
LOG: Closed client: /10.0.0.6:55290in MyMiddleware.run()
LOG: Closed client: /10.0.0.6:55260in MyMiddleware.run()
LOG: Closed client: /10.0.0.6:55280in MyMiddleware.run()
LOG: Closed client: /10.0.0.6:55292in MyMiddleware.run()
LOG: Closed client: /10.0.0.6:55298in MyMiddleware.run()
LOG: Closed client: /10.0.0.6:55300in MyMiddleware.run()
LOG: Closed client: /10.0.0.6:55258in MyMiddleware.run()
LOG: Closed client: /10.0.0.6:55286in MyMiddleware.run()
