------------Middleware started!------------
LOG: Waiting for connection in MyMiddleware.run()
LOG: Accepted client: /10.0.0.11:48322in MyMiddleware.run()
LOG: Accepted client: /10.0.0.11:48318in MyMiddleware.run()
LOG: Accepted client: /10.0.0.11:48316in MyMiddleware.run()
LOG: Accepted client: /10.0.0.7:49732in MyMiddleware.run()
LOG: Accepted client: /10.0.0.7:49734in MyMiddleware.run()
LOG: Accepted client: /10.0.0.11:48320in MyMiddleware.run()
LOG: Accepted client: /10.0.0.7:49728in MyMiddleware.run()
LOG: Accepted client: /10.0.0.7:49730in MyMiddleware.run()
LOG: Accepted client: /10.0.0.6:56186in MyMiddleware.run()
LOG: Accepted client: /10.0.0.6:56184in MyMiddleware.run()
LOG: Accepted client: /10.0.0.6:56182in MyMiddleware.run()
LOG: Accepted client: /10.0.0.6:56188in MyMiddleware.run()
LOG: Closed client: /10.0.0.11:48316in MyMiddleware.run()
LOG: Closed client: /10.0.0.11:48318in MyMiddleware.run()
LOG: Closed client: /10.0.0.11:48320in MyMiddleware.run()
LOG: Closed client: /10.0.0.11:48322in MyMiddleware.run()
LOG: Closed client: /10.0.0.6:56188in MyMiddleware.run()
LOG: Closed client: /10.0.0.6:56184in MyMiddleware.run()
LOG: Closed client: /10.0.0.6:56182in MyMiddleware.run()
LOG: Closed client: /10.0.0.6:56186in MyMiddleware.run()
LOG: Closed client: /10.0.0.7:49730in MyMiddleware.run()
LOG: Closed client: /10.0.0.7:49732in MyMiddleware.run()
LOG: Closed client: /10.0.0.7:49728in MyMiddleware.run()
LOG: Closed client: /10.0.0.7:49734in MyMiddleware.run()
