------------Middleware started!------------
LOG: Waiting for connection in MyMiddleware.run()
LOG: Accepted client: /10.0.0.11:40094in MyMiddleware.run()
LOG: Accepted client: /10.0.0.11:40066in MyMiddleware.run()
LOG: Accepted client: /10.0.0.11:40090in MyMiddleware.run()
LOG: Accepted client: /10.0.0.11:40084in MyMiddleware.run()
LOG: Accepted client: /10.0.0.11:40086in MyMiddleware.run()
LOG: Accepted client: /10.0.0.11:40064in MyMiddleware.run()
LOG: Accepted client: /10.0.0.11:40080in MyMiddleware.run()
LOG: Accepted client: /10.0.0.11:40082in MyMiddleware.run()
LOG: Accepted client: /10.0.0.11:40076in MyMiddleware.run()
LOG: Accepted client: /10.0.0.11:40092in MyMiddleware.run()
LOG: Accepted client: /10.0.0.11:40096in MyMiddleware.run()
LOG: Accepted client: /10.0.0.11:40074in MyMiddleware.run()
LOG: Accepted client: /10.0.0.11:40072in MyMiddleware.run()
LOG: Accepted client: /10.0.0.11:40068in MyMiddleware.run()
LOG: Accepted client: /10.0.0.11:40070in MyMiddleware.run()
LOG: Accepted client: /10.0.0.11:40078in MyMiddleware.run()
LOG: Accepted client: /10.0.0.7:41474in MyMiddleware.run()
LOG: Accepted client: /10.0.0.7:41472in MyMiddleware.run()
LOG: Accepted client: /10.0.0.7:41488in MyMiddleware.run()
LOG: Accepted client: /10.0.0.7:41490in MyMiddleware.run()
LOG: Accepted client: /10.0.0.7:41494in MyMiddleware.run()
LOG: Accepted client: /10.0.0.7:41486in MyMiddleware.run()
LOG: Accepted client: /10.0.0.7:41484in MyMiddleware.run()
LOG: Accepted client: /10.0.0.7:41492in MyMiddleware.run()
LOG: Accepted client: /10.0.0.7:41480in MyMiddleware.run()
LOG: Accepted client: /10.0.0.7:41496in MyMiddleware.run()
LOG: Accepted client: /10.0.0.7:41498in MyMiddleware.run()
LOG: Accepted client: /10.0.0.7:41502in MyMiddleware.run()
LOG: Accepted client: /10.0.0.7:41500in MyMiddleware.run()
LOG: Accepted client: /10.0.0.7:41482in MyMiddleware.run()
LOG: Accepted client: /10.0.0.7:41476in MyMiddleware.run()
LOG: Accepted client: /10.0.0.7:41478in MyMiddleware.run()
LOG: Accepted client: /10.0.0.6:47924in MyMiddleware.run()
LOG: Accepted client: /10.0.0.6:47926in MyMiddleware.run()
LOG: Accepted client: /10.0.0.6:47938in MyMiddleware.run()
LOG: Accepted client: /10.0.0.6:47936in MyMiddleware.run()
LOG: Accepted client: /10.0.0.6:47918in MyMiddleware.run()
LOG: Accepted client: /10.0.0.6:47928in MyMiddleware.run()
LOG: Accepted client: /10.0.0.6:47942in MyMiddleware.run()
LOG: Accepted client: /10.0.0.6:47930in MyMiddleware.run()
LOG: Accepted client: /10.0.0.6:47922in MyMiddleware.run()
LOG: Accepted client: /10.0.0.6:47948in MyMiddleware.run()
LOG: Accepted client: /10.0.0.6:47940in MyMiddleware.run()
LOG: Accepted client: /10.0.0.6:47920in MyMiddleware.run()
LOG: Accepted client: /10.0.0.6:47932in MyMiddleware.run()
LOG: Accepted client: /10.0.0.6:47944in MyMiddleware.run()
LOG: Accepted client: /10.0.0.6:47946in MyMiddleware.run()
LOG: Accepted client: /10.0.0.6:47934in MyMiddleware.run()
LOG: Closed client: /10.0.0.11:40086in MyMiddleware.run()
LOG: Closed client: /10.0.0.11:40084in MyMiddleware.run()
LOG: Closed client: /10.0.0.11:40068in MyMiddleware.run()
LOG: Closed client: /10.0.0.11:40096in MyMiddleware.run()
LOG: Closed client: /10.0.0.11:40082in MyMiddleware.run()
LOG: Closed client: /10.0.0.11:40080in MyMiddleware.run()
LOG: Closed client: /10.0.0.11:40094in MyMiddleware.run()
LOG: Closed client: /10.0.0.11:40072in MyMiddleware.run()
LOG: Closed client: /10.0.0.11:40092in MyMiddleware.run()
LOG: Closed client: /10.0.0.11:40074in MyMiddleware.run()
LOG: Closed client: /10.0.0.11:40076in MyMiddleware.run()
LOG: Closed client: /10.0.0.11:40090in MyMiddleware.run()
LOG: Closed client: /10.0.0.11:40066in MyMiddleware.run()
LOG: Closed client: /10.0.0.11:40064in MyMiddleware.run()
LOG: Closed client: /10.0.0.11:40070in MyMiddleware.run()
LOG: Closed client: /10.0.0.11:40078in MyMiddleware.run()
LOG: Closed client: /10.0.0.7:41502in MyMiddleware.run()
LOG: Closed client: /10.0.0.7:41490in MyMiddleware.run()
LOG: Closed client: /10.0.0.7:41498in MyMiddleware.run()
LOG: Closed client: /10.0.0.7:41492in MyMiddleware.run()
LOG: Closed client: /10.0.0.7:41488in MyMiddleware.run()
LOG: Closed client: /10.0.0.7:41474in MyMiddleware.run()
LOG: Closed client: /10.0.0.7:41484in MyMiddleware.run()
LOG: Closed client: /10.0.0.7:41494in MyMiddleware.run()
LOG: Closed client: /10.0.0.7:41480in MyMiddleware.run()
LOG: Closed client: /10.0.0.7:41478in MyMiddleware.run()
LOG: Closed client: /10.0.0.7:41476in MyMiddleware.run()
LOG: Closed client: /10.0.0.7:41472in MyMiddleware.run()
LOG: Closed client: /10.0.0.7:41496in MyMiddleware.run()
LOG: Closed client: /10.0.0.7:41486in MyMiddleware.run()
LOG: Closed client: /10.0.0.7:41482in MyMiddleware.run()
LOG: Closed client: /10.0.0.7:41500in MyMiddleware.run()
LOG: Closed client: /10.0.0.6:47936in MyMiddleware.run()
LOG: Closed client: /10.0.0.6:47930in MyMiddleware.run()
LOG: Closed client: /10.0.0.6:47948in MyMiddleware.run()
LOG: Closed client: /10.0.0.6:47926in MyMiddleware.run()
LOG: Closed client: /10.0.0.6:47924in MyMiddleware.run()
LOG: Closed client: /10.0.0.6:47938in MyMiddleware.run()
LOG: Closed client: /10.0.0.6:47940in MyMiddleware.run()
LOG: Closed client: /10.0.0.6:47932in MyMiddleware.run()
LOG: Closed client: /10.0.0.6:47920in MyMiddleware.run()
LOG: Closed client: /10.0.0.6:47934in MyMiddleware.run()
LOG: Closed client: /10.0.0.6:47918in MyMiddleware.run()
LOG: Closed client: /10.0.0.6:47922in MyMiddleware.run()
LOG: Closed client: /10.0.0.6:47944in MyMiddleware.run()
LOG: Closed client: /10.0.0.6:47942in MyMiddleware.run()
LOG: Closed client: /10.0.0.6:47928in MyMiddleware.run()
LOG: Closed client: /10.0.0.6:47946in MyMiddleware.run()
