------------Middleware started!------------
LOG: Waiting for connection in MyMiddleware.run()
LOG: Accepted client: /10.0.0.6:45230in MyMiddleware.run()
LOG: Accepted client: /10.0.0.6:45228in MyMiddleware.run()
LOG: Accepted client: /10.0.0.6:45218in MyMiddleware.run()
LOG: Accepted client: /10.0.0.6:45232in MyMiddleware.run()
LOG: Accepted client: /10.0.0.6:45222in MyMiddleware.run()
LOG: Accepted client: /10.0.0.6:45224in MyMiddleware.run()
LOG: Accepted client: /10.0.0.6:45226in MyMiddleware.run()
LOG: Accepted client: /10.0.0.6:45220in MyMiddleware.run()
LOG: Accepted client: /10.0.0.7:38774in MyMiddleware.run()
LOG: Accepted client: /10.0.0.7:38776in MyMiddleware.run()
LOG: Accepted client: /10.0.0.11:37382in MyMiddleware.run()
LOG: Accepted client: /10.0.0.7:38784in MyMiddleware.run()
LOG: Accepted client: /10.0.0.7:38786in MyMiddleware.run()
LOG: Accepted client: /10.0.0.11:37384in MyMiddleware.run()
LOG: Accepted client: /10.0.0.11:37386in MyMiddleware.run()
LOG: Accepted client: /10.0.0.7:38780in MyMiddleware.run()
LOG: Accepted client: /10.0.0.11:37388in MyMiddleware.run()
LOG: Accepted client: /10.0.0.11:37378in MyMiddleware.run()
LOG: Accepted client: /10.0.0.7:38782in MyMiddleware.run()
LOG: Accepted client: /10.0.0.11:37390in MyMiddleware.run()
LOG: Accepted client: /10.0.0.7:38778in MyMiddleware.run()
LOG: Accepted client: /10.0.0.7:38772in MyMiddleware.run()
LOG: Accepted client: /10.0.0.11:37392in MyMiddleware.run()
LOG: Accepted client: /10.0.0.11:37380in MyMiddleware.run()
LOG: Closed client: /10.0.0.11:37384in MyMiddleware.run()
LOG: Closed client: /10.0.0.11:37382in MyMiddleware.run()
LOG: Closed client: /10.0.0.11:37392in MyMiddleware.run()
LOG: Closed client: /10.0.0.11:37390in MyMiddleware.run()
LOG: Closed client: /10.0.0.11:37378in MyMiddleware.run()
LOG: Closed client: /10.0.0.11:37386in MyMiddleware.run()
LOG: Closed client: /10.0.0.11:37380in MyMiddleware.run()
LOG: Closed client: /10.0.0.11:37388in MyMiddleware.run()
LOG: Closed client: /10.0.0.6:45220in MyMiddleware.run()
LOG: Closed client: /10.0.0.6:45218in MyMiddleware.run()
LOG: Closed client: /10.0.0.6:45232in MyMiddleware.run()
LOG: Closed client: /10.0.0.6:45226in MyMiddleware.run()
LOG: Closed client: /10.0.0.6:45222in MyMiddleware.run()
LOG: Closed client: /10.0.0.6:45230in MyMiddleware.run()
LOG: Closed client: /10.0.0.6:45228in MyMiddleware.run()
LOG: Closed client: /10.0.0.6:45224in MyMiddleware.run()
LOG: Closed client: /10.0.0.7:38776in MyMiddleware.run()
LOG: Closed client: /10.0.0.7:38774in MyMiddleware.run()
LOG: Closed client: /10.0.0.7:38778in MyMiddleware.run()
LOG: Closed client: /10.0.0.7:38782in MyMiddleware.run()
LOG: Closed client: /10.0.0.7:38784in MyMiddleware.run()
LOG: Closed client: /10.0.0.7:38772in MyMiddleware.run()
LOG: Closed client: /10.0.0.7:38786in MyMiddleware.run()
LOG: Closed client: /10.0.0.7:38780in MyMiddleware.run()
