------------Middleware started!------------
LOG: Waiting for connection in MyMiddleware.run()
LOG: Accepted client: /10.0.0.6:57130in MyMiddleware.run()
LOG: Accepted client: /10.0.0.6:57136in MyMiddleware.run()
LOG: Accepted client: /10.0.0.7:50696in MyMiddleware.run()
LOG: Accepted client: /10.0.0.7:50698in MyMiddleware.run()
LOG: Accepted client: /10.0.0.6:57134in MyMiddleware.run()
LOG: Accepted client: /10.0.0.6:57132in MyMiddleware.run()
LOG: Accepted client: /10.0.0.7:50702in MyMiddleware.run()
LOG: Accepted client: /10.0.0.7:50700in MyMiddleware.run()
LOG: Accepted client: /10.0.0.11:49360in MyMiddleware.run()
LOG: Accepted client: /10.0.0.11:49362in MyMiddleware.run()
LOG: Accepted client: /10.0.0.11:49364in MyMiddleware.run()
LOG: Accepted client: /10.0.0.11:49366in MyMiddleware.run()
LOG: Closed client: /10.0.0.6:57130in MyMiddleware.run()
LOG: Closed client: /10.0.0.6:57132in MyMiddleware.run()
LOG: Closed client: /10.0.0.6:57134in MyMiddleware.run()
LOG: Closed client: /10.0.0.6:57136in MyMiddleware.run()
LOG: Closed client: /10.0.0.7:50700in MyMiddleware.run()
LOG: Closed client: /10.0.0.7:50698in MyMiddleware.run()
LOG: Closed client: /10.0.0.7:50696in MyMiddleware.run()
LOG: Closed client: /10.0.0.7:50702in MyMiddleware.run()
LOG: Closed client: /10.0.0.11:49362in MyMiddleware.run()
LOG: Closed client: /10.0.0.11:49360in MyMiddleware.run()
LOG: Closed client: /10.0.0.11:49366in MyMiddleware.run()
LOG: Closed client: /10.0.0.11:49364in MyMiddleware.run()
