------------Middleware started!------------
LOG: Waiting for connection in MyMiddleware.run()
LOG: Accepted client: /10.0.0.11:54074in MyMiddleware.run()
LOG: Accepted client: /10.0.0.11:54088in MyMiddleware.run()
LOG: Accepted client: /10.0.0.11:54076in MyMiddleware.run()
LOG: Accepted client: /10.0.0.11:54082in MyMiddleware.run()
LOG: Accepted client: /10.0.0.11:54080in MyMiddleware.run()
LOG: Accepted client: /10.0.0.11:54084in MyMiddleware.run()
LOG: Accepted client: /10.0.0.11:54086in MyMiddleware.run()
LOG: Accepted client: /10.0.0.11:54078in MyMiddleware.run()
LOG: Accepted client: /10.0.0.7:55496in MyMiddleware.run()
LOG: Accepted client: /10.0.0.7:55490in MyMiddleware.run()
LOG: Accepted client: /10.0.0.7:55498in MyMiddleware.run()
LOG: Accepted client: /10.0.0.7:55486in MyMiddleware.run()
LOG: Accepted client: /10.0.0.7:55488in MyMiddleware.run()
LOG: Accepted client: /10.0.0.7:55500in MyMiddleware.run()
LOG: Accepted client: /10.0.0.7:55494in MyMiddleware.run()
LOG: Accepted client: /10.0.0.7:55492in MyMiddleware.run()
LOG: Accepted client: /10.0.0.6:33710in MyMiddleware.run()
LOG: Accepted client: /10.0.0.6:33714in MyMiddleware.run()
LOG: Accepted client: /10.0.0.6:33708in MyMiddleware.run()
LOG: Accepted client: /10.0.0.6:33712in MyMiddleware.run()
LOG: Accepted client: /10.0.0.6:33704in MyMiddleware.run()
LOG: Accepted client: /10.0.0.6:33706in MyMiddleware.run()
LOG: Accepted client: /10.0.0.6:33702in MyMiddleware.run()
LOG: Accepted client: /10.0.0.6:33700in MyMiddleware.run()
LOG: Closed client: /10.0.0.11:54076in MyMiddleware.run()
LOG: Closed client: /10.0.0.11:54074in MyMiddleware.run()
LOG: Closed client: /10.0.0.11:54082in MyMiddleware.run()
LOG: Closed client: /10.0.0.11:54080in MyMiddleware.run()
LOG: Closed client: /10.0.0.11:54088in MyMiddleware.run()
LOG: Closed client: /10.0.0.11:54078in MyMiddleware.run()
LOG: Closed client: /10.0.0.11:54086in MyMiddleware.run()
LOG: Closed client: /10.0.0.11:54084in MyMiddleware.run()
LOG: Closed client: /10.0.0.7:55490in MyMiddleware.run()
LOG: Closed client: /10.0.0.7:55500in MyMiddleware.run()
LOG: Closed client: /10.0.0.7:55496in MyMiddleware.run()
LOG: Closed client: /10.0.0.7:55494in MyMiddleware.run()
LOG: Closed client: /10.0.0.7:55486in MyMiddleware.run()
LOG: Closed client: /10.0.0.7:55498in MyMiddleware.run()
LOG: Closed client: /10.0.0.7:55488in MyMiddleware.run()
LOG: Closed client: /10.0.0.7:55492in MyMiddleware.run()
LOG: Closed client: /10.0.0.6:33702in MyMiddleware.run()
LOG: Closed client: /10.0.0.6:33700in MyMiddleware.run()
LOG: Closed client: /10.0.0.6:33704in MyMiddleware.run()
LOG: Closed client: /10.0.0.6:33710in MyMiddleware.run()
LOG: Closed client: /10.0.0.6:33712in MyMiddleware.run()
LOG: Closed client: /10.0.0.6:33714in MyMiddleware.run()
LOG: Closed client: /10.0.0.6:33708in MyMiddleware.run()
LOG: Closed client: /10.0.0.6:33706in MyMiddleware.run()
