------------Middleware started!------------
LOG: Waiting for connection in MyMiddleware.run()
LOG: Accepted client: /10.0.0.6:54088in MyMiddleware.run()
LOG: Accepted client: /10.0.0.6:54086in MyMiddleware.run()
LOG: Accepted client: /10.0.0.6:54130in MyMiddleware.run()
LOG: Accepted client: /10.0.0.6:54136in MyMiddleware.run()
LOG: Accepted client: /10.0.0.6:54140in MyMiddleware.run()
LOG: Accepted client: /10.0.0.6:54110in MyMiddleware.run()
LOG: Accepted client: /10.0.0.6:54142in MyMiddleware.run()
LOG: Accepted client: /10.0.0.6:54138in MyMiddleware.run()
LOG: Accepted client: /10.0.0.6:54108in MyMiddleware.run()
LOG: Accepted client: /10.0.0.6:54104in MyMiddleware.run()
LOG: Accepted client: /10.0.0.6:54116in MyMiddleware.run()
LOG: Accepted client: /10.0.0.6:54118in MyMiddleware.run()
LOG: Accepted client: /10.0.0.6:54122in MyMiddleware.run()
LOG: Accepted client: /10.0.0.6:54090in MyMiddleware.run()
LOG: Accepted client: /10.0.0.6:54120in MyMiddleware.run()
LOG: Accepted client: /10.0.0.6:54126in MyMiddleware.run()
LOG: Accepted client: /10.0.0.6:54094in MyMiddleware.run()
LOG: Accepted client: /10.0.0.6:54114in MyMiddleware.run()
LOG: Accepted client: /10.0.0.6:54092in MyMiddleware.run()
LOG: Accepted client: /10.0.0.6:54106in MyMiddleware.run()
LOG: Accepted client: /10.0.0.6:54134in MyMiddleware.run()
LOG: Accepted client: /10.0.0.6:54124in MyMiddleware.run()
LOG: Accepted client: /10.0.0.6:54146in MyMiddleware.run()
LOG: Accepted client: /10.0.0.6:54100in MyMiddleware.run()
LOG: Accepted client: /10.0.0.6:54132in MyMiddleware.run()
LOG: Accepted client: /10.0.0.6:54102in MyMiddleware.run()
LOG: Accepted client: /10.0.0.6:54144in MyMiddleware.run()
LOG: Accepted client: /10.0.0.6:54084in MyMiddleware.run()
LOG: Accepted client: /10.0.0.6:54128in MyMiddleware.run()
LOG: Accepted client: /10.0.0.6:54098in MyMiddleware.run()
LOG: Accepted client: /10.0.0.6:54112in MyMiddleware.run()
LOG: Accepted client: /10.0.0.11:46340in MyMiddleware.run()
LOG: Accepted client: /10.0.0.11:46336in MyMiddleware.run()
LOG: Accepted client: /10.0.0.11:46312in MyMiddleware.run()
LOG: Accepted client: /10.0.0.11:46290in MyMiddleware.run()
LOG: Accepted client: /10.0.0.11:46318in MyMiddleware.run()
LOG: Accepted client: /10.0.0.11:46316in MyMiddleware.run()
LOG: Accepted client: /10.0.0.11:46314in MyMiddleware.run()
LOG: Accepted client: /10.0.0.11:46292in MyMiddleware.run()
LOG: Accepted client: /10.0.0.11:46322in MyMiddleware.run()
LOG: Accepted client: /10.0.0.11:46320in MyMiddleware.run()
LOG: Accepted client: /10.0.0.11:46294in MyMiddleware.run()
LOG: Accepted client: /10.0.0.11:46284in MyMiddleware.run()
LOG: Accepted client: /10.0.0.11:46286in MyMiddleware.run()
LOG: Accepted client: /10.0.0.6:54096in MyMiddleware.run()
LOG: Accepted client: /10.0.0.11:46288in MyMiddleware.run()
LOG: Accepted client: /10.0.0.11:46338in MyMiddleware.run()
LOG: Accepted client: /10.0.0.11:46324in MyMiddleware.run()
LOG: Accepted client: /10.0.0.11:46326in MyMiddleware.run()
LOG: Accepted client: /10.0.0.7:47736in MyMiddleware.run()
LOG: Accepted client: /10.0.0.7:47710in MyMiddleware.run()
LOG: Accepted client: /10.0.0.7:47760in MyMiddleware.run()
LOG: Accepted client: /10.0.0.7:47708in MyMiddleware.run()
LOG: Accepted client: /10.0.0.7:47750in MyMiddleware.run()
LOG: Accepted client: /10.0.0.7:47724in MyMiddleware.run()
LOG: Accepted client: /10.0.0.7:47762in MyMiddleware.run()
LOG: Accepted client: /10.0.0.7:47738in MyMiddleware.run()
LOG: Accepted client: /10.0.0.7:47740in MyMiddleware.run()
LOG: Accepted client: /10.0.0.7:47764in MyMiddleware.run()
LOG: Accepted client: /10.0.0.7:47730in MyMiddleware.run()
LOG: Accepted client: /10.0.0.7:47748in MyMiddleware.run()
LOG: Accepted client: /10.0.0.7:47726in MyMiddleware.run()
LOG: Accepted client: /10.0.0.7:47728in MyMiddleware.run()
LOG: Accepted client: /10.0.0.7:47766in MyMiddleware.run()
LOG: Accepted client: /10.0.0.7:47742in MyMiddleware.run()
LOG: Accepted client: /10.0.0.11:46300in MyMiddleware.run()
LOG: Accepted client: /10.0.0.11:46308in MyMiddleware.run()
LOG: Accepted client: /10.0.0.11:46304in MyMiddleware.run()
LOG: Accepted client: /10.0.0.11:46310in MyMiddleware.run()
LOG: Accepted client: /10.0.0.11:46306in MyMiddleware.run()
LOG: Accepted client: /10.0.0.11:46302in MyMiddleware.run()
LOG: Accepted client: /10.0.0.11:46296in MyMiddleware.run()
LOG: Accepted client: /10.0.0.11:46298in MyMiddleware.run()
LOG: Accepted client: /10.0.0.7:47704in MyMiddleware.run()
LOG: Accepted client: /10.0.0.7:47706in MyMiddleware.run()
LOG: Accepted client: /10.0.0.7:47732in MyMiddleware.run()
LOG: Accepted client: /10.0.0.7:47734in MyMiddleware.run()
LOG: Accepted client: /10.0.0.7:47722in MyMiddleware.run()
LOG: Accepted client: /10.0.0.11:46332in MyMiddleware.run()
LOG: Accepted client: /10.0.0.11:46334in MyMiddleware.run()
LOG: Accepted client: /10.0.0.11:46328in MyMiddleware.run()
LOG: Accepted client: /10.0.0.11:46330in MyMiddleware.run()
LOG: Accepted client: /10.0.0.7:47720in MyMiddleware.run()
LOG: Accepted client: /10.0.0.7:47744in MyMiddleware.run()
LOG: Accepted client: /10.0.0.7:47746in MyMiddleware.run()
LOG: Accepted client: /10.0.0.11:46346in MyMiddleware.run()
LOG: Accepted client: /10.0.0.11:46344in MyMiddleware.run()
LOG: Accepted client: /10.0.0.7:47716in MyMiddleware.run()
LOG: Accepted client: /10.0.0.11:46342in MyMiddleware.run()
LOG: Accepted client: /10.0.0.7:47754in MyMiddleware.run()
LOG: Accepted client: /10.0.0.7:47714in MyMiddleware.run()
LOG: Accepted client: /10.0.0.7:47752in MyMiddleware.run()
LOG: Accepted client: /10.0.0.7:47712in MyMiddleware.run()
LOG: Accepted client: /10.0.0.7:47758in MyMiddleware.run()
LOG: Accepted client: /10.0.0.7:47756in MyMiddleware.run()
LOG: Accepted client: /10.0.0.7:47718in MyMiddleware.run()
LOG: Closed client: /10.0.0.6:54090in MyMiddleware.run()
LOG: Closed client: /10.0.0.6:54088in MyMiddleware.run()
LOG: Closed client: /10.0.0.6:54136in MyMiddleware.run()
LOG: Closed client: /10.0.0.6:54094in MyMiddleware.run()
LOG: Closed client: /10.0.0.6:54114in MyMiddleware.run()
LOG: Closed client: /10.0.0.6:54084in MyMiddleware.run()
LOG: Closed client: /10.0.0.6:54112in MyMiddleware.run()
LOG: Closed client: /10.0.0.6:54118in MyMiddleware.run()
LOG: Closed client: /10.0.0.6:54086in MyMiddleware.run()
LOG: Closed client: /10.0.0.6:54104in MyMiddleware.run()
LOG: Closed client: /10.0.0.6:54096in MyMiddleware.run()
LOG: Closed client: /10.0.0.6:54126in MyMiddleware.run()
LOG: Closed client: /10.0.0.6:54098in MyMiddleware.run()
LOG: Closed client: /10.0.0.6:54092in MyMiddleware.run()
LOG: Closed client: /10.0.0.6:54102in MyMiddleware.run()
LOG: Closed client: /10.0.0.6:54106in MyMiddleware.run()
LOG: Closed client: /10.0.0.6:54100in MyMiddleware.run()
LOG: Closed client: /10.0.0.6:54108in MyMiddleware.run()
LOG: Closed client: /10.0.0.6:54134in MyMiddleware.run()
LOG: Closed client: /10.0.0.6:54132in MyMiddleware.run()
LOG: Closed client: /10.0.0.6:54124in MyMiddleware.run()
LOG: Closed client: /10.0.0.6:54116in MyMiddleware.run()
LOG: Closed client: /10.0.0.6:54120in MyMiddleware.run()
LOG: Closed client: /10.0.0.6:54122in MyMiddleware.run()
LOG: Closed client: /10.0.0.6:54142in MyMiddleware.run()
LOG: Closed client: /10.0.0.6:54138in MyMiddleware.run()
LOG: Closed client: /10.0.0.6:54144in MyMiddleware.run()
LOG: Closed client: /10.0.0.6:54140in MyMiddleware.run()
LOG: Closed client: /10.0.0.6:54130in MyMiddleware.run()
LOG: Closed client: /10.0.0.6:54128in MyMiddleware.run()
LOG: Closed client: /10.0.0.6:54110in MyMiddleware.run()
LOG: Closed client: /10.0.0.6:54146in MyMiddleware.run()
LOG: Closed client: /10.0.0.7:47710in MyMiddleware.run()
LOG: Closed client: /10.0.0.7:47704in MyMiddleware.run()
LOG: Closed client: /10.0.0.7:47730in MyMiddleware.run()
LOG: Closed client: /10.0.0.7:47706in MyMiddleware.run()
LOG: Closed client: /10.0.0.7:47708in MyMiddleware.run()
LOG: Closed client: /10.0.0.7:47732in MyMiddleware.run()
LOG: Closed client: /10.0.0.7:47720in MyMiddleware.run()
LOG: Closed client: /10.0.0.7:47726in MyMiddleware.run()
LOG: Closed client: /10.0.0.7:47740in MyMiddleware.run()
LOG: Closed client: /10.0.0.7:47754in MyMiddleware.run()
LOG: Closed client: /10.0.0.7:47760in MyMiddleware.run()
LOG: Closed client: /10.0.0.7:47714in MyMiddleware.run()
LOG: Closed client: /10.0.0.7:47744in MyMiddleware.run()
LOG: Closed client: /10.0.0.7:47764in MyMiddleware.run()
LOG: Closed client: /10.0.0.7:47718in MyMiddleware.run()
LOG: Closed client: /10.0.0.7:47748in MyMiddleware.run()
LOG: Closed client: /10.0.0.7:47716in MyMiddleware.run()
LOG: Closed client: /10.0.0.7:47738in MyMiddleware.run()
LOG: Closed client: /10.0.0.7:47746in MyMiddleware.run()
LOG: Closed client: /10.0.0.7:47752in MyMiddleware.run()
LOG: Closed client: /10.0.0.7:47736in MyMiddleware.run()
LOG: Closed client: /10.0.0.7:47758in MyMiddleware.run()
LOG: Closed client: /10.0.0.7:47722in MyMiddleware.run()
LOG: Closed client: /10.0.0.7:47734in MyMiddleware.run()
LOG: Closed client: /10.0.0.7:47712in MyMiddleware.run()
LOG: Closed client: /10.0.0.7:47756in MyMiddleware.run()
LOG: Closed client: /10.0.0.7:47766in MyMiddleware.run()
LOG: Closed client: /10.0.0.7:47724in MyMiddleware.run()
LOG: Closed client: /10.0.0.7:47728in MyMiddleware.run()
LOG: Closed client: /10.0.0.7:47742in MyMiddleware.run()
LOG: Closed client: /10.0.0.7:47762in MyMiddleware.run()
LOG: Closed client: /10.0.0.7:47750in MyMiddleware.run()
LOG: Closed client: /10.0.0.11:46286in MyMiddleware.run()
LOG: Closed client: /10.0.0.11:46288in MyMiddleware.run()
LOG: Closed client: /10.0.0.11:46306in MyMiddleware.run()
LOG: Closed client: /10.0.0.11:46302in MyMiddleware.run()
LOG: Closed client: /10.0.0.11:46284in MyMiddleware.run()
LOG: Closed client: /10.0.0.11:46298in MyMiddleware.run()
LOG: Closed client: /10.0.0.11:46294in MyMiddleware.run()
LOG: Closed client: /10.0.0.11:46308in MyMiddleware.run()
LOG: Closed client: /10.0.0.11:46304in MyMiddleware.run()
LOG: Closed client: /10.0.0.11:46292in MyMiddleware.run()
LOG: Closed client: /10.0.0.11:46310in MyMiddleware.run()
LOG: Closed client: /10.0.0.11:46322in MyMiddleware.run()
LOG: Closed client: /10.0.0.11:46314in MyMiddleware.run()
LOG: Closed client: /10.0.0.11:46300in MyMiddleware.run()
LOG: Closed client: /10.0.0.11:46296in MyMiddleware.run()
LOG: Closed client: /10.0.0.11:46340in MyMiddleware.run()
LOG: Closed client: /10.0.0.11:46344in MyMiddleware.run()
LOG: Closed client: /10.0.0.11:46316in MyMiddleware.run()
LOG: Closed client: /10.0.0.11:46330in MyMiddleware.run()
LOG: Closed client: /10.0.0.11:46326in MyMiddleware.run()
LOG: Closed client: /10.0.0.11:46320in MyMiddleware.run()
LOG: Closed client: /10.0.0.11:46328in MyMiddleware.run()
LOG: Closed client: /10.0.0.11:46338in MyMiddleware.run()
LOG: Closed client: /10.0.0.11:46334in MyMiddleware.run()
LOG: Closed client: /10.0.0.11:46290in MyMiddleware.run()
LOG: Closed client: /10.0.0.11:46332in MyMiddleware.run()
LOG: Closed client: /10.0.0.11:46336in MyMiddleware.run()
LOG: Closed client: /10.0.0.11:46324in MyMiddleware.run()
LOG: Closed client: /10.0.0.11:46318in MyMiddleware.run()
LOG: Closed client: /10.0.0.11:46342in MyMiddleware.run()
LOG: Closed client: /10.0.0.11:46346in MyMiddleware.run()
LOG: Closed client: /10.0.0.11:46312in MyMiddleware.run()
