------------Middleware started!------------
LOG: Waiting for connection in MyMiddleware.run()
LOG: Accepted client: /10.0.0.11:40668in MyMiddleware.run()
LOG: Accepted client: /10.0.0.11:40688in MyMiddleware.run()
LOG: Accepted client: /10.0.0.11:40686in MyMiddleware.run()
LOG: Accepted client: /10.0.0.11:40682in MyMiddleware.run()
LOG: Accepted client: /10.0.0.11:40684in MyMiddleware.run()
LOG: Accepted client: /10.0.0.11:40680in MyMiddleware.run()
LOG: Accepted client: /10.0.0.11:40690in MyMiddleware.run()
LOG: Accepted client: /10.0.0.11:40692in MyMiddleware.run()
LOG: Accepted client: /10.0.0.11:40694in MyMiddleware.run()
LOG: Accepted client: /10.0.0.6:48594in MyMiddleware.run()
LOG: Accepted client: /10.0.0.6:48592in MyMiddleware.run()
LOG: Accepted client: /10.0.0.6:48598in MyMiddleware.run()
LOG: Accepted client: /10.0.0.6:48616in MyMiddleware.run()
LOG: Accepted client: /10.0.0.6:48608in MyMiddleware.run()
LOG: Accepted client: /10.0.0.6:48618in MyMiddleware.run()
LOG: Accepted client: /10.0.0.6:48606in MyMiddleware.run()
LOG: Accepted client: /10.0.0.6:48622in MyMiddleware.run()
LOG: Accepted client: /10.0.0.6:48620in MyMiddleware.run()
LOG: Accepted client: /10.0.0.6:48596in MyMiddleware.run()
LOG: Accepted client: /10.0.0.6:48612in MyMiddleware.run()
LOG: Accepted client: /10.0.0.6:48614in MyMiddleware.run()
LOG: Accepted client: /10.0.0.6:48610in MyMiddleware.run()
LOG: Accepted client: /10.0.0.6:48600in MyMiddleware.run()
LOG: Accepted client: /10.0.0.6:48602in MyMiddleware.run()
LOG: Accepted client: /10.0.0.6:48604in MyMiddleware.run()
LOG: Accepted client: /10.0.0.11:40664in MyMiddleware.run()
LOG: Accepted client: /10.0.0.11:40676in MyMiddleware.run()
LOG: Accepted client: /10.0.0.11:40674in MyMiddleware.run()
LOG: Accepted client: /10.0.0.11:40672in MyMiddleware.run()
LOG: Accepted client: /10.0.0.11:40670in MyMiddleware.run()
LOG: Accepted client: /10.0.0.11:40678in MyMiddleware.run()
LOG: Accepted client: /10.0.0.11:40666in MyMiddleware.run()
LOG: Accepted client: /10.0.0.7:42170in MyMiddleware.run()
LOG: Accepted client: /10.0.0.7:42150in MyMiddleware.run()
LOG: Accepted client: /10.0.0.7:42146in MyMiddleware.run()
LOG: Accepted client: /10.0.0.7:42166in MyMiddleware.run()
LOG: Accepted client: /10.0.0.7:42164in MyMiddleware.run()
LOG: Accepted client: /10.0.0.7:42148in MyMiddleware.run()
LOG: Accepted client: /10.0.0.7:42144in MyMiddleware.run()
LOG: Accepted client: /10.0.0.7:42168in MyMiddleware.run()
LOG: Accepted client: /10.0.0.7:42156in MyMiddleware.run()
LOG: Accepted client: /10.0.0.7:42152in MyMiddleware.run()
LOG: Accepted client: /10.0.0.7:42158in MyMiddleware.run()
LOG: Accepted client: /10.0.0.7:42154in MyMiddleware.run()
LOG: Accepted client: /10.0.0.7:42160in MyMiddleware.run()
LOG: Accepted client: /10.0.0.7:42162in MyMiddleware.run()
LOG: Accepted client: /10.0.0.7:42142in MyMiddleware.run()
LOG: Accepted client: /10.0.0.7:42140in MyMiddleware.run()
LOG: Closed client: /10.0.0.11:40676in MyMiddleware.run()
LOG: Closed client: /10.0.0.11:40678in MyMiddleware.run()
LOG: Closed client: /10.0.0.11:40664in MyMiddleware.run()
LOG: Closed client: /10.0.0.11:40692in MyMiddleware.run()
LOG: Closed client: /10.0.0.11:40690in MyMiddleware.run()
LOG: Closed client: /10.0.0.11:40674in MyMiddleware.run()
LOG: Closed client: /10.0.0.11:40684in MyMiddleware.run()
LOG: Closed client: /10.0.0.11:40668in MyMiddleware.run()
LOG: Closed client: /10.0.0.11:40694in MyMiddleware.run()
LOG: Closed client: /10.0.0.11:40682in MyMiddleware.run()
LOG: Closed client: /10.0.0.11:40666in MyMiddleware.run()
LOG: Closed client: /10.0.0.11:40686in MyMiddleware.run()
LOG: Closed client: /10.0.0.11:40688in MyMiddleware.run()
LOG: Closed client: /10.0.0.11:40670in MyMiddleware.run()
LOG: Closed client: /10.0.0.11:40680in MyMiddleware.run()
LOG: Closed client: /10.0.0.11:40672in MyMiddleware.run()
LOG: Closed client: /10.0.0.6:48608in MyMiddleware.run()
LOG: Closed client: /10.0.0.6:48592in MyMiddleware.run()
LOG: Closed client: /10.0.0.6:48612in MyMiddleware.run()
LOG: Closed client: /10.0.0.6:48616in MyMiddleware.run()
LOG: Closed client: /10.0.0.6:48602in MyMiddleware.run()
LOG: Closed client: /10.0.0.6:48596in MyMiddleware.run()
LOG: Closed client: /10.0.0.6:48622in MyMiddleware.run()
LOG: Closed client: /10.0.0.6:48594in MyMiddleware.run()
LOG: Closed client: /10.0.0.6:48598in MyMiddleware.run()
LOG: Closed client: /10.0.0.6:48614in MyMiddleware.run()
LOG: Closed client: /10.0.0.6:48600in MyMiddleware.run()
LOG: Closed client: /10.0.0.6:48604in MyMiddleware.run()
LOG: Closed client: /10.0.0.6:48620in MyMiddleware.run()
LOG: Closed client: /10.0.0.6:48610in MyMiddleware.run()
LOG: Closed client: /10.0.0.6:48618in MyMiddleware.run()
LOG: Closed client: /10.0.0.6:48606in MyMiddleware.run()
LOG: Closed client: /10.0.0.7:42166in MyMiddleware.run()
LOG: Closed client: /10.0.0.7:42146in MyMiddleware.run()
LOG: Closed client: /10.0.0.7:42160in MyMiddleware.run()
LOG: Closed client: /10.0.0.7:42140in MyMiddleware.run()
LOG: Closed client: /10.0.0.7:42162in MyMiddleware.run()
LOG: Closed client: /10.0.0.7:42144in MyMiddleware.run()
LOG: Closed client: /10.0.0.7:42142in MyMiddleware.run()
LOG: Closed client: /10.0.0.7:42168in MyMiddleware.run()
LOG: Closed client: /10.0.0.7:42150in MyMiddleware.run()
LOG: Closed client: /10.0.0.7:42170in MyMiddleware.run()
LOG: Closed client: /10.0.0.7:42158in MyMiddleware.run()
LOG: Closed client: /10.0.0.7:42164in MyMiddleware.run()
LOG: Closed client: /10.0.0.7:42156in MyMiddleware.run()
LOG: Closed client: /10.0.0.7:42148in MyMiddleware.run()
LOG: Closed client: /10.0.0.7:42152in MyMiddleware.run()
LOG: Closed client: /10.0.0.7:42154in MyMiddleware.run()
