------------Middleware started!------------
LOG: Waiting for connection in MyMiddleware.run()
LOG: Accepted client: /10.0.0.11:38768in MyMiddleware.run()
LOG: Accepted client: /10.0.0.11:38774in MyMiddleware.run()
LOG: Accepted client: /10.0.0.11:38778in MyMiddleware.run()
LOG: Accepted client: /10.0.0.11:38770in MyMiddleware.run()
LOG: Accepted client: /10.0.0.11:38772in MyMiddleware.run()
LOG: Accepted client: /10.0.0.11:38776in MyMiddleware.run()
LOG: Accepted client: /10.0.0.11:38766in MyMiddleware.run()
LOG: Accepted client: /10.0.0.11:38764in MyMiddleware.run()
LOG: Accepted client: /10.0.0.6:46654in MyMiddleware.run()
LOG: Accepted client: /10.0.0.6:46666in MyMiddleware.run()
LOG: Accepted client: /10.0.0.6:46668in MyMiddleware.run()
LOG: Accepted client: /10.0.0.6:46664in MyMiddleware.run()
LOG: Accepted client: /10.0.0.7:40214in MyMiddleware.run()
LOG: Accepted client: /10.0.0.7:40200in MyMiddleware.run()
LOG: Accepted client: /10.0.0.7:40202in MyMiddleware.run()
LOG: Accepted client: /10.0.0.7:40212in MyMiddleware.run()
LOG: Accepted client: /10.0.0.7:40208in MyMiddleware.run()
LOG: Accepted client: /10.0.0.7:40210in MyMiddleware.run()
LOG: Accepted client: /10.0.0.7:40206in MyMiddleware.run()
LOG: Accepted client: /10.0.0.7:40204in MyMiddleware.run()
LOG: Accepted client: /10.0.0.6:46660in MyMiddleware.run()
LOG: Accepted client: /10.0.0.6:46658in MyMiddleware.run()
LOG: Accepted client: /10.0.0.6:46656in MyMiddleware.run()
LOG: Accepted client: /10.0.0.6:46662in MyMiddleware.run()
LOG: Closed client: /10.0.0.7:40206in MyMiddleware.run()
LOG: Closed client: /10.0.0.7:40204in MyMiddleware.run()
LOG: Closed client: /10.0.0.7:40208in MyMiddleware.run()
LOG: Closed client: /10.0.0.7:40212in MyMiddleware.run()
LOG: Closed client: /10.0.0.7:40210in MyMiddleware.run()
LOG: Closed client: /10.0.0.7:40202in MyMiddleware.run()
LOG: Closed client: /10.0.0.7:40200in MyMiddleware.run()
LOG: Closed client: /10.0.0.7:40214in MyMiddleware.run()
LOG: Closed client: /10.0.0.11:38764in MyMiddleware.run()
LOG: Closed client: /10.0.0.11:38766in MyMiddleware.run()
LOG: Closed client: /10.0.0.11:38768in MyMiddleware.run()
LOG: Closed client: /10.0.0.11:38770in MyMiddleware.run()
LOG: Closed client: /10.0.0.11:38776in MyMiddleware.run()
LOG: Closed client: /10.0.0.11:38774in MyMiddleware.run()
LOG: Closed client: /10.0.0.11:38772in MyMiddleware.run()
LOG: Closed client: /10.0.0.11:38778in MyMiddleware.run()
LOG: Closed client: /10.0.0.6:46666in MyMiddleware.run()
LOG: Closed client: /10.0.0.6:46654in MyMiddleware.run()
LOG: Closed client: /10.0.0.6:46664in MyMiddleware.run()
LOG: Closed client: /10.0.0.6:46660in MyMiddleware.run()
LOG: Closed client: /10.0.0.6:46658in MyMiddleware.run()
LOG: Closed client: /10.0.0.6:46656in MyMiddleware.run()
LOG: Closed client: /10.0.0.6:46668in MyMiddleware.run()
LOG: Closed client: /10.0.0.6:46662in MyMiddleware.run()
