------------Middleware started!------------
LOG: Waiting for connection in MyMiddleware.run()
LOG: Accepted client: /10.0.0.11:52734in MyMiddleware.run()
LOG: Accepted client: /10.0.0.11:52744in MyMiddleware.run()
LOG: Accepted client: /10.0.0.11:52738in MyMiddleware.run()
LOG: Accepted client: /10.0.0.11:52748in MyMiddleware.run()
LOG: Accepted client: /10.0.0.11:52736in MyMiddleware.run()
LOG: Accepted client: /10.0.0.11:52746in MyMiddleware.run()
LOG: Accepted client: /10.0.0.11:52740in MyMiddleware.run()
LOG: Accepted client: /10.0.0.11:52742in MyMiddleware.run()
LOG: Accepted client: /10.0.0.7:54118in MyMiddleware.run()
LOG: Accepted client: /10.0.0.7:54110in MyMiddleware.run()
LOG: Accepted client: /10.0.0.7:54106in MyMiddleware.run()
LOG: Accepted client: /10.0.0.7:54102in MyMiddleware.run()
LOG: Accepted client: /10.0.0.7:54114in MyMiddleware.run()
LOG: Accepted client: /10.0.0.7:54122in MyMiddleware.run()
LOG: Accepted client: /10.0.0.7:54094in MyMiddleware.run()
LOG: Accepted client: /10.0.0.7:54098in MyMiddleware.run()
LOG: Accepted client: /10.0.0.6:60554in MyMiddleware.run()
LOG: Accepted client: /10.0.0.6:60552in MyMiddleware.run()
LOG: Accepted client: /10.0.0.6:60542in MyMiddleware.run()
LOG: Accepted client: /10.0.0.6:60548in MyMiddleware.run()
LOG: Accepted client: /10.0.0.6:60550in MyMiddleware.run()
LOG: Accepted client: /10.0.0.6:60544in MyMiddleware.run()
LOG: Accepted client: /10.0.0.6:60546in MyMiddleware.run()
LOG: Accepted client: /10.0.0.6:60556in MyMiddleware.run()
LOG: Closed client: /10.0.0.7:54102in MyMiddleware.run()
LOG: Closed client: /10.0.0.7:54106in MyMiddleware.run()
LOG: Closed client: /10.0.0.7:54094in MyMiddleware.run()
LOG: Closed client: /10.0.0.7:54122in MyMiddleware.run()
LOG: Closed client: /10.0.0.7:54114in MyMiddleware.run()
LOG: Closed client: /10.0.0.7:54098in MyMiddleware.run()
LOG: Closed client: /10.0.0.7:54110in MyMiddleware.run()
LOG: Closed client: /10.0.0.7:54118in MyMiddleware.run()
LOG: Closed client: /10.0.0.11:52734in MyMiddleware.run()
LOG: Closed client: /10.0.0.11:52738in MyMiddleware.run()
LOG: Closed client: /10.0.0.11:52748in MyMiddleware.run()
LOG: Closed client: /10.0.0.11:52742in MyMiddleware.run()
LOG: Closed client: /10.0.0.11:52746in MyMiddleware.run()
LOG: Closed client: /10.0.0.11:52744in MyMiddleware.run()
LOG: Closed client: /10.0.0.11:52736in MyMiddleware.run()
LOG: Closed client: /10.0.0.11:52740in MyMiddleware.run()
LOG: Closed client: /10.0.0.6:60554in MyMiddleware.run()
LOG: Closed client: /10.0.0.6:60552in MyMiddleware.run()
LOG: Closed client: /10.0.0.6:60544in MyMiddleware.run()
LOG: Closed client: /10.0.0.6:60546in MyMiddleware.run()
LOG: Closed client: /10.0.0.6:60556in MyMiddleware.run()
LOG: Closed client: /10.0.0.6:60550in MyMiddleware.run()
LOG: Closed client: /10.0.0.6:60542in MyMiddleware.run()
LOG: Closed client: /10.0.0.6:60548in MyMiddleware.run()
