------------Middleware started!------------
LOG: Waiting for connection in MyMiddleware.run()
LOG: Accepted client: /10.0.0.7:45120in MyMiddleware.run()
LOG: Accepted client: /10.0.0.7:45144in MyMiddleware.run()
LOG: Accepted client: /10.0.0.7:45124in MyMiddleware.run()
LOG: Accepted client: /10.0.0.7:45122in MyMiddleware.run()
LOG: Accepted client: /10.0.0.7:45126in MyMiddleware.run()
LOG: Accepted client: /10.0.0.7:45146in MyMiddleware.run()
LOG: Accepted client: /10.0.0.7:45148in MyMiddleware.run()
LOG: Accepted client: /10.0.0.7:45132in MyMiddleware.run()
LOG: Accepted client: /10.0.0.7:45136in MyMiddleware.run()
LOG: Accepted client: /10.0.0.7:45128in MyMiddleware.run()
LOG: Accepted client: /10.0.0.7:45130in MyMiddleware.run()
LOG: Accepted client: /10.0.0.7:45118in MyMiddleware.run()
LOG: Accepted client: /10.0.0.7:45134in MyMiddleware.run()
LOG: Accepted client: /10.0.0.7:45142in MyMiddleware.run()
LOG: Accepted client: /10.0.0.7:45140in MyMiddleware.run()
LOG: Accepted client: /10.0.0.7:45138in MyMiddleware.run()
LOG: Accepted client: /10.0.0.11:43702in MyMiddleware.run()
LOG: Accepted client: /10.0.0.11:43712in MyMiddleware.run()
LOG: Accepted client: /10.0.0.11:43730in MyMiddleware.run()
LOG: Accepted client: /10.0.0.11:43718in MyMiddleware.run()
LOG: Accepted client: /10.0.0.11:43726in MyMiddleware.run()
LOG: Accepted client: /10.0.0.11:43724in MyMiddleware.run()
LOG: Accepted client: /10.0.0.11:43706in MyMiddleware.run()
LOG: Accepted client: /10.0.0.11:43722in MyMiddleware.run()
LOG: Accepted client: /10.0.0.11:43728in MyMiddleware.run()
LOG: Accepted client: /10.0.0.11:43732in MyMiddleware.run()
LOG: Accepted client: /10.0.0.11:43716in MyMiddleware.run()
LOG: Accepted client: /10.0.0.11:43704in MyMiddleware.run()
LOG: Accepted client: /10.0.0.11:43710in MyMiddleware.run()
LOG: Accepted client: /10.0.0.11:43708in MyMiddleware.run()
LOG: Accepted client: /10.0.0.11:43720in MyMiddleware.run()
LOG: Accepted client: /10.0.0.11:43714in MyMiddleware.run()
LOG: Accepted client: /10.0.0.6:51610in MyMiddleware.run()
LOG: Accepted client: /10.0.0.6:51606in MyMiddleware.run()
LOG: Accepted client: /10.0.0.6:51604in MyMiddleware.run()
LOG: Accepted client: /10.0.0.6:51612in MyMiddleware.run()
LOG: Accepted client: /10.0.0.6:51618in MyMiddleware.run()
LOG: Accepted client: /10.0.0.6:51614in MyMiddleware.run()
LOG: Accepted client: /10.0.0.6:51608in MyMiddleware.run()
LOG: Accepted client: /10.0.0.6:51598in MyMiddleware.run()
LOG: Accepted client: /10.0.0.6:51624in MyMiddleware.run()
LOG: Accepted client: /10.0.0.6:51616in MyMiddleware.run()
LOG: Accepted client: /10.0.0.6:51628in MyMiddleware.run()
LOG: Accepted client: /10.0.0.6:51622in MyMiddleware.run()
LOG: Accepted client: /10.0.0.6:51620in MyMiddleware.run()
LOG: Accepted client: /10.0.0.6:51626in MyMiddleware.run()
LOG: Accepted client: /10.0.0.6:51602in MyMiddleware.run()
LOG: Accepted client: /10.0.0.6:51600in MyMiddleware.run()
LOG: Closed client: /10.0.0.7:45120in MyMiddleware.run()
LOG: Closed client: /10.0.0.7:45124in MyMiddleware.run()
LOG: Closed client: /10.0.0.7:45126in MyMiddleware.run()
LOG: Closed client: /10.0.0.7:45128in MyMiddleware.run()
LOG: Closed client: /10.0.0.7:45146in MyMiddleware.run()
LOG: Closed client: /10.0.0.7:45122in MyMiddleware.run()
LOG: Closed client: /10.0.0.7:45134in MyMiddleware.run()
LOG: Closed client: /10.0.0.7:45142in MyMiddleware.run()
LOG: Closed client: /10.0.0.7:45144in MyMiddleware.run()
LOG: Closed client: /10.0.0.7:45138in MyMiddleware.run()
LOG: Closed client: /10.0.0.7:45132in MyMiddleware.run()
LOG: Closed client: /10.0.0.7:45136in MyMiddleware.run()
LOG: Closed client: /10.0.0.7:45148in MyMiddleware.run()
LOG: Closed client: /10.0.0.7:45140in MyMiddleware.run()
LOG: Closed client: /10.0.0.7:45118in MyMiddleware.run()
LOG: Closed client: /10.0.0.7:45130in MyMiddleware.run()
LOG: Closed client: /10.0.0.11:43718in MyMiddleware.run()
LOG: Closed client: /10.0.0.11:43720in MyMiddleware.run()
LOG: Closed client: /10.0.0.11:43726in MyMiddleware.run()
LOG: Closed client: /10.0.0.11:43704in MyMiddleware.run()
LOG: Closed client: /10.0.0.11:43706in MyMiddleware.run()
LOG: Closed client: /10.0.0.11:43708in MyMiddleware.run()
LOG: Closed client: /10.0.0.11:43714in MyMiddleware.run()
LOG: Closed client: /10.0.0.11:43710in MyMiddleware.run()
LOG: Closed client: /10.0.0.11:43722in MyMiddleware.run()
LOG: Closed client: /10.0.0.11:43724in MyMiddleware.run()
LOG: Closed client: /10.0.0.11:43702in MyMiddleware.run()
LOG: Closed client: /10.0.0.11:43732in MyMiddleware.run()
LOG: Closed client: /10.0.0.11:43712in MyMiddleware.run()
LOG: Closed client: /10.0.0.11:43716in MyMiddleware.run()
LOG: Closed client: /10.0.0.11:43728in MyMiddleware.run()
LOG: Closed client: /10.0.0.11:43730in MyMiddleware.run()
LOG: Closed client: /10.0.0.6:51600in MyMiddleware.run()
LOG: Closed client: /10.0.0.6:51602in MyMiddleware.run()
LOG: Closed client: /10.0.0.6:51618in MyMiddleware.run()
LOG: Closed client: /10.0.0.6:51622in MyMiddleware.run()
LOG: Closed client: /10.0.0.6:51616in MyMiddleware.run()
LOG: Closed client: /10.0.0.6:51626in MyMiddleware.run()
LOG: Closed client: /10.0.0.6:51624in MyMiddleware.run()
LOG: Closed client: /10.0.0.6:51604in MyMiddleware.run()
LOG: Closed client: /10.0.0.6:51628in MyMiddleware.run()
LOG: Closed client: /10.0.0.6:51612in MyMiddleware.run()
LOG: Closed client: /10.0.0.6:51606in MyMiddleware.run()
LOG: Closed client: /10.0.0.6:51620in MyMiddleware.run()
LOG: Closed client: /10.0.0.6:51614in MyMiddleware.run()
LOG: Closed client: /10.0.0.6:51598in MyMiddleware.run()
LOG: Closed client: /10.0.0.6:51610in MyMiddleware.run()
LOG: Closed client: /10.0.0.6:51608in MyMiddleware.run()
