------------Middleware started!------------
LOG: Waiting for connection in MyMiddleware.run()
LOG: Accepted client: /10.0.0.6:38706in MyMiddleware.run()
LOG: Accepted client: /10.0.0.6:38712in MyMiddleware.run()
LOG: Accepted client: /10.0.0.6:38732in MyMiddleware.run()
LOG: Accepted client: /10.0.0.6:38724in MyMiddleware.run()
LOG: Accepted client: /10.0.0.6:38720in MyMiddleware.run()
LOG: Accepted client: /10.0.0.6:38740in MyMiddleware.run()
LOG: Accepted client: /10.0.0.6:38736in MyMiddleware.run()
LOG: Accepted client: /10.0.0.6:38728in MyMiddleware.run()
LOG: Accepted client: /10.0.0.6:38716in MyMiddleware.run()
LOG: Accepted client: /10.0.0.6:38792in MyMiddleware.run()
LOG: Accepted client: /10.0.0.6:38798in MyMiddleware.run()
LOG: Accepted client: /10.0.0.6:38818in MyMiddleware.run()
LOG: Accepted client: /10.0.0.6:38816in MyMiddleware.run()
LOG: Accepted client: /10.0.0.6:38822in MyMiddleware.run()
LOG: Accepted client: /10.0.0.6:38788in MyMiddleware.run()
LOG: Accepted client: /10.0.0.6:38790in MyMiddleware.run()
LOG: Accepted client: /10.0.0.6:38808in MyMiddleware.run()
LOG: Accepted client: /10.0.0.6:38810in MyMiddleware.run()
LOG: Accepted client: /10.0.0.6:38820in MyMiddleware.run()
LOG: Accepted client: /10.0.0.6:38812in MyMiddleware.run()
LOG: Accepted client: /10.0.0.6:38814in MyMiddleware.run()
LOG: Accepted client: /10.0.0.6:38802in MyMiddleware.run()
LOG: Accepted client: /10.0.0.6:38800in MyMiddleware.run()
LOG: Accepted client: /10.0.0.6:38826in MyMiddleware.run()
LOG: Accepted client: /10.0.0.6:38832in MyMiddleware.run()
LOG: Accepted client: /10.0.0.6:38824in MyMiddleware.run()
LOG: Accepted client: /10.0.0.6:38794in MyMiddleware.run()
LOG: Accepted client: /10.0.0.11:59190in MyMiddleware.run()
LOG: Accepted client: /10.0.0.11:59178in MyMiddleware.run()
LOG: Accepted client: /10.0.0.11:59180in MyMiddleware.run()
LOG: Accepted client: /10.0.0.11:59224in MyMiddleware.run()
LOG: Accepted client: /10.0.0.11:59226in MyMiddleware.run()
LOG: Accepted client: /10.0.0.11:59230in MyMiddleware.run()
LOG: Accepted client: /10.0.0.11:59228in MyMiddleware.run()
LOG: Accepted client: /10.0.0.11:59202in MyMiddleware.run()
LOG: Accepted client: /10.0.0.11:59182in MyMiddleware.run()
LOG: Accepted client: /10.0.0.11:59188in MyMiddleware.run()
LOG: Accepted client: /10.0.0.11:59232in MyMiddleware.run()
LOG: Accepted client: /10.0.0.11:59200in MyMiddleware.run()
LOG: Accepted client: /10.0.0.11:59192in MyMiddleware.run()
LOG: Accepted client: /10.0.0.11:59222in MyMiddleware.run()
LOG: Accepted client: /10.0.0.11:59212in MyMiddleware.run()
LOG: Accepted client: /10.0.0.11:59220in MyMiddleware.run()
LOG: Accepted client: /10.0.0.11:59234in MyMiddleware.run()
LOG: Accepted client: /10.0.0.11:59214in MyMiddleware.run()
LOG: Accepted client: /10.0.0.11:59194in MyMiddleware.run()
LOG: Accepted client: /10.0.0.6:38796in MyMiddleware.run()
LOG: Accepted client: /10.0.0.6:38828in MyMiddleware.run()
LOG: Accepted client: /10.0.0.6:38830in MyMiddleware.run()
LOG: Accepted client: /10.0.0.11:59210in MyMiddleware.run()
LOG: Accepted client: /10.0.0.11:59198in MyMiddleware.run()
LOG: Accepted client: /10.0.0.11:59238in MyMiddleware.run()
LOG: Accepted client: /10.0.0.11:59208in MyMiddleware.run()
LOG: Accepted client: /10.0.0.11:59236in MyMiddleware.run()
LOG: Accepted client: /10.0.0.11:59196in MyMiddleware.run()
LOG: Accepted client: /10.0.0.11:59206in MyMiddleware.run()
LOG: Accepted client: /10.0.0.11:59186in MyMiddleware.run()
LOG: Accepted client: /10.0.0.11:59204in MyMiddleware.run()
LOG: Accepted client: /10.0.0.11:59184in MyMiddleware.run()
LOG: Accepted client: /10.0.0.7:60574in MyMiddleware.run()
LOG: Accepted client: /10.0.0.7:60572in MyMiddleware.run()
LOG: Accepted client: /10.0.0.7:60576in MyMiddleware.run()
LOG: Accepted client: /10.0.0.7:60592in MyMiddleware.run()
LOG: Accepted client: /10.0.0.7:60582in MyMiddleware.run()
LOG: Accepted client: /10.0.0.7:60586in MyMiddleware.run()
LOG: Accepted client: /10.0.0.7:60612in MyMiddleware.run()
LOG: Accepted client: /10.0.0.7:60606in MyMiddleware.run()
LOG: Accepted client: /10.0.0.7:60616in MyMiddleware.run()
LOG: Accepted client: /10.0.0.7:60580in MyMiddleware.run()
LOG: Accepted client: /10.0.0.6:38804in MyMiddleware.run()
LOG: Accepted client: /10.0.0.6:38806in MyMiddleware.run()
LOG: Accepted client: /10.0.0.11:59240in MyMiddleware.run()
LOG: Accepted client: /10.0.0.7:60584in MyMiddleware.run()
LOG: Accepted client: /10.0.0.7:60604in MyMiddleware.run()
LOG: Accepted client: /10.0.0.7:60618in MyMiddleware.run()
LOG: Accepted client: /10.0.0.7:60594in MyMiddleware.run()
LOG: Accepted client: /10.0.0.7:60614in MyMiddleware.run()
LOG: Accepted client: /10.0.0.7:60624in MyMiddleware.run()
LOG: Accepted client: /10.0.0.7:60628in MyMiddleware.run()
LOG: Accepted client: /10.0.0.7:60578in MyMiddleware.run()
LOG: Accepted client: /10.0.0.7:60626in MyMiddleware.run()
LOG: Accepted client: /10.0.0.7:60588in MyMiddleware.run()
LOG: Accepted client: /10.0.0.11:59216in MyMiddleware.run()
LOG: Accepted client: /10.0.0.11:59218in MyMiddleware.run()
LOG: Accepted client: /10.0.0.7:60590in MyMiddleware.run()
LOG: Accepted client: /10.0.0.7:60600in MyMiddleware.run()
LOG: Accepted client: /10.0.0.7:60620in MyMiddleware.run()
LOG: Accepted client: /10.0.0.7:60602in MyMiddleware.run()
LOG: Accepted client: /10.0.0.7:60622in MyMiddleware.run()
LOG: Accepted client: /10.0.0.7:60610in MyMiddleware.run()
LOG: Accepted client: /10.0.0.7:60566in MyMiddleware.run()
LOG: Accepted client: /10.0.0.7:60598in MyMiddleware.run()
LOG: Accepted client: /10.0.0.7:60570in MyMiddleware.run()
LOG: Accepted client: /10.0.0.7:60596in MyMiddleware.run()
LOG: Accepted client: /10.0.0.7:60608in MyMiddleware.run()
LOG: Accepted client: /10.0.0.7:60568in MyMiddleware.run()
LOG: Closed client: /10.0.0.6:38706in MyMiddleware.run()
LOG: Closed client: /10.0.0.6:38724in MyMiddleware.run()
LOG: Closed client: /10.0.0.6:38808in MyMiddleware.run()
LOG: Closed client: /10.0.0.6:38810in MyMiddleware.run()
LOG: Closed client: /10.0.0.6:38736in MyMiddleware.run()
LOG: Closed client: /10.0.0.6:38796in MyMiddleware.run()
LOG: Closed client: /10.0.0.6:38822in MyMiddleware.run()
LOG: Closed client: /10.0.0.6:38806in MyMiddleware.run()
LOG: Closed client: /10.0.0.6:38728in MyMiddleware.run()
LOG: Closed client: /10.0.0.6:38794in MyMiddleware.run()
LOG: Closed client: /10.0.0.6:38818in MyMiddleware.run()
LOG: Closed client: /10.0.0.6:38712in MyMiddleware.run()
LOG: Closed client: /10.0.0.6:38720in MyMiddleware.run()
LOG: Closed client: /10.0.0.6:38792in MyMiddleware.run()
LOG: Closed client: /10.0.0.6:38732in MyMiddleware.run()
LOG: Closed client: /10.0.0.6:38740in MyMiddleware.run()
LOG: Closed client: /10.0.0.6:38790in MyMiddleware.run()
LOG: Closed client: /10.0.0.6:38820in MyMiddleware.run()
LOG: Closed client: /10.0.0.6:38824in MyMiddleware.run()
LOG: Closed client: /10.0.0.6:38828in MyMiddleware.run()
LOG: Closed client: /10.0.0.6:38812in MyMiddleware.run()
LOG: Closed client: /10.0.0.6:38716in MyMiddleware.run()
LOG: Closed client: /10.0.0.6:38826in MyMiddleware.run()
LOG: Closed client: /10.0.0.6:38814in MyMiddleware.run()
LOG: Closed client: /10.0.0.6:38832in MyMiddleware.run()
LOG: Closed client: /10.0.0.6:38830in MyMiddleware.run()
LOG: Closed client: /10.0.0.6:38802in MyMiddleware.run()
LOG: Closed client: /10.0.0.6:38800in MyMiddleware.run()
LOG: Closed client: /10.0.0.6:38804in MyMiddleware.run()
LOG: Closed client: /10.0.0.6:38788in MyMiddleware.run()
LOG: Closed client: /10.0.0.6:38798in MyMiddleware.run()
LOG: Closed client: /10.0.0.6:38816in MyMiddleware.run()
LOG: Closed client: /10.0.0.11:59192in MyMiddleware.run()
LOG: Closed client: /10.0.0.11:59190in MyMiddleware.run()
LOG: Closed client: /10.0.0.11:59194in MyMiddleware.run()
LOG: Closed client: /10.0.0.11:59184in MyMiddleware.run()
LOG: Closed client: /10.0.0.11:59186in MyMiddleware.run()
LOG: Closed client: /10.0.0.11:59178in MyMiddleware.run()
LOG: Closed client: /10.0.0.11:59180in MyMiddleware.run()
LOG: Closed client: /10.0.0.11:59188in MyMiddleware.run()
LOG: Closed client: /10.0.0.11:59182in MyMiddleware.run()
LOG: Closed client: /10.0.0.11:59196in MyMiddleware.run()
LOG: Closed client: /10.0.0.11:59232in MyMiddleware.run()
LOG: Closed client: /10.0.0.11:59204in MyMiddleware.run()
LOG: Closed client: /10.0.0.11:59224in MyMiddleware.run()
LOG: Closed client: /10.0.0.11:59234in MyMiddleware.run()
LOG: Closed client: /10.0.0.11:59238in MyMiddleware.run()
LOG: Closed client: /10.0.0.11:59218in MyMiddleware.run()
LOG: Closed client: /10.0.0.11:59228in MyMiddleware.run()
LOG: Closed client: /10.0.0.11:59214in MyMiddleware.run()
LOG: Closed client: /10.0.0.11:59220in MyMiddleware.run()
LOG: Closed client: /10.0.0.11:59212in MyMiddleware.run()
LOG: Closed client: /10.0.0.11:59226in MyMiddleware.run()
LOG: Closed client: /10.0.0.11:59198in MyMiddleware.run()
LOG: Closed client: /10.0.0.11:59202in MyMiddleware.run()
LOG: Closed client: /10.0.0.11:59208in MyMiddleware.run()
LOG: Closed client: /10.0.0.11:59210in MyMiddleware.run()
LOG: Closed client: /10.0.0.11:59230in MyMiddleware.run()
LOG: Closed client: /10.0.0.11:59200in MyMiddleware.run()
LOG: Closed client: /10.0.0.11:59236in MyMiddleware.run()
LOG: Closed client: /10.0.0.11:59216in MyMiddleware.run()
LOG: Closed client: /10.0.0.11:59206in MyMiddleware.run()
LOG: Closed client: /10.0.0.11:59222in MyMiddleware.run()
LOG: Closed client: /10.0.0.11:59240in MyMiddleware.run()
LOG: Closed client: /10.0.0.7:60574in MyMiddleware.run()
LOG: Closed client: /10.0.0.7:60572in MyMiddleware.run()
LOG: Closed client: /10.0.0.7:60594in MyMiddleware.run()
LOG: Closed client: /10.0.0.7:60582in MyMiddleware.run()
LOG: Closed client: /10.0.0.7:60592in MyMiddleware.run()
LOG: Closed client: /10.0.0.7:60586in MyMiddleware.run()
LOG: Closed client: /10.0.0.7:60610in MyMiddleware.run()
LOG: Closed client: /10.0.0.7:60604in MyMiddleware.run()
LOG: Closed client: /10.0.0.7:60566in MyMiddleware.run()
LOG: Closed client: /10.0.0.7:60578in MyMiddleware.run()
LOG: Closed client: /10.0.0.7:60612in MyMiddleware.run()
LOG: Closed client: /10.0.0.7:60568in MyMiddleware.run()
LOG: Closed client: /10.0.0.7:60602in MyMiddleware.run()
LOG: Closed client: /10.0.0.7:60584in MyMiddleware.run()
LOG: Closed client: /10.0.0.7:60590in MyMiddleware.run()
LOG: Closed client: /10.0.0.7:60598in MyMiddleware.run()
LOG: Closed client: /10.0.0.7:60596in MyMiddleware.run()
LOG: Closed client: /10.0.0.7:60580in MyMiddleware.run()
LOG: Closed client: /10.0.0.7:60620in MyMiddleware.run()
LOG: Closed client: /10.0.0.7:60622in MyMiddleware.run()
LOG: Closed client: /10.0.0.7:60588in MyMiddleware.run()
LOG: Closed client: /10.0.0.7:60570in MyMiddleware.run()
LOG: Closed client: /10.0.0.7:60600in MyMiddleware.run()
LOG: Closed client: /10.0.0.7:60576in MyMiddleware.run()
LOG: Closed client: /10.0.0.7:60608in MyMiddleware.run()
LOG: Closed client: /10.0.0.7:60626in MyMiddleware.run()
LOG: Closed client: /10.0.0.7:60616in MyMiddleware.run()
LOG: Closed client: /10.0.0.7:60628in MyMiddleware.run()
LOG: Closed client: /10.0.0.7:60624in MyMiddleware.run()
LOG: Closed client: /10.0.0.7:60614in MyMiddleware.run()
LOG: Closed client: /10.0.0.7:60618in MyMiddleware.run()
LOG: Closed client: /10.0.0.7:60606in MyMiddleware.run()
