------------Middleware started!------------
LOG: Waiting for connection in MyMiddleware.run()
LOG: Accepted client: /10.0.0.7:54376in MyMiddleware.run()
LOG: Accepted client: /10.0.0.7:54378in MyMiddleware.run()
LOG: Accepted client: /10.0.0.7:54374in MyMiddleware.run()
LOG: Accepted client: /10.0.0.7:54382in MyMiddleware.run()
LOG: Accepted client: /10.0.0.7:54372in MyMiddleware.run()
LOG: Accepted client: /10.0.0.7:54380in MyMiddleware.run()
LOG: Accepted client: /10.0.0.7:54368in MyMiddleware.run()
LOG: Accepted client: /10.0.0.7:54370in MyMiddleware.run()
LOG: Accepted client: /10.0.0.11:53036in MyMiddleware.run()
LOG: Accepted client: /10.0.0.11:53016in MyMiddleware.run()
LOG: Accepted client: /10.0.0.11:53024in MyMiddleware.run()
LOG: Accepted client: /10.0.0.11:53032in MyMiddleware.run()
LOG: Accepted client: /10.0.0.11:53014in MyMiddleware.run()
LOG: Accepted client: /10.0.0.11:53028in MyMiddleware.run()
LOG: Accepted client: /10.0.0.11:53020in MyMiddleware.run()
LOG: Accepted client: /10.0.0.11:53010in MyMiddleware.run()
LOG: Accepted client: /10.0.0.6:60822in MyMiddleware.run()
LOG: Accepted client: /10.0.0.6:60820in MyMiddleware.run()
LOG: Accepted client: /10.0.0.6:60816in MyMiddleware.run()
LOG: Accepted client: /10.0.0.6:60818in MyMiddleware.run()
LOG: Accepted client: /10.0.0.6:60830in MyMiddleware.run()
LOG: Accepted client: /10.0.0.6:60828in MyMiddleware.run()
LOG: Accepted client: /10.0.0.6:60824in MyMiddleware.run()
LOG: Accepted client: /10.0.0.6:60826in MyMiddleware.run()
LOG: Closed client: /10.0.0.11:53028in MyMiddleware.run()
LOG: Closed client: /10.0.0.11:53032in MyMiddleware.run()
LOG: Closed client: /10.0.0.11:53024in MyMiddleware.run()
LOG: Closed client: /10.0.0.11:53016in MyMiddleware.run()
LOG: Closed client: /10.0.0.11:53014in MyMiddleware.run()
LOG: Closed client: /10.0.0.11:53010in MyMiddleware.run()
LOG: Closed client: /10.0.0.11:53036in MyMiddleware.run()
LOG: Closed client: /10.0.0.11:53020in MyMiddleware.run()
LOG: Closed client: /10.0.0.7:54382in MyMiddleware.run()
LOG: Closed client: /10.0.0.7:54374in MyMiddleware.run()
LOG: Closed client: /10.0.0.7:54372in MyMiddleware.run()
LOG: Closed client: /10.0.0.7:54378in MyMiddleware.run()
LOG: Closed client: /10.0.0.7:54370in MyMiddleware.run()
LOG: Closed client: /10.0.0.7:54368in MyMiddleware.run()
LOG: Closed client: /10.0.0.7:54380in MyMiddleware.run()
LOG: Closed client: /10.0.0.7:54376in MyMiddleware.run()
LOG: Closed client: /10.0.0.6:60818in MyMiddleware.run()
LOG: Closed client: /10.0.0.6:60830in MyMiddleware.run()
LOG: Closed client: /10.0.0.6:60828in MyMiddleware.run()
LOG: Closed client: /10.0.0.6:60816in MyMiddleware.run()
LOG: Closed client: /10.0.0.6:60824in MyMiddleware.run()
LOG: Closed client: /10.0.0.6:60820in MyMiddleware.run()
LOG: Closed client: /10.0.0.6:60826in MyMiddleware.run()
LOG: Closed client: /10.0.0.6:60822in MyMiddleware.run()
