------------Middleware started!------------
LOG: Waiting for connection in MyMiddleware.run()
LOG: Accepted client: /10.0.0.7:59796in MyMiddleware.run()
LOG: Accepted client: /10.0.0.7:59754in MyMiddleware.run()
LOG: Accepted client: /10.0.0.7:59760in MyMiddleware.run()
LOG: Accepted client: /10.0.0.7:59748in MyMiddleware.run()
LOG: Accepted client: /10.0.0.7:59736in MyMiddleware.run()
LOG: Accepted client: /10.0.0.7:59776in MyMiddleware.run()
LOG: Accepted client: /10.0.0.7:59752in MyMiddleware.run()
LOG: Accepted client: /10.0.0.7:59764in MyMiddleware.run()
LOG: Accepted client: /10.0.0.7:59740in MyMiddleware.run()
LOG: Accepted client: /10.0.0.7:59770in MyMiddleware.run()
LOG: Accepted client: /10.0.0.7:59756in MyMiddleware.run()
LOG: Accepted client: /10.0.0.7:59734in MyMiddleware.run()
LOG: Accepted client: /10.0.0.7:59772in MyMiddleware.run()
LOG: Accepted client: /10.0.0.7:59774in MyMiddleware.run()
LOG: Accepted client: /10.0.0.7:59768in MyMiddleware.run()
LOG: Accepted client: /10.0.0.7:59780in MyMiddleware.run()
LOG: Accepted client: /10.0.0.7:59762in MyMiddleware.run()
LOG: Accepted client: /10.0.0.7:59750in MyMiddleware.run()
LOG: Accepted client: /10.0.0.7:59766in MyMiddleware.run()
LOG: Accepted client: /10.0.0.7:59758in MyMiddleware.run()
LOG: Accepted client: /10.0.0.7:59742in MyMiddleware.run()
LOG: Accepted client: /10.0.0.7:59738in MyMiddleware.run()
LOG: Accepted client: /10.0.0.7:59782in MyMiddleware.run()
LOG: Accepted client: /10.0.0.7:59794in MyMiddleware.run()
LOG: Accepted client: /10.0.0.7:59744in MyMiddleware.run()
LOG: Accepted client: /10.0.0.7:59746in MyMiddleware.run()
LOG: Accepted client: /10.0.0.7:59786in MyMiddleware.run()
LOG: Accepted client: /10.0.0.7:59784in MyMiddleware.run()
LOG: Accepted client: /10.0.0.7:59792in MyMiddleware.run()
LOG: Accepted client: /10.0.0.7:59790in MyMiddleware.run()
LOG: Accepted client: /10.0.0.7:59788in MyMiddleware.run()
LOG: Accepted client: /10.0.0.7:59778in MyMiddleware.run()
LOG: Accepted client: /10.0.0.11:58334in MyMiddleware.run()
LOG: Accepted client: /10.0.0.11:58318in MyMiddleware.run()
LOG: Accepted client: /10.0.0.11:58322in MyMiddleware.run()
LOG: Accepted client: /10.0.0.11:58314in MyMiddleware.run()
LOG: Accepted client: /10.0.0.11:58316in MyMiddleware.run()
LOG: Accepted client: /10.0.0.11:58344in MyMiddleware.run()
LOG: Accepted client: /10.0.0.11:58360in MyMiddleware.run()
LOG: Accepted client: /10.0.0.11:58324in MyMiddleware.run()
LOG: Accepted client: /10.0.0.11:58328in MyMiddleware.run()
LOG: Accepted client: /10.0.0.11:58332in MyMiddleware.run()
LOG: Accepted client: /10.0.0.11:58372in MyMiddleware.run()
LOG: Accepted client: /10.0.0.11:58330in MyMiddleware.run()
LOG: Accepted client: /10.0.0.11:58350in MyMiddleware.run()
LOG: Accepted client: /10.0.0.11:58342in MyMiddleware.run()
LOG: Accepted client: /10.0.0.11:58346in MyMiddleware.run()
LOG: Accepted client: /10.0.0.11:58356in MyMiddleware.run()
LOG: Accepted client: /10.0.0.11:58368in MyMiddleware.run()
LOG: Accepted client: /10.0.0.11:58354in MyMiddleware.run()
LOG: Accepted client: /10.0.0.11:58358in MyMiddleware.run()
LOG: Accepted client: /10.0.0.11:58320in MyMiddleware.run()
LOG: Accepted client: /10.0.0.11:58352in MyMiddleware.run()
LOG: Accepted client: /10.0.0.6:38020in MyMiddleware.run()
LOG: Accepted client: /10.0.0.6:38030in MyMiddleware.run()
LOG: Accepted client: /10.0.0.6:38040in MyMiddleware.run()
LOG: Accepted client: /10.0.0.6:38010in MyMiddleware.run()
LOG: Accepted client: /10.0.0.6:38036in MyMiddleware.run()
LOG: Accepted client: /10.0.0.11:58370in MyMiddleware.run()
LOG: Accepted client: /10.0.0.11:58348in MyMiddleware.run()
LOG: Accepted client: /10.0.0.11:58374in MyMiddleware.run()
LOG: Accepted client: /10.0.0.11:58340in MyMiddleware.run()
LOG: Accepted client: /10.0.0.11:58326in MyMiddleware.run()
LOG: Accepted client: /10.0.0.11:58362in MyMiddleware.run()
LOG: Accepted client: /10.0.0.11:58364in MyMiddleware.run()
LOG: Accepted client: /10.0.0.11:58366in MyMiddleware.run()
LOG: Accepted client: /10.0.0.11:58336in MyMiddleware.run()
LOG: Accepted client: /10.0.0.11:58338in MyMiddleware.run()
LOG: Accepted client: /10.0.0.11:58376in MyMiddleware.run()
LOG: Accepted client: /10.0.0.6:38012in MyMiddleware.run()
LOG: Accepted client: /10.0.0.6:38028in MyMiddleware.run()
LOG: Accepted client: /10.0.0.6:38014in MyMiddleware.run()
LOG: Accepted client: /10.0.0.6:38038in MyMiddleware.run()
LOG: Accepted client: /10.0.0.6:38058in MyMiddleware.run()
LOG: Accepted client: /10.0.0.6:38024in MyMiddleware.run()
LOG: Accepted client: /10.0.0.6:38032in MyMiddleware.run()
LOG: Accepted client: /10.0.0.6:38048in MyMiddleware.run()
LOG: Accepted client: /10.0.0.6:38050in MyMiddleware.run()
LOG: Accepted client: /10.0.0.6:38022in MyMiddleware.run()
LOG: Accepted client: /10.0.0.6:38052in MyMiddleware.run()
LOG: Accepted client: /10.0.0.6:38008in MyMiddleware.run()
LOG: Accepted client: /10.0.0.6:38042in MyMiddleware.run()
LOG: Accepted client: /10.0.0.6:38026in MyMiddleware.run()
LOG: Accepted client: /10.0.0.6:38056in MyMiddleware.run()
LOG: Accepted client: /10.0.0.6:38054in MyMiddleware.run()
LOG: Accepted client: /10.0.0.6:38064in MyMiddleware.run()
LOG: Accepted client: /10.0.0.6:38004in MyMiddleware.run()
LOG: Accepted client: /10.0.0.6:38044in MyMiddleware.run()
LOG: Accepted client: /10.0.0.6:38066in MyMiddleware.run()
LOG: Accepted client: /10.0.0.6:38006in MyMiddleware.run()
LOG: Accepted client: /10.0.0.6:38046in MyMiddleware.run()
LOG: Accepted client: /10.0.0.6:38062in MyMiddleware.run()
LOG: Accepted client: /10.0.0.6:38034in MyMiddleware.run()
LOG: Accepted client: /10.0.0.6:38018in MyMiddleware.run()
LOG: Accepted client: /10.0.0.6:38016in MyMiddleware.run()
LOG: Accepted client: /10.0.0.6:38060in MyMiddleware.run()
LOG: Closed client: /10.0.0.7:59734in MyMiddleware.run()
LOG: Closed client: /10.0.0.7:59746in MyMiddleware.run()
LOG: Closed client: /10.0.0.7:59750in MyMiddleware.run()
LOG: Closed client: /10.0.0.7:59738in MyMiddleware.run()
LOG: Closed client: /10.0.0.7:59774in MyMiddleware.run()
LOG: Closed client: /10.0.0.11:58314in MyMiddleware.run()
LOG: Closed client: /10.0.0.11:58324in MyMiddleware.run()
LOG: Closed client: /10.0.0.7:59764in MyMiddleware.run()
LOG: Closed client: /10.0.0.11:58318in MyMiddleware.run()
LOG: Closed client: /10.0.0.11:58362in MyMiddleware.run()
LOG: Closed client: /10.0.0.7:59736in MyMiddleware.run()
LOG: Closed client: /10.0.0.11:58322in MyMiddleware.run()
LOG: Closed client: /10.0.0.11:58372in MyMiddleware.run()
LOG: Closed client: /10.0.0.7:59766in MyMiddleware.run()
LOG: Closed client: /10.0.0.11:58336in MyMiddleware.run()
LOG: Closed client: /10.0.0.11:58330in MyMiddleware.run()
LOG: Closed client: /10.0.0.11:58326in MyMiddleware.run()
LOG: Closed client: /10.0.0.11:58356in MyMiddleware.run()
LOG: Closed client: /10.0.0.11:58316in MyMiddleware.run()
LOG: Closed client: /10.0.0.11:58328in MyMiddleware.run()
LOG: Closed client: /10.0.0.7:59778in MyMiddleware.run()
LOG: Closed client: /10.0.0.7:59788in MyMiddleware.run()
LOG: Closed client: /10.0.0.11:58342in MyMiddleware.run()
LOG: Closed client: /10.0.0.7:59760in MyMiddleware.run()
LOG: Closed client: /10.0.0.11:58360in MyMiddleware.run()
LOG: Closed client: /10.0.0.7:59754in MyMiddleware.run()
LOG: Closed client: /10.0.0.7:59790in MyMiddleware.run()
LOG: Closed client: /10.0.0.11:58344in MyMiddleware.run()
LOG: Closed client: /10.0.0.7:59776in MyMiddleware.run()
LOG: Closed client: /10.0.0.7:59768in MyMiddleware.run()
LOG: Closed client: /10.0.0.11:58364in MyMiddleware.run()
LOG: Closed client: /10.0.0.11:58338in MyMiddleware.run()
LOG: Closed client: /10.0.0.7:59756in MyMiddleware.run()
LOG: Closed client: /10.0.0.7:59752in MyMiddleware.run()
LOG: Closed client: /10.0.0.11:58320in MyMiddleware.run()
LOG: Closed client: /10.0.0.7:59784in MyMiddleware.run()
LOG: Closed client: /10.0.0.7:59796in MyMiddleware.run()
LOG: Closed client: /10.0.0.7:59786in MyMiddleware.run()
LOG: Closed client: /10.0.0.11:58366in MyMiddleware.run()
LOG: Closed client: /10.0.0.11:58376in MyMiddleware.run()
LOG: Closed client: /10.0.0.7:59772in MyMiddleware.run()
LOG: Closed client: /10.0.0.11:58340in MyMiddleware.run()
LOG: Closed client: /10.0.0.7:59794in MyMiddleware.run()
LOG: Closed client: /10.0.0.11:58348in MyMiddleware.run()
LOG: Closed client: /10.0.0.11:58350in MyMiddleware.run()
LOG: Closed client: /10.0.0.7:59762in MyMiddleware.run()
LOG: Closed client: /10.0.0.7:59770in MyMiddleware.run()
LOG: Closed client: /10.0.0.7:59740in MyMiddleware.run()
LOG: Closed client: /10.0.0.7:59742in MyMiddleware.run()
LOG: Closed client: /10.0.0.7:59748in MyMiddleware.run()
LOG: Closed client: /10.0.0.7:59744in MyMiddleware.run()
LOG: Closed client: /10.0.0.11:58374in MyMiddleware.run()
LOG: Closed client: /10.0.0.11:58370in MyMiddleware.run()
LOG: Closed client: /10.0.0.7:59792in MyMiddleware.run()
LOG: Closed client: /10.0.0.11:58346in MyMiddleware.run()
LOG: Closed client: /10.0.0.11:58358in MyMiddleware.run()
LOG: Closed client: /10.0.0.11:58368in MyMiddleware.run()
LOG: Closed client: /10.0.0.11:58352in MyMiddleware.run()
LOG: Closed client: /10.0.0.7:59758in MyMiddleware.run()
LOG: Closed client: /10.0.0.11:58354in MyMiddleware.run()
LOG: Closed client: /10.0.0.7:59782in MyMiddleware.run()
LOG: Closed client: /10.0.0.7:59780in MyMiddleware.run()
LOG: Closed client: /10.0.0.11:58332in MyMiddleware.run()
LOG: Closed client: /10.0.0.11:58334in MyMiddleware.run()
LOG: Closed client: /10.0.0.6:38012in MyMiddleware.run()
LOG: Closed client: /10.0.0.6:38004in MyMiddleware.run()
LOG: Closed client: /10.0.0.6:38018in MyMiddleware.run()
LOG: Closed client: /10.0.0.6:38026in MyMiddleware.run()
LOG: Closed client: /10.0.0.6:38060in MyMiddleware.run()
LOG: Closed client: /10.0.0.6:38042in MyMiddleware.run()
LOG: Closed client: /10.0.0.6:38016in MyMiddleware.run()
LOG: Closed client: /10.0.0.6:38008in MyMiddleware.run()
LOG: Closed client: /10.0.0.6:38022in MyMiddleware.run()
LOG: Closed client: /10.0.0.6:38034in MyMiddleware.run()
LOG: Closed client: /10.0.0.6:38028in MyMiddleware.run()
LOG: Closed client: /10.0.0.6:38030in MyMiddleware.run()
LOG: Closed client: /10.0.0.6:38006in MyMiddleware.run()
LOG: Closed client: /10.0.0.6:38010in MyMiddleware.run()
LOG: Closed client: /10.0.0.6:38036in MyMiddleware.run()
LOG: Closed client: /10.0.0.6:38032in MyMiddleware.run()
LOG: Closed client: /10.0.0.6:38058in MyMiddleware.run()
LOG: Closed client: /10.0.0.6:38052in MyMiddleware.run()
LOG: Closed client: /10.0.0.6:38044in MyMiddleware.run()
LOG: Closed client: /10.0.0.6:38050in MyMiddleware.run()
LOG: Closed client: /10.0.0.6:38066in MyMiddleware.run()
LOG: Closed client: /10.0.0.6:38064in MyMiddleware.run()
LOG: Closed client: /10.0.0.6:38024in MyMiddleware.run()
LOG: Closed client: /10.0.0.6:38040in MyMiddleware.run()
LOG: Closed client: /10.0.0.6:38014in MyMiddleware.run()
LOG: Closed client: /10.0.0.6:38038in MyMiddleware.run()
LOG: Closed client: /10.0.0.6:38054in MyMiddleware.run()
LOG: Closed client: /10.0.0.6:38062in MyMiddleware.run()
LOG: Closed client: /10.0.0.6:38046in MyMiddleware.run()
LOG: Closed client: /10.0.0.6:38048in MyMiddleware.run()
LOG: Closed client: /10.0.0.6:38020in MyMiddleware.run()
LOG: Closed client: /10.0.0.6:38056in MyMiddleware.run()
