------------Middleware started!------------
LOG: Waiting for connection in MyMiddleware.run()
LOG: Accepted client: /10.0.0.11:33826in MyMiddleware.run()
LOG: Accepted client: /10.0.0.11:33828in MyMiddleware.run()
LOG: Accepted client: /10.0.0.11:33830in MyMiddleware.run()
LOG: Accepted client: /10.0.0.11:33832in MyMiddleware.run()
LOG: Accepted client: /10.0.0.7:35224in MyMiddleware.run()
LOG: Accepted client: /10.0.0.7:35226in MyMiddleware.run()
LOG: Accepted client: /10.0.0.7:35228in MyMiddleware.run()
LOG: Accepted client: /10.0.0.6:41662in MyMiddleware.run()
LOG: Accepted client: /10.0.0.6:41660in MyMiddleware.run()
LOG: Accepted client: /10.0.0.6:41664in MyMiddleware.run()
LOG: Accepted client: /10.0.0.6:41666in MyMiddleware.run()
LOG: Accepted client: /10.0.0.7:35222in MyMiddleware.run()
LOG: Closed client: /10.0.0.6:41662in MyMiddleware.run()
LOG: Closed client: /10.0.0.6:41660in MyMiddleware.run()
LOG: Closed client: /10.0.0.6:41664in MyMiddleware.run()
LOG: Closed client: /10.0.0.6:41666in MyMiddleware.run()
LOG: Closed client: /10.0.0.7:35222in MyMiddleware.run()
LOG: Closed client: /10.0.0.7:35226in MyMiddleware.run()
LOG: Closed client: /10.0.0.7:35224in MyMiddleware.run()
LOG: Closed client: /10.0.0.7:35228in MyMiddleware.run()
LOG: Closed client: /10.0.0.11:33832in MyMiddleware.run()
LOG: Closed client: /10.0.0.11:33826in MyMiddleware.run()
LOG: Closed client: /10.0.0.11:33830in MyMiddleware.run()
LOG: Closed client: /10.0.0.11:33828in MyMiddleware.run()
