------------Middleware started!------------
LOG: Waiting for connection in MyMiddleware.run()
LOG: Accepted client: /10.0.0.11:56774in MyMiddleware.run()
LOG: Accepted client: /10.0.0.11:56796in MyMiddleware.run()
LOG: Accepted client: /10.0.0.11:56792in MyMiddleware.run()
LOG: Accepted client: /10.0.0.11:56770in MyMiddleware.run()
LOG: Accepted client: /10.0.0.11:56786in MyMiddleware.run()
LOG: Accepted client: /10.0.0.11:56784in MyMiddleware.run()
LOG: Accepted client: /10.0.0.11:56794in MyMiddleware.run()
LOG: Accepted client: /10.0.0.11:56798in MyMiddleware.run()
LOG: Accepted client: /10.0.0.11:56782in MyMiddleware.run()
LOG: Accepted client: /10.0.0.11:56772in MyMiddleware.run()
LOG: Accepted client: /10.0.0.11:56780in MyMiddleware.run()
LOG: Accepted client: /10.0.0.11:56800in MyMiddleware.run()
LOG: Accepted client: /10.0.0.7:58174in MyMiddleware.run()
LOG: Accepted client: /10.0.0.11:56776in MyMiddleware.run()
LOG: Accepted client: /10.0.0.11:56778in MyMiddleware.run()
LOG: Accepted client: /10.0.0.11:56788in MyMiddleware.run()
LOG: Accepted client: /10.0.0.11:56790in MyMiddleware.run()
LOG: Accepted client: /10.0.0.7:58218in MyMiddleware.run()
LOG: Accepted client: /10.0.0.7:58194in MyMiddleware.run()
LOG: Accepted client: /10.0.0.7:58216in MyMiddleware.run()
LOG: Accepted client: /10.0.0.7:58190in MyMiddleware.run()
LOG: Accepted client: /10.0.0.7:58186in MyMiddleware.run()
LOG: Accepted client: /10.0.0.7:58168in MyMiddleware.run()
LOG: Accepted client: /10.0.0.7:58220in MyMiddleware.run()
LOG: Accepted client: /10.0.0.7:58198in MyMiddleware.run()
LOG: Accepted client: /10.0.0.6:36376in MyMiddleware.run()
LOG: Accepted client: /10.0.0.6:36378in MyMiddleware.run()
LOG: Accepted client: /10.0.0.6:36380in MyMiddleware.run()
LOG: Accepted client: /10.0.0.6:36382in MyMiddleware.run()
LOG: Accepted client: /10.0.0.7:58182in MyMiddleware.run()
LOG: Accepted client: /10.0.0.7:58202in MyMiddleware.run()
LOG: Accepted client: /10.0.0.7:58206in MyMiddleware.run()
LOG: Accepted client: /10.0.0.7:58212in MyMiddleware.run()
LOG: Accepted client: /10.0.0.7:58214in MyMiddleware.run()
LOG: Accepted client: /10.0.0.6:36384in MyMiddleware.run()
LOG: Accepted client: /10.0.0.6:36386in MyMiddleware.run()
LOG: Accepted client: /10.0.0.7:58210in MyMiddleware.run()
LOG: Accepted client: /10.0.0.7:58178in MyMiddleware.run()
LOG: Accepted client: /10.0.0.6:36388in MyMiddleware.run()
LOG: Accepted client: /10.0.0.6:36390in MyMiddleware.run()
LOG: Accepted client: /10.0.0.6:36372in MyMiddleware.run()
LOG: Accepted client: /10.0.0.6:36394in MyMiddleware.run()
LOG: Accepted client: /10.0.0.6:36400in MyMiddleware.run()
LOG: Accepted client: /10.0.0.6:36392in MyMiddleware.run()
LOG: Accepted client: /10.0.0.6:36402in MyMiddleware.run()
LOG: Accepted client: /10.0.0.6:36374in MyMiddleware.run()
LOG: Accepted client: /10.0.0.6:36398in MyMiddleware.run()
LOG: Accepted client: /10.0.0.6:36396in MyMiddleware.run()
LOG: Closed client: /10.0.0.6:36374in MyMiddleware.run()
LOG: Closed client: /10.0.0.6:36372in MyMiddleware.run()
LOG: Closed client: /10.0.0.11:56792in MyMiddleware.run()
LOG: Closed client: /10.0.0.11:56786in MyMiddleware.run()
LOG: Closed client: /10.0.0.6:36392in MyMiddleware.run()
LOG: Closed client: /10.0.0.11:56772in MyMiddleware.run()
LOG: Closed client: /10.0.0.6:36394in MyMiddleware.run()
LOG: Closed client: /10.0.0.6:36380in MyMiddleware.run()
LOG: Closed client: /10.0.0.11:56784in MyMiddleware.run()
LOG: Closed client: /10.0.0.11:56774in MyMiddleware.run()
LOG: Closed client: /10.0.0.6:36376in MyMiddleware.run()
LOG: Closed client: /10.0.0.11:56770in MyMiddleware.run()
LOG: Closed client: /10.0.0.6:36388in MyMiddleware.run()
LOG: Closed client: /10.0.0.11:56800in MyMiddleware.run()
LOG: Closed client: /10.0.0.6:36384in MyMiddleware.run()
LOG: Closed client: /10.0.0.6:36400in MyMiddleware.run()
LOG: Closed client: /10.0.0.11:56780in MyMiddleware.run()
LOG: Closed client: /10.0.0.6:36386in MyMiddleware.run()
LOG: Closed client: /10.0.0.6:36382in MyMiddleware.run()
LOG: Closed client: /10.0.0.6:36402in MyMiddleware.run()
LOG: Closed client: /10.0.0.6:36396in MyMiddleware.run()
LOG: Closed client: /10.0.0.11:56776in MyMiddleware.run()
LOG: Closed client: /10.0.0.6:36398in MyMiddleware.run()
LOG: Closed client: /10.0.0.6:36390in MyMiddleware.run()
LOG: Closed client: /10.0.0.11:56796in MyMiddleware.run()
LOG: Closed client: /10.0.0.11:56788in MyMiddleware.run()
LOG: Closed client: /10.0.0.11:56798in MyMiddleware.run()
LOG: Closed client: /10.0.0.11:56794in MyMiddleware.run()
LOG: Closed client: /10.0.0.11:56782in MyMiddleware.run()
LOG: Closed client: /10.0.0.11:56778in MyMiddleware.run()
LOG: Closed client: /10.0.0.6:36378in MyMiddleware.run()
LOG: Closed client: /10.0.0.11:56790in MyMiddleware.run()
LOG: Closed client: /10.0.0.7:58190in MyMiddleware.run()
LOG: Closed client: /10.0.0.7:58182in MyMiddleware.run()
LOG: Closed client: /10.0.0.7:58178in MyMiddleware.run()
LOG: Closed client: /10.0.0.7:58216in MyMiddleware.run()
LOG: Closed client: /10.0.0.7:58210in MyMiddleware.run()
LOG: Closed client: /10.0.0.7:58202in MyMiddleware.run()
LOG: Closed client: /10.0.0.7:58212in MyMiddleware.run()
LOG: Closed client: /10.0.0.7:58168in MyMiddleware.run()
LOG: Closed client: /10.0.0.7:58206in MyMiddleware.run()
LOG: Closed client: /10.0.0.7:58218in MyMiddleware.run()
LOG: Closed client: /10.0.0.7:58214in MyMiddleware.run()
LOG: Closed client: /10.0.0.7:58174in MyMiddleware.run()
LOG: Closed client: /10.0.0.7:58220in MyMiddleware.run()
LOG: Closed client: /10.0.0.7:58198in MyMiddleware.run()
LOG: Closed client: /10.0.0.7:58186in MyMiddleware.run()
LOG: Closed client: /10.0.0.7:58194in MyMiddleware.run()
