------------Middleware started!------------
LOG: Waiting for connection in MyMiddleware.run()
LOG: Accepted client: /10.0.0.6:41974in MyMiddleware.run()
LOG: Accepted client: /10.0.0.6:41972in MyMiddleware.run()
LOG: Accepted client: /10.0.0.6:41976in MyMiddleware.run()
LOG: Accepted client: /10.0.0.6:41978in MyMiddleware.run()
LOG: Accepted client: /10.0.0.7:35528in MyMiddleware.run()
LOG: Accepted client: /10.0.0.7:35530in MyMiddleware.run()
LOG: Accepted client: /10.0.0.7:35532in MyMiddleware.run()
LOG: Accepted client: /10.0.0.7:35526in MyMiddleware.run()
LOG: Accepted client: /10.0.0.11:34102in MyMiddleware.run()
LOG: Accepted client: /10.0.0.11:34100in MyMiddleware.run()
LOG: Accepted client: /10.0.0.11:34104in MyMiddleware.run()
LOG: Accepted client: /10.0.0.11:34098in MyMiddleware.run()
LOG: Closed client: /10.0.0.7:35530in MyMiddleware.run()
LOG: Closed client: /10.0.0.7:35532in MyMiddleware.run()
LOG: Closed client: /10.0.0.7:35528in MyMiddleware.run()
LOG: Closed client: /10.0.0.7:35526in MyMiddleware.run()
LOG: Closed client: /10.0.0.6:41976in MyMiddleware.run()
LOG: Closed client: /10.0.0.6:41978in MyMiddleware.run()
LOG: Closed client: /10.0.0.6:41972in MyMiddleware.run()
LOG: Closed client: /10.0.0.6:41974in MyMiddleware.run()
LOG: Closed client: /10.0.0.11:34104in MyMiddleware.run()
LOG: Closed client: /10.0.0.11:34100in MyMiddleware.run()
LOG: Closed client: /10.0.0.11:34098in MyMiddleware.run()
LOG: Closed client: /10.0.0.11:34102in MyMiddleware.run()
