------------Middleware started!------------
LOG: Waiting for connection in MyMiddleware.run()
LOG: Accepted client: /10.0.0.11:36384in MyMiddleware.run()
LOG: Accepted client: /10.0.0.11:36382in MyMiddleware.run()
LOG: Accepted client: /10.0.0.11:36378in MyMiddleware.run()
LOG: Accepted client: /10.0.0.11:36380in MyMiddleware.run()
LOG: Accepted client: /10.0.0.7:37808in MyMiddleware.run()
LOG: Accepted client: /10.0.0.7:37806in MyMiddleware.run()
LOG: Accepted client: /10.0.0.7:37810in MyMiddleware.run()
LOG: Accepted client: /10.0.0.7:37812in MyMiddleware.run()
LOG: Accepted client: /10.0.0.6:44268in MyMiddleware.run()
LOG: Accepted client: /10.0.0.6:44270in MyMiddleware.run()
LOG: Accepted client: /10.0.0.6:44272in MyMiddleware.run()
LOG: Accepted client: /10.0.0.6:44274in MyMiddleware.run()
LOG: Closed client: /10.0.0.11:36384in MyMiddleware.run()
LOG: Closed client: /10.0.0.11:36378in MyMiddleware.run()
LOG: Closed client: /10.0.0.11:36380in MyMiddleware.run()
LOG: Closed client: /10.0.0.11:36382in MyMiddleware.run()
LOG: Closed client: /10.0.0.7:37812in MyMiddleware.run()
LOG: Closed client: /10.0.0.7:37810in MyMiddleware.run()
LOG: Closed client: /10.0.0.7:37808in MyMiddleware.run()
LOG: Closed client: /10.0.0.6:44274in MyMiddleware.run()
LOG: Closed client: /10.0.0.6:44268in MyMiddleware.run()
LOG: Closed client: /10.0.0.6:44272in MyMiddleware.run()
LOG: Closed client: /10.0.0.7:37806in MyMiddleware.run()
LOG: Closed client: /10.0.0.6:44270in MyMiddleware.run()
