------------Middleware started!------------
LOG: Waiting for connection in MyMiddleware.run()
LOG: Accepted client: /10.0.0.11:38228in MyMiddleware.run()
LOG: Accepted client: /10.0.0.11:38222in MyMiddleware.run()
LOG: Accepted client: /10.0.0.11:38226in MyMiddleware.run()
LOG: Accepted client: /10.0.0.11:38214in MyMiddleware.run()
LOG: Accepted client: /10.0.0.11:38216in MyMiddleware.run()
LOG: Accepted client: /10.0.0.11:38220in MyMiddleware.run()
LOG: Accepted client: /10.0.0.11:38224in MyMiddleware.run()
LOG: Accepted client: /10.0.0.11:38218in MyMiddleware.run()
LOG: Accepted client: /10.0.0.7:39676in MyMiddleware.run()
LOG: Accepted client: /10.0.0.7:39680in MyMiddleware.run()
LOG: Accepted client: /10.0.0.7:39678in MyMiddleware.run()
LOG: Accepted client: /10.0.0.7:39674in MyMiddleware.run()
LOG: Accepted client: /10.0.0.7:39668in MyMiddleware.run()
LOG: Accepted client: /10.0.0.7:39666in MyMiddleware.run()
LOG: Accepted client: /10.0.0.7:39672in MyMiddleware.run()
LOG: Accepted client: /10.0.0.7:39670in MyMiddleware.run()
LOG: Accepted client: /10.0.0.6:46130in MyMiddleware.run()
LOG: Accepted client: /10.0.0.6:46134in MyMiddleware.run()
LOG: Accepted client: /10.0.0.6:46132in MyMiddleware.run()
LOG: Accepted client: /10.0.0.6:46120in MyMiddleware.run()
LOG: Accepted client: /10.0.0.6:46124in MyMiddleware.run()
LOG: Accepted client: /10.0.0.6:46122in MyMiddleware.run()
LOG: Accepted client: /10.0.0.6:46128in MyMiddleware.run()
LOG: Accepted client: /10.0.0.6:46126in MyMiddleware.run()
LOG: Closed client: /10.0.0.11:38214in MyMiddleware.run()
LOG: Closed client: /10.0.0.11:38216in MyMiddleware.run()
LOG: Closed client: /10.0.0.11:38228in MyMiddleware.run()
LOG: Closed client: /10.0.0.11:38218in MyMiddleware.run()
LOG: Closed client: /10.0.0.11:38220in MyMiddleware.run()
LOG: Closed client: /10.0.0.11:38222in MyMiddleware.run()
LOG: Closed client: /10.0.0.11:38226in MyMiddleware.run()
LOG: Closed client: /10.0.0.11:38224in MyMiddleware.run()
LOG: Closed client: /10.0.0.7:39670in MyMiddleware.run()
LOG: Closed client: /10.0.0.7:39668in MyMiddleware.run()
LOG: Closed client: /10.0.0.7:39674in MyMiddleware.run()
LOG: Closed client: /10.0.0.7:39680in MyMiddleware.run()
LOG: Closed client: /10.0.0.7:39672in MyMiddleware.run()
LOG: Closed client: /10.0.0.7:39678in MyMiddleware.run()
LOG: Closed client: /10.0.0.7:39676in MyMiddleware.run()
LOG: Closed client: /10.0.0.7:39666in MyMiddleware.run()
LOG: Closed client: /10.0.0.6:46130in MyMiddleware.run()
LOG: Closed client: /10.0.0.6:46124in MyMiddleware.run()
LOG: Closed client: /10.0.0.6:46134in MyMiddleware.run()
LOG: Closed client: /10.0.0.6:46122in MyMiddleware.run()
LOG: Closed client: /10.0.0.6:46128in MyMiddleware.run()
LOG: Closed client: /10.0.0.6:46132in MyMiddleware.run()
LOG: Closed client: /10.0.0.6:46120in MyMiddleware.run()
LOG: Closed client: /10.0.0.6:46126in MyMiddleware.run()
