------------Middleware started!------------
LOG: Waiting for connection in MyMiddleware.run()
LOG: Accepted client: /10.0.0.11:50862in MyMiddleware.run()
LOG: Accepted client: /10.0.0.11:50866in MyMiddleware.run()
LOG: Accepted client: /10.0.0.11:50864in MyMiddleware.run()
LOG: Accepted client: /10.0.0.11:50868in MyMiddleware.run()
LOG: Accepted client: /10.0.0.6:58732in MyMiddleware.run()
LOG: Accepted client: /10.0.0.6:58728in MyMiddleware.run()
LOG: Accepted client: /10.0.0.6:58730in MyMiddleware.run()
LOG: Accepted client: /10.0.0.6:58734in MyMiddleware.run()
LOG: Accepted client: /10.0.0.7:52284in MyMiddleware.run()
LOG: Accepted client: /10.0.0.7:52286in MyMiddleware.run()
LOG: Accepted client: /10.0.0.7:52288in MyMiddleware.run()
LOG: Accepted client: /10.0.0.7:52282in MyMiddleware.run()
LOG: Closed client: /10.0.0.11:50862in MyMiddleware.run()
LOG: Closed client: /10.0.0.11:50864in MyMiddleware.run()
LOG: Closed client: /10.0.0.11:50868in MyMiddleware.run()
LOG: Closed client: /10.0.0.11:50866in MyMiddleware.run()
LOG: Closed client: /10.0.0.6:58734in MyMiddleware.run()
LOG: Closed client: /10.0.0.6:58732in MyMiddleware.run()
LOG: Closed client: /10.0.0.6:58730in MyMiddleware.run()
LOG: Closed client: /10.0.0.6:58728in MyMiddleware.run()
LOG: Closed client: /10.0.0.7:52284in MyMiddleware.run()
LOG: Closed client: /10.0.0.7:52282in MyMiddleware.run()
LOG: Closed client: /10.0.0.7:52288in MyMiddleware.run()
LOG: Closed client: /10.0.0.7:52286in MyMiddleware.run()
