------------Middleware started!------------
LOG: Waiting for connection in MyMiddleware.run()
LOG: Accepted client: /10.0.0.6:37578in MyMiddleware.run()
LOG: Accepted client: /10.0.0.6:37582in MyMiddleware.run()
LOG: Accepted client: /10.0.0.6:37618in MyMiddleware.run()
LOG: Accepted client: /10.0.0.6:37584in MyMiddleware.run()
LOG: Accepted client: /10.0.0.6:37608in MyMiddleware.run()
LOG: Accepted client: /10.0.0.6:37586in MyMiddleware.run()
LOG: Accepted client: /10.0.0.6:37614in MyMiddleware.run()
LOG: Accepted client: /10.0.0.6:37620in MyMiddleware.run()
LOG: Accepted client: /10.0.0.6:37580in MyMiddleware.run()
LOG: Accepted client: /10.0.0.6:37622in MyMiddleware.run()
LOG: Accepted client: /10.0.0.6:37616in MyMiddleware.run()
LOG: Accepted client: /10.0.0.6:37590in MyMiddleware.run()
LOG: Accepted client: /10.0.0.6:37588in MyMiddleware.run()
LOG: Accepted client: /10.0.0.6:37638in MyMiddleware.run()
LOG: Accepted client: /10.0.0.6:37632in MyMiddleware.run()
LOG: Accepted client: /10.0.0.6:37636in MyMiddleware.run()
LOG: Accepted client: /10.0.0.7:59366in MyMiddleware.run()
LOG: Accepted client: /10.0.0.7:59382in MyMiddleware.run()
LOG: Accepted client: /10.0.0.7:59370in MyMiddleware.run()
LOG: Accepted client: /10.0.0.7:59368in MyMiddleware.run()
LOG: Accepted client: /10.0.0.6:37612in MyMiddleware.run()
LOG: Accepted client: /10.0.0.7:59380in MyMiddleware.run()
LOG: Accepted client: /10.0.0.11:57964in MyMiddleware.run()
LOG: Accepted client: /10.0.0.7:59398in MyMiddleware.run()
LOG: Accepted client: /10.0.0.7:59400in MyMiddleware.run()
LOG: Accepted client: /10.0.0.7:59406in MyMiddleware.run()
LOG: Accepted client: /10.0.0.7:59404in MyMiddleware.run()
LOG: Accepted client: /10.0.0.7:59402in MyMiddleware.run()
LOG: Accepted client: /10.0.0.7:59378in MyMiddleware.run()
LOG: Accepted client: /10.0.0.7:59376in MyMiddleware.run()
LOG: Accepted client: /10.0.0.7:59384in MyMiddleware.run()
LOG: Accepted client: /10.0.0.6:37610in MyMiddleware.run()
LOG: Accepted client: /10.0.0.7:59390in MyMiddleware.run()
LOG: Accepted client: /10.0.0.7:59422in MyMiddleware.run()
LOG: Accepted client: /10.0.0.7:59372in MyMiddleware.run()
LOG: Accepted client: /10.0.0.7:59388in MyMiddleware.run()
LOG: Accepted client: /10.0.0.7:59412in MyMiddleware.run()
LOG: Accepted client: /10.0.0.11:58002in MyMiddleware.run()
LOG: Accepted client: /10.0.0.11:57966in MyMiddleware.run()
LOG: Accepted client: /10.0.0.7:59410in MyMiddleware.run()
LOG: Accepted client: /10.0.0.11:57970in MyMiddleware.run()
LOG: Accepted client: /10.0.0.11:58000in MyMiddleware.run()
LOG: Accepted client: /10.0.0.11:57962in MyMiddleware.run()
LOG: Accepted client: /10.0.0.11:57974in MyMiddleware.run()
LOG: Accepted client: /10.0.0.11:57998in MyMiddleware.run()
LOG: Accepted client: /10.0.0.7:59386in MyMiddleware.run()
LOG: Accepted client: /10.0.0.11:57996in MyMiddleware.run()
LOG: Accepted client: /10.0.0.7:59408in MyMiddleware.run()
LOG: Accepted client: /10.0.0.11:57968in MyMiddleware.run()
LOG: Accepted client: /10.0.0.11:58004in MyMiddleware.run()
LOG: Accepted client: /10.0.0.7:59364in MyMiddleware.run()
LOG: Accepted client: /10.0.0.6:37600in MyMiddleware.run()
LOG: Accepted client: /10.0.0.11:57960in MyMiddleware.run()
LOG: Accepted client: /10.0.0.6:37640in MyMiddleware.run()
LOG: Accepted client: /10.0.0.6:37594in MyMiddleware.run()
LOG: Accepted client: /10.0.0.6:37592in MyMiddleware.run()
LOG: Accepted client: /10.0.0.11:57992in MyMiddleware.run()
LOG: Accepted client: /10.0.0.6:37604in MyMiddleware.run()
LOG: Accepted client: /10.0.0.7:59414in MyMiddleware.run()
LOG: Accepted client: /10.0.0.6:37626in MyMiddleware.run()
LOG: Accepted client: /10.0.0.6:37624in MyMiddleware.run()
LOG: Accepted client: /10.0.0.11:57972in MyMiddleware.run()
LOG: Accepted client: /10.0.0.11:58006in MyMiddleware.run()
LOG: Accepted client: /10.0.0.7:59374in MyMiddleware.run()
LOG: Accepted client: /10.0.0.11:57994in MyMiddleware.run()
LOG: Accepted client: /10.0.0.7:59424in MyMiddleware.run()
LOG: Accepted client: /10.0.0.11:57986in MyMiddleware.run()
LOG: Accepted client: /10.0.0.11:57988in MyMiddleware.run()
LOG: Accepted client: /10.0.0.11:57984in MyMiddleware.run()
LOG: Accepted client: /10.0.0.11:57976in MyMiddleware.run()
LOG: Accepted client: /10.0.0.11:57952in MyMiddleware.run()
LOG: Accepted client: /10.0.0.11:57958in MyMiddleware.run()
LOG: Accepted client: /10.0.0.11:57980in MyMiddleware.run()
LOG: Accepted client: /10.0.0.11:57978in MyMiddleware.run()
LOG: Accepted client: /10.0.0.11:57990in MyMiddleware.run()
LOG: Accepted client: /10.0.0.6:37628in MyMiddleware.run()
LOG: Accepted client: /10.0.0.6:37606in MyMiddleware.run()
LOG: Accepted client: /10.0.0.11:57956in MyMiddleware.run()
LOG: Accepted client: /10.0.0.11:57982in MyMiddleware.run()
LOG: Accepted client: /10.0.0.11:57954in MyMiddleware.run()
LOG: Accepted client: /10.0.0.6:37598in MyMiddleware.run()
LOG: Accepted client: /10.0.0.6:37602in MyMiddleware.run()
LOG: Accepted client: /10.0.0.6:37630in MyMiddleware.run()
LOG: Accepted client: /10.0.0.6:37596in MyMiddleware.run()
LOG: Accepted client: /10.0.0.11:57950in MyMiddleware.run()
LOG: Accepted client: /10.0.0.6:37634in MyMiddleware.run()
LOG: Accepted client: /10.0.0.11:57948in MyMiddleware.run()
LOG: Accepted client: /10.0.0.11:57946in MyMiddleware.run()
LOG: Accepted client: /10.0.0.11:57944in MyMiddleware.run()
LOG: Accepted client: /10.0.0.7:59396in MyMiddleware.run()
LOG: Accepted client: /10.0.0.7:59418in MyMiddleware.run()
LOG: Accepted client: /10.0.0.7:59416in MyMiddleware.run()
LOG: Accepted client: /10.0.0.7:59420in MyMiddleware.run()
LOG: Accepted client: /10.0.0.7:59394in MyMiddleware.run()
LOG: Accepted client: /10.0.0.7:59392in MyMiddleware.run()
LOG: Accepted client: /10.0.0.7:59426in MyMiddleware.run()
LOG: Closed client: /10.0.0.7:59368in MyMiddleware.run()
LOG: Closed client: /10.0.0.7:59372in MyMiddleware.run()
LOG: Closed client: /10.0.0.7:59370in MyMiddleware.run()
LOG: Closed client: /10.0.0.7:59388in MyMiddleware.run()
LOG: Closed client: /10.0.0.7:59410in MyMiddleware.run()
LOG: Closed client: /10.0.0.7:59422in MyMiddleware.run()
LOG: Closed client: /10.0.0.7:59394in MyMiddleware.run()
LOG: Closed client: /10.0.0.7:59374in MyMiddleware.run()
LOG: Closed client: /10.0.0.7:59426in MyMiddleware.run()
LOG: Closed client: /10.0.0.7:59408in MyMiddleware.run()
LOG: Closed client: /10.0.0.7:59392in MyMiddleware.run()
LOG: Closed client: /10.0.0.7:59412in MyMiddleware.run()
LOG: Closed client: /10.0.0.7:59386in MyMiddleware.run()
LOG: Closed client: /10.0.0.7:59384in MyMiddleware.run()
LOG: Closed client: /10.0.0.7:59382in MyMiddleware.run()
LOG: Closed client: /10.0.0.7:59406in MyMiddleware.run()
LOG: Closed client: /10.0.0.7:59380in MyMiddleware.run()
LOG: Closed client: /10.0.0.7:59420in MyMiddleware.run()
LOG: Closed client: /10.0.0.7:59376in MyMiddleware.run()
LOG: Closed client: /10.0.0.7:59390in MyMiddleware.run()
LOG: Closed client: /10.0.0.7:59402in MyMiddleware.run()
LOG: Closed client: /10.0.0.7:59404in MyMiddleware.run()
LOG: Closed client: /10.0.0.7:59424in MyMiddleware.run()
LOG: Closed client: /10.0.0.7:59398in MyMiddleware.run()
LOG: Closed client: /10.0.0.7:59396in MyMiddleware.run()
LOG: Closed client: /10.0.0.7:59366in MyMiddleware.run()
LOG: Closed client: /10.0.0.7:59400in MyMiddleware.run()
LOG: Closed client: /10.0.0.7:59416in MyMiddleware.run()
LOG: Closed client: /10.0.0.7:59418in MyMiddleware.run()
LOG: Closed client: /10.0.0.7:59414in MyMiddleware.run()
LOG: Closed client: /10.0.0.7:59378in MyMiddleware.run()
LOG: Closed client: /10.0.0.7:59364in MyMiddleware.run()
LOG: Closed client: /10.0.0.6:37608in MyMiddleware.run()
LOG: Closed client: /10.0.0.6:37602in MyMiddleware.run()
LOG: Closed client: /10.0.0.6:37590in MyMiddleware.run()
LOG: Closed client: /10.0.0.6:37610in MyMiddleware.run()
LOG: Closed client: /10.0.0.6:37582in MyMiddleware.run()
LOG: Closed client: /10.0.0.6:37586in MyMiddleware.run()
LOG: Closed client: /10.0.0.6:37600in MyMiddleware.run()
LOG: Closed client: /10.0.0.6:37596in MyMiddleware.run()
LOG: Closed client: /10.0.0.6:37580in MyMiddleware.run()
LOG: Closed client: /10.0.0.6:37628in MyMiddleware.run()
LOG: Closed client: /10.0.0.6:37638in MyMiddleware.run()
LOG: Closed client: /10.0.0.6:37620in MyMiddleware.run()
LOG: Closed client: /10.0.0.6:37640in MyMiddleware.run()
LOG: Closed client: /10.0.0.6:37630in MyMiddleware.run()
LOG: Closed client: /10.0.0.6:37618in MyMiddleware.run()
LOG: Closed client: /10.0.0.6:37598in MyMiddleware.run()
LOG: Closed client: /10.0.0.6:37632in MyMiddleware.run()
LOG: Closed client: /10.0.0.6:37636in MyMiddleware.run()
LOG: Closed client: /10.0.0.6:37616in MyMiddleware.run()
LOG: Closed client: /10.0.0.6:37634in MyMiddleware.run()
LOG: Closed client: /10.0.0.6:37614in MyMiddleware.run()
LOG: Closed client: /10.0.0.6:37578in MyMiddleware.run()
LOG: Closed client: /10.0.0.6:37588in MyMiddleware.run()
LOG: Closed client: /10.0.0.6:37594in MyMiddleware.run()
LOG: Closed client: /10.0.0.6:37592in MyMiddleware.run()
LOG: Closed client: /10.0.0.6:37626in MyMiddleware.run()
LOG: Closed client: /10.0.0.6:37622in MyMiddleware.run()
LOG: Closed client: /10.0.0.6:37612in MyMiddleware.run()
LOG: Closed client: /10.0.0.6:37584in MyMiddleware.run()
LOG: Closed client: /10.0.0.6:37624in MyMiddleware.run()
LOG: Closed client: /10.0.0.6:37604in MyMiddleware.run()
LOG: Closed client: /10.0.0.6:37606in MyMiddleware.run()
LOG: Closed client: /10.0.0.11:57960in MyMiddleware.run()
LOG: Closed client: /10.0.0.11:57962in MyMiddleware.run()
LOG: Closed client: /10.0.0.11:57954in MyMiddleware.run()
LOG: Closed client: /10.0.0.11:57946in MyMiddleware.run()
LOG: Closed client: /10.0.0.11:57974in MyMiddleware.run()
LOG: Closed client: /10.0.0.11:57964in MyMiddleware.run()
LOG: Closed client: /10.0.0.11:57970in MyMiddleware.run()
LOG: Closed client: /10.0.0.11:57966in MyMiddleware.run()
LOG: Closed client: /10.0.0.11:57956in MyMiddleware.run()
LOG: Closed client: /10.0.0.11:57948in MyMiddleware.run()
LOG: Closed client: /10.0.0.11:57952in MyMiddleware.run()
LOG: Closed client: /10.0.0.11:57944in MyMiddleware.run()
LOG: Closed client: /10.0.0.11:57972in MyMiddleware.run()
LOG: Closed client: /10.0.0.11:57958in MyMiddleware.run()
LOG: Closed client: /10.0.0.11:57950in MyMiddleware.run()
LOG: Closed client: /10.0.0.11:57968in MyMiddleware.run()
LOG: Closed client: /10.0.0.11:57986in MyMiddleware.run()
LOG: Closed client: /10.0.0.11:58006in MyMiddleware.run()
LOG: Closed client: /10.0.0.11:57976in MyMiddleware.run()
LOG: Closed client: /10.0.0.11:57982in MyMiddleware.run()
LOG: Closed client: /10.0.0.11:57994in MyMiddleware.run()
LOG: Closed client: /10.0.0.11:57988in MyMiddleware.run()
LOG: Closed client: /10.0.0.11:58000in MyMiddleware.run()
LOG: Closed client: /10.0.0.11:57984in MyMiddleware.run()
LOG: Closed client: /10.0.0.11:57990in MyMiddleware.run()
LOG: Closed client: /10.0.0.11:57998in MyMiddleware.run()
LOG: Closed client: /10.0.0.11:57992in MyMiddleware.run()
LOG: Closed client: /10.0.0.11:57996in MyMiddleware.run()
LOG: Closed client: /10.0.0.11:57978in MyMiddleware.run()
LOG: Closed client: /10.0.0.11:58004in MyMiddleware.run()
LOG: Closed client: /10.0.0.11:58002in MyMiddleware.run()
LOG: Closed client: /10.0.0.11:57980in MyMiddleware.run()
