------------Middleware started!------------
LOG: Waiting for connection in MyMiddleware.run()
LOG: Accepted client: /10.0.0.11:44028in MyMiddleware.run()
LOG: Accepted client: /10.0.0.11:44004in MyMiddleware.run()
LOG: Accepted client: /10.0.0.11:43992in MyMiddleware.run()
LOG: Accepted client: /10.0.0.11:44002in MyMiddleware.run()
LOG: Accepted client: /10.0.0.11:44030in MyMiddleware.run()
LOG: Accepted client: /10.0.0.11:43974in MyMiddleware.run()
LOG: Accepted client: /10.0.0.11:43996in MyMiddleware.run()
LOG: Accepted client: /10.0.0.11:43994in MyMiddleware.run()
LOG: Accepted client: /10.0.0.11:44000in MyMiddleware.run()
LOG: Accepted client: /10.0.0.11:44006in MyMiddleware.run()
LOG: Accepted client: /10.0.0.11:44024in MyMiddleware.run()
LOG: Accepted client: /10.0.0.11:43972in MyMiddleware.run()
LOG: Accepted client: /10.0.0.11:44026in MyMiddleware.run()
LOG: Accepted client: /10.0.0.11:43970in MyMiddleware.run()
LOG: Accepted client: /10.0.0.11:43968in MyMiddleware.run()
LOG: Accepted client: /10.0.0.11:43998in MyMiddleware.run()
LOG: Accepted client: /10.0.0.11:44018in MyMiddleware.run()
LOG: Accepted client: /10.0.0.11:44012in MyMiddleware.run()
LOG: Accepted client: /10.0.0.11:44008in MyMiddleware.run()
LOG: Accepted client: /10.0.0.11:43990in MyMiddleware.run()
LOG: Accepted client: /10.0.0.11:43978in MyMiddleware.run()
LOG: Accepted client: /10.0.0.11:43976in MyMiddleware.run()
LOG: Accepted client: /10.0.0.11:43988in MyMiddleware.run()
LOG: Accepted client: /10.0.0.11:44016in MyMiddleware.run()
LOG: Accepted client: /10.0.0.11:43980in MyMiddleware.run()
LOG: Accepted client: /10.0.0.11:43986in MyMiddleware.run()
LOG: Accepted client: /10.0.0.11:43982in MyMiddleware.run()
LOG: Accepted client: /10.0.0.11:44010in MyMiddleware.run()
LOG: Accepted client: /10.0.0.11:43984in MyMiddleware.run()
LOG: Accepted client: /10.0.0.11:44022in MyMiddleware.run()
LOG: Accepted client: /10.0.0.11:44020in MyMiddleware.run()
LOG: Accepted client: /10.0.0.11:44014in MyMiddleware.run()
LOG: Accepted client: /10.0.0.6:51934in MyMiddleware.run()
LOG: Accepted client: /10.0.0.6:51946in MyMiddleware.run()
LOG: Accepted client: /10.0.0.6:51930in MyMiddleware.run()
LOG: Accepted client: /10.0.0.6:51952in MyMiddleware.run()
LOG: Accepted client: /10.0.0.6:51992in MyMiddleware.run()
LOG: Accepted client: /10.0.0.6:51948in MyMiddleware.run()
LOG: Accepted client: /10.0.0.6:51974in MyMiddleware.run()
LOG: Accepted client: /10.0.0.6:51972in MyMiddleware.run()
LOG: Accepted client: /10.0.0.6:51942in MyMiddleware.run()
LOG: Accepted client: /10.0.0.6:51986in MyMiddleware.run()
LOG: Accepted client: /10.0.0.6:51940in MyMiddleware.run()
LOG: Accepted client: /10.0.0.6:51988in MyMiddleware.run()
LOG: Accepted client: /10.0.0.6:51990in MyMiddleware.run()
LOG: Accepted client: /10.0.0.6:51960in MyMiddleware.run()
LOG: Accepted client: /10.0.0.6:51944in MyMiddleware.run()
LOG: Accepted client: /10.0.0.6:51962in MyMiddleware.run()
LOG: Accepted client: /10.0.0.6:51980in MyMiddleware.run()
LOG: Accepted client: /10.0.0.6:51950in MyMiddleware.run()
LOG: Accepted client: /10.0.0.6:51954in MyMiddleware.run()
LOG: Accepted client: /10.0.0.6:51984in MyMiddleware.run()
LOG: Accepted client: /10.0.0.6:51932in MyMiddleware.run()
LOG: Accepted client: /10.0.0.6:51982in MyMiddleware.run()
LOG: Accepted client: /10.0.0.6:51964in MyMiddleware.run()
LOG: Accepted client: /10.0.0.6:51966in MyMiddleware.run()
LOG: Accepted client: /10.0.0.6:51958in MyMiddleware.run()
LOG: Accepted client: /10.0.0.6:51976in MyMiddleware.run()
LOG: Accepted client: /10.0.0.6:51978in MyMiddleware.run()
LOG: Accepted client: /10.0.0.6:51956in MyMiddleware.run()
LOG: Accepted client: /10.0.0.6:51968in MyMiddleware.run()
LOG: Accepted client: /10.0.0.6:51970in MyMiddleware.run()
LOG: Accepted client: /10.0.0.7:45490in MyMiddleware.run()
LOG: Accepted client: /10.0.0.7:45480in MyMiddleware.run()
LOG: Accepted client: /10.0.0.7:45512in MyMiddleware.run()
LOG: Accepted client: /10.0.0.7:45510in MyMiddleware.run()
LOG: Accepted client: /10.0.0.7:45500in MyMiddleware.run()
LOG: Accepted client: /10.0.0.7:45516in MyMiddleware.run()
LOG: Accepted client: /10.0.0.7:45478in MyMiddleware.run()
LOG: Accepted client: /10.0.0.7:45498in MyMiddleware.run()
LOG: Accepted client: /10.0.0.7:45518in MyMiddleware.run()
LOG: Accepted client: /10.0.0.7:45476in MyMiddleware.run()
LOG: Accepted client: /10.0.0.7:45482in MyMiddleware.run()
LOG: Accepted client: /10.0.0.7:45484in MyMiddleware.run()
LOG: Accepted client: /10.0.0.7:45534in MyMiddleware.run()
LOG: Accepted client: /10.0.0.7:45530in MyMiddleware.run()
LOG: Accepted client: /10.0.0.7:45524in MyMiddleware.run()
LOG: Accepted client: /10.0.0.7:45532in MyMiddleware.run()
LOG: Accepted client: /10.0.0.7:45486in MyMiddleware.run()
LOG: Accepted client: /10.0.0.7:45514in MyMiddleware.run()
LOG: Accepted client: /10.0.0.7:45488in MyMiddleware.run()
LOG: Accepted client: /10.0.0.7:45520in MyMiddleware.run()
LOG: Accepted client: /10.0.0.7:45526in MyMiddleware.run()
LOG: Accepted client: /10.0.0.7:45502in MyMiddleware.run()
LOG: Accepted client: /10.0.0.7:45508in MyMiddleware.run()
LOG: Accepted client: /10.0.0.7:45538in MyMiddleware.run()
LOG: Accepted client: /10.0.0.7:45536in MyMiddleware.run()
LOG: Accepted client: /10.0.0.7:45496in MyMiddleware.run()
LOG: Accepted client: /10.0.0.7:45522in MyMiddleware.run()
LOG: Accepted client: /10.0.0.6:51938in MyMiddleware.run()
LOG: Accepted client: /10.0.0.6:51936in MyMiddleware.run()
LOG: Accepted client: /10.0.0.7:45504in MyMiddleware.run()
LOG: Accepted client: /10.0.0.7:45492in MyMiddleware.run()
LOG: Accepted client: /10.0.0.7:45506in MyMiddleware.run()
LOG: Accepted client: /10.0.0.7:45494in MyMiddleware.run()
LOG: Accepted client: /10.0.0.7:45528in MyMiddleware.run()
LOG: Closed client: /10.0.0.6:51930in MyMiddleware.run()
LOG: Closed client: /10.0.0.6:51938in MyMiddleware.run()
LOG: Closed client: /10.0.0.6:51952in MyMiddleware.run()
LOG: Closed client: /10.0.0.6:51972in MyMiddleware.run()
LOG: Closed client: /10.0.0.6:51932in MyMiddleware.run()
LOG: Closed client: /10.0.0.6:51946in MyMiddleware.run()
LOG: Closed client: /10.0.0.6:51982in MyMiddleware.run()
LOG: Closed client: /10.0.0.6:51940in MyMiddleware.run()
LOG: Closed client: /10.0.0.6:51950in MyMiddleware.run()
LOG: Closed client: /10.0.0.6:51988in MyMiddleware.run()
LOG: Closed client: /10.0.0.6:51962in MyMiddleware.run()
LOG: Closed client: /10.0.0.6:51992in MyMiddleware.run()
LOG: Closed client: /10.0.0.6:51942in MyMiddleware.run()
LOG: Closed client: /10.0.0.6:51960in MyMiddleware.run()
LOG: Closed client: /10.0.0.6:51974in MyMiddleware.run()
LOG: Closed client: /10.0.0.6:51948in MyMiddleware.run()
LOG: Closed client: /10.0.0.6:51986in MyMiddleware.run()
LOG: Closed client: /10.0.0.6:51984in MyMiddleware.run()
LOG: Closed client: /10.0.0.6:51934in MyMiddleware.run()
LOG: Closed client: /10.0.0.6:51964in MyMiddleware.run()
LOG: Closed client: /10.0.0.6:51970in MyMiddleware.run()
LOG: Closed client: /10.0.0.6:51966in MyMiddleware.run()
LOG: Closed client: /10.0.0.6:51956in MyMiddleware.run()
LOG: Closed client: /10.0.0.6:51990in MyMiddleware.run()
LOG: Closed client: /10.0.0.6:51958in MyMiddleware.run()
LOG: Closed client: /10.0.0.6:51968in MyMiddleware.run()
LOG: Closed client: /10.0.0.6:51936in MyMiddleware.run()
LOG: Closed client: /10.0.0.6:51976in MyMiddleware.run()
LOG: Closed client: /10.0.0.6:51978in MyMiddleware.run()
LOG: Closed client: /10.0.0.6:51944in MyMiddleware.run()
LOG: Closed client: /10.0.0.6:51954in MyMiddleware.run()
LOG: Closed client: /10.0.0.6:51980in MyMiddleware.run()
LOG: Closed client: /10.0.0.11:43978in MyMiddleware.run()
LOG: Closed client: /10.0.0.11:43970in MyMiddleware.run()
LOG: Closed client: /10.0.0.11:43994in MyMiddleware.run()
LOG: Closed client: /10.0.0.11:43990in MyMiddleware.run()
LOG: Closed client: /10.0.0.11:44030in MyMiddleware.run()
LOG: Closed client: /10.0.0.11:43988in MyMiddleware.run()
LOG: Closed client: /10.0.0.11:44014in MyMiddleware.run()
LOG: Closed client: /10.0.0.11:43986in MyMiddleware.run()
LOG: Closed client: /10.0.0.11:44012in MyMiddleware.run()
LOG: Closed client: /10.0.0.11:43992in MyMiddleware.run()
LOG: Closed client: /10.0.0.11:43976in MyMiddleware.run()
LOG: Closed client: /10.0.0.11:44004in MyMiddleware.run()
LOG: Closed client: /10.0.0.11:43968in MyMiddleware.run()
LOG: Closed client: /10.0.0.11:43998in MyMiddleware.run()
LOG: Closed client: /10.0.0.11:43996in MyMiddleware.run()
LOG: Closed client: /10.0.0.11:44028in MyMiddleware.run()
LOG: Closed client: /10.0.0.11:44016in MyMiddleware.run()
LOG: Closed client: /10.0.0.11:44018in MyMiddleware.run()
LOG: Closed client: /10.0.0.11:44006in MyMiddleware.run()
LOG: Closed client: /10.0.0.11:43984in MyMiddleware.run()
LOG: Closed client: /10.0.0.11:44008in MyMiddleware.run()
LOG: Closed client: /10.0.0.11:43972in MyMiddleware.run()
LOG: Closed client: /10.0.0.11:44020in MyMiddleware.run()
LOG: Closed client: /10.0.0.11:44022in MyMiddleware.run()
LOG: Closed client: /10.0.0.11:43974in MyMiddleware.run()
LOG: Closed client: /10.0.0.11:44024in MyMiddleware.run()
LOG: Closed client: /10.0.0.11:44010in MyMiddleware.run()
LOG: Closed client: /10.0.0.11:44026in MyMiddleware.run()
LOG: Closed client: /10.0.0.11:43982in MyMiddleware.run()
LOG: Closed client: /10.0.0.11:44000in MyMiddleware.run()
LOG: Closed client: /10.0.0.11:44002in MyMiddleware.run()
LOG: Closed client: /10.0.0.11:43980in MyMiddleware.run()
LOG: Closed client: /10.0.0.7:45480in MyMiddleware.run()
LOG: Closed client: /10.0.0.7:45496in MyMiddleware.run()
LOG: Closed client: /10.0.0.7:45520in MyMiddleware.run()
LOG: Closed client: /10.0.0.7:45490in MyMiddleware.run()
LOG: Closed client: /10.0.0.7:45492in MyMiddleware.run()
LOG: Closed client: /10.0.0.7:45512in MyMiddleware.run()
LOG: Closed client: /10.0.0.7:45522in MyMiddleware.run()
LOG: Closed client: /10.0.0.7:45502in MyMiddleware.run()
LOG: Closed client: /10.0.0.7:45508in MyMiddleware.run()
LOG: Closed client: /10.0.0.7:45504in MyMiddleware.run()
LOG: Closed client: /10.0.0.7:45530in MyMiddleware.run()
LOG: Closed client: /10.0.0.7:45506in MyMiddleware.run()
LOG: Closed client: /10.0.0.7:45526in MyMiddleware.run()
LOG: Closed client: /10.0.0.7:45500in MyMiddleware.run()
LOG: Closed client: /10.0.0.7:45514in MyMiddleware.run()
LOG: Closed client: /10.0.0.7:45494in MyMiddleware.run()
LOG: Closed client: /10.0.0.7:45498in MyMiddleware.run()
LOG: Closed client: /10.0.0.7:45488in MyMiddleware.run()
LOG: Closed client: /10.0.0.7:45486in MyMiddleware.run()
LOG: Closed client: /10.0.0.7:45532in MyMiddleware.run()
LOG: Closed client: /10.0.0.7:45516in MyMiddleware.run()
LOG: Closed client: /10.0.0.7:45536in MyMiddleware.run()
LOG: Closed client: /10.0.0.7:45518in MyMiddleware.run()
LOG: Closed client: /10.0.0.7:45538in MyMiddleware.run()
LOG: Closed client: /10.0.0.7:45510in MyMiddleware.run()
LOG: Closed client: /10.0.0.7:45478in MyMiddleware.run()
LOG: Closed client: /10.0.0.7:45476in MyMiddleware.run()
LOG: Closed client: /10.0.0.7:45524in MyMiddleware.run()
LOG: Closed client: /10.0.0.7:45484in MyMiddleware.run()
LOG: Closed client: /10.0.0.7:45528in MyMiddleware.run()
LOG: Closed client: /10.0.0.7:45534in MyMiddleware.run()
LOG: Closed client: /10.0.0.7:45482in MyMiddleware.run()
