------------Middleware started!------------
LOG: Waiting for connection in MyMiddleware.run()
LOG: Accepted client: /10.0.0.7:53570in MyMiddleware.run()
LOG: Accepted client: /10.0.0.7:53566in MyMiddleware.run()
LOG: Accepted client: /10.0.0.7:53564in MyMiddleware.run()
LOG: Accepted client: /10.0.0.7:53562in MyMiddleware.run()
LOG: Accepted client: /10.0.0.7:53568in MyMiddleware.run()
LOG: Accepted client: /10.0.0.7:53560in MyMiddleware.run()
LOG: Accepted client: /10.0.0.7:53572in MyMiddleware.run()
LOG: Accepted client: /10.0.0.7:53574in MyMiddleware.run()
LOG: Accepted client: /10.0.0.6:60004in MyMiddleware.run()
LOG: Accepted client: /10.0.0.6:60006in MyMiddleware.run()
LOG: Accepted client: /10.0.0.6:60002in MyMiddleware.run()
LOG: Accepted client: /10.0.0.6:60008in MyMiddleware.run()
LOG: Accepted client: /10.0.0.6:60016in MyMiddleware.run()
LOG: Accepted client: /10.0.0.6:60014in MyMiddleware.run()
LOG: Accepted client: /10.0.0.11:52244in MyMiddleware.run()
LOG: Accepted client: /10.0.0.11:52242in MyMiddleware.run()
LOG: Accepted client: /10.0.0.11:52252in MyMiddleware.run()
LOG: Accepted client: /10.0.0.11:52254in MyMiddleware.run()
LOG: Accepted client: /10.0.0.11:52240in MyMiddleware.run()
LOG: Accepted client: /10.0.0.11:52246in MyMiddleware.run()
LOG: Accepted client: /10.0.0.11:52250in MyMiddleware.run()
LOG: Accepted client: /10.0.0.11:52248in MyMiddleware.run()
LOG: Accepted client: /10.0.0.6:60012in MyMiddleware.run()
LOG: Accepted client: /10.0.0.6:60010in MyMiddleware.run()
LOG: Closed client: /10.0.0.7:53560in MyMiddleware.run()
LOG: Closed client: /10.0.0.7:53570in MyMiddleware.run()
LOG: Closed client: /10.0.0.7:53562in MyMiddleware.run()
LOG: Closed client: /10.0.0.7:53566in MyMiddleware.run()
LOG: Closed client: /10.0.0.7:53568in MyMiddleware.run()
LOG: Closed client: /10.0.0.7:53564in MyMiddleware.run()
LOG: Closed client: /10.0.0.7:53572in MyMiddleware.run()
LOG: Closed client: /10.0.0.7:53574in MyMiddleware.run()
LOG: Closed client: /10.0.0.11:52252in MyMiddleware.run()
LOG: Closed client: /10.0.0.11:52242in MyMiddleware.run()
LOG: Closed client: /10.0.0.11:52254in MyMiddleware.run()
LOG: Closed client: /10.0.0.11:52240in MyMiddleware.run()
LOG: Closed client: /10.0.0.11:52246in MyMiddleware.run()
LOG: Closed client: /10.0.0.11:52244in MyMiddleware.run()
LOG: Closed client: /10.0.0.11:52250in MyMiddleware.run()
LOG: Closed client: /10.0.0.11:52248in MyMiddleware.run()
LOG: Closed client: /10.0.0.6:60008in MyMiddleware.run()
LOG: Closed client: /10.0.0.6:60006in MyMiddleware.run()
LOG: Closed client: /10.0.0.6:60012in MyMiddleware.run()
LOG: Closed client: /10.0.0.6:60002in MyMiddleware.run()
LOG: Closed client: /10.0.0.6:60016in MyMiddleware.run()
LOG: Closed client: /10.0.0.6:60014in MyMiddleware.run()
LOG: Closed client: /10.0.0.6:60004in MyMiddleware.run()
LOG: Closed client: /10.0.0.6:60010in MyMiddleware.run()
