------------Middleware started!------------
LOG: Waiting for connection in MyMiddleware.run()
LOG: Accepted client: /10.0.0.7:47278in MyMiddleware.run()
LOG: Accepted client: /10.0.0.11:45814in MyMiddleware.run()
LOG: Accepted client: /10.0.0.7:47280in MyMiddleware.run()
LOG: Accepted client: /10.0.0.7:47276in MyMiddleware.run()
LOG: Accepted client: /10.0.0.7:47244in MyMiddleware.run()
LOG: Accepted client: /10.0.0.11:45808in MyMiddleware.run()
LOG: Accepted client: /10.0.0.11:45850in MyMiddleware.run()
LOG: Accepted client: /10.0.0.11:45806in MyMiddleware.run()
LOG: Accepted client: /10.0.0.11:45860in MyMiddleware.run()
LOG: Accepted client: /10.0.0.11:45856in MyMiddleware.run()
LOG: Accepted client: /10.0.0.11:45852in MyMiddleware.run()
LOG: Accepted client: /10.0.0.7:47254in MyMiddleware.run()
LOG: Accepted client: /10.0.0.11:45804in MyMiddleware.run()
LOG: Accepted client: /10.0.0.11:45810in MyMiddleware.run()
LOG: Accepted client: /10.0.0.7:47272in MyMiddleware.run()
LOG: Accepted client: /10.0.0.11:45802in MyMiddleware.run()
LOG: Accepted client: /10.0.0.7:47282in MyMiddleware.run()
LOG: Accepted client: /10.0.0.7:47250in MyMiddleware.run()
LOG: Accepted client: /10.0.0.7:47248in MyMiddleware.run()
LOG: Accepted client: /10.0.0.7:47296in MyMiddleware.run()
LOG: Accepted client: /10.0.0.7:47284in MyMiddleware.run()
LOG: Accepted client: /10.0.0.11:45812in MyMiddleware.run()
LOG: Accepted client: /10.0.0.11:45858in MyMiddleware.run()
LOG: Accepted client: /10.0.0.7:47246in MyMiddleware.run()
LOG: Accepted client: /10.0.0.7:47274in MyMiddleware.run()
LOG: Accepted client: /10.0.0.7:47286in MyMiddleware.run()
LOG: Accepted client: /10.0.0.11:45800in MyMiddleware.run()
LOG: Accepted client: /10.0.0.7:47252in MyMiddleware.run()
LOG: Accepted client: /10.0.0.11:45854in MyMiddleware.run()
LOG: Accepted client: /10.0.0.11:45828in MyMiddleware.run()
LOG: Accepted client: /10.0.0.11:45848in MyMiddleware.run()
LOG: Accepted client: /10.0.0.11:45830in MyMiddleware.run()
LOG: Accepted client: /10.0.0.7:47242in MyMiddleware.run()
LOG: Accepted client: /10.0.0.11:45824in MyMiddleware.run()
LOG: Accepted client: /10.0.0.7:47240in MyMiddleware.run()
LOG: Accepted client: /10.0.0.11:45826in MyMiddleware.run()
LOG: Accepted client: /10.0.0.11:45842in MyMiddleware.run()
LOG: Accepted client: /10.0.0.11:45844in MyMiddleware.run()
LOG: Accepted client: /10.0.0.11:45846in MyMiddleware.run()
LOG: Accepted client: /10.0.0.11:45840in MyMiddleware.run()
LOG: Accepted client: /10.0.0.11:45798in MyMiddleware.run()
LOG: Accepted client: /10.0.0.11:45834in MyMiddleware.run()
LOG: Accepted client: /10.0.0.11:45822in MyMiddleware.run()
LOG: Accepted client: /10.0.0.11:45832in MyMiddleware.run()
LOG: Accepted client: /10.0.0.11:45838in MyMiddleware.run()
LOG: Accepted client: /10.0.0.11:45820in MyMiddleware.run()
LOG: Accepted client: /10.0.0.11:45816in MyMiddleware.run()
LOG: Accepted client: /10.0.0.11:45836in MyMiddleware.run()
LOG: Accepted client: /10.0.0.11:45818in MyMiddleware.run()
LOG: Accepted client: /10.0.0.7:47258in MyMiddleware.run()
LOG: Accepted client: /10.0.0.7:47260in MyMiddleware.run()
LOG: Accepted client: /10.0.0.7:47262in MyMiddleware.run()
LOG: Accepted client: /10.0.0.7:47270in MyMiddleware.run()
LOG: Accepted client: /10.0.0.7:47264in MyMiddleware.run()
LOG: Accepted client: /10.0.0.7:47292in MyMiddleware.run()
LOG: Accepted client: /10.0.0.7:47294in MyMiddleware.run()
LOG: Accepted client: /10.0.0.7:47236in MyMiddleware.run()
LOG: Accepted client: /10.0.0.7:47238in MyMiddleware.run()
LOG: Accepted client: /10.0.0.7:47266in MyMiddleware.run()
LOG: Accepted client: /10.0.0.7:47268in MyMiddleware.run()
LOG: Accepted client: /10.0.0.7:47256in MyMiddleware.run()
LOG: Accepted client: /10.0.0.6:53770in MyMiddleware.run()
LOG: Accepted client: /10.0.0.6:53754in MyMiddleware.run()
LOG: Accepted client: /10.0.0.6:53764in MyMiddleware.run()
LOG: Accepted client: /10.0.0.6:53760in MyMiddleware.run()
LOG: Accepted client: /10.0.0.6:53752in MyMiddleware.run()
LOG: Accepted client: /10.0.0.7:47288in MyMiddleware.run()
LOG: Accepted client: /10.0.0.7:47234in MyMiddleware.run()
LOG: Accepted client: /10.0.0.7:47290in MyMiddleware.run()
LOG: Accepted client: /10.0.0.6:53804in MyMiddleware.run()
LOG: Accepted client: /10.0.0.6:53756in MyMiddleware.run()
LOG: Accepted client: /10.0.0.6:53794in MyMiddleware.run()
LOG: Accepted client: /10.0.0.6:53808in MyMiddleware.run()
LOG: Accepted client: /10.0.0.6:53778in MyMiddleware.run()
LOG: Accepted client: /10.0.0.6:53766in MyMiddleware.run()
LOG: Accepted client: /10.0.0.6:53798in MyMiddleware.run()
LOG: Accepted client: /10.0.0.6:53776in MyMiddleware.run()
LOG: Accepted client: /10.0.0.6:53802in MyMiddleware.run()
LOG: Accepted client: /10.0.0.6:53768in MyMiddleware.run()
LOG: Accepted client: /10.0.0.6:53780in MyMiddleware.run()
LOG: Accepted client: /10.0.0.6:53800in MyMiddleware.run()
LOG: Accepted client: /10.0.0.6:53782in MyMiddleware.run()
LOG: Accepted client: /10.0.0.6:53774in MyMiddleware.run()
LOG: Accepted client: /10.0.0.6:53792in MyMiddleware.run()
LOG: Accepted client: /10.0.0.6:53772in MyMiddleware.run()
LOG: Accepted client: /10.0.0.6:53806in MyMiddleware.run()
LOG: Accepted client: /10.0.0.6:53788in MyMiddleware.run()
LOG: Accepted client: /10.0.0.6:53762in MyMiddleware.run()
LOG: Accepted client: /10.0.0.6:53790in MyMiddleware.run()
LOG: Accepted client: /10.0.0.6:53758in MyMiddleware.run()
LOG: Accepted client: /10.0.0.6:53810in MyMiddleware.run()
LOG: Accepted client: /10.0.0.6:53814in MyMiddleware.run()
LOG: Accepted client: /10.0.0.6:53786in MyMiddleware.run()
LOG: Accepted client: /10.0.0.6:53812in MyMiddleware.run()
LOG: Accepted client: /10.0.0.6:53784in MyMiddleware.run()
LOG: Accepted client: /10.0.0.6:53796in MyMiddleware.run()
LOG: Closed client: /10.0.0.7:47234in MyMiddleware.run()
LOG: Closed client: /10.0.0.7:47278in MyMiddleware.run()
LOG: Closed client: /10.0.0.7:47276in MyMiddleware.run()
LOG: Closed client: /10.0.0.7:47282in MyMiddleware.run()
LOG: Closed client: /10.0.0.7:47238in MyMiddleware.run()
LOG: Closed client: /10.0.0.7:47250in MyMiddleware.run()
LOG: Closed client: /10.0.0.7:47262in MyMiddleware.run()
LOG: Closed client: /10.0.0.7:47266in MyMiddleware.run()
LOG: Closed client: /10.0.0.7:47244in MyMiddleware.run()
LOG: Closed client: /10.0.0.7:47280in MyMiddleware.run()
LOG: Closed client: /10.0.0.7:47236in MyMiddleware.run()
LOG: Closed client: /10.0.0.7:47260in MyMiddleware.run()
LOG: Closed client: /10.0.0.7:47240in MyMiddleware.run()
LOG: Closed client: /10.0.0.7:47242in MyMiddleware.run()
LOG: Closed client: /10.0.0.7:47248in MyMiddleware.run()
LOG: Closed client: /10.0.0.7:47264in MyMiddleware.run()
LOG: Closed client: /10.0.0.7:47246in MyMiddleware.run()
LOG: Closed client: /10.0.0.7:47274in MyMiddleware.run()
LOG: Closed client: /10.0.0.7:47294in MyMiddleware.run()
LOG: Closed client: /10.0.0.7:47292in MyMiddleware.run()
LOG: Closed client: /10.0.0.7:47272in MyMiddleware.run()
LOG: Closed client: /10.0.0.11:45844in MyMiddleware.run()
LOG: Closed client: /10.0.0.11:45816in MyMiddleware.run()
LOG: Closed client: /10.0.0.11:45850in MyMiddleware.run()
LOG: Closed client: /10.0.0.11:45810in MyMiddleware.run()
LOG: Closed client: /10.0.0.11:45848in MyMiddleware.run()
LOG: Closed client: /10.0.0.11:45832in MyMiddleware.run()
LOG: Closed client: /10.0.0.11:45800in MyMiddleware.run()
LOG: Closed client: /10.0.0.11:45814in MyMiddleware.run()
LOG: Closed client: /10.0.0.11:45838in MyMiddleware.run()
LOG: Closed client: /10.0.0.11:45834in MyMiddleware.run()
LOG: Closed client: /10.0.0.11:45830in MyMiddleware.run()
LOG: Closed client: /10.0.0.11:45808in MyMiddleware.run()
LOG: Closed client: /10.0.0.11:45802in MyMiddleware.run()
LOG: Closed client: /10.0.0.11:45828in MyMiddleware.run()
LOG: Closed client: /10.0.0.11:45846in MyMiddleware.run()
LOG: Closed client: /10.0.0.11:45836in MyMiddleware.run()
LOG: Closed client: /10.0.0.11:45860in MyMiddleware.run()
LOG: Closed client: /10.0.0.11:45818in MyMiddleware.run()
LOG: Closed client: /10.0.0.11:45812in MyMiddleware.run()
LOG: Closed client: /10.0.0.11:45858in MyMiddleware.run()
LOG: Closed client: /10.0.0.11:45798in MyMiddleware.run()
LOG: Closed client: /10.0.0.11:45856in MyMiddleware.run()
LOG: Closed client: /10.0.0.7:47268in MyMiddleware.run()
LOG: Closed client: /10.0.0.7:47256in MyMiddleware.run()
LOG: Closed client: /10.0.0.7:47258in MyMiddleware.run()
LOG: Closed client: /10.0.0.11:45840in MyMiddleware.run()
LOG: Closed client: /10.0.0.7:47252in MyMiddleware.run()
LOG: Closed client: /10.0.0.11:45820in MyMiddleware.run()
LOG: Closed client: /10.0.0.11:45806in MyMiddleware.run()
LOG: Closed client: /10.0.0.7:47254in MyMiddleware.run()
LOG: Closed client: /10.0.0.11:45824in MyMiddleware.run()
LOG: Closed client: /10.0.0.11:45822in MyMiddleware.run()
LOG: Closed client: /10.0.0.11:45854in MyMiddleware.run()
LOG: Closed client: /10.0.0.7:47288in MyMiddleware.run()
LOG: Closed client: /10.0.0.7:47270in MyMiddleware.run()
LOG: Closed client: /10.0.0.7:47290in MyMiddleware.run()
LOG: Closed client: /10.0.0.7:47286in MyMiddleware.run()
LOG: Closed client: /10.0.0.7:47296in MyMiddleware.run()
LOG: Closed client: /10.0.0.11:45826in MyMiddleware.run()
LOG: Closed client: /10.0.0.11:45842in MyMiddleware.run()
LOG: Closed client: /10.0.0.7:47284in MyMiddleware.run()
LOG: Closed client: /10.0.0.11:45852in MyMiddleware.run()
LOG: Closed client: /10.0.0.11:45804in MyMiddleware.run()
LOG: Closed client: /10.0.0.6:53776in MyMiddleware.run()
LOG: Closed client: /10.0.0.6:53758in MyMiddleware.run()
LOG: Closed client: /10.0.0.6:53756in MyMiddleware.run()
LOG: Closed client: /10.0.0.6:53810in MyMiddleware.run()
LOG: Closed client: /10.0.0.6:53792in MyMiddleware.run()
LOG: Closed client: /10.0.0.6:53780in MyMiddleware.run()
LOG: Closed client: /10.0.0.6:53752in MyMiddleware.run()
LOG: Closed client: /10.0.0.6:53796in MyMiddleware.run()
LOG: Closed client: /10.0.0.6:53762in MyMiddleware.run()
LOG: Closed client: /10.0.0.6:53794in MyMiddleware.run()
LOG: Closed client: /10.0.0.6:53766in MyMiddleware.run()
LOG: Closed client: /10.0.0.6:53808in MyMiddleware.run()
LOG: Closed client: /10.0.0.6:53772in MyMiddleware.run()
LOG: Closed client: /10.0.0.6:53814in MyMiddleware.run()
LOG: Closed client: /10.0.0.6:53768in MyMiddleware.run()
LOG: Closed client: /10.0.0.6:53812in MyMiddleware.run()
LOG: Closed client: /10.0.0.6:53798in MyMiddleware.run()
LOG: Closed client: /10.0.0.6:53788in MyMiddleware.run()
LOG: Closed client: /10.0.0.6:53790in MyMiddleware.run()
LOG: Closed client: /10.0.0.6:53774in MyMiddleware.run()
LOG: Closed client: /10.0.0.6:53802in MyMiddleware.run()
LOG: Closed client: /10.0.0.6:53782in MyMiddleware.run()
LOG: Closed client: /10.0.0.6:53786in MyMiddleware.run()
LOG: Closed client: /10.0.0.6:53806in MyMiddleware.run()
LOG: Closed client: /10.0.0.6:53770in MyMiddleware.run()
LOG: Closed client: /10.0.0.6:53784in MyMiddleware.run()
LOG: Closed client: /10.0.0.6:53760in MyMiddleware.run()
LOG: Closed client: /10.0.0.6:53804in MyMiddleware.run()
LOG: Closed client: /10.0.0.6:53800in MyMiddleware.run()
LOG: Closed client: /10.0.0.6:53778in MyMiddleware.run()
LOG: Closed client: /10.0.0.6:53764in MyMiddleware.run()
LOG: Closed client: /10.0.0.6:53754in MyMiddleware.run()
