------------Middleware started!------------
LOG: Waiting for connection in MyMiddleware.run()
LOG: Accepted client: /10.0.0.6:38030in MyMiddleware.run()
LOG: Accepted client: /10.0.0.6:37984in MyMiddleware.run()
LOG: Accepted client: /10.0.0.6:37990in MyMiddleware.run()
LOG: Accepted client: /10.0.0.6:38008in MyMiddleware.run()
LOG: Accepted client: /10.0.0.6:37978in MyMiddleware.run()
LOG: Accepted client: /10.0.0.6:37986in MyMiddleware.run()
LOG: Accepted client: /10.0.0.6:38026in MyMiddleware.run()
LOG: Accepted client: /10.0.0.6:38002in MyMiddleware.run()
LOG: Accepted client: /10.0.0.6:37998in MyMiddleware.run()
LOG: Accepted client: /10.0.0.6:37972in MyMiddleware.run()
LOG: Accepted client: /10.0.0.6:38022in MyMiddleware.run()
LOG: Accepted client: /10.0.0.6:37996in MyMiddleware.run()
LOG: Accepted client: /10.0.0.6:38032in MyMiddleware.run()
LOG: Accepted client: /10.0.0.6:38000in MyMiddleware.run()
LOG: Accepted client: /10.0.0.6:37980in MyMiddleware.run()
LOG: Accepted client: /10.0.0.6:38024in MyMiddleware.run()
LOG: Accepted client: /10.0.0.6:38028in MyMiddleware.run()
LOG: Accepted client: /10.0.0.6:37988in MyMiddleware.run()
LOG: Accepted client: /10.0.0.6:38004in MyMiddleware.run()
LOG: Accepted client: /10.0.0.6:37976in MyMiddleware.run()
LOG: Accepted client: /10.0.0.6:37992in MyMiddleware.run()
LOG: Accepted client: /10.0.0.6:38006in MyMiddleware.run()
LOG: Accepted client: /10.0.0.6:38016in MyMiddleware.run()
LOG: Accepted client: /10.0.0.6:37994in MyMiddleware.run()
LOG: Accepted client: /10.0.0.6:38018in MyMiddleware.run()
LOG: Accepted client: /10.0.0.6:38014in MyMiddleware.run()
LOG: Accepted client: /10.0.0.6:38012in MyMiddleware.run()
LOG: Accepted client: /10.0.0.6:38020in MyMiddleware.run()
LOG: Accepted client: /10.0.0.6:37982in MyMiddleware.run()
LOG: Accepted client: /10.0.0.7:59796in MyMiddleware.run()
LOG: Accepted client: /10.0.0.6:38034in MyMiddleware.run()
LOG: Accepted client: /10.0.0.6:38010in MyMiddleware.run()
LOG: Accepted client: /10.0.0.6:37974in MyMiddleware.run()
LOG: Accepted client: /10.0.0.7:59824in MyMiddleware.run()
LOG: Accepted client: /10.0.0.7:59794in MyMiddleware.run()
LOG: Accepted client: /10.0.0.7:59826in MyMiddleware.run()
LOG: Accepted client: /10.0.0.7:59822in MyMiddleware.run()
LOG: Accepted client: /10.0.0.11:58486in MyMiddleware.run()
LOG: Accepted client: /10.0.0.7:59784in MyMiddleware.run()
LOG: Accepted client: /10.0.0.7:59792in MyMiddleware.run()
LOG: Accepted client: /10.0.0.11:58476in MyMiddleware.run()
LOG: Accepted client: /10.0.0.7:59798in MyMiddleware.run()
LOG: Accepted client: /10.0.0.11:58470in MyMiddleware.run()
LOG: Accepted client: /10.0.0.7:59816in MyMiddleware.run()
LOG: Accepted client: /10.0.0.11:58452in MyMiddleware.run()
LOG: Accepted client: /10.0.0.11:58488in MyMiddleware.run()
LOG: Accepted client: /10.0.0.11:58454in MyMiddleware.run()
LOG: Accepted client: /10.0.0.11:58510in MyMiddleware.run()
LOG: Accepted client: /10.0.0.11:58472in MyMiddleware.run()
LOG: Accepted client: /10.0.0.11:58512in MyMiddleware.run()
LOG: Accepted client: /10.0.0.7:59788in MyMiddleware.run()
LOG: Accepted client: /10.0.0.11:58460in MyMiddleware.run()
LOG: Accepted client: /10.0.0.7:59820in MyMiddleware.run()
LOG: Accepted client: /10.0.0.11:58498in MyMiddleware.run()
LOG: Accepted client: /10.0.0.7:59806in MyMiddleware.run()
LOG: Accepted client: /10.0.0.7:59768in MyMiddleware.run()
LOG: Accepted client: /10.0.0.7:59810in MyMiddleware.run()
LOG: Accepted client: /10.0.0.7:59804in MyMiddleware.run()
LOG: Accepted client: /10.0.0.7:59772in MyMiddleware.run()
LOG: Accepted client: /10.0.0.7:59774in MyMiddleware.run()
LOG: Accepted client: /10.0.0.7:59782in MyMiddleware.run()
LOG: Accepted client: /10.0.0.7:59808in MyMiddleware.run()
LOG: Accepted client: /10.0.0.7:59776in MyMiddleware.run()
LOG: Accepted client: /10.0.0.7:59812in MyMiddleware.run()
LOG: Accepted client: /10.0.0.11:58496in MyMiddleware.run()
LOG: Accepted client: /10.0.0.11:58504in MyMiddleware.run()
LOG: Accepted client: /10.0.0.11:58508in MyMiddleware.run()
LOG: Accepted client: /10.0.0.11:58502in MyMiddleware.run()
LOG: Accepted client: /10.0.0.11:58478in MyMiddleware.run()
LOG: Accepted client: /10.0.0.11:58500in MyMiddleware.run()
LOG: Accepted client: /10.0.0.11:58468in MyMiddleware.run()
LOG: Accepted client: /10.0.0.11:58514in MyMiddleware.run()
LOG: Accepted client: /10.0.0.11:58490in MyMiddleware.run()
LOG: Accepted client: /10.0.0.11:58462in MyMiddleware.run()
LOG: Accepted client: /10.0.0.11:58482in MyMiddleware.run()
LOG: Accepted client: /10.0.0.11:58474in MyMiddleware.run()
LOG: Accepted client: /10.0.0.11:58480in MyMiddleware.run()
LOG: Accepted client: /10.0.0.11:58492in MyMiddleware.run()
LOG: Accepted client: /10.0.0.11:58494in MyMiddleware.run()
LOG: Accepted client: /10.0.0.11:58484in MyMiddleware.run()
LOG: Accepted client: /10.0.0.11:58458in MyMiddleware.run()
LOG: Accepted client: /10.0.0.11:58456in MyMiddleware.run()
LOG: Accepted client: /10.0.0.11:58464in MyMiddleware.run()
LOG: Accepted client: /10.0.0.11:58506in MyMiddleware.run()
LOG: Accepted client: /10.0.0.11:58466in MyMiddleware.run()
LOG: Accepted client: /10.0.0.7:59802in MyMiddleware.run()
LOG: Accepted client: /10.0.0.7:59800in MyMiddleware.run()
LOG: Accepted client: /10.0.0.7:59770in MyMiddleware.run()
LOG: Accepted client: /10.0.0.7:59814in MyMiddleware.run()
LOG: Accepted client: /10.0.0.7:59778in MyMiddleware.run()
LOG: Accepted client: /10.0.0.7:59780in MyMiddleware.run()
LOG: Accepted client: /10.0.0.7:59828in MyMiddleware.run()
LOG: Accepted client: /10.0.0.7:59830in MyMiddleware.run()
LOG: Accepted client: /10.0.0.7:59790in MyMiddleware.run()
LOG: Accepted client: /10.0.0.7:59818in MyMiddleware.run()
LOG: Accepted client: /10.0.0.7:59786in MyMiddleware.run()
LOG: Closed client: /10.0.0.11:58462in MyMiddleware.run()
LOG: Closed client: /10.0.0.11:58456in MyMiddleware.run()
LOG: Closed client: /10.0.0.11:58476in MyMiddleware.run()
LOG: Closed client: /10.0.0.11:58458in MyMiddleware.run()
LOG: Closed client: /10.0.0.11:58460in MyMiddleware.run()
LOG: Closed client: /10.0.0.11:58478in MyMiddleware.run()
LOG: Closed client: /10.0.0.11:58452in MyMiddleware.run()
LOG: Closed client: /10.0.0.11:58454in MyMiddleware.run()
LOG: Closed client: /10.0.0.11:58474in MyMiddleware.run()
LOG: Closed client: /10.0.0.11:58498in MyMiddleware.run()
LOG: Closed client: /10.0.0.11:58464in MyMiddleware.run()
LOG: Closed client: /10.0.0.11:58470in MyMiddleware.run()
LOG: Closed client: /10.0.0.11:58508in MyMiddleware.run()
LOG: Closed client: /10.0.0.11:58512in MyMiddleware.run()
LOG: Closed client: /10.0.0.11:58484in MyMiddleware.run()
LOG: Closed client: /10.0.0.11:58510in MyMiddleware.run()
LOG: Closed client: /10.0.0.11:58488in MyMiddleware.run()
LOG: Closed client: /10.0.0.11:58500in MyMiddleware.run()
LOG: Closed client: /10.0.0.11:58494in MyMiddleware.run()
LOG: Closed client: /10.0.0.11:58486in MyMiddleware.run()
LOG: Closed client: /10.0.0.11:58496in MyMiddleware.run()
LOG: Closed client: /10.0.0.11:58492in MyMiddleware.run()
LOG: Closed client: /10.0.0.11:58502in MyMiddleware.run()
LOG: Closed client: /10.0.0.11:58468in MyMiddleware.run()
LOG: Closed client: /10.0.0.11:58504in MyMiddleware.run()
LOG: Closed client: /10.0.0.11:58482in MyMiddleware.run()
LOG: Closed client: /10.0.0.11:58506in MyMiddleware.run()
LOG: Closed client: /10.0.0.11:58490in MyMiddleware.run()
LOG: Closed client: /10.0.0.11:58514in MyMiddleware.run()
LOG: Closed client: /10.0.0.11:58466in MyMiddleware.run()
LOG: Closed client: /10.0.0.11:58480in MyMiddleware.run()
LOG: Closed client: /10.0.0.11:58472in MyMiddleware.run()
LOG: Closed client: /10.0.0.6:38000in MyMiddleware.run()
LOG: Closed client: /10.0.0.6:37978in MyMiddleware.run()
LOG: Closed client: /10.0.0.6:37976in MyMiddleware.run()
LOG: Closed client: /10.0.0.6:38004in MyMiddleware.run()
LOG: Closed client: /10.0.0.6:37996in MyMiddleware.run()
LOG: Closed client: /10.0.0.6:38016in MyMiddleware.run()
LOG: Closed client: /10.0.0.6:38010in MyMiddleware.run()
LOG: Closed client: /10.0.0.6:38014in MyMiddleware.run()
LOG: Closed client: /10.0.0.6:37988in MyMiddleware.run()
LOG: Closed client: /10.0.0.6:37990in MyMiddleware.run()
LOG: Closed client: /10.0.0.6:38006in MyMiddleware.run()
LOG: Closed client: /10.0.0.6:37984in MyMiddleware.run()
LOG: Closed client: /10.0.0.6:37986in MyMiddleware.run()
LOG: Closed client: /10.0.0.6:37980in MyMiddleware.run()
LOG: Closed client: /10.0.0.6:38020in MyMiddleware.run()
LOG: Closed client: /10.0.0.6:37974in MyMiddleware.run()
LOG: Closed client: /10.0.0.6:38012in MyMiddleware.run()
LOG: Closed client: /10.0.0.6:37994in MyMiddleware.run()
LOG: Closed client: /10.0.0.6:38028in MyMiddleware.run()
LOG: Closed client: /10.0.0.6:37972in MyMiddleware.run()
LOG: Closed client: /10.0.0.6:37998in MyMiddleware.run()
LOG: Closed client: /10.0.0.6:37992in MyMiddleware.run()
LOG: Closed client: /10.0.0.6:38008in MyMiddleware.run()
LOG: Closed client: /10.0.0.6:38018in MyMiddleware.run()
LOG: Closed client: /10.0.0.6:38002in MyMiddleware.run()
LOG: Closed client: /10.0.0.6:38034in MyMiddleware.run()
LOG: Closed client: /10.0.0.6:38024in MyMiddleware.run()
LOG: Closed client: /10.0.0.6:38022in MyMiddleware.run()
LOG: Closed client: /10.0.0.6:38026in MyMiddleware.run()
LOG: Closed client: /10.0.0.6:38030in MyMiddleware.run()
LOG: Closed client: /10.0.0.6:38032in MyMiddleware.run()
LOG: Closed client: /10.0.0.6:37982in MyMiddleware.run()
LOG: Closed client: /10.0.0.7:59768in MyMiddleware.run()
LOG: Closed client: /10.0.0.7:59792in MyMiddleware.run()
LOG: Closed client: /10.0.0.7:59790in MyMiddleware.run()
LOG: Closed client: /10.0.0.7:59794in MyMiddleware.run()
LOG: Closed client: /10.0.0.7:59770in MyMiddleware.run()
LOG: Closed client: /10.0.0.7:59786in MyMiddleware.run()
LOG: Closed client: /10.0.0.7:59784in MyMiddleware.run()
LOG: Closed client: /10.0.0.7:59796in MyMiddleware.run()
LOG: Closed client: /10.0.0.7:59798in MyMiddleware.run()
LOG: Closed client: /10.0.0.7:59802in MyMiddleware.run()
LOG: Closed client: /10.0.0.7:59778in MyMiddleware.run()
LOG: Closed client: /10.0.0.7:59774in MyMiddleware.run()
LOG: Closed client: /10.0.0.7:59810in MyMiddleware.run()
LOG: Closed client: /10.0.0.7:59782in MyMiddleware.run()
LOG: Closed client: /10.0.0.7:59780in MyMiddleware.run()
LOG: Closed client: /10.0.0.7:59772in MyMiddleware.run()
LOG: Closed client: /10.0.0.7:59826in MyMiddleware.run()
LOG: Closed client: /10.0.0.7:59824in MyMiddleware.run()
LOG: Closed client: /10.0.0.7:59812in MyMiddleware.run()
LOG: Closed client: /10.0.0.7:59816in MyMiddleware.run()
LOG: Closed client: /10.0.0.7:59818in MyMiddleware.run()
LOG: Closed client: /10.0.0.7:59822in MyMiddleware.run()
LOG: Closed client: /10.0.0.7:59830in MyMiddleware.run()
LOG: Closed client: /10.0.0.7:59800in MyMiddleware.run()
LOG: Closed client: /10.0.0.7:59814in MyMiddleware.run()
LOG: Closed client: /10.0.0.7:59806in MyMiddleware.run()
LOG: Closed client: /10.0.0.7:59808in MyMiddleware.run()
LOG: Closed client: /10.0.0.7:59828in MyMiddleware.run()
LOG: Closed client: /10.0.0.7:59804in MyMiddleware.run()
LOG: Closed client: /10.0.0.7:59788in MyMiddleware.run()
LOG: Closed client: /10.0.0.7:59820in MyMiddleware.run()
LOG: Closed client: /10.0.0.7:59776in MyMiddleware.run()
