------------Middleware started!------------
LOG: Waiting for connection in MyMiddleware.run()
LOG: Accepted client: /10.0.0.7:39308in MyMiddleware.run()
LOG: Accepted client: /10.0.0.7:39306in MyMiddleware.run()
LOG: Accepted client: /10.0.0.7:39316in MyMiddleware.run()
LOG: Accepted client: /10.0.0.7:39318in MyMiddleware.run()
LOG: Accepted client: /10.0.0.7:39310in MyMiddleware.run()
LOG: Accepted client: /10.0.0.7:39320in MyMiddleware.run()
LOG: Accepted client: /10.0.0.7:39314in MyMiddleware.run()
LOG: Accepted client: /10.0.0.7:39312in MyMiddleware.run()
LOG: Accepted client: /10.0.0.6:45752in MyMiddleware.run()
LOG: Accepted client: /10.0.0.6:45764in MyMiddleware.run()
LOG: Accepted client: /10.0.0.6:45754in MyMiddleware.run()
LOG: Accepted client: /10.0.0.6:45766in MyMiddleware.run()
LOG: Accepted client: /10.0.0.6:45756in MyMiddleware.run()
LOG: Accepted client: /10.0.0.6:45758in MyMiddleware.run()
LOG: Accepted client: /10.0.0.11:37918in MyMiddleware.run()
LOG: Accepted client: /10.0.0.11:37926in MyMiddleware.run()
LOG: Accepted client: /10.0.0.11:37920in MyMiddleware.run()
LOG: Accepted client: /10.0.0.11:37924in MyMiddleware.run()
LOG: Accepted client: /10.0.0.11:37922in MyMiddleware.run()
LOG: Accepted client: /10.0.0.11:37930in MyMiddleware.run()
LOG: Accepted client: /10.0.0.11:37928in MyMiddleware.run()
LOG: Accepted client: /10.0.0.6:45760in MyMiddleware.run()
LOG: Accepted client: /10.0.0.6:45762in MyMiddleware.run()
LOG: Accepted client: /10.0.0.11:37932in MyMiddleware.run()
LOG: Closed client: /10.0.0.7:39308in MyMiddleware.run()
LOG: Closed client: /10.0.0.7:39318in MyMiddleware.run()
LOG: Closed client: /10.0.0.7:39312in MyMiddleware.run()
LOG: Closed client: /10.0.0.7:39320in MyMiddleware.run()
LOG: Closed client: /10.0.0.7:39306in MyMiddleware.run()
LOG: Closed client: /10.0.0.7:39310in MyMiddleware.run()
LOG: Closed client: /10.0.0.7:39316in MyMiddleware.run()
LOG: Closed client: /10.0.0.7:39314in MyMiddleware.run()
LOG: Closed client: /10.0.0.6:45766in MyMiddleware.run()
LOG: Closed client: /10.0.0.6:45764in MyMiddleware.run()
LOG: Closed client: /10.0.0.6:45760in MyMiddleware.run()
LOG: Closed client: /10.0.0.6:45762in MyMiddleware.run()
LOG: Closed client: /10.0.0.6:45754in MyMiddleware.run()
LOG: Closed client: /10.0.0.6:45752in MyMiddleware.run()
LOG: Closed client: /10.0.0.6:45758in MyMiddleware.run()
LOG: Closed client: /10.0.0.6:45756in MyMiddleware.run()
LOG: Closed client: /10.0.0.11:37920in MyMiddleware.run()
LOG: Closed client: /10.0.0.11:37928in MyMiddleware.run()
LOG: Closed client: /10.0.0.11:37924in MyMiddleware.run()
LOG: Closed client: /10.0.0.11:37926in MyMiddleware.run()
LOG: Closed client: /10.0.0.11:37922in MyMiddleware.run()
LOG: Closed client: /10.0.0.11:37930in MyMiddleware.run()
LOG: Closed client: /10.0.0.11:37918in MyMiddleware.run()
LOG: Closed client: /10.0.0.11:37932in MyMiddleware.run()
