------------Middleware started!------------
LOG: Waiting for connection in MyMiddleware.run()
LOG: Accepted client: /10.0.0.11:43398in MyMiddleware.run()
LOG: Accepted client: /10.0.0.11:43422in MyMiddleware.run()
LOG: Accepted client: /10.0.0.11:43416in MyMiddleware.run()
LOG: Accepted client: /10.0.0.11:43420in MyMiddleware.run()
LOG: Accepted client: /10.0.0.7:44812in MyMiddleware.run()
LOG: Accepted client: /10.0.0.7:44818in MyMiddleware.run()
LOG: Accepted client: /10.0.0.11:43396in MyMiddleware.run()
LOG: Accepted client: /10.0.0.11:43412in MyMiddleware.run()
LOG: Accepted client: /10.0.0.11:43400in MyMiddleware.run()
LOG: Accepted client: /10.0.0.7:44822in MyMiddleware.run()
LOG: Accepted client: /10.0.0.11:43424in MyMiddleware.run()
LOG: Accepted client: /10.0.0.7:44808in MyMiddleware.run()
LOG: Accepted client: /10.0.0.7:44828in MyMiddleware.run()
LOG: Accepted client: /10.0.0.7:44816in MyMiddleware.run()
LOG: Accepted client: /10.0.0.7:44824in MyMiddleware.run()
LOG: Accepted client: /10.0.0.7:44830in MyMiddleware.run()
LOG: Accepted client: /10.0.0.11:43402in MyMiddleware.run()
LOG: Accepted client: /10.0.0.11:43404in MyMiddleware.run()
LOG: Accepted client: /10.0.0.11:43426in MyMiddleware.run()
LOG: Accepted client: /10.0.0.11:43406in MyMiddleware.run()
LOG: Accepted client: /10.0.0.11:43418in MyMiddleware.run()
LOG: Accepted client: /10.0.0.11:43408in MyMiddleware.run()
LOG: Accepted client: /10.0.0.11:43410in MyMiddleware.run()
LOG: Accepted client: /10.0.0.7:44814in MyMiddleware.run()
LOG: Accepted client: /10.0.0.7:44834in MyMiddleware.run()
LOG: Accepted client: /10.0.0.11:43414in MyMiddleware.run()
LOG: Accepted client: /10.0.0.7:44836in MyMiddleware.run()
LOG: Accepted client: /10.0.0.7:44832in MyMiddleware.run()
LOG: Accepted client: /10.0.0.7:44838in MyMiddleware.run()
LOG: Accepted client: /10.0.0.7:44826in MyMiddleware.run()
LOG: Accepted client: /10.0.0.7:44820in MyMiddleware.run()
LOG: Accepted client: /10.0.0.6:51258in MyMiddleware.run()
LOG: Accepted client: /10.0.0.7:44810in MyMiddleware.run()
LOG: Accepted client: /10.0.0.6:51264in MyMiddleware.run()
LOG: Accepted client: /10.0.0.6:51252in MyMiddleware.run()
LOG: Accepted client: /10.0.0.6:51260in MyMiddleware.run()
LOG: Accepted client: /10.0.0.6:51254in MyMiddleware.run()
LOG: Accepted client: /10.0.0.6:51256in MyMiddleware.run()
LOG: Accepted client: /10.0.0.6:51268in MyMiddleware.run()
LOG: Accepted client: /10.0.0.6:51282in MyMiddleware.run()
LOG: Accepted client: /10.0.0.6:51276in MyMiddleware.run()
LOG: Accepted client: /10.0.0.6:51278in MyMiddleware.run()
LOG: Accepted client: /10.0.0.6:51266in MyMiddleware.run()
LOG: Accepted client: /10.0.0.6:51270in MyMiddleware.run()
LOG: Accepted client: /10.0.0.6:51272in MyMiddleware.run()
LOG: Accepted client: /10.0.0.6:51262in MyMiddleware.run()
LOG: Accepted client: /10.0.0.6:51274in MyMiddleware.run()
LOG: Accepted client: /10.0.0.6:51280in MyMiddleware.run()
LOG: Closed client: /10.0.0.7:44812in MyMiddleware.run()
LOG: Closed client: /10.0.0.7:44820in MyMiddleware.run()
LOG: Closed client: /10.0.0.7:44810in MyMiddleware.run()
LOG: Closed client: /10.0.0.7:44818in MyMiddleware.run()
LOG: Closed client: /10.0.0.7:44808in MyMiddleware.run()
LOG: Closed client: /10.0.0.7:44822in MyMiddleware.run()
LOG: Closed client: /10.0.0.7:44832in MyMiddleware.run()
LOG: Closed client: /10.0.0.7:44826in MyMiddleware.run()
LOG: Closed client: /10.0.0.7:44838in MyMiddleware.run()
LOG: Closed client: /10.0.0.7:44828in MyMiddleware.run()
LOG: Closed client: /10.0.0.7:44816in MyMiddleware.run()
LOG: Closed client: /10.0.0.7:44830in MyMiddleware.run()
LOG: Closed client: /10.0.0.7:44814in MyMiddleware.run()
LOG: Closed client: /10.0.0.7:44824in MyMiddleware.run()
LOG: Closed client: /10.0.0.7:44834in MyMiddleware.run()
LOG: Closed client: /10.0.0.7:44836in MyMiddleware.run()
LOG: Closed client: /10.0.0.6:51254in MyMiddleware.run()
LOG: Closed client: /10.0.0.6:51270in MyMiddleware.run()
LOG: Closed client: /10.0.0.6:51262in MyMiddleware.run()
LOG: Closed client: /10.0.0.6:51268in MyMiddleware.run()
LOG: Closed client: /10.0.0.6:51266in MyMiddleware.run()
LOG: Closed client: /10.0.0.6:51252in MyMiddleware.run()
LOG: Closed client: /10.0.0.6:51260in MyMiddleware.run()
LOG: Closed client: /10.0.0.6:51258in MyMiddleware.run()
LOG: Closed client: /10.0.0.6:51264in MyMiddleware.run()
LOG: Closed client: /10.0.0.6:51272in MyMiddleware.run()
LOG: Closed client: /10.0.0.6:51256in MyMiddleware.run()
LOG: Closed client: /10.0.0.6:51278in MyMiddleware.run()
LOG: Closed client: /10.0.0.6:51276in MyMiddleware.run()
LOG: Closed client: /10.0.0.6:51274in MyMiddleware.run()
LOG: Closed client: /10.0.0.6:51282in MyMiddleware.run()
LOG: Closed client: /10.0.0.6:51280in MyMiddleware.run()
LOG: Closed client: /10.0.0.11:43406in MyMiddleware.run()
LOG: Closed client: /10.0.0.11:43420in MyMiddleware.run()
LOG: Closed client: /10.0.0.11:43402in MyMiddleware.run()
LOG: Closed client: /10.0.0.11:43426in MyMiddleware.run()
LOG: Closed client: /10.0.0.11:43416in MyMiddleware.run()
LOG: Closed client: /10.0.0.11:43418in MyMiddleware.run()
LOG: Closed client: /10.0.0.11:43398in MyMiddleware.run()
LOG: Closed client: /10.0.0.11:43414in MyMiddleware.run()
LOG: Closed client: /10.0.0.11:43410in MyMiddleware.run()
LOG: Closed client: /10.0.0.11:43404in MyMiddleware.run()
LOG: Closed client: /10.0.0.11:43424in MyMiddleware.run()
LOG: Closed client: /10.0.0.11:43422in MyMiddleware.run()
LOG: Closed client: /10.0.0.11:43412in MyMiddleware.run()
LOG: Closed client: /10.0.0.11:43400in MyMiddleware.run()
LOG: Closed client: /10.0.0.11:43396in MyMiddleware.run()
LOG: Closed client: /10.0.0.11:43408in MyMiddleware.run()
