------------Middleware started!------------
LOG: Waiting for connection in MyMiddleware.run()
LOG: Accepted client: /10.0.0.6:34860in MyMiddleware.run()
LOG: Accepted client: /10.0.0.6:34866in MyMiddleware.run()
LOG: Accepted client: /10.0.0.6:34874in MyMiddleware.run()
LOG: Accepted client: /10.0.0.6:34886in MyMiddleware.run()
LOG: Accepted client: /10.0.0.6:34882in MyMiddleware.run()
LOG: Accepted client: /10.0.0.6:34870in MyMiddleware.run()
LOG: Accepted client: /10.0.0.6:34858in MyMiddleware.run()
LOG: Accepted client: /10.0.0.6:34872in MyMiddleware.run()
LOG: Accepted client: /10.0.0.6:34868in MyMiddleware.run()
LOG: Accepted client: /10.0.0.6:34884in MyMiddleware.run()
LOG: Accepted client: /10.0.0.6:34864in MyMiddleware.run()
LOG: Accepted client: /10.0.0.6:34878in MyMiddleware.run()
LOG: Accepted client: /10.0.0.11:55302in MyMiddleware.run()
LOG: Accepted client: /10.0.0.6:34862in MyMiddleware.run()
LOG: Accepted client: /10.0.0.6:34880in MyMiddleware.run()
LOG: Accepted client: /10.0.0.11:55300in MyMiddleware.run()
LOG: Accepted client: /10.0.0.11:55320in MyMiddleware.run()
LOG: Accepted client: /10.0.0.11:55322in MyMiddleware.run()
LOG: Accepted client: /10.0.0.6:34888in MyMiddleware.run()
LOG: Accepted client: /10.0.0.11:55324in MyMiddleware.run()
LOG: Accepted client: /10.0.0.11:55298in MyMiddleware.run()
LOG: Accepted client: /10.0.0.11:55296in MyMiddleware.run()
LOG: Accepted client: /10.0.0.6:34876in MyMiddleware.run()
LOG: Accepted client: /10.0.0.7:56680in MyMiddleware.run()
LOG: Accepted client: /10.0.0.7:56668in MyMiddleware.run()
LOG: Accepted client: /10.0.0.7:56670in MyMiddleware.run()
LOG: Accepted client: /10.0.0.7:56672in MyMiddleware.run()
LOG: Accepted client: /10.0.0.7:56674in MyMiddleware.run()
LOG: Accepted client: /10.0.0.7:56678in MyMiddleware.run()
LOG: Accepted client: /10.0.0.7:56676in MyMiddleware.run()
LOG: Accepted client: /10.0.0.7:56658in MyMiddleware.run()
LOG: Accepted client: /10.0.0.11:55308in MyMiddleware.run()
LOG: Accepted client: /10.0.0.11:55294in MyMiddleware.run()
LOG: Accepted client: /10.0.0.11:55306in MyMiddleware.run()
LOG: Accepted client: /10.0.0.11:55316in MyMiddleware.run()
LOG: Accepted client: /10.0.0.11:55318in MyMiddleware.run()
LOG: Accepted client: /10.0.0.11:55310in MyMiddleware.run()
LOG: Accepted client: /10.0.0.11:55304in MyMiddleware.run()
LOG: Accepted client: /10.0.0.7:56664in MyMiddleware.run()
LOG: Accepted client: /10.0.0.11:55312in MyMiddleware.run()
LOG: Accepted client: /10.0.0.11:55314in MyMiddleware.run()
LOG: Accepted client: /10.0.0.7:56666in MyMiddleware.run()
LOG: Accepted client: /10.0.0.7:56682in MyMiddleware.run()
LOG: Accepted client: /10.0.0.7:56656in MyMiddleware.run()
LOG: Accepted client: /10.0.0.7:56684in MyMiddleware.run()
LOG: Accepted client: /10.0.0.7:56654in MyMiddleware.run()
LOG: Accepted client: /10.0.0.7:56660in MyMiddleware.run()
LOG: Accepted client: /10.0.0.7:56662in MyMiddleware.run()
LOG: Closed client: /10.0.0.6:34860in MyMiddleware.run()
LOG: Closed client: /10.0.0.6:34870in MyMiddleware.run()
LOG: Closed client: /10.0.0.6:34866in MyMiddleware.run()
LOG: Closed client: /10.0.0.6:34874in MyMiddleware.run()
LOG: Closed client: /10.0.0.6:34864in MyMiddleware.run()
LOG: Closed client: /10.0.0.6:34886in MyMiddleware.run()
LOG: Closed client: /10.0.0.6:34888in MyMiddleware.run()
LOG: Closed client: /10.0.0.6:34858in MyMiddleware.run()
LOG: Closed client: /10.0.0.6:34862in MyMiddleware.run()
LOG: Closed client: /10.0.0.6:34868in MyMiddleware.run()
LOG: Closed client: /10.0.0.6:34872in MyMiddleware.run()
LOG: Closed client: /10.0.0.6:34878in MyMiddleware.run()
LOG: Closed client: /10.0.0.6:34882in MyMiddleware.run()
LOG: Closed client: /10.0.0.6:34884in MyMiddleware.run()
LOG: Closed client: /10.0.0.6:34876in MyMiddleware.run()
LOG: Closed client: /10.0.0.6:34880in MyMiddleware.run()
LOG: Closed client: /10.0.0.7:56660in MyMiddleware.run()
LOG: Closed client: /10.0.0.7:56658in MyMiddleware.run()
LOG: Closed client: /10.0.0.7:56656in MyMiddleware.run()
LOG: Closed client: /10.0.0.7:56674in MyMiddleware.run()
LOG: Closed client: /10.0.0.7:56676in MyMiddleware.run()
LOG: Closed client: /10.0.0.7:56664in MyMiddleware.run()
LOG: Closed client: /10.0.0.7:56670in MyMiddleware.run()
LOG: Closed client: /10.0.0.7:56662in MyMiddleware.run()
LOG: Closed client: /10.0.0.7:56680in MyMiddleware.run()
LOG: Closed client: /10.0.0.7:56654in MyMiddleware.run()
LOG: Closed client: /10.0.0.7:56672in MyMiddleware.run()
LOG: Closed client: /10.0.0.7:56668in MyMiddleware.run()
LOG: Closed client: /10.0.0.7:56684in MyMiddleware.run()
LOG: Closed client: /10.0.0.7:56682in MyMiddleware.run()
LOG: Closed client: /10.0.0.7:56678in MyMiddleware.run()
LOG: Closed client: /10.0.0.7:56666in MyMiddleware.run()
LOG: Closed client: /10.0.0.11:55294in MyMiddleware.run()
LOG: Closed client: /10.0.0.11:55298in MyMiddleware.run()
LOG: Closed client: /10.0.0.11:55296in MyMiddleware.run()
LOG: Closed client: /10.0.0.11:55302in MyMiddleware.run()
LOG: Closed client: /10.0.0.11:55312in MyMiddleware.run()
LOG: Closed client: /10.0.0.11:55316in MyMiddleware.run()
LOG: Closed client: /10.0.0.11:55320in MyMiddleware.run()
LOG: Closed client: /10.0.0.11:55304in MyMiddleware.run()
LOG: Closed client: /10.0.0.11:55300in MyMiddleware.run()
LOG: Closed client: /10.0.0.11:55322in MyMiddleware.run()
LOG: Closed client: /10.0.0.11:55324in MyMiddleware.run()
LOG: Closed client: /10.0.0.11:55318in MyMiddleware.run()
LOG: Closed client: /10.0.0.11:55310in MyMiddleware.run()
LOG: Closed client: /10.0.0.11:55306in MyMiddleware.run()
LOG: Closed client: /10.0.0.11:55308in MyMiddleware.run()
LOG: Closed client: /10.0.0.11:55314in MyMiddleware.run()
