------------Middleware started!------------
LOG: Waiting for connection in MyMiddleware.run()
LOG: Accepted client: /10.0.0.7:34430in MyMiddleware.run()
LOG: Accepted client: /10.0.0.7:34424in MyMiddleware.run()
LOG: Accepted client: /10.0.0.7:34428in MyMiddleware.run()
LOG: Accepted client: /10.0.0.7:34456in MyMiddleware.run()
LOG: Accepted client: /10.0.0.7:34442in MyMiddleware.run()
LOG: Accepted client: /10.0.0.7:34434in MyMiddleware.run()
LOG: Accepted client: /10.0.0.7:34460in MyMiddleware.run()
LOG: Accepted client: /10.0.0.7:34416in MyMiddleware.run()
LOG: Accepted client: /10.0.0.7:34466in MyMiddleware.run()
LOG: Accepted client: /10.0.0.7:34462in MyMiddleware.run()
LOG: Accepted client: /10.0.0.7:34458in MyMiddleware.run()
LOG: Accepted client: /10.0.0.7:34468in MyMiddleware.run()
LOG: Accepted client: /10.0.0.7:34436in MyMiddleware.run()
LOG: Accepted client: /10.0.0.7:34454in MyMiddleware.run()
LOG: Accepted client: /10.0.0.7:34476in MyMiddleware.run()
LOG: Accepted client: /10.0.0.7:34432in MyMiddleware.run()
LOG: Accepted client: /10.0.0.7:34450in MyMiddleware.run()
LOG: Accepted client: /10.0.0.7:34470in MyMiddleware.run()
LOG: Accepted client: /10.0.0.7:34426in MyMiddleware.run()
LOG: Accepted client: /10.0.0.7:34440in MyMiddleware.run()
LOG: Accepted client: /10.0.0.7:34448in MyMiddleware.run()
LOG: Accepted client: /10.0.0.7:34446in MyMiddleware.run()
LOG: Accepted client: /10.0.0.7:34418in MyMiddleware.run()
LOG: Accepted client: /10.0.0.7:34452in MyMiddleware.run()
LOG: Accepted client: /10.0.0.7:34438in MyMiddleware.run()
LOG: Accepted client: /10.0.0.7:34422in MyMiddleware.run()
LOG: Accepted client: /10.0.0.7:34420in MyMiddleware.run()
LOG: Accepted client: /10.0.0.7:34414in MyMiddleware.run()
LOG: Accepted client: /10.0.0.7:34472in MyMiddleware.run()
LOG: Accepted client: /10.0.0.7:34474in MyMiddleware.run()
LOG: Accepted client: /10.0.0.7:34444in MyMiddleware.run()
LOG: Accepted client: /10.0.0.7:34464in MyMiddleware.run()
LOG: Accepted client: /10.0.0.11:33066in MyMiddleware.run()
LOG: Accepted client: /10.0.0.11:33036in MyMiddleware.run()
LOG: Accepted client: /10.0.0.11:33072in MyMiddleware.run()
LOG: Accepted client: /10.0.0.11:33074in MyMiddleware.run()
LOG: Accepted client: /10.0.0.11:33070in MyMiddleware.run()
LOG: Accepted client: /10.0.0.11:33068in MyMiddleware.run()
LOG: Accepted client: /10.0.0.11:33064in MyMiddleware.run()
LOG: Accepted client: /10.0.0.11:33076in MyMiddleware.run()
LOG: Accepted client: /10.0.0.11:33078in MyMiddleware.run()
LOG: Accepted client: /10.0.0.11:33038in MyMiddleware.run()
LOG: Accepted client: /10.0.0.11:33054in MyMiddleware.run()
LOG: Accepted client: /10.0.0.11:33048in MyMiddleware.run()
LOG: Accepted client: /10.0.0.11:33052in MyMiddleware.run()
LOG: Accepted client: /10.0.0.11:33056in MyMiddleware.run()
LOG: Accepted client: /10.0.0.11:33058in MyMiddleware.run()
LOG: Accepted client: /10.0.0.11:33060in MyMiddleware.run()
LOG: Accepted client: /10.0.0.11:33062in MyMiddleware.run()
LOG: Accepted client: /10.0.0.11:33050in MyMiddleware.run()
LOG: Accepted client: /10.0.0.6:40948in MyMiddleware.run()
LOG: Accepted client: /10.0.0.6:40950in MyMiddleware.run()
LOG: Accepted client: /10.0.0.6:40940in MyMiddleware.run()
LOG: Accepted client: /10.0.0.6:40942in MyMiddleware.run()
LOG: Accepted client: /10.0.0.6:40952in MyMiddleware.run()
LOG: Accepted client: /10.0.0.11:33104in MyMiddleware.run()
LOG: Accepted client: /10.0.0.6:40946in MyMiddleware.run()
LOG: Accepted client: /10.0.0.6:40944in MyMiddleware.run()
LOG: Accepted client: /10.0.0.11:33106in MyMiddleware.run()
LOG: Accepted client: /10.0.0.11:33044in MyMiddleware.run()
LOG: Accepted client: /10.0.0.11:33102in MyMiddleware.run()
LOG: Accepted client: /10.0.0.11:33080in MyMiddleware.run()
LOG: Accepted client: /10.0.0.6:40982in MyMiddleware.run()
LOG: Accepted client: /10.0.0.6:40962in MyMiddleware.run()
LOG: Accepted client: /10.0.0.6:40980in MyMiddleware.run()
LOG: Accepted client: /10.0.0.6:40960in MyMiddleware.run()
LOG: Accepted client: /10.0.0.11:33082in MyMiddleware.run()
LOG: Accepted client: /10.0.0.11:33046in MyMiddleware.run()
LOG: Accepted client: /10.0.0.6:40936in MyMiddleware.run()
LOG: Accepted client: /10.0.0.6:40938in MyMiddleware.run()
LOG: Accepted client: /10.0.0.6:40992in MyMiddleware.run()
LOG: Accepted client: /10.0.0.11:33112in MyMiddleware.run()
LOG: Accepted client: /10.0.0.6:40958in MyMiddleware.run()
LOG: Accepted client: /10.0.0.6:40974in MyMiddleware.run()
LOG: Accepted client: /10.0.0.6:40972in MyMiddleware.run()
LOG: Accepted client: /10.0.0.6:40956in MyMiddleware.run()
LOG: Accepted client: /10.0.0.11:33108in MyMiddleware.run()
LOG: Accepted client: /10.0.0.6:40990in MyMiddleware.run()
LOG: Accepted client: /10.0.0.6:40986in MyMiddleware.run()
LOG: Accepted client: /10.0.0.11:33110in MyMiddleware.run()
LOG: Accepted client: /10.0.0.11:33086in MyMiddleware.run()
LOG: Accepted client: /10.0.0.11:33042in MyMiddleware.run()
LOG: Accepted client: /10.0.0.11:33084in MyMiddleware.run()
LOG: Accepted client: /10.0.0.11:33040in MyMiddleware.run()
LOG: Accepted client: /10.0.0.6:40930in MyMiddleware.run()
LOG: Accepted client: /10.0.0.6:40968in MyMiddleware.run()
LOG: Accepted client: /10.0.0.6:40970in MyMiddleware.run()
LOG: Accepted client: /10.0.0.6:40978in MyMiddleware.run()
LOG: Accepted client: /10.0.0.6:40976in MyMiddleware.run()
LOG: Accepted client: /10.0.0.6:40954in MyMiddleware.run()
LOG: Accepted client: /10.0.0.6:40984in MyMiddleware.run()
LOG: Accepted client: /10.0.0.6:40988in MyMiddleware.run()
LOG: Accepted client: /10.0.0.6:40966in MyMiddleware.run()
LOG: Accepted client: /10.0.0.6:40964in MyMiddleware.run()
LOG: Accepted client: /10.0.0.6:40932in MyMiddleware.run()
LOG: Accepted client: /10.0.0.6:40934in MyMiddleware.run()
LOG: Closed client: /10.0.0.7:34418in MyMiddleware.run()
LOG: Closed client: /10.0.0.7:34432in MyMiddleware.run()
LOG: Closed client: /10.0.0.7:34462in MyMiddleware.run()
LOG: Closed client: /10.0.0.7:34422in MyMiddleware.run()
LOG: Closed client: /10.0.0.7:34456in MyMiddleware.run()
LOG: Closed client: /10.0.0.7:34458in MyMiddleware.run()
LOG: Closed client: /10.0.0.7:34464in MyMiddleware.run()
LOG: Closed client: /10.0.0.7:34436in MyMiddleware.run()
LOG: Closed client: /10.0.0.7:34452in MyMiddleware.run()
LOG: Closed client: /10.0.0.7:34420in MyMiddleware.run()
LOG: Closed client: /10.0.0.7:34438in MyMiddleware.run()
LOG: Closed client: /10.0.0.7:34426in MyMiddleware.run()
LOG: Closed client: /10.0.0.7:34428in MyMiddleware.run()
LOG: Closed client: /10.0.0.7:34440in MyMiddleware.run()
LOG: Closed client: /10.0.0.7:34442in MyMiddleware.run()
LOG: Closed client: /10.0.0.7:34444in MyMiddleware.run()
LOG: Closed client: /10.0.0.7:34448in MyMiddleware.run()
LOG: Closed client: /10.0.0.7:34414in MyMiddleware.run()
LOG: Closed client: /10.0.0.7:34434in MyMiddleware.run()
LOG: Closed client: /10.0.0.7:34430in MyMiddleware.run()
LOG: Closed client: /10.0.0.7:34454in MyMiddleware.run()
LOG: Closed client: /10.0.0.7:34424in MyMiddleware.run()
LOG: Closed client: /10.0.0.7:34416in MyMiddleware.run()
LOG: Closed client: /10.0.0.7:34460in MyMiddleware.run()
LOG: Closed client: /10.0.0.7:34446in MyMiddleware.run()
LOG: Closed client: /10.0.0.7:34450in MyMiddleware.run()
LOG: Closed client: /10.0.0.7:34468in MyMiddleware.run()
LOG: Closed client: /10.0.0.7:34466in MyMiddleware.run()
LOG: Closed client: /10.0.0.7:34472in MyMiddleware.run()
LOG: Closed client: /10.0.0.7:34470in MyMiddleware.run()
LOG: Closed client: /10.0.0.7:34474in MyMiddleware.run()
LOG: Closed client: /10.0.0.7:34476in MyMiddleware.run()
LOG: Closed client: /10.0.0.11:33046in MyMiddleware.run()
LOG: Closed client: /10.0.0.11:33038in MyMiddleware.run()
LOG: Closed client: /10.0.0.11:33044in MyMiddleware.run()
LOG: Closed client: /10.0.0.11:33054in MyMiddleware.run()
LOG: Closed client: /10.0.0.11:33040in MyMiddleware.run()
LOG: Closed client: /10.0.0.11:33042in MyMiddleware.run()
LOG: Closed client: /10.0.0.11:33056in MyMiddleware.run()
LOG: Closed client: /10.0.0.11:33036in MyMiddleware.run()
LOG: Closed client: /10.0.0.11:33052in MyMiddleware.run()
LOG: Closed client: /10.0.0.11:33058in MyMiddleware.run()
LOG: Closed client: /10.0.0.11:33050in MyMiddleware.run()
LOG: Closed client: /10.0.0.11:33066in MyMiddleware.run()
LOG: Closed client: /10.0.0.11:33074in MyMiddleware.run()
LOG: Closed client: /10.0.0.11:33060in MyMiddleware.run()
LOG: Closed client: /10.0.0.11:33076in MyMiddleware.run()
LOG: Closed client: /10.0.0.11:33070in MyMiddleware.run()
LOG: Closed client: /10.0.0.11:33048in MyMiddleware.run()
LOG: Closed client: /10.0.0.11:33062in MyMiddleware.run()
LOG: Closed client: /10.0.0.11:33084in MyMiddleware.run()
LOG: Closed client: /10.0.0.11:33086in MyMiddleware.run()
LOG: Closed client: /10.0.0.11:33064in MyMiddleware.run()
LOG: Closed client: /10.0.0.11:33078in MyMiddleware.run()
LOG: Closed client: /10.0.0.11:33072in MyMiddleware.run()
LOG: Closed client: /10.0.0.11:33068in MyMiddleware.run()
LOG: Closed client: /10.0.0.11:33080in MyMiddleware.run()
LOG: Closed client: /10.0.0.11:33110in MyMiddleware.run()
LOG: Closed client: /10.0.0.11:33112in MyMiddleware.run()
LOG: Closed client: /10.0.0.11:33108in MyMiddleware.run()
LOG: Closed client: /10.0.0.11:33104in MyMiddleware.run()
LOG: Closed client: /10.0.0.11:33106in MyMiddleware.run()
LOG: Closed client: /10.0.0.11:33082in MyMiddleware.run()
LOG: Closed client: /10.0.0.11:33102in MyMiddleware.run()
LOG: Closed client: /10.0.0.6:40952in MyMiddleware.run()
LOG: Closed client: /10.0.0.6:40960in MyMiddleware.run()
LOG: Closed client: /10.0.0.6:40954in MyMiddleware.run()
LOG: Closed client: /10.0.0.6:40948in MyMiddleware.run()
LOG: Closed client: /10.0.0.6:40942in MyMiddleware.run()
LOG: Closed client: /10.0.0.6:40970in MyMiddleware.run()
LOG: Closed client: /10.0.0.6:40986in MyMiddleware.run()
LOG: Closed client: /10.0.0.6:40956in MyMiddleware.run()
LOG: Closed client: /10.0.0.6:40972in MyMiddleware.run()
LOG: Closed client: /10.0.0.6:40950in MyMiddleware.run()
LOG: Closed client: /10.0.0.6:40988in MyMiddleware.run()
LOG: Closed client: /10.0.0.6:40938in MyMiddleware.run()
LOG: Closed client: /10.0.0.6:40966in MyMiddleware.run()
LOG: Closed client: /10.0.0.6:40944in MyMiddleware.run()
LOG: Closed client: /10.0.0.6:40980in MyMiddleware.run()
LOG: Closed client: /10.0.0.6:40968in MyMiddleware.run()
LOG: Closed client: /10.0.0.6:40946in MyMiddleware.run()
LOG: Closed client: /10.0.0.6:40932in MyMiddleware.run()
LOG: Closed client: /10.0.0.6:40936in MyMiddleware.run()
LOG: Closed client: /10.0.0.6:40962in MyMiddleware.run()
LOG: Closed client: /10.0.0.6:40958in MyMiddleware.run()
LOG: Closed client: /10.0.0.6:40984in MyMiddleware.run()
LOG: Closed client: /10.0.0.6:40930in MyMiddleware.run()
LOG: Closed client: /10.0.0.6:40940in MyMiddleware.run()
LOG: Closed client: /10.0.0.6:40990in MyMiddleware.run()
LOG: Closed client: /10.0.0.6:40978in MyMiddleware.run()
LOG: Closed client: /10.0.0.6:40982in MyMiddleware.run()
LOG: Closed client: /10.0.0.6:40964in MyMiddleware.run()
LOG: Closed client: /10.0.0.6:40974in MyMiddleware.run()
LOG: Closed client: /10.0.0.6:40934in MyMiddleware.run()
LOG: Closed client: /10.0.0.6:40976in MyMiddleware.run()
LOG: Closed client: /10.0.0.6:40992in MyMiddleware.run()
