------------Middleware started!------------
LOG: Waiting for connection in MyMiddleware.run()
LOG: Accepted client: /10.0.0.11:36636in MyMiddleware.run()
LOG: Accepted client: /10.0.0.11:36630in MyMiddleware.run()
LOG: Accepted client: /10.0.0.11:36634in MyMiddleware.run()
LOG: Accepted client: /10.0.0.11:36632in MyMiddleware.run()
LOG: Accepted client: /10.0.0.6:44520in MyMiddleware.run()
LOG: Accepted client: /10.0.0.6:44526in MyMiddleware.run()
LOG: Accepted client: /10.0.0.6:44524in MyMiddleware.run()
LOG: Accepted client: /10.0.0.6:44522in MyMiddleware.run()
LOG: Accepted client: /10.0.0.7:38062in MyMiddleware.run()
LOG: Accepted client: /10.0.0.7:38060in MyMiddleware.run()
LOG: Accepted client: /10.0.0.7:38064in MyMiddleware.run()
LOG: Accepted client: /10.0.0.7:38058in MyMiddleware.run()
LOG: Closed client: /10.0.0.6:44522in MyMiddleware.run()
LOG: Closed client: /10.0.0.6:44520in MyMiddleware.run()
LOG: Closed client: /10.0.0.6:44524in MyMiddleware.run()
LOG: Closed client: /10.0.0.6:44526in MyMiddleware.run()
LOG: Closed client: /10.0.0.11:36630in MyMiddleware.run()
LOG: Closed client: /10.0.0.11:36632in MyMiddleware.run()
LOG: Closed client: /10.0.0.11:36634in MyMiddleware.run()
LOG: Closed client: /10.0.0.11:36636in MyMiddleware.run()
LOG: Closed client: /10.0.0.7:38058in MyMiddleware.run()
LOG: Closed client: /10.0.0.7:38062in MyMiddleware.run()
LOG: Closed client: /10.0.0.7:38060in MyMiddleware.run()
LOG: Closed client: /10.0.0.7:38064in MyMiddleware.run()
