------------Middleware started!------------
LOG: Waiting for connection in MyMiddleware.run()
LOG: Accepted client: /10.0.0.11:46562in MyMiddleware.run()
LOG: Accepted client: /10.0.0.11:46524in MyMiddleware.run()
LOG: Accepted client: /10.0.0.11:46544in MyMiddleware.run()
LOG: Accepted client: /10.0.0.11:46576in MyMiddleware.run()
LOG: Accepted client: /10.0.0.11:46538in MyMiddleware.run()
LOG: Accepted client: /10.0.0.11:46536in MyMiddleware.run()
LOG: Accepted client: /10.0.0.11:46550in MyMiddleware.run()
LOG: Accepted client: /10.0.0.11:46526in MyMiddleware.run()
LOG: Accepted client: /10.0.0.11:46564in MyMiddleware.run()
LOG: Accepted client: /10.0.0.11:46530in MyMiddleware.run()
LOG: Accepted client: /10.0.0.11:46566in MyMiddleware.run()
LOG: Accepted client: /10.0.0.11:46528in MyMiddleware.run()
LOG: Accepted client: /10.0.0.11:46532in MyMiddleware.run()
LOG: Accepted client: /10.0.0.11:46546in MyMiddleware.run()
LOG: Accepted client: /10.0.0.11:46584in MyMiddleware.run()
LOG: Accepted client: /10.0.0.11:46568in MyMiddleware.run()
LOG: Accepted client: /10.0.0.11:46560in MyMiddleware.run()
LOG: Accepted client: /10.0.0.11:46556in MyMiddleware.run()
LOG: Accepted client: /10.0.0.11:46574in MyMiddleware.run()
LOG: Accepted client: /10.0.0.11:46558in MyMiddleware.run()
LOG: Accepted client: /10.0.0.11:46542in MyMiddleware.run()
LOG: Accepted client: /10.0.0.11:46578in MyMiddleware.run()
LOG: Accepted client: /10.0.0.11:46548in MyMiddleware.run()
LOG: Accepted client: /10.0.0.11:46540in MyMiddleware.run()
LOG: Accepted client: /10.0.0.11:46572in MyMiddleware.run()
LOG: Accepted client: /10.0.0.11:46586in MyMiddleware.run()
LOG: Accepted client: /10.0.0.11:46552in MyMiddleware.run()
LOG: Accepted client: /10.0.0.11:46580in MyMiddleware.run()
LOG: Accepted client: /10.0.0.11:46554in MyMiddleware.run()
LOG: Accepted client: /10.0.0.11:46582in MyMiddleware.run()
LOG: Accepted client: /10.0.0.11:46534in MyMiddleware.run()
LOG: Accepted client: /10.0.0.11:46570in MyMiddleware.run()
LOG: Accepted client: /10.0.0.6:54442in MyMiddleware.run()
LOG: Accepted client: /10.0.0.6:54444in MyMiddleware.run()
LOG: Accepted client: /10.0.0.6:54440in MyMiddleware.run()
LOG: Accepted client: /10.0.0.6:54422in MyMiddleware.run()
LOG: Accepted client: /10.0.0.6:54446in MyMiddleware.run()
LOG: Accepted client: /10.0.0.6:54470in MyMiddleware.run()
LOG: Accepted client: /10.0.0.6:54448in MyMiddleware.run()
LOG: Accepted client: /10.0.0.6:54472in MyMiddleware.run()
LOG: Accepted client: /10.0.0.6:54434in MyMiddleware.run()
LOG: Accepted client: /10.0.0.6:54450in MyMiddleware.run()
LOG: Accepted client: /10.0.0.6:54432in MyMiddleware.run()
LOG: Accepted client: /10.0.0.6:54484in MyMiddleware.run()
LOG: Accepted client: /10.0.0.6:54452in MyMiddleware.run()
LOG: Accepted client: /10.0.0.6:54462in MyMiddleware.run()
LOG: Accepted client: /10.0.0.6:54454in MyMiddleware.run()
LOG: Accepted client: /10.0.0.6:54466in MyMiddleware.run()
LOG: Accepted client: /10.0.0.6:54464in MyMiddleware.run()
LOG: Accepted client: /10.0.0.6:54478in MyMiddleware.run()
LOG: Accepted client: /10.0.0.6:54458in MyMiddleware.run()
LOG: Accepted client: /10.0.0.6:54456in MyMiddleware.run()
LOG: Accepted client: /10.0.0.6:54476in MyMiddleware.run()
LOG: Accepted client: /10.0.0.6:54426in MyMiddleware.run()
LOG: Accepted client: /10.0.0.6:54424in MyMiddleware.run()
LOG: Accepted client: /10.0.0.6:54460in MyMiddleware.run()
LOG: Accepted client: /10.0.0.6:54474in MyMiddleware.run()
LOG: Accepted client: /10.0.0.6:54468in MyMiddleware.run()
LOG: Accepted client: /10.0.0.6:54428in MyMiddleware.run()
LOG: Accepted client: /10.0.0.6:54430in MyMiddleware.run()
LOG: Accepted client: /10.0.0.7:48032in MyMiddleware.run()
LOG: Accepted client: /10.0.0.7:48036in MyMiddleware.run()
LOG: Accepted client: /10.0.0.7:48034in MyMiddleware.run()
LOG: Accepted client: /10.0.0.6:54436in MyMiddleware.run()
LOG: Accepted client: /10.0.0.6:54480in MyMiddleware.run()
LOG: Accepted client: /10.0.0.6:54482in MyMiddleware.run()
LOG: Accepted client: /10.0.0.6:54438in MyMiddleware.run()
LOG: Accepted client: /10.0.0.7:48056in MyMiddleware.run()
LOG: Accepted client: /10.0.0.7:48088in MyMiddleware.run()
LOG: Accepted client: /10.0.0.7:48090in MyMiddleware.run()
LOG: Accepted client: /10.0.0.7:48062in MyMiddleware.run()
LOG: Accepted client: /10.0.0.7:48066in MyMiddleware.run()
LOG: Accepted client: /10.0.0.7:48072in MyMiddleware.run()
LOG: Accepted client: /10.0.0.7:48064in MyMiddleware.run()
LOG: Accepted client: /10.0.0.7:48042in MyMiddleware.run()
LOG: Accepted client: /10.0.0.7:48046in MyMiddleware.run()
LOG: Accepted client: /10.0.0.7:48044in MyMiddleware.run()
LOG: Accepted client: /10.0.0.7:48052in MyMiddleware.run()
LOG: Accepted client: /10.0.0.7:48040in MyMiddleware.run()
LOG: Accepted client: /10.0.0.7:48038in MyMiddleware.run()
LOG: Accepted client: /10.0.0.7:48092in MyMiddleware.run()
LOG: Accepted client: /10.0.0.7:48082in MyMiddleware.run()
LOG: Accepted client: /10.0.0.7:48094in MyMiddleware.run()
LOG: Accepted client: /10.0.0.7:48080in MyMiddleware.run()
LOG: Accepted client: /10.0.0.7:48054in MyMiddleware.run()
LOG: Accepted client: /10.0.0.7:48060in MyMiddleware.run()
LOG: Accepted client: /10.0.0.7:48074in MyMiddleware.run()
LOG: Accepted client: /10.0.0.7:48050in MyMiddleware.run()
LOG: Accepted client: /10.0.0.7:48048in MyMiddleware.run()
LOG: Accepted client: /10.0.0.7:48084in MyMiddleware.run()
LOG: Accepted client: /10.0.0.7:48068in MyMiddleware.run()
LOG: Accepted client: /10.0.0.7:48086in MyMiddleware.run()
LOG: Accepted client: /10.0.0.7:48070in MyMiddleware.run()
LOG: Accepted client: /10.0.0.7:48076in MyMiddleware.run()
LOG: Accepted client: /10.0.0.7:48078in MyMiddleware.run()
LOG: Accepted client: /10.0.0.7:48058in MyMiddleware.run()
LOG: Closed client: /10.0.0.6:54436in MyMiddleware.run()
LOG: Closed client: /10.0.0.6:54472in MyMiddleware.run()
LOG: Closed client: /10.0.0.6:54470in MyMiddleware.run()
LOG: Closed client: /10.0.0.6:54468in MyMiddleware.run()
LOG: Closed client: /10.0.0.6:54454in MyMiddleware.run()
LOG: Closed client: /10.0.0.6:54484in MyMiddleware.run()
LOG: Closed client: /10.0.0.6:54430in MyMiddleware.run()
LOG: Closed client: /10.0.0.6:54456in MyMiddleware.run()
LOG: Closed client: /10.0.0.6:54462in MyMiddleware.run()
LOG: Closed client: /10.0.0.6:54428in MyMiddleware.run()
LOG: Closed client: /10.0.0.6:54482in MyMiddleware.run()
LOG: Closed client: /10.0.0.6:54444in MyMiddleware.run()
LOG: Closed client: /10.0.0.6:54452in MyMiddleware.run()
LOG: Closed client: /10.0.0.6:54432in MyMiddleware.run()
LOG: Closed client: /10.0.0.6:54474in MyMiddleware.run()
LOG: Closed client: /10.0.0.6:54450in MyMiddleware.run()
LOG: Closed client: /10.0.0.6:54438in MyMiddleware.run()
LOG: Closed client: /10.0.0.6:54458in MyMiddleware.run()
LOG: Closed client: /10.0.0.6:54440in MyMiddleware.run()
LOG: Closed client: /10.0.0.6:54476in MyMiddleware.run()
LOG: Closed client: /10.0.0.6:54442in MyMiddleware.run()
LOG: Closed client: /10.0.0.6:54448in MyMiddleware.run()
LOG: Closed client: /10.0.0.6:54426in MyMiddleware.run()
LOG: Closed client: /10.0.0.6:54466in MyMiddleware.run()
LOG: Closed client: /10.0.0.6:54422in MyMiddleware.run()
LOG: Closed client: /10.0.0.6:54446in MyMiddleware.run()
LOG: Closed client: /10.0.0.6:54464in MyMiddleware.run()
LOG: Closed client: /10.0.0.6:54460in MyMiddleware.run()
LOG: Closed client: /10.0.0.6:54424in MyMiddleware.run()
LOG: Closed client: /10.0.0.6:54480in MyMiddleware.run()
LOG: Closed client: /10.0.0.6:54434in MyMiddleware.run()
LOG: Closed client: /10.0.0.6:54478in MyMiddleware.run()
LOG: Closed client: /10.0.0.11:46526in MyMiddleware.run()
LOG: Closed client: /10.0.0.11:46538in MyMiddleware.run()
LOG: Closed client: /10.0.0.11:46560in MyMiddleware.run()
LOG: Closed client: /10.0.0.11:46556in MyMiddleware.run()
LOG: Closed client: /10.0.0.11:46534in MyMiddleware.run()
LOG: Closed client: /10.0.0.11:46546in MyMiddleware.run()
LOG: Closed client: /10.0.0.11:46528in MyMiddleware.run()
LOG: Closed client: /10.0.0.11:46524in MyMiddleware.run()
LOG: Closed client: /10.0.0.11:46530in MyMiddleware.run()
LOG: Closed client: /10.0.0.11:46544in MyMiddleware.run()
LOG: Closed client: /10.0.0.11:46536in MyMiddleware.run()
LOG: Closed client: /10.0.0.11:46540in MyMiddleware.run()
LOG: Closed client: /10.0.0.11:46542in MyMiddleware.run()
LOG: Closed client: /10.0.0.11:46548in MyMiddleware.run()
LOG: Closed client: /10.0.0.11:46532in MyMiddleware.run()
LOG: Closed client: /10.0.0.11:46562in MyMiddleware.run()
LOG: Closed client: /10.0.0.11:46576in MyMiddleware.run()
LOG: Closed client: /10.0.0.11:46580in MyMiddleware.run()
LOG: Closed client: /10.0.0.11:46550in MyMiddleware.run()
LOG: Closed client: /10.0.0.11:46552in MyMiddleware.run()
LOG: Closed client: /10.0.0.11:46554in MyMiddleware.run()
LOG: Closed client: /10.0.0.11:46570in MyMiddleware.run()
LOG: Closed client: /10.0.0.11:46568in MyMiddleware.run()
LOG: Closed client: /10.0.0.11:46582in MyMiddleware.run()
LOG: Closed client: /10.0.0.11:46574in MyMiddleware.run()
LOG: Closed client: /10.0.0.11:46586in MyMiddleware.run()
LOG: Closed client: /10.0.0.11:46558in MyMiddleware.run()
LOG: Closed client: /10.0.0.11:46564in MyMiddleware.run()
LOG: Closed client: /10.0.0.11:46572in MyMiddleware.run()
LOG: Closed client: /10.0.0.11:46578in MyMiddleware.run()
LOG: Closed client: /10.0.0.11:46566in MyMiddleware.run()
LOG: Closed client: /10.0.0.11:46584in MyMiddleware.run()
LOG: Closed client: /10.0.0.7:48032in MyMiddleware.run()
LOG: Closed client: /10.0.0.7:48042in MyMiddleware.run()
LOG: Closed client: /10.0.0.7:48040in MyMiddleware.run()
LOG: Closed client: /10.0.0.7:48034in MyMiddleware.run()
LOG: Closed client: /10.0.0.7:48084in MyMiddleware.run()
LOG: Closed client: /10.0.0.7:48092in MyMiddleware.run()
LOG: Closed client: /10.0.0.7:48064in MyMiddleware.run()
LOG: Closed client: /10.0.0.7:48062in MyMiddleware.run()
LOG: Closed client: /10.0.0.7:48068in MyMiddleware.run()
LOG: Closed client: /10.0.0.7:48038in MyMiddleware.run()
LOG: Closed client: /10.0.0.7:48080in MyMiddleware.run()
LOG: Closed client: /10.0.0.7:48058in MyMiddleware.run()
LOG: Closed client: /10.0.0.7:48050in MyMiddleware.run()
LOG: Closed client: /10.0.0.7:48066in MyMiddleware.run()
LOG: Closed client: /10.0.0.7:48072in MyMiddleware.run()
LOG: Closed client: /10.0.0.7:48056in MyMiddleware.run()
LOG: Closed client: /10.0.0.7:48054in MyMiddleware.run()
LOG: Closed client: /10.0.0.7:48086in MyMiddleware.run()
LOG: Closed client: /10.0.0.7:48076in MyMiddleware.run()
LOG: Closed client: /10.0.0.7:48088in MyMiddleware.run()
LOG: Closed client: /10.0.0.7:48046in MyMiddleware.run()
LOG: Closed client: /10.0.0.7:48074in MyMiddleware.run()
LOG: Closed client: /10.0.0.7:48048in MyMiddleware.run()
LOG: Closed client: /10.0.0.7:48052in MyMiddleware.run()
LOG: Closed client: /10.0.0.7:48094in MyMiddleware.run()
LOG: Closed client: /10.0.0.7:48044in MyMiddleware.run()
LOG: Closed client: /10.0.0.7:48082in MyMiddleware.run()
LOG: Closed client: /10.0.0.7:48070in MyMiddleware.run()
LOG: Closed client: /10.0.0.7:48060in MyMiddleware.run()
LOG: Closed client: /10.0.0.7:48036in MyMiddleware.run()
LOG: Closed client: /10.0.0.7:48078in MyMiddleware.run()
LOG: Closed client: /10.0.0.7:48090in MyMiddleware.run()
