------------Middleware started!------------
LOG: Waiting for connection in MyMiddleware.run()
LOG: Accepted client: /10.0.0.7:58752in MyMiddleware.run()
LOG: Accepted client: /10.0.0.7:58760in MyMiddleware.run()
LOG: Accepted client: /10.0.0.7:58766in MyMiddleware.run()
LOG: Accepted client: /10.0.0.7:58758in MyMiddleware.run()
LOG: Accepted client: /10.0.0.7:58746in MyMiddleware.run()
LOG: Accepted client: /10.0.0.7:58756in MyMiddleware.run()
LOG: Accepted client: /10.0.0.7:58764in MyMiddleware.run()
LOG: Accepted client: /10.0.0.7:58750in MyMiddleware.run()
LOG: Accepted client: /10.0.0.7:58774in MyMiddleware.run()
LOG: Accepted client: /10.0.0.7:58762in MyMiddleware.run()
LOG: Accepted client: /10.0.0.7:58776in MyMiddleware.run()
LOG: Accepted client: /10.0.0.7:58770in MyMiddleware.run()
LOG: Accepted client: /10.0.0.7:58754in MyMiddleware.run()
LOG: Accepted client: /10.0.0.7:58768in MyMiddleware.run()
LOG: Accepted client: /10.0.0.7:58748in MyMiddleware.run()
LOG: Accepted client: /10.0.0.7:58772in MyMiddleware.run()
LOG: Accepted client: /10.0.0.11:57360in MyMiddleware.run()
LOG: Accepted client: /10.0.0.11:57362in MyMiddleware.run()
LOG: Accepted client: /10.0.0.11:57366in MyMiddleware.run()
LOG: Accepted client: /10.0.0.11:57364in MyMiddleware.run()
LOG: Accepted client: /10.0.0.11:57384in MyMiddleware.run()
LOG: Accepted client: /10.0.0.11:57386in MyMiddleware.run()
LOG: Accepted client: /10.0.0.6:36988in MyMiddleware.run()
LOG: Accepted client: /10.0.0.6:36992in MyMiddleware.run()
LOG: Accepted client: /10.0.0.6:36994in MyMiddleware.run()
LOG: Accepted client: /10.0.0.6:36980in MyMiddleware.run()
LOG: Accepted client: /10.0.0.6:36982in MyMiddleware.run()
LOG: Accepted client: /10.0.0.6:37006in MyMiddleware.run()
LOG: Accepted client: /10.0.0.6:37002in MyMiddleware.run()
LOG: Accepted client: /10.0.0.6:37000in MyMiddleware.run()
LOG: Accepted client: /10.0.0.6:37004in MyMiddleware.run()
LOG: Accepted client: /10.0.0.11:57380in MyMiddleware.run()
LOG: Accepted client: /10.0.0.11:57370in MyMiddleware.run()
LOG: Accepted client: /10.0.0.11:57368in MyMiddleware.run()
LOG: Accepted client: /10.0.0.11:57374in MyMiddleware.run()
LOG: Accepted client: /10.0.0.11:57382in MyMiddleware.run()
LOG: Accepted client: /10.0.0.11:57372in MyMiddleware.run()
LOG: Accepted client: /10.0.0.11:57358in MyMiddleware.run()
LOG: Accepted client: /10.0.0.11:57356in MyMiddleware.run()
LOG: Accepted client: /10.0.0.11:57376in MyMiddleware.run()
LOG: Accepted client: /10.0.0.11:57378in MyMiddleware.run()
LOG: Accepted client: /10.0.0.6:37010in MyMiddleware.run()
LOG: Accepted client: /10.0.0.6:37008in MyMiddleware.run()
LOG: Accepted client: /10.0.0.6:36984in MyMiddleware.run()
LOG: Accepted client: /10.0.0.6:36996in MyMiddleware.run()
LOG: Accepted client: /10.0.0.6:36986in MyMiddleware.run()
LOG: Accepted client: /10.0.0.6:36998in MyMiddleware.run()
LOG: Accepted client: /10.0.0.6:36990in MyMiddleware.run()
LOG: Closed client: /10.0.0.7:58750in MyMiddleware.run()
LOG: Closed client: /10.0.0.7:58766in MyMiddleware.run()
LOG: Closed client: /10.0.0.7:58746in MyMiddleware.run()
LOG: Closed client: /10.0.0.7:58762in MyMiddleware.run()
LOG: Closed client: /10.0.0.7:58756in MyMiddleware.run()
LOG: Closed client: /10.0.0.7:58752in MyMiddleware.run()
LOG: Closed client: /10.0.0.7:58758in MyMiddleware.run()
LOG: Closed client: /10.0.0.7:58770in MyMiddleware.run()
LOG: Closed client: /10.0.0.7:58776in MyMiddleware.run()
LOG: Closed client: /10.0.0.7:58754in MyMiddleware.run()
LOG: Closed client: /10.0.0.7:58768in MyMiddleware.run()
LOG: Closed client: /10.0.0.7:58760in MyMiddleware.run()
LOG: Closed client: /10.0.0.7:58772in MyMiddleware.run()
LOG: Closed client: /10.0.0.7:58774in MyMiddleware.run()
LOG: Closed client: /10.0.0.7:58764in MyMiddleware.run()
LOG: Closed client: /10.0.0.7:58748in MyMiddleware.run()
LOG: Closed client: /10.0.0.11:57362in MyMiddleware.run()
LOG: Closed client: /10.0.0.11:57360in MyMiddleware.run()
LOG: Closed client: /10.0.0.11:57364in MyMiddleware.run()
LOG: Closed client: /10.0.0.11:57372in MyMiddleware.run()
LOG: Closed client: /10.0.0.11:57370in MyMiddleware.run()
LOG: Closed client: /10.0.0.11:57384in MyMiddleware.run()
LOG: Closed client: /10.0.0.11:57356in MyMiddleware.run()
LOG: Closed client: /10.0.0.11:57378in MyMiddleware.run()
LOG: Closed client: /10.0.0.11:57374in MyMiddleware.run()
LOG: Closed client: /10.0.0.11:57380in MyMiddleware.run()
LOG: Closed client: /10.0.0.11:57382in MyMiddleware.run()
LOG: Closed client: /10.0.0.11:57368in MyMiddleware.run()
LOG: Closed client: /10.0.0.11:57358in MyMiddleware.run()
LOG: Closed client: /10.0.0.11:57376in MyMiddleware.run()
LOG: Closed client: /10.0.0.11:57386in MyMiddleware.run()
LOG: Closed client: /10.0.0.11:57366in MyMiddleware.run()
LOG: Closed client: /10.0.0.6:36988in MyMiddleware.run()
LOG: Closed client: /10.0.0.6:36996in MyMiddleware.run()
LOG: Closed client: /10.0.0.6:36984in MyMiddleware.run()
LOG: Closed client: /10.0.0.6:37004in MyMiddleware.run()
LOG: Closed client: /10.0.0.6:37010in MyMiddleware.run()
LOG: Closed client: /10.0.0.6:36986in MyMiddleware.run()
LOG: Closed client: /10.0.0.6:37006in MyMiddleware.run()
LOG: Closed client: /10.0.0.6:36980in MyMiddleware.run()
LOG: Closed client: /10.0.0.6:37008in MyMiddleware.run()
LOG: Closed client: /10.0.0.6:37000in MyMiddleware.run()
LOG: Closed client: /10.0.0.6:37002in MyMiddleware.run()
LOG: Closed client: /10.0.0.6:36990in MyMiddleware.run()
LOG: Closed client: /10.0.0.6:36982in MyMiddleware.run()
LOG: Closed client: /10.0.0.6:36994in MyMiddleware.run()
LOG: Closed client: /10.0.0.6:36998in MyMiddleware.run()
LOG: Closed client: /10.0.0.6:36992in MyMiddleware.run()
