------------Middleware started!------------
LOG: Waiting for connection in MyMiddleware.run()
LOG: Accepted client: /10.0.0.11:42170in MyMiddleware.run()
LOG: Accepted client: /10.0.0.11:42196in MyMiddleware.run()
LOG: Accepted client: /10.0.0.11:42178in MyMiddleware.run()
LOG: Accepted client: /10.0.0.11:42188in MyMiddleware.run()
LOG: Accepted client: /10.0.0.11:42168in MyMiddleware.run()
LOG: Accepted client: /10.0.0.11:42190in MyMiddleware.run()
LOG: Accepted client: /10.0.0.11:42182in MyMiddleware.run()
LOG: Accepted client: /10.0.0.11:42176in MyMiddleware.run()
LOG: Accepted client: /10.0.0.11:42180in MyMiddleware.run()
LOG: Accepted client: /10.0.0.11:42192in MyMiddleware.run()
LOG: Accepted client: /10.0.0.11:42198in MyMiddleware.run()
LOG: Accepted client: /10.0.0.11:42186in MyMiddleware.run()
LOG: Accepted client: /10.0.0.11:42172in MyMiddleware.run()
LOG: Accepted client: /10.0.0.11:42184in MyMiddleware.run()
LOG: Accepted client: /10.0.0.11:42174in MyMiddleware.run()
LOG: Accepted client: /10.0.0.11:42194in MyMiddleware.run()
LOG: Accepted client: /10.0.0.7:43632in MyMiddleware.run()
LOG: Accepted client: /10.0.0.7:43624in MyMiddleware.run()
LOG: Accepted client: /10.0.0.7:43630in MyMiddleware.run()
LOG: Accepted client: /10.0.0.7:43628in MyMiddleware.run()
LOG: Accepted client: /10.0.0.7:43634in MyMiddleware.run()
LOG: Accepted client: /10.0.0.7:43626in MyMiddleware.run()
LOG: Accepted client: /10.0.0.7:43636in MyMiddleware.run()
LOG: Accepted client: /10.0.0.7:43638in MyMiddleware.run()
LOG: Accepted client: /10.0.0.7:43642in MyMiddleware.run()
LOG: Accepted client: /10.0.0.7:43620in MyMiddleware.run()
LOG: Accepted client: /10.0.0.7:43618in MyMiddleware.run()
LOG: Accepted client: /10.0.0.7:43622in MyMiddleware.run()
LOG: Accepted client: /10.0.0.7:43616in MyMiddleware.run()
LOG: Accepted client: /10.0.0.7:43640in MyMiddleware.run()
LOG: Accepted client: /10.0.0.7:43612in MyMiddleware.run()
LOG: Accepted client: /10.0.0.7:43614in MyMiddleware.run()
LOG: Accepted client: /10.0.0.6:50114in MyMiddleware.run()
LOG: Accepted client: /10.0.0.6:50096in MyMiddleware.run()
LOG: Accepted client: /10.0.0.6:50126in MyMiddleware.run()
LOG: Accepted client: /10.0.0.6:50106in MyMiddleware.run()
LOG: Accepted client: /10.0.0.6:50112in MyMiddleware.run()
LOG: Accepted client: /10.0.0.6:50110in MyMiddleware.run()
LOG: Accepted client: /10.0.0.6:50124in MyMiddleware.run()
LOG: Accepted client: /10.0.0.6:50116in MyMiddleware.run()
LOG: Accepted client: /10.0.0.6:50118in MyMiddleware.run()
LOG: Accepted client: /10.0.0.6:50102in MyMiddleware.run()
LOG: Accepted client: /10.0.0.6:50122in MyMiddleware.run()
LOG: Accepted client: /10.0.0.6:50108in MyMiddleware.run()
LOG: Accepted client: /10.0.0.6:50104in MyMiddleware.run()
LOG: Accepted client: /10.0.0.6:50100in MyMiddleware.run()
LOG: Accepted client: /10.0.0.6:50098in MyMiddleware.run()
LOG: Accepted client: /10.0.0.6:50120in MyMiddleware.run()
LOG: Closed client: /10.0.0.11:42176in MyMiddleware.run()
LOG: Closed client: /10.0.0.11:42178in MyMiddleware.run()
LOG: Closed client: /10.0.0.11:42170in MyMiddleware.run()
LOG: Closed client: /10.0.0.11:42188in MyMiddleware.run()
LOG: Closed client: /10.0.0.11:42190in MyMiddleware.run()
LOG: Closed client: /10.0.0.11:42194in MyMiddleware.run()
LOG: Closed client: /10.0.0.11:42182in MyMiddleware.run()
LOG: Closed client: /10.0.0.11:42184in MyMiddleware.run()
LOG: Closed client: /10.0.0.11:42180in MyMiddleware.run()
LOG: Closed client: /10.0.0.11:42186in MyMiddleware.run()
LOG: Closed client: /10.0.0.11:42196in MyMiddleware.run()
LOG: Closed client: /10.0.0.11:42168in MyMiddleware.run()
LOG: Closed client: /10.0.0.11:42192in MyMiddleware.run()
LOG: Closed client: /10.0.0.11:42174in MyMiddleware.run()
LOG: Closed client: /10.0.0.11:42198in MyMiddleware.run()
LOG: Closed client: /10.0.0.11:42172in MyMiddleware.run()
LOG: Closed client: /10.0.0.6:50114in MyMiddleware.run()
LOG: Closed client: /10.0.0.6:50108in MyMiddleware.run()
LOG: Closed client: /10.0.0.6:50096in MyMiddleware.run()
LOG: Closed client: /10.0.0.6:50102in MyMiddleware.run()
LOG: Closed client: /10.0.0.6:50116in MyMiddleware.run()
LOG: Closed client: /10.0.0.6:50110in MyMiddleware.run()
LOG: Closed client: /10.0.0.6:50098in MyMiddleware.run()
LOG: Closed client: /10.0.0.6:50120in MyMiddleware.run()
LOG: Closed client: /10.0.0.6:50106in MyMiddleware.run()
LOG: Closed client: /10.0.0.6:50112in MyMiddleware.run()
LOG: Closed client: /10.0.0.6:50100in MyMiddleware.run()
LOG: Closed client: /10.0.0.6:50104in MyMiddleware.run()
LOG: Closed client: /10.0.0.6:50122in MyMiddleware.run()
LOG: Closed client: /10.0.0.6:50118in MyMiddleware.run()
LOG: Closed client: /10.0.0.6:50126in MyMiddleware.run()
LOG: Closed client: /10.0.0.6:50124in MyMiddleware.run()
LOG: Closed client: /10.0.0.7:43612in MyMiddleware.run()
LOG: Closed client: /10.0.0.7:43632in MyMiddleware.run()
LOG: Closed client: /10.0.0.7:43624in MyMiddleware.run()
LOG: Closed client: /10.0.0.7:43630in MyMiddleware.run()
LOG: Closed client: /10.0.0.7:43620in MyMiddleware.run()
LOG: Closed client: /10.0.0.7:43638in MyMiddleware.run()
LOG: Closed client: /10.0.0.7:43622in MyMiddleware.run()
LOG: Closed client: /10.0.0.7:43640in MyMiddleware.run()
LOG: Closed client: /10.0.0.7:43628in MyMiddleware.run()
LOG: Closed client: /10.0.0.7:43618in MyMiddleware.run()
LOG: Closed client: /10.0.0.7:43642in MyMiddleware.run()
LOG: Closed client: /10.0.0.7:43626in MyMiddleware.run()
LOG: Closed client: /10.0.0.7:43616in MyMiddleware.run()
LOG: Closed client: /10.0.0.7:43634in MyMiddleware.run()
LOG: Closed client: /10.0.0.7:43636in MyMiddleware.run()
LOG: Closed client: /10.0.0.7:43614in MyMiddleware.run()
