------------Middleware started!------------
LOG: Waiting for connection in MyMiddleware.run()
LOG: Accepted client: /10.0.0.11:47682in MyMiddleware.run()
LOG: Accepted client: /10.0.0.11:47650in MyMiddleware.run()
LOG: Accepted client: /10.0.0.11:47624in MyMiddleware.run()
LOG: Accepted client: /10.0.0.11:47644in MyMiddleware.run()
LOG: Accepted client: /10.0.0.11:47636in MyMiddleware.run()
LOG: Accepted client: /10.0.0.11:47620in MyMiddleware.run()
LOG: Accepted client: /10.0.0.11:47628in MyMiddleware.run()
LOG: Accepted client: /10.0.0.11:47634in MyMiddleware.run()
LOG: Accepted client: /10.0.0.11:47646in MyMiddleware.run()
LOG: Accepted client: /10.0.0.11:47640in MyMiddleware.run()
LOG: Accepted client: /10.0.0.11:47660in MyMiddleware.run()
LOG: Accepted client: /10.0.0.11:47632in MyMiddleware.run()
LOG: Accepted client: /10.0.0.11:47622in MyMiddleware.run()
LOG: Accepted client: /10.0.0.11:47676in MyMiddleware.run()
LOG: Accepted client: /10.0.0.11:47654in MyMiddleware.run()
LOG: Accepted client: /10.0.0.11:47680in MyMiddleware.run()
LOG: Accepted client: /10.0.0.11:47664in MyMiddleware.run()
LOG: Accepted client: /10.0.0.11:47652in MyMiddleware.run()
LOG: Accepted client: /10.0.0.11:47642in MyMiddleware.run()
LOG: Accepted client: /10.0.0.11:47674in MyMiddleware.run()
LOG: Accepted client: /10.0.0.11:47626in MyMiddleware.run()
LOG: Accepted client: /10.0.0.11:47666in MyMiddleware.run()
LOG: Accepted client: /10.0.0.11:47638in MyMiddleware.run()
LOG: Accepted client: /10.0.0.11:47648in MyMiddleware.run()
LOG: Accepted client: /10.0.0.11:47630in MyMiddleware.run()
LOG: Accepted client: /10.0.0.11:47662in MyMiddleware.run()
LOG: Accepted client: /10.0.0.11:47678in MyMiddleware.run()
LOG: Accepted client: /10.0.0.11:47656in MyMiddleware.run()
LOG: Accepted client: /10.0.0.11:47670in MyMiddleware.run()
LOG: Accepted client: /10.0.0.11:47658in MyMiddleware.run()
LOG: Accepted client: /10.0.0.11:47668in MyMiddleware.run()
LOG: Accepted client: /10.0.0.11:47672in MyMiddleware.run()
LOG: Accepted client: /10.0.0.6:55530in MyMiddleware.run()
LOG: Accepted client: /10.0.0.6:55528in MyMiddleware.run()
LOG: Accepted client: /10.0.0.6:55526in MyMiddleware.run()
LOG: Accepted client: /10.0.0.6:55532in MyMiddleware.run()
LOG: Accepted client: /10.0.0.6:55534in MyMiddleware.run()
LOG: Accepted client: /10.0.0.6:55538in MyMiddleware.run()
LOG: Accepted client: /10.0.0.6:55540in MyMiddleware.run()
LOG: Accepted client: /10.0.0.6:55558in MyMiddleware.run()
LOG: Accepted client: /10.0.0.6:55536in MyMiddleware.run()
LOG: Accepted client: /10.0.0.6:55580in MyMiddleware.run()
LOG: Accepted client: /10.0.0.6:55552in MyMiddleware.run()
LOG: Accepted client: /10.0.0.6:55554in MyMiddleware.run()
LOG: Accepted client: /10.0.0.6:55582in MyMiddleware.run()
LOG: Accepted client: /10.0.0.6:55576in MyMiddleware.run()
LOG: Accepted client: /10.0.0.6:55578in MyMiddleware.run()
LOG: Accepted client: /10.0.0.6:55588in MyMiddleware.run()
LOG: Accepted client: /10.0.0.6:55586in MyMiddleware.run()
LOG: Accepted client: /10.0.0.6:55556in MyMiddleware.run()
LOG: Accepted client: /10.0.0.6:55584in MyMiddleware.run()
LOG: Accepted client: /10.0.0.6:55542in MyMiddleware.run()
LOG: Accepted client: /10.0.0.6:55574in MyMiddleware.run()
LOG: Accepted client: /10.0.0.6:55548in MyMiddleware.run()
LOG: Accepted client: /10.0.0.6:55550in MyMiddleware.run()
LOG: Accepted client: /10.0.0.6:55566in MyMiddleware.run()
LOG: Accepted client: /10.0.0.6:55572in MyMiddleware.run()
LOG: Accepted client: /10.0.0.6:55568in MyMiddleware.run()
LOG: Accepted client: /10.0.0.6:55564in MyMiddleware.run()
LOG: Accepted client: /10.0.0.6:55570in MyMiddleware.run()
LOG: Accepted client: /10.0.0.6:55546in MyMiddleware.run()
LOG: Accepted client: /10.0.0.6:55544in MyMiddleware.run()
LOG: Accepted client: /10.0.0.6:55560in MyMiddleware.run()
LOG: Accepted client: /10.0.0.6:55562in MyMiddleware.run()
LOG: Accepted client: /10.0.0.7:49140in MyMiddleware.run()
LOG: Accepted client: /10.0.0.7:49172in MyMiddleware.run()
LOG: Accepted client: /10.0.0.7:49150in MyMiddleware.run()
LOG: Accepted client: /10.0.0.7:49154in MyMiddleware.run()
LOG: Accepted client: /10.0.0.7:49130in MyMiddleware.run()
LOG: Accepted client: /10.0.0.7:49152in MyMiddleware.run()
LOG: Accepted client: /10.0.0.7:49128in MyMiddleware.run()
LOG: Accepted client: /10.0.0.7:49142in MyMiddleware.run()
LOG: Accepted client: /10.0.0.7:49182in MyMiddleware.run()
LOG: Accepted client: /10.0.0.7:49180in MyMiddleware.run()
LOG: Accepted client: /10.0.0.7:49164in MyMiddleware.run()
LOG: Accepted client: /10.0.0.7:49184in MyMiddleware.run()
LOG: Accepted client: /10.0.0.7:49186in MyMiddleware.run()
LOG: Accepted client: /10.0.0.7:49166in MyMiddleware.run()
LOG: Accepted client: /10.0.0.7:49158in MyMiddleware.run()
LOG: Accepted client: /10.0.0.7:49134in MyMiddleware.run()
LOG: Accepted client: /10.0.0.7:49156in MyMiddleware.run()
LOG: Accepted client: /10.0.0.7:49174in MyMiddleware.run()
LOG: Accepted client: /10.0.0.7:49148in MyMiddleware.run()
LOG: Accepted client: /10.0.0.7:49170in MyMiddleware.run()
LOG: Accepted client: /10.0.0.7:49168in MyMiddleware.run()
LOG: Accepted client: /10.0.0.7:49146in MyMiddleware.run()
LOG: Accepted client: /10.0.0.7:49144in MyMiddleware.run()
LOG: Accepted client: /10.0.0.7:49132in MyMiddleware.run()
LOG: Accepted client: /10.0.0.7:49176in MyMiddleware.run()
LOG: Accepted client: /10.0.0.7:49138in MyMiddleware.run()
LOG: Accepted client: /10.0.0.7:49136in MyMiddleware.run()
LOG: Accepted client: /10.0.0.7:49178in MyMiddleware.run()
LOG: Accepted client: /10.0.0.7:49160in MyMiddleware.run()
LOG: Accepted client: /10.0.0.7:49162in MyMiddleware.run()
LOG: Accepted client: /10.0.0.7:49190in MyMiddleware.run()
LOG: Accepted client: /10.0.0.7:49188in MyMiddleware.run()
LOG: Closed client: /10.0.0.11:47622in MyMiddleware.run()
LOG: Closed client: /10.0.0.11:47624in MyMiddleware.run()
LOG: Closed client: /10.0.0.11:47626in MyMiddleware.run()
LOG: Closed client: /10.0.0.11:47620in MyMiddleware.run()
LOG: Closed client: /10.0.0.11:47640in MyMiddleware.run()
LOG: Closed client: /10.0.0.11:47662in MyMiddleware.run()
LOG: Closed client: /10.0.0.11:47632in MyMiddleware.run()
LOG: Closed client: /10.0.0.11:47644in MyMiddleware.run()
LOG: Closed client: /10.0.0.11:47638in MyMiddleware.run()
LOG: Closed client: /10.0.0.11:47652in MyMiddleware.run()
LOG: Closed client: /10.0.0.11:47660in MyMiddleware.run()
LOG: Closed client: /10.0.0.11:47672in MyMiddleware.run()
LOG: Closed client: /10.0.0.11:47648in MyMiddleware.run()
LOG: Closed client: /10.0.0.11:47646in MyMiddleware.run()
LOG: Closed client: /10.0.0.11:47630in MyMiddleware.run()
LOG: Closed client: /10.0.0.11:47678in MyMiddleware.run()
LOG: Closed client: /10.0.0.11:47642in MyMiddleware.run()
LOG: Closed client: /10.0.0.11:47674in MyMiddleware.run()
LOG: Closed client: /10.0.0.11:47636in MyMiddleware.run()
LOG: Closed client: /10.0.0.11:47668in MyMiddleware.run()
LOG: Closed client: /10.0.0.11:47656in MyMiddleware.run()
LOG: Closed client: /10.0.0.11:47658in MyMiddleware.run()
LOG: Closed client: /10.0.0.11:47670in MyMiddleware.run()
LOG: Closed client: /10.0.0.11:47676in MyMiddleware.run()
LOG: Closed client: /10.0.0.11:47650in MyMiddleware.run()
LOG: Closed client: /10.0.0.11:47680in MyMiddleware.run()
LOG: Closed client: /10.0.0.11:47634in MyMiddleware.run()
LOG: Closed client: /10.0.0.11:47628in MyMiddleware.run()
LOG: Closed client: /10.0.0.11:47654in MyMiddleware.run()
LOG: Closed client: /10.0.0.11:47664in MyMiddleware.run()
LOG: Closed client: /10.0.0.11:47666in MyMiddleware.run()
LOG: Closed client: /10.0.0.11:47682in MyMiddleware.run()
LOG: Closed client: /10.0.0.6:55552in MyMiddleware.run()
LOG: Closed client: /10.0.0.6:55548in MyMiddleware.run()
LOG: Closed client: /10.0.0.6:55556in MyMiddleware.run()
LOG: Closed client: /10.0.0.6:55530in MyMiddleware.run()
LOG: Closed client: /10.0.0.6:55560in MyMiddleware.run()
LOG: Closed client: /10.0.0.6:55558in MyMiddleware.run()
LOG: Closed client: /10.0.0.6:55534in MyMiddleware.run()
LOG: Closed client: /10.0.0.6:55540in MyMiddleware.run()
LOG: Closed client: /10.0.0.6:55528in MyMiddleware.run()
LOG: Closed client: /10.0.0.6:55538in MyMiddleware.run()
LOG: Closed client: /10.0.0.6:55562in MyMiddleware.run()
LOG: Closed client: /10.0.0.6:55574in MyMiddleware.run()
LOG: Closed client: /10.0.0.6:55584in MyMiddleware.run()
LOG: Closed client: /10.0.0.6:55542in MyMiddleware.run()
LOG: Closed client: /10.0.0.6:55532in MyMiddleware.run()
LOG: Closed client: /10.0.0.6:55554in MyMiddleware.run()
LOG: Closed client: /10.0.0.6:55586in MyMiddleware.run()
LOG: Closed client: /10.0.0.6:55576in MyMiddleware.run()
LOG: Closed client: /10.0.0.6:55572in MyMiddleware.run()
LOG: Closed client: /10.0.0.6:55546in MyMiddleware.run()
LOG: Closed client: /10.0.0.6:55566in MyMiddleware.run()
LOG: Closed client: /10.0.0.6:55536in MyMiddleware.run()
LOG: Closed client: /10.0.0.6:55526in MyMiddleware.run()
LOG: Closed client: /10.0.0.6:55564in MyMiddleware.run()
LOG: Closed client: /10.0.0.6:55578in MyMiddleware.run()
LOG: Closed client: /10.0.0.6:55544in MyMiddleware.run()
LOG: Closed client: /10.0.0.6:55550in MyMiddleware.run()
LOG: Closed client: /10.0.0.6:55580in MyMiddleware.run()
LOG: Closed client: /10.0.0.6:55570in MyMiddleware.run()
LOG: Closed client: /10.0.0.6:55588in MyMiddleware.run()
LOG: Closed client: /10.0.0.6:55568in MyMiddleware.run()
LOG: Closed client: /10.0.0.6:55582in MyMiddleware.run()
LOG: Closed client: /10.0.0.7:49132in MyMiddleware.run()
LOG: Closed client: /10.0.0.7:49134in MyMiddleware.run()
LOG: Closed client: /10.0.0.7:49142in MyMiddleware.run()
LOG: Closed client: /10.0.0.7:49140in MyMiddleware.run()
LOG: Closed client: /10.0.0.7:49146in MyMiddleware.run()
LOG: Closed client: /10.0.0.7:49148in MyMiddleware.run()
LOG: Closed client: /10.0.0.7:49138in MyMiddleware.run()
LOG: Closed client: /10.0.0.7:49136in MyMiddleware.run()
LOG: Closed client: /10.0.0.7:49128in MyMiddleware.run()
LOG: Closed client: /10.0.0.7:49144in MyMiddleware.run()
LOG: Closed client: /10.0.0.7:49184in MyMiddleware.run()
LOG: Closed client: /10.0.0.7:49162in MyMiddleware.run()
LOG: Closed client: /10.0.0.7:49164in MyMiddleware.run()
LOG: Closed client: /10.0.0.7:49178in MyMiddleware.run()
LOG: Closed client: /10.0.0.7:49152in MyMiddleware.run()
LOG: Closed client: /10.0.0.7:49180in MyMiddleware.run()
LOG: Closed client: /10.0.0.7:49160in MyMiddleware.run()
LOG: Closed client: /10.0.0.7:49150in MyMiddleware.run()
LOG: Closed client: /10.0.0.7:49172in MyMiddleware.run()
LOG: Closed client: /10.0.0.7:49170in MyMiddleware.run()
LOG: Closed client: /10.0.0.7:49188in MyMiddleware.run()
LOG: Closed client: /10.0.0.7:49174in MyMiddleware.run()
LOG: Closed client: /10.0.0.7:49186in MyMiddleware.run()
LOG: Closed client: /10.0.0.7:49176in MyMiddleware.run()
LOG: Closed client: /10.0.0.7:49156in MyMiddleware.run()
LOG: Closed client: /10.0.0.7:49190in MyMiddleware.run()
LOG: Closed client: /10.0.0.7:49154in MyMiddleware.run()
LOG: Closed client: /10.0.0.7:49130in MyMiddleware.run()
LOG: Closed client: /10.0.0.7:49182in MyMiddleware.run()
LOG: Closed client: /10.0.0.7:49168in MyMiddleware.run()
LOG: Closed client: /10.0.0.7:49166in MyMiddleware.run()
LOG: Closed client: /10.0.0.7:49158in MyMiddleware.run()
