------------Middleware started!------------
LOG: Waiting for connection in MyMiddleware.run()
LOG: Accepted client: /10.0.0.7:39858in MyMiddleware.run()
LOG: Accepted client: /10.0.0.7:39860in MyMiddleware.run()
LOG: Accepted client: /10.0.0.7:39862in MyMiddleware.run()
LOG: Accepted client: /10.0.0.7:39864in MyMiddleware.run()
LOG: Accepted client: /10.0.0.7:39866in MyMiddleware.run()
LOG: Accepted client: /10.0.0.7:39856in MyMiddleware.run()
LOG: Accepted client: /10.0.0.7:39868in MyMiddleware.run()
LOG: Accepted client: /10.0.0.7:39870in MyMiddleware.run()
LOG: Accepted client: /10.0.0.6:46330in MyMiddleware.run()
LOG: Accepted client: /10.0.0.6:46328in MyMiddleware.run()
LOG: Accepted client: /10.0.0.11:38474in MyMiddleware.run()
LOG: Accepted client: /10.0.0.11:38472in MyMiddleware.run()
LOG: Accepted client: /10.0.0.11:38482in MyMiddleware.run()
LOG: Accepted client: /10.0.0.11:38480in MyMiddleware.run()
LOG: Accepted client: /10.0.0.11:38468in MyMiddleware.run()
LOG: Accepted client: /10.0.0.11:38470in MyMiddleware.run()
LOG: Accepted client: /10.0.0.6:46326in MyMiddleware.run()
LOG: Accepted client: /10.0.0.6:46324in MyMiddleware.run()
LOG: Accepted client: /10.0.0.6:46332in MyMiddleware.run()
LOG: Accepted client: /10.0.0.11:38478in MyMiddleware.run()
LOG: Accepted client: /10.0.0.6:46320in MyMiddleware.run()
LOG: Accepted client: /10.0.0.6:46322in MyMiddleware.run()
LOG: Accepted client: /10.0.0.6:46318in MyMiddleware.run()
LOG: Accepted client: /10.0.0.11:38476in MyMiddleware.run()
LOG: Closed client: /10.0.0.7:39860in MyMiddleware.run()
LOG: Closed client: /10.0.0.7:39862in MyMiddleware.run()
LOG: Closed client: /10.0.0.7:39858in MyMiddleware.run()
LOG: Closed client: /10.0.0.7:39870in MyMiddleware.run()
LOG: Closed client: /10.0.0.7:39864in MyMiddleware.run()
LOG: Closed client: /10.0.0.7:39856in MyMiddleware.run()
LOG: Closed client: /10.0.0.7:39866in MyMiddleware.run()
LOG: Closed client: /10.0.0.7:39868in MyMiddleware.run()
LOG: Closed client: /10.0.0.6:46322in MyMiddleware.run()
LOG: Closed client: /10.0.0.6:46328in MyMiddleware.run()
LOG: Closed client: /10.0.0.6:46318in MyMiddleware.run()
LOG: Closed client: /10.0.0.6:46332in MyMiddleware.run()
LOG: Closed client: /10.0.0.6:46330in MyMiddleware.run()
LOG: Closed client: /10.0.0.6:46320in MyMiddleware.run()
LOG: Closed client: /10.0.0.6:46326in MyMiddleware.run()
LOG: Closed client: /10.0.0.6:46324in MyMiddleware.run()
LOG: Closed client: /10.0.0.11:38470in MyMiddleware.run()
LOG: Closed client: /10.0.0.11:38468in MyMiddleware.run()
LOG: Closed client: /10.0.0.11:38472in MyMiddleware.run()
LOG: Closed client: /10.0.0.11:38478in MyMiddleware.run()
LOG: Closed client: /10.0.0.11:38474in MyMiddleware.run()
LOG: Closed client: /10.0.0.11:38482in MyMiddleware.run()
LOG: Closed client: /10.0.0.11:38476in MyMiddleware.run()
LOG: Closed client: /10.0.0.11:38480in MyMiddleware.run()
