------------Middleware started!------------
LOG: Waiting for connection in MyMiddleware.run()
LOG: Accepted client: /10.0.0.11:42790in MyMiddleware.run()
LOG: Accepted client: /10.0.0.11:42796in MyMiddleware.run()
LOG: Accepted client: /10.0.0.11:42784in MyMiddleware.run()
LOG: Accepted client: /10.0.0.11:42786in MyMiddleware.run()
LOG: Accepted client: /10.0.0.11:42794in MyMiddleware.run()
LOG: Accepted client: /10.0.0.11:42798in MyMiddleware.run()
LOG: Accepted client: /10.0.0.11:42792in MyMiddleware.run()
LOG: Accepted client: /10.0.0.11:42804in MyMiddleware.run()
LOG: Accepted client: /10.0.0.11:42776in MyMiddleware.run()
LOG: Accepted client: /10.0.0.11:42774in MyMiddleware.run()
LOG: Accepted client: /10.0.0.11:42788in MyMiddleware.run()
LOG: Accepted client: /10.0.0.11:42780in MyMiddleware.run()
LOG: Accepted client: /10.0.0.11:42800in MyMiddleware.run()
LOG: Accepted client: /10.0.0.11:42802in MyMiddleware.run()
LOG: Accepted client: /10.0.0.11:42782in MyMiddleware.run()
LOG: Accepted client: /10.0.0.11:42778in MyMiddleware.run()
LOG: Accepted client: /10.0.0.7:44198in MyMiddleware.run()
LOG: Accepted client: /10.0.0.7:44192in MyMiddleware.run()
LOG: Accepted client: /10.0.0.7:44188in MyMiddleware.run()
LOG: Accepted client: /10.0.0.7:44190in MyMiddleware.run()
LOG: Accepted client: /10.0.0.7:44194in MyMiddleware.run()
LOG: Accepted client: /10.0.0.7:44196in MyMiddleware.run()
LOG: Accepted client: /10.0.0.7:44186in MyMiddleware.run()
LOG: Accepted client: /10.0.0.7:44216in MyMiddleware.run()
LOG: Accepted client: /10.0.0.6:50672in MyMiddleware.run()
LOG: Accepted client: /10.0.0.6:50668in MyMiddleware.run()
LOG: Accepted client: /10.0.0.6:50684in MyMiddleware.run()
LOG: Accepted client: /10.0.0.6:50690in MyMiddleware.run()
LOG: Accepted client: /10.0.0.6:50692in MyMiddleware.run()
LOG: Accepted client: /10.0.0.6:50678in MyMiddleware.run()
LOG: Accepted client: /10.0.0.6:50670in MyMiddleware.run()
LOG: Accepted client: /10.0.0.6:50674in MyMiddleware.run()
LOG: Accepted client: /10.0.0.6:50682in MyMiddleware.run()
LOG: Accepted client: /10.0.0.6:50686in MyMiddleware.run()
LOG: Accepted client: /10.0.0.6:50664in MyMiddleware.run()
LOG: Accepted client: /10.0.0.6:50666in MyMiddleware.run()
LOG: Accepted client: /10.0.0.6:50676in MyMiddleware.run()
LOG: Accepted client: /10.0.0.6:50680in MyMiddleware.run()
LOG: Accepted client: /10.0.0.6:50694in MyMiddleware.run()
LOG: Accepted client: /10.0.0.6:50688in MyMiddleware.run()
LOG: Accepted client: /10.0.0.7:44212in MyMiddleware.run()
LOG: Accepted client: /10.0.0.7:44206in MyMiddleware.run()
LOG: Accepted client: /10.0.0.7:44208in MyMiddleware.run()
LOG: Accepted client: /10.0.0.7:44202in MyMiddleware.run()
LOG: Accepted client: /10.0.0.7:44210in MyMiddleware.run()
LOG: Accepted client: /10.0.0.7:44204in MyMiddleware.run()
LOG: Accepted client: /10.0.0.7:44214in MyMiddleware.run()
LOG: Accepted client: /10.0.0.7:44200in MyMiddleware.run()
LOG: Closed client: /10.0.0.11:42788in MyMiddleware.run()
LOG: Closed client: /10.0.0.11:42784in MyMiddleware.run()
LOG: Closed client: /10.0.0.11:42794in MyMiddleware.run()
LOG: Closed client: /10.0.0.11:42774in MyMiddleware.run()
LOG: Closed client: /10.0.0.11:42790in MyMiddleware.run()
LOG: Closed client: /10.0.0.11:42798in MyMiddleware.run()
LOG: Closed client: /10.0.0.11:42786in MyMiddleware.run()
LOG: Closed client: /10.0.0.11:42780in MyMiddleware.run()
LOG: Closed client: /10.0.0.11:42800in MyMiddleware.run()
LOG: Closed client: /10.0.0.11:42796in MyMiddleware.run()
LOG: Closed client: /10.0.0.11:42778in MyMiddleware.run()
LOG: Closed client: /10.0.0.11:42792in MyMiddleware.run()
LOG: Closed client: /10.0.0.11:42782in MyMiddleware.run()
LOG: Closed client: /10.0.0.11:42802in MyMiddleware.run()
LOG: Closed client: /10.0.0.11:42804in MyMiddleware.run()
LOG: Closed client: /10.0.0.11:42776in MyMiddleware.run()
LOG: Closed client: /10.0.0.6:50664in MyMiddleware.run()
LOG: Closed client: /10.0.0.6:50666in MyMiddleware.run()
LOG: Closed client: /10.0.0.6:50676in MyMiddleware.run()
LOG: Closed client: /10.0.0.6:50670in MyMiddleware.run()
LOG: Closed client: /10.0.0.6:50682in MyMiddleware.run()
LOG: Closed client: /10.0.0.6:50668in MyMiddleware.run()
LOG: Closed client: /10.0.0.6:50678in MyMiddleware.run()
LOG: Closed client: /10.0.0.6:50674in MyMiddleware.run()
LOG: Closed client: /10.0.0.6:50692in MyMiddleware.run()
LOG: Closed client: /10.0.0.6:50680in MyMiddleware.run()
LOG: Closed client: /10.0.0.6:50688in MyMiddleware.run()
LOG: Closed client: /10.0.0.6:50672in MyMiddleware.run()
LOG: Closed client: /10.0.0.6:50690in MyMiddleware.run()
LOG: Closed client: /10.0.0.6:50694in MyMiddleware.run()
LOG: Closed client: /10.0.0.6:50686in MyMiddleware.run()
LOG: Closed client: /10.0.0.6:50684in MyMiddleware.run()
LOG: Closed client: /10.0.0.7:44190in MyMiddleware.run()
LOG: Closed client: /10.0.0.7:44202in MyMiddleware.run()
LOG: Closed client: /10.0.0.7:44186in MyMiddleware.run()
LOG: Closed client: /10.0.0.7:44212in MyMiddleware.run()
LOG: Closed client: /10.0.0.7:44200in MyMiddleware.run()
LOG: Closed client: /10.0.0.7:44214in MyMiddleware.run()
LOG: Closed client: /10.0.0.7:44216in MyMiddleware.run()
LOG: Closed client: /10.0.0.7:44196in MyMiddleware.run()
LOG: Closed client: /10.0.0.7:44198in MyMiddleware.run()
LOG: Closed client: /10.0.0.7:44206in MyMiddleware.run()
LOG: Closed client: /10.0.0.7:44204in MyMiddleware.run()
LOG: Closed client: /10.0.0.7:44194in MyMiddleware.run()
LOG: Closed client: /10.0.0.7:44208in MyMiddleware.run()
LOG: Closed client: /10.0.0.7:44192in MyMiddleware.run()
LOG: Closed client: /10.0.0.7:44210in MyMiddleware.run()
LOG: Closed client: /10.0.0.7:44188in MyMiddleware.run()
