------------Middleware started!------------
LOG: Waiting for connection in MyMiddleware.run()
LOG: Accepted client: /10.0.0.11:39292in MyMiddleware.run()
LOG: Accepted client: /10.0.0.11:39290in MyMiddleware.run()
LOG: Accepted client: /10.0.0.11:39304in MyMiddleware.run()
LOG: Accepted client: /10.0.0.11:39296in MyMiddleware.run()
LOG: Accepted client: /10.0.0.11:39298in MyMiddleware.run()
LOG: Accepted client: /10.0.0.11:39294in MyMiddleware.run()
LOG: Accepted client: /10.0.0.11:39300in MyMiddleware.run()
LOG: Accepted client: /10.0.0.11:39302in MyMiddleware.run()
LOG: Accepted client: /10.0.0.6:47182in MyMiddleware.run()
LOG: Accepted client: /10.0.0.6:47178in MyMiddleware.run()
LOG: Accepted client: /10.0.0.6:47202in MyMiddleware.run()
LOG: Accepted client: /10.0.0.6:47186in MyMiddleware.run()
LOG: Accepted client: /10.0.0.6:47190in MyMiddleware.run()
LOG: Accepted client: /10.0.0.6:47198in MyMiddleware.run()
LOG: Accepted client: /10.0.0.6:47206in MyMiddleware.run()
LOG: Accepted client: /10.0.0.6:47194in MyMiddleware.run()
LOG: Accepted client: /10.0.0.7:40746in MyMiddleware.run()
LOG: Accepted client: /10.0.0.7:40742in MyMiddleware.run()
LOG: Accepted client: /10.0.0.7:40752in MyMiddleware.run()
LOG: Accepted client: /10.0.0.7:40748in MyMiddleware.run()
LOG: Accepted client: /10.0.0.7:40754in MyMiddleware.run()
LOG: Accepted client: /10.0.0.7:40744in MyMiddleware.run()
LOG: Accepted client: /10.0.0.7:40750in MyMiddleware.run()
LOG: Accepted client: /10.0.0.7:40756in MyMiddleware.run()
LOG: Closed client: /10.0.0.11:39290in MyMiddleware.run()
LOG: Closed client: /10.0.0.11:39294in MyMiddleware.run()
LOG: Closed client: /10.0.0.11:39296in MyMiddleware.run()
LOG: Closed client: /10.0.0.11:39304in MyMiddleware.run()
LOG: Closed client: /10.0.0.11:39298in MyMiddleware.run()
LOG: Closed client: /10.0.0.11:39292in MyMiddleware.run()
LOG: Closed client: /10.0.0.11:39302in MyMiddleware.run()
LOG: Closed client: /10.0.0.11:39300in MyMiddleware.run()
LOG: Closed client: /10.0.0.7:40752in MyMiddleware.run()
LOG: Closed client: /10.0.0.7:40748in MyMiddleware.run()
LOG: Closed client: /10.0.0.7:40750in MyMiddleware.run()
LOG: Closed client: /10.0.0.7:40742in MyMiddleware.run()
LOG: Closed client: /10.0.0.7:40756in MyMiddleware.run()
LOG: Closed client: /10.0.0.7:40754in MyMiddleware.run()
LOG: Closed client: /10.0.0.7:40744in MyMiddleware.run()
LOG: Closed client: /10.0.0.7:40746in MyMiddleware.run()
LOG: Closed client: /10.0.0.6:47186in MyMiddleware.run()
LOG: Closed client: /10.0.0.6:47202in MyMiddleware.run()
LOG: Closed client: /10.0.0.6:47178in MyMiddleware.run()
LOG: Closed client: /10.0.0.6:47190in MyMiddleware.run()
LOG: Closed client: /10.0.0.6:47198in MyMiddleware.run()
LOG: Closed client: /10.0.0.6:47182in MyMiddleware.run()
LOG: Closed client: /10.0.0.6:47206in MyMiddleware.run()
LOG: Closed client: /10.0.0.6:47194in MyMiddleware.run()
