Second,Ops/sec,Hits/sec,Misses/sec,Latency,KB/sec,Request_Creation_Time,Request_Buffer_Time,MW_Writes_To_Memcached_Time,Memcached_Process_Time,MW_Writes_To_Memtier_Time,Queue_Size
4,1822.00,1822.00,0.00,1.036,1002,0.022,0.160,0.044,0.768,0.041,0.9
5,8011.00,8011.00,0.00,0.935,4403,0.007,0.137,0.015,0.759,0.016,0.9
6,9303.00,9303.00,0.00,0.679,5113,0.008,0.118,0.013,0.528,0.013,0.8
7,10063.00,10063.00,0.00,0.670,5531,0.007,0.119,0.012,0.518,0.014,0.9
8,9245.00,9233.00,12.00,0.712,5074,0.008,0.124,0.017,0.548,0.016,0.8
9,10769.00,10769.00,0.00,0.621,5919,0.005,0.105,0.012,0.484,0.015,0.8
10,10517.00,10517.00,0.00,0.626,5780,0.006,0.104,0.013,0.485,0.017,0.8
11,8156.00,8156.00,0.00,0.837,4482,0.006,0.110,0.012,0.694,0.015,0.7
12,10791.00,10791.00,0.00,0.602,5930,0.004,0.106,0.012,0.467,0.013,0.8
13,10669.00,10659.00,10.00,0.626,5858,0.005,0.110,0.014,0.483,0.014,0.9
14,9893.00,9891.00,2.00,0.709,5436,0.004,0.127,0.013,0.550,0.014,0.9
15,11163.00,11163.00,0.00,0.564,6135,0.004,0.093,0.013,0.436,0.017,0.8
16,10023.00,10023.00,0.00,0.690,5509,0.004,0.137,0.012,0.522,0.015,0.9
17,10389.00,10389.00,0.00,0.673,5710,0.004,0.125,0.013,0.517,0.014,0.9
18,10979.00,10979.00,0.00,0.615,6034,0.005,0.110,0.013,0.473,0.015,0.9
19,10577.00,10577.00,0.00,0.634,5813,0.005,0.120,0.013,0.482,0.014,0.9
20,9997.00,9997.00,0.00,0.678,5494,0.006,0.126,0.013,0.518,0.016,0.9
21,10800.00,10800.00,0.00,0.619,5936,0.005,0.111,0.012,0.476,0.014,0.9
22,10316.00,10316.00,0.00,0.672,5670,0.006,0.116,0.013,0.523,0.015,0.8
23,10559.00,10559.00,0.00,0.654,5803,0.005,0.117,0.012,0.505,0.014,0.8
24,11044.00,11044.00,0.00,0.582,6070,0.004,0.098,0.012,0.454,0.014,0.8
25,10884.00,10884.00,0.00,0.615,5982,0.004,0.106,0.011,0.480,0.014,0.8
26,10413.00,10413.00,0.00,0.679,5723,0.004,0.134,0.012,0.514,0.014,0.9
27,10687.00,10685.00,2.00,0.634,5873,0.005,0.114,0.011,0.491,0.013,0.8
28,10860.00,10853.00,7.00,0.628,5965,0.005,0.117,0.011,0.480,0.014,0.9
29,10037.00,10031.00,6.00,0.712,5513,0.005,0.149,0.012,0.531,0.016,0.9
30,10525.00,10512.00,13.00,0.650,5777,0.005,0.109,0.013,0.508,0.015,0.9
31,10650.00,10643.00,7.00,0.631,5849,0.005,0.120,0.012,0.480,0.014,0.9
32,9732.00,9731.00,1.00,0.751,5348,0.004,0.152,0.013,0.568,0.013,0.9
33,11062.00,11062.00,0.00,0.592,6079,0.005,0.104,0.013,0.457,0.014,0.9
34,10830.00,10830.00,0.00,0.636,5952,0.005,0.104,0.012,0.500,0.015,0.9
35,10781.00,10781.00,0.00,0.652,5925,0.005,0.115,0.012,0.506,0.014,0.9
36,10805.00,10805.00,0.00,0.627,5938,0.004,0.107,0.015,0.486,0.016,0.8
37,10119.00,10119.00,0.00,0.701,5561,0.004,0.132,0.013,0.539,0.013,0.9
38,10382.00,10382.00,0.00,0.687,5706,0.004,0.133,0.011,0.522,0.015,0.9
39,10903.00,10903.00,0.00,0.594,5992,0.006,0.094,0.012,0.468,0.015,0.8
40,11175.00,11175.00,0.00,0.580,6142,0.004,0.095,0.013,0.451,0.016,0.8
41,10566.00,10566.00,0.00,0.672,5807,0.004,0.117,0.012,0.523,0.015,0.8
42,10416.00,10416.00,0.00,0.619,5725,0.004,0.116,0.012,0.473,0.014,0.9
43,11011.00,11011.00,0.00,0.600,6052,0.004,0.104,0.012,0.465,0.014,0.8
44,10569.00,10569.00,0.00,0.669,5809,0.005,0.121,0.012,0.514,0.016,0.9
45,10985.00,10985.00,0.00,0.590,6037,0.005,0.104,0.013,0.454,0.014,0.8
46,10561.00,10561.00,0.00,0.629,5804,0.004,0.117,0.012,0.481,0.014,0.8
47,10475.00,10475.00,0.00,0.643,5757,0.006,0.106,0.014,0.502,0.015,0.8
48,10495.00,10495.00,0.00,0.648,5768,0.006,0.120,0.014,0.494,0.015,0.9
49,11108.00,11108.00,0.00,0.612,6105,0.005,0.108,0.012,0.472,0.014,0.9
50,11262.00,11262.00,0.00,0.608,6189,0.004,0.102,0.012,0.472,0.016,0.9
51,10589.00,10589.00,0.00,0.661,5820,0.005,0.117,0.012,0.513,0.014,0.8
52,10654.00,10654.00,0.00,0.629,5855,0.006,0.103,0.011,0.494,0.015,0.8
53,10475.00,10475.00,0.00,0.620,5757,0.005,0.102,0.012,0.487,0.015,0.8
54,10284.00,10284.00,0.00,0.656,5652,0.005,0.119,0.012,0.505,0.015,0.8
55,10065.00,10065.00,0.00,0.652,5531,0.005,0.142,0.011,0.481,0.014,1.0
56,10481.00,10481.00,0.00,0.645,5760,0.004,0.114,0.013,0.499,0.015,0.8
57,10207.00,10207.00,0.00,0.696,5609,0.005,0.132,0.012,0.531,0.015,0.9
58,10683.00,10683.00,0.00,0.621,5871,0.004,0.108,0.012,0.483,0.013,0.8
59,11057.00,11057.00,0.00,0.615,6077,0.005,0.099,0.014,0.482,0.015,0.8
60,10701.00,10701.00,0.00,0.637,5881,0.004,0.107,0.013,0.499,0.014,0.9
61,10873.00,10873.00,0.00,0.595,5976,0.004,0.099,0.013,0.463,0.015,0.8
62,10776.00,10776.00,0.00,0.644,5922,0.004,0.108,0.012,0.504,0.015,0.9
63,9935.00,9935.00,0.00,0.701,5460,0.004,0.126,0.012,0.545,0.015,0.9
64,11065.00,11065.00,0.00,0.596,6081,0.004,0.107,0.011,0.460,0.013,0.9
65,10759.00,10759.00,0.00,0.639,5913,0.005,0.107,0.012,0.500,0.016,0.9
66,10142.00,10142.00,0.00,0.688,5574,0.005,0.126,0.013,0.529,0.016,0.8
67,10716.00,10716.00,0.00,0.582,5889,0.005,0.094,0.014,0.452,0.017,0.8
68,10609.00,10609.00,0.00,0.659,5831,0.004,0.115,0.012,0.513,0.015,0.8
69,10769.00,10769.00,0.00,0.632,5918,0.005,0.112,0.011,0.490,0.013,0.8
70,10813.00,10813.00,0.00,0.585,5943,0.004,0.097,0.012,0.458,0.014,0.8
71,10590.00,10590.00,0.00,0.674,5820,0.005,0.115,0.012,0.528,0.015,0.9
72,10360.00,10360.00,0.00,0.661,5694,0.005,0.119,0.012,0.511,0.014,0.8
73,11168.00,11168.00,0.00,0.588,6138,0.004,0.091,0.012,0.468,0.013,0.8
74,7370.00,7370.00,0.00,0.633,4050,0.004,0.106,0.012,0.496,0.015,0.8
