Second,Ops/sec,Hits/sec,Misses/sec,Latency,KB/sec,Request_Creation_Time,Request_Buffer_Time,MW_Writes_To_Memcached_Time,Memcached_Process_Time,MW_Writes_To_Memtier_Time,Queue_Size
4,4201.00,4201.00,0.00,1.523,4414,0.014,0.269,0.048,1.148,0.044,1.6
5,10628.00,10628.00,0.00,1.377,11166,0.009,0.216,0.016,1.117,0.019,1.7
6,12109.00,12109.00,0.00,1.118,12721,0.008,0.218,0.016,0.858,0.017,1.8
7,12139.00,12139.00,0.00,1.071,12753,0.007,0.194,0.018,0.829,0.022,1.7
8,12706.00,12706.00,0.00,1.095,13349,0.007,0.209,0.016,0.846,0.017,1.8
9,12006.00,11985.00,21.00,1.113,12591,0.006,0.169,0.018,0.903,0.018,1.6
10,11806.00,11803.00,3.00,1.146,12399,0.007,0.172,0.018,0.932,0.016,1.7
11,11871.00,11871.00,0.00,1.114,12471,0.007,0.144,0.015,0.931,0.017,1.4
12,12478.00,12478.00,0.00,1.104,13109,0.005,0.171,0.016,0.897,0.015,1.7
13,12543.00,12543.00,0.00,1.033,13177,0.007,0.211,0.015,0.783,0.017,1.9
14,12460.00,12460.00,0.00,1.126,13090,0.006,0.201,0.016,0.883,0.019,1.8
15,12573.00,12573.00,0.00,1.186,13209,0.006,0.177,0.016,0.969,0.018,1.6
16,12706.00,12706.00,0.00,1.021,13348,0.005,0.164,0.017,0.816,0.018,1.6
17,12178.00,12177.00,1.00,1.156,12793,0.006,0.174,0.016,0.939,0.021,1.5
18,12801.00,12789.00,12.00,1.038,13436,0.006,0.167,0.015,0.834,0.016,1.6
19,12795.00,12788.00,7.00,1.018,13435,0.005,0.189,0.015,0.791,0.017,1.7
20,12329.00,12325.00,4.00,1.157,12948,0.006,0.193,0.016,0.923,0.018,1.8
21,12649.00,12649.00,0.00,1.087,13289,0.005,0.189,0.015,0.862,0.016,1.8
22,12782.00,12782.00,0.00,1.036,13428,0.006,0.212,0.014,0.787,0.017,2.0
23,12900.00,12900.00,0.00,1.060,13552,0.006,0.171,0.017,0.848,0.017,1.5
24,12555.00,12555.00,0.00,1.074,13190,0.005,0.181,0.019,0.852,0.016,1.7
25,12275.00,12275.00,0.00,1.112,12896,0.004,0.198,0.016,0.875,0.019,2.0
26,12764.00,12764.00,0.00,1.149,13410,0.005,0.191,0.015,0.919,0.018,1.8
27,12500.00,12500.00,0.00,1.158,13132,0.006,0.168,0.016,0.952,0.016,1.6
28,12647.00,12647.00,0.00,1.006,13287,0.005,0.191,0.016,0.772,0.021,1.6
29,12369.00,12369.00,0.00,1.054,12995,0.005,0.174,0.016,0.843,0.017,1.7
30,12683.00,12683.00,0.00,1.140,13324,0.005,0.170,0.017,0.931,0.017,1.5
31,12738.00,12738.00,0.00,1.042,13382,0.006,0.184,0.017,0.818,0.017,1.7
32,12775.00,12775.00,0.00,1.146,13421,0.005,0.204,0.017,0.903,0.017,1.8
33,12651.00,12651.00,0.00,1.106,13291,0.006,0.163,0.014,0.907,0.017,1.6
34,12686.00,12686.00,0.00,1.148,13328,0.005,0.188,0.015,0.924,0.016,1.8
35,12843.00,12843.00,0.00,1.025,13492,0.007,0.180,0.018,0.803,0.017,1.7
36,12773.00,12773.00,0.00,1.062,13419,0.006,0.168,0.014,0.854,0.019,1.7
37,12898.00,12898.00,0.00,1.098,13550,0.005,0.182,0.016,0.875,0.020,1.7
38,12792.00,12792.00,0.00,1.046,13439,0.007,0.206,0.012,0.803,0.017,2.0
39,12522.00,12522.00,0.00,1.082,13155,0.007,0.188,0.017,0.853,0.017,1.7
40,12809.00,12808.00,1.00,1.080,13456,0.006,0.191,0.013,0.851,0.019,1.6
41,13657.00,13653.00,4.00,1.010,14344,0.005,0.164,0.017,0.805,0.018,1.7
42,12672.00,12665.00,7.00,1.067,13306,0.005,0.184,0.017,0.844,0.016,1.8
43,12976.00,12970.00,6.00,1.037,13626,0.005,0.201,0.016,0.796,0.018,1.9
44,12527.00,12520.00,7.00,1.084,13153,0.006,0.207,0.018,0.834,0.019,1.9
45,11984.00,11971.00,13.00,1.247,12577,0.005,0.227,0.016,0.981,0.019,2.1
46,12872.00,12861.00,11.00,1.042,13511,0.006,0.195,0.017,0.806,0.018,1.7
47,13006.00,12998.00,8.00,1.064,13655,0.006,0.188,0.017,0.838,0.015,1.8
48,12471.00,12465.00,6.00,1.129,13095,0.006,0.210,0.015,0.882,0.016,1.8
49,12939.00,12934.00,5.00,1.034,13588,0.005,0.201,0.014,0.798,0.017,1.8
50,12900.00,12897.00,3.00,1.022,13549,0.007,0.179,0.015,0.801,0.020,1.7
51,12542.00,12541.00,1.00,1.158,13175,0.006,0.191,0.016,0.927,0.018,1.8
52,12920.00,12920.00,0.00,1.041,13573,0.007,0.153,0.015,0.850,0.016,1.5
53,12293.00,12293.00,0.00,1.050,12914,0.007,0.233,0.016,0.777,0.017,2.0
54,12484.00,12484.00,0.00,1.067,13115,0.004,0.197,0.017,0.833,0.016,1.7
55,12334.00,12334.00,0.00,1.018,12958,0.005,0.201,0.015,0.780,0.017,1.8
56,12641.00,12641.00,0.00,1.046,13280,0.005,0.178,0.018,0.825,0.020,1.7
57,12392.00,12392.00,0.00,1.188,13018,0.005,0.198,0.016,0.951,0.019,1.7
58,12756.00,12756.00,0.00,1.045,13401,0.006,0.189,0.015,0.815,0.020,1.7
59,12802.00,12802.00,0.00,1.009,13449,0.005,0.171,0.015,0.799,0.018,1.7
60,12227.00,12227.00,0.00,1.183,12845,0.005,0.183,0.015,0.960,0.019,1.6
61,12728.00,12728.00,0.00,1.100,13372,0.005,0.163,0.017,0.893,0.022,1.6
62,12740.00,12740.00,0.00,1.043,13384,0.006,0.192,0.016,0.810,0.018,1.7
63,12499.00,12499.00,0.00,1.134,13131,0.006,0.193,0.016,0.903,0.016,1.7
64,12737.00,12737.00,0.00,1.066,13381,0.005,0.188,0.014,0.844,0.015,1.7
65,12561.00,12561.00,0.00,1.148,13196,0.005,0.218,0.015,0.894,0.015,1.8
66,13025.00,13025.00,0.00,1.065,13684,0.007,0.189,0.014,0.836,0.019,1.8
67,12871.00,12871.00,0.00,1.068,13522,0.006,0.174,0.016,0.854,0.018,1.6
68,12710.00,12710.00,0.00,1.103,13353,0.004,0.200,0.017,0.864,0.018,1.8
69,12451.00,12451.00,0.00,1.158,13081,0.004,0.199,0.016,0.921,0.018,1.8
70,13173.00,13173.00,0.00,1.047,13839,0.007,0.184,0.015,0.824,0.017,1.8
71,12718.00,12718.00,0.00,1.000,13361,0.005,0.199,0.015,0.763,0.017,1.8
72,13110.00,13110.00,0.00,1.025,13773,0.006,0.171,0.016,0.813,0.020,1.7
73,12774.00,12774.00,0.00,1.167,13420,0.005,0.185,0.016,0.946,0.015,1.7
74,5937.00,5937.00,0.00,1.152,6237,0.007,0.221,0.015,0.891,0.018,2.1
