Second,Ops/sec,Hits/sec,Misses/sec,Latency,KB/sec,Request_Creation_Time,Request_Buffer_Time,MW_Writes_To_Memcached_Time,Memcached_Process_Time,MW_Writes_To_Memtier_Time,Queue_Size
4,3206.00,3206.00,0.00,2.222,3369,0.020,0.532,0.050,1.559,0.061,6.1
5,13987.00,13987.00,0.00,2.001,14695,0.011,0.522,0.027,1.410,0.030,5.7
6,15659.00,15659.00,0.00,1.660,16451,0.007,0.387,0.018,1.227,0.021,4.9
7,15632.00,15632.00,0.00,1.920,16422,0.006,0.447,0.016,1.428,0.022,5.5
8,16060.00,16060.00,0.00,1.743,16872,0.006,0.373,0.018,1.323,0.023,5.2
9,15366.00,15366.00,0.00,1.838,16143,0.009,0.373,0.018,1.419,0.019,5.0
10,15115.00,15115.00,0.00,1.941,15880,0.006,0.447,0.017,1.454,0.018,5.0
11,16093.00,16093.00,0.00,1.722,16907,0.005,0.418,0.014,1.267,0.019,5.3
12,15393.00,15355.00,38.00,1.683,16131,0.007,0.400,0.020,1.229,0.027,5.2
13,15496.00,15486.00,10.00,1.818,16268,0.006,0.448,0.021,1.320,0.024,5.3
14,15608.00,15608.00,0.00,1.781,16397,0.005,0.424,0.021,1.305,0.025,5.6
15,15982.00,15982.00,0.00,1.819,16790,0.005,0.456,0.017,1.320,0.022,5.7
16,15826.00,15826.00,0.00,1.874,16627,0.004,0.446,0.022,1.379,0.022,5.7
17,15522.00,15522.00,0.00,1.853,16307,0.005,0.444,0.023,1.360,0.021,5.3
18,15779.00,15779.00,0.00,1.761,16577,0.005,0.437,0.017,1.279,0.023,5.7
19,15537.00,15537.00,0.00,1.754,16322,0.005,0.447,0.022,1.256,0.024,5.4
20,15289.00,15289.00,0.00,1.955,16062,0.005,0.499,0.018,1.411,0.021,5.6
21,15931.00,15931.00,0.00,1.780,16736,0.005,0.429,0.021,1.306,0.019,5.6
22,16125.00,16125.00,0.00,1.701,16940,0.006,0.372,0.020,1.284,0.020,5.2
23,15338.00,15338.00,0.00,1.832,16113,0.004,0.428,0.019,1.359,0.022,5.6
24,15706.00,15706.00,0.00,1.849,16500,0.005,0.434,0.016,1.372,0.022,5.3
25,15538.00,15536.00,2.00,1.789,16322,0.005,0.436,0.020,1.306,0.022,5.2
26,15883.00,15867.00,16.00,1.950,16670,0.006,0.467,0.020,1.437,0.020,5.8
27,16138.00,16120.00,18.00,1.854,16935,0.005,0.476,0.015,1.341,0.018,5.7
28,15758.00,15748.00,10.00,1.681,16544,0.005,0.454,0.019,1.183,0.020,5.8
29,16141.00,16139.00,2.00,1.663,16955,0.005,0.402,0.016,1.225,0.017,5.1
30,15337.00,15337.00,0.00,1.854,16113,0.006,0.447,0.017,1.364,0.020,5.2
31,15602.00,15602.00,0.00,1.816,16391,0.005,0.461,0.015,1.316,0.019,5.6
32,15619.00,15619.00,0.00,1.764,16409,0.005,0.397,0.016,1.326,0.021,5.2
33,16178.00,16178.00,0.00,1.650,16996,0.006,0.416,0.017,1.193,0.019,5.2
34,15913.00,15913.00,0.00,1.702,16718,0.005,0.452,0.017,1.208,0.020,5.4
35,15696.00,15696.00,0.00,1.922,16490,0.005,0.474,0.017,1.406,0.020,5.6
36,16018.00,16018.00,0.00,1.785,16828,0.006,0.405,0.016,1.338,0.020,5.4
37,15311.00,15311.00,0.00,1.789,16085,0.005,0.405,0.020,1.334,0.024,5.0
38,15897.00,15897.00,0.00,1.728,16701,0.005,0.429,0.015,1.263,0.016,5.1
39,15978.00,15978.00,0.00,1.811,16786,0.005,0.408,0.013,1.366,0.019,5.0
40,15644.00,15644.00,0.00,1.938,16435,0.005,0.443,0.014,1.459,0.018,5.1
41,15605.00,15605.00,0.00,1.748,16394,0.005,0.403,0.016,1.301,0.022,5.1
42,15467.00,15467.00,0.00,1.871,16249,0.005,0.445,0.015,1.388,0.018,5.1
43,16136.00,16136.00,0.00,1.779,16952,0.005,0.466,0.015,1.276,0.017,5.3
44,15456.00,15456.00,0.00,1.941,16237,0.005,0.464,0.013,1.439,0.020,5.3
45,15846.00,15846.00,0.00,1.835,16647,0.006,0.453,0.013,1.346,0.017,5.4
46,15667.00,15667.00,0.00,1.784,16459,0.005,0.409,0.014,1.337,0.018,5.2
47,15789.00,15789.00,0.00,2.019,16588,0.005,0.457,0.015,1.527,0.016,5.4
48,15969.00,15969.00,0.00,1.856,16777,0.005,0.436,0.019,1.377,0.019,5.5
49,15741.00,15741.00,0.00,1.912,16537,0.005,0.457,0.016,1.418,0.016,5.2
50,15600.00,15600.00,0.00,2.088,16389,0.005,0.504,0.014,1.545,0.019,5.6
51,15854.00,15854.00,0.00,1.887,16656,0.005,0.450,0.015,1.399,0.017,5.3
52,15471.00,15471.00,0.00,1.995,16253,0.004,0.515,0.015,1.442,0.019,5.5
53,15731.00,15731.00,0.00,1.930,16526,0.005,0.491,0.013,1.405,0.016,5.5
54,15838.00,15838.00,0.00,1.781,16639,0.005,0.442,0.016,1.301,0.017,5.0
55,15827.00,15827.00,0.00,1.913,16627,0.005,0.471,0.013,1.405,0.019,5.4
56,15850.00,15850.00,0.00,1.934,16651,0.004,0.503,0.014,1.396,0.017,5.8
57,15140.00,15140.00,0.00,1.957,15905,0.004,0.481,0.017,1.435,0.020,5.2
58,15722.00,15722.00,0.00,1.901,16517,0.005,0.435,0.013,1.429,0.018,5.3
59,15389.00,15389.00,0.00,1.779,16167,0.004,0.453,0.015,1.289,0.018,5.1
60,16003.00,16003.00,0.00,1.886,16812,0.005,0.447,0.016,1.399,0.020,5.3
61,15848.00,15847.00,1.00,1.857,16648,0.005,0.450,0.013,1.371,0.018,5.4
62,15838.00,15836.00,2.00,1.930,16637,0.005,0.475,0.015,1.417,0.018,5.3
63,16107.00,16103.00,4.00,1.789,16918,0.005,0.406,0.015,1.345,0.018,5.2
64,15446.00,15438.00,8.00,1.980,16219,0.006,0.504,0.013,1.437,0.020,5.8
65,15059.00,15056.00,3.00,2.019,15818,0.005,0.512,0.015,1.468,0.020,5.2
66,15765.00,15757.00,8.00,1.970,16554,0.004,0.530,0.015,1.403,0.018,5.8
67,15615.00,15603.00,12.00,1.923,16392,0.005,0.482,0.016,1.402,0.018,5.4
68,15517.00,15509.00,8.00,1.800,16294,0.005,0.455,0.015,1.305,0.020,5.2
69,15639.00,15620.00,19.00,1.931,16410,0.005,0.469,0.013,1.427,0.017,5.3
70,15719.00,15711.00,8.00,1.823,16505,0.005,0.448,0.015,1.340,0.015,5.1
71,15643.00,15625.00,18.00,1.888,16415,0.006,0.490,0.014,1.360,0.018,5.0
72,16009.00,15999.00,10.00,1.835,16808,0.005,0.440,0.015,1.358,0.016,5.1
73,15841.00,15829.00,12.00,1.933,16629,0.005,0.455,0.015,1.442,0.017,5.2
74,10593.00,10584.00,9.00,1.952,11119,0.005,0.432,0.013,1.487,0.016,5.1
