Second,Ops/sec,Hits/sec,Misses/sec,Latency,KB/sec,Request_Creation_Time,Request_Buffer_Time,MW_Writes_To_Memcached_Time,Memcached_Process_Time,MW_Writes_To_Memtier_Time,Queue_Size
4,2999.00,2999.00,0.00,1.160,3151,0.015,0.111,0.055,0.940,0.040,0.5
5,7753.00,7753.00,0.00,0.924,8145,0.007,0.082,0.014,0.806,0.015,0.5
6,10828.00,10828.00,0.00,0.627,11375,0.006,0.076,0.015,0.516,0.013,0.5
7,9908.00,9899.00,9.00,0.692,10400,0.006,0.093,0.017,0.561,0.015,0.5
8,9146.00,9143.00,3.00,0.751,9605,0.006,0.082,0.016,0.632,0.015,0.4
9,10732.00,10732.00,0.00,0.636,11275,0.005,0.071,0.016,0.531,0.014,0.4
10,10192.00,10192.00,0.00,0.679,10707,0.005,0.085,0.014,0.562,0.013,0.5
11,8665.00,8665.00,0.00,0.795,9103,0.005,0.072,0.014,0.690,0.014,0.5
12,10985.00,10985.00,0.00,0.639,11540,0.005,0.067,0.015,0.537,0.015,0.5
13,10390.00,10380.00,10.00,0.653,10905,0.005,0.075,0.015,0.542,0.016,0.6
14,10053.00,10051.00,2.00,0.686,10559,0.005,0.093,0.014,0.561,0.014,0.6
15,8484.00,8484.00,0.00,0.834,8913,0.005,0.166,0.014,0.636,0.013,0.8
16,9096.00,9096.00,0.00,0.792,9556,0.004,0.157,0.014,0.602,0.013,0.8
17,10245.00,10245.00,0.00,0.686,10763,0.004,0.077,0.015,0.577,0.013,0.5
18,10557.00,10557.00,0.00,0.672,11091,0.004,0.083,0.015,0.557,0.014,0.6
19,10372.00,10372.00,0.00,0.659,10897,0.004,0.078,0.014,0.549,0.013,0.5
20,10143.00,10143.00,0.00,0.707,10656,0.005,0.078,0.014,0.596,0.014,0.5
21,10247.00,10247.00,0.00,0.733,10765,0.005,0.105,0.014,0.595,0.014,0.6
22,9187.00,9187.00,0.00,0.762,9652,0.004,0.151,0.013,0.580,0.013,0.7
23,10396.00,10396.00,0.00,0.701,10922,0.004,0.059,0.015,0.609,0.015,0.5
24,10139.00,10139.00,0.00,0.711,10652,0.005,0.092,0.016,0.583,0.015,0.6
25,10510.00,10510.00,0.00,0.681,11041,0.004,0.081,0.013,0.568,0.015,0.6
26,10449.00,10449.00,0.00,0.690,10977,0.004,0.076,0.014,0.581,0.015,0.5
27,10839.00,10839.00,0.00,0.652,11387,0.004,0.078,0.014,0.541,0.015,0.5
28,9923.00,9918.00,5.00,0.754,10420,0.004,0.076,0.014,0.646,0.014,0.5
29,9570.00,9563.00,7.00,0.757,10047,0.004,0.070,0.014,0.654,0.014,0.4
30,10790.00,10782.00,8.00,0.653,11327,0.005,0.072,0.013,0.548,0.015,0.5
31,11104.00,11090.00,14.00,0.627,11651,0.004,0.071,0.014,0.522,0.015,0.5
32,10619.00,10617.00,2.00,0.646,11154,0.004,0.080,0.014,0.533,0.014,0.5
33,10396.00,10396.00,0.00,0.667,10922,0.005,0.080,0.016,0.552,0.015,0.5
34,11018.00,11018.00,0.00,0.616,11575,0.005,0.076,0.014,0.506,0.016,0.5
35,9857.00,9857.00,0.00,0.736,10355,0.005,0.074,0.014,0.629,0.014,0.5
36,10800.00,10800.00,0.00,0.650,11346,0.004,0.081,0.014,0.537,0.013,0.5
37,11090.00,11090.00,0.00,0.611,11651,0.005,0.071,0.014,0.508,0.013,0.5
38,9598.00,9598.00,0.00,0.760,10083,0.004,0.104,0.014,0.624,0.013,0.6
39,10229.00,10229.00,0.00,0.698,10746,0.004,0.095,0.013,0.571,0.014,0.6
40,10106.00,10106.00,0.00,0.683,10617,0.004,0.099,0.014,0.553,0.013,0.6
41,9280.00,9280.00,0.00,0.767,9749,0.005,0.135,0.014,0.600,0.014,0.7
42,9762.00,9762.00,0.00,0.729,10256,0.004,0.127,0.013,0.570,0.014,0.7
43,10728.00,10728.00,0.00,0.651,11270,0.004,0.081,0.014,0.538,0.014,0.5
44,10131.00,10131.00,0.00,0.702,10643,0.004,0.083,0.014,0.586,0.015,0.5
45,10537.00,10537.00,0.00,0.652,11070,0.004,0.090,0.014,0.531,0.013,0.6
46,10709.00,10709.00,0.00,0.640,11250,0.004,0.072,0.014,0.536,0.014,0.5
47,10538.00,10538.00,0.00,0.634,11071,0.005,0.080,0.014,0.520,0.015,0.6
48,10500.00,10500.00,0.00,0.665,11031,0.004,0.092,0.015,0.540,0.013,0.6
49,10531.00,10531.00,0.00,0.667,11064,0.004,0.079,0.014,0.556,0.014,0.5
50,9892.00,9892.00,0.00,0.702,10392,0.004,0.081,0.013,0.590,0.014,0.6
51,10156.00,10156.00,0.00,0.705,10669,0.004,0.103,0.015,0.568,0.014,0.6
52,10901.00,10901.00,0.00,0.645,11452,0.004,0.080,0.015,0.533,0.014,0.5
53,10132.00,10132.00,0.00,0.717,10644,0.004,0.090,0.014,0.595,0.014,0.6
54,10553.00,10553.00,0.00,0.676,11087,0.004,0.078,0.014,0.564,0.015,0.5
55,10138.00,10138.00,0.00,0.692,10650,0.005,0.094,0.014,0.566,0.014,0.6
56,9875.00,9875.00,0.00,0.723,10374,0.004,0.101,0.015,0.588,0.014,0.6
57,11159.00,11159.00,0.00,0.618,11723,0.004,0.085,0.014,0.500,0.014,0.6
58,10420.00,10420.00,0.00,0.711,10947,0.004,0.078,0.016,0.596,0.016,0.5
59,10794.00,10794.00,0.00,0.659,11339,0.004,0.068,0.014,0.559,0.014,0.5
60,10397.00,10397.00,0.00,0.701,10923,0.004,0.069,0.013,0.600,0.015,0.5
61,10787.00,10787.00,0.00,0.634,11332,0.004,0.070,0.014,0.533,0.014,0.5
62,11283.00,11283.00,0.00,0.586,11854,0.004,0.073,0.014,0.481,0.014,0.5
63,10321.00,10321.00,0.00,0.703,10843,0.004,0.080,0.014,0.591,0.015,0.5
64,10735.00,10735.00,0.00,0.650,11278,0.005,0.067,0.014,0.551,0.013,0.5
65,10760.00,10760.00,0.00,0.681,11304,0.004,0.071,0.015,0.578,0.013,0.5
66,10330.00,10330.00,0.00,0.674,10852,0.004,0.069,0.013,0.573,0.014,0.5
67,10524.00,10524.00,0.00,0.655,11056,0.004,0.080,0.015,0.542,0.014,0.5
68,10724.00,10724.00,0.00,0.674,11266,0.004,0.076,0.014,0.567,0.013,0.6
69,9786.00,9786.00,0.00,0.751,10281,0.004,0.097,0.014,0.622,0.014,0.7
70,10320.00,10320.00,0.00,0.694,10842,0.004,0.093,0.014,0.568,0.015,0.7
71,10463.00,10463.00,0.00,0.675,10992,0.004,0.093,0.014,0.551,0.014,0.7
72,10172.00,10172.00,0.00,0.715,10686,0.005,0.093,0.014,0.590,0.014,0.6
73,9962.00,9962.00,0.00,0.730,10466,0.004,0.093,0.014,0.605,0.014,0.6
74,5440.00,5440.00,0.00,0.628,5715,0.004,0.076,0.014,0.520,0.015,0.5
