Second,Ops/sec,Hits/sec,Misses/sec,Latency,KB/sec,Request_Creation_Time,Request_Buffer_Time,MW_Writes_To_Memcached_Time,Memcached_Process_Time,MW_Writes_To_Memtier_Time,Queue_Size
4,5013.00,5013.00,0.00,3.357,2756,0.025,1.370,0.056,1.848,0.058,19.2
5,16289.00,16289.00,0.00,2.890,8953,0.011,0.911,0.025,1.914,0.030,14.6
6,19474.00,19474.00,0.00,2.403,10703,0.007,0.738,0.018,1.616,0.023,13.4
7,19730.00,19730.00,0.00,2.537,10844,0.006,0.787,0.018,1.703,0.023,13.0
8,19527.00,19527.00,0.00,2.476,10732,0.007,0.719,0.021,1.705,0.023,13.7
9,18559.00,18559.00,0.00,2.646,10199,0.007,0.710,0.020,1.884,0.024,12.2
10,19053.00,19053.00,0.00,2.663,10471,0.008,0.778,0.020,1.833,0.024,13.2
11,19297.00,19297.00,0.00,2.826,10605,0.005,0.836,0.024,1.933,0.028,14.1
12,19650.00,19650.00,0.00,2.500,10799,0.006,0.802,0.019,1.645,0.027,14.1
13,19909.00,19909.00,0.00,2.484,10942,0.007,0.751,0.020,1.681,0.026,14.4
14,19220.00,19220.00,0.00,2.466,10564,0.006,0.784,0.020,1.629,0.026,14.9
15,19373.00,19373.00,0.00,2.429,10648,0.006,0.765,0.018,1.616,0.025,14.2
16,17747.00,17729.00,18.00,2.944,9744,0.009,0.977,0.024,1.903,0.032,15.6
17,18836.00,18779.00,57.00,2.783,10320,0.007,0.885,0.026,1.840,0.027,15.2
18,18968.00,18947.00,21.00,2.590,10412,0.007,0.797,0.024,1.732,0.028,14.2
19,18405.00,18405.00,0.00,2.648,10114,0.006,0.883,0.024,1.705,0.030,15.0
20,18148.00,18148.00,0.00,2.884,9973,0.008,1.009,0.022,1.817,0.028,16.1
21,19783.00,19783.00,0.00,2.789,10872,0.005,0.891,0.023,1.843,0.028,16.8
22,18157.00,18157.00,0.00,2.893,9979,0.006,0.973,0.026,1.860,0.028,16.8
23,18436.00,18436.00,0.00,2.801,10133,0.005,1.004,0.025,1.735,0.031,16.6
24,19060.00,19060.00,0.00,2.632,10476,0.006,0.754,0.019,1.826,0.026,13.0
25,19309.00,19309.00,0.00,2.509,10612,0.006,0.708,0.020,1.751,0.024,12.8
26,19322.00,19322.00,0.00,2.691,10619,0.008,0.817,0.020,1.819,0.028,14.5
27,19172.00,19172.00,0.00,2.588,10536,0.006,0.809,0.022,1.723,0.027,14.7
28,19297.00,19297.00,0.00,2.476,10605,0.005,0.743,0.023,1.681,0.024,13.5
29,19635.00,19635.00,0.00,2.541,10791,0.006,0.708,0.019,1.782,0.025,12.5
30,20144.00,20144.00,0.00,2.317,11070,0.006,0.718,0.018,1.554,0.022,13.3
31,20043.00,20043.00,0.00,2.381,11015,0.006,0.701,0.019,1.627,0.027,13.3
32,20118.00,20118.00,0.00,2.694,11057,0.007,0.777,0.020,1.865,0.025,14.9
33,20462.00,20462.00,0.00,2.342,11246,0.006,0.712,0.019,1.579,0.025,14.0
34,19728.00,19728.00,0.00,2.425,10842,0.006,0.745,0.017,1.630,0.027,14.6
35,20014.00,20014.00,0.00,2.412,10999,0.006,0.719,0.019,1.642,0.025,13.4
36,19997.00,19997.00,0.00,2.610,10990,0.006,0.736,0.019,1.823,0.025,13.8
37,18889.00,18889.00,0.00,2.610,10381,0.007,0.842,0.022,1.710,0.028,14.2
38,19269.00,19265.00,4.00,2.517,10588,0.006,0.799,0.023,1.661,0.029,14.6
39,19421.00,19407.00,14.00,2.672,10667,0.006,0.747,0.022,1.870,0.027,14.9
40,19807.00,19787.00,20.00,2.337,10875,0.006,0.705,0.017,1.584,0.025,13.7
41,18946.00,18925.00,21.00,2.764,10401,0.006,0.866,0.017,1.849,0.027,14.2
42,18750.00,18729.00,21.00,2.768,10293,0.007,0.871,0.017,1.848,0.027,14.2
43,19692.00,19679.00,13.00,2.349,10815,0.008,0.684,0.019,1.614,0.024,13.3
44,19444.00,19442.00,2.00,2.416,10685,0.006,0.707,0.019,1.653,0.031,13.2
45,19477.00,19476.00,1.00,2.512,10704,0.006,0.758,0.022,1.704,0.023,13.8
46,19718.00,19718.00,0.00,2.410,10837,0.006,0.712,0.019,1.646,0.026,13.3
47,19868.00,19868.00,0.00,2.688,10919,0.007,0.888,0.020,1.751,0.022,15.4
48,19213.00,19213.00,0.00,2.507,10559,0.007,0.752,0.018,1.706,0.024,13.5
49,19766.00,19766.00,0.00,2.348,10863,0.006,0.731,0.020,1.564,0.027,13.9
50,19498.00,19498.00,0.00,2.418,10716,0.006,0.743,0.021,1.628,0.020,14.0
51,19523.00,19523.00,0.00,2.551,10730,0.005,0.762,0.018,1.743,0.023,13.9
52,19303.00,19303.00,0.00,2.724,10609,0.006,0.828,0.022,1.840,0.028,13.5
53,19198.00,19198.00,0.00,2.564,10551,0.006,0.748,0.020,1.764,0.026,12.0
54,19266.00,19266.00,0.00,2.428,10589,0.007,0.758,0.016,1.625,0.022,13.4
55,19795.00,19795.00,0.00,2.447,10879,0.007,0.799,0.021,1.597,0.024,14.8
56,19533.00,19533.00,0.00,2.615,10735,0.006,0.802,0.018,1.764,0.024,14.8
57,19157.00,19157.00,0.00,2.642,10529,0.007,0.814,0.023,1.769,0.029,14.4
58,19431.00,19431.00,0.00,2.512,10679,0.006,0.743,0.018,1.720,0.025,13.5
59,19165.00,19165.00,0.00,2.561,10533,0.007,0.804,0.021,1.700,0.028,14.0
60,19475.00,19475.00,0.00,2.433,10704,0.006,0.753,0.019,1.627,0.028,13.3
61,19428.00,19428.00,0.00,2.386,10678,0.005,0.761,0.020,1.576,0.024,14.8
62,20037.00,20037.00,0.00,2.526,11013,0.007,0.703,0.019,1.773,0.024,13.6
63,19015.00,19015.00,0.00,2.945,10451,0.006,0.884,0.020,2.009,0.027,14.6
64,19271.00,19271.00,0.00,2.524,10591,0.006,0.795,0.018,1.681,0.024,13.0
65,19387.00,19387.00,0.00,2.597,10655,0.006,0.784,0.017,1.767,0.023,13.4
66,19909.00,19909.00,0.00,2.579,10942,0.006,0.762,0.020,1.765,0.026,14.2
67,19176.00,19176.00,0.00,2.645,10539,0.006,0.779,0.019,1.817,0.025,14.2
68,19516.00,19516.00,0.00,2.538,10726,0.005,0.761,0.017,1.731,0.023,13.4
69,19821.00,19821.00,0.00,2.470,10893,0.006,0.672,0.020,1.749,0.023,12.9
70,19874.00,19874.00,0.00,2.310,10922,0.007,0.754,0.018,1.507,0.024,15.0
71,19032.00,19032.00,0.00,2.528,10460,0.008,0.778,0.019,1.698,0.026,12.8
72,19395.00,19395.00,0.00,2.486,10659,0.009,0.706,0.016,1.730,0.025,13.2
73,19806.00,19806.00,0.00,2.375,10885,0.006,0.711,0.020,1.610,0.028,14.2
74,12839.00,12839.00,0.00,2.093,7056,0.005,0.641,0.016,1.406,0.023,12.3
75,1960.00,1960.00,0.00,0.738,1077,0.005,0.063,0.022,0.635,0.014,0.1
