Second,Ops/sec,Hits/sec,Misses/sec,Latency,KB/sec,Request_Creation_Time,Request_Buffer_Time,MW_Writes_To_Memcached_Time,Memcached_Process_Time,MW_Writes_To_Memtier_Time,Queue_Size
4,2767.00,2767.00,0.00,1.453,829,0.016,0.446,0.033,0.925,0.033,2.6
5,10209.00,10209.00,0.00,1.282,3059,0.009,0.230,0.017,1.010,0.017,1.8
6,12071.00,12071.00,0.00,1.153,3616,0.009,0.215,0.019,0.892,0.018,2.0
7,12292.00,12292.00,0.00,1.097,3682,0.008,0.234,0.013,0.827,0.015,2.1
8,11795.00,11795.00,0.00,1.199,3534,0.009,0.258,0.018,0.897,0.017,2.1
9,11643.00,11632.00,11.00,1.167,3485,0.009,0.254,0.015,0.872,0.018,2.2
10,11749.00,11736.00,13.00,1.034,3515,0.008,0.167,0.021,0.819,0.020,1.6
11,11814.00,11814.00,0.00,1.285,3539,0.005,0.172,0.016,1.075,0.017,1.6
12,13025.00,13025.00,0.00,1.104,3903,0.007,0.183,0.017,0.876,0.021,1.8
13,12285.00,12285.00,0.00,1.081,3680,0.007,0.187,0.017,0.851,0.019,1.8
14,12571.00,12571.00,0.00,1.136,3766,0.008,0.178,0.014,0.921,0.015,1.7
15,12304.00,12304.00,0.00,1.136,3686,0.007,0.179,0.016,0.920,0.015,1.7
16,12082.00,12082.00,0.00,1.046,3620,0.005,0.166,0.017,0.839,0.018,1.6
17,12529.00,12529.00,0.00,1.216,3753,0.005,0.178,0.017,1.000,0.016,1.7
18,12403.00,12395.00,8.00,1.208,3714,0.006,0.198,0.016,0.970,0.018,1.8
19,12331.00,12319.00,12.00,1.094,3691,0.006,0.201,0.015,0.854,0.018,1.9
20,12343.00,12339.00,4.00,1.208,3696,0.004,0.175,0.015,0.999,0.015,1.6
21,12317.00,12317.00,0.00,1.116,3690,0.006,0.181,0.014,0.900,0.016,1.8
22,12823.00,12823.00,0.00,1.089,3842,0.004,0.159,0.016,0.893,0.017,1.7
23,12250.00,12250.00,0.00,1.181,3670,0.006,0.183,0.015,0.958,0.020,1.7
24,12313.00,12313.00,0.00,1.181,3689,0.007,0.187,0.015,0.957,0.016,1.8
25,12821.00,12821.00,0.00,1.097,3841,0.007,0.166,0.016,0.891,0.017,1.7
26,12633.00,12633.00,0.00,1.144,3785,0.008,0.149,0.016,0.955,0.016,1.6
27,12199.00,12199.00,0.00,1.138,3655,0.005,0.210,0.015,0.893,0.015,1.7
28,12267.00,12267.00,0.00,1.079,3675,0.006,0.239,0.017,0.800,0.017,1.9
29,12685.00,12685.00,0.00,1.172,3800,0.005,0.177,0.015,0.957,0.018,1.7
30,12488.00,12488.00,0.00,1.124,3741,0.006,0.179,0.016,0.904,0.019,1.8
31,12487.00,12487.00,0.00,1.109,3741,0.006,0.184,0.016,0.886,0.018,1.7
32,12666.00,12666.00,0.00,1.192,3795,0.005,0.181,0.014,0.976,0.016,1.8
33,12100.00,12100.00,0.00,1.161,3625,0.008,0.201,0.015,0.920,0.017,1.8
34,12542.00,12542.00,0.00,1.122,3758,0.006,0.207,0.014,0.876,0.019,1.9
35,12813.00,12813.00,0.00,1.142,3839,0.006,0.235,0.016,0.865,0.020,1.9
36,13044.00,13044.00,0.00,1.058,3908,0.005,0.160,0.017,0.857,0.018,1.7
37,12721.00,12721.00,0.00,0.988,3811,0.007,0.161,0.014,0.786,0.020,1.6
38,12547.00,12547.00,0.00,1.156,3759,0.005,0.201,0.016,0.917,0.017,1.7
39,12155.00,12155.00,0.00,1.229,3642,0.006,0.171,0.015,1.018,0.018,1.7
40,13193.00,13193.00,0.00,1.108,3952,0.006,0.172,0.015,0.895,0.020,1.8
41,12613.00,12612.00,1.00,1.115,3779,0.005,0.186,0.016,0.891,0.017,1.7
42,12308.00,12302.00,6.00,1.183,3686,0.007,0.212,0.016,0.928,0.020,1.9
43,12575.00,12568.00,7.00,1.106,3765,0.007,0.172,0.017,0.895,0.016,1.7
44,12647.00,12642.00,5.00,1.075,3788,0.005,0.160,0.015,0.880,0.017,1.6
45,12591.00,12580.00,11.00,1.180,3769,0.006,0.174,0.016,0.963,0.021,1.8
46,12501.00,12488.00,13.00,1.102,3741,0.006,0.181,0.015,0.880,0.020,1.8
47,12527.00,12518.00,9.00,1.071,3750,0.006,0.182,0.018,0.847,0.017,1.7
48,12059.00,12051.00,8.00,1.231,3610,0.004,0.182,0.016,1.012,0.017,1.7
49,12113.00,12108.00,5.00,1.137,3627,0.006,0.175,0.016,0.921,0.019,1.6
50,12760.00,12757.00,3.00,1.038,3822,0.004,0.191,0.015,0.811,0.017,1.8
51,12433.00,12430.00,3.00,1.118,3724,0.004,0.168,0.015,0.914,0.017,1.6
52,12085.00,12084.00,1.00,1.121,3620,0.008,0.215,0.016,0.866,0.016,1.9
53,12397.00,12397.00,0.00,1.122,3714,0.008,0.212,0.014,0.869,0.020,1.9
54,12251.00,12251.00,0.00,1.209,3670,0.004,0.174,0.016,0.998,0.017,1.6
55,12761.00,12761.00,0.00,1.104,3823,0.005,0.211,0.017,0.854,0.017,1.9
56,12438.00,12438.00,0.00,1.165,3726,0.006,0.206,0.015,0.920,0.017,1.8
57,12161.00,12161.00,0.00,1.208,3643,0.006,0.196,0.017,0.971,0.018,1.8
58,12815.00,12815.00,0.00,1.135,3839,0.005,0.180,0.021,0.908,0.021,1.8
59,12379.00,12379.00,0.00,1.093,3709,0.006,0.212,0.015,0.843,0.016,1.8
60,12532.00,12532.00,0.00,1.137,3754,0.005,0.179,0.014,0.922,0.018,1.6
61,12976.00,12976.00,0.00,1.007,3887,0.006,0.168,0.019,0.797,0.017,1.7
62,12645.00,12645.00,0.00,0.985,3788,0.005,0.171,0.015,0.776,0.018,1.7
63,12551.00,12551.00,0.00,1.157,3760,0.005,0.178,0.018,0.938,0.018,1.7
64,12321.00,12321.00,0.00,1.176,3691,0.006,0.207,0.016,0.929,0.018,1.7
65,12223.00,12223.00,0.00,1.106,3662,0.005,0.198,0.016,0.870,0.017,1.8
66,12296.00,12296.00,0.00,1.199,3684,0.005,0.182,0.016,0.979,0.018,1.7
67,12578.00,12578.00,0.00,1.146,3768,0.005,0.180,0.015,0.929,0.017,1.8
68,12095.00,12095.00,0.00,1.097,3624,0.006,0.173,0.017,0.885,0.017,1.7
69,12281.00,12281.00,0.00,1.217,3679,0.005,0.221,0.013,0.963,0.017,2.0
70,12625.00,12625.00,0.00,1.120,3782,0.006,0.179,0.016,0.901,0.018,1.6
71,12917.00,12917.00,0.00,1.088,3870,0.006,0.178,0.016,0.873,0.016,1.7
72,12367.00,12367.00,0.00,1.183,3705,0.005,0.188,0.016,0.957,0.018,1.7
73,12886.00,12886.00,0.00,1.125,3860,0.005,0.193,0.016,0.894,0.017,1.8
74,8509.00,8509.00,0.00,1.064,2549,0.004,0.162,0.020,0.861,0.016,1.6
