Second,Ops/sec,Hits/sec,Misses/sec,Latency,KB/sec,Request_Creation_Time,Request_Buffer_Time,MW_Writes_To_Memcached_Time,Memcached_Process_Time,MW_Writes_To_Memtier_Time,Queue_Size
4,2855.00,2855.00,0.00,1.480,1569,0.019,0.279,0.048,1.079,0.054,2.0
5,9703.00,9703.00,0.00,1.214,5333,0.007,0.196,0.018,0.961,0.032,1.5
6,12105.00,12105.00,0.00,1.087,6653,0.007,0.180,0.016,0.867,0.018,1.8
7,12386.00,12386.00,0.00,1.117,6807,0.007,0.226,0.017,0.850,0.017,1.9
8,11691.00,11691.00,0.00,1.112,6425,0.008,0.193,0.017,0.877,0.017,1.9
9,11736.00,11724.00,12.00,1.157,6443,0.008,0.265,0.016,0.846,0.022,2.1
10,11916.00,11904.00,12.00,1.159,6542,0.009,0.212,0.016,0.903,0.019,1.9
11,10884.00,10884.00,0.00,1.229,5982,0.008,0.187,0.017,1.000,0.016,1.6
12,12651.00,12651.00,0.00,1.013,6953,0.007,0.209,0.015,0.763,0.018,1.9
13,11779.00,11779.00,0.00,1.200,6474,0.006,0.231,0.017,0.932,0.014,1.9
14,12238.00,12238.00,0.00,1.130,6726,0.005,0.196,0.014,0.898,0.017,1.7
15,12509.00,12509.00,0.00,1.084,6875,0.005,0.197,0.017,0.845,0.020,1.7
16,12033.00,12033.00,0.00,1.153,6613,0.005,0.176,0.015,0.940,0.017,1.7
17,12683.00,12683.00,0.00,1.095,6970,0.006,0.170,0.014,0.888,0.016,1.7
18,12742.00,12737.00,5.00,0.988,7001,0.006,0.200,0.013,0.751,0.018,1.8
19,12276.00,12263.00,13.00,1.054,6740,0.006,0.175,0.015,0.842,0.017,1.7
20,12407.00,12401.00,6.00,1.080,6815,0.007,0.162,0.017,0.877,0.016,1.7
21,12426.00,12426.00,0.00,1.000,6829,0.008,0.175,0.016,0.781,0.020,1.8
22,12203.00,12203.00,0.00,1.089,6707,0.006,0.188,0.018,0.861,0.017,1.7
23,12210.00,12210.00,0.00,1.129,6711,0.005,0.236,0.015,0.851,0.022,2.0
24,12148.00,12148.00,0.00,1.060,6677,0.008,0.175,0.018,0.840,0.020,1.9
25,12296.00,12296.00,0.00,1.142,6758,0.008,0.190,0.015,0.912,0.017,1.9
26,12170.00,12170.00,0.00,1.110,6689,0.006,0.169,0.016,0.899,0.019,1.7
27,12210.00,12210.00,0.00,1.012,6711,0.006,0.182,0.014,0.792,0.018,1.8
28,11913.00,11913.00,0.00,1.198,6547,0.006,0.172,0.014,0.989,0.017,1.7
29,12669.00,12669.00,0.00,1.064,6963,0.005,0.193,0.015,0.835,0.016,1.8
30,12859.00,12859.00,0.00,0.994,7067,0.007,0.174,0.014,0.782,0.017,1.7
31,12389.00,12389.00,0.00,1.152,6809,0.005,0.203,0.015,0.912,0.018,1.8
32,12170.00,12170.00,0.00,1.054,6689,0.008,0.188,0.015,0.825,0.018,1.7
33,12200.00,12200.00,0.00,1.087,6705,0.006,0.163,0.016,0.885,0.018,1.6
34,12520.00,12520.00,0.00,1.042,6881,0.006,0.182,0.017,0.820,0.017,1.8
35,12482.00,12482.00,0.00,1.149,6860,0.005,0.179,0.021,0.928,0.016,1.7
36,12583.00,12583.00,0.00,1.087,6915,0.006,0.203,0.014,0.847,0.018,1.8
37,12187.00,12187.00,0.00,1.106,6698,0.007,0.188,0.017,0.880,0.015,1.7
38,11374.00,11374.00,0.00,1.291,6251,0.005,0.264,0.016,0.988,0.018,2.2
39,12387.00,12387.00,0.00,1.000,6808,0.007,0.170,0.016,0.789,0.018,1.8
40,12773.00,12773.00,0.00,1.000,7020,0.007,0.154,0.016,0.805,0.018,1.7
41,12694.00,12693.00,1.00,1.062,6976,0.008,0.167,0.015,0.855,0.017,1.7
42,12101.00,12098.00,3.00,1.169,6649,0.005,0.227,0.016,0.904,0.018,1.8
43,12607.00,12600.00,7.00,1.099,6925,0.006,0.167,0.016,0.895,0.016,1.7
44,12048.00,12044.00,4.00,1.228,6619,0.004,0.176,0.020,1.010,0.018,1.7
45,13159.00,13150.00,9.00,1.015,7227,0.005,0.166,0.015,0.809,0.019,1.8
46,12948.00,12936.00,12.00,1.007,7110,0.008,0.179,0.015,0.788,0.017,1.8
47,12184.00,12172.00,12.00,1.175,6690,0.005,0.187,0.014,0.952,0.017,1.7
48,12335.00,12327.00,8.00,1.151,6775,0.006,0.172,0.017,0.938,0.018,1.6
49,12076.00,12071.00,5.00,1.024,6634,0.006,0.178,0.016,0.805,0.018,1.8
50,12542.00,12537.00,5.00,1.087,6890,0.006,0.148,0.015,0.899,0.018,1.6
51,12521.00,12516.00,5.00,1.026,6879,0.007,0.167,0.017,0.817,0.018,1.9
52,12334.00,12334.00,0.00,1.065,6778,0.007,0.174,0.013,0.855,0.016,1.7
53,12076.00,12075.00,1.00,1.184,6636,0.005,0.175,0.016,0.970,0.018,1.7
54,12171.00,12171.00,0.00,1.051,6689,0.008,0.192,0.017,0.813,0.021,1.8
55,12185.00,12185.00,0.00,1.071,6697,0.006,0.179,0.017,0.850,0.020,1.7
56,12531.00,12531.00,0.00,1.108,6887,0.006,0.154,0.014,0.914,0.021,1.6
57,12172.00,12172.00,0.00,1.152,6690,0.007,0.169,0.016,0.943,0.016,1.7
58,12668.00,12668.00,0.00,1.034,6962,0.005,0.188,0.016,0.805,0.020,1.8
59,12200.00,12200.00,0.00,1.149,6705,0.005,0.183,0.014,0.929,0.018,1.8
60,12965.00,12965.00,0.00,0.990,7125,0.009,0.199,0.015,0.752,0.016,1.9
61,12744.00,12744.00,0.00,0.965,7004,0.006,0.185,0.015,0.742,0.018,1.9
62,12017.00,12017.00,0.00,1.062,6604,0.008,0.147,0.015,0.872,0.020,1.5
63,12309.00,12309.00,0.00,1.072,6765,0.006,0.146,0.016,0.887,0.018,1.6
64,12715.00,12715.00,0.00,1.039,6988,0.007,0.202,0.015,0.800,0.016,1.9
65,12243.00,12243.00,0.00,1.154,6729,0.006,0.165,0.017,0.948,0.017,1.7
66,12739.00,12739.00,0.00,0.994,7001,0.006,0.191,0.016,0.764,0.017,1.8
67,12417.00,12417.00,0.00,1.034,6824,0.005,0.181,0.018,0.814,0.016,1.7
68,12306.00,12306.00,0.00,1.093,6763,0.006,0.193,0.014,0.862,0.017,1.8
69,12160.00,12160.00,0.00,1.122,6683,0.005,0.219,0.015,0.868,0.015,1.9
70,12392.00,12392.00,0.00,1.076,6810,0.005,0.197,0.015,0.842,0.017,1.9
71,12548.00,12548.00,0.00,1.060,6896,0.006,0.200,0.016,0.822,0.016,1.9
72,11949.00,11949.00,0.00,1.156,6567,0.007,0.176,0.015,0.941,0.017,1.8
73,12420.00,12420.00,0.00,0.966,6826,0.006,0.188,0.016,0.738,0.018,1.7
74,7923.00,7923.00,0.00,1.064,4354,0.007,0.165,0.015,0.858,0.019,1.8
