Second,Ops/sec,Hits/sec,Misses/sec,Latency,KB/sec,Request_Creation_Time,Request_Buffer_Time,MW_Writes_To_Memcached_Time,Memcached_Process_Time,MW_Writes_To_Memtier_Time,Queue_Size
4,2489.00,2489.00,0.00,1.064,2615,0.011,0.188,0.031,0.804,0.030,0.8
5,7140.00,7140.00,0.00,0.951,7501,0.006,0.089,0.016,0.826,0.014,0.5
6,10266.00,10266.00,0.00,0.687,10785,0.007,0.094,0.015,0.558,0.014,0.6
7,10778.00,10772.00,6.00,0.638,11317,0.006,0.076,0.015,0.528,0.014,0.5
8,9718.00,9712.00,6.00,0.740,10203,0.006,0.082,0.015,0.624,0.014,0.5
9,10244.00,10244.00,0.00,0.727,10762,0.005,0.073,0.014,0.623,0.013,0.5
10,10214.00,10214.00,0.00,0.698,10730,0.005,0.076,0.014,0.589,0.014,0.5
11,9106.00,9106.00,0.00,0.795,9566,0.006,0.081,0.015,0.681,0.013,0.5
12,10871.00,10871.00,0.00,0.666,11421,0.004,0.070,0.014,0.564,0.013,0.5
13,10958.00,10948.00,10.00,0.642,11502,0.004,0.068,0.014,0.542,0.014,0.5
14,10984.00,10982.00,2.00,0.656,11537,0.004,0.070,0.013,0.555,0.013,0.5
15,10995.00,10995.00,0.00,0.646,11551,0.005,0.072,0.014,0.543,0.014,0.5
16,10954.00,10954.00,0.00,0.648,11508,0.004,0.076,0.015,0.540,0.013,0.6
17,10695.00,10695.00,0.00,0.681,11236,0.004,0.066,0.013,0.584,0.014,0.5
18,11644.00,11644.00,0.00,0.581,12233,0.005,0.079,0.013,0.471,0.014,0.5
19,10670.00,10670.00,0.00,0.664,11209,0.004,0.088,0.014,0.543,0.014,0.6
20,9849.00,9849.00,0.00,0.749,10347,0.004,0.112,0.013,0.607,0.013,0.7
21,11256.00,11256.00,0.00,0.610,11825,0.004,0.066,0.015,0.511,0.014,0.5
22,10462.00,10462.00,0.00,0.669,10991,0.005,0.076,0.014,0.561,0.013,0.5
23,8443.00,8443.00,0.00,0.878,8870,0.004,0.171,0.013,0.675,0.014,0.9
24,11103.00,11103.00,0.00,0.639,11664,0.004,0.064,0.013,0.545,0.013,0.5
25,11466.00,11466.00,0.00,0.596,12046,0.004,0.076,0.013,0.489,0.013,0.5
26,10620.00,10620.00,0.00,0.702,11157,0.004,0.088,0.014,0.581,0.014,0.5
27,11505.00,11500.00,5.00,0.592,12082,0.004,0.060,0.014,0.501,0.013,0.5
28,10811.00,10803.00,8.00,0.656,11349,0.004,0.077,0.014,0.548,0.014,0.5
29,9854.00,9846.00,8.00,0.764,10344,0.006,0.070,0.013,0.662,0.013,0.5
30,10851.00,10839.00,12.00,0.649,11387,0.004,0.073,0.013,0.546,0.013,0.5
31,10838.00,10836.00,2.00,0.641,11384,0.004,0.071,0.013,0.539,0.013,0.6
32,10425.00,10424.00,1.00,0.696,10951,0.004,0.078,0.013,0.587,0.013,0.5
33,11052.00,11052.00,0.00,0.634,11611,0.004,0.082,0.014,0.520,0.013,0.6
34,10860.00,10860.00,0.00,0.669,11409,0.004,0.061,0.014,0.576,0.014,0.5
35,10618.00,10618.00,0.00,0.644,11155,0.004,0.087,0.013,0.526,0.013,0.6
36,10276.00,10276.00,0.00,0.716,10796,0.004,0.117,0.014,0.569,0.013,0.6
37,11077.00,11077.00,0.00,0.630,11637,0.004,0.070,0.013,0.528,0.013,0.5
38,10401.00,10401.00,0.00,0.693,10927,0.004,0.101,0.014,0.561,0.014,0.6
39,10197.00,10197.00,0.00,0.708,10713,0.005,0.076,0.014,0.600,0.013,0.6
40,10657.00,10657.00,0.00,0.651,11196,0.004,0.073,0.014,0.547,0.013,0.5
41,11356.00,11356.00,0.00,0.622,11930,0.004,0.067,0.013,0.525,0.013,0.5
42,10092.00,10092.00,0.00,0.720,10602,0.004,0.088,0.014,0.601,0.013,0.6
43,11239.00,11239.00,0.00,0.587,11807,0.004,0.063,0.013,0.493,0.013,0.5
44,10266.00,10266.00,0.00,0.708,10785,0.004,0.081,0.013,0.596,0.013,0.6
45,10468.00,10468.00,0.00,0.684,10997,0.004,0.079,0.014,0.573,0.013,0.6
46,11242.00,11242.00,0.00,0.622,11810,0.004,0.069,0.014,0.521,0.013,0.5
47,10575.00,10575.00,0.00,0.681,11110,0.004,0.072,0.013,0.579,0.013,0.5
48,10595.00,10595.00,0.00,0.671,11131,0.004,0.077,0.013,0.564,0.013,0.5
49,10225.00,10225.00,0.00,0.703,10742,0.004,0.074,0.013,0.598,0.013,0.5
50,10855.00,10855.00,0.00,0.655,11404,0.004,0.066,0.014,0.558,0.014,0.5
51,10129.00,10129.00,0.00,0.725,10641,0.004,0.080,0.013,0.614,0.014,0.6
52,10526.00,10526.00,0.00,0.677,11058,0.004,0.080,0.013,0.567,0.013,0.6
53,10601.00,10601.00,0.00,0.653,11137,0.005,0.079,0.013,0.543,0.013,0.5
54,10702.00,10702.00,0.00,0.679,11243,0.004,0.068,0.013,0.581,0.013,0.5
55,10983.00,10983.00,0.00,0.624,11538,0.005,0.078,0.013,0.516,0.013,0.5
56,10787.00,10787.00,0.00,0.658,11332,0.004,0.090,0.013,0.538,0.013,0.6
57,10312.00,10312.00,0.00,0.727,10833,0.004,0.070,0.014,0.627,0.013,0.5
58,10514.00,10514.00,0.00,0.674,11045,0.004,0.088,0.013,0.554,0.014,0.6
59,10431.00,10431.00,0.00,0.706,10958,0.004,0.074,0.014,0.602,0.013,0.5
60,10282.00,10282.00,0.00,0.730,10802,0.004,0.069,0.013,0.629,0.014,0.5
61,11548.00,11548.00,0.00,0.593,12132,0.004,0.068,0.014,0.494,0.013,0.5
62,10892.00,10892.00,0.00,0.645,11443,0.004,0.066,0.013,0.548,0.013,0.5
63,11024.00,11024.00,0.00,0.651,11581,0.004,0.071,0.013,0.549,0.013,0.5
64,10951.00,10951.00,0.00,0.649,11505,0.004,0.063,0.013,0.556,0.014,0.5
65,10733.00,10733.00,0.00,0.621,11276,0.004,0.076,0.014,0.514,0.013,0.5
66,10198.00,10198.00,0.00,0.706,10714,0.005,0.079,0.013,0.595,0.013,0.5
67,10799.00,10799.00,0.00,0.665,11345,0.004,0.080,0.015,0.553,0.013,0.5
68,10634.00,10634.00,0.00,0.674,11172,0.004,0.076,0.014,0.567,0.013,0.5
69,9597.00,9597.00,0.00,0.793,10082,0.005,0.094,0.016,0.666,0.013,0.5
70,11020.00,11020.00,0.00,0.643,11577,0.005,0.074,0.013,0.537,0.014,0.5
71,11222.00,11222.00,0.00,0.606,11790,0.004,0.076,0.014,0.499,0.014,0.5
72,10083.00,10083.00,0.00,0.742,10593,0.004,0.086,0.013,0.625,0.014,0.5
73,11465.00,11465.00,0.00,0.608,12045,0.004,0.064,0.013,0.513,0.013,0.5
74,6979.00,6977.00,2.00,0.602,7330,0.004,0.063,0.014,0.507,0.014,0.5
