Second,Ops/sec,Hits/sec,Misses/sec,Latency,KB/sec,Request_Creation_Time,Request_Buffer_Time,MW_Writes_To_Memcached_Time,Memcached_Process_Time,MW_Writes_To_Memtier_Time,Queue_Size
4,5574.00,5574.00,0.00,2.295,620,0.014,0.724,0.050,1.466,0.042,7.2
5,14519.00,14519.00,0.00,1.815,1614,0.009,0.408,0.025,1.351,0.022,5.3
6,15526.00,15526.00,0.00,1.781,1726,0.007,0.386,0.024,1.340,0.024,5.1
7,16472.00,16472.00,0.00,1.562,1830,0.008,0.369,0.023,1.139,0.023,5.0
8,15912.00,15912.00,0.00,1.666,1768,0.006,0.410,0.020,1.208,0.022,5.1
9,14764.00,14764.00,0.00,1.892,1640,0.006,0.432,0.022,1.408,0.023,5.1
10,15908.00,15908.00,0.00,1.633,1768,0.006,0.373,0.020,1.213,0.020,5.0
11,15797.00,15794.00,3.00,1.789,1755,0.005,0.354,0.019,1.389,0.022,5.1
12,16064.00,16021.00,43.00,1.728,1780,0.007,0.389,0.016,1.295,0.020,5.2
13,15389.00,15387.00,2.00,1.722,1709,0.007,0.444,0.020,1.226,0.024,5.6
14,16308.00,16308.00,0.00,1.611,1812,0.006,0.380,0.016,1.188,0.021,5.2
15,16256.00,16256.00,0.00,1.606,1806,0.006,0.361,0.017,1.202,0.019,5.2
16,15710.00,15710.00,0.00,1.769,1746,0.008,0.349,0.019,1.370,0.023,5.3
17,16245.00,16245.00,0.00,1.687,1805,0.006,0.341,0.019,1.301,0.019,4.8
18,16232.00,16232.00,0.00,1.604,1803,0.005,0.404,0.016,1.157,0.022,5.3
19,16586.00,16586.00,0.00,1.536,1843,0.006,0.403,0.017,1.091,0.019,5.2
20,15646.00,15646.00,0.00,1.769,1738,0.006,0.349,0.020,1.374,0.020,4.8
21,16315.00,16315.00,0.00,1.715,1813,0.005,0.368,0.017,1.303,0.022,5.2
22,15848.00,15848.00,0.00,1.641,1761,0.005,0.410,0.018,1.186,0.023,5.2
23,16504.00,16504.00,0.00,1.490,1834,0.005,0.357,0.019,1.090,0.019,5.2
24,16122.00,16122.00,0.00,1.698,1791,0.005,0.367,0.019,1.285,0.023,5.1
25,16342.00,16330.00,12.00,1.541,1815,0.006,0.319,0.017,1.178,0.021,5.0
26,15336.00,15322.00,14.00,1.811,1703,0.006,0.383,0.020,1.379,0.023,5.3
27,15646.00,15630.00,16.00,1.866,1737,0.005,0.435,0.018,1.386,0.022,5.8
28,15910.00,15906.00,4.00,1.607,1767,0.006,0.399,0.018,1.163,0.022,6.1
29,15709.00,15707.00,2.00,1.562,1745,0.005,0.383,0.019,1.131,0.024,5.2
30,16572.00,16572.00,0.00,1.686,1841,0.005,0.343,0.017,1.301,0.020,4.9
31,15575.00,15575.00,0.00,1.782,1731,0.006,0.384,0.016,1.351,0.024,5.4
32,16460.00,16460.00,0.00,1.600,1829,0.007,0.345,0.017,1.209,0.022,5.0
33,15758.00,15758.00,0.00,1.751,1751,0.007,0.353,0.020,1.347,0.024,5.2
34,16144.00,16144.00,0.00,1.725,1794,0.005,0.397,0.019,1.281,0.024,5.6
35,16028.00,16028.00,0.00,1.674,1781,0.006,0.393,0.015,1.236,0.024,4.9
36,15419.00,15419.00,0.00,1.972,1713,0.005,0.435,0.019,1.487,0.025,5.6
37,15460.00,15460.00,0.00,1.848,1718,0.006,0.418,0.019,1.384,0.022,5.2
38,16022.00,16022.00,0.00,1.678,1781,0.005,0.359,0.020,1.268,0.025,5.2
39,15533.00,15533.00,0.00,1.779,1726,0.006,0.381,0.018,1.352,0.022,5.1
40,16019.00,16019.00,0.00,1.629,1780,0.006,0.388,0.017,1.196,0.022,5.3
41,15523.00,15523.00,0.00,1.712,1725,0.006,0.342,0.020,1.322,0.022,4.8
42,15316.00,15316.00,0.00,1.863,1702,0.005,0.366,0.019,1.453,0.021,5.1
43,16556.00,16556.00,0.00,1.584,1840,0.005,0.388,0.015,1.153,0.023,5.3
44,16055.00,16055.00,0.00,1.575,1784,0.006,0.342,0.017,1.187,0.023,4.8
45,15448.00,15448.00,0.00,1.795,1716,0.006,0.352,0.019,1.393,0.026,4.6
46,16110.00,16110.00,0.00,1.673,1790,0.005,0.371,0.018,1.260,0.020,5.2
47,15795.00,15795.00,0.00,1.708,1755,0.005,0.410,0.019,1.252,0.022,5.2
48,15717.00,15717.00,0.00,1.729,1746,0.006,0.396,0.017,1.290,0.020,5.1
49,15777.00,15777.00,0.00,1.765,1753,0.006,0.385,0.019,1.335,0.020,5.2
50,16253.00,16253.00,0.00,1.592,1806,0.006,0.404,0.020,1.139,0.022,5.3
51,15584.00,15584.00,0.00,1.809,1732,0.007,0.338,0.016,1.427,0.021,4.6
52,15822.00,15822.00,0.00,1.637,1758,0.006,0.378,0.018,1.211,0.024,5.3
53,16309.00,16309.00,0.00,1.733,1812,0.006,0.409,0.020,1.273,0.025,5.9
54,16036.00,16036.00,0.00,1.656,1782,0.005,0.400,0.018,1.213,0.019,5.3
55,15782.00,15782.00,0.00,1.658,1754,0.006,0.361,0.020,1.245,0.025,5.2
56,16189.00,16189.00,0.00,1.712,1799,0.005,0.392,0.020,1.271,0.023,5.5
57,15502.00,15502.00,0.00,1.818,1722,0.006,0.404,0.019,1.366,0.023,5.0
58,16285.00,16285.00,0.00,1.553,1809,0.005,0.360,0.016,1.150,0.021,4.8
59,15766.00,15766.00,0.00,1.731,1752,0.006,0.420,0.021,1.259,0.026,5.7
60,15469.00,15468.00,1.00,1.646,1719,0.007,0.364,0.018,1.237,0.021,5.1
61,15719.00,15716.00,3.00,1.772,1746,0.005,0.378,0.020,1.347,0.022,5.4
62,15919.00,15914.00,5.00,1.725,1768,0.006,0.352,0.020,1.322,0.024,5.0
63,15870.00,15865.00,5.00,1.638,1763,0.005,0.406,0.022,1.186,0.019,5.3
64,16410.00,16404.00,6.00,1.795,1823,0.005,0.372,0.016,1.381,0.021,5.0
65,16016.00,16008.00,8.00,1.540,1779,0.005,0.337,0.021,1.151,0.026,4.9
66,16245.00,16236.00,9.00,1.606,1804,0.004,0.329,0.019,1.232,0.021,4.6
67,15721.00,15707.00,14.00,1.836,1745,0.006,0.410,0.017,1.381,0.022,5.4
68,16121.00,16108.00,13.00,1.628,1790,0.005,0.347,0.019,1.232,0.025,4.9
69,16283.00,16268.00,15.00,1.548,1808,0.006,0.346,0.017,1.154,0.023,4.8
70,15657.00,15647.00,10.00,1.828,1739,0.005,0.386,0.022,1.396,0.021,5.2
71,16237.00,16226.00,11.00,1.618,1803,0.005,0.390,0.019,1.181,0.022,5.2
72,15454.00,15444.00,10.00,1.600,1716,0.008,0.381,0.018,1.174,0.019,5.0
73,15721.00,15713.00,8.00,1.781,1746,0.006,0.433,0.017,1.302,0.022,5.7
74,7306.00,7300.00,6.00,1.731,811,0.006,0.427,0.016,1.261,0.021,5.7
