Second,Ops/sec,Hits/sec,Misses/sec,Latency,KB/sec,Request_Creation_Time,Request_Buffer_Time,MW_Writes_To_Memcached_Time,Memcached_Process_Time,MW_Writes_To_Memtier_Time,Queue_Size
4,2606.00,2606.00,0.00,1.002,2738,0.015,0.176,0.029,0.748,0.034,0.6
5,7609.00,7609.00,0.00,0.973,7994,0.006,0.070,0.017,0.864,0.015,0.4
6,10422.00,10422.00,0.00,0.662,10949,0.006,0.104,0.015,0.521,0.016,0.6
7,9526.00,9522.00,4.00,0.745,10004,0.006,0.114,0.014,0.596,0.014,0.6
8,10368.00,10360.00,8.00,0.694,10883,0.006,0.085,0.015,0.574,0.014,0.5
9,10950.00,10950.00,0.00,0.647,11504,0.005,0.087,0.015,0.528,0.013,0.5
10,9779.00,9779.00,0.00,0.690,10273,0.005,0.081,0.014,0.576,0.013,0.6
11,7790.00,7790.00,0.00,0.930,8184,0.006,0.091,0.015,0.803,0.015,0.5
12,11054.00,11054.00,0.00,0.641,11613,0.004,0.072,0.014,0.537,0.014,0.5
13,10828.00,10816.00,12.00,0.651,11363,0.004,0.076,0.014,0.544,0.014,0.5
14,10684.00,10684.00,0.00,0.683,11224,0.004,0.084,0.014,0.567,0.014,0.5
15,10293.00,10293.00,0.00,0.731,10813,0.004,0.081,0.013,0.620,0.013,0.5
16,10945.00,10945.00,0.00,0.649,11499,0.004,0.078,0.014,0.540,0.013,0.5
17,10820.00,10820.00,0.00,0.643,11367,0.004,0.071,0.013,0.542,0.013,0.5
18,11348.00,11348.00,0.00,0.628,11922,0.004,0.063,0.014,0.533,0.013,0.5
19,11023.00,11023.00,0.00,0.635,11580,0.004,0.068,0.014,0.536,0.013,0.5
20,10708.00,10708.00,0.00,0.668,11250,0.004,0.077,0.013,0.560,0.013,0.5
21,10765.00,10765.00,0.00,0.652,11309,0.004,0.081,0.014,0.540,0.013,0.5
22,11121.00,11121.00,0.00,0.609,11683,0.004,0.071,0.014,0.506,0.014,0.5
23,11534.00,11534.00,0.00,0.607,12117,0.004,0.068,0.013,0.510,0.013,0.5
24,10632.00,10632.00,0.00,0.679,11170,0.004,0.070,0.013,0.578,0.013,0.5
25,10904.00,10904.00,0.00,0.647,11455,0.004,0.075,0.013,0.542,0.014,0.5
26,10820.00,10820.00,0.00,0.628,11367,0.004,0.069,0.014,0.527,0.014,0.5
27,10988.00,10982.00,6.00,0.640,11538,0.005,0.062,0.013,0.547,0.013,0.5
28,10678.00,10672.00,6.00,0.643,11212,0.004,0.093,0.013,0.519,0.013,0.5
29,10544.00,10533.00,11.00,0.642,11066,0.005,0.077,0.014,0.532,0.014,0.5
30,10475.00,10462.00,13.00,0.685,10991,0.004,0.068,0.014,0.585,0.013,0.4
31,10467.00,10467.00,0.00,0.684,10996,0.004,0.122,0.014,0.530,0.013,0.7
32,10609.00,10609.00,0.00,0.646,11145,0.004,0.072,0.013,0.543,0.013,0.5
33,11033.00,11033.00,0.00,0.653,11591,0.004,0.070,0.013,0.552,0.013,0.4
34,10819.00,10819.00,0.00,0.673,11366,0.004,0.092,0.013,0.550,0.013,0.6
35,10665.00,10665.00,0.00,0.678,11205,0.004,0.070,0.014,0.577,0.013,0.5
36,11211.00,11211.00,0.00,0.619,11778,0.004,0.077,0.013,0.511,0.013,0.5
37,10987.00,10987.00,0.00,0.647,11542,0.004,0.098,0.014,0.518,0.013,0.6
38,11416.00,11416.00,0.00,0.587,11993,0.004,0.067,0.013,0.490,0.013,0.4
39,11392.00,11392.00,0.00,0.622,11968,0.004,0.059,0.013,0.532,0.013,0.5
40,11460.00,11460.00,0.00,0.608,12039,0.004,0.065,0.013,0.512,0.013,0.5
41,10560.00,10560.00,0.00,0.683,11094,0.004,0.098,0.014,0.554,0.013,0.6
42,10673.00,10673.00,0.00,0.677,11213,0.004,0.080,0.013,0.567,0.014,0.5
43,11261.00,11261.00,0.00,0.610,11831,0.004,0.065,0.014,0.513,0.014,0.5
44,10134.00,10134.00,0.00,0.722,10646,0.004,0.082,0.013,0.609,0.014,0.5
45,11204.00,11204.00,0.00,0.623,11770,0.004,0.071,0.013,0.521,0.013,0.5
46,11203.00,11203.00,0.00,0.605,11770,0.004,0.066,0.013,0.509,0.013,0.5
47,10532.00,10532.00,0.00,0.679,11065,0.004,0.072,0.015,0.575,0.013,0.5
48,11081.00,11081.00,0.00,0.618,11641,0.004,0.070,0.013,0.518,0.013,0.5
49,10980.00,10980.00,0.00,0.639,11535,0.005,0.077,0.013,0.530,0.014,0.6
50,10845.00,10845.00,0.00,0.664,11393,0.004,0.070,0.013,0.564,0.013,0.5
51,11478.00,11478.00,0.00,0.581,12058,0.004,0.073,0.014,0.476,0.013,0.5
52,10933.00,10933.00,0.00,0.641,11486,0.004,0.067,0.014,0.543,0.013,0.5
53,10200.00,10200.00,0.00,0.671,10716,0.004,0.098,0.013,0.542,0.013,0.6
54,10257.00,10257.00,0.00,0.703,10775,0.005,0.092,0.014,0.579,0.014,0.6
55,10809.00,10809.00,0.00,0.650,11355,0.004,0.078,0.013,0.541,0.013,0.5
56,11514.00,11514.00,0.00,0.576,12096,0.004,0.070,0.014,0.475,0.014,0.5
57,10632.00,10632.00,0.00,0.669,11169,0.004,0.078,0.014,0.559,0.014,0.6
58,9921.00,9921.00,0.00,0.728,10422,0.004,0.127,0.013,0.569,0.013,0.7
59,11263.00,11263.00,0.00,0.608,11833,0.004,0.073,0.014,0.505,0.013,0.5
60,11093.00,11093.00,0.00,0.624,11654,0.004,0.073,0.014,0.519,0.013,0.5
61,10635.00,10635.00,0.00,0.647,11173,0.005,0.077,0.014,0.539,0.013,0.5
62,11126.00,11126.00,0.00,0.618,11689,0.005,0.067,0.014,0.520,0.013,0.5
63,11345.00,11345.00,0.00,0.626,11919,0.004,0.068,0.013,0.528,0.013,0.5
64,10719.00,10719.00,0.00,0.652,11261,0.004,0.076,0.013,0.545,0.014,0.5
65,10841.00,10841.00,0.00,0.645,11389,0.004,0.074,0.014,0.539,0.014,0.5
66,10916.00,10916.00,0.00,0.656,11468,0.004,0.072,0.013,0.554,0.013,0.5
67,11238.00,11238.00,0.00,0.627,11806,0.004,0.061,0.013,0.536,0.013,0.5
68,11203.00,11203.00,0.00,0.601,11769,0.004,0.069,0.014,0.501,0.013,0.5
69,10743.00,10743.00,0.00,0.672,11286,0.004,0.068,0.013,0.574,0.013,0.5
70,11104.00,11104.00,0.00,0.629,11666,0.004,0.071,0.013,0.528,0.013,0.5
71,11035.00,11035.00,0.00,0.604,11593,0.004,0.082,0.014,0.489,0.014,0.6
72,10864.00,10864.00,0.00,0.643,11413,0.004,0.069,0.013,0.543,0.014,0.5
73,10957.00,10957.00,0.00,0.656,11511,0.004,0.081,0.015,0.543,0.013,0.5
74,6790.00,6790.00,0.00,0.621,7133,0.004,0.076,0.013,0.515,0.013,0.5
