Second,Ops/sec,Hits/sec,Misses/sec,Latency,KB/sec,Request_Creation_Time,Request_Buffer_Time,MW_Writes_To_Memcached_Time,Memcached_Process_Time,MW_Writes_To_Memtier_Time,Queue_Size
4,4361.00,4361.00,0.00,1.501,485,0.016,0.280,0.040,1.116,0.049,1.8
5,11416.00,11416.00,0.00,1.217,1269,0.006,0.186,0.020,0.987,0.019,1.6
6,12099.00,12099.00,0.00,1.201,1344,0.006,0.173,0.017,0.988,0.017,1.6
7,11856.00,11856.00,0.00,1.174,1317,0.009,0.197,0.017,0.935,0.016,1.7
8,13221.00,13221.00,0.00,1.067,1469,0.007,0.198,0.016,0.828,0.018,1.8
9,11866.00,11843.00,23.00,1.206,1316,0.006,0.209,0.019,0.953,0.019,1.8
10,11895.00,11894.00,1.00,1.230,1321,0.005,0.206,0.016,0.985,0.019,1.6
11,12804.00,12804.00,0.00,1.080,1423,0.004,0.189,0.018,0.849,0.018,1.7
12,12285.00,12285.00,0.00,1.209,1365,0.006,0.175,0.018,0.995,0.015,1.7
13,11788.00,11788.00,0.00,1.229,1310,0.005,0.207,0.018,0.982,0.018,1.6
14,12562.00,12562.00,0.00,1.064,1395,0.006,0.173,0.017,0.850,0.018,1.6
15,12723.00,12723.00,0.00,1.203,1414,0.006,0.188,0.017,0.975,0.018,1.7
16,12763.00,12763.00,0.00,1.120,1418,0.005,0.204,0.015,0.877,0.018,1.7
17,10842.00,10842.00,0.00,1.428,1205,0.006,0.233,0.015,1.160,0.015,2.0
18,12320.00,12311.00,9.00,1.209,1368,0.006,0.192,0.016,0.978,0.017,1.8
19,12602.00,12588.00,14.00,1.191,1399,0.004,0.194,0.016,0.961,0.015,1.7
20,12519.00,12518.00,1.00,1.067,1391,0.006,0.175,0.014,0.856,0.016,1.6
21,12589.00,12589.00,0.00,1.076,1399,0.006,0.193,0.014,0.847,0.016,1.7
22,12791.00,12791.00,0.00,1.214,1421,0.005,0.191,0.015,0.986,0.017,1.7
23,12266.00,12266.00,0.00,1.118,1363,0.004,0.196,0.014,0.884,0.020,1.7
24,12736.00,12736.00,0.00,1.232,1415,0.006,0.211,0.016,0.983,0.017,1.8
25,12402.00,12402.00,0.00,1.145,1378,0.006,0.172,0.018,0.932,0.017,1.6
26,12993.00,12993.00,0.00,1.019,1444,0.005,0.191,0.015,0.789,0.018,1.7
27,12293.00,12293.00,0.00,1.170,1366,0.006,0.200,0.016,0.934,0.015,1.7
28,12600.00,12600.00,0.00,1.146,1400,0.005,0.186,0.017,0.922,0.016,1.8
29,12707.00,12707.00,0.00,1.181,1412,0.006,0.207,0.016,0.935,0.018,1.7
30,12402.00,12402.00,0.00,1.228,1378,0.007,0.228,0.017,0.955,0.021,2.1
31,12678.00,12678.00,0.00,1.046,1409,0.005,0.200,0.016,0.809,0.016,1.7
32,12413.00,12413.00,0.00,1.073,1379,0.005,0.189,0.016,0.847,0.017,1.8
33,12675.00,12675.00,0.00,1.116,1408,0.004,0.179,0.019,0.896,0.016,1.7
34,12821.00,12821.00,0.00,1.115,1425,0.004,0.209,0.015,0.870,0.015,1.9
35,12157.00,12157.00,0.00,1.219,1351,0.005,0.214,0.013,0.970,0.016,1.8
36,12812.00,12812.00,0.00,1.135,1423,0.004,0.169,0.015,0.931,0.016,1.7
37,12617.00,12617.00,0.00,1.177,1402,0.006,0.206,0.016,0.933,0.016,1.8
38,12384.00,12384.00,0.00,1.141,1376,0.006,0.204,0.014,0.900,0.016,1.8
39,12947.00,12947.00,0.00,1.069,1439,0.006,0.214,0.019,0.812,0.018,1.8
40,11998.00,11998.00,0.00,1.240,1333,0.006,0.188,0.014,1.014,0.017,1.7
41,13080.00,13077.00,3.00,1.084,1453,0.005,0.195,0.015,0.853,0.016,1.7
42,11326.00,11322.00,4.00,1.242,1258,0.005,0.228,0.014,0.979,0.016,2.1
43,12566.00,12559.00,7.00,1.191,1396,0.005,0.197,0.016,0.956,0.017,1.8
44,12218.00,12210.00,8.00,1.196,1357,0.005,0.196,0.015,0.963,0.016,1.7
45,12621.00,12610.00,11.00,1.247,1401,0.005,0.203,0.018,1.006,0.016,1.7
46,12741.00,12731.00,10.00,1.119,1415,0.005,0.219,0.014,0.864,0.017,1.7
47,12861.00,12848.00,13.00,1.138,1428,0.005,0.198,0.016,0.901,0.019,1.6
48,13025.00,13020.00,5.00,1.082,1447,0.006,0.197,0.015,0.844,0.020,1.7
49,12547.00,12539.00,8.00,1.224,1393,0.005,0.184,0.016,1.004,0.015,1.7
50,12936.00,12933.00,3.00,1.124,1437,0.005,0.205,0.017,0.882,0.015,1.8
51,12967.00,12967.00,0.00,1.077,1441,0.005,0.186,0.015,0.852,0.019,1.8
52,11802.00,11802.00,0.00,1.256,1311,0.004,0.222,0.013,1.000,0.017,1.9
53,12839.00,12839.00,0.00,1.163,1426,0.004,0.215,0.014,0.911,0.018,1.8
54,12811.00,12811.00,0.00,1.140,1423,0.006,0.188,0.016,0.912,0.019,1.7
55,12185.00,12185.00,0.00,1.181,1354,0.006,0.175,0.016,0.970,0.015,1.6
56,12724.00,12724.00,0.00,1.158,1414,0.005,0.201,0.014,0.920,0.018,1.7
57,12576.00,12576.00,0.00,1.107,1397,0.005,0.224,0.014,0.846,0.018,1.9
58,12604.00,12604.00,0.00,1.115,1400,0.006,0.175,0.015,0.903,0.017,1.7
59,12512.00,12512.00,0.00,1.111,1390,0.007,0.177,0.015,0.895,0.018,1.8
60,12840.00,12840.00,0.00,1.063,1427,0.005,0.187,0.017,0.835,0.019,1.7
61,12623.00,12623.00,0.00,1.163,1403,0.006,0.189,0.016,0.934,0.017,1.7
62,12515.00,12515.00,0.00,1.154,1390,0.005,0.201,0.014,0.918,0.016,1.6
63,13108.00,13108.00,0.00,1.112,1456,0.006,0.170,0.016,0.904,0.015,1.6
64,13061.00,13061.00,0.00,1.079,1451,0.006,0.209,0.013,0.832,0.019,1.9
65,12254.00,12254.00,0.00,1.173,1362,0.007,0.188,0.015,0.946,0.017,1.7
66,13240.00,13240.00,0.00,1.038,1471,0.005,0.206,0.016,0.795,0.017,1.8
67,12918.00,12918.00,0.00,1.068,1435,0.007,0.190,0.018,0.834,0.020,1.8
68,12863.00,12863.00,0.00,1.170,1429,0.005,0.182,0.014,0.954,0.015,1.6
69,12483.00,12483.00,0.00,1.091,1387,0.005,0.202,0.016,0.852,0.016,1.7
70,12444.00,12444.00,0.00,1.147,1383,0.006,0.187,0.017,0.918,0.018,1.7
71,12699.00,12699.00,0.00,1.188,1411,0.005,0.203,0.017,0.948,0.015,1.8
72,12184.00,12184.00,0.00,1.113,1354,0.006,0.191,0.016,0.883,0.017,1.6
73,12175.00,12175.00,0.00,1.233,1353,0.008,0.244,0.013,0.950,0.018,2.0
74,5983.00,5983.00,0.00,1.151,665,0.005,0.217,0.014,0.899,0.016,2.1
