Second,Ops/sec,Hits/sec,Misses/sec,Latency,KB/sec,Request_Creation_Time,Request_Buffer_Time,MW_Writes_To_Memcached_Time,Memcached_Process_Time,MW_Writes_To_Memtier_Time,Queue_Size
4,5356.00,5356.00,0.00,2.198,1605,0.021,0.666,0.052,1.406,0.053,6.8
5,14070.00,14070.00,0.00,1.880,4215,0.011,0.393,0.022,1.432,0.022,4.9
6,16315.00,16315.00,0.00,1.574,4888,0.008,0.379,0.019,1.144,0.024,5.4
7,15659.00,15659.00,0.00,1.678,4691,0.008,0.371,0.021,1.251,0.026,5.2
8,16254.00,16254.00,0.00,1.634,4870,0.006,0.350,0.018,1.235,0.025,5.1
9,15320.00,15320.00,0.00,1.880,4590,0.006,0.365,0.021,1.464,0.023,4.8
10,15599.00,15599.00,0.00,1.785,4674,0.006,0.372,0.018,1.363,0.027,5.0
11,15879.00,15872.00,7.00,1.736,4755,0.006,0.437,0.019,1.253,0.020,5.3
12,15578.00,15539.00,39.00,1.636,4655,0.005,0.375,0.018,1.214,0.024,5.1
13,16461.00,16459.00,2.00,1.646,4930,0.006,0.352,0.018,1.248,0.023,5.0
14,16012.00,16012.00,0.00,1.714,4797,0.006,0.379,0.015,1.291,0.023,5.0
15,15408.00,15408.00,0.00,1.761,4616,0.007,0.491,0.021,1.220,0.022,5.9
16,15760.00,15760.00,0.00,1.689,4722,0.007,0.421,0.019,1.218,0.023,5.5
17,15748.00,15748.00,0.00,1.710,4718,0.006,0.429,0.021,1.234,0.021,5.6
18,15393.00,15393.00,0.00,1.792,4611,0.005,0.373,0.018,1.372,0.023,5.5
19,15508.00,15508.00,0.00,1.771,4646,0.007,0.462,0.017,1.266,0.019,5.8
20,15242.00,15242.00,0.00,1.839,4566,0.007,0.445,0.018,1.348,0.022,5.5
21,16379.00,16379.00,0.00,1.606,4907,0.006,0.377,0.020,1.180,0.023,5.3
22,15825.00,15825.00,0.00,1.766,4741,0.007,0.399,0.019,1.322,0.021,5.7
23,15899.00,15899.00,0.00,1.658,4763,0.007,0.455,0.017,1.163,0.017,6.0
24,15498.00,15498.00,0.00,1.756,4643,0.007,0.459,0.019,1.252,0.020,5.7
25,15487.00,15479.00,8.00,1.795,4638,0.006,0.422,0.016,1.331,0.020,5.6
26,15645.00,15632.00,13.00,1.638,4684,0.006,0.403,0.021,1.188,0.020,5.7
27,15620.00,15605.00,15.00,1.586,4675,0.006,0.407,0.020,1.134,0.018,5.9
28,15409.00,15398.00,11.00,1.851,4613,0.007,0.412,0.019,1.390,0.022,5.4
29,15638.00,15637.00,1.00,1.780,4685,0.006,0.399,0.018,1.334,0.023,5.3
30,15599.00,15599.00,0.00,1.778,4673,0.005,0.460,0.020,1.270,0.022,5.7
31,16007.00,16007.00,0.00,1.763,4796,0.005,0.350,0.018,1.366,0.023,5.2
32,15992.00,15992.00,0.00,1.626,4791,0.006,0.408,0.016,1.175,0.021,5.4
33,16222.00,16222.00,0.00,1.669,4860,0.005,0.405,0.016,1.222,0.020,5.4
34,15886.00,15886.00,0.00,1.706,4759,0.005,0.389,0.016,1.274,0.023,5.6
35,15935.00,15935.00,0.00,1.547,4774,0.006,0.362,0.019,1.137,0.023,5.2
36,15846.00,15846.00,0.00,1.724,4748,0.004,0.367,0.018,1.313,0.022,4.9
37,16604.00,16604.00,0.00,1.679,4975,0.007,0.383,0.019,1.251,0.019,5.1
38,15759.00,15759.00,0.00,1.778,4721,0.006,0.423,0.017,1.309,0.024,5.3
39,15923.00,15923.00,0.00,1.809,4771,0.005,0.373,0.018,1.391,0.022,5.4
40,15313.00,15313.00,0.00,1.722,4588,0.006,0.404,0.022,1.269,0.023,4.9
41,16421.00,16421.00,0.00,1.753,4920,0.006,0.357,0.016,1.353,0.020,5.1
42,16377.00,16377.00,0.00,1.525,4907,0.007,0.344,0.018,1.133,0.023,4.8
43,15838.00,15838.00,0.00,1.626,4745,0.006,0.365,0.017,1.214,0.023,5.0
44,16116.00,16116.00,0.00,1.709,4828,0.007,0.389,0.018,1.274,0.021,5.0
45,16029.00,16029.00,0.00,1.585,4802,0.006,0.374,0.018,1.164,0.022,5.1
46,16176.00,16176.00,0.00,1.767,4846,0.006,0.387,0.018,1.331,0.026,5.2
47,16172.00,16172.00,0.00,1.681,4845,0.004,0.336,0.018,1.301,0.021,4.8
48,16207.00,16207.00,0.00,1.687,4856,0.006,0.321,0.018,1.319,0.023,4.7
49,15949.00,15949.00,0.00,1.729,4778,0.006,0.335,0.018,1.346,0.023,5.0
50,16410.00,16410.00,0.00,1.644,4916,0.006,0.394,0.019,1.204,0.021,5.1
51,15930.00,15930.00,0.00,1.708,4773,0.006,0.345,0.017,1.319,0.021,5.0
52,16161.00,16161.00,0.00,1.656,4842,0.007,0.409,0.019,1.200,0.022,5.1
53,16245.00,16245.00,0.00,1.800,4867,0.006,0.374,0.019,1.381,0.021,5.0
54,16162.00,16162.00,0.00,1.721,4842,0.006,0.349,0.019,1.325,0.022,4.7
55,16495.00,16495.00,0.00,1.641,4942,0.007,0.406,0.018,1.188,0.022,5.3
56,16214.00,16214.00,0.00,1.801,4858,0.006,0.396,0.019,1.358,0.021,5.1
57,15928.00,15928.00,0.00,1.629,4772,0.006,0.365,0.015,1.223,0.020,5.2
58,15922.00,15922.00,0.00,1.742,4770,0.006,0.405,0.015,1.291,0.025,5.5
59,16138.00,16138.00,0.00,1.704,4835,0.006,0.361,0.015,1.303,0.019,4.9
60,16316.00,16314.00,2.00,1.647,4888,0.006,0.401,0.017,1.201,0.023,5.3
61,15584.00,15583.00,1.00,1.663,4669,0.005,0.385,0.017,1.238,0.019,5.2
62,15218.00,15213.00,5.00,1.755,4558,0.007,0.418,0.017,1.292,0.021,5.2
63,15544.00,15542.00,2.00,1.750,4656,0.006,0.379,0.020,1.323,0.023,5.1
64,16159.00,16152.00,7.00,1.616,4839,0.007,0.325,0.020,1.242,0.023,4.8
65,15817.00,15810.00,7.00,1.853,4737,0.006,0.358,0.020,1.446,0.024,5.0
66,15571.00,15561.00,10.00,1.747,4662,0.006,0.370,0.021,1.328,0.022,4.8
67,16021.00,16007.00,14.00,1.586,4796,0.006,0.356,0.021,1.182,0.021,5.1
68,16100.00,16085.00,15.00,1.660,4819,0.006,0.325,0.021,1.283,0.024,4.9
69,15741.00,15728.00,13.00,1.795,4712,0.005,0.370,0.017,1.382,0.023,5.0
70,16030.00,16021.00,9.00,1.708,4800,0.007,0.358,0.019,1.301,0.022,5.3
71,16588.00,16573.00,15.00,1.698,4965,0.006,0.377,0.018,1.275,0.022,5.1
72,15597.00,15586.00,11.00,1.723,4669,0.005,0.318,0.017,1.360,0.022,4.7
73,15463.00,15452.00,11.00,1.680,4629,0.006,0.363,0.018,1.275,0.018,5.0
74,7767.00,7759.00,8.00,1.795,2325,0.006,0.348,0.019,1.400,0.023,4.9
