Second,Ops/sec,Hits/sec,Misses/sec,Latency,KB/sec,Request_Creation_Time,Request_Buffer_Time,MW_Writes_To_Memcached_Time,Memcached_Process_Time,MW_Writes_To_Memtier_Time,Queue_Size
4,3668.00,3668.00,0.00,1.548,2016,0.018,0.314,0.056,1.119,0.040,2.0
5,10471.00,10471.00,0.00,1.283,5755,0.006,0.210,0.023,1.028,0.016,1.7
6,12290.00,12290.00,0.00,1.179,6754,0.007,0.182,0.016,0.956,0.017,1.6
7,12084.00,12084.00,0.00,1.118,6641,0.008,0.203,0.017,0.875,0.015,1.7
8,12392.00,12392.00,0.00,1.113,6811,0.007,0.173,0.018,0.897,0.018,1.6
9,11788.00,11769.00,19.00,1.240,6468,0.009,0.209,0.019,0.985,0.018,1.8
10,11822.00,11817.00,5.00,1.227,6494,0.005,0.183,0.016,1.006,0.016,1.5
11,11783.00,11783.00,0.00,1.162,6476,0.006,0.212,0.017,0.907,0.020,1.7
12,12266.00,12266.00,0.00,1.101,6742,0.005,0.176,0.019,0.883,0.018,1.6
13,11833.00,11833.00,0.00,1.235,6503,0.005,0.229,0.014,0.970,0.018,1.9
14,12969.00,12969.00,0.00,0.979,7127,0.005,0.172,0.015,0.769,0.017,1.7
15,12348.00,12348.00,0.00,1.145,6786,0.007,0.207,0.015,0.899,0.016,1.8
16,12171.00,12171.00,0.00,1.107,6689,0.006,0.217,0.016,0.852,0.017,1.6
17,12479.00,12479.00,0.00,1.071,6858,0.006,0.172,0.015,0.859,0.019,1.6
18,12398.00,12391.00,7.00,1.233,6810,0.004,0.189,0.015,1.009,0.016,1.7
19,12587.00,12575.00,12.00,1.029,6911,0.004,0.184,0.014,0.809,0.018,1.8
20,12807.00,12802.00,5.00,1.079,7036,0.004,0.187,0.017,0.855,0.016,1.6
21,12598.00,12598.00,0.00,1.120,6924,0.005,0.170,0.016,0.910,0.020,1.7
22,12682.00,12682.00,0.00,1.078,6970,0.006,0.174,0.014,0.868,0.016,1.6
23,12525.00,12525.00,0.00,1.154,6884,0.006,0.182,0.015,0.935,0.016,1.6
24,12121.00,12121.00,0.00,1.160,6662,0.005,0.161,0.018,0.960,0.017,1.5
25,12475.00,12475.00,0.00,1.070,6856,0.005,0.174,0.016,0.857,0.018,1.7
26,12769.00,12769.00,0.00,1.030,7018,0.005,0.209,0.015,0.782,0.019,1.8
27,12390.00,12390.00,0.00,1.161,6810,0.005,0.183,0.014,0.942,0.017,1.6
28,12816.00,12816.00,0.00,1.201,7044,0.004,0.201,0.016,0.965,0.016,1.7
29,12640.00,12640.00,0.00,0.988,6947,0.005,0.184,0.014,0.766,0.018,1.7
30,12732.00,12732.00,0.00,1.056,6997,0.006,0.180,0.018,0.834,0.018,1.8
31,12591.00,12591.00,0.00,1.121,6920,0.005,0.185,0.015,0.901,0.015,1.7
32,12609.00,12609.00,0.00,1.061,6930,0.005,0.192,0.017,0.829,0.018,1.7
33,12474.00,12474.00,0.00,1.177,6856,0.005,0.200,0.015,0.941,0.016,1.7
34,12047.00,12047.00,0.00,1.142,6621,0.007,0.178,0.015,0.923,0.019,1.6
35,12962.00,12962.00,0.00,1.066,7124,0.006,0.188,0.016,0.837,0.018,1.7
36,12662.00,12662.00,0.00,1.113,6959,0.006,0.184,0.015,0.892,0.016,1.7
37,12409.00,12409.00,0.00,1.166,6820,0.006,0.167,0.018,0.958,0.017,1.7
38,13053.00,13053.00,0.00,1.137,7174,0.005,0.193,0.015,0.907,0.018,1.7
39,12594.00,12594.00,0.00,1.099,6922,0.005,0.175,0.016,0.884,0.018,1.7
40,12319.00,12319.00,0.00,1.262,6770,0.005,0.200,0.015,1.026,0.016,1.7
41,12794.00,12791.00,3.00,1.080,7030,0.005,0.177,0.018,0.860,0.019,1.6
42,12608.00,12603.00,5.00,1.160,6927,0.005,0.179,0.016,0.945,0.015,1.6
43,12258.00,12253.00,5.00,1.207,6734,0.006,0.192,0.015,0.978,0.017,1.8
44,13034.00,13026.00,8.00,1.034,7159,0.006,0.179,0.017,0.814,0.018,1.8
45,13016.00,13005.00,11.00,1.024,7148,0.005,0.180,0.015,0.806,0.017,1.7
46,12406.00,12394.00,12.00,1.059,6812,0.005,0.192,0.016,0.829,0.017,1.8
47,12871.00,12862.00,9.00,1.104,7069,0.005,0.166,0.016,0.899,0.017,1.6
48,12519.00,12511.00,8.00,1.132,6876,0.006,0.155,0.014,0.940,0.016,1.6
49,11936.00,11932.00,4.00,1.136,6558,0.006,0.205,0.016,0.890,0.019,1.7
50,12609.00,12604.00,5.00,1.072,6927,0.005,0.200,0.019,0.829,0.018,1.7
51,12639.00,12637.00,2.00,0.990,6945,0.006,0.166,0.015,0.787,0.017,1.6
52,12356.00,12356.00,0.00,1.131,6790,0.006,0.173,0.015,0.920,0.017,1.7
53,11947.00,11947.00,0.00,1.250,6566,0.005,0.195,0.018,1.015,0.016,1.8
54,12424.00,12424.00,0.00,1.134,6828,0.005,0.189,0.018,0.904,0.017,1.7
55,12941.00,12941.00,0.00,1.103,7112,0.005,0.157,0.017,0.907,0.017,1.6
56,12487.00,12487.00,0.00,1.105,6863,0.005,0.170,0.018,0.896,0.016,1.7
57,12723.00,12723.00,0.00,1.045,6992,0.005,0.189,0.016,0.818,0.017,1.8
58,12121.00,12121.00,0.00,1.237,6661,0.004,0.180,0.017,1.019,0.016,1.6
59,11772.00,11772.00,0.00,1.161,6470,0.005,0.230,0.017,0.891,0.018,1.9
60,12477.00,12477.00,0.00,0.997,6857,0.005,0.171,0.017,0.788,0.016,1.5
61,12352.00,12352.00,0.00,1.202,6788,0.008,0.198,0.015,0.963,0.018,1.8
62,12040.00,12040.00,0.00,1.088,6617,0.006,0.205,0.013,0.847,0.016,1.6
63,12333.00,12333.00,0.00,1.204,6778,0.006,0.210,0.015,0.958,0.016,1.8
64,12332.00,12332.00,0.00,1.167,6777,0.005,0.208,0.014,0.924,0.016,1.9
65,12736.00,12736.00,0.00,1.150,7000,0.004,0.224,0.015,0.890,0.016,1.9
66,12586.00,12586.00,0.00,1.143,6917,0.007,0.229,0.017,0.873,0.016,2.0
67,12475.00,12475.00,0.00,1.121,6856,0.004,0.176,0.017,0.907,0.018,1.6
68,11923.00,11923.00,0.00,1.268,6553,0.005,0.173,0.016,1.055,0.018,1.6
69,12473.00,12473.00,0.00,1.121,6855,0.005,0.183,0.015,0.901,0.017,1.8
70,12629.00,12629.00,0.00,1.110,6941,0.006,0.206,0.014,0.867,0.017,1.7
71,12499.00,12499.00,0.00,1.200,6869,0.004,0.213,0.015,0.951,0.016,1.7
72,12699.00,12699.00,0.00,1.101,6979,0.006,0.149,0.015,0.913,0.018,1.6
73,12690.00,12690.00,0.00,1.154,6974,0.005,0.162,0.015,0.955,0.018,1.6
74,6578.00,6578.00,0.00,1.078,3615,0.008,0.183,0.017,0.856,0.015,1.8
