Second,Ops/sec,Hits/sec,Misses/sec,Latency,KB/sec,Request_Creation_Time,Request_Buffer_Time,MW_Writes_To_Memcached_Time,Memcached_Process_Time,MW_Writes_To_Memtier_Time,Queue_Size
4,2574.00,2574.00,0.00,1.734,1415,0.021,0.861,0.022,0.785,0.045,9.1
5,9887.00,9887.00,0.00,1.725,5434,0.007,0.927,0.010,0.765,0.016,9.6
6,12420.00,12420.00,0.00,1.407,6826,0.005,0.772,0.008,0.608,0.015,9.7
7,12730.00,12730.00,0.00,1.307,6996,0.005,0.698,0.008,0.582,0.014,9.3
8,11648.00,11648.00,0.00,1.553,6402,0.005,0.865,0.008,0.661,0.014,10.1
9,12178.00,12165.00,13.00,1.375,6686,0.005,0.740,0.008,0.607,0.015,9.2
10,11456.00,11445.00,11.00,1.447,6289,0.005,0.765,0.007,0.656,0.014,9.2
11,9313.00,9313.00,0.00,1.887,5118,0.005,1.031,0.007,0.829,0.015,9.7
12,11277.00,11277.00,0.00,1.474,6198,0.004,0.783,0.007,0.666,0.014,9.0
13,12276.00,12276.00,0.00,1.384,6747,0.004,0.742,0.007,0.615,0.015,9.2
14,11887.00,11887.00,0.00,1.469,6533,0.004,0.802,0.007,0.643,0.014,9.6
15,11179.00,11179.00,0.00,1.649,6143,0.004,0.935,0.007,0.687,0.015,10.4
16,11739.00,11739.00,0.00,1.437,6452,0.004,0.781,0.007,0.631,0.015,9.3
17,12043.00,12043.00,0.00,1.416,6618,0.004,0.766,0.007,0.625,0.014,9.0
18,12908.00,12908.00,0.00,1.351,7094,0.004,0.735,0.007,0.590,0.015,9.7
19,12594.00,12577.00,17.00,1.393,6913,0.004,0.764,0.007,0.604,0.015,9.8
20,11830.00,11823.00,7.00,1.575,6497,0.003,0.897,0.007,0.652,0.014,10.5
21,12462.00,12462.00,0.00,1.356,6849,0.004,0.729,0.007,0.601,0.015,9.4
22,12275.00,12275.00,0.00,1.385,6746,0.004,0.745,0.007,0.615,0.014,9.4
23,11557.00,11557.00,0.00,1.574,6352,0.004,0.884,0.007,0.664,0.015,10.2
24,11800.00,11800.00,0.00,1.452,6485,0.004,0.789,0.007,0.638,0.014,9.1
25,12038.00,12038.00,0.00,1.478,6616,0.003,0.821,0.007,0.632,0.015,10.0
26,12204.00,12204.00,0.00,1.477,6707,0.004,0.823,0.007,0.627,0.016,9.9
27,12833.00,12833.00,0.00,1.337,7053,0.004,0.723,0.007,0.587,0.016,9.4
28,12686.00,12686.00,0.00,1.281,6972,0.004,0.666,0.007,0.590,0.014,8.4
29,11606.00,11606.00,0.00,1.489,6379,0.004,0.818,0.007,0.644,0.015,9.4
30,12879.00,12879.00,0.00,1.352,7078,0.004,0.739,0.007,0.588,0.014,9.6
31,12114.00,12114.00,0.00,1.422,6658,0.004,0.772,0.007,0.625,0.014,9.4
32,12121.00,12121.00,0.00,1.454,6662,0.004,0.802,0.007,0.627,0.015,9.6
33,12166.00,12166.00,0.00,1.463,6686,0.004,0.809,0.007,0.628,0.014,9.8
34,12792.00,12792.00,0.00,1.306,7031,0.004,0.693,0.007,0.587,0.014,9.0
35,11565.00,11565.00,0.00,1.575,6356,0.004,0.885,0.007,0.664,0.014,10.0
36,12265.00,12265.00,0.00,1.460,6741,0.004,0.808,0.007,0.627,0.014,10.0
37,13245.00,13245.00,0.00,1.240,7279,0.004,0.651,0.007,0.565,0.014,8.9
38,12304.00,12304.00,0.00,1.398,6762,0.004,0.755,0.007,0.617,0.015,9.3
39,13050.00,13050.00,0.00,1.280,7172,0.004,0.681,0.007,0.573,0.015,9.3
40,13088.00,13088.00,0.00,1.281,7193,0.004,0.685,0.007,0.570,0.015,9.2
41,12491.00,12491.00,0.00,1.410,6865,0.004,0.776,0.007,0.609,0.014,9.8
42,12527.00,12527.00,0.00,1.382,6885,0.004,0.752,0.007,0.605,0.014,9.7
43,13176.00,13171.00,5.00,1.308,7239,0.003,0.706,0.007,0.578,0.014,9.3
44,12478.00,12472.00,6.00,1.374,6855,0.004,0.741,0.007,0.609,0.014,9.1
45,11698.00,11686.00,12.00,1.561,6423,0.004,0.881,0.007,0.654,0.015,10.2
46,12509.00,12503.00,6.00,1.425,6872,0.003,0.788,0.007,0.613,0.014,9.9
47,12041.00,12032.00,9.00,1.467,6613,0.003,0.809,0.007,0.632,0.015,9.6
48,12331.00,12313.00,18.00,1.436,6767,0.003,0.794,0.007,0.617,0.014,9.8
49,13007.00,12997.00,10.00,1.223,7143,0.004,0.632,0.007,0.566,0.014,8.6
50,12235.00,12229.00,6.00,1.390,6721,0.004,0.748,0.007,0.616,0.015,9.1
51,11985.00,11985.00,0.00,1.478,6587,0.004,0.818,0.007,0.634,0.015,9.7
52,12578.00,12578.00,0.00,1.338,6913,0.004,0.717,0.007,0.596,0.014,9.1
53,12791.00,12791.00,0.00,1.331,7030,0.004,0.720,0.007,0.585,0.014,9.1
54,11185.00,11185.00,0.00,1.612,6147,0.004,0.898,0.007,0.689,0.015,9.5
55,12319.00,12319.00,0.00,1.456,6770,0.004,0.809,0.007,0.623,0.015,10.0
56,12122.00,12122.00,0.00,1.399,6662,0.004,0.756,0.007,0.617,0.015,9.5
57,11269.00,11269.00,0.00,1.622,6193,0.003,0.915,0.007,0.681,0.015,10.1
58,12794.00,12794.00,0.00,1.358,7032,0.004,0.740,0.007,0.593,0.015,9.5
59,12370.00,12370.00,0.00,1.385,6799,0.004,0.749,0.007,0.611,0.015,9.6
60,11856.00,11856.00,0.00,1.491,6516,0.004,0.827,0.007,0.639,0.015,9.5
61,12358.00,12358.00,0.00,1.436,6792,0.004,0.800,0.007,0.611,0.014,10.0
62,12781.00,12781.00,0.00,1.309,7024,0.004,0.704,0.007,0.581,0.014,8.8
63,11798.00,11798.00,0.00,1.537,6484,0.004,0.863,0.007,0.649,0.014,10.1
64,12672.00,12672.00,0.00,1.360,6964,0.003,0.737,0.007,0.597,0.014,9.7
65,13034.00,13034.00,0.00,1.318,7163,0.004,0.708,0.007,0.585,0.014,9.6
66,11262.00,11262.00,0.00,1.619,6189,0.003,0.917,0.007,0.677,0.015,10.0
67,12109.00,12109.00,0.00,1.499,6655,0.004,0.843,0.007,0.631,0.015,10.1
68,12649.00,12649.00,0.00,1.362,6952,0.004,0.734,0.007,0.604,0.014,9.4
69,11624.00,11624.00,0.00,1.563,6388,0.003,0.880,0.007,0.658,0.015,10.0
70,12594.00,12594.00,0.00,1.438,6922,0.003,0.803,0.007,0.610,0.015,10.2
71,12706.00,12706.00,0.00,1.333,6983,0.004,0.718,0.008,0.589,0.015,9.3
72,11776.00,11776.00,0.00,1.496,6472,0.004,0.827,0.007,0.644,0.014,9.4
73,12781.00,12781.00,0.00,1.385,7024,0.004,0.763,0.007,0.598,0.014,10.0
74,9043.00,9043.00,0.00,1.309,4970,0.004,0.695,0.007,0.587,0.015,9.2
