Second,Ops/sec,Hits/sec,Misses/sec,Latency,KB/sec,Request_Creation_Time,Request_Buffer_Time,MW_Writes_To_Memcached_Time,Memcached_Process_Time,MW_Writes_To_Memtier_Time,Queue_Size
4,1765.00,1765.00,0.00,6.602,970,0.021,5.496,0.045,0.977,0.063,46.7
5,10758.00,10758.00,0.00,8.156,5913,0.005,7.411,0.009,0.716,0.015,79.3
6,11665.00,11665.00,0.00,7.692,6412,0.005,7.005,0.008,0.661,0.014,81.7
7,11986.00,11986.00,0.00,7.493,6587,0.005,6.822,0.008,0.643,0.015,82.0
8,11697.00,11697.00,0.00,7.470,6429,0.004,6.785,0.008,0.658,0.015,79.3
9,11643.00,11643.00,0.00,7.686,6400,0.004,7.000,0.008,0.660,0.014,81.8
10,10145.00,10145.00,0.00,8.773,5575,0.004,7.979,0.008,0.767,0.016,80.7
11,9662.00,9662.00,0.00,9.181,5311,0.004,8.350,0.007,0.805,0.014,81.0
12,13007.00,13007.00,0.00,6.779,7147,0.004,6.165,0.007,0.588,0.015,80.7
13,12366.00,12366.00,0.00,7.229,6796,0.003,6.576,0.007,0.628,0.015,81.4
14,11474.00,11474.00,0.00,7.776,6306,0.004,7.078,0.007,0.673,0.015,81.4
15,11206.00,11206.00,0.00,7.981,6159,0.003,7.263,0.007,0.692,0.015,80.7
16,11819.00,11819.00,0.00,7.634,6495,0.003,6.955,0.007,0.654,0.014,82.0
17,12113.00,12113.00,0.00,7.416,6657,0.003,6.752,0.007,0.639,0.014,81.8
18,12470.00,12470.00,0.00,7.119,6854,0.003,6.475,0.007,0.619,0.015,81.1
19,11787.00,11787.00,0.00,7.644,6478,0.004,6.964,0.007,0.656,0.015,82.4
20,12218.00,12218.00,0.00,7.255,6715,0.004,6.597,0.007,0.633,0.015,80.5
21,11548.00,11548.00,0.00,7.773,6347,0.003,7.077,0.007,0.671,0.015,81.7
22,11886.00,11886.00,0.00,7.521,6532,0.004,6.845,0.007,0.649,0.015,81.7
23,12327.00,12327.00,0.00,7.227,6776,0.003,6.575,0.007,0.626,0.015,81.0
24,11199.00,11199.00,0.00,7.957,6154,0.004,7.239,0.007,0.692,0.015,80.8
25,10642.00,10560.00,82.00,8.411,5804,0.004,7.659,0.008,0.725,0.016,81.3
26,11120.00,11106.00,14.00,8.119,6103,0.003,7.398,0.007,0.696,0.015,81.9
27,11877.00,11877.00,0.00,7.438,6527,0.003,6.765,0.007,0.647,0.015,80.6
28,11552.00,11552.00,0.00,7.794,6347,0.003,7.098,0.007,0.670,0.015,81.9
29,12004.00,12004.00,0.00,7.459,6597,0.003,6.790,0.007,0.644,0.015,81.6
30,11456.00,11456.00,0.00,7.787,6296,0.004,7.086,0.007,0.675,0.015,81.1
31,11338.00,11338.00,0.00,7.855,6231,0.003,7.147,0.007,0.682,0.015,81.0
32,12445.00,12445.00,0.00,7.202,6840,0.003,6.558,0.007,0.619,0.014,81.6
33,11907.00,11907.00,0.00,7.442,6543,0.003,6.766,0.008,0.649,0.015,80.3
34,11015.00,11015.00,0.00,8.165,6054,0.003,7.437,0.007,0.703,0.015,81.8
35,11575.00,11575.00,0.00,7.761,6362,0.003,7.068,0.007,0.669,0.015,81.7
36,11516.00,11516.00,0.00,7.771,6330,0.003,7.073,0.007,0.672,0.015,81.2
37,11350.00,11350.00,0.00,7.908,6238,0.003,7.201,0.007,0.682,0.015,81.9
38,10571.00,10571.00,0.00,8.543,5810,0.003,7.785,0.007,0.734,0.015,82.0
39,10159.00,10159.00,0.00,8.851,5584,0.004,8.061,0.007,0.766,0.015,81.6
40,11088.00,11088.00,0.00,8.114,6093,0.003,7.390,0.007,0.700,0.014,81.4
41,11509.00,11509.00,0.00,7.782,6324,0.004,7.083,0.007,0.673,0.015,81.4
42,12244.00,12244.00,0.00,7.277,6729,0.003,6.622,0.007,0.631,0.014,81.1
43,12301.00,12301.00,0.00,7.230,6761,0.003,6.576,0.007,0.629,0.015,80.3
44,11785.00,11785.00,0.00,7.515,6477,0.004,6.835,0.007,0.654,0.015,80.3
45,11830.00,11830.00,0.00,7.503,6501,0.004,6.824,0.007,0.654,0.015,80.7
46,11874.00,11874.00,0.00,7.488,6526,0.004,6.811,0.007,0.652,0.015,80.4
47,12669.00,12669.00,0.00,6.997,6962,0.003,6.364,0.007,0.609,0.015,81.1
48,12001.00,12001.00,0.00,7.405,6595,0.003,6.735,0.007,0.645,0.014,81.2
49,11443.00,11443.00,0.00,7.872,6289,0.004,7.170,0.007,0.677,0.015,81.9
50,12448.00,12448.00,0.00,7.092,6842,0.003,6.447,0.007,0.620,0.015,80.0
51,12507.00,12507.00,0.00,7.074,6874,0.004,6.432,0.007,0.616,0.015,80.7
52,11591.00,11591.00,0.00,7.691,6371,0.003,6.998,0.007,0.668,0.015,81.2
53,12300.00,12300.00,0.00,7.200,6760,0.003,6.547,0.007,0.628,0.015,80.3
54,11873.00,11873.00,0.00,7.528,6525,0.003,6.852,0.007,0.651,0.015,81.2
55,11685.00,11685.00,0.00,7.539,6421,0.003,6.852,0.007,0.662,0.014,80.6
56,12464.00,12464.00,0.00,7.202,6849,0.003,6.558,0.007,0.619,0.015,81.8
57,11610.00,11610.00,0.00,7.713,6381,0.004,7.021,0.006,0.666,0.016,81.3
58,12289.00,12289.00,0.00,7.298,6754,0.003,6.645,0.007,0.628,0.015,81.6
59,12473.00,12473.00,0.00,7.183,6855,0.004,6.538,0.007,0.619,0.015,81.3
60,11977.00,11977.00,0.00,7.393,6583,0.004,6.722,0.007,0.646,0.015,80.6
61,12415.00,12415.00,0.00,7.103,6824,0.003,6.456,0.007,0.622,0.015,80.3
62,12162.00,12162.00,0.00,7.401,6685,0.003,6.739,0.007,0.636,0.015,81.8
63,11781.00,11781.00,0.00,7.509,6476,0.003,6.828,0.007,0.656,0.015,80.3
64,12199.00,12148.00,51.00,7.282,6677,0.004,6.623,0.007,0.633,0.015,80.7
65,12121.00,12076.00,45.00,7.379,6637,0.004,6.716,0.007,0.637,0.015,81.3
66,11842.00,11842.00,0.00,7.512,6507,0.004,6.832,0.007,0.654,0.015,80.9
67,11555.00,11555.00,0.00,7.760,6350,0.003,7.064,0.007,0.670,0.015,81.9
68,11966.00,11966.00,0.00,7.418,6576,0.004,6.747,0.007,0.646,0.015,80.4
69,11787.00,11787.00,0.00,7.575,6479,0.003,6.893,0.007,0.657,0.015,81.1
70,11965.00,11965.00,0.00,7.396,6576,0.003,6.727,0.007,0.644,0.015,80.8
71,12698.00,12698.00,0.00,7.037,6978,0.003,6.402,0.007,0.610,0.015,80.9
72,13098.00,13098.00,0.00,6.808,7199,0.003,6.194,0.007,0.589,0.014,81.6
73,12436.00,12436.00,0.00,7.043,6835,0.004,6.397,0.007,0.620,0.015,80.0
74,9276.00,9276.00,0.00,7.195,5098,0.003,6.547,0.007,0.623,0.015,80.6
