Second,Ops/sec,Hits/sec,Misses/sec,Latency,KB/sec,Request_Creation_Time,Request_Buffer_Time,MW_Writes_To_Memcached_Time,Memcached_Process_Time,MW_Writes_To_Memtier_Time,Queue_Size
4,3637.00,3637.00,0.00,3.514,405,0.027,1.629,0.052,1.749,0.057,21.4
5,16579.00,16579.00,0.00,3.156,1843,0.009,1.479,0.022,1.619,0.026,25.3
6,20282.00,20282.00,0.00,2.515,2253,0.007,1.166,0.016,1.305,0.021,25.2
7,19284.00,19284.00,0.00,2.825,2143,0.007,1.400,0.014,1.384,0.020,26.6
8,19007.00,19007.00,0.00,2.813,2112,0.007,1.371,0.017,1.393,0.024,25.7
9,18944.00,18944.00,0.00,2.668,2104,0.006,1.267,0.016,1.358,0.020,24.7
10,20047.00,20047.00,0.00,2.722,2227,0.005,1.334,0.014,1.348,0.020,26.6
11,19900.00,19900.00,0.00,2.527,2211,0.006,1.193,0.017,1.287,0.024,25.8
12,19995.00,19995.00,0.00,2.370,2222,0.005,1.154,0.015,1.176,0.020,24.3
13,20072.00,20072.00,0.00,2.717,2231,0.006,1.344,0.015,1.333,0.021,26.1
14,19856.00,19856.00,0.00,2.524,2207,0.006,1.240,0.016,1.241,0.021,25.7
15,19726.00,19726.00,0.00,2.590,2192,0.005,1.269,0.014,1.281,0.022,24.0
16,18115.00,18087.00,28.00,3.022,2010,0.008,1.501,0.021,1.470,0.022,28.6
17,18806.00,18757.00,49.00,2.836,2084,0.006,1.399,0.018,1.387,0.025,26.2
18,19489.00,19473.00,16.00,2.764,2162,0.006,1.332,0.018,1.384,0.024,26.5
19,18842.00,18839.00,3.00,2.870,2092,0.006,1.439,0.019,1.382,0.025,26.4
20,19477.00,19477.00,0.00,2.962,2164,0.007,1.489,0.018,1.425,0.024,29.3
21,19146.00,19146.00,0.00,2.854,2127,0.006,1.451,0.019,1.355,0.024,28.0
22,19059.00,19059.00,0.00,2.639,2118,0.007,1.207,0.020,1.378,0.027,25.0
23,19538.00,19538.00,0.00,2.938,2171,0.006,1.556,0.016,1.337,0.023,29.6
24,19858.00,19858.00,0.00,2.637,2207,0.005,1.271,0.017,1.322,0.022,26.0
25,19737.00,19737.00,0.00,2.618,2193,0.006,1.249,0.019,1.319,0.026,25.5
26,19143.00,19143.00,0.00,3.178,2127,0.006,1.685,0.017,1.448,0.022,30.0
27,19556.00,19556.00,0.00,2.482,2173,0.006,1.166,0.015,1.270,0.026,24.1
28,19636.00,19636.00,0.00,2.614,2181,0.006,1.283,0.016,1.287,0.022,26.4
29,18967.00,18967.00,0.00,3.125,2107,0.006,1.656,0.017,1.424,0.022,30.7
30,20003.00,20003.00,0.00,2.644,2222,0.005,1.316,0.017,1.283,0.022,25.3
31,19588.00,19588.00,0.00,2.558,2176,0.005,1.219,0.016,1.293,0.025,25.2
32,19137.00,19137.00,0.00,2.995,2126,0.005,1.578,0.015,1.377,0.019,28.8
33,19680.00,19680.00,0.00,2.627,2187,0.005,1.281,0.017,1.300,0.024,25.8
34,19936.00,19936.00,0.00,2.497,2215,0.006,1.178,0.015,1.277,0.021,23.4
35,18706.00,18706.00,0.00,2.895,2078,0.006,1.477,0.017,1.373,0.022,26.9
36,19572.00,19572.00,0.00,2.710,2175,0.006,1.325,0.014,1.344,0.022,25.6
37,20127.00,20124.00,3.00,2.496,2236,0.005,1.161,0.016,1.290,0.023,23.5
38,19721.00,19716.00,5.00,2.724,2191,0.005,1.337,0.015,1.346,0.021,27.2
39,19584.00,19567.00,17.00,2.785,2175,0.005,1.386,0.017,1.351,0.025,27.1
40,19689.00,19668.00,21.00,2.360,2186,0.006,1.092,0.015,1.222,0.025,22.7
41,19871.00,19846.00,25.00,2.738,2205,0.005,1.332,0.013,1.366,0.022,26.9
42,19559.00,19550.00,9.00,2.610,2172,0.006,1.265,0.015,1.301,0.023,25.3
43,20516.00,20508.00,8.00,2.259,2278,0.005,1.044,0.016,1.174,0.020,24.8
44,19871.00,19864.00,7.00,2.811,2207,0.006,1.444,0.015,1.324,0.022,27.0
45,19810.00,19809.00,1.00,2.447,2201,0.006,1.164,0.014,1.242,0.021,23.4
46,20140.00,20140.00,0.00,2.546,2238,0.005,1.233,0.013,1.272,0.023,24.9
47,19453.00,19453.00,0.00,2.805,2162,0.005,1.353,0.012,1.414,0.021,26.4
48,19833.00,19833.00,0.00,2.469,2204,0.005,1.144,0.014,1.286,0.020,22.9
49,19673.00,19673.00,0.00,2.493,2186,0.005,1.140,0.015,1.309,0.025,22.3
50,19874.00,19874.00,0.00,2.566,2208,0.005,1.243,0.014,1.282,0.022,24.2
51,19040.00,19040.00,0.00,3.015,2116,0.005,1.555,0.016,1.418,0.022,28.9
52,20207.00,20207.00,0.00,2.452,2246,0.005,1.124,0.015,1.284,0.024,23.4
53,19613.00,19613.00,0.00,2.611,2179,0.005,1.262,0.015,1.306,0.024,26.2
54,19697.00,19697.00,0.00,2.794,2189,0.006,1.400,0.015,1.356,0.018,27.9
55,19573.00,19573.00,0.00,2.524,2175,0.004,1.194,0.014,1.290,0.022,24.7
56,19494.00,19494.00,0.00,2.778,2166,0.005,1.385,0.014,1.350,0.024,27.0
57,19138.00,19138.00,0.00,2.847,2127,0.006,1.454,0.014,1.349,0.023,28.8
58,19664.00,19664.00,0.00,2.484,2185,0.005,1.167,0.015,1.271,0.025,24.5
59,20146.00,20146.00,0.00,2.391,2239,0.005,1.087,0.016,1.260,0.023,26.2
60,19254.00,19254.00,0.00,2.663,2140,0.006,1.274,0.016,1.343,0.023,24.5
61,19834.00,19834.00,0.00,2.593,2204,0.005,1.221,0.014,1.330,0.023,25.4
62,20092.00,20092.00,0.00,2.404,2233,0.006,1.095,0.012,1.266,0.024,23.2
63,20004.00,20004.00,0.00,2.743,2223,0.006,1.441,0.013,1.264,0.020,29.3
64,20255.00,20255.00,0.00,2.473,2251,0.005,1.149,0.013,1.280,0.026,25.5
65,20321.00,20321.00,0.00,2.502,2258,0.005,1.173,0.017,1.285,0.023,26.2
66,19105.00,19105.00,0.00,3.000,2123,0.006,1.525,0.013,1.432,0.025,28.5
67,20524.00,20524.00,0.00,2.313,2280,0.007,1.040,0.016,1.228,0.022,24.4
68,20234.00,20234.00,0.00,2.366,2248,0.005,1.062,0.014,1.263,0.023,23.6
69,19950.00,19950.00,0.00,2.689,2217,0.005,1.359,0.013,1.292,0.021,27.8
70,18854.00,18854.00,0.00,2.701,2095,0.005,1.325,0.015,1.335,0.021,25.7
71,19874.00,19874.00,0.00,2.364,2208,0.006,1.091,0.014,1.232,0.022,22.5
72,19718.00,19718.00,0.00,2.773,2191,0.006,1.409,0.014,1.323,0.021,27.3
73,19712.00,19712.00,0.00,2.508,2190,0.006,1.189,0.014,1.278,0.022,25.5
74,14571.00,14571.00,0.00,2.334,1619,0.006,1.080,0.017,1.211,0.021,22.4
75,2186.00,2186.00,0.00,0.735,243,0.006,0.076,0.017,0.622,0.013,0.1
