Second,Ops/sec,Hits/sec,Misses/sec,Latency,KB/sec,Request_Creation_Time,Request_Buffer_Time,MW_Writes_To_Memcached_Time,Memcached_Process_Time,MW_Writes_To_Memtier_Time,Queue_Size
4,4531.00,4531.00,0.00,2.477,1358,0.019,0.861,0.037,1.507,0.053,13.2
5,16944.00,16944.00,0.00,2.659,5077,0.007,1.114,0.024,1.493,0.021,20.0
6,19557.00,19557.00,0.00,2.583,5859,0.007,1.256,0.017,1.279,0.025,25.7
7,18883.00,18883.00,0.00,2.696,5658,0.006,1.271,0.016,1.383,0.020,24.6
8,19246.00,19246.00,0.00,2.747,5766,0.006,1.338,0.016,1.363,0.023,26.6
9,18654.00,18654.00,0.00,2.814,5588,0.005,1.365,0.017,1.404,0.024,25.4
10,19696.00,19696.00,0.00,2.553,5901,0.005,1.226,0.015,1.284,0.023,25.2
11,20963.00,20963.00,0.00,2.329,6280,0.006,1.040,0.015,1.246,0.023,25.6
12,19691.00,19691.00,0.00,2.778,5899,0.006,1.389,0.013,1.349,0.021,28.1
13,19958.00,19958.00,0.00,2.603,5979,0.006,1.264,0.017,1.294,0.022,26.7
14,19942.00,19942.00,0.00,2.610,5975,0.005,1.226,0.017,1.340,0.022,24.6
15,19374.00,19374.00,0.00,2.626,5805,0.006,1.303,0.015,1.279,0.022,24.8
16,18386.00,18354.00,32.00,2.921,5499,0.008,1.433,0.020,1.437,0.024,27.8
17,19453.00,19408.00,45.00,2.700,5814,0.006,1.278,0.021,1.371,0.023,26.4
18,19585.00,19569.00,16.00,2.747,5861,0.005,1.359,0.017,1.343,0.023,26.9
19,19039.00,19036.00,3.00,2.846,5702,0.006,1.403,0.021,1.393,0.024,28.2
20,19232.00,19232.00,0.00,2.751,5761,0.007,1.343,0.020,1.356,0.025,27.4
21,20178.00,20178.00,0.00,2.672,6045,0.006,1.284,0.016,1.339,0.027,27.4
22,19757.00,19757.00,0.00,2.477,5919,0.007,1.186,0.016,1.243,0.026,25.8
23,19273.00,19273.00,0.00,2.695,5775,0.006,1.343,0.018,1.301,0.025,27.5
24,19075.00,19075.00,0.00,2.829,5715,0.006,1.405,0.014,1.381,0.023,27.6
25,19409.00,19409.00,0.00,2.677,5815,0.006,1.313,0.015,1.320,0.024,24.9
26,19182.00,19182.00,0.00,2.511,5746,0.006,1.208,0.014,1.259,0.025,26.1
27,19446.00,19446.00,0.00,2.648,5825,0.006,1.287,0.017,1.316,0.022,25.8
28,18665.00,18665.00,0.00,2.741,5591,0.006,1.382,0.016,1.315,0.021,25.3
29,20712.00,20712.00,0.00,2.517,6205,0.006,1.207,0.016,1.266,0.022,26.8
30,19834.00,19834.00,0.00,2.583,5942,0.006,1.237,0.015,1.301,0.024,25.5
31,19717.00,19717.00,0.00,2.511,5907,0.006,1.225,0.016,1.241,0.024,25.2
32,19726.00,19726.00,0.00,2.498,5910,0.007,1.187,0.016,1.264,0.024,24.6
33,18314.00,18314.00,0.00,2.845,5487,0.007,1.378,0.015,1.421,0.024,26.6
34,19181.00,19181.00,0.00,3.006,5746,0.005,1.571,0.015,1.394,0.021,28.2
35,19839.00,19839.00,0.00,2.455,5943,0.006,1.131,0.017,1.280,0.021,25.4
36,19244.00,19244.00,0.00,2.669,5765,0.005,1.304,0.016,1.322,0.022,25.6
37,19097.00,19097.00,0.00,2.739,5721,0.005,1.321,0.016,1.372,0.025,25.6
38,19943.00,19939.00,4.00,2.619,5974,0.006,1.245,0.016,1.328,0.024,26.4
39,19358.00,19338.00,20.00,2.785,5794,0.006,1.388,0.015,1.353,0.023,26.9
40,18795.00,18768.00,27.00,2.615,5623,0.006,1.242,0.016,1.327,0.023,25.6
41,19595.00,19579.00,16.00,2.657,5866,0.006,1.300,0.014,1.317,0.021,26.6
42,19365.00,19351.00,14.00,2.559,5797,0.007,1.223,0.014,1.290,0.025,25.1
43,18995.00,18985.00,10.00,2.717,5687,0.005,1.324,0.014,1.352,0.023,25.5
44,19582.00,19577.00,5.00,2.672,5865,0.005,1.278,0.014,1.351,0.024,25.1
45,20410.00,20410.00,0.00,2.411,6115,0.006,1.121,0.014,1.249,0.022,25.6
46,20156.00,20156.00,0.00,2.478,6038,0.005,1.165,0.016,1.272,0.020,25.2
47,19125.00,19125.00,0.00,2.853,5730,0.006,1.500,0.014,1.312,0.021,28.1
48,19460.00,19460.00,0.00,2.670,5830,0.008,1.282,0.015,1.340,0.025,25.5
49,19402.00,19402.00,0.00,2.792,5813,0.006,1.397,0.014,1.352,0.022,27.1
50,20041.00,20041.00,0.00,2.569,6004,0.006,1.203,0.014,1.323,0.023,26.8
51,19877.00,19877.00,0.00,2.526,5955,0.007,1.181,0.014,1.303,0.021,26.7
52,19271.00,19271.00,0.00,2.672,5774,0.006,1.272,0.017,1.354,0.022,27.1
53,20158.00,20158.00,0.00,2.471,6040,0.005,1.139,0.014,1.291,0.021,24.6
54,19911.00,19911.00,0.00,2.717,5966,0.005,1.349,0.015,1.327,0.022,25.9
55,19005.00,19005.00,0.00,2.782,5694,0.006,1.397,0.013,1.344,0.023,26.6
56,19810.00,19810.00,0.00,2.516,5935,0.005,1.205,0.013,1.272,0.021,25.5
57,19142.00,19142.00,0.00,2.498,5735,0.005,1.185,0.015,1.268,0.025,23.9
58,19782.00,19782.00,0.00,2.731,5927,0.005,1.324,0.013,1.368,0.021,26.3
59,19027.00,19027.00,0.00,2.653,5701,0.004,1.295,0.014,1.316,0.023,25.1
60,20436.00,20436.00,0.00,2.292,6123,0.007,1.049,0.014,1.201,0.020,23.1
61,19409.00,19409.00,0.00,2.803,5815,0.005,1.423,0.015,1.338,0.022,28.1
62,19863.00,19863.00,0.00,2.596,5951,0.005,1.279,0.016,1.276,0.020,25.4
63,19517.00,19517.00,0.00,2.610,5848,0.005,1.224,0.013,1.346,0.022,25.2
64,19394.00,19394.00,0.00,2.818,5810,0.005,1.389,0.014,1.389,0.021,27.3
65,19611.00,19611.00,0.00,2.431,5875,0.005,1.120,0.012,1.274,0.021,23.0
66,19741.00,19741.00,0.00,2.338,5914,0.005,1.058,0.016,1.237,0.022,24.9
67,19427.00,19427.00,0.00,2.730,5820,0.005,1.340,0.013,1.351,0.020,27.1
68,18797.00,18797.00,0.00,2.788,5631,0.006,1.371,0.015,1.373,0.024,25.0
69,19807.00,19807.00,0.00,2.631,5934,0.006,1.290,0.013,1.300,0.022,26.0
70,19093.00,19093.00,0.00,2.580,5720,0.006,1.265,0.014,1.274,0.021,24.7
71,19484.00,19484.00,0.00,2.620,5837,0.005,1.263,0.014,1.317,0.022,26.4
72,19965.00,19965.00,0.00,2.519,5981,0.006,1.198,0.013,1.281,0.021,24.9
73,20060.00,20060.00,0.00,2.570,6010,0.005,1.244,0.013,1.287,0.021,26.6
74,14566.00,14566.00,0.00,2.418,4364,0.005,1.189,0.015,1.190,0.018,20.4
75,5274.00,5274.00,0.00,0.682,1580,0.005,0.148,0.013,0.502,0.014,0.9
