Second,Ops/sec,Hits/sec,Misses/sec,Latency,KB/sec,Request_Creation_Time,Request_Buffer_Time,MW_Writes_To_Memcached_Time,Memcached_Process_Time,MW_Writes_To_Memtier_Time,Queue_Size
4,2669.00,2669.00,0.00,0.988,800,0.020,0.148,0.047,0.737,0.036,0.5
5,7208.00,7208.00,0.00,0.911,2160,0.006,0.093,0.016,0.782,0.014,0.5
6,10426.00,10426.00,0.00,0.602,3123,0.007,0.091,0.015,0.474,0.015,0.5
7,10152.00,10145.00,7.00,0.644,3039,0.007,0.077,0.016,0.531,0.014,0.5
8,9842.00,9837.00,5.00,0.683,2947,0.006,0.088,0.017,0.557,0.015,0.5
9,10491.00,10491.00,0.00,0.630,3143,0.006,0.110,0.015,0.484,0.015,0.6
10,9708.00,9708.00,0.00,0.708,2908,0.005,0.089,0.016,0.584,0.014,0.5
11,9814.00,9814.00,0.00,0.705,2940,0.006,0.088,0.015,0.582,0.013,0.5
12,10761.00,10761.00,0.00,0.636,3224,0.004,0.067,0.014,0.538,0.013,0.4
13,10515.00,10504.00,11.00,0.644,3147,0.004,0.086,0.013,0.528,0.012,0.5
14,5911.00,5910.00,1.00,1.567,1770,0.004,0.082,0.015,1.453,0.013,0.3
15,6184.00,6184.00,0.00,1.456,1853,0.004,0.102,0.014,1.323,0.013,0.4
16,6580.00,6580.00,0.00,1.368,1971,0.004,0.103,0.015,1.233,0.013,0.4
17,5852.00,5852.00,0.00,1.570,1753,0.004,0.087,0.014,1.451,0.013,0.3
18,10284.00,10284.00,0.00,0.673,3081,0.005,0.079,0.014,0.562,0.013,0.5
19,10756.00,10756.00,0.00,0.648,3222,0.004,0.070,0.014,0.545,0.015,0.5
20,10731.00,10731.00,0.00,0.632,3215,0.004,0.073,0.013,0.528,0.014,0.5
21,9855.00,9855.00,0.00,0.700,2952,0.004,0.100,0.013,0.570,0.013,0.6
22,8694.00,8694.00,0.00,0.904,2605,0.004,0.077,0.014,0.796,0.013,0.4
23,8242.00,8242.00,0.00,0.988,2469,0.004,0.082,0.014,0.875,0.014,0.4
24,8664.00,8664.00,0.00,0.916,2596,0.004,0.078,0.013,0.809,0.013,0.4
25,8842.00,8842.00,0.00,0.893,2649,0.005,0.096,0.013,0.766,0.013,0.5
26,8523.00,8523.00,0.00,0.909,2553,0.005,0.105,0.013,0.773,0.014,0.5
27,8004.00,8004.00,0.00,1.015,2398,0.005,0.081,0.014,0.903,0.013,0.4
28,8213.00,8213.00,0.00,0.988,2461,0.005,0.078,0.016,0.877,0.013,0.4
29,9527.00,9527.00,0.00,0.762,2854,0.004,0.084,0.014,0.647,0.012,0.5
30,9558.00,9556.00,2.00,0.794,2863,0.004,0.081,0.013,0.682,0.014,0.5
31,9417.00,9410.00,7.00,0.823,2820,0.004,0.083,0.013,0.710,0.013,0.5
32,9388.00,9382.00,6.00,0.810,2811,0.004,0.088,0.013,0.692,0.012,0.5
33,8336.00,8329.00,7.00,0.948,2495,0.005,0.082,0.014,0.834,0.013,0.5
34,8835.00,8825.00,10.00,0.892,2644,0.004,0.086,0.014,0.775,0.013,0.4
35,9278.00,9274.00,4.00,0.807,2778,0.004,0.087,0.014,0.690,0.013,0.4
36,8901.00,8901.00,0.00,0.867,2667,0.004,0.084,0.014,0.752,0.013,0.5
37,5828.00,5828.00,0.00,1.563,1746,0.004,0.095,0.014,1.437,0.013,0.3
38,4794.00,4794.00,0.00,1.966,1436,0.004,0.221,0.016,1.712,0.013,0.5
39,5583.00,5583.00,0.00,1.692,1672,0.004,0.105,0.014,1.555,0.014,0.3
40,5726.00,5726.00,0.00,1.625,1715,0.004,0.104,0.014,1.490,0.013,0.4
41,5517.00,5517.00,0.00,1.725,1653,0.004,0.088,0.015,1.606,0.013,0.3
42,5558.00,5558.00,0.00,1.674,1665,0.004,0.125,0.015,1.517,0.013,0.3
43,5328.00,5328.00,0.00,1.741,1596,0.004,0.134,0.014,1.574,0.014,0.4
44,5456.00,5456.00,0.00,1.718,1635,0.004,0.122,0.015,1.563,0.014,0.4
45,5854.00,5854.00,0.00,1.591,1754,0.004,0.102,0.014,1.458,0.013,0.3
46,5621.00,5621.00,0.00,1.634,1684,0.004,0.124,0.015,1.478,0.013,0.3
47,5450.00,5450.00,0.00,1.696,1633,0.004,0.109,0.014,1.556,0.013,0.3
48,5533.00,5533.00,0.00,1.663,1658,0.004,0.117,0.014,1.513,0.015,0.4
49,5570.00,5570.00,0.00,1.682,1669,0.005,0.109,0.014,1.541,0.013,0.4
50,5488.00,5488.00,0.00,1.708,1644,0.005,0.117,0.014,1.558,0.013,0.4
51,5880.00,5880.00,0.00,1.569,1762,0.004,0.103,0.014,1.435,0.013,0.4
52,5706.00,5706.00,0.00,1.622,1709,0.004,0.083,0.015,1.507,0.013,0.3
53,6066.00,6066.00,0.00,1.511,1817,0.004,0.086,0.016,1.393,0.013,0.3
54,5543.00,5543.00,0.00,1.727,1661,0.004,0.076,0.014,1.619,0.013,0.3
55,10950.00,10950.00,0.00,0.602,3281,0.005,0.067,0.013,0.505,0.012,0.5
56,11094.00,11094.00,0.00,0.609,3324,0.005,0.073,0.015,0.503,0.013,0.5
57,10781.00,10781.00,0.00,0.655,3230,0.005,0.079,0.013,0.546,0.013,0.5
58,10713.00,10713.00,0.00,0.604,3209,0.006,0.091,0.014,0.481,0.012,0.6
59,10599.00,10599.00,0.00,0.650,3175,0.004,0.079,0.013,0.541,0.013,0.5
60,10426.00,10426.00,0.00,0.659,3124,0.004,0.086,0.014,0.541,0.014,0.5
61,11246.00,11246.00,0.00,0.587,3369,0.005,0.068,0.013,0.488,0.014,0.4
62,11324.00,11324.00,0.00,0.595,3392,0.004,0.070,0.014,0.494,0.012,0.5
63,10712.00,10712.00,0.00,0.649,3209,0.004,0.090,0.013,0.528,0.014,0.5
64,10824.00,10824.00,0.00,0.608,3243,0.005,0.084,0.013,0.492,0.013,0.5
65,10206.00,10206.00,0.00,0.670,3058,0.005,0.088,0.014,0.551,0.013,0.5
66,10529.00,10529.00,0.00,0.647,3154,0.005,0.072,0.014,0.542,0.013,0.4
67,10601.00,10601.00,0.00,0.602,3176,0.006,0.095,0.015,0.473,0.013,0.6
68,10493.00,10493.00,0.00,0.660,3143,0.005,0.092,0.013,0.538,0.013,0.6
69,10501.00,10501.00,0.00,0.691,3146,0.005,0.099,0.014,0.560,0.013,0.6
70,10641.00,10641.00,0.00,0.644,3188,0.004,0.080,0.013,0.532,0.014,0.5
71,10832.00,10832.00,0.00,0.638,3245,0.005,0.087,0.013,0.520,0.013,0.5
72,10957.00,10957.00,0.00,0.607,3282,0.005,0.075,0.013,0.501,0.013,0.5
73,11025.00,11025.00,0.00,0.580,3303,0.005,0.086,0.013,0.461,0.014,0.5
74,6653.00,6653.00,0.00,0.589,1993,0.005,0.089,0.013,0.468,0.014,0.5
