Second,Ops/sec,Hits/sec,Misses/sec,Latency,KB/sec,Request_Creation_Time,Request_Buffer_Time,MW_Writes_To_Memcached_Time,Memcached_Process_Time,MW_Writes_To_Memtier_Time,Queue_Size
4,5781.00,5781.00,0.00,3.018,1733,0.022,0.955,0.050,1.929,0.060,12.8
5,17780.00,17780.00,0.00,2.822,5327,0.011,0.894,0.025,1.860,0.032,14.3
6,19688.00,19688.00,0.00,2.324,5898,0.008,0.742,0.023,1.524,0.026,14.0
7,19639.00,19639.00,0.00,2.502,5884,0.007,0.733,0.021,1.716,0.025,12.8
8,19552.00,19552.00,0.00,2.540,5858,0.008,0.785,0.017,1.708,0.022,14.2
9,18529.00,18529.00,0.00,2.727,5550,0.007,0.752,0.024,1.916,0.027,13.0
10,19688.00,19688.00,0.00,2.397,5898,0.008,0.693,0.016,1.659,0.022,11.8
11,19306.00,19306.00,0.00,2.660,5784,0.009,0.814,0.018,1.796,0.022,14.0
12,19800.00,19800.00,0.00,2.491,5932,0.005,0.803,0.017,1.639,0.027,14.3
13,19742.00,19742.00,0.00,2.357,5915,0.008,0.726,0.020,1.574,0.029,14.2
14,19904.00,19904.00,0.00,2.638,5964,0.006,0.781,0.019,1.807,0.025,14.3
15,19598.00,19596.00,2.00,2.605,5871,0.007,0.834,0.022,1.712,0.030,13.8
16,18063.00,18034.00,29.00,2.594,5403,0.006,0.778,0.027,1.752,0.031,13.7
17,19499.00,19451.00,48.00,2.643,5827,0.006,0.791,0.021,1.799,0.026,14.1
18,19785.00,19768.00,17.00,2.577,5921,0.006,0.840,0.024,1.677,0.029,15.2
19,19319.00,19319.00,0.00,2.657,5787,0.008,0.910,0.021,1.693,0.026,15.8
20,19106.00,19106.00,0.00,2.807,5724,0.007,0.855,0.019,1.899,0.028,14.8
21,19161.00,19161.00,0.00,2.469,5740,0.006,0.743,0.024,1.668,0.029,13.9
22,19367.00,19367.00,0.00,2.479,5802,0.007,0.769,0.021,1.654,0.028,14.0
23,19774.00,19774.00,0.00,2.433,5925,0.005,0.723,0.022,1.659,0.024,13.5
24,19100.00,19100.00,0.00,2.691,5723,0.006,0.807,0.023,1.827,0.028,14.3
25,18677.00,18677.00,0.00,2.821,5596,0.006,1.017,0.020,1.749,0.028,17.0
26,19019.00,19019.00,0.00,2.659,5697,0.005,0.911,0.023,1.695,0.026,15.1
27,18782.00,18782.00,0.00,2.464,5627,0.007,0.754,0.022,1.657,0.024,14.4
28,19532.00,19532.00,0.00,2.437,5851,0.007,0.833,0.022,1.548,0.027,15.4
29,18062.00,18062.00,0.00,2.908,5411,0.005,0.868,0.019,1.994,0.022,13.7
30,19433.00,19433.00,0.00,2.767,5821,0.006,0.878,0.019,1.835,0.029,15.2
31,18829.00,18829.00,0.00,2.686,5641,0.006,0.938,0.021,1.689,0.032,15.0
32,19320.00,19320.00,0.00,2.635,5788,0.008,0.838,0.020,1.741,0.028,14.4
33,18649.00,18649.00,0.00,2.655,5587,0.007,0.932,0.020,1.672,0.025,16.1
34,19228.00,19228.00,0.00,2.568,5760,0.005,0.785,0.024,1.730,0.023,14.5
35,18287.00,18287.00,0.00,2.877,5478,0.007,1.034,0.020,1.786,0.030,16.4
36,18652.00,18652.00,0.00,2.779,5588,0.007,0.890,0.021,1.835,0.027,14.8
37,18911.00,18911.00,0.00,2.553,5666,0.007,0.839,0.019,1.661,0.028,15.2
38,18746.00,18739.00,7.00,2.541,5614,0.008,0.839,0.021,1.649,0.024,15.6
39,18524.00,18513.00,11.00,2.618,5547,0.006,0.744,0.021,1.822,0.025,13.1
40,19282.00,19268.00,14.00,2.657,5773,0.007,0.873,0.018,1.737,0.023,15.9
41,18980.00,18952.00,28.00,2.615,5678,0.007,0.908,0.022,1.654,0.025,15.6
42,18935.00,18921.00,14.00,2.795,5668,0.006,0.806,0.017,1.939,0.026,14.2
43,19323.00,19308.00,15.00,2.546,5784,0.007,0.790,0.022,1.699,0.027,15.3
44,18962.00,18957.00,5.00,2.506,5679,0.006,0.778,0.021,1.678,0.024,13.6
45,19728.00,19726.00,2.00,2.769,5909,0.006,0.835,0.018,1.887,0.022,15.1
46,19941.00,19941.00,0.00,2.481,5974,0.005,0.758,0.023,1.668,0.027,14.2
47,19313.00,19313.00,0.00,2.326,5786,0.008,0.702,0.020,1.569,0.027,14.0
48,19976.00,19976.00,0.00,2.393,5985,0.005,0.706,0.018,1.638,0.024,13.2
49,19516.00,19516.00,0.00,2.496,5847,0.005,0.648,0.018,1.801,0.024,12.5
50,19388.00,19388.00,0.00,2.613,5808,0.004,0.823,0.017,1.745,0.022,14.6
51,19366.00,19366.00,0.00,2.360,5802,0.005,0.694,0.019,1.619,0.023,12.8
52,19691.00,19691.00,0.00,2.527,5900,0.005,0.844,0.022,1.628,0.027,14.3
53,20034.00,20034.00,0.00,2.377,6002,0.006,0.796,0.019,1.535,0.022,13.9
54,19255.00,19255.00,0.00,2.650,5769,0.006,0.884,0.017,1.720,0.023,14.6
55,19747.00,19747.00,0.00,2.766,5916,0.006,0.810,0.020,1.907,0.023,13.6
56,19444.00,19444.00,0.00,2.414,5826,0.007,0.781,0.018,1.583,0.026,14.6
57,19605.00,19605.00,0.00,2.412,5874,0.006,0.775,0.017,1.592,0.022,14.1
58,19366.00,19366.00,0.00,2.483,5802,0.007,0.746,0.020,1.685,0.025,13.4
59,20171.00,20171.00,0.00,2.441,6043,0.006,0.753,0.018,1.642,0.022,13.7
60,18797.00,18797.00,0.00,2.741,5632,0.006,0.865,0.018,1.828,0.022,14.2
61,19810.00,19810.00,0.00,2.573,5935,0.005,0.753,0.019,1.771,0.025,13.3
62,19836.00,19836.00,0.00,2.312,5943,0.007,0.779,0.018,1.484,0.024,13.5
63,19539.00,19539.00,0.00,2.368,5854,0.006,0.665,0.023,1.647,0.028,13.6
64,19721.00,19721.00,0.00,2.662,5909,0.006,0.793,0.020,1.819,0.024,14.4
65,19663.00,19663.00,0.00,2.513,5891,0.006,0.819,0.021,1.641,0.026,14.5
66,19972.00,19972.00,0.00,2.348,5983,0.005,0.679,0.019,1.622,0.022,11.5
67,19993.00,19993.00,0.00,2.639,5990,0.005,0.804,0.017,1.789,0.023,13.9
68,19794.00,19794.00,0.00,2.231,5930,0.006,0.649,0.018,1.533,0.025,13.0
69,20041.00,20041.00,0.00,2.371,6004,0.005,0.716,0.021,1.604,0.024,14.4
70,18988.00,18988.00,0.00,2.900,5689,0.006,0.899,0.020,1.953,0.022,14.4
71,19520.00,19520.00,0.00,2.331,5848,0.006,0.698,0.019,1.583,0.025,12.5
72,19910.00,19910.00,0.00,2.426,5965,0.006,0.797,0.017,1.582,0.024,14.2
73,19640.00,19640.00,0.00,2.651,5884,0.006,0.690,0.020,1.911,0.024,12.6
74,13160.00,13160.00,0.00,1.911,3943,0.005,0.558,0.017,1.308,0.022,10.3
75,3467.00,3467.00,0.00,0.679,1039,0.005,0.067,0.017,0.578,0.012,0.3
