Second,Ops/sec,Hits/sec,Misses/sec,Latency,KB/sec,Request_Creation_Time,Request_Buffer_Time,MW_Writes_To_Memcached_Time,Memcached_Process_Time,MW_Writes_To_Memtier_Time,Queue_Size
4,4182.00,4182.00,0.00,1.899,1253,0.014,0.577,0.036,1.230,0.043,7.5
5,13950.00,13950.00,0.00,1.954,4180,0.011,0.495,0.017,1.409,0.022,5.2
6,15787.00,15787.00,0.00,1.590,4730,0.009,0.442,0.019,1.099,0.021,5.7
7,15811.00,15811.00,0.00,1.728,4736,0.008,0.439,0.018,1.241,0.022,5.6
8,16209.00,16209.00,0.00,1.700,4856,0.007,0.437,0.019,1.216,0.021,5.6
9,15604.00,15604.00,0.00,1.766,4675,0.006,0.460,0.019,1.259,0.022,5.5
10,15761.00,15761.00,0.00,1.621,4722,0.005,0.373,0.019,1.200,0.024,4.9
11,16001.00,15999.00,2.00,1.593,4793,0.007,0.389,0.018,1.155,0.024,5.2
12,16563.00,16520.00,43.00,1.519,4949,0.006,0.351,0.020,1.115,0.028,5.0
13,16102.00,16099.00,3.00,1.601,4822,0.007,0.427,0.017,1.128,0.022,5.5
14,15706.00,15706.00,0.00,1.600,4705,0.006,0.389,0.016,1.167,0.021,5.2
15,16803.00,16803.00,0.00,1.525,5034,0.006,0.386,0.016,1.094,0.025,5.5
16,16578.00,16578.00,0.00,1.471,4967,0.006,0.382,0.017,1.046,0.020,5.5
17,16225.00,16225.00,0.00,1.640,4861,0.006,0.398,0.016,1.199,0.020,5.3
18,16104.00,16104.00,0.00,1.704,4824,0.005,0.433,0.017,1.223,0.026,5.4
19,16031.00,16031.00,0.00,1.602,4802,0.006,0.403,0.017,1.154,0.022,5.7
20,15988.00,15988.00,0.00,1.629,4789,0.007,0.418,0.020,1.163,0.020,5.8
21,16203.00,16203.00,0.00,1.580,4854,0.006,0.427,0.017,1.109,0.021,5.7
22,16091.00,16091.00,0.00,1.533,4821,0.006,0.376,0.017,1.113,0.022,5.4
23,15860.00,15860.00,0.00,1.652,4751,0.005,0.463,0.014,1.149,0.020,5.7
24,15632.00,15630.00,2.00,1.643,4683,0.007,0.399,0.017,1.197,0.023,5.3
25,16412.00,16406.00,6.00,1.536,4916,0.006,0.387,0.018,1.103,0.022,5.5
26,16026.00,16008.00,18.00,1.592,4796,0.006,0.469,0.016,1.083,0.018,6.0
27,15906.00,15891.00,15.00,1.673,4761,0.005,0.416,0.016,1.211,0.024,5.5
28,16258.00,16252.00,6.00,1.616,4869,0.005,0.429,0.017,1.143,0.023,5.5
29,16066.00,16065.00,1.00,1.733,4813,0.006,0.432,0.015,1.261,0.019,5.8
30,15677.00,15677.00,0.00,1.702,4697,0.007,0.476,0.020,1.177,0.023,5.7
31,16481.00,16481.00,0.00,1.638,4938,0.006,0.422,0.016,1.171,0.024,5.7
32,15677.00,15677.00,0.00,1.527,4697,0.006,0.374,0.017,1.109,0.021,5.1
33,15852.00,15852.00,0.00,1.705,4749,0.005,0.457,0.018,1.203,0.023,5.6
34,17081.00,17081.00,0.00,1.418,5118,0.006,0.365,0.016,1.010,0.022,5.3
35,16227.00,16227.00,0.00,1.480,4862,0.006,0.347,0.020,1.088,0.019,5.1
36,16378.00,16378.00,0.00,1.545,4907,0.006,0.377,0.017,1.125,0.020,5.0
37,16160.00,16160.00,0.00,1.585,4842,0.007,0.372,0.015,1.167,0.025,5.3
38,15756.00,15756.00,0.00,1.659,4721,0.006,0.404,0.017,1.211,0.021,5.2
39,16427.00,16427.00,0.00,1.614,4922,0.005,0.398,0.016,1.175,0.020,5.3
40,16649.00,16649.00,0.00,1.518,4988,0.006,0.375,0.017,1.099,0.021,5.2
41,16141.00,16141.00,0.00,1.572,4836,0.006,0.367,0.016,1.163,0.020,5.3
42,15810.00,15810.00,0.00,1.652,4736,0.005,0.407,0.017,1.196,0.027,5.3
43,16175.00,16175.00,0.00,1.603,4846,0.007,0.388,0.016,1.170,0.021,5.2
44,16398.00,16398.00,0.00,1.584,4913,0.005,0.370,0.014,1.173,0.023,5.1
45,16373.00,16373.00,0.00,1.617,4905,0.006,0.371,0.016,1.203,0.020,5.1
46,16385.00,16385.00,0.00,1.506,4909,0.007,0.380,0.016,1.082,0.021,5.4
47,16697.00,16697.00,0.00,1.491,5002,0.005,0.353,0.017,1.093,0.023,5.1
48,15629.00,15629.00,0.00,1.793,4682,0.005,0.458,0.017,1.290,0.023,5.4
49,16675.00,16675.00,0.00,1.514,4996,0.007,0.391,0.017,1.076,0.023,5.5
50,16899.00,16899.00,0.00,1.472,5063,0.006,0.354,0.016,1.077,0.019,5.2
51,16579.00,16579.00,0.00,1.531,4967,0.006,0.358,0.016,1.128,0.022,4.7
52,16207.00,16207.00,0.00,1.598,4855,0.005,0.388,0.020,1.166,0.019,5.3
53,15681.00,15681.00,0.00,1.645,4698,0.006,0.422,0.020,1.175,0.022,5.1
54,15990.00,15990.00,0.00,1.701,4790,0.006,0.401,0.019,1.254,0.021,5.3
55,16438.00,16438.00,0.00,1.558,4925,0.006,0.382,0.017,1.127,0.025,5.4
56,17136.00,17136.00,0.00,1.427,5134,0.006,0.370,0.016,1.016,0.019,5.0
57,16053.00,16053.00,0.00,1.617,4809,0.006,0.415,0.015,1.160,0.020,5.1
58,16472.00,16472.00,0.00,1.525,4935,0.005,0.358,0.017,1.123,0.021,5.0
59,16931.00,16929.00,2.00,1.448,5072,0.005,0.363,0.019,1.040,0.021,5.3
60,15832.00,15831.00,1.00,1.656,4743,0.006,0.428,0.016,1.186,0.020,5.4
61,16304.00,16301.00,3.00,1.595,4884,0.006,0.378,0.017,1.173,0.021,5.2
62,15952.00,15948.00,4.00,1.665,4778,0.006,0.434,0.017,1.189,0.020,5.5
63,16362.00,16351.00,11.00,1.601,4899,0.006,0.383,0.016,1.174,0.021,5.1
64,16626.00,16619.00,7.00,1.549,4979,0.007,0.400,0.021,1.101,0.020,5.5
65,16701.00,16691.00,10.00,1.476,5001,0.006,0.369,0.015,1.068,0.018,5.4
66,16543.00,16531.00,12.00,1.487,4953,0.006,0.354,0.014,1.094,0.019,4.8
67,16185.00,16168.00,17.00,1.636,4844,0.007,0.427,0.017,1.163,0.023,5.4
68,16267.00,16260.00,7.00,1.552,4871,0.008,0.360,0.019,1.144,0.022,5.1
69,15891.00,15876.00,15.00,1.489,4756,0.005,0.377,0.017,1.069,0.020,5.1
70,16704.00,16690.00,14.00,1.552,5000,0.004,0.388,0.016,1.122,0.022,5.1
71,16726.00,16715.00,11.00,1.548,5008,0.006,0.389,0.018,1.114,0.022,5.7
72,16332.00,16323.00,9.00,1.509,4890,0.007,0.358,0.015,1.108,0.021,5.0
73,16415.00,16408.00,7.00,1.762,4916,0.005,0.464,0.016,1.259,0.019,5.3
74,10515.00,10510.00,5.00,1.493,3149,0.007,0.382,0.017,1.063,0.023,5.3
