Second,Ops/sec,Hits/sec,Misses/sec,Latency,KB/sec,Request_Creation_Time,Request_Buffer_Time,MW_Writes_To_Memcached_Time,Memcached_Process_Time,MW_Writes_To_Memtier_Time,Queue_Size
4,2832.00,2832.00,0.00,3.116,1557,0.020,1.518,0.061,1.454,0.062,21.3
5,16957.00,16957.00,0.00,3.338,9321,0.009,1.737,0.022,1.545,0.025,28.3
6,19648.00,19648.00,0.00,2.491,10798,0.008,1.158,0.017,1.284,0.024,25.8
7,19071.00,19071.00,0.00,2.672,10482,0.006,1.282,0.017,1.342,0.024,24.8
8,19659.00,19659.00,0.00,2.497,10804,0.007,1.199,0.017,1.249,0.025,25.4
9,19687.00,19687.00,0.00,2.484,10818,0.007,1.152,0.014,1.289,0.022,24.8
10,18802.00,18802.00,0.00,2.949,10333,0.005,1.512,0.015,1.390,0.026,26.9
11,19930.00,19930.00,0.00,2.381,10953,0.007,1.121,0.015,1.217,0.021,25.4
12,20008.00,20008.00,0.00,2.582,10996,0.007,1.249,0.014,1.287,0.024,26.2
13,19138.00,19138.00,0.00,2.747,10518,0.005,1.379,0.014,1.327,0.021,25.7
14,20044.00,20044.00,0.00,2.382,11016,0.006,1.123,0.014,1.218,0.021,23.8
15,19377.00,19376.00,1.00,2.594,10649,0.007,1.286,0.016,1.263,0.023,25.6
16,18535.00,18520.00,15.00,2.705,10178,0.005,1.273,0.022,1.376,0.029,24.9
17,18661.00,18606.00,55.00,2.748,10225,0.007,1.340,0.020,1.353,0.027,26.8
18,19024.00,18999.00,25.00,2.771,10441,0.006,1.356,0.019,1.364,0.027,26.9
19,18826.00,18826.00,0.00,2.778,10345,0.006,1.363,0.016,1.368,0.025,26.4
20,18496.00,18496.00,0.00,2.845,10165,0.007,1.444,0.016,1.355,0.024,25.8
21,19761.00,19761.00,0.00,2.579,10860,0.005,1.216,0.016,1.318,0.024,25.9
22,19959.00,19959.00,0.00,2.547,10969,0.004,1.221,0.015,1.282,0.024,25.6
23,19397.00,19397.00,0.00,2.722,10661,0.007,1.356,0.018,1.316,0.024,26.9
24,19064.00,19064.00,0.00,2.718,10478,0.006,1.314,0.017,1.357,0.024,26.4
25,19363.00,19363.00,0.00,2.660,10642,0.006,1.304,0.016,1.311,0.023,26.9
26,18489.00,18489.00,0.00,3.089,10161,0.006,1.629,0.015,1.414,0.024,29.7
27,19404.00,19404.00,0.00,2.755,10664,0.006,1.331,0.015,1.377,0.026,27.5
28,19376.00,19376.00,0.00,2.538,10648,0.006,1.168,0.015,1.326,0.024,24.2
29,19415.00,19415.00,0.00,2.640,10670,0.006,1.247,0.015,1.348,0.024,26.0
30,19886.00,19886.00,0.00,2.525,10929,0.006,1.209,0.015,1.272,0.024,25.4
31,18708.00,18708.00,0.00,2.859,10281,0.006,1.435,0.016,1.378,0.025,26.9
32,19683.00,19683.00,0.00,2.599,10817,0.006,1.266,0.015,1.287,0.025,26.4
33,19504.00,19504.00,0.00,2.499,10719,0.007,1.128,0.016,1.324,0.024,25.3
34,19356.00,19356.00,0.00,2.709,10638,0.006,1.307,0.016,1.359,0.022,27.0
35,19481.00,19481.00,0.00,2.649,10706,0.006,1.278,0.015,1.327,0.024,26.3
36,19029.00,19029.00,0.00,2.874,10458,0.005,1.402,0.022,1.419,0.027,26.5
37,19620.00,19617.00,3.00,2.731,10781,0.005,1.357,0.017,1.330,0.022,26.5
38,18837.00,18834.00,3.00,2.710,10351,0.006,1.326,0.014,1.336,0.027,24.6
39,19115.00,19105.00,10.00,2.634,10500,0.006,1.223,0.019,1.360,0.026,26.2
40,19330.00,19306.00,24.00,2.695,10611,0.005,1.303,0.017,1.349,0.020,26.3
41,19265.00,19247.00,18.00,2.621,10578,0.005,1.299,0.013,1.282,0.021,25.3
42,20131.00,20114.00,17.00,2.509,11054,0.004,1.199,0.016,1.267,0.022,26.6
43,20052.00,20036.00,16.00,2.642,11011,0.005,1.290,0.015,1.310,0.023,27.6
44,19789.00,19785.00,4.00,2.629,10873,0.005,1.267,0.012,1.327,0.019,26.7
45,19593.00,19592.00,1.00,2.401,10767,0.004,1.115,0.014,1.248,0.021,24.1
46,19050.00,19050.00,0.00,2.819,10470,0.004,1.396,0.016,1.377,0.025,28.2
47,19146.00,19146.00,0.00,2.713,10522,0.007,1.358,0.015,1.310,0.023,26.8
48,20408.00,20408.00,0.00,2.401,11216,0.005,1.091,0.014,1.270,0.020,24.2
49,19627.00,19627.00,0.00,2.605,10787,0.005,1.213,0.016,1.347,0.025,26.2
50,19259.00,19259.00,0.00,2.767,10585,0.006,1.373,0.015,1.351,0.023,26.9
51,18560.00,18560.00,0.00,2.742,10200,0.006,1.333,0.012,1.366,0.024,26.3
52,19924.00,19924.00,0.00,2.579,10950,0.005,1.234,0.015,1.302,0.023,26.2
53,19179.00,19179.00,0.00,2.839,10541,0.006,1.427,0.013,1.372,0.021,27.4
54,19885.00,19885.00,0.00,2.481,10929,0.005,1.139,0.015,1.300,0.022,24.8
55,19677.00,19677.00,0.00,2.584,10815,0.005,1.236,0.015,1.306,0.023,26.0
56,19549.00,19549.00,0.00,2.625,10744,0.006,1.286,0.012,1.300,0.022,25.3
57,20350.00,20350.00,0.00,2.358,11184,0.005,1.062,0.013,1.257,0.021,24.6
58,19810.00,19810.00,0.00,2.485,10888,0.006,1.157,0.016,1.282,0.023,23.8
59,19683.00,19683.00,0.00,2.505,10818,0.006,1.155,0.015,1.308,0.022,24.5
60,19780.00,19780.00,0.00,2.616,10871,0.005,1.283,0.015,1.290,0.023,25.5
61,19703.00,19703.00,0.00,2.610,10829,0.006,1.264,0.014,1.307,0.019,25.2
62,19356.00,19356.00,0.00,2.615,10638,0.005,1.257,0.015,1.316,0.022,25.8
63,20012.00,20012.00,0.00,2.612,10999,0.006,1.280,0.015,1.292,0.019,24.3
64,20073.00,20073.00,0.00,2.649,11032,0.006,1.304,0.015,1.301,0.023,27.6
65,20075.00,20075.00,0.00,2.442,11033,0.006,1.149,0.013,1.254,0.020,25.7
66,19189.00,19189.00,0.00,2.675,10546,0.005,1.327,0.016,1.301,0.025,25.2
67,19974.00,19974.00,0.00,2.580,10977,0.004,1.210,0.013,1.331,0.021,26.1
68,19456.00,19456.00,0.00,2.674,10693,0.007,1.316,0.016,1.315,0.021,24.8
69,20166.00,20166.00,0.00,2.517,11083,0.006,1.197,0.016,1.276,0.023,25.1
70,19688.00,19688.00,0.00,2.400,10820,0.006,1.091,0.014,1.268,0.021,24.3
71,19310.00,19310.00,0.00,2.715,10613,0.006,1.363,0.015,1.309,0.023,25.4
72,19818.00,19818.00,0.00,2.581,10892,0.005,1.232,0.016,1.306,0.022,24.3
73,20055.00,20055.00,0.00,2.598,11022,0.005,1.246,0.015,1.307,0.024,26.4
74,14120.00,14120.00,0.00,2.514,7760,0.007,1.226,0.015,1.247,0.019,25.2
