Second,Ops/sec,Hits/sec,Misses/sec,Latency,KB/sec,Request_Creation_Time,Request_Buffer_Time,MW_Writes_To_Memcached_Time,Memcached_Process_Time,MW_Writes_To_Memtier_Time,Queue_Size
4,2441.00,2441.00,0.00,0.903,271,0.015,0.130,0.031,0.693,0.035,0.9
5,9061.00,9061.00,0.00,0.781,1007,0.008,0.119,0.014,0.627,0.014,0.9
6,11237.00,11237.00,0.00,0.618,1249,0.006,0.109,0.013,0.477,0.013,0.8
7,10370.00,10358.00,12.00,0.673,1151,0.007,0.136,0.015,0.501,0.014,1.0
8,11617.00,11617.00,0.00,0.566,1291,0.006,0.098,0.013,0.436,0.013,0.8
9,11078.00,11078.00,0.00,0.646,1231,0.005,0.117,0.012,0.497,0.014,0.9
10,10640.00,10640.00,0.00,0.629,1182,0.005,0.093,0.012,0.505,0.014,0.8
11,11149.00,11149.00,0.00,0.635,1239,0.004,0.110,0.012,0.495,0.013,0.9
12,10754.00,10747.00,7.00,0.647,1194,0.004,0.118,0.011,0.500,0.013,0.9
13,11343.00,11338.00,5.00,0.609,1260,0.005,0.112,0.011,0.467,0.014,0.8
14,11742.00,11742.00,0.00,0.568,1305,0.005,0.092,0.012,0.446,0.014,0.8
15,11174.00,11174.00,0.00,0.616,1242,0.005,0.116,0.011,0.471,0.013,0.9
16,11420.00,11420.00,0.00,0.605,1269,0.004,0.116,0.012,0.461,0.013,0.9
17,11931.00,11931.00,0.00,0.547,1326,0.004,0.092,0.011,0.427,0.013,0.8
18,11031.00,11031.00,0.00,0.635,1226,0.004,0.109,0.012,0.496,0.013,0.8
19,11477.00,11477.00,0.00,0.607,1275,0.004,0.107,0.011,0.472,0.013,0.9
20,11793.00,11793.00,0.00,0.554,1311,0.004,0.085,0.012,0.439,0.013,0.8
21,11857.00,11857.00,0.00,0.566,1317,0.004,0.093,0.011,0.444,0.013,0.8
22,10984.00,10984.00,0.00,0.630,1220,0.004,0.110,0.012,0.490,0.013,0.8
23,10941.00,10941.00,0.00,0.634,1216,0.004,0.111,0.013,0.493,0.013,0.8
24,10466.00,10466.00,0.00,0.671,1163,0.004,0.123,0.014,0.516,0.014,0.8
25,11265.00,11263.00,2.00,0.580,1252,0.004,0.094,0.012,0.457,0.014,0.8
26,11880.00,11873.00,7.00,0.568,1320,0.004,0.092,0.011,0.447,0.013,0.9
27,10297.00,10290.00,7.00,0.681,1143,0.005,0.129,0.012,0.523,0.013,0.9
28,11833.00,11820.00,13.00,0.564,1313,0.004,0.096,0.011,0.440,0.013,0.8
29,11472.00,11465.00,7.00,0.600,1274,0.004,0.103,0.012,0.468,0.013,0.8
30,10895.00,10895.00,0.00,0.639,1211,0.004,0.113,0.012,0.497,0.013,0.8
31,11431.00,11431.00,0.00,0.583,1270,0.004,0.098,0.013,0.455,0.013,0.8
32,11038.00,11038.00,0.00,0.617,1226,0.004,0.104,0.012,0.484,0.013,0.8
33,10862.00,10862.00,0.00,0.632,1207,0.004,0.117,0.012,0.487,0.013,0.8
34,11426.00,11426.00,0.00,0.591,1270,0.004,0.105,0.011,0.457,0.013,0.8
35,12029.00,12029.00,0.00,0.570,1336,0.004,0.091,0.011,0.450,0.014,0.8
36,11462.00,11462.00,0.00,0.571,1273,0.005,0.087,0.011,0.455,0.013,0.8
37,10680.00,10680.00,0.00,0.646,1187,0.004,0.117,0.011,0.501,0.013,0.8
38,11564.00,11564.00,0.00,0.582,1285,0.004,0.095,0.011,0.459,0.013,0.8
39,10089.00,10089.00,0.00,0.688,1121,0.004,0.139,0.011,0.521,0.013,0.9
40,11679.00,11679.00,0.00,0.582,1298,0.004,0.101,0.012,0.452,0.013,0.8
41,11767.00,11767.00,0.00,0.583,1307,0.004,0.099,0.012,0.454,0.014,0.9
42,11395.00,11395.00,0.00,0.597,1266,0.004,0.107,0.012,0.461,0.014,0.8
43,11131.00,11131.00,0.00,0.632,1237,0.004,0.118,0.012,0.485,0.014,0.8
44,11918.00,11918.00,0.00,0.579,1324,0.005,0.100,0.012,0.449,0.014,0.9
45,11137.00,11137.00,0.00,0.578,1238,0.005,0.098,0.011,0.450,0.014,0.9
46,11494.00,11494.00,0.00,0.593,1277,0.005,0.101,0.011,0.463,0.013,0.9
47,10929.00,10929.00,0.00,0.647,1214,0.004,0.115,0.011,0.503,0.013,0.9
48,11223.00,11223.00,0.00,0.560,1247,0.006,0.091,0.011,0.437,0.014,0.7
49,11136.00,11136.00,0.00,0.648,1237,0.004,0.119,0.011,0.501,0.013,0.9
50,12005.00,12005.00,0.00,0.557,1334,0.004,0.092,0.012,0.437,0.013,0.8
51,12020.00,12020.00,0.00,0.523,1335,0.004,0.085,0.012,0.410,0.013,0.7
52,11019.00,11019.00,0.00,0.646,1224,0.004,0.120,0.011,0.498,0.013,0.8
53,10855.00,10855.00,0.00,0.657,1206,0.004,0.122,0.012,0.506,0.013,0.9
54,10573.00,10573.00,0.00,0.638,1175,0.004,0.128,0.011,0.482,0.013,1.0
55,11211.00,11211.00,0.00,0.624,1245,0.004,0.106,0.011,0.489,0.014,0.8
56,11470.00,11470.00,0.00,0.580,1274,0.005,0.108,0.012,0.442,0.014,0.8
57,11205.00,11205.00,0.00,0.623,1245,0.004,0.111,0.011,0.484,0.013,0.9
58,10761.00,10761.00,0.00,0.651,1196,0.005,0.109,0.011,0.513,0.013,0.9
59,10911.00,10911.00,0.00,0.636,1212,0.005,0.113,0.013,0.491,0.015,0.9
60,11698.00,11698.00,0.00,0.572,1300,0.004,0.094,0.011,0.451,0.013,0.8
61,11034.00,11034.00,0.00,0.636,1226,0.004,0.118,0.012,0.489,0.013,0.8
62,11461.00,11461.00,0.00,0.617,1273,0.004,0.110,0.012,0.478,0.013,0.9
63,11733.00,11733.00,0.00,0.566,1304,0.004,0.089,0.011,0.448,0.013,0.8
64,11075.00,11075.00,0.00,0.621,1231,0.005,0.113,0.011,0.478,0.014,0.8
65,11303.00,11303.00,0.00,0.602,1256,0.004,0.100,0.011,0.473,0.014,0.8
66,11857.00,11857.00,0.00,0.554,1317,0.004,0.095,0.012,0.429,0.013,0.8
67,11344.00,11344.00,0.00,0.602,1260,0.004,0.106,0.011,0.467,0.014,0.8
68,10988.00,10988.00,0.00,0.625,1221,0.005,0.125,0.011,0.471,0.013,0.9
69,11312.00,11312.00,0.00,0.617,1257,0.004,0.115,0.012,0.473,0.013,0.8
70,11594.00,11590.00,4.00,0.567,1288,0.004,0.096,0.011,0.442,0.013,0.8
71,10987.00,10986.00,1.00,0.637,1221,0.005,0.113,0.011,0.495,0.013,0.9
72,10474.00,10471.00,3.00,0.668,1163,0.004,0.134,0.012,0.503,0.014,1.0
73,10341.00,10333.00,8.00,0.686,1148,0.004,0.154,0.011,0.504,0.013,1.0
74,7118.00,7113.00,5.00,0.659,790,0.004,0.127,0.011,0.503,0.014,0.9
