Second,Ops/sec,Hits/sec,Misses/sec,Latency,KB/sec,Request_Creation_Time,Request_Buffer_Time,MW_Writes_To_Memcached_Time,Memcached_Process_Time,MW_Writes_To_Memtier_Time,Queue_Size
4,5569.00,5569.00,0.00,3.339,1669,0.021,1.072,0.040,2.165,0.042,15.5
5,16262.00,16262.00,0.00,2.906,4873,0.009,0.863,0.030,1.976,0.028,13.7
6,18945.00,18945.00,0.00,2.471,5676,0.010,0.740,0.022,1.669,0.031,13.9
7,19336.00,19336.00,0.00,2.712,5794,0.007,0.864,0.025,1.791,0.025,15.6
8,19354.00,19354.00,0.00,2.402,5798,0.009,0.787,0.023,1.553,0.030,14.9
9,19266.00,19266.00,0.00,2.639,5771,0.008,0.758,0.020,1.825,0.028,14.0
10,19103.00,19103.00,0.00,2.620,5723,0.007,0.777,0.023,1.789,0.024,14.0
11,19463.00,19463.00,0.00,2.511,5831,0.006,0.746,0.021,1.711,0.027,13.3
12,19891.00,19891.00,0.00,2.238,5959,0.006,0.633,0.023,1.552,0.024,13.3
13,19236.00,19236.00,0.00,2.484,5763,0.006,0.800,0.019,1.635,0.025,14.1
14,19800.00,19800.00,0.00,2.526,5932,0.005,0.693,0.021,1.781,0.026,13.1
15,19915.00,19915.00,0.00,2.347,5967,0.007,0.768,0.022,1.523,0.027,15.6
16,18882.00,18852.00,30.00,2.787,5648,0.008,0.814,0.025,1.913,0.028,14.6
17,18695.00,18651.00,44.00,2.697,5587,0.008,0.808,0.027,1.820,0.034,15.1
18,19110.00,19089.00,21.00,2.471,5718,0.008,0.807,0.024,1.602,0.030,15.0
19,17903.00,17902.00,1.00,2.922,5362,0.006,0.990,0.024,1.879,0.023,16.3
20,19344.00,19344.00,0.00,2.596,5795,0.007,0.725,0.027,1.808,0.030,14.8
21,19120.00,19120.00,0.00,2.546,5728,0.008,0.851,0.021,1.639,0.026,15.1
22,18422.00,18422.00,0.00,2.738,5519,0.007,0.838,0.022,1.842,0.029,14.0
23,19028.00,19028.00,0.00,2.610,5701,0.007,0.792,0.023,1.758,0.030,15.1
24,18295.00,18295.00,0.00,2.821,5482,0.008,0.877,0.021,1.881,0.034,14.6
25,18643.00,18643.00,0.00,2.613,5585,0.007,0.783,0.023,1.771,0.029,13.8
26,19312.00,19312.00,0.00,2.594,5785,0.006,0.777,0.024,1.757,0.029,14.0
27,18963.00,18963.00,0.00,2.587,5681,0.007,0.770,0.026,1.752,0.032,14.7
28,18799.00,18799.00,0.00,2.534,5632,0.008,0.764,0.027,1.705,0.031,14.0
29,18565.00,18565.00,0.00,2.842,5561,0.007,0.896,0.028,1.881,0.030,14.9
30,18180.00,18180.00,0.00,2.763,5446,0.007,0.958,0.023,1.745,0.030,16.5
31,18381.00,18381.00,0.00,2.563,5506,0.008,0.860,0.022,1.644,0.029,15.5
32,18786.00,18786.00,0.00,2.985,5628,0.006,0.942,0.022,1.986,0.029,15.1
33,18547.00,18547.00,0.00,2.627,5556,0.006,0.820,0.021,1.751,0.028,15.6
34,18756.00,18756.00,0.00,2.848,5619,0.005,0.938,0.021,1.855,0.028,17.2
35,18391.00,18391.00,0.00,2.822,5509,0.007,1.012,0.022,1.751,0.029,17.2
36,18293.00,18293.00,0.00,2.551,5480,0.006,0.845,0.020,1.652,0.027,14.7
37,18687.00,18687.00,0.00,2.413,5598,0.009,0.844,0.021,1.508,0.030,15.9
38,18415.00,18413.00,2.00,2.964,5517,0.006,0.974,0.022,1.933,0.030,16.8
39,19596.00,19586.00,10.00,2.462,5868,0.007,0.719,0.017,1.695,0.026,13.1
40,19285.00,19267.00,18.00,2.383,5773,0.007,0.788,0.018,1.541,0.029,14.7
41,20067.00,20046.00,21.00,2.595,6006,0.006,0.755,0.020,1.790,0.024,12.7
42,19677.00,19663.00,14.00,2.615,5891,0.007,0.836,0.020,1.722,0.030,14.6
43,19268.00,19253.00,15.00,2.406,5768,0.008,0.747,0.020,1.607,0.025,13.4
44,19394.00,19383.00,11.00,2.723,5807,0.005,0.854,0.021,1.817,0.026,14.1
45,19124.00,19121.00,3.00,2.417,5728,0.009,0.739,0.018,1.624,0.027,13.6
46,18798.00,18796.00,2.00,2.544,5631,0.007,0.761,0.017,1.734,0.025,13.2
47,19200.00,19200.00,0.00,2.749,5752,0.006,0.857,0.018,1.844,0.024,13.9
48,19355.00,19355.00,0.00,2.455,5799,0.007,0.781,0.017,1.626,0.025,13.9
49,19353.00,19353.00,0.00,2.588,5798,0.007,0.789,0.018,1.749,0.024,14.9
50,19095.00,19095.00,0.00,2.589,5721,0.006,0.762,0.018,1.778,0.026,13.5
51,19350.00,19350.00,0.00,2.467,5797,0.006,0.764,0.021,1.651,0.025,14.4
52,19361.00,19361.00,0.00,2.465,5801,0.007,0.776,0.019,1.630,0.033,15.1
53,19470.00,19470.00,0.00,2.485,5833,0.007,0.785,0.017,1.653,0.023,14.4
54,19509.00,19509.00,0.00,2.670,5845,0.005,0.856,0.020,1.766,0.023,15.3
55,19167.00,19167.00,0.00,2.614,5743,0.006,0.855,0.020,1.709,0.024,15.5
56,18808.00,18808.00,0.00,2.470,5635,0.006,0.799,0.020,1.617,0.028,14.6
57,19971.00,19971.00,0.00,2.538,5983,0.007,0.780,0.018,1.709,0.023,14.3
58,19000.00,19000.00,0.00,2.515,5693,0.007,0.803,0.020,1.664,0.022,15.1
59,19229.00,19229.00,0.00,2.470,5761,0.006,0.807,0.019,1.614,0.025,14.2
60,18868.00,18868.00,0.00,2.736,5653,0.006,0.867,0.017,1.820,0.027,15.2
61,19392.00,19392.00,0.00,2.393,5810,0.006,0.762,0.018,1.580,0.027,14.7
62,19237.00,19237.00,0.00,2.526,5764,0.006,0.787,0.020,1.687,0.026,14.8
63,19196.00,19196.00,0.00,2.573,5751,0.006,0.755,0.019,1.770,0.023,14.0
64,19080.00,19080.00,0.00,2.472,5716,0.006,0.776,0.022,1.643,0.025,14.7
65,19270.00,19270.00,0.00,2.670,5773,0.007,0.776,0.021,1.843,0.023,14.0
66,19124.00,19124.00,0.00,2.572,5730,0.006,0.755,0.022,1.764,0.025,14.0
67,19337.00,19337.00,0.00,2.538,5793,0.004,0.819,0.017,1.672,0.027,15.9
68,19297.00,19297.00,0.00,2.397,5781,0.005,0.735,0.021,1.613,0.023,14.7
69,19497.00,19497.00,0.00,2.564,5841,0.007,0.825,0.022,1.684,0.026,14.1
70,18804.00,18804.00,0.00,2.494,5634,0.006,0.797,0.022,1.642,0.028,14.0
71,20218.00,20218.00,0.00,2.284,6057,0.006,0.745,0.019,1.490,0.024,15.2
72,19456.00,19456.00,0.00,2.596,5829,0.006,0.787,0.017,1.762,0.025,14.5
73,18779.00,18779.00,0.00,2.414,5626,0.007,0.749,0.022,1.607,0.028,14.9
74,11635.00,11635.00,0.00,2.231,3486,0.007,0.693,0.026,1.476,0.029,12.9
75,1293.00,1293.00,0.00,0.772,387,0.007,0.053,0.023,0.682,0.009,0.1
