Second,Ops/sec,Hits/sec,Misses/sec,Latency,KB/sec,Request_Creation_Time,Request_Buffer_Time,MW_Writes_To_Memcached_Time,Memcached_Process_Time,MW_Writes_To_Memtier_Time,Queue_Size
4,4512.00,4512.00,0.00,3.683,4741,0.023,1.762,0.041,1.808,0.050,22.9
5,15980.00,15980.00,0.00,3.934,16789,0.009,2.127,0.018,1.754,0.026,32.6
6,15676.00,15676.00,0.00,4.934,16469,0.005,2.911,0.011,1.990,0.016,39.5
7,15367.00,15367.00,0.00,5.229,16145,0.005,3.145,0.010,2.052,0.015,41.8
8,15718.00,15718.00,0.00,5.030,16513,0.004,2.999,0.010,2.002,0.015,42.7
9,15565.00,15565.00,0.00,4.508,16352,0.006,2.534,0.015,1.934,0.019,36.0
10,15047.00,15047.00,0.00,5.086,15807,0.005,2.982,0.011,2.072,0.017,41.3
11,15351.00,15351.00,0.00,5.085,16127,0.004,3.011,0.011,2.041,0.018,41.0
12,15759.00,15759.00,0.00,4.823,16556,0.004,2.818,0.010,1.975,0.015,39.5
13,15609.00,15609.00,0.00,5.274,16398,0.004,3.222,0.011,2.021,0.016,41.8
14,15163.00,15163.00,0.00,5.059,15930,0.005,2.982,0.011,2.046,0.016,38.9
15,15257.00,15257.00,0.00,5.294,16029,0.004,3.223,0.010,2.040,0.017,41.5
16,15271.00,15271.00,0.00,5.183,16044,0.005,3.100,0.013,2.048,0.017,41.7
17,16244.00,16244.00,0.00,4.770,17066,0.004,2.833,0.011,1.905,0.017,39.8
18,15760.00,15760.00,0.00,4.976,16557,0.005,2.956,0.009,1.990,0.017,40.0
19,15061.00,15037.00,24.00,5.000,15797,0.007,2.915,0.017,2.038,0.023,38.7
20,15283.00,15227.00,56.00,5.208,15997,0.005,3.136,0.015,2.032,0.021,41.6
21,15393.00,15377.00,16.00,5.021,16154,0.005,2.967,0.014,2.016,0.020,40.5
22,14998.00,14998.00,0.00,5.370,15755,0.005,3.263,0.014,2.065,0.023,42.2
23,15732.00,15732.00,0.00,5.053,16527,0.006,3.036,0.014,1.977,0.019,40.8
24,15368.00,15368.00,0.00,4.820,16145,0.005,2.836,0.012,1.949,0.018,36.8
25,15568.00,15568.00,0.00,4.958,16355,0.007,2.969,0.015,1.946,0.021,41.6
26,15267.00,15267.00,0.00,5.100,16039,0.005,3.067,0.014,1.996,0.018,40.6
27,15317.00,15317.00,0.00,5.377,16092,0.005,3.306,0.013,2.030,0.022,43.8
28,15460.00,15460.00,0.00,4.943,16242,0.004,2.940,0.013,1.965,0.021,40.4
29,15243.00,15243.00,0.00,5.366,16014,0.005,3.289,0.013,2.040,0.019,42.3
30,15535.00,15535.00,0.00,5.008,16321,0.004,3.008,0.011,1.963,0.022,40.5
31,15193.00,15193.00,0.00,5.190,15961,0.005,3.115,0.012,2.039,0.019,40.4
32,15135.00,15135.00,0.00,5.075,15900,0.005,3.024,0.013,2.013,0.020,40.4
33,15535.00,15535.00,0.00,5.082,16320,0.006,3.047,0.012,1.998,0.019,41.2
34,14987.00,14987.00,0.00,5.269,15745,0.005,3.201,0.012,2.030,0.022,41.8
35,15387.00,15387.00,0.00,5.315,16165,0.004,3.239,0.012,2.041,0.020,42.3
36,15276.00,15276.00,0.00,5.234,16048,0.004,3.163,0.011,2.038,0.018,41.9
37,15451.00,15451.00,0.00,5.164,16232,0.005,3.139,0.012,1.990,0.017,42.1
38,14729.00,14729.00,0.00,5.362,15474,0.006,3.216,0.013,2.107,0.021,41.6
39,15722.00,15722.00,0.00,4.946,16517,0.005,2.926,0.011,1.989,0.016,39.3
40,15416.00,15416.00,0.00,5.135,16196,0.005,3.085,0.011,2.014,0.020,39.9
41,15247.00,15247.00,0.00,5.327,16018,0.006,3.226,0.011,2.068,0.017,42.3
42,15824.00,15824.00,0.00,4.882,16624,0.005,2.900,0.010,1.949,0.018,40.2
43,15587.00,15587.00,0.00,5.168,16375,0.005,3.161,0.010,1.976,0.017,40.1
44,14935.00,14935.00,0.00,5.348,15690,0.007,3.239,0.010,2.071,0.020,41.6
45,15432.00,15432.00,0.00,5.239,16212,0.005,3.170,0.011,2.036,0.018,42.2
46,15893.00,15893.00,0.00,4.959,16697,0.005,2.972,0.010,1.955,0.017,39.9
47,15943.00,15936.00,7.00,5.130,16742,0.005,3.126,0.010,1.971,0.019,41.4
48,15571.00,15556.00,15.00,5.067,16343,0.004,3.022,0.010,2.015,0.015,41.7
49,15782.00,15767.00,15.00,4.890,16565,0.004,2.880,0.009,1.981,0.015,39.7
50,15015.00,14991.00,24.00,5.245,15749,0.005,3.152,0.011,2.059,0.018,40.1
51,15597.00,15576.00,21.00,5.088,16363,0.005,3.050,0.013,2.002,0.019,41.3
52,15487.00,15476.00,11.00,5.166,16258,0.004,3.109,0.010,2.027,0.016,41.5
53,15646.00,15643.00,3.00,5.265,16433,0.005,3.237,0.010,1.995,0.018,42.4
54,15612.00,15612.00,0.00,5.194,16401,0.004,3.150,0.009,2.015,0.015,42.3
55,15425.00,15425.00,0.00,5.143,16205,0.004,3.070,0.011,2.041,0.017,40.1
56,15322.00,15322.00,0.00,5.112,16097,0.004,3.056,0.011,2.024,0.017,40.0
57,15517.00,15517.00,0.00,5.243,16302,0.004,3.192,0.011,2.019,0.017,42.4
58,15546.00,15546.00,0.00,4.989,16332,0.004,2.970,0.011,1.986,0.018,39.8
59,15236.00,15236.00,0.00,5.134,16007,0.005,3.059,0.010,2.043,0.017,41.3
60,15608.00,15608.00,0.00,5.204,16397,0.005,3.161,0.011,2.011,0.016,41.5
61,15701.00,15701.00,0.00,5.073,16495,0.005,3.043,0.010,1.999,0.016,41.4
62,15628.00,15628.00,0.00,5.212,16418,0.004,3.167,0.010,2.012,0.017,42.0
63,15476.00,15476.00,0.00,5.289,16259,0.004,3.239,0.012,2.017,0.017,42.7
64,15509.00,15509.00,0.00,5.048,16293,0.005,3.016,0.012,1.998,0.017,40.2
65,15059.00,15059.00,0.00,5.149,15821,0.005,3.062,0.011,2.052,0.018,39.5
66,15420.00,15420.00,0.00,5.226,16200,0.006,3.159,0.010,2.034,0.017,42.2
67,15773.00,15773.00,0.00,4.938,16571,0.006,2.915,0.010,1.991,0.017,39.6
68,15526.00,15526.00,0.00,5.215,16311,0.005,3.162,0.011,2.020,0.017,42.6
69,15662.00,15662.00,0.00,5.166,16454,0.005,3.125,0.011,2.009,0.016,40.9
70,15734.00,15734.00,0.00,5.128,16530,0.004,3.108,0.009,1.990,0.016,41.3
71,16009.00,16009.00,0.00,5.034,16819,0.004,3.038,0.010,1.964,0.017,41.4
72,15574.00,15574.00,0.00,5.178,16362,0.005,3.135,0.011,2.011,0.016,40.3
73,15856.00,15856.00,0.00,4.997,16658,0.005,2.995,0.010,1.970,0.017,40.9
74,9626.00,9626.00,0.00,5.116,10113,0.004,3.092,0.009,1.996,0.016,40.0
