Second,Ops/sec,Hits/sec,Misses/sec,Latency,KB/sec,Request_Creation_Time,Request_Buffer_Time,MW_Writes_To_Memcached_Time,Memcached_Process_Time,MW_Writes_To_Memtier_Time,Queue_Size
4,6321.00,6321.00,0.00,3.553,703,0.019,1.498,0.041,1.945,0.051,21.6
5,17856.00,17856.00,0.00,2.958,1985,0.007,1.070,0.021,1.829,0.030,15.9
6,19114.00,19114.00,0.00,2.516,2124,0.009,0.782,0.026,1.673,0.026,13.4
7,19211.00,19211.00,0.00,2.731,2135,0.008,0.810,0.023,1.867,0.024,15.0
8,18809.00,18809.00,0.00,2.595,2090,0.009,0.840,0.021,1.702,0.023,14.7
9,18122.00,18122.00,0.00,2.821,2012,0.006,0.873,0.024,1.894,0.024,13.6
10,19591.00,19591.00,0.00,2.639,2177,0.006,0.814,0.020,1.771,0.027,15.2
11,19625.00,19625.00,0.00,2.495,2180,0.007,0.773,0.018,1.674,0.024,13.1
12,19499.00,19499.00,0.00,2.501,2166,0.006,0.803,0.021,1.646,0.026,13.6
13,19499.00,19499.00,0.00,2.604,2167,0.006,0.803,0.022,1.748,0.024,13.7
14,19852.00,19852.00,0.00,2.524,2206,0.006,0.773,0.021,1.701,0.024,14.7
15,19412.00,19407.00,5.00,2.498,2157,0.006,0.797,0.020,1.645,0.030,14.1
16,18547.00,18526.00,21.00,2.803,2058,0.007,0.831,0.021,1.917,0.028,14.7
17,19925.00,19878.00,47.00,2.679,2208,0.007,0.778,0.019,1.847,0.028,14.1
18,19833.00,19810.00,23.00,2.583,2200,0.006,0.818,0.022,1.709,0.027,14.6
19,19061.00,19061.00,0.00,2.539,2117,0.006,0.842,0.025,1.637,0.029,15.4
20,19939.00,19939.00,0.00,2.621,2215,0.005,0.860,0.022,1.711,0.023,15.6
21,18928.00,18928.00,0.00,2.647,2103,0.006,0.846,0.022,1.747,0.026,14.1
22,19659.00,19659.00,0.00,2.288,2185,0.007,0.651,0.019,1.584,0.027,14.1
23,18896.00,18896.00,0.00,2.655,2100,0.006,0.824,0.022,1.778,0.024,14.8
24,19011.00,19011.00,0.00,2.652,2113,0.006,0.882,0.025,1.704,0.035,15.8
25,19397.00,19397.00,0.00,2.408,2155,0.007,0.755,0.021,1.600,0.025,14.0
26,19625.00,19625.00,0.00,2.754,2180,0.007,0.874,0.020,1.826,0.027,15.2
27,19697.00,19697.00,0.00,2.278,2188,0.006,0.656,0.020,1.569,0.027,13.8
28,19916.00,19916.00,0.00,2.397,2212,0.006,0.757,0.023,1.584,0.027,14.1
29,19863.00,19863.00,0.00,2.692,2207,0.007,0.923,0.019,1.720,0.024,15.1
30,19051.00,19051.00,0.00,2.509,2116,0.005,0.786,0.020,1.673,0.025,13.5
31,19668.00,19668.00,0.00,2.562,2185,0.006,0.905,0.020,1.604,0.027,15.4
32,19462.00,19462.00,0.00,2.579,2162,0.007,0.787,0.021,1.738,0.025,13.8
33,19021.00,19021.00,0.00,2.333,2113,0.006,0.706,0.022,1.568,0.031,13.0
34,20165.00,20165.00,0.00,2.506,2240,0.006,0.741,0.021,1.713,0.025,13.9
35,19589.00,19589.00,0.00,2.815,2176,0.005,0.795,0.024,1.964,0.027,13.8
36,19527.00,19527.00,0.00,2.509,2170,0.007,0.799,0.019,1.662,0.022,14.0
37,19737.00,19733.00,4.00,2.519,2193,0.006,0.797,0.023,1.668,0.025,14.2
38,19304.00,19295.00,9.00,2.657,2144,0.006,0.761,0.023,1.843,0.025,14.0
39,19006.00,18993.00,13.00,2.690,2111,0.008,0.817,0.027,1.813,0.025,14.8
40,19916.00,19894.00,22.00,2.374,2211,0.006,0.780,0.021,1.540,0.027,14.1
41,19350.00,19339.00,11.00,2.609,2149,0.006,0.782,0.020,1.775,0.025,14.2
42,18888.00,18865.00,23.00,2.557,2096,0.007,0.744,0.020,1.758,0.028,12.8
43,20402.00,20391.00,11.00,2.403,2265,0.005,0.702,0.018,1.654,0.024,13.9
44,19415.00,19412.00,3.00,2.614,2157,0.005,0.789,0.018,1.775,0.027,14.2
45,19074.00,19074.00,0.00,2.426,2119,0.006,0.739,0.018,1.639,0.024,12.7
46,19565.00,19565.00,0.00,2.619,2174,0.006,0.807,0.016,1.770,0.020,13.5
47,19339.00,19339.00,0.00,2.579,2149,0.006,0.840,0.020,1.690,0.023,14.9
48,19170.00,19170.00,0.00,2.474,2130,0.006,0.723,0.020,1.701,0.024,12.7
49,19828.00,19828.00,0.00,2.351,2203,0.007,0.721,0.018,1.581,0.024,13.8
50,20150.00,20150.00,0.00,2.443,2239,0.007,0.752,0.019,1.644,0.021,13.1
51,19156.00,19156.00,0.00,2.458,2129,0.005,0.766,0.019,1.642,0.026,13.4
52,19815.00,19815.00,0.00,2.318,2202,0.007,0.664,0.017,1.605,0.026,13.2
53,20286.00,20286.00,0.00,2.372,2254,0.006,0.699,0.018,1.626,0.023,13.3
54,20210.00,20210.00,0.00,2.400,2246,0.006,0.700,0.017,1.654,0.023,13.1
55,19319.00,19319.00,0.00,2.340,2147,0.006,0.763,0.016,1.527,0.028,13.9
56,19604.00,19604.00,0.00,2.442,2178,0.006,0.705,0.016,1.686,0.028,12.7
57,20213.00,20213.00,0.00,2.367,2246,0.005,0.666,0.020,1.655,0.022,13.3
58,19787.00,19787.00,0.00,2.483,2199,0.007,0.711,0.018,1.724,0.022,13.0
59,20520.00,20520.00,0.00,2.267,2280,0.006,0.683,0.017,1.539,0.022,12.4
60,20247.00,20247.00,0.00,2.613,2250,0.006,0.750,0.015,1.817,0.023,12.8
61,19545.00,19545.00,0.00,2.528,2172,0.006,0.786,0.020,1.692,0.025,13.7
62,19790.00,19790.00,0.00,2.431,2199,0.006,0.640,0.019,1.742,0.025,12.7
63,19640.00,19640.00,0.00,2.672,2183,0.006,0.783,0.020,1.841,0.022,13.7
64,19636.00,19636.00,0.00,2.363,2182,0.006,0.725,0.019,1.592,0.021,13.1
65,19634.00,19634.00,0.00,2.319,2182,0.007,0.716,0.019,1.549,0.027,13.4
66,19710.00,19710.00,0.00,2.652,2190,0.006,0.816,0.021,1.786,0.023,14.1
67,19428.00,19428.00,0.00,2.483,2159,0.006,0.684,0.020,1.745,0.028,12.9
68,19378.00,19378.00,0.00,2.480,2153,0.006,0.679,0.019,1.754,0.023,12.9
69,19378.00,19378.00,0.00,2.703,2153,0.005,0.744,0.018,1.914,0.023,13.7
70,19270.00,19270.00,0.00,2.573,2141,0.006,0.871,0.017,1.653,0.027,15.5
71,19965.00,19965.00,0.00,2.424,2218,0.006,0.759,0.016,1.621,0.021,13.8
72,19973.00,19973.00,0.00,2.530,2219,0.007,0.751,0.019,1.729,0.025,13.8
73,19635.00,19635.00,0.00,2.366,2182,0.006,0.706,0.018,1.611,0.025,12.8
74,10226.00,10226.00,0.00,2.329,1136,0.006,0.708,0.018,1.573,0.024,12.7
