Second,Ops/sec,Hits/sec,Misses/sec,Latency,KB/sec,Request_Creation_Time,Request_Buffer_Time,MW_Writes_To_Memcached_Time,Memcached_Process_Time,MW_Writes_To_Memtier_Time,Queue_Size
4,2209.00,2209.00,0.00,1.834,2321,0.035,0.301,0.048,1.403,0.047,1.8
5,9892.00,9892.00,0.00,1.406,10392,0.008,0.179,0.019,1.181,0.019,1.5
6,12192.00,12192.00,0.00,1.141,12808,0.006,0.206,0.018,0.889,0.022,1.8
7,12148.00,12148.00,0.00,1.134,12762,0.008,0.178,0.015,0.915,0.019,1.6
8,12043.00,12043.00,0.00,1.204,12652,0.007,0.200,0.018,0.961,0.018,1.8
9,11451.00,11443.00,8.00,1.222,12022,0.006,0.214,0.023,0.963,0.017,1.8
10,10807.00,10791.00,16.00,1.265,11336,0.005,0.235,0.015,0.993,0.016,1.8
11,12706.00,12706.00,0.00,1.112,13348,0.004,0.170,0.017,0.904,0.017,1.7
12,12346.00,12346.00,0.00,1.092,12971,0.006,0.178,0.017,0.872,0.017,1.6
13,12036.00,12036.00,0.00,1.164,12645,0.005,0.160,0.017,0.961,0.021,1.5
14,12640.00,12640.00,0.00,1.127,13279,0.004,0.178,0.016,0.913,0.016,1.6
15,11983.00,11983.00,0.00,1.159,12589,0.006,0.157,0.016,0.962,0.018,1.6
16,12467.00,12467.00,0.00,1.038,13097,0.005,0.159,0.016,0.843,0.015,1.6
17,12792.00,12791.00,1.00,1.023,13438,0.004,0.168,0.014,0.819,0.017,1.6
18,12902.00,12896.00,6.00,1.053,13548,0.006,0.184,0.015,0.832,0.017,1.8
19,12678.00,12668.00,10.00,1.016,13309,0.006,0.153,0.017,0.820,0.020,1.6
20,12437.00,12430.00,7.00,1.190,13058,0.005,0.186,0.017,0.964,0.018,1.7
21,12850.00,12850.00,0.00,1.007,13500,0.005,0.178,0.015,0.791,0.018,1.6
22,12648.00,12648.00,0.00,1.109,13288,0.005,0.201,0.016,0.871,0.017,1.7
23,13049.00,13049.00,0.00,1.015,13709,0.004,0.152,0.016,0.826,0.017,1.5
24,12714.00,12714.00,0.00,1.124,13357,0.005,0.189,0.017,0.897,0.017,1.8
25,12264.00,12264.00,0.00,1.119,12884,0.006,0.182,0.016,0.897,0.018,1.7
26,12204.00,12204.00,0.00,1.103,12821,0.005,0.173,0.018,0.891,0.016,1.6
27,12722.00,12722.00,0.00,1.100,13366,0.005,0.179,0.017,0.879,0.019,1.7
28,12610.00,12610.00,0.00,1.059,13248,0.004,0.177,0.017,0.843,0.018,1.6
29,12695.00,12695.00,0.00,1.158,13337,0.004,0.200,0.014,0.918,0.020,1.7
30,11789.00,11789.00,0.00,1.338,12385,0.005,0.181,0.016,1.119,0.016,1.7
31,12507.00,12507.00,0.00,1.157,13139,0.004,0.163,0.017,0.957,0.017,1.6
32,12445.00,12445.00,0.00,1.234,13074,0.006,0.184,0.014,1.014,0.016,1.7
33,12567.00,12567.00,0.00,1.151,13203,0.004,0.176,0.016,0.937,0.017,1.8
34,11703.00,11703.00,0.00,1.186,12295,0.006,0.214,0.014,0.929,0.023,2.0
35,12441.00,12441.00,0.00,1.198,13070,0.004,0.168,0.017,0.992,0.017,1.7
36,12399.00,12399.00,0.00,1.208,13026,0.007,0.221,0.017,0.945,0.019,1.9
37,12589.00,12589.00,0.00,1.093,13226,0.005,0.156,0.015,0.899,0.017,1.6
38,12518.00,12518.00,0.00,1.138,13151,0.005,0.197,0.015,0.905,0.017,1.8
39,12507.00,12507.00,0.00,1.151,13139,0.005,0.190,0.013,0.927,0.016,1.6
40,11891.00,11890.00,1.00,1.221,12491,0.004,0.193,0.016,0.990,0.018,1.8
41,12627.00,12626.00,1.00,1.106,13265,0.007,0.159,0.015,0.908,0.018,1.6
42,12442.00,12438.00,4.00,1.191,13067,0.004,0.178,0.015,0.977,0.017,1.7
43,12668.00,12660.00,8.00,1.130,13300,0.007,0.198,0.016,0.893,0.016,1.9
44,12209.00,12203.00,6.00,1.112,12820,0.005,0.184,0.016,0.891,0.016,1.8
45,11913.00,11906.00,7.00,1.233,12508,0.006,0.186,0.014,1.012,0.016,1.6
46,12623.00,12613.00,10.00,1.056,13251,0.005,0.159,0.015,0.860,0.017,1.7
47,12119.00,12106.00,13.00,1.116,12718,0.005,0.176,0.018,0.900,0.016,1.6
48,12827.00,12820.00,7.00,1.175,13468,0.006,0.214,0.015,0.925,0.016,1.6
49,12094.00,12091.00,3.00,1.107,12702,0.005,0.218,0.015,0.851,0.017,2.0
50,12071.00,12066.00,5.00,1.181,12676,0.005,0.197,0.015,0.945,0.019,1.7
51,12393.00,12388.00,5.00,1.123,13014,0.004,0.162,0.016,0.922,0.017,1.7
52,12344.00,12343.00,1.00,1.096,12967,0.005,0.203,0.014,0.855,0.018,1.8
53,12225.00,12224.00,1.00,1.108,12842,0.005,0.176,0.014,0.896,0.017,1.7
54,12638.00,12638.00,0.00,1.134,13277,0.005,0.199,0.016,0.897,0.017,1.8
55,12171.00,12171.00,0.00,1.255,12786,0.006,0.221,0.016,0.996,0.017,1.9
56,12202.00,12202.00,0.00,1.152,12819,0.007,0.184,0.017,0.927,0.017,1.6
57,12138.00,12138.00,0.00,1.165,12752,0.004,0.159,0.015,0.969,0.017,1.5
58,12439.00,12439.00,0.00,1.148,13068,0.005,0.197,0.020,0.907,0.019,1.9
59,12226.00,12226.00,0.00,1.099,12844,0.006,0.173,0.014,0.892,0.015,1.6
60,12142.00,12142.00,0.00,1.154,12756,0.005,0.177,0.015,0.936,0.020,1.6
61,12611.00,12611.00,0.00,1.076,13249,0.006,0.172,0.018,0.862,0.018,1.7
62,12483.00,12483.00,0.00,1.025,13114,0.006,0.184,0.013,0.803,0.019,1.7
63,12679.00,12679.00,0.00,1.155,13320,0.005,0.175,0.015,0.942,0.018,1.8
64,12477.00,12477.00,0.00,1.160,13108,0.005,0.174,0.014,0.952,0.015,1.7
65,12373.00,12373.00,0.00,1.245,12999,0.005,0.169,0.013,1.042,0.016,1.7
66,12639.00,12639.00,0.00,1.128,13278,0.004,0.172,0.015,0.920,0.016,1.8
67,12359.00,12359.00,0.00,1.142,12984,0.005,0.194,0.015,0.912,0.015,1.9
68,12383.00,12383.00,0.00,1.216,13009,0.005,0.181,0.015,0.997,0.019,1.6
69,12476.00,12476.00,0.00,1.098,13107,0.004,0.182,0.017,0.876,0.018,1.8
70,11700.00,11700.00,0.00,1.327,12292,0.004,0.236,0.016,1.052,0.018,2.1
71,12408.00,12408.00,0.00,1.136,13035,0.005,0.222,0.016,0.875,0.018,1.9
72,12603.00,12603.00,0.00,1.140,13240,0.006,0.157,0.015,0.941,0.022,1.7
73,12617.00,12617.00,0.00,1.099,13255,0.007,0.186,0.015,0.874,0.017,1.7
74,8799.00,8799.00,0.00,1.158,9244,0.006,0.204,0.017,0.915,0.016,1.8
