Second,Ops/sec,Hits/sec,Misses/sec,Latency,KB/sec,Request_Creation_Time,Request_Buffer_Time,MW_Writes_To_Memcached_Time,Memcached_Process_Time,MW_Writes_To_Memtier_Time,Queue_Size
4,4863.00,4863.00,0.00,2.151,1457,0.026,0.666,0.059,1.345,0.056,7.6
5,14321.00,14321.00,0.00,1.817,4291,0.011,0.492,0.024,1.266,0.024,5.9
6,15846.00,15846.00,0.00,1.592,4748,0.009,0.345,0.020,1.192,0.026,5.1
7,15574.00,15574.00,0.00,1.710,4665,0.006,0.386,0.019,1.277,0.022,5.3
8,15721.00,15721.00,0.00,1.708,4710,0.008,0.366,0.022,1.292,0.020,5.2
9,15080.00,15080.00,0.00,1.819,4518,0.007,0.315,0.018,1.461,0.019,4.2
10,15095.00,15095.00,0.00,1.812,4523,0.006,0.369,0.020,1.395,0.023,4.7
11,16321.00,16317.00,4.00,1.588,4889,0.007,0.398,0.021,1.135,0.027,5.9
12,15496.00,15462.00,34.00,1.782,4632,0.007,0.402,0.018,1.334,0.022,5.1
13,16161.00,16151.00,10.00,1.641,4838,0.006,0.338,0.017,1.257,0.023,4.9
14,15478.00,15478.00,0.00,1.742,4637,0.008,0.442,0.018,1.255,0.020,5.9
15,14429.00,14429.00,0.00,1.701,4323,0.007,0.463,0.017,1.193,0.021,5.8
16,15429.00,15429.00,0.00,1.675,4623,0.006,0.401,0.020,1.227,0.022,5.6
17,15715.00,15715.00,0.00,1.572,4708,0.006,0.391,0.022,1.131,0.023,6.1
18,14938.00,14938.00,0.00,1.625,4475,0.009,0.387,0.017,1.190,0.022,5.7
19,14340.00,14340.00,0.00,1.892,4296,0.007,0.385,0.022,1.454,0.024,5.9
20,15567.00,15567.00,0.00,1.616,4663,0.006,0.415,0.022,1.150,0.023,5.7
21,15705.00,15705.00,0.00,1.717,4705,0.005,0.401,0.019,1.268,0.024,5.7
22,15134.00,15134.00,0.00,1.743,4534,0.005,0.418,0.017,1.280,0.022,5.4
23,15435.00,15435.00,0.00,1.672,4624,0.005,0.406,0.018,1.221,0.022,5.7
24,15402.00,15402.00,0.00,1.780,4614,0.006,0.378,0.017,1.360,0.019,5.2
25,15225.00,15221.00,4.00,1.732,4560,0.006,0.426,0.019,1.260,0.021,5.7
26,15695.00,15688.00,7.00,1.776,4700,0.007,0.406,0.022,1.315,0.025,5.5
27,15494.00,15474.00,20.00,1.689,4636,0.008,0.426,0.017,1.215,0.023,6.3
28,15064.00,15055.00,9.00,1.724,4510,0.006,0.427,0.019,1.248,0.024,5.6
29,15186.00,15178.00,8.00,1.860,4547,0.007,0.400,0.021,1.412,0.021,5.5
30,15929.00,15929.00,0.00,1.636,4772,0.008,0.372,0.020,1.214,0.022,5.5
31,15376.00,15376.00,0.00,1.671,4607,0.005,0.386,0.018,1.239,0.022,5.1
32,15669.00,15669.00,0.00,1.757,4694,0.005,0.358,0.021,1.353,0.021,5.3
33,15739.00,15739.00,0.00,1.642,4715,0.006,0.400,0.022,1.190,0.023,5.8
34,15483.00,15483.00,0.00,1.756,4639,0.006,0.375,0.019,1.334,0.022,5.3
35,15763.00,15763.00,0.00,1.658,4723,0.006,0.409,0.018,1.204,0.022,5.7
36,15127.00,15127.00,0.00,1.701,4532,0.006,0.459,0.023,1.190,0.022,5.7
37,15734.00,15734.00,0.00,1.664,4714,0.007,0.399,0.019,1.216,0.023,5.6
38,16259.00,16259.00,0.00,1.752,4871,0.005,0.369,0.017,1.340,0.021,5.7
39,15645.00,15645.00,0.00,1.664,4687,0.006,0.366,0.025,1.243,0.025,5.3
40,15067.00,15067.00,0.00,1.777,4514,0.005,0.424,0.020,1.306,0.022,5.0
41,15300.00,15300.00,0.00,1.758,4584,0.005,0.375,0.019,1.334,0.025,5.3
42,15716.00,15716.00,0.00,1.615,4709,0.007,0.380,0.016,1.191,0.020,5.3
43,15436.00,15436.00,0.00,1.769,4624,0.006,0.391,0.017,1.333,0.021,5.4
44,15085.00,15085.00,0.00,1.849,4519,0.007,0.415,0.020,1.388,0.019,5.4
45,15432.00,15432.00,0.00,1.670,4623,0.007,0.401,0.018,1.222,0.022,5.5
46,15429.00,15429.00,0.00,1.747,4622,0.006,0.391,0.018,1.313,0.019,5.4
47,15261.00,15261.00,0.00,1.802,4572,0.005,0.367,0.019,1.388,0.023,5.2
48,14927.00,14927.00,0.00,1.816,4472,0.005,0.388,0.018,1.380,0.025,5.5
49,15514.00,15514.00,0.00,1.660,4648,0.007,0.376,0.016,1.237,0.024,5.4
50,15239.00,15239.00,0.00,1.670,4566,0.005,0.333,0.017,1.291,0.024,4.7
51,15442.00,15442.00,0.00,1.555,4626,0.007,0.347,0.016,1.159,0.027,5.0
52,15524.00,15524.00,0.00,1.707,4651,0.007,0.361,0.018,1.296,0.025,5.0
53,15595.00,15595.00,0.00,1.738,4672,0.008,0.363,0.016,1.326,0.026,5.2
54,15799.00,15799.00,0.00,1.617,4733,0.006,0.394,0.020,1.171,0.025,5.3
55,15153.00,15153.00,0.00,1.683,4540,0.008,0.377,0.017,1.258,0.022,4.8
56,15641.00,15641.00,0.00,1.604,4686,0.005,0.345,0.020,1.211,0.023,4.8
57,16005.00,16005.00,0.00,1.617,4795,0.008,0.377,0.020,1.190,0.022,5.2
58,15978.00,15978.00,0.00,1.546,4787,0.007,0.352,0.017,1.150,0.020,4.8
59,15448.00,15448.00,0.00,1.803,4628,0.007,0.362,0.019,1.392,0.023,4.9
60,15941.00,15940.00,1.00,1.589,4775,0.006,0.384,0.016,1.162,0.020,5.1
61,15354.00,15353.00,1.00,1.626,4600,0.007,0.371,0.018,1.208,0.023,4.8
62,15860.00,15858.00,2.00,1.723,4751,0.006,0.329,0.016,1.349,0.023,4.8
63,15879.00,15877.00,2.00,1.661,4757,0.007,0.350,0.018,1.260,0.025,5.1
64,16213.00,16211.00,2.00,1.589,4857,0.005,0.327,0.019,1.217,0.021,5.4
65,16029.00,16021.00,8.00,1.673,4800,0.006,0.366,0.020,1.257,0.023,5.3
66,16151.00,16142.00,9.00,1.801,4836,0.007,0.428,0.016,1.328,0.022,5.3
67,15762.00,15753.00,9.00,1.635,4720,0.006,0.375,0.019,1.215,0.020,4.8
68,15826.00,15814.00,12.00,1.613,4738,0.007,0.377,0.020,1.188,0.021,5.2
69,15283.00,15272.00,11.00,1.837,4575,0.006,0.348,0.017,1.446,0.021,4.7
70,16315.00,16308.00,7.00,1.480,4886,0.005,0.304,0.018,1.128,0.025,4.9
71,16134.00,16121.00,13.00,1.606,4830,0.006,0.353,0.019,1.204,0.023,5.3
72,15667.00,15649.00,18.00,1.758,4688,0.007,0.357,0.019,1.355,0.020,4.9
73,16121.00,16112.00,9.00,1.611,4827,0.006,0.363,0.016,1.204,0.021,5.1
74,8158.00,8147.00,11.00,1.961,2441,0.006,0.458,0.016,1.463,0.018,5.2
