Second,Ops/sec,Hits/sec,Misses/sec,Latency,KB/sec,Request_Creation_Time,Request_Buffer_Time,MW_Writes_To_Memcached_Time,Memcached_Process_Time,MW_Writes_To_Memtier_Time,Queue_Size
4,4025.00,4025.00,0.00,2.819,1206,0.024,0.825,0.050,1.863,0.057,7.2
5,14209.00,14209.00,0.00,1.831,4257,0.008,0.424,0.023,1.349,0.028,5.2
6,15931.00,15931.00,0.00,1.685,4773,0.009,0.409,0.019,1.224,0.024,5.1
7,15208.00,15208.00,0.00,1.732,4556,0.008,0.435,0.016,1.250,0.023,5.4
8,16451.00,16451.00,0.00,1.600,4928,0.007,0.379,0.016,1.174,0.024,5.6
9,14486.00,14486.00,0.00,1.855,4340,0.006,0.433,0.021,1.374,0.021,5.2
10,15194.00,15194.00,0.00,1.729,4552,0.005,0.361,0.017,1.325,0.021,5.0
11,15929.00,15927.00,2.00,1.727,4772,0.006,0.421,0.019,1.257,0.024,5.4
12,15247.00,15210.00,37.00,1.964,4556,0.005,0.392,0.022,1.515,0.029,4.8
13,15769.00,15760.00,9.00,1.676,4721,0.006,0.386,0.017,1.245,0.022,5.0
14,16913.00,16913.00,0.00,1.613,5067,0.006,0.324,0.019,1.243,0.021,4.8
15,16180.00,16180.00,0.00,1.775,4847,0.006,0.337,0.019,1.389,0.024,5.0
16,16333.00,16333.00,0.00,1.571,4894,0.006,0.336,0.020,1.186,0.024,5.0
17,15935.00,15935.00,0.00,1.631,4774,0.005,0.411,0.020,1.173,0.023,5.5
18,15366.00,15366.00,0.00,1.724,4603,0.006,0.369,0.017,1.310,0.021,5.2
19,15052.00,15052.00,0.00,1.753,4509,0.004,0.446,0.020,1.261,0.022,5.8
20,14892.00,14892.00,0.00,1.898,4461,0.005,0.456,0.019,1.398,0.020,5.6
21,15708.00,15708.00,0.00,1.733,4706,0.007,0.411,0.018,1.277,0.021,5.4
22,15252.00,15252.00,0.00,1.638,4569,0.005,0.432,0.018,1.160,0.023,5.7
23,15251.00,15251.00,0.00,1.726,4569,0.005,0.376,0.018,1.307,0.020,5.7
24,15747.00,15747.00,0.00,1.737,4717,0.006,0.381,0.019,1.311,0.020,5.4
25,15561.00,15556.00,5.00,1.584,4661,0.007,0.362,0.015,1.181,0.019,5.2
26,15824.00,15812.00,12.00,1.636,4738,0.005,0.354,0.016,1.240,0.021,5.3
27,15407.00,15397.00,10.00,1.823,4613,0.006,0.458,0.018,1.319,0.023,5.9
28,15527.00,15509.00,18.00,1.689,4646,0.007,0.385,0.021,1.253,0.024,5.3
29,15462.00,15459.00,3.00,1.761,4631,0.006,0.396,0.021,1.318,0.020,5.5
30,15817.00,15817.00,0.00,1.659,4739,0.006,0.362,0.018,1.253,0.020,5.0
31,15449.00,15449.00,0.00,1.761,4628,0.005,0.381,0.018,1.336,0.021,5.2
32,15054.00,15054.00,0.00,1.637,4510,0.006,0.380,0.019,1.206,0.026,4.9
33,16134.00,16134.00,0.00,1.688,4834,0.005,0.356,0.018,1.285,0.025,5.2
34,15967.00,15967.00,0.00,1.747,4784,0.006,0.364,0.018,1.338,0.019,5.3
35,15503.00,15503.00,0.00,1.724,4645,0.006,0.376,0.020,1.300,0.022,5.0
36,15894.00,15894.00,0.00,1.613,4762,0.006,0.383,0.024,1.175,0.025,5.3
37,16385.00,16385.00,0.00,1.607,4909,0.006,0.350,0.018,1.209,0.024,5.0
38,15666.00,15666.00,0.00,1.744,4694,0.006,0.378,0.019,1.321,0.021,5.1
39,15709.00,15709.00,0.00,1.757,4706,0.007,0.328,0.018,1.381,0.024,4.8
40,15755.00,15755.00,0.00,1.633,4720,0.005,0.337,0.016,1.249,0.026,4.8
41,16187.00,16187.00,0.00,1.579,4850,0.005,0.342,0.018,1.193,0.020,4.8
42,16276.00,16276.00,0.00,1.635,4876,0.007,0.388,0.018,1.198,0.024,5.2
43,16371.00,16371.00,0.00,1.728,4905,0.006,0.370,0.020,1.308,0.023,4.9
44,15853.00,15853.00,0.00,1.667,4749,0.006,0.378,0.016,1.245,0.022,4.9
45,16051.00,16051.00,0.00,1.545,4809,0.006,0.309,0.017,1.192,0.021,4.8
46,16780.00,16780.00,0.00,1.629,5027,0.006,0.321,0.021,1.260,0.022,4.8
47,16074.00,16074.00,0.00,1.668,4816,0.006,0.379,0.016,1.248,0.021,5.0
48,16608.00,16608.00,0.00,1.597,4976,0.007,0.395,0.022,1.153,0.021,5.4
49,16119.00,16119.00,0.00,1.653,4829,0.005,0.408,0.016,1.202,0.022,5.1
50,15812.00,15812.00,0.00,1.678,4737,0.005,0.396,0.018,1.236,0.023,5.1
51,15959.00,15959.00,0.00,1.556,4781,0.006,0.359,0.018,1.149,0.024,4.7
52,16253.00,16253.00,0.00,1.699,4869,0.007,0.337,0.023,1.309,0.023,4.8
53,16084.00,16084.00,0.00,1.698,4818,0.005,0.349,0.017,1.304,0.024,5.1
54,16487.00,16487.00,0.00,1.649,4939,0.006,0.369,0.017,1.233,0.023,5.2
55,16146.00,16146.00,0.00,1.784,4837,0.006,0.375,0.017,1.366,0.021,5.0
56,15798.00,15798.00,0.00,1.766,4733,0.005,0.313,0.017,1.413,0.018,4.5
57,16354.00,16354.00,0.00,1.550,4899,0.005,0.344,0.018,1.164,0.020,4.9
58,16196.00,16196.00,0.00,1.706,4852,0.006,0.350,0.015,1.312,0.022,4.9
59,15763.00,15763.00,0.00,1.634,4722,0.005,0.359,0.017,1.228,0.024,4.9
60,16104.00,16101.00,3.00,1.661,4824,0.005,0.321,0.017,1.294,0.023,4.7
61,15802.00,15801.00,1.00,1.759,4734,0.004,0.406,0.017,1.311,0.021,5.3
62,16017.00,16015.00,2.00,1.654,4798,0.006,0.386,0.020,1.222,0.020,5.1
63,15971.00,15968.00,3.00,1.685,4784,0.005,0.388,0.018,1.252,0.021,5.1
64,16144.00,16136.00,8.00,1.740,4834,0.006,0.374,0.017,1.321,0.023,5.3
65,15974.00,15965.00,9.00,1.696,4783,0.006,0.337,0.017,1.315,0.021,5.1
66,16004.00,15994.00,10.00,1.736,4792,0.006,0.403,0.017,1.289,0.021,5.1
67,16294.00,16286.00,8.00,1.762,4879,0.006,0.413,0.021,1.302,0.020,5.3
68,16277.00,16261.00,16.00,1.686,4872,0.005,0.324,0.017,1.319,0.021,4.9
69,15185.00,15175.00,10.00,1.705,4546,0.005,0.341,0.015,1.323,0.021,4.5
70,15442.00,15431.00,11.00,1.753,4623,0.006,0.369,0.020,1.338,0.021,5.1
71,15669.00,15658.00,11.00,1.602,4691,0.007,0.394,0.016,1.164,0.022,5.3
72,15943.00,15931.00,12.00,1.672,4773,0.005,0.360,0.020,1.265,0.022,4.7
73,16037.00,16024.00,13.00,1.733,4801,0.006,0.394,0.019,1.290,0.023,5.0
74,9173.00,9171.00,2.00,1.670,2747,0.005,0.348,0.020,1.272,0.025,5.1
