Second,Ops/sec,Hits/sec,Misses/sec,Latency,KB/sec,Request_Creation_Time,Request_Buffer_Time,MW_Writes_To_Memcached_Time,Memcached_Process_Time,MW_Writes_To_Memtier_Time,Queue_Size
4,5358.00,5358.00,0.00,3.091,5630,0.022,1.134,0.064,1.797,0.074,17.0
5,15428.00,15428.00,0.00,3.829,16209,0.008,1.303,0.020,2.476,0.022,15.1
6,15449.00,15449.00,0.00,5.165,16230,0.008,1.488,0.015,3.634,0.020,14.9
7,15178.00,15178.00,0.00,5.021,15946,0.007,1.403,0.018,3.571,0.021,15.4
8,15247.00,15247.00,0.00,5.320,16018,0.006,1.676,0.015,3.606,0.017,17.3
9,15488.00,15488.00,0.00,5.294,16271,0.006,1.650,0.015,3.604,0.018,17.9
10,15238.00,15238.00,0.00,5.196,16007,0.006,1.551,0.015,3.607,0.017,16.2
11,15495.00,15495.00,0.00,5.215,16278,0.005,1.596,0.017,3.577,0.020,17.2
12,15746.00,15746.00,0.00,5.014,16542,0.007,1.502,0.015,3.469,0.020,15.9
13,15122.00,15122.00,0.00,5.328,15886,0.006,1.522,0.017,3.765,0.019,14.0
14,15239.00,15239.00,0.00,5.315,16010,0.005,1.520,0.015,3.758,0.017,14.9
15,14749.00,14749.00,0.00,5.528,15495,0.005,1.686,0.016,3.802,0.019,16.8
16,14824.00,14824.00,0.00,5.398,15574,0.005,1.580,0.016,3.780,0.017,16.2
17,15012.00,15012.00,0.00,5.018,15771,0.005,1.520,0.015,3.459,0.018,15.7
18,14890.00,14890.00,0.00,5.358,15643,0.005,1.608,0.018,3.708,0.019,17.5
19,13860.00,13842.00,18.00,5.294,14542,0.005,1.651,0.019,3.598,0.021,17.1
20,14402.00,14364.00,38.00,5.210,15090,0.005,1.578,0.017,3.589,0.021,17.5
21,14550.00,14515.00,35.00,5.506,15248,0.005,1.711,0.018,3.748,0.023,16.8
22,15234.00,15229.00,5.00,5.276,15998,0.005,1.639,0.016,3.599,0.018,18.8
23,15528.00,15528.00,0.00,5.183,16312,0.005,1.569,0.015,3.575,0.019,18.1
24,15573.00,15573.00,0.00,5.171,16360,0.005,1.565,0.018,3.562,0.021,17.3
25,15357.00,15357.00,0.00,5.420,16133,0.004,1.698,0.016,3.683,0.019,18.4
26,15499.00,15499.00,0.00,5.285,16283,0.005,1.626,0.015,3.620,0.018,18.6
27,15135.00,15135.00,0.00,5.430,15900,0.004,1.646,0.017,3.740,0.022,17.8
28,15418.00,15418.00,0.00,5.317,16198,0.006,1.651,0.016,3.625,0.019,18.5
29,15383.00,15383.00,0.00,5.162,16162,0.005,1.579,0.016,3.544,0.018,18.6
30,15128.00,15128.00,0.00,5.249,15893,0.006,1.631,0.017,3.574,0.021,17.9
31,15413.00,15413.00,0.00,5.115,16192,0.005,1.528,0.019,3.544,0.020,17.9
32,15355.00,15355.00,0.00,5.279,16131,0.005,1.631,0.015,3.609,0.020,18.0
33,15254.00,15254.00,0.00,5.377,16025,0.005,1.690,0.018,3.646,0.018,18.2
34,15663.00,15663.00,0.00,4.979,16455,0.006,1.437,0.018,3.496,0.022,16.6
35,15142.00,15142.00,0.00,5.352,15907,0.005,1.549,0.017,3.762,0.019,15.2
36,14844.00,14844.00,0.00,5.319,15594,0.006,1.532,0.019,3.741,0.022,16.3
37,14920.00,14920.00,0.00,5.382,15674,0.005,1.556,0.017,3.782,0.021,15.7
38,14907.00,14907.00,0.00,5.389,15660,0.007,1.539,0.015,3.809,0.019,14.7
39,15105.00,15105.00,0.00,5.388,15869,0.005,1.595,0.016,3.751,0.020,16.3
40,15021.00,15021.00,0.00,5.362,15781,0.006,1.624,0.017,3.698,0.019,18.9
41,15538.00,15538.00,0.00,5.216,16324,0.005,1.576,0.015,3.604,0.017,16.7
42,15028.00,15028.00,0.00,5.433,15788,0.005,1.667,0.016,3.727,0.017,17.4
43,15226.00,15226.00,0.00,5.372,15996,0.005,1.668,0.014,3.666,0.020,18.5
44,15209.00,15209.00,0.00,5.286,15978,0.005,1.626,0.017,3.617,0.021,18.3
45,15464.00,15464.00,0.00,5.337,16246,0.005,1.668,0.016,3.632,0.017,17.9
46,15387.00,15387.00,0.00,5.255,16165,0.005,1.601,0.015,3.615,0.018,17.1
47,15472.00,15470.00,2.00,5.129,16253,0.005,1.574,0.014,3.517,0.017,17.5
48,15618.00,15606.00,12.00,5.305,16396,0.005,1.612,0.014,3.654,0.020,18.4
49,14780.00,14761.00,19.00,5.560,15508,0.005,1.705,0.014,3.816,0.019,18.3
50,15420.00,15406.00,14.00,5.254,16185,0.005,1.633,0.014,3.585,0.017,18.0
51,15568.00,15547.00,21.00,5.204,16333,0.004,1.539,0.014,3.628,0.019,16.1
52,15555.00,15544.00,11.00,5.238,16330,0.005,1.567,0.014,3.635,0.017,16.1
53,15672.00,15663.00,9.00,5.154,16455,0.005,1.507,0.013,3.613,0.017,17.0
54,15716.00,15712.00,4.00,5.142,16506,0.005,1.483,0.014,3.624,0.017,16.6
55,15724.00,15720.00,4.00,5.322,16515,0.004,1.661,0.013,3.625,0.018,15.0
56,15897.00,15897.00,0.00,5.105,16701,0.005,1.597,0.016,3.470,0.017,15.2
57,15516.00,15516.00,0.00,5.210,16301,0.004,1.611,0.013,3.566,0.016,16.9
58,15821.00,15821.00,0.00,5.136,16621,0.004,1.643,0.014,3.457,0.018,15.5
59,15785.00,15785.00,0.00,5.099,16583,0.005,1.557,0.015,3.505,0.016,14.6
60,16428.00,16428.00,0.00,4.741,17259,0.005,1.451,0.015,3.252,0.018,14.9
61,15959.00,15959.00,0.00,4.905,16766,0.005,1.432,0.014,3.437,0.018,15.4
62,15712.00,15712.00,0.00,4.965,16507,0.004,1.468,0.018,3.453,0.022,14.3
63,16015.00,16015.00,0.00,4.849,16825,0.005,1.358,0.014,3.451,0.020,13.7
64,15468.00,15468.00,0.00,5.156,16250,0.005,1.592,0.013,3.526,0.020,15.0
65,16269.00,16269.00,0.00,4.892,17092,0.005,1.457,0.013,3.400,0.018,14.3
66,16248.00,16248.00,0.00,4.796,17070,0.005,1.381,0.016,3.375,0.018,14.3
67,16050.00,16050.00,0.00,5.102,16862,0.004,1.564,0.015,3.501,0.017,14.3
68,15630.00,15630.00,0.00,5.138,16420,0.005,1.596,0.017,3.501,0.019,15.6
69,15837.00,15837.00,0.00,5.230,16638,0.005,1.572,0.015,3.622,0.017,16.4
70,15680.00,15680.00,0.00,5.253,16473,0.005,1.570,0.014,3.643,0.021,16.2
71,15690.00,15690.00,0.00,4.957,16484,0.006,1.476,0.015,3.442,0.019,16.3
72,15571.00,15571.00,0.00,5.094,16359,0.005,1.532,0.015,3.522,0.020,17.3
73,15310.00,15310.00,0.00,5.317,16084,0.006,1.628,0.016,3.649,0.019,16.9
74,11379.00,11379.00,0.00,4.101,11955,0.005,1.224,0.015,2.838,0.019,13.2
75,3363.00,3363.00,0.00,0.775,3533,0.008,0.094,0.015,0.643,0.015,0.3
