Second,Ops/sec,Hits/sec,Misses/sec,Latency,KB/sec,Request_Creation_Time,Request_Buffer_Time,MW_Writes_To_Memcached_Time,Memcached_Process_Time,MW_Writes_To_Memtier_Time,Queue_Size
4,2144.00,2144.00,0.00,4.893,2253,0.013,3.869,0.016,0.959,0.036,31.2
5,9651.00,9651.00,0.00,4.096,10140,0.005,3.263,0.011,0.799,0.018,31.6
6,11610.00,11610.00,0.00,3.609,12197,0.005,2.920,0.007,0.662,0.015,33.9
7,10846.00,10846.00,0.00,3.861,11395,0.004,3.122,0.008,0.711,0.015,33.2
8,11549.00,11549.00,0.00,3.667,12133,0.004,2.974,0.007,0.667,0.015,34.1
9,11678.00,11678.00,0.00,3.530,12268,0.004,2.844,0.007,0.660,0.015,33.0
10,10512.00,10512.00,0.00,3.938,11044,0.004,3.175,0.007,0.736,0.016,33.1
11,9287.00,9287.00,0.00,4.302,9756,0.004,3.439,0.007,0.837,0.015,32.4
12,11280.00,11280.00,0.00,3.709,11851,0.003,3.000,0.007,0.684,0.015,33.8
13,11729.00,11729.00,0.00,3.599,12323,0.003,2.915,0.007,0.659,0.015,34.0
14,13022.00,13022.00,0.00,3.085,13681,0.003,2.468,0.007,0.593,0.015,32.4
15,10560.00,10518.00,42.00,3.953,11050,0.005,3.196,0.008,0.729,0.016,33.8
16,11429.00,11423.00,6.00,3.688,12000,0.003,2.989,0.008,0.672,0.016,34.3
17,12256.00,12256.00,0.00,3.332,12875,0.004,2.680,0.008,0.625,0.016,33.1
18,12598.00,12598.00,0.00,3.220,13235,0.004,2.586,0.008,0.606,0.016,32.7
19,11774.00,11774.00,0.00,3.505,12369,0.003,2.825,0.008,0.652,0.016,33.2
20,11264.00,11264.00,0.00,3.760,11834,0.004,3.050,0.008,0.682,0.016,34.4
21,11773.00,11773.00,0.00,3.499,12369,0.004,2.820,0.008,0.651,0.016,33.0
22,11953.00,11953.00,0.00,3.465,12558,0.003,2.795,0.007,0.644,0.015,33.7
23,12079.00,12079.00,0.00,3.380,12689,0.004,2.717,0.007,0.638,0.015,32.9
24,11971.00,11971.00,0.00,3.441,12576,0.004,2.774,0.007,0.642,0.015,33.6
25,13050.00,13050.00,0.00,3.099,13710,0.004,2.486,0.008,0.586,0.015,32.9
26,10875.00,10875.00,0.00,3.868,11424,0.004,3.133,0.007,0.707,0.016,34.1
27,12306.00,12306.00,0.00,3.361,12928,0.003,2.710,0.007,0.626,0.015,33.6
28,11982.00,11982.00,0.00,3.468,12588,0.003,2.799,0.007,0.643,0.015,33.7
29,11763.00,11763.00,0.00,3.453,12358,0.004,2.773,0.007,0.655,0.015,32.6
30,12314.00,12314.00,0.00,3.310,12936,0.003,2.661,0.007,0.623,0.016,33.2
31,12408.00,12408.00,0.00,3.363,13035,0.003,2.718,0.007,0.620,0.015,34.0
32,11805.00,11805.00,0.00,3.487,12402,0.004,2.806,0.008,0.655,0.015,32.9
33,12017.00,12017.00,0.00,3.461,12625,0.004,2.793,0.007,0.643,0.015,33.6
34,12120.00,12098.00,22.00,3.347,12710,0.004,2.686,0.007,0.635,0.015,32.8
35,11922.00,11896.00,26.00,3.442,12497,0.003,2.771,0.007,0.647,0.015,32.8
36,11475.00,11475.00,0.00,3.669,12055,0.003,2.970,0.007,0.674,0.015,33.8
37,11503.00,11503.00,0.00,3.677,12085,0.004,2.979,0.007,0.673,0.015,34.1
38,11610.00,11610.00,0.00,3.569,12197,0.005,2.880,0.007,0.662,0.016,33.6
39,11878.00,11878.00,0.00,3.483,12479,0.003,2.807,0.007,0.651,0.015,33.3
40,12383.00,12383.00,0.00,3.331,13009,0.004,2.682,0.007,0.624,0.015,33.4
41,12020.00,12020.00,0.00,3.392,12628,0.004,2.727,0.007,0.639,0.016,32.8
42,11979.00,11979.00,0.00,3.472,12585,0.004,2.801,0.007,0.645,0.015,33.6
43,12610.00,12610.00,0.00,3.271,13248,0.004,2.637,0.006,0.609,0.015,33.5
44,12037.00,12037.00,0.00,3.442,12646,0.003,2.775,0.007,0.642,0.015,33.2
45,12962.00,12962.00,0.00,3.095,13618,0.004,2.477,0.007,0.592,0.015,32.1
46,12257.00,12257.00,0.00,3.427,12877,0.003,2.772,0.007,0.629,0.016,33.8
47,11657.00,11657.00,0.00,3.502,12247,0.004,2.819,0.007,0.658,0.015,32.8
48,12153.00,12153.00,0.00,3.380,12767,0.003,2.722,0.007,0.633,0.015,33.5
49,11793.00,11793.00,0.00,3.581,12389,0.003,2.900,0.007,0.655,0.015,34.0
50,11662.00,11662.00,0.00,3.568,12252,0.004,2.879,0.007,0.664,0.015,33.5
51,12101.00,12101.00,0.00,3.494,12713,0.003,2.831,0.007,0.638,0.015,34.4
52,11613.00,11613.00,0.00,3.578,12201,0.004,2.888,0.007,0.665,0.015,33.5
53,12336.00,12336.00,0.00,3.305,12960,0.004,2.655,0.006,0.626,0.014,32.9
54,12276.00,12276.00,0.00,3.394,12897,0.004,2.739,0.007,0.630,0.015,33.6
55,11263.00,11263.00,0.00,3.575,11832,0.003,2.867,0.007,0.683,0.015,32.1
56,11460.00,11460.00,0.00,3.591,12039,0.004,2.890,0.007,0.676,0.015,33.1
57,12260.00,12260.00,0.00,3.368,12880,0.003,2.713,0.006,0.630,0.015,33.3
58,12296.00,12296.00,0.00,3.336,12918,0.004,2.683,0.007,0.628,0.015,33.1
59,11888.00,11888.00,0.00,3.471,12489,0.003,2.796,0.007,0.649,0.015,33.3
60,12619.00,12619.00,0.00,3.229,13257,0.004,2.594,0.007,0.609,0.015,33.1
61,12426.00,12426.00,0.00,3.361,13054,0.003,2.713,0.007,0.623,0.015,33.7
62,12888.00,12888.00,0.00,3.149,13540,0.003,2.526,0.006,0.599,0.014,32.7
63,12439.00,12439.00,0.00,3.356,13068,0.004,2.710,0.007,0.620,0.015,33.8
64,11738.00,11738.00,0.00,3.564,12332,0.004,2.878,0.007,0.660,0.015,33.6
65,11918.00,11918.00,0.00,3.465,12521,0.003,2.794,0.007,0.647,0.015,33.3
66,12733.00,12733.00,0.00,3.146,13377,0.004,2.515,0.007,0.605,0.015,32.2
67,12938.00,12938.00,0.00,3.135,13592,0.004,2.513,0.007,0.597,0.015,32.7
68,12503.00,12503.00,0.00,3.299,13135,0.003,2.657,0.006,0.617,0.015,33.4
69,12470.00,12470.00,0.00,3.252,13101,0.004,2.610,0.007,0.617,0.015,32.5
70,12282.00,12282.00,0.00,3.327,12903,0.003,2.674,0.007,0.627,0.017,32.7
71,13382.00,13382.00,0.00,2.985,14059,0.004,2.387,0.007,0.573,0.015,32.2
72,12375.00,12375.00,0.00,3.353,13001,0.003,2.703,0.007,0.625,0.015,33.5
73,11971.00,11971.00,0.00,3.415,12576,0.003,2.745,0.007,0.644,0.015,32.6
74,8883.00,8883.00,0.00,3.295,9332,0.004,2.642,0.007,0.628,0.014,32.2
