Second,Ops/sec,Hits/sec,Misses/sec,Latency,KB/sec,Request_Creation_Time,Request_Buffer_Time,MW_Writes_To_Memcached_Time,Memcached_Process_Time,MW_Writes_To_Memtier_Time,Queue_Size
4,2190.00,2190.00,0.00,1.875,244,0.018,0.939,0.026,0.850,0.042,8.2
5,11167.00,11167.00,0.00,1.477,1241,0.006,0.767,0.008,0.682,0.015,8.8
6,11712.00,11712.00,0.00,1.513,1301,0.006,0.838,0.007,0.647,0.015,9.8
7,12545.00,12545.00,0.00,1.421,1394,0.005,0.788,0.007,0.606,0.014,10.2
8,11909.00,11909.00,0.00,1.490,1324,0.004,0.821,0.008,0.643,0.014,9.9
9,11657.00,11642.00,15.00,1.568,1294,0.004,0.885,0.008,0.657,0.015,9.9
10,10471.00,10462.00,9.00,1.612,1162,0.005,0.858,0.008,0.728,0.014,9.3
11,10785.00,10785.00,0.00,1.435,1198,0.004,0.705,0.007,0.703,0.015,8.0
12,12370.00,12370.00,0.00,1.436,1375,0.004,0.790,0.007,0.622,0.014,9.8
13,12010.00,12010.00,0.00,1.461,1334,0.004,0.801,0.007,0.636,0.014,9.8
14,11517.00,11517.00,0.00,1.596,1280,0.004,0.903,0.007,0.667,0.014,10.2
15,10888.00,10888.00,0.00,1.684,1209,0.004,0.952,0.007,0.707,0.014,10.2
16,12429.00,12429.00,0.00,1.407,1381,0.003,0.774,0.007,0.609,0.014,9.8
17,12967.00,12967.00,0.00,1.336,1440,0.003,0.725,0.007,0.587,0.014,9.6
18,12819.00,12819.00,0.00,1.307,1425,0.004,0.699,0.007,0.583,0.014,9.0
19,12904.00,12884.00,20.00,1.384,1432,0.004,0.766,0.007,0.594,0.014,9.8
20,12529.00,12525.00,4.00,1.410,1391,0.004,0.777,0.007,0.609,0.014,9.7
21,11793.00,11793.00,0.00,1.552,1311,0.004,0.872,0.006,0.656,0.014,10.3
22,11839.00,11839.00,0.00,1.525,1315,0.003,0.850,0.007,0.650,0.015,10.2
23,12013.00,12013.00,0.00,1.484,1335,0.003,0.820,0.007,0.639,0.015,9.7
24,11404.00,11404.00,0.00,1.601,1267,0.004,0.906,0.007,0.669,0.015,10.2
25,11692.00,11692.00,0.00,1.549,1300,0.003,0.868,0.007,0.657,0.014,10.0
26,12359.00,12359.00,0.00,1.433,1373,0.003,0.792,0.007,0.616,0.015,9.9
27,12289.00,12289.00,0.00,1.446,1366,0.003,0.797,0.007,0.625,0.014,9.8
28,12022.00,12022.00,0.00,1.496,1336,0.003,0.833,0.007,0.638,0.014,10.1
29,12020.00,12020.00,0.00,1.508,1336,0.003,0.843,0.007,0.641,0.014,9.9
30,12710.00,12710.00,0.00,1.392,1412,0.003,0.767,0.007,0.600,0.014,9.8
31,12024.00,12024.00,0.00,1.469,1336,0.004,0.813,0.007,0.632,0.014,9.9
32,12235.00,12235.00,0.00,1.463,1359,0.003,0.810,0.007,0.628,0.014,10.0
33,11818.00,11818.00,0.00,1.549,1313,0.004,0.873,0.007,0.652,0.014,10.4
34,11948.00,11948.00,0.00,1.532,1328,0.003,0.862,0.007,0.646,0.014,10.0
35,12752.00,12752.00,0.00,1.351,1417,0.004,0.730,0.007,0.596,0.014,9.5
36,11558.00,11558.00,0.00,1.540,1284,0.003,0.855,0.007,0.661,0.014,9.9
37,12027.00,12027.00,0.00,1.517,1336,0.003,0.850,0.007,0.642,0.014,10.3
38,12450.00,12450.00,0.00,1.407,1383,0.003,0.769,0.007,0.614,0.014,9.8
39,11590.00,11590.00,0.00,1.561,1288,0.003,0.876,0.007,0.662,0.014,9.9
40,11210.00,11210.00,0.00,1.583,1246,0.003,0.883,0.007,0.675,0.015,9.8
41,12037.00,12037.00,0.00,1.441,1337,0.003,0.786,0.007,0.631,0.014,9.7
42,11914.00,11914.00,0.00,1.449,1324,0.004,0.791,0.007,0.634,0.014,9.7
43,12393.00,12393.00,0.00,1.424,1377,0.004,0.781,0.007,0.617,0.015,9.7
44,12460.00,12452.00,8.00,1.410,1384,0.004,0.777,0.009,0.607,0.015,9.6
45,12429.00,12418.00,11.00,1.431,1380,0.004,0.790,0.007,0.617,0.014,9.6
46,13033.00,13028.00,5.00,1.296,1448,0.004,0.698,0.007,0.573,0.014,9.0
47,12635.00,12626.00,9.00,1.364,1403,0.004,0.739,0.007,0.601,0.014,9.3
48,12192.00,12175.00,17.00,1.464,1353,0.004,0.816,0.007,0.622,0.014,10.1
49,12061.00,12049.00,12.00,1.464,1339,0.004,0.808,0.007,0.631,0.014,9.8
50,12358.00,12349.00,9.00,1.414,1372,0.004,0.774,0.007,0.615,0.015,9.6
51,12427.00,12426.00,1.00,1.400,1381,0.004,0.764,0.007,0.611,0.014,9.4
52,12386.00,12386.00,0.00,1.424,1376,0.004,0.785,0.007,0.614,0.014,9.8
53,11715.00,11715.00,0.00,1.512,1302,0.004,0.842,0.007,0.646,0.014,9.8
54,11623.00,11623.00,0.00,1.580,1291,0.004,0.891,0.007,0.665,0.014,10.3
55,12395.00,12395.00,0.00,1.417,1377,0.004,0.774,0.006,0.619,0.014,9.6
56,12786.00,12786.00,0.00,1.408,1420,0.003,0.781,0.007,0.602,0.014,10.1
57,12263.00,12263.00,0.00,1.453,1363,0.004,0.809,0.007,0.619,0.015,9.8
58,12871.00,12871.00,0.00,1.355,1430,0.003,0.736,0.007,0.595,0.014,9.7
59,12460.00,12460.00,0.00,1.384,1384,0.003,0.754,0.007,0.605,0.014,9.6
60,12313.00,12313.00,0.00,1.450,1368,0.003,0.806,0.007,0.620,0.014,10.0
61,13298.00,13298.00,0.00,1.305,1477,0.003,0.708,0.007,0.574,0.014,9.5
62,12448.00,12448.00,0.00,1.415,1383,0.003,0.781,0.007,0.610,0.014,9.8
63,12262.00,12262.00,0.00,1.457,1362,0.004,0.810,0.007,0.622,0.015,10.1
64,13024.00,13024.00,0.00,1.309,1447,0.004,0.704,0.007,0.580,0.014,9.3
65,12131.00,12131.00,0.00,1.424,1348,0.004,0.783,0.007,0.616,0.014,9.4
66,12593.00,12593.00,0.00,1.356,1399,0.004,0.732,0.008,0.598,0.014,9.3
67,12910.00,12910.00,0.00,1.341,1434,0.004,0.729,0.007,0.587,0.014,9.6
68,11565.00,11565.00,0.00,1.559,1285,0.003,0.869,0.007,0.666,0.015,9.8
69,12371.00,12371.00,0.00,1.396,1375,0.004,0.760,0.007,0.612,0.014,9.6
70,12468.00,12468.00,0.00,1.378,1386,0.004,0.750,0.007,0.603,0.015,9.3
71,13145.00,13145.00,0.00,1.344,1461,0.004,0.739,0.007,0.580,0.014,9.6
72,13343.00,13343.00,0.00,1.250,1483,0.004,0.659,0.007,0.566,0.014,8.9
73,12950.00,12950.00,0.00,1.359,1439,0.004,0.742,0.007,0.593,0.014,9.8
74,9189.00,9189.00,0.00,1.409,1021,0.004,0.776,0.007,0.609,0.014,9.5
