Second,Ops/sec,Hits/sec,Misses/sec,Latency,KB/sec,Request_Creation_Time,Request_Buffer_Time,MW_Writes_To_Memcached_Time,Memcached_Process_Time,MW_Writes_To_Memtier_Time,Queue_Size
4,3119.00,3119.00,0.00,1.671,1714,0.026,0.348,0.044,1.172,0.083,2.3
5,10262.00,10262.00,0.00,1.392,5640,0.006,0.207,0.017,1.142,0.020,1.6
6,11769.00,11769.00,0.00,1.241,6468,0.007,0.256,0.018,0.943,0.018,2.0
7,12318.00,12318.00,0.00,1.190,6770,0.006,0.263,0.017,0.882,0.021,2.1
8,12522.00,12522.00,0.00,1.168,6882,0.007,0.233,0.019,0.887,0.021,1.8
9,11538.00,11523.00,15.00,1.300,6333,0.007,0.218,0.019,1.038,0.017,1.8
10,11962.00,11953.00,9.00,1.252,6569,0.007,0.177,0.016,1.035,0.017,1.6
11,11624.00,11624.00,0.00,1.234,6388,0.005,0.188,0.014,1.010,0.017,1.6
12,12089.00,12089.00,0.00,1.230,6644,0.005,0.225,0.015,0.967,0.017,1.9
13,12331.00,12331.00,0.00,1.258,6777,0.005,0.197,0.016,1.022,0.018,1.8
14,12739.00,12739.00,0.00,1.143,7001,0.004,0.184,0.018,0.920,0.017,1.7
15,12646.00,12646.00,0.00,1.096,6950,0.006,0.179,0.015,0.877,0.018,1.7
16,12177.00,12177.00,0.00,1.289,6692,0.004,0.224,0.015,1.026,0.019,1.8
17,12863.00,12863.00,0.00,1.055,7069,0.004,0.179,0.016,0.840,0.016,1.6
18,12297.00,12289.00,8.00,1.244,6754,0.006,0.205,0.019,0.996,0.018,1.8
19,12094.00,12082.00,12.00,1.259,6640,0.005,0.215,0.016,1.006,0.016,1.9
20,12314.00,12310.00,4.00,1.195,6765,0.004,0.244,0.015,0.913,0.018,2.2
21,12170.00,12170.00,0.00,1.257,6688,0.004,0.193,0.019,1.024,0.018,1.7
22,12692.00,12692.00,0.00,1.220,6975,0.005,0.217,0.014,0.966,0.017,1.9
23,12694.00,12694.00,0.00,1.165,6977,0.005,0.202,0.016,0.924,0.018,1.7
24,12458.00,12458.00,0.00,1.116,6847,0.006,0.168,0.017,0.905,0.020,1.6
25,12487.00,12487.00,0.00,1.192,6863,0.005,0.207,0.015,0.947,0.019,1.6
26,12288.00,12288.00,0.00,1.154,6754,0.005,0.169,0.015,0.946,0.019,1.7
27,12818.00,12818.00,0.00,1.044,7045,0.005,0.185,0.018,0.816,0.020,1.7
28,12659.00,12659.00,0.00,1.182,6957,0.005,0.204,0.016,0.938,0.018,1.9
29,12704.00,12704.00,0.00,1.046,6982,0.005,0.193,0.021,0.809,0.018,1.7
30,12759.00,12759.00,0.00,1.088,7012,0.005,0.189,0.015,0.860,0.019,1.7
31,11724.00,11724.00,0.00,1.293,6443,0.006,0.209,0.019,1.037,0.021,1.8
32,12933.00,12933.00,0.00,1.038,7108,0.005,0.196,0.016,0.802,0.019,1.7
33,12634.00,12634.00,0.00,1.115,6944,0.006,0.191,0.016,0.884,0.017,1.8
34,12272.00,12272.00,0.00,1.231,6745,0.005,0.208,0.016,0.985,0.016,1.7
35,12267.00,12267.00,0.00,1.226,6742,0.006,0.216,0.016,0.971,0.017,1.9
36,12354.00,12354.00,0.00,1.187,6790,0.004,0.219,0.017,0.931,0.017,1.9
37,12023.00,12023.00,0.00,1.283,6608,0.005,0.192,0.016,1.053,0.017,1.8
38,12542.00,12542.00,0.00,1.127,6893,0.005,0.186,0.017,0.901,0.018,1.8
39,12487.00,12487.00,0.00,1.101,6863,0.004,0.205,0.016,0.860,0.016,1.8
40,12507.00,12507.00,0.00,1.221,6874,0.004,0.191,0.015,0.994,0.017,1.7
41,12505.00,12503.00,2.00,1.243,6872,0.005,0.183,0.016,1.023,0.016,1.8
42,12473.00,12470.00,3.00,1.128,6854,0.005,0.192,0.015,0.901,0.015,1.7
43,12370.00,12362.00,8.00,1.210,6794,0.006,0.229,0.017,0.942,0.017,1.9
44,12284.00,12278.00,6.00,1.141,6748,0.005,0.211,0.017,0.891,0.018,1.8
45,12289.00,12282.00,7.00,1.097,6750,0.005,0.193,0.018,0.863,0.019,1.7
46,12360.00,12348.00,12.00,1.300,6786,0.005,0.182,0.016,1.080,0.016,1.8
47,12785.00,12772.00,13.00,1.141,7020,0.005,0.185,0.018,0.917,0.016,1.8
48,12030.00,12020.00,10.00,1.182,6606,0.005,0.254,0.014,0.892,0.017,1.9
49,11864.00,11862.00,2.00,1.224,6519,0.005,0.188,0.016,0.996,0.019,1.6
50,12602.00,12599.00,3.00,1.172,6924,0.005,0.203,0.016,0.931,0.017,1.6
51,12565.00,12561.00,4.00,1.163,6903,0.005,0.190,0.017,0.935,0.017,1.7
52,12439.00,12437.00,2.00,1.177,6835,0.006,0.195,0.015,0.942,0.018,1.7
53,12727.00,12727.00,0.00,1.144,6994,0.005,0.180,0.015,0.925,0.019,1.8
54,12433.00,12433.00,0.00,1.176,6833,0.005,0.231,0.016,0.905,0.018,1.8
55,12832.00,12832.00,0.00,1.226,7052,0.005,0.201,0.015,0.986,0.019,1.8
56,12272.00,12272.00,0.00,1.222,6745,0.005,0.190,0.015,0.994,0.018,1.7
57,12551.00,12551.00,0.00,1.084,6898,0.005,0.187,0.015,0.858,0.019,1.8
58,12070.00,12070.00,0.00,1.207,6633,0.006,0.210,0.015,0.958,0.017,1.8
59,12458.00,12458.00,0.00,1.146,6847,0.005,0.206,0.019,0.899,0.016,1.7
60,12926.00,12926.00,0.00,1.080,7104,0.004,0.184,0.015,0.859,0.018,1.7
61,12774.00,12774.00,0.00,1.080,7020,0.005,0.165,0.017,0.875,0.019,1.6
62,11986.00,11986.00,0.00,1.293,6587,0.005,0.182,0.016,1.072,0.018,1.7
63,12717.00,12717.00,0.00,1.159,6989,0.004,0.192,0.018,0.925,0.020,1.7
64,12562.00,12562.00,0.00,1.127,6904,0.005,0.177,0.016,0.911,0.018,1.7
65,12567.00,12567.00,0.00,1.257,6907,0.005,0.185,0.015,1.035,0.016,1.8
66,12543.00,12543.00,0.00,1.044,6894,0.006,0.176,0.018,0.824,0.020,1.7
67,12998.00,12998.00,0.00,1.153,7144,0.004,0.181,0.014,0.934,0.019,1.6
68,12816.00,12816.00,0.00,1.251,7044,0.005,0.190,0.016,1.023,0.017,1.8
69,12568.00,12568.00,0.00,1.133,6907,0.005,0.223,0.018,0.870,0.017,1.8
70,12278.00,12278.00,0.00,1.184,6748,0.006,0.200,0.017,0.944,0.016,1.7
71,12890.00,12890.00,0.00,1.131,7084,0.005,0.163,0.015,0.932,0.016,1.6
72,12405.00,12405.00,0.00,1.209,6818,0.005,0.193,0.017,0.976,0.018,1.8
73,12589.00,12589.00,0.00,1.168,6919,0.006,0.173,0.018,0.952,0.019,1.8
74,7883.00,7883.00,0.00,1.139,4332,0.005,0.177,0.017,0.922,0.019,1.7
