Second,Ops/sec,Hits/sec,Misses/sec,Latency,KB/sec,Request_Creation_Time,Request_Buffer_Time,MW_Writes_To_Memcached_Time,Memcached_Process_Time,MW_Writes_To_Memtier_Time,Queue_Size
4,3253.00,3253.00,0.00,2.026,362,0.023,0.593,0.052,1.291,0.066,7.4
5,13079.00,13079.00,0.00,2.183,1454,0.008,0.550,0.019,1.576,0.030,5.4
6,15984.00,15984.00,0.00,1.522,1776,0.007,0.405,0.018,1.071,0.021,5.4
7,16670.00,16670.00,0.00,1.602,1852,0.007,0.400,0.019,1.154,0.021,5.6
8,16776.00,16776.00,0.00,1.593,1864,0.006,0.391,0.017,1.158,0.020,5.0
9,15559.00,15559.00,0.00,1.656,1729,0.007,0.403,0.016,1.209,0.022,5.1
10,15777.00,15777.00,0.00,1.635,1753,0.006,0.421,0.019,1.168,0.021,4.6
11,16775.00,16774.00,1.00,1.628,1864,0.006,0.400,0.019,1.179,0.023,5.4
12,14990.00,14946.00,44.00,1.848,1660,0.007,0.482,0.026,1.298,0.035,5.9
13,15876.00,15873.00,3.00,1.589,1763,0.008,0.397,0.021,1.141,0.023,5.8
14,16203.00,16203.00,0.00,1.725,1800,0.007,0.475,0.022,1.198,0.024,6.0
15,16107.00,16107.00,0.00,1.687,1790,0.005,0.425,0.020,1.217,0.021,5.3
16,16124.00,16124.00,0.00,1.629,1792,0.007,0.393,0.019,1.183,0.028,5.3
17,16162.00,16162.00,0.00,1.709,1796,0.007,0.417,0.019,1.245,0.022,5.3
18,16011.00,16011.00,0.00,1.580,1779,0.008,0.396,0.020,1.132,0.025,5.4
19,16341.00,16341.00,0.00,1.632,1815,0.006,0.395,0.019,1.190,0.023,5.5
20,16739.00,16739.00,0.00,1.624,1859,0.006,0.421,0.019,1.158,0.019,5.5
21,15876.00,15876.00,0.00,1.690,1764,0.007,0.431,0.023,1.204,0.025,5.6
22,16286.00,16286.00,0.00,1.518,1809,0.006,0.380,0.021,1.087,0.025,5.3
23,16310.00,16310.00,0.00,1.636,1812,0.006,0.409,0.019,1.177,0.025,5.4
24,16135.00,16135.00,0.00,1.638,1793,0.006,0.404,0.021,1.182,0.025,5.4
25,16257.00,16245.00,12.00,1.663,1806,0.006,0.407,0.019,1.208,0.022,5.5
26,16002.00,15984.00,18.00,1.752,1776,0.006,0.430,0.018,1.275,0.023,5.3
27,16647.00,16633.00,14.00,1.536,1848,0.005,0.353,0.017,1.140,0.021,5.1
28,16150.00,16146.00,4.00,1.591,1794,0.007,0.367,0.016,1.179,0.022,5.4
29,16054.00,16054.00,0.00,1.654,1784,0.006,0.447,0.020,1.159,0.022,6.1
30,16014.00,16014.00,0.00,1.676,1779,0.007,0.472,0.016,1.162,0.020,5.5
31,16702.00,16702.00,0.00,1.514,1856,0.007,0.393,0.017,1.074,0.022,5.4
32,16474.00,16474.00,0.00,1.655,1831,0.006,0.418,0.016,1.194,0.022,5.7
33,15806.00,15806.00,0.00,1.702,1757,0.006,0.422,0.018,1.237,0.019,5.3
34,16495.00,16495.00,0.00,1.506,1833,0.007,0.408,0.016,1.054,0.022,5.3
35,16375.00,16375.00,0.00,1.768,1820,0.005,0.447,0.017,1.280,0.019,5.5
36,16151.00,16151.00,0.00,1.735,1795,0.006,0.439,0.016,1.252,0.021,5.5
37,16446.00,16446.00,0.00,1.477,1828,0.006,0.375,0.017,1.059,0.021,5.0
38,16644.00,16644.00,0.00,1.576,1850,0.006,0.427,0.019,1.102,0.022,5.4
39,16237.00,16237.00,0.00,1.672,1804,0.006,0.452,0.016,1.180,0.018,5.6
40,16151.00,16151.00,0.00,1.674,1795,0.006,0.424,0.018,1.205,0.020,5.4
41,16744.00,16744.00,0.00,1.633,1860,0.006,0.408,0.019,1.178,0.023,5.4
42,16498.00,16498.00,0.00,1.664,1833,0.006,0.416,0.017,1.203,0.020,5.5
43,16631.00,16631.00,0.00,1.485,1848,0.006,0.370,0.018,1.070,0.022,5.6
44,16734.00,16734.00,0.00,1.550,1859,0.006,0.395,0.020,1.108,0.020,5.5
45,16034.00,16034.00,0.00,1.708,1782,0.005,0.429,0.018,1.236,0.021,5.2
46,16885.00,16885.00,0.00,1.583,1876,0.006,0.427,0.016,1.114,0.021,5.6
47,16937.00,16937.00,0.00,1.523,1882,0.006,0.359,0.019,1.119,0.020,5.0
48,15958.00,15958.00,0.00,1.723,1773,0.005,0.443,0.019,1.233,0.024,5.4
49,16188.00,16188.00,0.00,1.554,1799,0.006,0.406,0.017,1.104,0.020,5.5
50,16179.00,16179.00,0.00,1.695,1798,0.007,0.453,0.017,1.197,0.022,5.5
51,16776.00,16776.00,0.00,1.634,1864,0.004,0.429,0.020,1.159,0.022,5.8
52,15813.00,15813.00,0.00,1.734,1757,0.006,0.463,0.016,1.230,0.020,5.2
53,17099.00,17099.00,0.00,1.484,1900,0.006,0.363,0.019,1.074,0.021,5.4
54,16609.00,16609.00,0.00,1.548,1845,0.005,0.399,0.016,1.110,0.018,5.4
55,16110.00,16110.00,0.00,1.760,1790,0.006,0.451,0.015,1.269,0.019,5.6
56,16864.00,16864.00,0.00,1.517,1874,0.005,0.350,0.016,1.125,0.021,5.3
57,16393.00,16393.00,0.00,1.638,1821,0.006,0.416,0.018,1.176,0.021,5.6
58,15853.00,15853.00,0.00,1.548,1762,0.005,0.373,0.021,1.128,0.022,5.0
59,16902.00,16902.00,0.00,1.510,1878,0.006,0.339,0.016,1.128,0.020,4.9
60,16071.00,16069.00,2.00,1.768,1786,0.006,0.431,0.013,1.297,0.021,5.6
61,16219.00,16211.00,8.00,1.627,1802,0.005,0.409,0.017,1.175,0.021,5.2
62,16719.00,16715.00,4.00,1.579,1857,0.006,0.376,0.017,1.160,0.021,5.2
63,16439.00,16435.00,4.00,1.640,1826,0.006,0.399,0.015,1.196,0.024,5.2
64,16361.00,16348.00,13.00,1.577,1817,0.006,0.380,0.018,1.153,0.021,5.3
65,16260.00,16251.00,9.00,1.655,1806,0.006,0.403,0.016,1.210,0.020,5.3
66,16681.00,16669.00,12.00,1.714,1852,0.005,0.413,0.019,1.256,0.022,5.3
67,16185.00,16171.00,14.00,1.474,1797,0.006,0.344,0.018,1.081,0.025,4.9
68,16724.00,16708.00,16.00,1.461,1857,0.006,0.365,0.019,1.050,0.022,5.2
69,16515.00,16501.00,14.00,1.625,1834,0.007,0.425,0.014,1.160,0.018,5.5
70,16311.00,16299.00,12.00,1.655,1811,0.005,0.411,0.016,1.202,0.021,5.2
71,16571.00,16560.00,11.00,1.523,1840,0.007,0.354,0.017,1.123,0.022,5.2
72,16582.00,16572.00,10.00,1.604,1841,0.006,0.414,0.016,1.150,0.019,5.4
73,16405.00,16402.00,3.00,1.645,1822,0.006,0.424,0.018,1.177,0.021,5.6
74,11775.00,11768.00,7.00,1.560,1308,0.005,0.367,0.017,1.147,0.024,5.5
