Second,Ops/sec,Hits/sec,Misses/sec,Latency,KB/sec,Request_Creation_Time,Request_Buffer_Time,MW_Writes_To_Memcached_Time,Memcached_Process_Time,MW_Writes_To_Memtier_Time,Queue_Size
4,3516.00,3516.00,0.00,2.463,1933,0.021,0.819,0.067,1.454,0.102,7.0
5,13104.00,13104.00,0.00,1.880,7202,0.010,0.471,0.025,1.344,0.030,5.6
6,16214.00,16214.00,0.00,1.510,8911,0.009,0.327,0.020,1.132,0.023,5.1
7,15082.00,15082.00,0.00,1.653,8289,0.008,0.384,0.019,1.220,0.021,4.9
8,15726.00,15726.00,0.00,1.692,8643,0.007,0.346,0.020,1.298,0.021,5.1
9,15254.00,15254.00,0.00,1.664,8383,0.006,0.334,0.018,1.286,0.021,4.7
10,14529.00,14529.00,0.00,1.921,7985,0.006,0.385,0.017,1.491,0.022,4.7
11,15805.00,15805.00,0.00,1.612,8687,0.005,0.343,0.019,1.225,0.020,5.0
12,15043.00,15012.00,31.00,1.748,8250,0.007,0.386,0.022,1.305,0.029,4.9
13,15494.00,15477.00,17.00,1.674,8505,0.007,0.395,0.017,1.235,0.020,5.4
14,15963.00,15963.00,0.00,1.678,8773,0.005,0.375,0.016,1.260,0.022,5.1
15,15713.00,15713.00,0.00,1.740,8636,0.006,0.369,0.018,1.327,0.021,5.1
16,15631.00,15631.00,0.00,1.622,8591,0.006,0.331,0.016,1.247,0.023,4.7
17,16153.00,16153.00,0.00,1.444,8878,0.006,0.341,0.018,1.055,0.023,5.0
18,16534.00,16534.00,0.00,1.627,9087,0.007,0.324,0.017,1.256,0.023,5.3
19,16102.00,16102.00,0.00,1.569,8849,0.007,0.333,0.018,1.190,0.022,5.0
20,15674.00,15674.00,0.00,1.741,8614,0.005,0.291,0.015,1.410,0.019,4.5
21,16074.00,16074.00,0.00,1.688,8834,0.006,0.356,0.017,1.283,0.025,5.1
22,15854.00,15854.00,0.00,1.728,8713,0.006,0.361,0.025,1.313,0.023,4.9
23,15921.00,15921.00,0.00,1.690,8750,0.007,0.364,0.016,1.282,0.021,4.9
24,15957.00,15957.00,0.00,1.615,8770,0.006,0.362,0.016,1.211,0.020,5.1
25,15285.00,15281.00,4.00,1.591,8399,0.005,0.351,0.018,1.192,0.025,5.2
26,16320.00,16309.00,11.00,1.576,8964,0.006,0.340,0.015,1.191,0.023,5.2
27,15431.00,15414.00,17.00,1.710,8472,0.006,0.382,0.018,1.279,0.025,5.1
28,16228.00,16214.00,14.00,1.535,8911,0.006,0.311,0.018,1.179,0.020,4.6
29,15905.00,15903.00,2.00,1.674,8740,0.007,0.335,0.019,1.295,0.017,4.8
30,15738.00,15738.00,0.00,1.597,8649,0.007,0.338,0.017,1.214,0.022,4.6
31,16410.00,16410.00,0.00,1.612,9019,0.006,0.334,0.014,1.237,0.021,4.8
32,15654.00,15654.00,0.00,1.664,8603,0.005,0.385,0.018,1.235,0.020,5.2
33,15319.00,15319.00,0.00,1.676,8419,0.005,0.390,0.017,1.240,0.023,5.3
34,15185.00,15185.00,0.00,1.647,8346,0.006,0.349,0.017,1.251,0.023,5.2
35,15391.00,15391.00,0.00,1.699,8459,0.004,0.356,0.017,1.300,0.021,4.8
36,16214.00,16214.00,0.00,1.640,8911,0.005,0.353,0.019,1.243,0.020,5.2
37,16133.00,16133.00,0.00,1.560,8867,0.006,0.362,0.016,1.154,0.022,5.0
38,15816.00,15816.00,0.00,1.778,8692,0.006,0.360,0.017,1.373,0.023,4.6
39,15461.00,15461.00,0.00,1.727,8497,0.007,0.347,0.016,1.336,0.020,4.8
40,15386.00,15386.00,0.00,1.676,8456,0.007,0.376,0.018,1.254,0.021,5.7
41,15443.00,15443.00,0.00,1.732,8488,0.006,0.357,0.018,1.329,0.023,5.0
42,15720.00,15720.00,0.00,1.581,8640,0.007,0.343,0.018,1.192,0.020,4.9
43,15355.00,15355.00,0.00,1.693,8439,0.006,0.378,0.017,1.269,0.023,5.2
44,15521.00,15521.00,0.00,1.758,8530,0.006,0.367,0.017,1.347,0.021,4.7
45,15778.00,15778.00,0.00,1.692,8671,0.005,0.325,0.017,1.325,0.019,4.7
46,15996.00,15996.00,0.00,1.653,8791,0.007,0.324,0.016,1.284,0.022,4.9
47,15747.00,15747.00,0.00,1.726,8655,0.005,0.382,0.016,1.302,0.022,5.2
48,15300.00,15300.00,0.00,1.753,8409,0.006,0.385,0.017,1.324,0.021,5.0
49,15733.00,15733.00,0.00,1.625,8647,0.007,0.343,0.016,1.238,0.021,5.0
50,15174.00,15174.00,0.00,1.802,8340,0.007,0.370,0.018,1.384,0.023,4.7
51,15823.00,15823.00,0.00,1.636,8696,0.005,0.343,0.016,1.252,0.020,4.8
52,15851.00,15851.00,0.00,1.670,8712,0.005,0.415,0.018,1.210,0.022,4.9
53,15934.00,15934.00,0.00,1.632,8757,0.006,0.327,0.015,1.264,0.020,4.6
54,15446.00,15446.00,0.00,1.670,8489,0.007,0.349,0.019,1.274,0.020,5.0
55,15144.00,15144.00,0.00,1.765,8323,0.005,0.312,0.017,1.408,0.023,4.6
56,16046.00,16046.00,0.00,1.632,8819,0.006,0.346,0.015,1.242,0.023,5.3
57,15974.00,15974.00,0.00,1.722,8779,0.006,0.348,0.016,1.330,0.021,4.6
58,16298.00,16298.00,0.00,1.664,8957,0.006,0.355,0.017,1.261,0.025,4.9
59,16255.00,16255.00,0.00,1.687,8934,0.007,0.346,0.017,1.297,0.020,5.2
60,15288.00,15287.00,1.00,1.788,8402,0.006,0.342,0.018,1.403,0.019,4.6
61,16283.00,16280.00,3.00,1.757,8947,0.005,0.361,0.019,1.353,0.020,5.2
62,16008.00,16007.00,1.00,1.551,8797,0.006,0.361,0.017,1.143,0.024,5.1
63,15981.00,15980.00,1.00,1.718,8782,0.007,0.400,0.018,1.269,0.023,5.3
64,16322.00,16317.00,5.00,1.648,8968,0.006,0.341,0.016,1.266,0.020,4.9
65,15419.00,15411.00,8.00,1.711,8470,0.005,0.364,0.018,1.305,0.019,5.0
66,15386.00,15375.00,11.00,1.712,8450,0.005,0.385,0.015,1.287,0.020,5.1
67,15923.00,15913.00,10.00,1.695,8746,0.004,0.370,0.019,1.282,0.020,5.2
68,16009.00,15997.00,12.00,1.586,8792,0.006,0.362,0.017,1.177,0.024,5.4
69,15283.00,15271.00,12.00,1.749,8393,0.006,0.338,0.017,1.366,0.022,5.0
70,15741.00,15734.00,7.00,1.616,8647,0.006,0.346,0.017,1.226,0.021,5.0
71,16077.00,16064.00,13.00,1.619,8829,0.006,0.363,0.017,1.214,0.018,5.2
72,15898.00,15884.00,14.00,1.637,8730,0.007,0.319,0.016,1.270,0.024,4.6
73,15775.00,15761.00,14.00,1.656,8662,0.006,0.387,0.019,1.221,0.022,5.2
74,9985.00,9976.00,9.00,1.676,5483,0.005,0.338,0.019,1.294,0.019,5.2
