Second,Ops/sec,Hits/sec,Misses/sec,Latency,KB/sec,Request_Creation_Time,Request_Buffer_Time,MW_Writes_To_Memcached_Time,Memcached_Process_Time,MW_Writes_To_Memtier_Time,Queue_Size
4,2653.00,2653.00,0.00,1.562,795,0.017,0.398,0.054,1.048,0.045,2.3
5,9981.00,9981.00,0.00,1.448,2990,0.008,0.244,0.020,1.155,0.022,1.6
6,12302.00,12302.00,0.00,1.183,3685,0.007,0.183,0.019,0.958,0.017,1.7
7,12730.00,12730.00,0.00,1.091,3814,0.008,0.215,0.019,0.830,0.020,1.8
8,12277.00,12277.00,0.00,1.242,3678,0.006,0.203,0.019,0.997,0.018,1.7
9,12344.00,12329.00,15.00,1.025,3694,0.008,0.250,0.017,0.731,0.019,2.1
10,12321.00,12312.00,9.00,1.147,3688,0.006,0.179,0.018,0.925,0.020,1.6
11,11906.00,11906.00,0.00,1.272,3567,0.005,0.171,0.016,1.061,0.019,1.6
12,12862.00,12862.00,0.00,1.105,3854,0.006,0.201,0.015,0.865,0.018,1.8
13,12397.00,12397.00,0.00,1.135,3714,0.004,0.220,0.017,0.875,0.020,1.8
14,13021.00,13021.00,0.00,1.052,3901,0.005,0.197,0.019,0.810,0.020,1.9
15,12669.00,12669.00,0.00,1.135,3795,0.005,0.194,0.016,0.902,0.018,1.7
16,12550.00,12550.00,0.00,1.130,3760,0.004,0.177,0.018,0.912,0.018,1.7
17,13033.00,13032.00,1.00,1.156,3904,0.007,0.188,0.017,0.927,0.018,1.7
18,12374.00,12363.00,11.00,1.201,3704,0.006,0.209,0.016,0.951,0.019,1.7
19,13156.00,13146.00,10.00,1.103,3938,0.006,0.191,0.017,0.871,0.018,1.7
20,12500.00,12498.00,2.00,1.164,3744,0.005,0.208,0.016,0.916,0.018,1.8
21,12747.00,12747.00,0.00,1.165,3819,0.005,0.214,0.016,0.914,0.016,1.9
22,12887.00,12887.00,0.00,1.149,3861,0.005,0.194,0.018,0.914,0.018,1.8
23,12806.00,12806.00,0.00,1.089,3837,0.006,0.210,0.016,0.838,0.020,1.8
24,13114.00,13114.00,0.00,1.084,3929,0.005,0.152,0.015,0.896,0.016,1.6
25,13313.00,13313.00,0.00,1.062,3989,0.004,0.178,0.015,0.849,0.017,1.8
26,12688.00,12688.00,0.00,1.129,3801,0.004,0.213,0.015,0.879,0.018,1.9
27,12356.00,12356.00,0.00,1.200,3702,0.005,0.197,0.015,0.966,0.016,1.6
28,12777.00,12777.00,0.00,1.090,3828,0.005,0.181,0.017,0.869,0.018,1.8
29,13200.00,13200.00,0.00,1.037,3954,0.005,0.182,0.017,0.816,0.018,1.7
30,12772.00,12772.00,0.00,1.134,3826,0.004,0.183,0.018,0.911,0.019,1.6
31,12670.00,12670.00,0.00,1.165,3796,0.005,0.187,0.016,0.938,0.019,1.8
32,13087.00,13087.00,0.00,1.122,3921,0.006,0.201,0.016,0.882,0.017,1.7
33,12117.00,12117.00,0.00,1.261,3630,0.005,0.233,0.016,0.989,0.018,1.8
34,13169.00,13169.00,0.00,1.054,3945,0.005,0.204,0.016,0.813,0.016,1.8
35,12826.00,12826.00,0.00,1.098,3843,0.004,0.184,0.015,0.878,0.017,1.8
36,12360.00,12360.00,0.00,1.256,3703,0.005,0.208,0.017,1.009,0.016,1.9
37,13006.00,13006.00,0.00,1.081,3896,0.006,0.211,0.016,0.829,0.019,1.8
38,13200.00,13200.00,0.00,1.051,3955,0.005,0.176,0.016,0.838,0.016,1.7
39,12870.00,12870.00,0.00,1.159,3856,0.005,0.193,0.016,0.926,0.018,1.6
40,12412.00,12411.00,1.00,1.078,3718,0.006,0.200,0.018,0.836,0.018,1.8
41,13016.00,13011.00,5.00,1.119,3898,0.004,0.193,0.016,0.888,0.018,1.7
42,12404.00,12398.00,6.00,1.208,3715,0.004,0.203,0.016,0.970,0.015,1.7
43,13446.00,13438.00,8.00,1.033,4026,0.006,0.187,0.015,0.807,0.017,1.7
44,13184.00,13174.00,10.00,1.074,3947,0.004,0.194,0.018,0.840,0.018,1.8
45,12727.00,12717.00,10.00,1.156,3810,0.005,0.226,0.017,0.893,0.016,2.0
46,12906.00,12893.00,13.00,1.090,3863,0.005,0.205,0.015,0.850,0.016,1.9
47,12995.00,12987.00,8.00,1.042,3891,0.005,0.195,0.017,0.806,0.019,1.8
48,12487.00,12483.00,4.00,1.177,3740,0.005,0.170,0.017,0.966,0.017,1.7
49,12986.00,12981.00,5.00,1.052,3889,0.006,0.186,0.015,0.828,0.016,1.8
50,13083.00,13081.00,2.00,1.057,3919,0.006,0.173,0.016,0.843,0.018,1.7
51,12997.00,12997.00,0.00,1.132,3893,0.004,0.172,0.015,0.924,0.017,1.7
52,12911.00,12911.00,0.00,1.071,3868,0.005,0.163,0.015,0.870,0.018,1.5
53,13110.00,13110.00,0.00,1.081,3927,0.005,0.193,0.015,0.848,0.019,1.7
54,12781.00,12781.00,0.00,1.101,3829,0.005,0.200,0.015,0.865,0.016,1.7
55,12770.00,12770.00,0.00,1.072,3826,0.006,0.178,0.017,0.855,0.016,1.7
56,12906.00,12906.00,0.00,1.114,3866,0.004,0.180,0.019,0.892,0.018,1.7
57,12724.00,12724.00,0.00,1.168,3812,0.005,0.209,0.014,0.925,0.015,1.8
58,13005.00,13005.00,0.00,1.129,3896,0.005,0.176,0.014,0.919,0.015,1.6
59,13508.00,13508.00,0.00,1.020,4047,0.004,0.184,0.017,0.794,0.020,1.6
60,13483.00,13483.00,0.00,0.950,4039,0.005,0.180,0.016,0.732,0.017,1.7
61,12883.00,12883.00,0.00,1.101,3860,0.004,0.179,0.015,0.889,0.014,1.6
62,12651.00,12651.00,0.00,1.076,3790,0.005,0.234,0.018,0.803,0.015,2.0
63,12611.00,12611.00,0.00,1.124,3778,0.005,0.171,0.017,0.913,0.018,1.8
64,12006.00,12006.00,0.00,1.164,3597,0.006,0.191,0.015,0.935,0.017,1.8
65,13255.00,13255.00,0.00,1.004,3971,0.006,0.196,0.015,0.768,0.020,1.9
66,13318.00,13318.00,0.00,1.061,3990,0.006,0.207,0.016,0.816,0.016,1.9
67,12561.00,12561.00,0.00,1.142,3763,0.006,0.191,0.016,0.912,0.016,1.6
68,13128.00,13128.00,0.00,1.023,3933,0.006,0.193,0.014,0.791,0.019,1.7
69,13499.00,13499.00,0.00,1.059,4044,0.005,0.202,0.019,0.817,0.016,1.8
70,12550.00,12550.00,0.00,1.123,3760,0.006,0.187,0.016,0.898,0.016,1.7
71,13217.00,13217.00,0.00,1.093,3960,0.005,0.174,0.018,0.878,0.019,1.6
72,13087.00,13087.00,0.00,1.064,3921,0.005,0.158,0.017,0.864,0.019,1.7
73,12620.00,12620.00,0.00,1.189,3781,0.004,0.180,0.017,0.969,0.019,1.7
74,8617.00,8617.00,0.00,0.969,2581,0.007,0.208,0.012,0.725,0.016,1.8
