Second,Ops/sec,Hits/sec,Misses/sec,Latency,KB/sec,Request_Creation_Time,Request_Buffer_Time,MW_Writes_To_Memcached_Time,Memcached_Process_Time,MW_Writes_To_Memtier_Time,Queue_Size
4,1554.00,1554.00,0.00,1.984,854,0.023,0.988,0.020,0.905,0.048,8.9
5,9814.00,9814.00,0.00,1.783,5394,0.006,0.980,0.009,0.772,0.016,10.0
6,10929.00,10929.00,0.00,1.732,6006,0.005,0.998,0.007,0.707,0.014,10.5
7,12344.00,12344.00,0.00,1.466,6784,0.005,0.820,0.007,0.619,0.014,10.3
8,12559.00,12559.00,0.00,1.377,6902,0.004,0.758,0.008,0.593,0.014,9.7
9,11944.00,11941.00,3.00,1.466,6563,0.004,0.803,0.008,0.637,0.015,9.4
10,11665.00,11644.00,21.00,1.453,6399,0.004,0.775,0.008,0.649,0.016,9.3
11,10962.00,10962.00,0.00,1.712,6024,0.004,0.982,0.007,0.703,0.016,10.5
12,11419.00,11419.00,0.00,1.602,6276,0.004,0.907,0.007,0.669,0.015,10.4
13,11746.00,11746.00,0.00,1.525,6456,0.004,0.846,0.007,0.653,0.014,10.1
14,11390.00,11390.00,0.00,1.551,6260,0.004,0.857,0.008,0.668,0.015,9.9
15,11479.00,11479.00,0.00,1.611,6308,0.003,0.913,0.007,0.672,0.015,10.3
16,11754.00,11754.00,0.00,1.524,6460,0.003,0.849,0.007,0.650,0.014,9.9
17,11669.00,11669.00,0.00,1.508,6413,0.003,0.833,0.007,0.651,0.015,9.9
18,11080.00,11080.00,0.00,1.638,6089,0.004,0.925,0.007,0.687,0.015,9.8
19,13218.00,13205.00,13.00,1.265,7258,0.004,0.676,0.007,0.563,0.014,9.2
20,13098.00,13087.00,11.00,1.268,7192,0.004,0.669,0.007,0.573,0.015,9.0
21,11798.00,11798.00,0.00,1.536,6484,0.004,0.863,0.008,0.647,0.015,10.0
22,12230.00,12230.00,0.00,1.459,6722,0.004,0.808,0.007,0.626,0.014,10.1
23,12718.00,12718.00,0.00,1.388,6990,0.004,0.762,0.007,0.601,0.015,9.9
24,12255.00,12255.00,0.00,1.439,6735,0.004,0.792,0.007,0.621,0.015,9.7
25,12726.00,12726.00,0.00,1.395,6995,0.004,0.768,0.007,0.601,0.014,10.0
26,12344.00,12344.00,0.00,1.361,6784,0.004,0.728,0.007,0.608,0.014,9.2
27,12203.00,12203.00,0.00,1.462,6707,0.003,0.812,0.007,0.625,0.015,10.1
28,11960.00,11960.00,0.00,1.537,6574,0.003,0.866,0.007,0.646,0.014,10.2
29,12063.00,12063.00,0.00,1.463,6630,0.003,0.804,0.007,0.634,0.014,9.7
30,11618.00,11618.00,0.00,1.564,6385,0.003,0.881,0.007,0.659,0.014,10.3
31,11297.00,11297.00,0.00,1.634,6209,0.003,0.928,0.007,0.681,0.015,10.4
32,12862.00,12862.00,0.00,1.346,7069,0.003,0.734,0.007,0.587,0.014,9.5
33,11760.00,11760.00,0.00,1.543,6463,0.004,0.867,0.007,0.651,0.014,10.3
34,11795.00,11795.00,0.00,1.502,6483,0.003,0.836,0.007,0.641,0.015,9.5
35,12596.00,12596.00,0.00,1.402,6923,0.004,0.773,0.007,0.605,0.014,9.9
36,11917.00,11917.00,0.00,1.515,6549,0.004,0.849,0.007,0.641,0.014,10.1
37,12683.00,12683.00,0.00,1.399,6970,0.004,0.770,0.007,0.603,0.015,9.8
38,11704.00,11704.00,0.00,1.534,6432,0.003,0.859,0.007,0.650,0.015,10.0
39,11817.00,11817.00,0.00,1.495,6494,0.003,0.829,0.007,0.639,0.016,9.6
40,12177.00,12177.00,0.00,1.479,6692,0.003,0.827,0.007,0.625,0.016,10.1
41,12647.00,12647.00,0.00,1.370,6951,0.003,0.748,0.007,0.597,0.014,9.3
42,13809.00,13809.00,0.00,1.220,7589,0.004,0.647,0.007,0.548,0.014,9.1
43,12240.00,12240.00,0.00,1.485,6727,0.004,0.834,0.007,0.625,0.015,10.3
44,13576.00,13565.00,11.00,1.215,7456,0.004,0.641,0.008,0.549,0.014,8.9
45,12371.00,12362.00,9.00,1.409,6794,0.004,0.771,0.007,0.612,0.015,9.6
46,11548.00,11544.00,4.00,1.608,6344,0.004,0.918,0.007,0.665,0.015,10.3
47,12595.00,12584.00,11.00,1.391,6916,0.003,0.761,0.007,0.606,0.014,9.9
48,12919.00,12903.00,16.00,1.308,7091,0.003,0.703,0.007,0.580,0.015,9.2
49,12086.00,12074.00,12.00,1.421,6636,0.004,0.776,0.008,0.620,0.015,9.3
50,13069.00,13062.00,7.00,1.368,7179,0.004,0.756,0.007,0.588,0.014,10.1
51,12096.00,12094.00,2.00,1.477,6647,0.004,0.820,0.007,0.631,0.015,9.9
52,12097.00,12097.00,0.00,1.503,6648,0.003,0.844,0.007,0.635,0.015,10.1
53,12784.00,12784.00,0.00,1.393,7026,0.003,0.770,0.007,0.598,0.014,10.0
54,12963.00,12963.00,0.00,1.293,7124,0.003,0.687,0.007,0.580,0.015,9.2
55,11088.00,11088.00,0.00,1.686,6093,0.003,0.966,0.007,0.696,0.015,10.5
56,12346.00,12346.00,0.00,1.437,6785,0.003,0.793,0.007,0.619,0.015,10.0
57,13024.00,13024.00,0.00,1.310,7158,0.003,0.702,0.007,0.583,0.015,9.4
58,12119.00,12119.00,0.00,1.514,6661,0.003,0.855,0.007,0.634,0.015,10.4
59,12665.00,12665.00,0.00,1.342,6961,0.003,0.724,0.007,0.594,0.015,9.3
60,11851.00,11851.00,0.00,1.447,6513,0.004,0.781,0.007,0.640,0.014,9.3
61,11562.00,11562.00,0.00,1.583,6354,0.004,0.898,0.007,0.660,0.014,10.2
62,12744.00,12744.00,0.00,1.390,7004,0.004,0.764,0.007,0.601,0.015,10.0
63,12427.00,12427.00,0.00,1.386,6830,0.004,0.755,0.007,0.606,0.015,9.6
64,12297.00,12297.00,0.00,1.421,6758,0.004,0.780,0.007,0.615,0.015,9.4
65,12555.00,12555.00,0.00,1.393,6900,0.003,0.763,0.007,0.605,0.014,9.7
66,12679.00,12679.00,0.00,1.381,6968,0.004,0.758,0.007,0.598,0.015,9.7
67,12082.00,12082.00,0.00,1.489,6640,0.003,0.830,0.007,0.635,0.014,9.7
68,12668.00,12668.00,0.00,1.423,6962,0.003,0.794,0.007,0.604,0.015,10.2
69,12457.00,12457.00,0.00,1.323,6846,0.003,0.704,0.007,0.593,0.015,9.0
70,11780.00,11780.00,0.00,1.464,6474,0.004,0.796,0.007,0.642,0.014,9.4
71,12327.00,12327.00,0.00,1.428,6775,0.004,0.786,0.007,0.616,0.015,9.6
72,13036.00,13036.00,0.00,1.303,7165,0.004,0.701,0.007,0.577,0.014,9.2
73,11210.00,11210.00,0.00,1.558,6161,0.004,0.868,0.007,0.666,0.014,9.4
74,9561.00,9561.00,0.00,1.458,5254,0.004,0.802,0.007,0.631,0.015,9.7
