Second,Ops/sec,Hits/sec,Misses/sec,Latency,KB/sec,Request_Creation_Time,Request_Buffer_Time,MW_Writes_To_Memcached_Time,Memcached_Process_Time,MW_Writes_To_Memtier_Time,Queue_Size
4,2599.00,2599.00,0.00,3.760,1429,0.027,2.857,0.029,0.809,0.039,28.6
5,10048.00,10048.00,0.00,3.941,5523,0.006,3.143,0.009,0.765,0.016,32.7
6,11998.00,11998.00,0.00,3.446,6594,0.005,2.777,0.007,0.641,0.015,33.5
7,12724.00,12724.00,0.00,3.259,6993,0.004,2.628,0.008,0.604,0.015,33.4
8,11433.00,11433.00,0.00,3.664,6283,0.004,2.963,0.007,0.675,0.015,34.0
9,12243.00,12243.00,0.00,3.345,6729,0.004,2.693,0.008,0.626,0.015,33.0
10,11549.00,11549.00,0.00,3.551,6347,0.004,2.857,0.008,0.669,0.014,33.1
11,11214.00,11214.00,0.00,3.641,6163,0.003,2.929,0.007,0.687,0.014,33.3
12,12610.00,12610.00,0.00,3.258,6931,0.003,2.621,0.007,0.612,0.015,33.1
13,12753.00,12753.00,0.00,3.206,7009,0.004,2.578,0.007,0.603,0.015,33.3
14,12022.00,11999.00,23.00,3.266,6594,0.003,2.601,0.008,0.637,0.016,31.7
15,12359.00,12334.00,25.00,3.257,6778,0.003,2.613,0.009,0.617,0.016,32.8
16,12928.00,12928.00,0.00,3.168,7104,0.003,2.550,0.009,0.590,0.016,33.3
17,12131.00,12131.00,0.00,3.438,6667,0.004,2.778,0.008,0.632,0.016,33.7
18,13184.00,13184.00,0.00,3.076,7246,0.003,2.471,0.008,0.578,0.016,33.0
19,12120.00,12120.00,0.00,3.379,6661,0.003,2.720,0.008,0.632,0.015,33.1
20,12687.00,12687.00,0.00,3.209,6973,0.004,2.578,0.008,0.603,0.016,32.9
21,12272.00,12272.00,0.00,3.255,6745,0.003,2.610,0.008,0.618,0.017,32.6
22,11054.00,11054.00,0.00,3.770,6074,0.003,3.055,0.008,0.689,0.015,34.1
23,12486.00,12486.00,0.00,3.316,6862,0.003,2.678,0.008,0.612,0.015,33.8
24,12110.00,12110.00,0.00,3.408,6655,0.003,2.748,0.008,0.634,0.016,33.4
25,11876.00,11876.00,0.00,3.523,6526,0.003,2.850,0.007,0.648,0.015,34.0
26,12914.00,12914.00,0.00,3.197,7097,0.003,2.578,0.007,0.592,0.015,33.8
27,11820.00,11820.00,0.00,3.488,6496,0.003,2.813,0.007,0.650,0.015,33.0
28,11858.00,11858.00,0.00,3.537,6517,0.003,2.861,0.007,0.651,0.015,34.0
29,12380.00,12380.00,0.00,3.332,6803,0.003,2.687,0.007,0.620,0.015,33.9
30,11963.00,11963.00,0.00,3.433,6575,0.003,2.762,0.007,0.647,0.015,32.9
31,11917.00,11917.00,0.00,3.420,6550,0.004,2.750,0.007,0.644,0.015,33.2
32,12449.00,12449.00,0.00,3.320,6843,0.004,2.675,0.007,0.620,0.014,33.4
33,12009.00,11977.00,32.00,3.519,6583,0.003,2.851,0.007,0.643,0.015,34.2
34,12626.00,12610.00,16.00,3.256,6930,0.003,2.621,0.007,0.611,0.015,33.1
35,12017.00,12017.00,0.00,3.419,6604,0.003,2.751,0.007,0.643,0.015,33.2
36,12084.00,12084.00,0.00,3.358,6641,0.003,2.694,0.007,0.638,0.015,32.4
37,11805.00,11805.00,0.00,3.557,6488,0.003,2.878,0.007,0.655,0.015,34.0
38,11687.00,11687.00,0.00,3.557,6423,0.003,2.873,0.007,0.659,0.016,33.5
39,12329.00,12329.00,0.00,3.315,6776,0.004,2.665,0.007,0.625,0.015,33.1
40,12208.00,12208.00,0.00,3.406,6709,0.003,2.748,0.007,0.633,0.016,33.4
41,13171.00,13171.00,0.00,3.148,7239,0.003,2.539,0.007,0.584,0.015,33.7
42,12066.00,12066.00,0.00,3.351,6632,0.003,2.686,0.008,0.640,0.015,32.3
43,12648.00,12648.00,0.00,3.205,6951,0.003,2.573,0.007,0.607,0.014,33.0
44,12324.00,12324.00,0.00,3.389,6773,0.003,2.740,0.006,0.625,0.014,33.9
45,11946.00,11946.00,0.00,3.490,6566,0.003,2.817,0.007,0.648,0.014,33.3
46,12044.00,12044.00,0.00,3.305,6619,0.003,2.647,0.007,0.634,0.015,32.1
47,12316.00,12316.00,0.00,3.387,6769,0.003,2.736,0.006,0.627,0.015,33.8
48,12828.00,12828.00,0.00,3.211,7050,0.003,2.585,0.007,0.602,0.015,32.9
49,12021.00,12021.00,0.00,3.440,6607,0.003,2.772,0.007,0.644,0.014,33.4
50,13072.00,13072.00,0.00,3.070,7185,0.003,2.464,0.006,0.582,0.015,32.6
51,12197.00,12197.00,0.00,3.385,6704,0.003,2.728,0.007,0.632,0.015,33.0
52,11657.00,11657.00,0.00,3.520,6407,0.004,2.833,0.007,0.662,0.015,33.1
53,12191.00,12191.00,0.00,3.464,6700,0.003,2.805,0.007,0.634,0.015,34.1
54,11568.00,11568.00,0.00,3.631,6357,0.004,2.937,0.006,0.668,0.015,34.0
55,12192.00,12192.00,0.00,3.382,6700,0.003,2.725,0.007,0.632,0.015,33.3
56,12063.00,12063.00,0.00,3.448,6630,0.003,2.782,0.007,0.641,0.015,33.5
57,11996.00,11996.00,0.00,3.419,6593,0.003,2.757,0.006,0.638,0.015,33.2
58,12743.00,12743.00,0.00,3.225,7003,0.004,2.595,0.007,0.605,0.015,33.4
59,12180.00,12180.00,0.00,3.376,6694,0.003,2.721,0.007,0.631,0.014,33.3
60,12164.00,12164.00,0.00,3.352,6685,0.003,2.693,0.007,0.631,0.016,32.8
61,12254.00,12254.00,0.00,3.357,6735,0.003,2.702,0.007,0.631,0.015,32.8
62,11831.00,11831.00,0.00,3.467,6502,0.004,2.791,0.007,0.651,0.014,33.1
63,12343.00,12343.00,0.00,3.355,6784,0.003,2.706,0.007,0.625,0.014,33.7
64,12740.00,12740.00,0.00,3.157,7002,0.003,2.528,0.007,0.604,0.015,32.6
65,11913.00,11913.00,0.00,3.473,6547,0.003,2.799,0.007,0.650,0.015,33.1
66,12750.00,12750.00,0.00,3.233,7007,0.003,2.605,0.007,0.603,0.015,33.3
67,11177.00,11177.00,0.00,3.732,6143,0.003,3.014,0.007,0.693,0.015,33.3
68,12488.00,12488.00,0.00,3.319,6863,0.003,2.676,0.007,0.617,0.015,33.5
69,11851.00,11851.00,0.00,3.472,6513,0.004,2.795,0.007,0.652,0.015,33.1
70,11999.00,11999.00,0.00,3.410,6594,0.004,2.745,0.007,0.639,0.015,33.0
71,12681.00,12681.00,0.00,3.240,6969,0.003,2.608,0.006,0.608,0.014,33.0
72,12189.00,12189.00,0.00,3.378,6699,0.003,2.720,0.007,0.634,0.015,32.8
73,11997.00,11997.00,0.00,3.427,6593,0.003,2.757,0.007,0.646,0.014,33.1
74,8210.00,8210.00,0.00,3.569,4512,0.004,2.875,0.007,0.668,0.015,32.9
