Second,Ops/sec,Hits/sec,Misses/sec,Latency,KB/sec,Request_Creation_Time,Request_Buffer_Time,MW_Writes_To_Memcached_Time,Memcached_Process_Time,MW_Writes_To_Memtier_Time,Queue_Size
4,1880.00,1880.00,0.00,5.856,209,0.030,4.832,0.054,0.871,0.067,44.6
5,8278.00,8278.00,0.00,9.100,920,0.006,8.132,0.009,0.939,0.015,69.1
6,10883.00,10883.00,0.00,8.289,1210,0.006,7.551,0.008,0.710,0.015,81.8
7,11660.00,11660.00,0.00,7.672,1296,0.005,6.983,0.007,0.662,0.015,81.4
8,11227.00,11227.00,0.00,7.986,1247,0.004,7.272,0.008,0.687,0.015,81.9
9,11258.00,11258.00,0.00,7.978,1252,0.004,7.265,0.008,0.686,0.015,81.3
10,12414.00,12414.00,0.00,7.063,1379,0.004,6.418,0.007,0.619,0.014,80.0
11,10712.00,10712.00,0.00,8.249,1191,0.004,7.499,0.007,0.724,0.015,80.2
12,12511.00,12511.00,0.00,6.956,1389,0.003,6.314,0.008,0.616,0.015,78.9
13,12319.00,12319.00,0.00,7.189,1368,0.004,6.537,0.007,0.625,0.015,80.5
14,11938.00,11938.00,0.00,7.421,1327,0.003,6.748,0.007,0.648,0.015,80.6
15,11862.00,11862.00,0.00,7.515,1318,0.003,6.839,0.007,0.652,0.015,81.0
16,12159.00,12159.00,0.00,7.335,1351,0.004,6.674,0.007,0.635,0.015,80.9
17,12723.00,12723.00,0.00,6.927,1413,0.003,6.296,0.007,0.606,0.015,80.1
18,12488.00,12488.00,0.00,7.088,1388,0.003,6.445,0.007,0.618,0.015,80.5
19,12534.00,12534.00,0.00,7.063,1393,0.004,6.421,0.007,0.616,0.014,80.7
20,12282.00,12282.00,0.00,7.277,1365,0.003,6.624,0.007,0.627,0.015,81.3
21,11631.00,11631.00,0.00,7.685,1293,0.004,6.999,0.008,0.660,0.015,81.7
22,12839.00,12839.00,0.00,6.909,1427,0.003,6.279,0.007,0.605,0.015,80.1
23,12719.00,12719.00,0.00,6.959,1414,0.003,6.329,0.007,0.606,0.015,80.7
24,12220.00,12212.00,8.00,7.198,1356,0.004,6.539,0.007,0.633,0.015,79.7
25,11912.00,11837.00,75.00,7.342,1315,0.003,6.670,0.008,0.646,0.015,79.4
26,13198.00,13185.00,13.00,6.726,1464,0.004,6.118,0.007,0.583,0.015,81.1
27,11998.00,11998.00,0.00,7.424,1332,0.004,6.754,0.007,0.643,0.015,80.9
28,12413.00,12413.00,0.00,7.122,1378,0.004,6.477,0.007,0.620,0.015,80.4
29,12824.00,12824.00,0.00,6.970,1425,0.004,6.341,0.007,0.602,0.015,81.4
30,12140.00,12140.00,0.00,7.247,1349,0.003,6.587,0.008,0.635,0.015,80.2
31,12761.00,12761.00,0.00,6.932,1418,0.004,6.304,0.007,0.603,0.015,80.6
32,12948.00,12948.00,0.00,6.871,1438,0.003,6.252,0.007,0.594,0.015,81.1
33,11772.00,11772.00,0.00,7.551,1308,0.004,6.868,0.007,0.658,0.014,81.0
34,12686.00,12686.00,0.00,6.992,1410,0.004,6.358,0.007,0.609,0.014,80.7
35,13014.00,13014.00,0.00,6.780,1447,0.004,6.162,0.007,0.593,0.014,80.4
36,12479.00,12479.00,0.00,7.091,1386,0.004,6.447,0.007,0.619,0.015,80.2
37,12027.00,12027.00,0.00,7.248,1337,0.004,6.588,0.007,0.635,0.015,79.8
38,11826.00,11826.00,0.00,7.498,1314,0.004,6.812,0.007,0.662,0.015,81.0
39,12345.00,12345.00,0.00,7.225,1370,0.004,6.573,0.007,0.627,0.015,80.9
40,12673.00,12673.00,0.00,6.961,1407,0.004,6.327,0.007,0.608,0.015,80.7
41,12515.00,12515.00,0.00,7.088,1391,0.004,6.446,0.007,0.617,0.014,80.8
42,11867.00,11867.00,0.00,7.411,1318,0.004,6.734,0.007,0.650,0.015,80.0
43,11483.00,11483.00,0.00,7.783,1276,0.004,7.083,0.007,0.675,0.015,81.2
44,12994.00,12994.00,0.00,6.777,1443,0.004,6.159,0.007,0.593,0.015,80.4
45,10895.00,10895.00,0.00,8.234,1210,0.004,7.495,0.007,0.713,0.014,81.3
46,12339.00,12339.00,0.00,7.266,1370,0.003,6.614,0.007,0.627,0.014,81.6
47,12782.00,12782.00,0.00,6.886,1420,0.003,6.261,0.007,0.601,0.014,80.4
48,11906.00,11906.00,0.00,7.520,1323,0.003,6.845,0.007,0.651,0.014,81.4
49,12622.00,12622.00,0.00,7.074,1403,0.003,6.438,0.007,0.611,0.015,81.2
50,11879.00,11879.00,0.00,7.421,1320,0.004,6.744,0.006,0.652,0.015,80.2
51,12022.00,12022.00,0.00,7.472,1336,0.004,6.804,0.007,0.643,0.014,81.8
52,12634.00,12634.00,0.00,7.019,1404,0.003,6.382,0.007,0.611,0.015,80.7
53,13409.00,13409.00,0.00,6.581,1489,0.004,5.982,0.007,0.575,0.015,80.4
54,12433.00,12433.00,0.00,7.176,1381,0.003,6.530,0.007,0.622,0.014,80.9
55,11918.00,11918.00,0.00,7.454,1324,0.003,6.779,0.007,0.650,0.015,81.0
56,12289.00,12289.00,0.00,7.235,1365,0.003,6.581,0.007,0.629,0.015,81.1
57,11872.00,11872.00,0.00,7.515,1319,0.003,6.843,0.007,0.648,0.014,81.2
58,12159.00,12159.00,0.00,7.285,1351,0.004,6.626,0.007,0.634,0.015,80.6
59,13348.00,13348.00,0.00,6.598,1484,0.004,5.994,0.007,0.579,0.014,80.4
60,12335.00,12335.00,0.00,7.206,1371,0.004,6.554,0.007,0.627,0.015,80.9
61,11489.00,11486.00,3.00,7.823,1277,0.004,7.124,0.007,0.674,0.015,81.7
62,12182.00,12120.00,62.00,7.270,1347,0.003,6.611,0.007,0.634,0.015,80.7
63,11647.00,11619.00,28.00,7.616,1291,0.003,6.929,0.007,0.662,0.014,81.5
64,12329.00,12326.00,3.00,7.232,1369,0.003,6.578,0.007,0.629,0.014,80.5
65,12857.00,12857.00,0.00,6.845,1428,0.003,6.221,0.007,0.600,0.014,80.4
66,11926.00,11926.00,0.00,7.472,1325,0.003,6.799,0.007,0.649,0.015,81.0
67,12133.00,12133.00,0.00,7.373,1349,0.003,6.711,0.007,0.637,0.015,81.0
68,12421.00,12421.00,0.00,7.207,1379,0.003,6.560,0.007,0.622,0.015,81.6
69,12749.00,12749.00,0.00,7.049,1416,0.003,6.419,0.007,0.606,0.014,82.0
70,11817.00,11817.00,0.00,7.507,1314,0.004,6.827,0.007,0.655,0.014,80.5
71,12251.00,12251.00,0.00,7.272,1362,0.003,6.616,0.007,0.631,0.015,81.1
72,12115.00,12115.00,0.00,7.271,1347,0.005,6.610,0.007,0.636,0.015,80.9
73,11974.00,11974.00,0.00,7.403,1330,0.003,6.730,0.007,0.648,0.014,81.2
74,11368.00,11368.00,0.00,6.210,1263,0.003,5.582,0.007,0.603,0.015,68.2
75,6085.00,6085.00,0.00,0.809,676,0.003,0.263,0.009,0.520,0.013,3.0
