Second,Ops/sec,Hits/sec,Misses/sec,Latency,KB/sec,Request_Creation_Time,Request_Buffer_Time,MW_Writes_To_Memcached_Time,Memcached_Process_Time,MW_Writes_To_Memtier_Time,Queue_Size
4,1983.00,1983.00,0.00,6.192,1090,0.026,5.226,0.029,0.871,0.040,51.4
5,9831.00,9831.00,0.00,8.446,5404,0.006,7.629,0.010,0.782,0.018,75.4
6,11210.00,11210.00,0.00,7.973,6162,0.005,7.257,0.008,0.688,0.015,81.3
7,11768.00,11768.00,0.00,7.605,6468,0.005,6.923,0.008,0.654,0.015,81.7
8,11736.00,11736.00,0.00,7.572,6450,0.004,6.887,0.008,0.656,0.016,80.8
9,11728.00,11728.00,0.00,7.664,6446,0.004,6.981,0.008,0.656,0.015,81.9
10,10412.00,10412.00,0.00,8.637,5722,0.004,7.867,0.008,0.744,0.015,81.8
11,12746.00,12746.00,0.00,7.007,7005,0.004,6.376,0.008,0.604,0.015,81.3
12,11912.00,11912.00,0.00,7.470,6546,0.004,6.797,0.008,0.645,0.015,81.4
13,12374.00,12374.00,0.00,7.202,6800,0.003,6.551,0.008,0.625,0.015,80.9
14,12746.00,12746.00,0.00,6.917,7005,0.003,6.287,0.007,0.603,0.016,80.1
15,11552.00,11552.00,0.00,7.712,6349,0.003,7.017,0.007,0.669,0.015,80.8
16,12300.00,12300.00,0.00,7.243,6759,0.003,6.590,0.007,0.627,0.015,81.2
17,12520.00,12520.00,0.00,7.066,6881,0.004,6.425,0.007,0.616,0.015,80.1
18,12630.00,12630.00,0.00,6.948,6942,0.003,6.312,0.007,0.611,0.015,79.4
19,11962.00,11962.00,0.00,7.515,6574,0.003,6.844,0.007,0.644,0.016,82.0
20,11414.00,11414.00,0.00,7.771,6273,0.003,7.067,0.008,0.678,0.015,80.0
21,12290.00,12290.00,0.00,7.246,6755,0.004,6.592,0.007,0.628,0.015,81.1
22,12235.00,12235.00,0.00,7.285,6724,0.003,6.629,0.008,0.631,0.015,81.3
23,12981.00,12981.00,0.00,6.806,7135,0.003,6.187,0.008,0.594,0.015,80.1
24,12465.00,12455.00,10.00,7.108,6845,0.003,6.465,0.008,0.618,0.015,80.8
25,12093.00,12009.00,84.00,7.328,6600,0.003,6.667,0.008,0.635,0.015,80.6
26,12338.00,12336.00,2.00,7.190,6779,0.003,6.540,0.007,0.624,0.015,80.6
27,11702.00,11702.00,0.00,7.630,6430,0.003,6.945,0.007,0.659,0.015,81.6
28,12472.00,12472.00,0.00,7.069,6854,0.003,6.425,0.007,0.619,0.015,80.5
29,12208.00,12208.00,0.00,7.220,6709,0.003,6.563,0.007,0.631,0.016,80.0
30,11728.00,11728.00,0.00,7.522,6445,0.004,6.838,0.007,0.657,0.016,80.0
31,12311.00,12311.00,0.00,7.186,6766,0.003,6.534,0.007,0.626,0.015,80.5
32,12007.00,12007.00,0.00,7.360,6598,0.003,6.694,0.007,0.641,0.015,80.6
33,12774.00,12774.00,0.00,6.985,7020,0.004,6.356,0.007,0.603,0.015,81.4
34,12672.00,12672.00,0.00,7.046,6965,0.004,6.413,0.007,0.605,0.016,81.5
35,11542.00,11542.00,0.00,7.755,6344,0.003,7.063,0.007,0.666,0.015,81.1
36,11798.00,11798.00,0.00,7.537,6484,0.003,6.856,0.007,0.655,0.015,80.9
37,12108.00,12108.00,0.00,7.291,6655,0.003,6.628,0.007,0.637,0.015,79.9
38,12272.00,12272.00,0.00,7.202,6746,0.003,6.547,0.007,0.629,0.016,80.0
39,12877.00,12877.00,0.00,6.869,7076,0.003,6.246,0.007,0.597,0.015,80.9
40,11799.00,11799.00,0.00,7.547,6484,0.004,6.864,0.007,0.655,0.016,80.7
41,12001.00,12001.00,0.00,7.452,6596,0.003,6.783,0.007,0.644,0.015,81.4
42,11344.00,11344.00,0.00,7.948,6234,0.003,7.240,0.007,0.684,0.015,81.9
43,12298.00,12298.00,0.00,7.263,6758,0.003,6.611,0.007,0.627,0.015,81.5
44,12307.00,12307.00,0.00,7.229,6764,0.004,6.579,0.007,0.625,0.014,81.3
45,11603.00,11603.00,0.00,7.726,6377,0.003,7.033,0.007,0.668,0.015,81.5
46,12665.00,12665.00,0.00,7.003,6960,0.003,6.368,0.007,0.610,0.014,80.9
47,11965.00,11965.00,0.00,7.440,6575,0.003,6.770,0.007,0.645,0.015,81.5
48,11764.00,11764.00,0.00,7.698,6466,0.003,7.014,0.007,0.659,0.015,81.7
49,12202.00,12202.00,0.00,7.289,6706,0.003,6.630,0.007,0.634,0.015,80.8
50,12035.00,12035.00,0.00,7.345,6615,0.003,6.679,0.007,0.641,0.015,80.7
51,12115.00,12115.00,0.00,7.397,6658,0.003,6.732,0.007,0.639,0.015,81.1
52,11728.00,11728.00,0.00,7.465,6445,0.003,6.781,0.008,0.658,0.015,79.5
53,12466.00,12466.00,0.00,7.157,6851,0.003,6.512,0.006,0.621,0.015,81.3
54,11969.00,11969.00,0.00,7.372,6577,0.004,6.701,0.007,0.646,0.015,80.6
55,12633.00,12633.00,0.00,6.972,6943,0.003,6.337,0.007,0.610,0.015,79.4
56,13095.00,13095.00,0.00,6.805,7197,0.003,6.191,0.007,0.588,0.015,81.3
57,12041.00,12041.00,0.00,7.435,6618,0.003,6.769,0.007,0.641,0.015,81.8
58,11447.00,11447.00,0.00,7.790,6291,0.003,7.088,0.007,0.677,0.015,80.6
59,10491.00,10491.00,0.00,8.674,5766,0.003,7.909,0.007,0.739,0.015,82.5
60,10574.00,10574.00,0.00,8.518,5812,0.004,7.759,0.007,0.733,0.015,81.9
61,10352.00,10352.00,0.00,8.753,5690,0.003,7.976,0.007,0.752,0.015,82.0
62,10069.00,10068.00,1.00,9.006,5534,0.003,8.211,0.007,0.771,0.015,82.2
63,12263.00,12199.00,64.00,7.263,6705,0.003,6.607,0.007,0.631,0.015,80.8
64,12034.00,12003.00,31.00,7.340,6597,0.003,6.672,0.007,0.643,0.015,80.0
65,12453.00,12453.00,0.00,7.132,6843,0.004,6.486,0.007,0.620,0.015,80.7
66,12730.00,12730.00,0.00,7.013,6995,0.003,6.381,0.007,0.606,0.015,81.4
67,12379.00,12379.00,0.00,7.194,6803,0.003,6.546,0.007,0.624,0.015,81.3
68,11449.00,11449.00,0.00,7.786,6293,0.003,7.086,0.007,0.675,0.015,81.4
69,11790.00,11790.00,0.00,7.632,6479,0.003,6.950,0.007,0.657,0.015,81.8
70,12123.00,12123.00,0.00,7.325,6662,0.003,6.662,0.007,0.638,0.014,80.9
71,11610.00,11610.00,0.00,7.722,6382,0.003,7.031,0.007,0.666,0.015,81.6
72,12498.00,12498.00,0.00,7.143,6869,0.003,6.501,0.007,0.617,0.014,81.5
73,11891.00,11891.00,0.00,7.474,6536,0.003,6.797,0.007,0.652,0.015,80.7
74,10094.00,10094.00,0.00,6.716,5548,0.003,6.042,0.009,0.647,0.015,71.6
75,3271.00,3271.00,0.00,0.786,1798,0.004,0.106,0.016,0.647,0.013,0.2
