PING 10.0.0.4 (10.0.0.4) 56(84) bytes of data.
64 bytes from 10.0.0.4: icmp_seq=1 ttl=64 time=2.14 ms
64 bytes from 10.0.0.4: icmp_seq=2 ttl=64 time=0.719 ms
64 bytes from 10.0.0.4: icmp_seq=3 ttl=64 time=10.4 ms
64 bytes from 10.0.0.4: icmp_seq=4 ttl=64 time=1.11 ms
64 bytes from 10.0.0.4: icmp_seq=5 ttl=64 time=0.740 ms
64 bytes from 10.0.0.4: icmp_seq=6 ttl=64 time=0.876 ms
64 bytes from 10.0.0.4: icmp_seq=7 ttl=64 time=0.557 ms
64 bytes from 10.0.0.4: icmp_seq=8 ttl=64 time=10.5 ms
64 bytes from 10.0.0.4: icmp_seq=9 ttl=64 time=0.669 ms
64 bytes from 10.0.0.4: icmp_seq=10 ttl=64 time=5.22 ms
64 bytes from 10.0.0.4: icmp_seq=11 ttl=64 time=0.715 ms
64 bytes from 10.0.0.4: icmp_seq=12 ttl=64 time=0.477 ms
64 bytes from 10.0.0.4: icmp_seq=13 ttl=64 time=4.35 ms
64 bytes from 10.0.0.4: icmp_seq=14 ttl=64 time=0.598 ms
64 bytes from 10.0.0.4: icmp_seq=15 ttl=64 time=0.809 ms
64 bytes from 10.0.0.4: icmp_seq=16 ttl=64 time=1.60 ms

--- 10.0.0.4 ping statistics ---
16 packets transmitted, 16 received, 0% packet loss, time 76326ms
rtt min/avg/max/mdev = 0.477/2.601/10.534/3.276 ms
