PING 10.0.0.4 (10.0.0.4) 56(84) bytes of data.
64 bytes from 10.0.0.4: icmp_seq=1 ttl=64 time=1.91 ms
64 bytes from 10.0.0.4: icmp_seq=2 ttl=64 time=0.762 ms
64 bytes from 10.0.0.4: icmp_seq=3 ttl=64 time=8.24 ms
64 bytes from 10.0.0.4: icmp_seq=4 ttl=64 time=2.61 ms
64 bytes from 10.0.0.4: icmp_seq=5 ttl=64 time=0.771 ms
64 bytes from 10.0.0.4: icmp_seq=6 ttl=64 time=0.475 ms
64 bytes from 10.0.0.4: icmp_seq=7 ttl=64 time=3.19 ms
64 bytes from 10.0.0.4: icmp_seq=8 ttl=64 time=0.461 ms
64 bytes from 10.0.0.4: icmp_seq=9 ttl=64 time=0.853 ms
64 bytes from 10.0.0.4: icmp_seq=10 ttl=64 time=0.722 ms
64 bytes from 10.0.0.4: icmp_seq=11 ttl=64 time=7.73 ms
64 bytes from 10.0.0.4: icmp_seq=12 ttl=64 time=1.07 ms
64 bytes from 10.0.0.4: icmp_seq=13 ttl=64 time=0.463 ms
64 bytes from 10.0.0.4: icmp_seq=14 ttl=64 time=0.429 ms
64 bytes from 10.0.0.4: icmp_seq=15 ttl=64 time=2.88 ms
64 bytes from 10.0.0.4: icmp_seq=16 ttl=64 time=0.741 ms

--- 10.0.0.4 ping statistics ---
16 packets transmitted, 16 received, 0% packet loss, time 76056ms
rtt min/avg/max/mdev = 0.429/2.083/8.241/2.401 ms
