PING 10.0.0.4 (10.0.0.4) 56(84) bytes of data.
64 bytes from 10.0.0.4: icmp_seq=1 ttl=64 time=0.875 ms
64 bytes from 10.0.0.4: icmp_seq=2 ttl=64 time=4.70 ms
64 bytes from 10.0.0.4: icmp_seq=3 ttl=64 time=0.673 ms
64 bytes from 10.0.0.4: icmp_seq=4 ttl=64 time=0.569 ms
64 bytes from 10.0.0.4: icmp_seq=5 ttl=64 time=0.728 ms
64 bytes from 10.0.0.4: icmp_seq=6 ttl=64 time=0.574 ms
64 bytes from 10.0.0.4: icmp_seq=7 ttl=64 time=0.384 ms
64 bytes from 10.0.0.4: icmp_seq=8 ttl=64 time=0.704 ms
64 bytes from 10.0.0.4: icmp_seq=9 ttl=64 time=0.750 ms
64 bytes from 10.0.0.4: icmp_seq=10 ttl=64 time=0.950 ms
64 bytes from 10.0.0.4: icmp_seq=11 ttl=64 time=0.500 ms
64 bytes from 10.0.0.4: icmp_seq=12 ttl=64 time=0.460 ms
64 bytes from 10.0.0.4: icmp_seq=13 ttl=64 time=0.691 ms
64 bytes from 10.0.0.4: icmp_seq=14 ttl=64 time=2.12 ms
64 bytes from 10.0.0.4: icmp_seq=15 ttl=64 time=0.593 ms
64 bytes from 10.0.0.4: icmp_seq=16 ttl=64 time=0.902 ms

--- 10.0.0.4 ping statistics ---
16 packets transmitted, 16 received, 0% packet loss, time 76795ms
rtt min/avg/max/mdev = 0.384/1.011/4.702/1.027 ms
