PING 10.0.0.4 (10.0.0.4) 56(84) bytes of data.
64 bytes from 10.0.0.4: icmp_seq=1 ttl=64 time=0.629 ms
64 bytes from 10.0.0.4: icmp_seq=2 ttl=64 time=3.61 ms
64 bytes from 10.0.0.4: icmp_seq=3 ttl=64 time=0.462 ms
64 bytes from 10.0.0.4: icmp_seq=4 ttl=64 time=0.485 ms
64 bytes from 10.0.0.4: icmp_seq=5 ttl=64 time=4.19 ms
64 bytes from 10.0.0.4: icmp_seq=6 ttl=64 time=0.419 ms
64 bytes from 10.0.0.4: icmp_seq=7 ttl=64 time=0.665 ms
64 bytes from 10.0.0.4: icmp_seq=8 ttl=64 time=0.463 ms
64 bytes from 10.0.0.4: icmp_seq=9 ttl=64 time=0.493 ms
64 bytes from 10.0.0.4: icmp_seq=10 ttl=64 time=0.610 ms
64 bytes from 10.0.0.4: icmp_seq=11 ttl=64 time=0.822 ms
64 bytes from 10.0.0.4: icmp_seq=12 ttl=64 time=0.840 ms
64 bytes from 10.0.0.4: icmp_seq=13 ttl=64 time=0.681 ms
64 bytes from 10.0.0.4: icmp_seq=14 ttl=64 time=0.726 ms
64 bytes from 10.0.0.4: icmp_seq=15 ttl=64 time=0.457 ms
64 bytes from 10.0.0.4: icmp_seq=16 ttl=64 time=0.912 ms

--- 10.0.0.4 ping statistics ---
16 packets transmitted, 16 received, 0% packet loss, time 76634ms
rtt min/avg/max/mdev = 0.419/1.029/4.190/1.101 ms
