PING 10.0.0.4 (10.0.0.4) 56(84) bytes of data.
64 bytes from 10.0.0.4: icmp_seq=1 ttl=64 time=0.766 ms
64 bytes from 10.0.0.4: icmp_seq=2 ttl=64 time=1.52 ms
64 bytes from 10.0.0.4: icmp_seq=3 ttl=64 time=0.665 ms
64 bytes from 10.0.0.4: icmp_seq=4 ttl=64 time=0.534 ms
64 bytes from 10.0.0.4: icmp_seq=5 ttl=64 time=0.541 ms
64 bytes from 10.0.0.4: icmp_seq=6 ttl=64 time=0.559 ms
64 bytes from 10.0.0.4: icmp_seq=7 ttl=64 time=5.22 ms
64 bytes from 10.0.0.4: icmp_seq=8 ttl=64 time=0.927 ms
64 bytes from 10.0.0.4: icmp_seq=9 ttl=64 time=0.482 ms
64 bytes from 10.0.0.4: icmp_seq=10 ttl=64 time=4.58 ms
64 bytes from 10.0.0.4: icmp_seq=11 ttl=64 time=0.802 ms
64 bytes from 10.0.0.4: icmp_seq=12 ttl=64 time=0.726 ms
64 bytes from 10.0.0.4: icmp_seq=13 ttl=64 time=0.979 ms
64 bytes from 10.0.0.4: icmp_seq=14 ttl=64 time=1.00 ms
64 bytes from 10.0.0.4: icmp_seq=15 ttl=64 time=0.499 ms
64 bytes from 10.0.0.4: icmp_seq=16 ttl=64 time=0.763 ms

--- 10.0.0.4 ping statistics ---
16 packets transmitted, 16 received, 0% packet loss, time 76450ms
rtt min/avg/max/mdev = 0.482/1.286/5.227/1.396 ms
