PING 10.0.0.4 (10.0.0.4) 56(84) bytes of data.
64 bytes from 10.0.0.4: icmp_seq=1 ttl=64 time=0.571 ms
64 bytes from 10.0.0.4: icmp_seq=2 ttl=64 time=7.29 ms
64 bytes from 10.0.0.4: icmp_seq=3 ttl=64 time=2.07 ms
64 bytes from 10.0.0.4: icmp_seq=4 ttl=64 time=0.488 ms
64 bytes from 10.0.0.4: icmp_seq=5 ttl=64 time=12.5 ms
64 bytes from 10.0.0.4: icmp_seq=6 ttl=64 time=0.955 ms
64 bytes from 10.0.0.4: icmp_seq=7 ttl=64 time=6.64 ms
64 bytes from 10.0.0.4: icmp_seq=8 ttl=64 time=0.873 ms
64 bytes from 10.0.0.4: icmp_seq=9 ttl=64 time=1.95 ms
64 bytes from 10.0.0.4: icmp_seq=10 ttl=64 time=0.796 ms
64 bytes from 10.0.0.4: icmp_seq=11 ttl=64 time=12.0 ms
64 bytes from 10.0.0.4: icmp_seq=12 ttl=64 time=6.88 ms
64 bytes from 10.0.0.4: icmp_seq=13 ttl=64 time=3.69 ms
64 bytes from 10.0.0.4: icmp_seq=14 ttl=64 time=0.449 ms
64 bytes from 10.0.0.4: icmp_seq=15 ttl=64 time=6.98 ms
64 bytes from 10.0.0.4: icmp_seq=16 ttl=64 time=0.940 ms

--- 10.0.0.4 ping statistics ---
16 packets transmitted, 16 received, 0% packet loss, time 76225ms
rtt min/avg/max/mdev = 0.449/4.074/12.522/4.000 ms
