PING 10.0.0.4 (10.0.0.4) 56(84) bytes of data.
64 bytes from 10.0.0.4: icmp_seq=1 ttl=64 time=0.516 ms
64 bytes from 10.0.0.4: icmp_seq=2 ttl=64 time=2.39 ms
64 bytes from 10.0.0.4: icmp_seq=3 ttl=64 time=4.12 ms
64 bytes from 10.0.0.4: icmp_seq=4 ttl=64 time=0.651 ms
64 bytes from 10.0.0.4: icmp_seq=5 ttl=64 time=0.483 ms
64 bytes from 10.0.0.4: icmp_seq=6 ttl=64 time=4.44 ms
64 bytes from 10.0.0.4: icmp_seq=7 ttl=64 time=0.591 ms
64 bytes from 10.0.0.4: icmp_seq=8 ttl=64 time=0.614 ms
64 bytes from 10.0.0.4: icmp_seq=9 ttl=64 time=0.661 ms
64 bytes from 10.0.0.4: icmp_seq=10 ttl=64 time=0.613 ms
64 bytes from 10.0.0.4: icmp_seq=11 ttl=64 time=0.485 ms
64 bytes from 10.0.0.4: icmp_seq=12 ttl=64 time=0.500 ms
64 bytes from 10.0.0.4: icmp_seq=13 ttl=64 time=8.79 ms
64 bytes from 10.0.0.4: icmp_seq=14 ttl=64 time=0.940 ms
64 bytes from 10.0.0.4: icmp_seq=15 ttl=64 time=0.970 ms
64 bytes from 10.0.0.4: icmp_seq=16 ttl=64 time=0.706 ms

--- 10.0.0.4 ping statistics ---
16 packets transmitted, 16 received, 0% packet loss, time 76439ms
rtt min/avg/max/mdev = 0.483/1.717/8.792/2.206 ms
