PING 10.0.0.4 (10.0.0.4) 56(84) bytes of data.
64 bytes from 10.0.0.4: icmp_seq=1 ttl=64 time=0.581 ms
64 bytes from 10.0.0.4: icmp_seq=2 ttl=64 time=3.35 ms
64 bytes from 10.0.0.4: icmp_seq=3 ttl=64 time=5.87 ms
64 bytes from 10.0.0.4: icmp_seq=4 ttl=64 time=0.699 ms
64 bytes from 10.0.0.4: icmp_seq=5 ttl=64 time=0.814 ms
64 bytes from 10.0.0.4: icmp_seq=6 ttl=64 time=0.988 ms
64 bytes from 10.0.0.4: icmp_seq=7 ttl=64 time=0.815 ms
64 bytes from 10.0.0.4: icmp_seq=8 ttl=64 time=12.7 ms
64 bytes from 10.0.0.4: icmp_seq=9 ttl=64 time=6.65 ms
64 bytes from 10.0.0.4: icmp_seq=10 ttl=64 time=0.744 ms
64 bytes from 10.0.0.4: icmp_seq=11 ttl=64 time=12.2 ms
64 bytes from 10.0.0.4: icmp_seq=12 ttl=64 time=7.21 ms
64 bytes from 10.0.0.4: icmp_seq=13 ttl=64 time=1.11 ms
64 bytes from 10.0.0.4: icmp_seq=14 ttl=64 time=1.01 ms
64 bytes from 10.0.0.4: icmp_seq=15 ttl=64 time=7.56 ms
64 bytes from 10.0.0.4: icmp_seq=16 ttl=64 time=0.783 ms

--- 10.0.0.4 ping statistics ---
16 packets transmitted, 16 received, 0% packet loss, time 75362ms
rtt min/avg/max/mdev = 0.581/3.950/12.740/4.097 ms
