PING 10.0.0.4 (10.0.0.4) 56(84) bytes of data.
64 bytes from 10.0.0.4: icmp_seq=1 ttl=64 time=0.620 ms
64 bytes from 10.0.0.4: icmp_seq=2 ttl=64 time=7.03 ms
64 bytes from 10.0.0.4: icmp_seq=3 ttl=64 time=1.25 ms
64 bytes from 10.0.0.4: icmp_seq=4 ttl=64 time=4.28 ms
64 bytes from 10.0.0.4: icmp_seq=5 ttl=64 time=0.661 ms
64 bytes from 10.0.0.4: icmp_seq=6 ttl=64 time=10.0 ms
64 bytes from 10.0.0.4: icmp_seq=7 ttl=64 time=4.30 ms
64 bytes from 10.0.0.4: icmp_seq=8 ttl=64 time=0.701 ms
64 bytes from 10.0.0.4: icmp_seq=9 ttl=64 time=0.581 ms
64 bytes from 10.0.0.4: icmp_seq=10 ttl=64 time=0.546 ms
64 bytes from 10.0.0.4: icmp_seq=11 ttl=64 time=9.74 ms
64 bytes from 10.0.0.4: icmp_seq=12 ttl=64 time=0.735 ms
64 bytes from 10.0.0.4: icmp_seq=13 ttl=64 time=4.52 ms
64 bytes from 10.0.0.4: icmp_seq=14 ttl=64 time=0.418 ms
64 bytes from 10.0.0.4: icmp_seq=15 ttl=64 time=1.86 ms
64 bytes from 10.0.0.4: icmp_seq=16 ttl=64 time=1.34 ms

--- 10.0.0.4 ping statistics ---
16 packets transmitted, 16 received, 0% packet loss, time 76214ms
rtt min/avg/max/mdev = 0.418/3.039/10.012/3.199 ms
