PING 10.0.0.4 (10.0.0.4) 56(84) bytes of data.
64 bytes from 10.0.0.4: icmp_seq=1 ttl=64 time=0.954 ms
64 bytes from 10.0.0.4: icmp_seq=2 ttl=64 time=1.34 ms
64 bytes from 10.0.0.4: icmp_seq=3 ttl=64 time=2.64 ms
64 bytes from 10.0.0.4: icmp_seq=4 ttl=64 time=0.530 ms
64 bytes from 10.0.0.4: icmp_seq=5 ttl=64 time=0.461 ms
64 bytes from 10.0.0.4: icmp_seq=6 ttl=64 time=0.538 ms
64 bytes from 10.0.0.4: icmp_seq=7 ttl=64 time=2.16 ms
64 bytes from 10.0.0.4: icmp_seq=8 ttl=64 time=1.84 ms
64 bytes from 10.0.0.4: icmp_seq=9 ttl=64 time=7.15 ms
64 bytes from 10.0.0.4: icmp_seq=10 ttl=64 time=0.550 ms
64 bytes from 10.0.0.4: icmp_seq=11 ttl=64 time=0.562 ms
64 bytes from 10.0.0.4: icmp_seq=12 ttl=64 time=0.767 ms
64 bytes from 10.0.0.4: icmp_seq=13 ttl=64 time=0.887 ms
64 bytes from 10.0.0.4: icmp_seq=14 ttl=64 time=0.471 ms
64 bytes from 10.0.0.4: icmp_seq=15 ttl=64 time=0.873 ms
64 bytes from 10.0.0.4: icmp_seq=16 ttl=64 time=0.794 ms

--- 10.0.0.4 ping statistics ---
16 packets transmitted, 16 received, 0% packet loss, time 76076ms
rtt min/avg/max/mdev = 0.461/1.408/7.155/1.613 ms
