PING 10.0.0.4 (10.0.0.4) 56(84) bytes of data.
64 bytes from 10.0.0.4: icmp_seq=1 ttl=64 time=0.746 ms
64 bytes from 10.0.0.4: icmp_seq=2 ttl=64 time=0.503 ms
64 bytes from 10.0.0.4: icmp_seq=3 ttl=64 time=0.506 ms
64 bytes from 10.0.0.4: icmp_seq=4 ttl=64 time=4.04 ms
64 bytes from 10.0.0.4: icmp_seq=5 ttl=64 time=1.87 ms
64 bytes from 10.0.0.4: icmp_seq=6 ttl=64 time=1.07 ms
64 bytes from 10.0.0.4: icmp_seq=7 ttl=64 time=0.597 ms
64 bytes from 10.0.0.4: icmp_seq=8 ttl=64 time=0.372 ms
64 bytes from 10.0.0.4: icmp_seq=9 ttl=64 time=4.17 ms
64 bytes from 10.0.0.4: icmp_seq=10 ttl=64 time=0.400 ms
64 bytes from 10.0.0.4: icmp_seq=11 ttl=64 time=0.649 ms
64 bytes from 10.0.0.4: icmp_seq=12 ttl=64 time=3.29 ms
64 bytes from 10.0.0.4: icmp_seq=13 ttl=64 time=0.625 ms
64 bytes from 10.0.0.4: icmp_seq=14 ttl=64 time=0.810 ms
64 bytes from 10.0.0.4: icmp_seq=15 ttl=64 time=0.716 ms
64 bytes from 10.0.0.4: icmp_seq=16 ttl=64 time=1.14 ms

--- 10.0.0.4 ping statistics ---
16 packets transmitted, 16 received, 0% packet loss, time 76580ms
rtt min/avg/max/mdev = 0.372/1.345/4.170/1.259 ms
