PING 10.0.0.4 (10.0.0.4) 56(84) bytes of data.
64 bytes from 10.0.0.4: icmp_seq=1 ttl=64 time=0.649 ms
64 bytes from 10.0.0.4: icmp_seq=2 ttl=64 time=0.602 ms
64 bytes from 10.0.0.4: icmp_seq=3 ttl=64 time=1.74 ms
64 bytes from 10.0.0.4: icmp_seq=4 ttl=64 time=11.4 ms
64 bytes from 10.0.0.4: icmp_seq=5 ttl=64 time=0.817 ms
64 bytes from 10.0.0.4: icmp_seq=6 ttl=64 time=0.560 ms
64 bytes from 10.0.0.4: icmp_seq=7 ttl=64 time=12.3 ms
64 bytes from 10.0.0.4: icmp_seq=8 ttl=64 time=6.81 ms
64 bytes from 10.0.0.4: icmp_seq=9 ttl=64 time=0.510 ms
64 bytes from 10.0.0.4: icmp_seq=10 ttl=64 time=2.24 ms
64 bytes from 10.0.0.4: icmp_seq=11 ttl=64 time=0.665 ms
64 bytes from 10.0.0.4: icmp_seq=12 ttl=64 time=1.18 ms
64 bytes from 10.0.0.4: icmp_seq=13 ttl=64 time=6.78 ms
64 bytes from 10.0.0.4: icmp_seq=14 ttl=64 time=1.91 ms
64 bytes from 10.0.0.4: icmp_seq=15 ttl=64 time=12.7 ms
64 bytes from 10.0.0.4: icmp_seq=16 ttl=64 time=6.72 ms

--- 10.0.0.4 ping statistics ---
16 packets transmitted, 16 received, 0% packet loss, time 75874ms
rtt min/avg/max/mdev = 0.510/4.237/12.717/4.420 ms
