PING 10.0.0.4 (10.0.0.4) 56(84) bytes of data.
64 bytes from 10.0.0.4: icmp_seq=1 ttl=64 time=0.628 ms
64 bytes from 10.0.0.4: icmp_seq=2 ttl=64 time=0.447 ms
64 bytes from 10.0.0.4: icmp_seq=3 ttl=64 time=6.18 ms
64 bytes from 10.0.0.4: icmp_seq=4 ttl=64 time=0.722 ms
64 bytes from 10.0.0.4: icmp_seq=5 ttl=64 time=0.807 ms
64 bytes from 10.0.0.4: icmp_seq=6 ttl=64 time=5.78 ms
64 bytes from 10.0.0.4: icmp_seq=7 ttl=64 time=0.389 ms
64 bytes from 10.0.0.4: icmp_seq=8 ttl=64 time=0.451 ms
64 bytes from 10.0.0.4: icmp_seq=9 ttl=64 time=5.38 ms
64 bytes from 10.0.0.4: icmp_seq=10 ttl=64 time=0.445 ms
64 bytes from 10.0.0.4: icmp_seq=11 ttl=64 time=0.428 ms
64 bytes from 10.0.0.4: icmp_seq=12 ttl=64 time=5.31 ms
64 bytes from 10.0.0.4: icmp_seq=13 ttl=64 time=0.859 ms
64 bytes from 10.0.0.4: icmp_seq=14 ttl=64 time=0.637 ms
64 bytes from 10.0.0.4: icmp_seq=15 ttl=64 time=4.23 ms
64 bytes from 10.0.0.4: icmp_seq=16 ttl=64 time=1.29 ms

--- 10.0.0.4 ping statistics ---
16 packets transmitted, 16 received, 0% packet loss, time 76663ms
rtt min/avg/max/mdev = 0.389/2.126/6.185/2.235 ms
