PING 10.0.0.4 (10.0.0.4) 56(84) bytes of data.
64 bytes from 10.0.0.4: icmp_seq=1 ttl=64 time=0.557 ms
64 bytes from 10.0.0.4: icmp_seq=2 ttl=64 time=3.24 ms
64 bytes from 10.0.0.4: icmp_seq=3 ttl=64 time=0.831 ms
64 bytes from 10.0.0.4: icmp_seq=4 ttl=64 time=0.450 ms
64 bytes from 10.0.0.4: icmp_seq=5 ttl=64 time=3.25 ms
64 bytes from 10.0.0.4: icmp_seq=6 ttl=64 time=0.561 ms
64 bytes from 10.0.0.4: icmp_seq=7 ttl=64 time=0.387 ms
64 bytes from 10.0.0.4: icmp_seq=8 ttl=64 time=2.62 ms
64 bytes from 10.0.0.4: icmp_seq=9 ttl=64 time=0.392 ms
64 bytes from 10.0.0.4: icmp_seq=10 ttl=64 time=0.708 ms
64 bytes from 10.0.0.4: icmp_seq=11 ttl=64 time=2.03 ms
64 bytes from 10.0.0.4: icmp_seq=12 ttl=64 time=1.59 ms
64 bytes from 10.0.0.4: icmp_seq=13 ttl=64 time=12.0 ms
64 bytes from 10.0.0.4: icmp_seq=14 ttl=64 time=0.865 ms
64 bytes from 10.0.0.4: icmp_seq=15 ttl=64 time=0.629 ms
64 bytes from 10.0.0.4: icmp_seq=16 ttl=64 time=0.941 ms

--- 10.0.0.4 ping statistics ---
16 packets transmitted, 16 received, 0% packet loss, time 76508ms
rtt min/avg/max/mdev = 0.387/1.944/12.029/2.776 ms
