PING 10.0.0.4 (10.0.0.4) 56(84) bytes of data.
64 bytes from 10.0.0.4: icmp_seq=1 ttl=64 time=0.487 ms
64 bytes from 10.0.0.4: icmp_seq=2 ttl=64 time=0.664 ms
64 bytes from 10.0.0.4: icmp_seq=3 ttl=64 time=11.0 ms
64 bytes from 10.0.0.4: icmp_seq=4 ttl=64 time=0.730 ms
64 bytes from 10.0.0.4: icmp_seq=5 ttl=64 time=5.84 ms
64 bytes from 10.0.0.4: icmp_seq=6 ttl=64 time=0.899 ms
64 bytes from 10.0.0.4: icmp_seq=7 ttl=64 time=1.31 ms
64 bytes from 10.0.0.4: icmp_seq=8 ttl=64 time=0.751 ms
64 bytes from 10.0.0.4: icmp_seq=9 ttl=64 time=10.0 ms
64 bytes from 10.0.0.4: icmp_seq=10 ttl=64 time=5.19 ms
64 bytes from 10.0.0.4: icmp_seq=11 ttl=64 time=0.450 ms
64 bytes from 10.0.0.4: icmp_seq=12 ttl=64 time=0.538 ms
64 bytes from 10.0.0.4: icmp_seq=13 ttl=64 time=1.34 ms
64 bytes from 10.0.0.4: icmp_seq=14 ttl=64 time=0.880 ms
64 bytes from 10.0.0.4: icmp_seq=15 ttl=64 time=0.593 ms
64 bytes from 10.0.0.4: icmp_seq=16 ttl=64 time=1.01 ms

--- 10.0.0.4 ping statistics ---
16 packets transmitted, 16 received, 0% packet loss, time 76470ms
rtt min/avg/max/mdev = 0.450/2.614/11.085/3.393 ms
