PING 10.0.0.4 (10.0.0.4) 56(84) bytes of data.
64 bytes from 10.0.0.4: icmp_seq=1 ttl=64 time=0.693 ms
64 bytes from 10.0.0.4: icmp_seq=2 ttl=64 time=0.548 ms
64 bytes from 10.0.0.4: icmp_seq=3 ttl=64 time=1.45 ms
64 bytes from 10.0.0.4: icmp_seq=4 ttl=64 time=0.511 ms
64 bytes from 10.0.0.4: icmp_seq=5 ttl=64 time=9.66 ms
64 bytes from 10.0.0.4: icmp_seq=6 ttl=64 time=0.895 ms
64 bytes from 10.0.0.4: icmp_seq=7 ttl=64 time=4.15 ms
64 bytes from 10.0.0.4: icmp_seq=8 ttl=64 time=0.439 ms
64 bytes from 10.0.0.4: icmp_seq=9 ttl=64 time=0.468 ms
64 bytes from 10.0.0.4: icmp_seq=10 ttl=64 time=3.34 ms
64 bytes from 10.0.0.4: icmp_seq=11 ttl=64 time=0.418 ms
64 bytes from 10.0.0.4: icmp_seq=12 ttl=64 time=0.381 ms
64 bytes from 10.0.0.4: icmp_seq=13 ttl=64 time=2.90 ms
64 bytes from 10.0.0.4: icmp_seq=14 ttl=64 time=0.325 ms
64 bytes from 10.0.0.4: icmp_seq=15 ttl=64 time=8.78 ms
64 bytes from 10.0.0.4: icmp_seq=16 ttl=64 time=0.498 ms

--- 10.0.0.4 ping statistics ---
16 packets transmitted, 16 received, 0% packet loss, time 76550ms
rtt min/avg/max/mdev = 0.325/2.217/9.665/2.892 ms
