PING 10.0.0.4 (10.0.0.4) 56(84) bytes of data.
64 bytes from 10.0.0.4: icmp_seq=1 ttl=64 time=9.73 ms
64 bytes from 10.0.0.4: icmp_seq=2 ttl=64 time=0.389 ms
64 bytes from 10.0.0.4: icmp_seq=3 ttl=64 time=1.63 ms
64 bytes from 10.0.0.4: icmp_seq=4 ttl=64 time=6.79 ms
64 bytes from 10.0.0.4: icmp_seq=5 ttl=64 time=0.399 ms
64 bytes from 10.0.0.4: icmp_seq=6 ttl=64 time=0.987 ms
64 bytes from 10.0.0.4: icmp_seq=7 ttl=64 time=0.547 ms
64 bytes from 10.0.0.4: icmp_seq=8 ttl=64 time=0.425 ms
64 bytes from 10.0.0.4: icmp_seq=9 ttl=64 time=0.604 ms
64 bytes from 10.0.0.4: icmp_seq=10 ttl=64 time=1.68 ms
64 bytes from 10.0.0.4: icmp_seq=11 ttl=64 time=0.667 ms
64 bytes from 10.0.0.4: icmp_seq=12 ttl=64 time=0.681 ms
64 bytes from 10.0.0.4: icmp_seq=13 ttl=64 time=0.783 ms
64 bytes from 10.0.0.4: icmp_seq=14 ttl=64 time=0.482 ms
64 bytes from 10.0.0.4: icmp_seq=15 ttl=64 time=0.817 ms
64 bytes from 10.0.0.4: icmp_seq=16 ttl=64 time=0.725 ms

--- 10.0.0.4 ping statistics ---
16 packets transmitted, 16 received, 0% packet loss, time 76401ms
rtt min/avg/max/mdev = 0.389/1.709/9.736/2.558 ms
