PING 10.0.0.4 (10.0.0.4) 56(84) bytes of data.
64 bytes from 10.0.0.4: icmp_seq=1 ttl=64 time=0.466 ms
64 bytes from 10.0.0.4: icmp_seq=2 ttl=64 time=3.43 ms
64 bytes from 10.0.0.4: icmp_seq=3 ttl=64 time=11.7 ms
64 bytes from 10.0.0.4: icmp_seq=4 ttl=64 time=0.534 ms
64 bytes from 10.0.0.4: icmp_seq=5 ttl=64 time=0.859 ms
64 bytes from 10.0.0.4: icmp_seq=6 ttl=64 time=1.06 ms
64 bytes from 10.0.0.4: icmp_seq=7 ttl=64 time=0.475 ms
64 bytes from 10.0.0.4: icmp_seq=8 ttl=64 time=0.515 ms
64 bytes from 10.0.0.4: icmp_seq=9 ttl=64 time=0.681 ms
64 bytes from 10.0.0.4: icmp_seq=10 ttl=64 time=0.598 ms
64 bytes from 10.0.0.4: icmp_seq=11 ttl=64 time=7.05 ms
64 bytes from 10.0.0.4: icmp_seq=12 ttl=64 time=0.734 ms
64 bytes from 10.0.0.4: icmp_seq=13 ttl=64 time=1.17 ms
64 bytes from 10.0.0.4: icmp_seq=14 ttl=64 time=0.490 ms
64 bytes from 10.0.0.4: icmp_seq=15 ttl=64 time=6.79 ms
64 bytes from 10.0.0.4: icmp_seq=16 ttl=64 time=0.959 ms

--- 10.0.0.4 ping statistics ---
16 packets transmitted, 16 received, 0% packet loss, time 76166ms
rtt min/avg/max/mdev = 0.466/2.346/11.708/3.196 ms
