PING 10.0.0.4 (10.0.0.4) 56(84) bytes of data.
64 bytes from 10.0.0.4: icmp_seq=1 ttl=64 time=0.430 ms
64 bytes from 10.0.0.4: icmp_seq=2 ttl=64 time=0.374 ms
64 bytes from 10.0.0.4: icmp_seq=3 ttl=64 time=1.06 ms
64 bytes from 10.0.0.4: icmp_seq=4 ttl=64 time=0.442 ms
64 bytes from 10.0.0.4: icmp_seq=5 ttl=64 time=0.677 ms
64 bytes from 10.0.0.4: icmp_seq=6 ttl=64 time=0.925 ms
64 bytes from 10.0.0.4: icmp_seq=7 ttl=64 time=0.388 ms
64 bytes from 10.0.0.4: icmp_seq=8 ttl=64 time=0.922 ms
64 bytes from 10.0.0.4: icmp_seq=9 ttl=64 time=0.500 ms
64 bytes from 10.0.0.4: icmp_seq=10 ttl=64 time=0.926 ms
64 bytes from 10.0.0.4: icmp_seq=11 ttl=64 time=0.765 ms
64 bytes from 10.0.0.4: icmp_seq=12 ttl=64 time=0.637 ms
64 bytes from 10.0.0.4: icmp_seq=13 ttl=64 time=0.934 ms
64 bytes from 10.0.0.4: icmp_seq=14 ttl=64 time=1.05 ms
64 bytes from 10.0.0.4: icmp_seq=15 ttl=64 time=0.518 ms
64 bytes from 10.0.0.4: icmp_seq=16 ttl=64 time=0.905 ms

--- 10.0.0.4 ping statistics ---
16 packets transmitted, 16 received, 0% packet loss, time 76784ms
rtt min/avg/max/mdev = 0.374/0.716/1.061/0.240 ms
