PING 10.0.0.4 (10.0.0.4) 56(84) bytes of data.
64 bytes from 10.0.0.4: icmp_seq=1 ttl=64 time=0.590 ms
64 bytes from 10.0.0.4: icmp_seq=2 ttl=64 time=0.800 ms
64 bytes from 10.0.0.4: icmp_seq=3 ttl=64 time=0.790 ms
64 bytes from 10.0.0.4: icmp_seq=4 ttl=64 time=0.835 ms
64 bytes from 10.0.0.4: icmp_seq=5 ttl=64 time=1.01 ms
64 bytes from 10.0.0.4: icmp_seq=6 ttl=64 time=0.469 ms
64 bytes from 10.0.0.4: icmp_seq=7 ttl=64 time=0.494 ms
64 bytes from 10.0.0.4: icmp_seq=8 ttl=64 time=0.785 ms
64 bytes from 10.0.0.4: icmp_seq=9 ttl=64 time=0.665 ms
64 bytes from 10.0.0.4: icmp_seq=10 ttl=64 time=0.469 ms
64 bytes from 10.0.0.4: icmp_seq=11 ttl=64 time=0.776 ms
64 bytes from 10.0.0.4: icmp_seq=12 ttl=64 time=0.518 ms
64 bytes from 10.0.0.4: icmp_seq=13 ttl=64 time=0.516 ms
64 bytes from 10.0.0.4: icmp_seq=14 ttl=64 time=0.549 ms
64 bytes from 10.0.0.4: icmp_seq=15 ttl=64 time=0.507 ms
64 bytes from 10.0.0.4: icmp_seq=16 ttl=64 time=0.759 ms

--- 10.0.0.4 ping statistics ---
16 packets transmitted, 16 received, 0% packet loss, time 76705ms
rtt min/avg/max/mdev = 0.469/0.658/1.014/0.162 ms
