PING 10.0.0.4 (10.0.0.4) 56(84) bytes of data.
64 bytes from 10.0.0.4: icmp_seq=1 ttl=64 time=7.65 ms
64 bytes from 10.0.0.4: icmp_seq=2 ttl=64 time=0.695 ms
64 bytes from 10.0.0.4: icmp_seq=3 ttl=64 time=7.24 ms
64 bytes from 10.0.0.4: icmp_seq=4 ttl=64 time=0.808 ms
64 bytes from 10.0.0.4: icmp_seq=5 ttl=64 time=0.988 ms
64 bytes from 10.0.0.4: icmp_seq=6 ttl=64 time=0.570 ms
64 bytes from 10.0.0.4: icmp_seq=7 ttl=64 time=1.16 ms
64 bytes from 10.0.0.4: icmp_seq=8 ttl=64 time=0.622 ms
64 bytes from 10.0.0.4: icmp_seq=9 ttl=64 time=1.52 ms
64 bytes from 10.0.0.4: icmp_seq=10 ttl=64 time=1.18 ms
64 bytes from 10.0.0.4: icmp_seq=11 ttl=64 time=0.875 ms
64 bytes from 10.0.0.4: icmp_seq=12 ttl=64 time=1.13 ms
64 bytes from 10.0.0.4: icmp_seq=13 ttl=64 time=0.951 ms
64 bytes from 10.0.0.4: icmp_seq=14 ttl=64 time=1.16 ms
64 bytes from 10.0.0.4: icmp_seq=15 ttl=64 time=0.619 ms
64 bytes from 10.0.0.4: icmp_seq=16 ttl=64 time=1.03 ms

--- 10.0.0.4 ping statistics ---
16 packets transmitted, 16 received, 0% packet loss, time 75981ms
rtt min/avg/max/mdev = 0.570/1.764/7.653/2.163 ms
