PING 10.0.0.4 (10.0.0.4) 56(84) bytes of data.
64 bytes from 10.0.0.4: icmp_seq=1 ttl=64 time=2.21 ms
64 bytes from 10.0.0.4: icmp_seq=2 ttl=64 time=1.07 ms
64 bytes from 10.0.0.4: icmp_seq=3 ttl=64 time=0.633 ms
64 bytes from 10.0.0.4: icmp_seq=4 ttl=64 time=1.05 ms
64 bytes from 10.0.0.4: icmp_seq=5 ttl=64 time=0.472 ms
64 bytes from 10.0.0.4: icmp_seq=6 ttl=64 time=0.796 ms
64 bytes from 10.0.0.4: icmp_seq=7 ttl=64 time=0.400 ms
64 bytes from 10.0.0.4: icmp_seq=8 ttl=64 time=1.26 ms
64 bytes from 10.0.0.4: icmp_seq=9 ttl=64 time=1.04 ms
64 bytes from 10.0.0.4: icmp_seq=10 ttl=64 time=1.20 ms
64 bytes from 10.0.0.4: icmp_seq=11 ttl=64 time=0.960 ms
64 bytes from 10.0.0.4: icmp_seq=12 ttl=64 time=1.50 ms
64 bytes from 10.0.0.4: icmp_seq=13 ttl=64 time=2.08 ms
64 bytes from 10.0.0.4: icmp_seq=14 ttl=64 time=0.619 ms
64 bytes from 10.0.0.4: icmp_seq=15 ttl=64 time=1.69 ms
64 bytes from 10.0.0.4: icmp_seq=16 ttl=64 time=1.24 ms

--- 10.0.0.4 ping statistics ---
16 packets transmitted, 16 received, 0% packet loss, time 75659ms
rtt min/avg/max/mdev = 0.400/1.141/2.218/0.514 ms
