PING 10.0.0.4 (10.0.0.4) 56(84) bytes of data.
64 bytes from 10.0.0.4: icmp_seq=1 ttl=64 time=1.17 ms
64 bytes from 10.0.0.4: icmp_seq=2 ttl=64 time=0.804 ms
64 bytes from 10.0.0.4: icmp_seq=3 ttl=64 time=0.616 ms
64 bytes from 10.0.0.4: icmp_seq=4 ttl=64 time=0.651 ms
64 bytes from 10.0.0.4: icmp_seq=5 ttl=64 time=0.490 ms
64 bytes from 10.0.0.4: icmp_seq=6 ttl=64 time=0.475 ms
64 bytes from 10.0.0.4: icmp_seq=7 ttl=64 time=0.424 ms
64 bytes from 10.0.0.4: icmp_seq=8 ttl=64 time=0.409 ms
64 bytes from 10.0.0.4: icmp_seq=9 ttl=64 time=0.826 ms
64 bytes from 10.0.0.4: icmp_seq=10 ttl=64 time=0.392 ms
64 bytes from 10.0.0.4: icmp_seq=11 ttl=64 time=0.473 ms
64 bytes from 10.0.0.4: icmp_seq=12 ttl=64 time=7.71 ms
64 bytes from 10.0.0.4: icmp_seq=13 ttl=64 time=0.678 ms
64 bytes from 10.0.0.4: icmp_seq=14 ttl=64 time=0.474 ms
64 bytes from 10.0.0.4: icmp_seq=15 ttl=64 time=0.450 ms
64 bytes from 10.0.0.4: icmp_seq=16 ttl=64 time=0.857 ms

--- 10.0.0.4 ping statistics ---
16 packets transmitted, 16 received, 0% packet loss, time 76706ms
rtt min/avg/max/mdev = 0.392/1.056/7.718/1.732 ms
