PING 10.0.0.4 (10.0.0.4) 56(84) bytes of data.
64 bytes from 10.0.0.4: icmp_seq=1 ttl=64 time=8.75 ms
64 bytes from 10.0.0.4: icmp_seq=2 ttl=64 time=0.461 ms
64 bytes from 10.0.0.4: icmp_seq=3 ttl=64 time=0.513 ms
64 bytes from 10.0.0.4: icmp_seq=4 ttl=64 time=0.549 ms
64 bytes from 10.0.0.4: icmp_seq=5 ttl=64 time=0.420 ms
64 bytes from 10.0.0.4: icmp_seq=6 ttl=64 time=0.555 ms
64 bytes from 10.0.0.4: icmp_seq=7 ttl=64 time=0.675 ms
64 bytes from 10.0.0.4: icmp_seq=8 ttl=64 time=1.05 ms
64 bytes from 10.0.0.4: icmp_seq=9 ttl=64 time=0.794 ms
64 bytes from 10.0.0.4: icmp_seq=10 ttl=64 time=0.367 ms
64 bytes from 10.0.0.4: icmp_seq=11 ttl=64 time=0.967 ms
64 bytes from 10.0.0.4: icmp_seq=12 ttl=64 time=0.545 ms
64 bytes from 10.0.0.4: icmp_seq=13 ttl=64 time=0.983 ms
64 bytes from 10.0.0.4: icmp_seq=14 ttl=64 time=0.825 ms
64 bytes from 10.0.0.4: icmp_seq=15 ttl=64 time=0.789 ms
64 bytes from 10.0.0.4: icmp_seq=16 ttl=64 time=0.808 ms

--- 10.0.0.4 ping statistics ---
16 packets transmitted, 16 received, 0% packet loss, time 76795ms
rtt min/avg/max/mdev = 0.367/1.191/8.759/1.965 ms
