PING 10.0.0.4 (10.0.0.4) 56(84) bytes of data.
64 bytes from 10.0.0.4: icmp_seq=1 ttl=64 time=9.05 ms
64 bytes from 10.0.0.4: icmp_seq=2 ttl=64 time=1.18 ms
64 bytes from 10.0.0.4: icmp_seq=3 ttl=64 time=0.748 ms
64 bytes from 10.0.0.4: icmp_seq=4 ttl=64 time=0.387 ms
64 bytes from 10.0.0.4: icmp_seq=5 ttl=64 time=0.988 ms
64 bytes from 10.0.0.4: icmp_seq=6 ttl=64 time=1.20 ms
64 bytes from 10.0.0.4: icmp_seq=7 ttl=64 time=0.535 ms
64 bytes from 10.0.0.4: icmp_seq=8 ttl=64 time=0.605 ms
64 bytes from 10.0.0.4: icmp_seq=9 ttl=64 time=7.20 ms
64 bytes from 10.0.0.4: icmp_seq=10 ttl=64 time=0.691 ms
64 bytes from 10.0.0.4: icmp_seq=11 ttl=64 time=1.11 ms
64 bytes from 10.0.0.4: icmp_seq=12 ttl=64 time=0.778 ms
64 bytes from 10.0.0.4: icmp_seq=13 ttl=64 time=0.503 ms
64 bytes from 10.0.0.4: icmp_seq=14 ttl=64 time=0.650 ms
64 bytes from 10.0.0.4: icmp_seq=15 ttl=64 time=0.799 ms
64 bytes from 10.0.0.4: icmp_seq=16 ttl=64 time=1.36 ms

--- 10.0.0.4 ping statistics ---
16 packets transmitted, 16 received, 0% packet loss, time 76232ms
rtt min/avg/max/mdev = 0.387/1.738/9.058/2.453 ms
