PING 10.0.0.4 (10.0.0.4) 56(84) bytes of data.
64 bytes from 10.0.0.4: icmp_seq=1 ttl=64 time=9.09 ms
64 bytes from 10.0.0.4: icmp_seq=2 ttl=64 time=0.818 ms
64 bytes from 10.0.0.4: icmp_seq=3 ttl=64 time=0.808 ms
64 bytes from 10.0.0.4: icmp_seq=4 ttl=64 time=1.77 ms
64 bytes from 10.0.0.4: icmp_seq=5 ttl=64 time=1.64 ms
64 bytes from 10.0.0.4: icmp_seq=6 ttl=64 time=1.42 ms
64 bytes from 10.0.0.4: icmp_seq=7 ttl=64 time=0.448 ms
64 bytes from 10.0.0.4: icmp_seq=8 ttl=64 time=1.09 ms
64 bytes from 10.0.0.4: icmp_seq=9 ttl=64 time=4.74 ms
64 bytes from 10.0.0.4: icmp_seq=10 ttl=64 time=0.482 ms
64 bytes from 10.0.0.4: icmp_seq=11 ttl=64 time=0.536 ms
64 bytes from 10.0.0.4: icmp_seq=12 ttl=64 time=2.73 ms
64 bytes from 10.0.0.4: icmp_seq=13 ttl=64 time=1.27 ms
64 bytes from 10.0.0.4: icmp_seq=14 ttl=64 time=7.77 ms
64 bytes from 10.0.0.4: icmp_seq=15 ttl=64 time=3.08 ms
64 bytes from 10.0.0.4: icmp_seq=16 ttl=64 time=1.09 ms

--- 10.0.0.4 ping statistics ---
16 packets transmitted, 16 received, 0% packet loss, time 75776ms
rtt min/avg/max/mdev = 0.448/2.427/9.093/2.528 ms
