PING 10.0.0.4 (10.0.0.4) 56(84) bytes of data.
64 bytes from 10.0.0.4: icmp_seq=1 ttl=64 time=9.11 ms
64 bytes from 10.0.0.4: icmp_seq=2 ttl=64 time=0.491 ms
64 bytes from 10.0.0.4: icmp_seq=3 ttl=64 time=0.504 ms
64 bytes from 10.0.0.4: icmp_seq=4 ttl=64 time=0.457 ms
64 bytes from 10.0.0.4: icmp_seq=5 ttl=64 time=0.877 ms
64 bytes from 10.0.0.4: icmp_seq=6 ttl=64 time=0.416 ms
64 bytes from 10.0.0.4: icmp_seq=7 ttl=64 time=0.946 ms
64 bytes from 10.0.0.4: icmp_seq=8 ttl=64 time=1.99 ms
64 bytes from 10.0.0.4: icmp_seq=9 ttl=64 time=0.589 ms
64 bytes from 10.0.0.4: icmp_seq=10 ttl=64 time=0.432 ms
64 bytes from 10.0.0.4: icmp_seq=11 ttl=64 time=0.663 ms
64 bytes from 10.0.0.4: icmp_seq=12 ttl=64 time=0.828 ms
64 bytes from 10.0.0.4: icmp_seq=13 ttl=64 time=0.459 ms
64 bytes from 10.0.0.4: icmp_seq=14 ttl=64 time=0.742 ms
64 bytes from 10.0.0.4: icmp_seq=15 ttl=64 time=0.437 ms
64 bytes from 10.0.0.4: icmp_seq=16 ttl=64 time=1.22 ms

--- 10.0.0.4 ping statistics ---
16 packets transmitted, 16 received, 0% packet loss, time 76662ms
rtt min/avg/max/mdev = 0.416/1.260/9.115/2.066 ms
