PING 10.0.0.4 (10.0.0.4) 56(84) bytes of data.
64 bytes from 10.0.0.4: icmp_seq=1 ttl=64 time=0.537 ms
64 bytes from 10.0.0.4: icmp_seq=2 ttl=64 time=0.635 ms
64 bytes from 10.0.0.4: icmp_seq=3 ttl=64 time=1.47 ms
64 bytes from 10.0.0.4: icmp_seq=4 ttl=64 time=0.740 ms
64 bytes from 10.0.0.4: icmp_seq=5 ttl=64 time=0.516 ms
64 bytes from 10.0.0.4: icmp_seq=6 ttl=64 time=0.471 ms
64 bytes from 10.0.0.4: icmp_seq=7 ttl=64 time=0.571 ms
64 bytes from 10.0.0.4: icmp_seq=8 ttl=64 time=0.832 ms
64 bytes from 10.0.0.4: icmp_seq=9 ttl=64 time=0.969 ms
64 bytes from 10.0.0.4: icmp_seq=10 ttl=64 time=0.723 ms
64 bytes from 10.0.0.4: icmp_seq=11 ttl=64 time=0.435 ms
64 bytes from 10.0.0.4: icmp_seq=12 ttl=64 time=1.11 ms
64 bytes from 10.0.0.4: icmp_seq=13 ttl=64 time=0.933 ms
64 bytes from 10.0.0.4: icmp_seq=14 ttl=64 time=0.822 ms
64 bytes from 10.0.0.4: icmp_seq=15 ttl=64 time=0.492 ms
64 bytes from 10.0.0.4: icmp_seq=16 ttl=64 time=1.02 ms

--- 10.0.0.4 ping statistics ---
16 packets transmitted, 16 received, 0% packet loss, time 76661ms
rtt min/avg/max/mdev = 0.435/0.767/1.470/0.275 ms
