PING 10.0.0.4 (10.0.0.4) 56(84) bytes of data.
64 bytes from 10.0.0.4: icmp_seq=1 ttl=64 time=1.10 ms
64 bytes from 10.0.0.4: icmp_seq=2 ttl=64 time=0.721 ms
64 bytes from 10.0.0.4: icmp_seq=3 ttl=64 time=0.811 ms
64 bytes from 10.0.0.4: icmp_seq=4 ttl=64 time=0.726 ms
64 bytes from 10.0.0.4: icmp_seq=5 ttl=64 time=1.40 ms
64 bytes from 10.0.0.4: icmp_seq=6 ttl=64 time=0.555 ms
64 bytes from 10.0.0.4: icmp_seq=7 ttl=64 time=0.557 ms
64 bytes from 10.0.0.4: icmp_seq=8 ttl=64 time=0.395 ms
64 bytes from 10.0.0.4: icmp_seq=9 ttl=64 time=1.11 ms
64 bytes from 10.0.0.4: icmp_seq=10 ttl=64 time=0.683 ms
64 bytes from 10.0.0.4: icmp_seq=11 ttl=64 time=0.553 ms
64 bytes from 10.0.0.4: icmp_seq=12 ttl=64 time=0.531 ms
64 bytes from 10.0.0.4: icmp_seq=13 ttl=64 time=0.344 ms
64 bytes from 10.0.0.4: icmp_seq=14 ttl=64 time=0.686 ms
64 bytes from 10.0.0.4: icmp_seq=15 ttl=64 time=0.758 ms
64 bytes from 10.0.0.4: icmp_seq=16 ttl=64 time=1.09 ms

--- 10.0.0.4 ping statistics ---
16 packets transmitted, 16 received, 0% packet loss, time 76570ms
rtt min/avg/max/mdev = 0.344/0.752/1.401/0.283 ms
