PING 10.0.0.4 (10.0.0.4) 56(84) bytes of data.
64 bytes from 10.0.0.4: icmp_seq=1 ttl=64 time=1.19 ms
64 bytes from 10.0.0.4: icmp_seq=2 ttl=64 time=0.635 ms
64 bytes from 10.0.0.4: icmp_seq=3 ttl=64 time=0.673 ms
64 bytes from 10.0.0.4: icmp_seq=4 ttl=64 time=1.19 ms
64 bytes from 10.0.0.4: icmp_seq=5 ttl=64 time=1.28 ms
64 bytes from 10.0.0.4: icmp_seq=6 ttl=64 time=0.769 ms
64 bytes from 10.0.0.4: icmp_seq=7 ttl=64 time=1.22 ms
64 bytes from 10.0.0.4: icmp_seq=8 ttl=64 time=0.631 ms
64 bytes from 10.0.0.4: icmp_seq=9 ttl=64 time=0.553 ms
64 bytes from 10.0.0.4: icmp_seq=10 ttl=64 time=0.506 ms
64 bytes from 10.0.0.4: icmp_seq=11 ttl=64 time=7.05 ms
64 bytes from 10.0.0.4: icmp_seq=12 ttl=64 time=0.652 ms
64 bytes from 10.0.0.4: icmp_seq=13 ttl=64 time=0.900 ms
64 bytes from 10.0.0.4: icmp_seq=14 ttl=64 time=1.19 ms
64 bytes from 10.0.0.4: icmp_seq=15 ttl=64 time=1.21 ms
64 bytes from 10.0.0.4: icmp_seq=16 ttl=64 time=0.737 ms

--- 10.0.0.4 ping statistics ---
16 packets transmitted, 16 received, 0% packet loss, time 76125ms
rtt min/avg/max/mdev = 0.506/1.276/7.057/1.517 ms
