PING 10.0.0.4 (10.0.0.4) 56(84) bytes of data.
64 bytes from 10.0.0.4: icmp_seq=1 ttl=64 time=1.58 ms
64 bytes from 10.0.0.4: icmp_seq=2 ttl=64 time=8.26 ms
64 bytes from 10.0.0.4: icmp_seq=3 ttl=64 time=0.884 ms
64 bytes from 10.0.0.4: icmp_seq=4 ttl=64 time=7.38 ms
64 bytes from 10.0.0.4: icmp_seq=5 ttl=64 time=0.576 ms
64 bytes from 10.0.0.4: icmp_seq=6 ttl=64 time=0.557 ms
64 bytes from 10.0.0.4: icmp_seq=7 ttl=64 time=0.454 ms
64 bytes from 10.0.0.4: icmp_seq=8 ttl=64 time=0.556 ms
64 bytes from 10.0.0.4: icmp_seq=9 ttl=64 time=1.19 ms
64 bytes from 10.0.0.4: icmp_seq=10 ttl=64 time=0.568 ms
64 bytes from 10.0.0.4: icmp_seq=11 ttl=64 time=7.38 ms
64 bytes from 10.0.0.4: icmp_seq=12 ttl=64 time=0.925 ms
64 bytes from 10.0.0.4: icmp_seq=13 ttl=64 time=0.756 ms
64 bytes from 10.0.0.4: icmp_seq=14 ttl=64 time=0.578 ms
64 bytes from 10.0.0.4: icmp_seq=15 ttl=64 time=0.809 ms
64 bytes from 10.0.0.4: icmp_seq=16 ttl=64 time=0.666 ms

--- 10.0.0.4 ping statistics ---
16 packets transmitted, 16 received, 0% packet loss, time 76392ms
rtt min/avg/max/mdev = 0.454/2.071/8.264/2.712 ms
