PING 10.0.0.4 (10.0.0.4) 56(84) bytes of data.
64 bytes from 10.0.0.4: icmp_seq=1 ttl=64 time=0.989 ms
64 bytes from 10.0.0.4: icmp_seq=2 ttl=64 time=0.806 ms
64 bytes from 10.0.0.4: icmp_seq=3 ttl=64 time=0.508 ms
64 bytes from 10.0.0.4: icmp_seq=4 ttl=64 time=0.394 ms
64 bytes from 10.0.0.4: icmp_seq=5 ttl=64 time=0.731 ms
64 bytes from 10.0.0.4: icmp_seq=6 ttl=64 time=0.648 ms
64 bytes from 10.0.0.4: icmp_seq=7 ttl=64 time=0.758 ms
64 bytes from 10.0.0.4: icmp_seq=8 ttl=64 time=0.622 ms
64 bytes from 10.0.0.4: icmp_seq=9 ttl=64 time=0.462 ms
64 bytes from 10.0.0.4: icmp_seq=10 ttl=64 time=1.31 ms
64 bytes from 10.0.0.4: icmp_seq=11 ttl=64 time=0.461 ms
64 bytes from 10.0.0.4: icmp_seq=12 ttl=64 time=6.99 ms
64 bytes from 10.0.0.4: icmp_seq=13 ttl=64 time=0.506 ms
64 bytes from 10.0.0.4: icmp_seq=14 ttl=64 time=0.488 ms
64 bytes from 10.0.0.4: icmp_seq=15 ttl=64 time=0.740 ms
64 bytes from 10.0.0.4: icmp_seq=16 ttl=64 time=0.890 ms

--- 10.0.0.4 ping statistics ---
16 packets transmitted, 16 received, 0% packet loss, time 76808ms
rtt min/avg/max/mdev = 0.394/1.082/6.997/1.544 ms
