PING 10.0.0.4 (10.0.0.4) 56(84) bytes of data.
64 bytes from 10.0.0.4: icmp_seq=1 ttl=64 time=0.762 ms
64 bytes from 10.0.0.4: icmp_seq=2 ttl=64 time=0.590 ms
64 bytes from 10.0.0.4: icmp_seq=3 ttl=64 time=0.943 ms
64 bytes from 10.0.0.4: icmp_seq=4 ttl=64 time=0.685 ms
64 bytes from 10.0.0.4: icmp_seq=5 ttl=64 time=0.988 ms
64 bytes from 10.0.0.4: icmp_seq=6 ttl=64 time=0.774 ms
64 bytes from 10.0.0.4: icmp_seq=7 ttl=64 time=8.34 ms
64 bytes from 10.0.0.4: icmp_seq=8 ttl=64 time=0.552 ms
64 bytes from 10.0.0.4: icmp_seq=9 ttl=64 time=0.767 ms
64 bytes from 10.0.0.4: icmp_seq=10 ttl=64 time=0.866 ms
64 bytes from 10.0.0.4: icmp_seq=11 ttl=64 time=0.766 ms
64 bytes from 10.0.0.4: icmp_seq=12 ttl=64 time=0.685 ms
64 bytes from 10.0.0.4: icmp_seq=13 ttl=64 time=1.32 ms
64 bytes from 10.0.0.4: icmp_seq=14 ttl=64 time=0.886 ms
64 bytes from 10.0.0.4: icmp_seq=15 ttl=64 time=1.15 ms
64 bytes from 10.0.0.4: icmp_seq=16 ttl=64 time=1.41 ms

--- 10.0.0.4 ping statistics ---
16 packets transmitted, 16 received, 0% packet loss, time 76640ms
rtt min/avg/max/mdev = 0.552/1.343/8.348/1.824 ms
