PING 10.0.0.4 (10.0.0.4) 56(84) bytes of data.
64 bytes from 10.0.0.4: icmp_seq=1 ttl=64 time=0.604 ms
64 bytes from 10.0.0.4: icmp_seq=2 ttl=64 time=0.919 ms
64 bytes from 10.0.0.4: icmp_seq=3 ttl=64 time=0.646 ms
64 bytes from 10.0.0.4: icmp_seq=4 ttl=64 time=0.895 ms
64 bytes from 10.0.0.4: icmp_seq=5 ttl=64 time=0.754 ms
64 bytes from 10.0.0.4: icmp_seq=6 ttl=64 time=0.583 ms
64 bytes from 10.0.0.4: icmp_seq=7 ttl=64 time=0.537 ms
64 bytes from 10.0.0.4: icmp_seq=8 ttl=64 time=0.974 ms
64 bytes from 10.0.0.4: icmp_seq=9 ttl=64 time=0.448 ms
64 bytes from 10.0.0.4: icmp_seq=10 ttl=64 time=0.431 ms
64 bytes from 10.0.0.4: icmp_seq=11 ttl=64 time=0.654 ms
64 bytes from 10.0.0.4: icmp_seq=12 ttl=64 time=0.602 ms
64 bytes from 10.0.0.4: icmp_seq=13 ttl=64 time=0.546 ms
64 bytes from 10.0.0.4: icmp_seq=14 ttl=64 time=0.949 ms
64 bytes from 10.0.0.4: icmp_seq=15 ttl=64 time=0.366 ms
64 bytes from 10.0.0.4: icmp_seq=16 ttl=64 time=0.959 ms

--- 10.0.0.4 ping statistics ---
16 packets transmitted, 16 received, 0% packet loss, time 76697ms
rtt min/avg/max/mdev = 0.366/0.679/0.974/0.197 ms
