PING 10.0.0.4 (10.0.0.4) 56(84) bytes of data.
64 bytes from 10.0.0.4: icmp_seq=1 ttl=64 time=0.785 ms
64 bytes from 10.0.0.4: icmp_seq=2 ttl=64 time=0.747 ms
64 bytes from 10.0.0.4: icmp_seq=3 ttl=64 time=0.427 ms
64 bytes from 10.0.0.4: icmp_seq=4 ttl=64 time=0.508 ms
64 bytes from 10.0.0.4: icmp_seq=5 ttl=64 time=0.765 ms
64 bytes from 10.0.0.4: icmp_seq=6 ttl=64 time=0.799 ms
64 bytes from 10.0.0.4: icmp_seq=7 ttl=64 time=0.494 ms
64 bytes from 10.0.0.4: icmp_seq=8 ttl=64 time=1.04 ms
64 bytes from 10.0.0.4: icmp_seq=9 ttl=64 time=0.527 ms
64 bytes from 10.0.0.4: icmp_seq=10 ttl=64 time=0.514 ms
64 bytes from 10.0.0.4: icmp_seq=11 ttl=64 time=0.872 ms
64 bytes from 10.0.0.4: icmp_seq=12 ttl=64 time=0.632 ms
64 bytes from 10.0.0.4: icmp_seq=13 ttl=64 time=0.349 ms
64 bytes from 10.0.0.4: icmp_seq=14 ttl=64 time=0.544 ms
64 bytes from 10.0.0.4: icmp_seq=15 ttl=64 time=0.403 ms
64 bytes from 10.0.0.4: icmp_seq=16 ttl=64 time=0.526 ms

--- 10.0.0.4 ping statistics ---
16 packets transmitted, 16 received, 0% packet loss, time 76914ms
rtt min/avg/max/mdev = 0.349/0.621/1.044/0.187 ms
