PING 10.0.0.4 (10.0.0.4) 56(84) bytes of data.
64 bytes from 10.0.0.4: icmp_seq=1 ttl=64 time=0.628 ms
64 bytes from 10.0.0.4: icmp_seq=2 ttl=64 time=0.622 ms
64 bytes from 10.0.0.4: icmp_seq=3 ttl=64 time=0.728 ms
64 bytes from 10.0.0.4: icmp_seq=4 ttl=64 time=0.900 ms
64 bytes from 10.0.0.4: icmp_seq=5 ttl=64 time=1.16 ms
64 bytes from 10.0.0.4: icmp_seq=6 ttl=64 time=0.432 ms
64 bytes from 10.0.0.4: icmp_seq=7 ttl=64 time=1.15 ms
64 bytes from 10.0.0.4: icmp_seq=8 ttl=64 time=0.976 ms
64 bytes from 10.0.0.4: icmp_seq=9 ttl=64 time=0.375 ms
64 bytes from 10.0.0.4: icmp_seq=10 ttl=64 time=7.09 ms
64 bytes from 10.0.0.4: icmp_seq=11 ttl=64 time=0.585 ms
64 bytes from 10.0.0.4: icmp_seq=12 ttl=64 time=0.483 ms
64 bytes from 10.0.0.4: icmp_seq=13 ttl=64 time=0.447 ms
64 bytes from 10.0.0.4: icmp_seq=14 ttl=64 time=0.780 ms
64 bytes from 10.0.0.4: icmp_seq=15 ttl=64 time=0.647 ms
64 bytes from 10.0.0.4: icmp_seq=16 ttl=64 time=0.790 ms

--- 10.0.0.4 ping statistics ---
16 packets transmitted, 16 received, 0% packet loss, time 76670ms
rtt min/avg/max/mdev = 0.375/1.113/7.098/1.562 ms
