PING 10.0.0.4 (10.0.0.4) 56(84) bytes of data.
64 bytes from 10.0.0.4: icmp_seq=1 ttl=64 time=0.814 ms
64 bytes from 10.0.0.4: icmp_seq=2 ttl=64 time=0.487 ms
64 bytes from 10.0.0.4: icmp_seq=3 ttl=64 time=0.843 ms
64 bytes from 10.0.0.4: icmp_seq=4 ttl=64 time=0.575 ms
64 bytes from 10.0.0.4: icmp_seq=5 ttl=64 time=1.73 ms
64 bytes from 10.0.0.4: icmp_seq=6 ttl=64 time=7.43 ms
64 bytes from 10.0.0.4: icmp_seq=7 ttl=64 time=7.10 ms
64 bytes from 10.0.0.4: icmp_seq=8 ttl=64 time=7.13 ms
64 bytes from 10.0.0.4: icmp_seq=9 ttl=64 time=1.43 ms
64 bytes from 10.0.0.4: icmp_seq=10 ttl=64 time=1.29 ms
64 bytes from 10.0.0.4: icmp_seq=11 ttl=64 time=0.814 ms
64 bytes from 10.0.0.4: icmp_seq=12 ttl=64 time=1.25 ms
64 bytes from 10.0.0.4: icmp_seq=13 ttl=64 time=0.717 ms
64 bytes from 10.0.0.4: icmp_seq=14 ttl=64 time=0.852 ms
64 bytes from 10.0.0.4: icmp_seq=15 ttl=64 time=0.815 ms
64 bytes from 10.0.0.4: icmp_seq=16 ttl=64 time=0.626 ms

--- 10.0.0.4 ping statistics ---
16 packets transmitted, 16 received, 0% packet loss, time 75820ms
rtt min/avg/max/mdev = 0.487/2.121/7.435/2.474 ms
