PING 10.0.0.4 (10.0.0.4) 56(84) bytes of data.
64 bytes from 10.0.0.4: icmp_seq=1 ttl=64 time=9.73 ms
64 bytes from 10.0.0.4: icmp_seq=2 ttl=64 time=0.557 ms
64 bytes from 10.0.0.4: icmp_seq=3 ttl=64 time=0.491 ms
64 bytes from 10.0.0.4: icmp_seq=4 ttl=64 time=0.556 ms
64 bytes from 10.0.0.4: icmp_seq=5 ttl=64 time=0.772 ms
64 bytes from 10.0.0.4: icmp_seq=6 ttl=64 time=0.594 ms
64 bytes from 10.0.0.4: icmp_seq=7 ttl=64 time=0.629 ms
64 bytes from 10.0.0.4: icmp_seq=8 ttl=64 time=0.402 ms
64 bytes from 10.0.0.4: icmp_seq=9 ttl=64 time=0.401 ms
64 bytes from 10.0.0.4: icmp_seq=10 ttl=64 time=0.389 ms
64 bytes from 10.0.0.4: icmp_seq=11 ttl=64 time=0.681 ms
64 bytes from 10.0.0.4: icmp_seq=12 ttl=64 time=0.507 ms
64 bytes from 10.0.0.4: icmp_seq=13 ttl=64 time=0.658 ms
64 bytes from 10.0.0.4: icmp_seq=14 ttl=64 time=1.48 ms
64 bytes from 10.0.0.4: icmp_seq=15 ttl=64 time=0.418 ms
64 bytes from 10.0.0.4: icmp_seq=16 ttl=64 time=0.866 ms

--- 10.0.0.4 ping statistics ---
16 packets transmitted, 16 received, 0% packet loss, time 76622ms
rtt min/avg/max/mdev = 0.389/1.195/9.732/2.219 ms
