PING 10.0.0.4 (10.0.0.4) 56(84) bytes of data.
64 bytes from 10.0.0.4: icmp_seq=1 ttl=64 time=0.841 ms
64 bytes from 10.0.0.4: icmp_seq=2 ttl=64 time=0.382 ms
64 bytes from 10.0.0.4: icmp_seq=3 ttl=64 time=0.592 ms
64 bytes from 10.0.0.4: icmp_seq=4 ttl=64 time=7.07 ms
64 bytes from 10.0.0.4: icmp_seq=5 ttl=64 time=0.447 ms
64 bytes from 10.0.0.4: icmp_seq=6 ttl=64 time=0.736 ms
64 bytes from 10.0.0.4: icmp_seq=7 ttl=64 time=7.13 ms
64 bytes from 10.0.0.4: icmp_seq=8 ttl=64 time=0.788 ms
64 bytes from 10.0.0.4: icmp_seq=9 ttl=64 time=0.870 ms
64 bytes from 10.0.0.4: icmp_seq=10 ttl=64 time=0.862 ms
64 bytes from 10.0.0.4: icmp_seq=11 ttl=64 time=0.884 ms
64 bytes from 10.0.0.4: icmp_seq=12 ttl=64 time=0.727 ms
64 bytes from 10.0.0.4: icmp_seq=13 ttl=64 time=0.757 ms
64 bytes from 10.0.0.4: icmp_seq=14 ttl=64 time=0.518 ms
64 bytes from 10.0.0.4: icmp_seq=15 ttl=64 time=0.516 ms
64 bytes from 10.0.0.4: icmp_seq=16 ttl=64 time=0.623 ms

--- 10.0.0.4 ping statistics ---
16 packets transmitted, 16 received, 0% packet loss, time 76713ms
rtt min/avg/max/mdev = 0.382/1.484/7.137/2.129 ms
