PING 10.0.0.4 (10.0.0.4) 56(84) bytes of data.
64 bytes from 10.0.0.4: icmp_seq=1 ttl=64 time=0.737 ms
64 bytes from 10.0.0.4: icmp_seq=2 ttl=64 time=0.477 ms
64 bytes from 10.0.0.4: icmp_seq=3 ttl=64 time=0.460 ms
64 bytes from 10.0.0.4: icmp_seq=4 ttl=64 time=0.516 ms
64 bytes from 10.0.0.4: icmp_seq=5 ttl=64 time=1.01 ms
64 bytes from 10.0.0.4: icmp_seq=6 ttl=64 time=0.494 ms
64 bytes from 10.0.0.4: icmp_seq=7 ttl=64 time=0.624 ms
64 bytes from 10.0.0.4: icmp_seq=8 ttl=64 time=0.517 ms
64 bytes from 10.0.0.4: icmp_seq=9 ttl=64 time=0.569 ms
64 bytes from 10.0.0.4: icmp_seq=10 ttl=64 time=1.10 ms
64 bytes from 10.0.0.4: icmp_seq=11 ttl=64 time=0.444 ms
64 bytes from 10.0.0.4: icmp_seq=12 ttl=64 time=0.622 ms
64 bytes from 10.0.0.4: icmp_seq=13 ttl=64 time=0.412 ms
64 bytes from 10.0.0.4: icmp_seq=14 ttl=64 time=0.544 ms
64 bytes from 10.0.0.4: icmp_seq=15 ttl=64 time=0.480 ms
64 bytes from 10.0.0.4: icmp_seq=16 ttl=64 time=0.726 ms

--- 10.0.0.4 ping statistics ---
16 packets transmitted, 16 received, 0% packet loss, time 76835ms
rtt min/avg/max/mdev = 0.412/0.609/1.107/0.194 ms
