PING 10.0.0.4 (10.0.0.4) 56(84) bytes of data.
64 bytes from 10.0.0.4: icmp_seq=1 ttl=64 time=1.00 ms
64 bytes from 10.0.0.4: icmp_seq=2 ttl=64 time=5.92 ms
64 bytes from 10.0.0.4: icmp_seq=3 ttl=64 time=0.960 ms
64 bytes from 10.0.0.4: icmp_seq=4 ttl=64 time=0.663 ms
64 bytes from 10.0.0.4: icmp_seq=5 ttl=64 time=7.22 ms
64 bytes from 10.0.0.4: icmp_seq=6 ttl=64 time=1.27 ms
64 bytes from 10.0.0.4: icmp_seq=7 ttl=64 time=0.735 ms
64 bytes from 10.0.0.4: icmp_seq=8 ttl=64 time=2.03 ms
64 bytes from 10.0.0.4: icmp_seq=9 ttl=64 time=0.835 ms
64 bytes from 10.0.0.4: icmp_seq=10 ttl=64 time=0.510 ms
64 bytes from 10.0.0.4: icmp_seq=11 ttl=64 time=0.478 ms
64 bytes from 10.0.0.4: icmp_seq=12 ttl=64 time=2.24 ms
64 bytes from 10.0.0.4: icmp_seq=13 ttl=64 time=1.14 ms
64 bytes from 10.0.0.4: icmp_seq=14 ttl=64 time=0.455 ms
64 bytes from 10.0.0.4: icmp_seq=15 ttl=64 time=0.745 ms
64 bytes from 10.0.0.4: icmp_seq=16 ttl=64 time=0.560 ms

--- 10.0.0.4 ping statistics ---
16 packets transmitted, 16 received, 0% packet loss, time 75950ms
rtt min/avg/max/mdev = 0.455/1.675/7.224/1.932 ms
