PING 10.0.0.4 (10.0.0.4) 56(84) bytes of data.
64 bytes from 10.0.0.4: icmp_seq=1 ttl=64 time=1.15 ms
64 bytes from 10.0.0.4: icmp_seq=2 ttl=64 time=1.18 ms
64 bytes from 10.0.0.4: icmp_seq=3 ttl=64 time=6.98 ms
64 bytes from 10.0.0.4: icmp_seq=4 ttl=64 time=0.699 ms
64 bytes from 10.0.0.4: icmp_seq=5 ttl=64 time=0.814 ms
64 bytes from 10.0.0.4: icmp_seq=6 ttl=64 time=0.412 ms
64 bytes from 10.0.0.4: icmp_seq=7 ttl=64 time=0.491 ms
64 bytes from 10.0.0.4: icmp_seq=8 ttl=64 time=0.471 ms
64 bytes from 10.0.0.4: icmp_seq=9 ttl=64 time=0.471 ms
64 bytes from 10.0.0.4: icmp_seq=10 ttl=64 time=1.05 ms
64 bytes from 10.0.0.4: icmp_seq=11 ttl=64 time=0.362 ms
64 bytes from 10.0.0.4: icmp_seq=12 ttl=64 time=1.61 ms
64 bytes from 10.0.0.4: icmp_seq=13 ttl=64 time=0.591 ms
64 bytes from 10.0.0.4: icmp_seq=14 ttl=64 time=0.621 ms
64 bytes from 10.0.0.4: icmp_seq=15 ttl=64 time=0.717 ms
64 bytes from 10.0.0.4: icmp_seq=16 ttl=64 time=1.40 ms

--- 10.0.0.4 ping statistics ---
16 packets transmitted, 16 received, 0% packet loss, time 76364ms
rtt min/avg/max/mdev = 0.362/1.190/6.985/1.540 ms
