PING 10.0.0.4 (10.0.0.4) 56(84) bytes of data.
64 bytes from 10.0.0.4: icmp_seq=1 ttl=64 time=0.642 ms
64 bytes from 10.0.0.4: icmp_seq=2 ttl=64 time=0.642 ms
64 bytes from 10.0.0.4: icmp_seq=3 ttl=64 time=0.791 ms
64 bytes from 10.0.0.4: icmp_seq=4 ttl=64 time=7.00 ms
64 bytes from 10.0.0.4: icmp_seq=5 ttl=64 time=0.506 ms
64 bytes from 10.0.0.4: icmp_seq=6 ttl=64 time=0.740 ms
64 bytes from 10.0.0.4: icmp_seq=7 ttl=64 time=0.363 ms
64 bytes from 10.0.0.4: icmp_seq=8 ttl=64 time=0.418 ms
64 bytes from 10.0.0.4: icmp_seq=9 ttl=64 time=0.542 ms
64 bytes from 10.0.0.4: icmp_seq=10 ttl=64 time=0.461 ms
64 bytes from 10.0.0.4: icmp_seq=11 ttl=64 time=0.376 ms
64 bytes from 10.0.0.4: icmp_seq=12 ttl=64 time=0.937 ms
64 bytes from 10.0.0.4: icmp_seq=13 ttl=64 time=0.478 ms
64 bytes from 10.0.0.4: icmp_seq=14 ttl=64 time=0.507 ms
64 bytes from 10.0.0.4: icmp_seq=15 ttl=64 time=0.587 ms
64 bytes from 10.0.0.4: icmp_seq=16 ttl=64 time=0.755 ms

--- 10.0.0.4 ping statistics ---
16 packets transmitted, 16 received, 0% packet loss, time 76827ms
rtt min/avg/max/mdev = 0.363/0.984/7.005/1.562 ms
