PING 10.0.0.4 (10.0.0.4) 56(84) bytes of data.
64 bytes from 10.0.0.4: icmp_seq=1 ttl=64 time=9.28 ms
64 bytes from 10.0.0.4: icmp_seq=2 ttl=64 time=0.684 ms
64 bytes from 10.0.0.4: icmp_seq=3 ttl=64 time=0.588 ms
64 bytes from 10.0.0.4: icmp_seq=4 ttl=64 time=0.598 ms
64 bytes from 10.0.0.4: icmp_seq=5 ttl=64 time=1.14 ms
64 bytes from 10.0.0.4: icmp_seq=6 ttl=64 time=0.789 ms
64 bytes from 10.0.0.4: icmp_seq=7 ttl=64 time=0.948 ms
64 bytes from 10.0.0.4: icmp_seq=8 ttl=64 time=1.73 ms
64 bytes from 10.0.0.4: icmp_seq=9 ttl=64 time=1.28 ms
64 bytes from 10.0.0.4: icmp_seq=10 ttl=64 time=1.20 ms
64 bytes from 10.0.0.4: icmp_seq=11 ttl=64 time=7.97 ms
64 bytes from 10.0.0.4: icmp_seq=12 ttl=64 time=7.25 ms
64 bytes from 10.0.0.4: icmp_seq=13 ttl=64 time=1.27 ms
64 bytes from 10.0.0.4: icmp_seq=14 ttl=64 time=0.842 ms
64 bytes from 10.0.0.4: icmp_seq=15 ttl=64 time=0.835 ms
64 bytes from 10.0.0.4: icmp_seq=16 ttl=64 time=1.35 ms

--- 10.0.0.4 ping statistics ---
16 packets transmitted, 16 received, 0% packet loss, time 75698ms
rtt min/avg/max/mdev = 0.588/2.361/9.280/2.829 ms
