PING 10.0.0.4 (10.0.0.4) 56(84) bytes of data.
64 bytes from 10.0.0.4: icmp_seq=1 ttl=64 time=1.18 ms
64 bytes from 10.0.0.4: icmp_seq=2 ttl=64 time=0.481 ms
64 bytes from 10.0.0.4: icmp_seq=3 ttl=64 time=0.489 ms
64 bytes from 10.0.0.4: icmp_seq=4 ttl=64 time=0.416 ms
64 bytes from 10.0.0.4: icmp_seq=5 ttl=64 time=0.797 ms
64 bytes from 10.0.0.4: icmp_seq=6 ttl=64 time=0.431 ms
64 bytes from 10.0.0.4: icmp_seq=7 ttl=64 time=0.601 ms
64 bytes from 10.0.0.4: icmp_seq=8 ttl=64 time=1.18 ms
64 bytes from 10.0.0.4: icmp_seq=9 ttl=64 time=0.492 ms
64 bytes from 10.0.0.4: icmp_seq=10 ttl=64 time=0.390 ms
64 bytes from 10.0.0.4: icmp_seq=11 ttl=64 time=0.618 ms
64 bytes from 10.0.0.4: icmp_seq=12 ttl=64 time=0.446 ms
64 bytes from 10.0.0.4: icmp_seq=13 ttl=64 time=1.05 ms
64 bytes from 10.0.0.4: icmp_seq=14 ttl=64 time=0.551 ms
64 bytes from 10.0.0.4: icmp_seq=15 ttl=64 time=0.485 ms
64 bytes from 10.0.0.4: icmp_seq=16 ttl=64 time=0.768 ms

--- 10.0.0.4 ping statistics ---
16 packets transmitted, 16 received, 0% packet loss, time 76753ms
rtt min/avg/max/mdev = 0.390/0.649/1.188/0.265 ms
