PING 10.0.0.11 (10.0.0.11) 56(84) bytes of data.
64 bytes from 10.0.0.11: icmp_seq=1 ttl=64 time=0.815664 64 bytes from 10.0.0.11: icmp_seq=2 ttl=64 time=0.4664 by64 bytes from 10.0.0.11: icmp_seq=3 ttl=64 time=0.64 byte64 bytes from 10.0.0.11: icmp_seq=4 ttl=64 time=064 bytes64 bytes from 10.0.0.11: icmp_seq=5 ttl=64 time=64 bytes 64 bytes from 10.0.0.11: icmp_seq=6 ttl=64 tim64 bytes fr64 bytes from 10.0.0.11: icmp_seq=7 ttl=64 ti64 bytes fr64 bytes from 10.0.0.11: icmp_seq=8 ttl=64 ti64 bytes from 10.0.0.7: icmp_seq=9 ttl=64 time=4.22 ms
64 bytes from64 bytes from 10.0.0.11: icmp_seq=10 ttl=64664 bytes from 10.0.0.6: icmp_seq=11 ttl=64 time=0.658 ms664 bytes from 10.0.0.6: icmp_seq=12 ttl=64 time=3.90 ms
64 bytes from 10.0.0.6: icmp_seq=13 ttl=64 time=0.548 ms664 bytes from 10.0.0.6: icmp_seq=14 ttl=64 time=0.829 ms

--- 10.0.0.6 ping statistics ---
14 packets transmitted, 14 received, 0% packet loss, time 66325ms
rtt min/avg/max/mdev = 0.364/2.282/9.087/2.599 ms
79/10.550/3.298 ms
