PING 10.0.0.11 (10.0.0.11) 56(84) bytes of data.
64 bytes from 10.0.0.11: icmp_seq=1 ttl=64 time=8.97 m6464 bytes from 10.0.0.11: icmp_seq=2 ttl=64 time=0.868 64 bytes from 10.0.0.6: icmp_seq=3 ttl=64 time=3.44 ms
664 b64 bytes from 10.0.0.11: icmp_seq=4 ttl=64 time=7.4664 bytes from 10.0.0.7: icmp_seq=5 ttl=64 time=0.630 ms664 bytes from 10.0.0.7: icmp_seq=6 ttl=64 time=0.676 ms664 bytes from 10.0.0.7: icmp_seq=7 ttl=64 time=7.17 ms
64 bytes from 10.0.0.6: icmp_seq=8 ttl=64 time=1.02 ms
664 bytes from 10.0.0.7: icmp_seq=9 ttl=64 time=5.69 ms
64 bytes from 10.0.0.6: icmp_seq=10 ttl=64 time=4.60 ms
664 bytes from 10.0.0.7: icmp_seq=11 ttl=64 time=0.742 ms664 bytes from 10.0.0.7: icmp_seq=12 ttl=64 time=0.919 ms64 bytes from 10.0.0.6: icmp_seq=13 ttl=64 time=5.06 ms
64 bytes from 1064 bytes from 10.0.0.11: icmp_seq=14 ttl=64 time=0.661 ms

--- 10.0.0.11 ping statistics ---
14 packets transmitted, 14 received, 0% packet loss, time 66386ms
rtt min/avg/max/mdev = 0.409/1.769/8.972/2.657 ms
