PING 10.0.0.11 (10.0.0.11) 56(84) bytes of data.
64 bytes from 10.0.0.11: icmp_seq=1 ttl=64 time=0.967 64 64 bytes from 10.0.0.11: icmp_seq=2 ttl=64 time=0.85664 bytes from 10.0.0.6: icmp_seq=3 ttl=64 time=6.28 ms664 bytes from 10.0.0.6: icmp_seq=4 ttl=64 time=2.22 ms
64 byte64 bytes from 10.0.0.11: icmp_seq=5 ttl=64 time=664 byte64 bytes from 10.0.0.11: icmp_seq=6 ttl=64 time664 bytes64 bytes from 10.0.0.11: icmp_seq=7 ttl=64 time664 bytes from 10.0.0.7: icmp_seq=8 ttl=64 time=3.95 ms
64 bytes from 10.0.0.7: icmp_seq=9 ttl=64 time=0.431 ms664 bytes fr64 bytes from 10.0.0.11: icmp_seq=10 ttl=64 664 bytes from 10.0.0.7: icmp_seq=11 ttl=64 time=4.21 ms664 bytes from64 bytes from 10.0.0.11: icmp_seq=12 ttl=64664 bytes from 64 bytes from 10.0.0.11: icmp_seq=13 ttl=664 bytes from 164 bytes from 10.0.0.11: icmp_seq=14 ttl=64 time=5.96 ms

--- 10.0.0.11 ping statistics ---
14 packets transmitted, 14 received, 0% packet loss, time 65864ms
rtt min/avg/max/mdev = 0.400/3.040/8.060/2.941 ms
