PING 10.0.0.6 (10.0.0.6) 56(84) bytes of data.
64 bytes from 10.0.0.6: icmp_seq=1 ttl=64 time=7.63 ms
664 bytes from 10.0.0.7: icmp_seq=2 ttl=64 time=0.410 ms64 bytes from 10.0.0.6: icmp_seq=3 ttl=64 time=1.16 ms
6464 bytes from 10.0.0.7: icmp_seq=4 ttl=64 time=3.01 m6464 bytes from 10.0.0.7: icmp_seq=5 ttl=64 time=1.49 m6464 bytes from 10.0.0.7: icmp_seq=6 ttl=64 time=12.4 m6464 bytes from 10.0.0.7: icmp_seq=7 ttl=64 time=6.58 m6464 bytes from 10.0.0.7: icmp_seq=8 ttl=64 time=0.745 64 64 bytes from 10.0.0.7: icmp_seq=9 ttl=64 time=1.07 m6464 bytes from 10.0.0.7: icmp_seq=10 ttl=64 time=0.540 64 64 bytes from 10.0.0.7: icmp_seq=11 ttl=64 time=0.567 64 64 bytes from 10.0.0.7: icmp_seq=12 ttl=64 time=0.635 64 64 bytes from 10.0.0.7: icmp_seq=13 ttl=64 time=0.74164 b64 bytes from 10.0.0.7: icmp_seq=14 ttl=64 time=1.89 ms

--- 10.0.0.7 ping statistics ---
14 packets transmitted, 14 received, 0% packet loss, time 65979ms
rtt min/avg/max/mdev = 0.410/2.218/12.430/3.249 ms
.954/3.529 ms
