PING 10.0.0.11 (10.0.0.11) 56(84) bytes of data.
64 bytes from 10.0.0.11: icmp_seq=1 ttl=64 time=7.18 64 64 bytes from 10.0.0.11: icmp_seq=2 ttl=64 time=0.36664 bytes from 10.0.0.7: icmp_seq=3 ttl=64 time=5.72 ms664 byt64 bytes from 10.0.0.11: icmp_seq=4 ttl=64 time=664 byte64 bytes from 10.0.0.11: icmp_seq=5 ttl=64 time=664 byte64 bytes from 10.0.0.11: icmp_seq=6 ttl=64 time664 bytes 64 bytes from 10.0.0.11: icmp_seq=7 ttl=64 tim664 bytes from 10.0.0.7: icmp_seq=8 ttl=64 time=0.616 ms64 bytes from 10.0.0.6: icmp_seq=9 ttl=64 time=4.86 ms
6464 bytes from 10.0.0.7: icmp_seq=10 ttl=64 time=0.438 64 64 bytes from 10.0.0.7: icmp_seq=11 ttl=64 time=1.03 64 64 bytes from 10.0.0.7: icmp_seq=12 ttl=64 time=0.690 64 64 bytes from 10.0.0.7: icmp_seq=13 ttl=64 time=4.85 64 64 bytes from 10.0.0.7: icmp_seq=14 ttl=64 time=7.68 ms

--- 10.0.0.7 ping statistics ---
14 packets transmitted, 14 received, 0% packet loss, time 66038ms
rtt min/avg/max/mdev = 0.438/2.706/8.667/2.843 ms
7.186/2.467 ms
