PING 10.0.0.11 (10.0.0.11) 56(84) bytes of data.
64 bytes from 10.0.0.11: icmp_seq=1 ttl=64 time=9.08 64 64 bytes from 10.0.0.11: icmp_seq=2 ttl=64 time=4.5864 b64 bytes from 10.0.0.11: icmp_seq=3 ttl=64 time=0.5664 by64 bytes from 10.0.0.11: icmp_seq=4 ttl=64 time=06464 byt64 bytes from 10.0.0.11: icmp_seq=5 ttl=64 time64 64 bytes from 10.0.0.6: icmp_seq=6 ttl=64 time=6.60 64 64 bytes 64 bytes from 10.0.0.11: icmp_seq=7 ttl=64 64 b64 bytes from 10.0.0.6: icmp_seq=8 ttl=64 time=0.9364 by64 bytes from 10.0.0.6: icmp_seq=9 ttl=64 time=1.1964 b64 bytes fr64 bytes from 10.0.0.11: icmp_seq=10 ttl=664 b64 bytes from 10.0.0.6: icmp_seq=11 ttl=64 time=0.46364 b64 bytes from 10.0.0.6: icmp_seq=12 ttl=64 time=0.5764 by64 bytes from 10.0.0.6: icmp_seq=13 ttl=64 time=0.664 byt64 bytes from 10.0.0.6: icmp_seq=14 ttl=64 time=7.13 ms

--- 10.0.0.6 ping statistics ---
14 packets transmitted, 14 received, 0% packet loss, time 66410ms
rtt min/avg/max/mdev = 0.413/1.913/7.134/2.298 ms
.086/2.698 ms
