PING 10.0.0.6 (10.0.0.6) 56(84) bytes of data.
64 bytes from 10.0.0.6: icmp_seq=1 ttl=64 time=0.791 ms664 bytes from 10.0.0.6: icmp_seq=2 ttl=64 time=0.955 m6464 bytes from 10.0.0.6: icmp_seq=3 ttl=64 time=6.41 ms664 byt64 bytes from 10.0.0.11: icmp_seq=4 ttl=64 time=6464 byte64 bytes from 10.0.0.11: icmp_seq=5 ttl=64 time664 bytes from 10.0.0.6: icmp_seq=6 ttl=64 time=2.40 ms664 bytes fr64 bytes from 10.0.0.11: icmp_seq=7 ttl=64 664 bytes from64 bytes from 10.0.0.11: icmp_seq=8 ttl=66464 bytes from 64 bytes from 10.0.0.11: icmp_seq=9 ttl=6464 bytes from 64 bytes from 10.0.0.11: icmp_seq=10 ttl=6464 bytes from 164 bytes from 10.0.0.11: icmp_seq=11 ttl664 bytes from 10.64 bytes from 10.0.0.11: icmp_seq=12 t6464 bytes from 10.064 bytes from 10.0.0.11: icmp_seq=136464 bytes from 10.0.064 bytes from 10.0.0.11: icmp_seq=14 ttl=64 time=0.522 ms

--- 10.0.0.11 ping statistics ---
14 packets transmitted, 14 received, 0% packet loss, time 66428ms
rtt min/avg/max/mdev = 0.330/1.249/10.560/2.586 ms
