experiment,vs,nc,ops/s,hits/s,miss/s,rt(ms),KB/s
../experiment_results/experiment_2.1/client_,64,36,22139.18,22136.60,2.58,1.624,2460
../experiment_results/experiment_2.1/client_,64,72,26472.62,26467.47,5.13,2.718,2941
../experiment_results/experiment_2.1/client_,64,144,31737.48,31733.37,4.11,4.543,3526
../experiment_results/experiment_2.1/client_,64,288,34582.96,34574.73,8.22,8.346,3842
../experiment_results/experiment_2.1/client_,256,36,21229.72,21227.15,2.58,1.693,6359
../experiment_results/experiment_2.1/client_,256,72,25508.04,25502.90,5.13,2.821,7641
../experiment_results/experiment_2.1/client_,256,144,31262.05,31257.92,4.12,4.628,9365
../experiment_results/experiment_2.1/client_,256,288,33058.64,33050.51,8.13,8.696,9902
../experiment_results/experiment_2.1/client_,512,36,20442.24,20439.66,2.58,1.759,11233
../experiment_results/experiment_2.1/client_,512,72,20461.62,20459.18,2.43,3.519,11244
../experiment_results/experiment_2.1/client_,512,144,20475.26,20471.15,4.11,7.034,11251
../experiment_results/experiment_2.1/client_,512,288,20514.01,20509.89,4.12,14.060,11272
../experiment_results/experiment_2.1/client_,1024,36,11132.07,11130.17,1.89,3.237,11693
../experiment_results/experiment_2.1/client_,1024,72,11134.79,11132.73,2.07,6.484,11696
../experiment_results/experiment_2.1/client_,1024,144,11137.72,11135.67,2.07,12.947,11699
../experiment_results/experiment_2.1/client_,1024,288,11074.14,11070.89,3.25,25.960,11631
../experiment_results/experiment_2.2/client_,64,36,34681.00,34677.36,3.66,1.032,3853
../experiment_results/experiment_2.2/client_,64,72,43632.98,43627.84,5.13,1.644,4848
../experiment_results/experiment_2.2/client_,64,144,53347.27,53337.03,10.26,2.683,5927
../experiment_results/experiment_2.2/client_,64,288,61248.28,61240.05,8.19,4.694,6805
../experiment_results/experiment_2.2/client_,256,36,35121.07,35117.45,3.63,1.022,10521
../experiment_results/experiment_2.2/client_,256,72,43303.08,43297.94,5.13,1.658,12972
../experiment_results/experiment_2.2/client_,256,144,53004.59,52994.31,10.27,2.712,15877
../experiment_results/experiment_2.2/client_,256,288,60968.78,60960.52,8.23,4.735,18263
../experiment_results/experiment_2.2/client_,512,36,34530.45,34526.86,3.61,1.036,18976
../experiment_results/experiment_2.2/client_,512,72,43211.28,43206.12,5.13,1.659,23746
../experiment_results/experiment_2.2/client_,512,144,52770.81,52760.56,10.24,2.712,28997
../experiment_results/experiment_2.2/client_,512,288,60484.08,60475.85,8.19,4.753,33237
../experiment_results/experiment_2.2/client_,1024,36,33284.86,33281.60,3.28,1.077,34964
../experiment_results/experiment_2.2/client_,1024,72,33389.13,33383.99,5.13,2.153,35072
../experiment_results/experiment_2.2/client_,1024,144,33528.23,33524.10,4.14,4.309,35219
../experiment_results/experiment_2.2/client_,1024,288,33536.99,33528.72,8.23,8.618,35224
