PING 10.0.0.4 (10.0.0.4) 56(84) bytes of data.
64 bytes from 10.0.0.4: icmp_seq=1 ttl=64 time=0.847 ms
64 bytes from 10.0.0.4: icmp_seq=2 ttl=64 time=0.690 ms
64 bytes from 10.0.0.5: icmp_seq=3 ttl=64 time=1.40 ms
664 bytes from 10.0.0.4: icmp_seq=4 ttl=64 time=0.617 ms664 bytes from 10.0.0.4: icmp_seq=5 ttl=64 time=0.627 ms64 bytes from 10.0.0.5: icmp_seq=6 ttl=64 time=0.777 ms
664 bytes from 10.0.0.4: icmp_seq=7 ttl=64 time=0.500 ms64 bytes from 10.0.0.5: icmp_seq=8 ttl=64 time=0.626 ms
64 bytes from 10.0.0.5: icmp_seq=9 ttl=64 time=0.870 ms
64 bytes from 10.0.0.5: icmp_seq=10 ttl=64 time=0.654 ms
64 bytes from 10.0.0.5: icmp_seq=11 ttl=64 time=0.579 ms
64 bytes from 10.0.0.5: icmp_seq=12 ttl=64 time=0.828 ms
664 bytes from 10.0.0.4: icmp_seq=13 ttl=64 time=0.603 ms664 bytes from 10.0.0.4: icmp_seq=14 ttl=64 time=10.0 ms
64 bytes from 10.0.0.5: icmp_seq=15 ttl=64 time=0.469 ms
64 bytes from 10.0.0.5: icmp_seq=16 ttl=64 time=0.964 ms

--- 10.0.0.5 ping statistics ---
16 packets transmitted, 16 received, 0% packet loss, time 76597ms
rtt min/avg/max/mdev = 0.283/0.678/1.408/0.254 ms

