PING 10.0.0.5 (10.0.0.5) 56(84) bytes of data.
64 bytes from 10.0.0.5: icmp_seq=1 ttl=64 time=0.467 ms
64 bytes from 10.0.0.5: icmp_seq=2 ttl=64 time=0.574 ms
64 bytes from 10.0.0.4: icmp_seq=3 ttl=64 time=0.905 ms
64 bytes from 10.0.0.4: icmp_seq=4 ttl=64 time=0.789 ms
64 bytes from 10.0.0.5: icmp_seq=5 ttl=64 time=0.875 ms
64 bytes from 10.0.0.5: icmp_seq=6 ttl=64 time=7.07 ms
64 bytes from 10.0.0.4: icmp_seq=7 ttl=64 time=0.868 ms
64 bytes from 10.0.0.4: icmp_seq=8 ttl=64 time=0.506 ms
64 bytes from 10.0.0.4: icmp_seq=9 ttl=64 time=0.440 ms
64 bytes from 10.0.0.5: icmp_seq=10 ttl=64 time=0.678 ms
64 bytes from 10.0.0.5: icmp_seq=11 ttl=64 time=0.866 ms
64 bytes from 10.0.0.5: icmp_seq=12 ttl=64 time=0.644 ms
64 bytes from 10.0.0.5: icmp_seq=13 ttl=64 time=0.423 ms
64 bytes from 10.0.0.5: icmp_seq=14 ttl=64 time=0.478 ms
64 bytes from 10.0.0.5: icmp_seq=15 ttl=64 time=0.648 ms
64 bytes from 10.0.0.5: icmp_seq=16 ttl=64 time=0.689 ms

--- 10.0.0.5 ping statistics ---
16 packets transmitted, 16 received, 0% packet loss, time 76640ms
rtt min/avg/max/mdev = 0.423/1.028/7.077/1.568 ms
