PING 10.0.0.5 (10.0.0.5) 56(84) bytes of data.
64 bytes from 10.0.0.5: icmp_seq=1 ttl=64 time=1.28 ms
64 bytes from 10.0.0.5: icmp_seq=2 ttl=64 time=1.22 ms
6464 bytes from 10.0.0.4: icmp_seq=3 ttl=64 time=0.621 m6464 bytes from 10.0.0.4: icmp_seq=4 ttl=64 time=0.692 64 64 bytes from 10.0.0.4: icmp_seq=5 ttl=64 time=2.62 m6464 bytes from 10.0.0.4: icmp_seq=6 ttl=64 time=0.948 m6464 bytes from 10.0.0.4: icmp_seq=7 ttl=64 time=0.749 m6464 bytes from 10.0.0.4: icmp_seq=8 ttl=64 time=0.439 m6464 bytes from 10.0.0.4: icmp_seq=9 ttl=64 time=0.523 m6464 bytes from 10.0.0.4: icmp_seq=10 ttl=64 time=0.925 m6464 bytes from 10.0.0.4: icmp_seq=11 ttl=64 time=0.488 m6464 bytes from 10.0.0.4: icmp_seq=12 ttl=64 time=0.493 m64 bytes from 10.0.0.5: icmp_seq=13 ttl=64 time=0.533 ms
64 bytes from 10.0.0.5: icmp_seq=14 ttl=64 time=0.651 ms
64 bytes from 10.0.0.5: icmp_seq=15 ttl=64 time=0.796 ms
64 bytes from 10.0.0.5: icmp_seq=16 ttl=64 time=1.15 ms

--- 10.0.0.5 ping statistics ---
16 packets transmitted, 16 received, 0% packet loss, time 76459ms
rtt min/avg/max/mdev = 0.352/0.900/3.810/0.803 ms
ms
