PING 10.0.0.5 (10.0.0.5) 56(84) bytes of data.
64 bytes from 10.0.0.5: icmp_seq=1 ttl=64 time=0.778 ms664 bytes from 10.0.0.5: icmp_seq=2 ttl=64 time=0.435 ms664 bytes from 10.0.0.5: icmp_seq=3 ttl=64 time=0.442 ms664 bytes from 10.0.0.5: icmp_seq=4 ttl=64 time=0.653 ms664 bytes from 10.0.0.5: icmp_seq=5 ttl=64 time=0.439 ms664 bytes from 10.0.0.5: icmp_seq=6 ttl=64 time=0.521 ms664 bytes from 10.0.0.5: icmp_seq=7 ttl=64 time=0.546 ms664 bytes from 10.0.0.5: icmp_seq=8 ttl=64 time=2.84 ms64 bytes from 10.0.0.4: icmp_seq=9 ttl=64 time=0.496 ms
64 bytes from 10.0.0.4: icmp_seq=10 ttl=64 time=0.520 ms
664 bytes from 10.0.0.5: icmp_seq=11 ttl=64 time=1.07 ms
64 bytes from 10.0.0.4: icmp_seq=12 ttl=64 time=0.589 ms
64 bytes from 10.0.0.5: icmp_seq=13 ttl=64 time=0.407 ms
64 bytes from 10.0.0.4: icmp_seq=14 ttl=64 time=0.425 ms
64 bytes from 10.0.0.4: icmp_seq=15 ttl=64 time=0.482 ms
64 bytes from 10.0.0.4: icmp_seq=16 ttl=64 time=0.565 ms

--- 10.0.0.4 ping statistics ---
16 packets transmitted, 16 received, 0% packet loss, time 76608ms
rtt min/avg/max/mdev = 0.349/1.070/6.798/1.583 ms
