PING 10.0.0.5 (10.0.0.5) 56(84) bytes of data.
64 bytes from 10.0.0.5: icmp_seq=1 ttl=64 time=1.09 ms
64 bytes from 10.0.0.5: icmp_seq=2 ttl=64 time=0.580 ms
64 bytes from 10.0.0.5: icmp_seq=3 ttl=64 time=1.68 ms
64 bytes from 10.0.0.5: icmp_seq=4 ttl=64 time=0.481 ms
64 bytes from 10.0.0.5: icmp_seq=5 ttl=64 time=0.731 ms
64 bytes from 10.0.0.5: icmp_seq=6 ttl=64 time=0.422 ms
64 bytes from 10.0.0.5: icmp_seq=7 ttl=64 time=0.525 ms
64 bytes from 10.0.0.5: icmp_seq=8 ttl=64 time=0.427 ms
64 bytes from 10.0.0.5: icmp_seq=9 ttl=64 time=0.628 ms
64 bytes from 10.0.0.5: icmp_seq=10 ttl=64 time=0.652 ms
64 bytes from 10.0.0.5: icmp_seq=11 ttl=64 time=0.423 ms
64 bytes from 10.0.0.5: icmp_seq=12 ttl=64 time=0.474 ms
64 bytes from 10.0.0.5: icmp_seq=13 ttl=64 time=0.740 ms
64 bytes from 10.0.0.5: icmp_seq=14 ttl=64 time=0.451 ms
64 bytes from 10.0.0.5: icmp_seq=15 ttl=64 time=2.67 ms
64 bytes from 10.0.0.5: icmp_seq=16 ttl=64 time=0.633 ms

--- 10.0.0.5 ping statistics ---
16 packets transmitted, 16 received, 0% packet loss, time 76692ms
rtt min/avg/max/mdev = 0.422/0.788/2.673/0.578 ms
s
