PING 10.0.0.4 (10.0.0.4) 56(84) bytes of data.
64 bytes from 10.0.0.4: icmp_seq=1 ttl=64 time=0.552 ms
64 bytes from 10.0.0.4: icmp_seq=2 ttl=64 time=0.508 ms
64 bytes from 10.0.0.4: icmp_seq=3 ttl=64 time=0.767 ms
64 bytes from 10.0.0.5: icmp_seq=4 ttl=64 time=4.44 ms
664 bytes from 10.0.0.4: icmp_seq=5 ttl=64 time=1.13 ms
64 bytes from 10.0.0.5: icmp_seq=6 ttl=64 time=0.612 ms
64 bytes from 10.0.0.5: icmp_seq=7 ttl=64 time=0.716 ms
64 bytes from 10.0.0.5: icmp_seq=8 ttl=64 time=0.475 ms
64 bytes from 10.0.0.4: icmp_seq=9 ttl=64 time=2.12 ms
64 bytes from 10.0.0.5: icmp_seq=10 ttl=64 time=1.31 ms
64 bytes from 10.0.0.4: icmp_seq=11 ttl=64 time=4.57 ms
64 bytes from 10.0.0.4: icmp_seq=12 ttl=64 time=1.03 ms
664 bytes from 10.0.0.5: icmp_seq=13 ttl=64 time=0.492 ms664 bytes from 10.0.0.5: icmp_seq=14 ttl=64 time=0.520 ms664 bytes from 10.0.0.5: icmp_seq=15 ttl=64 time=0.631 m6464 bytes from 10.0.0.5: icmp_seq=16 ttl=64 time=0.852 ms

--- 10.0.0.5 ping statistics ---
16 packets transmitted, 16 received, 0% packet loss, time 76488ms
rtt min/avg/max/mdev = 0.475/1.252/4.511/1.279 ms
