PING 10.0.0.5 (10.0.0.5) 56(84) bytes of data.
64 bytes from 10.0.0.5: icmp_seq=1 ttl=64 time=0.937 ms664 bytes from 10.0.0.5: icmp_seq=2 ttl=64 time=0.451 ms664 bytes from 10.0.0.5: icmp_seq=3 ttl=64 time=0.664 ms664 bytes from 10.0.0.5: icmp_seq=4 ttl=64 time=0.381 ms64 bytes from 10.0.0.4: icmp_seq=5 ttl=64 time=1.22 ms
6464 bytes from 10.0.0.5: icmp_seq=6 ttl=64 time=0.422 m6464 bytes from 10.0.0.5: icmp_seq=7 ttl=64 time=0.566 m6464 bytes from 10.0.0.5: icmp_seq=8 ttl=64 time=0.669 m6464 bytes from 10.0.0.5: icmp_seq=9 ttl=64 time=0.618 m6464 bytes from 10.0.0.5: icmp_seq=10 ttl=64 time=0.487 m64 bytes from 10.0.0.4: icmp_seq=11 ttl=64 time=8.84 ms
6464 bytes from 10.0.0.5: icmp_seq=12 ttl=64 time=0.478 m64 bytes from 10.0.0.4: icmp_seq=13 ttl=64 time=1.39 ms
64 64 bytes from 10.0.0.5: icmp_seq=14 ttl=64 time=0.874 64 bytes from 10.0.0.4: icmp_seq=15 ttl=64 time=1.83 ms
64 bytes from 10.0.0.4: icmp_seq=16 ttl=64 time=0.730 ms

--- 10.0.0.4 ping statistics ---
16 packets transmitted, 16 received, 0% packet loss, time 76559ms
rtt min/avg/max/mdev = 0.320/1.245/8.846/2.008 ms
ms
