PING 10.0.0.5 (10.0.0.5) 56(84) bytes of data.
64 bytes from 10.0.0.5: icmp_seq=1 ttl=64 time=0.638 ms
64 bytes from 10.0.0.5: icmp_seq=2 ttl=64 time=0.295 ms664 bytes from 10.0.0.5: icmp_seq=3 ttl=64 time=0.733 ms664 bytes from 10.0.0.5: icmp_seq=4 ttl=64 time=0.373 ms664 bytes from 10.0.0.5: icmp_seq=5 ttl=64 time=0.538 ms664 bytes from 10.0.0.5: icmp_seq=6 ttl=64 time=0.397 ms664 bytes from 10.0.0.5: icmp_seq=7 ttl=64 time=0.443 ms664 bytes from 10.0.0.5: icmp_seq=8 ttl=64 time=0.436 ms664 bytes from 10.0.0.5: icmp_seq=9 ttl=64 time=0.530 ms664 bytes from 10.0.0.5: icmp_seq=10 ttl=64 time=0.559 ms664 bytes from 10.0.0.5: icmp_seq=11 ttl=64 time=0.328 ms664 bytes from 10.0.0.5: icmp_seq=12 ttl=64 time=0.558 ms664 bytes from 10.0.0.5: icmp_seq=13 ttl=64 time=0.535 ms664 bytes from 10.0.0.5: icmp_seq=14 ttl=64 time=0.455 ms664 bytes from 10.0.0.5: icmp_seq=15 ttl=64 time=1.29 ms
64 bytes from 10.0.0.5: icmp_seq=16 ttl=64 time=0.496 ms

--- 10.0.0.5 ping statistics ---
16 packets transmitted, 16 received, 0% packet loss, time 76528ms
rtt min/avg/max/mdev = 0.295/0.538/1.299/0.225 ms
