PING 10.0.0.5 (10.0.0.5) 56(84) bytes of data.
64 bytes from 10.0.0.5: icmp_seq=1 ttl=64 time=0.454 ms664 bytes from 10.0.0.5: icmp_seq=2 ttl=64 time=0.541 ms664 bytes from 10.0.0.5: icmp_seq=3 ttl=64 time=0.382 m6464 bytes from 10.0.0.5: icmp_seq=4 ttl=64 time=0.425 m6464 bytes from 10.0.0.5: icmp_seq=5 ttl=64 time=0.485 m6464 bytes from 10.0.0.5: icmp_seq=6 ttl=64 time=0.391 m6464 bytes from 10.0.0.5: icmp_seq=7 ttl=64 time=0.617 m6464 bytes from 10.0.0.5: icmp_seq=8 ttl=64 time=0.414 m6464 bytes from 10.0.0.5: icmp_seq=9 ttl=64 time=0.358 m6464 bytes from 10.0.0.5: icmp_seq=10 ttl=64 time=0.498 m6464 bytes from 10.0.0.5: icmp_seq=11 ttl=64 time=0.442 m6464 bytes from 10.0.0.5: icmp_seq=12 ttl=64 time=0.358 m6464 bytes from 10.0.0.5: icmp_seq=13 ttl=64 time=7.28 ms664 bytes from 10.0.0.5: icmp_seq=14 ttl=64 time=1.30 ms
64 bytes from 10.0.0.5: icmp_seq=15 ttl=64 time=0.325 ms
64 bytes from 10.0.0.4: icmp_seq=16 ttl=64 time=0.733 ms

--- 10.0.0.4 ping statistics ---
16 packets transmitted, 16 received, 0% packet loss, time 76405ms
rtt min/avg/max/mdev = 0.376/0.627/1.473/0.296 ms
