PING 10.0.0.5 (10.0.0.5) 56(84) bytes of data.
64 bytes from 10.0.0.5: icmp_seq=1 ttl=64 time=0.730 ms
64 bytes from 10.0.0.5: icmp_seq=2 ttl=64 time=0.558 ms
64 bytes from 10.0.0.5: icmp_seq=3 ttl=64 time=0.700 ms
64 bytes from 10.0.0.5: icmp_seq=4 ttl=64 time=0.858 ms
64 bytes from 10.0.0.5: icmp_seq=5 ttl=64 time=0.434 ms
64 bytes from 10.0.0.5: icmp_seq=6 ttl=64 time=2.11 ms
664 bytes from 10.0.0.4: icmp_seq=7 ttl=64 time=0.391 m6464 bytes from 10.0.0.4: icmp_seq=8 ttl=64 time=0.351 m6464 bytes from 10.0.0.4: icmp_seq=9 ttl=64 time=0.413 m6464 bytes from 10.0.0.4: icmp_seq=10 ttl=64 time=0.549 m6464 bytes from 10.0.0.4: icmp_seq=11 ttl=64 time=0.452 m6464 bytes from 10.0.0.4: icmp_seq=12 ttl=64 time=0.415 64 64 bytes from 10.0.0.4: icmp_seq=13 ttl=64 time=0.69764 b64 bytes from 10.0.0.4: icmp_seq=14 ttl=64 time=0.59164 b64 bytes from 10.0.0.4: icmp_seq=15 ttl=64 time=0.54964 b64 bytes from 10.0.0.4: icmp_seq=16 ttl=64 time=1.03 ms

--- 10.0.0.4 ping statistics ---
16 packets transmitted, 16 received, 0% packet loss, time 76736ms
rtt min/avg/max/mdev = 0.351/0.587/1.037/0.207 ms
