PING 10.0.0.5 (10.0.0.5) 56(84) bytes of data.
64 bytes from 10.0.0.5: icmp_seq=1 ttl=64 time=9.10 ms
64 bytes from 10.0.0.5: icmp_seq=2 ttl=64 time=0.553 ms
64 bytes from 10.0.0.5: icmp_seq=3 ttl=64 time=0.617 ms
64 bytes from 10.0.0.5: icmp_seq=4 ttl=64 time=0.630 ms
664 bytes from 10.0.0.4: icmp_seq=5 ttl=64 time=0.642 ms664 bytes from 10.0.0.4: icmp_seq=6 ttl=64 time=0.687 ms664 bytes from 10.0.0.4: icmp_seq=7 ttl=64 time=0.741 ms664 bytes from 10.0.0.4: icmp_seq=8 ttl=64 time=0.467 ms664 bytes from 10.0.0.4: icmp_seq=9 ttl=64 time=0.726 ms664 bytes from 10.0.0.4: icmp_seq=10 ttl=64 time=0.549 ms664 bytes from 10.0.0.4: icmp_seq=11 ttl=64 time=0.528 ms64 bytes from 10.0.0.5: icmp_seq=12 ttl=64 time=0.583 ms
664 bytes from 10.0.0.4: icmp_seq=13 ttl=64 time=0.470 ms64 bytes from 10.0.0.5: icmp_seq=14 ttl=64 time=4.97 ms
6464 bytes from 10.0.0.4: icmp_seq=15 ttl=64 time=0.450 m6464 bytes from 10.0.0.4: icmp_seq=16 ttl=64 time=1.44 ms

--- 10.0.0.4 ping statistics ---
16 packets transmitted, 16 received, 0% packet loss, time 76651ms
rtt min/avg/max/mdev = 0.450/0.637/1.442/0.226 ms
