PING 10.0.0.5 (10.0.0.5) 56(84) bytes of data.
64 bytes from 10.0.0.5: icmp_seq=1 ttl=64 time=9.26 ms
64 bytes from 10.0.0.5: icmp_seq=2 ttl=64 time=0.287 ms
664 bytes from 10.0.0.4: icmp_seq=3 ttl=64 time=0.688 ms64 bytes from 10.0.0.5: icmp_seq=4 ttl=64 time=0.436 ms
664 bytes from 10.0.0.4: icmp_seq=5 ttl=64 time=2.75 ms64 bytes from 10.0.0.5: icmp_seq=6 ttl=64 time=1.14 ms
64 bytes from 10.0.0.5: icmp_seq=7 ttl=64 time=0.547 ms
64 bytes from 10.0.0.5: icmp_seq=8 ttl=64 time=0.457 ms
664 bytes from 10.0.0.4: icmp_seq=9 ttl=64 time=0.461 ms664 bytes from 10.0.0.4: icmp_seq=10 ttl=64 time=0.550 ms664 bytes from 10.0.0.4: icmp_seq=11 ttl=64 time=0.489 ms664 bytes from 10.0.0.4: icmp_seq=12 ttl=64 time=0.525 ms664 bytes from 10.0.0.4: icmp_seq=13 ttl=64 time=0.435 ms664 bytes from 10.0.0.4: icmp_seq=14 ttl=64 time=0.685 ms664 bytes from 10.0.0.4: icmp_seq=15 ttl=64 time=0.412 ms664 bytes from 10.0.0.4: icmp_seq=16 ttl=64 time=1.31 ms

--- 10.0.0.4 ping statistics ---
16 packets transmitted, 16 received, 0% packet loss, time 76507ms
rtt min/avg/max/mdev = 0.392/0.757/2.759/0.571 ms
