PING 10.0.0.5 (10.0.0.5) 56(84) bytes of data.
64 bytes from 10.0.0.5: icmp_seq=1 ttl=64 time=0.558 ms
64 bytes from 10.0.0.5: icmp_seq=2 ttl=64 time=0.676 ms
64 bytes from 10.0.0.5: icmp_seq=3 ttl=64 time=0.533 ms
64 bytes from 10.0.0.5: icmp_seq=4 ttl=64 time=3.21 ms
664 bytes from 10.0.0.4: icmp_seq=5 ttl=64 time=0.683 ms664 bytes from 10.0.0.4: icmp_seq=6 ttl=64 time=1.58 ms
64 bytes from 10.0.0.5: icmp_seq=7 ttl=64 time=0.386 ms
64 bytes from 10.0.0.5: icmp_seq=8 ttl=64 time=0.433 ms
64 bytes from 10.0.0.5: icmp_seq=9 ttl=64 time=0.470 ms
64 bytes from 10.0.0.4: icmp_seq=10 ttl=64 time=0.366 ms
64 bytes from 10.0.0.4: icmp_seq=11 ttl=64 time=0.501 ms
64 bytes from 10.0.0.4: icmp_seq=12 ttl=64 time=0.770 ms
64 bytes from 10.0.0.4: icmp_seq=13 ttl=64 time=10.5 ms
664 bytes from 10.0.0.5: icmp_seq=14 ttl=64 time=0.596 ms64 bytes from 10.0.0.4: icmp_seq=15 ttl=64 time=0.867 ms
64 bytes from 10.0.0.4: icmp_seq=16 ttl=64 time=1.07 ms

--- 10.0.0.4 ping statistics ---
16 packets transmitted, 16 received, 0% packet loss, time 76821ms
rtt min/avg/max/mdev = 0.334/1.328/10.567/2.405 ms

