PING 10.0.0.5 (10.0.0.5) 56(84) bytes of data.
64 bytes from 10.0.0.5: icmp_seq=1 ttl=64 time=8.03 ms
64 bytes from 10.0.0.5: icmp_seq=2 ttl=64 time=0.410 ms
64 bytes from 10.0.0.5: icmp_seq=3 ttl=64 time=0.431 ms
64 bytes from 10.0.0.5: icmp_seq=4 ttl=64 time=0.550 ms
64 bytes from 10.0.0.5: icmp_seq=5 ttl=64 time=0.397 ms
64 bytes from 10.0.0.5: icmp_seq=6 ttl=64 time=1.90 ms
64 bytes from 10.0.0.5: icmp_seq=7 ttl=64 time=6.74 ms
64 bytes from 10.0.0.5: icmp_seq=8 ttl=64 time=0.529 ms
64 bytes from 10.0.0.5: icmp_seq=9 ttl=64 time=0.442 ms
64 bytes from 10.0.0.5: icmp_seq=10 ttl=64 time=0.559 ms
64 bytes from 10.0.0.5: icmp_seq=11 ttl=64 time=0.558 ms
64 bytes from 10.0.0.5: icmp_seq=12 ttl=64 time=0.707 ms
64 bytes from 10.0.0.5: icmp_seq=13 ttl=64 time=1.04 ms
64 b64 bytes from 10.0.0.4: icmp_seq=14 ttl=64 time=0.41864 b64 bytes from 10.0.0.4: icmp_seq=15 ttl=64 time=2.2164 b64 bytes from 10.0.0.4: icmp_seq=16 ttl=64 time=0.583 ms

--- 10.0.0.4 ping statistics ---
16 packets transmitted, 16 received, 0% packet loss, time 76510ms
rtt min/avg/max/mdev = 0.370/0.643/2.213/0.418 ms
