PING 10.0.0.5 (10.0.0.5) 56(84) bytes of data.
64 bytes from 10.0.0.5: icmp_seq=1 ttl=64 time=7.19 ms
64 bytes from 10.0.0.5: icmp_seq=2 ttl=64 time=0.601 ms
664 bytes from 10.0.0.4: icmp_seq=3 ttl=64 time=0.888 ms664 bytes from 10.0.0.4: icmp_seq=4 ttl=64 time=0.471 ms64 bytes from 10.0.0.5: icmp_seq=5 ttl=64 time=0.472 ms
64 bytes from 10.0.0.5: icmp_seq=6 ttl=64 time=0.437 ms
64 bytes from 10.0.0.5: icmp_seq=7 ttl=64 time=0.390 ms
64 bytes from 10.0.0.5: icmp_seq=8 ttl=64 time=0.443 ms
64 bytes from 10.0.0.5: icmp_seq=9 ttl=64 time=0.509 ms
64 bytes from 10.0.0.5: icmp_seq=10 ttl=64 time=0.527 ms
64 bytes from 10.0.0.5: icmp_seq=11 ttl=64 time=0.576 ms
664 bytes from 10.0.0.4: icmp_seq=12 ttl=64 time=0.414 ms664 bytes from 10.0.0.4: icmp_seq=13 ttl=64 time=1.17 ms
64 bytes from 10.0.0.5: icmp_seq=14 ttl=64 time=0.426 ms
64 bytes from 10.0.0.4: icmp_seq=15 ttl=64 time=0.498 ms
64 bytes from 10.0.0.4: icmp_seq=16 ttl=64 time=0.855 ms

--- 10.0.0.4 ping statistics ---
16 packets transmitted, 16 received, 0% packet loss, time 76729ms
rtt min/avg/max/mdev = 0.349/0.593/1.177/0.213 ms
