PING 10.0.0.4 (10.0.0.4) 56(84) bytes of data.
64 bytes from 10.0.0.4: icmp_seq=1 ttl=64 time=0.795 ms
64 bytes from 10.0.0.4: icmp_seq=2 ttl=64 time=0.596 ms
64 bytes from 10.0.0.4: icmp_seq=3 ttl=64 time=0.620 ms664 bytes from 10.0.0.4: icmp_seq=4 ttl=64 time=0.582 m6464 bytes from 10.0.0.4: icmp_seq=5 ttl=64 time=0.771 64 64 bytes from 10.0.0.4: icmp_seq=6 ttl=64 time=0.788 64 64 bytes from 10.0.0.4: icmp_seq=7 ttl=64 time=0.710 64 64 bytes from 10.0.0.4: icmp_seq=8 ttl=64 time=0.543 64 64 bytes from 10.0.0.4: icmp_seq=9 ttl=64 time=0.963 64 64 bytes from 10.0.0.4: icmp_seq=10 ttl=64 time=0.484 64 64 bytes from 10.0.0.4: icmp_seq=11 ttl=64 time=0.385 64 64 bytes from 10.0.0.4: icmp_seq=12 ttl=64 time=0.409 64 64 bytes from 10.0.0.4: icmp_seq=13 ttl=64 time=0.881 64 64 bytes from 10.0.0.4: icmp_seq=14 ttl=64 time=0.496 64 64 bytes from 10.0.0.4: icmp_seq=15 ttl=64 time=0.443 64 64 bytes from 10.0.0.4: icmp_seq=16 ttl=64 time=0.944 ms

--- 10.0.0.4 ping statistics ---
16 packets transmitted, 16 received, 0% packet loss, time 76814ms
rtt min/avg/max/mdev = 0.385/0.650/0.963/0.185 ms
