PING 10.0.0.5 (10.0.0.5) 56(84) bytes of data.
64 bytes from 10.0.0.5: icmp_seq=1 ttl=64 time=0.566 ms
64 bytes from 10.0.0.5: icmp_seq=2 ttl=64 time=0.727 ms
64 bytes from 10.0.0.5: icmp_seq=3 ttl=64 time=0.633 ms
64 bytes from 10.0.0.5: icmp_seq=4 ttl=64 time=0.452 ms
64 bytes from 10.0.0.4: icmp_seq=5 ttl=64 time=0.504 ms
64 bytes from 10.0.0.4: icmp_seq=6 ttl=64 time=0.591 ms
64 bytes from 10.0.0.4: icmp_seq=7 ttl=64 time=0.487 ms
64 bytes from 10.0.0.5: icmp_seq=8 ttl=64 time=0.443 ms
64 bytes from 10.0.0.5: icmp_seq=9 ttl=64 time=4.33 ms
664 bytes from 10.0.0.4: icmp_seq=10 ttl=64 time=0.467 ms664 bytes from 10.0.0.4: icmp_seq=11 ttl=64 time=1.16 ms
64 bytes from 10.0.0.4: icmp_seq=12 ttl=64 time=0.750 ms664 bytes from 10.0.0.4: icmp_seq=13 ttl=64 time=0.407 ms664 bytes from 10.0.0.4: icmp_seq=14 ttl=64 time=0.423 ms664 bytes from 10.0.0.4: icmp_seq=15 ttl=64 time=0.701 ms664 bytes from 10.0.0.4: icmp_seq=16 ttl=64 time=0.654 ms

--- 10.0.0.4 ping statistics ---
16 packets transmitted, 16 received, 0% packet loss, time 76778ms
rtt min/avg/max/mdev = 0.407/0.572/1.163/0.184 ms
