PING 10.0.0.5 (10.0.0.5) 56(84) bytes of data.
64 bytes from 10.0.0.5: icmp_seq=1 ttl=64 time=0.445 ms
64 bytes from 10.0.0.5: icmp_seq=2 ttl=64 time=0.678 ms
64 bytes from 10.0.0.4: icmp_seq=3 ttl=64 time=0.728 ms
64 bytes from 10.0.0.4: icmp_seq=4 ttl=64 time=0.448 ms
64 bytes from 10.0.0.4: icmp_seq=5 ttl=64 time=0.582 ms
64 bytes from 10.0.0.4: icmp_seq=6 ttl=64 time=0.740 ms
64 bytes from 10.0.0.4: icmp_seq=7 ttl=64 time=0.535 ms
64 bytes from 10.0.0.4: icmp_seq=8 ttl=64 time=0.671 ms
64 bytes from 10.0.0.4: icmp_seq=9 ttl=64 time=0.423 ms
64 bytes from 10.0.0.4: icmp_seq=10 ttl=64 time=0.710 ms
64 bytes from 10.0.0.4: icmp_seq=11 ttl=64 time=0.463 ms
64 bytes from 10.0.0.4: icmp_seq=12 ttl=64 time=0.838 ms
64 bytes from 10.0.0.4: icmp_seq=13 ttl=64 time=0.687 ms
64 bytes from 10.0.0.4: icmp_seq=14 ttl=64 time=0.646 ms
64 bytes from 10.0.0.4: icmp_seq=15 ttl=64 time=0.579 ms
64 bytes from 10.0.0.4: icmp_seq=16 ttl=64 time=0.719 ms

--- 10.0.0.4 ping statistics ---
16 packets transmitted, 16 received, 0% packet loss, time 76706ms
rtt min/avg/max/mdev = 0.423/0.633/0.838/0.119 ms
