PING 10.0.0.5 (10.0.0.5) 56(84) bytes of data.
64 bytes from 10.0.0.5: icmp_seq=1 ttl=64 time=0.525 ms664 bytes from 10.0.0.5: icmp_seq=2 ttl=64 time=1.16 ms
64 bytes from 10.0.0.4: icmp_seq=3 ttl=64 time=0.417 ms
64 bytes from 10.0.0.4: icmp_seq=4 ttl=64 time=0.424 ms
64 bytes from 10.0.0.4: icmp_seq=5 ttl=64 time=0.603 ms
64 bytes from 10.0.0.4: icmp_seq=6 ttl=64 time=0.535 ms
64 bytes from 10.0.0.4: icmp_seq=7 ttl=64 time=0.436 ms
64 bytes from 10.0.0.4: icmp_seq=8 ttl=64 time=0.444 ms
64 bytes from 10.0.0.4: icmp_seq=9 ttl=64 time=0.369 ms
64 bytes from 10.0.0.4: icmp_seq=10 ttl=64 time=0.473 ms
64 bytes from 10.0.0.4: icmp_seq=11 ttl=64 time=0.729 ms
64 bytes from 10.0.0.4: icmp_seq=12 ttl=64 time=0.506 ms
64 bytes from 10.0.0.4: icmp_seq=13 ttl=64 time=0.476 ms
64 bytes from 10.0.0.4: icmp_seq=14 ttl=64 time=0.401 ms
64 bytes from 10.0.0.4: icmp_seq=15 ttl=64 time=0.841 ms
64 bytes from 10.0.0.4: icmp_seq=16 ttl=64 time=0.982 ms

--- 10.0.0.4 ping statistics ---
16 packets transmitted, 16 received, 0% packet loss, time 76821ms
rtt min/avg/max/mdev = 0.369/0.590/1.057/0.210 ms
