PING 10.0.0.5 (10.0.0.5) 56(84) bytes of data.
64 bytes from 10.0.0.5: icmp_seq=1 ttl=64 time=0.608 ms664 bytes from 10.0.0.5: icmp_seq=2 ttl=64 time=1.11 ms
64 bytes from 10.0.0.4: icmp_seq=3 ttl=64 time=0.515 ms
64 bytes from 10.0.0.4: icmp_seq=4 ttl=64 time=0.623 ms
64 bytes from 10.0.0.4: icmp_seq=5 ttl=64 time=2.56 ms
64 bytes from 10.0.0.4: icmp_seq=6 ttl=64 time=0.428 ms
64 bytes from 10.0.0.4: icmp_seq=7 ttl=64 time=0.432 ms
64 bytes from 10.0.0.4: icmp_seq=8 ttl=64 time=0.563 ms
64 bytes from 10.0.0.4: icmp_seq=9 ttl=64 time=0.543 ms
64 bytes from 10.0.0.4: icmp_seq=10 ttl=64 time=0.380 ms
64 bytes from 10.0.0.4: icmp_seq=11 ttl=64 time=0.441 ms664 bytes from 10.0.0.4: icmp_seq=12 ttl=64 time=0.349 m6464 bytes from 10.0.0.4: icmp_seq=13 ttl=64 time=0.722 m6464 bytes from 10.0.0.4: icmp_seq=14 ttl=64 time=8.37 ms664 bytes from 10.0.0.4: icmp_seq=15 ttl=64 time=0.822 m6464 bytes from 10.0.0.4: icmp_seq=16 ttl=64 time=1.17 ms

--- 10.0.0.4 ping statistics ---
16 packets transmitted, 16 received, 0% packet loss, time 76771ms
rtt min/avg/max/mdev = 0.349/1.223/8.375/1.918 ms
