PING 10.0.0.5 (10.0.0.5) 56(84) bytes of data.
64 bytes from 10.0.0.5: icmp_seq=1 ttl=64 time=8.66 ms
64 bytes from 10.0.0.5: icmp_seq=2 ttl=64 time=0.617 ms
64 bytes from 10.0.0.5: icmp_seq=3 ttl=64 time=0.668 ms
64 bytes from 10.0.0.5: icmp_seq=4 ttl=64 time=0.570 ms664 bytes from 10.0.0.5: icmp_seq=5 ttl=64 time=0.571 ms664 bytes from 10.0.0.5: icmp_seq=6 ttl=64 time=1.15 ms
64 bytes from 10.0.0.5: icmp_seq=7 ttl=64 time=0.659 ms
64 bytes from 10.0.0.5: icmp_seq=8 ttl=64 time=0.605 ms
64 bytes from 10.0.0.5: icmp_seq=9 ttl=64 time=0.766 ms
64 bytes from 10.0.0.5: icmp_seq=10 ttl=64 time=0.445 ms
64 bytes from 10.0.0.5: icmp_seq=11 ttl=64 time=0.761 ms
64 bytes from 10.0.0.5: icmp_seq=12 ttl=64 time=0.461 ms
64 bytes from 10.0.0.5: icmp_seq=13 ttl=64 time=0.415 ms
64 bytes from 10.0.0.5: icmp_seq=14 ttl=64 time=0.470 ms
64 bytes from 10.0.0.5: icmp_seq=15 ttl=64 time=0.580 ms664 bytes from 10.0.0.5: icmp_seq=16 ttl=64 time=0.616 ms

--- 10.0.0.5 ping statistics ---
16 packets transmitted, 16 received, 0% packet loss, time 76638ms
rtt min/avg/max/mdev = 0.415/1.126/8.667/1.954 ms
