PING 10.0.0.5 (10.0.0.5) 56(84) bytes of data.
64 bytes from 10.0.0.5: icmp_seq=1 ttl=64 time=0.709 ms
64 bytes from 10.0.0.5: icmp_seq=2 ttl=64 time=0.580 ms
64 bytes from 10.0.0.5: icmp_seq=3 ttl=64 time=0.863 ms
64 bytes from 10.0.0.5: icmp_seq=4 ttl=64 time=0.716 ms
64 bytes from 10.0.0.5: icmp_seq=5 ttl=64 time=0.823 ms664 bytes from 10.0.0.5: icmp_seq=6 ttl=64 time=0.429 ms664 bytes from 10.0.0.5: icmp_seq=7 ttl=64 time=0.769 ms664 bytes from 10.0.0.5: icmp_seq=8 ttl=64 time=0.473 ms664 bytes from 10.0.0.5: icmp_seq=9 ttl=64 time=0.983 ms664 bytes from 10.0.0.5: icmp_seq=10 ttl=64 time=0.488 m6464 bytes from 10.0.0.5: icmp_seq=11 ttl=64 time=0.518 m6464 bytes from 10.0.0.5: icmp_seq=12 ttl=64 time=0.579 m6464 bytes from 10.0.0.5: icmp_seq=13 ttl=64 time=0.630 64 64 bytes from 10.0.0.5: icmp_seq=14 ttl=64 time=4.31 m6464 bytes from 10.0.0.5: icmp_seq=15 ttl=64 time=7.32 ms664 bytes from 10.0.0.5: icmp_seq=16 ttl=64 time=0.551 ms

--- 10.0.0.5 ping statistics ---
16 packets transmitted, 16 received, 0% packet loss, time 76561ms
rtt min/avg/max/mdev = 0.429/1.297/7.324/1.796 ms
