PING 10.0.0.5 (10.0.0.5) 56(84) bytes of data.
64 bytes from 10.0.0.5: icmp_seq=1 ttl=64 time=0.674 ms
64 bytes from 10.0.0.5: icmp_seq=2 ttl=64 time=0.698 ms
64 bytes from 10.0.0.5: icmp_seq=3 ttl=64 time=0.405 ms
64 bytes from 10.0.0.5: icmp_seq=4 ttl=64 time=0.397 ms
64 bytes from 10.0.0.4: icmp_seq=5 ttl=64 time=2.06 ms
664 bytes from 10.0.0.5: icmp_seq=6 ttl=64 time=0.451 ms64 bytes from 10.0.0.4: icmp_seq=7 ttl=64 time=0.607 ms
64 bytes from 10.0.0.4: icmp_seq=8 ttl=64 time=0.455 ms
64 bytes from 10.0.0.4: icmp_seq=9 ttl=64 time=0.447 ms
664 bytes from 10.0.0.5: icmp_seq=10 ttl=64 time=0.433 ms64 bytes from 10.0.0.4: icmp_seq=11 ttl=64 time=0.666 ms
664 bytes from 10.0.0.5: icmp_seq=12 ttl=64 time=0.571 ms664 bytes from 10.0.0.5: icmp_seq=13 ttl=64 time=0.536 ms64 bytes from 10.0.0.4: icmp_seq=14 ttl=64 time=0.444 ms
664 bytes from 10.0.0.5: icmp_seq=15 ttl=64 time=0.516 ms664 bytes from 10.0.0.5: icmp_seq=16 ttl=64 time=0.709 ms

--- 10.0.0.5 ping statistics ---
16 packets transmitted, 16 received, 0% packet loss, time 76761ms
rtt min/avg/max/mdev = 0.397/0.523/0.732/0.119 ms
