PING 10.0.0.5 (10.0.0.5) 56(84) bytes of data.
64 bytes from 10.0.0.5: icmp_seq=1 ttl=64 time=0.496 ms664 bytes from 10.0.0.5: icmp_seq=2 ttl=64 time=0.447 ms664 bytes from 10.0.0.5: icmp_seq=3 ttl=64 time=0.424 ms664 bytes from 10.0.0.5: icmp_seq=4 ttl=64 time=1.97 ms
64 bytes from 10.0.0.5: icmp_seq=5 ttl=64 time=0.411 ms
64 bytes from 10.0.0.5: icmp_seq=6 ttl=64 time=0.359 ms
64 bytes from 10.0.0.5: icmp_seq=7 ttl=64 time=0.483 ms
64 bytes from 10.0.0.5: icmp_seq=8 ttl=64 time=0.344 ms
64 bytes from 10.0.0.5: icmp_seq=9 ttl=64 time=0.550 ms
64 bytes from 10.0.0.5: icmp_seq=10 ttl=64 time=0.378 ms
64 bytes from 10.0.0.5: icmp_seq=11 ttl=64 time=0.311 ms
64 bytes from 10.0.0.5: icmp_seq=12 ttl=64 time=0.501 ms
64 bytes from 10.0.0.5: icmp_seq=13 ttl=64 time=0.356 ms
64 bytes from 10.0.0.5: icmp_seq=14 ttl=64 time=0.491 ms
64 bytes from 10.0.0.5: icmp_seq=15 ttl=64 time=0.524 ms
64 bytes from 10.0.0.5: icmp_seq=16 ttl=64 time=0.595 ms

--- 10.0.0.5 ping statistics ---
16 packets transmitted, 16 received, 0% packet loss, time 76708ms
rtt min/avg/max/mdev = 0.311/0.540/1.974/0.378 ms
