PING 10.0.0.5 (10.0.0.5) 56(84) bytes of data.
64 bytes from 10.0.0.5: icmp_seq=1 ttl=64 time=0.852 ms
64 bytes from 10.0.0.5: icmp_seq=2 ttl=64 time=0.867 ms664 bytes from 10.0.0.5: icmp_seq=3 ttl=64 time=0.687 ms664 bytes from 10.0.0.5: icmp_seq=4 ttl=64 time=1.06 ms64 bytes from 10.0.0.4: icmp_seq=5 ttl=64 time=0.859 ms
664 bytes from 10.0.0.5: icmp_seq=6 ttl=64 time=3.46 ms
64 bytes from 10.0.0.4: icmp_seq=7 ttl=64 time=0.645 ms
64 bytes from 10.0.0.4: icmp_seq=8 ttl=64 time=0.568 ms
64 bytes from 10.0.0.4: icmp_seq=9 ttl=64 time=0.765 ms
64 bytes from 10.0.0.5: icmp_seq=10 ttl=64 time=0.734 ms
64 bytes from 10.0.0.4: icmp_seq=11 ttl=64 time=0.810 ms
64 bytes from 10.0.0.4: icmp_seq=12 ttl=64 time=0.858 ms
64 bytes from 10.0.0.5: icmp_seq=13 ttl=64 time=1.61 ms
664 bytes from 10.0.0.4: icmp_seq=14 ttl=64 time=2.13 ms
64 bytes from 10.0.0.5: icmp_seq=15 ttl=64 time=0.585 ms
64 bytes from 10.0.0.4: icmp_seq=16 ttl=64 time=1.11 ms

--- 10.0.0.4 ping statistics ---
16 packets transmitted, 16 received, 0% packet loss, time 76625ms
rtt min/avg/max/mdev = 0.446/0.847/2.130/0.394 ms

