PING 10.0.0.5 (10.0.0.5) 56(84) bytes of data.
64 bytes from 10.0.0.5: icmp_seq=1 ttl=64 time=1.03 ms
64 bytes from 10.0.0.5: icmp_seq=2 ttl=64 time=1.25 ms
64 bytes from 10.0.0.5: icmp_seq=3 ttl=64 time=0.434 ms
64 bytes from 10.0.0.5: icmp_seq=4 ttl=64 time=0.443 ms
64 bytes from 10.0.0.5: icmp_seq=5 ttl=64 time=0.525 ms
64 bytes from 10.0.0.5: icmp_seq=6 ttl=64 time=0.757 ms
664 bytes from 10.0.0.4: icmp_seq=7 ttl=64 time=0.492 ms64 bytes from 10.0.0.5: icmp_seq=8 ttl=64 time=0.594 ms
664 bytes from 10.0.0.4: icmp_seq=9 ttl=64 time=0.564 ms664 bytes from 10.0.0.4: icmp_seq=10 ttl=64 time=0.510 ms664 bytes from 10.0.0.4: icmp_seq=11 ttl=64 time=0.407 ms64 bytes from 10.0.0.5: icmp_seq=12 ttl=64 time=0.358 ms
64 bytes from 10.0.0.5: icmp_seq=13 ttl=64 time=0.511 ms
64 bytes from 10.0.0.5: icmp_seq=14 ttl=64 time=0.523 ms
64 bytes from 10.0.0.5: icmp_seq=15 ttl=64 time=0.530 ms
664 bytes from 10.0.0.4: icmp_seq=16 ttl=64 time=0.589 ms

--- 10.0.0.4 ping statistics ---
16 packets transmitted, 16 received, 0% packet loss, time 76687ms
rtt min/avg/max/mdev = 0.387/0.577/1.271/0.225 ms
