PING 10.0.0.5 (10.0.0.5) 56(84) bytes of data.
64 bytes from 10.0.0.5: icmp_seq=1 ttl=64 time=0.526 ms
64 bytes from 10.0.0.5: icmp_seq=2 ttl=64 time=1.01 ms
664 bytes from 10.0.0.4: icmp_seq=3 ttl=64 time=0.473 ms664 bytes from 10.0.0.4: icmp_seq=4 ttl=64 time=0.641 ms664 bytes from 10.0.0.4: icmp_seq=5 ttl=64 time=0.463 ms64 bytes from 10.0.0.5: icmp_seq=6 ttl=64 time=0.398 ms
664 bytes from 10.0.0.4: icmp_seq=7 ttl=64 time=6.35 ms
64 bytes from 10.0.0.5: icmp_seq=8 ttl=64 time=0.336 ms
64 bytes from 10.0.0.4: icmp_seq=9 ttl=64 time=0.422 ms
64 bytes from 10.0.0.4: icmp_seq=10 ttl=64 time=0.462 ms
64 bytes from 10.0.0.4: icmp_seq=11 ttl=64 time=0.405 ms
64 bytes from 10.0.0.4: icmp_seq=12 ttl=64 time=0.600 ms
64 bytes from 10.0.0.4: icmp_seq=13 ttl=64 time=0.452 ms
64 bytes from 10.0.0.4: icmp_seq=14 ttl=64 time=0.595 ms
64 bytes from 10.0.0.4: icmp_seq=15 ttl=64 time=0.673 ms
64 bytes from 10.0.0.4: icmp_seq=16 ttl=64 time=0.944 ms

--- 10.0.0.4 ping statistics ---
16 packets transmitted, 16 received, 0% packet loss, time 76606ms
rtt min/avg/max/mdev = 0.370/0.918/6.351/1.410 ms
