PING 10.0.0.5 (10.0.0.5) 56(84) bytes of data.
64 bytes from 10.0.0.5: icmp_seq=1 ttl=64 time=0.572 ms
64 bytes from 10.0.0.5: icmp_seq=2 ttl=64 time=0.603 ms
64 bytes from 10.0.0.5: icmp_seq=3 ttl=64 time=0.495 ms
64 bytes from 10.0.0.5: icmp_seq=4 ttl=64 time=0.535 ms
64 bytes from 10.0.0.5: icmp_seq=5 ttl=64 time=0.331 ms664 bytes from 10.0.0.5: icmp_seq=6 ttl=64 time=0.333 ms664 bytes from 10.0.0.5: icmp_seq=7 ttl=64 time=2.92 ms664 bytes from 10.0.0.5: icmp_seq=8 ttl=64 time=2.19 ms664 bytes from 10.0.0.5: icmp_seq=9 ttl=64 time=0.445 ms664 bytes from 10.0.0.5: icmp_seq=10 ttl=64 time=1.86 ms
64 bytes from 10.0.0.5: icmp_seq=11 ttl=64 time=0.530 ms
64 bytes from 10.0.0.5: icmp_seq=12 ttl=64 time=0.762 ms
64 bytes from 10.0.0.5: icmp_seq=13 ttl=64 time=0.443 ms
64 bytes from 10.0.0.5: icmp_seq=14 ttl=64 time=0.522 ms
64 bytes from 10.0.0.5: icmp_seq=15 ttl=64 time=0.568 ms
64 bytes from 10.0.0.5: icmp_seq=16 ttl=64 time=0.906 ms

--- 10.0.0.5 ping statistics ---
16 packets transmitted, 16 received, 0% packet loss, time 76554ms
rtt min/avg/max/mdev = 0.331/0.876/2.926/0.736 ms
