PING 10.0.0.4 (10.0.0.4) 56(84) bytes of data.
64 bytes from 10.0.0.4: icmp_seq=1 ttl=64 time=0.903 ms
64 bytes from 10.0.0.4: icmp_seq=2 ttl=64 time=0.539 ms
64 bytes from 10.0.0.4: icmp_seq=3 ttl=64 time=0.827 ms
64 bytes from 10.0.0.4: icmp_seq=4 ttl=64 time=0.837 ms
64 bytes from 10.0.0.4: icmp_seq=5 ttl=64 time=0.767 ms
64 bytes from 10.0.0.4: icmp_seq=6 ttl=64 time=0.476 ms
64 bytes from 10.0.0.4: icmp_seq=7 ttl=64 time=0.465 ms
64 bytes from 10.0.0.4: icmp_seq=8 ttl=64 time=0.556 ms664 bytes from 10.0.0.4: icmp_seq=9 ttl=64 time=0.655 ms664 bytes from 10.0.0.4: icmp_seq=10 ttl=64 time=0.513 ms664 bytes from 10.0.0.4: icmp_seq=11 ttl=64 time=0.502 ms664 bytes from 10.0.0.4: icmp_seq=12 ttl=64 time=2.78 ms
64 bytes from 10.0.0.4: icmp_seq=13 ttl=64 time=0.460 ms
64 bytes from 10.0.0.4: icmp_seq=14 ttl=64 time=0.453 ms
64 bytes from 10.0.0.4: icmp_seq=15 ttl=64 time=0.409 ms664 bytes from 10.0.0.4: icmp_seq=16 ttl=64 time=0.897 ms

--- 10.0.0.4 ping statistics ---
16 packets transmitted, 16 received, 0% packet loss, time 76811ms
rtt min/avg/max/mdev = 0.409/0.752/2.786/0.552 ms
