PING 10.0.0.4 (10.0.0.4) 56(84) bytes of data.
64 bytes from 10.0.0.4: icmp_seq=1 ttl=64 time=0.632 ms664 bytes from 10.0.0.4: icmp_seq=2 ttl=64 time=0.724 ms664 bytes from 10.0.0.4: icmp_seq=3 ttl=64 time=1.88 ms664 bytes from 10.0.0.4: icmp_seq=4 ttl=64 time=0.449 ms664 bytes from 10.0.0.4: icmp_seq=5 ttl=64 time=7.31 ms
64 bytes from 10.0.0.5: icmp_seq=6 ttl=64 time=5.54 ms
664 bytes from 10.0.0.4: icmp_seq=7 ttl=64 time=6.98 ms
64 bytes from 10.0.0.5: icmp_seq=8 ttl=64 time=0.457 ms664 bytes from 10.0.0.5: icmp_seq=9 ttl=64 time=0.916 ms664 bytes from 10.0.0.5: icmp_seq=10 ttl=64 time=0.502 ms664 bytes from 10.0.0.5: icmp_seq=11 ttl=64 time=0.586 m6464 bytes from 10.0.0.5: icmp_seq=12 ttl=64 time=0.433 64 64 bytes from 10.0.0.5: icmp_seq=13 ttl=64 time=0.66364 b64 bytes from 10.0.0.5: icmp_seq=14 ttl=64 time=3.01 64 64 bytes from 10.0.0.5: icmp_seq=15 ttl=64 time=0.681 64 64 bytes from 10.0.0.5: icmp_seq=16 ttl=64 time=1.43 ms

--- 10.0.0.5 ping statistics ---
16 packets transmitted, 16 received, 0% packet loss, time 76779ms
rtt min/avg/max/mdev = 0.383/1.583/6.997/1.910 ms
