PING 10.0.0.5 (10.0.0.5) 56(84) bytes of data.
64 bytes from 10.0.0.5: icmp_seq=1 ttl=64 time=1.04 ms
64 bytes from 10.0.0.5: icmp_seq=2 ttl=64 time=0.833 ms
64 bytes from 10.0.0.5: icmp_seq=3 ttl=64 time=0.608 ms
64 bytes from 10.0.0.5: icmp_seq=4 ttl=64 time=0.523 ms
64 bytes from 10.0.0.5: icmp_seq=5 ttl=64 time=0.555 ms
64 bytes from 10.0.0.5: icmp_seq=6 ttl=64 time=0.559 ms
664 bytes from 10.0.0.4: icmp_seq=7 ttl=64 time=0.488 ms664 bytes from 10.0.0.4: icmp_seq=8 ttl=64 time=0.758 ms664 bytes from 10.0.0.4: icmp_seq=9 ttl=64 time=0.974 ms64 bytes from 10.0.0.5: icmp_seq=10 ttl=64 time=0.436 ms
664 bytes from 10.0.0.4: icmp_seq=11 ttl=64 time=0.488 ms664 bytes from 10.0.0.4: icmp_seq=12 ttl=64 time=0.847 ms64 bytes from 10.0.0.5: icmp_seq=13 ttl=64 time=7.60 ms
64 bytes from 10.0.0.5: icmp_seq=14 ttl=64 time=0.427 ms
64 bytes from 10.0.0.5: icmp_seq=15 ttl=64 time=0.383 ms
64 bytes from 10.0.0.5: icmp_seq=16 ttl=64 time=2.04 ms

--- 10.0.0.5 ping statistics ---
16 packets transmitted, 16 received, 0% packet loss, time 76741ms
rtt min/avg/max/mdev = 0.335/1.102/7.604/1.724 ms
s
