PING 10.0.0.5 (10.0.0.5) 56(84) bytes of data.
64 bytes from 10.0.0.5: icmp_seq=1 ttl=64 time=0.558 ms
64 bytes from 10.0.0.5: icmp_seq=2 ttl=64 time=0.313 ms
64 bytes from 10.0.0.4: icmp_seq=3 ttl=64 time=0.519 ms
64 bytes from 10.0.0.4: icmp_seq=4 ttl=64 time=0.460 ms
64 bytes from 10.0.0.4: icmp_seq=5 ttl=64 time=1.17 ms
64 bytes from 10.0.0.4: icmp_seq=6 ttl=64 time=0.912 ms
64 bytes from 10.0.0.4: icmp_seq=7 ttl=64 time=0.436 ms
64 bytes from 10.0.0.4: icmp_seq=8 ttl=64 time=0.711 ms
64 bytes from 10.0.0.4: icmp_seq=9 ttl=64 time=0.565 ms
64 bytes from 10.0.0.4: icmp_seq=10 ttl=64 time=0.571 ms
64 bytes from 10.0.0.4: icmp_seq=11 ttl=64 time=0.510 ms
64 bytes from 10.0.0.4: icmp_seq=12 ttl=64 time=0.447 ms
64 bytes from 10.0.0.4: icmp_seq=13 ttl=64 time=0.460 ms
64 bytes from 10.0.0.4: icmp_seq=14 ttl=64 time=0.547 ms
64 bytes from 10.0.0.4: icmp_seq=15 ttl=64 time=0.512 ms
64 bytes from 10.0.0.4: icmp_seq=16 ttl=64 time=0.827 ms

--- 10.0.0.4 ping statistics ---
16 packets transmitted, 16 received, 0% packet loss, time 76724ms
rtt min/avg/max/mdev = 0.436/0.623/1.175/0.196 ms
