PING 10.0.0.4 (10.0.0.4) 56(84) bytes of data.
64 bytes from 10.0.0.4: icmp_seq=1 ttl=64 time=0.997 ms
64 bytes from 10.0.0.4: icmp_seq=2 ttl=64 time=0.907 ms
64 bytes from 10.0.0.4: icmp_seq=3 ttl=64 time=0.341 ms
64 bytes from 10.0.0.5: icmp_seq=4 ttl=64 time=0.770 ms
64 bytes from 10.0.0.4: icmp_seq=5 ttl=64 time=0.472 ms
64 bytes from 10.0.0.4: icmp_seq=6 ttl=64 time=0.797 ms
64 bytes from 10.0.0.4: icmp_seq=7 ttl=64 time=0.412 ms
64 bytes from 10.0.0.4: icmp_seq=8 ttl=64 time=0.587 ms
64 bytes from 10.0.0.4: icmp_seq=9 ttl=64 time=0.612 ms
64 bytes from 10.0.0.4: icmp_seq=10 ttl=64 time=0.498 ms
64 bytes from 10.0.0.4: icmp_seq=11 ttl=64 time=0.481 ms
64 bytes from 10.0.0.4: icmp_seq=12 ttl=64 time=2.48 ms
664 bytes from 10.0.0.5: icmp_seq=13 ttl=64 time=0.741 ms64 bytes from 10.0.0.4: icmp_seq=14 ttl=64 time=0.507 ms
664 bytes from 10.0.0.5: icmp_seq=15 ttl=64 time=0.467 ms664 bytes from 10.0.0.5: icmp_seq=16 ttl=64 time=0.929 ms

--- 10.0.0.5 ping statistics ---
16 packets transmitted, 16 received, 0% packet loss, time 76762ms
rtt min/avg/max/mdev = 0.350/0.544/0.929/0.175 ms
