PING 10.0.0.5 (10.0.0.5) 56(84) bytes of data.
64 bytes from 10.0.0.5: icmp_seq=1 ttl=64 time=0.418 ms
64 bytes from 10.0.0.5: icmp_seq=2 ttl=64 time=2.21 ms
64 bytes from 10.0.0.5: icmp_seq=3 ttl=64 time=0.950 ms664 bytes from 10.0.0.5: icmp_seq=4 ttl=64 time=0.482 m6464 bytes from 10.0.0.5: icmp_seq=5 ttl=64 time=0.468 m6464 bytes from 10.0.0.5: icmp_seq=6 ttl=64 time=0.669 m6464 bytes from 10.0.0.5: icmp_seq=7 ttl=64 time=7.00 ms664 bytes from 10.0.0.5: icmp_seq=8 ttl=64 time=1.12 ms664 bytes from 10.0.0.5: icmp_seq=9 ttl=64 time=0.467 ms664 bytes from 10.0.0.5: icmp_seq=10 ttl=64 time=0.501 ms664 bytes from 10.0.0.5: icmp_seq=11 ttl=64 time=0.696 ms664 bytes from 10.0.0.5: icmp_seq=12 ttl=64 time=0.442 ms664 bytes from 10.0.0.5: icmp_seq=13 ttl=64 time=0.735 ms664 bytes from 10.0.0.5: icmp_seq=14 ttl=64 time=0.604 ms664 bytes from 10.0.0.5: icmp_seq=15 ttl=64 time=0.702 ms64 bytes from 10.0.0.4: icmp_seq=16 ttl=64 time=1.28 ms

--- 10.0.0.4 ping statistics ---
16 packets transmitted, 16 received, 0% packet loss, time 76244ms
rtt min/avg/max/mdev = 0.407/0.992/4.327/0.902 ms
s
