PING 10.0.0.5 (10.0.0.5) 56(84) bytes of data.
64 bytes from 10.0.0.5: icmp_seq=1 ttl=64 time=7.32 ms
64 bytes from 10.0.0.5: icmp_seq=2 ttl=64 time=0.512 ms
64 bytes from 10.0.0.5: icmp_seq=3 ttl=64 time=7.15 ms
64 bytes from 10.0.0.5: icmp_seq=4 ttl=64 time=0.351 ms
64 bytes from 10.0.0.5: icmp_seq=5 ttl=64 time=0.899 ms
64 bytes from 10.0.0.5: icmp_seq=6 ttl=64 time=1.38 ms
64 bytes from 10.0.0.5: icmp_seq=7 ttl=64 time=0.692 ms
64 bytes from 10.0.0.5: icmp_seq=8 ttl=64 time=0.488 ms
64 bytes from 10.0.0.5: icmp_seq=9 ttl=64 time=0.767 ms
64 bytes from 10.0.0.5: icmp_seq=10 ttl=64 time=0.443 ms
64 bytes from 10.0.0.5: icmp_seq=11 ttl=64 time=0.518 ms
64 bytes from 10.0.0.5: icmp_seq=12 ttl=64 time=0.407 ms
64 bytes from 10.0.0.5: icmp_seq=13 ttl=64 time=0.386 ms
64 bytes from 10.0.0.5: icmp_seq=14 ttl=64 time=0.602 ms
64 bytes from 10.0.0.5: icmp_seq=15 ttl=64 time=0.406 ms
64 bytes from 10.0.0.5: icmp_seq=16 ttl=64 time=0.664 ms

--- 10.0.0.5 ping statistics ---
16 packets transmitted, 16 received, 0% packet loss, time 76568ms
rtt min/avg/max/mdev = 0.351/1.437/7.321/2.206 ms

