PING 10.0.0.11 (10.0.0.11) 56(84) bytes of data.
64 bytes from 10.0.0.11: icmp_seq=1 ttl=64 time=0.557 64 bytes from 10.0.0.6: icmp_seq=2 ttl=64 time=0.432 ms
64 bytes from 10.0.0.6: icmp_seq=3 ttl=64 time=0.420 ms
64 bytes from 10.0.0.6: icmp_seq=4 ttl=64 time=0.554 ms
64 bytes from 10.0.0.6: icmp_seq=5 ttl=64 time=6.37 ms
64 bytes from 10.0.0.6: icmp_seq=6 ttl=64 time=0.710 ms
64 bytes from 10.0.0.6: icmp_seq=7 ttl=64 time=2.34 ms
64 bytes from 10.0.0.6: icmp_seq=8 ttl=64 time=0.520 ms
64 bytes from 10.0.0.6: icmp_seq=9 ttl=64 time=0.393 ms
64 bytes from 10.0.0.6: icmp_seq=10 ttl=64 time=0.592 ms
64 bytes from 10.0.0.6: icmp_seq=11 ttl=64 time=0.493 ms
64 bytes from 10.0.0.6: icmp_seq=12 ttl=64 time=1.84 ms
64 bytes from 10.0.0.6: icmp_seq=13 ttl=64 time=0.447 ms
64 bytes from 10.0.0.6: icmp_seq=14 ttl=64 time=2.83 ms
64 bytes from 10.0.0.6: icmp_seq=15 ttl=64 time=0.583 ms
64 bytes from 10.0.0.6: icmp_seq=16 ttl=64 time=0.580 ms

--- 10.0.0.6 ping statistics ---
16 packets transmitted, 16 received, 0% packet loss, time 76931ms
rtt min/avg/max/mdev = 0.393/1.235/6.372/1.513 ms
8/0.556/0.797/0.126 ms
