PING 10.0.0.7 (10.0.0.7) 56(84) bytes of data.
64 bytes from 10.0.0.7: icmp_seq=1 ttl=64 time=0.638 ms
64 bytes from 10.0.0.7: icmp_seq=2 ttl=64 time=0.792 ms
64 b64 bytes from 10.0.0.11: icmp_seq=3 ttl=64 time=0.4364 bytes from 10.0.0.7: icmp_seq=4 ttl=64 time=0.516 ms
64 byt64 bytes from 10.0.0.11: icmp_seq=5 ttl=64 time=0.64 bytes from 10.0.0.7: icmp_seq=6 ttl=64 time=0.647 ms
64 bytes from 10.0.0.7: icmp_seq=7 ttl=64 time=0.518 ms
64 bytes from 10.0.0.7: icmp_seq=8 ttl=64 time=0.580 ms
64 bytes f64 bytes from 10.0.0.11: icmp_seq=9 ttl=64 tim64 bytes from 10.0.0.7: icmp_seq=10 ttl=64 time=0.485 ms
64 bytes fro64 bytes from 10.0.0.11: icmp_seq=11 ttl=64 t64 bytes from 10.0.0.7: icmp_seq=12 ttl=64 time=0.657 ms
64 bytes from64 bytes from 10.0.0.11: icmp_seq=13 ttl=64 64 bytes from 10.0.0.7: icmp_seq=14 ttl=64 time=0.588 ms
64 bytes from 64 bytes from 10.0.0.11: icmp_seq=15 ttl=6464 bytes from 10.0.0.7: icmp_seq=16 ttl=64 time=0.828 ms

--- 10.0.0.7 ping statistics ---
16 packets transmitted, 16 received, 0% packet loss, time 76769ms
rtt min/avg/max/mdev = 0.364/0.591/0.828/0.126 ms
7/4.944/1.243 ms
