PING 10.0.0.11 (10.0.0.11) 56(84) bytes of data.
64 bytes from 10.0.0.11: icmp_seq=1 ttl=64 time=0.586 64 64 bytes from 10.0.0.11: icmp_seq=2 ttl=64 time=0.55064 b64 bytes from 10.0.0.11: icmp_seq=3 ttl=64 time=4.6864 bytes from 10.0.0.6: icmp_seq=4 ttl=64 time=0.404 ms
64 bytes from 10.0.0.6: icmp_seq=5 ttl=64 time=0.607 ms
64 bytes from 10.0.0.6: icmp_seq=6 ttl=64 time=0.566 ms
64 bytes from 10.0.0.6: icmp_seq=7 ttl=64 time=0.717 ms
64 bytes from 10.0.0.6: icmp_seq=8 ttl=64 time=1.01 ms
64 bytes f64 bytes from 10.0.0.11: icmp_seq=9 ttl=64 ti64 bytes fr64 bytes from 10.0.0.11: icmp_seq=10 ttl=64 ti64 bytes fro64 bytes from 10.0.0.11: icmp_seq=11 ttl=64 t664 bytes fro64 bytes from 10.0.0.11: icmp_seq=12 ttl=64 64 bytes from 64 bytes from 10.0.0.11: icmp_seq=13 ttl=6464 bytes from 164 bytes from 10.0.0.11: icmp_seq=14 ttl=6464 bytes from 164 bytes from 10.0.0.11: icmp_seq=15 tt64 64 bytes from 164 bytes from 10.0.0.11: icmp_seq=16 ttl=64 time=0.642 ms

--- 10.0.0.11 ping statistics ---
16 packets transmitted, 16 received, 0% packet loss, time 76696ms
rtt min/avg/max/mdev = 0.367/1.094/4.688/1.259 ms
