PING 10.0.0.7 (10.0.0.7) 56(84) bytes of data.
64 bytes from 10.0.0.7: icmp_seq=1 ttl=64 time=0.750 ms
64 bytes from 10.0.0.7: icmp_seq=2 ttl=64 time=0.411 ms664 bytes from 10.0.0.7: icmp_seq=3 ttl=64 time=0.738 ms64 by64 bytes from 10.0.0.11: icmp_seq=4 ttl=64 time=0.564 bytes from 10.0.0.6: icmp_seq=5 ttl=64 time=0.792 ms
64 bytes from 10.0.0.6: icmp_seq=6 ttl=64 time=0.774 ms
664 bytes from 10.0.0.7: icmp_seq=7 ttl=64 time=0.537 ms664 bytes64 bytes from 10.0.0.11: icmp_seq=8 ttl=64 time664 bytes from 10.0.0.7: icmp_seq=9 ttl=64 time=0.608 ms64 bytes from 10.0.0.6: icmp_seq=10 ttl=64 time=0.564 ms
64 bytes fro64 bytes from 10.0.0.11: icmp_seq=11 ttl=64 t664 bytes from 10.0.0.7: icmp_seq=12 ttl=64 time=0.838 ms664 bytes from 10.0.0.7: icmp_seq=13 ttl=64 time=0.803 ms64 bytes from 164 bytes from 10.0.0.11: icmp_seq=14 ttl=6664 bytes from 10.0.0.7: icmp_seq=15 ttl=64 time=0.639 ms664 bytes from 1064 bytes from 10.0.0.11: icmp_seq=16 ttl=---- 10.0.0.7 pin
--- 10.0.0.11 ping statistics ---
16 packets transmitted, 16 received, 0% packet loss, time 76683ms
rtt min/avg/max/mdev = 0.315/0.971/7.425/1.670 ms
