PING 10.0.0.11 (10.0.0.11) 56(84) bytes of data.
64 bytes from 10.0.0.11: icmp_seq=1 ttl=64 time=0.527 64 64 bytes from 10.0.0.11: icmp_seq=2 ttl=64 time=0.53264 bytes from 10.0.0.7: icmp_seq=3 ttl=64 time=6.94 ms
664 by64 bytes from 10.0.0.11: icmp_seq=4 ttl=64 time=0.64 bytes from 10.0.0.7: icmp_seq=5 ttl=64 time=0.426 ms664 bytes64 bytes from 10.0.0.11: icmp_seq=6 ttl=64 time664 bytes from 10.0.0.7: icmp_seq=7 ttl=64 time=6.70 ms
64 bytes f64 bytes from 10.0.0.11: icmp_seq=8 ttl=64 tim64 bytes fr64 bytes from 10.0.0.11: icmp_seq=9 ttl=64 t664 bytes from 10.0.0.7: icmp_seq=10 ttl=64 time=1.09 ms
64 bytes from 64 bytes from 10.0.0.11: icmp_seq=11 ttl=6464 bytes from 10.0.0.7: icmp_seq=12 ttl=64 time=0.810 ms
64 bytes from 164 bytes from 10.0.0.11: icmp_seq=13 ttl=664 bytes from 10.0.0.7: icmp_seq=14 ttl=64 time=3.99 ms664 bytes from 10.64 bytes from 10.0.0.11: icmp_seq=15 tt64 bytes from 10.0.64 bytes from 10.0.0.11: icmp_seq=16 ttl=64 time=0.583 ms

--- 10.0.0.11 ping statistics ---
16 packets transmitted, 16 received, 0% packet loss, time 76731ms
rtt min/avg/max/mdev = 0.356/0.973/4.997/1.234 ms
