PING 10.0.0.11 (10.0.0.11) 56(84) bytes of data.
64 bytes from 10.0.0.11: icmp_seq=1 ttl=64 time=0.531 64 64 bytes from 10.0.0.11: icmp_seq=2 ttl=64 time=0.82164 b64 bytes from 10.0.0.11: icmp_seq=3 ttl=64 time=0.9064 by64 bytes from 10.0.0.11: icmp_seq=4 ttl=64 time=0.764 bytes from 10.0.0.6: icmp_seq=5 ttl=64 time=0.622 ms
64 bytes from 10.0.0.7: icmp_seq=6 ttl=64 time=0.585 ms
64 bytes64 bytes from 10.0.0.11: icmp_seq=7 ttl=64 time=64 bytes 64 bytes from 10.0.0.11: icmp_seq=8 ttl=64 time64 bytes from 10.0.0.6: icmp_seq=9 ttl=64 time=0.427 ms
64 bytes from 10.0.0.6: icmp_seq=10 ttl=64 time=5.97 ms
664 bytes fro64 bytes from 10.0.0.11: icmp_seq=11 ttl=64 664 bytes from 10.0.0.7: icmp_seq=12 ttl=64 time=3.97 ms
64 bytes from 10.0.0.6: icmp_seq=13 ttl=64 time=0.570 ms
64 bytes from 1064 bytes from 10.0.0.11: icmp_seq=14 ttl=64 bytes from 10.0.0.7: icmp_seq=15 ttl=64 time=1.11 ms
664 bytes from 10.0.0.6: icmp_seq=16 ttl=64 time=0.626 ms

--- 10.0.0.6 ping statistics ---
16 packets transmitted, 16 received, 0% packet loss, time 76757ms
rtt min/avg/max/mdev = 0.384/0.870/5.971/1.320 ms
.611/0.901/0.146 ms
