PING 10.0.0.7 (10.0.0.7) 56(84) bytes of data.
64 bytes from 10.0.0.7: icmp_seq=1 ttl=64 time=0.540 ms
64 bytes from 10.0.0.7: icmp_seq=2 ttl=64 time=0.720 ms
64 bytes from 10.0.0.6: icmp_seq=3 ttl=64 time=4.41 ms
664 by64 bytes from 10.0.0.11: icmp_seq=4 ttl=64 time=0.64 bytes from 10.0.0.6: icmp_seq=5 ttl=64 time=0.391 ms
664 bytes from 10.0.0.7: icmp_seq=6 ttl=64 time=0.739 ms64 bytes from 10.0.0.6: icmp_seq=7 ttl=64 time=0.455 ms
664 bytes 64 bytes from 10.0.0.11: icmp_seq=8 ttl=64 tim664 bytes from 10.0.0.7: icmp_seq=9 ttl=64 time=0.814 ms64 bytes from 10.0.0.6: icmp_seq=10 ttl=64 time=0.587 ms
664 bytes from 10.0.0.7: icmp_seq=11 ttl=64 time=0.704 ms64 bytes from 10.0.0.6: icmp_seq=12 ttl=64 time=0.575 ms
64 bytes from 164 bytes from 10.0.0.11: icmp_seq=13 ttl=664 bytes from 10.0.0.6: icmp_seq=14 ttl=64 time=0.668 ms
664 bytes from 10.0.0.7: icmp_seq=15 ttl=64 time=0.371 ms664 bytes from 10.0.0.7: icmp_seq=16 ttl=64 time=0.873 ms

--- 10.0.0.7 ping statistics ---
16 packets transmitted, 16 received, 0% packet loss, time 76745ms
rtt min/avg/max/mdev = 0.371/0.587/0.873/0.151 ms
531/0.890/0.112 ms
