PING 10.0.0.7 (10.0.0.7) 56(84) bytes of data.
64 bytes from 10.0.0.7: icmp_seq=1 ttl=64 time=1.46 ms
64 bytes from 10.0.0.7: icmp_seq=2 ttl=64 time=0.667 ms
64 bytes from 10.0.0.7: icmp_seq=3 ttl=64 time=0.419 ms
64 bytes from 10.0.0.7: icmp_seq=4 ttl=64 time=0.619 ms
64 bytes from 10.0.0.7: icmp_seq=5 ttl=64 time=0.384 ms
64 bytes from 10.0.0.7: icmp_seq=6 ttl=64 time=0.540 ms664 bytes from 10.0.0.7: icmp_seq=7 ttl=64 time=0.639 ms664 bytes from 10.0.0.7: icmp_seq=8 ttl=64 time=0.454 ms664 bytes from 10.0.0.7: icmp_seq=9 ttl=64 time=0.658 ms664 bytes from 10.0.0.7: icmp_seq=10 ttl=64 time=0.647 ms664 bytes from 10.0.0.7: icmp_seq=11 ttl=64 time=0.445 ms664 bytes from 10.0.0.7: icmp_seq=12 ttl=64 time=0.638 ms664 bytes from 10.0.0.7: icmp_seq=13 ttl=64 time=0.456 m6464 bytes from 10.0.0.7: icmp_seq=14 ttl=64 time=0.515 64 64 bytes from 10.0.0.7: icmp_seq=15 ttl=64 time=0.456 64 64 bytes from 10.0.0.7: icmp_seq=16 ttl=64 time=0.574 ms

--- 10.0.0.7 ping statistics ---
16 packets transmitted, 16 received, 0% packet loss, time 76803ms
rtt min/avg/max/mdev = 0.384/0.598/1.468/0.244 ms
678/2.241/0.429 ms
