PING 10.0.0.6 (10.0.0.6) 56(84) bytes of data.
64 bytes from 10.0.0.6: icmp_seq=1 ttl=64 time=0.511 ms664 bytes from 10.0.0.6: icmp_seq=2 ttl=64 time=0.824 ms664 bytes from 10.0.0.6: icmp_seq=3 ttl=64 time=0.463 ms64 bytes from 10.0.0.7: icmp_seq=4 ttl=64 time=1.01 ms
6464 by64 bytes from 10.0.0.11: icmp_seq=5 ttl=64 time=06464 byt64 bytes from 10.0.0.11: icmp_seq=6 ttl=64 time=6464 bytes from 10.0.0.6: icmp_seq=7 ttl=64 time=0.867 m6464 bytes64 bytes from 10.0.0.11: icmp_seq=8 ttl=64 ti64 64 bytes from 10.0.0.6: icmp_seq=9 ttl=64 time=0.500 64 64 bytes from 10.0.0.6: icmp_seq=10 ttl=64 time=0.614 64 bytes from 10.0.0.7: icmp_seq=11 ttl=64 time=1.26 ms
64 b64 bytes from 10.0.0.6: icmp_seq=12 ttl=64 time=0.58264 b64 bytes from 10.0.0.6: icmp_seq=13 ttl=64 time=0.47264 b64 bytes from 64 bytes from 10.0.0.11: icmp_seq=14 tt64 bytes from 10.0.0.7: icmp_seq=15 ttl=64 time=4.64 ms
64 by64 bytes from 10.0.0.6: icmp_seq=16 ttl=64 time=0.551 ms

--- 10.0.0.6 ping statistics ---
16 packets transmitted, 16 received, 0% packet loss, time 76596ms
rtt min/avg/max/mdev = 0.399/0.547/0.867/0.129 ms
3/5.509/1.297 ms
