PING 10.0.0.11 (10.0.0.11) 56(84) bytes of data.
64 bytes from 10.0.0.11: icmp_seq=1 ttl=64 time=0.59764 b64 bytes from 10.0.0.11: icmp_seq=2 ttl=64 time=0.3564 bytes from 10.0.0.7: icmp_seq=3 ttl=64 time=0.586 ms
664 bytes from 10.0.0.6: icmp_seq=4 ttl=64 time=0.346 ms64 byte64 bytes from 10.0.0.11: icmp_seq=5 ttl=64 time=064 bytes64 bytes from 10.0.0.11: icmp_seq=6 ttl=64 time=664 bytes from 10.0.0.6: icmp_seq=7 ttl=64 time=1.31 ms
64 bytes f64 bytes from 10.0.0.11: icmp_seq=8 ttl=64 tim64 bytes from 10.0.0.6: icmp_seq=9 ttl=64 time=0.432 ms
64 bytes fro64 bytes from 10.0.0.11: icmp_seq=10 ttl=64 t64 bytes from64 bytes from 10.0.0.11: icmp_seq=11 ttl=64 64 bytes from 10.0.0.6: icmp_seq=12 ttl=64 time=1.26 ms
664 bytes from 10.0.0.7: icmp_seq=13 ttl=64 time=0.618 ms664 bytes from 10.0.0.7: icmp_seq=14 ttl=64 time=0.595 ms664 bytes from 10.0.0.7: icmp_seq=15 ttl=64 time=0.531 ms664 bytes from 10.0.0.7: icmp_seq=16 ttl=64 time=0.849 ms

--- 10.0.0.7 ping statistics ---
16 packets transmitted, 16 received, 0% packet loss, time 76697ms
rtt min/avg/max/mdev = 0.362/0.590/1.539/0.275 ms
.500/0.745/0.106 ms
