PING 10.0.0.7 (10.0.0.7) 56(84) bytes of data.
64 bytes from 10.0.0.7: icmp_seq=1 ttl=64 time=0.586 ms
64 bytes from 10.0.0.7: icmp_seq=2 ttl=64 time=0.626 ms
64 b64 bytes from 10.0.0.11: icmp_seq=3 ttl=64 time=0.5364 bytes from 10.0.0.7: icmp_seq=4 ttl=64 time=0.937 ms
64 bytes from 10.0.0.6: icmp_seq=5 ttl=64 time=1.76 ms
664 bytes from 10.0.0.7: icmp_seq=6 ttl=64 time=0.433 ms664 bytes from 10.0.0.7: icmp_seq=7 ttl=64 time=0.598 ms664 bytes 64 bytes from 10.0.0.11: icmp_seq=8 ttl=64 tim64 bytes from 10.0.0.6: icmp_seq=9 ttl=64 time=0.520 ms
664 bytes fr64 bytes from 10.0.0.11: icmp_seq=10 ttl=64 t64 bytes from64 bytes from 10.0.0.11: icmp_seq=11 ttl=64 64 bytes from 64 bytes from 10.0.0.11: icmp_seq=12 ttl=6464 bytes from 10.0.0.6: icmp_seq=13 ttl=64 time=3.01 ms
6464 bytes from 164 bytes from 10.0.0.11: icmp_seq=14 ttl6464 bytes from 1064 bytes from 10.0.0.11: icmp_seq=15 tt6464 bytes from 10.0.0.7: icmp_seq=16 ttl=64 time=0.890 ms

--- 10.0.0.7 ping statistics ---
16 packets transmitted, 16 received, 0% packet loss, time 76744ms
rtt min/avg/max/mdev = 0.400/0.579/0.937/0.155 ms
20/6.337/1.405 ms
