PING 10.0.0.6 (10.0.0.6) 56(84) bytes of data.
64 bytes from 10.0.0.6: icmp_seq=1 ttl=64 time=35.7 ms
64 64 bytes from 10.0.0.11: icmp_seq=2 ttl=64 time=3.97 664 bytes from 10.0.0.7: icmp_seq=3 ttl=64 time=0.772 ms664 bytes from 10.0.0.7: icmp_seq=4 ttl=64 time=0.552 ms664 bytes from 10.0.0.7: icmp_seq=5 ttl=64 time=0.779 ms64 bytes from 10.0.0.6: icmp_seq=6 ttl=64 time=0.714 ms
664 bytes from 10.0.0.7: icmp_seq=7 ttl=64 time=0.536 ms64 bytes from 10.0.0.6: icmp_seq=8 ttl=64 time=1.11 ms
6464 bytes from 10.0.0.7: icmp_seq=9 ttl=64 time=1.39 ms64 bytes from 10.0.0.6: icmp_seq=10 ttl=64 time=4.54 ms
6464 bytes from 10.0.0.7: icmp_seq=11 ttl=64 time=0.425 m64 bytes from 10.0.0.6: icmp_seq=12 ttl=64 time=0.456 ms
6464 bytes from 10.0.0.7: icmp_seq=13 ttl=64 time=0.494 m6464 bytes from 10.0.0.7: icmp_seq=14 ttl=64 time=0.557 m64 bytes from 10.0.0.6: icmp_seq=15 ttl=64 time=0.417 ms
6464 bytes from 10.0.0.7: icmp_seq=16 ttl=64 time=1.01 ms

--- 10.0.0.7 ping statistics ---
16 packets transmitted, 16 received, 0% packet loss, time 76783ms
rtt min/avg/max/mdev = 0.379/0.640/1.395/0.252 ms
6/4.162/1.170 ms
