PING 10.0.0.11 (10.0.0.11) 56(84) bytes of data.
64 bytes from 10.0.0.11: icmp_seq=1 ttl=64 time=6.61 m6464 bytes from 10.0.0.11: icmp_seq=2 ttl=64 time=0.567 64 bytes from 10.0.0.7: icmp_seq=3 ttl=64 time=7.01 ms
64 b64 bytes from 10.0.0.11: icmp_seq=4 ttl=64 time=0.6064 bytes from 10.0.0.6: icmp_seq=5 ttl=64 time=0.500 ms
64 bytes from 10.0.0.6: icmp_seq=6 ttl=64 time=0.527 ms664 byte64 bytes from 10.0.0.11: icmp_seq=7 ttl=64 time=64 bytes from 10.0.0.7: icmp_seq=8 ttl=64 time=7.26 ms
64 bytes from 10.0.0.7: icmp_seq=9 ttl=64 time=3.83 ms
6464 bytes f64 bytes from 10.0.0.11: icmp_seq=10 ttl=64 t6464 bytes fr64 bytes from 10.0.0.11: icmp_seq=11 ttl=64 6464 bytes fro64 bytes from 10.0.0.11: icmp_seq=12 ttl=646464 bytes from 10.0.0.6: icmp_seq=13 ttl=64 time=5.78 m6464 bytes from 10.0.0.6: icmp_seq=14 ttl=64 time=0.508 64 64 bytes from 10.0.0.6: icmp_seq=15 ttl=64 time=4.37 m6464 bytes from 10.0.0.6: icmp_seq=16 ttl=64 time=0.523 ms

--- 10.0.0.6 ping statistics ---
16 packets transmitted, 16 received, 0% packet loss, time 76666ms
rtt min/avg/max/mdev = 0.390/1.388/5.788/1.682 ms
3/6.995/2.566 ms
