PING 10.0.0.6 (10.0.0.6) 56(84) bytes of data.
64 bytes from 10.0.0.6: icmp_seq=1 ttl=64 time=0.672 ms
64 bytes from 10.0.0.6: icmp_seq=2 ttl=64 time=0.384 ms
64 b64 bytes from 10.0.0.11: icmp_seq=3 ttl=64 time=0.6564 by64 bytes from 10.0.0.11: icmp_seq=4 ttl=64 time=0.564 bytes from 10.0.0.6: icmp_seq=5 ttl=64 time=0.661 ms
64 bytes from 10.0.0.7: icmp_seq=6 ttl=64 time=0.535 ms
64 bytes from 10.0.0.7: icmp_seq=7 ttl=64 time=0.569 ms
64 bytes from 10.0.0.7: icmp_seq=8 ttl=64 time=0.748 ms
64 bytes from 10.0.0.7: icmp_seq=9 ttl=64 time=0.800 ms
64 bytes from 10.0.0.6: icmp_seq=10 ttl=64 time=5.29 ms
664 bytes fro64 bytes from 10.0.0.11: icmp_seq=11 ttl=646464 bytes from 10.0.0.7: icmp_seq=12 ttl=64 time=0.913 64 64 bytes from 64 bytes from 10.0.0.11: icmp_seq=13 ttl64 64 bytes from 10.0.0.7: icmp_seq=14 ttl=64 time=0.396 64 64 bytes from 10.0.0.7: icmp_seq=15 ttl=64 time=0.76764 b64 bytes from 1064 bytes from 10.0.0.11: icmp_seq=16 ttl=64 time=1.36 ms

--- 10.0.0.11 ping statistics ---
16 packets transmitted, 16 received, 0% packet loss, time 76767ms
rtt min/avg/max/mdev = 0.345/0.893/5.522/1.215 ms
