PING 10.0.0.11 (10.0.0.11) 56(84) bytes of data.
64 bytes from 10.0.0.11: icmp_seq=1 ttl=64 time=0.515 64 64 bytes from 10.0.0.11: icmp_seq=2 ttl=64 time=0.38864 bytes from 10.0.0.6: icmp_seq=3 ttl=64 time=0.427 ms
64 bytes from 10.0.0.7: icmp_seq=4 ttl=64 time=4.21 ms
64 byt64 bytes from 10.0.0.11: icmp_seq=5 ttl=64 time=0664 byte64 bytes from 10.0.0.11: icmp_seq=6 ttl=64 time=64 bytes64 bytes from 10.0.0.11: icmp_seq=7 ttl=64 time=64 bytes 64 bytes from 10.0.0.11: icmp_seq=8 ttl=64 tim664 bytes f64 bytes from 10.0.0.11: icmp_seq=9 ttl=64 ti664 bytes from 10.0.0.7: icmp_seq=10 ttl=64 time=0.500 ms664 bytes from 10.0.0.7: icmp_seq=11 ttl=64 time=0.419 ms664 bytes from 10.0.0.7: icmp_seq=12 ttl=64 time=0.439 ms664 bytes from 10.0.0.7: icmp_seq=13 ttl=64 time=0.395 ms664 bytes from 10.0.0.7: icmp_seq=14 ttl=64 time=0.548 m6464 bytes from 10.0.0.7: icmp_seq=15 ttl=64 time=6.60 ms664 bytes from 10.0.0.7: icmp_seq=16 ttl=64 time=1.17 ms

--- 10.0.0.7 ping statistics ---
16 packets transmitted, 16 received, 0% packet loss, time 76636ms
rtt min/avg/max/mdev = 0.392/1.210/6.600/1.667 ms
.128/2.010 ms
