PING 10.0.0.6 (10.0.0.6) 56(84) bytes of data.
64 bytes from 10.0.0.6: icmp_seq=1 ttl=64 time=7.28 ms
64 bytes from 10.0.0.6: icmp_seq=2 ttl=64 time=0.450 ms
664 b64 bytes from 10.0.0.11: icmp_seq=3 ttl=64 time=0.664 byt64 bytes from 10.0.0.11: icmp_seq=4 ttl=64 time=2.664 bytes from 10.0.0.7: icmp_seq=5 ttl=64 time=0.903 ms664 byt64 bytes from 10.0.0.11: icmp_seq=6 ttl=64 time=064 bytes from 10.0.0.6: icmp_seq=7 ttl=64 time=0.813 ms
64 bytes 64 bytes from 10.0.0.11: icmp_seq=8 ttl=64 time664 bytes 64 bytes from 10.0.0.11: icmp_seq=9 ttl=64 tim64 bytes fr64 bytes from 10.0.0.11: icmp_seq=10 ttl=64 ti664 bytes from 10.0.0.7: icmp_seq=11 ttl=64 time=0.578 m6464 bytes from 10.0.0.7: icmp_seq=12 ttl=64 time=0.673 m64 bytes from 10.0.0.6: icmp_seq=13 ttl=64 time=6.68 ms
64 64 bytes from 10.0.0.7: icmp_seq=14 ttl=64 time=0.603 64 bytes from 10.064 bytes from 10.0.0.11: icmp_seq=15 tt64 64 bytes from 10.0.0.7: icmp_seq=16 ttl=64 time=0.771 ms

--- 10.0.0.7 ping statistics ---
16 packets transmitted, 16 received, 0% packet loss, time 76626ms
rtt min/avg/max/mdev = 0.351/0.569/0.960/0.181 ms
60/2.474/0.500 ms
