PING 10.0.0.11 (10.0.0.11) 56(84) bytes of data.
64 bytes from 10.0.0.11: icmp_seq=1 ttl=64 time=0.499 64 64 bytes from 10.0.0.11: icmp_seq=2 ttl=64 time=0.36764 b64 bytes from 10.0.0.11: icmp_seq=3 ttl=64 time=0.5664 by64 bytes from 10.0.0.11: icmp_seq=4 ttl=64 time=0.964 bytes from 10.0.0.6: icmp_seq=5 ttl=64 time=0.666 ms
64 bytes from 10.0.0.7: icmp_seq=6 ttl=64 time=2.27 ms
64 bytes64 bytes from 10.0.0.11: icmp_seq=7 ttl=64 time664 bytes from 10.0.0.7: icmp_seq=8 ttl=64 time=0.559 m6464 bytes from 10.0.0.7: icmp_seq=9 ttl=64 time=0.942 64 64 bytes from 10.0.0.7: icmp_seq=10 ttl=64 time=0.494 64 64 bytes from 10.0.0.7: icmp_seq=11 ttl=64 time=0.41764 b64 bytes from 10.0.0.7: icmp_seq=12 ttl=64 time=6.84 64 64 bytes from 10.0.0.7: icmp_seq=13 ttl=64 time=0.477 64 64 bytes from 10.0.0.7: icmp_seq=14 ttl=64 time=5.99 64 64 bytes from 10.0.0.7: icmp_seq=15 ttl=64 time=0.468 64 64 bytes from 10.0.0.7: icmp_seq=16 ttl=64 time=0.640 ms

--- 10.0.0.7 ping statistics ---
16 packets transmitted, 16 received, 0% packet loss, time 76648ms
rtt min/avg/max/mdev = 0.407/1.395/6.844/1.952 ms
62/4.158/1.105 ms
