PING 10.0.0.7 (10.0.0.7) 56(84) bytes of data.
64 bytes from 10.0.0.7: icmp_seq=1 ttl=64 time=0.614 ms
64 bytes from 10.0.0.7: icmp_seq=2 ttl=64 time=0.743 ms664 bytes from 10.0.0.7: icmp_seq=3 ttl=64 time=0.495 ms664 bytes from 10.0.0.7: icmp_seq=4 ttl=64 time=0.415 ms664 by64 bytes from 10.0.0.11: icmp_seq=5 ttl=64 time=06464 bytes from 10.0.0.7: icmp_seq=6 ttl=64 time=0.477 m6464 bytes from 10.0.0.7: icmp_seq=7 ttl=64 time=0.609 m6464 bytes from 10.0.0.7: icmp_seq=8 ttl=64 time=0.336 m6464 bytes from 10.0.0.7: icmp_seq=9 ttl=64 time=0.550 m6464 bytes from 10.0.0.7: icmp_seq=10 ttl=64 time=2.15 ms664 bytes from 10.0.0.7: icmp_seq=11 ttl=64 time=0.449 ms664 bytes from 10.0.0.7: icmp_seq=12 ttl=64 time=0.671 ms664 bytes from 10.0.0.7: icmp_seq=13 ttl=64 time=0.508 ms664 bytes from 10.0.0.7: icmp_seq=14 ttl=64 time=0.430 ms664 bytes from 10.0.0.7: icmp_seq=15 ttl=64 time=0.857 ms664 bytes from 10.0.0.7: icmp_seq=16 ttl=64 time=0.619 ms

--- 10.0.0.7 ping statistics ---
16 packets transmitted, 16 received, 0% packet loss, time 76765ms
rtt min/avg/max/mdev = 0.336/0.657/2.150/0.405 ms
2/2.419/0.646 ms
