PING 10.0.0.11 (10.0.0.11) 56(84) bytes of data.
64 bytes from 10.0.0.11: icmp_seq=1 ttl=64 time=0.583 64 64 bytes from 10.0.0.11: icmp_seq=2 ttl=64 time=0.4564 by64 bytes from 10.0.0.11: icmp_seq=3 ttl=64 time=0.364 bytes from 10.0.0.7: icmp_seq=4 ttl=64 time=0.532 ms
64 bytes from 10.0.0.7: icmp_seq=5 ttl=64 time=0.747 ms
664 byte64 bytes from 10.0.0.11: icmp_seq=6 ttl=64 time=64 bytes 64 bytes from 10.0.0.11: icmp_seq=7 ttl=64 time64 bytes from 10.0.0.7: icmp_seq=8 ttl=64 time=0.508 ms
64 bytes from 10.0.0.7: icmp_seq=9 ttl=64 time=0.481 ms
664 bytes from 10.0.0.6: icmp_seq=10 ttl=64 time=1.63 ms
64 bytes from 10.0.0.7: icmp_seq=11 ttl=64 time=0.564 ms
64 bytes from 64 bytes from 10.0.0.11: icmp_seq=12 ttl=6464 bytes from 10.0.0.6: icmp_seq=13 ttl=64 time=0.481 ms
64 bytes from 1064 bytes from 10.0.0.11: icmp_seq=14 ttl=64 bytes from 10.0.0.7: icmp_seq=15 ttl=64 time=0.702 ms
64 bytes from 10.064 bytes from 10.0.0.11: icmp_seq=16 ttl--- 10.0.0.7 ping s--- 10.0.0.11 ping statistics ---
16 packets transmitted, 16 received, 0% packet loss, time 76606ms
rtt min/avg/max/mdev = 0.366/0.492/0.683/0.096 ms
