PING 10.0.0.11 (10.0.0.11) 56(84) bytes of data.
64 bytes from 10.0.0.11: icmp_seq=1 ttl=64 time=2.76 m64 bytes from 10.0.0.7: icmp_seq=2 ttl=64 time=0.765 ms
64 bytes from 10.0.0.7: icmp_seq=3 ttl=64 time=0.492 ms
64 b64 bytes from 10.0.0.11: icmp_seq=4 ttl=64 time=0.4964 by64 bytes from 10.0.0.11: icmp_seq=5 ttl=64 time=0.464 byt64 bytes from 10.0.0.11: icmp_seq=6 ttl=64 time=0.64 byte64 bytes from 10.0.0.11: icmp_seq=7 ttl=64 time=064 bytes from 10.0.0.6: icmp_seq=8 ttl=64 time=0.364 ms
64 bytes from 10.0.0.7: icmp_seq=9 ttl=64 time=0.619 ms
64 bytes f64 bytes from 10.0.0.11: icmp_seq=10 ttl=64 tim64 bytes fr64 bytes from 10.0.0.11: icmp_seq=11 ttl=64 ti64 bytes from 10.0.0.6: icmp_seq=12 ttl=64 time=1.02 ms
664 bytes from64 bytes from 10.0.0.11: icmp_seq=13 ttl=6464 bytes from 164 bytes from 10.0.0.11: icmp_seq=14 ttl=6664 bytes from 10.0.0.7: icmp_seq=15 ttl=64 time=0.642 ms664 bytes from 10.0.0.7: icmp_seq=16 ttl=64 time=1.02 ms

--- 10.0.0.7 ping statistics ---
16 packets transmitted, 16 received, 0% packet loss, time 76735ms
rtt min/avg/max/mdev = 0.352/0.542/1.026/0.189 ms
653/2.762/0.561 ms
