PING 10.0.0.11 (10.0.0.11) 56(84) bytes of data.
64 bytes from 10.0.0.11: icmp_seq=1 ttl=64 time=0.530 64 64 bytes from 10.0.0.11: icmp_seq=2 ttl=64 time=0.80664 b64 bytes from 10.0.0.11: icmp_seq=3 ttl=64 time=0.364 byt64 bytes from 10.0.0.11: icmp_seq=4 ttl=64 time=5.64 bytes from 10.0.0.6: icmp_seq=5 ttl=64 time=1.72 ms
664 byte64 bytes from 10.0.0.11: icmp_seq=6 ttl=64 time6464 bytes64 bytes from 10.0.0.11: icmp_seq=7 ttl=64 tim6464 bytes 64 bytes from 10.0.0.11: icmp_seq=8 ttl=64 t64 64 bytes f64 bytes from 10.0.0.11: icmp_seq=9 ttl=64 64 64 bytes from 10.0.0.7: icmp_seq=10 ttl=64 time=0.46164 b64 bytes fro64 bytes from 10.0.0.11: icmp_seq=11 ttl64 by64 bytes from 10.0.0.7: icmp_seq=12 ttl=64 time=0.764 byt64 bytes from 10.0.0.7: icmp_seq=13 ttl=64 time=0.64 byte64 bytes from 10.0.0.7: icmp_seq=14 ttl=64 time=0.64 byte64 bytes from 164 bytes from 10.0.0.11: icmp_seq=164 byte64 bytes from 1064 bytes from 10.0.0.11: icmp_seq=16 ttl=64 time=1.87 ms

--- 10.0.0.11 ping statistics ---
16 packets transmitted, 16 received, 0% packet loss, time 76604ms
rtt min/avg/max/mdev = 0.330/1.038/5.344/1.302 ms
