PING 10.0.0.7 (10.0.0.7) 56(84) bytes of data.
64 bytes from 10.0.0.7: icmp_seq=1 ttl=64 time=0.973 ms
64 bytes from 10.0.0.7: icmp_seq=2 ttl=64 time=0.793 ms
64 64 bytes from 10.0.0.11: icmp_seq=3 ttl=64 time=0.57164 b64 bytes from 10.0.0.11: icmp_seq=4 ttl=64 time=0.3664 bytes from 10.0.0.7: icmp_seq=5 ttl=64 time=0.679 ms664 byt64 bytes from 10.0.0.11: icmp_seq=6 ttl=64 time=0664 byte64 bytes from 10.0.0.11: icmp_seq=7 ttl=64 time=664 bytes from 10.0.0.7: icmp_seq=8 ttl=64 time=0.651 ms664 bytes 64 bytes from 10.0.0.11: icmp_seq=9 ttl=64 tim664 bytes from 10.0.0.7: icmp_seq=10 ttl=64 time=0.499 ms664 bytes from 10.0.0.7: icmp_seq=11 ttl=64 time=0.473 ms664 bytes fro64 bytes from 10.0.0.11: icmp_seq=12 ttl=64 664 bytes from 10.0.0.7: icmp_seq=13 ttl=64 time=0.727 m6464 bytes from 64 bytes from 10.0.0.11: icmp_seq=14 ttl=6464 bytes from 164 bytes from 10.0.0.11: icmp_seq=15 ttl6464 bytes from 1064 bytes from 10.0.0.11: icmp_seq=16 ttl=64 time=1.20 ms

--- 10.0.0.11 ping statistics ---
16 packets transmitted, 16 received, 0% packet loss, time 76814ms
rtt min/avg/max/mdev = 0.334/0.614/1.410/0.292 ms
