PING 10.0.0.6 (10.0.0.6) 56(84) bytes of data.
64 bytes from 10.0.0.6: icmp_seq=1 ttl=64 time=1.43 ms
64 bytes from 10.0.0.6: icmp_seq=2 ttl=64 time=0.753 ms
64 bytes from 10.0.0.6: icmp_seq=3 ttl=64 time=0.631 ms
64 bytes from 10.0.0.7: icmp_seq=4 ttl=64 time=0.601 ms
64 bytes from 10.0.0.6: icmp_seq=5 ttl=64 time=0.565 ms
64 bytes from 10.0.0.6: icmp_seq=6 ttl=64 time=3.60 ms
64 bytes from 10.0.0.6: icmp_seq=7 ttl=64 time=5.67 ms
664 bytes from 10.0.0.7: icmp_seq=8 ttl=64 time=0.392 m6464 bytes from 10.0.0.7: icmp_seq=9 ttl=64 time=0.926 m6464 bytes fr64 bytes from 10.0.0.11: icmp_seq=10 ttl=646464 bytes fro64 bytes from 10.0.0.11: icmp_seq=11 ttl=66464 bytes from 64 bytes from 10.0.0.11: icmp_seq=12 ttl=6464 bytes from 64 bytes from 10.0.0.11: icmp_seq=13 ttl=6464 bytes from 64 bytes from 10.0.0.11: icmp_seq=14 ttl64 64 bytes from 164 bytes from 10.0.0.11: icmp_seq=15 t64 b64 bytes from 10.0.0.7: icmp_seq=16 ttl=64 time=0.975 ms

--- 10.0.0.7 ping statistics ---
16 packets transmitted, 16 received, 0% packet loss, time 76435ms
rtt min/avg/max/mdev = 0.377/0.872/3.570/0.761 ms
28/5.851/2.025 ms
