PING 10.0.0.7 (10.0.0.7) 56(84) bytes of data.
64 bytes from 10.0.0.7: icmp_seq=1 ttl=64 time=0.976 ms
64 64 bytes from 10.0.0.11: icmp_seq=2 ttl=64 time=0.58764 bytes from 10.0.0.7: icmp_seq=3 ttl=64 time=0.565 ms
64 bytes from 10.0.0.6: icmp_seq=4 ttl=64 time=0.608 ms
64 byt64 bytes from 10.0.0.11: icmp_seq=5 ttl=64 time=0.64 bytes from 10.0.0.6: icmp_seq=6 ttl=64 time=6.02 ms
664 bytes64 bytes from 10.0.0.11: icmp_seq=7 ttl=64 time664 bytes 64 bytes from 10.0.0.11: icmp_seq=8 ttl=64 tim64 bytes from 10.0.0.6: icmp_seq=9 ttl=64 time=0.645 ms
64 bytes from 10.0.0.6: icmp_seq=10 ttl=64 time=0.521 ms
664 bytes from 10.0.0.7: icmp_seq=11 ttl=64 time=2.64 ms
64 bytes from 10.0.0.6: icmp_seq=12 ttl=64 time=0.539 ms
64 bytes from 164 bytes from 10.0.0.11: icmp_seq=13 ttl=664 bytes from 10.0.0.6: icmp_seq=14 ttl=64 time=0.648 ms
64 bytes from 1064 bytes from 10.0.0.11: icmp_seq=15 ttl64 bytes from 10.064 bytes from 10.0.0.11: icmp_seq=16 ttl=64 time=1.03 ms

--- 10.0.0.11 ping statistics ---
16 packets transmitted, 16 received, 0% packet loss, time 76715ms
rtt min/avg/max/mdev = 0.422/0.770/3.625/0.752 ms
