PING 10.0.0.7 (10.0.0.7) 56(84) bytes of data.
64 bytes from 10.0.0.7: icmp_seq=1 ttl=64 time=0.885 ms
64 bytes from 10.0.0.7: icmp_seq=2 ttl=64 time=0.552 ms
64 bytes from 10.0.0.6: icmp_seq=3 ttl=64 time=0.815 ms
64 bytes from 10.0.0.6: icmp_seq=4 ttl=64 time=0.457 ms
64 bytes from 10.0.0.6: icmp_seq=5 ttl=64 time=0.583 ms
64 bytes from 10.0.0.6: icmp_seq=6 ttl=64 time=0.409 ms
64 bytes from 10.0.0.6: icmp_seq=7 ttl=64 time=0.469 ms
64 bytes from 10.0.0.6: icmp_seq=8 ttl=64 time=1.33 ms
664 bytes from 10.0.0.7: icmp_seq=9 ttl=64 time=0.395 ms664 bytes from 10.0.0.7: icmp_seq=10 ttl=64 time=0.791 ms664 bytes from 10.0.0.7: icmp_seq=11 ttl=64 time=0.416 ms664 bytes from 10.0.0.7: icmp_seq=12 ttl=64 time=0.465 ms664 bytes from 10.0.0.7: icmp_seq=13 ttl=64 time=0.588 ms64 bytes from 10.0.0.6: icmp_seq=14 ttl=64 time=0.523 ms
664 bytes from 10.0.0.7: icmp_seq=15 ttl=64 time=0.692 ms64 bytes from 10.0.0.6: icmp_seq=16 ttl=64 time=0.704 ms

--- 10.0.0.6 ping statistics ---
16 packets transmitted, 16 received, 0% packet loss, time 76768ms
rtt min/avg/max/mdev = 0.407/0.570/1.333/0.224 ms

3/2.573/0.550 ms
