PING 10.0.0.6 (10.0.0.6) 56(84) bytes of data.
64 bytes from 10.0.0.6: icmp_seq=1 ttl=64 time=29.5 ms
64 bytes from 10.0.0.6: icmp_seq=2 ttl=64 time=0.485 ms
64 by64 bytes from 10.0.0.11: icmp_seq=3 ttl=64 time=0.764 bytes from 10.0.0.6: icmp_seq=4 ttl=64 time=0.523 ms
664 byt64 bytes from 10.0.0.11: icmp_seq=5 ttl=64 time=0664 byte64 bytes from 10.0.0.11: icmp_seq=6 ttl=64 time=664 bytes from 10.0.0.7: icmp_seq=7 ttl=64 time=0.658 ms664 bytes from 10.0.0.7: icmp_seq=8 ttl=64 time=0.544 ms64 bytes fr64 bytes from 10.0.0.11: icmp_seq=9 ttl=64 ti64 bytes fro64 bytes from 10.0.0.11: icmp_seq=10 ttl=64 t64 bytes from64 bytes from 10.0.0.11: icmp_seq=11 ttl=64 664 bytes from 10.0.0.7: icmp_seq=12 ttl=64 time=0.615 ms664 bytes from 10.0.0.7: icmp_seq=13 ttl=64 time=3.10 ms
64 bytes from 1064 bytes from 10.0.0.11: icmp_seq=14 ttl=64 bytes from 10.0.0.7: icmp_seq=15 ttl=64 time=0.438 ms
64 bytes from 10.064 bytes from 10.0.0.11: icmp_seq=16 ttl=64 time=0.832 ms

--- 10.0.0.11 ping statistics ---
16 packets transmitted, 16 received, 0% packet loss, time 76614ms
rtt min/avg/max/mdev = 0.369/0.533/0.832/0.122 ms
