PING 10.0.0.7 (10.0.0.7) 56(84) bytes of data.
64 bytes from 10.0.0.7: icmp_seq=1 ttl=64 time=35.0 ms
64 bytes from 10.0.0.7: icmp_seq=2 ttl=64 time=1.04 ms
6464 64 bytes from 10.0.0.11: icmp_seq=3 ttl=64 time=0.46464 b64 bytes from 10.0.0.11: icmp_seq=4 ttl=64 time=0.64 bytes from 10.0.0.7: icmp_seq=5 ttl=64 time=4.57 ms
64 bytes from 10.0.0.7: icmp_seq=6 ttl=64 time=6.17 ms
64 bytes f64 bytes from 10.0.0.11: icmp_seq=7 ttl=64 tim64 bytes f64 bytes from 10.0.0.11: icmp_seq=8 ttl=64 tim64 64 bytes64 bytes from 10.0.0.11: icmp_seq=9 ttl=64 ti64 bytes fr64 bytes from 10.0.0.11: icmp_seq=10 ttl=64 ti64 64 bytes 64 bytes from 10.0.0.11: icmp_seq=11 ttl=64 t64 bytes from 10.0.0.7: icmp_seq=12 ttl=64 time=0.420 ms
64 64 bytes from 10.0.0.6: icmp_seq=13 ttl=64 time=0.541 64 bytes from 10.0.0.7: icmp_seq=14 ttl=64 time=0.545 ms
64 bytes from 10.0.0.7: icmp_seq=15 ttl=64 time=0.472 ms
64 64 bytes from 10.0.0.6: icmp_seq=16 ttl=64 time=0.879 ms

--- 10.0.0.6 ping statistics ---
16 packets transmitted, 16 received, 0% packet loss, time 76334ms
rtt min/avg/max/mdev = 0.394/0.683/2.795/0.556 ms
.743/3.084 ms
