PING 10.0.0.11 (10.0.0.11) 56(84) bytes of data.
64 bytes from 10.0.0.11: icmp_seq=1 ttl=64 time=0.494 64 64 bytes from 10.0.0.11: icmp_seq=2 ttl=64 time=0.43964 bytes from 10.0.0.6: icmp_seq=3 ttl=64 time=0.485 ms
64 bytes from 10.0.0.6: icmp_seq=4 ttl=64 time=3.59 ms
64 byte64 bytes from 10.0.0.11: icmp_seq=5 ttl=64 time=064 bytes from 10.0.0.6: icmp_seq=6 ttl=64 time=4.92 ms
64 bytes f64 bytes from 10.0.0.11: icmp_seq=7 ttl=64 tim64 bytes from 10.0.0.6: icmp_seq=8 ttl=64 time=1.22 ms
64 bytes from64 bytes from 10.0.0.11: icmp_seq=9 ttl=64 64 bytes from 64 bytes from 10.0.0.11: icmp_seq=10 ttl=664 bytes from 10.0.0.6: icmp_seq=11 ttl=64 time=8.13 ms
64 bytes from 10.64 bytes from 10.0.0.11: icmp_seq=12 ttl64 bytes from 10.64 bytes from 10.0.0.11: icmp_seq=13 ttl64 bytes from 10.64 bytes from 10.0.0.11: icmp_seq=14 tt64 bytes from 10.0.64 bytes from 10.0.0.11: icmp_seq=15 t64 bytes from 10.0.064 bytes from 10.0.0.11: icmp_seq=16 ttl=64 time=0.751 ms

--- 10.0.0.11 ping statistics ---
16 packets transmitted, 16 received, 0% packet loss, time 76454ms
rtt min/avg/max/mdev = 0.341/1.104/6.165/1.494 ms
