PING 10.0.0.7 (10.0.0.7) 56(84) bytes of data.
64 bytes from 10.0.0.7: icmp_seq=1 ttl=64 time=0.774 ms
64 bytes from 10.0.0.6: icmp_seq=2 ttl=64 time=0.462 ms
64 bytes from 10.0.0.7: icmp_seq=3 ttl=64 time=0.697 ms
64 bytes from 10.0.0.6: icmp_seq=4 ttl=64 time=0.437 ms
64 byt64 bytes from 10.0.0.11: icmp_seq=5 ttl=64 time=0.64 byte64 bytes from 10.0.0.11: icmp_seq=6 ttl=64 time=064 bytes64 bytes from 10.0.0.11: icmp_seq=7 ttl=64 time=64 bytes 64 bytes from 10.0.0.11: icmp_seq=8 ttl=64 time64 bytes f64 bytes from 10.0.0.11: icmp_seq=9 ttl=64 tim64 bytes fr64 bytes from 10.0.0.11: icmp_seq=10 ttl=64 ti64 bytes from 10.0.0.7: icmp_seq=11 ttl=64 time=0.636 ms
64 bytes from 10.0.0.6: icmp_seq=12 ttl=64 time=0.565 ms
64 bytes from 10.0.0.6: icmp_seq=13 ttl=64 time=1.17 ms
664 bytes from 164 bytes from 10.0.0.11: icmp_seq=14 ttl=64 bytes from 10.0.0.6: icmp_seq=15 ttl=64 time=0.439 ms
664 bytes from 10.64 bytes from 10.0.0.11: icmp_seq=16 ttl=64 time=0.943 ms

--- 10.0.0.11 ping statistics ---
16 packets transmitted, 16 received, 0% packet loss, time 76690ms
rtt min/avg/max/mdev = 0.320/0.560/0.943/0.186 ms
