PING 10.0.0.7 (10.0.0.7) 56(84) bytes of data.
64 bytes from 10.0.0.7: icmp_seq=1 ttl=64 time=1.15 ms
64 bytes from 10.0.0.7: icmp_seq=2 ttl=64 time=0.629 ms
664 bytes from 10.0.0.6: icmp_seq=3 ttl=64 time=0.394 ms64 bytes from 10.0.0.7: icmp_seq=4 ttl=64 time=2.15 ms
6464 bytes from 10.0.0.6: icmp_seq=5 ttl=64 time=0.893 64 64 byte64 bytes from 10.0.0.11: icmp_seq=6 ttl=64 ti64 b64 bytes from 10.0.0.6: icmp_seq=7 ttl=64 time=2.05 64 64 bytes f64 bytes from 10.0.0.11: icmp_seq=8 ttl=64 64 64 bytes fr64 bytes from 10.0.0.11: icmp_seq=9 ttl=6464 64 bytes from 10.0.0.6: icmp_seq=10 ttl=64 time=0.595 64 64 bytes fro64 bytes from 10.0.0.11: icmp_seq=11 ttl=664 64 bytes from 10.0.0.6: icmp_seq=12 ttl=64 time=4.18 m6464 bytes from 164 bytes from 10.0.0.11: icmp_seq=13 ttl664 bytes from 10.64 bytes from 10.0.0.11: icmp_seq=14 tt664 bytes from 10.064 bytes from 10.0.0.11: icmp_seq=15 t64 bytes from 10.0.064 bytes from 10.0.0.11: icmp_seq=16 ttl=64 time=0.736 ms

--- 10.0.0.11 ping statistics ---
16 packets transmitted, 16 received, 0% packet loss, time 76745ms
rtt min/avg/max/mdev = 0.403/0.817/4.931/1.067 ms
