PING 10.0.0.7 (10.0.0.7) 56(84) bytes of data.
64 bytes from 10.0.0.7: icmp_seq=1 ttl=64 time=0.658 ms
64 bytes from 10.0.0.6: icmp_seq=2 ttl=64 time=0.707 ms
64 bytes from 10.0.0.6: icmp_seq=3 ttl=64 time=2.32 ms
664 bytes from 10.0.0.7: icmp_seq=4 ttl=64 time=0.702 ms64 bytes from 10.0.0.6: icmp_seq=5 ttl=64 time=0.590 ms
664 bytes from 10.0.0.7: icmp_seq=6 ttl=64 time=0.737 ms664 bytes64 bytes from 10.0.0.11: icmp_seq=7 ttl=64 time64 bytes from 10.0.0.6: icmp_seq=8 ttl=64 time=0.806 ms
664 bytes from 10.0.0.7: icmp_seq=9 ttl=64 time=1.06 ms
64 bytes from 10.0.0.6: icmp_seq=10 ttl=64 time=0.421 ms
64 bytes from 10.0.0.7: icmp_seq=11 ttl=64 time=2.19 ms
664 bytes from 10.0.0.6: icmp_seq=12 ttl=64 time=0.413 ms664 bytes from 164 bytes from 10.0.0.11: icmp_seq=13 ttl=664 bytes from 10.0.0.6: icmp_seq=14 ttl=64 time=6.94 ms
64 bytes from 10.0.0.7: icmp_seq=15 ttl=64 time=0.424 ms
64 bytes from 10.0.0.7: icmp_seq=16 ttl=64 time=1.08 ms

--- 10.0.0.7 ping statistics ---
16 packets transmitted, 16 received, 0% packet loss, time 76593ms
rtt min/avg/max/mdev = 0.390/0.726/2.190/0.431 ms
/0.495/0.683/0.099 ms
