PING 10.0.0.7 (10.0.0.7) 56(84) bytes of data.
64 bytes from 10.0.0.7: icmp_seq=1 ttl=64 time=0.772 ms
6464 bytes from 10.0.0.11: icmp_seq=2 ttl=64 time=0.406 64 64 bytes from 10.0.0.11: icmp_seq=3 ttl=64 time=0.42964 bytes from 10.0.0.6: icmp_seq=4 ttl=64 time=6.35 ms
664 bytes from 10.0.0.7: icmp_seq=5 ttl=64 time=0.514 ms64 bytes from 10.0.0.6: icmp_seq=6 ttl=64 time=2.66 ms
6464 bytes from 10.0.0.7: icmp_seq=7 ttl=64 time=0.461 m6464 bytes64 bytes from 10.0.0.11: icmp_seq=8 ttl=64 tim6464 bytes from 10.0.0.7: icmp_seq=9 ttl=64 time=0.512 m64 bytes from 10.0.0.6: icmp_seq=10 ttl=64 time=0.478 ms
64 bytes from 10.0.0.6: icmp_seq=11 ttl=64 time=0.924 ms
6464 bytes from 10.0.0.7: icmp_seq=12 ttl=64 time=0.711 m6464 bytes from64 bytes from 10.0.0.11: icmp_seq=13 ttl=66464 bytes from 10.0.0.7: icmp_seq=14 ttl=64 time=0.431 m6464 bytes from 10.0.0.7: icmp_seq=15 ttl=64 time=1.86 ms64 bytes from 10.0.0.6: icmp_seq=16 ttl=64 time=0.561 ms

--- 10.0.0.6 ping statistics ---
16 packets transmitted, 16 received, 0% packet loss, time 76780ms
rtt min/avg/max/mdev = 0.385/1.047/6.358/1.469 ms
728/3.370/0.705 ms
