PING 10.0.0.11 (10.0.0.11) 56(84) bytes of data.
64 bytes from 10.0.0.11: icmp_seq=1 ttl=64 time=2.36 66464 bytes from 10.0.0.11: icmp_seq=2 ttl=64 time=0.494664 64 bytes from 10.0.0.11: icmp_seq=3 ttl=64 time=0.49664 bytes from 10.0.0.7: icmp_seq=4 ttl=64 time=0.571 ms664 by64 bytes from 10.0.0.11: icmp_seq=5 ttl=64 time=0.664 byt64 bytes from 10.0.0.11: icmp_seq=6 ttl=64 time=0664 bytes from 10.0.0.7: icmp_seq=7 ttl=64 time=0.829 ms664 bytes64 bytes from 10.0.0.11: icmp_seq=8 ttl=64 time664 bytes from 10.0.0.7: icmp_seq=9 ttl=64 time=0.864 ms664 bytes f64 bytes from 10.0.0.11: icmp_seq=10 ttl=64 ti664 bytes from 10.0.0.7: icmp_seq=11 ttl=64 time=0.526 ms664 bytes fro64 bytes from 10.0.0.11: icmp_seq=12 ttl=64 664 bytes from 10.0.0.7: icmp_seq=13 ttl=64 time=0.649 ms664 bytes from 64 bytes from 10.0.0.11: icmp_seq=14 ttl=6664 bytes from 10.0.0.7: icmp_seq=15 ttl=64 time=0.639 ms664 bytes from 10.0.0.7: icmp_seq=16 ttl=64 time=0.815 ms

--- 10.0.0.7 ping statistics ---
16 packets transmitted, 16 received, 0% packet loss, time 76805ms
rtt min/avg/max/mdev = 0.393/0.590/0.864/0.149 ms
13/2.369/0.459 ms
