PING 10.0.0.11 (10.0.0.11) 56(84) bytes of data.
64 bytes from 10.0.0.11: icmp_seq=1 ttl=64 time=0.504 64 64 bytes from 10.0.0.11: icmp_seq=2 ttl=64 time=0.80664 b64 bytes from 10.0.0.11: icmp_seq=3 ttl=64 time=0.5664 by64 bytes from 10.0.0.11: icmp_seq=4 ttl=64 time=0.64 byte64 bytes from 10.0.0.11: icmp_seq=5 ttl=64 time=64 bytes 64 bytes from 10.0.0.11: icmp_seq=6 ttl=64 time64 bytes f64 bytes from 10.0.0.11: icmp_seq=7 ttl=64 tim64 bytes fr64 bytes from 10.0.0.11: icmp_seq=8 ttl=64 ti64 bytes fro64 bytes from 10.0.0.11: icmp_seq=9 ttl=64 t664 bytes fro64 bytes from 10.0.0.11: icmp_seq=10 ttl=64 664 bytes from64 bytes from 10.0.0.11: icmp_seq=11 ttl=64664 bytes from 64 bytes from 10.0.0.11: icmp_seq=12 ttl=664 bytes from 1064 bytes from 10.0.0.11: icmp_seq=13 ttl=664 bytes from 1064 bytes from 10.0.0.11: icmp_seq=14 ttl664 bytes from 10.64 bytes from 10.0.0.11: icmp_seq=15 tt664 bytes from 10.064 bytes from 10.0.0.11: icmp_seq=16 ttl=64 time=0.676 ms

--- 10.0.0.11 ping statistics ---
16 packets transmitted, 16 received, 0% packet loss, time 76791ms
rtt min/avg/max/mdev = 0.350/0.540/0.800/0.130 ms
