PING 10.0.0.7 (10.0.0.7) 56(84) bytes of data.
64 bytes from 10.0.0.7: icmp_seq=1 ttl=64 time=1.01 ms
64 bytes from 10.0.0.6: icmp_seq=2 ttl=64 time=0.603 ms
64 bytes from 10.0.0.6: icmp_seq=3 ttl=64 time=0.480 ms
64 bytes from 10.0.0.6: icmp_seq=4 ttl=64 time=0.619 ms
64 bytes from 10.0.0.7: icmp_seq=5 ttl=64 time=0.677 ms
64 bytes from 10.0.0.7: icmp_seq=6 ttl=64 time=0.806 ms
64 bytes from 10.0.0.6: icmp_seq=7 ttl=64 time=0.392 ms
64 bytes from 10.0.0.7: icmp_seq=8 ttl=64 time=0.651 ms
64 bytes from 10.0.0.7: icmp_seq=9 ttl=64 time=0.595 ms
64 bytes fro64 bytes from 10.0.0.11: icmp_seq=10 ttl=64 t64 bytes from 10.0.0.6: icmp_seq=11 ttl=64 time=0.832 ms
64 bytes from 10.0.0.6: icmp_seq=12 ttl=64 time=3.11 ms
664 bytes from 10.0.0.7: icmp_seq=13 ttl=64 time=0.578 ms64 bytes from 10.64 bytes from 10.0.0.11: icmp_seq=14 ttl664 bytes from 10.0.0.7: icmp_seq=15 ttl=64 time=0.473 ms664 bytes from 10.0.0.7: icmp_seq=16 ttl=64 time=0.815 ms

--- 10.0.0.7 ping statistics ---
16 packets transmitted, 16 received, 0% packet loss, time 76641ms
rtt min/avg/max/mdev = 0.384/0.638/1.012/0.189 ms
.541/0.811/0.125 ms
