PING 10.0.0.7 (10.0.0.7) 56(84) bytes of data.
64 bytes from 10.0.0.7: icmp_seq=1 ttl=64 time=0.973 ms
64 bytes from 10.0.0.7: icmp_seq=2 ttl=64 time=3.92 ms
664 b64 bytes from 10.0.0.11: icmp_seq=3 ttl=64 time=1.9664 bytes from 10.0.0.6: icmp_seq=4 ttl=64 time=0.678 ms664 bytes from 10.0.0.6: icmp_seq=5 ttl=64 time=4.38 ms
64 bytes from 10.0.0.7: icmp_seq=6 ttl=64 time=6.57 ms
664 bytes from 10.0.0.6: icmp_seq=7 ttl=64 time=0.482 ms664 bytes from 10.0.0.6: icmp_seq=8 ttl=64 time=2.50 ms
64 bytes from 10.0.0.7: icmp_seq=9 ttl=64 time=0.707 ms
64 bytes from 10.0.0.6: icmp_seq=10 ttl=64 time=0.438 ms
64 bytes from 10.0.0.7: icmp_seq=11 ttl=64 time=0.837 ms
64 bytes from 10.0.0.7: icmp_seq=12 ttl=64 time=0.969 ms664 bytes from 10.0.0.7: icmp_seq=13 ttl=64 time=0.567 m6464 bytes from 10.0.0.7: icmp_seq=14 ttl=64 time=1.51 m6464 bytes from 10.0.0.7: icmp_seq=15 ttl=64 time=5.60 m6464 bytes from 10.0.0.7: icmp_seq=16 ttl=64 time=1.07 ms

--- 10.0.0.7 ping statistics ---
16 packets transmitted, 16 received, 0% packet loss, time 76423ms
rtt min/avg/max/mdev = 0.380/1.635/6.578/1.874 ms
5/5.378/1.293 ms
