PING 10.0.0.7 (10.0.0.7) 56(84) bytes of data.
64 bytes from 10.0.0.7: icmp_seq=1 ttl=64 time=0.625 ms
64 bytes from 10.0.0.7: icmp_seq=2 ttl=64 time=6.41 ms
664 b64 bytes from 10.0.0.11: icmp_seq=3 ttl=64 time=6.4664 bytes from 10.0.0.6: icmp_seq=4 ttl=64 time=5.18 ms
64 byt64 bytes from 10.0.0.11: icmp_seq=5 ttl=64 time=0.64 bytes from 10.0.0.7: icmp_seq=6 ttl=64 time=0.482 ms
64 bytes from 10.0.0.7: icmp_seq=7 ttl=64 time=4.25 ms
64 bytes f64 bytes from 10.0.0.11: icmp_seq=8 ttl=64 ti664 bytes fr64 bytes from 10.0.0.11: icmp_seq=9 ttl=64 6464 bytes from 10.0.0.7: icmp_seq=10 ttl=64 time=2.84 ms664 bytes from64 bytes from 10.0.0.11: icmp_seq=11 ttl=64664 bytes from 10.0.0.7: icmp_seq=12 ttl=64 time=4.01 ms
64 bytes from 10.0.0.7: icmp_seq=13 ttl=64 time=7.18 ms
64 bytes from 10.64 bytes from 10.0.0.11: icmp_seq=14 ttl64 bytes from 10.064 bytes from 10.0.0.11: icmp_seq=15 t64 bytes from 10.0.64 bytes from 10.0.0.11: icmp_seq=16 ttl=64 time=0.474 ms

--- 10.0.0.11 ping statistics ---
16 packets transmitted, 16 received, 0% packet loss, time 76475ms
rtt min/avg/max/mdev = 0.377/1.759/10.647/2.736 ms
