PING 10.0.0.7 (10.0.0.7) 56(84) bytes of data.
64 bytes from 10.0.0.7: icmp_seq=1 ttl=64 time=0.705 ms
64 bytes from 10.0.0.7: icmp_seq=2 ttl=64 time=1.42 ms
664 b64 bytes from 10.0.0.11: icmp_seq=3 ttl=64 time=0.364 bytes from 10.0.0.7: icmp_seq=4 ttl=64 time=0.510 ms
64 bytes from 10.0.0.7: icmp_seq=5 ttl=64 time=0.619 ms
64 bytes64 bytes from 10.0.0.11: icmp_seq=6 ttl=64 time=64 bytes from 10.0.0.7: icmp_seq=7 ttl=64 time=4.59 ms
64 bytes from 10.0.0.7: icmp_seq=8 ttl=64 time=10.0 ms
664 bytes from 10.0.0.6: icmp_seq=9 ttl=64 time=0.756 ms664 bytes from 10.0.0.6: icmp_seq=10 ttl=64 time=6.38 ms
64 bytes from 10.0.0.6: icmp_seq=11 ttl=64 time=0.569 ms664 bytes from 10.0.0.6: icmp_seq=12 ttl=64 time=0.456 ms664 bytes from 10.0.0.6: icmp_seq=13 ttl=64 time=0.505 ms664 bytes from 10.0.0.6: icmp_seq=14 ttl=64 time=0.460 m6464 bytes from 10.0.0.6: icmp_seq=15 ttl=64 time=7.84 ms664 bytes from 10.0.0.6: icmp_seq=16 ttl=64 time=0.753 ms

--- 10.0.0.6 ping statistics ---
16 packets transmitted, 16 received, 0% packet loss, time 76578ms
rtt min/avg/max/mdev = 0.319/1.565/7.847/2.177 ms
/5.414/1.783 ms
