PING 10.0.0.6 (10.0.0.6) 56(84) bytes of data.
64 bytes from 10.0.0.6: icmp_seq=1 ttl=64 time=0.596 ms
64 bytes from 10.0.0.6: icmp_seq=2 ttl=64 time=0.715 ms
64 bytes from 10.0.0.7: icmp_seq=3 ttl=64 time=0.562 ms
64 bytes from 10.0.0.7: icmp_seq=4 ttl=64 time=8.46 ms
664 bytes from 10.0.0.6: icmp_seq=5 ttl=64 time=0.811 m6464 bytes from 10.0.0.6: icmp_seq=6 ttl=64 time=0.521 m6464 bytes from 10.0.0.6: icmp_seq=7 ttl=64 time=0.521 m6464 bytes from 10.0.0.6: icmp_seq=8 ttl=64 time=0.810 m6464 bytes from 10.0.0.6: icmp_seq=9 ttl=64 time=0.497 64 64 bytes from 10.0.0.6: icmp_seq=10 ttl=64 time=0.702 64 64 bytes from 10.0.0.6: icmp_seq=11 ttl=64 time=0.467 64 64 bytes from 10.0.0.6: icmp_seq=12 ttl=64 time=4.10 m6464 bytes from 10.0.0.6: icmp_seq=13 ttl=64 time=0.533 m6464 bytes from 10.0.0.6: icmp_seq=14 ttl=64 time=0.486 64 64 bytes from 10.0.0.6: icmp_seq=15 ttl=64 time=0.56964 b64 bytes from 10.0.0.6: icmp_seq=16 ttl=64 time=0.907 ms

--- 10.0.0.6 ping statistics ---
16 packets transmitted, 16 received, 0% packet loss, time 76700ms
rtt min/avg/max/mdev = 0.467/0.865/4.101/0.849 ms
/5.016/1.456 ms
