PING 10.0.0.6 (10.0.0.6) 56(84) bytes of data.
64 bytes from 10.0.0.6: icmp_seq=1 ttl=64 time=0.663 ms
64 bytes from 10.0.0.6: icmp_seq=2 ttl=64 time=0.482 ms
64 bytes from 10.0.0.6: icmp_seq=3 ttl=64 time=1.13 ms
64 by64 bytes from 10.0.0.11: icmp_seq=4 ttl=64 time=0.464 bytes from 10.0.0.6: icmp_seq=5 ttl=64 time=6.88 ms
664 bytes from 10.0.0.7: icmp_seq=6 ttl=64 time=4.62 ms664 bytes 64 bytes from 10.0.0.11: icmp_seq=7 ttl=64 ti664 bytes fr64 bytes from 10.0.0.11: icmp_seq=8 ttl=64 t664 bytes fro64 bytes from 10.0.0.11: icmp_seq=9 ttl=64 64 bytes from64 bytes from 10.0.0.11: icmp_seq=10 ttl=64 664 bytes from64 bytes from 10.0.0.11: icmp_seq=11 ttl=6464 bytes from 164 bytes from 10.0.0.11: icmp_seq=12 ttl=664 bytes from 1064 bytes from 10.0.0.11: icmp_seq=13 ttl=64 bytes from 10.64 bytes from 10.0.0.11: icmp_seq=14 tt64 bytes from 10.064 bytes from 10.0.0.11: icmp_seq=15 t64 bytes from 10.0.64 bytes from 10.0.0.11: icmp_seq=16 ttl=64 time=0.746 ms

--- 10.0.0.11 ping statistics ---
16 packets transmitted, 16 received, 0% packet loss, time 76398ms
rtt min/avg/max/mdev = 0.373/1.056/5.167/1.232 ms
