,Total number of clients,1024,512,256,64
0,24,11.13608,13.18943,12.885689999999999,13.17963
1,48,11.134265,19.2197025,18.9658525,19.31232
2,96,11.053917499999999,20.3227125,24.632745,25.082502500000004
3,192,11.26238,20.563612499999998,25.463947499999996,25.9379025
