,Total number of clients,1024,512,256,64
0,24,11.130022499999999,13.1109425,12.715357500000001,12.968612499999999
1,48,11.134879999999999,19.072004999999997,18.709525,19.067345
2,96,11.17538,20.324095,24.438179999999996,25.37078
3,192,11.2009575,20.6061075,29.884814999999996,30.445825
