,Total number of clients,1024,512,256,64
0,24,11.126398305084745,13.13361440677966,12.765351694915253,12.996563559322034
1,48,11.130817796610168,19.13297033898305,18.77525,19.12541525423729
2,96,11.128754237288135,20.474478813559323,24.69158474576271,25.182148305084745
3,192,11.125512711864406,20.474216101694914,29.830444915254237,30.330262711864407
