,Total number of clients,64,256,512,1024
0,24,1.3819745762711866,1.4100423728813563,1.3514067796610172,1.6817436440677964
1,48,2.0203855932203387,2.07023940677966,2.019726694915254,3.803413135593221
2,96,3.2836800847457632,3.3577012711864405,4.136016949152543,8.091775423728814
3,192,5.731175847457627,5.845258474576272,8.682406779661015,16.48919279661017
