PING 10.0.0.7 (10.0.0.7) 56(84) bytes of data.
64 bytes from 10.0.0.7: icmp_seq=1 ttl=64 time=0.981 ms
64 bytes from 10.0.0.7: icmp_seq=2 ttl=64 time=1.37 ms
64 by64 bytes from 10.0.0.11: icmp_seq=3 ttl=64 time=0.464 bytes from 10.0.0.6: icmp_seq=4 ttl=64 time=1.17 ms
664 byte64 bytes from 10.0.0.11: icmp_seq=5 ttl=64 time=664 bytes from 10.0.0.7: icmp_seq=6 ttl=64 time=0.460 ms664 bytes 64 bytes from 10.0.0.11: icmp_seq=7 ttl=64 ti64 bytes fr64 bytes from 10.0.0.11: icmp_seq=8 ttl=64 ti64 bytes fro64 bytes from 10.0.0.11: icmp_seq=9 ttl=64 t664 bytes fro64 bytes from 10.0.0.11: icmp_seq=10 ttl=64 64 bytes from 10.0.0.6: icmp_seq=11 ttl=64 time=0.611 ms
664 bytes from 10.0.0.7: icmp_seq=12 ttl=64 time=0.523 ms664 bytes from 10.0.0.7: icmp_seq=13 ttl=64 time=0.943 ms64 bytes from 10.0.0.6: icmp_seq=14 ttl=64 time=0.502 ms
664 bytes from 10.64 bytes from 10.0.0.11: icmp_seq=15 tt664 bytes from 10.0.0.7: icmp_seq=16 ttl=64 time=1.30 ms
---- 10.0.0.7 ping statistics ---
16 packets transmitted, 16 received, 0% packet loss, time 76575ms
rtt min/avg/max/mdev = 0.460/0.806/1.528/0.326 ms
0.665/1.535/0.289 ms
