PING 10.0.0.11 (10.0.0.11) 56(84) bytes of data.
64 bytes from 10.0.0.11: icmp_seq=1 ttl=64 time=0.617664 bytes from 10.0.0.7: icmp_seq=2 ttl=64 time=0.997 m6464 b64 bytes from 10.0.0.11: icmp_seq=3 ttl=64 time=0.6464 bytes from 10.0.0.7: icmp_seq=4 ttl=64 time=0.628 m64 bytes from 10.0.0.6: icmp_seq=5 ttl=64 time=0.465 ms
6464 bytes from 10.0.0.7: icmp_seq=6 ttl=64 time=1.18 ms64 bytes from 10.0.0.6: icmp_seq=7 ttl=64 time=0.850 ms
664 bytes from 10.0.0.7: icmp_seq=8 ttl=64 time=1.03 ms
64 bytes fro64 bytes from 10.0.0.11: icmp_seq=9 ttl=64 t64 bytes from64 bytes from 10.0.0.11: icmp_seq=10 ttl=64 64 bytes from 10.0.0.6: icmp_seq=11 ttl=64 time=3.31 ms
664 bytes from 10.0.0.7: icmp_seq=12 ttl=64 time=0.620 ms664 bytes from 1064 bytes from 10.0.0.11: icmp_seq=13 ttl664 bytes from 10.0.0.7: icmp_seq=14 ttl=64 time=0.656 ms664 bytes from 10.0.0.7: icmp_seq=15 ttl=64 time=1.13 ms664 bytes from 10.0.64 bytes from 10.0.0.11: icmp_seq=16 ttl=64 time=1.20 ms

--- 10.0.0.11 ping statistics ---
16 packets transmitted, 16 received, 0% packet loss, time 76599ms
rtt min/avg/max/mdev = 0.439/0.739/2.094/0.391 ms
