PING 10.0.0.6 (10.0.0.6) 56(84) bytes of data.
64 bytes from 10.0.0.6: icmp_seq=1 ttl=64 time=0.488 ms
64 bytes from 10.0.0.7: icmp_seq=2 ttl=64 time=10.1 ms
664 bytes from 10.0.0.6: icmp_seq=3 ttl=64 time=0.738 ms64 bytes from 10.0.0.7: icmp_seq=4 ttl=64 time=0.740 ms
664 bytes from 10.0.0.6: icmp_seq=5 ttl=64 time=1.39 ms
64 bytes64 bytes from 10.0.0.11: icmp_seq=6 ttl=64 time=64 bytes from 10.0.0.7: icmp_seq=7 ttl=64 time=0.664 ms
64 bytes f64 bytes from 10.0.0.11: icmp_seq=8 ttl=64 tim64 bytes from 10.0.0.6: icmp_seq=9 ttl=64 time=0.795 ms
64 bytes from 10.0.0.7: icmp_seq=10 ttl=64 time=1.55 ms
664 bytes from 10.0.0.6: icmp_seq=11 ttl=64 time=0.473 ms64 bytes from 10.0.0.7: icmp_seq=12 ttl=64 time=1.12 ms
6464 bytes from 164 bytes from 10.0.0.11: icmp_seq=13 ttl64 bytes from 10.0.0.7: icmp_seq=14 ttl=64 time=0.586 ms
64 bytes from 10.0.0.7: icmp_seq=15 ttl=64 time=0.630 ms
64 bytes from 10.0.0.7: icmp_seq=16 ttl=64 time=1.00 ms

--- 10.0.0.7 ping statistics ---
16 packets transmitted, 16 received, 0% packet loss, time 76681ms
rtt min/avg/max/mdev = 0.451/1.333/10.179/2.301 ms

.582/1.131/0.174 ms
