PING 10.0.0.6 (10.0.0.6) 56(84) bytes of data.
64 bytes from 10.0.0.6: icmp_seq=1 ttl=64 time=0.820 ms64 bytes from 10.0.0.7: icmp_seq=2 ttl=64 time=5.10 ms
6464 bytes from 10.0.0.6: icmp_seq=3 ttl=64 time=0.420 m6464 bytes from 10.0.0.6: icmp_seq=4 ttl=64 time=0.605 m64 bytes from 10.0.0.7: icmp_seq=5 ttl=64 time=0.632 ms
6464 bytes from 10.0.0.6: icmp_seq=6 ttl=64 time=0.688 m6464 bytes from 10.0.0.6: icmp_seq=7 ttl=64 time=0.692 m6464 bytes 64 bytes from 10.0.0.11: icmp_seq=8 ttl=64 ti6464 bytes from 10.0.0.6: icmp_seq=9 ttl=64 time=0.579 m6464 bytes f64 bytes from 10.0.0.11: icmp_seq=10 ttl=64 t64 bytes from 10.0.0.7: icmp_seq=11 ttl=64 time=0.390 ms
64 bytes from 10.0.0.7: icmp_seq=12 ttl=64 time=0.693 ms
64 bytes from 10.0.0.7: icmp_seq=13 ttl=64 time=0.485 ms
64 bytes from 10.0.0.7: icmp_seq=14 ttl=64 time=1.12 ms
64 64 bytes from 64 bytes from 10.0.0.11: icmp_seq=15 ttl64 bytes from 10.0.0.7: icmp_seq=16 ttl=64 time=0.809 ms

--- 10.0.0.7 ping statistics ---
16 packets transmitted, 16 received, 0% packet loss, time 76704ms
rtt min/avg/max/mdev = 0.383/1.553/11.088/2.696 ms
s
0/1.601/0.298 ms
