PING 10.0.0.11 (10.0.0.11) 56(84) bytes of data.
64 bytes from 10.0.0.11: icmp_seq=1 ttl=64 time=0.712 64 bytes from 10.0.0.6: icmp_seq=2 ttl=64 time=1.07 ms
664 b64 bytes from 10.0.0.11: icmp_seq=3 ttl=64 time=0.664 bytes from 10.0.0.6: icmp_seq=4 ttl=64 time=0.621 ms
64 bytes from 10.0.0.6: icmp_seq=5 ttl=64 time=1.99 ms
664 bytes64 bytes from 10.0.0.11: icmp_seq=6 ttl=64 time664 bytes 64 bytes from 10.0.0.11: icmp_seq=7 ttl=64 tim64 bytes from 10.0.0.6: icmp_seq=8 ttl=64 time=1.52 ms
64 bytes from 10.0.0.6: icmp_seq=9 ttl=64 time=0.364 ms
6464 bytes from 10.0.0.7: icmp_seq=10 ttl=64 time=0.666 m64 bytes from 64 bytes from 10.0.0.11: icmp_seq=11 ttl=646464 bytes from 10.0.0.7: icmp_seq=12 ttl=64 time=0.697 m64 bytes from 10.0.0.6: icmp_seq=13 ttl=64 time=0.704 ms
64 bytes from 1064 bytes from 10.0.0.11: icmp_seq=14 ttl=6464 bytes from 10.0.0.7: icmp_seq=15 ttl=64 time=0.527 m64 bytes from 10.0.0.6: icmp_seq=16 ttl=64 time=0.799 ms

--- 10.0.0.6 ping statistics ---
16 packets transmitted, 16 received, 0% packet loss, time 76672ms
rtt min/avg/max/mdev = 0.357/0.737/1.996/0.435 ms
685/1.207/0.268 ms
