PING 10.0.0.7 (10.0.0.7) 56(84) bytes of data.
64 bytes from 10.0.0.7: icmp_seq=1 ttl=64 time=3.64 ms
64 bytes from 10.0.0.7: icmp_seq=2 ttl=64 time=2.50 ms
64 bytes from 10.0.0.7: icmp_seq=3 ttl=64 time=0.733 ms
664 bytes from 10.0.0.6: icmp_seq=4 ttl=64 time=0.733 ms64 bytes from 10.0.0.7: icmp_seq=5 ttl=64 time=0.492 ms
64 bytes from 10.0.0.7: icmp_seq=6 ttl=64 time=1.71 ms
6464 bytes from 10.0.0.6: icmp_seq=7 ttl=64 time=0.720 m64 bytes from 10.0.0.7: icmp_seq=8 ttl=64 time=0.626 ms
64 bytes from 10.0.0.7: icmp_seq=9 ttl=64 time=1.26 ms
64 64 bytes fr64 bytes from 10.0.0.11: icmp_seq=10 ttl=664 b64 bytes from 10.0.0.6: icmp_seq=11 ttl=64 time=0.5764 by64 bytes from 10.0.0.6: icmp_seq=12 ttl=64 time=1.3264 b64 bytes from 64 bytes from 10.0.0.11: icmp_seq=13 tt64 b64 bytes from 10.0.0.6: icmp_seq=14 ttl=64 time=0.81264 b64 bytes from 1064 bytes from 10.0.0.11: icmp_seq=15 64 b64 bytes from 10.0.0.6: icmp_seq=16 ttl=64 time=0.826 ms

--- 10.0.0.6 ping statistics ---
16 packets transmitted, 16 received, 0% packet loss, time 76656ms
rtt min/avg/max/mdev = 0.450/0.810/1.784/0.325 ms
691/1.332/0.222 ms
