PING 10.0.0.11 (10.0.0.11) 56(84) bytes of data.
64 bytes from 10.0.0.11: icmp_seq=1 ttl=64 time=0.604 64 bytes from 10.0.0.6: icmp_seq=2 ttl=64 time=0.541 ms
64 bytes from 10.0.0.6: icmp_seq=3 ttl=64 time=0.469 ms664 bytes from 10.0.0.6: icmp_seq=4 ttl=64 time=0.662 ms664 byt64 bytes from 10.0.0.11: icmp_seq=5 ttl=64 time=0664 byte64 bytes from 10.0.0.11: icmp_seq=6 ttl=64 time=664 bytes from 10.0.0.6: icmp_seq=7 ttl=64 time=1.58 ms
64 bytes f64 bytes from 10.0.0.11: icmp_seq=8 ttl=64 tim64 bytes from 10.0.0.6: icmp_seq=9 ttl=64 time=0.569 ms
64 bytes from 10.0.0.6: icmp_seq=10 ttl=64 time=0.588 ms
64 bytes from 10.0.0.6: icmp_seq=11 ttl=64 time=0.502 ms
64 bytes from 10.0.0.6: icmp_seq=12 ttl=64 time=0.565 ms
64 bytes from 10.0.0.6: icmp_seq=13 ttl=64 time=0.680 ms
64 bytes from 10.0.0.6: icmp_seq=14 ttl=64 time=0.796 ms
64 bytes from 10.0.0.6: icmp_seq=15 ttl=64 time=0.535 ms
64 bytes from 10.0.0.6: icmp_seq=16 ttl=64 time=0.960 ms

--- 10.0.0.6 ping statistics ---
16 packets transmitted, 16 received, 0% packet loss, time 76771ms
rtt min/avg/max/mdev = 0.399/0.670/1.589/0.280 ms
796/4.039/0.851 ms
