PING 10.0.0.11 (10.0.0.11) 56(84) bytes of data.
64 bytes from 10.0.0.11: icmp_seq=1 ttl=64 time=38.5 664 bytes from 10.0.0.7: icmp_seq=2 ttl=64 time=0.592 m6464 bytes from 10.0.0.7: icmp_seq=3 ttl=64 time=1.45 ms664 by64 bytes from 10.0.0.11: icmp_seq=4 ttl=64 time=0.664 bytes from 10.0.0.7: icmp_seq=5 ttl=64 time=0.617 ms664 bytes from 10.0.0.7: icmp_seq=6 ttl=64 time=0.728 ms664 bytes64 bytes from 10.0.0.11: icmp_seq=7 ttl=64 time664 bytes from 10.0.0.7: icmp_seq=8 ttl=64 time=0.611 ms664 bytes from 10.0.0.7: icmp_seq=9 ttl=64 time=0.866 ms664 bytes from 10.0.0.7: icmp_seq=10 ttl=64 time=1.00 ms
64 bytes from64 bytes from 10.0.0.11: icmp_seq=11 ttl=6464 bytes from 164 bytes from 10.0.0.11: icmp_seq=12 ttl=6664 bytes from 164 bytes from 10.0.0.11: icmp_seq=13 ttl=64 bytes from 10.64 bytes from 10.0.0.11: icmp_seq=14 ttl664 bytes from 10.64 bytes from 10.0.0.11: icmp_seq=15 tt64 bytes from 10.064 bytes from 10.0.0.11: icmp_seq=16 ttl=64 time=0.766 ms

--- 10.0.0.11 ping statistics ---
16 packets transmitted, 16 received, 0% packet loss, time 76621ms
rtt min/avg/max/mdev = 0.338/3.056/38.553/9.168 ms
