PING 10.0.0.11 (10.0.0.11) 56(84) bytes of data.
64 bytes from 10.0.0.11: icmp_seq=1 ttl=64 time=1.24 664 bytes from 10.0.0.7: icmp_seq=2 ttl=64 time=0.551 m6464 64 bytes from 10.0.0.11: icmp_seq=3 ttl=64 time=0.76464 b64 bytes from 10.0.0.11: icmp_seq=4 ttl=64 time=0.6464 by64 bytes from 10.0.0.11: icmp_seq=5 ttl=64 time=1664 byt64 bytes from 10.0.0.11: icmp_seq=6 ttl=64 time=0664 bytes from 10.0.0.7: icmp_seq=7 ttl=64 time=1.22 ms
64 bytes 64 bytes from 10.0.0.11: icmp_seq=8 ttl=64 time64 bytes f64 bytes from 10.0.0.11: icmp_seq=9 ttl=64 tim64 bytes from 10.0.0.7: icmp_seq=10 ttl=64 time=0.822 ms
64 bytes from 10.0.0.7: icmp_seq=11 ttl=64 time=0.794 ms
64 bytes from 10.0.0.7: icmp_seq=12 ttl=64 time=1.11 ms
64 bytes from 10.0.0.7: icmp_seq=13 ttl=64 time=0.870 ms
64 bytes from 10.0.0.7: icmp_seq=14 ttl=64 time=0.528 ms
64 bytes from 10.0.0.7: icmp_seq=15 ttl=64 time=0.459 ms
64 bytes from 10.0.0.7: icmp_seq=16 ttl=64 time=0.746 ms

--- 10.0.0.7 ping statistics ---
16 packets transmitted, 16 received, 0% packet loss, time 76711ms
rtt min/avg/max/mdev = 0.459/0.741/1.223/0.220 ms
5/2.205/0.417 ms
