PING 10.0.0.6 (10.0.0.6) 56(84) bytes of data.
64 bytes from 10.0.0.6: icmp_seq=1 ttl=64 time=0.992 ms
64 bytes from 10.0.0.6: icmp_seq=2 ttl=64 time=1.53 ms
64 by64 bytes from 10.0.0.11: icmp_seq=3 ttl=64 time=0.664 byt64 bytes from 10.0.0.11: icmp_seq=4 ttl=64 time=064 bytes64 bytes from 10.0.0.11: icmp_seq=5 ttl=64 time=64 bytes 64 bytes from 10.0.0.11: icmp_seq=6 ttl=64 tim6464 bytes 64 bytes from 10.0.0.11: icmp_seq=7 ttl=64 ti64 bytes fro64 bytes from 10.0.0.11: icmp_seq=8 ttl=64 6464 bytes fr64 bytes from 10.0.0.11: icmp_seq=9 ttl=646464 bytes from64 bytes from 10.0.0.11: icmp_seq=10 ttl=66464 bytes from 64 bytes from 10.0.0.11: icmp_seq=11 ttl=6464 bytes from 164 bytes from 10.0.0.11: icmp_seq=12 ttl6464 bytes from 1064 bytes from 10.0.0.11: icmp_seq=13 tt6464 bytes from 10.64 bytes from 10.0.0.11: icmp_seq=14 t664 bytes from 10.0.64 bytes from 10.0.0.11: icmp_seq=15 664 bytes from 10.0.064 bytes from 10.0.0.11: icmp_seq=16 ttl=64 time=3.36 ms

--- 10.0.0.11 ping statistics ---
16 packets transmitted, 16 received, 0% packet loss, time 76817ms
rtt min/avg/max/mdev = 0.559/0.918/3.362/0.654 ms
