PING 10.0.0.11 (10.0.0.11) 56(84) bytes of data.
64 bytes from 10.0.0.11: icmp_seq=1 ttl=64 time=0.825 64 bytes from 10.0.0.7: icmp_seq=2 ttl=64 time=1.22 ms
664 bytes from 10.0.0.6: icmp_seq=3 ttl=64 time=0.975 ms64 byt64 bytes from 10.0.0.11: icmp_seq=4 ttl=64 time=0.664 bytes from 10.0.0.6: icmp_seq=5 ttl=64 time=1.07 ms
64 bytes from 10.0.0.7: icmp_seq=6 ttl=64 time=0.536 ms
64 bytes from 10.0.0.6: icmp_seq=7 ttl=64 time=0.689 ms
64 bytes 64 bytes from 10.0.0.11: icmp_seq=8 ttl=64 time64 bytes from 10.0.0.7: icmp_seq=9 ttl=64 time=1.34 ms
64 bytes fr64 bytes from 10.0.0.11: icmp_seq=10 ttl=64 ti64 bytes from 10.0.0.7: icmp_seq=11 ttl=64 time=1.05 ms
664 bytes from 10.0.0.6: icmp_seq=12 ttl=64 time=0.982 ms64 bytes from 164 bytes from 10.0.0.11: icmp_seq=13 ttl=664 bytes from 10.0.0.7: icmp_seq=14 ttl=64 time=1.58 ms
64 bytes from 10.64 bytes from 10.0.0.11: icmp_seq=15 ttl64 bytes from 10.0.0.7: icmp_seq=16 ttl=64 time=0.963 ms

--- 10.0.0.7 ping statistics ---
16 packets transmitted, 16 received, 0% packet loss, time 76694ms
rtt min/avg/max/mdev = 0.399/0.812/1.582/0.332 ms
.796/2.164/0.428 ms
