PING 10.0.0.6 (10.0.0.6) 56(84) bytes of data.
64 bytes from 10.0.0.6: icmp_seq=1 ttl=64 time=0.743 ms664 bytes from 10.0.0.6: icmp_seq=2 ttl=64 time=0.539 ms664 bytes from 10.0.0.6: icmp_seq=3 ttl=64 time=0.548 ms664 b64 bytes from 10.0.0.11: icmp_seq=4 ttl=64 time=0.64 byte64 bytes from 10.0.0.11: icmp_seq=5 ttl=64 time=164 bytes from 10.0.0.7: icmp_seq=6 ttl=64 time=0.561 ms
64 bytes from 10.0.0.7: icmp_seq=7 ttl=64 time=0.836 ms
64 bytes from 10.0.0.7: icmp_seq=8 ttl=64 time=1.09 ms
6464 bytes 64 bytes from 10.0.0.11: icmp_seq=9 ttl=64 ti6464 bytes from 10.0.0.6: icmp_seq=10 ttl=64 time=1.02 ms64 bytes from 10.0.0.7: icmp_seq=11 ttl=64 time=0.843 ms
64 bytes from 10.0.0.7: icmp_seq=12 ttl=64 time=0.697 ms
664 bytes from 10.0.0.6: icmp_seq=13 ttl=64 time=0.735 ms64 bytes from 10.0.0.7: icmp_seq=14 ttl=64 time=1.13 ms
664 bytes from 10.0.0.6: icmp_seq=15 ttl=64 time=0.933 ms664 bytes from 10.0.0.6: icmp_seq=16 ttl=64 time=0.702 ms

--- 10.0.0.6 ping statistics ---
16 packets transmitted, 16 received, 0% packet loss, time 76431ms
rtt min/avg/max/mdev = 0.379/1.617/15.628/3.622 ms
881/3.288/0.657 ms
