PING 10.0.0.11 (10.0.0.11) 56(84) bytes of data.
64 bytes from 10.0.0.11: icmp_seq=1 ttl=64 time=0.784 64 64 bytes from 10.0.0.11: icmp_seq=2 ttl=64 time=0.8164 by64 bytes from 10.0.0.11: icmp_seq=3 ttl=64 time=0.964 byt64 bytes from 10.0.0.11: icmp_seq=4 ttl=64 time=0.64 byte64 bytes from 10.0.0.11: icmp_seq=5 ttl=64 time=064 bytes64 bytes from 10.0.0.11: icmp_seq=6 ttl=64 time=64 bytes 64 bytes from 10.0.0.11: icmp_seq=7 ttl=64 time64 bytes f64 bytes from 10.0.0.11: icmp_seq=8 ttl=64 ti664 bytes f64 bytes from 10.0.0.11: icmp_seq=9 ttl=64 ti664 bytes fr64 bytes from 10.0.0.11: icmp_seq=10 ttl=64 6464 bytes fro64 bytes from 10.0.0.11: icmp_seq=11 ttl=646464 bytes from64 bytes from 10.0.0.11: icmp_seq=12 ttl=66464 bytes from64 bytes from 10.0.0.11: icmp_seq=13 ttl=66464 bytes from 64 bytes from 10.0.0.11: icmp_seq=14 ttl=6464 bytes from 164 bytes from 10.0.0.11: icmp_seq=15 ttl6464 bytes from 1064 bytes from 10.0.0.11: icmp_seq=16 ttl=64 time=0.833 ms

--- 10.0.0.11 ping statistics ---
16 packets transmitted, 16 received, 0% packet loss, time 76728ms
rtt min/avg/max/mdev = 0.424/0.731/1.149/0.221 ms
