PING 10.0.0.11 (10.0.0.11) 56(84) bytes of data.
64 bytes from 10.0.0.11: icmp_seq=1 ttl=64 time=7.89 m64 bytes from 10.0.0.7: icmp_seq=2 ttl=64 time=0.750 ms
64 bytes from 10.0.0.7: icmp_seq=3 ttl=64 time=0.488 ms
64 bytes from 10.0.0.7: icmp_seq=4 ttl=64 time=0.644 ms
64 bytes from 10.0.0.7: icmp_seq=5 ttl=64 time=0.928 ms
64 bytes from 10.0.0.7: icmp_seq=6 ttl=64 time=0.482 ms
64 bytes from 10.0.0.7: icmp_seq=7 ttl=64 time=0.738 ms
64 bytes from 10.0.0.6: icmp_seq=8 ttl=64 time=1.07 ms
664 bytes 64 bytes from 10.0.0.11: icmp_seq=9 ttl=64 ti6464 bytes f64 bytes from 10.0.0.11: icmp_seq=10 ttl=64 t6464 bytes from 10.0.0.7: icmp_seq=11 ttl=64 time=0.715 m6464 bytes from 10.0.0.7: icmp_seq=12 ttl=64 time=0.995 m6464 bytes fro64 bytes from 10.0.0.11: icmp_seq=13 ttl=646464 bytes from64 bytes from 10.0.0.11: icmp_seq=14 ttl=64 64 bytes from 64 bytes from 10.0.0.11: icmp_seq=15 ttl64 64 bytes from 64 bytes from 10.0.0.11: icmp_seq=16 ttl=64 time=0.798 ms

--- 10.0.0.11 ping statistics ---
16 packets transmitted, 16 received, 0% packet loss, time 76547ms
rtt min/avg/max/mdev = 0.438/1.229/7.898/1.769 ms
