PING 10.0.0.11 (10.0.0.11) 56(84) bytes of data.
64 bytes from 10.0.0.11: icmp_seq=1 ttl=64 time=0.645 64 bytes from 10.0.0.6: icmp_seq=2 ttl=64 time=9.75 ms
664 b64 bytes from 10.0.0.11: icmp_seq=3 ttl=64 time=0.6464 bytes from 10.0.0.7: icmp_seq=4 ttl=64 time=0.900 m6464 byt64 bytes from 10.0.0.11: icmp_seq=5 ttl=64 time=6464 byte64 bytes from 10.0.0.11: icmp_seq=6 ttl=64 time6464 bytes from 10.0.0.7: icmp_seq=7 ttl=64 time=0.646 m6464 bytes from 10.0.0.7: icmp_seq=8 ttl=64 time=0.568 m6464 bytes f64 bytes from 10.0.0.11: icmp_seq=9 ttl=64 t6464 bytes from 10.0.0.7: icmp_seq=10 ttl=64 time=0.571 m6464 bytes from 10.0.0.7: icmp_seq=11 ttl=64 time=0.846 m6464 bytes from 10.0.0.7: icmp_seq=12 ttl=64 time=0.660 m6464 bytes from 10.0.0.7: icmp_seq=13 ttl=64 time=0.664 64 64 bytes from 10.0.0.7: icmp_seq=14 ttl=64 time=0.692 64 64 bytes from 10.0.0.7: icmp_seq=15 ttl=64 time=0.900 64 64 bytes from 10.64 bytes from 10.0.0.11: icmp_seq=16 ttl
--- 10.0.0.7 ping --- 10.0.0.11 ping statistics ---
16 packets transmitted, 16 received, 0% packet loss, time 76684ms
rtt min/avg/max/mdev = 0.420/0.593/0.957/0.146 ms
