PING 10.0.0.6 (10.0.0.6) 56(84) bytes of data.
64 bytes from 10.0.0.6: icmp_seq=1 ttl=64 time=32.0 ms
664 bytes from 10.0.0.7: icmp_seq=2 ttl=64 time=7.34 ms
64 bytes from 10.0.0.6: icmp_seq=3 ttl=64 time=0.457 ms
64 bytes from 10.0.0.6: icmp_seq=4 ttl=64 time=1.51 ms
664 bytes from 10.0.0.7: icmp_seq=5 ttl=64 time=0.767 ms64 bytes from 10.0.0.6: icmp_seq=6 ttl=64 time=0.585 ms
664 bytes 64 bytes from 10.0.0.11: icmp_seq=7 ttl=64 tim664 bytes from 10.0.0.7: icmp_seq=8 ttl=64 time=0.687 ms64 bytes from 10.0.0.6: icmp_seq=9 ttl=64 time=0.529 ms
664 bytes fro64 bytes from 10.0.0.11: icmp_seq=10 ttl=64 664 bytes from64 bytes from 10.0.0.11: icmp_seq=11 ttl=64664 bytes from 10.0.0.7: icmp_seq=12 ttl=64 time=0.835 ms664 bytes from 10.0.0.7: icmp_seq=13 ttl=64 time=0.795 ms664 bytes from 10.0.0.7: icmp_seq=14 ttl=64 time=0.703 ms64 bytes from 10.0.0.6: icmp_seq=15 ttl=64 time=0.986 ms
664 bytes from 10.0.0.7: icmp_seq=16 ttl=64 time=0.851 ms

--- 10.0.0.7 ping statistics ---
16 packets transmitted, 16 received, 0% packet loss, time 76612ms
rtt min/avg/max/mdev = 0.454/1.077/7.343/1.623 ms
733/2.297/0.435 ms
