PING 10.0.0.7 (10.0.0.7) 56(84) bytes of data.
64 bytes from 10.0.0.7: icmp_seq=1 ttl=64 time=0.829 ms664 bytes from 10.0.0.7: icmp_seq=2 ttl=64 time=0.746 m6464 b64 bytes from 10.0.0.11: icmp_seq=3 ttl=64 time=0.6464 bytes from 10.0.0.7: icmp_seq=4 ttl=64 time=0.475 m6464 bytes from 10.0.0.7: icmp_seq=5 ttl=64 time=0.603 m6464 bytes from 10.0.0.7: icmp_seq=6 ttl=64 time=0.838 64 64 bytes64 bytes from 10.0.0.11: icmp_seq=7 ttl=64 ti64 64 bytes 64 bytes from 10.0.0.11: icmp_seq=8 ttl=64 t64 64 bytes f64 bytes from 10.0.0.11: icmp_seq=9 ttl=64 64 64 bytes fr64 bytes from 10.0.0.11: icmp_seq=10 ttl=6464 64 bytes from 10.0.0.7: icmp_seq=11 ttl=64 time=0.493 64 64 bytes from 10.0.0.7: icmp_seq=12 ttl=64 time=0.505 64 64 bytes from 10.0.0.7: icmp_seq=13 ttl=64 time=0.500 64 64 bytes from 64 bytes from 10.0.0.11: icmp_seq=14 ttl64 64 bytes from 10.0.0.7: icmp_seq=15 ttl=64 time=0.58864 b64 bytes from 10.0.0.7: icmp_seq=16 ttl=64 time=0.868 ms

--- 10.0.0.7 ping statistics ---
16 packets transmitted, 16 received, 0% packet loss, time 76760ms
rtt min/avg/max/mdev = 0.437/0.682/0.903/0.168 ms
62/4.979/1.075 ms
