PING 10.0.0.11 (10.0.0.11) 56(84) bytes of data.
64 bytes from 10.0.0.11: icmp_seq=1 ttl=64 time=8.02 66464 bytes from 10.0.0.11: icmp_seq=2 ttl=64 time=0.51564 b64 bytes from 10.0.0.11: icmp_seq=3 ttl=64 time=0.5964 bytes from 10.0.0.6: icmp_seq=4 ttl=64 time=0.525 ms664 byt64 bytes from 10.0.0.11: icmp_seq=5 ttl=64 time=0664 bytes from 10.0.0.6: icmp_seq=6 ttl=64 time=0.629 ms664 bytes from 10.0.0.6: icmp_seq=7 ttl=64 time=0.706 ms664 bytes from 10.0.0.6: icmp_seq=8 ttl=64 time=0.434 ms664 bytes f64 bytes from 10.0.0.11: icmp_seq=9 ttl=64 ti664 bytes from 10.0.0.6: icmp_seq=10 ttl=64 time=0.630 ms664 bytes from 10.0.0.6: icmp_seq=11 ttl=64 time=0.550 m6464 bytes from64 bytes from 10.0.0.11: icmp_seq=12 ttl=66464 bytes from 10.0.0.6: icmp_seq=13 ttl=64 time=1.02 ms664 bytes from 164 bytes from 10.0.0.11: icmp_seq=14 ttl6464 bytes from 10.0.0.6: icmp_seq=15 ttl=64 time=0.532 m6464 bytes from 10.0.0.6: icmp_seq=16 ttl=64 time=0.769 ms

--- 10.0.0.6 ping statistics ---
16 packets transmitted, 16 received, 0% packet loss, time 76763ms
rtt min/avg/max/mdev = 0.434/0.872/4.928/1.057 ms
34/8.025/1.830 ms
