PING 10.0.0.7 (10.0.0.7) 56(84) bytes of data.
64 bytes from 10.0.0.7: icmp_seq=1 ttl=64 time=0.977 ms
64 bytes from 10.0.0.7: icmp_seq=2 ttl=64 time=0.771 ms
64 bytes from 10.0.0.6: icmp_seq=3 ttl=64 time=1.48 ms
664 bytes from 10.0.0.7: icmp_seq=4 ttl=64 time=0.596 ms64 bytes from 10.0.0.6: icmp_seq=5 ttl=64 time=0.503 ms
64 bytes from 10.0.0.6: icmp_seq=6 ttl=64 time=0.771 ms
64 bytes 64 bytes from 10.0.0.11: icmp_seq=7 ttl=64 time64 bytes from 10.0.0.6: icmp_seq=8 ttl=64 time=1.26 ms
6464 bytes from 10.0.0.7: icmp_seq=9 ttl=64 time=1.90 ms64 bytes from 10.0.0.6: icmp_seq=10 ttl=64 time=0.850 ms
64 bytes from 10.0.0.6: icmp_seq=11 ttl=64 time=0.461 ms
664 bytes from 10.0.0.7: icmp_seq=12 ttl=64 time=0.327 ms64 bytes from 10.0.0.6: icmp_seq=13 ttl=64 time=0.418 ms
664 bytes from 10.0.0.7: icmp_seq=14 ttl=64 time=0.878 ms664 bytes from 10.0.0.7: icmp_seq=15 ttl=64 time=1.02 ms664 bytes from 10.0.0.7: icmp_seq=16 ttl=64 time=0.908 ms

--- 10.0.0.7 ping statistics ---
16 packets transmitted, 16 received, 0% packet loss, time 76467ms
rtt min/avg/max/mdev = 0.327/0.784/1.907/0.358 ms
15/5.908/1.421 ms
