PING 10.0.0.7 (10.0.0.7) 56(84) bytes of data.
64 bytes from 10.0.0.7: icmp_seq=1 ttl=64 time=1.10 ms
64 b64 bytes from 10.0.0.11: icmp_seq=2 ttl=64 time=8.16464 bytes from 10.0.0.6: icmp_seq=3 ttl=64 time=1.57 m6464 by64 bytes from 10.0.0.11: icmp_seq=4 ttl=64 time=06464 bytes from 10.0.0.6: icmp_seq=5 ttl=64 time=0.997 m6464 byte64 bytes from 10.0.0.11: icmp_seq=6 ttl=64 time664 bytes 64 bytes from 10.0.0.11: icmp_seq=7 ttl=64 tim664 bytes f64 bytes from 10.0.0.11: icmp_seq=8 ttl=64 ti664 bytes fr64 bytes from 10.0.0.11: icmp_seq=9 ttl=64 t64 bytes from64 bytes from 10.0.0.11: icmp_seq=10 ttl=6464 bytes from 164 bytes from 10.0.0.11: icmp_seq=11 ttl=6664 bytes from 164 bytes from 10.0.0.11: icmp_seq=12 ttl=64 bytes from 10.64 bytes from 10.0.0.11: icmp_seq=13 ttl64 bytes from 10.064 bytes from 10.0.0.11: icmp_seq=14 tt664 bytes from 10.064 bytes from 10.0.0.11: icmp_seq=15 t64 bytes from 10.0.064 bytes from 10.0.0.11: icmp_seq=16 ttl=64 time=0.721 ms

--- 10.0.0.11 ping statistics ---
16 packets transmitted, 16 received, 0% packet loss, time 76644ms
rtt min/avg/max/mdev = 0.413/1.064/8.116/1.824 ms
