PING 10.0.0.7 (10.0.0.7) 56(84) bytes of data.
64 bytes from 10.0.0.7: icmp_seq=1 ttl=64 time=0.509 ms
64 bytes from 10.0.0.7: icmp_seq=2 ttl=64 time=4.85 ms
664 b64 bytes from 10.0.0.11: icmp_seq=3 ttl=64 time=0.664 byt64 bytes from 10.0.0.11: icmp_seq=4 ttl=64 time=0.664 bytes from 10.0.0.6: icmp_seq=5 ttl=64 time=1.81 ms
64 bytes from 10.0.0.7: icmp_seq=6 ttl=64 time=0.634 ms
64 bytes from 10.0.0.7: icmp_seq=7 ttl=64 time=0.816 ms
64 bytes from 10.0.0.7: icmp_seq=8 ttl=64 time=0.555 ms
64 bytes from 10.0.0.7: icmp_seq=9 ttl=64 time=0.824 ms
64 bytes from 10.0.0.7: icmp_seq=10 ttl=64 time=0.686 ms
64 bytes from 10.0.0.6: icmp_seq=11 ttl=64 time=1.67 ms
664 bytes from 10.0.0.7: icmp_seq=12 ttl=64 time=0.763 ms664 bytes from 10.0.0.7: icmp_seq=13 ttl=64 time=0.728 ms64 bytes from 10.0.0.6: icmp_seq=14 ttl=64 time=1.02 ms
664 bytes from 10.0.0.7: icmp_seq=15 ttl=64 time=0.920 ms664 bytes from 10.0.0.7: icmp_seq=16 ttl=64 time=0.630 ms
--- 10.0.0.6 ping statistics ---
16 packets transmitted, 16 received, 0% packet loss, time 76815ms
rtt min/avg/max/mdev = 0.440/0.827/1.812/0.372 ms

8/1.328/0.240 ms
