PING 10.0.0.7 (10.0.0.7) 56(84) bytes of data.
64 bytes from 10.0.0.7: icmp_seq=1 ttl=64 time=0.807 ms
64 bytes from 10.0.0.6: icmp_seq=2 ttl=64 time=0.591 ms
64 bytes from 10.0.0.6: icmp_seq=3 ttl=64 time=0.647 ms
64 bytes from 10.0.0.7: icmp_seq=4 ttl=64 time=1.30 ms
664 bytes from 10.0.0.6: icmp_seq=5 ttl=64 time=0.644 ms664 bytes from 10.0.0.6: icmp_seq=6 ttl=64 time=0.568 ms64 bytes 64 bytes from 10.0.0.11: icmp_seq=7 ttl=64 time664 bytes from 10.0.0.6: icmp_seq=8 ttl=64 time=0.980 ms64 bytes from 10.0.0.7: icmp_seq=9 ttl=64 time=0.680 ms
64 bytes from 10.0.0.7: icmp_seq=10 ttl=64 time=0.713 ms
664 bytes from 10.0.0.6: icmp_seq=11 ttl=64 time=0.531 ms64 bytes from 10.0.0.7: icmp_seq=12 ttl=64 time=0.555 ms
64 bytes from 10.0.0.7: icmp_seq=13 ttl=64 time=0.429 ms
664 bytes from 164 bytes from 10.0.0.11: icmp_seq=14 ttl=664 bytes from 10.0.0.6: icmp_seq=15 ttl=64 time=0.885 ms664 bytes from 10.0.0.6: icmp_seq=16 ttl=64 time=0.760 ms

--- 10.0.0.6 ping statistics ---
16 packets transmitted, 16 received, 0% packet loss, time 76785ms
rtt min/avg/max/mdev = 0.404/0.610/0.980/0.154 ms
574/0.769/0.126 ms
