PING 10.0.0.6 (10.0.0.6) 56(84) bytes of data.
64 bytes from 10.0.0.6: icmp_seq=1 ttl=64 time=0.475 ms
64 64 bytes from 10.0.0.11: icmp_seq=2 ttl=64 time=0.54664 b64 bytes from 10.0.0.11: icmp_seq=3 ttl=64 time=0.6464 bytes from 10.0.0.6: icmp_seq=4 ttl=64 time=0.794 m6464 bytes from 10.0.0.6: icmp_seq=5 ttl=64 time=0.540 m6464 bytes from 10.0.0.6: icmp_seq=6 ttl=64 time=2.24 m6464 bytes from 10.0.0.6: icmp_seq=7 ttl=64 time=0.692 m6464 bytes from 10.0.0.6: icmp_seq=8 ttl=64 time=0.470 64 64 bytes from 10.0.0.6: icmp_seq=9 ttl=64 time=2.16 m6464 bytes from 10.0.0.6: icmp_seq=10 ttl=64 time=0.623 m6464 bytes from 10.0.0.6: icmp_seq=11 ttl=64 time=0.870 m6464 bytes from 10.0.0.6: icmp_seq=12 ttl=64 time=0.449 m6464 bytes from 10.0.0.6: icmp_seq=13 ttl=64 time=0.789 m6464 bytes from 10.0.0.6: icmp_seq=14 ttl=64 time=0.624 m6464 bytes from 10.0.0.6: icmp_seq=15 ttl=64 time=0.474 m6464 bytes from 10.0.0.6: icmp_seq=16 ttl=64 time=0.554 ms

--- 10.0.0.6 ping statistics ---
16 packets transmitted, 16 received, 0% packet loss, time 76798ms
rtt min/avg/max/mdev = 0.449/0.809/2.249/0.543 ms
802/2.890/0.588 ms
