PING 10.0.0.6 (10.0.0.6) 56(84) bytes of data.
64 bytes from 10.0.0.6: icmp_seq=1 ttl=64 time=7.42 ms
64 bytes from 10.0.0.7: icmp_seq=2 ttl=64 time=0.476 ms
64 by64 bytes from 10.0.0.11: icmp_seq=3 ttl=64 time=7.364 bytes from 10.0.0.7: icmp_seq=4 ttl=64 time=1.53 ms
64 byte64 bytes from 10.0.0.11: icmp_seq=5 ttl=64 time=664 bytes from 10.0.0.7: icmp_seq=6 ttl=64 time=0.842 ms664 bytes from 10.0.0.7: icmp_seq=7 ttl=64 time=1.01 ms
64 bytes fr64 bytes from 10.0.0.11: icmp_seq=8 ttl=64 ti64 bytes from 10.0.0.7: icmp_seq=9 ttl=64 time=0.753 ms
64 bytes from64 bytes from 10.0.0.11: icmp_seq=10 ttl=64 64 bytes from 10.0.0.7: icmp_seq=11 ttl=64 time=7.93 ms
64 bytes from 1064 bytes from 10.0.0.11: icmp_seq=12 ttl64 bytes from 10.64 bytes from 10.0.0.11: icmp_seq=13 ttl64 bytes from 10.064 bytes from 10.0.0.11: icmp_seq=14 tt6464 bytes from 10.64 bytes from 10.0.0.11: icmp_seq=15 t64 bytes from 10.0.064 bytes from 10.0.0.11: icmp_seq=16 ttl=64 time=1.08 ms

--- 10.0.0.11 ping statistics ---
16 packets transmitted, 16 received, 0% packet loss, time 76712ms
rtt min/avg/max/mdev = 0.356/1.068/7.355/1.639 ms
