PING 10.0.0.7 (10.0.0.7) 56(84) bytes of data.
64 bytes from 10.0.0.7: icmp_seq=1 ttl=64 time=1.07 ms
64 bytes from 10.0.0.7: icmp_seq=2 ttl=64 time=2.02 ms
64 bytes from 10.0.0.7: icmp_seq=3 ttl=64 time=0.518 ms
64 byt64 bytes from 10.0.0.11: icmp_seq=4 ttl=64 time=0.664 bytes from 10.0.0.6: icmp_seq=5 ttl=64 time=0.375 ms64 bytes64 bytes from 10.0.0.11: icmp_seq=6 ttl=64 time=64 bytes from 10.0.0.7: icmp_seq=7 ttl=64 time=0.602 ms
664 bytes from 10.0.0.6: icmp_seq=8 ttl=64 time=0.647 ms64 bytes from 10.0.0.7: icmp_seq=9 ttl=64 time=0.681 ms
664 bytes from 10.0.0.6: icmp_seq=10 ttl=64 time=0.463 ms64 bytes from 10.0.0.7: icmp_seq=11 ttl=64 time=0.688 ms
664 bytes from 10.0.0.6: icmp_seq=12 ttl=64 time=0.612 ms64 bytes from 10.0.0.7: icmp_seq=13 ttl=64 time=0.700 ms
664 bytes from 10.0.0.6: icmp_seq=14 ttl=64 time=0.897 ms664 bytes from 10.0.0.6: icmp_seq=15 ttl=64 time=1.45 ms
64 bytes from 10.064 bytes from 10.0.0.11: icmp_seq=16 tt
--- 10.0.0.7 ping statistics ---
16 packets transmitted, 16 received, 0% packet loss, time 76681ms
rtt min/avg/max/mdev = 0.428/0.748/2.023/0.354 ms
.604/1.734/0.306 ms
