PING 10.0.0.7 (10.0.0.7) 56(84) bytes of data.
64 bytes from 10.0.0.7: icmp_seq=1 ttl=64 time=0.592 ms
64 bytes from 10.0.0.6: icmp_seq=2 ttl=64 time=0.409 ms664 bytes from 10.0.0.6: icmp_seq=3 ttl=64 time=0.451 ms664 bytes from 10.0.0.6: icmp_seq=4 ttl=64 time=0.826 ms664 bytes from 10.0.0.6: icmp_seq=5 ttl=64 time=1.00 ms664 bytes from 10.0.0.6: icmp_seq=6 ttl=64 time=0.923 m6464 bytes from 10.0.0.6: icmp_seq=7 ttl=64 time=1.05 m6464 bytes f64 bytes from 10.0.0.11: icmp_seq=8 ttl=64 t6464 bytes from 10.0.0.6: icmp_seq=9 ttl=64 time=0.446 m6464 bytes from 10.0.0.6: icmp_seq=10 ttl=64 time=0.608 m6464 bytes from 10.0.0.6: icmp_seq=11 ttl=64 time=2.64 ms664 bytes from 164 bytes from 10.0.0.11: icmp_seq=12 ttl=664 bytes from 1064 bytes from 10.0.0.11: icmp_seq=13 ttl664 bytes from 10.0.0.6: icmp_seq=14 ttl=64 time=0.573 ms664 bytes from 10.064 bytes from 10.0.0.11: icmp_seq=15 t664 bytes from 10.0.0.6: icmp_seq=16 ttl=64 time=0.705 ms

--- 10.0.0.6 ping statistics ---
16 packets transmitted, 16 received, 0% packet loss, time 76640ms
rtt min/avg/max/mdev = 0.385/0.758/2.647/0.531 ms
0.623/1.635/0.305 ms
