PING 10.0.0.6 (10.0.0.6) 56(84) bytes of data.
64 bytes from 10.0.0.6: icmp_seq=1 ttl=64 time=39.7 ms
64 bytes from 10.0.0.6: icmp_seq=2 ttl=64 time=0.409 ms664 bytes from 10.0.0.6: icmp_seq=3 ttl=64 time=0.444 ms64 bytes from 10.0.0.7: icmp_seq=4 ttl=64 time=0.832 ms
64 bytes64 bytes from 10.0.0.11: icmp_seq=5 ttl=64 time=664 bytes from 10.0.0.6: icmp_seq=6 ttl=64 time=0.624 ms64 bytes from 10.0.0.7: icmp_seq=7 ttl=64 time=0.821 ms
64 bytes from 10.0.0.7: icmp_seq=8 ttl=64 time=1.01 ms
6464 bytes f64 bytes from 10.0.0.11: icmp_seq=9 ttl=64 t64 bytes from 10.0.0.7: icmp_seq=10 ttl=64 time=0.611 ms
64 bytes from 10.0.0.7: icmp_seq=11 ttl=64 time=0.670 ms
64 bytes from 164 bytes from 10.0.0.11: icmp_seq=12 ttl=66464 bytes from 10.0.0.6: icmp_seq=13 ttl=64 time=1.35 ms64 bytes from 10.0.0.7: icmp_seq=14 ttl=64 time=0.950 ms
664 bytes from 10.0.0.6: icmp_seq=15 ttl=64 time=0.458 ms64 bytes from 10.0.64 bytes from 10.0.0.11: icmp_seq=16 ttl=64 time=0.679 ms

--- 10.0.0.11 ping statistics ---
16 packets transmitted, 16 received, 0% packet loss, time 76668ms
rtt min/avg/max/mdev = 0.387/0.794/3.899/0.820 ms
