PING 10.0.0.6 (10.0.0.6) 56(84) bytes of data.
64 bytes from 10.0.0.6: icmp_seq=1 ttl=64 time=7.24 ms
64 bytes from 10.0.0.6: icmp_seq=2 ttl=64 time=0.591 ms
64 bytes from 10.0.0.7: icmp_seq=3 ttl=64 time=0.565 ms
64 bytes from 10.0.0.7: icmp_seq=4 ttl=64 time=0.599 ms
64 bytes from 10.0.0.7: icmp_seq=5 ttl=64 time=0.626 ms
64 bytes from 10.0.0.6: icmp_seq=6 ttl=64 time=0.870 ms
64 bytes from 10.0.0.7: icmp_seq=7 ttl=64 time=0.760 ms
64 bytes from 10.0.0.6: icmp_seq=8 ttl=64 time=1.69 ms
664 bytes from 10.0.0.7: icmp_seq=9 ttl=64 time=0.901 ms64 bytes from 10.0.0.6: icmp_seq=10 ttl=64 time=0.760 ms
664 bytes from64 bytes from 10.0.0.11: icmp_seq=11 ttl=6464 bytes from 10.0.0.6: icmp_seq=12 ttl=64 time=0.773 ms
664 bytes from 10.0.0.7: icmp_seq=13 ttl=64 time=2.52 ms
64 bytes from 10.0.0.6: icmp_seq=14 ttl=64 time=0.428 ms
64 bytes from 10.0.0.7: icmp_seq=15 ttl=64 time=0.693 ms
64 bytes from 10.0.0.7: icmp_seq=16 ttl=64 time=1.05 ms

--- 10.0.0.7 ping statistics ---
16 packets transmitted, 16 received, 0% packet loss, time 76654ms
rtt min/avg/max/mdev = 0.379/0.833/2.520/0.473 ms
710/1.494/0.322 ms
