PING 10.0.0.11 (10.0.0.11) 56(84) bytes of data.
64 bytes from 10.0.0.11: icmp_seq=1 ttl=64 time=0.532 64 64 bytes from 10.0.0.11: icmp_seq=2 ttl=64 time=0.42164 b64 bytes from 10.0.0.11: icmp_seq=3 ttl=64 time=0.7464 bytes from 10.0.0.7: icmp_seq=4 ttl=64 time=0.354 ms
64 bytes from 10.0.0.6: icmp_seq=5 ttl=64 time=1.53 ms
664 bytes from 10.0.0.7: icmp_seq=6 ttl=64 time=0.696 m6464 bytes from 10.0.0.7: icmp_seq=7 ttl=64 time=0.628 m6464 bytes from 10.0.0.7: icmp_seq=8 ttl=64 time=0.744 m6464 bytes from 10.0.0.7: icmp_seq=9 ttl=64 time=0.591 m6464 bytes fr64 bytes from 10.0.0.11: icmp_seq=10 ttl=6464 64 bytes fro64 bytes from 10.0.0.11: icmp_seq=11 ttl=64 b64 bytes from 10.0.0.7: icmp_seq=12 ttl=64 time=0.46264 b64 bytes from 10.0.0.7: icmp_seq=13 ttl=64 time=0.67164 b64 bytes from 10.0.0.7: icmp_seq=14 ttl=64 time=0.84864 b64 bytes from 10.0.0.7: icmp_seq=15 ttl=64 time=0.72164 b64 bytes from 10.64 bytes from 10.0.0.11: icmp_seq=16 ttl=64 time=1.05 ms

--- 10.0.0.11 ping statistics ---
16 packets transmitted, 16 received, 0% packet loss, time 76715ms
rtt min/avg/max/mdev = 0.384/0.617/1.053/0.173 ms
