PING 10.0.0.11 (10.0.0.11) 56(84) bytes of data.
64 bytes from 10.0.0.11: icmp_seq=1 ttl=64 time=0.590664 64 bytes from 10.0.0.11: icmp_seq=2 ttl=64 time=0.8664 by64 bytes from 10.0.0.11: icmp_seq=3 ttl=64 time=0.64 byte64 bytes from 10.0.0.11: icmp_seq=4 ttl=64 time=164 byte64 bytes from 10.0.0.11: icmp_seq=5 ttl=64 time=0664 byte64 bytes from 10.0.0.11: icmp_seq=6 ttl=64 time=64 bytes 64 bytes from 10.0.0.11: icmp_seq=7 ttl=64 time64 bytes f64 bytes from 10.0.0.11: icmp_seq=8 ttl=64 tim664 bytes f64 bytes from 10.0.0.11: icmp_seq=9 ttl=64 ti664 bytes f64 bytes from 10.0.0.11: icmp_seq=10 ttl=64 ti64 bytes fro64 bytes from 10.0.0.11: icmp_seq=11 ttl=64 6464 bytes fro64 bytes from 10.0.0.11: icmp_seq=12 ttl=664 64 bytes from64 bytes from 10.0.0.11: icmp_seq=13 ttl64 b64 bytes from 64 bytes from 10.0.0.11: icmp_seq=14 tt64 b64 bytes from 164 bytes from 10.0.0.11: icmp_seq=15 t64 b64 bytes from 1064 bytes from 10.0.0.11: icmp_seq=16 ttl=64 time=0.722 ms

--- 10.0.0.11 ping statistics ---
16 packets transmitted, 16 received, 0% packet loss, time 76793ms
rtt min/avg/max/mdev = 0.381/0.732/1.247/0.208 ms
