PING 10.0.0.6 (10.0.0.6) 56(84) bytes of data.
64 bytes from 10.0.0.6: icmp_seq=1 ttl=64 time=0.565 ms664 bytes from 10.0.0.6: icmp_seq=2 ttl=64 time=0.533 ms664 bytes from 10.0.0.6: icmp_seq=3 ttl=64 time=0.567 m6464 bytes from 10.0.0.6: icmp_seq=4 ttl=64 time=0.425 m6464 bytes from 10.0.0.6: icmp_seq=5 ttl=64 time=0.464 m6464 bytes from 10.0.0.6: icmp_seq=6 ttl=64 time=2.38 ms664 bytes from 10.0.0.6: icmp_seq=7 ttl=64 time=0.453 ms664 bytes from 10.0.0.6: icmp_seq=8 ttl=64 time=0.341 ms664 bytes from 10.0.0.6: icmp_seq=9 ttl=64 time=0.769 ms664 bytes from 10.0.0.6: icmp_seq=10 ttl=64 time=0.501 ms664 bytes from 10.0.0.6: icmp_seq=11 ttl=64 time=0.693 m6464 bytes from 10.0.0.6: icmp_seq=12 ttl=64 time=0.571 m6464 bytes from 10.0.0.6: icmp_seq=13 ttl=64 time=0.398 m6464 bytes from 10.0.0.6: icmp_seq=14 ttl=64 time=0.372 m6464 bytes from 10.0.0.6: icmp_seq=15 ttl=64 time=0.548 m6464 bytes from 10.0.0.6: icmp_seq=16 ttl=64 time=0.720 ms

--- 10.0.0.6 ping statistics ---
16 packets transmitted, 16 received, 0% packet loss, time 76841ms
rtt min/avg/max/mdev = 0.341/0.643/2.382/0.465 ms
24/1.502/0.320 ms
