PING 10.0.0.11 (10.0.0.11) 56(84) bytes of data.
64 bytes from 10.0.0.11: icmp_seq=1 ttl=64 time=0.960 64 64 bytes from 10.0.0.11: icmp_seq=2 ttl=64 time=1.51664 bytes from 10.0.0.6: icmp_seq=3 ttl=64 time=0.404 ms664 bytes from 10.0.0.6: icmp_seq=4 ttl=64 time=3.08 ms
64 byt64 bytes from 10.0.0.11: icmp_seq=5 ttl=64 time=0664 bytes from 10.0.0.6: icmp_seq=6 ttl=64 time=0.569 ms664 bytes from 10.0.0.6: icmp_seq=7 ttl=64 time=1.10 ms
64 bytes f64 bytes from 10.0.0.11: icmp_seq=8 ttl=64 tim64 bytes from 10.0.0.6: icmp_seq=9 ttl=64 time=0.616 ms
64 bytes from 10.0.0.6: icmp_seq=10 ttl=64 time=1.03 ms
64 bytes from64 bytes from 10.0.0.11: icmp_seq=11 ttl=64 64 bytes from 10.0.0.6: icmp_seq=12 ttl=64 time=0.484 ms
64 bytes from 10.0.0.6: icmp_seq=13 ttl=64 time=0.798 ms
64 bytes from 1064 bytes from 10.0.0.11: icmp_seq=14 ttl=64 bytes from 10.0.0.6: icmp_seq=15 ttl=64 time=0.618 ms
64 bytes from 10.64 bytes from 10.0.0.11: icmp_seq=16 ttl
--- 10.0.0.6 ping statistics ---
16 packets transmitted, 16 received, 0% packet loss, time 76698ms
rtt min/avg/max/mdev = 0.398/0.831/3.085/0.615 ms
933/2.859/0.604 ms
