PING 10.0.0.11 (10.0.0.11) 56(84) bytes of data.
64 bytes from 10.0.0.11: icmp_seq=1 ttl=64 time=0.671 64 64 bytes from 10.0.0.11: icmp_seq=2 ttl=64 time=0.82664 bytes from 10.0.0.7: icmp_seq=3 ttl=64 time=0.667 ms
64 bytes from 10.0.0.7: icmp_seq=4 ttl=64 time=0.604 ms
64 byt64 bytes from 10.0.0.11: icmp_seq=5 ttl=64 time=0.64 bytes from 10.0.0.6: icmp_seq=6 ttl=64 time=0.660 ms
64 bytes64 bytes from 10.0.0.11: icmp_seq=7 ttl=64 time=64 bytes from 10.0.0.7: icmp_seq=8 ttl=64 time=4.02 ms
664 bytes f64 bytes from 10.0.0.11: icmp_seq=9 ttl=64 ti64 bytes from 10.0.0.7: icmp_seq=10 ttl=64 time=0.719 ms
664 bytes fro64 bytes from 10.0.0.11: icmp_seq=11 ttl=64 64 bytes from 64 bytes from 10.0.0.11: icmp_seq=12 ttl=64664 bytes from 10.0.0.6: icmp_seq=13 ttl=64 time=0.480 ms64 bytes from 10.0.0.7: icmp_seq=14 ttl=64 time=0.736 ms
664 bytes from 1064 bytes from 10.0.0.11: icmp_seq=15 ttl64 bytes from 10.064 bytes from 10.0.0.11: icmp_seq=16 ttl=64 time=0.717 ms

--- 10.0.0.11 ping statistics ---
16 packets transmitted, 16 received, 0% packet loss, time 76735ms
rtt min/avg/max/mdev = 0.405/0.606/0.826/0.118 ms
