PING 10.0.0.11 (10.0.0.11) 56(84) bytes of data.
64 bytes from 10.0.0.11: icmp_seq=1 ttl=64 time=0.809 64 bytes from 10.0.0.6: icmp_seq=2 ttl=64 time=0.960 ms664 b64 bytes from 10.0.0.11: icmp_seq=3 ttl=64 time=0.4664 bytes from 10.0.0.6: icmp_seq=4 ttl=64 time=0.688 ms664 byt64 bytes from 10.0.0.11: icmp_seq=5 ttl=64 time=6464 bytes from 10.0.0.6: icmp_seq=6 ttl=64 time=0.566 64 64 bytes from 10.0.0.6: icmp_seq=7 ttl=64 time=0.396 64 64 bytes from 10.0.0.6: icmp_seq=8 ttl=64 time=0.438 64 64 bytes from 10.0.0.6: icmp_seq=9 ttl=64 time=4.41 m6464 bytes from 10.0.0.6: icmp_seq=10 ttl=64 time=1.27 ms664 bytes from 10.0.0.6: icmp_seq=11 ttl=64 time=0.428 ms664 bytes from 10.0.0.6: icmp_seq=12 ttl=64 time=0.627 ms664 bytes from 10.0.0.6: icmp_seq=13 ttl=64 time=0.569 ms664 bytes from 10.0.0.6: icmp_seq=14 ttl=64 time=0.678 m6464 bytes from 10.0.0.6: icmp_seq=15 ttl=64 time=0.554 64 64 bytes from 10.0.0.6: icmp_seq=16 ttl=64 time=0.921 ms

--- 10.0.0.6 ping statistics ---
16 packets transmitted, 16 received, 0% packet loss, time 76568ms
rtt min/avg/max/mdev = 0.396/0.899/4.416/0.934 ms
24/1.470/0.293 ms
