PING 10.0.0.7 (10.0.0.7) 56(84) bytes of data.
64 bytes from 10.0.0.7: icmp_seq=1 ttl=64 time=0.627 ms664 64 bytes from 10.0.0.11: icmp_seq=2 ttl=64 time=5.2564 bytes from 10.0.0.6: icmp_seq=3 ttl=64 time=1.17 ms
6464 bytes from 10.0.0.7: icmp_seq=4 ttl=64 time=0.430 m6464 bytes from 10.0.0.7: icmp_seq=5 ttl=64 time=0.509 m6464 bytes from 10.0.0.7: icmp_seq=6 ttl=64 time=0.301 64 64 bytes from 10.0.0.7: icmp_seq=7 ttl=64 time=0.584 64 64 bytes from 10.0.0.7: icmp_seq=8 ttl=64 time=1.17 m6464 bytes from 10.0.0.7: icmp_seq=9 ttl=64 time=0.525 m6464 bytes from 10.0.0.7: icmp_seq=10 ttl=64 time=0.566 m6464 bytes from 10.0.0.7: icmp_seq=11 ttl=64 time=0.624 m6464 bytes from 10.0.0.7: icmp_seq=12 ttl=64 time=0.556 m6464 bytes from 10.0.0.7: icmp_seq=13 ttl=64 time=0.423 m6464 bytes from 10.0.0.7: icmp_seq=14 ttl=64 time=0.792 m6464 bytes from 10.0.0.7: icmp_seq=15 ttl=64 time=0.667 m6464 bytes from 10.0.0.7: icmp_seq=16 ttl=64 time=0.661 ms

--- 10.0.0.7 ping statistics ---
16 packets transmitted, 16 received, 0% packet loss, time 76775ms
rtt min/avg/max/mdev = 0.301/0.616/1.178/0.197 ms
81/5.250/1.144 ms
