PING 10.0.0.11 (10.0.0.11) 56(84) bytes of data.
64 bytes from 10.0.0.11: icmp_seq=1 ttl=64 time=0.383 64 64 bytes from 10.0.0.11: icmp_seq=2 ttl=64 time=0.41664 bytes from 10.0.0.7: icmp_seq=3 ttl=64 time=0.614 ms
64 by64 bytes from 10.0.0.11: icmp_seq=4 ttl=64 time=2.164 bytes from 10.0.0.7: icmp_seq=5 ttl=64 time=0.641 ms
64 byt64 bytes from 10.0.0.11: icmp_seq=6 ttl=64 time=0.64 bytes from 10.0.0.7: icmp_seq=7 ttl=64 time=0.485 ms
64 bytes from 10.0.0.6: icmp_seq=8 ttl=64 time=5.08 ms
664 bytes from 10.0.0.7: icmp_seq=9 ttl=64 time=0.656 ms64 bytes from 10.0.0.6: icmp_seq=10 ttl=64 time=0.893 ms
664 bytes from 10.0.0.7: icmp_seq=11 ttl=64 time=0.675 ms64 bytes from64 bytes from 10.0.0.11: icmp_seq=12 ttl=64 64 bytes from 10.0.0.6: icmp_seq=13 ttl=64 time=0.659 ms
64 bytes from 10.0.0.6: icmp_seq=14 ttl=64 time=2.44 ms
6464 bytes from 10.0.0.7: icmp_seq=15 ttl=64 time=1.02 ms64 bytes from 10.064 bytes from 10.0.0.11: icmp_seq=16 tt
--- 10.0.0.6 ping statistics ---
16 packets transmitted, 16 received, 0% packet loss, time 76743ms
rtt min/avg/max/mdev = 0.407/0.987/5.084/1.157 ms
.671/2.154/0.405 ms
