PING 10.0.0.6 (10.0.0.6) 56(84) bytes of data.
64 bytes from 10.0.0.6: icmp_seq=1 ttl=64 time=6.63 ms
64 b64 bytes from 10.0.0.11: icmp_seq=2 ttl=64 time=6.6064 bytes from 10.0.0.6: icmp_seq=3 ttl=64 time=0.565 ms
64 bytes from 10.0.0.6: icmp_seq=4 ttl=64 time=2.56 ms
664 byt64 bytes from 10.0.0.11: icmp_seq=5 ttl=64 time=0664 bytes from 10.0.0.7: icmp_seq=6 ttl=64 time=0.894 ms664 bytes from 10.0.0.7: icmp_seq=7 ttl=64 time=0.984 ms64 bytes f64 bytes from 10.0.0.11: icmp_seq=8 ttl=64 tim64 bytes from 10.0.0.6: icmp_seq=9 ttl=64 time=0.461 ms
664 bytes from 10.0.0.7: icmp_seq=10 ttl=64 time=0.750 ms64 bytes from 10.0.0.6: icmp_seq=11 ttl=64 time=0.888 ms
664 bytes from 10.0.0.7: icmp_seq=12 ttl=64 time=1.04 ms
64 bytes from 10.0.0.6: icmp_seq=13 ttl=64 time=1.39 ms
664 bytes from 10.0.0.7: icmp_seq=14 ttl=64 time=1.12 ms
64 bytes from 10.0.0.6: icmp_seq=15 ttl=64 time=0.581 ms
64 bytes from 10.064 bytes from 10.0.0.11: icmp_seq=16 ttl=64 time=0.858 ms

--- 10.0.0.11 ping statistics ---
16 packets transmitted, 16 received, 0% packet loss, time 76694ms
rtt min/avg/max/mdev = 0.343/0.989/6.609/1.463 ms
