PING 10.0.0.11 (10.0.0.11) 56(84) bytes of data.
64 bytes from 10.0.0.11: icmp_seq=1 ttl=64 time=0.813664 64 bytes from 10.0.0.11: icmp_seq=2 ttl=64 time=4.4464 bytes from 10.0.0.6: icmp_seq=3 ttl=64 time=0.677 ms
64 bytes from 10.0.0.6: icmp_seq=4 ttl=64 time=0.636 ms
664 bytes from 10.0.0.7: icmp_seq=5 ttl=64 time=0.650 ms64 bytes from 10.0.0.6: icmp_seq=6 ttl=64 time=0.595 ms
664 bytes from 10.0.0.7: icmp_seq=7 ttl=64 time=0.622 ms664 bytes from 10.0.0.7: icmp_seq=8 ttl=64 time=0.667 ms64 bytes from 10.0.0.6: icmp_seq=9 ttl=64 time=0.613 ms
64 bytes from 10.0.0.6: icmp_seq=10 ttl=64 time=0.516 ms
64 bytes from 10.0.0.7: icmp_seq=11 ttl=64 time=0.680 ms
64 bytes from 10.0.0.7: icmp_seq=12 ttl=64 time=0.995 ms
64 bytes from 10.0.0.6: icmp_seq=13 ttl=64 time=1.01 ms
664 bytes from 10.0.0.7: icmp_seq=14 ttl=64 time=0.402 ms664 bytes from 10.0.0.7: icmp_seq=15 ttl=64 time=0.603 ms664 bytes from 10.0.0.7: icmp_seq=16 ttl=64 time=1.02 ms

--- 10.0.0.7 ping statistics ---
16 packets transmitted, 16 received, 0% packet loss, time 76594ms
rtt min/avg/max/mdev = 0.402/0.764/2.169/0.396 ms
6/4.443/1.142 ms
