PING 10.0.0.7 (10.0.0.7) 56(84) bytes of data.
64 bytes from 10.0.0.7: icmp_seq=1 ttl=64 time=0.483 ms
64 bytes from 10.0.0.6: icmp_seq=2 ttl=64 time=2.02 ms
64 bytes from 10.0.0.6: icmp_seq=3 ttl=64 time=0.456 ms
64 bytes from 10.0.0.6: icmp_seq=4 ttl=64 time=0.939 ms
64 bytes from 10.0.0.6: icmp_seq=5 ttl=64 time=0.471 ms664 bytes from 10.0.0.6: icmp_seq=6 ttl=64 time=0.626 ms664 bytes from 10.0.0.6: icmp_seq=7 ttl=64 time=1.31 ms
64 bytes from 10.0.0.7: icmp_seq=8 ttl=64 time=0.604 ms664 bytes from 10.0.0.7: icmp_seq=9 ttl=64 time=0.648 ms664 bytes from 10.0.0.7: icmp_seq=10 ttl=64 time=0.936 ms664 bytes from 10.0.0.7: icmp_seq=11 ttl=64 time=0.511 m6464 bytes from 10.0.0.7: icmp_seq=12 ttl=64 time=0.827 m6464 bytes from 10.0.0.7: icmp_seq=13 ttl=64 time=1.52 ms664 bytes from 10.0.0.7: icmp_seq=14 ttl=64 time=0.902 ms664 bytes from 10.0.0.7: icmp_seq=15 ttl=64 time=0.412 ms664 bytes from 10.0.0.7: icmp_seq=16 ttl=64 time=1.63 ms

--- 10.0.0.7 ping statistics ---
16 packets transmitted, 16 received, 0% packet loss, time 76623ms
rtt min/avg/max/mdev = 0.344/1.005/4.014/0.854 ms
885/1.850/0.421 ms
