"Dstat 0.7.2 CSV output"
"Author:","Dag Wieers <dag@wieers.com>",,,,"URL:","http://dag.wieers.com/home-made/dstat/"
"Host:","Middleware1",,,,"User:","mstevan"
"Cmdline:","dstat --output /home/mstevan/logs/experiment_3.4/dstat/vs_1024-vcpr_8-wtpm_8-rep_2.csv 5 16",,,,"Date:","28 Oct 2019 19:21:17 UTC"

"total cpu usage",,,,,,"dsk/total",,"net/total",,"paging",,"system",
"usr","sys","idl","wai","hiq","siq","read","writ","recv","send","in","out","int","csw"
2.141,4.393,92.712,0.042,0.0,0.712,6303.264,3608775.406,0.0,0.0,0.0,0.0,11990.008,34896.334
0.702,0.150,99.147,0.0,0.0,0.0,0.0,1638.400,158300.800,151962.800,0.0,0.0,244.400,815.400
5.096,4.753,89.807,0.0,0.0,0.343,0.0,819.200,14077015.600,14075143.600,0.0,0.0,11718.200,35094.800
4.201,4.042,91.387,0.0,0.0,0.370,0.0,1638.400,14010787.0,14007448.200,0.0,0.0,12968.800,35360.400
1.471,3.810,94.377,0.053,0.0,0.289,0.0,32768.0,13476294.400,13471957.200,0.0,0.0,12996.200,33867.200
1.830,4.026,93.935,0.0,0.0,0.209,0.0,9830.400,13308191.200,13305610.0,0.0,0.0,13277.600,33248.400
1.855,4.233,93.624,0.0,0.0,0.287,0.0,1638.400,14071779.0,14065951.0,0.0,0.0,13796.600,35318.400
1.590,4.406,93.405,0.0,0.0,0.600,0.0,12288.0,14263644.600,14260902.400,0.0,0.0,13580.800,36483.800
1.996,5.237,92.403,0.0,0.0,0.363,0.0,819.200,14650487.800,14648458.200,0.0,0.0,13254.600,37479.600
1.695,4.198,93.846,0.0,0.0,0.261,0.0,1638.400,13113682.800,13107446.0,0.0,0.0,12457.800,32997.800
1.701,4.343,93.564,0.052,0.0,0.340,0.0,18022.400,14159715.200,14155477.0,0.0,0.0,13797.0,35753.200
1.757,4.117,93.732,0.0,0.0,0.393,0.0,819.200,14354120.400,14353547.800,0.0,0.0,13650.0,36294.600
1.909,4.159,93.565,0.0,0.0,0.366,0.0,1638.400,14321861.0,14316707.400,0.0,0.0,13938.400,36124.200
1.984,4.464,93.239,0.0,0.0,0.313,0.0,5734.400,14723043.400,14720137.0,0.0,0.0,13691.400,37562.0
1.983,4.332,93.319,0.0,0.0,0.365,0.0,2457.600,14077478.0,14074089.600,0.0,0.0,13309.0,35532.200
1.702,4.059,93.977,0.0,0.0,0.262,0.0,1638.400,13859000.800,13854806.800,0.0,0.0,12894.600,35249.200
0.025,0.025,99.950,0.0,0.0,0.0,0.0,819.200,3488.200,1243.800,0.0,0.0,45.0,132.200
