"Dstat 0.7.2 CSV output"
"Author:","Dag Wieers <dag@wieers.com>",,,,"URL:","http://dag.wieers.com/home-made/dstat/"
"Host:","Middleware1",,,,"User:","mstevan"
"Cmdline:","dstat --output /home/mstevan/logs/experiment_3.4/dstat/vs_1024-vcpr_8-wtpm_8-rep_4.csv 5 16",,,,"Date:","28 Oct 2019 19:24:08 UTC"

"total cpu usage",,,,,,"dsk/total",,"net/total",,"paging",,"system",
"usr","sys","idl","wai","hiq","siq","read","writ","recv","send","in","out","int","csw"
2.141,4.390,92.716,0.042,0.0,0.711,6288.515,3600345.732,0.0,0.0,0.0,0.0,11988.230,34881.777
0.701,0.175,99.124,0.0,0.0,0.0,0.0,33587.200,166822.800,160717.200,0.0,0.0,250.800,869.600
5.316,4.789,89.526,0.0,0.0,0.368,0.0,819.200,13624509.0,13622720.600,0.0,0.0,11661.800,33826.600
3.083,4.348,92.227,0.0,0.0,0.343,0.0,1638.400,13638714.400,13633869.200,0.0,0.0,13008.800,34098.800
2.132,4.731,92.826,0.0,0.0,0.312,0.0,3276.800,14174682.600,14170203.400,0.0,0.0,13653.800,35325.800
1.789,3.735,94.161,0.0,0.0,0.316,0.0,819.200,13967736.800,13966854.0,0.0,0.0,14596.600,34614.0
1.622,3.871,94.193,0.0,0.0,0.314,0.0,4096.0,13550867.0,13546589.400,0.0,0.0,13661.0,34309.0
1.660,3.820,94.125,0.053,0.0,0.342,0.0,32768.0,14260044.600,14254149.600,0.0,0.0,14106.200,35890.800
1.883,4.498,93.227,0.0,0.0,0.392,0.0,819.200,14283489.600,14282506.400,0.0,0.0,13100.800,36225.400
1.594,4.154,93.913,0.0,0.0,0.340,0.0,1638.400,13894398.800,13890056.400,0.0,0.0,14140.800,35125.800
1.487,4.305,93.921,0.0,0.0,0.287,0.0,819.200,13984888.400,13981583.800,0.0,0.0,13766.400,35569.800
1.621,4.367,93.750,0.0,0.0,0.262,0.0,1638.400,13834549.800,13831177.200,0.0,0.0,13579.0,34813.0
1.481,4.571,93.636,0.0,0.0,0.312,0.0,1638.400,13108953.400,13103800.0,0.0,0.0,13514.200,32457.800
1.575,3.886,94.198,0.079,0.0,0.263,0.0,21299.200,14134986.400,14133429.800,0.0,0.0,14362.600,35556.400
1.757,4.169,93.865,0.0,0.0,0.210,0.0,3276.800,14141208.400,14136528.800,0.0,0.0,14500.800,35398.0
1.640,3.982,94.040,0.0,0.0,0.338,0.0,1638.400,13684975.600,13680956.0,0.0,0.0,13954.400,34788.0
0.025,0.0,99.975,0.0,0.0,0.0,0.0,819.200,3358.200,1178.600,0.0,0.0,41.0,128.0
