"Dstat 0.7.2 CSV output"
"Author:","Dag Wieers <dag@wieers.com>",,,,"URL:","http://dag.wieers.com/home-made/dstat/"
"Host:","Middleware1",,,,"User:","mstevan"
"Cmdline:","dstat --output /home/mstevan/logs/experiment_3.4/dstat/vs_1024-vcpr_8-wtpm_64-rep_1.csv 5 16",,,,"Date:","28 Oct 2019 19:31:15 UTC"

"total cpu usage",,,,,,"dsk/total",,"net/total",,"paging",,"system",
"usr","sys","idl","wai","hiq","siq","read","writ","recv","send","in","out","int","csw"
2.144,4.398,92.706,0.042,0.0,0.710,6251.936,3579441.866,0.0,0.0,0.0,0.0,12020.278,34982.458
0.778,0.201,98.997,0.0,0.0,0.025,0.0,33587.200,88538.0,87469.0,0.0,0.0,347.800,1018.400
7.665,7.966,82.863,0.0,0.0,1.506,0.0,2457.600,16015936.200,16020842.200,0.0,0.0,23572.600,64399.400
4.402,7.434,87.144,0.0,0.0,1.020,0.0,1638.400,17464738.0,17461669.800,0.0,0.0,26911.200,70690.600
3.156,7.533,88.462,0.0,0.0,0.849,0.0,1638.400,17112789.0,17114276.600,0.0,0.0,26489.400,69454.200
3.045,7.652,88.430,0.0,0.0,0.874,0.0,1638.400,17487769.200,17486222.400,0.0,0.0,27182.400,71072.0
3.060,7.517,88.403,0.0,0.0,1.020,0.0,4096.0,17775272.800,17771557.800,0.0,0.0,27567.0,72296.400
3.086,7.582,88.481,0.053,0.0,0.798,0.0,26214.400,17624108.0,17624799.400,0.0,0.0,27336.400,71488.400
3.253,7.867,87.840,0.0,0.0,1.040,0.0,9830.400,17585536.0,17582736.800,0.0,0.0,27270.800,71481.0
3.563,7.578,87.955,0.0,0.0,0.904,0.0,1638.400,17706766.600,17702742.0,0.0,0.0,27377.600,71865.0
3.246,7.564,88.197,0.0,0.0,0.992,0.0,819.200,17169496.400,17174084.400,0.0,0.0,26549.600,69823.0
3.056,7.614,88.472,0.0,0.0,0.858,0.0,1638.400,17547607.400,17545908.600,0.0,0.0,27175.800,71400.0
2.879,7.104,89.182,0.0,0.0,0.834,0.0,819.200,17826880.800,17826712.0,0.0,0.0,27481.200,72364.0
3.326,7.424,88.505,0.053,0.0,0.692,0.0,21299.200,17842077.200,17838575.200,0.0,0.0,27475.400,72502.400
3.152,8.120,87.847,0.0,0.0,0.881,0.0,3276.800,18175121.800,18170801.800,0.0,0.0,27911.600,73623.0
3.084,7.911,87.986,0.0,0.0,1.019,0.0,819.200,17516015.400,17518308.200,0.0,0.0,26934.600,71014.800
0.075,0.0,99.925,0.0,0.0,0.0,0.0,1638.400,6524.800,2131.600,0.0,0.0,51.0,153.200
