"Dstat 0.7.2 CSV output"
"Author:","Dag Wieers <dag@wieers.com>",,,,"URL:","http://dag.wieers.com/home-made/dstat/"
"Host:","Middleware1",,,,"User:","mstevan"
"Cmdline:","dstat --output /home/mstevan/logs/experiment_3.4/dstat/vs_1024-vcpr_4-wtpm_8-rep_4.csv 5 16",,,,"Date:","28 Oct 2019 19:07:04 UTC"

"total cpu usage",,,,,,"dsk/total",,"net/total",,"paging",,"system",
"usr","sys","idl","wai","hiq","siq","read","writ","recv","send","in","out","int","csw"
2.139,4.391,92.711,0.042,0.0,0.716,6378.065,3651518.296,0.0,0.0,0.0,0.0,11953.042,34791.151
0.576,0.150,99.249,0.0,0.0,0.025,0.0,819.200,91901.0,89120.200,0.0,0.0,242.400,751.800
6.886,4.945,87.796,0.0,0.0,0.372,0.0,1638.400,12507394.200,12503173.600,0.0,0.0,11234.200,47094.600
3.741,4.663,91.280,0.0,0.0,0.316,0.0,819.200,13255091.400,13253276.400,0.0,0.0,11821.400,49307.400
2.356,5.026,92.199,0.052,0.0,0.366,0.0,35225.600,13795160.600,13789999.400,0.0,0.0,12393.800,51631.800
2.273,5.094,92.268,0.0,0.0,0.366,0.0,1638.400,13851117.600,13847346.400,0.0,0.0,12506.600,52349.200
1.988,5.362,92.414,0.0,0.0,0.235,0.0,3276.800,13947041.200,13944347.400,0.0,0.0,12538.200,52848.400
1.942,5.013,92.782,0.0,0.0,0.262,0.0,9830.400,13700677.600,13696439.800,0.0,0.0,12320.600,51812.800
2.252,4.975,92.433,0.0,0.0,0.340,0.0,1638.400,14190285.800,14185981.0,0.0,0.0,12698.400,53575.200
1.937,5.079,92.775,0.0,0.0,0.209,0.0,819.200,13820773.800,13817935.400,0.0,0.0,12460.600,52309.800
1.885,5.105,92.618,0.052,0.0,0.340,0.0,31129.600,13873047.0,13868828.600,0.0,0.0,12402.800,52132.0
2.075,4.648,93.041,0.0,0.0,0.236,0.0,1638.400,13394145.400,13389831.600,0.0,0.0,11873.0,50063.400
1.882,5.123,92.734,0.0,0.0,0.261,0.0,819.200,13525579.600,13523257.800,0.0,0.0,12279.0,51452.600
2.114,5.377,92.300,0.0,0.0,0.209,0.0,5734.400,13952830.400,13948575.800,0.0,0.0,12388.400,52279.0
2.166,5.324,92.328,0.0,0.0,0.183,0.0,2457.600,13985340.200,13983058.600,0.0,0.0,12720.800,53018.400
2.208,5.196,92.310,0.0,0.0,0.286,0.0,1638.400,13502346.600,13498489.0,0.0,0.0,12179.200,51116.600
0.075,0.025,99.850,0.050,0.0,0.0,0.0,18841.600,6443.200,2019.200,0.0,0.0,43.400,147.400
