"Dstat 0.7.2 CSV output"
"Author:","Dag Wieers <dag@wieers.com>",,,,"URL:","http://dag.wieers.com/home-made/dstat/"
"Host:","Middleware1",,,,"User:","mstevan"
"Cmdline:","dstat --output /home/mstevan/logs/experiment_3.4/dstat/vs_1024-vcpr_8-wtpm_8-rep_1.csv 5 16",,,,"Date:","28 Oct 2019 19:19:52 UTC"

"total cpu usage",,,,,,"dsk/total",,"net/total",,"paging",,"system",
"usr","sys","idl","wai","hiq","siq","read","writ","recv","send","in","out","int","csw"
2.142,4.393,92.710,0.042,0.0,0.713,6310.668,3613006.152,0.0,0.0,0.0,0.0,11991.000,34902.642
0.627,0.150,99.173,0.0,0.0,0.050,0.0,1638.400,112105.600,106025.800,0.0,0.0,205.600,680.800
5.134,4.260,90.209,0.0,0.0,0.397,0.0,1638.400,13695609.800,13691889.0,0.0,0.0,10507.800,34141.400
6.064,5.062,88.373,0.053,0.0,0.448,0.0,31948.800,14174095.600,14172448.400,0.0,0.0,14293.600,35482.600
1.935,5.046,92.654,0.0,0.0,0.366,0.0,3276.800,14540905.600,14536550.600,0.0,0.0,14302.600,36897.200
1.931,4.567,93.137,0.0,0.0,0.365,0.0,819.200,14466936.200,14464671.600,0.0,0.0,14100.400,36327.800
1.704,4.299,93.735,0.0,0.0,0.262,0.0,4096.0,14794262.200,14788726.400,0.0,0.0,15074.400,37301.800
1.843,4.465,93.406,0.0,0.0,0.286,0.0,9830.400,14356360.400,14353173.0,0.0,0.0,14396.200,36255.400
1.730,4.037,93.945,0.0,0.0,0.288,0.0,819.200,14031432.200,14029067.0,0.0,0.0,13392.800,35686.600
1.788,5.003,92.820,0.052,0.0,0.337,0.0,29491.200,14339282.200,14334386.400,0.0,0.0,13988.200,35839.0
1.555,3.927,94.149,0.0,0.0,0.369,0.0,1638.400,13373031.400,13368888.200,0.0,0.0,13684.800,33114.800
1.561,4.021,94.021,0.0,0.0,0.397,0.0,819.200,14720056.0,14716701.200,0.0,0.0,13501.200,37346.200
1.765,4.293,93.732,0.0,0.0,0.211,0.0,1638.400,14447657.200,14444421.200,0.0,0.0,12701.800,37284.600
1.884,4.580,93.169,0.0,0.0,0.366,0.0,4915.200,14466214.800,14461802.800,0.0,0.0,12935.600,36618.200
1.525,4.311,93.954,0.0,0.0,0.210,0.0,3276.800,14098001.600,14095012.400,0.0,0.0,13604.400,35420.0
1.730,4.245,93.580,0.052,0.0,0.393,0.0,17203.200,13963087.600,13959517.400,0.0,0.0,13501.400,35356.0
0.050,0.0,99.950,0.0,0.0,0.0,0.0,819.200,3442.600,1321.0,0.0,0.0,40.600,135.800
