"Dstat 0.7.2 CSV output"
"Author:","Dag Wieers <dag@wieers.com>",,,,"URL:","http://dag.wieers.com/home-made/dstat/"
"Host:","Middleware1",,,,"User:","mstevan"
"Cmdline:","dstat --output /home/mstevan/logs/experiment_3.4/dstat/vs_1024-vcpr_32-wtpm_64-rep_2.csv 5 16",,,,"Date:","28 Oct 2019 20:06:48 UTC"

"total cpu usage",,,,,,"dsk/total",,"net/total",,"paging",,"system",
"usr","sys","idl","wai","hiq","siq","read","writ","recv","send","in","out","int","csw"
2.160,4.425,92.662,0.041,0.0,0.712,6075.247,3478469.769,0.0,0.0,0.0,0.0,12139.249,35263.149
0.701,0.200,98.998,0.0,0.0,0.100,0.0,1638.400,78701.600,75038.800,0.0,0.0,305.800,899.400
7.446,7.884,82.672,0.055,0.0,1.944,0.0,45056.0,20759208.400,20758282.600,0.0,0.0,15809.600,51607.800
2.943,6.330,89.529,0.0,0.0,1.198,0.0,819.200,21200952.0,21198721.200,0.0,0.0,16127.200,51685.800
3.736,6.243,88.976,0.0,0.0,1.045,0.0,3276.800,21157496.0,21153176.0,0.0,0.0,15730.600,51156.600
3.320,6.245,89.275,0.0,0.0,1.159,0.0,819.200,21360245.800,21357830.400,0.0,0.0,16159.600,52493.200
2.875,6.351,89.179,0.0,0.0,1.594,0.0,5734.400,21544793.400,21540331.0,0.0,0.0,17052.200,54342.200
3.084,5.463,90.303,0.0,0.0,1.150,0.0,9830.400,21301056.200,21296593.800,0.0,0.0,16327.800,52560.800
3.162,5.827,89.757,0.052,0.0,1.202,0.0,17203.200,21327055.200,21324824.0,0.0,0.0,16035.800,51917.200
2.573,5.797,90.382,0.0,0.0,1.248,0.0,1638.400,21337238.600,21332763.400,0.0,0.0,16431.0,52832.800
2.777,6.223,89.997,0.0,0.0,1.003,0.0,1638.400,21218470.400,21214008.0,0.0,0.0,16382.800,52748.600
2.819,5.743,90.081,0.0,0.0,1.357,0.0,819.200,21385010.0,21382778.200,0.0,0.0,16673.400,53678.600
2.711,5.865,89.990,0.0,0.0,1.434,0.0,1638.400,21322703.400,21318228.200,0.0,0.0,16449.200,53027.0
2.677,6.395,89.810,0.0,0.0,1.118,0.0,4915.200,21477282.200,21474664.800,0.0,0.0,16668.600,53770.600
2.679,5.982,90.039,0.052,0.0,1.248,0.0,22937.600,21381430.200,21377373.200,0.0,0.0,16389.0,52928.600
2.512,5.311,90.921,0.0,0.0,1.256,0.0,1638.400,21268166.400,21264509.400,0.0,0.0,16417.800,52907.600
0.527,0.426,98.746,0.0,0.0,0.301,0.0,819.200,741087.800,773414.600,0.0,0.0,1171.200,3368.800
