"Dstat 0.7.2 CSV output"
"Author:","Dag Wieers <dag@wieers.com>",,,,"URL:","http://dag.wieers.com/home-made/dstat/"
"Host:","Middleware1",,,,"User:","mstevan"
"Cmdline:","dstat --output /home/mstevan/logs/experiment_3.4/dstat/vs_1024-vcpr_8-wtpm_32-rep_3.csv 5 16",,,,"Date:","28 Oct 2019 19:28:24 UTC"

"total cpu usage",,,,,,"dsk/total",,"net/total",,"paging",,"system",
"usr","sys","idl","wai","hiq","siq","read","writ","recv","send","in","out","int","csw"
2.142,4.394,92.712,0.042,0.0,0.710,6266.515,3587773.971,0.0,0.0,0.0,0.0,12004.218,34928.684
0.653,0.302,98.970,0.0,0.0,0.075,0.0,1638.400,260780.800,254017.200,0.0,0.0,532.800,1545.800
8.079,7.833,82.860,0.0,0.0,1.228,0.0,819.200,16133711.800,16134453.800,0.0,0.0,20017.400,63858.600
4.076,7.589,87.450,0.0,0.0,0.885,0.0,1638.400,17128395.200,17122380.400,0.0,0.0,21293.600,68000.0
3.258,7.717,87.904,0.053,0.0,1.068,0.0,34406.400,17640737.0,17640388.200,0.0,0.0,22087.800,70370.0
3.411,7.434,88.329,0.0,0.0,0.826,0.0,9011.200,17688695.600,17682525.200,0.0,0.0,22155.400,70622.200
2.716,8.039,88.322,0.0,0.0,0.923,0.0,4096.0,17575805.400,17573175.600,0.0,0.0,22167.800,70210.200
2.963,7.703,88.473,0.0,0.0,0.862,0.0,9011.200,17644390.400,17641019.400,0.0,0.0,22399.200,70615.200
3.597,7.248,88.376,0.0,0.0,0.779,0.0,1638.400,17794437.200,17790289.0,0.0,0.0,22661.600,71011.200
3.102,7.701,88.369,0.0,0.0,0.829,0.0,1638.400,17565981.200,17561468.600,0.0,0.0,22421.600,70011.200
3.168,8.069,87.869,0.0,0.0,0.894,0.0,819.200,17642818.600,17641463.200,0.0,0.0,22539.200,70569.600
3.384,7.763,87.779,0.054,0.0,1.021,0.0,20480.0,17456901.0,17451110.600,0.0,0.0,22107.0,69698.400
3.101,8.153,87.811,0.0,0.0,0.936,0.0,1638.400,17625556.400,17621285.200,0.0,0.0,22635.0,70588.400
3.268,7.929,87.838,0.0,0.0,0.964,0.0,4915.200,17559206.400,17556800.800,0.0,0.0,22463.400,70344.800
3.810,7.754,87.796,0.0,0.0,0.639,0.0,3276.800,17391363.400,17386401.0,0.0,0.0,22084.800,69515.600
3.139,7.459,88.650,0.0,0.0,0.751,0.0,1638.400,16938099.600,16936470.0,0.0,0.0,21568.200,67472.600
0.025,0.025,99.950,0.0,0.0,0.0,0.0,819.200,3358.200,1152.200,0.0,0.0,33.0,127.800
