"Dstat 0.7.2 CSV output"
"Author:","Dag Wieers <dag@wieers.com>",,,,"URL:","http://dag.wieers.com/home-made/dstat/"
"Host:","Middleware1",,,,"User:","mstevan"
"Cmdline:","dstat --output /home/mstevan/logs/experiment_3.4/dstat/vs_1024-vcpr_16-wtpm_32-rep_4.csv 5 16",,,,"Date:","28 Oct 2019 19:46:54 UTC"

"total cpu usage",,,,,,"dsk/total",,"net/total",,"paging",,"system",
"usr","sys","idl","wai","hiq","siq","read","writ","recv","send","in","out","int","csw"
2.151,4.410,92.687,0.041,0.0,0.710,6172.942,3534299.519,0.0,0.0,0.0,0.0,12080.806,35120.582
0.651,0.226,99.098,0.0,0.0,0.025,0.0,1638.400,194059.800,189740.400,0.0,0.0,358.400,1108.400
8.740,9.529,79.729,0.0,0.0,2.002,0.0,819.200,20922842.600,20921031.800,0.0,0.0,19274.600,63720.800
5.980,9.551,82.641,0.055,0.0,1.772,0.0,34406.400,21094026.800,21088440.400,0.0,0.0,20313.800,65814.0
5.322,8.543,84.361,0.0,0.0,1.774,0.0,2457.600,21101132.200,21097793.200,0.0,0.0,20354.400,65780.600
4.242,8.430,85.620,0.0,0.0,1.708,0.0,819.200,20878271.200,20874899.600,0.0,0.0,19930.200,64326.0
4.255,8.537,85.854,0.0,0.0,1.355,0.0,1638.400,21131316.800,21128213.400,0.0,0.0,20367.400,65112.400
4.459,8.378,85.486,0.0,0.0,1.676,0.0,12288.0,21292755.600,21286639.400,0.0,0.0,21338.600,67616.800
3.831,8.986,85.502,0.0,0.0,1.681,0.0,1638.400,21513553.600,21511734.400,0.0,0.0,20913.0,66872.400
3.682,8.202,86.573,0.054,0.0,1.489,0.0,18022.400,21471154.600,21465093.600,0.0,0.0,21107.600,66824.800
3.455,8.079,87.271,0.0,0.0,1.196,0.0,7372.800,21632436.0,21632817.600,0.0,0.0,20917.600,66502.400
3.618,7.613,87.473,0.0,0.0,1.296,0.0,1638.400,21433427.600,21428925.200,0.0,0.0,21210.400,67097.800
3.177,8.607,86.886,0.0,0.0,1.330,0.0,1638.400,21397326.600,21389668.200,0.0,0.0,21405.400,67359.800
3.578,8.241,86.771,0.0,0.0,1.410,0.0,5734.400,21530039.200,21531089.800,0.0,0.0,20886.800,66529.0
3.393,8.026,87.530,0.0,0.0,1.050,0.0,2457.600,21494109.800,21489898.800,0.0,0.0,20942.600,66903.600
3.344,9.123,86.035,0.054,0.0,1.445,0.0,17203.200,21180711.600,21176899.600,0.0,0.0,20798.400,66120.200
0.025,0.0,99.975,0.0,0.0,0.0,0.0,819.200,3290.200,1138.200,0.0,0.0,42.0,122.400
