"Dstat 0.7.2 CSV output"
"Author:","Dag Wieers <dag@wieers.com>",,,,"URL:","http://dag.wieers.com/home-made/dstat/"
"Host:","Middleware1",,,,"User:","mstevan"
"Cmdline:","dstat --output /home/mstevan/logs/experiment_3.4/dstat/vs_1024-vcpr_32-wtpm_64-rep_1.csv 5 16",,,,"Date:","28 Oct 2019 20:05:23 UTC"

"total cpu usage",,,,,,"dsk/total",,"net/total",,"paging",,"system",
"usr","sys","idl","wai","hiq","siq","read","writ","recv","send","in","out","int","csw"
2.159,4.424,92.664,0.041,0.0,0.712,6082.118,3482396.200,0.0,0.0,0.0,0.0,12137.545,35253.497
0.855,0.377,98.541,0.025,0.0,0.201,0.0,34406.400,267491.200,264516.400,0.0,0.0,461.400,1398.800
7.782,7.809,82.511,0.0,0.0,1.898,0.0,2457.600,20961734.200,20958369.400,0.0,0.0,14312.400,49457.600
3.352,6.054,89.867,0.0,0.0,0.727,0.0,819.200,21193907.200,21190377.800,0.0,0.0,14919.0,49598.800
3.458,7.049,88.068,0.0,0.0,1.426,0.0,1638.400,22259586.800,22255839.600,0.0,0.0,17030.800,54184.200
3.561,7.070,88.277,0.0,0.0,1.092,0.0,1638.400,22064449.600,22062971.800,0.0,0.0,16900.600,54355.800
3.297,6.410,89.142,0.0,0.0,1.151,0.0,5734.400,21665534.200,21660535.400,0.0,0.0,16544.0,53253.0
3.305,5.881,89.487,0.052,0.0,1.275,0.0,32768.0,21508390.0,21505662.400,0.0,0.0,16495.200,52757.400
2.903,5.624,90.296,0.0,0.0,1.177,0.0,819.200,21490407.200,21479733.800,0.0,0.0,16650.800,53386.0
2.977,5.563,90.572,0.0,0.0,0.888,0.0,1638.400,21461580.0,21465894.400,0.0,0.0,15839.600,51591.600
2.933,5.971,89.749,0.0,0.0,1.347,0.0,1638.400,21933353.200,21924009.200,0.0,0.0,17537.0,55034.400
2.888,5.777,90.190,0.0,0.0,1.145,0.0,819.200,21639036.800,21640395.600,0.0,0.0,16842.800,53434.800
2.494,5.924,90.595,0.0,0.0,0.987,0.0,1638.400,21508980.800,21500754.400,0.0,0.0,17090.200,53693.800
2.456,6.282,90.150,0.052,0.0,1.060,0.0,21299.200,21452754.600,21450298.400,0.0,0.0,16726.0,53177.400
2.187,5.676,91.096,0.0,0.0,1.041,0.0,2457.600,21576833.600,21573263.200,0.0,0.0,16808.0,53479.600
2.781,5.587,90.644,0.0,0.0,0.988,0.0,1638.400,21209871.0,21208853.600,0.0,0.0,16619.200,52932.400
0.904,0.703,98.192,0.0,0.0,0.201,0.0,1638.400,1239488.800,1250181.200,0.0,0.0,1920.200,5132.0
