"Dstat 0.7.2 CSV output"
"Author:","Dag Wieers <dag@wieers.com>",,,,"URL:","http://dag.wieers.com/home-made/dstat/"
"Host:","Middleware1",,,,"User:","mstevan"
"Cmdline:","dstat --output /home/mstevan/logs/experiment_3.4/dstat/vs_1024-vcpr_32-wtpm_32-rep_3.csv 5 16",,,,"Date:","28 Oct 2019 20:02:32 UTC"

"total cpu usage",,,,,,"dsk/total",,"net/total",,"paging",,"system",
"usr","sys","idl","wai","hiq","siq","read","writ","recv","send","in","out","int","csw"
2.159,4.425,92.664,0.041,0.0,0.712,6095.920,3490283.514,0.0,0.0,0.0,0.0,12137.220,35252.186
0.601,0.225,99.123,0.0,0.0,0.050,0.0,1638.400,204052.400,197029.800,0.0,0.0,334.0,1061.400
7.073,6.179,85.447,0.0,0.0,1.301,0.0,1638.400,21674856.600,21667679.600,0.0,0.0,12661.800,43348.400
2.383,5.620,91.220,0.0,0.0,0.777,0.0,819.200,22165704.600,22164388.600,0.0,0.0,14817.400,44226.400
3.548,5.020,90.644,0.053,0.0,0.736,0.0,35225.600,21628733.400,21627717.600,0.0,0.0,14901.600,43329.200
2.937,5.270,90.902,0.0,0.0,0.891,0.0,9011.200,21624155.600,21619311.600,0.0,0.0,14846.600,43271.400
2.918,5.159,90.933,0.0,0.0,0.990,0.0,4915.200,21587807.800,21586034.400,0.0,0.0,15033.800,43135.800
2.316,5.159,91.814,0.0,0.0,0.711,0.0,9830.400,21484715.400,21480183.200,0.0,0.0,14537.200,42575.600
2.465,5.244,91.479,0.0,0.0,0.813,0.0,819.200,21616086.200,21613713.0,0.0,0.0,14691.200,42296.0
2.195,5.095,91.978,0.0,0.0,0.732,0.0,1638.400,21589699.200,21582961.400,0.0,0.0,14532.800,42225.0
1.817,4.976,92.470,0.053,0.0,0.685,0.0,18841.600,21362885.600,21360248.800,0.0,0.0,15045.600,42712.400
1.843,4.633,92.682,0.0,0.0,0.842,0.0,819.200,21388169.600,21385746.800,0.0,0.0,14876.200,42838.200
2.434,5.438,91.403,0.0,0.0,0.725,0.0,1638.400,21389326.200,21383656.800,0.0,0.0,15038.0,43028.400
1.974,4.342,93.079,0.0,0.0,0.605,0.0,5734.400,21262731.200,21260225.800,0.0,0.0,14801.800,42639.800
2.148,4.690,92.455,0.0,0.0,0.707,0.0,2457.600,21313647.600,21310791.0,0.0,0.0,14535.400,42281.800
1.993,4.694,92.526,0.0,0.0,0.787,0.0,1638.400,21061723.0,21057794.200,0.0,0.0,14704.600,42093.400
0.780,0.503,98.566,0.075,0.0,0.075,0.0,19660.800,968618.0,966558.0,0.0,0.0,1601.200,4190.0
