"Dstat 0.7.2 CSV output"
"Author:","Dag Wieers <dag@wieers.com>",,,,"URL:","http://dag.wieers.com/home-made/dstat/"
"Host:","Middleware1",,,,"User:","mstevan"
"Cmdline:","dstat --output /home/mstevan/logs/experiment_3.4/dstat/vs_1024-vcpr_4-wtpm_64-rep_4.csv 5 16",,,,"Date:","28 Oct 2019 19:18:27 UTC"

"total cpu usage",,,,,,"dsk/total",,"net/total",,"paging",,"system",
"usr","sys","idl","wai","hiq","siq","read","writ","recv","send","in","out","int","csw"
2.141,4.393,92.711,0.042,0.0,0.713,6318.085,3617244.414,0.0,0.0,0.0,0.0,11984.876,34888.951
0.777,0.251,98.947,0.0,0.0,0.025,0.0,1638.400,108407.200,106214.800,0.0,0.0,385.0,1127.800
6.916,5.864,86.195,0.053,0.0,0.973,0.0,34406.400,12000206.0,12032796.400,0.0,0.0,18548.400,50881.800
4.446,5.962,88.964,0.0,0.0,0.628,0.0,819.200,13258587.800,13265965.800,0.0,0.0,20968.0,56333.800
3.146,6.084,90.198,0.0,0.0,0.572,0.0,2457.600,13520665.400,13523937.0,0.0,0.0,21461.600,57818.400
2.660,5.842,90.897,0.0,0.0,0.600,0.0,819.200,13505995.400,13512350.800,0.0,0.0,21412.600,57820.600
2.659,6.505,90.243,0.0,0.0,0.594,0.0,4096.0,13341928.0,13344315.800,0.0,0.0,21171.400,57134.400
2.758,5.619,90.947,0.0,0.0,0.676,0.0,9830.400,13521232.800,13525601.0,0.0,0.0,21398.0,57838.400
2.898,5.977,90.479,0.052,0.0,0.595,0.0,23756.800,13410582.800,13421844.800,0.0,0.0,21237.200,57436.600
2.780,5.950,90.777,0.0,0.0,0.494,0.0,1638.400,13711964.200,13716348.200,0.0,0.0,21666.600,58572.600
2.661,6.150,90.594,0.0,0.0,0.594,0.0,1638.400,13096201.0,13103506.800,0.0,0.0,20685.200,56011.0
2.466,5.815,91.173,0.0,0.0,0.545,0.0,819.200,13335893.200,13348279.400,0.0,0.0,20997.400,56835.400
2.284,6.073,90.942,0.0,0.0,0.701,0.0,1638.400,13632432.0,13637066.0,0.0,0.0,21440.600,57983.200
2.391,5.977,91.164,0.0,0.0,0.468,0.0,5734.400,13290827.200,13297239.400,0.0,0.0,20907.800,56552.400
2.364,5.948,91.143,0.052,0.0,0.494,0.0,21299.200,13517226.600,13527047.600,0.0,0.0,21238.400,57590.200
2.259,6.008,91.117,0.0,0.0,0.616,0.0,1638.400,12659748.400,12677820.0,0.0,0.0,19898.800,54034.800
0.025,0.025,99.950,0.0,0.0,0.0,0.0,819.200,3290.200,1138.200,0.0,0.0,40.400,129.400
