"Dstat 0.7.2 CSV output"
"Author:","Dag Wieers <dag@wieers.com>",,,,"URL:","http://dag.wieers.com/home-made/dstat/"
"Host:","Middleware1",,,,"User:","mstevan"
"Cmdline:","dstat --output /home/mstevan/logs/experiment_3.4/dstat/vs_1024-vcpr_32-wtpm_32-rep_2.csv 5 16",,,,"Date:","28 Oct 2019 20:01:07 UTC"

"total cpu usage",,,,,,"dsk/total",,"net/total",,"paging",,"system",
"usr","sys","idl","wai","hiq","siq","read","writ","recv","send","in","out","int","csw"
2.159,4.425,92.663,0.041,0.0,0.712,6102.842,3494239.571,0.0,0.0,0.0,0.0,12137.195,35251.695
0.726,0.200,99.024,0.0,0.0,0.050,0.0,1638.400,178517.800,172178.0,0.0,0.0,343.800,1011.800
7.934,6.201,84.592,0.0,0.0,1.273,0.0,2457.600,21087696.800,21084149.400,0.0,0.0,12263.800,41857.800
2.584,4.693,91.853,0.053,0.0,0.817,0.0,32768.0,21733953.600,21729676.200,0.0,0.0,14981.600,43502.200
2.787,4.942,91.456,0.0,0.0,0.815,0.0,2457.600,21724326.0,21722551.800,0.0,0.0,14987.600,43289.800
3.235,5.427,90.425,0.0,0.0,0.913,0.0,1638.400,21875690.600,21870242.800,0.0,0.0,15014.200,43763.0
2.899,5.276,90.938,0.0,0.0,0.888,0.0,4915.200,21583469.0,21582182.400,0.0,0.0,14894.0,43420.200
2.682,5.598,90.940,0.0,0.0,0.781,0.0,9830.400,21801273.200,21794179.800,0.0,0.0,15006.200,43756.600
2.482,4.990,91.641,0.0,0.0,0.888,0.0,1638.400,21748140.600,21745261.600,0.0,0.0,14773.400,43559.0
1.880,5.222,92.063,0.026,0.0,0.809,0.0,17203.200,21622538.600,21617998.400,0.0,0.0,15064.0,43184.600
1.935,5.098,92.157,0.0,0.0,0.810,0.0,8192.0,21813047.0,21811296.600,0.0,0.0,15076.600,43999.0
2.137,5.082,92.103,0.0,0.0,0.678,0.0,819.200,21718380.600,21717356.400,0.0,0.0,14843.400,43618.400
1.945,4.416,92.876,0.0,0.0,0.762,0.0,1638.400,21599787.600,21590736.0,0.0,0.0,15116.600,43644.0
1.987,5.021,92.312,0.0,0.0,0.680,0.0,5734.400,21579713.600,21579282.400,0.0,0.0,15087.0,43624.600
2.026,5.299,92.0,0.0,0.0,0.675,0.0,2457.600,21654044.0,21651350.800,0.0,0.0,15049.600,43408.600
1.988,5.050,92.255,0.052,0.0,0.654,0.0,17203.200,21316294.200,21313368.400,0.0,0.0,14918.800,43070.200
0.050,0.025,99.925,0.0,0.0,0.0,0.0,1638.400,6375.200,1992.0,0.0,0.0,40.0,136.800
