"Dstat 0.7.2 CSV output"
"Author:","Dag Wieers <dag@wieers.com>",,,,"URL:","http://dag.wieers.com/home-made/dstat/"
"Host:","Middleware1",,,,"User:","mstevan"
"Cmdline:","dstat --output /home/mstevan/logs/experiment_3.4/dstat/vs_256-vcpr_32-wtpm_8-rep_3.csv 5 16",,,,"Date:","28 Oct 2019 17:40:01 UTC"

"total cpu usage",,,,,,"dsk/total",,"net/total",,"paging",,"system",
"usr","sys","idl","wai","hiq","siq","read","writ","recv","send","in","out","int","csw"
2.083,4.283,92.883,0.043,0.0,0.708,4675.494,3933007.048,0.0,0.0,0.0,0.0,11585.071,33695.520
0.376,0.201,99.423,0.0,0.0,0.0,0.0,1638.400,27146.400,20474.400,0.0,0.0,159.600,456.600
5.008,4.346,90.143,0.026,0.0,0.477,0.0,41779.200,5146220.800,5141795.0,0.0,0.0,13342.800,34018.200
2.728,4.250,92.760,0.0,0.0,0.262,0.0,1638.400,5209935.0,5207938.0,0.0,0.0,14878.0,34576.200
1.804,3.870,94.142,0.0,0.0,0.183,0.0,3276.800,5097154.0,5092232.0,0.0,0.0,14586.0,33969.400
1.498,3.601,94.639,0.0,0.0,0.263,0.0,819.200,5221875.200,5220278.800,0.0,0.0,14900.600,34735.800
2.388,3.990,93.202,0.0,0.0,0.420,0.0,5734.400,5212698.800,5207640.200,0.0,0.0,14888.200,34810.600
1.623,3.797,94.213,0.0,0.0,0.367,0.0,9830.400,4998808.600,4994414.800,0.0,0.0,14201.600,33430.800
1.498,3.889,94.193,0.026,0.0,0.394,0.0,17203.200,5034370.400,5032666.800,0.0,0.0,14362.200,33631.200
1.751,4.600,93.335,0.0,0.0,0.314,0.0,1638.400,5167947.200,5164347.800,0.0,0.0,14805.800,34312.800
1.826,4.435,93.373,0.0,0.0,0.365,0.0,1638.400,5132791.400,5128875.200,0.0,0.0,14697.600,34142.400
1.721,4.301,93.743,0.0,0.0,0.235,0.0,819.200,5132925.200,5130744.200,0.0,0.0,14820.400,34160.600
1.805,4.108,93.616,0.0,0.0,0.471,0.0,1638.400,5044317.600,5039129.600,0.0,0.0,14446.200,33344.800
1.367,3.602,94.794,0.0,0.0,0.237,0.0,819.200,4620851.400,4618566.0,0.0,0.0,13282.0,30728.400
1.711,3.976,93.918,0.053,0.0,0.342,0.0,27033.600,5141820.800,5137980.600,0.0,0.0,14730.400,33997.600
1.506,3.487,94.742,0.0,0.0,0.264,0.0,11468.800,5094426.400,5090490.0,0.0,0.0,14389.800,33790.400
2.554,1.138,91.100,5.158,0.0,0.051,5052825.600,67174.400,73715.400,2920.400,0.0,0.0,245.400,671.800
