"Dstat 0.7.2 CSV output"
"Author:","Dag Wieers <dag@wieers.com>",,,,"URL:","http://dag.wieers.com/home-made/dstat/"
"Host:","Middleware1",,,,"User:","mstevan"
"Cmdline:","dstat --output /home/mstevan/logs/experiment_3.4/dstat/vs_256-vcpr_16-wtpm_64-rep_4.csv 5 16",,,,"Date:","28 Oct 2019 17:35:45 UTC"

"total cpu usage",,,,,,"dsk/total",,"net/total",,"paging",,"system",
"usr","sys","idl","wai","hiq","siq","read","writ","recv","send","in","out","int","csw"
2.081,4.280,92.887,0.043,0.0,0.708,4693.508,3948135.165,0.0,0.0,0.0,0.0,11568.485,33667.328
0.904,0.502,98.519,0.0,0.0,0.075,0.0,1638.400,122068.800,119934.200,0.0,0.0,568.800,1657.800
10.123,10.984,76.427,0.0,0.0,2.466,0.0,1638.400,7581230.400,7581362.200,0.0,0.0,25885.600,75102.0
6.284,10.662,80.950,0.0,0.0,2.104,0.0,819.200,7789547.800,7789599.800,0.0,0.0,27809.800,78784.400
5.494,10.160,82.330,0.055,0.0,1.960,0.0,42598.400,8125312.800,8122399.600,0.0,0.0,29211.200,82154.600
4.890,10.652,82.293,0.0,0.0,2.164,0.0,1638.400,8037588.400,8033352.600,0.0,0.0,28824.600,81325.200
4.568,10.669,83.064,0.0,0.0,1.699,0.0,4096.0,8089000.400,8088731.800,0.0,0.0,29456.800,82455.400
4.169,10.895,82.546,0.0,0.0,2.390,0.0,9830.400,8207289.200,8203298.800,0.0,0.0,29816.400,83509.800
3.807,10.124,84.083,0.0,0.0,1.986,0.0,819.200,8157428.600,8155972.0,0.0,0.0,29993.600,83688.0
3.926,10.628,83.595,0.0,0.0,1.851,0.0,1638.400,8168407.200,8163874.200,0.0,0.0,30190.0,84057.800
3.834,10.281,84.218,0.056,0.0,1.612,0.0,18841.600,8123468.0,8119283.0,0.0,0.0,29826.200,83385.400
3.786,9.800,84.660,0.0,0.0,1.754,0.0,819.200,8125634.0,8124449.0,0.0,0.0,29534.0,82800.200
3.925,10.078,84.187,0.0,0.0,1.810,0.0,1638.400,8180272.0,8176665.0,0.0,0.0,30082.600,84027.600
3.960,10.468,83.910,0.0,0.0,1.662,0.0,1638.400,8098573.800,8094024.200,0.0,0.0,29735.0,83066.400
3.682,10.188,84.579,0.0,0.0,1.550,0.0,5734.400,8228911.800,8228758.800,0.0,0.0,29796.0,83756.800
3.731,10.282,84.328,0.0,0.0,1.658,0.0,2457.600,8082887.0,8081093.200,0.0,0.0,29632.0,82787.400
0.050,0.025,99.850,0.075,0.0,0.0,0.0,17203.200,6388.400,1992.0,0.0,0.0,48.400,140.600
