"Dstat 0.7.2 CSV output"
"Author:","Dag Wieers <dag@wieers.com>",,,,"URL:","http://dag.wieers.com/home-made/dstat/"
"Host:","Middleware1",,,,"User:","mstevan"
"Cmdline:","dstat --output /home/mstevan/logs/experiment_3.4/dstat/vs_256-vcpr_32-wtpm_64-rep_1.csv 5 16",,,,"Date:","28 Oct 2019 17:48:33 UTC"

"total cpu usage",,,,,,"dsk/total",,"net/total",,"paging",,"system",
"usr","sys","idl","wai","hiq","siq","read","writ","recv","send","in","out","int","csw"
2.090,4.292,92.863,0.045,0.0,0.710,6825.185,3907019.706,0.0,0.0,0.0,0.0,11611.083,33768.359
0.829,0.402,98.668,0.0,0.0,0.101,0.0,819.200,73036.0,72049.800,0.0,0.0,423.600,1220.0
9.073,12.240,75.720,0.0,0.0,2.967,0.0,1638.400,9324754.600,9323251.400,0.0,0.0,23862.600,73298.400
4.735,10.944,81.741,0.113,0.0,2.467,0.0,36044.800,9967297.600,9961707.200,0.0,0.0,27169.0,80410.800
5.540,11.916,79.602,0.0,0.0,2.943,0.0,2457.600,9712816.600,9710934.400,0.0,0.0,24891.400,75404.800
6.126,12.734,78.219,0.0,0.0,2.921,0.0,1638.400,9566282.200,9563283.600,0.0,0.0,25087.800,75674.0
5.675,12.210,79.249,0.0,0.0,2.866,0.0,5734.400,9741975.800,9739649.800,0.0,0.0,25683.0,77063.400
4.946,11.778,80.732,0.0,0.0,2.544,0.0,9830.400,9586234.800,9580747.600,0.0,0.0,25441.400,76464.400
5.692,11.665,80.248,0.0,0.0,2.395,0.0,1638.400,9786244.400,9783597.400,0.0,0.0,26044.800,77847.0
4.180,10.407,83.282,0.0,0.0,2.132,0.0,819.200,9952901.400,9951018.800,0.0,0.0,27238.800,80682.600
4.252,10.825,82.685,0.056,0.0,2.182,0.0,27852.800,9712091.400,9708089.600,0.0,0.0,27119.200,79977.800
4.418,11.633,81.963,0.0,0.0,1.985,0.0,1638.400,9879669.600,9874825.600,0.0,0.0,27330.800,80959.400
4.454,11.092,81.905,0.0,0.0,2.549,0.0,819.200,9821921.600,9819317.800,0.0,0.0,27370.600,80799.800
4.531,10.853,82.545,0.0,0.0,2.070,0.0,1638.400,9881525.600,9877870.600,0.0,0.0,27823.800,81878.400
4.433,11.532,81.622,0.0,0.0,2.413,0.0,6553.600,9792221.0,9789768.400,0.0,0.0,26884.200,79852.400
4.041,11.099,82.591,0.0,0.0,2.270,0.0,1638.400,9847736.800,9842045.0,0.0,0.0,27031.0,80139.400
0.782,0.731,98.336,0.050,0.0,0.101,0.0,18841.600,708416.0,709048.800,0.0,0.0,2799.200,7456.400
