"Dstat 0.7.2 CSV output"
"Author:","Dag Wieers <dag@wieers.com>",,,,"URL:","http://dag.wieers.com/home-made/dstat/"
"Host:","Middleware1",,,,"User:","mstevan"
"Cmdline:","dstat --output /home/mstevan/logs/experiment_3.4/dstat/vs_256-vcpr_32-wtpm_8-rep_2.csv 5 16",,,,"Date:","28 Oct 2019 17:38:36 UTC"

"total cpu usage",,,,,,"dsk/total",,"net/total",,"paging",,"system",
"usr","sys","idl","wai","hiq","siq","read","writ","recv","send","in","out","int","csw"
2.083,4.284,92.881,0.043,0.0,0.709,4681.482,3938035.467,0.0,0.0,0.0,0.0,11584.610,33703.105
0.577,0.226,99.197,0.0,0.0,0.0,0.0,33587.200,73706.0,66706.400,0.0,0.0,265.200,890.600
4.816,4.184,90.632,0.0,0.0,0.368,0.0,1638.400,4859025.0,4855095.200,0.0,0.0,12529.800,32036.400
2.449,3.960,93.226,0.0,0.0,0.365,0.0,819.200,4722271.200,4720052.800,0.0,0.0,13719.600,31609.800
1.835,4.038,93.760,0.0,0.0,0.367,0.0,3276.800,4927052.600,4922590.600,0.0,0.0,14081.200,32829.600
2.201,4.376,93.056,0.0,0.0,0.367,0.0,819.200,5207581.600,5205047.200,0.0,0.0,14904.800,34456.200
2.731,4.175,92.700,0.0,0.0,0.394,0.0,5734.400,5046574.400,5041883.400,0.0,0.0,14613.0,33740.400
2.238,4.711,92.504,0.052,0.0,0.495,0.0,31948.800,5043987.400,5040142.600,0.0,0.0,14597.600,33587.0
1.553,4.080,94.156,0.0,0.0,0.211,0.0,819.200,5119156.600,5116974.0,0.0,0.0,14801.400,34049.400
1.802,4.335,93.366,0.0,0.0,0.496,0.0,1638.400,5130845.800,5126322.800,0.0,0.0,14921.200,34202.200
1.915,4.381,93.389,0.0,0.0,0.315,0.0,1638.400,5235704.400,5231296.400,0.0,0.0,14979.800,34734.400
1.861,4.324,93.449,0.0,0.0,0.367,0.0,819.200,5286737.400,5284520.400,0.0,0.0,15151.200,35017.800
1.707,4.018,93.986,0.0,0.0,0.289,0.0,1638.400,5129699.800,5124572.600,0.0,0.0,14819.0,34133.600
1.806,4.161,93.562,0.131,0.0,0.340,0.0,21299.200,5123284.600,5119294.400,0.0,0.0,14810.200,34120.200
1.971,4.929,92.711,0.0,0.0,0.389,0.0,2457.600,5226393.200,5224276.400,0.0,0.0,14945.400,34585.400
1.553,3.737,94.474,0.0,0.0,0.237,0.0,1638.400,5010522.800,5006587.200,0.0,0.0,14539.800,33472.800
0.025,0.0,99.975,0.0,0.0,0.0,0.0,819.200,5047.800,2023.400,0.0,0.0,42.0,133.800
