"Dstat 0.7.2 CSV output"
"Author:","Dag Wieers <dag@wieers.com>",,,,"URL:","http://dag.wieers.com/home-made/dstat/"
"Host:","Middleware1",,,,"User:","mstevan"
"Cmdline:","dstat --output /home/mstevan/logs/experiment_3.4/dstat/vs_256-vcpr_4-wtpm_8-rep_3.csv 5 16",,,,"Date:","28 Oct 2019 16:48:48 UTC"

"total cpu usage",,,,,,"dsk/total",,"net/total",,"paging",,"system",
"usr","sys","idl","wai","hiq","siq","read","writ","recv","send","in","out","int","csw"
2.057,4.235,92.951,0.044,0.0,0.712,4901.299,4122631.665,0.0,0.0,0.0,0.0,11336.268,33031.404
0.576,0.200,99.224,0.0,0.0,0.0,0.0,1638.400,39044.0,34209.400,0.0,0.0,243.800,746.200
6.034,5.157,88.384,0.053,0.0,0.372,0.0,31948.800,4693391.400,4691674.600,0.0,0.0,12286.400,49539.400
3.163,5.386,91.190,0.0,0.0,0.261,0.0,1638.400,4983083.800,4978487.0,0.0,0.0,12533.400,52161.600
2.195,5.174,92.344,0.0,0.0,0.287,0.0,3276.800,4903813.400,4899430.200,0.0,0.0,12205.400,50996.600
2.564,5.465,91.764,0.0,0.0,0.207,0.0,819.200,4971066.600,4968923.200,0.0,0.0,12484.400,52115.0
2.235,5.275,92.178,0.0,0.0,0.312,0.0,4096.0,4977173.200,4972656.400,0.0,0.0,12595.600,52186.800
2.077,5.427,92.210,0.0,0.0,0.286,0.0,9830.400,5013194.400,5008681.600,0.0,0.0,12709.200,52566.200
1.964,5.003,92.719,0.0,0.0,0.314,0.0,819.200,5050621.800,5048586.800,0.0,0.0,12722.600,52995.600
1.882,5.306,92.525,0.078,0.0,0.209,0.0,19660.800,5027624.0,5022831.0,0.0,0.0,12731.800,52926.0
1.935,4.707,93.070,0.0,0.0,0.288,0.0,8192.0,4905874.600,4903767.0,0.0,0.0,12316.600,51402.800
2.289,5.046,92.432,0.0,0.0,0.234,0.0,2457.600,4832871.600,4828467.800,0.0,0.0,12098.600,50453.600
2.187,5.467,92.085,0.0,0.0,0.260,0.0,1638.400,5074383.600,5069913.600,0.0,0.0,12811.0,53336.0
2.286,5.196,92.336,0.0,0.0,0.182,0.0,819.200,4871656.400,4869333.200,0.0,0.0,12265.800,51050.0
2.189,5.472,92.157,0.0,0.0,0.182,0.0,6553.600,4922082.200,4917853.400,0.0,0.0,12538.400,51869.200
2.080,5.408,92.226,0.052,0.0,0.234,0.0,18841.600,5005557.600,5001320.800,0.0,0.0,12600.800,52663.800
0.025,0.025,99.950,0.0,0.0,0.0,0.0,819.200,3277.0,1125.0,0.0,0.0,37.200,114.200
