"Dstat 0.7.2 CSV output"
"Author:","Dag Wieers <dag@wieers.com>",,,,"URL:","http://dag.wieers.com/home-made/dstat/"
"Host:","Middleware1",,,,"User:","mstevan"
"Cmdline:","dstat --output /home/mstevan/logs/experiment_3.4/dstat/vs_256-vcpr_32-wtpm_32-rep_3.csv 5 16",,,,"Date:","28 Oct 2019 17:45:42 UTC"

"total cpu usage",,,,,,"dsk/total",,"net/total",,"paging",,"system",
"usr","sys","idl","wai","hiq","siq","read","writ","recv","send","in","out","int","csw"
2.087,4.286,92.873,0.045,0.0,0.708,6842.565,3916950.469,0.0,0.0,0.0,0.0,11598.447,33725.067
0.678,0.176,99.046,0.050,0.0,0.050,0.0,34406.400,99736.200,96826.200,0.0,0.0,382.800,1190.0
9.096,8.619,80.152,0.0,0.0,2.134,0.0,1638.400,9027634.400,9022625.400,0.0,0.0,17034.200,54969.200
3.772,8.567,86.288,0.0,0.0,1.374,0.0,2457.600,9731866.0,9727985.400,0.0,0.0,20192.600,61306.400
5.347,8.655,84.261,0.0,0.0,1.736,0.0,1638.400,9665535.400,9663198.800,0.0,0.0,19202.200,59380.400
4.394,8.354,85.625,0.0,0.0,1.627,0.0,1638.400,9742011.600,9736457.600,0.0,0.0,19652.600,60534.200
3.350,8.155,86.875,0.0,0.0,1.620,0.0,1638.400,9694158.600,9690786.600,0.0,0.0,19985.800,61688.400
3.452,7.801,87.198,0.054,0.0,1.495,0.0,30310.400,9867551.600,9866101.400,0.0,0.0,20551.0,62017.400
3.686,8.564,86.179,0.0,0.0,1.572,0.0,9011.200,9699011.0,9693781.0,0.0,0.0,20270.400,61296.400
3.358,8.828,86.515,0.0,0.0,1.300,0.0,819.200,9708741.400,9705125.0,0.0,0.0,20186.0,61394.200
3.218,8.086,87.349,0.0,0.0,1.348,0.0,1638.400,9588856.400,9585925.400,0.0,0.0,19938.0,60263.800
3.648,8.365,86.369,0.0,0.0,1.618,0.0,1638.400,9716593.200,9711845.600,0.0,0.0,20404.800,61413.200
3.912,8.497,86.161,0.0,0.0,1.430,0.0,819.200,9737516.600,9734741.400,0.0,0.0,19854.400,60309.200
3.432,9.081,86.0,0.054,0.0,1.432,0.0,22118.400,9798289.0,9794115.200,0.0,0.0,19939.800,60683.600
3.542,8.883,86.213,0.0,0.0,1.362,0.0,3276.800,9734278.0,9729148.200,0.0,0.0,20236.400,61383.600
3.639,7.898,87.412,0.0,0.0,1.051,0.0,819.200,9664280.200,9662363.0,0.0,0.0,20574.200,62103.800
0.980,1.081,97.813,0.0,0.0,0.126,0.0,1638.400,711652.800,707804.800,0.0,0.0,2976.600,8015.200
