"Dstat 0.7.2 CSV output"
"Author:","Dag Wieers <dag@wieers.com>",,,,"URL:","http://dag.wieers.com/home-made/dstat/"
"Host:","Middleware1",,,,"User:","mstevan"
"Cmdline:","dstat --output /home/mstevan/logs/experiment_3.4/dstat/vs_256-vcpr_8-wtpm_64-rep_3.csv 5 16",,,,"Date:","28 Oct 2019 17:17:15 UTC"

"total cpu usage",,,,,,"dsk/total",,"net/total",,"paging",,"system",
"usr","sys","idl","wai","hiq","siq","read","writ","recv","send","in","out","int","csw"
2.066,4.248,92.938,0.043,0.0,0.705,4773.229,4015082.724,0.0,0.0,0.0,0.0,11451.189,33355.342
0.901,0.350,98.698,0.0,0.0,0.050,0.0,819.200,52389.200,52315.200,0.0,0.0,435.600,1200.200
8.342,7.492,82.739,0.0,0.0,1.427,0.0,1638.400,5776281.400,5783037.400,0.0,0.0,22630.0,63402.200
4.736,7.757,86.473,0.0,0.0,1.034,0.0,1638.400,6252726.200,6256135.800,0.0,0.0,25380.600,69183.0
2.980,7.597,88.564,0.0,0.0,0.859,0.0,4096.0,6444874.0,6447875.600,0.0,0.0,26249.400,71549.200
2.913,7.322,88.910,0.080,0.0,0.775,0.0,31948.800,6352349.600,6354315.400,0.0,0.0,26037.400,70853.400
2.953,7.356,88.966,0.0,0.0,0.725,0.0,3276.800,6286874.200,6290368.200,0.0,0.0,25658.800,69902.0
2.966,7.349,88.616,0.0,0.0,1.069,0.0,9830.400,6365790.600,6367655.600,0.0,0.0,25899.600,70815.200
3.244,7.426,88.284,0.0,0.0,1.046,0.0,1638.400,6426689.800,6425976.600,0.0,0.0,26207.600,71527.800
3.124,7.625,88.351,0.0,0.0,0.900,0.0,819.200,6437465.200,6437234.400,0.0,0.0,26275.600,71643.600
2.615,7.547,88.976,0.0,0.0,0.863,0.0,1638.400,6223299.200,6223823.600,0.0,0.0,25304.600,69185.400
3.162,6.994,88.960,0.054,0.0,0.831,0.0,16384.0,6211865.800,6215247.800,0.0,0.0,25249.0,69099.400
2.905,7.649,88.699,0.0,0.0,0.746,0.0,7372.800,6344233.200,6344950.400,0.0,0.0,25775.0,70408.200
2.921,7.317,89.065,0.0,0.0,0.697,0.0,5734.400,6302653.200,6304370.600,0.0,0.0,25627.800,70020.0
3.007,7.830,88.215,0.0,0.0,0.948,0.0,2457.600,6374890.800,6376622.800,0.0,0.0,25843.0,70793.400
2.870,7.600,88.626,0.0,0.0,0.904,0.0,1638.400,6235682.600,6238718.0,0.0,0.0,25333.400,69289.600
0.075,0.0,99.925,0.0,0.0,0.0,0.0,1638.400,6469.600,2045.600,0.0,0.0,45.400,130.0
