"Dstat 0.7.2 CSV output"
"Author:","Dag Wieers <dag@wieers.com>",,,,"URL:","http://dag.wieers.com/home-made/dstat/"
"Host:","Middleware1",,,,"User:","mstevan"
"Cmdline:","dstat --output /home/mstevan/logs/experiment_3.4/dstat/vs_512-vcpr_4-wtpm_32-rep_4.csv 5 16",,,,"Date:","28 Oct 2019 18:04:20 UTC"

"total cpu usage",,,,,,"dsk/total",,"net/total",,"paging",,"system",
"usr","sys","idl","wai","hiq","siq","read","writ","recv","send","in","out","int","csw"
2.102,4.316,92.826,0.044,0.0,0.712,6730.313,3852806.266,0.0,0.0,0.0,0.0,11669.252,34009.595
0.526,0.150,99.299,0.0,0.0,0.025,0.0,819.200,53942.0,52394.400,0.0,0.0,261.600,787.600
6.349,5.423,87.884,0.0,0.0,0.344,0.0,1638.400,7054703.800,7051720.200,0.0,0.0,17194.600,51668.800
4.715,5.835,88.903,0.026,0.0,0.521,0.0,32768.0,7282603.800,7278135.800,0.0,0.0,19192.600,53626.0
2.509,5.802,91.349,0.0,0.0,0.340,0.0,2457.600,8068081.200,8065193.800,0.0,0.0,20867.0,59062.800
2.598,5.924,91.089,0.0,0.0,0.390,0.0,1638.400,7817107.0,7813522.800,0.0,0.0,20139.200,57227.200
2.303,5.705,91.808,0.0,0.0,0.183,0.0,3276.800,7777152.0,7774977.200,0.0,0.0,20213.800,57025.0
2.434,5.339,91.861,0.0,0.0,0.366,0.0,9830.400,7755705.400,7751550.0,0.0,0.0,20143.200,56933.800
2.650,5.638,91.193,0.0,0.0,0.520,0.0,1638.400,7719818.400,7714907.800,0.0,0.0,20004.200,56603.800
2.281,5.165,92.239,0.0,0.0,0.315,0.0,819.200,7646358.400,7644898.400,0.0,0.0,19746.200,56074.200
2.523,5.827,91.181,0.104,0.0,0.364,0.0,26214.400,7862401.600,7857328.400,0.0,0.0,20301.400,57542.200
2.334,5.498,91.753,0.0,0.0,0.415,0.0,1638.400,7384892.800,7381327.800,0.0,0.0,19029.200,54241.600
2.111,5.786,91.790,0.0,0.0,0.313,0.0,819.200,7645051.600,7643646.200,0.0,0.0,19728.200,56064.400
2.323,6.028,91.284,0.0,0.0,0.365,0.0,1638.400,7978144.200,7973193.200,0.0,0.0,20654.0,58629.600
2.360,5.219,92.106,0.0,0.0,0.315,0.0,6553.600,7718136.0,7715280.200,0.0,0.0,19896.200,56631.200
1.997,5.465,92.170,0.0,0.0,0.368,0.0,1638.400,7889242.600,7888905.200,0.0,0.0,20338.400,58012.800
0.050,0.050,99.850,0.050,0.0,0.0,0.0,19660.800,6375.200,1965.600,0.0,0.0,38.200,130.400
