"Dstat 0.7.2 CSV output"
"Author:","Dag Wieers <dag@wieers.com>",,,,"URL:","http://dag.wieers.com/home-made/dstat/"
"Host:","Middleware1",,,,"User:","mstevan"
"Cmdline:","dstat --output /home/mstevan/logs/experiment_3.4/dstat/vs_512-vcpr_4-wtpm_8-rep_1.csv 5 16",,,,"Date:","28 Oct 2019 17:54:23 UTC"

"total cpu usage",,,,,,"dsk/total",,"net/total",,"paging",,"system",
"usr","sys","idl","wai","hiq","siq","read","writ","recv","send","in","out","int","csw"
2.100,4.316,92.823,0.045,0.0,0.716,6789.832,3886817.287,0.0,0.0,0.0,0.0,11662.668,33923.586
0.650,0.100,99.250,0.0,0.0,0.0,0.0,33587.200,50397.600,47824.0,0.0,0.0,222.800,690.400
5.824,5.053,88.697,0.0,0.0,0.426,0.0,3276.800,7364428.0,7360449.600,0.0,0.0,11269.600,48523.200
3.865,4.910,90.833,0.0,0.0,0.392,0.0,1638.400,7325594.800,7320878.800,0.0,0.0,10745.400,47774.0
2.242,4.979,92.466,0.0,0.0,0.313,0.0,819.200,7808862.200,7806681.400,0.0,0.0,11542.400,51437.600
2.163,5.367,91.975,0.0,0.0,0.495,0.0,5734.400,8068297.800,8063121.800,0.0,0.0,12047.0,53360.800
2.478,5.244,91.834,0.0,0.0,0.444,0.0,1638.400,8060211.0,8056579.400,0.0,0.0,11967.800,53231.400
2.348,5.166,92.199,0.052,0.0,0.235,0.0,35225.600,8006222.0,8003207.400,0.0,0.0,11887.200,52927.400
2.324,5.248,92.115,0.0,0.0,0.313,0.0,1638.400,8136567.600,8132855.0,0.0,0.0,12095.200,53696.200
2.166,4.697,92.824,0.0,0.0,0.313,0.0,1638.400,7769243.0,7764708.800,0.0,0.0,11623.0,51542.800
2.066,4.761,92.937,0.0,0.0,0.235,0.0,819.200,7834006.800,7831847.600,0.0,0.0,11672.200,51796.600
2.419,5.306,91.990,0.0,0.0,0.286,0.0,1638.400,7974088.400,7969537.200,0.0,0.0,11870.200,52758.400
2.315,4.995,92.430,0.0,0.0,0.260,0.0,819.200,7658386.800,7656400.200,0.0,0.0,11302.800,50463.800
2.036,5.116,92.430,0.052,0.0,0.365,0.0,22937.600,8103722.400,8098998.800,0.0,0.0,11986.800,53707.800
2.300,4.940,92.499,0.0,0.0,0.261,0.0,3276.800,7981873.200,7977360.200,0.0,0.0,11895.800,52859.800
1.834,4.716,93.241,0.0,0.0,0.210,0.0,819.200,7709696.600,7708010.200,0.0,0.0,11384.200,50887.800
0.075,0.025,99.900,0.0,0.0,0.0,0.0,1638.400,6375.200,2005.200,0.0,0.0,46.0,133.800
