"Dstat 0.7.2 CSV output"
"Author:","Dag Wieers <dag@wieers.com>",,,,"URL:","http://dag.wieers.com/home-made/dstat/"
"Host:","Middleware1",,,,"User:","mstevan"
"Cmdline:","dstat --output /home/mstevan/logs/experiment_3.4/dstat/vs_512-vcpr_16-wtpm_32-rep_3.csv 5 16",,,,"Date:","28 Oct 2019 18:37:03 UTC"

"total cpu usage",,,,,,"dsk/total",,"net/total",,"paging",,"system",
"usr","sys","idl","wai","hiq","siq","read","writ","recv","send","in","out","int","csw"
2.113,4.336,92.799,0.043,0.0,0.708,6541.879,3745128.923,0.0,0.0,0.0,0.0,11807.359,34337.549
0.678,0.226,99.046,0.0,0.0,0.050,0.0,1638.400,121053.200,115344.800,0.0,0.0,384.800,1144.200
9.750,10.761,77.325,0.0,0.0,2.164,0.0,1638.400,12861412.200,12859382.800,0.0,0.0,21913.800,70393.400
4.873,9.914,83.849,0.028,0.0,1.337,0.0,32768.0,13517478.400,13514655.400,0.0,0.0,24603.0,76859.200
3.907,9.753,85.037,0.0,0.0,1.302,0.0,2457.600,13685516.0,13681302.400,0.0,0.0,25017.0,77927.600
4.072,9.229,85.179,0.0,0.0,1.520,0.0,819.200,13574872.400,13571701.200,0.0,0.0,24651.600,77347.800
3.953,9.504,85.188,0.0,0.0,1.354,0.0,4915.200,13595288.0,13589019.600,0.0,0.0,25065.800,77895.0
3.929,9.441,84.829,0.0,0.0,1.801,0.0,9830.400,13847780.200,13844578.400,0.0,0.0,25299.0,79262.400
3.672,9.553,85.367,0.0,0.0,1.408,0.0,819.200,13697870.0,13697138.600,0.0,0.0,24770.0,77486.400
3.545,9.266,85.627,0.084,0.0,1.479,0.0,26214.400,13616729.0,13610047.400,0.0,0.0,24782.0,77508.800
3.868,10.324,84.146,0.0,0.0,1.662,0.0,819.200,13606651.200,13605637.200,0.0,0.0,24616.0,77264.800
3.432,9.017,86.216,0.0,0.0,1.335,0.0,1638.400,13430504.0,13426214.0,0.0,0.0,24460.800,76777.0
3.318,9.410,86.076,0.0,0.0,1.197,0.0,1638.400,13524639.0,13520370.400,0.0,0.0,25199.600,78137.800
3.570,8.776,86.427,0.0,0.0,1.226,0.0,4915.200,13749656.400,13747247.800,0.0,0.0,24931.0,78307.200
3.191,9.436,86.229,0.0,0.0,1.145,0.0,3276.800,13788811.400,13783898.600,0.0,0.0,25310.200,78828.400
3.476,8.192,87.200,0.027,0.0,1.105,0.0,17203.200,13390854.0,13387941.800,0.0,0.0,24674.200,76566.800
0.025,0.025,99.950,0.0,0.0,0.0,0.0,819.200,3361.400,1280.600,0.0,0.0,41.0,122.0
