"Dstat 0.7.2 CSV output"
"Author:","Dag Wieers <dag@wieers.com>",,,,"URL:","http://dag.wieers.com/home-made/dstat/"
"Host:","Middleware1",,,,"User:","mstevan"
"Cmdline:","dstat --output /home/mstevan/logs/experiment_3.4/dstat/vs_512-vcpr_16-wtpm_64-rep_4.csv 5 16",,,,"Date:","28 Oct 2019 18:44:10 UTC"

"total cpu usage",,,,,,"dsk/total",,"net/total",,"paging",,"system",
"usr","sys","idl","wai","hiq","siq","read","writ","recv","send","in","out","int","csw"
2.123,4.358,92.765,0.043,0.0,0.711,6502.306,3722516.418,0.0,0.0,0.0,0.0,11872.963,34532.909
0.651,0.251,99.073,0.0,0.0,0.025,0.0,819.200,39903.200,37791.400,0.0,0.0,295.600,876.0
9.754,11.548,76.208,0.0,0.0,2.489,0.0,1638.400,11954889.600,11957411.800,0.0,0.0,25384.0,75785.400
5.876,11.052,81.281,0.028,0.0,1.763,0.0,31948.800,12906016.0,12903276.400,0.0,0.0,28606.0,83106.600
4.838,11.186,81.823,0.0,0.0,2.153,0.0,2457.600,12896239.200,12892937.400,0.0,0.0,28508.600,83031.600
5.313,11.345,81.710,0.0,0.0,1.633,0.0,2457.600,12864304.400,12858097.600,0.0,0.0,28445.600,82775.800
5.130,10.733,82.074,0.0,0.0,2.063,0.0,819.200,12976155.800,12977052.400,0.0,0.0,29112.600,83670.0
4.359,10.506,83.403,0.0,0.0,1.732,0.0,13107.200,13066238.0,13061913.600,0.0,0.0,29410.400,84294.0
4.159,10.507,83.449,0.0,0.0,1.885,0.0,1638.400,13082361.400,13078271.400,0.0,0.0,30189.0,84876.0
3.495,10.402,84.327,0.055,0.0,1.720,0.0,17203.200,13446886.400,13444774.800,0.0,0.0,31511.400,87495.400
4.120,9.725,84.361,0.0,0.0,1.794,0.0,9011.200,13130338.200,13126570.400,0.0,0.0,30429.800,84727.800
4.066,10.069,84.481,0.0,0.0,1.383,0.0,1638.400,13044174.200,13040671.0,0.0,0.0,30596.800,84892.600
3.743,10.447,84.022,0.0,0.0,1.788,0.0,819.200,13075691.600,13072601.600,0.0,0.0,30486.0,84663.400
4.185,10.518,83.783,0.0,0.0,1.514,0.0,6553.600,13405164.600,13403051.800,0.0,0.0,31134.400,87205.400
3.759,10.254,84.301,0.0,0.0,1.686,0.0,1638.400,12966675.400,12965017.0,0.0,0.0,30589.0,84526.600
4.050,9.182,85.381,0.055,0.0,1.331,0.0,16384.0,12890146.0,12887518.400,0.0,0.0,30470.600,83951.600
0.050,0.0,99.950,0.0,0.0,0.0,0.0,1638.400,7304.400,2570.0,0.0,0.0,50.400,144.0
