"Dstat 0.7.2 CSV output"
"Author:","Dag Wieers <dag@wieers.com>",,,,"URL:","http://dag.wieers.com/home-made/dstat/"
"Host:","Middleware1",,,,"User:","mstevan"
"Cmdline:","dstat --output /home/mstevan/logs/experiment_3.4/dstat/vs_512-vcpr_16-wtpm_8-rep_2.csv 5 16",,,,"Date:","28 Oct 2019 18:29:56 UTC"

"total cpu usage",,,,,,"dsk/total",,"net/total",,"paging",,"system",
"usr","sys","idl","wai","hiq","siq","read","writ","recv","send","in","out","int","csw"
2.110,4.332,92.807,0.044,0.0,0.708,6581.945,3768024.157,0.0,0.0,0.0,0.0,11787.378,34292.394
0.552,0.226,99.172,0.0,0.0,0.050,0.0,1638.400,58900.400,52777.600,0.0,0.0,191.800,624.800
4.729,3.959,90.701,0.106,0.0,0.505,0.0,32768.0,7889050.600,7885232.200,0.0,0.0,13124.0,33425.200
4.036,4.300,91.111,0.0,0.0,0.554,0.0,9011.200,8275948.600,8273786.0,0.0,0.0,15300.200,35526.400
3.633,4.371,91.627,0.0,0.0,0.369,0.0,3276.800,8026189.200,8021817.800,0.0,0.0,14804.200,34348.800
2.614,4.156,92.917,0.0,0.0,0.314,0.0,819.200,8283622.800,8281291.600,0.0,0.0,15272.400,35554.600
2.109,4.296,93.283,0.0,0.0,0.312,0.0,4915.200,8156011.600,8151337.400,0.0,0.0,15111.400,35093.800
1.544,4.397,93.614,0.0,0.0,0.445,0.0,9830.400,8328548.200,8324442.800,0.0,0.0,15386.600,35456.0
1.705,4.249,93.758,0.0,0.0,0.288,0.0,819.200,8257779.600,8255536.400,0.0,0.0,15420.400,35430.800
1.319,4.088,94.146,0.079,0.0,0.369,0.0,18841.600,8089918.200,8084890.200,0.0,0.0,14866.400,34364.200
1.527,3.818,94.286,0.0,0.0,0.369,0.0,1638.400,7954626.400,7950504.400,0.0,0.0,14703.0,33851.0
1.603,3.784,94.428,0.0,0.0,0.184,0.0,819.200,7727333.600,7725228.800,0.0,0.0,14317.400,32914.600
1.655,3.940,94.142,0.0,0.0,0.263,0.0,1638.400,8057440.200,8052962.400,0.0,0.0,14942.600,34291.200
1.830,4.471,93.438,0.0,0.0,0.261,0.0,5734.400,8315120.400,8310616.400,0.0,0.0,15304.0,35452.200
1.805,4.264,93.618,0.0,0.0,0.314,0.0,819.200,8035440.200,8032437.800,0.0,0.0,14766.0,33993.0
1.682,3.942,93.982,0.079,0.0,0.315,0.0,20480.0,8094070.400,8090733.600,0.0,0.0,14957.600,34500.600
0.025,0.050,99.925,0.0,0.0,0.0,0.0,819.200,5082.800,1545.600,0.0,0.0,38.600,122.600
