"Dstat 0.7.2 CSV output"
"Author:","Dag Wieers <dag@wieers.com>",,,,"URL:","http://dag.wieers.com/home-made/dstat/"
"Host:","Middleware1",,,,"User:","mstevan"
"Cmdline:","dstat --output /home/mstevan/logs/experiment_3.4/dstat/vs_512-vcpr_16-wtpm_32-rep_1.csv 5 16",,,,"Date:","28 Oct 2019 18:34:13 UTC"

"total cpu usage",,,,,,"dsk/total",,"net/total",,"paging",,"system",
"usr","sys","idl","wai","hiq","siq","read","writ","recv","send","in","out","int","csw"
2.109,4.328,92.813,0.043,0.0,0.706,6557.844,3754253.719,0.0,0.0,0.0,0.0,11788.822,34271.305
0.777,0.351,98.847,0.0,0.0,0.025,0.0,1638.400,110752.0,104780.800,0.0,0.0,366.400,1099.800
9.869,10.439,77.553,0.0,0.0,2.139,0.0,819.200,12315254.800,12314607.800,0.0,0.0,20654.600,67673.200
5.872,10.576,81.442,0.0,0.0,2.109,0.0,1638.400,12987701.200,12982987.200,0.0,0.0,22409.200,71987.400
5.557,10.413,82.094,0.0,0.0,1.937,0.0,3276.800,13368436.400,13363635.800,0.0,0.0,22837.400,73870.400
5.306,10.244,82.378,0.0,0.0,2.072,0.0,819.200,12944317.200,12942989.400,0.0,0.0,22204.200,72624.600
5.537,10.267,82.109,0.028,0.0,2.059,0.0,33587.200,13222471.600,13217644.800,0.0,0.0,22899.400,74328.400
4.568,9.471,84.095,0.0,0.0,1.866,0.0,9830.400,13560604.0,13555873.600,0.0,0.0,23577.200,75675.0
4.294,9.872,84.244,0.0,0.0,1.590,0.0,819.200,13298315.600,13294974.200,0.0,0.0,23646.400,75429.600
3.718,9.129,85.710,0.0,0.0,1.443,0.0,1638.400,13520913.400,13517385.800,0.0,0.0,24707.400,76402.200
3.243,9.183,86.322,0.0,0.0,1.253,0.0,1638.400,13701047.600,13697802.400,0.0,0.0,25170.200,77767.600
3.846,8.974,85.843,0.0,0.0,1.337,0.0,819.200,13557620.0,13553378.800,0.0,0.0,25158.200,77217.200
3.886,9.223,85.249,0.082,0.0,1.560,0.0,18841.600,13747418.400,13744199.600,0.0,0.0,24972.800,77250.200
3.385,9.267,85.849,0.0,0.0,1.498,0.0,4915.200,13475086.0,13473501.200,0.0,0.0,24729.800,76258.400
4.067,9.599,84.870,0.0,0.0,1.464,0.0,3276.800,13605149.400,13598934.600,0.0,0.0,25275.0,77782.0
3.496,9.287,85.742,0.0,0.0,1.475,0.0,1638.400,13355256.200,13353282.0,0.0,0.0,24764.400,76291.200
0.025,0.025,99.950,0.0,0.0,0.0,0.0,819.200,3277.0,1138.200,0.0,0.0,41.400,117.800
