"Dstat 0.7.2 CSV output"
"Author:","Dag Wieers <dag@wieers.com>",,,,"URL:","http://dag.wieers.com/home-made/dstat/"
"Host:","Middleware1",,,,"User:","mstevan"
"Cmdline:","dstat --output /home/mstevan/logs/experiment_3.4/dstat/vs_512-vcpr_8-wtpm_8-rep_1.csv 5 16",,,,"Date:","28 Oct 2019 18:11:27 UTC"

"total cpu usage",,,,,,"dsk/total",,"net/total",,"paging",,"system",
"usr","sys","idl","wai","hiq","siq","read","writ","recv","send","in","out","int","csw"
2.103,4.318,92.824,0.044,0.0,0.710,6688.438,3828879.885,0.0,0.0,0.0,0.0,11703.175,34086.874
0.752,0.225,98.973,0.0,0.0,0.050,0.0,1638.400,110915.800,105969.200,0.0,0.0,253.600,908.0
4.911,5.042,89.525,0.0,0.0,0.522,0.0,819.200,7860341.600,7857083.400,0.0,0.0,12608.0,34151.400
3.739,4.601,91.242,0.0,0.0,0.418,0.0,1638.400,7870435.200,7867202.200,0.0,0.0,13695.600,34306.800
1.898,4.835,92.748,0.078,0.0,0.442,0.0,35225.600,8139376.0,8134544.400,0.0,0.0,14631.200,35426.0
1.760,4.334,93.643,0.0,0.0,0.263,0.0,819.200,8208001.600,8206013.800,0.0,0.0,14737.400,35915.800
1.724,4.727,93.236,0.0,0.0,0.313,0.0,4096.0,8191618.0,8186801.600,0.0,0.0,14421.800,36033.400
1.624,4.453,93.531,0.0,0.0,0.393,0.0,9830.400,8204955.800,8201130.600,0.0,0.0,14233.600,35938.400
1.584,3.854,94.192,0.0,0.0,0.370,0.0,819.200,8346532.800,8343884.400,0.0,0.0,14863.600,36635.800
1.957,4.618,92.956,0.0,0.0,0.470,0.0,1638.400,8447567.800,8443129.400,0.0,0.0,14736.800,36918.600
1.651,3.851,94.053,0.079,0.0,0.367,0.0,28672.0,7919902.200,7915806.600,0.0,0.0,14317.600,34727.400
1.564,4.613,93.458,0.0,0.0,0.365,0.0,819.200,8028213.800,8025072.200,0.0,0.0,13756.800,35396.600
1.783,4.327,93.627,0.0,0.0,0.262,0.0,1638.400,8238056.800,8234437.800,0.0,0.0,14441.0,35789.200
1.474,4.186,93.997,0.0,0.0,0.342,0.0,4915.200,8513840.0,8511541.400,0.0,0.0,14786.800,37062.200
1.851,4.511,93.403,0.0,0.0,0.235,0.0,3276.800,8117471.600,8113059.600,0.0,0.0,14136.400,35499.800
1.551,3.679,94.455,0.0,0.0,0.315,0.0,1638.400,8174664.400,8170420.200,0.0,0.0,14310.200,35708.800
0.075,0.050,99.825,0.050,0.0,0.0,0.0,18841.600,3728.800,1609.0,0.0,0.0,51.200,154.400
