"Dstat 0.7.2 CSV output"
"Author:","Dag Wieers <dag@wieers.com>",,,,"URL:","http://dag.wieers.com/home-made/dstat/"
"Host:","Middleware1",,,,"User:","mstevan"
"Cmdline:","dstat --output /home/mstevan/logs/experiment_3.4/dstat/vs_512-vcpr_8-wtpm_64-rep_2.csv 5 16",,,,"Date:","28 Oct 2019 18:24:15 UTC"

"total cpu usage",,,,,,"dsk/total",,"net/total",,"paging",,"system",
"usr","sys","idl","wai","hiq","siq","read","writ","recv","send","in","out","int","csw"
2.108,4.326,92.815,0.044,0.0,0.708,6614.345,3786540.485,0.0,0.0,0.0,0.0,11751.093,34214.787
1.006,0.101,98.818,0.0,0.0,0.075,0.0,819.200,131717.800,133530.400,0.0,0.0,535.200,1551.600
8.139,8.331,81.913,0.0,0.0,1.617,0.0,1638.400,9349779.0,9354401.400,0.0,0.0,23887.0,65000.0
3.651,8.031,87.372,0.054,0.0,0.892,0.0,33587.200,10161453.800,10158283.400,0.0,0.0,27353.400,71317.200
3.073,8.032,88.005,0.0,0.0,0.889,0.0,2457.600,10104399.200,10107536.600,0.0,0.0,27187.0,70996.200
3.750,8.913,86.114,0.0,0.0,1.223,0.0,1638.400,10102981.400,10100086.600,0.0,0.0,27268.400,71025.800
3.214,8.401,87.277,0.0,0.0,1.108,0.0,3276.800,10284700.200,10283231.800,0.0,0.0,27640.400,72064.600
3.417,7.662,87.854,0.0,0.0,1.068,0.0,9830.400,10251795.600,10250846.200,0.0,0.0,27586.200,71976.400
3.224,7.186,88.743,0.0,0.0,0.847,0.0,1638.400,10163280.800,10159301.400,0.0,0.0,27336.800,71448.400
3.320,8.259,87.449,0.0,0.0,0.972,0.0,819.200,10178686.400,10177055.800,0.0,0.0,27285.0,71536.800
3.217,7.855,87.775,0.027,0.0,1.126,0.0,27852.800,10176693.200,10174836.0,0.0,0.0,27178.400,71429.800
3.151,8.187,87.746,0.0,0.0,0.916,0.0,1638.400,10132573.200,10129820.0,0.0,0.0,27031.600,70969.800
3.249,8.110,87.728,0.0,0.0,0.913,0.0,819.200,10174465.200,10173827.800,0.0,0.0,27045.600,71279.0
3.372,7.974,87.637,0.0,0.0,1.017,0.0,5734.400,10183021.400,10178093.600,0.0,0.0,27120.0,71431.200
3.138,7.777,88.174,0.0,0.0,0.912,0.0,3276.800,10036024.400,10034510.0,0.0,0.0,26718.400,70517.600
3.109,7.813,88.294,0.0,0.0,0.784,0.0,819.200,9961974.600,9963666.200,0.0,0.0,26354.600,69743.400
0.100,0.050,99.800,0.050,0.0,0.0,0.0,18022.400,6362.0,1978.800,0.0,0.0,46.600,136.800
