"Dstat 0.7.2 CSV output"
"Author:","Dag Wieers <dag@wieers.com>",,,,"URL:","http://dag.wieers.com/home-made/dstat/"
"Host:","Middleware1",,,,"User:","mstevan"
"Cmdline:","dstat --output /home/mstevan/logs/experiment_3.4/dstat/vs_512-vcpr_8-wtpm_32-rep_1.csv 5 16",,,,"Date:","28 Oct 2019 18:17:08 UTC"

"total cpu usage",,,,,,"dsk/total",,"net/total",,"paging",,"system",
"usr","sys","idl","wai","hiq","siq","read","writ","recv","send","in","out","int","csw"
2.102,4.314,92.832,0.044,0.0,0.708,6655.308,3809947.438,0.0,0.0,0.0,0.0,11703.875,34064.126
0.702,0.301,98.947,0.0,0.0,0.050,0.0,1638.400,100963.200,96424.800,0.0,0.0,433.600,1238.400
8.276,8.276,82.321,0.0,0.0,1.127,0.0,819.200,9669529.0,9668018.600,0.0,0.0,20662.200,66383.600
3.974,7.629,87.517,0.053,0.0,0.827,0.0,50790.400,10488981.200,10484712.800,0.0,0.0,23327.400,72766.200
3.816,7.737,87.947,0.0,0.0,0.500,0.0,3276.800,10448653.400,10443685.600,0.0,0.0,23737.400,73023.800
3.488,7.561,88.232,0.0,0.0,0.719,0.0,2457.600,10456546.600,10454387.200,0.0,0.0,23300.800,73630.0
2.928,7.037,89.417,0.0,0.0,0.618,0.0,4096.0,10251397.200,10245991.0,0.0,0.0,22771.600,71883.0
3.552,7.425,88.301,0.0,0.0,0.721,0.0,9011.200,10448161.200,10447093.800,0.0,0.0,23505.0,73321.800
3.347,7.565,88.192,0.0,0.0,0.896,0.0,1638.400,10465943.800,10461537.0,0.0,0.0,23740.400,73468.400
3.335,7.967,87.983,0.053,0.0,0.662,0.0,19660.800,10761225.0,10757007.0,0.0,0.0,24400.800,75436.200
3.066,7.560,88.739,0.0,0.0,0.634,0.0,819.200,10574995.800,10572886.800,0.0,0.0,23926.0,73869.600
3.104,7.445,88.740,0.0,0.0,0.710,0.0,1638.400,10520289.800,10515641.200,0.0,0.0,23855.400,72962.600
2.453,7.038,89.789,0.0,0.0,0.720,0.0,1638.400,10209118.0,10204727.600,0.0,0.0,23352.0,70848.400
2.919,7.349,89.016,0.0,0.0,0.716,0.0,819.200,10545212.200,10542247.600,0.0,0.0,24239.800,73540.400
3.055,7.243,89.044,0.0,0.0,0.658,0.0,6553.600,10510077.200,10505902.200,0.0,0.0,23983.0,73095.400
2.630,7.443,89.321,0.053,0.0,0.552,0.0,17203.200,10165805.400,10162908.400,0.0,0.0,23483.0,70850.400
0.050,0.0,99.950,0.0,0.0,0.0,0.0,4915.200,3327.800,1151.400,0.0,0.0,43.200,133.800
