"Dstat 0.7.2 CSV output"
"Author:","Dag Wieers <dag@wieers.com>",,,,"URL:","http://dag.wieers.com/home-made/dstat/"
"Host:","Middleware1",,,,"User:","mstevan"
"Cmdline:","dstat --output /home/mstevan/logs/experiment_3.4/dstat/vs_512-vcpr_4-wtpm_64-rep_1.csv 5 16",,,,"Date:","28 Oct 2019 18:05:46 UTC"

"total cpu usage",,,,,,"dsk/total",,"net/total",,"paging",,"system",
"usr","sys","idl","wai","hiq","siq","read","writ","recv","send","in","out","int","csw"
2.102,4.316,92.826,0.044,0.0,0.711,6721.899,3847998.405,0.0,0.0,0.0,0.0,11675.022,34025.006
0.753,0.176,98.971,0.0,0.0,0.100,0.0,819.200,67279.400,67987.600,0.0,0.0,386.400,1109.0
6.132,5.711,87.342,0.0,0.0,0.816,0.0,1638.400,7068919.0,7100038.0,0.0,0.0,18989.0,51999.200
3.249,5.737,90.516,0.0,0.0,0.498,0.0,819.200,7589105.200,7596131.200,0.0,0.0,20870.200,55876.800
2.855,5.736,90.786,0.0,0.0,0.623,0.0,2457.600,7728114.0,7734953.200,0.0,0.0,21380.600,56911.600
2.440,5.640,91.448,0.079,0.0,0.393,0.0,33587.200,8049886.800,8051030.0,0.0,0.0,22276.600,59282.600
2.477,5.865,91.163,0.0,0.0,0.495,0.0,819.200,7899168.800,7905196.0,0.0,0.0,21843.0,58295.0
2.547,5.875,91.032,0.0,0.0,0.546,0.0,12288.0,7725035.400,7729377.0,0.0,0.0,21339.400,56935.400
2.588,5.541,91.192,0.0,0.0,0.680,0.0,1638.400,7768661.600,7775435.600,0.0,0.0,21558.200,57536.600
2.524,5.389,91.588,0.0,0.0,0.499,0.0,819.200,7963900.600,7969420.600,0.0,0.0,22011.200,58965.400
2.239,6.300,90.888,0.0,0.0,0.573,0.0,1638.400,7632294.0,7640296.200,0.0,0.0,21117.400,56440.0
2.801,6.457,90.119,0.104,0.0,0.519,0.0,25395.200,7885868.400,7892030.800,0.0,0.0,21781.600,58349.400
2.730,5.772,90.848,0.0,0.0,0.650,0.0,819.200,7661410.0,7669282.600,0.0,0.0,21175.400,56639.200
2.364,5.586,91.426,0.0,0.0,0.624,0.0,5734.400,7305875.0,7312812.800,0.0,0.0,20141.0,53877.0
2.292,5.677,91.510,0.0,0.0,0.521,0.0,2457.600,7395503.800,7405634.200,0.0,0.0,20365.200,54615.200
2.290,5.673,91.439,0.0,0.0,0.598,0.0,1638.400,7289433.800,7298957.0,0.0,0.0,20052.600,53702.800
0.075,0.025,99.900,0.0,0.0,0.0,0.0,1638.400,6388.400,2005.200,0.0,0.0,39.400,127.400
