"Dstat 0.7.2 CSV output"
"Author:","Dag Wieers <dag@wieers.com>",,,,"URL:","http://dag.wieers.com/home-made/dstat/"
"Host:","Middleware1",,,,"User:","mstevan"
"Cmdline:","dstat --output /home/mstevan/logs/experiment_3.4/dstat/vs_512-vcpr_4-wtpm_8-rep_4.csv 5 16",,,,"Date:","28 Oct 2019 17:58:39 UTC"

"total cpu usage",,,,,,"dsk/total",,"net/total",,"paging",,"system",
"usr","sys","idl","wai","hiq","siq","read","writ","recv","send","in","out","int","csw"
2.101,4.315,92.826,0.044,0.0,0.714,6764.196,3872169.312,0.0,0.0,0.0,0.0,11655.489,33955.111
0.752,0.226,98.973,0.0,0.0,0.050,0.0,819.200,102412.800,99664.0,0.0,0.0,342.200,1085.400
6.102,4.696,88.883,0.0,0.0,0.318,0.0,1638.400,6618446.600,6614476.600,0.0,0.0,10349.600,42721.800
3.762,4.815,91.029,0.0,0.0,0.395,0.0,1638.400,7089197.400,7084785.400,0.0,0.0,11153.200,46336.400
2.137,5.212,92.416,0.0,0.0,0.235,0.0,2457.600,7591704.800,7588934.600,0.0,0.0,11763.200,49382.200
2.245,5.012,92.404,0.052,0.0,0.287,0.0,44236.800,7803965.800,7799692.600,0.0,0.0,12321.200,51107.800
2.183,5.198,92.282,0.0,0.0,0.338,0.0,4096.0,7521435.800,7516954.400,0.0,0.0,11619.400,48852.400
2.241,5.343,92.077,0.0,0.0,0.339,0.0,9011.200,7755077.200,7753178.600,0.0,0.0,12196.600,50718.200
2.375,5.089,92.223,0.0,0.0,0.313,0.0,1638.400,7956662.800,7951934.800,0.0,0.0,12541.400,52191.800
2.309,4.513,92.994,0.0,0.0,0.184,0.0,1638.400,7810200.400,7806071.0,0.0,0.0,12186.600,51309.0
2.330,4.948,92.513,0.0,0.0,0.209,0.0,819.200,8106752.600,8104521.200,0.0,0.0,12715.0,53017.400
2.292,5.234,92.161,0.052,0.0,0.260,0.0,19660.800,7975375.200,7970913.0,0.0,0.0,12694.400,52724.0
2.082,5.386,92.142,0.0,0.0,0.390,0.0,819.200,7938152.400,7935904.200,0.0,0.0,12488.400,52181.800
2.323,5.168,92.221,0.0,0.0,0.287,0.0,5734.400,7844674.400,7840078.200,0.0,0.0,12330.200,51487.600
2.395,5.388,91.983,0.0,0.0,0.234,0.0,3276.800,7906182.400,7900802.0,0.0,0.0,12420.0,51980.0
2.243,4.695,92.827,0.0,0.0,0.235,0.0,819.200,7507604.600,7506744.600,0.0,0.0,11927.800,49618.0
0.050,0.0,99.950,0.0,0.0,0.0,0.0,1638.400,6494.0,2058.0,0.0,0.0,46.600,134.0
