"Dstat 0.7.2 CSV output"
"Author:","Dag Wieers <dag@wieers.com>",,,,"URL:","http://dag.wieers.com/home-made/dstat/"
"Host:","Middleware1",,,,"User:","mstevan"
"Cmdline:","dstat --output /home/mstevan/logs/experiment_3.4/dstat/vs_512-vcpr_32-wtpm_32-rep_2.csv 5 16",,,,"Date:","28 Oct 2019 18:52:42 UTC"

"total cpu usage",,,,,,"dsk/total",,"net/total",,"paging",,"system",
"usr","sys","idl","wai","hiq","siq","read","writ","recv","send","in","out","int","csw"
2.125,4.362,92.760,0.043,0.0,0.710,6455.437,3695732.613,0.0,0.0,0.0,0.0,11895.141,34565.372
0.476,0.200,99.299,0.0,0.0,0.025,0.0,819.200,37863.400,35033.800,0.0,0.0,243.0,711.0
8.641,9.003,80.411,0.0,0.0,1.945,0.0,1638.400,14365901.200,14359453.400,0.0,0.0,17823.400,57445.400
3.191,7.938,87.589,0.0,0.0,1.282,0.0,819.200,15587800.0,15588149.400,0.0,0.0,20875.200,62610.800
5.531,8.088,84.686,0.0,0.0,1.695,0.0,2457.600,15052340.600,15047772.800,0.0,0.0,19255.0,59112.800
3.844,7.798,86.875,0.055,0.0,1.428,0.0,35225.600,15570524.200,15564782.600,0.0,0.0,20250.600,62041.800
3.591,8.119,86.844,0.0,0.0,1.447,0.0,7372.800,15593007.0,15592193.800,0.0,0.0,20895.0,62990.400
3.592,8.0,86.857,0.0,0.0,1.551,0.0,13926.400,15485149.200,15479888.200,0.0,0.0,20580.200,62113.200
3.392,8.178,86.789,0.0,0.0,1.641,0.0,1638.400,15790002.400,15782103.800,0.0,0.0,21092.600,63666.200
3.279,8.062,87.020,0.0,0.0,1.639,0.0,819.200,15627922.800,15629969.600,0.0,0.0,20263.0,61912.800
3.292,7.528,87.911,0.0,0.0,1.268,0.0,1638.400,15821228.400,15814024.200,0.0,0.0,20626.400,62813.800
3.337,7.670,87.567,0.054,0.0,1.372,0.0,19660.800,15573043.800,15571323.200,0.0,0.0,20137.0,61809.600
3.263,7.917,87.537,0.0,0.0,1.284,0.0,819.200,15918002.800,15914292.600,0.0,0.0,21041.0,64190.600
3.778,8.494,86.147,0.0,0.0,1.581,0.0,5734.400,15847344.600,15840965.0,0.0,0.0,20871.800,63934.200
3.451,7.711,87.517,0.0,0.0,1.321,0.0,2457.600,15478429.200,15478680.200,0.0,0.0,20193.600,62217.600
2.970,9.366,86.246,0.0,0.0,1.418,0.0,1638.400,15726282.400,15720863.200,0.0,0.0,20698.0,63603.400
1.213,0.884,97.751,0.0,0.0,0.152,0.0,1638.400,1517084.800,1513369.0,0.0,0.0,3695.400,9695.0
