"Dstat 0.7.2 CSV output"
"Author:","Dag Wieers <dag@wieers.com>",,,,"URL:","http://dag.wieers.com/home-made/dstat/"
"Host:","Middleware1",,,,"User:","mstevan"
"Cmdline:","dstat --output /home/mstevan/logs/experiment_3.4/dstat/vs_64-vcpr_16-wtpm_32-rep_1.csv 5 16",,,,"Date:","28 Oct 2019 16:17:22 UTC"

"total cpu usage",,,,,,"dsk/total",,"net/total",,"paging",,"system",
"usr","sys","idl","wai","hiq","siq","read","writ","recv","send","in","out","int","csw"
2.020,4.158,93.078,0.045,0.0,0.699,5051.062,4248397.766,0.0,0.0,0.0,0.0,11128.784,32404.966
0.552,0.301,99.047,0.025,0.0,0.075,0.0,52428.800,38422.400,34269.200,0.0,0.0,308.800,936.0
9.656,10.544,77.593,0.0,0.0,2.206,0.0,2457.600,4478005.200,4474276.400,0.0,0.0,22023.0,70041.400
5.999,9.515,82.589,0.0,0.0,1.897,0.0,2457.600,4591213.0,4588426.400,0.0,0.0,22935.400,72377.800
5.466,10.374,82.432,0.0,0.0,1.729,0.0,2457.600,4695665.200,4691165.0,0.0,0.0,23748.200,74112.400
4.075,9.829,84.692,0.0,0.0,1.404,0.0,819.200,4831080.400,4827866.400,0.0,0.0,24967.400,77262.0
3.954,9.163,85.438,0.0,0.0,1.445,0.0,4915.200,4837404.800,4833962.800,0.0,0.0,24835.200,77268.0
4.137,10.164,84.247,0.027,0.0,1.425,0.0,25395.200,4952056.600,4948179.0,0.0,0.0,25832.800,79893.400
3.469,9.389,85.710,0.0,0.0,1.432,0.0,819.200,4873048.200,4869857.0,0.0,0.0,25307.400,78783.0
3.646,9.333,85.605,0.0,0.0,1.415,0.0,1638.400,4821808.600,4818274.800,0.0,0.0,25067.200,77920.400
3.861,9.597,85.052,0.0,0.0,1.489,0.0,1638.400,4863097.200,4858498.0,0.0,0.0,25071.600,78409.400
3.508,8.177,87.127,0.0,0.0,1.188,0.0,819.200,4881409.600,4878612.0,0.0,0.0,25214.600,78716.800
3.385,8.954,86.323,0.0,0.0,1.338,0.0,1638.400,4854373.800,4850446.800,0.0,0.0,25080.800,78487.600
3.368,9.359,85.643,0.028,0.0,1.601,0.0,23756.800,4785701.0,4781303.400,0.0,0.0,24202.800,76181.400
3.817,9.198,85.859,0.0,0.0,1.126,0.0,2457.600,4850790.0,4848269.200,0.0,0.0,24909.200,78423.800
3.475,8.536,86.895,0.0,0.0,1.094,0.0,1638.400,4720627.0,4716852.200,0.0,0.0,24354.400,76372.0
0.025,0.025,99.950,0.0,0.0,0.0,0.0,819.200,3277.0,1138.200,0.0,0.0,45.0,124.400
