"Dstat 0.7.2 CSV output"
"Author:","Dag Wieers <dag@wieers.com>",,,,"URL:","http://dag.wieers.com/home-made/dstat/"
"Host:","Middleware1",,,,"User:","mstevan"
"Cmdline:","dstat --output /home/mstevan/logs/experiment_3.4/dstat/vs_64-vcpr_8-wtpm_32-rep_1.csv 5 16",,,,"Date:","28 Oct 2019 16:00:18 UTC"

"total cpu usage",,,,,,"dsk/total",,"net/total",,"paging",,"system",
"usr","sys","idl","wai","hiq","siq","read","writ","recv","send","in","out","int","csw"
2.009,4.138,93.105,0.046,0.0,0.701,5136.273,4319955.046,0.0,0.0,0.0,0.0,11016.241,32127.142
0.852,0.476,98.622,0.0,0.0,0.050,0.0,1638.400,50193.600,46574.400,0.0,0.0,432.600,1288.400
7.688,7.661,83.420,0.0,0.0,1.231,0.0,2457.600,3306554.400,3302260.0,0.0,0.0,20530.800,63979.200
3.722,7.740,87.783,0.0,0.0,0.755,0.0,819.200,3587343.400,3584956.800,0.0,0.0,22849.200,70609.200
3.323,7.824,87.915,0.027,0.0,0.911,0.0,41779.200,3588516.0,3584382.400,0.0,0.0,22789.200,70368.200
3.673,7.639,87.836,0.0,0.0,0.852,0.0,1638.400,3689100.200,3684236.0,0.0,0.0,23493.0,72419.0
3.110,8.150,87.962,0.0,0.0,0.777,0.0,3276.800,3670587.200,3668400.600,0.0,0.0,23279.0,71843.400
3.080,7.552,88.725,0.0,0.0,0.643,0.0,9830.400,3579539.800,3575155.600,0.0,0.0,22769.0,70382.0
3.014,8.276,87.996,0.0,0.0,0.714,0.0,819.200,3655285.400,3653092.0,0.0,0.0,23117.400,71715.800
2.959,7.398,88.997,0.0,0.0,0.646,0.0,1638.400,3661136.600,3656410.400,0.0,0.0,23319.800,71931.400
3.784,7.890,87.413,0.054,0.0,0.859,0.0,17203.200,3619834.600,3615864.0,0.0,0.0,23047.400,71226.200
3.288,8.367,87.570,0.0,0.0,0.775,0.0,819.200,3555637.0,3553415.400,0.0,0.0,22593.400,69910.400
3.195,7.277,88.668,0.0,0.0,0.859,0.0,1638.400,3617035.800,3612395.800,0.0,0.0,22786.800,70734.400
3.180,7.922,88.063,0.0,0.0,0.835,0.0,5734.400,3666342.200,3661883.800,0.0,0.0,23254.800,72019.600
3.043,7.835,88.368,0.0,0.0,0.754,0.0,1638.400,3639179.0,3637220.600,0.0,0.0,22910.0,71281.0
3.066,7.719,88.462,0.0,0.0,0.753,0.0,1638.400,3542149.600,3540850.200,0.0,0.0,22521.400,69672.400
0.100,0.0,99.775,0.125,0.0,0.0,0.0,20480.0,6456.400,2045.600,0.0,0.0,45.0,134.600
