"Dstat 0.7.2 CSV output"
"Author:","Dag Wieers <dag@wieers.com>",,,,"URL:","http://dag.wieers.com/home-made/dstat/"
"Host:","Middleware1",,,,"User:","mstevan"
"Cmdline:","dstat --output /home/mstevan/logs/experiment_3.4/dstat/vs_64-vcpr_8-wtpm_64-rep_2.csv 5 16",,,,"Date:","28 Oct 2019 16:07:25 UTC"

"total cpu usage",,,,,,"dsk/total",,"net/total",,"paging",,"system",
"usr","sys","idl","wai","hiq","siq","read","writ","recv","send","in","out","int","csw"
2.016,4.153,93.084,0.046,0.0,0.701,5100.426,4289850.568,0.0,0.0,0.0,0.0,11076.646,32315.286
0.678,0.151,99.146,0.0,0.0,0.025,0.0,1638.400,21536.800,18935.0,0.0,0.0,308.200,868.200
7.550,7.604,83.238,0.0,0.0,1.608,0.0,819.200,3218266.0,3233763.600,0.0,0.0,22784.800,63111.200
4.606,7.613,86.887,0.0,0.0,0.894,0.0,2457.600,3455559.800,3456361.400,0.0,0.0,25599.0,68578.400
2.973,7.499,88.591,0.054,0.0,0.884,0.0,40140.800,3591369.600,3590746.400,0.0,0.0,26485.400,71138.800
2.946,8.249,87.868,0.0,0.0,0.937,0.0,1638.400,3565715.400,3565681.0,0.0,0.0,26254.0,70502.600
2.876,7.390,88.928,0.0,0.0,0.806,0.0,1638.400,3566861.0,3565936.200,0.0,0.0,26229.800,70596.600
2.572,7.447,89.151,0.0,0.0,0.830,0.0,11468.800,3588127.400,3591642.200,0.0,0.0,26242.400,71009.200
2.858,7.639,88.408,0.0,0.0,1.095,0.0,1638.400,3602283.800,3602808.400,0.0,0.0,26441.200,71370.0
2.989,6.992,89.351,0.0,0.0,0.667,0.0,1638.400,3500558.400,3502449.800,0.0,0.0,25701.200,69303.400
3.240,7.604,88.220,0.054,0.0,0.884,0.0,17203.200,3541848.400,3543806.400,0.0,0.0,25878.800,70328.0
3.257,7.214,88.641,0.0,0.0,0.888,0.0,1638.400,3560784.600,3563144.600,0.0,0.0,26141.600,70609.200
3.270,7.576,88.384,0.0,0.0,0.771,0.0,819.200,3624393.800,3622803.600,0.0,0.0,26554.400,71703.600
3.278,7.543,88.246,0.0,0.0,0.933,0.0,6553.600,3624734.200,3623078.200,0.0,0.0,26589.0,71900.800
3.034,7.504,88.664,0.0,0.0,0.798,0.0,2457.600,3596035.800,3596084.200,0.0,0.0,26194.0,70968.600
2.970,7.196,89.139,0.0,0.0,0.696,0.0,819.200,3626577.0,3628515.800,0.0,0.0,26486.200,71784.600
0.025,0.025,99.900,0.050,0.0,0.0,0.0,18022.400,6388.400,2005.200,0.0,0.0,49.600,150.400
