"Dstat 0.7.2 CSV output"
"Author:","Dag Wieers <dag@wieers.com>",,,,"URL:","http://dag.wieers.com/home-made/dstat/"
"Host:","Middleware1",,,,"User:","mstevan"
"Cmdline:","dstat --output /home/mstevan/logs/experiment_3.4/dstat/vs_64-vcpr_4-wtpm_8-rep_4.csv 5 16",,,,"Date:","28 Oct 2019 15:41:49 UTC"

"total cpu usage",,,,,,"dsk/total",,"net/total",,"paging",,"system",
"usr","sys","idl","wai","hiq","siq","read","writ","recv","send","in","out","int","csw"
2.006,4.135,93.104,0.047,0.0,0.708,5231.890,4400254.683,0.0,0.0,0.0,0.0,10941.160,31948.104
0.727,0.301,98.922,0.0,0.0,0.050,0.0,1638.400,62862.400,58491.200,0.0,0.0,439.600,1427.400
6.577,5.071,87.956,0.0,0.0,0.396,0.0,1638.400,2608555.200,2604076.200,0.0,0.0,11703.600,48583.400
3.823,4.766,91.097,0.0,0.0,0.314,0.0,1638.400,2586823.600,2584587.0,0.0,0.0,11986.800,48410.400
2.238,5.152,92.376,0.0,0.0,0.234,0.0,1638.400,2763857.0,2759474.600,0.0,0.0,12783.600,51670.0
2.287,5.069,92.462,0.0,0.0,0.182,0.0,1638.400,2749738.200,2747541.800,0.0,0.0,12942.200,51661.200
2.085,5.056,92.468,0.052,0.0,0.339,0.0,38502.400,2842619.400,2838155.800,0.0,0.0,13370.400,53384.800
1.890,4.383,93.386,0.0,0.0,0.341,0.0,12288.0,2746226.200,2741609.0,0.0,0.0,12758.800,51460.600
2.391,5.199,92.072,0.0,0.0,0.338,0.0,819.200,2783978.600,2781829.200,0.0,0.0,13077.0,52267.200
2.006,5.185,92.470,0.0,0.0,0.339,0.0,1638.400,2830307.400,2825778.600,0.0,0.0,13231.800,53165.600
1.989,4.946,92.803,0.0,0.0,0.262,0.0,1638.400,2723458.0,2719080.800,0.0,0.0,12752.800,51091.400
2.156,5.170,92.440,0.0,0.0,0.234,0.0,819.200,2788591.200,2786178.0,0.0,0.0,13167.800,52501.800
2.336,5.036,92.420,0.052,0.0,0.156,0.0,18022.400,2803679.200,2799397.600,0.0,0.0,13042.400,52388.800
2.125,5.625,91.991,0.0,0.0,0.259,0.0,6553.600,2822162.0,2817699.800,0.0,0.0,13235.0,52869.200
2.132,5.355,92.228,0.0,0.0,0.286,0.0,1638.400,2831267.400,2828906.400,0.0,0.0,13163.400,52934.0
2.336,5.088,92.290,0.0,0.0,0.286,0.0,0.0,2756371.800,2755343.800,0.0,0.0,12741.200,51759.800
0.025,0.0,99.975,0.0,0.0,0.0,0.0,1638.400,4846.800,1812.400,0.0,0.0,38.200,132.200
