"Dstat 0.7.2 CSV output"
"Author:","Dag Wieers <dag@wieers.com>",,,,"URL:","http://dag.wieers.com/home-made/dstat/"
"Host:","Middleware1",,,,"User:","mstevan"
"Cmdline:","dstat --output /home/mstevan/logs/experiment_3.4/dstat/vs_64-vcpr_4-wtpm_32-rep_2.csv 5 16",,,,"Date:","28 Oct 2019 15:44:39 UTC"

"total cpu usage",,,,,,"dsk/total",,"net/total",,"paging",,"system",
"usr","sys","idl","wai","hiq","siq","read","writ","recv","send","in","out","int","csw"
2.007,4.136,93.104,0.047,0.0,0.707,5216.950,4387707.122,0.0,0.0,0.0,0.0,10947.785,31984.596
0.852,0.200,98.898,0.0,0.0,0.050,0.0,1638.400,42832.400,39438.0,0.0,0.0,414.800,1224.800
6.718,5.607,86.988,0.079,0.0,0.608,0.0,40960.0,2504490.0,2502696.0,0.0,0.0,17820.400,52198.0
3.026,5.420,91.055,0.0,0.0,0.500,0.0,1638.400,2735141.0,2730925.400,0.0,0.0,20588.400,57112.800
2.839,5.913,90.883,0.0,0.0,0.365,0.0,2457.600,2831618.0,2829614.800,0.0,0.0,21383.0,59298.200
2.503,5.918,91.293,0.0,0.0,0.287,0.0,1638.400,2734792.200,2730481.0,0.0,0.0,20601.200,57146.400
2.505,5.924,91.284,0.0,0.0,0.287,0.0,4096.0,2745766.0,2741564.400,0.0,0.0,20593.800,57626.400
2.560,5.852,91.170,0.0,0.0,0.418,0.0,9011.200,2756547.800,2754396.0,0.0,0.0,20756.400,57786.600
2.406,5.519,91.682,0.026,0.0,0.366,0.0,17203.200,2733498.600,2729183.800,0.0,0.0,20523.800,57296.800
2.100,5.172,92.308,0.0,0.0,0.420,0.0,819.200,2715340.200,2713270.800,0.0,0.0,20507.200,57164.0
2.248,5.621,91.843,0.0,0.0,0.288,0.0,1638.400,2766605.0,2762169.0,0.0,0.0,20674.0,57817.400
2.368,5.907,91.257,0.0,0.0,0.468,0.0,1638.400,2734278.200,2730116.800,0.0,0.0,20515.600,57441.600
2.205,5.577,91.829,0.0,0.0,0.389,0.0,819.200,2544181.800,2544369.800,0.0,0.0,19108.600,53559.400
2.365,6.003,91.190,0.0,0.0,0.442,0.0,5734.400,2729334.0,2725322.800,0.0,0.0,20320.0,57294.200
2.425,5.476,91.708,0.078,0.0,0.313,0.0,20480.0,2607989.600,2604669.600,0.0,0.0,19442.0,54644.200
2.448,5.938,91.302,0.0,0.0,0.312,0.0,819.200,2790661.400,2789555.800,0.0,0.0,20746.200,58468.0
0.075,0.0,99.925,0.0,0.0,0.0,0.0,1638.400,6388.400,2005.200,0.0,0.0,47.600,137.0
