"Dstat 0.7.2 CSV output"
"Author:","Dag Wieers <dag@wieers.com>",,,,"URL:","http://dag.wieers.com/home-made/dstat/"
"Host:","Middleware1",,,,"User:","mstevan"
"Cmdline:","dstat --output /home/mstevan/logs/experiment_3.4/dstat/vs_64-vcpr_16-wtpm_8-rep_2.csv 5 16",,,,"Date:","28 Oct 2019 16:13:06 UTC"

"total cpu usage",,,,,,"dsk/total",,"net/total",,"paging",,"system",
"usr","sys","idl","wai","hiq","siq","read","writ","recv","send","in","out","int","csw"
2.020,4.161,93.073,0.046,0.0,0.700,5072.104,4266069.153,0.0,0.0,0.0,0.0,11122.796,32418.187
0.526,0.150,99.299,0.0,0.0,0.025,0.0,1638.400,9548.0,4651.200,0.0,0.0,107.600,334.600
4.921,4.868,89.788,0.0,0.0,0.423,0.0,2457.600,2812494.800,2807600.600,0.0,0.0,13109.200,33595.0
3.839,4.575,91.112,0.079,0.0,0.394,0.0,31948.800,2876157.600,2873907.600,0.0,0.0,14943.400,34516.800
4.163,4.373,91.019,0.0,0.0,0.445,0.0,2457.600,2921942.800,2917471.200,0.0,0.0,15311.400,35295.800
2.433,4.238,93.016,0.0,0.0,0.314,0.0,1638.400,2941460.600,2937249.600,0.0,0.0,15214.600,35187.400
1.940,4.300,93.524,0.0,0.0,0.236,0.0,4096.0,3031760.400,3029163.400,0.0,0.0,15865.600,36540.0
1.951,3.849,93.778,0.0,0.0,0.422,0.0,9830.400,3052765.0,3048628.200,0.0,0.0,15857.0,36592.800
1.788,4.365,93.531,0.0,0.0,0.316,0.0,819.200,3104702.200,3100710.0,0.0,0.0,16074.0,37186.400
1.759,4.411,93.515,0.026,0.0,0.289,0.0,18022.400,3079393.200,3076392.200,0.0,0.0,15973.200,37018.0
1.816,4.001,93.788,0.0,0.0,0.395,0.0,9011.200,3068350.600,3063775.600,0.0,0.0,15921.400,36731.400
1.738,3.977,93.969,0.0,0.0,0.316,0.0,819.200,3058170.800,3055989.0,0.0,0.0,15876.400,36628.400
1.675,4.788,93.171,0.0,0.0,0.366,0.0,1638.400,3052654.400,3048424.800,0.0,0.0,15896.800,36463.600
2.055,4.292,93.184,0.0,0.0,0.468,0.0,5734.400,2944135.800,2939585.600,0.0,0.0,15400.200,35213.800
1.839,4.255,93.617,0.0,0.0,0.289,0.0,2457.600,3098112.200,3096124.800,0.0,0.0,16057.800,37203.0
1.451,3.931,94.248,0.053,0.0,0.317,0.0,16384.0,2976671.800,2972005.0,0.0,0.0,15420.600,35696.600
0.050,0.025,99.925,0.0,0.0,0.0,0.0,1638.400,6983.0,2823.0,0.0,0.0,47.400,134.0
