"Dstat 0.7.2 CSV output"
"Author:","Dag Wieers <dag@wieers.com>",,,,"URL:","http://dag.wieers.com/home-made/dstat/"
"Host:","Middleware1",,,,"User:","mstevan"
"Cmdline:","dstat --output /home/mstevan/logs/experiment_3.4/dstat/vs_64-vcpr_4-wtpm_8-rep_3.csv 5 16",,,,"Date:","28 Oct 2019 15:40:23 UTC"

"total cpu usage",,,,,,"dsk/total",,"net/total",,"paging",,"system",
"usr","sys","idl","wai","hiq","siq","read","writ","recv","send","in","out","int","csw"
2.005,4.135,93.104,0.047,0.0,0.709,5239.396,4406557.372,0.0,0.0,0.0,0.0,10940.328,31932.096
0.577,0.150,99.248,0.0,0.0,0.025,0.0,1638.400,44603.600,40035.600,0.0,0.0,345.600,1067.800
6.416,5.049,87.983,0.0,0.0,0.552,0.0,1638.400,2528022.200,2525098.0,0.0,0.0,12313.0,47320.200
4.084,5.366,90.314,0.0,0.0,0.236,0.0,819.200,2762366.0,2760314.800,0.0,0.0,14103.0,51869.400
2.062,5.297,92.249,0.078,0.0,0.313,0.0,37683.200,2766897.600,2762338.200,0.0,0.0,13829.0,51559.800
2.525,5.129,91.955,0.0,0.0,0.391,0.0,1638.400,2847188.600,2842722.600,0.0,0.0,14321.800,53539.0
2.120,5.156,92.489,0.0,0.0,0.236,0.0,3276.800,2883122.400,2880991.800,0.0,0.0,14454.400,54017.200
2.203,5.805,91.708,0.0,0.0,0.285,0.0,9830.400,2807058.800,2802465.600,0.0,0.0,14122.0,52681.600
2.390,5.039,92.234,0.0,0.0,0.338,0.0,819.200,2776968.800,2774859.200,0.0,0.0,13971.800,52292.200
2.145,5.075,92.440,0.0,0.0,0.340,0.0,1638.400,2821026.200,2816531.400,0.0,0.0,14112.400,53018.0
1.998,4.733,93.006,0.053,0.0,0.210,0.0,28672.0,2800750.0,2796336.800,0.0,0.0,13844.400,52129.600
2.281,5.651,91.731,0.0,0.0,0.337,0.0,819.200,2862535.600,2860149.800,0.0,0.0,14335.400,53604.0
2.151,4.853,92.733,0.0,0.0,0.262,0.0,1638.400,2868326.800,2863896.600,0.0,0.0,14328.400,53639.0
2.458,5.537,91.617,0.0,0.0,0.388,0.0,5734.400,2848674.600,2844183.400,0.0,0.0,14376.0,53530.0
2.189,5.107,92.340,0.0,0.0,0.365,0.0,2457.600,2831744.0,2829465.800,0.0,0.0,14160.0,53125.200
1.981,5.030,92.598,0.0,0.0,0.391,0.0,1638.400,2790451.200,2786360.800,0.0,0.0,13992.0,52307.200
0.075,0.050,99.875,0.0,0.0,0.0,0.0,18841.600,6388.400,2005.200,0.0,0.0,41.800,142.200
