"Dstat 0.7.2 CSV output"
"Author:","Dag Wieers <dag@wieers.com>",,,,"URL:","http://dag.wieers.com/home-made/dstat/"
"Host:","Middleware1",,,,"User:","mstevan"
"Cmdline:","dstat --output /home/mstevan/logs/experiment_3.4/dstat/vs_64-vcpr_8-wtpm_8-rep_3.csv 5 16",,,,"Date:","28 Oct 2019 15:57:27 UTC"

"total cpu usage",,,,,,"dsk/total",,"net/total",,"paging",,"system",
"usr","sys","idl","wai","hiq","siq","read","writ","recv","send","in","out","int","csw"
2.010,4.140,93.101,0.046,0.0,0.702,5150.761,4332121.445,0.0,0.0,0.0,0.0,11012.632,32130.823
0.852,0.276,98.798,0.0,0.0,0.075,0.0,31129.600,45137.400,40283.200,0.0,0.0,277.400,915.600
4.962,4.539,90.024,0.0,0.0,0.475,0.0,1638.400,2941783.0,2937402.800,0.0,0.0,12717.200,36976.600
3.026,4.237,92.342,0.0,0.0,0.395,0.0,819.200,3066518.800,3064448.400,0.0,0.0,15757.800,38239.800
1.601,4.332,93.804,0.0,0.0,0.263,0.0,3276.800,3016242.600,3011796.800,0.0,0.0,15457.0,37259.0
1.928,4.977,92.731,0.0,0.0,0.365,0.0,1638.400,3186279.400,3181492.0,0.0,0.0,16284.800,39823.200
1.784,4.172,93.702,0.0,0.0,0.341,0.0,3276.800,3078664.800,3076369.200,0.0,0.0,15691.200,38341.800
1.834,4.139,93.424,0.131,0.0,0.472,0.0,31129.600,3077522.600,3073454.800,0.0,0.0,15638.600,38265.400
1.962,4.159,93.539,0.0,0.0,0.340,0.0,1638.400,3006500.0,3001642.800,0.0,0.0,15420.200,37476.600
1.813,4.258,93.640,0.0,0.0,0.289,0.0,819.200,3106155.800,3104053.800,0.0,0.0,15537.200,38920.800
1.627,4.461,93.545,0.0,0.0,0.367,0.0,1638.400,3080754.0,3076162.400,0.0,0.0,15481.800,38429.600
1.677,4.324,93.606,0.0,0.0,0.393,0.0,819.200,3024979.600,3023183.200,0.0,0.0,15052.400,37716.400
1.866,4.074,93.771,0.0,0.0,0.289,0.0,1638.400,3070083.0,3065318.200,0.0,0.0,15347.200,37994.0
1.655,4.125,93.799,0.053,0.0,0.368,0.0,24576.0,3068365.200,3063919.400,0.0,0.0,15724.0,37755.600
1.770,4.607,93.233,0.0,0.0,0.390,0.0,2457.600,2999250.800,2997166.200,0.0,0.0,15260.800,37337.600
1.754,4.346,93.560,0.0,0.0,0.340,0.0,1638.400,3026624.400,3022430.200,0.0,0.0,15262.200,38012.0
0.075,0.0,99.925,0.0,0.0,0.0,0.0,1638.400,6375.200,2005.200,0.0,0.0,42.600,131.200
