"Dstat 0.7.2 CSV output"
"Author:","Dag Wieers <dag@wieers.com>",,,,"URL:","http://dag.wieers.com/home-made/dstat/"
"Host:","Middleware1",,,,"User:","mstevan"
"Cmdline:","dstat --output /home/mstevan/logs/experiment_3.4/dstat/vs_64-vcpr_8-wtpm_32-rep_4.csv 5 16",,,,"Date:","28 Oct 2019 16:04:34 UTC"

"total cpu usage",,,,,,"dsk/total",,"net/total",,"paging",,"system",
"usr","sys","idl","wai","hiq","siq","read","writ","recv","send","in","out","int","csw"
2.013,4.148,93.092,0.046,0.0,0.701,5114.705,4301841.584,0.0,0.0,0.0,0.0,11047.770,32235.900
0.553,0.327,98.970,0.050,0.0,0.101,0.0,32768.0,35194.800,31397.200,0.0,0.0,347.0,1027.600
8.469,8.252,81.999,0.0,0.0,1.280,0.0,10649.600,3383990.200,3382134.600,0.0,0.0,21130.600,66127.600
4.893,7.594,86.765,0.0,0.0,0.749,0.0,1638.400,3664451.0,3659946.600,0.0,0.0,23640.200,72204.600
3.812,7.705,87.710,0.0,0.0,0.773,0.0,2457.600,3722134.0,3717754.400,0.0,0.0,24237.400,74041.200
3.334,7.415,88.504,0.0,0.0,0.747,0.0,819.200,3693258.800,3690977.400,0.0,0.0,23905.400,73420.400
3.252,7.827,88.260,0.0,0.0,0.661,0.0,4096.0,3668154.200,3663363.0,0.0,0.0,23672.0,72480.800
3.538,7.869,87.748,0.026,0.0,0.819,0.0,25395.200,3830973.0,3826387.0,0.0,0.0,24674.400,75633.200
2.952,7.846,88.351,0.0,0.0,0.851,0.0,819.200,3774115.600,3772007.200,0.0,0.0,24228.800,74284.800
2.652,7.982,88.730,0.0,0.0,0.636,0.0,1638.400,3756379.600,3752232.200,0.0,0.0,23879.0,73498.200
3.177,8.022,87.953,0.0,0.0,0.847,0.0,819.200,3815865.600,3811346.400,0.0,0.0,24377.800,75202.200
3.552,7.900,87.805,0.0,0.0,0.742,0.0,1638.400,3750749.400,3748623.800,0.0,0.0,24095.400,73701.400
2.995,7.660,88.709,0.0,0.0,0.636,0.0,1638.400,3775065.400,3770341.800,0.0,0.0,24270.600,74158.400
3.296,7.542,88.370,0.0,0.0,0.791,0.0,4915.200,3765974.400,3764137.0,0.0,0.0,24111.200,73951.200
2.979,7.739,88.511,0.027,0.0,0.745,0.0,21299.200,3794899.600,3790272.800,0.0,0.0,24139.600,74419.800
3.053,7.186,88.971,0.0,0.0,0.790,0.0,1638.400,3720814.0,3717466.400,0.0,0.0,23908.800,73278.800
0.0,0.050,99.925,0.0,0.0,0.025,0.0,819.200,3358.200,1178.600,0.0,0.0,40.200,132.800
