"Dstat 0.7.2 CSV output"
"Author:","Dag Wieers <dag@wieers.com>",,,,"URL:","http://dag.wieers.com/home-made/dstat/"
"Host:","Middleware1",,,,"User:","mstevan"
"Cmdline:","dstat --output /home/mstevan/logs/experiment_3.4/dstat/vs_64-vcpr_32-wtpm_32-rep_1.csv 5 16",,,,"Date:","28 Oct 2019 16:34:26 UTC"

"total cpu usage",,,,,,"dsk/total",,"net/total",,"paging",,"system",
"usr","sys","idl","wai","hiq","siq","read","writ","recv","send","in","out","int","csw"
2.039,4.197,93.015,0.045,0.0,0.704,4968.626,4179169.931,0.0,0.0,0.0,0.0,11253.193,32749.509
0.826,0.325,98.749,0.0,0.0,0.100,0.0,1638.400,53248.0,48078.400,0.0,0.0,342.200,1032.200
9.304,9.109,79.526,0.0,0.0,2.061,0.0,1638.400,5275659.200,5270891.600,0.0,0.0,18359.400,57752.200
3.747,8.178,86.461,0.0,0.0,1.614,0.0,1638.400,5621074.600,5618058.600,0.0,0.0,20982.600,63236.400
4.664,8.729,84.861,0.055,0.0,1.691,0.0,35225.600,5504157.0,5501101.600,0.0,0.0,20099.200,61364.800
3.608,7.762,86.991,0.0,0.0,1.640,0.0,1638.400,5618608.200,5614439.600,0.0,0.0,20759.200,63070.200
3.849,8.485,86.256,0.0,0.0,1.410,0.0,4915.200,5580187.600,5578487.800,0.0,0.0,20600.800,62455.800
3.242,7.655,87.796,0.0,0.0,1.308,0.0,9830.400,5616513.0,5610976.800,0.0,0.0,21059.800,63472.400
3.766,8.340,86.387,0.0,0.0,1.507,0.0,819.200,5519729.0,5518017.800,0.0,0.0,20454.400,61921.800
3.091,8.089,87.369,0.0,0.0,1.451,0.0,1638.400,5560682.800,5556484.600,0.0,0.0,20698.400,62717.400
2.885,7.667,87.909,0.027,0.0,1.511,0.0,24576.0,5616053.200,5611272.800,0.0,0.0,20600.800,62797.600
3.439,8.571,86.432,0.0,0.0,1.558,0.0,819.200,5609276.200,5606976.800,0.0,0.0,20557.600,62879.0
3.285,7.117,88.119,0.0,0.0,1.478,0.0,1638.400,5567679.200,5563131.600,0.0,0.0,20830.400,63200.800
3.299,7.961,87.323,0.0,0.0,1.418,0.0,5734.400,5565023.800,5560306.400,0.0,0.0,20635.0,62801.800
3.546,7.905,87.304,0.0,0.0,1.245,0.0,2457.600,5554121.400,5552934.0,0.0,0.0,20592.600,63052.400
3.088,8.280,87.300,0.0,0.0,1.331,0.0,1638.400,5455061.400,5449204.600,0.0,0.0,20870.600,63280.200
0.477,0.477,98.945,0.050,0.0,0.050,0.0,16384.0,139044.600,145279.400,0.0,0.0,1013.200,2926.800
