"Dstat 0.7.2 CSV output"
"Author:","Dag Wieers <dag@wieers.com>",,,,"URL:","http://dag.wieers.com/home-made/dstat/"
"Host:","Middleware1",,,,"User:","mstevan"
"Cmdline:","dstat --output /home/mstevan/logs/experiment_3.4/dstat/vs_64-vcpr_16-wtpm_32-rep_3.csv 5 16",,,,"Date:","28 Oct 2019 16:20:13 UTC"

"total cpu usage",,,,,,"dsk/total",,"net/total",,"paging",,"system",
"usr","sys","idl","wai","hiq","siq","read","writ","recv","send","in","out","int","csw"
2.024,4.167,93.063,0.045,0.0,0.700,5037.137,4236705.521,0.0,0.0,0.0,0.0,11153.413,32490.320
0.502,0.201,99.248,0.0,0.0,0.050,0.0,1638.400,24104.0,19786.0,0.0,0.0,273.400,781.200
8.924,10.147,79.288,0.0,0.0,1.640,0.0,819.200,4514403.800,4512637.200,0.0,0.0,22018.400,71677.0
6.332,10.423,81.395,0.028,0.0,1.821,0.0,40140.800,4677339.600,4673160.0,0.0,0.0,22278.400,72551.0
5.340,10.202,82.237,0.0,0.0,2.220,0.0,2457.600,4685798.0,4681464.200,0.0,0.0,22887.600,73618.600
5.059,9.419,83.594,0.0,0.0,1.928,0.0,819.200,4717704.400,4715242.0,0.0,0.0,22999.200,74283.200
4.501,9.869,83.729,0.0,0.0,1.901,0.0,1638.400,4792581.600,4788559.0,0.0,0.0,23436.0,75642.200
4.669,10.256,83.296,0.0,0.0,1.779,0.0,13107.200,4810959.800,4806545.400,0.0,0.0,23816.200,76762.800
4.394,9.962,83.761,0.0,0.0,1.883,0.0,819.200,4800825.800,4798147.200,0.0,0.0,23940.600,77249.600
4.153,9.615,84.615,0.028,0.0,1.589,0.0,18022.400,4856178.200,4852368.400,0.0,0.0,24052.800,77687.200
4.164,9.735,84.666,0.0,0.0,1.434,0.0,819.200,4846692.400,4844493.600,0.0,0.0,23950.600,77465.600
4.015,9.205,85.250,0.0,0.0,1.530,0.0,1638.400,4753270.800,4748495.800,0.0,0.0,23372.800,76039.600
4.404,10.735,82.962,0.0,0.0,1.899,0.0,1638.400,4881317.200,4876287.800,0.0,0.0,23953.0,77819.400
3.862,9.763,85.069,0.0,0.0,1.305,0.0,5734.400,4873428.400,4871959.600,0.0,0.0,24180.800,78186.200
4.095,10.019,84.439,0.0,0.0,1.447,0.0,2457.600,4826712.200,4821970.400,0.0,0.0,24040.400,77634.200
3.676,9.438,85.213,0.055,0.0,1.619,0.0,16384.0,4852579.400,4848513.600,0.0,0.0,23933.800,77480.0
0.025,0.050,99.925,0.0,0.0,0.0,0.0,2457.600,3277.0,1125.0,0.0,0.0,43.0,125.400
