"Dstat 0.7.2 CSV output"
"Author:","Dag Wieers <dag@wieers.com>",,,,"URL:","http://dag.wieers.com/home-made/dstat/"
"Host:","Middleware1",,,,"User:","mstevan"
"Cmdline:","dstat --output /home/mstevan/logs/experiment_3.4/dstat/vs_64-vcpr_32-wtpm_64-rep_3.csv 5 16",,,,"Date:","28 Oct 2019 16:42:58 UTC"

"total cpu usage",,,,,,"dsk/total",,"net/total",,"paging",,"system",
"usr","sys","idl","wai","hiq","siq","read","writ","recv","send","in","out","int","csw"
2.052,4.223,92.971,0.045,0.0,0.710,4928.414,4145403.179,0.0,0.0,0.0,0.0,11312.853,32937.846
0.776,0.300,98.849,0.0,0.0,0.075,0.0,819.200,27280.800,24984.0,0.0,0.0,334.600,962.400
9.954,13.436,73.535,0.0,0.0,3.076,0.0,1638.400,5246977.400,5246776.600,0.0,0.0,22287.200,70361.600
5.745,13.197,78.185,0.0,0.0,2.873,0.0,2457.600,5471400.200,5465174.800,0.0,0.0,25851.0,76389.600
6.600,13.318,76.928,0.0,0.0,3.154,0.0,1638.400,5460096.400,5460129.0,0.0,0.0,24861.400,75060.200
6.024,12.163,78.917,0.058,0.0,2.838,0.0,33587.200,5400838.800,5396431.200,0.0,0.0,24769.400,74661.0
5.699,13.069,78.526,0.0,0.0,2.706,0.0,13107.200,5463921.200,5461440.400,0.0,0.0,25621.800,76616.200
5.788,11.999,79.277,0.0,0.0,2.936,0.0,9830.400,5323428.800,5318765.200,0.0,0.0,24909.600,74507.400
5.828,12.438,78.516,0.0,0.0,3.218,0.0,1638.400,5326093.600,5323205.400,0.0,0.0,24493.0,72955.0
4.392,12.433,80.356,0.0,0.0,2.819,0.0,819.200,5402918.600,5400056.0,0.0,0.0,25575.400,75853.400
5.211,11.987,79.841,0.0,0.0,2.961,0.0,1638.400,5481340.200,5477021.200,0.0,0.0,26045.400,77068.400
4.756,12.247,79.835,0.057,0.0,3.105,0.0,17203.200,5500531.800,5495887.800,0.0,0.0,26833.200,78512.200
4.508,11.046,81.692,0.0,0.0,2.755,0.0,819.200,5582643.800,5581420.800,0.0,0.0,27505.400,80309.0
4.297,11.373,81.915,0.0,0.0,2.415,0.0,5734.400,5582256.0,5576461.600,0.0,0.0,27135.200,79318.200
4.140,11.180,82.512,0.0,0.0,2.168,0.0,2457.600,5590376.600,5589458.600,0.0,0.0,27410.400,79891.400
4.028,10.853,82.881,0.0,0.0,2.238,0.0,1638.400,5442107.600,5439773.400,0.0,0.0,26724.600,77692.200
0.728,0.351,98.645,0.0,0.0,0.276,0.0,1638.400,147536.400,179963.600,0.0,0.0,1069.0,3081.600
