------------Middleware started!------------
LOG: Waiting for connection in MyMiddleware.run()
LOG: Accepted client: /10.0.0.7:35648in MyMiddleware.run()
LOG: Accepted client: /10.0.0.7:35676in MyMiddleware.run()
LOG: Accepted client: /10.0.0.7:35664in MyMiddleware.run()
LOG: Accepted client: /10.0.0.7:35672in MyMiddleware.run()
LOG: Accepted client: /10.0.0.7:35654in MyMiddleware.run()
LOG: Accepted client: /10.0.0.7:35646in MyMiddleware.run()
LOG: Accepted client: /10.0.0.7:35706in MyMiddleware.run()
LOG: Accepted client: /10.0.0.7:35684in MyMiddleware.run()
LOG: Accepted client: /10.0.0.7:35656in MyMiddleware.run()
LOG: Accepted client: /10.0.0.7:35666in MyMiddleware.run()
LOG: Accepted client: /10.0.0.7:35662in MyMiddleware.run()
LOG: Accepted client: /10.0.0.7:35688in MyMiddleware.run()
LOG: Accepted client: /10.0.0.7:35708in MyMiddleware.run()
LOG: Accepted client: /10.0.0.7:35704in MyMiddleware.run()
LOG: Accepted client: /10.0.0.7:35650in MyMiddleware.run()
LOG: Accepted client: /10.0.0.7:35696in MyMiddleware.run()
LOG: Accepted client: /10.0.0.7:35702in MyMiddleware.run()
LOG: Accepted client: /10.0.0.7:35692in MyMiddleware.run()
LOG: Accepted client: /10.0.0.7:35668in MyMiddleware.run()
LOG: Accepted client: /10.0.0.7:35690in MyMiddleware.run()
LOG: Accepted client: /10.0.0.7:35670in MyMiddleware.run()
LOG: Accepted client: /10.0.0.7:35700in MyMiddleware.run()
LOG: Accepted client: /10.0.0.7:35652in MyMiddleware.run()
LOG: Accepted client: /10.0.0.7:35698in MyMiddleware.run()
LOG: Accepted client: /10.0.0.7:35674in MyMiddleware.run()
LOG: Accepted client: /10.0.0.7:35682in MyMiddleware.run()
LOG: Accepted client: /10.0.0.7:35658in MyMiddleware.run()
LOG: Accepted client: /10.0.0.7:35660in MyMiddleware.run()
LOG: Accepted client: /10.0.0.7:35686in MyMiddleware.run()
LOG: Accepted client: /10.0.0.7:35680in MyMiddleware.run()
LOG: Accepted client: /10.0.0.7:35678in MyMiddleware.run()
LOG: Accepted client: /10.0.0.7:35694in MyMiddleware.run()
LOG: Accepted client: /10.0.0.11:34796in MyMiddleware.run()
LOG: Accepted client: /10.0.0.11:34806in MyMiddleware.run()
LOG: Accepted client: /10.0.0.11:34810in MyMiddleware.run()
LOG: Accepted client: /10.0.0.11:34814in MyMiddleware.run()
LOG: Accepted client: /10.0.0.11:34816in MyMiddleware.run()
LOG: Accepted client: /10.0.0.11:34820in MyMiddleware.run()
LOG: Accepted client: /10.0.0.11:34828in MyMiddleware.run()
LOG: Accepted client: /10.0.0.11:34866in MyMiddleware.run()
LOG: Accepted client: /10.0.0.11:34848in MyMiddleware.run()
LOG: Accepted client: /10.0.0.11:34846in MyMiddleware.run()
LOG: Accepted client: /10.0.0.11:34818in MyMiddleware.run()
LOG: Accepted client: /10.0.0.11:34858in MyMiddleware.run()
LOG: Accepted client: /10.0.0.11:34856in MyMiddleware.run()
LOG: Accepted client: /10.0.0.11:34860in MyMiddleware.run()
LOG: Accepted client: /10.0.0.11:34836in MyMiddleware.run()
LOG: Accepted client: /10.0.0.11:34838in MyMiddleware.run()
LOG: Accepted client: /10.0.0.11:34822in MyMiddleware.run()
LOG: Accepted client: /10.0.0.11:34844in MyMiddleware.run()
LOG: Accepted client: /10.0.0.11:34868in MyMiddleware.run()
LOG: Accepted client: /10.0.0.11:34864in MyMiddleware.run()
LOG: Accepted client: /10.0.0.11:34840in MyMiddleware.run()
LOG: Accepted client: /10.0.0.11:34842in MyMiddleware.run()
LOG: Accepted client: /10.0.0.11:34830in MyMiddleware.run()
LOG: Accepted client: /10.0.0.11:34834in MyMiddleware.run()
LOG: Accepted client: /10.0.0.11:34802in MyMiddleware.run()
LOG: Accepted client: /10.0.0.11:34832in MyMiddleware.run()
LOG: Accepted client: /10.0.0.11:34850in MyMiddleware.run()
LOG: Accepted client: /10.0.0.11:34862in MyMiddleware.run()
LOG: Accepted client: /10.0.0.11:34826in MyMiddleware.run()
LOG: Accepted client: /10.0.0.11:34824in MyMiddleware.run()
LOG: Accepted client: /10.0.0.11:34852in MyMiddleware.run()
LOG: Accepted client: /10.0.0.11:34854in MyMiddleware.run()
LOG: Accepted client: /10.0.0.6:45874in MyMiddleware.run()
LOG: Accepted client: /10.0.0.6:45892in MyMiddleware.run()
LOG: Accepted client: /10.0.0.6:45872in MyMiddleware.run()
LOG: Accepted client: /10.0.0.6:45864in MyMiddleware.run()
LOG: Accepted client: /10.0.0.6:45866in MyMiddleware.run()
LOG: Accepted client: /10.0.0.6:45894in MyMiddleware.run()
LOG: Accepted client: /10.0.0.6:45870in MyMiddleware.run()
LOG: Accepted client: /10.0.0.6:45912in MyMiddleware.run()
LOG: Accepted client: /10.0.0.6:45868in MyMiddleware.run()
LOG: Accepted client: /10.0.0.6:45876in MyMiddleware.run()
LOG: Accepted client: /10.0.0.6:45888in MyMiddleware.run()
LOG: Accepted client: /10.0.0.6:45890in MyMiddleware.run()
LOG: Accepted client: /10.0.0.6:45878in MyMiddleware.run()
LOG: Accepted client: /10.0.0.6:45908in MyMiddleware.run()
LOG: Accepted client: /10.0.0.6:45856in MyMiddleware.run()
LOG: Accepted client: /10.0.0.6:45910in MyMiddleware.run()
LOG: Accepted client: /10.0.0.6:45852in MyMiddleware.run()
LOG: Accepted client: /10.0.0.6:45858in MyMiddleware.run()
LOG: Accepted client: /10.0.0.6:45854in MyMiddleware.run()
LOG: Accepted client: /10.0.0.6:45880in MyMiddleware.run()
LOG: Accepted client: /10.0.0.6:45882in MyMiddleware.run()
LOG: Accepted client: /10.0.0.6:45902in MyMiddleware.run()
LOG: Accepted client: /10.0.0.6:45904in MyMiddleware.run()
LOG: Accepted client: /10.0.0.6:45886in MyMiddleware.run()
LOG: Accepted client: /10.0.0.6:45900in MyMiddleware.run()
LOG: Accepted client: /10.0.0.6:45860in MyMiddleware.run()
LOG: Accepted client: /10.0.0.6:45898in MyMiddleware.run()
LOG: Accepted client: /10.0.0.6:45850in MyMiddleware.run()
LOG: Accepted client: /10.0.0.6:45896in MyMiddleware.run()
LOG: Accepted client: /10.0.0.6:45884in MyMiddleware.run()
LOG: Accepted client: /10.0.0.6:45906in MyMiddleware.run()
LOG: Accepted client: /10.0.0.6:45862in MyMiddleware.run()
LOG: Closed client: /10.0.0.7:35646in MyMiddleware.run()
LOG: Closed client: /10.0.0.7:35656in MyMiddleware.run()
LOG: Closed client: /10.0.0.7:35650in MyMiddleware.run()
LOG: Closed client: /10.0.0.7:35672in MyMiddleware.run()
LOG: Closed client: /10.0.0.7:35702in MyMiddleware.run()
LOG: Closed client: /10.0.0.7:35660in MyMiddleware.run()
LOG: Closed client: /10.0.0.7:35706in MyMiddleware.run()
LOG: Closed client: /10.0.0.7:35678in MyMiddleware.run()
LOG: Closed client: /10.0.0.7:35704in MyMiddleware.run()
LOG: Closed client: /10.0.0.7:35684in MyMiddleware.run()
LOG: Closed client: /10.0.0.7:35658in MyMiddleware.run()
LOG: Closed client: /10.0.0.7:35676in MyMiddleware.run()
LOG: Closed client: /10.0.0.7:35666in MyMiddleware.run()
LOG: Closed client: /10.0.0.7:35664in MyMiddleware.run()
LOG: Closed client: /10.0.0.7:35686in MyMiddleware.run()
LOG: Closed client: /10.0.0.7:35694in MyMiddleware.run()
LOG: Closed client: /10.0.0.7:35696in MyMiddleware.run()
LOG: Closed client: /10.0.0.7:35680in MyMiddleware.run()
LOG: Closed client: /10.0.0.7:35668in MyMiddleware.run()
LOG: Closed client: /10.0.0.7:35682in MyMiddleware.run()
LOG: Closed client: /10.0.0.7:35698in MyMiddleware.run()
LOG: Closed client: /10.0.0.7:35670in MyMiddleware.run()
LOG: Closed client: /10.0.0.7:35674in MyMiddleware.run()
LOG: Closed client: /10.0.0.7:35700in MyMiddleware.run()
LOG: Closed client: /10.0.0.7:35662in MyMiddleware.run()
LOG: Closed client: /10.0.0.7:35648in MyMiddleware.run()
LOG: Closed client: /10.0.0.7:35692in MyMiddleware.run()
LOG: Closed client: /10.0.0.7:35708in MyMiddleware.run()
LOG: Closed client: /10.0.0.7:35652in MyMiddleware.run()
LOG: Closed client: /10.0.0.7:35688in MyMiddleware.run()
LOG: Closed client: /10.0.0.7:35654in MyMiddleware.run()
LOG: Closed client: /10.0.0.7:35690in MyMiddleware.run()
LOG: Closed client: /10.0.0.6:45860in MyMiddleware.run()
LOG: Closed client: /10.0.0.6:45852in MyMiddleware.run()
LOG: Closed client: /10.0.0.6:45862in MyMiddleware.run()
LOG: Closed client: /10.0.0.6:45872in MyMiddleware.run()
LOG: Closed client: /10.0.0.6:45850in MyMiddleware.run()
LOG: Closed client: /10.0.0.6:45856in MyMiddleware.run()
LOG: Closed client: /10.0.0.6:45858in MyMiddleware.run()
LOG: Closed client: /10.0.0.6:45876in MyMiddleware.run()
LOG: Closed client: /10.0.0.6:45870in MyMiddleware.run()
LOG: Closed client: /10.0.0.6:45880in MyMiddleware.run()
LOG: Closed client: /10.0.0.6:45892in MyMiddleware.run()
LOG: Closed client: /10.0.0.6:45886in MyMiddleware.run()
LOG: Closed client: /10.0.0.6:45868in MyMiddleware.run()
LOG: Closed client: /10.0.0.6:45888in MyMiddleware.run()
LOG: Closed client: /10.0.0.6:45864in MyMiddleware.run()
LOG: Closed client: /10.0.0.6:45882in MyMiddleware.run()
LOG: Closed client: /10.0.0.6:45884in MyMiddleware.run()
LOG: Closed client: /10.0.0.6:45866in MyMiddleware.run()
LOG: Closed client: /10.0.0.6:45890in MyMiddleware.run()
LOG: Closed client: /10.0.0.6:45878in MyMiddleware.run()
LOG: Closed client: /10.0.0.6:45896in MyMiddleware.run()
LOG: Closed client: /10.0.0.6:45898in MyMiddleware.run()
LOG: Closed client: /10.0.0.6:45910in MyMiddleware.run()
LOG: Closed client: /10.0.0.6:45912in MyMiddleware.run()
LOG: Closed client: /10.0.0.6:45904in MyMiddleware.run()
LOG: Closed client: /10.0.0.6:45900in MyMiddleware.run()
LOG: Closed client: /10.0.0.6:45908in MyMiddleware.run()
LOG: Closed client: /10.0.0.6:45854in MyMiddleware.run()
LOG: Closed client: /10.0.0.6:45902in MyMiddleware.run()
LOG: Closed client: /10.0.0.6:45906in MyMiddleware.run()
LOG: Closed client: /10.0.0.6:45874in MyMiddleware.run()
LOG: Closed client: /10.0.0.6:45894in MyMiddleware.run()
LOG: Closed client: /10.0.0.11:34832in MyMiddleware.run()
LOG: Closed client: /10.0.0.11:34836in MyMiddleware.run()
LOG: Closed client: /10.0.0.11:34858in MyMiddleware.run()
LOG: Closed client: /10.0.0.11:34862in MyMiddleware.run()
LOG: Closed client: /10.0.0.11:34864in MyMiddleware.run()
LOG: Closed client: /10.0.0.11:34860in MyMiddleware.run()
LOG: Closed client: /10.0.0.11:34850in MyMiddleware.run()
LOG: Closed client: /10.0.0.11:34818in MyMiddleware.run()
LOG: Closed client: /10.0.0.11:34802in MyMiddleware.run()
LOG: Closed client: /10.0.0.11:34846in MyMiddleware.run()
LOG: Closed client: /10.0.0.11:34868in MyMiddleware.run()
LOG: Closed client: /10.0.0.11:34810in MyMiddleware.run()
LOG: Closed client: /10.0.0.11:34840in MyMiddleware.run()
LOG: Closed client: /10.0.0.11:34844in MyMiddleware.run()
LOG: Closed client: /10.0.0.11:34828in MyMiddleware.run()
LOG: Closed client: /10.0.0.11:34838in MyMiddleware.run()
LOG: Closed client: /10.0.0.11:34842in MyMiddleware.run()
LOG: Closed client: /10.0.0.11:34816in MyMiddleware.run()
LOG: Closed client: /10.0.0.11:34822in MyMiddleware.run()
LOG: Closed client: /10.0.0.11:34834in MyMiddleware.run()
LOG: Closed client: /10.0.0.11:34852in MyMiddleware.run()
LOG: Closed client: /10.0.0.11:34866in MyMiddleware.run()
LOG: Closed client: /10.0.0.11:34820in MyMiddleware.run()
LOG: Closed client: /10.0.0.11:34826in MyMiddleware.run()
LOG: Closed client: /10.0.0.11:34806in MyMiddleware.run()
LOG: Closed client: /10.0.0.11:34856in MyMiddleware.run()
LOG: Closed client: /10.0.0.11:34796in MyMiddleware.run()
LOG: Closed client: /10.0.0.11:34814in MyMiddleware.run()
LOG: Closed client: /10.0.0.11:34824in MyMiddleware.run()
LOG: Closed client: /10.0.0.11:34854in MyMiddleware.run()
LOG: Closed client: /10.0.0.11:34830in MyMiddleware.run()
LOG: Closed client: /10.0.0.11:34848in MyMiddleware.run()
