------------Middleware started!------------
LOG: Waiting for connection in MyMiddleware.run()
LOG: Accepted client: /10.0.0.11:38436in MyMiddleware.run()
LOG: Accepted client: /10.0.0.11:38440in MyMiddleware.run()
LOG: Accepted client: /10.0.0.11:38438in MyMiddleware.run()
LOG: Accepted client: /10.0.0.11:38442in MyMiddleware.run()
LOG: Accepted client: /10.0.0.7:39350in MyMiddleware.run()
LOG: Accepted client: /10.0.0.7:39348in MyMiddleware.run()
LOG: Accepted client: /10.0.0.7:39352in MyMiddleware.run()
LOG: Accepted client: /10.0.0.7:39354in MyMiddleware.run()
LOG: Accepted client: /10.0.0.6:49486in MyMiddleware.run()
LOG: Accepted client: /10.0.0.6:49484in MyMiddleware.run()
LOG: Accepted client: /10.0.0.6:49488in MyMiddleware.run()
LOG: Accepted client: /10.0.0.6:49482in MyMiddleware.run()
LOG: Closed client: /10.0.0.7:39354in MyMiddleware.run()
LOG: Closed client: /10.0.0.7:39348in MyMiddleware.run()
LOG: Closed client: /10.0.0.7:39352in MyMiddleware.run()
LOG: Closed client: /10.0.0.7:39350in MyMiddleware.run()
LOG: Closed client: /10.0.0.11:38438in MyMiddleware.run()
LOG: Closed client: /10.0.0.11:38442in MyMiddleware.run()
LOG: Closed client: /10.0.0.11:38440in MyMiddleware.run()
LOG: Closed client: /10.0.0.11:38436in MyMiddleware.run()
LOG: Closed client: /10.0.0.6:49484in MyMiddleware.run()
LOG: Closed client: /10.0.0.6:49486in MyMiddleware.run()
LOG: Closed client: /10.0.0.6:49488in MyMiddleware.run()
LOG: Closed client: /10.0.0.6:49482in MyMiddleware.run()
