------------Middleware started!------------
LOG: Waiting for connection in MyMiddleware.run()
LOG: Accepted client: /10.0.0.6:51006in MyMiddleware.run()
LOG: Accepted client: /10.0.0.6:51008in MyMiddleware.run()
LOG: Accepted client: /10.0.0.6:51004in MyMiddleware.run()
LOG: Accepted client: /10.0.0.6:51002in MyMiddleware.run()
LOG: Accepted client: /10.0.0.11:39964in MyMiddleware.run()
LOG: Accepted client: /10.0.0.11:39970in MyMiddleware.run()
LOG: Accepted client: /10.0.0.11:39968in MyMiddleware.run()
LOG: Accepted client: /10.0.0.11:39966in MyMiddleware.run()
LOG: Accepted client: /10.0.0.7:40874in MyMiddleware.run()
LOG: Accepted client: /10.0.0.7:40872in MyMiddleware.run()
LOG: Accepted client: /10.0.0.7:40868in MyMiddleware.run()
LOG: Accepted client: /10.0.0.7:40870in MyMiddleware.run()
LOG: Closed client: /10.0.0.6:51008in MyMiddleware.run()
LOG: Closed client: /10.0.0.6:51004in MyMiddleware.run()
LOG: Closed client: /10.0.0.6:51002in MyMiddleware.run()
LOG: Closed client: /10.0.0.6:51006in MyMiddleware.run()
LOG: Closed client: /10.0.0.11:39966in MyMiddleware.run()
LOG: Closed client: /10.0.0.11:39964in MyMiddleware.run()
LOG: Closed client: /10.0.0.11:39968in MyMiddleware.run()
LOG: Closed client: /10.0.0.11:39970in MyMiddleware.run()
LOG: Closed client: /10.0.0.7:40870in MyMiddleware.run()
LOG: Closed client: /10.0.0.7:40874in MyMiddleware.run()
LOG: Closed client: /10.0.0.7:40868in MyMiddleware.run()
LOG: Closed client: /10.0.0.7:40872in MyMiddleware.run()
