------------Middleware started!------------
LOG: Waiting for connection in MyMiddleware.run()
LOG: Accepted client: /10.0.0.7:58274in MyMiddleware.run()
LOG: Accepted client: /10.0.0.7:58280in MyMiddleware.run()
LOG: Accepted client: /10.0.0.7:58278in MyMiddleware.run()
LOG: Accepted client: /10.0.0.7:58276in MyMiddleware.run()
LOG: Accepted client: /10.0.0.7:58270in MyMiddleware.run()
LOG: Accepted client: /10.0.0.7:58268in MyMiddleware.run()
LOG: Accepted client: /10.0.0.7:58272in MyMiddleware.run()
LOG: Accepted client: /10.0.0.7:58266in MyMiddleware.run()
LOG: Accepted client: /10.0.0.11:57394in MyMiddleware.run()
LOG: Accepted client: /10.0.0.11:57400in MyMiddleware.run()
LOG: Accepted client: /10.0.0.11:57402in MyMiddleware.run()
LOG: Accepted client: /10.0.0.11:57396in MyMiddleware.run()
LOG: Accepted client: /10.0.0.11:57404in MyMiddleware.run()
LOG: Accepted client: /10.0.0.11:57398in MyMiddleware.run()
LOG: Accepted client: /10.0.0.11:57406in MyMiddleware.run()
LOG: Accepted client: /10.0.0.11:57408in MyMiddleware.run()
LOG: Accepted client: /10.0.0.6:40190in MyMiddleware.run()
LOG: Accepted client: /10.0.0.6:40194in MyMiddleware.run()
LOG: Accepted client: /10.0.0.6:40192in MyMiddleware.run()
LOG: Accepted client: /10.0.0.6:40196in MyMiddleware.run()
LOG: Accepted client: /10.0.0.6:40204in MyMiddleware.run()
LOG: Accepted client: /10.0.0.6:40198in MyMiddleware.run()
LOG: Accepted client: /10.0.0.6:40200in MyMiddleware.run()
LOG: Accepted client: /10.0.0.6:40202in MyMiddleware.run()
LOG: Closed client: /10.0.0.7:58276in MyMiddleware.run()
LOG: Closed client: /10.0.0.7:58266in MyMiddleware.run()
LOG: Closed client: /10.0.0.7:58272in MyMiddleware.run()
LOG: Closed client: /10.0.0.7:58268in MyMiddleware.run()
LOG: Closed client: /10.0.0.7:58278in MyMiddleware.run()
LOG: Closed client: /10.0.0.7:58270in MyMiddleware.run()
LOG: Closed client: /10.0.0.7:58280in MyMiddleware.run()
LOG: Closed client: /10.0.0.7:58274in MyMiddleware.run()
LOG: Closed client: /10.0.0.6:40196in MyMiddleware.run()
LOG: Closed client: /10.0.0.6:40200in MyMiddleware.run()
LOG: Closed client: /10.0.0.6:40202in MyMiddleware.run()
LOG: Closed client: /10.0.0.6:40198in MyMiddleware.run()
LOG: Closed client: /10.0.0.6:40190in MyMiddleware.run()
LOG: Closed client: /10.0.0.6:40192in MyMiddleware.run()
LOG: Closed client: /10.0.0.6:40194in MyMiddleware.run()
LOG: Closed client: /10.0.0.6:40204in MyMiddleware.run()
LOG: Closed client: /10.0.0.11:57402in MyMiddleware.run()
LOG: Closed client: /10.0.0.11:57400in MyMiddleware.run()
LOG: Closed client: /10.0.0.11:57404in MyMiddleware.run()
LOG: Closed client: /10.0.0.11:57398in MyMiddleware.run()
LOG: Closed client: /10.0.0.11:57408in MyMiddleware.run()
LOG: Closed client: /10.0.0.11:57406in MyMiddleware.run()
LOG: Closed client: /10.0.0.11:57396in MyMiddleware.run()
LOG: Closed client: /10.0.0.11:57394in MyMiddleware.run()
