------------Middleware started!------------
LOG: Waiting for connection in MyMiddleware.run()
LOG: Accepted client: /10.0.0.6:55030in MyMiddleware.run()
LOG: Accepted client: /10.0.0.6:55058in MyMiddleware.run()
LOG: Accepted client: /10.0.0.6:55032in MyMiddleware.run()
LOG: Accepted client: /10.0.0.6:55048in MyMiddleware.run()
LOG: Accepted client: /10.0.0.6:55056in MyMiddleware.run()
LOG: Accepted client: /10.0.0.6:55042in MyMiddleware.run()
LOG: Accepted client: /10.0.0.6:55038in MyMiddleware.run()
LOG: Accepted client: /10.0.0.6:55054in MyMiddleware.run()
LOG: Accepted client: /10.0.0.6:55036in MyMiddleware.run()
LOG: Accepted client: /10.0.0.6:55034in MyMiddleware.run()
LOG: Accepted client: /10.0.0.6:55040in MyMiddleware.run()
LOG: Accepted client: /10.0.0.6:55050in MyMiddleware.run()
LOG: Accepted client: /10.0.0.6:55028in MyMiddleware.run()
LOG: Accepted client: /10.0.0.6:55044in MyMiddleware.run()
LOG: Accepted client: /10.0.0.6:55052in MyMiddleware.run()
LOG: Accepted client: /10.0.0.6:55046in MyMiddleware.run()
LOG: Accepted client: /10.0.0.11:43938in MyMiddleware.run()
LOG: Accepted client: /10.0.0.11:43950in MyMiddleware.run()
LOG: Accepted client: /10.0.0.11:43948in MyMiddleware.run()
LOG: Accepted client: /10.0.0.11:43934in MyMiddleware.run()
LOG: Accepted client: /10.0.0.11:43954in MyMiddleware.run()
LOG: Accepted client: /10.0.0.11:43962in MyMiddleware.run()
LOG: Accepted client: /10.0.0.11:43946in MyMiddleware.run()
LOG: Accepted client: /10.0.0.11:43944in MyMiddleware.run()
LOG: Accepted client: /10.0.0.11:43956in MyMiddleware.run()
LOG: Accepted client: /10.0.0.11:43952in MyMiddleware.run()
LOG: Accepted client: /10.0.0.11:43958in MyMiddleware.run()
LOG: Accepted client: /10.0.0.11:43940in MyMiddleware.run()
LOG: Accepted client: /10.0.0.11:43942in MyMiddleware.run()
LOG: Accepted client: /10.0.0.11:43936in MyMiddleware.run()
LOG: Accepted client: /10.0.0.11:43996in MyMiddleware.run()
LOG: Accepted client: /10.0.0.11:43994in MyMiddleware.run()
LOG: Accepted client: /10.0.0.7:44888in MyMiddleware.run()
LOG: Accepted client: /10.0.0.7:44900in MyMiddleware.run()
LOG: Accepted client: /10.0.0.7:44890in MyMiddleware.run()
LOG: Accepted client: /10.0.0.7:44896in MyMiddleware.run()
LOG: Accepted client: /10.0.0.7:44898in MyMiddleware.run()
LOG: Accepted client: /10.0.0.7:44906in MyMiddleware.run()
LOG: Accepted client: /10.0.0.7:44912in MyMiddleware.run()
LOG: Accepted client: /10.0.0.7:44894in MyMiddleware.run()
LOG: Accepted client: /10.0.0.7:44892in MyMiddleware.run()
LOG: Accepted client: /10.0.0.7:44916in MyMiddleware.run()
LOG: Accepted client: /10.0.0.7:44902in MyMiddleware.run()
LOG: Accepted client: /10.0.0.7:44886in MyMiddleware.run()
LOG: Accepted client: /10.0.0.7:44904in MyMiddleware.run()
LOG: Accepted client: /10.0.0.7:44908in MyMiddleware.run()
LOG: Accepted client: /10.0.0.7:44914in MyMiddleware.run()
LOG: Accepted client: /10.0.0.7:44910in MyMiddleware.run()
LOG: Closed client: /10.0.0.6:55044in MyMiddleware.run()
LOG: Closed client: /10.0.0.6:55040in MyMiddleware.run()
LOG: Closed client: /10.0.0.6:55038in MyMiddleware.run()
LOG: Closed client: /10.0.0.6:55030in MyMiddleware.run()
LOG: Closed client: /10.0.0.6:55056in MyMiddleware.run()
LOG: Closed client: /10.0.0.6:55028in MyMiddleware.run()
LOG: Closed client: /10.0.0.6:55034in MyMiddleware.run()
LOG: Closed client: /10.0.0.6:55050in MyMiddleware.run()
LOG: Closed client: /10.0.0.6:55036in MyMiddleware.run()
LOG: Closed client: /10.0.0.6:55048in MyMiddleware.run()
LOG: Closed client: /10.0.0.6:55032in MyMiddleware.run()
LOG: Closed client: /10.0.0.6:55058in MyMiddleware.run()
LOG: Closed client: /10.0.0.6:55042in MyMiddleware.run()
LOG: Closed client: /10.0.0.6:55046in MyMiddleware.run()
LOG: Closed client: /10.0.0.6:55054in MyMiddleware.run()
LOG: Closed client: /10.0.0.6:55052in MyMiddleware.run()
LOG: Closed client: /10.0.0.11:43940in MyMiddleware.run()
LOG: Closed client: /10.0.0.11:43934in MyMiddleware.run()
LOG: Closed client: /10.0.0.11:43958in MyMiddleware.run()
LOG: Closed client: /10.0.0.11:43944in MyMiddleware.run()
LOG: Closed client: /10.0.0.11:43948in MyMiddleware.run()
LOG: Closed client: /10.0.0.11:43938in MyMiddleware.run()
LOG: Closed client: /10.0.0.11:43946in MyMiddleware.run()
LOG: Closed client: /10.0.0.11:43954in MyMiddleware.run()
LOG: Closed client: /10.0.0.11:43956in MyMiddleware.run()
LOG: Closed client: /10.0.0.11:43994in MyMiddleware.run()
LOG: Closed client: /10.0.0.11:43996in MyMiddleware.run()
LOG: Closed client: /10.0.0.11:43950in MyMiddleware.run()
LOG: Closed client: /10.0.0.11:43952in MyMiddleware.run()
LOG: Closed client: /10.0.0.11:43962in MyMiddleware.run()
LOG: Closed client: /10.0.0.11:43936in MyMiddleware.run()
LOG: Closed client: /10.0.0.11:43942in MyMiddleware.run()
LOG: Closed client: /10.0.0.7:44896in MyMiddleware.run()
LOG: Closed client: /10.0.0.7:44900in MyMiddleware.run()
LOG: Closed client: /10.0.0.7:44888in MyMiddleware.run()
LOG: Closed client: /10.0.0.7:44902in MyMiddleware.run()
LOG: Closed client: /10.0.0.7:44886in MyMiddleware.run()
LOG: Closed client: /10.0.0.7:44898in MyMiddleware.run()
LOG: Closed client: /10.0.0.7:44894in MyMiddleware.run()
LOG: Closed client: /10.0.0.7:44916in MyMiddleware.run()
LOG: Closed client: /10.0.0.7:44890in MyMiddleware.run()
LOG: Closed client: /10.0.0.7:44904in MyMiddleware.run()
LOG: Closed client: /10.0.0.7:44910in MyMiddleware.run()
LOG: Closed client: /10.0.0.7:44892in MyMiddleware.run()
LOG: Closed client: /10.0.0.7:44908in MyMiddleware.run()
LOG: Closed client: /10.0.0.7:44912in MyMiddleware.run()
LOG: Closed client: /10.0.0.7:44906in MyMiddleware.run()
LOG: Closed client: /10.0.0.7:44914in MyMiddleware.run()
