------------Middleware started!------------
LOG: Waiting for connection in MyMiddleware.run()
LOG: Accepted client: /10.0.0.11:56314in MyMiddleware.run()
LOG: Accepted client: /10.0.0.11:56312in MyMiddleware.run()
LOG: Accepted client: /10.0.0.11:56324in MyMiddleware.run()
LOG: Accepted client: /10.0.0.11:56318in MyMiddleware.run()
LOG: Accepted client: /10.0.0.11:56316in MyMiddleware.run()
LOG: Accepted client: /10.0.0.11:56310in MyMiddleware.run()
LOG: Accepted client: /10.0.0.11:56322in MyMiddleware.run()
LOG: Accepted client: /10.0.0.11:56320in MyMiddleware.run()
LOG: Accepted client: /10.0.0.7:57202in MyMiddleware.run()
LOG: Accepted client: /10.0.0.7:57210in MyMiddleware.run()
LOG: Accepted client: /10.0.0.7:57208in MyMiddleware.run()
LOG: Accepted client: /10.0.0.7:57200in MyMiddleware.run()
LOG: Accepted client: /10.0.0.7:57212in MyMiddleware.run()
LOG: Accepted client: /10.0.0.7:57204in MyMiddleware.run()
LOG: Accepted client: /10.0.0.7:57206in MyMiddleware.run()
LOG: Accepted client: /10.0.0.7:57198in MyMiddleware.run()
LOG: Accepted client: /10.0.0.6:39120in MyMiddleware.run()
LOG: Accepted client: /10.0.0.6:39114in MyMiddleware.run()
LOG: Accepted client: /10.0.0.6:39112in MyMiddleware.run()
LOG: Accepted client: /10.0.0.6:39110in MyMiddleware.run()
LOG: Accepted client: /10.0.0.6:39108in MyMiddleware.run()
LOG: Accepted client: /10.0.0.6:39118in MyMiddleware.run()
LOG: Accepted client: /10.0.0.6:39116in MyMiddleware.run()
LOG: Accepted client: /10.0.0.6:39122in MyMiddleware.run()
LOG: Closed client: /10.0.0.11:56314in MyMiddleware.run()
LOG: Closed client: /10.0.0.11:56312in MyMiddleware.run()
LOG: Closed client: /10.0.0.11:56324in MyMiddleware.run()
LOG: Closed client: /10.0.0.11:56318in MyMiddleware.run()
LOG: Closed client: /10.0.0.11:56320in MyMiddleware.run()
LOG: Closed client: /10.0.0.11:56310in MyMiddleware.run()
LOG: Closed client: /10.0.0.11:56316in MyMiddleware.run()
LOG: Closed client: /10.0.0.11:56322in MyMiddleware.run()
LOG: Closed client: /10.0.0.7:57200in MyMiddleware.run()
LOG: Closed client: /10.0.0.7:57198in MyMiddleware.run()
LOG: Closed client: /10.0.0.7:57206in MyMiddleware.run()
LOG: Closed client: /10.0.0.7:57202in MyMiddleware.run()
LOG: Closed client: /10.0.0.7:57204in MyMiddleware.run()
LOG: Closed client: /10.0.0.7:57210in MyMiddleware.run()
LOG: Closed client: /10.0.0.7:57208in MyMiddleware.run()
LOG: Closed client: /10.0.0.7:57212in MyMiddleware.run()
LOG: Closed client: /10.0.0.6:39108in MyMiddleware.run()
LOG: Closed client: /10.0.0.6:39114in MyMiddleware.run()
LOG: Closed client: /10.0.0.6:39118in MyMiddleware.run()
LOG: Closed client: /10.0.0.6:39112in MyMiddleware.run()
LOG: Closed client: /10.0.0.6:39110in MyMiddleware.run()
LOG: Closed client: /10.0.0.6:39116in MyMiddleware.run()
LOG: Closed client: /10.0.0.6:39120in MyMiddleware.run()
LOG: Closed client: /10.0.0.6:39122in MyMiddleware.run()
