------------Middleware started!------------
LOG: Waiting for connection in MyMiddleware.run()
LOG: Accepted client: /10.0.0.7:54816in MyMiddleware.run()
LOG: Accepted client: /10.0.0.7:54818in MyMiddleware.run()
LOG: Accepted client: /10.0.0.7:54814in MyMiddleware.run()
LOG: Accepted client: /10.0.0.7:54812in MyMiddleware.run()
LOG: Accepted client: /10.0.0.6:36714in MyMiddleware.run()
LOG: Accepted client: /10.0.0.6:36720in MyMiddleware.run()
LOG: Accepted client: /10.0.0.6:36716in MyMiddleware.run()
LOG: Accepted client: /10.0.0.6:36718in MyMiddleware.run()
LOG: Accepted client: /10.0.0.11:53938in MyMiddleware.run()
LOG: Accepted client: /10.0.0.11:53936in MyMiddleware.run()
LOG: Accepted client: /10.0.0.11:53934in MyMiddleware.run()
LOG: Accepted client: /10.0.0.11:53932in MyMiddleware.run()
LOG: Closed client: /10.0.0.7:54812in MyMiddleware.run()
LOG: Closed client: /10.0.0.7:54814in MyMiddleware.run()
LOG: Closed client: /10.0.0.7:54816in MyMiddleware.run()
LOG: Closed client: /10.0.0.7:54818in MyMiddleware.run()
LOG: Closed client: /10.0.0.6:36716in MyMiddleware.run()
LOG: Closed client: /10.0.0.6:36718in MyMiddleware.run()
LOG: Closed client: /10.0.0.6:36720in MyMiddleware.run()
LOG: Closed client: /10.0.0.6:36714in MyMiddleware.run()
LOG: Closed client: /10.0.0.11:53932in MyMiddleware.run()
LOG: Closed client: /10.0.0.11:53934in MyMiddleware.run()
LOG: Closed client: /10.0.0.11:53938in MyMiddleware.run()
LOG: Closed client: /10.0.0.11:53936in MyMiddleware.run()
