------------Middleware started!------------
LOG: Waiting for connection in MyMiddleware.run()
LOG: Accepted client: /10.0.0.7:33602in MyMiddleware.run()
LOG: Accepted client: /10.0.0.7:33614in MyMiddleware.run()
LOG: Accepted client: /10.0.0.7:33604in MyMiddleware.run()
LOG: Accepted client: /10.0.0.7:33606in MyMiddleware.run()
LOG: Accepted client: /10.0.0.7:33628in MyMiddleware.run()
LOG: Accepted client: /10.0.0.7:33610in MyMiddleware.run()
LOG: Accepted client: /10.0.0.7:33608in MyMiddleware.run()
LOG: Accepted client: /10.0.0.7:33630in MyMiddleware.run()
LOG: Accepted client: /10.0.0.7:33626in MyMiddleware.run()
LOG: Accepted client: /10.0.0.7:33624in MyMiddleware.run()
LOG: Accepted client: /10.0.0.7:33616in MyMiddleware.run()
LOG: Accepted client: /10.0.0.7:33622in MyMiddleware.run()
LOG: Accepted client: /10.0.0.7:33620in MyMiddleware.run()
LOG: Accepted client: /10.0.0.7:33618in MyMiddleware.run()
LOG: Accepted client: /10.0.0.7:33600in MyMiddleware.run()
LOG: Accepted client: /10.0.0.7:33612in MyMiddleware.run()
LOG: Accepted client: /10.0.0.6:43696in MyMiddleware.run()
LOG: Accepted client: /10.0.0.6:43714in MyMiddleware.run()
LOG: Accepted client: /10.0.0.6:43716in MyMiddleware.run()
LOG: Accepted client: /10.0.0.6:43700in MyMiddleware.run()
LOG: Accepted client: /10.0.0.6:43698in MyMiddleware.run()
LOG: Accepted client: /10.0.0.6:43718in MyMiddleware.run()
LOG: Accepted client: /10.0.0.6:43706in MyMiddleware.run()
LOG: Accepted client: /10.0.0.6:43702in MyMiddleware.run()
LOG: Accepted client: /10.0.0.6:43694in MyMiddleware.run()
LOG: Accepted client: /10.0.0.6:43708in MyMiddleware.run()
LOG: Accepted client: /10.0.0.6:43710in MyMiddleware.run()
LOG: Accepted client: /10.0.0.6:43712in MyMiddleware.run()
LOG: Accepted client: /10.0.0.6:43690in MyMiddleware.run()
LOG: Accepted client: /10.0.0.6:43692in MyMiddleware.run()
LOG: Accepted client: /10.0.0.6:43720in MyMiddleware.run()
LOG: Accepted client: /10.0.0.6:43704in MyMiddleware.run()
LOG: Accepted client: /10.0.0.11:60972in MyMiddleware.run()
LOG: Accepted client: /10.0.0.11:60980in MyMiddleware.run()
LOG: Accepted client: /10.0.0.11:60992in MyMiddleware.run()
LOG: Accepted client: /10.0.0.11:60974in MyMiddleware.run()
LOG: Accepted client: /10.0.0.11:60966in MyMiddleware.run()
LOG: Accepted client: /10.0.0.11:60978in MyMiddleware.run()
LOG: Accepted client: /10.0.0.11:60976in MyMiddleware.run()
LOG: Accepted client: /10.0.0.11:60996in MyMiddleware.run()
LOG: Accepted client: /10.0.0.11:60968in MyMiddleware.run()
LOG: Accepted client: /10.0.0.11:60970in MyMiddleware.run()
LOG: Accepted client: /10.0.0.11:60986in MyMiddleware.run()
LOG: Accepted client: /10.0.0.11:60984in MyMiddleware.run()
LOG: Accepted client: /10.0.0.11:60994in MyMiddleware.run()
LOG: Accepted client: /10.0.0.11:60982in MyMiddleware.run()
LOG: Accepted client: /10.0.0.11:60988in MyMiddleware.run()
LOG: Accepted client: /10.0.0.11:60990in MyMiddleware.run()
LOG: Closed client: /10.0.0.6:43706in MyMiddleware.run()
LOG: Closed client: /10.0.0.6:43704in MyMiddleware.run()
LOG: Closed client: /10.0.0.6:43700in MyMiddleware.run()
LOG: Closed client: /10.0.0.6:43720in MyMiddleware.run()
LOG: Closed client: /10.0.0.6:43698in MyMiddleware.run()
LOG: Closed client: /10.0.0.6:43712in MyMiddleware.run()
LOG: Closed client: /10.0.0.6:43708in MyMiddleware.run()
LOG: Closed client: /10.0.0.6:43692in MyMiddleware.run()
LOG: Closed client: /10.0.0.6:43714in MyMiddleware.run()
LOG: Closed client: /10.0.0.6:43690in MyMiddleware.run()
LOG: Closed client: /10.0.0.6:43702in MyMiddleware.run()
LOG: Closed client: /10.0.0.6:43694in MyMiddleware.run()
LOG: Closed client: /10.0.0.6:43710in MyMiddleware.run()
LOG: Closed client: /10.0.0.6:43696in MyMiddleware.run()
LOG: Closed client: /10.0.0.6:43716in MyMiddleware.run()
LOG: Closed client: /10.0.0.6:43718in MyMiddleware.run()
LOG: Closed client: /10.0.0.11:60976in MyMiddleware.run()
LOG: Closed client: /10.0.0.11:60980in MyMiddleware.run()
LOG: Closed client: /10.0.0.11:60978in MyMiddleware.run()
LOG: Closed client: /10.0.0.11:60996in MyMiddleware.run()
LOG: Closed client: /10.0.0.11:60966in MyMiddleware.run()
LOG: Closed client: /10.0.0.11:60984in MyMiddleware.run()
LOG: Closed client: /10.0.0.11:60970in MyMiddleware.run()
LOG: Closed client: /10.0.0.11:60972in MyMiddleware.run()
LOG: Closed client: /10.0.0.11:60982in MyMiddleware.run()
LOG: Closed client: /10.0.0.11:60968in MyMiddleware.run()
LOG: Closed client: /10.0.0.11:60992in MyMiddleware.run()
LOG: Closed client: /10.0.0.11:60986in MyMiddleware.run()
LOG: Closed client: /10.0.0.11:60974in MyMiddleware.run()
LOG: Closed client: /10.0.0.11:60994in MyMiddleware.run()
LOG: Closed client: /10.0.0.11:60990in MyMiddleware.run()
LOG: Closed client: /10.0.0.11:60988in MyMiddleware.run()
LOG: Closed client: /10.0.0.7:33628in MyMiddleware.run()
LOG: Closed client: /10.0.0.7:33630in MyMiddleware.run()
LOG: Closed client: /10.0.0.7:33604in MyMiddleware.run()
LOG: Closed client: /10.0.0.7:33624in MyMiddleware.run()
LOG: Closed client: /10.0.0.7:33610in MyMiddleware.run()
LOG: Closed client: /10.0.0.7:33602in MyMiddleware.run()
LOG: Closed client: /10.0.0.7:33606in MyMiddleware.run()
LOG: Closed client: /10.0.0.7:33622in MyMiddleware.run()
LOG: Closed client: /10.0.0.7:33616in MyMiddleware.run()
LOG: Closed client: /10.0.0.7:33620in MyMiddleware.run()
LOG: Closed client: /10.0.0.7:33618in MyMiddleware.run()
LOG: Closed client: /10.0.0.7:33614in MyMiddleware.run()
LOG: Closed client: /10.0.0.7:33612in MyMiddleware.run()
LOG: Closed client: /10.0.0.7:33608in MyMiddleware.run()
LOG: Closed client: /10.0.0.7:33626in MyMiddleware.run()
LOG: Closed client: /10.0.0.7:33600in MyMiddleware.run()
