------------Middleware started!------------
LOG: Waiting for connection in MyMiddleware.run()
LOG: Accepted client: /10.0.0.6:39646in MyMiddleware.run()
LOG: Accepted client: /10.0.0.6:39634in MyMiddleware.run()
LOG: Accepted client: /10.0.0.6:39632in MyMiddleware.run()
LOG: Accepted client: /10.0.0.6:39644in MyMiddleware.run()
LOG: Accepted client: /10.0.0.6:39642in MyMiddleware.run()
LOG: Accepted client: /10.0.0.6:39640in MyMiddleware.run()
LOG: Accepted client: /10.0.0.6:39638in MyMiddleware.run()
LOG: Accepted client: /10.0.0.6:39636in MyMiddleware.run()
LOG: Accepted client: /10.0.0.7:57734in MyMiddleware.run()
LOG: Accepted client: /10.0.0.7:57732in MyMiddleware.run()
LOG: Accepted client: /10.0.0.7:57740in MyMiddleware.run()
LOG: Accepted client: /10.0.0.7:57736in MyMiddleware.run()
LOG: Accepted client: /10.0.0.7:57738in MyMiddleware.run()
LOG: Accepted client: /10.0.0.7:57742in MyMiddleware.run()
LOG: Accepted client: /10.0.0.7:57746in MyMiddleware.run()
LOG: Accepted client: /10.0.0.7:57744in MyMiddleware.run()
LOG: Accepted client: /10.0.0.11:56854in MyMiddleware.run()
LOG: Accepted client: /10.0.0.11:56852in MyMiddleware.run()
LOG: Accepted client: /10.0.0.11:56866in MyMiddleware.run()
LOG: Accepted client: /10.0.0.11:56858in MyMiddleware.run()
LOG: Accepted client: /10.0.0.11:56860in MyMiddleware.run()
LOG: Accepted client: /10.0.0.11:56864in MyMiddleware.run()
LOG: Accepted client: /10.0.0.11:56862in MyMiddleware.run()
LOG: Accepted client: /10.0.0.11:56856in MyMiddleware.run()
LOG: Closed client: /10.0.0.6:39632in MyMiddleware.run()
LOG: Closed client: /10.0.0.6:39644in MyMiddleware.run()
LOG: Closed client: /10.0.0.6:39642in MyMiddleware.run()
LOG: Closed client: /10.0.0.6:39634in MyMiddleware.run()
LOG: Closed client: /10.0.0.6:39636in MyMiddleware.run()
LOG: Closed client: /10.0.0.6:39638in MyMiddleware.run()
LOG: Closed client: /10.0.0.6:39640in MyMiddleware.run()
LOG: Closed client: /10.0.0.6:39646in MyMiddleware.run()
LOG: Closed client: /10.0.0.7:57732in MyMiddleware.run()
LOG: Closed client: /10.0.0.7:57734in MyMiddleware.run()
LOG: Closed client: /10.0.0.7:57736in MyMiddleware.run()
LOG: Closed client: /10.0.0.7:57740in MyMiddleware.run()
LOG: Closed client: /10.0.0.7:57738in MyMiddleware.run()
LOG: Closed client: /10.0.0.7:57742in MyMiddleware.run()
LOG: Closed client: /10.0.0.7:57744in MyMiddleware.run()
LOG: Closed client: /10.0.0.7:57746in MyMiddleware.run()
LOG: Closed client: /10.0.0.11:56858in MyMiddleware.run()
LOG: Closed client: /10.0.0.11:56852in MyMiddleware.run()
LOG: Closed client: /10.0.0.11:56856in MyMiddleware.run()
LOG: Closed client: /10.0.0.11:56854in MyMiddleware.run()
LOG: Closed client: /10.0.0.11:56862in MyMiddleware.run()
LOG: Closed client: /10.0.0.11:56860in MyMiddleware.run()
LOG: Closed client: /10.0.0.11:56864in MyMiddleware.run()
LOG: Closed client: /10.0.0.11:56866in MyMiddleware.run()
