------------Middleware started!------------
LOG: Waiting for connection in MyMiddleware.run()
LOG: Accepted client: /10.0.0.11:44552in MyMiddleware.run()
LOG: Accepted client: /10.0.0.11:44544in MyMiddleware.run()
LOG: Accepted client: /10.0.0.11:44554in MyMiddleware.run()
LOG: Accepted client: /10.0.0.11:44542in MyMiddleware.run()
LOG: Accepted client: /10.0.0.11:44568in MyMiddleware.run()
LOG: Accepted client: /10.0.0.11:44570in MyMiddleware.run()
LOG: Accepted client: /10.0.0.11:44550in MyMiddleware.run()
LOG: Accepted client: /10.0.0.11:44558in MyMiddleware.run()
LOG: Accepted client: /10.0.0.11:44548in MyMiddleware.run()
LOG: Accepted client: /10.0.0.11:44556in MyMiddleware.run()
LOG: Accepted client: /10.0.0.11:44564in MyMiddleware.run()
LOG: Accepted client: /10.0.0.11:44566in MyMiddleware.run()
LOG: Accepted client: /10.0.0.11:44560in MyMiddleware.run()
LOG: Accepted client: /10.0.0.11:44562in MyMiddleware.run()
LOG: Accepted client: /10.0.0.11:44540in MyMiddleware.run()
LOG: Accepted client: /10.0.0.11:44546in MyMiddleware.run()
LOG: Accepted client: /10.0.0.7:45486in MyMiddleware.run()
LOG: Accepted client: /10.0.0.7:45484in MyMiddleware.run()
LOG: Accepted client: /10.0.0.7:45510in MyMiddleware.run()
LOG: Accepted client: /10.0.0.7:45496in MyMiddleware.run()
LOG: Accepted client: /10.0.0.7:45512in MyMiddleware.run()
LOG: Accepted client: /10.0.0.7:45492in MyMiddleware.run()
LOG: Accepted client: /10.0.0.7:45504in MyMiddleware.run()
LOG: Accepted client: /10.0.0.7:45500in MyMiddleware.run()
LOG: Accepted client: /10.0.0.7:45494in MyMiddleware.run()
LOG: Accepted client: /10.0.0.7:45490in MyMiddleware.run()
LOG: Accepted client: /10.0.0.7:45506in MyMiddleware.run()
LOG: Accepted client: /10.0.0.7:45488in MyMiddleware.run()
LOG: Accepted client: /10.0.0.7:45508in MyMiddleware.run()
LOG: Accepted client: /10.0.0.7:45498in MyMiddleware.run()
LOG: Accepted client: /10.0.0.6:55606in MyMiddleware.run()
LOG: Accepted client: /10.0.0.6:55620in MyMiddleware.run()
LOG: Accepted client: /10.0.0.6:55604in MyMiddleware.run()
LOG: Accepted client: /10.0.0.6:55602in MyMiddleware.run()
LOG: Accepted client: /10.0.0.7:45502in MyMiddleware.run()
LOG: Accepted client: /10.0.0.7:45514in MyMiddleware.run()
LOG: Accepted client: /10.0.0.6:55622in MyMiddleware.run()
LOG: Accepted client: /10.0.0.6:55618in MyMiddleware.run()
LOG: Accepted client: /10.0.0.6:55616in MyMiddleware.run()
LOG: Accepted client: /10.0.0.6:55630in MyMiddleware.run()
LOG: Accepted client: /10.0.0.6:55614in MyMiddleware.run()
LOG: Accepted client: /10.0.0.6:55610in MyMiddleware.run()
LOG: Accepted client: /10.0.0.6:55626in MyMiddleware.run()
LOG: Accepted client: /10.0.0.6:55608in MyMiddleware.run()
LOG: Accepted client: /10.0.0.6:55628in MyMiddleware.run()
LOG: Accepted client: /10.0.0.6:55624in MyMiddleware.run()
LOG: Accepted client: /10.0.0.6:55612in MyMiddleware.run()
LOG: Accepted client: /10.0.0.6:55632in MyMiddleware.run()
LOG: Closed client: /10.0.0.6:55610in MyMiddleware.run()
LOG: Closed client: /10.0.0.6:55602in MyMiddleware.run()
LOG: Closed client: /10.0.0.6:55604in MyMiddleware.run()
LOG: Closed client: /10.0.0.6:55626in MyMiddleware.run()
LOG: Closed client: /10.0.0.6:55628in MyMiddleware.run()
LOG: Closed client: /10.0.0.6:55608in MyMiddleware.run()
LOG: Closed client: /10.0.0.6:55632in MyMiddleware.run()
LOG: Closed client: /10.0.0.6:55622in MyMiddleware.run()
LOG: Closed client: /10.0.0.6:55614in MyMiddleware.run()
LOG: Closed client: /10.0.0.6:55620in MyMiddleware.run()
LOG: Closed client: /10.0.0.6:55606in MyMiddleware.run()
LOG: Closed client: /10.0.0.6:55624in MyMiddleware.run()
LOG: Closed client: /10.0.0.6:55616in MyMiddleware.run()
LOG: Closed client: /10.0.0.6:55618in MyMiddleware.run()
LOG: Closed client: /10.0.0.6:55612in MyMiddleware.run()
LOG: Closed client: /10.0.0.7:45514in MyMiddleware.run()
LOG: Closed client: /10.0.0.6:55630in MyMiddleware.run()
LOG: Closed client: /10.0.0.7:45488in MyMiddleware.run()
LOG: Closed client: /10.0.0.7:45496in MyMiddleware.run()
LOG: Closed client: /10.0.0.7:45502in MyMiddleware.run()
LOG: Closed client: /10.0.0.7:45506in MyMiddleware.run()
LOG: Closed client: /10.0.0.7:45500in MyMiddleware.run()
LOG: Closed client: /10.0.0.7:45510in MyMiddleware.run()
LOG: Closed client: /10.0.0.7:45486in MyMiddleware.run()
LOG: Closed client: /10.0.0.7:45512in MyMiddleware.run()
LOG: Closed client: /10.0.0.7:45504in MyMiddleware.run()
LOG: Closed client: /10.0.0.7:45494in MyMiddleware.run()
LOG: Closed client: /10.0.0.7:45490in MyMiddleware.run()
LOG: Closed client: /10.0.0.7:45484in MyMiddleware.run()
LOG: Closed client: /10.0.0.7:45492in MyMiddleware.run()
LOG: Closed client: /10.0.0.7:45498in MyMiddleware.run()
LOG: Closed client: /10.0.0.7:45508in MyMiddleware.run()
LOG: Closed client: /10.0.0.11:44542in MyMiddleware.run()
LOG: Closed client: /10.0.0.11:44544in MyMiddleware.run()
LOG: Closed client: /10.0.0.11:44562in MyMiddleware.run()
LOG: Closed client: /10.0.0.11:44564in MyMiddleware.run()
LOG: Closed client: /10.0.0.11:44558in MyMiddleware.run()
LOG: Closed client: /10.0.0.11:44550in MyMiddleware.run()
LOG: Closed client: /10.0.0.11:44552in MyMiddleware.run()
LOG: Closed client: /10.0.0.11:44568in MyMiddleware.run()
LOG: Closed client: /10.0.0.11:44560in MyMiddleware.run()
LOG: Closed client: /10.0.0.11:44556in MyMiddleware.run()
LOG: Closed client: /10.0.0.11:44566in MyMiddleware.run()
LOG: Closed client: /10.0.0.11:44548in MyMiddleware.run()
LOG: Closed client: /10.0.0.11:44554in MyMiddleware.run()
LOG: Closed client: /10.0.0.11:44570in MyMiddleware.run()
LOG: Closed client: /10.0.0.11:44540in MyMiddleware.run()
LOG: Closed client: /10.0.0.11:44546in MyMiddleware.run()
