------------Middleware started!------------
LOG: Waiting for connection in MyMiddleware.run()
LOG: Accepted client: /10.0.0.11:49740in MyMiddleware.run()
LOG: Accepted client: /10.0.0.11:49742in MyMiddleware.run()
LOG: Accepted client: /10.0.0.11:49760in MyMiddleware.run()
LOG: Accepted client: /10.0.0.11:49796in MyMiddleware.run()
LOG: Accepted client: /10.0.0.11:49754in MyMiddleware.run()
LOG: Accepted client: /10.0.0.11:49762in MyMiddleware.run()
LOG: Accepted client: /10.0.0.11:49752in MyMiddleware.run()
LOG: Accepted client: /10.0.0.11:49784in MyMiddleware.run()
LOG: Accepted client: /10.0.0.11:49786in MyMiddleware.run()
LOG: Accepted client: /10.0.0.11:49794in MyMiddleware.run()
LOG: Accepted client: /10.0.0.11:49790in MyMiddleware.run()
LOG: Accepted client: /10.0.0.11:49788in MyMiddleware.run()
LOG: Accepted client: /10.0.0.11:49766in MyMiddleware.run()
LOG: Accepted client: /10.0.0.11:49758in MyMiddleware.run()
LOG: Accepted client: /10.0.0.11:49764in MyMiddleware.run()
LOG: Accepted client: /10.0.0.11:49756in MyMiddleware.run()
LOG: Accepted client: /10.0.0.11:49798in MyMiddleware.run()
LOG: Accepted client: /10.0.0.11:49792in MyMiddleware.run()
LOG: Accepted client: /10.0.0.7:50658in MyMiddleware.run()
LOG: Accepted client: /10.0.0.7:50676in MyMiddleware.run()
LOG: Accepted client: /10.0.0.11:49770in MyMiddleware.run()
LOG: Accepted client: /10.0.0.11:49750in MyMiddleware.run()
LOG: Accepted client: /10.0.0.11:49768in MyMiddleware.run()
LOG: Accepted client: /10.0.0.7:50674in MyMiddleware.run()
LOG: Accepted client: /10.0.0.11:49748in MyMiddleware.run()
LOG: Accepted client: /10.0.0.11:49774in MyMiddleware.run()
LOG: Accepted client: /10.0.0.11:49738in MyMiddleware.run()
LOG: Accepted client: /10.0.0.11:49800in MyMiddleware.run()
LOG: Accepted client: /10.0.0.11:49746in MyMiddleware.run()
LOG: Accepted client: /10.0.0.11:49776in MyMiddleware.run()
LOG: Accepted client: /10.0.0.11:49772in MyMiddleware.run()
LOG: Accepted client: /10.0.0.11:49782in MyMiddleware.run()
LOG: Accepted client: /10.0.0.11:49778in MyMiddleware.run()
LOG: Accepted client: /10.0.0.11:49780in MyMiddleware.run()
LOG: Accepted client: /10.0.0.7:50690in MyMiddleware.run()
LOG: Accepted client: /10.0.0.11:49744in MyMiddleware.run()
LOG: Accepted client: /10.0.0.7:50662in MyMiddleware.run()
LOG: Accepted client: /10.0.0.7:50688in MyMiddleware.run()
LOG: Accepted client: /10.0.0.7:50666in MyMiddleware.run()
LOG: Accepted client: /10.0.0.7:50672in MyMiddleware.run()
LOG: Accepted client: /10.0.0.7:50708in MyMiddleware.run()
LOG: Accepted client: /10.0.0.7:50664in MyMiddleware.run()
LOG: Accepted client: /10.0.0.7:50710in MyMiddleware.run()
LOG: Accepted client: /10.0.0.7:50678in MyMiddleware.run()
LOG: Accepted client: /10.0.0.7:50704in MyMiddleware.run()
LOG: Accepted client: /10.0.0.7:50700in MyMiddleware.run()
LOG: Accepted client: /10.0.0.7:50668in MyMiddleware.run()
LOG: Accepted client: /10.0.0.7:50696in MyMiddleware.run()
LOG: Accepted client: /10.0.0.7:50714in MyMiddleware.run()
LOG: Accepted client: /10.0.0.7:50720in MyMiddleware.run()
LOG: Accepted client: /10.0.0.7:50660in MyMiddleware.run()
LOG: Accepted client: /10.0.0.7:50702in MyMiddleware.run()
LOG: Accepted client: /10.0.0.7:50706in MyMiddleware.run()
LOG: Accepted client: /10.0.0.7:50712in MyMiddleware.run()
LOG: Accepted client: /10.0.0.7:50716in MyMiddleware.run()
LOG: Accepted client: /10.0.0.7:50670in MyMiddleware.run()
LOG: Accepted client: /10.0.0.7:50692in MyMiddleware.run()
LOG: Accepted client: /10.0.0.7:50682in MyMiddleware.run()
LOG: Accepted client: /10.0.0.7:50684in MyMiddleware.run()
LOG: Accepted client: /10.0.0.7:50718in MyMiddleware.run()
LOG: Accepted client: /10.0.0.7:50686in MyMiddleware.run()
LOG: Accepted client: /10.0.0.7:50698in MyMiddleware.run()
LOG: Accepted client: /10.0.0.6:60800in MyMiddleware.run()
LOG: Accepted client: /10.0.0.6:60806in MyMiddleware.run()
LOG: Accepted client: /10.0.0.6:60804in MyMiddleware.run()
LOG: Accepted client: /10.0.0.6:60826in MyMiddleware.run()
LOG: Accepted client: /10.0.0.6:60856in MyMiddleware.run()
LOG: Accepted client: /10.0.0.6:60858in MyMiddleware.run()
LOG: Accepted client: /10.0.0.6:60828in MyMiddleware.run()
LOG: Accepted client: /10.0.0.6:60824in MyMiddleware.run()
LOG: Accepted client: /10.0.0.6:60830in MyMiddleware.run()
LOG: Accepted client: /10.0.0.6:60802in MyMiddleware.run()
LOG: Accepted client: /10.0.0.6:60838in MyMiddleware.run()
LOG: Accepted client: /10.0.0.6:60836in MyMiddleware.run()
LOG: Accepted client: /10.0.0.7:50680in MyMiddleware.run()
LOG: Accepted client: /10.0.0.7:50694in MyMiddleware.run()
LOG: Accepted client: /10.0.0.6:60810in MyMiddleware.run()
LOG: Accepted client: /10.0.0.6:60808in MyMiddleware.run()
LOG: Accepted client: /10.0.0.6:60848in MyMiddleware.run()
LOG: Accepted client: /10.0.0.6:60840in MyMiddleware.run()
LOG: Accepted client: /10.0.0.6:60842in MyMiddleware.run()
LOG: Accepted client: /10.0.0.6:60850in MyMiddleware.run()
LOG: Accepted client: /10.0.0.6:60816in MyMiddleware.run()
LOG: Accepted client: /10.0.0.6:60818in MyMiddleware.run()
LOG: Accepted client: /10.0.0.6:60844in MyMiddleware.run()
LOG: Accepted client: /10.0.0.6:60846in MyMiddleware.run()
LOG: Accepted client: /10.0.0.6:60822in MyMiddleware.run()
LOG: Accepted client: /10.0.0.6:60820in MyMiddleware.run()
LOG: Accepted client: /10.0.0.6:60854in MyMiddleware.run()
LOG: Accepted client: /10.0.0.6:60852in MyMiddleware.run()
LOG: Accepted client: /10.0.0.6:60832in MyMiddleware.run()
LOG: Accepted client: /10.0.0.6:60860in MyMiddleware.run()
LOG: Accepted client: /10.0.0.6:60834in MyMiddleware.run()
LOG: Accepted client: /10.0.0.6:60814in MyMiddleware.run()
LOG: Accepted client: /10.0.0.6:60812in MyMiddleware.run()
LOG: Accepted client: /10.0.0.6:60926in MyMiddleware.run()
LOG: Closed client: /10.0.0.11:49752in MyMiddleware.run()
LOG: Closed client: /10.0.0.11:49738in MyMiddleware.run()
LOG: Closed client: /10.0.0.11:49754in MyMiddleware.run()
LOG: Closed client: /10.0.0.11:49740in MyMiddleware.run()
LOG: Closed client: /10.0.0.11:49796in MyMiddleware.run()
LOG: Closed client: /10.0.0.11:49798in MyMiddleware.run()
LOG: Closed client: /10.0.0.11:49792in MyMiddleware.run()
LOG: Closed client: /10.0.0.11:49800in MyMiddleware.run()
LOG: Closed client: /10.0.0.11:49758in MyMiddleware.run()
LOG: Closed client: /10.0.0.11:49772in MyMiddleware.run()
LOG: Closed client: /10.0.0.11:49784in MyMiddleware.run()
LOG: Closed client: /10.0.0.11:49788in MyMiddleware.run()
LOG: Closed client: /10.0.0.11:49742in MyMiddleware.run()
LOG: Closed client: /10.0.0.11:49794in MyMiddleware.run()
LOG: Closed client: /10.0.0.11:49780in MyMiddleware.run()
LOG: Closed client: /10.0.0.11:49760in MyMiddleware.run()
LOG: Closed client: /10.0.0.11:49746in MyMiddleware.run()
LOG: Closed client: /10.0.0.11:49782in MyMiddleware.run()
LOG: Closed client: /10.0.0.11:49762in MyMiddleware.run()
LOG: Closed client: /10.0.0.11:49756in MyMiddleware.run()
LOG: Closed client: /10.0.0.11:49776in MyMiddleware.run()
LOG: Closed client: /10.0.0.11:49778in MyMiddleware.run()
LOG: Closed client: /10.0.0.11:49774in MyMiddleware.run()
LOG: Closed client: /10.0.0.11:49786in MyMiddleware.run()
LOG: Closed client: /10.0.0.11:49744in MyMiddleware.run()
LOG: Closed client: /10.0.0.11:49770in MyMiddleware.run()
LOG: Closed client: /10.0.0.11:49748in MyMiddleware.run()
LOG: Closed client: /10.0.0.11:49750in MyMiddleware.run()
LOG: Closed client: /10.0.0.11:49768in MyMiddleware.run()
LOG: Closed client: /10.0.0.11:49764in MyMiddleware.run()
LOG: Closed client: /10.0.0.11:49790in MyMiddleware.run()
LOG: Closed client: /10.0.0.11:49766in MyMiddleware.run()
LOG: Closed client: /10.0.0.7:50660in MyMiddleware.run()
LOG: Closed client: /10.0.0.7:50658in MyMiddleware.run()
LOG: Closed client: /10.0.0.7:50662in MyMiddleware.run()
LOG: Closed client: /10.0.0.7:50688in MyMiddleware.run()
LOG: Closed client: /10.0.0.7:50678in MyMiddleware.run()
LOG: Closed client: /10.0.0.7:50702in MyMiddleware.run()
LOG: Closed client: /10.0.0.7:50700in MyMiddleware.run()
LOG: Closed client: /10.0.0.7:50692in MyMiddleware.run()
LOG: Closed client: /10.0.0.7:50690in MyMiddleware.run()
LOG: Closed client: /10.0.0.7:50706in MyMiddleware.run()
LOG: Closed client: /10.0.0.7:50696in MyMiddleware.run()
LOG: Closed client: /10.0.0.7:50676in MyMiddleware.run()
LOG: Closed client: /10.0.0.7:50674in MyMiddleware.run()
LOG: Closed client: /10.0.0.7:50672in MyMiddleware.run()
LOG: Closed client: /10.0.0.7:50682in MyMiddleware.run()
LOG: Closed client: /10.0.0.7:50668in MyMiddleware.run()
LOG: Closed client: /10.0.0.7:50718in MyMiddleware.run()
LOG: Closed client: /10.0.0.7:50684in MyMiddleware.run()
LOG: Closed client: /10.0.0.7:50686in MyMiddleware.run()
LOG: Closed client: /10.0.0.7:50704in MyMiddleware.run()
LOG: Closed client: /10.0.0.7:50710in MyMiddleware.run()
LOG: Closed client: /10.0.0.7:50680in MyMiddleware.run()
LOG: Closed client: /10.0.0.7:50664in MyMiddleware.run()
LOG: Closed client: /10.0.0.7:50720in MyMiddleware.run()
LOG: Closed client: /10.0.0.7:50666in MyMiddleware.run()
LOG: Closed client: /10.0.0.7:50694in MyMiddleware.run()
LOG: Closed client: /10.0.0.7:50712in MyMiddleware.run()
LOG: Closed client: /10.0.0.7:50698in MyMiddleware.run()
LOG: Closed client: /10.0.0.7:50714in MyMiddleware.run()
LOG: Closed client: /10.0.0.7:50670in MyMiddleware.run()
LOG: Closed client: /10.0.0.7:50716in MyMiddleware.run()
LOG: Closed client: /10.0.0.7:50708in MyMiddleware.run()
LOG: Closed client: /10.0.0.6:60808in MyMiddleware.run()
LOG: Closed client: /10.0.0.6:60806in MyMiddleware.run()
LOG: Closed client: /10.0.0.6:60842in MyMiddleware.run()
LOG: Closed client: /10.0.0.6:60836in MyMiddleware.run()
LOG: Closed client: /10.0.0.6:60830in MyMiddleware.run()
LOG: Closed client: /10.0.0.6:60832in MyMiddleware.run()
LOG: Closed client: /10.0.0.6:60818in MyMiddleware.run()
LOG: Closed client: /10.0.0.6:60826in MyMiddleware.run()
LOG: Closed client: /10.0.0.6:60840in MyMiddleware.run()
LOG: Closed client: /10.0.0.6:60820in MyMiddleware.run()
LOG: Closed client: /10.0.0.6:60802in MyMiddleware.run()
LOG: Closed client: /10.0.0.6:60838in MyMiddleware.run()
LOG: Closed client: /10.0.0.6:60844in MyMiddleware.run()
LOG: Closed client: /10.0.0.6:60848in MyMiddleware.run()
LOG: Closed client: /10.0.0.6:60814in MyMiddleware.run()
LOG: Closed client: /10.0.0.6:60828in MyMiddleware.run()
LOG: Closed client: /10.0.0.6:60822in MyMiddleware.run()
LOG: Closed client: /10.0.0.6:60816in MyMiddleware.run()
LOG: Closed client: /10.0.0.6:60810in MyMiddleware.run()
LOG: Closed client: /10.0.0.6:60850in MyMiddleware.run()
LOG: Closed client: /10.0.0.6:60834in MyMiddleware.run()
LOG: Closed client: /10.0.0.6:60846in MyMiddleware.run()
LOG: Closed client: /10.0.0.6:60812in MyMiddleware.run()
LOG: Closed client: /10.0.0.6:60800in MyMiddleware.run()
LOG: Closed client: /10.0.0.6:60804in MyMiddleware.run()
LOG: Closed client: /10.0.0.6:60824in MyMiddleware.run()
LOG: Closed client: /10.0.0.6:60852in MyMiddleware.run()
LOG: Closed client: /10.0.0.6:60926in MyMiddleware.run()
LOG: Closed client: /10.0.0.6:60856in MyMiddleware.run()
LOG: Closed client: /10.0.0.6:60858in MyMiddleware.run()
LOG: Closed client: /10.0.0.6:60860in MyMiddleware.run()
LOG: Closed client: /10.0.0.6:60854in MyMiddleware.run()
