------------Middleware started!------------
LOG: Waiting for connection in MyMiddleware.run()
LOG: Accepted client: /10.0.0.11:40440in MyMiddleware.run()
LOG: Accepted client: /10.0.0.11:40432in MyMiddleware.run()
LOG: Accepted client: /10.0.0.11:40436in MyMiddleware.run()
LOG: Accepted client: /10.0.0.11:40434in MyMiddleware.run()
LOG: Accepted client: /10.0.0.11:40442in MyMiddleware.run()
LOG: Accepted client: /10.0.0.11:40438in MyMiddleware.run()
LOG: Accepted client: /10.0.0.11:40426in MyMiddleware.run()
LOG: Accepted client: /10.0.0.11:40444in MyMiddleware.run()
LOG: Accepted client: /10.0.0.7:41300in MyMiddleware.run()
LOG: Accepted client: /10.0.0.7:41290in MyMiddleware.run()
LOG: Accepted client: /10.0.0.7:41288in MyMiddleware.run()
LOG: Accepted client: /10.0.0.7:41286in MyMiddleware.run()
LOG: Accepted client: /10.0.0.7:41292in MyMiddleware.run()
LOG: Accepted client: /10.0.0.7:41294in MyMiddleware.run()
LOG: Accepted client: /10.0.0.7:41298in MyMiddleware.run()
LOG: Accepted client: /10.0.0.7:41296in MyMiddleware.run()
LOG: Accepted client: /10.0.0.6:51436in MyMiddleware.run()
LOG: Accepted client: /10.0.0.6:51442in MyMiddleware.run()
LOG: Accepted client: /10.0.0.6:51440in MyMiddleware.run()
LOG: Accepted client: /10.0.0.6:51438in MyMiddleware.run()
LOG: Accepted client: /10.0.0.6:51434in MyMiddleware.run()
LOG: Accepted client: /10.0.0.6:51448in MyMiddleware.run()
LOG: Accepted client: /10.0.0.6:51444in MyMiddleware.run()
LOG: Accepted client: /10.0.0.6:51446in MyMiddleware.run()
LOG: Closed client: /10.0.0.7:41294in MyMiddleware.run()
LOG: Closed client: /10.0.0.7:41288in MyMiddleware.run()
LOG: Closed client: /10.0.0.7:41290in MyMiddleware.run()
LOG: Closed client: /10.0.0.7:41286in MyMiddleware.run()
LOG: Closed client: /10.0.0.7:41300in MyMiddleware.run()
LOG: Closed client: /10.0.0.7:41298in MyMiddleware.run()
LOG: Closed client: /10.0.0.7:41292in MyMiddleware.run()
LOG: Closed client: /10.0.0.7:41296in MyMiddleware.run()
LOG: Closed client: /10.0.0.6:51434in MyMiddleware.run()
LOG: Closed client: /10.0.0.6:51444in MyMiddleware.run()
LOG: Closed client: /10.0.0.6:51438in MyMiddleware.run()
LOG: Closed client: /10.0.0.6:51442in MyMiddleware.run()
LOG: Closed client: /10.0.0.6:51448in MyMiddleware.run()
LOG: Closed client: /10.0.0.6:51446in MyMiddleware.run()
LOG: Closed client: /10.0.0.6:51440in MyMiddleware.run()
LOG: Closed client: /10.0.0.6:51436in MyMiddleware.run()
LOG: Closed client: /10.0.0.11:40444in MyMiddleware.run()
LOG: Closed client: /10.0.0.11:40426in MyMiddleware.run()
LOG: Closed client: /10.0.0.11:40440in MyMiddleware.run()
LOG: Closed client: /10.0.0.11:40442in MyMiddleware.run()
LOG: Closed client: /10.0.0.11:40436in MyMiddleware.run()
LOG: Closed client: /10.0.0.11:40432in MyMiddleware.run()
LOG: Closed client: /10.0.0.11:40438in MyMiddleware.run()
LOG: Closed client: /10.0.0.11:40434in MyMiddleware.run()
