------------Middleware started!------------
LOG: Waiting for connection in MyMiddleware.run()
LOG: Accepted client: /10.0.0.11:58270in MyMiddleware.run()
LOG: Accepted client: /10.0.0.11:58296in MyMiddleware.run()
LOG: Accepted client: /10.0.0.11:58278in MyMiddleware.run()
LOG: Accepted client: /10.0.0.11:58268in MyMiddleware.run()
LOG: Accepted client: /10.0.0.11:58288in MyMiddleware.run()
LOG: Accepted client: /10.0.0.11:58282in MyMiddleware.run()
LOG: Accepted client: /10.0.0.11:58292in MyMiddleware.run()
LOG: Accepted client: /10.0.0.11:58272in MyMiddleware.run()
LOG: Accepted client: /10.0.0.11:58280in MyMiddleware.run()
LOG: Accepted client: /10.0.0.11:58294in MyMiddleware.run()
LOG: Accepted client: /10.0.0.11:58286in MyMiddleware.run()
LOG: Accepted client: /10.0.0.11:58266in MyMiddleware.run()
LOG: Accepted client: /10.0.0.11:58284in MyMiddleware.run()
LOG: Accepted client: /10.0.0.11:58290in MyMiddleware.run()
LOG: Accepted client: /10.0.0.11:58276in MyMiddleware.run()
LOG: Accepted client: /10.0.0.11:58274in MyMiddleware.run()
LOG: Accepted client: /10.0.0.6:41032in MyMiddleware.run()
LOG: Accepted client: /10.0.0.6:41040in MyMiddleware.run()
LOG: Accepted client: /10.0.0.6:41048in MyMiddleware.run()
LOG: Accepted client: /10.0.0.6:41034in MyMiddleware.run()
LOG: Accepted client: /10.0.0.6:41030in MyMiddleware.run()
LOG: Accepted client: /10.0.0.6:41028in MyMiddleware.run()
LOG: Accepted client: /10.0.0.6:41054in MyMiddleware.run()
LOG: Accepted client: /10.0.0.6:41050in MyMiddleware.run()
LOG: Accepted client: /10.0.0.6:41042in MyMiddleware.run()
LOG: Accepted client: /10.0.0.6:41052in MyMiddleware.run()
LOG: Accepted client: /10.0.0.7:59136in MyMiddleware.run()
LOG: Accepted client: /10.0.0.7:59134in MyMiddleware.run()
LOG: Accepted client: /10.0.0.7:59148in MyMiddleware.run()
LOG: Accepted client: /10.0.0.7:59158in MyMiddleware.run()
LOG: Accepted client: /10.0.0.7:59146in MyMiddleware.run()
LOG: Accepted client: /10.0.0.7:59156in MyMiddleware.run()
LOG: Accepted client: /10.0.0.7:59160in MyMiddleware.run()
LOG: Accepted client: /10.0.0.6:41046in MyMiddleware.run()
LOG: Accepted client: /10.0.0.7:59162in MyMiddleware.run()
LOG: Accepted client: /10.0.0.6:41044in MyMiddleware.run()
LOG: Accepted client: /10.0.0.7:59142in MyMiddleware.run()
LOG: Accepted client: /10.0.0.7:59150in MyMiddleware.run()
LOG: Accepted client: /10.0.0.7:59144in MyMiddleware.run()
LOG: Accepted client: /10.0.0.7:59138in MyMiddleware.run()
LOG: Accepted client: /10.0.0.7:59140in MyMiddleware.run()
LOG: Accepted client: /10.0.0.6:41026in MyMiddleware.run()
LOG: Accepted client: /10.0.0.6:41036in MyMiddleware.run()
LOG: Accepted client: /10.0.0.7:59164in MyMiddleware.run()
LOG: Accepted client: /10.0.0.7:59154in MyMiddleware.run()
LOG: Accepted client: /10.0.0.6:41038in MyMiddleware.run()
LOG: Accepted client: /10.0.0.7:59152in MyMiddleware.run()
LOG: Accepted client: /10.0.0.6:41056in MyMiddleware.run()
LOG: Closed client: /10.0.0.11:58270in MyMiddleware.run()
LOG: Closed client: /10.0.0.11:58266in MyMiddleware.run()
LOG: Closed client: /10.0.0.11:58274in MyMiddleware.run()
LOG: Closed client: /10.0.0.11:58290in MyMiddleware.run()
LOG: Closed client: /10.0.0.11:58286in MyMiddleware.run()
LOG: Closed client: /10.0.0.11:58272in MyMiddleware.run()
LOG: Closed client: /10.0.0.11:58292in MyMiddleware.run()
LOG: Closed client: /10.0.0.11:58288in MyMiddleware.run()
LOG: Closed client: /10.0.0.11:58284in MyMiddleware.run()
LOG: Closed client: /10.0.0.11:58294in MyMiddleware.run()
LOG: Closed client: /10.0.0.11:58280in MyMiddleware.run()
LOG: Closed client: /10.0.0.11:58268in MyMiddleware.run()
LOG: Closed client: /10.0.0.11:58278in MyMiddleware.run()
LOG: Closed client: /10.0.0.11:58296in MyMiddleware.run()
LOG: Closed client: /10.0.0.11:58282in MyMiddleware.run()
LOG: Closed client: /10.0.0.11:58276in MyMiddleware.run()
LOG: Closed client: /10.0.0.6:41044in MyMiddleware.run()
LOG: Closed client: /10.0.0.6:41026in MyMiddleware.run()
LOG: Closed client: /10.0.0.6:41046in MyMiddleware.run()
LOG: Closed client: /10.0.0.6:41034in MyMiddleware.run()
LOG: Closed client: /10.0.0.6:41036in MyMiddleware.run()
LOG: Closed client: /10.0.0.6:41048in MyMiddleware.run()
LOG: Closed client: /10.0.0.6:41032in MyMiddleware.run()
LOG: Closed client: /10.0.0.6:41030in MyMiddleware.run()
LOG: Closed client: /10.0.0.6:41054in MyMiddleware.run()
LOG: Closed client: /10.0.0.6:41056in MyMiddleware.run()
LOG: Closed client: /10.0.0.6:41042in MyMiddleware.run()
LOG: Closed client: /10.0.0.6:41038in MyMiddleware.run()
LOG: Closed client: /10.0.0.6:41040in MyMiddleware.run()
LOG: Closed client: /10.0.0.6:41028in MyMiddleware.run()
LOG: Closed client: /10.0.0.6:41050in MyMiddleware.run()
LOG: Closed client: /10.0.0.6:41052in MyMiddleware.run()
LOG: Closed client: /10.0.0.7:59138in MyMiddleware.run()
LOG: Closed client: /10.0.0.7:59134in MyMiddleware.run()
LOG: Closed client: /10.0.0.7:59160in MyMiddleware.run()
LOG: Closed client: /10.0.0.7:59136in MyMiddleware.run()
LOG: Closed client: /10.0.0.7:59142in MyMiddleware.run()
LOG: Closed client: /10.0.0.7:59140in MyMiddleware.run()
LOG: Closed client: /10.0.0.7:59158in MyMiddleware.run()
LOG: Closed client: /10.0.0.7:59150in MyMiddleware.run()
LOG: Closed client: /10.0.0.7:59162in MyMiddleware.run()
LOG: Closed client: /10.0.0.7:59164in MyMiddleware.run()
LOG: Closed client: /10.0.0.7:59146in MyMiddleware.run()
LOG: Closed client: /10.0.0.7:59144in MyMiddleware.run()
LOG: Closed client: /10.0.0.7:59148in MyMiddleware.run()
LOG: Closed client: /10.0.0.7:59152in MyMiddleware.run()
LOG: Closed client: /10.0.0.7:59154in MyMiddleware.run()
LOG: Closed client: /10.0.0.7:59156in MyMiddleware.run()
