------------Middleware started!------------
LOG: Waiting for connection in MyMiddleware.run()
LOG: Accepted client: /10.0.0.7:46970in MyMiddleware.run()
LOG: Accepted client: /10.0.0.7:46974in MyMiddleware.run()
LOG: Accepted client: /10.0.0.7:46966in MyMiddleware.run()
LOG: Accepted client: /10.0.0.7:46976in MyMiddleware.run()
LOG: Accepted client: /10.0.0.7:46972in MyMiddleware.run()
LOG: Accepted client: /10.0.0.7:46978in MyMiddleware.run()
LOG: Accepted client: /10.0.0.7:46980in MyMiddleware.run()
LOG: Accepted client: /10.0.0.7:46992in MyMiddleware.run()
LOG: Accepted client: /10.0.0.7:46986in MyMiddleware.run()
LOG: Accepted client: /10.0.0.7:46964in MyMiddleware.run()
LOG: Accepted client: /10.0.0.7:46968in MyMiddleware.run()
LOG: Accepted client: /10.0.0.7:46982in MyMiddleware.run()
LOG: Accepted client: /10.0.0.7:46984in MyMiddleware.run()
LOG: Accepted client: /10.0.0.7:46994in MyMiddleware.run()
LOG: Accepted client: /10.0.0.7:46990in MyMiddleware.run()
LOG: Accepted client: /10.0.0.7:46988in MyMiddleware.run()
LOG: Accepted client: /10.0.0.11:46050in MyMiddleware.run()
LOG: Accepted client: /10.0.0.11:46046in MyMiddleware.run()
LOG: Accepted client: /10.0.0.11:46080in MyMiddleware.run()
LOG: Accepted client: /10.0.0.11:46058in MyMiddleware.run()
LOG: Accepted client: /10.0.0.6:57082in MyMiddleware.run()
LOG: Accepted client: /10.0.0.11:46068in MyMiddleware.run()
LOG: Accepted client: /10.0.0.6:57068in MyMiddleware.run()
LOG: Accepted client: /10.0.0.11:46054in MyMiddleware.run()
LOG: Accepted client: /10.0.0.11:46048in MyMiddleware.run()
LOG: Accepted client: /10.0.0.6:57066in MyMiddleware.run()
LOG: Accepted client: /10.0.0.11:46052in MyMiddleware.run()
LOG: Accepted client: /10.0.0.6:57072in MyMiddleware.run()
LOG: Accepted client: /10.0.0.6:57074in MyMiddleware.run()
LOG: Accepted client: /10.0.0.11:46076in MyMiddleware.run()
LOG: Accepted client: /10.0.0.6:57092in MyMiddleware.run()
LOG: Accepted client: /10.0.0.6:57078in MyMiddleware.run()
LOG: Accepted client: /10.0.0.6:57096in MyMiddleware.run()
LOG: Accepted client: /10.0.0.11:46088in MyMiddleware.run()
LOG: Accepted client: /10.0.0.6:57070in MyMiddleware.run()
LOG: Accepted client: /10.0.0.11:46062in MyMiddleware.run()
LOG: Accepted client: /10.0.0.6:57076in MyMiddleware.run()
LOG: Accepted client: /10.0.0.11:46064in MyMiddleware.run()
LOG: Accepted client: /10.0.0.11:46084in MyMiddleware.run()
LOG: Accepted client: /10.0.0.6:57080in MyMiddleware.run()
LOG: Accepted client: /10.0.0.6:57094in MyMiddleware.run()
LOG: Accepted client: /10.0.0.6:57086in MyMiddleware.run()
LOG: Accepted client: /10.0.0.6:57088in MyMiddleware.run()
LOG: Accepted client: /10.0.0.6:57090in MyMiddleware.run()
LOG: Accepted client: /10.0.0.6:57084in MyMiddleware.run()
LOG: Accepted client: /10.0.0.11:46092in MyMiddleware.run()
LOG: Accepted client: /10.0.0.11:46096in MyMiddleware.run()
LOG: Accepted client: /10.0.0.11:46072in MyMiddleware.run()
LOG: Closed client: /10.0.0.6:57066in MyMiddleware.run()
LOG: Closed client: /10.0.0.6:57068in MyMiddleware.run()
LOG: Closed client: /10.0.0.6:57070in MyMiddleware.run()
LOG: Closed client: /10.0.0.6:57076in MyMiddleware.run()
LOG: Closed client: /10.0.0.6:57090in MyMiddleware.run()
LOG: Closed client: /10.0.0.6:57092in MyMiddleware.run()
LOG: Closed client: /10.0.0.6:57086in MyMiddleware.run()
LOG: Closed client: /10.0.0.6:57096in MyMiddleware.run()
LOG: Closed client: /10.0.0.6:57082in MyMiddleware.run()
LOG: Closed client: /10.0.0.6:57072in MyMiddleware.run()
LOG: Closed client: /10.0.0.6:57094in MyMiddleware.run()
LOG: Closed client: /10.0.0.6:57088in MyMiddleware.run()
LOG: Closed client: /10.0.0.6:57078in MyMiddleware.run()
LOG: Closed client: /10.0.0.6:57074in MyMiddleware.run()
LOG: Closed client: /10.0.0.6:57084in MyMiddleware.run()
LOG: Closed client: /10.0.0.6:57080in MyMiddleware.run()
LOG: Closed client: /10.0.0.7:46966in MyMiddleware.run()
LOG: Closed client: /10.0.0.7:46972in MyMiddleware.run()
LOG: Closed client: /10.0.0.7:46964in MyMiddleware.run()
LOG: Closed client: /10.0.0.7:46974in MyMiddleware.run()
LOG: Closed client: /10.0.0.7:46970in MyMiddleware.run()
LOG: Closed client: /10.0.0.7:46982in MyMiddleware.run()
LOG: Closed client: /10.0.0.7:46976in MyMiddleware.run()
LOG: Closed client: /10.0.0.7:46968in MyMiddleware.run()
LOG: Closed client: /10.0.0.7:46984in MyMiddleware.run()
LOG: Closed client: /10.0.0.7:46994in MyMiddleware.run()
LOG: Closed client: /10.0.0.7:46988in MyMiddleware.run()
LOG: Closed client: /10.0.0.7:46992in MyMiddleware.run()
LOG: Closed client: /10.0.0.7:46986in MyMiddleware.run()
LOG: Closed client: /10.0.0.7:46990in MyMiddleware.run()
LOG: Closed client: /10.0.0.7:46978in MyMiddleware.run()
LOG: Closed client: /10.0.0.7:46980in MyMiddleware.run()
LOG: Closed client: /10.0.0.11:46092in MyMiddleware.run()
LOG: Closed client: /10.0.0.11:46084in MyMiddleware.run()
LOG: Closed client: /10.0.0.11:46046in MyMiddleware.run()
LOG: Closed client: /10.0.0.11:46088in MyMiddleware.run()
LOG: Closed client: /10.0.0.11:46064in MyMiddleware.run()
LOG: Closed client: /10.0.0.11:46072in MyMiddleware.run()
LOG: Closed client: /10.0.0.11:46054in MyMiddleware.run()
LOG: Closed client: /10.0.0.11:46048in MyMiddleware.run()
LOG: Closed client: /10.0.0.11:46052in MyMiddleware.run()
LOG: Closed client: /10.0.0.11:46068in MyMiddleware.run()
LOG: Closed client: /10.0.0.11:46050in MyMiddleware.run()
LOG: Closed client: /10.0.0.11:46058in MyMiddleware.run()
LOG: Closed client: /10.0.0.11:46076in MyMiddleware.run()
LOG: Closed client: /10.0.0.11:46062in MyMiddleware.run()
LOG: Closed client: /10.0.0.11:46096in MyMiddleware.run()
LOG: Closed client: /10.0.0.11:46080in MyMiddleware.run()
