------------Middleware started!------------
LOG: Waiting for connection in MyMiddleware.run()
LOG: Accepted client: /10.0.0.7:59424in MyMiddleware.run()
LOG: Accepted client: /10.0.0.7:59416in MyMiddleware.run()
LOG: Accepted client: /10.0.0.7:59428in MyMiddleware.run()
LOG: Accepted client: /10.0.0.7:59418in MyMiddleware.run()
LOG: Accepted client: /10.0.0.7:59426in MyMiddleware.run()
LOG: Accepted client: /10.0.0.7:59422in MyMiddleware.run()
LOG: Accepted client: /10.0.0.7:59420in MyMiddleware.run()
LOG: Accepted client: /10.0.0.7:59430in MyMiddleware.run()
LOG: Accepted client: /10.0.0.11:58620in MyMiddleware.run()
LOG: Accepted client: /10.0.0.11:58622in MyMiddleware.run()
LOG: Accepted client: /10.0.0.11:58616in MyMiddleware.run()
LOG: Accepted client: /10.0.0.11:58618in MyMiddleware.run()
LOG: Accepted client: /10.0.0.11:58632in MyMiddleware.run()
LOG: Accepted client: /10.0.0.11:58636in MyMiddleware.run()
LOG: Accepted client: /10.0.0.11:58634in MyMiddleware.run()
LOG: Accepted client: /10.0.0.11:58612in MyMiddleware.run()
LOG: Accepted client: /10.0.0.11:58628in MyMiddleware.run()
LOG: Accepted client: /10.0.0.11:58610in MyMiddleware.run()
LOG: Accepted client: /10.0.0.11:58614in MyMiddleware.run()
LOG: Accepted client: /10.0.0.11:58630in MyMiddleware.run()
LOG: Accepted client: /10.0.0.11:58606in MyMiddleware.run()
LOG: Accepted client: /10.0.0.11:58626in MyMiddleware.run()
LOG: Accepted client: /10.0.0.11:58608in MyMiddleware.run()
LOG: Accepted client: /10.0.0.11:58624in MyMiddleware.run()
LOG: Accepted client: /10.0.0.7:59438in MyMiddleware.run()
LOG: Accepted client: /10.0.0.7:59414in MyMiddleware.run()
LOG: Accepted client: /10.0.0.7:59436in MyMiddleware.run()
LOG: Accepted client: /10.0.0.7:59412in MyMiddleware.run()
LOG: Accepted client: /10.0.0.7:59440in MyMiddleware.run()
LOG: Accepted client: /10.0.0.7:59432in MyMiddleware.run()
LOG: Accepted client: /10.0.0.7:59410in MyMiddleware.run()
LOG: Accepted client: /10.0.0.7:59434in MyMiddleware.run()
LOG: Accepted client: /10.0.0.6:41362in MyMiddleware.run()
LOG: Accepted client: /10.0.0.6:41360in MyMiddleware.run()
LOG: Accepted client: /10.0.0.6:41332in MyMiddleware.run()
LOG: Accepted client: /10.0.0.6:41336in MyMiddleware.run()
LOG: Accepted client: /10.0.0.6:41354in MyMiddleware.run()
LOG: Accepted client: /10.0.0.6:41350in MyMiddleware.run()
LOG: Accepted client: /10.0.0.6:41340in MyMiddleware.run()
LOG: Accepted client: /10.0.0.6:41344in MyMiddleware.run()
LOG: Accepted client: /10.0.0.6:41342in MyMiddleware.run()
LOG: Accepted client: /10.0.0.6:41358in MyMiddleware.run()
LOG: Accepted client: /10.0.0.6:41352in MyMiddleware.run()
LOG: Accepted client: /10.0.0.6:41346in MyMiddleware.run()
LOG: Accepted client: /10.0.0.6:41348in MyMiddleware.run()
LOG: Accepted client: /10.0.0.6:41338in MyMiddleware.run()
LOG: Accepted client: /10.0.0.6:41334in MyMiddleware.run()
LOG: Accepted client: /10.0.0.6:41356in MyMiddleware.run()
LOG: Closed client: /10.0.0.11:58616in MyMiddleware.run()
LOG: Closed client: /10.0.0.11:58620in MyMiddleware.run()
LOG: Closed client: /10.0.0.11:58632in MyMiddleware.run()
LOG: Closed client: /10.0.0.11:58624in MyMiddleware.run()
LOG: Closed client: /10.0.0.11:58614in MyMiddleware.run()
LOG: Closed client: /10.0.0.11:58628in MyMiddleware.run()
LOG: Closed client: /10.0.0.11:58618in MyMiddleware.run()
LOG: Closed client: /10.0.0.11:58622in MyMiddleware.run()
LOG: Closed client: /10.0.0.11:58606in MyMiddleware.run()
LOG: Closed client: /10.0.0.11:58608in MyMiddleware.run()
LOG: Closed client: /10.0.0.11:58610in MyMiddleware.run()
LOG: Closed client: /10.0.0.11:58626in MyMiddleware.run()
LOG: Closed client: /10.0.0.11:58612in MyMiddleware.run()
LOG: Closed client: /10.0.0.11:58636in MyMiddleware.run()
LOG: Closed client: /10.0.0.11:58630in MyMiddleware.run()
LOG: Closed client: /10.0.0.11:58634in MyMiddleware.run()
LOG: Closed client: /10.0.0.7:59430in MyMiddleware.run()
LOG: Closed client: /10.0.0.7:59422in MyMiddleware.run()
LOG: Closed client: /10.0.0.7:59424in MyMiddleware.run()
LOG: Closed client: /10.0.0.7:59428in MyMiddleware.run()
LOG: Closed client: /10.0.0.7:59426in MyMiddleware.run()
LOG: Closed client: /10.0.0.7:59434in MyMiddleware.run()
LOG: Closed client: /10.0.0.7:59418in MyMiddleware.run()
LOG: Closed client: /10.0.0.7:59416in MyMiddleware.run()
LOG: Closed client: /10.0.0.7:59432in MyMiddleware.run()
LOG: Closed client: /10.0.0.7:59420in MyMiddleware.run()
LOG: Closed client: /10.0.0.7:59412in MyMiddleware.run()
LOG: Closed client: /10.0.0.7:59436in MyMiddleware.run()
LOG: Closed client: /10.0.0.7:59438in MyMiddleware.run()
LOG: Closed client: /10.0.0.7:59410in MyMiddleware.run()
LOG: Closed client: /10.0.0.7:59414in MyMiddleware.run()
LOG: Closed client: /10.0.0.7:59440in MyMiddleware.run()
LOG: Closed client: /10.0.0.6:41336in MyMiddleware.run()
LOG: Closed client: /10.0.0.6:41360in MyMiddleware.run()
LOG: Closed client: /10.0.0.6:41362in MyMiddleware.run()
LOG: Closed client: /10.0.0.6:41354in MyMiddleware.run()
LOG: Closed client: /10.0.0.6:41334in MyMiddleware.run()
LOG: Closed client: /10.0.0.6:41344in MyMiddleware.run()
LOG: Closed client: /10.0.0.6:41358in MyMiddleware.run()
LOG: Closed client: /10.0.0.6:41332in MyMiddleware.run()
LOG: Closed client: /10.0.0.6:41352in MyMiddleware.run()
LOG: Closed client: /10.0.0.6:41348in MyMiddleware.run()
LOG: Closed client: /10.0.0.6:41346in MyMiddleware.run()
LOG: Closed client: /10.0.0.6:41356in MyMiddleware.run()
LOG: Closed client: /10.0.0.6:41342in MyMiddleware.run()
LOG: Closed client: /10.0.0.6:41338in MyMiddleware.run()
LOG: Closed client: /10.0.0.6:41340in MyMiddleware.run()
LOG: Closed client: /10.0.0.6:41350in MyMiddleware.run()
