------------Middleware started!------------
LOG: Waiting for connection in MyMiddleware.run()
LOG: Accepted client: /10.0.0.11:46102in MyMiddleware.run()
LOG: Accepted client: /10.0.0.11:46076in MyMiddleware.run()
LOG: Accepted client: /10.0.0.11:46088in MyMiddleware.run()
LOG: Accepted client: /10.0.0.11:46096in MyMiddleware.run()
LOG: Accepted client: /10.0.0.11:46090in MyMiddleware.run()
LOG: Accepted client: /10.0.0.11:46080in MyMiddleware.run()
LOG: Accepted client: /10.0.0.11:46098in MyMiddleware.run()
LOG: Accepted client: /10.0.0.11:46100in MyMiddleware.run()
LOG: Accepted client: /10.0.0.11:46078in MyMiddleware.run()
LOG: Accepted client: /10.0.0.11:46082in MyMiddleware.run()
LOG: Accepted client: /10.0.0.11:46084in MyMiddleware.run()
LOG: Accepted client: /10.0.0.11:46086in MyMiddleware.run()
LOG: Accepted client: /10.0.0.11:46092in MyMiddleware.run()
LOG: Accepted client: /10.0.0.11:46104in MyMiddleware.run()
LOG: Accepted client: /10.0.0.11:46106in MyMiddleware.run()
LOG: Accepted client: /10.0.0.11:46094in MyMiddleware.run()
LOG: Accepted client: /10.0.0.6:57106in MyMiddleware.run()
LOG: Accepted client: /10.0.0.6:57136in MyMiddleware.run()
LOG: Accepted client: /10.0.0.6:57134in MyMiddleware.run()
LOG: Accepted client: /10.0.0.6:57130in MyMiddleware.run()
LOG: Accepted client: /10.0.0.6:57110in MyMiddleware.run()
LOG: Accepted client: /10.0.0.6:57132in MyMiddleware.run()
LOG: Accepted client: /10.0.0.6:57128in MyMiddleware.run()
LOG: Accepted client: /10.0.0.6:57108in MyMiddleware.run()
LOG: Accepted client: /10.0.0.6:57118in MyMiddleware.run()
LOG: Accepted client: /10.0.0.6:57112in MyMiddleware.run()
LOG: Accepted client: /10.0.0.6:57126in MyMiddleware.run()
LOG: Accepted client: /10.0.0.6:57116in MyMiddleware.run()
LOG: Accepted client: /10.0.0.6:57124in MyMiddleware.run()
LOG: Accepted client: /10.0.0.6:57114in MyMiddleware.run()
LOG: Accepted client: /10.0.0.6:57120in MyMiddleware.run()
LOG: Accepted client: /10.0.0.6:57122in MyMiddleware.run()
LOG: Accepted client: /10.0.0.7:47022in MyMiddleware.run()
LOG: Accepted client: /10.0.0.7:47020in MyMiddleware.run()
LOG: Accepted client: /10.0.0.7:47024in MyMiddleware.run()
LOG: Accepted client: /10.0.0.7:47018in MyMiddleware.run()
LOG: Accepted client: /10.0.0.7:47026in MyMiddleware.run()
LOG: Accepted client: /10.0.0.7:47016in MyMiddleware.run()
LOG: Accepted client: /10.0.0.7:46996in MyMiddleware.run()
LOG: Accepted client: /10.0.0.7:46998in MyMiddleware.run()
LOG: Accepted client: /10.0.0.7:47014in MyMiddleware.run()
LOG: Accepted client: /10.0.0.7:47008in MyMiddleware.run()
LOG: Accepted client: /10.0.0.7:47010in MyMiddleware.run()
LOG: Accepted client: /10.0.0.7:47004in MyMiddleware.run()
LOG: Accepted client: /10.0.0.7:47006in MyMiddleware.run()
LOG: Accepted client: /10.0.0.7:47002in MyMiddleware.run()
LOG: Accepted client: /10.0.0.7:47000in MyMiddleware.run()
LOG: Accepted client: /10.0.0.7:47012in MyMiddleware.run()
LOG: Closed client: /10.0.0.11:46088in MyMiddleware.run()
LOG: Closed client: /10.0.0.11:46084in MyMiddleware.run()
LOG: Closed client: /10.0.0.11:46102in MyMiddleware.run()
LOG: Closed client: /10.0.0.11:46096in MyMiddleware.run()
LOG: Closed client: /10.0.0.11:46080in MyMiddleware.run()
LOG: Closed client: /10.0.0.11:46094in MyMiddleware.run()
LOG: Closed client: /10.0.0.11:46098in MyMiddleware.run()
LOG: Closed client: /10.0.0.11:46078in MyMiddleware.run()
LOG: Closed client: /10.0.0.11:46104in MyMiddleware.run()
LOG: Closed client: /10.0.0.11:46100in MyMiddleware.run()
LOG: Closed client: /10.0.0.11:46086in MyMiddleware.run()
LOG: Closed client: /10.0.0.11:46076in MyMiddleware.run()
LOG: Closed client: /10.0.0.11:46090in MyMiddleware.run()
LOG: Closed client: /10.0.0.11:46082in MyMiddleware.run()
LOG: Closed client: /10.0.0.11:46106in MyMiddleware.run()
LOG: Closed client: /10.0.0.11:46092in MyMiddleware.run()
LOG: Closed client: /10.0.0.6:57108in MyMiddleware.run()
LOG: Closed client: /10.0.0.6:57110in MyMiddleware.run()
LOG: Closed client: /10.0.0.6:57106in MyMiddleware.run()
LOG: Closed client: /10.0.0.6:57136in MyMiddleware.run()
LOG: Closed client: /10.0.0.6:57116in MyMiddleware.run()
LOG: Closed client: /10.0.0.6:57114in MyMiddleware.run()
LOG: Closed client: /10.0.0.6:57134in MyMiddleware.run()
LOG: Closed client: /10.0.0.6:57112in MyMiddleware.run()
LOG: Closed client: /10.0.0.6:57130in MyMiddleware.run()
LOG: Closed client: /10.0.0.6:57120in MyMiddleware.run()
LOG: Closed client: /10.0.0.6:57126in MyMiddleware.run()
LOG: Closed client: /10.0.0.6:57118in MyMiddleware.run()
LOG: Closed client: /10.0.0.6:57132in MyMiddleware.run()
LOG: Closed client: /10.0.0.6:57128in MyMiddleware.run()
LOG: Closed client: /10.0.0.6:57124in MyMiddleware.run()
LOG: Closed client: /10.0.0.6:57122in MyMiddleware.run()
LOG: Closed client: /10.0.0.7:47024in MyMiddleware.run()
LOG: Closed client: /10.0.0.7:47016in MyMiddleware.run()
LOG: Closed client: /10.0.0.7:47022in MyMiddleware.run()
LOG: Closed client: /10.0.0.7:47004in MyMiddleware.run()
LOG: Closed client: /10.0.0.7:47026in MyMiddleware.run()
LOG: Closed client: /10.0.0.7:47020in MyMiddleware.run()
LOG: Closed client: /10.0.0.7:47006in MyMiddleware.run()
LOG: Closed client: /10.0.0.7:46998in MyMiddleware.run()
LOG: Closed client: /10.0.0.7:46996in MyMiddleware.run()
LOG: Closed client: /10.0.0.7:47000in MyMiddleware.run()
LOG: Closed client: /10.0.0.7:47012in MyMiddleware.run()
LOG: Closed client: /10.0.0.7:47018in MyMiddleware.run()
LOG: Closed client: /10.0.0.7:47002in MyMiddleware.run()
LOG: Closed client: /10.0.0.7:47010in MyMiddleware.run()
LOG: Closed client: /10.0.0.7:47008in MyMiddleware.run()
LOG: Closed client: /10.0.0.7:47014in MyMiddleware.run()
