------------Middleware started!------------
LOG: Waiting for connection in MyMiddleware.run()
LOG: Accepted client: /10.0.0.7:38200in MyMiddleware.run()
LOG: Accepted client: /10.0.0.7:38202in MyMiddleware.run()
LOG: Accepted client: /10.0.0.7:38204in MyMiddleware.run()
LOG: Accepted client: /10.0.0.7:38206in MyMiddleware.run()
LOG: Accepted client: /10.0.0.11:37356in MyMiddleware.run()
LOG: Accepted client: /10.0.0.11:37394in MyMiddleware.run()
LOG: Accepted client: /10.0.0.11:37364in MyMiddleware.run()
LOG: Accepted client: /10.0.0.11:37362in MyMiddleware.run()
LOG: Accepted client: /10.0.0.11:37368in MyMiddleware.run()
LOG: Accepted client: /10.0.0.11:37398in MyMiddleware.run()
LOG: Accepted client: /10.0.0.11:37378in MyMiddleware.run()
LOG: Accepted client: /10.0.0.11:37372in MyMiddleware.run()
LOG: Accepted client: /10.0.0.11:37400in MyMiddleware.run()
LOG: Accepted client: /10.0.0.11:37410in MyMiddleware.run()
LOG: Accepted client: /10.0.0.11:37366in MyMiddleware.run()
LOG: Accepted client: /10.0.0.11:37404in MyMiddleware.run()
LOG: Accepted client: /10.0.0.11:37408in MyMiddleware.run()
LOG: Accepted client: /10.0.0.11:37412in MyMiddleware.run()
LOG: Accepted client: /10.0.0.11:37376in MyMiddleware.run()
LOG: Accepted client: /10.0.0.11:37360in MyMiddleware.run()
LOG: Accepted client: /10.0.0.11:37358in MyMiddleware.run()
LOG: Accepted client: /10.0.0.11:37384in MyMiddleware.run()
LOG: Accepted client: /10.0.0.11:37390in MyMiddleware.run()
LOG: Accepted client: /10.0.0.11:37370in MyMiddleware.run()
LOG: Accepted client: /10.0.0.11:37392in MyMiddleware.run()
LOG: Accepted client: /10.0.0.11:37380in MyMiddleware.run()
LOG: Accepted client: /10.0.0.11:37374in MyMiddleware.run()
LOG: Accepted client: /10.0.0.11:37406in MyMiddleware.run()
LOG: Accepted client: /10.0.0.11:37402in MyMiddleware.run()
LOG: Accepted client: /10.0.0.11:37352in MyMiddleware.run()
LOG: Accepted client: /10.0.0.11:37396in MyMiddleware.run()
LOG: Accepted client: /10.0.0.11:37386in MyMiddleware.run()
LOG: Accepted client: /10.0.0.11:37354in MyMiddleware.run()
LOG: Accepted client: /10.0.0.11:37388in MyMiddleware.run()
LOG: Accepted client: /10.0.0.11:37382in MyMiddleware.run()
LOG: Accepted client: /10.0.0.11:37414in MyMiddleware.run()
LOG: Accepted client: /10.0.0.7:38194in MyMiddleware.run()
LOG: Accepted client: /10.0.0.7:38210in MyMiddleware.run()
LOG: Accepted client: /10.0.0.7:38192in MyMiddleware.run()
LOG: Accepted client: /10.0.0.7:38198in MyMiddleware.run()
LOG: Accepted client: /10.0.0.7:38208in MyMiddleware.run()
LOG: Accepted client: /10.0.0.7:38196in MyMiddleware.run()
LOG: Accepted client: /10.0.0.6:48428in MyMiddleware.run()
LOG: Accepted client: /10.0.0.7:38218in MyMiddleware.run()
LOG: Accepted client: /10.0.0.7:38224in MyMiddleware.run()
LOG: Accepted client: /10.0.0.7:38212in MyMiddleware.run()
LOG: Accepted client: /10.0.0.7:38238in MyMiddleware.run()
LOG: Accepted client: /10.0.0.7:38240in MyMiddleware.run()
LOG: Accepted client: /10.0.0.7:38234in MyMiddleware.run()
LOG: Accepted client: /10.0.0.6:48390in MyMiddleware.run()
LOG: Accepted client: /10.0.0.6:48426in MyMiddleware.run()
LOG: Accepted client: /10.0.0.6:48402in MyMiddleware.run()
LOG: Accepted client: /10.0.0.6:48446in MyMiddleware.run()
LOG: Accepted client: /10.0.0.7:38230in MyMiddleware.run()
LOG: Accepted client: /10.0.0.7:38232in MyMiddleware.run()
LOG: Accepted client: /10.0.0.6:48410in MyMiddleware.run()
LOG: Accepted client: /10.0.0.7:38220in MyMiddleware.run()
LOG: Accepted client: /10.0.0.6:48404in MyMiddleware.run()
LOG: Accepted client: /10.0.0.6:48440in MyMiddleware.run()
LOG: Accepted client: /10.0.0.6:48418in MyMiddleware.run()
LOG: Accepted client: /10.0.0.6:48452in MyMiddleware.run()
LOG: Accepted client: /10.0.0.6:48398in MyMiddleware.run()
LOG: Accepted client: /10.0.0.6:48438in MyMiddleware.run()
LOG: Accepted client: /10.0.0.7:38254in MyMiddleware.run()
LOG: Accepted client: /10.0.0.7:38216in MyMiddleware.run()
LOG: Accepted client: /10.0.0.7:38246in MyMiddleware.run()
LOG: Accepted client: /10.0.0.6:48430in MyMiddleware.run()
LOG: Accepted client: /10.0.0.6:48400in MyMiddleware.run()
LOG: Accepted client: /10.0.0.6:48412in MyMiddleware.run()
LOG: Accepted client: /10.0.0.7:38248in MyMiddleware.run()
LOG: Accepted client: /10.0.0.6:48432in MyMiddleware.run()
LOG: Accepted client: /10.0.0.6:48424in MyMiddleware.run()
LOG: Accepted client: /10.0.0.7:38242in MyMiddleware.run()
LOG: Accepted client: /10.0.0.6:48450in MyMiddleware.run()
LOG: Accepted client: /10.0.0.7:38222in MyMiddleware.run()
LOG: Accepted client: /10.0.0.7:38244in MyMiddleware.run()
LOG: Accepted client: /10.0.0.7:38236in MyMiddleware.run()
LOG: Accepted client: /10.0.0.7:38226in MyMiddleware.run()
LOG: Accepted client: /10.0.0.6:48422in MyMiddleware.run()
LOG: Accepted client: /10.0.0.6:48394in MyMiddleware.run()
LOG: Accepted client: /10.0.0.6:48444in MyMiddleware.run()
LOG: Accepted client: /10.0.0.6:48392in MyMiddleware.run()
LOG: Accepted client: /10.0.0.6:48406in MyMiddleware.run()
LOG: Accepted client: /10.0.0.6:48420in MyMiddleware.run()
LOG: Accepted client: /10.0.0.6:48442in MyMiddleware.run()
LOG: Accepted client: /10.0.0.7:38228in MyMiddleware.run()
LOG: Accepted client: /10.0.0.6:48416in MyMiddleware.run()
LOG: Accepted client: /10.0.0.6:48396in MyMiddleware.run()
LOG: Accepted client: /10.0.0.7:38214in MyMiddleware.run()
LOG: Accepted client: /10.0.0.7:38250in MyMiddleware.run()
LOG: Accepted client: /10.0.0.6:48414in MyMiddleware.run()
LOG: Accepted client: /10.0.0.6:48434in MyMiddleware.run()
LOG: Accepted client: /10.0.0.7:38252in MyMiddleware.run()
LOG: Accepted client: /10.0.0.6:48436in MyMiddleware.run()
LOG: Accepted client: /10.0.0.6:48408in MyMiddleware.run()
LOG: Accepted client: /10.0.0.6:48448in MyMiddleware.run()
LOG: Closed client: /10.0.0.11:37356in MyMiddleware.run()
LOG: Closed client: /10.0.0.11:37360in MyMiddleware.run()
LOG: Closed client: /10.0.0.11:37358in MyMiddleware.run()
LOG: Closed client: /10.0.0.11:37362in MyMiddleware.run()
LOG: Closed client: /10.0.0.11:37364in MyMiddleware.run()
LOG: Closed client: /10.0.0.11:37398in MyMiddleware.run()
LOG: Closed client: /10.0.0.11:37354in MyMiddleware.run()
LOG: Closed client: /10.0.0.11:37380in MyMiddleware.run()
LOG: Closed client: /10.0.0.11:37372in MyMiddleware.run()
LOG: Closed client: /10.0.0.11:37390in MyMiddleware.run()
LOG: Closed client: /10.0.0.11:37386in MyMiddleware.run()
LOG: Closed client: /10.0.0.11:37378in MyMiddleware.run()
LOG: Closed client: /10.0.0.11:37412in MyMiddleware.run()
LOG: Closed client: /10.0.0.11:37414in MyMiddleware.run()
LOG: Closed client: /10.0.0.11:37400in MyMiddleware.run()
LOG: Closed client: /10.0.0.11:37370in MyMiddleware.run()
LOG: Closed client: /10.0.0.11:37368in MyMiddleware.run()
LOG: Closed client: /10.0.0.11:37374in MyMiddleware.run()
LOG: Closed client: /10.0.0.11:37392in MyMiddleware.run()
LOG: Closed client: /10.0.0.11:37376in MyMiddleware.run()
LOG: Closed client: /10.0.0.11:37396in MyMiddleware.run()
LOG: Closed client: /10.0.0.11:37406in MyMiddleware.run()
LOG: Closed client: /10.0.0.11:37394in MyMiddleware.run()
LOG: Closed client: /10.0.0.11:37352in MyMiddleware.run()
LOG: Closed client: /10.0.0.11:37382in MyMiddleware.run()
LOG: Closed client: /10.0.0.11:37402in MyMiddleware.run()
LOG: Closed client: /10.0.0.11:37388in MyMiddleware.run()
LOG: Closed client: /10.0.0.11:37410in MyMiddleware.run()
LOG: Closed client: /10.0.0.11:37404in MyMiddleware.run()
LOG: Closed client: /10.0.0.11:37366in MyMiddleware.run()
LOG: Closed client: /10.0.0.11:37384in MyMiddleware.run()
LOG: Closed client: /10.0.0.11:37408in MyMiddleware.run()
LOG: Closed client: /10.0.0.6:48390in MyMiddleware.run()
LOG: Closed client: /10.0.0.6:48394in MyMiddleware.run()
LOG: Closed client: /10.0.0.6:48426in MyMiddleware.run()
LOG: Closed client: /10.0.0.6:48416in MyMiddleware.run()
LOG: Closed client: /10.0.0.6:48418in MyMiddleware.run()
LOG: Closed client: /10.0.0.6:48422in MyMiddleware.run()
LOG: Closed client: /10.0.0.6:48396in MyMiddleware.run()
LOG: Closed client: /10.0.0.6:48402in MyMiddleware.run()
LOG: Closed client: /10.0.0.6:48424in MyMiddleware.run()
LOG: Closed client: /10.0.0.6:48404in MyMiddleware.run()
LOG: Closed client: /10.0.0.6:48420in MyMiddleware.run()
LOG: Closed client: /10.0.0.6:48392in MyMiddleware.run()
LOG: Closed client: /10.0.0.6:48406in MyMiddleware.run()
LOG: Closed client: /10.0.0.6:48410in MyMiddleware.run()
LOG: Closed client: /10.0.0.6:48408in MyMiddleware.run()
LOG: Closed client: /10.0.0.6:48400in MyMiddleware.run()
LOG: Closed client: /10.0.0.6:48412in MyMiddleware.run()
LOG: Closed client: /10.0.0.6:48414in MyMiddleware.run()
LOG: Closed client: /10.0.0.6:48398in MyMiddleware.run()
LOG: Closed client: /10.0.0.6:48438in MyMiddleware.run()
LOG: Closed client: /10.0.0.6:48436in MyMiddleware.run()
LOG: Closed client: /10.0.0.6:48434in MyMiddleware.run()
LOG: Closed client: /10.0.0.6:48428in MyMiddleware.run()
LOG: Closed client: /10.0.0.6:48450in MyMiddleware.run()
LOG: Closed client: /10.0.0.6:48430in MyMiddleware.run()
LOG: Closed client: /10.0.0.6:48448in MyMiddleware.run()
LOG: Closed client: /10.0.0.6:48444in MyMiddleware.run()
LOG: Closed client: /10.0.0.6:48452in MyMiddleware.run()
LOG: Closed client: /10.0.0.6:48440in MyMiddleware.run()
LOG: Closed client: /10.0.0.6:48442in MyMiddleware.run()
LOG: Closed client: /10.0.0.6:48446in MyMiddleware.run()
LOG: Closed client: /10.0.0.6:48432in MyMiddleware.run()
LOG: Closed client: /10.0.0.7:38198in MyMiddleware.run()
LOG: Closed client: /10.0.0.7:38194in MyMiddleware.run()
LOG: Closed client: /10.0.0.7:38204in MyMiddleware.run()
LOG: Closed client: /10.0.0.7:38212in MyMiddleware.run()
LOG: Closed client: /10.0.0.7:38214in MyMiddleware.run()
LOG: Closed client: /10.0.0.7:38200in MyMiddleware.run()
LOG: Closed client: /10.0.0.7:38192in MyMiddleware.run()
LOG: Closed client: /10.0.0.7:38202in MyMiddleware.run()
LOG: Closed client: /10.0.0.7:38230in MyMiddleware.run()
LOG: Closed client: /10.0.0.7:38232in MyMiddleware.run()
LOG: Closed client: /10.0.0.7:38196in MyMiddleware.run()
LOG: Closed client: /10.0.0.7:38244in MyMiddleware.run()
LOG: Closed client: /10.0.0.7:38222in MyMiddleware.run()
LOG: Closed client: /10.0.0.7:38248in MyMiddleware.run()
LOG: Closed client: /10.0.0.7:38240in MyMiddleware.run()
LOG: Closed client: /10.0.0.7:38252in MyMiddleware.run()
LOG: Closed client: /10.0.0.7:38246in MyMiddleware.run()
LOG: Closed client: /10.0.0.7:38206in MyMiddleware.run()
LOG: Closed client: /10.0.0.7:38216in MyMiddleware.run()
LOG: Closed client: /10.0.0.7:38236in MyMiddleware.run()
LOG: Closed client: /10.0.0.7:38218in MyMiddleware.run()
LOG: Closed client: /10.0.0.7:38234in MyMiddleware.run()
LOG: Closed client: /10.0.0.7:38228in MyMiddleware.run()
LOG: Closed client: /10.0.0.7:38220in MyMiddleware.run()
LOG: Closed client: /10.0.0.7:38208in MyMiddleware.run()
LOG: Closed client: /10.0.0.7:38224in MyMiddleware.run()
LOG: Closed client: /10.0.0.7:38210in MyMiddleware.run()
LOG: Closed client: /10.0.0.7:38238in MyMiddleware.run()
LOG: Closed client: /10.0.0.7:38250in MyMiddleware.run()
LOG: Closed client: /10.0.0.7:38254in MyMiddleware.run()
LOG: Closed client: /10.0.0.7:38242in MyMiddleware.run()
LOG: Closed client: /10.0.0.7:38226in MyMiddleware.run()
