------------Middleware started!------------
LOG: Waiting for connection in MyMiddleware.run()
LOG: Accepted client: /10.0.0.6:52304in MyMiddleware.run()
LOG: Accepted client: /10.0.0.6:52312in MyMiddleware.run()
LOG: Accepted client: /10.0.0.6:52306in MyMiddleware.run()
LOG: Accepted client: /10.0.0.6:52314in MyMiddleware.run()
LOG: Accepted client: /10.0.0.6:52316in MyMiddleware.run()
LOG: Accepted client: /10.0.0.6:52318in MyMiddleware.run()
LOG: Accepted client: /10.0.0.6:52308in MyMiddleware.run()
LOG: Accepted client: /10.0.0.6:52310in MyMiddleware.run()
LOG: Accepted client: /10.0.0.7:42188in MyMiddleware.run()
LOG: Accepted client: /10.0.0.7:42186in MyMiddleware.run()
LOG: Accepted client: /10.0.0.7:42184in MyMiddleware.run()
LOG: Accepted client: /10.0.0.7:42182in MyMiddleware.run()
LOG: Accepted client: /10.0.0.7:42178in MyMiddleware.run()
LOG: Accepted client: /10.0.0.7:42190in MyMiddleware.run()
LOG: Accepted client: /10.0.0.7:42180in MyMiddleware.run()
LOG: Accepted client: /10.0.0.7:42192in MyMiddleware.run()
LOG: Accepted client: /10.0.0.11:41272in MyMiddleware.run()
LOG: Accepted client: /10.0.0.11:41270in MyMiddleware.run()
LOG: Accepted client: /10.0.0.11:41278in MyMiddleware.run()
LOG: Accepted client: /10.0.0.11:41276in MyMiddleware.run()
LOG: Accepted client: /10.0.0.11:41266in MyMiddleware.run()
LOG: Accepted client: /10.0.0.11:41274in MyMiddleware.run()
LOG: Accepted client: /10.0.0.11:41268in MyMiddleware.run()
LOG: Accepted client: /10.0.0.11:41280in MyMiddleware.run()
LOG: Closed client: /10.0.0.6:52316in MyMiddleware.run()
LOG: Closed client: /10.0.0.6:52318in MyMiddleware.run()
LOG: Closed client: /10.0.0.6:52310in MyMiddleware.run()
LOG: Closed client: /10.0.0.6:52314in MyMiddleware.run()
LOG: Closed client: /10.0.0.6:52308in MyMiddleware.run()
LOG: Closed client: /10.0.0.6:52304in MyMiddleware.run()
LOG: Closed client: /10.0.0.6:52306in MyMiddleware.run()
LOG: Closed client: /10.0.0.6:52312in MyMiddleware.run()
LOG: Closed client: /10.0.0.7:42190in MyMiddleware.run()
LOG: Closed client: /10.0.0.7:42182in MyMiddleware.run()
LOG: Closed client: /10.0.0.7:42188in MyMiddleware.run()
LOG: Closed client: /10.0.0.7:42180in MyMiddleware.run()
LOG: Closed client: /10.0.0.7:42178in MyMiddleware.run()
LOG: Closed client: /10.0.0.7:42186in MyMiddleware.run()
LOG: Closed client: /10.0.0.7:42184in MyMiddleware.run()
LOG: Closed client: /10.0.0.7:42192in MyMiddleware.run()
LOG: Closed client: /10.0.0.11:41266in MyMiddleware.run()
LOG: Closed client: /10.0.0.11:41268in MyMiddleware.run()
LOG: Closed client: /10.0.0.11:41276in MyMiddleware.run()
LOG: Closed client: /10.0.0.11:41274in MyMiddleware.run()
LOG: Closed client: /10.0.0.11:41280in MyMiddleware.run()
LOG: Closed client: /10.0.0.11:41278in MyMiddleware.run()
LOG: Closed client: /10.0.0.11:41272in MyMiddleware.run()
LOG: Closed client: /10.0.0.11:41270in MyMiddleware.run()
