------------Middleware started!------------
LOG: Waiting for connection in MyMiddleware.run()
LOG: Accepted client: /10.0.0.6:45876in MyMiddleware.run()
LOG: Accepted client: /10.0.0.6:45842in MyMiddleware.run()
LOG: Accepted client: /10.0.0.6:45844in MyMiddleware.run()
LOG: Accepted client: /10.0.0.6:45830in MyMiddleware.run()
LOG: Accepted client: /10.0.0.6:45854in MyMiddleware.run()
LOG: Accepted client: /10.0.0.6:45866in MyMiddleware.run()
LOG: Accepted client: /10.0.0.6:45864in MyMiddleware.run()
LOG: Accepted client: /10.0.0.6:45840in MyMiddleware.run()
LOG: Accepted client: /10.0.0.6:45878in MyMiddleware.run()
LOG: Accepted client: /10.0.0.6:45882in MyMiddleware.run()
LOG: Accepted client: /10.0.0.6:45880in MyMiddleware.run()
LOG: Accepted client: /10.0.0.6:45848in MyMiddleware.run()
LOG: Accepted client: /10.0.0.6:45828in MyMiddleware.run()
LOG: Accepted client: /10.0.0.6:45874in MyMiddleware.run()
LOG: Accepted client: /10.0.0.6:45846in MyMiddleware.run()
LOG: Accepted client: /10.0.0.6:45850in MyMiddleware.run()
LOG: Accepted client: /10.0.0.6:45852in MyMiddleware.run()
LOG: Accepted client: /10.0.0.6:45872in MyMiddleware.run()
LOG: Accepted client: /10.0.0.6:45834in MyMiddleware.run()
LOG: Accepted client: /10.0.0.6:45862in MyMiddleware.run()
LOG: Accepted client: /10.0.0.6:45860in MyMiddleware.run()
LOG: Accepted client: /10.0.0.6:45832in MyMiddleware.run()
LOG: Accepted client: /10.0.0.6:45820in MyMiddleware.run()
LOG: Accepted client: /10.0.0.6:45824in MyMiddleware.run()
LOG: Accepted client: /10.0.0.7:35702in MyMiddleware.run()
LOG: Accepted client: /10.0.0.7:35706in MyMiddleware.run()
LOG: Accepted client: /10.0.0.7:35720in MyMiddleware.run()
LOG: Accepted client: /10.0.0.7:35716in MyMiddleware.run()
LOG: Accepted client: /10.0.0.7:35714in MyMiddleware.run()
LOG: Accepted client: /10.0.0.7:35766in MyMiddleware.run()
LOG: Accepted client: /10.0.0.7:35708in MyMiddleware.run()
LOG: Accepted client: /10.0.0.7:35734in MyMiddleware.run()
LOG: Accepted client: /10.0.0.7:35770in MyMiddleware.run()
LOG: Accepted client: /10.0.0.6:45838in MyMiddleware.run()
LOG: Accepted client: /10.0.0.6:45822in MyMiddleware.run()
LOG: Accepted client: /10.0.0.7:35700in MyMiddleware.run()
LOG: Accepted client: /10.0.0.6:45868in MyMiddleware.run()
LOG: Accepted client: /10.0.0.6:45870in MyMiddleware.run()
LOG: Accepted client: /10.0.0.6:45836in MyMiddleware.run()
LOG: Accepted client: /10.0.0.6:45856in MyMiddleware.run()
LOG: Accepted client: /10.0.0.6:45858in MyMiddleware.run()
LOG: Accepted client: /10.0.0.6:45826in MyMiddleware.run()
LOG: Accepted client: /10.0.0.11:34896in MyMiddleware.run()
LOG: Accepted client: /10.0.0.7:35732in MyMiddleware.run()
LOG: Accepted client: /10.0.0.7:35758in MyMiddleware.run()
LOG: Accepted client: /10.0.0.7:35710in MyMiddleware.run()
LOG: Accepted client: /10.0.0.7:35698in MyMiddleware.run()
LOG: Accepted client: /10.0.0.7:35738in MyMiddleware.run()
LOG: Accepted client: /10.0.0.11:34908in MyMiddleware.run()
LOG: Accepted client: /10.0.0.7:35722in MyMiddleware.run()
LOG: Accepted client: /10.0.0.7:35750in MyMiddleware.run()
LOG: Accepted client: /10.0.0.11:34912in MyMiddleware.run()
LOG: Accepted client: /10.0.0.7:35694in MyMiddleware.run()
LOG: Accepted client: /10.0.0.7:35718in MyMiddleware.run()
LOG: Accepted client: /10.0.0.7:35754in MyMiddleware.run()
LOG: Accepted client: /10.0.0.11:34950in MyMiddleware.run()
LOG: Accepted client: /10.0.0.11:34926in MyMiddleware.run()
LOG: Accepted client: /10.0.0.11:34952in MyMiddleware.run()
LOG: Accepted client: /10.0.0.11:34928in MyMiddleware.run()
LOG: Accepted client: /10.0.0.11:34902in MyMiddleware.run()
LOG: Accepted client: /10.0.0.11:34938in MyMiddleware.run()
LOG: Accepted client: /10.0.0.7:35712in MyMiddleware.run()
LOG: Accepted client: /10.0.0.11:34940in MyMiddleware.run()
LOG: Accepted client: /10.0.0.11:34898in MyMiddleware.run()
LOG: Accepted client: /10.0.0.7:35696in MyMiddleware.run()
LOG: Accepted client: /10.0.0.11:34900in MyMiddleware.run()
LOG: Accepted client: /10.0.0.11:34914in MyMiddleware.run()
LOG: Accepted client: /10.0.0.11:34954in MyMiddleware.run()
LOG: Accepted client: /10.0.0.11:34894in MyMiddleware.run()
LOG: Accepted client: /10.0.0.11:34924in MyMiddleware.run()
LOG: Accepted client: /10.0.0.7:35740in MyMiddleware.run()
LOG: Accepted client: /10.0.0.11:34910in MyMiddleware.run()
LOG: Accepted client: /10.0.0.11:34906in MyMiddleware.run()
LOG: Accepted client: /10.0.0.11:34930in MyMiddleware.run()
LOG: Accepted client: /10.0.0.11:34942in MyMiddleware.run()
LOG: Accepted client: /10.0.0.11:34946in MyMiddleware.run()
LOG: Accepted client: /10.0.0.11:34956in MyMiddleware.run()
LOG: Accepted client: /10.0.0.11:34948in MyMiddleware.run()
LOG: Accepted client: /10.0.0.11:34936in MyMiddleware.run()
LOG: Accepted client: /10.0.0.11:34916in MyMiddleware.run()
LOG: Accepted client: /10.0.0.11:34934in MyMiddleware.run()
LOG: Accepted client: /10.0.0.11:34922in MyMiddleware.run()
LOG: Accepted client: /10.0.0.11:34904in MyMiddleware.run()
LOG: Accepted client: /10.0.0.11:34918in MyMiddleware.run()
LOG: Accepted client: /10.0.0.11:34944in MyMiddleware.run()
LOG: Accepted client: /10.0.0.11:34920in MyMiddleware.run()
LOG: Accepted client: /10.0.0.7:35774in MyMiddleware.run()
LOG: Accepted client: /10.0.0.7:35746in MyMiddleware.run()
LOG: Accepted client: /10.0.0.7:35744in MyMiddleware.run()
LOG: Accepted client: /10.0.0.7:35704in MyMiddleware.run()
LOG: Accepted client: /10.0.0.7:35728in MyMiddleware.run()
LOG: Accepted client: /10.0.0.7:35730in MyMiddleware.run()
LOG: Accepted client: /10.0.0.7:35762in MyMiddleware.run()
LOG: Accepted client: /10.0.0.7:35726in MyMiddleware.run()
LOG: Accepted client: /10.0.0.7:35724in MyMiddleware.run()
LOG: Accepted client: /10.0.0.11:34932in MyMiddleware.run()
LOG: Closed client: /10.0.0.6:45822in MyMiddleware.run()
LOG: Closed client: /10.0.0.6:45820in MyMiddleware.run()
LOG: Closed client: /10.0.0.6:45856in MyMiddleware.run()
LOG: Closed client: /10.0.0.6:45830in MyMiddleware.run()
LOG: Closed client: /10.0.0.6:45852in MyMiddleware.run()
LOG: Closed client: /10.0.0.6:45870in MyMiddleware.run()
LOG: Closed client: /10.0.0.6:45872in MyMiddleware.run()
LOG: Closed client: /10.0.0.6:45864in MyMiddleware.run()
LOG: Closed client: /10.0.0.6:45874in MyMiddleware.run()
LOG: Closed client: /10.0.0.6:45840in MyMiddleware.run()
LOG: Closed client: /10.0.0.6:45848in MyMiddleware.run()
LOG: Closed client: /10.0.0.6:45842in MyMiddleware.run()
LOG: Closed client: /10.0.0.6:45854in MyMiddleware.run()
LOG: Closed client: /10.0.0.6:45838in MyMiddleware.run()
LOG: Closed client: /10.0.0.6:45844in MyMiddleware.run()
LOG: Closed client: /10.0.0.6:45826in MyMiddleware.run()
LOG: Closed client: /10.0.0.6:45866in MyMiddleware.run()
LOG: Closed client: /10.0.0.6:45850in MyMiddleware.run()
LOG: Closed client: /10.0.0.6:45836in MyMiddleware.run()
LOG: Closed client: /10.0.0.6:45834in MyMiddleware.run()
LOG: Closed client: /10.0.0.6:45862in MyMiddleware.run()
LOG: Closed client: /10.0.0.6:45824in MyMiddleware.run()
LOG: Closed client: /10.0.0.6:45868in MyMiddleware.run()
LOG: Closed client: /10.0.0.6:45860in MyMiddleware.run()
LOG: Closed client: /10.0.0.6:45832in MyMiddleware.run()
LOG: Closed client: /10.0.0.6:45846in MyMiddleware.run()
LOG: Closed client: /10.0.0.6:45828in MyMiddleware.run()
LOG: Closed client: /10.0.0.6:45858in MyMiddleware.run()
LOG: Closed client: /10.0.0.6:45876in MyMiddleware.run()
LOG: Closed client: /10.0.0.6:45882in MyMiddleware.run()
LOG: Closed client: /10.0.0.6:45878in MyMiddleware.run()
LOG: Closed client: /10.0.0.6:45880in MyMiddleware.run()
LOG: Closed client: /10.0.0.7:35704in MyMiddleware.run()
LOG: Closed client: /10.0.0.7:35716in MyMiddleware.run()
LOG: Closed client: /10.0.0.7:35698in MyMiddleware.run()
LOG: Closed client: /10.0.0.7:35708in MyMiddleware.run()
LOG: Closed client: /10.0.0.7:35732in MyMiddleware.run()
LOG: Closed client: /10.0.0.7:35740in MyMiddleware.run()
LOG: Closed client: /10.0.0.7:35710in MyMiddleware.run()
LOG: Closed client: /10.0.0.7:35728in MyMiddleware.run()
LOG: Closed client: /10.0.0.7:35720in MyMiddleware.run()
LOG: Closed client: /10.0.0.7:35746in MyMiddleware.run()
LOG: Closed client: /10.0.0.7:35758in MyMiddleware.run()
LOG: Closed client: /10.0.0.7:35714in MyMiddleware.run()
LOG: Closed client: /10.0.0.7:35734in MyMiddleware.run()
LOG: Closed client: /10.0.0.7:35750in MyMiddleware.run()
LOG: Closed client: /10.0.0.7:35694in MyMiddleware.run()
LOG: Closed client: /10.0.0.7:35730in MyMiddleware.run()
LOG: Closed client: /10.0.0.7:35722in MyMiddleware.run()
LOG: Closed client: /10.0.0.7:35726in MyMiddleware.run()
LOG: Closed client: /10.0.0.7:35706in MyMiddleware.run()
LOG: Closed client: /10.0.0.7:35738in MyMiddleware.run()
LOG: Closed client: /10.0.0.7:35718in MyMiddleware.run()
LOG: Closed client: /10.0.0.7:35700in MyMiddleware.run()
LOG: Closed client: /10.0.0.7:35744in MyMiddleware.run()
LOG: Closed client: /10.0.0.7:35762in MyMiddleware.run()
LOG: Closed client: /10.0.0.7:35702in MyMiddleware.run()
LOG: Closed client: /10.0.0.7:35712in MyMiddleware.run()
LOG: Closed client: /10.0.0.7:35724in MyMiddleware.run()
LOG: Closed client: /10.0.0.7:35754in MyMiddleware.run()
LOG: Closed client: /10.0.0.7:35696in MyMiddleware.run()
LOG: Closed client: /10.0.0.7:35766in MyMiddleware.run()
LOG: Closed client: /10.0.0.7:35770in MyMiddleware.run()
LOG: Closed client: /10.0.0.7:35774in MyMiddleware.run()
LOG: Closed client: /10.0.0.11:34952in MyMiddleware.run()
LOG: Closed client: /10.0.0.11:34934in MyMiddleware.run()
LOG: Closed client: /10.0.0.11:34930in MyMiddleware.run()
LOG: Closed client: /10.0.0.11:34912in MyMiddleware.run()
LOG: Closed client: /10.0.0.11:34902in MyMiddleware.run()
LOG: Closed client: /10.0.0.11:34918in MyMiddleware.run()
LOG: Closed client: /10.0.0.11:34916in MyMiddleware.run()
LOG: Closed client: /10.0.0.11:34928in MyMiddleware.run()
LOG: Closed client: /10.0.0.11:34900in MyMiddleware.run()
LOG: Closed client: /10.0.0.11:34932in MyMiddleware.run()
LOG: Closed client: /10.0.0.11:34938in MyMiddleware.run()
LOG: Closed client: /10.0.0.11:34910in MyMiddleware.run()
LOG: Closed client: /10.0.0.11:34896in MyMiddleware.run()
LOG: Closed client: /10.0.0.11:34926in MyMiddleware.run()
LOG: Closed client: /10.0.0.11:34906in MyMiddleware.run()
LOG: Closed client: /10.0.0.11:34942in MyMiddleware.run()
LOG: Closed client: /10.0.0.11:34914in MyMiddleware.run()
LOG: Closed client: /10.0.0.11:34954in MyMiddleware.run()
LOG: Closed client: /10.0.0.11:34944in MyMiddleware.run()
LOG: Closed client: /10.0.0.11:34936in MyMiddleware.run()
LOG: Closed client: /10.0.0.11:34894in MyMiddleware.run()
LOG: Closed client: /10.0.0.11:34946in MyMiddleware.run()
LOG: Closed client: /10.0.0.11:34904in MyMiddleware.run()
LOG: Closed client: /10.0.0.11:34948in MyMiddleware.run()
LOG: Closed client: /10.0.0.11:34956in MyMiddleware.run()
LOG: Closed client: /10.0.0.11:34922in MyMiddleware.run()
LOG: Closed client: /10.0.0.11:34920in MyMiddleware.run()
LOG: Closed client: /10.0.0.11:34908in MyMiddleware.run()
LOG: Closed client: /10.0.0.11:34898in MyMiddleware.run()
LOG: Closed client: /10.0.0.11:34950in MyMiddleware.run()
LOG: Closed client: /10.0.0.11:34940in MyMiddleware.run()
LOG: Closed client: /10.0.0.11:34924in MyMiddleware.run()
