------------Middleware started!------------
LOG: Waiting for connection in MyMiddleware.run()
LOG: Accepted client: /10.0.0.6:41926in MyMiddleware.run()
LOG: Accepted client: /10.0.0.6:41934in MyMiddleware.run()
LOG: Accepted client: /10.0.0.6:41932in MyMiddleware.run()
LOG: Accepted client: /10.0.0.6:41920in MyMiddleware.run()
LOG: Accepted client: /10.0.0.6:41928in MyMiddleware.run()
LOG: Accepted client: /10.0.0.6:41948in MyMiddleware.run()
LOG: Accepted client: /10.0.0.6:41922in MyMiddleware.run()
LOG: Accepted client: /10.0.0.6:41944in MyMiddleware.run()
LOG: Accepted client: /10.0.0.6:41930in MyMiddleware.run()
LOG: Accepted client: /10.0.0.6:41946in MyMiddleware.run()
LOG: Accepted client: /10.0.0.6:41942in MyMiddleware.run()
LOG: Accepted client: /10.0.0.6:41924in MyMiddleware.run()
LOG: Accepted client: /10.0.0.6:41936in MyMiddleware.run()
LOG: Accepted client: /10.0.0.6:41950in MyMiddleware.run()
LOG: Accepted client: /10.0.0.6:41940in MyMiddleware.run()
LOG: Accepted client: /10.0.0.6:41938in MyMiddleware.run()
LOG: Accepted client: /10.0.0.7:60062in MyMiddleware.run()
LOG: Accepted client: /10.0.0.7:60058in MyMiddleware.run()
LOG: Accepted client: /10.0.0.7:60054in MyMiddleware.run()
LOG: Accepted client: /10.0.0.7:60072in MyMiddleware.run()
LOG: Accepted client: /10.0.0.11:59178in MyMiddleware.run()
LOG: Accepted client: /10.0.0.7:60050in MyMiddleware.run()
LOG: Accepted client: /10.0.0.11:59170in MyMiddleware.run()
LOG: Accepted client: /10.0.0.11:59158in MyMiddleware.run()
LOG: Accepted client: /10.0.0.7:60064in MyMiddleware.run()
LOG: Accepted client: /10.0.0.7:60076in MyMiddleware.run()
LOG: Accepted client: /10.0.0.7:60056in MyMiddleware.run()
LOG: Accepted client: /10.0.0.7:60052in MyMiddleware.run()
LOG: Accepted client: /10.0.0.7:60080in MyMiddleware.run()
LOG: Accepted client: /10.0.0.11:59174in MyMiddleware.run()
LOG: Accepted client: /10.0.0.7:60060in MyMiddleware.run()
LOG: Accepted client: /10.0.0.11:59184in MyMiddleware.run()
LOG: Accepted client: /10.0.0.7:60078in MyMiddleware.run()
LOG: Accepted client: /10.0.0.7:60066in MyMiddleware.run()
LOG: Accepted client: /10.0.0.7:60070in MyMiddleware.run()
LOG: Accepted client: /10.0.0.11:59182in MyMiddleware.run()
LOG: Accepted client: /10.0.0.11:59166in MyMiddleware.run()
LOG: Accepted client: /10.0.0.7:60068in MyMiddleware.run()
LOG: Accepted client: /10.0.0.11:59154in MyMiddleware.run()
LOG: Accepted client: /10.0.0.11:59180in MyMiddleware.run()
LOG: Accepted client: /10.0.0.11:59176in MyMiddleware.run()
LOG: Accepted client: /10.0.0.11:59156in MyMiddleware.run()
LOG: Accepted client: /10.0.0.7:60074in MyMiddleware.run()
LOG: Accepted client: /10.0.0.11:59164in MyMiddleware.run()
LOG: Accepted client: /10.0.0.11:59172in MyMiddleware.run()
LOG: Accepted client: /10.0.0.11:59168in MyMiddleware.run()
LOG: Accepted client: /10.0.0.11:59160in MyMiddleware.run()
LOG: Accepted client: /10.0.0.11:59162in MyMiddleware.run()
LOG: Closed client: /10.0.0.6:41924in MyMiddleware.run()
LOG: Closed client: /10.0.0.6:41926in MyMiddleware.run()
LOG: Closed client: /10.0.0.6:41920in MyMiddleware.run()
LOG: Closed client: /10.0.0.6:41948in MyMiddleware.run()
LOG: Closed client: /10.0.0.6:41938in MyMiddleware.run()
LOG: Closed client: /10.0.0.6:41922in MyMiddleware.run()
LOG: Closed client: /10.0.0.6:41950in MyMiddleware.run()
LOG: Closed client: /10.0.0.6:41930in MyMiddleware.run()
LOG: Closed client: /10.0.0.6:41944in MyMiddleware.run()
LOG: Closed client: /10.0.0.6:41934in MyMiddleware.run()
LOG: Closed client: /10.0.0.6:41928in MyMiddleware.run()
LOG: Closed client: /10.0.0.6:41946in MyMiddleware.run()
LOG: Closed client: /10.0.0.6:41932in MyMiddleware.run()
LOG: Closed client: /10.0.0.6:41940in MyMiddleware.run()
LOG: Closed client: /10.0.0.6:41942in MyMiddleware.run()
LOG: Closed client: /10.0.0.6:41936in MyMiddleware.run()
LOG: Closed client: /10.0.0.11:59154in MyMiddleware.run()
LOG: Closed client: /10.0.0.11:59160in MyMiddleware.run()
LOG: Closed client: /10.0.0.11:59162in MyMiddleware.run()
LOG: Closed client: /10.0.0.11:59158in MyMiddleware.run()
LOG: Closed client: /10.0.0.11:59164in MyMiddleware.run()
LOG: Closed client: /10.0.0.11:59166in MyMiddleware.run()
LOG: Closed client: /10.0.0.11:59168in MyMiddleware.run()
LOG: Closed client: /10.0.0.11:59170in MyMiddleware.run()
LOG: Closed client: /10.0.0.11:59156in MyMiddleware.run()
LOG: Closed client: /10.0.0.11:59180in MyMiddleware.run()
LOG: Closed client: /10.0.0.11:59174in MyMiddleware.run()
LOG: Closed client: /10.0.0.11:59182in MyMiddleware.run()
LOG: Closed client: /10.0.0.11:59178in MyMiddleware.run()
LOG: Closed client: /10.0.0.11:59172in MyMiddleware.run()
LOG: Closed client: /10.0.0.11:59184in MyMiddleware.run()
LOG: Closed client: /10.0.0.11:59176in MyMiddleware.run()
LOG: Closed client: /10.0.0.7:60062in MyMiddleware.run()
LOG: Closed client: /10.0.0.7:60058in MyMiddleware.run()
LOG: Closed client: /10.0.0.7:60052in MyMiddleware.run()
LOG: Closed client: /10.0.0.7:60054in MyMiddleware.run()
LOG: Closed client: /10.0.0.7:60060in MyMiddleware.run()
LOG: Closed client: /10.0.0.7:60056in MyMiddleware.run()
LOG: Closed client: /10.0.0.7:60050in MyMiddleware.run()
LOG: Closed client: /10.0.0.7:60080in MyMiddleware.run()
LOG: Closed client: /10.0.0.7:60070in MyMiddleware.run()
LOG: Closed client: /10.0.0.7:60068in MyMiddleware.run()
LOG: Closed client: /10.0.0.7:60078in MyMiddleware.run()
LOG: Closed client: /10.0.0.7:60076in MyMiddleware.run()
LOG: Closed client: /10.0.0.7:60072in MyMiddleware.run()
LOG: Closed client: /10.0.0.7:60064in MyMiddleware.run()
LOG: Closed client: /10.0.0.7:60066in MyMiddleware.run()
LOG: Closed client: /10.0.0.7:60074in MyMiddleware.run()
