------------Middleware started!------------
LOG: Waiting for connection in MyMiddleware.run()
LOG: Accepted client: /10.0.0.6:39590in MyMiddleware.run()
LOG: Accepted client: /10.0.0.6:39580in MyMiddleware.run()
LOG: Accepted client: /10.0.0.6:39588in MyMiddleware.run()
LOG: Accepted client: /10.0.0.6:39592in MyMiddleware.run()
LOG: Accepted client: /10.0.0.6:39582in MyMiddleware.run()
LOG: Accepted client: /10.0.0.6:39586in MyMiddleware.run()
LOG: Accepted client: /10.0.0.6:39578in MyMiddleware.run()
LOG: Accepted client: /10.0.0.6:39584in MyMiddleware.run()
LOG: Accepted client: /10.0.0.7:57688in MyMiddleware.run()
LOG: Accepted client: /10.0.0.7:57700in MyMiddleware.run()
LOG: Accepted client: /10.0.0.7:57690in MyMiddleware.run()
LOG: Accepted client: /10.0.0.7:57702in MyMiddleware.run()
LOG: Accepted client: /10.0.0.7:57698in MyMiddleware.run()
LOG: Accepted client: /10.0.0.7:57692in MyMiddleware.run()
LOG: Accepted client: /10.0.0.7:57696in MyMiddleware.run()
LOG: Accepted client: /10.0.0.7:57694in MyMiddleware.run()
LOG: Accepted client: /10.0.0.11:56852in MyMiddleware.run()
LOG: Accepted client: /10.0.0.11:56854in MyMiddleware.run()
LOG: Accepted client: /10.0.0.11:56864in MyMiddleware.run()
LOG: Accepted client: /10.0.0.11:56866in MyMiddleware.run()
LOG: Accepted client: /10.0.0.11:56860in MyMiddleware.run()
LOG: Accepted client: /10.0.0.11:56858in MyMiddleware.run()
LOG: Accepted client: /10.0.0.11:56862in MyMiddleware.run()
LOG: Accepted client: /10.0.0.11:56856in MyMiddleware.run()
LOG: Closed client: /10.0.0.7:57702in MyMiddleware.run()
LOG: Closed client: /10.0.0.7:57690in MyMiddleware.run()
LOG: Closed client: /10.0.0.7:57700in MyMiddleware.run()
LOG: Closed client: /10.0.0.7:57688in MyMiddleware.run()
LOG: Closed client: /10.0.0.7:57698in MyMiddleware.run()
LOG: Closed client: /10.0.0.7:57692in MyMiddleware.run()
LOG: Closed client: /10.0.0.7:57694in MyMiddleware.run()
LOG: Closed client: /10.0.0.7:57696in MyMiddleware.run()
LOG: Closed client: /10.0.0.6:39582in MyMiddleware.run()
LOG: Closed client: /10.0.0.6:39586in MyMiddleware.run()
LOG: Closed client: /10.0.0.11:56854in MyMiddleware.run()
LOG: Closed client: /10.0.0.6:39588in MyMiddleware.run()
LOG: Closed client: /10.0.0.6:39584in MyMiddleware.run()
LOG: Closed client: /10.0.0.11:56852in MyMiddleware.run()
LOG: Closed client: /10.0.0.6:39590in MyMiddleware.run()
LOG: Closed client: /10.0.0.11:56864in MyMiddleware.run()
LOG: Closed client: /10.0.0.11:56866in MyMiddleware.run()
LOG: Closed client: /10.0.0.6:39592in MyMiddleware.run()
LOG: Closed client: /10.0.0.11:56862in MyMiddleware.run()
LOG: Closed client: /10.0.0.6:39580in MyMiddleware.run()
LOG: Closed client: /10.0.0.11:56856in MyMiddleware.run()
LOG: Closed client: /10.0.0.6:39578in MyMiddleware.run()
LOG: Closed client: /10.0.0.11:56860in MyMiddleware.run()
LOG: Closed client: /10.0.0.11:56858in MyMiddleware.run()
