------------Middleware started!------------
LOG: Waiting for connection in MyMiddleware.run()
LOG: Accepted client: /10.0.0.6:46914in MyMiddleware.run()
LOG: Accepted client: /10.0.0.6:46902in MyMiddleware.run()
LOG: Accepted client: /10.0.0.6:46874in MyMiddleware.run()
LOG: Accepted client: /10.0.0.6:46912in MyMiddleware.run()
LOG: Accepted client: /10.0.0.6:46896in MyMiddleware.run()
LOG: Accepted client: /10.0.0.6:46878in MyMiddleware.run()
LOG: Accepted client: /10.0.0.6:46890in MyMiddleware.run()
LOG: Accepted client: /10.0.0.6:46918in MyMiddleware.run()
LOG: Accepted client: /10.0.0.6:46936in MyMiddleware.run()
LOG: Accepted client: /10.0.0.6:46882in MyMiddleware.run()
LOG: Accepted client: /10.0.0.6:46876in MyMiddleware.run()
LOG: Accepted client: /10.0.0.6:46934in MyMiddleware.run()
LOG: Accepted client: /10.0.0.6:46928in MyMiddleware.run()
LOG: Accepted client: /10.0.0.6:46930in MyMiddleware.run()
LOG: Accepted client: /10.0.0.6:46880in MyMiddleware.run()
LOG: Accepted client: /10.0.0.6:46932in MyMiddleware.run()
LOG: Accepted client: /10.0.0.6:46884in MyMiddleware.run()
LOG: Accepted client: /10.0.0.6:46886in MyMiddleware.run()
LOG: Accepted client: /10.0.0.6:46926in MyMiddleware.run()
LOG: Accepted client: /10.0.0.6:46922in MyMiddleware.run()
LOG: Accepted client: /10.0.0.6:46906in MyMiddleware.run()
LOG: Accepted client: /10.0.0.6:46910in MyMiddleware.run()
LOG: Accepted client: /10.0.0.6:46904in MyMiddleware.run()
LOG: Accepted client: /10.0.0.6:46920in MyMiddleware.run()
LOG: Accepted client: /10.0.0.6:46908in MyMiddleware.run()
LOG: Accepted client: /10.0.0.11:35834in MyMiddleware.run()
LOG: Accepted client: /10.0.0.6:46924in MyMiddleware.run()
LOG: Accepted client: /10.0.0.11:35882in MyMiddleware.run()
LOG: Accepted client: /10.0.0.11:35858in MyMiddleware.run()
LOG: Accepted client: /10.0.0.11:35846in MyMiddleware.run()
LOG: Accepted client: /10.0.0.11:35892in MyMiddleware.run()
LOG: Accepted client: /10.0.0.11:35890in MyMiddleware.run()
LOG: Accepted client: /10.0.0.11:35856in MyMiddleware.run()
LOG: Accepted client: /10.0.0.11:35848in MyMiddleware.run()
LOG: Accepted client: /10.0.0.11:35886in MyMiddleware.run()
LOG: Accepted client: /10.0.0.11:35878in MyMiddleware.run()
LOG: Accepted client: /10.0.0.11:35860in MyMiddleware.run()
LOG: Accepted client: /10.0.0.11:35888in MyMiddleware.run()
LOG: Accepted client: /10.0.0.11:35838in MyMiddleware.run()
LOG: Accepted client: /10.0.0.11:35864in MyMiddleware.run()
LOG: Accepted client: /10.0.0.11:35842in MyMiddleware.run()
LOG: Accepted client: /10.0.0.11:35832in MyMiddleware.run()
LOG: Accepted client: /10.0.0.11:35836in MyMiddleware.run()
LOG: Accepted client: /10.0.0.11:35884in MyMiddleware.run()
LOG: Accepted client: /10.0.0.11:35874in MyMiddleware.run()
LOG: Accepted client: /10.0.0.11:35870in MyMiddleware.run()
LOG: Accepted client: /10.0.0.11:35880in MyMiddleware.run()
LOG: Accepted client: /10.0.0.11:35866in MyMiddleware.run()
LOG: Accepted client: /10.0.0.11:35852in MyMiddleware.run()
LOG: Accepted client: /10.0.0.11:35844in MyMiddleware.run()
LOG: Accepted client: /10.0.0.11:35854in MyMiddleware.run()
LOG: Accepted client: /10.0.0.11:35862in MyMiddleware.run()
LOG: Accepted client: /10.0.0.11:35876in MyMiddleware.run()
LOG: Accepted client: /10.0.0.6:46892in MyMiddleware.run()
LOG: Accepted client: /10.0.0.6:46894in MyMiddleware.run()
LOG: Accepted client: /10.0.0.6:46888in MyMiddleware.run()
LOG: Accepted client: /10.0.0.6:46916in MyMiddleware.run()
LOG: Accepted client: /10.0.0.6:46898in MyMiddleware.run()
LOG: Accepted client: /10.0.0.7:36740in MyMiddleware.run()
LOG: Accepted client: /10.0.0.7:36736in MyMiddleware.run()
LOG: Accepted client: /10.0.0.7:36760in MyMiddleware.run()
LOG: Accepted client: /10.0.0.7:36752in MyMiddleware.run()
LOG: Accepted client: /10.0.0.7:36786in MyMiddleware.run()
LOG: Accepted client: /10.0.0.7:36758in MyMiddleware.run()
LOG: Accepted client: /10.0.0.7:36754in MyMiddleware.run()
LOG: Accepted client: /10.0.0.7:36788in MyMiddleware.run()
LOG: Accepted client: /10.0.0.7:36734in MyMiddleware.run()
LOG: Accepted client: /10.0.0.7:36790in MyMiddleware.run()
LOG: Accepted client: /10.0.0.7:36742in MyMiddleware.run()
LOG: Accepted client: /10.0.0.7:36778in MyMiddleware.run()
LOG: Accepted client: /10.0.0.7:36776in MyMiddleware.run()
LOG: Accepted client: /10.0.0.7:36762in MyMiddleware.run()
LOG: Accepted client: /10.0.0.7:36766in MyMiddleware.run()
LOG: Accepted client: /10.0.0.7:36744in MyMiddleware.run()
LOG: Accepted client: /10.0.0.7:36782in MyMiddleware.run()
LOG: Accepted client: /10.0.0.7:36756in MyMiddleware.run()
LOG: Accepted client: /10.0.0.7:36772in MyMiddleware.run()
LOG: Accepted client: /10.0.0.7:36738in MyMiddleware.run()
LOG: Accepted client: /10.0.0.7:36774in MyMiddleware.run()
LOG: Accepted client: /10.0.0.7:36746in MyMiddleware.run()
LOG: Accepted client: /10.0.0.7:36780in MyMiddleware.run()
LOG: Accepted client: /10.0.0.7:36794in MyMiddleware.run()
LOG: Accepted client: /10.0.0.7:36796in MyMiddleware.run()
LOG: Accepted client: /10.0.0.7:36784in MyMiddleware.run()
LOG: Accepted client: /10.0.0.7:36764in MyMiddleware.run()
LOG: Accepted client: /10.0.0.7:36792in MyMiddleware.run()
LOG: Accepted client: /10.0.0.11:35868in MyMiddleware.run()
LOG: Accepted client: /10.0.0.11:35840in MyMiddleware.run()
LOG: Accepted client: /10.0.0.11:35830in MyMiddleware.run()
LOG: Accepted client: /10.0.0.11:35850in MyMiddleware.run()
LOG: Accepted client: /10.0.0.11:35872in MyMiddleware.run()
LOG: Accepted client: /10.0.0.6:46900in MyMiddleware.run()
LOG: Accepted client: /10.0.0.7:36770in MyMiddleware.run()
LOG: Accepted client: /10.0.0.7:36768in MyMiddleware.run()
LOG: Accepted client: /10.0.0.7:36748in MyMiddleware.run()
LOG: Accepted client: /10.0.0.7:36750in MyMiddleware.run()
LOG: Closed client: /10.0.0.6:46874in MyMiddleware.run()
LOG: Closed client: /10.0.0.6:46884in MyMiddleware.run()
LOG: Closed client: /10.0.0.6:46898in MyMiddleware.run()
LOG: Closed client: /10.0.0.6:46886in MyMiddleware.run()
LOG: Closed client: /10.0.0.6:46902in MyMiddleware.run()
LOG: Closed client: /10.0.0.6:46896in MyMiddleware.run()
LOG: Closed client: /10.0.0.6:46882in MyMiddleware.run()
LOG: Closed client: /10.0.0.6:46878in MyMiddleware.run()
LOG: Closed client: /10.0.0.6:46900in MyMiddleware.run()
LOG: Closed client: /10.0.0.6:46892in MyMiddleware.run()
LOG: Closed client: /10.0.0.6:46894in MyMiddleware.run()
LOG: Closed client: /10.0.0.6:46904in MyMiddleware.run()
LOG: Closed client: /10.0.0.6:46876in MyMiddleware.run()
LOG: Closed client: /10.0.0.6:46880in MyMiddleware.run()
LOG: Closed client: /10.0.0.6:46914in MyMiddleware.run()
LOG: Closed client: /10.0.0.6:46912in MyMiddleware.run()
LOG: Closed client: /10.0.0.6:46890in MyMiddleware.run()
LOG: Closed client: /10.0.0.6:46930in MyMiddleware.run()
LOG: Closed client: /10.0.0.6:46918in MyMiddleware.run()
LOG: Closed client: /10.0.0.6:46924in MyMiddleware.run()
LOG: Closed client: /10.0.0.6:46916in MyMiddleware.run()
LOG: Closed client: /10.0.0.6:46926in MyMiddleware.run()
LOG: Closed client: /10.0.0.6:46922in MyMiddleware.run()
LOG: Closed client: /10.0.0.6:46920in MyMiddleware.run()
LOG: Closed client: /10.0.0.6:46906in MyMiddleware.run()
LOG: Closed client: /10.0.0.6:46908in MyMiddleware.run()
LOG: Closed client: /10.0.0.6:46888in MyMiddleware.run()
LOG: Closed client: /10.0.0.6:46910in MyMiddleware.run()
LOG: Closed client: /10.0.0.6:46928in MyMiddleware.run()
LOG: Closed client: /10.0.0.6:46934in MyMiddleware.run()
LOG: Closed client: /10.0.0.6:46932in MyMiddleware.run()
LOG: Closed client: /10.0.0.6:46936in MyMiddleware.run()
LOG: Closed client: /10.0.0.11:35832in MyMiddleware.run()
LOG: Closed client: /10.0.0.11:35838in MyMiddleware.run()
LOG: Closed client: /10.0.0.11:35860in MyMiddleware.run()
LOG: Closed client: /10.0.0.11:35864in MyMiddleware.run()
LOG: Closed client: /10.0.0.11:35850in MyMiddleware.run()
LOG: Closed client: /10.0.0.11:35884in MyMiddleware.run()
LOG: Closed client: /10.0.0.11:35840in MyMiddleware.run()
LOG: Closed client: /10.0.0.11:35874in MyMiddleware.run()
LOG: Closed client: /10.0.0.11:35836in MyMiddleware.run()
LOG: Closed client: /10.0.0.11:35858in MyMiddleware.run()
LOG: Closed client: /10.0.0.11:35844in MyMiddleware.run()
LOG: Closed client: /10.0.0.11:35866in MyMiddleware.run()
LOG: Closed client: /10.0.0.11:35878in MyMiddleware.run()
LOG: Closed client: /10.0.0.11:35830in MyMiddleware.run()
LOG: Closed client: /10.0.0.11:35842in MyMiddleware.run()
LOG: Closed client: /10.0.0.11:35888in MyMiddleware.run()
LOG: Closed client: /10.0.0.11:35882in MyMiddleware.run()
LOG: Closed client: /10.0.0.11:35880in MyMiddleware.run()
LOG: Closed client: /10.0.0.11:35892in MyMiddleware.run()
LOG: Closed client: /10.0.0.11:35862in MyMiddleware.run()
LOG: Closed client: /10.0.0.11:35870in MyMiddleware.run()
LOG: Closed client: /10.0.0.11:35872in MyMiddleware.run()
LOG: Closed client: /10.0.0.11:35848in MyMiddleware.run()
LOG: Closed client: /10.0.0.11:35890in MyMiddleware.run()
LOG: Closed client: /10.0.0.11:35854in MyMiddleware.run()
LOG: Closed client: /10.0.0.11:35886in MyMiddleware.run()
LOG: Closed client: /10.0.0.11:35876in MyMiddleware.run()
LOG: Closed client: /10.0.0.11:35846in MyMiddleware.run()
LOG: Closed client: /10.0.0.11:35856in MyMiddleware.run()
LOG: Closed client: /10.0.0.11:35834in MyMiddleware.run()
LOG: Closed client: /10.0.0.11:35868in MyMiddleware.run()
LOG: Closed client: /10.0.0.11:35852in MyMiddleware.run()
LOG: Closed client: /10.0.0.7:36744in MyMiddleware.run()
LOG: Closed client: /10.0.0.7:36734in MyMiddleware.run()
LOG: Closed client: /10.0.0.7:36742in MyMiddleware.run()
LOG: Closed client: /10.0.0.7:36738in MyMiddleware.run()
LOG: Closed client: /10.0.0.7:36736in MyMiddleware.run()
LOG: Closed client: /10.0.0.7:36740in MyMiddleware.run()
LOG: Closed client: /10.0.0.7:36746in MyMiddleware.run()
LOG: Closed client: /10.0.0.7:36750in MyMiddleware.run()
LOG: Closed client: /10.0.0.7:36760in MyMiddleware.run()
LOG: Closed client: /10.0.0.7:36756in MyMiddleware.run()
LOG: Closed client: /10.0.0.7:36752in MyMiddleware.run()
LOG: Closed client: /10.0.0.7:36748in MyMiddleware.run()
LOG: Closed client: /10.0.0.7:36758in MyMiddleware.run()
LOG: Closed client: /10.0.0.7:36754in MyMiddleware.run()
LOG: Closed client: /10.0.0.7:36772in MyMiddleware.run()
LOG: Closed client: /10.0.0.7:36766in MyMiddleware.run()
LOG: Closed client: /10.0.0.7:36764in MyMiddleware.run()
LOG: Closed client: /10.0.0.7:36774in MyMiddleware.run()
LOG: Closed client: /10.0.0.7:36786in MyMiddleware.run()
LOG: Closed client: /10.0.0.7:36780in MyMiddleware.run()
LOG: Closed client: /10.0.0.7:36776in MyMiddleware.run()
LOG: Closed client: /10.0.0.7:36784in MyMiddleware.run()
LOG: Closed client: /10.0.0.7:36788in MyMiddleware.run()
LOG: Closed client: /10.0.0.7:36762in MyMiddleware.run()
LOG: Closed client: /10.0.0.7:36782in MyMiddleware.run()
LOG: Closed client: /10.0.0.7:36790in MyMiddleware.run()
LOG: Closed client: /10.0.0.7:36768in MyMiddleware.run()
LOG: Closed client: /10.0.0.7:36770in MyMiddleware.run()
LOG: Closed client: /10.0.0.7:36792in MyMiddleware.run()
LOG: Closed client: /10.0.0.7:36778in MyMiddleware.run()
LOG: Closed client: /10.0.0.7:36796in MyMiddleware.run()
LOG: Closed client: /10.0.0.7:36794in MyMiddleware.run()
