------------Middleware started!------------
LOG: Waiting for connection in MyMiddleware.run()
LOG: Accepted client: /10.0.0.11:52410in MyMiddleware.run()
LOG: Accepted client: /10.0.0.11:52404in MyMiddleware.run()
LOG: Accepted client: /10.0.0.11:52406in MyMiddleware.run()
LOG: Accepted client: /10.0.0.11:52408in MyMiddleware.run()
LOG: Accepted client: /10.0.0.6:35194in MyMiddleware.run()
LOG: Accepted client: /10.0.0.6:35196in MyMiddleware.run()
LOG: Accepted client: /10.0.0.6:35198in MyMiddleware.run()
LOG: Accepted client: /10.0.0.6:35200in MyMiddleware.run()
LOG: Accepted client: /10.0.0.7:53292in MyMiddleware.run()
LOG: Accepted client: /10.0.0.7:53294in MyMiddleware.run()
LOG: Accepted client: /10.0.0.7:53296in MyMiddleware.run()
LOG: Accepted client: /10.0.0.7:53298in MyMiddleware.run()
LOG: Closed client: /10.0.0.6:35194in MyMiddleware.run()
LOG: Closed client: /10.0.0.6:35200in MyMiddleware.run()
LOG: Closed client: /10.0.0.6:35196in MyMiddleware.run()
LOG: Closed client: /10.0.0.6:35198in MyMiddleware.run()
LOG: Closed client: /10.0.0.11:52404in MyMiddleware.run()
LOG: Closed client: /10.0.0.11:52406in MyMiddleware.run()
LOG: Closed client: /10.0.0.11:52408in MyMiddleware.run()
LOG: Closed client: /10.0.0.11:52410in MyMiddleware.run()
LOG: Closed client: /10.0.0.7:53298in MyMiddleware.run()
LOG: Closed client: /10.0.0.7:53296in MyMiddleware.run()
LOG: Closed client: /10.0.0.7:53294in MyMiddleware.run()
LOG: Closed client: /10.0.0.7:53292in MyMiddleware.run()
