------------Middleware started!------------
LOG: Waiting for connection in MyMiddleware.run()
LOG: Accepted client: /10.0.0.6:57400in MyMiddleware.run()
LOG: Accepted client: /10.0.0.6:57404in MyMiddleware.run()
LOG: Accepted client: /10.0.0.6:57402in MyMiddleware.run()
LOG: Accepted client: /10.0.0.6:57396in MyMiddleware.run()
LOG: Accepted client: /10.0.0.6:57374in MyMiddleware.run()
LOG: Accepted client: /10.0.0.6:57398in MyMiddleware.run()
LOG: Accepted client: /10.0.0.6:57394in MyMiddleware.run()
LOG: Accepted client: /10.0.0.6:57380in MyMiddleware.run()
LOG: Accepted client: /10.0.0.6:57382in MyMiddleware.run()
LOG: Accepted client: /10.0.0.6:57384in MyMiddleware.run()
LOG: Accepted client: /10.0.0.6:57386in MyMiddleware.run()
LOG: Accepted client: /10.0.0.6:57376in MyMiddleware.run()
LOG: Accepted client: /10.0.0.6:57378in MyMiddleware.run()
LOG: Accepted client: /10.0.0.6:57392in MyMiddleware.run()
LOG: Accepted client: /10.0.0.6:57390in MyMiddleware.run()
LOG: Accepted client: /10.0.0.6:57388in MyMiddleware.run()
LOG: Accepted client: /10.0.0.11:46406in MyMiddleware.run()
LOG: Accepted client: /10.0.0.11:46404in MyMiddleware.run()
LOG: Accepted client: /10.0.0.11:46412in MyMiddleware.run()
LOG: Accepted client: /10.0.0.11:46410in MyMiddleware.run()
LOG: Accepted client: /10.0.0.11:46396in MyMiddleware.run()
LOG: Accepted client: /10.0.0.11:46392in MyMiddleware.run()
LOG: Accepted client: /10.0.0.11:46394in MyMiddleware.run()
LOG: Accepted client: /10.0.0.11:46384in MyMiddleware.run()
LOG: Accepted client: /10.0.0.11:46414in MyMiddleware.run()
LOG: Accepted client: /10.0.0.11:46386in MyMiddleware.run()
LOG: Accepted client: /10.0.0.11:46398in MyMiddleware.run()
LOG: Accepted client: /10.0.0.11:46408in MyMiddleware.run()
LOG: Accepted client: /10.0.0.7:47286in MyMiddleware.run()
LOG: Accepted client: /10.0.0.7:47274in MyMiddleware.run()
LOG: Accepted client: /10.0.0.7:47282in MyMiddleware.run()
LOG: Accepted client: /10.0.0.7:47302in MyMiddleware.run()
LOG: Accepted client: /10.0.0.7:47272in MyMiddleware.run()
LOG: Accepted client: /10.0.0.7:47296in MyMiddleware.run()
LOG: Accepted client: /10.0.0.7:47278in MyMiddleware.run()
LOG: Accepted client: /10.0.0.7:47288in MyMiddleware.run()
LOG: Accepted client: /10.0.0.7:47280in MyMiddleware.run()
LOG: Accepted client: /10.0.0.7:47298in MyMiddleware.run()
LOG: Accepted client: /10.0.0.7:47276in MyMiddleware.run()
LOG: Accepted client: /10.0.0.7:47284in MyMiddleware.run()
LOG: Accepted client: /10.0.0.7:47290in MyMiddleware.run()
LOG: Accepted client: /10.0.0.7:47300in MyMiddleware.run()
LOG: Accepted client: /10.0.0.11:46400in MyMiddleware.run()
LOG: Accepted client: /10.0.0.11:46390in MyMiddleware.run()
LOG: Accepted client: /10.0.0.11:46388in MyMiddleware.run()
LOG: Accepted client: /10.0.0.11:46402in MyMiddleware.run()
LOG: Accepted client: /10.0.0.7:47294in MyMiddleware.run()
LOG: Accepted client: /10.0.0.7:47292in MyMiddleware.run()
LOG: Closed client: /10.0.0.6:57374in MyMiddleware.run()
LOG: Closed client: /10.0.0.6:57376in MyMiddleware.run()
LOG: Closed client: /10.0.0.6:57380in MyMiddleware.run()
LOG: Closed client: /10.0.0.6:57402in MyMiddleware.run()
LOG: Closed client: /10.0.0.6:57384in MyMiddleware.run()
LOG: Closed client: /10.0.0.6:57398in MyMiddleware.run()
LOG: Closed client: /10.0.0.6:57400in MyMiddleware.run()
LOG: Closed client: /10.0.0.6:57396in MyMiddleware.run()
LOG: Closed client: /10.0.0.6:57386in MyMiddleware.run()
LOG: Closed client: /10.0.0.6:57378in MyMiddleware.run()
LOG: Closed client: /10.0.0.6:57392in MyMiddleware.run()
LOG: Closed client: /10.0.0.6:57404in MyMiddleware.run()
LOG: Closed client: /10.0.0.6:57388in MyMiddleware.run()
LOG: Closed client: /10.0.0.6:57382in MyMiddleware.run()
LOG: Closed client: /10.0.0.6:57394in MyMiddleware.run()
LOG: Closed client: /10.0.0.6:57390in MyMiddleware.run()
LOG: Closed client: /10.0.0.11:46396in MyMiddleware.run()
LOG: Closed client: /10.0.0.11:46400in MyMiddleware.run()
LOG: Closed client: /10.0.0.11:46410in MyMiddleware.run()
LOG: Closed client: /10.0.0.11:46390in MyMiddleware.run()
LOG: Closed client: /10.0.0.11:46402in MyMiddleware.run()
LOG: Closed client: /10.0.0.11:46408in MyMiddleware.run()
LOG: Closed client: /10.0.0.11:46386in MyMiddleware.run()
LOG: Closed client: /10.0.0.11:46394in MyMiddleware.run()
LOG: Closed client: /10.0.0.11:46404in MyMiddleware.run()
LOG: Closed client: /10.0.0.11:46388in MyMiddleware.run()
LOG: Closed client: /10.0.0.11:46384in MyMiddleware.run()
LOG: Closed client: /10.0.0.11:46398in MyMiddleware.run()
LOG: Closed client: /10.0.0.11:46414in MyMiddleware.run()
LOG: Closed client: /10.0.0.11:46406in MyMiddleware.run()
LOG: Closed client: /10.0.0.11:46392in MyMiddleware.run()
LOG: Closed client: /10.0.0.11:46412in MyMiddleware.run()
LOG: Closed client: /10.0.0.7:47272in MyMiddleware.run()
LOG: Closed client: /10.0.0.7:47276in MyMiddleware.run()
LOG: Closed client: /10.0.0.7:47274in MyMiddleware.run()
LOG: Closed client: /10.0.0.7:47278in MyMiddleware.run()
LOG: Closed client: /10.0.0.7:47280in MyMiddleware.run()
LOG: Closed client: /10.0.0.7:47282in MyMiddleware.run()
LOG: Closed client: /10.0.0.7:47300in MyMiddleware.run()
LOG: Closed client: /10.0.0.7:47290in MyMiddleware.run()
LOG: Closed client: /10.0.0.7:47288in MyMiddleware.run()
LOG: Closed client: /10.0.0.7:47302in MyMiddleware.run()
LOG: Closed client: /10.0.0.7:47286in MyMiddleware.run()
LOG: Closed client: /10.0.0.7:47296in MyMiddleware.run()
LOG: Closed client: /10.0.0.7:47298in MyMiddleware.run()
LOG: Closed client: /10.0.0.7:47292in MyMiddleware.run()
LOG: Closed client: /10.0.0.7:47294in MyMiddleware.run()
LOG: Closed client: /10.0.0.7:47284in MyMiddleware.run()
