------------Middleware started!------------
LOG: Waiting for connection in MyMiddleware.run()
LOG: Accepted client: /10.0.0.11:55776in MyMiddleware.run()
LOG: Accepted client: /10.0.0.11:55774in MyMiddleware.run()
LOG: Accepted client: /10.0.0.11:55770in MyMiddleware.run()
LOG: Accepted client: /10.0.0.11:55780in MyMiddleware.run()
LOG: Accepted client: /10.0.0.11:55778in MyMiddleware.run()
LOG: Accepted client: /10.0.0.11:55772in MyMiddleware.run()
LOG: Accepted client: /10.0.0.11:55768in MyMiddleware.run()
LOG: Accepted client: /10.0.0.11:55782in MyMiddleware.run()
LOG: Accepted client: /10.0.0.6:38564in MyMiddleware.run()
LOG: Accepted client: /10.0.0.6:38566in MyMiddleware.run()
LOG: Accepted client: /10.0.0.6:38562in MyMiddleware.run()
LOG: Accepted client: /10.0.0.6:38560in MyMiddleware.run()
LOG: Accepted client: /10.0.0.6:38558in MyMiddleware.run()
LOG: Accepted client: /10.0.0.7:56684in MyMiddleware.run()
LOG: Accepted client: /10.0.0.7:56678in MyMiddleware.run()
LOG: Accepted client: /10.0.0.7:56672in MyMiddleware.run()
LOG: Accepted client: /10.0.0.7:56674in MyMiddleware.run()
LOG: Accepted client: /10.0.0.7:56676in MyMiddleware.run()
LOG: Accepted client: /10.0.0.6:38568in MyMiddleware.run()
LOG: Accepted client: /10.0.0.6:38570in MyMiddleware.run()
LOG: Accepted client: /10.0.0.6:38572in MyMiddleware.run()
LOG: Accepted client: /10.0.0.7:56682in MyMiddleware.run()
LOG: Accepted client: /10.0.0.7:56680in MyMiddleware.run()
LOG: Accepted client: /10.0.0.7:56686in MyMiddleware.run()
LOG: Closed client: /10.0.0.11:55776in MyMiddleware.run()
LOG: Closed client: /10.0.0.11:55772in MyMiddleware.run()
LOG: Closed client: /10.0.0.11:55774in MyMiddleware.run()
LOG: Closed client: /10.0.0.11:55778in MyMiddleware.run()
LOG: Closed client: /10.0.0.11:55770in MyMiddleware.run()
LOG: Closed client: /10.0.0.11:55768in MyMiddleware.run()
LOG: Closed client: /10.0.0.11:55782in MyMiddleware.run()
LOG: Closed client: /10.0.0.11:55780in MyMiddleware.run()
LOG: Closed client: /10.0.0.6:38558in MyMiddleware.run()
LOG: Closed client: /10.0.0.6:38560in MyMiddleware.run()
LOG: Closed client: /10.0.0.6:38572in MyMiddleware.run()
LOG: Closed client: /10.0.0.6:38566in MyMiddleware.run()
LOG: Closed client: /10.0.0.6:38568in MyMiddleware.run()
LOG: Closed client: /10.0.0.6:38562in MyMiddleware.run()
LOG: Closed client: /10.0.0.6:38570in MyMiddleware.run()
LOG: Closed client: /10.0.0.6:38564in MyMiddleware.run()
LOG: Closed client: /10.0.0.7:56676in MyMiddleware.run()
LOG: Closed client: /10.0.0.7:56672in MyMiddleware.run()
LOG: Closed client: /10.0.0.7:56678in MyMiddleware.run()
LOG: Closed client: /10.0.0.7:56674in MyMiddleware.run()
LOG: Closed client: /10.0.0.7:56682in MyMiddleware.run()
LOG: Closed client: /10.0.0.7:56680in MyMiddleware.run()
LOG: Closed client: /10.0.0.7:56684in MyMiddleware.run()
LOG: Closed client: /10.0.0.7:56686in MyMiddleware.run()
