------------Middleware started!------------
LOG: Waiting for connection in MyMiddleware.run()
LOG: Accepted client: /10.0.0.7:43458in MyMiddleware.run()
LOG: Accepted client: /10.0.0.7:43454in MyMiddleware.run()
LOG: Accepted client: /10.0.0.7:43446in MyMiddleware.run()
LOG: Accepted client: /10.0.0.7:43444in MyMiddleware.run()
LOG: Accepted client: /10.0.0.7:43456in MyMiddleware.run()
LOG: Accepted client: /10.0.0.7:43452in MyMiddleware.run()
LOG: Accepted client: /10.0.0.7:43448in MyMiddleware.run()
LOG: Accepted client: /10.0.0.7:43450in MyMiddleware.run()
LOG: Accepted client: /10.0.0.11:42592in MyMiddleware.run()
LOG: Accepted client: /10.0.0.11:42584in MyMiddleware.run()
LOG: Accepted client: /10.0.0.11:42590in MyMiddleware.run()
LOG: Accepted client: /10.0.0.11:42580in MyMiddleware.run()
LOG: Accepted client: /10.0.0.11:42582in MyMiddleware.run()
LOG: Accepted client: /10.0.0.11:42586in MyMiddleware.run()
LOG: Accepted client: /10.0.0.11:42588in MyMiddleware.run()
LOG: Accepted client: /10.0.0.11:42594in MyMiddleware.run()
LOG: Accepted client: /10.0.0.6:53596in MyMiddleware.run()
LOG: Accepted client: /10.0.0.6:53598in MyMiddleware.run()
LOG: Accepted client: /10.0.0.6:53592in MyMiddleware.run()
LOG: Accepted client: /10.0.0.6:53594in MyMiddleware.run()
LOG: Accepted client: /10.0.0.6:53602in MyMiddleware.run()
LOG: Accepted client: /10.0.0.6:53600in MyMiddleware.run()
LOG: Accepted client: /10.0.0.6:53606in MyMiddleware.run()
LOG: Accepted client: /10.0.0.6:53604in MyMiddleware.run()
LOG: Closed client: /10.0.0.7:43446in MyMiddleware.run()
LOG: Closed client: /10.0.0.7:43444in MyMiddleware.run()
LOG: Closed client: /10.0.0.7:43454in MyMiddleware.run()
LOG: Closed client: /10.0.0.7:43452in MyMiddleware.run()
LOG: Closed client: /10.0.0.7:43456in MyMiddleware.run()
LOG: Closed client: /10.0.0.7:43450in MyMiddleware.run()
LOG: Closed client: /10.0.0.7:43448in MyMiddleware.run()
LOG: Closed client: /10.0.0.7:43458in MyMiddleware.run()
LOG: Closed client: /10.0.0.11:42580in MyMiddleware.run()
LOG: Closed client: /10.0.0.11:42584in MyMiddleware.run()
LOG: Closed client: /10.0.0.11:42582in MyMiddleware.run()
LOG: Closed client: /10.0.0.11:42586in MyMiddleware.run()
LOG: Closed client: /10.0.0.11:42590in MyMiddleware.run()
LOG: Closed client: /10.0.0.11:42588in MyMiddleware.run()
LOG: Closed client: /10.0.0.11:42594in MyMiddleware.run()
LOG: Closed client: /10.0.0.11:42592in MyMiddleware.run()
LOG: Closed client: /10.0.0.6:53594in MyMiddleware.run()
LOG: Closed client: /10.0.0.6:53606in MyMiddleware.run()
LOG: Closed client: /10.0.0.6:53598in MyMiddleware.run()
LOG: Closed client: /10.0.0.6:53604in MyMiddleware.run()
LOG: Closed client: /10.0.0.6:53602in MyMiddleware.run()
LOG: Closed client: /10.0.0.6:53600in MyMiddleware.run()
LOG: Closed client: /10.0.0.6:53596in MyMiddleware.run()
LOG: Closed client: /10.0.0.6:53592in MyMiddleware.run()
