------------Middleware started!------------
LOG: Waiting for connection in MyMiddleware.run()
LOG: Accepted client: /10.0.0.11:58846in MyMiddleware.run()
LOG: Accepted client: /10.0.0.11:58816in MyMiddleware.run()
LOG: Accepted client: /10.0.0.11:58842in MyMiddleware.run()
LOG: Accepted client: /10.0.0.11:58826in MyMiddleware.run()
LOG: Accepted client: /10.0.0.11:58834in MyMiddleware.run()
LOG: Accepted client: /10.0.0.11:58820in MyMiddleware.run()
LOG: Accepted client: /10.0.0.11:58840in MyMiddleware.run()
LOG: Accepted client: /10.0.0.11:58832in MyMiddleware.run()
LOG: Accepted client: /10.0.0.11:58822in MyMiddleware.run()
LOG: Accepted client: /10.0.0.11:58824in MyMiddleware.run()
LOG: Accepted client: /10.0.0.11:58818in MyMiddleware.run()
LOG: Accepted client: /10.0.0.11:58838in MyMiddleware.run()
LOG: Accepted client: /10.0.0.11:58836in MyMiddleware.run()
LOG: Accepted client: /10.0.0.11:58830in MyMiddleware.run()
LOG: Accepted client: /10.0.0.11:58844in MyMiddleware.run()
LOG: Accepted client: /10.0.0.11:58828in MyMiddleware.run()
LOG: Accepted client: /10.0.0.7:59748in MyMiddleware.run()
LOG: Accepted client: /10.0.0.7:59764in MyMiddleware.run()
LOG: Accepted client: /10.0.0.7:59756in MyMiddleware.run()
LOG: Accepted client: /10.0.0.7:59758in MyMiddleware.run()
LOG: Accepted client: /10.0.0.7:59766in MyMiddleware.run()
LOG: Accepted client: /10.0.0.7:59768in MyMiddleware.run()
LOG: Accepted client: /10.0.0.7:59774in MyMiddleware.run()
LOG: Accepted client: /10.0.0.7:59752in MyMiddleware.run()
LOG: Accepted client: /10.0.0.7:59750in MyMiddleware.run()
LOG: Accepted client: /10.0.0.7:59746in MyMiddleware.run()
LOG: Accepted client: /10.0.0.7:59744in MyMiddleware.run()
LOG: Accepted client: /10.0.0.7:59760in MyMiddleware.run()
LOG: Accepted client: /10.0.0.7:59754in MyMiddleware.run()
LOG: Accepted client: /10.0.0.7:59772in MyMiddleware.run()
LOG: Accepted client: /10.0.0.7:59762in MyMiddleware.run()
LOG: Accepted client: /10.0.0.7:59770in MyMiddleware.run()
LOG: Accepted client: /10.0.0.6:41666in MyMiddleware.run()
LOG: Accepted client: /10.0.0.6:41646in MyMiddleware.run()
LOG: Accepted client: /10.0.0.6:41652in MyMiddleware.run()
LOG: Accepted client: /10.0.0.6:41660in MyMiddleware.run()
LOG: Accepted client: /10.0.0.6:41664in MyMiddleware.run()
LOG: Accepted client: /10.0.0.6:41650in MyMiddleware.run()
LOG: Accepted client: /10.0.0.6:41672in MyMiddleware.run()
LOG: Accepted client: /10.0.0.6:41654in MyMiddleware.run()
LOG: Accepted client: /10.0.0.6:41662in MyMiddleware.run()
LOG: Accepted client: /10.0.0.6:41670in MyMiddleware.run()
LOG: Accepted client: /10.0.0.6:41674in MyMiddleware.run()
LOG: Accepted client: /10.0.0.6:41644in MyMiddleware.run()
LOG: Accepted client: /10.0.0.6:41648in MyMiddleware.run()
LOG: Accepted client: /10.0.0.6:41658in MyMiddleware.run()
LOG: Accepted client: /10.0.0.6:41668in MyMiddleware.run()
LOG: Accepted client: /10.0.0.6:41656in MyMiddleware.run()
LOG: Closed client: /10.0.0.7:59760in MyMiddleware.run()
LOG: Closed client: /10.0.0.7:59758in MyMiddleware.run()
LOG: Closed client: /10.0.0.7:59744in MyMiddleware.run()
LOG: Closed client: /10.0.0.7:59752in MyMiddleware.run()
LOG: Closed client: /10.0.0.7:59756in MyMiddleware.run()
LOG: Closed client: /10.0.0.7:59748in MyMiddleware.run()
LOG: Closed client: /10.0.0.7:59774in MyMiddleware.run()
LOG: Closed client: /10.0.0.7:59766in MyMiddleware.run()
LOG: Closed client: /10.0.0.7:59750in MyMiddleware.run()
LOG: Closed client: /10.0.0.7:59770in MyMiddleware.run()
LOG: Closed client: /10.0.0.7:59762in MyMiddleware.run()
LOG: Closed client: /10.0.0.7:59764in MyMiddleware.run()
LOG: Closed client: /10.0.0.7:59746in MyMiddleware.run()
LOG: Closed client: /10.0.0.7:59768in MyMiddleware.run()
LOG: Closed client: /10.0.0.7:59772in MyMiddleware.run()
LOG: Closed client: /10.0.0.7:59754in MyMiddleware.run()
LOG: Closed client: /10.0.0.11:58830in MyMiddleware.run()
LOG: Closed client: /10.0.0.11:58818in MyMiddleware.run()
LOG: Closed client: /10.0.0.11:58832in MyMiddleware.run()
LOG: Closed client: /10.0.0.11:58840in MyMiddleware.run()
LOG: Closed client: /10.0.0.11:58834in MyMiddleware.run()
LOG: Closed client: /10.0.0.11:58846in MyMiddleware.run()
LOG: Closed client: /10.0.0.11:58836in MyMiddleware.run()
LOG: Closed client: /10.0.0.11:58824in MyMiddleware.run()
LOG: Closed client: /10.0.0.11:58838in MyMiddleware.run()
LOG: Closed client: /10.0.0.11:58822in MyMiddleware.run()
LOG: Closed client: /10.0.0.11:58826in MyMiddleware.run()
LOG: Closed client: /10.0.0.11:58842in MyMiddleware.run()
LOG: Closed client: /10.0.0.11:58816in MyMiddleware.run()
LOG: Closed client: /10.0.0.11:58820in MyMiddleware.run()
LOG: Closed client: /10.0.0.11:58844in MyMiddleware.run()
LOG: Closed client: /10.0.0.11:58828in MyMiddleware.run()
LOG: Closed client: /10.0.0.6:41660in MyMiddleware.run()
LOG: Closed client: /10.0.0.6:41654in MyMiddleware.run()
LOG: Closed client: /10.0.0.6:41670in MyMiddleware.run()
LOG: Closed client: /10.0.0.6:41646in MyMiddleware.run()
LOG: Closed client: /10.0.0.6:41666in MyMiddleware.run()
LOG: Closed client: /10.0.0.6:41652in MyMiddleware.run()
LOG: Closed client: /10.0.0.6:41674in MyMiddleware.run()
LOG: Closed client: /10.0.0.6:41648in MyMiddleware.run()
LOG: Closed client: /10.0.0.6:41644in MyMiddleware.run()
LOG: Closed client: /10.0.0.6:41656in MyMiddleware.run()
LOG: Closed client: /10.0.0.6:41664in MyMiddleware.run()
LOG: Closed client: /10.0.0.6:41662in MyMiddleware.run()
LOG: Closed client: /10.0.0.6:41658in MyMiddleware.run()
LOG: Closed client: /10.0.0.6:41672in MyMiddleware.run()
LOG: Closed client: /10.0.0.6:41650in MyMiddleware.run()
LOG: Closed client: /10.0.0.6:41668in MyMiddleware.run()
