------------Middleware started!------------
LOG: Waiting for connection in MyMiddleware.run()
LOG: Accepted client: /10.0.0.6:52786in MyMiddleware.run()
LOG: Accepted client: /10.0.0.6:52782in MyMiddleware.run()
LOG: Accepted client: /10.0.0.6:52784in MyMiddleware.run()
LOG: Accepted client: /10.0.0.6:52774in MyMiddleware.run()
LOG: Accepted client: /10.0.0.6:52780in MyMiddleware.run()
LOG: Accepted client: /10.0.0.6:52788in MyMiddleware.run()
LOG: Accepted client: /10.0.0.6:52776in MyMiddleware.run()
LOG: Accepted client: /10.0.0.6:52778in MyMiddleware.run()
LOG: Accepted client: /10.0.0.11:41786in MyMiddleware.run()
LOG: Accepted client: /10.0.0.11:41782in MyMiddleware.run()
LOG: Accepted client: /10.0.0.11:41792in MyMiddleware.run()
LOG: Accepted client: /10.0.0.11:41780in MyMiddleware.run()
LOG: Accepted client: /10.0.0.11:41778in MyMiddleware.run()
LOG: Accepted client: /10.0.0.11:41788in MyMiddleware.run()
LOG: Accepted client: /10.0.0.11:41790in MyMiddleware.run()
LOG: Accepted client: /10.0.0.11:41784in MyMiddleware.run()
LOG: Accepted client: /10.0.0.7:42658in MyMiddleware.run()
LOG: Accepted client: /10.0.0.7:42672in MyMiddleware.run()
LOG: Accepted client: /10.0.0.7:42660in MyMiddleware.run()
LOG: Accepted client: /10.0.0.7:42668in MyMiddleware.run()
LOG: Accepted client: /10.0.0.7:42662in MyMiddleware.run()
LOG: Accepted client: /10.0.0.7:42670in MyMiddleware.run()
LOG: Accepted client: /10.0.0.7:42666in MyMiddleware.run()
LOG: Accepted client: /10.0.0.7:42664in MyMiddleware.run()
LOG: Closed client: /10.0.0.7:42658in MyMiddleware.run()
LOG: Closed client: /10.0.0.7:42666in MyMiddleware.run()
LOG: Closed client: /10.0.0.7:42664in MyMiddleware.run()
LOG: Closed client: /10.0.0.7:42662in MyMiddleware.run()
LOG: Closed client: /10.0.0.7:42672in MyMiddleware.run()
LOG: Closed client: /10.0.0.7:42670in MyMiddleware.run()
LOG: Closed client: /10.0.0.7:42660in MyMiddleware.run()
LOG: Closed client: /10.0.0.7:42668in MyMiddleware.run()
LOG: Closed client: /10.0.0.11:41782in MyMiddleware.run()
LOG: Closed client: /10.0.0.11:41792in MyMiddleware.run()
LOG: Closed client: /10.0.0.11:41790in MyMiddleware.run()
LOG: Closed client: /10.0.0.11:41786in MyMiddleware.run()
LOG: Closed client: /10.0.0.11:41788in MyMiddleware.run()
LOG: Closed client: /10.0.0.11:41778in MyMiddleware.run()
LOG: Closed client: /10.0.0.11:41780in MyMiddleware.run()
LOG: Closed client: /10.0.0.11:41784in MyMiddleware.run()
LOG: Closed client: /10.0.0.6:52786in MyMiddleware.run()
LOG: Closed client: /10.0.0.6:52778in MyMiddleware.run()
LOG: Closed client: /10.0.0.6:52774in MyMiddleware.run()
LOG: Closed client: /10.0.0.6:52788in MyMiddleware.run()
LOG: Closed client: /10.0.0.6:52782in MyMiddleware.run()
LOG: Closed client: /10.0.0.6:52780in MyMiddleware.run()
LOG: Closed client: /10.0.0.6:52784in MyMiddleware.run()
LOG: Closed client: /10.0.0.6:52776in MyMiddleware.run()
