------------Middleware started!------------
LOG: Waiting for connection in MyMiddleware.run()
LOG: Accepted client: /10.0.0.6:50408in MyMiddleware.run()
LOG: Accepted client: /10.0.0.6:50412in MyMiddleware.run()
LOG: Accepted client: /10.0.0.6:50410in MyMiddleware.run()
LOG: Accepted client: /10.0.0.6:50414in MyMiddleware.run()
LOG: Accepted client: /10.0.0.11:39416in MyMiddleware.run()
LOG: Accepted client: /10.0.0.11:39414in MyMiddleware.run()
LOG: Accepted client: /10.0.0.11:39412in MyMiddleware.run()
LOG: Accepted client: /10.0.0.11:39410in MyMiddleware.run()
LOG: Accepted client: /10.0.0.7:40288in MyMiddleware.run()
LOG: Accepted client: /10.0.0.7:40284in MyMiddleware.run()
LOG: Accepted client: /10.0.0.7:40282in MyMiddleware.run()
LOG: Accepted client: /10.0.0.7:40286in MyMiddleware.run()
LOG: Closed client: /10.0.0.6:50414in MyMiddleware.run()
LOG: Closed client: /10.0.0.6:50412in MyMiddleware.run()
LOG: Closed client: /10.0.0.6:50410in MyMiddleware.run()
LOG: Closed client: /10.0.0.6:50408in MyMiddleware.run()
LOG: Closed client: /10.0.0.11:39416in MyMiddleware.run()
LOG: Closed client: /10.0.0.11:39412in MyMiddleware.run()
LOG: Closed client: /10.0.0.11:39414in MyMiddleware.run()
LOG: Closed client: /10.0.0.11:39410in MyMiddleware.run()
LOG: Closed client: /10.0.0.7:40286in MyMiddleware.run()
LOG: Closed client: /10.0.0.7:40288in MyMiddleware.run()
LOG: Closed client: /10.0.0.7:40282in MyMiddleware.run()
LOG: Closed client: /10.0.0.7:40284in MyMiddleware.run()
