------------Middleware started!------------
LOG: Waiting for connection in MyMiddleware.run()
LOG: Accepted client: /10.0.0.11:42336in MyMiddleware.run()
LOG: Accepted client: /10.0.0.11:42340in MyMiddleware.run()
LOG: Accepted client: /10.0.0.11:42338in MyMiddleware.run()
LOG: Accepted client: /10.0.0.11:42330in MyMiddleware.run()
LOG: Accepted client: /10.0.0.11:42334in MyMiddleware.run()
LOG: Accepted client: /10.0.0.11:42328in MyMiddleware.run()
LOG: Accepted client: /10.0.0.11:42332in MyMiddleware.run()
LOG: Accepted client: /10.0.0.6:53394in MyMiddleware.run()
LOG: Accepted client: /10.0.0.6:53390in MyMiddleware.run()
LOG: Accepted client: /10.0.0.6:53382in MyMiddleware.run()
LOG: Accepted client: /10.0.0.6:53392in MyMiddleware.run()
LOG: Accepted client: /10.0.0.6:53380in MyMiddleware.run()
LOG: Accepted client: /10.0.0.6:53388in MyMiddleware.run()
LOG: Accepted client: /10.0.0.6:53386in MyMiddleware.run()
LOG: Accepted client: /10.0.0.6:53384in MyMiddleware.run()
LOG: Accepted client: /10.0.0.7:43246in MyMiddleware.run()
LOG: Accepted client: /10.0.0.7:43244in MyMiddleware.run()
LOG: Accepted client: /10.0.0.7:43248in MyMiddleware.run()
LOG: Accepted client: /10.0.0.7:43250in MyMiddleware.run()
LOG: Accepted client: /10.0.0.7:43252in MyMiddleware.run()
LOG: Accepted client: /10.0.0.11:42326in MyMiddleware.run()
LOG: Accepted client: /10.0.0.7:43240in MyMiddleware.run()
LOG: Accepted client: /10.0.0.7:43242in MyMiddleware.run()
LOG: Accepted client: /10.0.0.7:43238in MyMiddleware.run()
LOG: Closed client: /10.0.0.11:42336in MyMiddleware.run()
LOG: Closed client: /10.0.0.11:42340in MyMiddleware.run()
LOG: Closed client: /10.0.0.11:42338in MyMiddleware.run()
LOG: Closed client: /10.0.0.11:42330in MyMiddleware.run()
LOG: Closed client: /10.0.0.11:42328in MyMiddleware.run()
LOG: Closed client: /10.0.0.11:42326in MyMiddleware.run()
LOG: Closed client: /10.0.0.11:42334in MyMiddleware.run()
LOG: Closed client: /10.0.0.11:42332in MyMiddleware.run()
LOG: Closed client: /10.0.0.7:43244in MyMiddleware.run()
LOG: Closed client: /10.0.0.7:43246in MyMiddleware.run()
LOG: Closed client: /10.0.0.7:43240in MyMiddleware.run()
LOG: Closed client: /10.0.0.7:43242in MyMiddleware.run()
LOG: Closed client: /10.0.0.7:43238in MyMiddleware.run()
LOG: Closed client: /10.0.0.7:43248in MyMiddleware.run()
LOG: Closed client: /10.0.0.7:43250in MyMiddleware.run()
LOG: Closed client: /10.0.0.7:43252in MyMiddleware.run()
LOG: Closed client: /10.0.0.6:53380in MyMiddleware.run()
LOG: Closed client: /10.0.0.6:53382in MyMiddleware.run()
LOG: Closed client: /10.0.0.6:53388in MyMiddleware.run()
LOG: Closed client: /10.0.0.6:53390in MyMiddleware.run()
LOG: Closed client: /10.0.0.6:53394in MyMiddleware.run()
LOG: Closed client: /10.0.0.6:53384in MyMiddleware.run()
LOG: Closed client: /10.0.0.6:53392in MyMiddleware.run()
LOG: Closed client: /10.0.0.6:53386in MyMiddleware.run()
