------------Middleware started!------------
LOG: Waiting for connection in MyMiddleware.run()
LOG: Accepted client: /10.0.0.6:46158in MyMiddleware.run()
LOG: Accepted client: /10.0.0.6:46154in MyMiddleware.run()
LOG: Accepted client: /10.0.0.6:46150in MyMiddleware.run()
LOG: Accepted client: /10.0.0.6:46152in MyMiddleware.run()
LOG: Accepted client: /10.0.0.6:46160in MyMiddleware.run()
LOG: Accepted client: /10.0.0.6:46196in MyMiddleware.run()
LOG: Accepted client: /10.0.0.6:46166in MyMiddleware.run()
LOG: Accepted client: /10.0.0.6:46164in MyMiddleware.run()
LOG: Accepted client: /10.0.0.6:46156in MyMiddleware.run()
LOG: Accepted client: /10.0.0.6:46190in MyMiddleware.run()
LOG: Accepted client: /10.0.0.6:46162in MyMiddleware.run()
LOG: Accepted client: /10.0.0.6:46186in MyMiddleware.run()
LOG: Accepted client: /10.0.0.6:46200in MyMiddleware.run()
LOG: Accepted client: /10.0.0.6:46184in MyMiddleware.run()
LOG: Accepted client: /10.0.0.6:46208in MyMiddleware.run()
LOG: Accepted client: /10.0.0.6:46198in MyMiddleware.run()
LOG: Accepted client: /10.0.0.6:46170in MyMiddleware.run()
LOG: Accepted client: /10.0.0.6:46172in MyMiddleware.run()
LOG: Accepted client: /10.0.0.6:46192in MyMiddleware.run()
LOG: Accepted client: /10.0.0.6:46194in MyMiddleware.run()
LOG: Accepted client: /10.0.0.6:46174in MyMiddleware.run()
LOG: Accepted client: /10.0.0.6:46202in MyMiddleware.run()
LOG: Accepted client: /10.0.0.6:46188in MyMiddleware.run()
LOG: Accepted client: /10.0.0.6:46210in MyMiddleware.run()
LOG: Accepted client: /10.0.0.6:46204in MyMiddleware.run()
LOG: Accepted client: /10.0.0.6:46168in MyMiddleware.run()
LOG: Accepted client: /10.0.0.6:46206in MyMiddleware.run()
LOG: Accepted client: /10.0.0.6:46212in MyMiddleware.run()
LOG: Accepted client: /10.0.0.6:46176in MyMiddleware.run()
LOG: Accepted client: /10.0.0.6:46180in MyMiddleware.run()
LOG: Accepted client: /10.0.0.6:46178in MyMiddleware.run()
LOG: Accepted client: /10.0.0.6:46182in MyMiddleware.run()
LOG: Accepted client: /10.0.0.11:35186in MyMiddleware.run()
LOG: Accepted client: /10.0.0.11:35184in MyMiddleware.run()
LOG: Accepted client: /10.0.0.11:35176in MyMiddleware.run()
LOG: Accepted client: /10.0.0.11:35182in MyMiddleware.run()
LOG: Accepted client: /10.0.0.11:35222in MyMiddleware.run()
LOG: Accepted client: /10.0.0.11:35178in MyMiddleware.run()
LOG: Accepted client: /10.0.0.11:35188in MyMiddleware.run()
LOG: Accepted client: /10.0.0.11:35200in MyMiddleware.run()
LOG: Accepted client: /10.0.0.11:35190in MyMiddleware.run()
LOG: Accepted client: /10.0.0.11:35202in MyMiddleware.run()
LOG: Accepted client: /10.0.0.11:35192in MyMiddleware.run()
LOG: Accepted client: /10.0.0.11:35224in MyMiddleware.run()
LOG: Accepted client: /10.0.0.11:35174in MyMiddleware.run()
LOG: Accepted client: /10.0.0.11:35214in MyMiddleware.run()
LOG: Accepted client: /10.0.0.11:35210in MyMiddleware.run()
LOG: Accepted client: /10.0.0.11:35212in MyMiddleware.run()
LOG: Accepted client: /10.0.0.11:35226in MyMiddleware.run()
LOG: Accepted client: /10.0.0.11:35196in MyMiddleware.run()
LOG: Accepted client: /10.0.0.11:35228in MyMiddleware.run()
LOG: Accepted client: /10.0.0.11:35168in MyMiddleware.run()
LOG: Accepted client: /10.0.0.11:35198in MyMiddleware.run()
LOG: Accepted client: /10.0.0.11:35230in MyMiddleware.run()
LOG: Accepted client: /10.0.0.11:35170in MyMiddleware.run()
LOG: Accepted client: /10.0.0.11:35218in MyMiddleware.run()
LOG: Accepted client: /10.0.0.11:35216in MyMiddleware.run()
LOG: Accepted client: /10.0.0.11:35208in MyMiddleware.run()
LOG: Accepted client: /10.0.0.11:35206in MyMiddleware.run()
LOG: Accepted client: /10.0.0.11:35220in MyMiddleware.run()
LOG: Accepted client: /10.0.0.11:35172in MyMiddleware.run()
LOG: Accepted client: /10.0.0.11:35194in MyMiddleware.run()
LOG: Accepted client: /10.0.0.11:35204in MyMiddleware.run()
LOG: Accepted client: /10.0.0.11:35180in MyMiddleware.run()
LOG: Accepted client: /10.0.0.7:36082in MyMiddleware.run()
LOG: Accepted client: /10.0.0.7:36076in MyMiddleware.run()
LOG: Accepted client: /10.0.0.7:36080in MyMiddleware.run()
LOG: Accepted client: /10.0.0.7:36072in MyMiddleware.run()
LOG: Accepted client: /10.0.0.7:36078in MyMiddleware.run()
LOG: Accepted client: /10.0.0.7:36096in MyMiddleware.run()
LOG: Accepted client: /10.0.0.7:36094in MyMiddleware.run()
LOG: Accepted client: /10.0.0.7:36098in MyMiddleware.run()
LOG: Accepted client: /10.0.0.7:36092in MyMiddleware.run()
LOG: Accepted client: /10.0.0.7:36074in MyMiddleware.run()
LOG: Accepted client: /10.0.0.7:36088in MyMiddleware.run()
LOG: Accepted client: /10.0.0.7:36090in MyMiddleware.run()
LOG: Accepted client: /10.0.0.7:36100in MyMiddleware.run()
LOG: Accepted client: /10.0.0.7:36102in MyMiddleware.run()
LOG: Accepted client: /10.0.0.7:36086in MyMiddleware.run()
LOG: Accepted client: /10.0.0.7:36104in MyMiddleware.run()
LOG: Accepted client: /10.0.0.7:36084in MyMiddleware.run()
LOG: Accepted client: /10.0.0.7:36130in MyMiddleware.run()
LOG: Accepted client: /10.0.0.7:36120in MyMiddleware.run()
LOG: Accepted client: /10.0.0.7:36108in MyMiddleware.run()
LOG: Accepted client: /10.0.0.7:36128in MyMiddleware.run()
LOG: Accepted client: /10.0.0.7:36116in MyMiddleware.run()
LOG: Accepted client: /10.0.0.7:36132in MyMiddleware.run()
LOG: Accepted client: /10.0.0.7:36134in MyMiddleware.run()
LOG: Accepted client: /10.0.0.7:36124in MyMiddleware.run()
LOG: Accepted client: /10.0.0.7:36122in MyMiddleware.run()
LOG: Accepted client: /10.0.0.7:36126in MyMiddleware.run()
LOG: Accepted client: /10.0.0.7:36110in MyMiddleware.run()
LOG: Accepted client: /10.0.0.7:36112in MyMiddleware.run()
LOG: Accepted client: /10.0.0.7:36106in MyMiddleware.run()
LOG: Accepted client: /10.0.0.7:36118in MyMiddleware.run()
LOG: Accepted client: /10.0.0.7:36114in MyMiddleware.run()
LOG: Closed client: /10.0.0.6:46158in MyMiddleware.run()
LOG: Closed client: /10.0.0.6:46178in MyMiddleware.run()
LOG: Closed client: /10.0.0.6:46164in MyMiddleware.run()
LOG: Closed client: /10.0.0.6:46190in MyMiddleware.run()
LOG: Closed client: /10.0.0.6:46176in MyMiddleware.run()
LOG: Closed client: /10.0.0.6:46182in MyMiddleware.run()
LOG: Closed client: /10.0.0.6:46180in MyMiddleware.run()
LOG: Closed client: /10.0.0.6:46168in MyMiddleware.run()
LOG: Closed client: /10.0.0.6:46174in MyMiddleware.run()
LOG: Closed client: /10.0.0.6:46188in MyMiddleware.run()
LOG: Closed client: /10.0.0.6:46162in MyMiddleware.run()
LOG: Closed client: /10.0.0.6:46152in MyMiddleware.run()
LOG: Closed client: /10.0.0.6:46170in MyMiddleware.run()
LOG: Closed client: /10.0.0.6:46172in MyMiddleware.run()
LOG: Closed client: /10.0.0.6:46212in MyMiddleware.run()
LOG: Closed client: /10.0.0.6:46166in MyMiddleware.run()
LOG: Closed client: /10.0.0.6:46184in MyMiddleware.run()
LOG: Closed client: /10.0.0.6:46206in MyMiddleware.run()
LOG: Closed client: /10.0.0.6:46186in MyMiddleware.run()
LOG: Closed client: /10.0.0.6:46154in MyMiddleware.run()
LOG: Closed client: /10.0.0.6:46160in MyMiddleware.run()
LOG: Closed client: /10.0.0.6:46150in MyMiddleware.run()
LOG: Closed client: /10.0.0.6:46196in MyMiddleware.run()
LOG: Closed client: /10.0.0.6:46198in MyMiddleware.run()
LOG: Closed client: /10.0.0.6:46192in MyMiddleware.run()
LOG: Closed client: /10.0.0.6:46194in MyMiddleware.run()
LOG: Closed client: /10.0.0.6:46156in MyMiddleware.run()
LOG: Closed client: /10.0.0.6:46210in MyMiddleware.run()
LOG: Closed client: /10.0.0.6:46204in MyMiddleware.run()
LOG: Closed client: /10.0.0.6:46202in MyMiddleware.run()
LOG: Closed client: /10.0.0.6:46208in MyMiddleware.run()
LOG: Closed client: /10.0.0.6:46200in MyMiddleware.run()
LOG: Closed client: /10.0.0.11:35178in MyMiddleware.run()
LOG: Closed client: /10.0.0.11:35168in MyMiddleware.run()
LOG: Closed client: /10.0.0.11:35172in MyMiddleware.run()
LOG: Closed client: /10.0.0.11:35174in MyMiddleware.run()
LOG: Closed client: /10.0.0.11:35176in MyMiddleware.run()
LOG: Closed client: /10.0.0.11:35182in MyMiddleware.run()
LOG: Closed client: /10.0.0.11:35180in MyMiddleware.run()
LOG: Closed client: /10.0.0.11:35170in MyMiddleware.run()
LOG: Closed client: /10.0.0.11:35200in MyMiddleware.run()
LOG: Closed client: /10.0.0.11:35208in MyMiddleware.run()
LOG: Closed client: /10.0.0.11:35210in MyMiddleware.run()
LOG: Closed client: /10.0.0.11:35206in MyMiddleware.run()
LOG: Closed client: /10.0.0.11:35184in MyMiddleware.run()
LOG: Closed client: /10.0.0.11:35192in MyMiddleware.run()
LOG: Closed client: /10.0.0.11:35202in MyMiddleware.run()
LOG: Closed client: /10.0.0.11:35198in MyMiddleware.run()
LOG: Closed client: /10.0.0.11:35196in MyMiddleware.run()
LOG: Closed client: /10.0.0.11:35212in MyMiddleware.run()
LOG: Closed client: /10.0.0.11:35194in MyMiddleware.run()
LOG: Closed client: /10.0.0.11:35204in MyMiddleware.run()
LOG: Closed client: /10.0.0.11:35190in MyMiddleware.run()
LOG: Closed client: /10.0.0.11:35220in MyMiddleware.run()
LOG: Closed client: /10.0.0.11:35214in MyMiddleware.run()
LOG: Closed client: /10.0.0.11:35216in MyMiddleware.run()
LOG: Closed client: /10.0.0.11:35230in MyMiddleware.run()
LOG: Closed client: /10.0.0.11:35222in MyMiddleware.run()
LOG: Closed client: /10.0.0.11:35218in MyMiddleware.run()
LOG: Closed client: /10.0.0.11:35224in MyMiddleware.run()
LOG: Closed client: /10.0.0.11:35228in MyMiddleware.run()
LOG: Closed client: /10.0.0.11:35186in MyMiddleware.run()
LOG: Closed client: /10.0.0.11:35188in MyMiddleware.run()
LOG: Closed client: /10.0.0.11:35226in MyMiddleware.run()
LOG: Closed client: /10.0.0.7:36074in MyMiddleware.run()
LOG: Closed client: /10.0.0.7:36076in MyMiddleware.run()
LOG: Closed client: /10.0.0.7:36080in MyMiddleware.run()
LOG: Closed client: /10.0.0.7:36072in MyMiddleware.run()
LOG: Closed client: /10.0.0.7:36078in MyMiddleware.run()
LOG: Closed client: /10.0.0.7:36082in MyMiddleware.run()
LOG: Closed client: /10.0.0.7:36084in MyMiddleware.run()
LOG: Closed client: /10.0.0.7:36094in MyMiddleware.run()
LOG: Closed client: /10.0.0.7:36104in MyMiddleware.run()
LOG: Closed client: /10.0.0.7:36108in MyMiddleware.run()
LOG: Closed client: /10.0.0.7:36114in MyMiddleware.run()
LOG: Closed client: /10.0.0.7:36098in MyMiddleware.run()
LOG: Closed client: /10.0.0.7:36088in MyMiddleware.run()
LOG: Closed client: /10.0.0.7:36092in MyMiddleware.run()
LOG: Closed client: /10.0.0.7:36110in MyMiddleware.run()
LOG: Closed client: /10.0.0.7:36086in MyMiddleware.run()
LOG: Closed client: /10.0.0.7:36106in MyMiddleware.run()
LOG: Closed client: /10.0.0.7:36090in MyMiddleware.run()
LOG: Closed client: /10.0.0.7:36102in MyMiddleware.run()
LOG: Closed client: /10.0.0.7:36100in MyMiddleware.run()
LOG: Closed client: /10.0.0.7:36112in MyMiddleware.run()
LOG: Closed client: /10.0.0.7:36116in MyMiddleware.run()
LOG: Closed client: /10.0.0.7:36118in MyMiddleware.run()
LOG: Closed client: /10.0.0.7:36096in MyMiddleware.run()
LOG: Closed client: /10.0.0.7:36122in MyMiddleware.run()
LOG: Closed client: /10.0.0.7:36126in MyMiddleware.run()
LOG: Closed client: /10.0.0.7:36134in MyMiddleware.run()
LOG: Closed client: /10.0.0.7:36128in MyMiddleware.run()
LOG: Closed client: /10.0.0.7:36132in MyMiddleware.run()
LOG: Closed client: /10.0.0.7:36124in MyMiddleware.run()
LOG: Closed client: /10.0.0.7:36120in MyMiddleware.run()
LOG: Closed client: /10.0.0.7:36130in MyMiddleware.run()
