------------Middleware started!------------
LOG: Waiting for connection in MyMiddleware.run()
LOG: Accepted client: /10.0.0.11:38416in MyMiddleware.run()
LOG: Accepted client: /10.0.0.11:38420in MyMiddleware.run()
LOG: Accepted client: /10.0.0.11:38422in MyMiddleware.run()
LOG: Accepted client: /10.0.0.11:38418in MyMiddleware.run()
LOG: Accepted client: /10.0.0.7:39274in MyMiddleware.run()
LOG: Accepted client: /10.0.0.7:39270in MyMiddleware.run()
LOG: Accepted client: /10.0.0.7:39272in MyMiddleware.run()
LOG: Accepted client: /10.0.0.7:39276in MyMiddleware.run()
LOG: Accepted client: /10.0.0.6:49412in MyMiddleware.run()
LOG: Accepted client: /10.0.0.6:49414in MyMiddleware.run()
LOG: Accepted client: /10.0.0.6:49416in MyMiddleware.run()
LOG: Accepted client: /10.0.0.6:49418in MyMiddleware.run()
LOG: Closed client: /10.0.0.11:38416in MyMiddleware.run()
LOG: Closed client: /10.0.0.11:38418in MyMiddleware.run()
LOG: Closed client: /10.0.0.11:38422in MyMiddleware.run()
LOG: Closed client: /10.0.0.11:38420in MyMiddleware.run()
LOG: Closed client: /10.0.0.7:39276in MyMiddleware.run()
LOG: Closed client: /10.0.0.7:39270in MyMiddleware.run()
LOG: Closed client: /10.0.0.7:39272in MyMiddleware.run()
LOG: Closed client: /10.0.0.7:39274in MyMiddleware.run()
LOG: Closed client: /10.0.0.6:49412in MyMiddleware.run()
LOG: Closed client: /10.0.0.6:49416in MyMiddleware.run()
LOG: Closed client: /10.0.0.6:49418in MyMiddleware.run()
LOG: Closed client: /10.0.0.6:49414in MyMiddleware.run()
