------------Middleware started!------------
LOG: Waiting for connection in MyMiddleware.run()
LOG: Accepted client: /10.0.0.7:46396in MyMiddleware.run()
LOG: Accepted client: /10.0.0.7:46418in MyMiddleware.run()
LOG: Accepted client: /10.0.0.7:46414in MyMiddleware.run()
LOG: Accepted client: /10.0.0.7:46404in MyMiddleware.run()
LOG: Accepted client: /10.0.0.7:46378in MyMiddleware.run()
LOG: Accepted client: /10.0.0.7:46416in MyMiddleware.run()
LOG: Accepted client: /10.0.0.7:46420in MyMiddleware.run()
LOG: Accepted client: /10.0.0.7:46384in MyMiddleware.run()
LOG: Accepted client: /10.0.0.7:46408in MyMiddleware.run()
LOG: Accepted client: /10.0.0.7:46410in MyMiddleware.run()
LOG: Accepted client: /10.0.0.7:46392in MyMiddleware.run()
LOG: Accepted client: /10.0.0.7:46412in MyMiddleware.run()
LOG: Accepted client: /10.0.0.6:56500in MyMiddleware.run()
LOG: Accepted client: /10.0.0.6:56518in MyMiddleware.run()
LOG: Accepted client: /10.0.0.6:56504in MyMiddleware.run()
LOG: Accepted client: /10.0.0.6:56506in MyMiddleware.run()
LOG: Accepted client: /10.0.0.6:56526in MyMiddleware.run()
LOG: Accepted client: /10.0.0.6:56524in MyMiddleware.run()
LOG: Accepted client: /10.0.0.11:45498in MyMiddleware.run()
LOG: Accepted client: /10.0.0.11:45484in MyMiddleware.run()
LOG: Accepted client: /10.0.0.11:45496in MyMiddleware.run()
LOG: Accepted client: /10.0.0.11:45508in MyMiddleware.run()
LOG: Accepted client: /10.0.0.6:56512in MyMiddleware.run()
LOG: Accepted client: /10.0.0.11:45490in MyMiddleware.run()
LOG: Accepted client: /10.0.0.11:45494in MyMiddleware.run()
LOG: Accepted client: /10.0.0.11:45482in MyMiddleware.run()
LOG: Accepted client: /10.0.0.6:56530in MyMiddleware.run()
LOG: Accepted client: /10.0.0.11:45506in MyMiddleware.run()
LOG: Accepted client: /10.0.0.11:45502in MyMiddleware.run()
LOG: Accepted client: /10.0.0.11:45492in MyMiddleware.run()
LOG: Accepted client: /10.0.0.11:45504in MyMiddleware.run()
LOG: Accepted client: /10.0.0.6:56528in MyMiddleware.run()
LOG: Accepted client: /10.0.0.11:45500in MyMiddleware.run()
LOG: Accepted client: /10.0.0.11:45488in MyMiddleware.run()
LOG: Accepted client: /10.0.0.7:46402in MyMiddleware.run()
LOG: Accepted client: /10.0.0.7:46400in MyMiddleware.run()
LOG: Accepted client: /10.0.0.7:46406in MyMiddleware.run()
LOG: Accepted client: /10.0.0.7:46388in MyMiddleware.run()
LOG: Accepted client: /10.0.0.11:45480in MyMiddleware.run()
LOG: Accepted client: /10.0.0.6:56502in MyMiddleware.run()
LOG: Accepted client: /10.0.0.6:56516in MyMiddleware.run()
LOG: Accepted client: /10.0.0.11:45486in MyMiddleware.run()
LOG: Accepted client: /10.0.0.6:56514in MyMiddleware.run()
LOG: Accepted client: /10.0.0.11:45478in MyMiddleware.run()
LOG: Accepted client: /10.0.0.6:56522in MyMiddleware.run()
LOG: Accepted client: /10.0.0.6:56510in MyMiddleware.run()
LOG: Accepted client: /10.0.0.6:56520in MyMiddleware.run()
LOG: Accepted client: /10.0.0.6:56508in MyMiddleware.run()
LOG: Closed client: /10.0.0.6:56502in MyMiddleware.run()
LOG: Closed client: /10.0.0.6:56530in MyMiddleware.run()
LOG: Closed client: /10.0.0.6:56514in MyMiddleware.run()
LOG: Closed client: /10.0.0.6:56512in MyMiddleware.run()
LOG: Closed client: /10.0.0.6:56528in MyMiddleware.run()
LOG: Closed client: /10.0.0.6:56516in MyMiddleware.run()
LOG: Closed client: /10.0.0.6:56500in MyMiddleware.run()
LOG: Closed client: /10.0.0.6:56526in MyMiddleware.run()
LOG: Closed client: /10.0.0.6:56524in MyMiddleware.run()
LOG: Closed client: /10.0.0.6:56506in MyMiddleware.run()
LOG: Closed client: /10.0.0.6:56520in MyMiddleware.run()
LOG: Closed client: /10.0.0.6:56508in MyMiddleware.run()
LOG: Closed client: /10.0.0.6:56518in MyMiddleware.run()
LOG: Closed client: /10.0.0.6:56510in MyMiddleware.run()
LOG: Closed client: /10.0.0.6:56522in MyMiddleware.run()
LOG: Closed client: /10.0.0.6:56504in MyMiddleware.run()
LOG: Closed client: /10.0.0.7:46402in MyMiddleware.run()
LOG: Closed client: /10.0.0.7:46388in MyMiddleware.run()
LOG: Closed client: /10.0.0.7:46400in MyMiddleware.run()
LOG: Closed client: /10.0.0.7:46378in MyMiddleware.run()
LOG: Closed client: /10.0.0.7:46396in MyMiddleware.run()
LOG: Closed client: /10.0.0.7:46404in MyMiddleware.run()
LOG: Closed client: /10.0.0.7:46416in MyMiddleware.run()
LOG: Closed client: /10.0.0.7:46420in MyMiddleware.run()
LOG: Closed client: /10.0.0.7:46408in MyMiddleware.run()
LOG: Closed client: /10.0.0.7:46406in MyMiddleware.run()
LOG: Closed client: /10.0.0.7:46384in MyMiddleware.run()
LOG: Closed client: /10.0.0.7:46412in MyMiddleware.run()
LOG: Closed client: /10.0.0.7:46418in MyMiddleware.run()
LOG: Closed client: /10.0.0.7:46410in MyMiddleware.run()
LOG: Closed client: /10.0.0.7:46414in MyMiddleware.run()
LOG: Closed client: /10.0.0.7:46392in MyMiddleware.run()
LOG: Closed client: /10.0.0.11:45484in MyMiddleware.run()
LOG: Closed client: /10.0.0.11:45490in MyMiddleware.run()
LOG: Closed client: /10.0.0.11:45486in MyMiddleware.run()
LOG: Closed client: /10.0.0.11:45506in MyMiddleware.run()
LOG: Closed client: /10.0.0.11:45492in MyMiddleware.run()
LOG: Closed client: /10.0.0.11:45500in MyMiddleware.run()
LOG: Closed client: /10.0.0.11:45480in MyMiddleware.run()
LOG: Closed client: /10.0.0.11:45498in MyMiddleware.run()
LOG: Closed client: /10.0.0.11:45482in MyMiddleware.run()
LOG: Closed client: /10.0.0.11:45504in MyMiddleware.run()
LOG: Closed client: /10.0.0.11:45478in MyMiddleware.run()
LOG: Closed client: /10.0.0.11:45496in MyMiddleware.run()
LOG: Closed client: /10.0.0.11:45494in MyMiddleware.run()
LOG: Closed client: /10.0.0.11:45488in MyMiddleware.run()
LOG: Closed client: /10.0.0.11:45508in MyMiddleware.run()
LOG: Closed client: /10.0.0.11:45502in MyMiddleware.run()
