------------Middleware started!------------
LOG: Waiting for connection in MyMiddleware.run()
LOG: Accepted client: /10.0.0.7:33900in MyMiddleware.run()
LOG: Accepted client: /10.0.0.7:33904in MyMiddleware.run()
LOG: Accepted client: /10.0.0.7:33908in MyMiddleware.run()
LOG: Accepted client: /10.0.0.7:33936in MyMiddleware.run()
LOG: Accepted client: /10.0.0.7:33928in MyMiddleware.run()
LOG: Accepted client: /10.0.0.7:33932in MyMiddleware.run()
LOG: Accepted client: /10.0.0.7:33896in MyMiddleware.run()
LOG: Accepted client: /10.0.0.7:33888in MyMiddleware.run()
LOG: Accepted client: /10.0.0.7:33924in MyMiddleware.run()
LOG: Accepted client: /10.0.0.7:33892in MyMiddleware.run()
LOG: Accepted client: /10.0.0.7:33880in MyMiddleware.run()
LOG: Accepted client: /10.0.0.7:33884in MyMiddleware.run()
LOG: Accepted client: /10.0.0.7:33912in MyMiddleware.run()
LOG: Accepted client: /10.0.0.7:33920in MyMiddleware.run()
LOG: Accepted client: /10.0.0.7:33916in MyMiddleware.run()
LOG: Accepted client: /10.0.0.7:33970in MyMiddleware.run()
LOG: Accepted client: /10.0.0.7:33966in MyMiddleware.run()
LOG: Accepted client: /10.0.0.7:33984in MyMiddleware.run()
LOG: Accepted client: /10.0.0.7:33992in MyMiddleware.run()
LOG: Accepted client: /10.0.0.7:33974in MyMiddleware.run()
LOG: Accepted client: /10.0.0.7:33968in MyMiddleware.run()
LOG: Accepted client: /10.0.0.7:33978in MyMiddleware.run()
LOG: Accepted client: /10.0.0.7:33982in MyMiddleware.run()
LOG: Accepted client: /10.0.0.7:33988in MyMiddleware.run()
LOG: Accepted client: /10.0.0.7:33976in MyMiddleware.run()
LOG: Accepted client: /10.0.0.7:33986in MyMiddleware.run()
LOG: Accepted client: /10.0.0.7:33980in MyMiddleware.run()
LOG: Accepted client: /10.0.0.7:33990in MyMiddleware.run()
LOG: Accepted client: /10.0.0.7:33994in MyMiddleware.run()
LOG: Accepted client: /10.0.0.7:33996in MyMiddleware.run()
LOG: Accepted client: /10.0.0.7:33972in MyMiddleware.run()
LOG: Accepted client: /10.0.0.7:33998in MyMiddleware.run()
LOG: Accepted client: /10.0.0.6:44026in MyMiddleware.run()
LOG: Accepted client: /10.0.0.6:44044in MyMiddleware.run()
LOG: Accepted client: /10.0.0.6:44036in MyMiddleware.run()
LOG: Accepted client: /10.0.0.6:44046in MyMiddleware.run()
LOG: Accepted client: /10.0.0.6:44024in MyMiddleware.run()
LOG: Accepted client: /10.0.0.6:44040in MyMiddleware.run()
LOG: Accepted client: /10.0.0.6:44048in MyMiddleware.run()
LOG: Accepted client: /10.0.0.6:44050in MyMiddleware.run()
LOG: Accepted client: /10.0.0.6:44074in MyMiddleware.run()
LOG: Accepted client: /10.0.0.6:44076in MyMiddleware.run()
LOG: Accepted client: /10.0.0.6:44028in MyMiddleware.run()
LOG: Accepted client: /10.0.0.6:44078in MyMiddleware.run()
LOG: Accepted client: /10.0.0.6:44080in MyMiddleware.run()
LOG: Accepted client: /10.0.0.6:44030in MyMiddleware.run()
LOG: Accepted client: /10.0.0.6:44082in MyMiddleware.run()
LOG: Accepted client: /10.0.0.6:44072in MyMiddleware.run()
LOG: Accepted client: /10.0.0.6:44042in MyMiddleware.run()
LOG: Accepted client: /10.0.0.6:44066in MyMiddleware.run()
LOG: Accepted client: /10.0.0.6:44070in MyMiddleware.run()
LOG: Accepted client: /10.0.0.6:44068in MyMiddleware.run()
LOG: Accepted client: /10.0.0.6:44062in MyMiddleware.run()
LOG: Accepted client: /10.0.0.6:44060in MyMiddleware.run()
LOG: Accepted client: /10.0.0.6:44038in MyMiddleware.run()
LOG: Accepted client: /10.0.0.6:44032in MyMiddleware.run()
LOG: Accepted client: /10.0.0.6:44064in MyMiddleware.run()
LOG: Accepted client: /10.0.0.6:44034in MyMiddleware.run()
LOG: Accepted client: /10.0.0.11:33110in MyMiddleware.run()
LOG: Accepted client: /10.0.0.11:33090in MyMiddleware.run()
LOG: Accepted client: /10.0.0.6:44052in MyMiddleware.run()
LOG: Accepted client: /10.0.0.11:33122in MyMiddleware.run()
LOG: Accepted client: /10.0.0.11:33134in MyMiddleware.run()
LOG: Accepted client: /10.0.0.11:33080in MyMiddleware.run()
LOG: Accepted client: /10.0.0.11:33072in MyMiddleware.run()
LOG: Accepted client: /10.0.0.6:44054in MyMiddleware.run()
LOG: Accepted client: /10.0.0.11:33114in MyMiddleware.run()
LOG: Accepted client: /10.0.0.6:44056in MyMiddleware.run()
LOG: Accepted client: /10.0.0.11:33120in MyMiddleware.run()
LOG: Accepted client: /10.0.0.11:33100in MyMiddleware.run()
LOG: Accepted client: /10.0.0.11:33102in MyMiddleware.run()
LOG: Accepted client: /10.0.0.11:33094in MyMiddleware.run()
LOG: Accepted client: /10.0.0.11:33118in MyMiddleware.run()
LOG: Accepted client: /10.0.0.11:33082in MyMiddleware.run()
LOG: Accepted client: /10.0.0.11:33116in MyMiddleware.run()
LOG: Accepted client: /10.0.0.11:33128in MyMiddleware.run()
LOG: Accepted client: /10.0.0.11:33104in MyMiddleware.run()
LOG: Accepted client: /10.0.0.11:33108in MyMiddleware.run()
LOG: Accepted client: /10.0.0.11:33078in MyMiddleware.run()
LOG: Accepted client: /10.0.0.11:33106in MyMiddleware.run()
LOG: Accepted client: /10.0.0.11:33092in MyMiddleware.run()
LOG: Accepted client: /10.0.0.11:33124in MyMiddleware.run()
LOG: Accepted client: /10.0.0.11:33096in MyMiddleware.run()
LOG: Accepted client: /10.0.0.11:33084in MyMiddleware.run()
LOG: Accepted client: /10.0.0.11:33086in MyMiddleware.run()
LOG: Accepted client: /10.0.0.11:33126in MyMiddleware.run()
LOG: Accepted client: /10.0.0.11:33098in MyMiddleware.run()
LOG: Accepted client: /10.0.0.11:33112in MyMiddleware.run()
LOG: Accepted client: /10.0.0.6:44084in MyMiddleware.run()
LOG: Accepted client: /10.0.0.6:44086in MyMiddleware.run()
LOG: Accepted client: /10.0.0.6:44058in MyMiddleware.run()
LOG: Accepted client: /10.0.0.11:33076in MyMiddleware.run()
LOG: Accepted client: /10.0.0.11:33088in MyMiddleware.run()
LOG: Accepted client: /10.0.0.11:33074in MyMiddleware.run()
LOG: Accepted client: /10.0.0.11:33132in MyMiddleware.run()
LOG: Accepted client: /10.0.0.11:33130in MyMiddleware.run()
LOG: Closed client: /10.0.0.6:44046in MyMiddleware.run()
LOG: Closed client: /10.0.0.6:44044in MyMiddleware.run()
LOG: Closed client: /10.0.0.6:44036in MyMiddleware.run()
LOG: Closed client: /10.0.0.6:44066in MyMiddleware.run()
LOG: Closed client: /10.0.0.6:44024in MyMiddleware.run()
LOG: Closed client: /10.0.0.6:44074in MyMiddleware.run()
LOG: Closed client: /10.0.0.6:44076in MyMiddleware.run()
LOG: Closed client: /10.0.0.6:44026in MyMiddleware.run()
LOG: Closed client: /10.0.0.6:44070in MyMiddleware.run()
LOG: Closed client: /10.0.0.6:44042in MyMiddleware.run()
LOG: Closed client: /10.0.0.6:44050in MyMiddleware.run()
LOG: Closed client: /10.0.0.6:44062in MyMiddleware.run()
LOG: Closed client: /10.0.0.6:44060in MyMiddleware.run()
LOG: Closed client: /10.0.0.6:44028in MyMiddleware.run()
LOG: Closed client: /10.0.0.6:44078in MyMiddleware.run()
LOG: Closed client: /10.0.0.6:44072in MyMiddleware.run()
LOG: Closed client: /10.0.0.6:44030in MyMiddleware.run()
LOG: Closed client: /10.0.0.6:44048in MyMiddleware.run()
LOG: Closed client: /10.0.0.6:44040in MyMiddleware.run()
LOG: Closed client: /10.0.0.6:44056in MyMiddleware.run()
LOG: Closed client: /10.0.0.6:44084in MyMiddleware.run()
LOG: Closed client: /10.0.0.6:44068in MyMiddleware.run()
LOG: Closed client: /10.0.0.6:44054in MyMiddleware.run()
LOG: Closed client: /10.0.0.6:44038in MyMiddleware.run()
LOG: Closed client: /10.0.0.6:44086in MyMiddleware.run()
LOG: Closed client: /10.0.0.6:44032in MyMiddleware.run()
LOG: Closed client: /10.0.0.6:44080in MyMiddleware.run()
LOG: Closed client: /10.0.0.6:44064in MyMiddleware.run()
LOG: Closed client: /10.0.0.6:44052in MyMiddleware.run()
LOG: Closed client: /10.0.0.6:44058in MyMiddleware.run()
LOG: Closed client: /10.0.0.6:44034in MyMiddleware.run()
LOG: Closed client: /10.0.0.6:44082in MyMiddleware.run()
LOG: Closed client: /10.0.0.7:33924in MyMiddleware.run()
LOG: Closed client: /10.0.0.7:33974in MyMiddleware.run()
LOG: Closed client: /10.0.0.7:33932in MyMiddleware.run()
LOG: Closed client: /10.0.0.7:33908in MyMiddleware.run()
LOG: Closed client: /10.0.0.7:33992in MyMiddleware.run()
LOG: Closed client: /10.0.0.7:33912in MyMiddleware.run()
LOG: Closed client: /10.0.0.7:33982in MyMiddleware.run()
LOG: Closed client: /10.0.0.7:33998in MyMiddleware.run()
LOG: Closed client: /10.0.0.7:33972in MyMiddleware.run()
LOG: Closed client: /10.0.0.7:33986in MyMiddleware.run()
LOG: Closed client: /10.0.0.7:33984in MyMiddleware.run()
LOG: Closed client: /10.0.0.7:33936in MyMiddleware.run()
LOG: Closed client: /10.0.0.7:33978in MyMiddleware.run()
LOG: Closed client: /10.0.0.7:33904in MyMiddleware.run()
LOG: Closed client: /10.0.0.7:33996in MyMiddleware.run()
LOG: Closed client: /10.0.0.7:33896in MyMiddleware.run()
LOG: Closed client: /10.0.0.7:33916in MyMiddleware.run()
LOG: Closed client: /10.0.0.7:33970in MyMiddleware.run()
LOG: Closed client: /10.0.0.7:33884in MyMiddleware.run()
LOG: Closed client: /10.0.0.7:33888in MyMiddleware.run()
LOG: Closed client: /10.0.0.7:33990in MyMiddleware.run()
LOG: Closed client: /10.0.0.7:33900in MyMiddleware.run()
LOG: Closed client: /10.0.0.7:33980in MyMiddleware.run()
LOG: Closed client: /10.0.0.7:33920in MyMiddleware.run()
LOG: Closed client: /10.0.0.7:33988in MyMiddleware.run()
LOG: Closed client: /10.0.0.7:33966in MyMiddleware.run()
LOG: Closed client: /10.0.0.7:33880in MyMiddleware.run()
LOG: Closed client: /10.0.0.7:33892in MyMiddleware.run()
LOG: Closed client: /10.0.0.7:33968in MyMiddleware.run()
LOG: Closed client: /10.0.0.7:33928in MyMiddleware.run()
LOG: Closed client: /10.0.0.7:33976in MyMiddleware.run()
LOG: Closed client: /10.0.0.7:33994in MyMiddleware.run()
LOG: Closed client: /10.0.0.11:33074in MyMiddleware.run()
LOG: Closed client: /10.0.0.11:33072in MyMiddleware.run()
LOG: Closed client: /10.0.0.11:33082in MyMiddleware.run()
LOG: Closed client: /10.0.0.11:33080in MyMiddleware.run()
LOG: Closed client: /10.0.0.11:33096in MyMiddleware.run()
LOG: Closed client: /10.0.0.11:33106in MyMiddleware.run()
LOG: Closed client: /10.0.0.11:33100in MyMiddleware.run()
LOG: Closed client: /10.0.0.11:33092in MyMiddleware.run()
LOG: Closed client: /10.0.0.11:33088in MyMiddleware.run()
LOG: Closed client: /10.0.0.11:33078in MyMiddleware.run()
LOG: Closed client: /10.0.0.11:33098in MyMiddleware.run()
LOG: Closed client: /10.0.0.11:33084in MyMiddleware.run()
LOG: Closed client: /10.0.0.11:33090in MyMiddleware.run()
LOG: Closed client: /10.0.0.11:33094in MyMiddleware.run()
LOG: Closed client: /10.0.0.11:33086in MyMiddleware.run()
LOG: Closed client: /10.0.0.11:33076in MyMiddleware.run()
LOG: Closed client: /10.0.0.11:33128in MyMiddleware.run()
LOG: Closed client: /10.0.0.11:33114in MyMiddleware.run()
LOG: Closed client: /10.0.0.11:33112in MyMiddleware.run()
LOG: Closed client: /10.0.0.11:33124in MyMiddleware.run()
LOG: Closed client: /10.0.0.11:33108in MyMiddleware.run()
LOG: Closed client: /10.0.0.11:33102in MyMiddleware.run()
LOG: Closed client: /10.0.0.11:33126in MyMiddleware.run()
LOG: Closed client: /10.0.0.11:33120in MyMiddleware.run()
LOG: Closed client: /10.0.0.11:33116in MyMiddleware.run()
LOG: Closed client: /10.0.0.11:33122in MyMiddleware.run()
LOG: Closed client: /10.0.0.11:33118in MyMiddleware.run()
LOG: Closed client: /10.0.0.11:33110in MyMiddleware.run()
LOG: Closed client: /10.0.0.11:33104in MyMiddleware.run()
LOG: Closed client: /10.0.0.11:33130in MyMiddleware.run()
LOG: Closed client: /10.0.0.11:33134in MyMiddleware.run()
LOG: Closed client: /10.0.0.11:33132in MyMiddleware.run()
