------------Middleware started!------------
LOG: Waiting for connection in MyMiddleware.run()
LOG: Accepted client: /10.0.0.11:60052in MyMiddleware.run()
LOG: Accepted client: /10.0.0.11:60050in MyMiddleware.run()
LOG: Accepted client: /10.0.0.11:60054in MyMiddleware.run()
LOG: Accepted client: /10.0.0.11:60058in MyMiddleware.run()
LOG: Accepted client: /10.0.0.11:60064in MyMiddleware.run()
LOG: Accepted client: /10.0.0.11:60066in MyMiddleware.run()
LOG: Accepted client: /10.0.0.11:60056in MyMiddleware.run()
LOG: Accepted client: /10.0.0.11:60078in MyMiddleware.run()
LOG: Accepted client: /10.0.0.11:60076in MyMiddleware.run()
LOG: Accepted client: /10.0.0.11:60070in MyMiddleware.run()
LOG: Accepted client: /10.0.0.11:60072in MyMiddleware.run()
LOG: Accepted client: /10.0.0.11:60080in MyMiddleware.run()
LOG: Accepted client: /10.0.0.11:60074in MyMiddleware.run()
LOG: Accepted client: /10.0.0.11:60068in MyMiddleware.run()
LOG: Accepted client: /10.0.0.11:60060in MyMiddleware.run()
LOG: Accepted client: /10.0.0.11:60062in MyMiddleware.run()
LOG: Accepted client: /10.0.0.7:60964in MyMiddleware.run()
LOG: Accepted client: /10.0.0.7:60954in MyMiddleware.run()
LOG: Accepted client: /10.0.0.7:60952in MyMiddleware.run()
LOG: Accepted client: /10.0.0.7:60966in MyMiddleware.run()
LOG: Accepted client: /10.0.0.7:60958in MyMiddleware.run()
LOG: Accepted client: /10.0.0.7:60956in MyMiddleware.run()
LOG: Accepted client: /10.0.0.7:60946in MyMiddleware.run()
LOG: Accepted client: /10.0.0.7:60972in MyMiddleware.run()
LOG: Accepted client: /10.0.0.7:60976in MyMiddleware.run()
LOG: Accepted client: /10.0.0.7:60974in MyMiddleware.run()
LOG: Accepted client: /10.0.0.7:60962in MyMiddleware.run()
LOG: Accepted client: /10.0.0.7:60960in MyMiddleware.run()
LOG: Accepted client: /10.0.0.7:60970in MyMiddleware.run()
LOG: Accepted client: /10.0.0.7:60968in MyMiddleware.run()
LOG: Accepted client: /10.0.0.7:60950in MyMiddleware.run()
LOG: Accepted client: /10.0.0.7:60948in MyMiddleware.run()
LOG: Accepted client: /10.0.0.6:42850in MyMiddleware.run()
LOG: Accepted client: /10.0.0.6:42852in MyMiddleware.run()
LOG: Accepted client: /10.0.0.6:42848in MyMiddleware.run()
LOG: Accepted client: /10.0.0.6:42868in MyMiddleware.run()
LOG: Accepted client: /10.0.0.6:42858in MyMiddleware.run()
LOG: Accepted client: /10.0.0.6:42860in MyMiddleware.run()
LOG: Accepted client: /10.0.0.6:42864in MyMiddleware.run()
LOG: Accepted client: /10.0.0.6:42876in MyMiddleware.run()
LOG: Accepted client: /10.0.0.6:42878in MyMiddleware.run()
LOG: Accepted client: /10.0.0.6:42866in MyMiddleware.run()
LOG: Accepted client: /10.0.0.6:42870in MyMiddleware.run()
LOG: Accepted client: /10.0.0.6:42854in MyMiddleware.run()
LOG: Accepted client: /10.0.0.6:42872in MyMiddleware.run()
LOG: Accepted client: /10.0.0.6:42862in MyMiddleware.run()
LOG: Accepted client: /10.0.0.6:42856in MyMiddleware.run()
LOG: Accepted client: /10.0.0.6:42874in MyMiddleware.run()
LOG: Closed client: /10.0.0.7:60952in MyMiddleware.run()
LOG: Closed client: /10.0.0.7:60950in MyMiddleware.run()
LOG: Closed client: /10.0.0.7:60946in MyMiddleware.run()
LOG: Closed client: /10.0.0.7:60964in MyMiddleware.run()
LOG: Closed client: /10.0.0.7:60954in MyMiddleware.run()
LOG: Closed client: /10.0.0.7:60960in MyMiddleware.run()
LOG: Closed client: /10.0.0.7:60968in MyMiddleware.run()
LOG: Closed client: /10.0.0.7:60974in MyMiddleware.run()
LOG: Closed client: /10.0.0.7:60966in MyMiddleware.run()
LOG: Closed client: /10.0.0.7:60972in MyMiddleware.run()
LOG: Closed client: /10.0.0.7:60962in MyMiddleware.run()
LOG: Closed client: /10.0.0.7:60958in MyMiddleware.run()
LOG: Closed client: /10.0.0.7:60976in MyMiddleware.run()
LOG: Closed client: /10.0.0.7:60956in MyMiddleware.run()
LOG: Closed client: /10.0.0.7:60970in MyMiddleware.run()
LOG: Closed client: /10.0.0.7:60948in MyMiddleware.run()
LOG: Closed client: /10.0.0.11:60058in MyMiddleware.run()
LOG: Closed client: /10.0.0.11:60062in MyMiddleware.run()
LOG: Closed client: /10.0.0.11:60056in MyMiddleware.run()
LOG: Closed client: /10.0.0.11:60054in MyMiddleware.run()
LOG: Closed client: /10.0.0.11:60052in MyMiddleware.run()
LOG: Closed client: /10.0.0.11:60066in MyMiddleware.run()
LOG: Closed client: /10.0.0.11:60068in MyMiddleware.run()
LOG: Closed client: /10.0.0.11:60076in MyMiddleware.run()
LOG: Closed client: /10.0.0.11:60078in MyMiddleware.run()
LOG: Closed client: /10.0.0.11:60080in MyMiddleware.run()
LOG: Closed client: /10.0.0.11:60050in MyMiddleware.run()
LOG: Closed client: /10.0.0.11:60064in MyMiddleware.run()
LOG: Closed client: /10.0.0.11:60070in MyMiddleware.run()
LOG: Closed client: /10.0.0.11:60072in MyMiddleware.run()
LOG: Closed client: /10.0.0.11:60060in MyMiddleware.run()
LOG: Closed client: /10.0.0.11:60074in MyMiddleware.run()
LOG: Closed client: /10.0.0.6:42848in MyMiddleware.run()
LOG: Closed client: /10.0.0.6:42860in MyMiddleware.run()
LOG: Closed client: /10.0.0.6:42850in MyMiddleware.run()
LOG: Closed client: /10.0.0.6:42876in MyMiddleware.run()
LOG: Closed client: /10.0.0.6:42864in MyMiddleware.run()
LOG: Closed client: /10.0.0.6:42856in MyMiddleware.run()
LOG: Closed client: /10.0.0.6:42874in MyMiddleware.run()
LOG: Closed client: /10.0.0.6:42854in MyMiddleware.run()
LOG: Closed client: /10.0.0.6:42858in MyMiddleware.run()
LOG: Closed client: /10.0.0.6:42868in MyMiddleware.run()
LOG: Closed client: /10.0.0.6:42862in MyMiddleware.run()
LOG: Closed client: /10.0.0.6:42852in MyMiddleware.run()
LOG: Closed client: /10.0.0.6:42872in MyMiddleware.run()
LOG: Closed client: /10.0.0.6:42870in MyMiddleware.run()
LOG: Closed client: /10.0.0.6:42866in MyMiddleware.run()
LOG: Closed client: /10.0.0.6:42878in MyMiddleware.run()
