------------Middleware started!------------
LOG: Waiting for connection in MyMiddleware.run()
LOG: Accepted client: /10.0.0.7:55822in MyMiddleware.run()
LOG: Accepted client: /10.0.0.7:55826in MyMiddleware.run()
LOG: Accepted client: /10.0.0.7:55818in MyMiddleware.run()
LOG: Accepted client: /10.0.0.7:55816in MyMiddleware.run()
LOG: Accepted client: /10.0.0.7:55814in MyMiddleware.run()
LOG: Accepted client: /10.0.0.7:55812in MyMiddleware.run()
LOG: Accepted client: /10.0.0.7:55820in MyMiddleware.run()
LOG: Accepted client: /10.0.0.7:55824in MyMiddleware.run()
LOG: Accepted client: /10.0.0.11:54996in MyMiddleware.run()
LOG: Accepted client: /10.0.0.11:54994in MyMiddleware.run()
LOG: Accepted client: /10.0.0.11:54998in MyMiddleware.run()
LOG: Accepted client: /10.0.0.11:54988in MyMiddleware.run()
LOG: Accepted client: /10.0.0.11:54992in MyMiddleware.run()
LOG: Accepted client: /10.0.0.11:54990in MyMiddleware.run()
LOG: Accepted client: /10.0.0.11:55000in MyMiddleware.run()
LOG: Accepted client: /10.0.0.11:54986in MyMiddleware.run()
LOG: Accepted client: /10.0.0.6:37694in MyMiddleware.run()
LOG: Accepted client: /10.0.0.6:37696in MyMiddleware.run()
LOG: Accepted client: /10.0.0.6:37698in MyMiddleware.run()
LOG: Accepted client: /10.0.0.6:37700in MyMiddleware.run()
LOG: Accepted client: /10.0.0.6:37706in MyMiddleware.run()
LOG: Accepted client: /10.0.0.6:37714in MyMiddleware.run()
LOG: Accepted client: /10.0.0.6:37704in MyMiddleware.run()
LOG: Accepted client: /10.0.0.6:37710in MyMiddleware.run()
LOG: Closed client: /10.0.0.7:55816in MyMiddleware.run()
LOG: Closed client: /10.0.0.7:55814in MyMiddleware.run()
LOG: Closed client: /10.0.0.7:55824in MyMiddleware.run()
LOG: Closed client: /10.0.0.7:55820in MyMiddleware.run()
LOG: Closed client: /10.0.0.7:55822in MyMiddleware.run()
LOG: Closed client: /10.0.0.7:55818in MyMiddleware.run()
LOG: Closed client: /10.0.0.7:55826in MyMiddleware.run()
LOG: Closed client: /10.0.0.7:55812in MyMiddleware.run()
LOG: Closed client: /10.0.0.11:54996in MyMiddleware.run()
LOG: Closed client: /10.0.0.11:54990in MyMiddleware.run()
LOG: Closed client: /10.0.0.11:54988in MyMiddleware.run()
LOG: Closed client: /10.0.0.11:54994in MyMiddleware.run()
LOG: Closed client: /10.0.0.11:54998in MyMiddleware.run()
LOG: Closed client: /10.0.0.11:54992in MyMiddleware.run()
LOG: Closed client: /10.0.0.11:54986in MyMiddleware.run()
LOG: Closed client: /10.0.0.11:55000in MyMiddleware.run()
LOG: Closed client: /10.0.0.6:37696in MyMiddleware.run()
LOG: Closed client: /10.0.0.6:37714in MyMiddleware.run()
LOG: Closed client: /10.0.0.6:37710in MyMiddleware.run()
LOG: Closed client: /10.0.0.6:37698in MyMiddleware.run()
LOG: Closed client: /10.0.0.6:37706in MyMiddleware.run()
LOG: Closed client: /10.0.0.6:37704in MyMiddleware.run()
LOG: Closed client: /10.0.0.6:37700in MyMiddleware.run()
LOG: Closed client: /10.0.0.6:37694in MyMiddleware.run()
