------------Middleware started!------------
LOG: Waiting for connection in MyMiddleware.run()
LOG: Accepted client: /10.0.0.7:42708in MyMiddleware.run()
LOG: Accepted client: /10.0.0.7:42718in MyMiddleware.run()
LOG: Accepted client: /10.0.0.7:42704in MyMiddleware.run()
LOG: Accepted client: /10.0.0.7:42712in MyMiddleware.run()
LOG: Accepted client: /10.0.0.7:42714in MyMiddleware.run()
LOG: Accepted client: /10.0.0.7:42706in MyMiddleware.run()
LOG: Accepted client: /10.0.0.7:42710in MyMiddleware.run()
LOG: Accepted client: /10.0.0.7:42716in MyMiddleware.run()
LOG: Accepted client: /10.0.0.11:41808in MyMiddleware.run()
LOG: Accepted client: /10.0.0.11:41820in MyMiddleware.run()
LOG: Accepted client: /10.0.0.11:41814in MyMiddleware.run()
LOG: Accepted client: /10.0.0.11:41810in MyMiddleware.run()
LOG: Accepted client: /10.0.0.11:41822in MyMiddleware.run()
LOG: Accepted client: /10.0.0.11:41812in MyMiddleware.run()
LOG: Accepted client: /10.0.0.11:41818in MyMiddleware.run()
LOG: Accepted client: /10.0.0.11:41816in MyMiddleware.run()
LOG: Accepted client: /10.0.0.6:52852in MyMiddleware.run()
LOG: Accepted client: /10.0.0.6:52846in MyMiddleware.run()
LOG: Accepted client: /10.0.0.6:52850in MyMiddleware.run()
LOG: Accepted client: /10.0.0.6:52856in MyMiddleware.run()
LOG: Accepted client: /10.0.0.6:52848in MyMiddleware.run()
LOG: Accepted client: /10.0.0.6:52858in MyMiddleware.run()
LOG: Accepted client: /10.0.0.6:52860in MyMiddleware.run()
LOG: Accepted client: /10.0.0.6:52854in MyMiddleware.run()
LOG: Closed client: /10.0.0.11:41810in MyMiddleware.run()
LOG: Closed client: /10.0.0.11:41816in MyMiddleware.run()
LOG: Closed client: /10.0.0.11:41820in MyMiddleware.run()
LOG: Closed client: /10.0.0.11:41818in MyMiddleware.run()
LOG: Closed client: /10.0.0.11:41814in MyMiddleware.run()
LOG: Closed client: /10.0.0.11:41812in MyMiddleware.run()
LOG: Closed client: /10.0.0.11:41822in MyMiddleware.run()
LOG: Closed client: /10.0.0.11:41808in MyMiddleware.run()
LOG: Closed client: /10.0.0.7:42708in MyMiddleware.run()
LOG: Closed client: /10.0.0.7:42716in MyMiddleware.run()
LOG: Closed client: /10.0.0.7:42706in MyMiddleware.run()
LOG: Closed client: /10.0.0.7:42718in MyMiddleware.run()
LOG: Closed client: /10.0.0.7:42704in MyMiddleware.run()
LOG: Closed client: /10.0.0.7:42710in MyMiddleware.run()
LOG: Closed client: /10.0.0.7:42712in MyMiddleware.run()
LOG: Closed client: /10.0.0.7:42714in MyMiddleware.run()
LOG: Closed client: /10.0.0.6:52848in MyMiddleware.run()
LOG: Closed client: /10.0.0.6:52846in MyMiddleware.run()
LOG: Closed client: /10.0.0.6:52850in MyMiddleware.run()
LOG: Closed client: /10.0.0.6:52852in MyMiddleware.run()
LOG: Closed client: /10.0.0.6:52858in MyMiddleware.run()
LOG: Closed client: /10.0.0.6:52860in MyMiddleware.run()
LOG: Closed client: /10.0.0.6:52856in MyMiddleware.run()
LOG: Closed client: /10.0.0.6:52854in MyMiddleware.run()
