------------Middleware started!------------
LOG: Waiting for connection in MyMiddleware.run()
LOG: Accepted client: /10.0.0.11:39452in MyMiddleware.run()
LOG: Accepted client: /10.0.0.11:39454in MyMiddleware.run()
LOG: Accepted client: /10.0.0.11:39450in MyMiddleware.run()
LOG: Accepted client: /10.0.0.11:39448in MyMiddleware.run()
LOG: Accepted client: /10.0.0.6:50502in MyMiddleware.run()
LOG: Accepted client: /10.0.0.6:50506in MyMiddleware.run()
LOG: Accepted client: /10.0.0.6:50504in MyMiddleware.run()
LOG: Accepted client: /10.0.0.6:50500in MyMiddleware.run()
LOG: Accepted client: /10.0.0.7:40358in MyMiddleware.run()
LOG: Accepted client: /10.0.0.7:40354in MyMiddleware.run()
LOG: Accepted client: /10.0.0.7:40352in MyMiddleware.run()
LOG: Accepted client: /10.0.0.7:40356in MyMiddleware.run()
LOG: Closed client: /10.0.0.11:39452in MyMiddleware.run()
LOG: Closed client: /10.0.0.11:39448in MyMiddleware.run()
LOG: Closed client: /10.0.0.11:39454in MyMiddleware.run()
LOG: Closed client: /10.0.0.11:39450in MyMiddleware.run()
LOG: Closed client: /10.0.0.7:40354in MyMiddleware.run()
LOG: Closed client: /10.0.0.7:40356in MyMiddleware.run()
LOG: Closed client: /10.0.0.7:40352in MyMiddleware.run()
LOG: Closed client: /10.0.0.6:50500in MyMiddleware.run()
LOG: Closed client: /10.0.0.6:50506in MyMiddleware.run()
LOG: Closed client: /10.0.0.6:50504in MyMiddleware.run()
LOG: Closed client: /10.0.0.6:50502in MyMiddleware.run()
LOG: Closed client: /10.0.0.7:40358in MyMiddleware.run()
