------------Middleware started!------------
LOG: Waiting for connection in MyMiddleware.run()
LOG: Accepted client: /10.0.0.11:43692in MyMiddleware.run()
LOG: Accepted client: /10.0.0.11:43700in MyMiddleware.run()
LOG: Accepted client: /10.0.0.11:43684in MyMiddleware.run()
LOG: Accepted client: /10.0.0.11:43704in MyMiddleware.run()
LOG: Accepted client: /10.0.0.11:43690in MyMiddleware.run()
LOG: Accepted client: /10.0.0.11:43682in MyMiddleware.run()
LOG: Accepted client: /10.0.0.11:43702in MyMiddleware.run()
LOG: Accepted client: /10.0.0.11:43688in MyMiddleware.run()
LOG: Accepted client: /10.0.0.11:43686in MyMiddleware.run()
LOG: Accepted client: /10.0.0.11:43706in MyMiddleware.run()
LOG: Accepted client: /10.0.0.11:43694in MyMiddleware.run()
LOG: Accepted client: /10.0.0.11:43696in MyMiddleware.run()
LOG: Accepted client: /10.0.0.11:43678in MyMiddleware.run()
LOG: Accepted client: /10.0.0.11:43698in MyMiddleware.run()
LOG: Accepted client: /10.0.0.11:43680in MyMiddleware.run()
LOG: Accepted client: /10.0.0.11:43708in MyMiddleware.run()
LOG: Accepted client: /10.0.0.7:44560in MyMiddleware.run()
LOG: Accepted client: /10.0.0.7:44566in MyMiddleware.run()
LOG: Accepted client: /10.0.0.7:44586in MyMiddleware.run()
LOG: Accepted client: /10.0.0.7:44570in MyMiddleware.run()
LOG: Accepted client: /10.0.0.7:44580in MyMiddleware.run()
LOG: Accepted client: /10.0.0.7:44576in MyMiddleware.run()
LOG: Accepted client: /10.0.0.7:44578in MyMiddleware.run()
LOG: Accepted client: /10.0.0.7:44572in MyMiddleware.run()
LOG: Accepted client: /10.0.0.7:44564in MyMiddleware.run()
LOG: Accepted client: /10.0.0.7:44584in MyMiddleware.run()
LOG: Accepted client: /10.0.0.7:44588in MyMiddleware.run()
LOG: Accepted client: /10.0.0.7:44582in MyMiddleware.run()
LOG: Accepted client: /10.0.0.7:44558in MyMiddleware.run()
LOG: Accepted client: /10.0.0.7:44562in MyMiddleware.run()
LOG: Accepted client: /10.0.0.7:44574in MyMiddleware.run()
LOG: Accepted client: /10.0.0.6:54694in MyMiddleware.run()
LOG: Accepted client: /10.0.0.6:54714in MyMiddleware.run()
LOG: Accepted client: /10.0.0.6:54710in MyMiddleware.run()
LOG: Accepted client: /10.0.0.6:54702in MyMiddleware.run()
LOG: Accepted client: /10.0.0.6:54698in MyMiddleware.run()
LOG: Accepted client: /10.0.0.6:54700in MyMiddleware.run()
LOG: Accepted client: /10.0.0.6:54712in MyMiddleware.run()
LOG: Accepted client: /10.0.0.6:54692in MyMiddleware.run()
LOG: Accepted client: /10.0.0.6:54722in MyMiddleware.run()
LOG: Accepted client: /10.0.0.6:54696in MyMiddleware.run()
LOG: Accepted client: /10.0.0.6:54704in MyMiddleware.run()
LOG: Accepted client: /10.0.0.6:54706in MyMiddleware.run()
LOG: Accepted client: /10.0.0.6:54708in MyMiddleware.run()
LOG: Accepted client: /10.0.0.6:54720in MyMiddleware.run()
LOG: Accepted client: /10.0.0.7:44568in MyMiddleware.run()
LOG: Accepted client: /10.0.0.6:54716in MyMiddleware.run()
LOG: Accepted client: /10.0.0.6:54718in MyMiddleware.run()
LOG: Closed client: /10.0.0.7:44570in MyMiddleware.run()
LOG: Closed client: /10.0.0.7:44572in MyMiddleware.run()
LOG: Closed client: /10.0.0.7:44560in MyMiddleware.run()
LOG: Closed client: /10.0.0.7:44564in MyMiddleware.run()
LOG: Closed client: /10.0.0.7:44568in MyMiddleware.run()
LOG: Closed client: /10.0.0.7:44574in MyMiddleware.run()
LOG: Closed client: /10.0.0.7:44566in MyMiddleware.run()
LOG: Closed client: /10.0.0.7:44562in MyMiddleware.run()
LOG: Closed client: /10.0.0.7:44558in MyMiddleware.run()
LOG: Closed client: /10.0.0.7:44582in MyMiddleware.run()
LOG: Closed client: /10.0.0.7:44588in MyMiddleware.run()
LOG: Closed client: /10.0.0.7:44586in MyMiddleware.run()
LOG: Closed client: /10.0.0.7:44578in MyMiddleware.run()
LOG: Closed client: /10.0.0.7:44580in MyMiddleware.run()
LOG: Closed client: /10.0.0.7:44584in MyMiddleware.run()
LOG: Closed client: /10.0.0.7:44576in MyMiddleware.run()
LOG: Closed client: /10.0.0.11:43698in MyMiddleware.run()
LOG: Closed client: /10.0.0.11:43694in MyMiddleware.run()
LOG: Closed client: /10.0.0.11:43688in MyMiddleware.run()
LOG: Closed client: /10.0.0.11:43692in MyMiddleware.run()
LOG: Closed client: /10.0.0.11:43690in MyMiddleware.run()
LOG: Closed client: /10.0.0.11:43678in MyMiddleware.run()
LOG: Closed client: /10.0.0.11:43696in MyMiddleware.run()
LOG: Closed client: /10.0.0.11:43686in MyMiddleware.run()
LOG: Closed client: /10.0.0.11:43684in MyMiddleware.run()
LOG: Closed client: /10.0.0.11:43682in MyMiddleware.run()
LOG: Closed client: /10.0.0.11:43680in MyMiddleware.run()
LOG: Closed client: /10.0.0.11:43702in MyMiddleware.run()
LOG: Closed client: /10.0.0.11:43706in MyMiddleware.run()
LOG: Closed client: /10.0.0.11:43704in MyMiddleware.run()
LOG: Closed client: /10.0.0.11:43700in MyMiddleware.run()
LOG: Closed client: /10.0.0.11:43708in MyMiddleware.run()
LOG: Closed client: /10.0.0.6:54698in MyMiddleware.run()
LOG: Closed client: /10.0.0.6:54722in MyMiddleware.run()
LOG: Closed client: /10.0.0.6:54704in MyMiddleware.run()
LOG: Closed client: /10.0.0.6:54710in MyMiddleware.run()
LOG: Closed client: /10.0.0.6:54714in MyMiddleware.run()
LOG: Closed client: /10.0.0.6:54702in MyMiddleware.run()
LOG: Closed client: /10.0.0.6:54706in MyMiddleware.run()
LOG: Closed client: /10.0.0.6:54720in MyMiddleware.run()
LOG: Closed client: /10.0.0.6:54708in MyMiddleware.run()
LOG: Closed client: /10.0.0.6:54718in MyMiddleware.run()
LOG: Closed client: /10.0.0.6:54700in MyMiddleware.run()
LOG: Closed client: /10.0.0.6:54696in MyMiddleware.run()
LOG: Closed client: /10.0.0.6:54694in MyMiddleware.run()
LOG: Closed client: /10.0.0.6:54692in MyMiddleware.run()
LOG: Closed client: /10.0.0.6:54712in MyMiddleware.run()
LOG: Closed client: /10.0.0.6:54716in MyMiddleware.run()
