------------Middleware started!------------
LOG: Waiting for connection in MyMiddleware.run()
LOG: Accepted client: /10.0.0.11:37016in MyMiddleware.run()
LOG: Accepted client: /10.0.0.11:37036in MyMiddleware.run()
LOG: Accepted client: /10.0.0.11:37010in MyMiddleware.run()
LOG: Accepted client: /10.0.0.11:37024in MyMiddleware.run()
LOG: Accepted client: /10.0.0.11:37026in MyMiddleware.run()
LOG: Accepted client: /10.0.0.11:37030in MyMiddleware.run()
LOG: Accepted client: /10.0.0.11:37044in MyMiddleware.run()
LOG: Accepted client: /10.0.0.11:37014in MyMiddleware.run()
LOG: Accepted client: /10.0.0.11:37012in MyMiddleware.run()
LOG: Accepted client: /10.0.0.11:37032in MyMiddleware.run()
LOG: Accepted client: /10.0.0.11:37054in MyMiddleware.run()
LOG: Accepted client: /10.0.0.11:37068in MyMiddleware.run()
LOG: Accepted client: /10.0.0.11:37072in MyMiddleware.run()
LOG: Accepted client: /10.0.0.11:37056in MyMiddleware.run()
LOG: Accepted client: /10.0.0.11:37022in MyMiddleware.run()
LOG: Accepted client: /10.0.0.11:37066in MyMiddleware.run()
LOG: Accepted client: /10.0.0.11:37048in MyMiddleware.run()
LOG: Accepted client: /10.0.0.11:37018in MyMiddleware.run()
LOG: Accepted client: /10.0.0.11:37028in MyMiddleware.run()
LOG: Accepted client: /10.0.0.11:37020in MyMiddleware.run()
LOG: Accepted client: /10.0.0.11:37070in MyMiddleware.run()
LOG: Accepted client: /10.0.0.11:37058in MyMiddleware.run()
LOG: Accepted client: /10.0.0.11:37046in MyMiddleware.run()
LOG: Accepted client: /10.0.0.11:37052in MyMiddleware.run()
LOG: Accepted client: /10.0.0.11:37042in MyMiddleware.run()
LOG: Accepted client: /10.0.0.11:37050in MyMiddleware.run()
LOG: Accepted client: /10.0.0.11:37062in MyMiddleware.run()
LOG: Accepted client: /10.0.0.11:37038in MyMiddleware.run()
LOG: Accepted client: /10.0.0.11:37040in MyMiddleware.run()
LOG: Accepted client: /10.0.0.11:37034in MyMiddleware.run()
LOG: Accepted client: /10.0.0.11:37064in MyMiddleware.run()
LOG: Accepted client: /10.0.0.11:37060in MyMiddleware.run()
LOG: Accepted client: /10.0.0.7:37878in MyMiddleware.run()
LOG: Accepted client: /10.0.0.7:37880in MyMiddleware.run()
LOG: Accepted client: /10.0.0.7:37874in MyMiddleware.run()
LOG: Accepted client: /10.0.0.7:37872in MyMiddleware.run()
LOG: Accepted client: /10.0.0.7:37906in MyMiddleware.run()
LOG: Accepted client: /10.0.0.7:37898in MyMiddleware.run()
LOG: Accepted client: /10.0.0.7:37926in MyMiddleware.run()
LOG: Accepted client: /10.0.0.7:37876in MyMiddleware.run()
LOG: Accepted client: /10.0.0.7:37924in MyMiddleware.run()
LOG: Accepted client: /10.0.0.7:37896in MyMiddleware.run()
LOG: Accepted client: /10.0.0.7:37914in MyMiddleware.run()
LOG: Accepted client: /10.0.0.7:37922in MyMiddleware.run()
LOG: Accepted client: /10.0.0.7:37892in MyMiddleware.run()
LOG: Accepted client: /10.0.0.7:37928in MyMiddleware.run()
LOG: Accepted client: /10.0.0.7:37904in MyMiddleware.run()
LOG: Accepted client: /10.0.0.6:48088in MyMiddleware.run()
LOG: Accepted client: /10.0.0.7:37918in MyMiddleware.run()
LOG: Accepted client: /10.0.0.7:37900in MyMiddleware.run()
LOG: Accepted client: /10.0.0.7:37920in MyMiddleware.run()
LOG: Accepted client: /10.0.0.7:37916in MyMiddleware.run()
LOG: Accepted client: /10.0.0.7:37890in MyMiddleware.run()
LOG: Accepted client: /10.0.0.7:37886in MyMiddleware.run()
LOG: Accepted client: /10.0.0.6:48078in MyMiddleware.run()
LOG: Accepted client: /10.0.0.7:37912in MyMiddleware.run()
LOG: Accepted client: /10.0.0.6:48072in MyMiddleware.run()
LOG: Accepted client: /10.0.0.6:48106in MyMiddleware.run()
LOG: Accepted client: /10.0.0.6:48104in MyMiddleware.run()
LOG: Accepted client: /10.0.0.6:48096in MyMiddleware.run()
LOG: Accepted client: /10.0.0.6:48110in MyMiddleware.run()
LOG: Accepted client: /10.0.0.6:48116in MyMiddleware.run()
LOG: Accepted client: /10.0.0.6:48114in MyMiddleware.run()
LOG: Accepted client: /10.0.0.6:48092in MyMiddleware.run()
LOG: Accepted client: /10.0.0.6:48094in MyMiddleware.run()
LOG: Accepted client: /10.0.0.6:48108in MyMiddleware.run()
LOG: Accepted client: /10.0.0.6:48070in MyMiddleware.run()
LOG: Accepted client: /10.0.0.7:37902in MyMiddleware.run()
LOG: Accepted client: /10.0.0.6:48126in MyMiddleware.run()
LOG: Accepted client: /10.0.0.6:48080in MyMiddleware.run()
LOG: Accepted client: /10.0.0.6:48130in MyMiddleware.run()
LOG: Accepted client: /10.0.0.6:48082in MyMiddleware.run()
LOG: Accepted client: /10.0.0.6:48128in MyMiddleware.run()
LOG: Accepted client: /10.0.0.6:48124in MyMiddleware.run()
LOG: Accepted client: /10.0.0.6:48120in MyMiddleware.run()
LOG: Accepted client: /10.0.0.6:48076in MyMiddleware.run()
LOG: Accepted client: /10.0.0.6:48132in MyMiddleware.run()
LOG: Accepted client: /10.0.0.6:48084in MyMiddleware.run()
LOG: Accepted client: /10.0.0.6:48112in MyMiddleware.run()
LOG: Accepted client: /10.0.0.6:48098in MyMiddleware.run()
LOG: Accepted client: /10.0.0.6:48122in MyMiddleware.run()
LOG: Accepted client: /10.0.0.6:48086in MyMiddleware.run()
LOG: Accepted client: /10.0.0.6:48100in MyMiddleware.run()
LOG: Accepted client: /10.0.0.6:48102in MyMiddleware.run()
LOG: Accepted client: /10.0.0.6:48074in MyMiddleware.run()
LOG: Accepted client: /10.0.0.6:48090in MyMiddleware.run()
LOG: Accepted client: /10.0.0.6:48118in MyMiddleware.run()
LOG: Accepted client: /10.0.0.7:37882in MyMiddleware.run()
LOG: Accepted client: /10.0.0.7:37908in MyMiddleware.run()
LOG: Accepted client: /10.0.0.7:37932in MyMiddleware.run()
LOG: Accepted client: /10.0.0.7:37910in MyMiddleware.run()
LOG: Accepted client: /10.0.0.7:37884in MyMiddleware.run()
LOG: Accepted client: /10.0.0.7:37934in MyMiddleware.run()
LOG: Accepted client: /10.0.0.7:37930in MyMiddleware.run()
LOG: Accepted client: /10.0.0.7:37894in MyMiddleware.run()
LOG: Accepted client: /10.0.0.7:37888in MyMiddleware.run()
LOG: Closed client: /10.0.0.6:48078in MyMiddleware.run()
LOG: Closed client: /10.0.0.6:48096in MyMiddleware.run()
LOG: Closed client: /10.0.0.6:48076in MyMiddleware.run()
LOG: Closed client: /10.0.0.6:48080in MyMiddleware.run()
LOG: Closed client: /10.0.0.6:48088in MyMiddleware.run()
LOG: Closed client: /10.0.0.6:48098in MyMiddleware.run()
LOG: Closed client: /10.0.0.6:48082in MyMiddleware.run()
LOG: Closed client: /10.0.0.6:48102in MyMiddleware.run()
LOG: Closed client: /10.0.0.6:48100in MyMiddleware.run()
LOG: Closed client: /10.0.0.6:48072in MyMiddleware.run()
LOG: Closed client: /10.0.0.6:48074in MyMiddleware.run()
LOG: Closed client: /10.0.0.6:48118in MyMiddleware.run()
LOG: Closed client: /10.0.0.6:48112in MyMiddleware.run()
LOG: Closed client: /10.0.0.6:48114in MyMiddleware.run()
LOG: Closed client: /10.0.0.6:48120in MyMiddleware.run()
LOG: Closed client: /10.0.0.6:48124in MyMiddleware.run()
LOG: Closed client: /10.0.0.6:48070in MyMiddleware.run()
LOG: Closed client: /10.0.0.6:48108in MyMiddleware.run()
LOG: Closed client: /10.0.0.6:48106in MyMiddleware.run()
LOG: Closed client: /10.0.0.6:48094in MyMiddleware.run()
LOG: Closed client: /10.0.0.6:48086in MyMiddleware.run()
LOG: Closed client: /10.0.0.6:48132in MyMiddleware.run()
LOG: Closed client: /10.0.0.6:48090in MyMiddleware.run()
LOG: Closed client: /10.0.0.6:48110in MyMiddleware.run()
LOG: Closed client: /10.0.0.6:48122in MyMiddleware.run()
LOG: Closed client: /10.0.0.6:48104in MyMiddleware.run()
LOG: Closed client: /10.0.0.6:48126in MyMiddleware.run()
LOG: Closed client: /10.0.0.6:48092in MyMiddleware.run()
LOG: Closed client: /10.0.0.6:48128in MyMiddleware.run()
LOG: Closed client: /10.0.0.6:48084in MyMiddleware.run()
LOG: Closed client: /10.0.0.6:48116in MyMiddleware.run()
LOG: Closed client: /10.0.0.6:48130in MyMiddleware.run()
LOG: Closed client: /10.0.0.11:37010in MyMiddleware.run()
LOG: Closed client: /10.0.0.11:37032in MyMiddleware.run()
LOG: Closed client: /10.0.0.11:37034in MyMiddleware.run()
LOG: Closed client: /10.0.0.11:37050in MyMiddleware.run()
LOG: Closed client: /10.0.0.11:37024in MyMiddleware.run()
LOG: Closed client: /10.0.0.11:37046in MyMiddleware.run()
LOG: Closed client: /10.0.0.11:37018in MyMiddleware.run()
LOG: Closed client: /10.0.0.11:37054in MyMiddleware.run()
LOG: Closed client: /10.0.0.11:37052in MyMiddleware.run()
LOG: Closed client: /10.0.0.11:37012in MyMiddleware.run()
LOG: Closed client: /10.0.0.11:37042in MyMiddleware.run()
LOG: Closed client: /10.0.0.11:37028in MyMiddleware.run()
LOG: Closed client: /10.0.0.11:37020in MyMiddleware.run()
LOG: Closed client: /10.0.0.11:37026in MyMiddleware.run()
LOG: Closed client: /10.0.0.11:37038in MyMiddleware.run()
LOG: Closed client: /10.0.0.11:37030in MyMiddleware.run()
LOG: Closed client: /10.0.0.11:37016in MyMiddleware.run()
LOG: Closed client: /10.0.0.11:37040in MyMiddleware.run()
LOG: Closed client: /10.0.0.11:37056in MyMiddleware.run()
LOG: Closed client: /10.0.0.11:37036in MyMiddleware.run()
LOG: Closed client: /10.0.0.11:37014in MyMiddleware.run()
LOG: Closed client: /10.0.0.11:37044in MyMiddleware.run()
LOG: Closed client: /10.0.0.11:37022in MyMiddleware.run()
LOG: Closed client: /10.0.0.11:37048in MyMiddleware.run()
LOG: Closed client: /10.0.0.11:37068in MyMiddleware.run()
LOG: Closed client: /10.0.0.11:37060in MyMiddleware.run()
LOG: Closed client: /10.0.0.11:37072in MyMiddleware.run()
LOG: Closed client: /10.0.0.11:37062in MyMiddleware.run()
LOG: Closed client: /10.0.0.11:37064in MyMiddleware.run()
LOG: Closed client: /10.0.0.11:37070in MyMiddleware.run()
LOG: Closed client: /10.0.0.11:37066in MyMiddleware.run()
LOG: Closed client: /10.0.0.11:37058in MyMiddleware.run()
LOG: Closed client: /10.0.0.7:37886in MyMiddleware.run()
LOG: Closed client: /10.0.0.7:37882in MyMiddleware.run()
LOG: Closed client: /10.0.0.7:37872in MyMiddleware.run()
LOG: Closed client: /10.0.0.7:37874in MyMiddleware.run()
LOG: Closed client: /10.0.0.7:37880in MyMiddleware.run()
LOG: Closed client: /10.0.0.7:37892in MyMiddleware.run()
LOG: Closed client: /10.0.0.7:37890in MyMiddleware.run()
LOG: Closed client: /10.0.0.7:37920in MyMiddleware.run()
LOG: Closed client: /10.0.0.7:37900in MyMiddleware.run()
LOG: Closed client: /10.0.0.7:37896in MyMiddleware.run()
LOG: Closed client: /10.0.0.7:37878in MyMiddleware.run()
LOG: Closed client: /10.0.0.7:37930in MyMiddleware.run()
LOG: Closed client: /10.0.0.7:37916in MyMiddleware.run()
LOG: Closed client: /10.0.0.7:37884in MyMiddleware.run()
LOG: Closed client: /10.0.0.7:37914in MyMiddleware.run()
LOG: Closed client: /10.0.0.7:37876in MyMiddleware.run()
LOG: Closed client: /10.0.0.7:37934in MyMiddleware.run()
LOG: Closed client: /10.0.0.7:37888in MyMiddleware.run()
LOG: Closed client: /10.0.0.7:37906in MyMiddleware.run()
LOG: Closed client: /10.0.0.7:37922in MyMiddleware.run()
LOG: Closed client: /10.0.0.7:37918in MyMiddleware.run()
LOG: Closed client: /10.0.0.7:37928in MyMiddleware.run()
LOG: Closed client: /10.0.0.7:37908in MyMiddleware.run()
LOG: Closed client: /10.0.0.7:37926in MyMiddleware.run()
LOG: Closed client: /10.0.0.7:37912in MyMiddleware.run()
LOG: Closed client: /10.0.0.7:37924in MyMiddleware.run()
LOG: Closed client: /10.0.0.7:37894in MyMiddleware.run()
LOG: Closed client: /10.0.0.7:37898in MyMiddleware.run()
LOG: Closed client: /10.0.0.7:37902in MyMiddleware.run()
LOG: Closed client: /10.0.0.7:37904in MyMiddleware.run()
LOG: Closed client: /10.0.0.7:37932in MyMiddleware.run()
LOG: Closed client: /10.0.0.7:37910in MyMiddleware.run()
