------------Middleware started!------------
LOG: Waiting for connection in MyMiddleware.run()
LOG: Accepted client: /10.0.0.6:55304in MyMiddleware.run()
LOG: Accepted client: /10.0.0.6:55302in MyMiddleware.run()
LOG: Accepted client: /10.0.0.6:55316in MyMiddleware.run()
LOG: Accepted client: /10.0.0.6:55306in MyMiddleware.run()
LOG: Accepted client: /10.0.0.6:55312in MyMiddleware.run()
LOG: Accepted client: /10.0.0.6:55318in MyMiddleware.run()
LOG: Accepted client: /10.0.0.6:55314in MyMiddleware.run()
LOG: Accepted client: /10.0.0.6:55310in MyMiddleware.run()
LOG: Accepted client: /10.0.0.6:55308in MyMiddleware.run()
LOG: Accepted client: /10.0.0.6:55328in MyMiddleware.run()
LOG: Accepted client: /10.0.0.6:55330in MyMiddleware.run()
LOG: Accepted client: /10.0.0.6:55332in MyMiddleware.run()
LOG: Accepted client: /10.0.0.6:55320in MyMiddleware.run()
LOG: Accepted client: /10.0.0.6:55322in MyMiddleware.run()
LOG: Accepted client: /10.0.0.6:55326in MyMiddleware.run()
LOG: Accepted client: /10.0.0.6:55324in MyMiddleware.run()
LOG: Accepted client: /10.0.0.7:45162in MyMiddleware.run()
LOG: Accepted client: /10.0.0.7:45174in MyMiddleware.run()
LOG: Accepted client: /10.0.0.7:45180in MyMiddleware.run()
LOG: Accepted client: /10.0.0.7:45182in MyMiddleware.run()
LOG: Accepted client: /10.0.0.7:45164in MyMiddleware.run()
LOG: Accepted client: /10.0.0.7:45172in MyMiddleware.run()
LOG: Accepted client: /10.0.0.7:45170in MyMiddleware.run()
LOG: Accepted client: /10.0.0.7:45178in MyMiddleware.run()
LOG: Accepted client: /10.0.0.7:45176in MyMiddleware.run()
LOG: Accepted client: /10.0.0.7:45166in MyMiddleware.run()
LOG: Accepted client: /10.0.0.7:45184in MyMiddleware.run()
LOG: Accepted client: /10.0.0.7:45190in MyMiddleware.run()
LOG: Accepted client: /10.0.0.7:45168in MyMiddleware.run()
LOG: Accepted client: /10.0.0.7:45186in MyMiddleware.run()
LOG: Accepted client: /10.0.0.7:45188in MyMiddleware.run()
LOG: Accepted client: /10.0.0.7:45192in MyMiddleware.run()
LOG: Accepted client: /10.0.0.11:44284in MyMiddleware.run()
LOG: Accepted client: /10.0.0.11:44282in MyMiddleware.run()
LOG: Accepted client: /10.0.0.11:44274in MyMiddleware.run()
LOG: Accepted client: /10.0.0.11:44278in MyMiddleware.run()
LOG: Accepted client: /10.0.0.11:44276in MyMiddleware.run()
LOG: Accepted client: /10.0.0.11:44294in MyMiddleware.run()
LOG: Accepted client: /10.0.0.11:44292in MyMiddleware.run()
LOG: Accepted client: /10.0.0.11:44288in MyMiddleware.run()
LOG: Accepted client: /10.0.0.11:44290in MyMiddleware.run()
LOG: Accepted client: /10.0.0.11:44280in MyMiddleware.run()
LOG: Accepted client: /10.0.0.11:44296in MyMiddleware.run()
LOG: Accepted client: /10.0.0.11:44298in MyMiddleware.run()
LOG: Accepted client: /10.0.0.11:44304in MyMiddleware.run()
LOG: Accepted client: /10.0.0.11:44302in MyMiddleware.run()
LOG: Accepted client: /10.0.0.11:44300in MyMiddleware.run()
LOG: Accepted client: /10.0.0.11:44286in MyMiddleware.run()
LOG: Closed client: /10.0.0.6:55306in MyMiddleware.run()
LOG: Closed client: /10.0.0.6:55302in MyMiddleware.run()
LOG: Closed client: /10.0.0.6:55322in MyMiddleware.run()
LOG: Closed client: /10.0.0.6:55330in MyMiddleware.run()
LOG: Closed client: /10.0.0.6:55310in MyMiddleware.run()
LOG: Closed client: /10.0.0.6:55314in MyMiddleware.run()
LOG: Closed client: /10.0.0.6:55304in MyMiddleware.run()
LOG: Closed client: /10.0.0.6:55312in MyMiddleware.run()
LOG: Closed client: /10.0.0.6:55320in MyMiddleware.run()
LOG: Closed client: /10.0.0.6:55328in MyMiddleware.run()
LOG: Closed client: /10.0.0.6:55332in MyMiddleware.run()
LOG: Closed client: /10.0.0.6:55308in MyMiddleware.run()
LOG: Closed client: /10.0.0.6:55316in MyMiddleware.run()
LOG: Closed client: /10.0.0.6:55318in MyMiddleware.run()
LOG: Closed client: /10.0.0.6:55326in MyMiddleware.run()
LOG: Closed client: /10.0.0.6:55324in MyMiddleware.run()
LOG: Closed client: /10.0.0.7:45182in MyMiddleware.run()
LOG: Closed client: /10.0.0.7:45162in MyMiddleware.run()
LOG: Closed client: /10.0.0.7:45164in MyMiddleware.run()
LOG: Closed client: /10.0.0.7:45174in MyMiddleware.run()
LOG: Closed client: /10.0.0.7:45168in MyMiddleware.run()
LOG: Closed client: /10.0.0.7:45190in MyMiddleware.run()
LOG: Closed client: /10.0.0.7:45184in MyMiddleware.run()
LOG: Closed client: /10.0.0.7:45178in MyMiddleware.run()
LOG: Closed client: /10.0.0.7:45180in MyMiddleware.run()
LOG: Closed client: /10.0.0.7:45170in MyMiddleware.run()
LOG: Closed client: /10.0.0.7:45176in MyMiddleware.run()
LOG: Closed client: /10.0.0.7:45192in MyMiddleware.run()
LOG: Closed client: /10.0.0.7:45188in MyMiddleware.run()
LOG: Closed client: /10.0.0.7:45166in MyMiddleware.run()
LOG: Closed client: /10.0.0.7:45172in MyMiddleware.run()
LOG: Closed client: /10.0.0.7:45186in MyMiddleware.run()
LOG: Closed client: /10.0.0.11:44278in MyMiddleware.run()
LOG: Closed client: /10.0.0.11:44288in MyMiddleware.run()
LOG: Closed client: /10.0.0.11:44280in MyMiddleware.run()
LOG: Closed client: /10.0.0.11:44282in MyMiddleware.run()
LOG: Closed client: /10.0.0.11:44284in MyMiddleware.run()
LOG: Closed client: /10.0.0.11:44274in MyMiddleware.run()
LOG: Closed client: /10.0.0.11:44296in MyMiddleware.run()
LOG: Closed client: /10.0.0.11:44298in MyMiddleware.run()
LOG: Closed client: /10.0.0.11:44286in MyMiddleware.run()
LOG: Closed client: /10.0.0.11:44276in MyMiddleware.run()
LOG: Closed client: /10.0.0.11:44290in MyMiddleware.run()
LOG: Closed client: /10.0.0.11:44292in MyMiddleware.run()
LOG: Closed client: /10.0.0.11:44294in MyMiddleware.run()
LOG: Closed client: /10.0.0.11:44300in MyMiddleware.run()
LOG: Closed client: /10.0.0.11:44304in MyMiddleware.run()
LOG: Closed client: /10.0.0.11:44302in MyMiddleware.run()
