------------Middleware started!------------
LOG: Waiting for connection in MyMiddleware.run()
LOG: Accepted client: /10.0.0.6:60430in MyMiddleware.run()
LOG: Accepted client: /10.0.0.6:60432in MyMiddleware.run()
LOG: Accepted client: /10.0.0.6:60434in MyMiddleware.run()
LOG: Accepted client: /10.0.0.6:60438in MyMiddleware.run()
LOG: Accepted client: /10.0.0.6:60462in MyMiddleware.run()
LOG: Accepted client: /10.0.0.6:60436in MyMiddleware.run()
LOG: Accepted client: /10.0.0.6:60460in MyMiddleware.run()
LOG: Accepted client: /10.0.0.6:60458in MyMiddleware.run()
LOG: Accepted client: /10.0.0.6:60456in MyMiddleware.run()
LOG: Accepted client: /10.0.0.6:60444in MyMiddleware.run()
LOG: Accepted client: /10.0.0.6:60452in MyMiddleware.run()
LOG: Accepted client: /10.0.0.6:60448in MyMiddleware.run()
LOG: Accepted client: /10.0.0.6:60440in MyMiddleware.run()
LOG: Accepted client: /10.0.0.6:60454in MyMiddleware.run()
LOG: Accepted client: /10.0.0.6:60450in MyMiddleware.run()
LOG: Accepted client: /10.0.0.6:60446in MyMiddleware.run()
LOG: Accepted client: /10.0.0.6:60442in MyMiddleware.run()
LOG: Accepted client: /10.0.0.6:60468in MyMiddleware.run()
LOG: Accepted client: /10.0.0.6:60480in MyMiddleware.run()
LOG: Accepted client: /10.0.0.6:60482in MyMiddleware.run()
LOG: Accepted client: /10.0.0.6:60490in MyMiddleware.run()
LOG: Accepted client: /10.0.0.6:60492in MyMiddleware.run()
LOG: Accepted client: /10.0.0.6:60474in MyMiddleware.run()
LOG: Accepted client: /10.0.0.6:60478in MyMiddleware.run()
LOG: Accepted client: /10.0.0.6:60472in MyMiddleware.run()
LOG: Accepted client: /10.0.0.6:60484in MyMiddleware.run()
LOG: Accepted client: /10.0.0.6:60486in MyMiddleware.run()
LOG: Accepted client: /10.0.0.6:60466in MyMiddleware.run()
LOG: Accepted client: /10.0.0.6:60464in MyMiddleware.run()
LOG: Accepted client: /10.0.0.6:60488in MyMiddleware.run()
LOG: Accepted client: /10.0.0.6:60476in MyMiddleware.run()
LOG: Accepted client: /10.0.0.6:60470in MyMiddleware.run()
LOG: Accepted client: /10.0.0.11:49448in MyMiddleware.run()
LOG: Accepted client: /10.0.0.11:49456in MyMiddleware.run()
LOG: Accepted client: /10.0.0.11:49440in MyMiddleware.run()
LOG: Accepted client: /10.0.0.11:49454in MyMiddleware.run()
LOG: Accepted client: /10.0.0.11:49442in MyMiddleware.run()
LOG: Accepted client: /10.0.0.11:49458in MyMiddleware.run()
LOG: Accepted client: /10.0.0.11:49474in MyMiddleware.run()
LOG: Accepted client: /10.0.0.11:49478in MyMiddleware.run()
LOG: Accepted client: /10.0.0.11:49490in MyMiddleware.run()
LOG: Accepted client: /10.0.0.11:49496in MyMiddleware.run()
LOG: Accepted client: /10.0.0.11:49444in MyMiddleware.run()
LOG: Accepted client: /10.0.0.11:49488in MyMiddleware.run()
LOG: Accepted client: /10.0.0.11:49446in MyMiddleware.run()
LOG: Accepted client: /10.0.0.11:49500in MyMiddleware.run()
LOG: Accepted client: /10.0.0.11:49494in MyMiddleware.run()
LOG: Accepted client: /10.0.0.11:49472in MyMiddleware.run()
LOG: Accepted client: /10.0.0.11:49492in MyMiddleware.run()
LOG: Accepted client: /10.0.0.11:49502in MyMiddleware.run()
LOG: Accepted client: /10.0.0.11:49460in MyMiddleware.run()
LOG: Accepted client: /10.0.0.11:49452in MyMiddleware.run()
LOG: Accepted client: /10.0.0.11:49498in MyMiddleware.run()
LOG: Accepted client: /10.0.0.11:49462in MyMiddleware.run()
LOG: Accepted client: /10.0.0.11:49450in MyMiddleware.run()
LOG: Accepted client: /10.0.0.11:49476in MyMiddleware.run()
LOG: Accepted client: /10.0.0.11:49466in MyMiddleware.run()
LOG: Accepted client: /10.0.0.11:49486in MyMiddleware.run()
LOG: Accepted client: /10.0.0.11:49484in MyMiddleware.run()
LOG: Accepted client: /10.0.0.11:49464in MyMiddleware.run()
LOG: Accepted client: /10.0.0.7:50358in MyMiddleware.run()
LOG: Accepted client: /10.0.0.7:50356in MyMiddleware.run()
LOG: Accepted client: /10.0.0.7:50368in MyMiddleware.run()
LOG: Accepted client: /10.0.0.11:49482in MyMiddleware.run()
LOG: Accepted client: /10.0.0.11:49480in MyMiddleware.run()
LOG: Accepted client: /10.0.0.7:50352in MyMiddleware.run()
LOG: Accepted client: /10.0.0.7:50354in MyMiddleware.run()
LOG: Accepted client: /10.0.0.11:49470in MyMiddleware.run()
LOG: Accepted client: /10.0.0.11:49468in MyMiddleware.run()
LOG: Accepted client: /10.0.0.7:50360in MyMiddleware.run()
LOG: Accepted client: /10.0.0.7:50366in MyMiddleware.run()
LOG: Accepted client: /10.0.0.7:50364in MyMiddleware.run()
LOG: Accepted client: /10.0.0.7:50362in MyMiddleware.run()
LOG: Accepted client: /10.0.0.7:50380in MyMiddleware.run()
LOG: Accepted client: /10.0.0.7:50400in MyMiddleware.run()
LOG: Accepted client: /10.0.0.7:50376in MyMiddleware.run()
LOG: Accepted client: /10.0.0.7:50382in MyMiddleware.run()
LOG: Accepted client: /10.0.0.7:50402in MyMiddleware.run()
LOG: Accepted client: /10.0.0.7:50374in MyMiddleware.run()
LOG: Accepted client: /10.0.0.7:50408in MyMiddleware.run()
LOG: Accepted client: /10.0.0.7:50372in MyMiddleware.run()
LOG: Accepted client: /10.0.0.7:50410in MyMiddleware.run()
LOG: Accepted client: /10.0.0.7:50406in MyMiddleware.run()
LOG: Accepted client: /10.0.0.7:50378in MyMiddleware.run()
LOG: Accepted client: /10.0.0.7:50404in MyMiddleware.run()
LOG: Accepted client: /10.0.0.7:50370in MyMiddleware.run()
LOG: Accepted client: /10.0.0.7:50414in MyMiddleware.run()
LOG: Accepted client: /10.0.0.7:50412in MyMiddleware.run()
LOG: Accepted client: /10.0.0.7:50392in MyMiddleware.run()
LOG: Accepted client: /10.0.0.7:50384in MyMiddleware.run()
LOG: Accepted client: /10.0.0.7:50386in MyMiddleware.run()
LOG: Accepted client: /10.0.0.7:50398in MyMiddleware.run()
LOG: Accepted client: /10.0.0.7:50396in MyMiddleware.run()
LOG: Accepted client: /10.0.0.7:50394in MyMiddleware.run()
LOG: Accepted client: /10.0.0.7:50390in MyMiddleware.run()
LOG: Accepted client: /10.0.0.7:50388in MyMiddleware.run()
LOG: Closed client: /10.0.0.6:60430in MyMiddleware.run()
LOG: Closed client: /10.0.0.6:60468in MyMiddleware.run()
LOG: Closed client: /10.0.0.6:60450in MyMiddleware.run()
LOG: Closed client: /10.0.0.6:60440in MyMiddleware.run()
LOG: Closed client: /10.0.0.6:60432in MyMiddleware.run()
LOG: Closed client: /10.0.0.6:60436in MyMiddleware.run()
LOG: Closed client: /10.0.0.6:60452in MyMiddleware.run()
LOG: Closed client: /10.0.0.6:60438in MyMiddleware.run()
LOG: Closed client: /10.0.0.6:60434in MyMiddleware.run()
LOG: Closed client: /10.0.0.6:60464in MyMiddleware.run()
LOG: Closed client: /10.0.0.6:60442in MyMiddleware.run()
LOG: Closed client: /10.0.0.6:60444in MyMiddleware.run()
LOG: Closed client: /10.0.0.6:60448in MyMiddleware.run()
LOG: Closed client: /10.0.0.6:60454in MyMiddleware.run()
LOG: Closed client: /10.0.0.6:60462in MyMiddleware.run()
LOG: Closed client: /10.0.0.6:60466in MyMiddleware.run()
LOG: Closed client: /10.0.0.6:60458in MyMiddleware.run()
LOG: Closed client: /10.0.0.6:60476in MyMiddleware.run()
LOG: Closed client: /10.0.0.6:60456in MyMiddleware.run()
LOG: Closed client: /10.0.0.6:60486in MyMiddleware.run()
LOG: Closed client: /10.0.0.6:60470in MyMiddleware.run()
LOG: Closed client: /10.0.0.6:60460in MyMiddleware.run()
LOG: Closed client: /10.0.0.6:60488in MyMiddleware.run()
LOG: Closed client: /10.0.0.6:60480in MyMiddleware.run()
LOG: Closed client: /10.0.0.6:60484in MyMiddleware.run()
LOG: Closed client: /10.0.0.6:60482in MyMiddleware.run()
LOG: Closed client: /10.0.0.6:60478in MyMiddleware.run()
LOG: Closed client: /10.0.0.6:60490in MyMiddleware.run()
LOG: Closed client: /10.0.0.6:60472in MyMiddleware.run()
LOG: Closed client: /10.0.0.6:60492in MyMiddleware.run()
LOG: Closed client: /10.0.0.6:60474in MyMiddleware.run()
LOG: Closed client: /10.0.0.6:60446in MyMiddleware.run()
LOG: Closed client: /10.0.0.11:49452in MyMiddleware.run()
LOG: Closed client: /10.0.0.11:49448in MyMiddleware.run()
LOG: Closed client: /10.0.0.11:49442in MyMiddleware.run()
LOG: Closed client: /10.0.0.11:49454in MyMiddleware.run()
LOG: Closed client: /10.0.0.11:49450in MyMiddleware.run()
LOG: Closed client: /10.0.0.11:49478in MyMiddleware.run()
LOG: Closed client: /10.0.0.11:49458in MyMiddleware.run()
LOG: Closed client: /10.0.0.11:49464in MyMiddleware.run()
LOG: Closed client: /10.0.0.11:49456in MyMiddleware.run()
LOG: Closed client: /10.0.0.11:49446in MyMiddleware.run()
LOG: Closed client: /10.0.0.11:49444in MyMiddleware.run()
LOG: Closed client: /10.0.0.11:49466in MyMiddleware.run()
LOG: Closed client: /10.0.0.11:49460in MyMiddleware.run()
LOG: Closed client: /10.0.0.11:49470in MyMiddleware.run()
LOG: Closed client: /10.0.0.11:49440in MyMiddleware.run()
LOG: Closed client: /10.0.0.11:49474in MyMiddleware.run()
LOG: Closed client: /10.0.0.11:49468in MyMiddleware.run()
LOG: Closed client: /10.0.0.11:49462in MyMiddleware.run()
LOG: Closed client: /10.0.0.11:49472in MyMiddleware.run()
LOG: Closed client: /10.0.0.11:49482in MyMiddleware.run()
LOG: Closed client: /10.0.0.11:49476in MyMiddleware.run()
LOG: Closed client: /10.0.0.11:49486in MyMiddleware.run()
LOG: Closed client: /10.0.0.11:49494in MyMiddleware.run()
LOG: Closed client: /10.0.0.11:49488in MyMiddleware.run()
LOG: Closed client: /10.0.0.11:49500in MyMiddleware.run()
LOG: Closed client: /10.0.0.11:49484in MyMiddleware.run()
LOG: Closed client: /10.0.0.11:49496in MyMiddleware.run()
LOG: Closed client: /10.0.0.11:49498in MyMiddleware.run()
LOG: Closed client: /10.0.0.11:49502in MyMiddleware.run()
LOG: Closed client: /10.0.0.11:49492in MyMiddleware.run()
LOG: Closed client: /10.0.0.11:49480in MyMiddleware.run()
LOG: Closed client: /10.0.0.11:49490in MyMiddleware.run()
LOG: Closed client: /10.0.0.7:50352in MyMiddleware.run()
LOG: Closed client: /10.0.0.7:50354in MyMiddleware.run()
LOG: Closed client: /10.0.0.7:50384in MyMiddleware.run()
LOG: Closed client: /10.0.0.7:50372in MyMiddleware.run()
LOG: Closed client: /10.0.0.7:50380in MyMiddleware.run()
LOG: Closed client: /10.0.0.7:50366in MyMiddleware.run()
LOG: Closed client: /10.0.0.7:50386in MyMiddleware.run()
LOG: Closed client: /10.0.0.7:50378in MyMiddleware.run()
LOG: Closed client: /10.0.0.7:50358in MyMiddleware.run()
LOG: Closed client: /10.0.0.7:50364in MyMiddleware.run()
LOG: Closed client: /10.0.0.7:50362in MyMiddleware.run()
LOG: Closed client: /10.0.0.7:50374in MyMiddleware.run()
LOG: Closed client: /10.0.0.7:50376in MyMiddleware.run()
LOG: Closed client: /10.0.0.7:50382in MyMiddleware.run()
LOG: Closed client: /10.0.0.7:50370in MyMiddleware.run()
LOG: Closed client: /10.0.0.7:50356in MyMiddleware.run()
LOG: Closed client: /10.0.0.7:50368in MyMiddleware.run()
LOG: Closed client: /10.0.0.7:50360in MyMiddleware.run()
LOG: Closed client: /10.0.0.7:50408in MyMiddleware.run()
LOG: Closed client: /10.0.0.7:50388in MyMiddleware.run()
LOG: Closed client: /10.0.0.7:50412in MyMiddleware.run()
LOG: Closed client: /10.0.0.7:50400in MyMiddleware.run()
LOG: Closed client: /10.0.0.7:50404in MyMiddleware.run()
LOG: Closed client: /10.0.0.7:50398in MyMiddleware.run()
LOG: Closed client: /10.0.0.7:50394in MyMiddleware.run()
LOG: Closed client: /10.0.0.7:50414in MyMiddleware.run()
LOG: Closed client: /10.0.0.7:50392in MyMiddleware.run()
LOG: Closed client: /10.0.0.7:50402in MyMiddleware.run()
LOG: Closed client: /10.0.0.7:50406in MyMiddleware.run()
LOG: Closed client: /10.0.0.7:50410in MyMiddleware.run()
LOG: Closed client: /10.0.0.7:50396in MyMiddleware.run()
LOG: Closed client: /10.0.0.7:50390in MyMiddleware.run()
