------------Middleware started!------------
LOG: Waiting for connection in MyMiddleware.run()
LOG: Accepted client: /10.0.0.11:57670in MyMiddleware.run()
LOG: Accepted client: /10.0.0.11:57672in MyMiddleware.run()
LOG: Accepted client: /10.0.0.11:57668in MyMiddleware.run()
LOG: Accepted client: /10.0.0.11:57680in MyMiddleware.run()
LOG: Accepted client: /10.0.0.6:40460in MyMiddleware.run()
LOG: Accepted client: /10.0.0.11:57676in MyMiddleware.run()
LOG: Accepted client: /10.0.0.11:57682in MyMiddleware.run()
LOG: Accepted client: /10.0.0.11:57674in MyMiddleware.run()
LOG: Accepted client: /10.0.0.11:57678in MyMiddleware.run()
LOG: Accepted client: /10.0.0.6:40472in MyMiddleware.run()
LOG: Accepted client: /10.0.0.6:40462in MyMiddleware.run()
LOG: Accepted client: /10.0.0.6:40464in MyMiddleware.run()
LOG: Accepted client: /10.0.0.6:40458in MyMiddleware.run()
LOG: Accepted client: /10.0.0.6:40470in MyMiddleware.run()
LOG: Accepted client: /10.0.0.6:40466in MyMiddleware.run()
LOG: Accepted client: /10.0.0.6:40468in MyMiddleware.run()
LOG: Accepted client: /10.0.0.7:58562in MyMiddleware.run()
LOG: Accepted client: /10.0.0.7:58556in MyMiddleware.run()
LOG: Accepted client: /10.0.0.7:58560in MyMiddleware.run()
LOG: Accepted client: /10.0.0.7:58568in MyMiddleware.run()
LOG: Accepted client: /10.0.0.7:58558in MyMiddleware.run()
LOG: Accepted client: /10.0.0.7:58570in MyMiddleware.run()
LOG: Accepted client: /10.0.0.7:58564in MyMiddleware.run()
LOG: Accepted client: /10.0.0.7:58566in MyMiddleware.run()
LOG: Closed client: /10.0.0.11:57668in MyMiddleware.run()
LOG: Closed client: /10.0.0.11:57680in MyMiddleware.run()
LOG: Closed client: /10.0.0.11:57672in MyMiddleware.run()
LOG: Closed client: /10.0.0.11:57674in MyMiddleware.run()
LOG: Closed client: /10.0.0.11:57682in MyMiddleware.run()
LOG: Closed client: /10.0.0.11:57678in MyMiddleware.run()
LOG: Closed client: /10.0.0.11:57670in MyMiddleware.run()
LOG: Closed client: /10.0.0.11:57676in MyMiddleware.run()
LOG: Closed client: /10.0.0.7:58564in MyMiddleware.run()
LOG: Closed client: /10.0.0.7:58556in MyMiddleware.run()
LOG: Closed client: /10.0.0.7:58566in MyMiddleware.run()
LOG: Closed client: /10.0.0.7:58558in MyMiddleware.run()
LOG: Closed client: /10.0.0.7:58568in MyMiddleware.run()
LOG: Closed client: /10.0.0.7:58570in MyMiddleware.run()
LOG: Closed client: /10.0.0.7:58562in MyMiddleware.run()
LOG: Closed client: /10.0.0.7:58560in MyMiddleware.run()
LOG: Closed client: /10.0.0.6:40462in MyMiddleware.run()
LOG: Closed client: /10.0.0.6:40460in MyMiddleware.run()
LOG: Closed client: /10.0.0.6:40464in MyMiddleware.run()
LOG: Closed client: /10.0.0.6:40472in MyMiddleware.run()
LOG: Closed client: /10.0.0.6:40458in MyMiddleware.run()
LOG: Closed client: /10.0.0.6:40470in MyMiddleware.run()
LOG: Closed client: /10.0.0.6:40468in MyMiddleware.run()
LOG: Closed client: /10.0.0.6:40466in MyMiddleware.run()
