Second,Ops/sec,Hits/sec,Misses/sec,Latency,KB/sec,Request_Creation_Time,Request_Buffer_Time,MW_Writes_To_Memcached_Time,Memcached_Process_Time,MW_Writes_To_Memtier_Time,Queue_Size
4,3839.00,3839.00,0.00,3.361,427,0.011,1.468,0.037,1.756,0.088,20.3
5,18995.00,18995.00,0.00,2.713,2112,0.005,1.259,0.013,1.422,0.013,22.7
6,22580.00,22580.00,0.00,2.021,2509,0.004,0.965,0.008,1.031,0.013,22.2
7,22733.00,22733.00,0.00,1.914,2526,0.003,0.888,0.010,1.002,0.011,23.0
8,20572.00,20572.00,0.00,2.551,2285,0.004,1.240,0.008,1.286,0.013,25.2
9,22580.00,22580.00,0.00,2.023,2508,0.004,0.910,0.009,1.089,0.011,22.6
10,23633.00,23633.00,0.00,1.889,2626,0.004,0.878,0.008,0.989,0.010,21.6
11,22256.00,22256.00,0.00,2.075,2473,0.003,1.025,0.009,1.027,0.011,23.5
12,22777.00,22777.00,0.00,2.153,2531,0.003,1.084,0.008,1.047,0.010,24.8
13,22943.00,22943.00,0.00,1.873,2550,0.004,0.858,0.008,0.992,0.011,23.3
14,22141.00,22137.00,4.00,2.037,2460,0.003,0.906,0.009,1.107,0.012,22.8
15,21831.00,21772.00,59.00,2.314,2419,0.004,1.132,0.010,1.155,0.014,24.9
16,22950.00,22920.00,30.00,1.917,2545,0.003,0.885,0.009,1.007,0.013,24.6
17,22720.00,22717.00,3.00,1.964,2523,0.004,0.892,0.010,1.046,0.013,23.4
18,22569.00,22569.00,0.00,2.220,2507,0.003,1.067,0.009,1.129,0.012,22.2
19,22744.00,22744.00,0.00,2.050,2527,0.003,0.933,0.008,1.093,0.012,23.7
20,22363.00,22363.00,0.00,2.150,2485,0.003,1.048,0.009,1.080,0.012,23.8
21,22758.00,22758.00,0.00,2.161,2529,0.004,1.075,0.009,1.064,0.010,24.8
22,22370.00,22370.00,0.00,1.937,2486,0.003,0.865,0.009,1.047,0.013,22.1
23,23158.00,23158.00,0.00,1.987,2573,0.003,0.913,0.008,1.052,0.011,24.1
24,21735.00,21735.00,0.00,2.373,2415,0.003,1.213,0.009,1.136,0.012,26.5
25,23511.00,23511.00,0.00,1.820,2612,0.003,0.832,0.008,0.966,0.011,22.2
26,23017.00,23017.00,0.00,1.988,2557,0.003,0.949,0.009,1.015,0.011,24.4
27,22537.00,22537.00,0.00,2.270,2504,0.003,1.141,0.008,1.107,0.011,25.1
28,23213.00,23213.00,0.00,1.880,2579,0.003,0.862,0.008,0.995,0.012,22.2
29,22407.00,22407.00,0.00,2.125,2490,0.003,0.975,0.009,1.126,0.011,22.7
30,22189.00,22189.00,0.00,2.644,2465,0.003,1.407,0.008,1.216,0.010,27.2
31,22713.00,22713.00,0.00,1.978,2523,0.003,0.924,0.008,1.032,0.010,22.7
32,23009.00,23009.00,0.00,1.947,2557,0.003,0.908,0.008,1.017,0.012,22.7
33,22717.00,22713.00,4.00,2.301,2524,0.003,1.184,0.008,1.095,0.011,26.1
34,23716.00,23700.00,16.00,1.762,2634,0.003,0.782,0.008,0.958,0.010,22.4
35,23347.00,23317.00,30.00,1.889,2591,0.003,0.861,0.008,1.007,0.010,21.1
36,22259.00,22240.00,19.00,2.263,2471,0.003,1.150,0.007,1.092,0.010,25.4
37,22940.00,22920.00,20.00,1.905,2546,0.003,0.847,0.009,1.034,0.011,22.2
38,24140.00,24137.00,3.00,1.770,2682,0.003,0.803,0.008,0.946,0.011,21.8
39,22086.00,22082.00,4.00,2.165,2454,0.003,1.064,0.008,1.079,0.011,24.2
40,22335.00,22335.00,0.00,2.062,2482,0.003,0.992,0.008,1.048,0.010,22.8
41,23474.00,23474.00,0.00,1.682,2608,0.003,0.725,0.008,0.936,0.011,19.5
42,22692.00,22692.00,0.00,2.330,2521,0.003,1.180,0.008,1.129,0.010,26.0
43,23502.00,23502.00,0.00,1.973,2611,0.003,0.901,0.009,1.050,0.011,21.6
44,23582.00,23582.00,0.00,1.779,2620,0.003,0.797,0.009,0.959,0.011,21.2
45,22803.00,22803.00,0.00,2.098,2534,0.003,1.026,0.008,1.051,0.010,24.6
46,23454.00,23454.00,0.00,2.041,2607,0.003,0.980,0.007,1.040,0.011,24.9
47,22880.00,22880.00,0.00,2.053,2543,0.003,0.960,0.007,1.072,0.011,23.4
48,23862.00,23862.00,0.00,2.025,2652,0.003,0.972,0.007,1.034,0.010,23.4
49,23323.00,23323.00,0.00,2.089,2592,0.003,1.011,0.007,1.058,0.010,24.2
50,22611.00,22611.00,0.00,2.047,2513,0.004,0.960,0.007,1.065,0.011,20.8
51,23191.00,23191.00,0.00,2.047,2577,0.003,1.006,0.008,1.019,0.011,23.7
52,22568.00,22568.00,0.00,2.325,2508,0.003,1.201,0.008,1.101,0.011,26.0
53,23996.00,23996.00,0.00,1.887,2667,0.003,0.855,0.007,1.010,0.011,22.4
54,23642.00,23642.00,0.00,1.922,2627,0.003,0.854,0.008,1.047,0.010,20.9
55,22167.00,22167.00,0.00,2.264,2463,0.003,1.105,0.009,1.137,0.011,24.0
56,23207.00,23207.00,0.00,1.900,2579,0.003,0.892,0.007,0.986,0.011,22.3
57,23065.00,23065.00,0.00,1.700,2563,0.003,0.747,0.008,0.932,0.010,19.7
58,23242.00,23242.00,0.00,2.095,2583,0.004,1.039,0.007,1.034,0.010,25.3
59,22583.00,22583.00,0.00,2.073,2509,0.003,0.976,0.007,1.077,0.010,23.5
60,23193.00,23193.00,0.00,1.850,2577,0.004,0.852,0.008,0.976,0.011,21.9
61,22703.00,22703.00,0.00,2.378,2523,0.003,1.207,0.008,1.151,0.010,25.6
62,22550.00,22550.00,0.00,1.818,2506,0.003,0.806,0.007,0.990,0.012,19.2
63,23649.00,23649.00,0.00,2.027,2628,0.003,0.969,0.007,1.037,0.011,23.3
64,23487.00,23487.00,0.00,1.956,2610,0.003,0.927,0.008,1.008,0.010,22.8
65,22805.00,22805.00,0.00,2.113,2534,0.003,0.970,0.008,1.120,0.013,21.8
66,23383.00,23383.00,0.00,1.923,2598,0.003,0.884,0.007,1.017,0.011,22.3
67,23502.00,23502.00,0.00,2.057,2612,0.003,0.997,0.008,1.039,0.011,23.2
68,23347.00,23347.00,0.00,1.746,2594,0.003,0.767,0.008,0.958,0.010,20.4
69,23575.00,23575.00,0.00,1.863,2619,0.003,0.860,0.009,0.981,0.010,22.7
70,23296.00,23296.00,0.00,2.073,2589,0.003,1.003,0.008,1.049,0.010,22.7
71,23032.00,23032.00,0.00,2.047,2559,0.004,0.954,0.009,1.070,0.011,23.5
72,23661.00,23661.00,0.00,1.820,2629,0.004,0.813,0.008,0.986,0.010,20.6
73,22378.00,22378.00,0.00,2.312,2486,0.003,1.151,0.008,1.140,0.010,26.0
74,17871.00,17871.00,0.00,1.639,1986,0.003,0.690,0.008,0.928,0.010,21.2
75,2737.00,2737.00,0.00,0.884,304,0.004,0.091,0.015,0.761,0.013,0.2
