Second,Ops/sec,Hits/sec,Misses/sec,Latency,KB/sec,Request_Creation_Time,Request_Buffer_Time,MW_Writes_To_Memcached_Time,Memcached_Process_Time,MW_Writes_To_Memtier_Time,Queue_Size
4,3561.00,3561.00,0.00,2.726,1067,0.018,0.989,0.043,1.627,0.049,15.6
5,18091.00,18091.00,0.00,2.669,5421,0.005,1.140,0.012,1.492,0.019,21.0
6,22198.00,22198.00,0.00,1.962,6650,0.004,0.863,0.012,1.068,0.014,21.9
7,23102.00,23102.00,0.00,1.815,6922,0.005,0.820,0.011,0.966,0.012,24.0
8,20753.00,20753.00,0.00,2.322,6217,0.005,1.133,0.009,1.166,0.010,23.3
9,20959.00,20959.00,0.00,2.599,6279,0.003,1.299,0.008,1.277,0.011,25.6
10,22900.00,22900.00,0.00,1.695,6861,0.004,0.736,0.009,0.934,0.012,20.5
11,21803.00,21803.00,0.00,2.177,6532,0.004,1.043,0.007,1.113,0.011,23.9
12,23125.00,23125.00,0.00,1.810,6928,0.004,0.800,0.010,0.986,0.010,21.2
13,22247.00,22247.00,0.00,2.124,6665,0.004,1.031,0.008,1.071,0.010,24.1
14,21700.00,21699.00,1.00,2.370,6501,0.003,1.173,0.010,1.172,0.012,24.2
15,20779.00,20730.00,49.00,2.374,6210,0.003,1.143,0.011,1.203,0.015,26.7
16,23239.00,23204.00,35.00,1.832,6951,0.004,0.835,0.011,0.969,0.013,22.5
17,22119.00,22108.00,11.00,2.012,6622,0.003,0.912,0.010,1.072,0.015,21.9
18,22000.00,22000.00,0.00,2.356,6590,0.003,1.207,0.010,1.123,0.013,26.8
19,22427.00,22427.00,0.00,2.147,6719,0.004,1.007,0.011,1.111,0.015,25.7
20,21477.00,21477.00,0.00,2.169,6434,0.004,1.014,0.011,1.125,0.015,23.5
21,21656.00,21656.00,0.00,2.185,6489,0.004,1.026,0.010,1.133,0.013,24.5
22,22254.00,22254.00,0.00,1.876,6668,0.004,0.853,0.011,0.997,0.012,23.0
23,22397.00,22397.00,0.00,2.136,6710,0.003,0.976,0.011,1.131,0.015,24.0
24,21658.00,21658.00,0.00,2.448,6488,0.003,1.244,0.008,1.181,0.013,25.8
25,23095.00,23095.00,0.00,1.973,6919,0.003,0.920,0.009,1.027,0.015,24.4
26,22475.00,22475.00,0.00,2.044,6733,0.003,0.932,0.009,1.088,0.013,23.3
27,22199.00,22199.00,0.00,2.033,6650,0.005,0.959,0.008,1.050,0.011,23.6
28,22604.00,22604.00,0.00,1.981,6772,0.003,0.961,0.010,0.996,0.010,25.6
29,21798.00,21798.00,0.00,2.206,6530,0.003,1.070,0.009,1.112,0.012,23.5
30,22021.00,22021.00,0.00,2.092,6597,0.003,1.018,0.008,1.051,0.011,23.7
31,22302.00,22302.00,0.00,2.186,6681,0.003,1.049,0.009,1.111,0.014,25.9
32,22215.00,22215.00,0.00,2.035,6655,0.003,0.940,0.009,1.072,0.011,23.6
33,22137.00,22137.00,0.00,2.070,6632,0.003,1.000,0.008,1.048,0.011,23.8
34,22505.00,22501.00,4.00,2.170,6742,0.004,1.042,0.008,1.102,0.014,24.8
35,22206.00,22185.00,21.00,1.987,6647,0.003,0.939,0.010,1.022,0.013,25.2
36,22700.00,22670.00,30.00,1.914,6792,0.003,0.875,0.008,1.017,0.011,20.9
37,22691.00,22665.00,26.00,1.958,6790,0.003,0.914,0.007,1.022,0.011,23.9
38,21895.00,21886.00,9.00,2.076,6557,0.003,0.990,0.008,1.063,0.012,23.5
39,22457.00,22451.00,6.00,2.252,6725,0.003,1.094,0.008,1.135,0.012,24.8
40,22844.00,22844.00,0.00,2.004,6844,0.003,0.969,0.008,1.013,0.011,24.1
41,22904.00,22904.00,0.00,1.973,6862,0.003,0.938,0.007,1.015,0.010,23.9
42,22764.00,22764.00,0.00,1.891,6820,0.003,0.844,0.009,1.025,0.010,21.4
43,22525.00,22525.00,0.00,1.988,6748,0.003,0.959,0.007,1.007,0.011,23.6
44,22656.00,22656.00,0.00,1.967,6788,0.003,0.913,0.009,1.031,0.011,22.2
45,22504.00,22504.00,0.00,1.968,6742,0.003,0.901,0.008,1.046,0.010,20.8
46,23041.00,23041.00,0.00,1.794,6903,0.003,0.788,0.009,0.983,0.011,19.4
47,22928.00,22928.00,0.00,1.846,6869,0.004,0.820,0.008,1.004,0.011,21.0
48,22057.00,22057.00,0.00,2.159,6609,0.003,1.048,0.007,1.089,0.010,23.1
49,22589.00,22589.00,0.00,2.097,6768,0.003,0.990,0.008,1.085,0.011,24.7
50,23487.00,23487.00,0.00,1.666,7037,0.003,0.725,0.008,0.920,0.010,20.4
51,22439.00,22439.00,0.00,1.961,6723,0.003,0.918,0.009,1.021,0.010,21.5
52,22530.00,22530.00,0.00,2.204,6750,0.004,1.082,0.007,1.101,0.010,25.1
53,22275.00,22275.00,0.00,2.035,6674,0.003,0.926,0.008,1.087,0.011,22.8
54,22583.00,22583.00,0.00,2.188,6766,0.003,1.023,0.008,1.143,0.010,24.6
55,22720.00,22720.00,0.00,2.030,6807,0.003,0.951,0.008,1.058,0.011,23.3
56,22160.00,22160.00,0.00,2.051,6639,0.003,0.930,0.008,1.099,0.011,21.6
57,23158.00,23158.00,0.00,1.937,6938,0.003,0.858,0.008,1.055,0.012,22.8
58,22529.00,22529.00,0.00,2.178,6749,0.003,1.065,0.008,1.091,0.010,24.7
59,22766.00,22766.00,0.00,2.021,6820,0.003,0.959,0.008,1.041,0.011,22.1
60,22671.00,22671.00,0.00,1.915,6792,0.003,0.853,0.008,1.041,0.010,22.2
61,22274.00,22274.00,0.00,2.053,6673,0.003,1.011,0.008,1.018,0.013,23.7
62,23529.00,23529.00,0.00,1.870,7049,0.004,0.819,0.008,1.028,0.012,22.6
63,22690.00,22690.00,0.00,2.055,6798,0.003,0.941,0.008,1.093,0.010,23.1
64,22303.00,22303.00,0.00,2.376,6682,0.004,1.187,0.008,1.166,0.010,27.1
65,22659.00,22659.00,0.00,2.049,6789,0.003,1.000,0.007,1.027,0.011,24.4
66,22699.00,22699.00,0.00,1.959,6801,0.003,0.918,0.007,1.020,0.011,22.5
67,23016.00,23016.00,0.00,1.986,6896,0.003,0.950,0.007,1.015,0.011,22.9
68,21804.00,21804.00,0.00,2.155,6533,0.004,1.045,0.007,1.088,0.011,23.3
69,22456.00,22456.00,0.00,2.105,6728,0.003,0.981,0.008,1.101,0.012,22.9
70,22232.00,22232.00,0.00,2.283,6660,0.003,1.134,0.007,1.129,0.010,25.4
71,22988.00,22988.00,0.00,1.980,6887,0.003,0.878,0.007,1.081,0.011,22.3
72,22840.00,22840.00,0.00,1.984,6843,0.003,0.908,0.009,1.054,0.011,22.5
73,22260.00,22260.00,0.00,2.095,6669,0.003,0.986,0.008,1.087,0.010,22.9
74,18311.00,18311.00,0.00,1.808,5486,0.003,0.809,0.008,0.977,0.010,21.2
75,4928.00,4928.00,0.00,0.683,1476,0.003,0.093,0.012,0.564,0.011,0.4
