Second,Ops/sec,Hits/sec,Misses/sec,Latency,KB/sec,Request_Creation_Time,Request_Buffer_Time,MW_Writes_To_Memcached_Time,Memcached_Process_Time,MW_Writes_To_Memtier_Time,Queue_Size
4,2799.00,2799.00,0.00,1.394,839,0.026,0.269,0.028,1.029,0.041,1.6
5,11515.00,11515.00,0.00,1.190,3450,0.007,0.154,0.015,1.001,0.012,1.0
6,13427.00,13427.00,0.00,0.955,4022,0.007,0.106,0.013,0.817,0.012,1.0
7,13096.00,13096.00,0.00,0.903,3923,0.008,0.153,0.013,0.718,0.011,1.3
8,13255.00,13255.00,0.00,0.922,3971,0.004,0.145,0.013,0.749,0.011,1.3
9,13211.00,13188.00,23.00,1.023,3951,0.007,0.096,0.014,0.888,0.016,1.0
10,12276.00,12275.00,1.00,1.087,3677,0.006,0.111,0.012,0.947,0.011,1.0
11,13728.00,13728.00,0.00,0.901,4113,0.006,0.099,0.013,0.770,0.012,0.9
12,13687.00,13687.00,0.00,0.935,4101,0.004,0.094,0.015,0.811,0.011,0.9
13,13167.00,13167.00,0.00,0.910,3944,0.005,0.109,0.012,0.774,0.012,1.0
14,13931.00,13931.00,0.00,0.874,4173,0.006,0.087,0.012,0.759,0.010,0.9
15,14232.00,14232.00,0.00,0.914,4264,0.004,0.089,0.011,0.796,0.014,1.0
16,14329.00,14328.00,1.00,0.820,4293,0.005,0.090,0.010,0.703,0.011,0.9
17,14019.00,14009.00,10.00,0.865,4197,0.005,0.126,0.011,0.711,0.011,1.1
18,13966.00,13956.00,10.00,0.923,4181,0.004,0.126,0.010,0.771,0.012,1.0
19,14280.00,14277.00,3.00,0.882,4277,0.004,0.108,0.011,0.749,0.010,1.1
20,13975.00,13975.00,0.00,0.895,4187,0.005,0.124,0.011,0.746,0.009,1.0
21,13817.00,13817.00,0.00,0.940,4140,0.007,0.099,0.011,0.810,0.013,1.0
22,13244.00,13244.00,0.00,1.006,3968,0.004,0.109,0.014,0.867,0.011,1.0
23,13641.00,13641.00,0.00,0.893,4087,0.005,0.147,0.011,0.719,0.011,1.3
24,14432.00,14432.00,0.00,0.961,4324,0.004,0.104,0.010,0.834,0.010,1.0
25,14273.00,14273.00,0.00,0.843,4276,0.003,0.109,0.010,0.709,0.011,1.1
26,14068.00,14068.00,0.00,0.870,4215,0.004,0.096,0.011,0.747,0.012,0.9
27,14675.00,14675.00,0.00,0.913,4396,0.005,0.095,0.010,0.792,0.011,0.9
28,13561.00,13561.00,0.00,0.953,4063,0.004,0.126,0.011,0.800,0.011,1.2
29,14219.00,14219.00,0.00,0.885,4260,0.005,0.124,0.010,0.734,0.011,1.0
30,13592.00,13592.00,0.00,0.984,4072,0.004,0.140,0.013,0.818,0.010,1.0
31,14413.00,14413.00,0.00,0.922,4318,0.004,0.111,0.010,0.786,0.010,1.1
32,14404.00,14404.00,0.00,0.822,4315,0.005,0.109,0.013,0.683,0.012,1.0
33,13962.00,13962.00,0.00,0.952,4183,0.003,0.114,0.012,0.813,0.010,1.0
34,13508.00,13508.00,0.00,0.922,4047,0.005,0.156,0.012,0.737,0.012,1.4
35,14039.00,14039.00,0.00,0.825,4206,0.005,0.096,0.011,0.702,0.011,1.0
36,13968.00,13967.00,1.00,1.000,4184,0.005,0.129,0.009,0.844,0.013,1.2
37,14687.00,14687.00,0.00,0.858,4400,0.005,0.098,0.011,0.731,0.012,0.9
38,13997.00,13991.00,6.00,0.898,4192,0.005,0.115,0.011,0.755,0.011,1.0
39,14049.00,14042.00,7.00,0.971,4207,0.004,0.109,0.010,0.837,0.011,1.1
40,14147.00,14136.00,11.00,0.865,4235,0.005,0.091,0.011,0.747,0.010,1.0
41,14265.00,14254.00,11.00,0.887,4270,0.004,0.107,0.013,0.752,0.011,1.0
42,14131.00,14125.00,6.00,0.991,4232,0.005,0.099,0.010,0.867,0.010,0.9
43,13748.00,13736.00,12.00,0.929,4115,0.005,0.155,0.011,0.748,0.010,1.1
44,14158.00,14149.00,9.00,0.835,4239,0.005,0.101,0.010,0.709,0.011,1.0
45,14022.00,14018.00,4.00,1.053,4200,0.005,0.113,0.010,0.914,0.011,1.0
46,14163.00,14162.00,1.00,1.008,4243,0.004,0.156,0.010,0.829,0.009,1.3
47,13946.00,13943.00,3.00,0.891,4177,0.006,0.113,0.010,0.749,0.012,1.0
48,13697.00,13696.00,1.00,1.006,4103,0.004,0.107,0.010,0.873,0.011,0.9
49,13727.00,13727.00,0.00,1.026,4112,0.005,0.105,0.009,0.895,0.012,1.0
50,13657.00,13657.00,0.00,0.913,4091,0.004,0.118,0.010,0.771,0.010,1.0
51,14258.00,14258.00,0.00,0.887,4271,0.004,0.115,0.011,0.746,0.010,0.9
52,13169.00,13169.00,0.00,0.990,3945,0.003,0.160,0.010,0.804,0.013,1.3
53,14046.00,14046.00,0.00,0.877,4208,0.003,0.135,0.010,0.717,0.012,1.1
54,13876.00,13876.00,0.00,0.959,4157,0.004,0.111,0.011,0.821,0.011,1.0
55,14049.00,14049.00,0.00,0.983,4209,0.004,0.091,0.011,0.867,0.010,1.0
56,14243.00,14243.00,0.00,0.882,4267,0.005,0.084,0.011,0.770,0.013,0.9
57,14018.00,14018.00,0.00,0.908,4200,0.006,0.107,0.010,0.772,0.011,1.0
58,13921.00,13921.00,0.00,0.968,4171,0.004,0.103,0.012,0.838,0.011,1.0
59,13719.00,13719.00,0.00,0.984,4110,0.007,0.150,0.010,0.805,0.012,1.3
60,13847.00,13847.00,0.00,0.902,4148,0.006,0.129,0.010,0.745,0.011,1.1
61,14124.00,14124.00,0.00,1.002,4231,0.004,0.119,0.010,0.859,0.010,1.0
62,14058.00,14058.00,0.00,0.948,4212,0.005,0.103,0.011,0.819,0.011,1.0
63,13765.00,13765.00,0.00,0.960,4124,0.005,0.123,0.012,0.809,0.011,1.1
64,13878.00,13878.00,0.00,0.959,4158,0.005,0.113,0.011,0.818,0.011,1.1
65,13339.00,13339.00,0.00,0.960,3996,0.004,0.121,0.011,0.814,0.010,1.0
66,13943.00,13943.00,0.00,0.950,4177,0.004,0.139,0.012,0.786,0.010,1.2
67,14135.00,14135.00,0.00,0.926,4235,0.005,0.118,0.012,0.779,0.012,1.0
68,13530.00,13530.00,0.00,0.933,4053,0.007,0.108,0.011,0.796,0.011,1.0
69,14461.00,14461.00,0.00,0.887,4332,0.003,0.113,0.010,0.750,0.011,1.0
70,14101.00,14101.00,0.00,0.976,4224,0.004,0.079,0.012,0.869,0.012,0.8
71,14391.00,14391.00,0.00,1.037,4311,0.004,0.122,0.009,0.892,0.010,1.0
72,13944.00,13944.00,0.00,0.875,4177,0.006,0.126,0.012,0.721,0.010,1.1
73,13409.00,13409.00,0.00,1.045,4017,0.004,0.120,0.011,0.899,0.011,1.1
74,9132.00,9132.00,0.00,0.943,2736,0.004,0.084,0.009,0.834,0.012,0.9
