Second,Ops/sec,Hits/sec,Misses/sec,Latency,KB/sec,Request_Creation_Time,Request_Buffer_Time,MW_Writes_To_Memcached_Time,Memcached_Process_Time,MW_Writes_To_Memtier_Time,Queue_Size
4,1777.00,1777.00,0.00,1.703,533,0.024,0.414,0.042,1.181,0.042,2.1
5,10987.00,10987.00,0.00,1.146,3292,0.007,0.101,0.014,1.012,0.012,0.9
6,14179.00,14179.00,0.00,0.965,4248,0.004,0.165,0.011,0.772,0.013,1.0
7,13790.00,13790.00,0.00,0.925,4131,0.006,0.155,0.013,0.737,0.012,1.2
8,15063.00,15063.00,0.00,0.946,4513,0.005,0.101,0.012,0.817,0.011,0.9
9,12824.00,12802.00,22.00,0.999,3835,0.006,0.128,0.015,0.836,0.014,1.1
10,14238.00,14236.00,2.00,0.940,4265,0.005,0.127,0.011,0.783,0.014,1.1
11,14553.00,14553.00,0.00,0.924,4360,0.006,0.093,0.011,0.805,0.010,1.0
12,14808.00,14808.00,0.00,0.993,4436,0.003,0.129,0.010,0.840,0.011,1.1
13,15347.00,15347.00,0.00,0.871,4597,0.003,0.081,0.010,0.766,0.011,0.8
14,15029.00,15029.00,0.00,0.948,4502,0.004,0.088,0.010,0.835,0.011,0.8
15,15176.00,15176.00,0.00,0.899,4546,0.005,0.090,0.010,0.784,0.010,0.8
16,15230.00,15216.00,14.00,0.835,4559,0.004,0.076,0.011,0.734,0.010,0.9
17,13675.00,13671.00,4.00,1.097,4096,0.004,0.143,0.010,0.928,0.011,1.2
18,15354.00,15348.00,6.00,0.920,4598,0.005,0.096,0.010,0.799,0.011,0.9
19,14687.00,14687.00,0.00,0.886,4400,0.004,0.101,0.013,0.758,0.010,0.9
20,14345.00,14345.00,0.00,1.071,4298,0.004,0.108,0.012,0.937,0.011,1.0
21,15082.00,15082.00,0.00,0.895,4519,0.004,0.074,0.012,0.792,0.013,0.8
22,14880.00,14880.00,0.00,0.919,4458,0.004,0.085,0.011,0.808,0.011,0.9
23,14158.00,14158.00,0.00,1.022,4242,0.005,0.125,0.011,0.868,0.012,1.0
24,14844.00,14844.00,0.00,1.032,4447,0.003,0.079,0.010,0.929,0.010,0.8
25,15467.00,15467.00,0.00,0.943,4634,0.003,0.091,0.010,0.828,0.012,0.9
26,14633.00,14633.00,0.00,1.025,4384,0.004,0.092,0.011,0.907,0.010,0.9
27,15170.00,15170.00,0.00,0.896,4545,0.004,0.084,0.011,0.785,0.013,0.8
28,14169.00,14169.00,0.00,0.965,4245,0.003,0.166,0.011,0.775,0.010,1.3
29,14260.00,14260.00,0.00,1.058,4272,0.003,0.105,0.010,0.929,0.010,0.9
30,15146.00,15146.00,0.00,0.961,4538,0.003,0.125,0.010,0.812,0.011,1.2
31,15145.00,15145.00,0.00,0.901,4537,0.004,0.092,0.011,0.780,0.013,0.8
32,15067.00,15067.00,0.00,0.988,4514,0.003,0.085,0.010,0.879,0.011,0.9
33,14552.00,14552.00,0.00,1.018,4360,0.004,0.150,0.009,0.844,0.011,1.2
34,14413.00,14413.00,0.00,0.989,4318,0.004,0.137,0.010,0.827,0.011,1.0
35,15562.00,15561.00,1.00,0.893,4662,0.004,0.099,0.012,0.769,0.010,1.0
36,13739.00,13735.00,4.00,1.040,4115,0.003,0.152,0.009,0.863,0.012,1.3
37,15060.00,15049.00,11.00,0.842,4509,0.004,0.117,0.011,0.700,0.011,1.2
38,14252.00,14250.00,2.00,0.988,4269,0.003,0.164,0.011,0.800,0.011,1.4
39,14446.00,14429.00,17.00,1.030,4323,0.003,0.124,0.010,0.882,0.010,1.2
40,15347.00,15333.00,14.00,0.963,4594,0.003,0.110,0.010,0.829,0.010,1.1
41,15046.00,15040.00,6.00,0.936,4506,0.003,0.101,0.011,0.811,0.010,1.1
42,15076.00,15072.00,4.00,0.953,4516,0.004,0.098,0.011,0.830,0.010,0.9
43,15007.00,15001.00,6.00,0.967,4494,0.003,0.075,0.012,0.866,0.011,0.9
44,15011.00,15008.00,3.00,0.913,4496,0.004,0.100,0.009,0.789,0.011,0.9
45,14707.00,14704.00,3.00,0.962,4405,0.005,0.100,0.010,0.836,0.011,1.0
46,15284.00,15283.00,1.00,0.926,4578,0.003,0.089,0.011,0.813,0.010,0.9
47,14842.00,14842.00,0.00,0.870,4447,0.005,0.105,0.011,0.738,0.011,1.0
48,13941.00,13941.00,0.00,1.029,4177,0.004,0.117,0.011,0.887,0.010,1.0
49,14610.00,14610.00,0.00,0.930,4377,0.004,0.107,0.011,0.799,0.010,0.9
50,15277.00,15277.00,0.00,0.885,4577,0.003,0.134,0.011,0.725,0.011,1.2
51,14098.00,14098.00,0.00,1.026,4223,0.005,0.125,0.012,0.874,0.010,1.1
52,15463.00,15463.00,0.00,0.869,4633,0.003,0.097,0.011,0.747,0.010,0.9
53,14717.00,14717.00,0.00,0.945,4409,0.005,0.128,0.011,0.791,0.010,1.2
54,14014.00,14014.00,0.00,1.065,4198,0.004,0.120,0.010,0.921,0.010,1.1
55,14693.00,14693.00,0.00,0.968,4402,0.005,0.127,0.010,0.815,0.011,1.2
56,14903.00,14903.00,0.00,0.983,4465,0.004,0.142,0.010,0.817,0.010,1.2
57,14336.00,14336.00,0.00,0.986,4295,0.004,0.133,0.012,0.825,0.012,1.2
58,14751.00,14751.00,0.00,0.960,4419,0.004,0.111,0.011,0.823,0.011,1.1
59,14394.00,14394.00,0.00,0.908,4312,0.003,0.117,0.011,0.766,0.011,1.2
60,13629.00,13629.00,0.00,1.087,4083,0.003,0.156,0.011,0.905,0.012,1.3
61,14572.00,14572.00,0.00,0.920,4365,0.003,0.150,0.010,0.745,0.011,1.3
62,15044.00,15044.00,0.00,0.878,4507,0.004,0.106,0.011,0.748,0.010,1.1
63,14406.00,14406.00,0.00,0.982,4316,0.003,0.125,0.010,0.834,0.011,1.0
64,15387.00,15387.00,0.00,0.914,4610,0.004,0.107,0.011,0.781,0.011,1.0
65,14463.00,14463.00,0.00,0.914,4333,0.004,0.116,0.010,0.773,0.012,1.1
66,13350.00,13350.00,0.00,1.108,3999,0.003,0.135,0.010,0.947,0.012,1.1
67,14709.00,14709.00,0.00,0.954,4406,0.004,0.086,0.009,0.845,0.010,0.9
68,15062.00,15062.00,0.00,0.890,4512,0.004,0.101,0.011,0.763,0.011,1.0
69,15231.00,15231.00,0.00,0.976,4563,0.004,0.081,0.009,0.873,0.009,0.8
70,14634.00,14634.00,0.00,0.972,4384,0.004,0.105,0.010,0.841,0.011,1.0
71,15262.00,15262.00,0.00,0.924,4572,0.003,0.089,0.010,0.809,0.012,1.0
72,14902.00,14902.00,0.00,1.003,4464,0.003,0.119,0.011,0.860,0.010,1.0
73,15460.00,15460.00,0.00,0.926,4631,0.004,0.084,0.011,0.816,0.011,0.8
74,11782.00,11782.00,0.00,0.808,3530,0.004,0.085,0.011,0.698,0.011,0.8
