Second,Ops/sec,Hits/sec,Misses/sec,Latency,KB/sec,Request_Creation_Time,Request_Buffer_Time,MW_Writes_To_Memcached_Time,Memcached_Process_Time,MW_Writes_To_Memtier_Time,Queue_Size
4,1266.00,1266.00,0.00,1.102,696,0.024,0.128,0.029,0.883,0.038,0.7
5,6578.00,6578.00,0.00,1.061,3615,0.007,0.128,0.013,0.897,0.016,0.8
6,10730.00,10730.00,0.00,0.632,5897,0.005,0.096,0.010,0.511,0.011,0.7
7,10914.00,10912.00,2.00,0.630,5997,0.004,0.097,0.010,0.508,0.011,0.8
8,10201.00,10191.00,10.00,0.660,5600,0.004,0.099,0.013,0.532,0.011,0.7
9,11018.00,11018.00,0.00,0.605,6056,0.004,0.099,0.010,0.481,0.011,0.8
10,11504.00,11504.00,0.00,0.586,6322,0.004,0.084,0.010,0.477,0.011,0.8
11,10838.00,10838.00,0.00,0.646,5956,0.004,0.100,0.009,0.522,0.011,0.8
12,10832.00,10832.00,0.00,0.595,5953,0.004,0.089,0.009,0.482,0.011,0.8
13,11501.00,11489.00,12.00,0.579,6314,0.003,0.092,0.009,0.463,0.011,0.8
14,9394.00,9394.00,0.00,0.725,5163,0.003,0.131,0.009,0.570,0.011,0.9
15,12261.00,12261.00,0.00,0.522,6739,0.003,0.074,0.009,0.425,0.010,0.7
16,10658.00,10658.00,0.00,0.635,5858,0.003,0.115,0.009,0.497,0.011,0.9
17,11095.00,11095.00,0.00,0.646,6098,0.003,0.109,0.010,0.513,0.011,0.8
18,12415.00,12415.00,0.00,0.552,6823,0.003,0.083,0.009,0.447,0.011,0.8
19,11672.00,11672.00,0.00,0.567,6415,0.003,0.096,0.009,0.448,0.010,0.8
20,11039.00,11039.00,0.00,0.610,6067,0.003,0.094,0.009,0.494,0.011,0.8
21,11777.00,11777.00,0.00,0.569,6473,0.003,0.087,0.009,0.458,0.012,0.8
22,11155.00,11155.00,0.00,0.636,6131,0.003,0.107,0.009,0.507,0.011,0.8
23,11342.00,11342.00,0.00,0.618,6233,0.003,0.102,0.009,0.493,0.011,0.8
24,12207.00,12207.00,0.00,0.540,6709,0.003,0.082,0.009,0.436,0.011,0.8
25,10639.00,10639.00,0.00,0.628,5847,0.003,0.108,0.009,0.497,0.011,0.9
26,11488.00,11483.00,5.00,0.604,6311,0.003,0.101,0.010,0.480,0.011,0.8
27,11750.00,11742.00,8.00,0.582,6453,0.003,0.085,0.009,0.474,0.011,0.7
28,11118.00,11106.00,12.00,0.609,6104,0.003,0.104,0.009,0.483,0.011,0.8
29,11182.00,11172.00,10.00,0.635,6140,0.003,0.112,0.009,0.500,0.011,0.8
30,11115.00,11114.00,1.00,0.615,6108,0.003,0.101,0.009,0.491,0.011,0.8
31,11084.00,11084.00,0.00,0.602,6092,0.003,0.093,0.009,0.487,0.011,0.8
32,10462.00,10462.00,0.00,0.711,5750,0.003,0.135,0.010,0.552,0.011,0.9
33,12467.00,12467.00,0.00,0.521,6851,0.003,0.073,0.009,0.426,0.010,0.7
34,11621.00,11621.00,0.00,0.587,6387,0.003,0.087,0.009,0.476,0.011,0.8
35,11392.00,11392.00,0.00,0.617,6261,0.003,0.110,0.009,0.484,0.011,0.9
36,11563.00,11563.00,0.00,0.608,6355,0.003,0.110,0.009,0.476,0.010,0.9
37,11270.00,11270.00,0.00,0.637,6194,0.003,0.104,0.009,0.510,0.011,0.8
38,11487.00,11487.00,0.00,0.599,6313,0.004,0.095,0.009,0.480,0.011,0.8
39,11805.00,11805.00,0.00,0.561,6488,0.003,0.081,0.009,0.457,0.011,0.7
40,12246.00,12246.00,0.00,0.523,6730,0.003,0.076,0.009,0.425,0.011,0.8
41,11241.00,11241.00,0.00,0.627,6178,0.004,0.101,0.009,0.503,0.010,0.8
42,10707.00,10707.00,0.00,0.633,5884,0.003,0.109,0.009,0.500,0.011,0.8
43,11526.00,11526.00,0.00,0.568,6335,0.003,0.094,0.009,0.452,0.011,0.7
44,11621.00,11621.00,0.00,0.589,6387,0.003,0.092,0.010,0.474,0.011,0.8
45,11841.00,11841.00,0.00,0.557,6508,0.003,0.084,0.010,0.450,0.010,0.7
46,11258.00,11258.00,0.00,0.587,6187,0.003,0.095,0.009,0.469,0.011,0.8
47,10760.00,10760.00,0.00,0.624,5913,0.004,0.125,0.009,0.477,0.011,1.0
48,11558.00,11558.00,0.00,0.601,6352,0.003,0.095,0.009,0.483,0.011,0.8
49,12197.00,12197.00,0.00,0.536,6703,0.003,0.076,0.009,0.437,0.011,0.8
50,11931.00,11931.00,0.00,0.579,6557,0.003,0.090,0.009,0.466,0.011,0.8
51,11469.00,11469.00,0.00,0.613,6303,0.003,0.103,0.009,0.487,0.011,0.8
52,11130.00,11130.00,0.00,0.607,6117,0.003,0.111,0.009,0.473,0.011,0.9
53,11263.00,11263.00,0.00,0.608,6190,0.003,0.098,0.009,0.488,0.011,0.8
54,10995.00,10995.00,0.00,0.622,6042,0.003,0.103,0.009,0.496,0.011,0.8
55,11996.00,11996.00,0.00,0.535,6593,0.003,0.078,0.009,0.435,0.011,0.8
56,11767.00,11767.00,0.00,0.588,6467,0.004,0.089,0.009,0.475,0.011,0.8
57,11272.00,11272.00,0.00,0.611,6195,0.003,0.098,0.009,0.490,0.011,0.8
58,10258.00,10258.00,0.00,0.658,5638,0.003,0.112,0.011,0.522,0.011,0.8
59,11714.00,11714.00,0.00,0.571,6438,0.003,0.082,0.009,0.467,0.010,0.8
60,11460.00,11460.00,0.00,0.599,6298,0.003,0.093,0.009,0.484,0.010,0.8
61,11893.00,11893.00,0.00,0.549,6536,0.003,0.081,0.009,0.445,0.010,0.8
62,11002.00,11002.00,0.00,0.627,6047,0.003,0.108,0.009,0.497,0.010,0.9
63,10034.00,10034.00,0.00,0.696,5515,0.003,0.130,0.010,0.542,0.011,0.8
64,12239.00,12239.00,0.00,0.533,6726,0.003,0.074,0.009,0.437,0.010,0.7
65,11824.00,11824.00,0.00,0.581,6498,0.003,0.089,0.009,0.469,0.011,0.8
66,11107.00,11107.00,0.00,0.633,6104,0.003,0.104,0.009,0.507,0.010,0.8
67,12418.00,12418.00,0.00,0.521,6825,0.003,0.077,0.009,0.422,0.010,0.8
68,10944.00,10944.00,0.00,0.624,6015,0.003,0.102,0.009,0.499,0.011,0.8
69,10616.00,10616.00,0.00,0.632,5834,0.003,0.106,0.009,0.503,0.011,0.8
70,11571.00,11570.00,1.00,0.549,6359,0.003,0.073,0.009,0.453,0.011,0.8
71,11057.00,11054.00,3.00,0.642,6075,0.003,0.104,0.009,0.514,0.011,0.8
72,10758.00,10752.00,6.00,0.660,5909,0.003,0.116,0.009,0.520,0.011,0.9
73,11265.00,11258.00,7.00,0.586,6187,0.003,0.089,0.009,0.473,0.011,0.8
74,8587.00,8578.00,9.00,0.575,4714,0.003,0.083,0.009,0.468,0.011,0.8
