Second,Ops/sec,Hits/sec,Misses/sec,Latency,KB/sec,Request_Creation_Time,Request_Buffer_Time,MW_Writes_To_Memcached_Time,Memcached_Process_Time,MW_Writes_To_Memtier_Time,Queue_Size
4,1434.00,1434.00,0.00,1.235,430,0.017,0.149,0.025,1.012,0.033,0.8
5,8832.00,8832.00,0.00,0.748,2646,0.006,0.080,0.012,0.636,0.014,0.7
6,11989.00,11989.00,0.00,0.551,3592,0.004,0.078,0.011,0.447,0.012,0.8
7,10556.00,10544.00,12.00,0.659,3159,0.005,0.103,0.011,0.529,0.012,0.8
8,10830.00,10830.00,0.00,0.624,3244,0.005,0.085,0.010,0.512,0.012,0.8
9,10522.00,10522.00,0.00,0.670,3152,0.004,0.118,0.010,0.526,0.011,0.9
10,12157.00,12157.00,0.00,0.551,3642,0.004,0.082,0.010,0.446,0.010,0.8
11,11358.00,11358.00,0.00,0.609,3403,0.003,0.102,0.009,0.484,0.010,0.8
12,11554.00,11545.00,9.00,0.556,3459,0.003,0.078,0.009,0.455,0.011,0.8
13,11608.00,11605.00,3.00,0.601,3476,0.003,0.102,0.009,0.476,0.011,0.9
14,10735.00,10735.00,0.00,0.633,3216,0.004,0.109,0.009,0.501,0.010,0.8
15,12100.00,12100.00,0.00,0.556,3625,0.003,0.085,0.009,0.449,0.010,0.8
16,12884.00,12884.00,0.00,0.523,3860,0.003,0.073,0.009,0.426,0.011,0.8
17,11507.00,11507.00,0.00,0.598,3448,0.004,0.090,0.009,0.485,0.011,0.8
18,11595.00,11595.00,0.00,0.578,3474,0.003,0.086,0.009,0.470,0.010,0.8
19,11190.00,11190.00,0.00,0.618,3353,0.003,0.089,0.009,0.506,0.011,0.8
20,10893.00,10893.00,0.00,0.612,3264,0.003,0.104,0.009,0.486,0.010,0.8
21,10913.00,10913.00,0.00,0.632,3269,0.003,0.104,0.009,0.505,0.010,0.8
22,11939.00,11939.00,0.00,0.564,3577,0.003,0.085,0.009,0.457,0.010,0.8
23,11802.00,11802.00,0.00,0.565,3536,0.004,0.086,0.009,0.456,0.010,0.8
24,10622.00,10622.00,0.00,0.656,3182,0.003,0.117,0.009,0.516,0.011,0.9
25,11005.00,11003.00,2.00,0.638,3297,0.003,0.103,0.009,0.513,0.010,0.9
26,11459.00,11449.00,10.00,0.591,3430,0.003,0.100,0.009,0.470,0.010,0.8
27,11248.00,11243.00,5.00,0.602,3368,0.003,0.103,0.009,0.477,0.010,0.8
28,11371.00,11356.00,15.00,0.606,3402,0.003,0.105,0.009,0.478,0.010,0.8
29,11475.00,11471.00,4.00,0.601,3436,0.003,0.097,0.009,0.481,0.011,0.8
30,11408.00,11408.00,0.00,0.602,3418,0.003,0.094,0.009,0.486,0.010,0.8
31,11796.00,11796.00,0.00,0.543,3534,0.003,0.081,0.009,0.440,0.010,0.8
32,10569.00,10569.00,0.00,0.670,3166,0.003,0.124,0.009,0.522,0.011,0.9
33,11295.00,11295.00,0.00,0.589,3384,0.003,0.099,0.009,0.467,0.011,0.8
34,12608.00,12608.00,0.00,0.521,3777,0.003,0.073,0.009,0.426,0.010,0.8
35,10629.00,10629.00,0.00,0.666,3184,0.003,0.116,0.009,0.528,0.011,0.9
36,11362.00,11362.00,0.00,0.594,3404,0.004,0.097,0.009,0.475,0.010,0.9
37,12226.00,12226.00,0.00,0.530,3663,0.003,0.076,0.009,0.432,0.011,0.8
38,11208.00,11208.00,0.00,0.623,3358,0.003,0.109,0.009,0.491,0.011,0.8
39,11948.00,11948.00,0.00,0.572,3579,0.003,0.091,0.009,0.459,0.010,0.8
40,11411.00,11411.00,0.00,0.582,3419,0.003,0.084,0.009,0.475,0.011,0.8
41,11703.00,11703.00,0.00,0.583,3506,0.003,0.088,0.009,0.472,0.011,0.8
42,7700.00,7700.00,0.00,1.063,2307,0.003,0.256,0.009,0.784,0.011,1.0
43,5092.00,5092.00,0.00,1.903,1525,0.003,0.498,0.009,1.380,0.012,1.1
44,6328.00,6328.00,0.00,1.471,1896,0.003,0.369,0.009,1.078,0.011,0.9
45,3836.00,3836.00,0.00,2.680,1149,0.004,0.761,0.009,1.893,0.013,1.1
46,10519.00,10519.00,0.00,0.672,3151,0.003,0.115,0.009,0.535,0.011,0.8
47,11653.00,11653.00,0.00,0.586,3491,0.003,0.095,0.009,0.469,0.011,0.8
48,11145.00,11145.00,0.00,0.603,3339,0.003,0.102,0.009,0.478,0.011,0.8
49,10198.00,10198.00,0.00,0.689,3055,0.004,0.129,0.009,0.535,0.012,0.8
50,8274.00,8274.00,0.00,0.973,2479,0.003,0.212,0.009,0.739,0.010,0.8
51,8103.00,8103.00,0.00,1.013,2428,0.003,0.219,0.009,0.772,0.011,0.8
52,7884.00,7884.00,0.00,1.031,2362,0.003,0.235,0.009,0.774,0.011,0.9
53,8060.00,8060.00,0.00,1.007,2415,0.003,0.228,0.009,0.757,0.011,1.0
54,8001.00,8001.00,0.00,1.050,2397,0.003,0.237,0.010,0.790,0.010,0.8
55,7890.00,7890.00,0.00,1.072,2364,0.003,0.245,0.009,0.804,0.011,0.9
56,9784.00,9784.00,0.00,0.799,2931,0.003,0.157,0.009,0.619,0.011,0.9
57,10768.00,10768.00,0.00,0.646,3226,0.003,0.112,0.009,0.511,0.011,0.8
58,9349.00,9349.00,0.00,0.788,2801,0.003,0.180,0.009,0.585,0.010,0.9
59,8620.00,8620.00,0.00,0.975,2582,0.003,0.216,0.008,0.737,0.010,0.9
60,9630.00,9630.00,0.00,0.760,2885,0.003,0.130,0.009,0.606,0.011,0.8
61,8826.00,8826.00,0.00,0.902,2644,0.003,0.179,0.009,0.699,0.011,0.9
62,9898.00,9898.00,0.00,0.765,2965,0.003,0.136,0.009,0.606,0.011,0.9
63,10433.00,10433.00,0.00,0.694,3126,0.003,0.122,0.009,0.549,0.011,0.9
64,9411.00,9411.00,0.00,0.818,2819,0.003,0.158,0.009,0.637,0.011,0.8
65,5268.00,5268.00,0.00,1.808,1578,0.004,0.486,0.009,1.298,0.012,1.0
66,3864.00,3864.00,0.00,2.616,1158,0.004,0.722,0.009,1.869,0.012,1.0
67,3890.00,3890.00,0.00,2.617,1165,0.004,0.733,0.009,1.859,0.012,1.1
68,3871.00,3871.00,0.00,2.606,1160,0.004,0.720,0.010,1.861,0.012,1.1
69,3530.00,3530.00,0.00,2.948,1058,0.004,0.846,0.009,2.078,0.012,1.1
70,3571.00,3571.00,0.00,2.901,1070,0.004,0.824,0.009,2.052,0.012,1.1
71,3524.00,3524.00,0.00,2.945,1056,0.004,0.831,0.009,2.087,0.013,1.2
72,3703.00,3703.00,0.00,2.778,1109,0.003,0.787,0.009,1.966,0.012,1.1
73,3660.00,3660.00,0.00,2.838,1097,0.004,0.805,0.009,2.008,0.012,1.1
74,2703.00,2703.00,0.00,2.886,810,0.004,0.811,0.009,2.050,0.013,1.1
