Second,Ops/sec,Hits/sec,Misses/sec,Latency,KB/sec,Request_Creation_Time,Request_Buffer_Time,MW_Writes_To_Memcached_Time,Memcached_Process_Time,MW_Writes_To_Memtier_Time,Queue_Size
4,4088.00,4088.00,0.00,1.846,1225,0.025,0.329,0.028,1.403,0.061,3.7
5,17414.00,17414.00,0.00,1.372,5217,0.006,0.192,0.012,1.148,0.014,2.5
6,18541.00,18541.00,0.00,1.291,5555,0.006,0.250,0.011,1.011,0.012,3.0
7,17863.00,17863.00,0.00,1.302,5351,0.005,0.281,0.013,0.991,0.011,3.2
8,17890.00,17890.00,0.00,1.341,5359,0.004,0.236,0.011,1.077,0.013,2.6
9,17623.00,17623.00,0.00,1.532,5280,0.006,0.316,0.011,1.188,0.012,3.0
10,18308.00,18304.00,4.00,1.381,5484,0.005,0.294,0.011,1.057,0.013,3.0
11,18842.00,18808.00,34.00,1.387,5634,0.005,0.261,0.013,1.096,0.012,2.8
12,18642.00,18632.00,10.00,1.268,5581,0.005,0.251,0.011,0.988,0.014,2.7
13,18924.00,18924.00,0.00,1.378,5669,0.004,0.259,0.010,1.093,0.013,2.8
14,20084.00,20084.00,0.00,1.134,6017,0.004,0.206,0.013,0.899,0.012,2.8
15,18873.00,18873.00,0.00,1.178,5654,0.004,0.202,0.010,0.951,0.011,2.6
16,20494.00,20494.00,0.00,1.186,6140,0.003,0.186,0.011,0.976,0.010,2.4
17,20006.00,20006.00,0.00,1.105,5993,0.004,0.198,0.010,0.882,0.010,2.5
18,18755.00,18755.00,0.00,1.159,5619,0.004,0.209,0.012,0.922,0.012,2.7
19,18687.00,18687.00,0.00,1.431,5598,0.004,0.316,0.010,1.090,0.011,3.0
20,18895.00,18895.00,0.00,1.207,5660,0.003,0.271,0.010,0.910,0.013,3.2
21,18780.00,18779.00,1.00,1.159,5626,0.003,0.211,0.014,0.916,0.014,2.8
22,18544.00,18530.00,14.00,1.275,5552,0.004,0.243,0.012,1.004,0.012,2.6
23,19985.00,19967.00,18.00,1.130,5982,0.003,0.207,0.012,0.896,0.012,2.8
24,18050.00,18041.00,9.00,1.320,5405,0.004,0.257,0.010,1.037,0.011,2.6
25,18594.00,18591.00,3.00,1.352,5570,0.005,0.266,0.010,1.058,0.012,3.1
26,19886.00,19883.00,3.00,1.118,5957,0.005,0.212,0.012,0.879,0.011,2.6
27,19485.00,19485.00,0.00,1.173,5838,0.004,0.211,0.010,0.935,0.012,2.9
28,19282.00,19282.00,0.00,1.317,5777,0.004,0.295,0.012,0.993,0.013,2.9
29,18766.00,18766.00,0.00,1.212,5622,0.003,0.227,0.013,0.954,0.015,2.8
30,19428.00,19428.00,0.00,1.149,5821,0.005,0.211,0.010,0.911,0.013,2.8
31,18970.00,18970.00,0.00,1.296,5683,0.004,0.263,0.010,1.006,0.013,2.9
32,19083.00,19083.00,0.00,1.235,5718,0.004,0.217,0.009,0.994,0.011,2.7
33,19135.00,19135.00,0.00,1.216,5733,0.004,0.253,0.012,0.936,0.011,2.9
34,19332.00,19332.00,0.00,1.373,5792,0.004,0.291,0.010,1.058,0.011,3.1
35,18993.00,18993.00,0.00,1.106,5690,0.004,0.196,0.012,0.879,0.014,2.6
36,19422.00,19422.00,0.00,1.198,5819,0.004,0.231,0.010,0.941,0.011,2.8
37,18945.00,18945.00,0.00,1.355,5676,0.003,0.295,0.010,1.037,0.010,3.0
38,19810.00,19810.00,0.00,1.098,5935,0.004,0.196,0.011,0.873,0.012,2.6
39,18926.00,18926.00,0.00,1.271,5670,0.005,0.236,0.012,1.007,0.011,2.6
40,18758.00,18758.00,0.00,1.346,5620,0.004,0.272,0.010,1.049,0.012,2.8
41,19131.00,19131.00,0.00,1.188,5732,0.003,0.227,0.012,0.933,0.012,3.3
42,19231.00,19231.00,0.00,1.181,5761,0.006,0.239,0.011,0.913,0.012,2.7
43,18347.00,18347.00,0.00,1.359,5497,0.003,0.249,0.011,1.084,0.012,2.9
44,18978.00,18978.00,0.00,1.221,5686,0.005,0.254,0.012,0.938,0.012,3.0
45,19307.00,19307.00,0.00,1.116,5784,0.005,0.200,0.010,0.890,0.012,2.5
46,19305.00,19305.00,0.00,1.259,5784,0.005,0.233,0.011,0.998,0.011,2.6
47,18258.00,18258.00,0.00,1.349,5470,0.004,0.274,0.010,1.049,0.011,3.0
48,19878.00,19878.00,0.00,1.116,5955,0.004,0.171,0.011,0.918,0.011,2.4
49,18802.00,18802.00,0.00,1.376,5633,0.005,0.286,0.010,1.063,0.012,2.9
50,18367.00,18367.00,0.00,1.376,5502,0.004,0.296,0.012,1.051,0.014,2.7
51,20736.00,20735.00,1.00,1.022,6212,0.005,0.169,0.010,0.826,0.012,2.6
52,19355.00,19348.00,7.00,1.267,5797,0.004,0.239,0.011,1.000,0.013,2.7
53,18485.00,18478.00,7.00,1.382,5536,0.005,0.275,0.012,1.076,0.014,3.0
54,18669.00,18663.00,6.00,1.269,5591,0.005,0.251,0.012,0.987,0.013,2.6
55,19286.00,19275.00,11.00,1.162,5775,0.005,0.209,0.014,0.921,0.013,2.6
56,19474.00,19462.00,12.00,1.211,5831,0.004,0.182,0.014,0.996,0.014,2.6
57,19215.00,19203.00,12.00,1.112,5753,0.005,0.203,0.010,0.882,0.012,2.4
58,19348.00,19331.00,17.00,1.122,5792,0.004,0.182,0.011,0.913,0.012,2.6
59,18965.00,18950.00,15.00,1.360,5677,0.004,0.255,0.011,1.079,0.012,2.9
60,19316.00,19302.00,14.00,1.163,5783,0.006,0.201,0.010,0.934,0.013,3.0
61,19178.00,19173.00,5.00,1.209,5744,0.005,0.212,0.012,0.967,0.013,2.6
62,18183.00,18176.00,7.00,1.379,5445,0.006,0.279,0.010,1.074,0.011,2.9
63,19352.00,19345.00,7.00,1.188,5796,0.004,0.229,0.009,0.932,0.014,3.0
64,18652.00,18645.00,7.00,1.386,5586,0.004,0.260,0.011,1.101,0.010,2.9
65,19205.00,19200.00,5.00,1.229,5752,0.003,0.223,0.011,0.980,0.012,2.7
66,19234.00,19230.00,4.00,1.126,5761,0.003,0.208,0.010,0.894,0.011,2.6
67,18806.00,18803.00,3.00,1.204,5633,0.004,0.209,0.011,0.966,0.014,3.0
68,19384.00,19384.00,0.00,1.326,5807,0.004,0.262,0.012,1.036,0.012,2.8
69,19343.00,19340.00,3.00,1.239,5794,0.003,0.226,0.009,0.987,0.013,2.8
70,18805.00,18805.00,0.00,1.263,5634,0.004,0.238,0.012,0.997,0.012,2.7
71,18499.00,18498.00,1.00,1.385,5542,0.005,0.328,0.009,1.031,0.012,3.1
72,19673.00,19673.00,0.00,1.262,5894,0.004,0.242,0.011,0.994,0.011,3.0
73,19407.00,19407.00,0.00,1.234,5814,0.003,0.209,0.010,0.998,0.013,2.6
74,11441.00,11441.00,0.00,1.245,3427,0.005,0.215,0.012,1.001,0.012,2.3
