Second,Ops/sec,Hits/sec,Misses/sec,Latency,KB/sec,Request_Creation_Time,Request_Buffer_Time,MW_Writes_To_Memcached_Time,Memcached_Process_Time,MW_Writes_To_Memtier_Time,Queue_Size
4,3165.00,3165.00,0.00,2.525,1740,0.010,0.670,0.040,1.698,0.107,7.2
5,17122.00,17122.00,0.00,2.031,9411,0.005,0.807,0.012,1.190,0.016,13.3
6,22653.00,22653.00,0.00,1.857,12450,0.004,0.837,0.010,0.995,0.011,21.9
7,21943.00,21943.00,0.00,2.271,12060,0.005,1.082,0.010,1.162,0.012,25.1
8,21650.00,21650.00,0.00,2.102,11898,0.006,0.883,0.008,1.192,0.012,23.3
9,22530.00,22530.00,0.00,1.964,12382,0.003,0.920,0.009,1.020,0.012,23.9
10,21879.00,21879.00,0.00,2.218,12024,0.003,1.108,0.010,1.085,0.012,25.0
11,22867.00,22867.00,0.00,1.964,12567,0.004,0.937,0.008,1.005,0.010,23.2
12,21939.00,21939.00,0.00,2.047,12058,0.003,0.970,0.009,1.054,0.011,23.0
13,23340.00,23340.00,0.00,1.975,12828,0.004,0.908,0.008,1.044,0.010,23.6
14,21979.00,21977.00,2.00,1.866,12079,0.004,0.827,0.010,1.013,0.012,22.2
15,20839.00,20802.00,37.00,2.359,11432,0.003,1.075,0.011,1.256,0.013,22.9
16,21936.00,21879.00,57.00,2.145,12024,0.004,1.013,0.011,1.102,0.016,24.5
17,21525.00,21525.00,0.00,2.213,11828,0.004,1.084,0.010,1.103,0.013,25.5
18,21530.00,21530.00,0.00,2.142,11832,0.004,0.975,0.011,1.139,0.014,24.2
19,22909.00,22909.00,0.00,2.070,12590,0.003,0.980,0.008,1.065,0.014,24.7
20,22384.00,22384.00,0.00,2.030,12302,0.004,1.007,0.010,0.999,0.011,24.8
21,22456.00,22456.00,0.00,1.959,12342,0.003,0.883,0.008,1.052,0.012,23.8
22,22495.00,22495.00,0.00,2.063,12364,0.004,0.967,0.009,1.071,0.012,23.1
23,22526.00,22526.00,0.00,1.954,12380,0.003,0.895,0.008,1.037,0.011,23.6
24,22098.00,22098.00,0.00,2.002,12144,0.006,0.941,0.010,1.034,0.012,25.1
25,21776.00,21776.00,0.00,2.196,11968,0.003,1.041,0.008,1.133,0.012,22.8
26,22876.00,22876.00,0.00,1.904,12572,0.004,0.866,0.008,1.014,0.011,23.3
27,22594.00,22594.00,0.00,1.903,12417,0.003,0.891,0.009,0.988,0.013,22.5
28,22465.00,22465.00,0.00,1.901,12346,0.003,0.882,0.009,0.997,0.010,21.7
29,22608.00,22608.00,0.00,2.030,12425,0.003,0.969,0.009,1.039,0.010,24.3
30,21978.00,21978.00,0.00,2.126,12079,0.003,1.027,0.008,1.076,0.012,23.8
31,22196.00,22196.00,0.00,2.159,12198,0.003,1.054,0.008,1.082,0.012,24.3
32,22033.00,22033.00,0.00,1.987,12109,0.003,0.944,0.009,1.018,0.013,22.6
33,22393.00,22393.00,0.00,1.966,12307,0.003,0.873,0.010,1.068,0.012,22.4
34,22752.00,22749.00,3.00,2.025,12503,0.004,0.894,0.008,1.104,0.014,22.7
35,22260.00,22238.00,22.00,2.093,12223,0.003,0.991,0.011,1.076,0.011,23.5
36,23620.00,23586.00,34.00,1.660,12963,0.004,0.683,0.008,0.954,0.011,19.4
37,22298.00,22274.00,24.00,2.190,12241,0.003,1.079,0.008,1.088,0.011,25.4
38,22813.00,22804.00,9.00,1.956,12532,0.004,0.898,0.008,1.035,0.011,23.3
39,22496.00,22492.00,4.00,1.819,12361,0.004,0.814,0.008,0.982,0.011,23.2
40,21825.00,21825.00,0.00,2.351,11995,0.003,1.171,0.008,1.159,0.010,25.7
41,22184.00,22184.00,0.00,2.024,12192,0.003,0.956,0.008,1.047,0.010,23.2
42,22496.00,22496.00,0.00,1.825,12364,0.004,0.803,0.009,0.996,0.013,22.5
43,23533.00,23533.00,0.00,2.017,12933,0.004,0.973,0.007,1.023,0.011,25.9
44,21982.00,21982.00,0.00,2.121,12081,0.003,0.987,0.007,1.112,0.011,23.2
45,23098.00,23098.00,0.00,1.966,12695,0.003,0.894,0.007,1.052,0.010,23.6
46,22548.00,22548.00,0.00,2.265,12392,0.004,1.148,0.008,1.095,0.010,26.6
47,22762.00,22762.00,0.00,1.815,12510,0.003,0.781,0.007,1.013,0.010,20.9
48,22505.00,22505.00,0.00,2.125,12369,0.003,1.028,0.007,1.075,0.011,25.6
49,23493.00,23493.00,0.00,1.985,12912,0.003,0.907,0.007,1.057,0.010,23.1
50,22728.00,22728.00,0.00,2.059,12491,0.003,1.019,0.008,1.020,0.010,22.9
51,21804.00,21804.00,0.00,2.324,11983,0.003,1.161,0.007,1.142,0.010,25.8
52,22503.00,22503.00,0.00,2.045,12368,0.003,0.958,0.008,1.065,0.011,23.0
53,22823.00,22823.00,0.00,1.978,12544,0.003,0.911,0.008,1.045,0.012,23.3
54,22166.00,22166.00,0.00,2.072,12183,0.003,0.982,0.011,1.064,0.012,25.0
55,22116.00,22116.00,0.00,2.154,12155,0.003,1.072,0.008,1.061,0.010,24.0
56,23105.00,23105.00,0.00,1.850,12699,0.003,0.841,0.008,0.987,0.012,22.1
57,23173.00,23173.00,0.00,2.001,12736,0.003,0.904,0.008,1.077,0.010,23.3
58,23109.00,23109.00,0.00,1.902,12700,0.003,0.885,0.009,0.994,0.011,21.8
59,22878.00,22878.00,0.00,1.901,12573,0.003,0.855,0.009,1.023,0.011,22.5
60,22886.00,22886.00,0.00,2.055,12578,0.003,0.977,0.010,1.052,0.013,26.2
61,23232.00,23232.00,0.00,1.999,12768,0.003,0.938,0.008,1.039,0.011,23.8
62,22192.00,22192.00,0.00,2.069,12197,0.003,0.958,0.009,1.085,0.014,24.2
63,22740.00,22740.00,0.00,1.982,12498,0.003,0.931,0.009,1.028,0.011,23.1
64,22740.00,22740.00,0.00,2.036,12498,0.003,0.984,0.008,1.030,0.012,23.0
65,21746.00,21746.00,0.00,2.045,11952,0.003,0.970,0.009,1.053,0.010,21.7
66,22771.00,22771.00,0.00,2.077,12515,0.004,1.020,0.008,1.034,0.011,23.8
67,21924.00,21924.00,0.00,1.889,12049,0.004,0.886,0.009,0.978,0.012,24.0
68,23300.00,23300.00,0.00,1.874,12806,0.003,0.838,0.008,1.013,0.012,22.1
69,21766.00,21766.00,0.00,2.178,11962,0.003,1.010,0.008,1.144,0.012,23.4
70,23627.00,23627.00,0.00,1.764,12985,0.003,0.757,0.009,0.983,0.010,22.1
71,21934.00,21934.00,0.00,2.345,12055,0.004,1.185,0.010,1.136,0.010,26.0
72,22405.00,22405.00,0.00,2.038,12313,0.005,0.950,0.009,1.064,0.011,22.0
73,23276.00,23276.00,0.00,1.841,12792,0.003,0.830,0.008,0.990,0.010,22.2
74,19041.00,19041.00,0.00,1.688,10465,0.004,0.705,0.008,0.961,0.011,18.1
75,8112.00,8112.00,0.00,0.655,4458,0.003,0.131,0.010,0.502,0.009,1.2
