Second,Ops/sec,Hits/sec,Misses/sec,Latency,KB/sec,Request_Creation_Time,Request_Buffer_Time,MW_Writes_To_Memcached_Time,Memcached_Process_Time,MW_Writes_To_Memtier_Time,Queue_Size
4,4150.00,4150.00,0.00,1.389,4360,0.014,0.216,0.045,1.088,0.027,1.1
5,9643.00,9643.00,0.00,1.262,10131,0.006,0.101,0.012,1.131,0.012,0.9
6,13672.00,13672.00,0.00,0.896,14363,0.006,0.105,0.014,0.761,0.011,0.8
7,12797.00,12797.00,0.00,0.933,13444,0.007,0.120,0.012,0.781,0.013,0.8
8,13413.00,13413.00,0.00,0.972,14092,0.006,0.108,0.014,0.834,0.010,0.9
9,12202.00,12180.00,22.00,1.026,12796,0.004,0.122,0.016,0.873,0.010,1.0
10,11844.00,11842.00,2.00,1.098,12440,0.006,0.125,0.012,0.942,0.014,1.1
11,13515.00,13515.00,0.00,0.928,14198,0.006,0.098,0.012,0.801,0.011,0.9
12,13281.00,13281.00,0.00,0.929,13953,0.007,0.108,0.011,0.791,0.012,1.0
13,13656.00,13656.00,0.00,0.906,14346,0.008,0.114,0.014,0.757,0.013,1.0
14,13150.00,13150.00,0.00,1.006,13815,0.007,0.125,0.012,0.850,0.013,1.0
15,12855.00,12855.00,0.00,1.097,13505,0.003,0.092,0.012,0.978,0.011,0.8
16,13109.00,13109.00,0.00,0.926,13772,0.006,0.118,0.011,0.779,0.013,1.0
17,13411.00,13406.00,5.00,1.013,14084,0.006,0.105,0.012,0.880,0.011,0.9
18,13709.00,13692.00,17.00,0.881,14384,0.006,0.091,0.011,0.763,0.011,0.9
19,13156.00,13154.00,2.00,0.908,13819,0.006,0.114,0.011,0.765,0.011,0.9
20,13563.00,13563.00,0.00,0.938,14249,0.006,0.113,0.010,0.796,0.013,1.0
21,13411.00,13411.00,0.00,0.922,14089,0.008,0.102,0.011,0.790,0.011,0.8
22,12908.00,12908.00,0.00,0.943,13561,0.007,0.139,0.009,0.777,0.010,1.2
23,13182.00,13182.00,0.00,0.973,13849,0.004,0.129,0.011,0.818,0.012,1.0
24,13487.00,13487.00,0.00,0.894,14169,0.006,0.092,0.012,0.775,0.011,0.8
25,13516.00,13516.00,0.00,0.922,14200,0.004,0.108,0.012,0.784,0.014,1.0
26,13558.00,13558.00,0.00,0.989,14244,0.006,0.106,0.013,0.854,0.011,0.9
27,13600.00,13600.00,0.00,1.013,14288,0.007,0.085,0.013,0.896,0.011,0.9
28,13455.00,13455.00,0.00,0.950,14135,0.004,0.144,0.010,0.780,0.012,1.2
29,13686.00,13686.00,0.00,0.928,14378,0.004,0.126,0.011,0.775,0.012,1.1
30,13350.00,13350.00,0.00,1.046,14025,0.006,0.137,0.010,0.883,0.011,1.0
31,13767.00,13767.00,0.00,0.860,14463,0.007,0.106,0.011,0.725,0.011,0.9
32,13427.00,13427.00,0.00,0.984,14106,0.006,0.110,0.011,0.846,0.011,1.0
33,13128.00,13128.00,0.00,1.016,13792,0.005,0.110,0.012,0.879,0.011,0.9
34,13824.00,13824.00,0.00,0.909,14523,0.005,0.089,0.010,0.791,0.014,0.9
35,13354.00,13354.00,0.00,0.912,14029,0.005,0.097,0.012,0.786,0.013,1.0
36,13469.00,13469.00,0.00,0.977,14150,0.006,0.106,0.011,0.843,0.011,0.9
37,13938.00,13938.00,0.00,0.961,14643,0.004,0.112,0.010,0.824,0.011,0.9
38,14155.00,14155.00,0.00,0.870,14871,0.005,0.118,0.012,0.723,0.013,1.0
39,13676.00,13673.00,3.00,0.965,14365,0.007,0.110,0.012,0.827,0.010,0.9
40,13564.00,13554.00,10.00,0.940,14240,0.007,0.113,0.012,0.799,0.010,1.0
41,13945.00,13939.00,6.00,0.864,14644,0.004,0.089,0.011,0.747,0.012,0.9
42,13371.00,13363.00,8.00,0.969,14039,0.006,0.098,0.010,0.844,0.011,0.9
43,13301.00,13288.00,13.00,0.886,13960,0.007,0.111,0.010,0.747,0.011,0.9
44,13334.00,13320.00,14.00,0.970,13994,0.004,0.134,0.013,0.808,0.011,1.2
45,13307.00,13300.00,7.00,1.049,13972,0.007,0.113,0.010,0.909,0.011,0.9
46,13785.00,13780.00,5.00,0.896,14477,0.006,0.087,0.012,0.780,0.012,0.8
47,13481.00,13477.00,4.00,0.921,14158,0.008,0.143,0.013,0.746,0.011,1.1
48,13282.00,13281.00,1.00,1.001,13952,0.007,0.106,0.012,0.866,0.010,0.9
49,13557.00,13556.00,1.00,0.888,14241,0.004,0.098,0.012,0.763,0.011,0.9
50,13950.00,13950.00,0.00,0.902,14655,0.006,0.111,0.011,0.762,0.012,0.9
51,13494.00,13494.00,0.00,1.015,14176,0.005,0.115,0.010,0.873,0.012,1.0
52,13358.00,13358.00,0.00,0.937,14033,0.005,0.102,0.011,0.809,0.011,0.9
53,13604.00,13604.00,0.00,0.926,14292,0.005,0.110,0.011,0.787,0.012,1.0
54,12929.00,12929.00,0.00,1.013,13583,0.004,0.128,0.012,0.857,0.013,1.1
55,12855.00,12855.00,0.00,0.976,13505,0.006,0.152,0.011,0.796,0.012,1.1
56,13580.00,13580.00,0.00,0.865,14267,0.007,0.102,0.012,0.729,0.014,0.9
57,13481.00,13481.00,0.00,1.036,14163,0.005,0.105,0.010,0.906,0.010,1.0
58,12858.00,12858.00,0.00,0.969,13508,0.004,0.154,0.010,0.790,0.010,1.2
59,14039.00,14039.00,0.00,0.867,14749,0.004,0.114,0.012,0.726,0.011,0.9
60,13828.00,13828.00,0.00,0.979,14527,0.004,0.103,0.011,0.850,0.011,1.0
61,13841.00,13841.00,0.00,0.944,14541,0.007,0.098,0.010,0.819,0.010,0.9
62,13540.00,13540.00,0.00,0.959,14225,0.005,0.124,0.011,0.807,0.012,1.0
63,13421.00,13421.00,0.00,1.002,14100,0.004,0.093,0.010,0.883,0.011,0.9
64,13634.00,13634.00,0.00,0.953,14324,0.003,0.111,0.014,0.814,0.012,0.9
65,13057.00,13057.00,0.00,1.034,13717,0.003,0.147,0.010,0.861,0.012,1.1
66,13429.00,13429.00,0.00,0.957,14108,0.005,0.138,0.010,0.792,0.012,1.1
67,13840.00,13840.00,0.00,0.980,14540,0.006,0.094,0.012,0.857,0.010,0.8
68,14462.00,14462.00,0.00,0.935,15193,0.005,0.111,0.010,0.797,0.012,1.0
69,13656.00,13656.00,0.00,0.893,14347,0.006,0.108,0.014,0.755,0.011,0.9
70,13778.00,13778.00,0.00,0.936,14475,0.005,0.117,0.012,0.791,0.011,1.1
71,13843.00,13843.00,0.00,0.892,14543,0.006,0.095,0.011,0.767,0.014,0.9
72,13422.00,13422.00,0.00,0.917,14101,0.006,0.119,0.012,0.769,0.012,1.0
73,13894.00,13894.00,0.00,1.046,14596,0.004,0.091,0.011,0.930,0.010,0.8
74,7544.00,7544.00,0.00,0.963,7925,0.005,0.092,0.010,0.847,0.009,0.9
