Second,Ops/sec,Hits/sec,Misses/sec,Latency,KB/sec,Request_Creation_Time,Request_Buffer_Time,MW_Writes_To_Memcached_Time,Memcached_Process_Time,MW_Writes_To_Memtier_Time,Queue_Size
4,1349.00,1349.00,0.00,1.753,404,0.019,0.849,0.029,0.793,0.063,7.5
5,8497.00,8497.00,0.00,1.893,2546,0.005,0.967,0.009,0.898,0.014,8.7
6,12113.00,12113.00,0.00,1.461,3629,0.004,0.803,0.006,0.635,0.012,9.9
7,11660.00,11660.00,0.00,1.529,3493,0.003,0.847,0.007,0.659,0.012,10.1
8,12185.00,12185.00,0.00,1.401,3651,0.004,0.758,0.007,0.620,0.012,9.4
9,12232.00,12231.00,1.00,1.359,3664,0.003,0.720,0.007,0.616,0.012,9.0
10,12455.00,12432.00,23.00,1.309,3724,0.003,0.679,0.007,0.606,0.013,8.8
11,13453.00,13453.00,0.00,1.182,4030,0.003,0.599,0.006,0.563,0.012,8.6
12,12189.00,12189.00,0.00,1.361,3652,0.003,0.713,0.006,0.627,0.012,8.8
13,11083.00,11083.00,0.00,1.590,3320,0.003,0.883,0.006,0.685,0.012,10.0
14,12432.00,12432.00,0.00,1.378,3724,0.003,0.742,0.007,0.614,0.013,9.6
15,12420.00,12420.00,0.00,1.399,3721,0.003,0.762,0.006,0.615,0.012,9.6
16,12011.00,12011.00,0.00,1.469,3598,0.003,0.810,0.006,0.638,0.013,9.9
17,12098.00,12098.00,0.00,1.360,3624,0.003,0.733,0.007,0.605,0.012,9.6
18,11454.00,11453.00,1.00,1.518,3431,0.003,0.836,0.006,0.659,0.013,9.3
19,12251.00,12234.00,17.00,1.365,3665,0.003,0.731,0.006,0.613,0.013,9.5
20,13158.00,13152.00,6.00,1.263,3940,0.002,0.669,0.006,0.574,0.012,9.3
21,11899.00,11899.00,0.00,1.448,3565,0.003,0.790,0.006,0.637,0.012,9.4
22,11723.00,11723.00,0.00,1.504,3512,0.003,0.830,0.006,0.652,0.013,9.9
23,11199.00,11199.00,0.00,1.635,3355,0.003,0.921,0.006,0.692,0.013,10.2
24,12546.00,12546.00,0.00,1.288,3759,0.003,0.671,0.006,0.597,0.012,8.7
25,12978.00,12978.00,0.00,1.317,3888,0.003,0.707,0.006,0.588,0.012,9.6
26,12676.00,12676.00,0.00,1.343,3798,0.003,0.723,0.006,0.598,0.013,9.1
27,12918.00,12918.00,0.00,1.252,3870,0.003,0.650,0.006,0.581,0.012,8.6
28,12385.00,12385.00,0.00,1.368,3711,0.003,0.732,0.006,0.614,0.013,9.1
29,12304.00,12304.00,0.00,1.332,3686,0.003,0.696,0.006,0.615,0.012,8.6
30,12916.00,12916.00,0.00,1.229,3869,0.003,0.628,0.007,0.580,0.012,8.1
31,12586.00,12586.00,0.00,1.373,3771,0.003,0.748,0.007,0.603,0.012,9.7
32,12794.00,12794.00,0.00,1.353,3833,0.003,0.735,0.006,0.597,0.012,9.4
33,12433.00,12433.00,0.00,1.349,3725,0.003,0.719,0.006,0.609,0.012,9.1
34,12336.00,12336.00,0.00,1.379,3696,0.003,0.747,0.006,0.609,0.013,9.3
35,13049.00,13049.00,0.00,1.299,3909,0.003,0.691,0.006,0.587,0.012,9.5
36,11055.00,11055.00,0.00,1.633,3312,0.003,0.916,0.006,0.696,0.013,10.1
37,12423.00,12423.00,0.00,1.334,3722,0.003,0.708,0.006,0.604,0.013,9.5
38,11898.00,11898.00,0.00,1.475,3564,0.003,0.812,0.006,0.642,0.012,9.6
39,11713.00,11713.00,0.00,1.482,3509,0.003,0.814,0.006,0.647,0.012,9.8
40,11871.00,11871.00,0.00,1.352,3556,0.003,0.712,0.006,0.618,0.013,9.0
41,11652.00,11652.00,0.00,1.459,3491,0.003,0.800,0.006,0.638,0.012,9.8
42,12434.00,12432.00,2.00,1.329,3725,0.003,0.702,0.006,0.606,0.012,9.3
43,11949.00,11944.00,5.00,1.465,3579,0.003,0.805,0.006,0.639,0.012,9.6
44,11014.00,11009.00,5.00,1.617,3298,0.003,0.907,0.006,0.689,0.012,10.2
45,11928.00,11920.00,8.00,1.452,3571,0.003,0.792,0.006,0.638,0.013,9.8
46,10864.00,10858.00,6.00,1.477,3253,0.003,0.791,0.006,0.666,0.012,9.0
47,12253.00,12241.00,12.00,1.426,3667,0.003,0.783,0.006,0.621,0.014,9.8
48,12906.00,12892.00,14.00,1.250,3862,0.003,0.655,0.006,0.573,0.012,8.5
49,12218.00,12210.00,8.00,1.398,3658,0.003,0.760,0.006,0.618,0.012,9.6
50,12213.00,12206.00,7.00,1.392,3657,0.003,0.750,0.006,0.621,0.012,9.2
51,12309.00,12306.00,3.00,1.370,3687,0.003,0.734,0.006,0.614,0.013,9.4
52,12975.00,12973.00,2.00,1.273,3887,0.003,0.670,0.006,0.582,0.012,8.9
53,12276.00,12276.00,0.00,1.420,3678,0.003,0.776,0.006,0.622,0.012,9.2
54,11397.00,11397.00,0.00,1.544,3414,0.003,0.853,0.006,0.670,0.012,9.9
55,11570.00,11570.00,0.00,1.558,3466,0.003,0.871,0.006,0.665,0.013,9.8
56,12163.00,12163.00,0.00,1.408,3644,0.003,0.760,0.006,0.627,0.013,9.4
57,12448.00,12448.00,0.00,1.361,3729,0.003,0.737,0.006,0.602,0.012,9.3
58,11591.00,11591.00,0.00,1.557,3473,0.003,0.871,0.006,0.665,0.013,10.1
59,12201.00,12201.00,0.00,1.418,3655,0.003,0.777,0.006,0.621,0.012,9.9
60,12229.00,12229.00,0.00,1.383,3664,0.003,0.746,0.006,0.617,0.012,9.3
61,11636.00,11636.00,0.00,1.542,3486,0.003,0.860,0.006,0.660,0.013,10.1
62,12655.00,12655.00,0.00,1.327,3791,0.003,0.707,0.006,0.600,0.012,9.3
63,11882.00,11882.00,0.00,1.500,3560,0.003,0.833,0.006,0.645,0.013,10.0
64,12167.00,12167.00,0.00,1.439,3645,0.003,0.788,0.006,0.630,0.012,9.7
65,12040.00,12040.00,0.00,1.407,3607,0.002,0.761,0.006,0.626,0.012,9.6
66,11613.00,11613.00,0.00,1.511,3479,0.003,0.833,0.006,0.657,0.012,9.9
67,11305.00,11305.00,0.00,1.508,3387,0.003,0.828,0.006,0.660,0.012,9.7
68,12129.00,12129.00,0.00,1.442,3634,0.003,0.789,0.006,0.632,0.013,9.8
69,12231.00,12231.00,0.00,1.386,3664,0.003,0.743,0.006,0.621,0.013,9.3
70,11620.00,11620.00,0.00,1.540,3481,0.003,0.855,0.006,0.663,0.013,9.9
71,11526.00,11526.00,0.00,1.559,3453,0.003,0.866,0.006,0.671,0.013,10.2
72,11547.00,11547.00,0.00,1.536,3459,0.003,0.853,0.006,0.662,0.013,9.7
73,11281.00,11281.00,0.00,1.608,3380,0.003,0.903,0.006,0.683,0.013,10.2
74,8554.00,8554.00,0.00,1.657,2563,0.003,0.909,0.007,0.727,0.013,10.0
