Second,Ops/sec,Hits/sec,Misses/sec,Latency,KB/sec,Request_Creation_Time,Request_Buffer_Time,MW_Writes_To_Memcached_Time,Memcached_Process_Time,MW_Writes_To_Memtier_Time,Queue_Size
4,1383.00,1383.00,0.00,1.226,414,0.013,0.207,0.023,0.938,0.045,0.8
5,9271.00,9271.00,0.00,0.737,2778,0.006,0.105,0.012,0.601,0.012,0.7
6,11695.00,11695.00,0.00,0.544,3504,0.004,0.086,0.009,0.434,0.011,0.7
7,10591.00,10579.00,12.00,0.590,3169,0.005,0.085,0.010,0.479,0.012,0.7
8,10849.00,10849.00,0.00,0.597,3250,0.005,0.094,0.010,0.477,0.011,0.7
9,11608.00,11608.00,0.00,0.577,3478,0.004,0.091,0.009,0.462,0.010,0.8
10,12095.00,12095.00,0.00,0.545,3623,0.004,0.077,0.009,0.445,0.010,0.7
11,11344.00,11344.00,0.00,0.608,3398,0.003,0.090,0.009,0.495,0.011,0.8
12,11268.00,11258.00,10.00,0.603,3373,0.003,0.104,0.009,0.476,0.011,0.8
13,10953.00,10951.00,2.00,0.600,3281,0.003,0.115,0.010,0.462,0.010,0.8
14,11490.00,11490.00,0.00,0.596,3442,0.003,0.094,0.009,0.480,0.010,0.8
15,10860.00,10860.00,0.00,0.651,3254,0.003,0.114,0.009,0.514,0.011,0.8
16,10624.00,10624.00,0.00,0.647,3183,0.003,0.102,0.009,0.521,0.011,0.8
17,11371.00,11371.00,0.00,0.617,3407,0.003,0.091,0.009,0.503,0.011,0.8
18,11501.00,11501.00,0.00,0.568,3445,0.003,0.079,0.009,0.466,0.011,0.8
19,11190.00,11190.00,0.00,0.615,3352,0.003,0.098,0.009,0.494,0.011,0.8
20,10853.00,10853.00,0.00,0.644,3252,0.003,0.116,0.009,0.505,0.011,0.8
21,11451.00,11451.00,0.00,0.591,3431,0.003,0.101,0.009,0.468,0.010,0.8
22,11664.00,11664.00,0.00,0.563,3494,0.003,0.094,0.009,0.446,0.011,0.8
23,11006.00,11006.00,0.00,0.617,3297,0.004,0.104,0.009,0.489,0.011,0.8
24,11808.00,11808.00,0.00,0.560,3537,0.003,0.082,0.009,0.456,0.010,0.8
25,10785.00,10783.00,2.00,0.658,3231,0.003,0.126,0.009,0.509,0.010,0.8
26,11486.00,11479.00,7.00,0.599,3439,0.003,0.102,0.009,0.474,0.010,0.8
27,11393.00,11386.00,7.00,0.569,3411,0.003,0.091,0.009,0.455,0.011,0.8
28,10885.00,10872.00,13.00,0.635,3257,0.003,0.109,0.009,0.504,0.010,0.8
29,11908.00,11903.00,5.00,0.549,3566,0.003,0.079,0.009,0.448,0.010,0.7
30,11019.00,11017.00,2.00,0.624,3301,0.003,0.107,0.009,0.494,0.011,0.8
31,11237.00,11237.00,0.00,0.608,3366,0.003,0.100,0.009,0.486,0.010,0.8
32,11916.00,11916.00,0.00,0.552,3570,0.003,0.093,0.009,0.436,0.011,0.8
33,11459.00,11459.00,0.00,0.596,3433,0.003,0.104,0.009,0.470,0.010,0.8
34,11611.00,11611.00,0.00,0.583,3478,0.003,0.089,0.009,0.471,0.011,0.8
35,11095.00,11095.00,0.00,0.629,3324,0.003,0.102,0.009,0.505,0.011,0.8
36,11399.00,11399.00,0.00,0.587,3415,0.003,0.091,0.010,0.472,0.010,0.8
37,12009.00,12009.00,0.00,0.537,3598,0.003,0.077,0.010,0.438,0.010,0.7
38,11720.00,11720.00,0.00,0.575,3511,0.003,0.087,0.009,0.465,0.010,0.8
39,11259.00,11259.00,0.00,0.615,3373,0.003,0.100,0.009,0.492,0.011,0.8
40,10315.00,10315.00,0.00,0.668,3090,0.003,0.125,0.009,0.521,0.010,0.8
41,11946.00,11946.00,0.00,0.540,3579,0.004,0.081,0.009,0.436,0.011,0.8
42,11599.00,11599.00,0.00,0.563,3475,0.003,0.091,0.009,0.449,0.011,0.8
43,11459.00,11459.00,0.00,0.590,3433,0.003,0.104,0.009,0.464,0.010,0.8
44,12068.00,12068.00,0.00,0.569,3616,0.003,0.088,0.009,0.459,0.010,0.8
45,10317.00,10317.00,0.00,0.709,3091,0.003,0.137,0.009,0.550,0.011,0.9
46,10346.00,10346.00,0.00,0.673,3099,0.003,0.139,0.009,0.512,0.010,0.9
47,11879.00,11879.00,0.00,0.532,3559,0.003,0.081,0.009,0.428,0.011,0.7
48,11467.00,11467.00,0.00,0.579,3435,0.003,0.097,0.009,0.460,0.010,0.8
49,11458.00,11458.00,0.00,0.588,3433,0.003,0.086,0.009,0.478,0.012,0.8
50,11396.00,11396.00,0.00,0.592,3414,0.003,0.091,0.009,0.478,0.011,0.8
51,10546.00,10546.00,0.00,0.672,3159,0.003,0.123,0.009,0.526,0.011,0.9
52,10352.00,10352.00,0.00,0.669,3101,0.003,0.120,0.009,0.527,0.011,0.8
53,11494.00,11494.00,0.00,0.593,3443,0.003,0.095,0.009,0.475,0.011,0.8
54,11708.00,11708.00,0.00,0.589,3507,0.003,0.092,0.010,0.474,0.010,0.8
55,11560.00,11560.00,0.00,0.571,3463,0.003,0.083,0.009,0.466,0.010,0.7
56,11480.00,11480.00,0.00,0.587,3439,0.003,0.091,0.009,0.473,0.011,0.8
57,11126.00,11126.00,0.00,0.629,3333,0.003,0.119,0.010,0.485,0.011,0.9
58,11916.00,11916.00,0.00,0.538,3570,0.003,0.076,0.009,0.439,0.011,0.7
59,11684.00,11684.00,0.00,0.569,3500,0.003,0.093,0.009,0.453,0.011,0.8
60,10227.00,10227.00,0.00,0.725,3064,0.003,0.140,0.009,0.562,0.011,0.8
61,11705.00,11705.00,0.00,0.589,3507,0.003,0.089,0.009,0.476,0.011,0.8
62,10311.00,10311.00,0.00,0.664,3089,0.004,0.127,0.009,0.513,0.011,0.9
63,11140.00,11140.00,0.00,0.611,3337,0.003,0.098,0.009,0.490,0.011,0.7
64,11694.00,11694.00,0.00,0.562,3503,0.003,0.088,0.009,0.451,0.011,0.8
65,10332.00,10332.00,0.00,0.644,3095,0.003,0.110,0.009,0.510,0.011,0.8
66,11170.00,11170.00,0.00,0.615,3346,0.003,0.108,0.009,0.484,0.011,0.8
67,11828.00,11828.00,0.00,0.555,3544,0.003,0.087,0.009,0.445,0.011,0.7
68,11116.00,11116.00,0.00,0.604,3330,0.003,0.096,0.009,0.485,0.011,0.7
69,11343.00,11343.00,0.00,0.590,3398,0.003,0.094,0.009,0.472,0.011,0.7
70,11509.00,11508.00,1.00,0.564,3448,0.003,0.081,0.009,0.460,0.010,0.7
71,12023.00,12019.00,4.00,0.552,3601,0.004,0.087,0.008,0.443,0.010,0.8
72,11726.00,11717.00,9.00,0.580,3510,0.003,0.087,0.009,0.471,0.010,0.8
73,11301.00,11293.00,8.00,0.607,3383,0.003,0.104,0.009,0.481,0.011,0.8
74,8901.00,8897.00,4.00,0.559,2665,0.003,0.096,0.009,0.440,0.010,0.7
