Second,Ops/sec,Hits/sec,Misses/sec,Latency,KB/sec,Request_Creation_Time,Request_Buffer_Time,MW_Writes_To_Memcached_Time,Memcached_Process_Time,MW_Writes_To_Memtier_Time,Queue_Size
4,2188.00,2188.00,0.00,1.851,1203,0.017,0.917,0.023,0.861,0.032,8.3
5,10621.00,10621.00,0.00,1.580,5837,0.005,0.839,0.008,0.715,0.013,9.2
6,11457.00,11457.00,0.00,1.562,6296,0.004,0.868,0.006,0.671,0.012,10.0
7,12562.00,12562.00,0.00,1.347,6904,0.004,0.718,0.007,0.606,0.012,9.4
8,12095.00,12095.00,0.00,1.423,6647,0.004,0.780,0.007,0.619,0.013,9.8
9,11465.00,11457.00,8.00,1.556,6297,0.003,0.863,0.007,0.669,0.013,10.0
10,11383.00,11367.00,16.00,1.527,6246,0.004,0.826,0.007,0.678,0.013,9.8
11,8614.00,8614.00,0.00,1.993,4734,0.003,1.063,0.006,0.908,0.012,9.3
12,12233.00,12233.00,0.00,1.430,6723,0.003,0.787,0.006,0.621,0.013,9.7
13,11428.00,11428.00,0.00,1.542,6281,0.003,0.854,0.006,0.664,0.014,9.7
14,11863.00,11863.00,0.00,1.453,6520,0.003,0.785,0.006,0.646,0.012,9.5
15,11847.00,11847.00,0.00,1.517,6511,0.003,0.845,0.006,0.650,0.013,10.0
16,11902.00,11902.00,0.00,1.448,6541,0.003,0.783,0.007,0.643,0.013,9.6
17,12722.00,12722.00,0.00,1.328,6992,0.003,0.706,0.006,0.601,0.012,9.3
18,11234.00,11234.00,0.00,1.640,6174,0.003,0.933,0.006,0.685,0.012,10.5
19,12078.00,12065.00,13.00,1.367,6631,0.003,0.728,0.006,0.618,0.012,9.2
20,12431.00,12420.00,11.00,1.407,6826,0.003,0.768,0.006,0.617,0.013,9.7
21,11757.00,11757.00,0.00,1.548,6461,0.003,0.869,0.006,0.657,0.013,10.1
22,12890.00,12890.00,0.00,1.286,7084,0.003,0.683,0.006,0.581,0.013,9.4
23,12292.00,12292.00,0.00,1.378,6756,0.003,0.743,0.006,0.615,0.012,9.3
24,11188.00,11188.00,0.00,1.620,6149,0.003,0.910,0.006,0.688,0.012,10.2
25,13146.00,13146.00,0.00,1.273,7225,0.003,0.680,0.006,0.572,0.012,9.2
26,12264.00,12264.00,0.00,1.435,6740,0.003,0.790,0.006,0.623,0.013,9.8
27,10202.00,10202.00,0.00,1.827,5607,0.003,1.048,0.007,0.755,0.014,10.4
28,12468.00,12468.00,0.00,1.382,6853,0.003,0.748,0.006,0.613,0.012,9.5
29,12458.00,12458.00,0.00,1.313,6847,0.003,0.690,0.006,0.601,0.013,8.9
30,11390.00,11390.00,0.00,1.565,6260,0.003,0.877,0.006,0.667,0.013,10.3
31,11376.00,11376.00,0.00,1.537,6252,0.003,0.855,0.006,0.661,0.013,10.2
32,13269.00,13269.00,0.00,1.268,7293,0.003,0.677,0.006,0.570,0.012,9.3
33,11612.00,11612.00,0.00,1.559,6382,0.003,0.872,0.006,0.665,0.013,10.1
34,12231.00,12231.00,0.00,1.424,6722,0.003,0.776,0.006,0.626,0.013,9.8
35,13048.00,13048.00,0.00,1.280,7171,0.003,0.684,0.006,0.574,0.013,9.6
36,11570.00,11570.00,0.00,1.545,6359,0.003,0.869,0.006,0.655,0.012,10.0
37,12160.00,12160.00,0.00,1.440,6683,0.003,0.791,0.006,0.627,0.013,10.0
38,11587.00,11587.00,0.00,1.403,6368,0.003,0.743,0.006,0.638,0.012,9.1
39,12429.00,12429.00,0.00,1.402,6831,0.003,0.763,0.006,0.617,0.012,9.8
40,11669.00,11669.00,0.00,1.515,6413,0.003,0.836,0.006,0.657,0.013,9.8
41,11761.00,11761.00,0.00,1.396,6464,0.003,0.744,0.006,0.630,0.012,9.2
42,12096.00,12096.00,0.00,1.435,6648,0.003,0.777,0.006,0.635,0.013,9.5
43,11571.00,11571.00,0.00,1.521,6359,0.003,0.840,0.007,0.658,0.013,9.9
44,12366.00,12361.00,5.00,1.331,6794,0.003,0.703,0.006,0.607,0.013,9.3
45,12202.00,12190.00,12.00,1.398,6700,0.003,0.756,0.007,0.619,0.013,9.4
46,11140.00,11138.00,2.00,1.498,6121,0.003,0.803,0.006,0.673,0.012,9.0
47,12562.00,12552.00,10.00,1.334,6898,0.003,0.713,0.006,0.599,0.013,9.2
48,12130.00,12116.00,14.00,1.462,6659,0.003,0.809,0.007,0.629,0.015,10.0
49,12357.00,12346.00,11.00,1.434,6785,0.003,0.794,0.006,0.619,0.013,10.0
50,12434.00,12421.00,13.00,1.394,6826,0.003,0.761,0.007,0.610,0.014,9.7
51,12164.00,12160.00,4.00,1.421,6683,0.003,0.771,0.006,0.628,0.013,9.4
52,11136.00,11135.00,1.00,1.592,6120,0.003,0.886,0.006,0.684,0.013,9.6
53,12637.00,12637.00,0.00,1.335,6945,0.003,0.717,0.006,0.595,0.013,9.4
54,11895.00,11895.00,0.00,1.497,6537,0.003,0.831,0.006,0.644,0.013,9.8
55,12175.00,12175.00,0.00,1.449,6691,0.003,0.800,0.006,0.627,0.013,10.0
56,12462.00,12462.00,0.00,1.362,6849,0.003,0.733,0.006,0.608,0.013,9.5
57,11720.00,11720.00,0.00,1.480,6441,0.003,0.819,0.006,0.639,0.013,10.0
58,12076.00,12076.00,0.00,1.418,6637,0.003,0.771,0.006,0.625,0.013,9.3
59,12407.00,12407.00,0.00,1.371,6819,0.003,0.734,0.006,0.615,0.013,9.4
60,12168.00,12168.00,0.00,1.462,6687,0.003,0.806,0.006,0.633,0.013,9.9
61,11187.00,11187.00,0.00,1.630,6148,0.003,0.924,0.006,0.683,0.013,10.0
62,12077.00,12077.00,0.00,1.496,6637,0.003,0.837,0.006,0.638,0.013,10.1
63,11219.00,11219.00,0.00,1.561,6166,0.003,0.872,0.006,0.667,0.012,9.6
64,11350.00,11350.00,0.00,1.600,6238,0.003,0.902,0.007,0.675,0.013,10.0
65,12280.00,12280.00,0.00,1.394,6749,0.003,0.758,0.006,0.614,0.013,9.4
66,11754.00,11754.00,0.00,1.457,6460,0.003,0.793,0.007,0.642,0.013,9.1
67,11741.00,11741.00,0.00,1.516,6453,0.003,0.847,0.006,0.647,0.013,9.6
68,12126.00,12126.00,0.00,1.412,6664,0.003,0.766,0.007,0.624,0.012,9.3
69,13314.00,13314.00,0.00,1.168,7317,0.003,0.599,0.006,0.547,0.012,8.3
70,12412.00,12412.00,0.00,1.433,6822,0.003,0.794,0.006,0.618,0.012,9.7
71,12635.00,12635.00,0.00,1.388,6944,0.003,0.765,0.007,0.602,0.012,9.9
72,12822.00,12822.00,0.00,1.274,7047,0.003,0.671,0.006,0.581,0.012,8.9
73,11943.00,11943.00,0.00,1.468,6564,0.003,0.808,0.006,0.638,0.013,9.5
74,9352.00,9352.00,0.00,1.262,5140,0.004,0.662,0.006,0.578,0.012,9.0
