Second,Ops/sec,Hits/sec,Misses/sec,Latency,KB/sec,Request_Creation_Time,Request_Buffer_Time,MW_Writes_To_Memcached_Time,Memcached_Process_Time,MW_Writes_To_Memtier_Time,Queue_Size
4,4179.00,4179.00,0.00,1.486,465,0.013,0.154,0.026,1.267,0.025,0.9
5,11107.00,11107.00,0.00,1.180,1234,0.006,0.112,0.012,1.039,0.011,0.8
6,14537.00,14537.00,0.00,0.770,1615,0.005,0.088,0.012,0.655,0.010,0.8
7,13964.00,13964.00,0.00,0.973,1552,0.006,0.130,0.015,0.812,0.011,1.1
8,14498.00,14494.00,4.00,0.886,1611,0.004,0.130,0.013,0.729,0.010,1.2
9,12611.00,12591.00,20.00,1.079,1398,0.005,0.083,0.014,0.966,0.011,0.9
10,13445.00,13445.00,0.00,0.933,1494,0.004,0.107,0.011,0.802,0.009,0.9
11,14617.00,14617.00,0.00,0.900,1625,0.003,0.116,0.011,0.758,0.011,1.0
12,14901.00,14901.00,0.00,0.865,1655,0.003,0.106,0.011,0.735,0.010,1.0
13,13760.00,13760.00,0.00,0.950,1529,0.004,0.113,0.010,0.813,0.009,1.0
14,14443.00,14443.00,0.00,0.906,1605,0.003,0.099,0.012,0.782,0.010,0.9
15,14513.00,14513.00,0.00,0.880,1612,0.004,0.090,0.012,0.763,0.011,0.9
16,14246.00,14239.00,7.00,0.883,1583,0.004,0.106,0.012,0.750,0.011,0.9
17,14369.00,14353.00,16.00,0.955,1595,0.004,0.093,0.011,0.835,0.012,0.9
18,15184.00,15183.00,1.00,0.904,1687,0.003,0.100,0.010,0.779,0.011,0.9
19,14671.00,14671.00,0.00,1.013,1630,0.003,0.094,0.012,0.894,0.011,1.0
20,14559.00,14559.00,0.00,0.901,1618,0.004,0.089,0.012,0.786,0.011,0.9
21,14273.00,14273.00,0.00,0.933,1586,0.003,0.119,0.011,0.788,0.012,1.1
22,14612.00,14612.00,0.00,0.850,1624,0.004,0.115,0.012,0.709,0.010,1.0
23,14815.00,14815.00,0.00,0.830,1646,0.003,0.121,0.011,0.684,0.010,1.0
24,14075.00,14075.00,0.00,0.948,1564,0.004,0.142,0.011,0.781,0.010,1.1
25,15338.00,15338.00,0.00,0.873,1704,0.003,0.094,0.009,0.756,0.010,0.9
26,14453.00,14453.00,0.00,0.798,1606,0.005,0.103,0.011,0.669,0.011,1.0
27,14095.00,14095.00,0.00,1.053,1566,0.004,0.108,0.010,0.920,0.011,0.9
28,14131.00,14131.00,0.00,0.925,1570,0.003,0.133,0.011,0.768,0.010,1.0
29,14385.00,14385.00,0.00,0.922,1598,0.004,0.131,0.010,0.765,0.012,1.3
30,14797.00,14797.00,0.00,1.010,1644,0.003,0.087,0.011,0.898,0.011,0.9
31,14617.00,14617.00,0.00,0.879,1624,0.004,0.094,0.010,0.761,0.010,0.9
32,15023.00,15023.00,0.00,0.911,1669,0.003,0.100,0.010,0.788,0.010,1.0
33,14438.00,14438.00,0.00,0.857,1604,0.005,0.089,0.013,0.739,0.011,0.8
34,14254.00,14254.00,0.00,0.955,1584,0.003,0.140,0.012,0.789,0.011,1.1
35,15001.00,15001.00,0.00,0.910,1667,0.005,0.083,0.011,0.801,0.010,0.9
36,14630.00,14628.00,2.00,1.007,1626,0.004,0.117,0.013,0.862,0.011,1.0
37,14631.00,14624.00,7.00,0.952,1625,0.004,0.095,0.012,0.832,0.010,0.8
38,14927.00,14920.00,7.00,0.878,1658,0.004,0.068,0.011,0.785,0.011,0.7
39,14097.00,14088.00,9.00,1.032,1566,0.004,0.113,0.010,0.896,0.009,1.1
40,13756.00,13740.00,16.00,1.009,1527,0.003,0.147,0.013,0.836,0.010,1.2
41,14687.00,14677.00,10.00,0.966,1631,0.003,0.115,0.011,0.827,0.010,1.0
42,13764.00,13757.00,7.00,1.031,1529,0.003,0.140,0.010,0.868,0.011,1.0
43,14431.00,14422.00,9.00,0.847,1602,0.005,0.097,0.009,0.726,0.010,0.9
44,14799.00,14794.00,5.00,0.970,1644,0.004,0.105,0.009,0.840,0.011,0.9
45,14363.00,14363.00,0.00,1.017,1596,0.004,0.121,0.011,0.871,0.010,0.9
46,13927.00,13927.00,0.00,0.983,1547,0.004,0.154,0.010,0.805,0.011,1.3
47,14385.00,14385.00,0.00,0.931,1598,0.004,0.091,0.011,0.814,0.012,0.9
48,14284.00,14284.00,0.00,0.936,1587,0.006,0.114,0.013,0.793,0.011,1.0
49,14971.00,14971.00,0.00,0.948,1663,0.004,0.112,0.011,0.808,0.012,1.0
50,14365.00,14365.00,0.00,0.989,1596,0.005,0.109,0.011,0.853,0.011,0.9
51,14647.00,14647.00,0.00,0.925,1627,0.004,0.105,0.012,0.793,0.011,0.9
52,13489.00,13489.00,0.00,1.046,1499,0.005,0.106,0.010,0.914,0.011,0.8
53,14954.00,14954.00,0.00,0.840,1661,0.003,0.078,0.011,0.739,0.010,0.7
54,14566.00,14566.00,0.00,0.947,1618,0.005,0.075,0.011,0.846,0.010,0.8
55,14853.00,14853.00,0.00,0.821,1650,0.006,0.077,0.010,0.718,0.010,0.8
56,14631.00,14631.00,0.00,0.910,1626,0.003,0.111,0.012,0.772,0.012,0.9
57,14696.00,14696.00,0.00,0.920,1633,0.003,0.086,0.010,0.810,0.011,0.9
58,14976.00,14976.00,0.00,0.924,1664,0.003,0.099,0.010,0.802,0.010,0.8
59,14574.00,14574.00,0.00,0.952,1619,0.003,0.114,0.010,0.816,0.010,1.0
60,14919.00,14919.00,0.00,0.873,1658,0.004,0.114,0.010,0.732,0.012,0.9
61,14788.00,14788.00,0.00,0.917,1643,0.004,0.083,0.010,0.809,0.010,0.9
62,14311.00,14311.00,0.00,0.910,1590,0.005,0.101,0.009,0.784,0.010,0.8
63,14832.00,14832.00,0.00,0.843,1648,0.006,0.105,0.012,0.710,0.011,0.9
64,14575.00,14575.00,0.00,0.983,1620,0.003,0.099,0.011,0.861,0.010,0.9
65,14786.00,14786.00,0.00,0.893,1643,0.003,0.074,0.011,0.795,0.009,0.7
66,14965.00,14965.00,0.00,0.899,1663,0.004,0.090,0.011,0.784,0.011,0.9
67,14606.00,14606.00,0.00,0.991,1623,0.003,0.099,0.009,0.870,0.010,0.9
68,14878.00,14878.00,0.00,0.865,1653,0.004,0.129,0.010,0.712,0.010,1.1
69,14195.00,14195.00,0.00,0.879,1577,0.005,0.141,0.010,0.711,0.011,1.1
70,14879.00,14879.00,0.00,0.919,1653,0.003,0.083,0.010,0.812,0.010,0.8
71,15150.00,15150.00,0.00,0.877,1683,0.003,0.077,0.010,0.778,0.009,0.8
72,14511.00,14511.00,0.00,0.865,1612,0.003,0.086,0.009,0.755,0.011,0.9
73,15157.00,15157.00,0.00,0.923,1684,0.003,0.103,0.009,0.799,0.010,0.9
74,7227.00,7227.00,0.00,0.811,803,0.003,0.079,0.010,0.709,0.011,0.7
