Second,Ops/sec,Hits/sec,Misses/sec,Latency,KB/sec,Request_Creation_Time,Request_Buffer_Time,MW_Writes_To_Memcached_Time,Memcached_Process_Time,MW_Writes_To_Memtier_Time,Queue_Size
4,2206.00,2206.00,0.00,1.009,661,0.012,0.112,0.035,0.821,0.029,0.5
5,7851.00,7851.00,0.00,0.848,2352,0.005,0.066,0.013,0.751,0.013,0.4
6,10095.00,10095.00,0.00,0.699,3024,0.004,0.117,0.011,0.558,0.010,0.6
7,11379.00,11370.00,9.00,0.582,3406,0.004,0.067,0.011,0.488,0.012,0.4
8,9742.00,9739.00,3.00,0.710,2917,0.004,0.070,0.011,0.613,0.012,0.5
9,10597.00,10597.00,0.00,0.638,3175,0.004,0.083,0.011,0.531,0.010,0.5
10,10886.00,10886.00,0.00,0.637,3261,0.004,0.074,0.011,0.539,0.010,0.5
11,9847.00,9847.00,0.00,0.738,2950,0.005,0.073,0.011,0.638,0.010,0.4
12,11133.00,11133.00,0.00,0.580,3335,0.003,0.063,0.012,0.492,0.010,0.5
13,12106.00,12094.00,12.00,0.570,3623,0.003,0.054,0.011,0.492,0.010,0.4
14,11285.00,11285.00,0.00,0.642,3381,0.003,0.056,0.011,0.562,0.010,0.5
15,11341.00,11341.00,0.00,0.587,3398,0.003,0.084,0.011,0.479,0.010,0.6
16,11705.00,11705.00,0.00,0.583,3507,0.003,0.065,0.011,0.494,0.010,0.4
17,10969.00,10969.00,0.00,0.620,3286,0.003,0.085,0.011,0.512,0.010,0.5
18,11454.00,11454.00,0.00,0.585,3432,0.003,0.071,0.011,0.489,0.011,0.5
19,11286.00,11286.00,0.00,0.587,3381,0.003,0.069,0.011,0.493,0.011,0.5
20,10599.00,10599.00,0.00,0.666,3175,0.003,0.072,0.011,0.570,0.010,0.5
21,11606.00,11606.00,0.00,0.584,3477,0.004,0.073,0.011,0.486,0.010,0.5
22,11885.00,11885.00,0.00,0.532,3561,0.004,0.059,0.010,0.449,0.010,0.4
23,11429.00,11429.00,0.00,0.629,3424,0.003,0.056,0.011,0.548,0.010,0.4
24,11487.00,11487.00,0.00,0.582,3441,0.003,0.061,0.011,0.497,0.010,0.4
25,11562.00,11561.00,1.00,0.557,3464,0.003,0.067,0.012,0.466,0.010,0.5
26,9580.00,9577.00,3.00,0.720,2869,0.004,0.129,0.010,0.566,0.010,0.7
27,11487.00,11478.00,9.00,0.597,3439,0.003,0.048,0.011,0.524,0.010,0.4
28,11142.00,11131.00,11.00,0.603,3335,0.003,0.081,0.011,0.497,0.010,0.6
29,11804.00,11794.00,10.00,0.563,3533,0.003,0.052,0.011,0.487,0.010,0.4
30,10686.00,10684.00,2.00,0.659,3201,0.003,0.069,0.011,0.566,0.010,0.5
31,10325.00,10325.00,0.00,0.674,3093,0.003,0.095,0.011,0.555,0.010,0.5
32,12023.00,12023.00,0.00,0.561,3602,0.003,0.048,0.011,0.489,0.010,0.4
33,11319.00,11319.00,0.00,0.590,3391,0.003,0.057,0.011,0.510,0.010,0.4
34,10566.00,10566.00,0.00,0.631,3165,0.004,0.093,0.010,0.513,0.010,0.6
35,11025.00,11025.00,0.00,0.619,3303,0.003,0.072,0.010,0.524,0.010,0.5
36,10739.00,10739.00,0.00,0.672,3217,0.003,0.097,0.010,0.552,0.010,0.6
37,11182.00,11182.00,0.00,0.599,3350,0.003,0.065,0.010,0.509,0.010,0.4
38,11461.00,11461.00,0.00,0.623,3434,0.003,0.053,0.010,0.546,0.010,0.4
39,11013.00,11013.00,0.00,0.637,3299,0.003,0.069,0.011,0.544,0.010,0.4
40,10768.00,10768.00,0.00,0.641,3226,0.003,0.068,0.011,0.548,0.010,0.5
41,10867.00,10867.00,0.00,0.648,3256,0.003,0.088,0.010,0.536,0.010,0.5
42,11279.00,11279.00,0.00,0.613,3379,0.003,0.064,0.010,0.526,0.010,0.4
43,11409.00,11409.00,0.00,0.574,3418,0.003,0.050,0.011,0.500,0.010,0.4
44,11584.00,11584.00,0.00,0.600,3470,0.003,0.049,0.011,0.527,0.010,0.4
45,10703.00,10703.00,0.00,0.656,3206,0.003,0.077,0.011,0.555,0.010,0.5
46,11739.00,11739.00,0.00,0.574,3517,0.004,0.053,0.010,0.498,0.010,0.4
47,10645.00,10645.00,0.00,0.635,3189,0.003,0.082,0.010,0.530,0.010,0.5
48,10727.00,10727.00,0.00,0.655,3214,0.003,0.054,0.011,0.576,0.010,0.4
49,11180.00,11180.00,0.00,0.586,3349,0.003,0.067,0.011,0.494,0.010,0.4
50,10573.00,10573.00,0.00,0.685,3167,0.003,0.065,0.011,0.596,0.010,0.4
51,11164.00,11164.00,0.00,0.648,3344,0.003,0.056,0.010,0.568,0.011,0.4
52,11428.00,11428.00,0.00,0.544,3423,0.003,0.080,0.010,0.440,0.010,0.5
53,11240.00,11240.00,0.00,0.608,3367,0.003,0.071,0.010,0.515,0.010,0.4
54,11261.00,11261.00,0.00,0.626,3373,0.003,0.060,0.010,0.542,0.010,0.4
55,11423.00,11423.00,0.00,0.599,3422,0.003,0.069,0.011,0.505,0.011,0.5
56,11042.00,11042.00,0.00,0.634,3308,0.003,0.058,0.011,0.553,0.010,0.4
57,11413.00,11413.00,0.00,0.618,3419,0.003,0.054,0.010,0.540,0.010,0.4
58,11124.00,11124.00,0.00,0.589,3333,0.004,0.070,0.010,0.495,0.010,0.4
59,11813.00,11813.00,0.00,0.571,3539,0.003,0.053,0.010,0.494,0.010,0.4
60,10844.00,10844.00,0.00,0.644,3249,0.003,0.061,0.011,0.557,0.011,0.4
61,10962.00,10962.00,0.00,0.646,3284,0.003,0.063,0.011,0.559,0.010,0.4
62,11978.00,11978.00,0.00,0.550,3588,0.003,0.053,0.010,0.474,0.010,0.4
63,10437.00,10437.00,0.00,0.679,3127,0.003,0.093,0.010,0.562,0.010,0.6
64,10247.00,10247.00,0.00,0.693,3070,0.004,0.088,0.011,0.581,0.010,0.5
65,11257.00,11257.00,0.00,0.603,3372,0.003,0.071,0.010,0.508,0.010,0.5
66,10614.00,10614.00,0.00,0.657,3180,0.003,0.087,0.011,0.545,0.010,0.5
67,10894.00,10894.00,0.00,0.643,3264,0.003,0.074,0.014,0.542,0.011,0.5
68,10127.00,10127.00,0.00,0.681,3034,0.004,0.132,0.010,0.524,0.010,0.7
69,10803.00,10803.00,0.00,0.661,3236,0.003,0.070,0.011,0.567,0.010,0.5
70,10772.00,10772.00,0.00,0.645,3227,0.003,0.053,0.011,0.568,0.010,0.4
71,11504.00,11503.00,1.00,0.595,3446,0.003,0.058,0.010,0.514,0.010,0.4
72,11436.00,11431.00,5.00,0.598,3425,0.003,0.068,0.011,0.506,0.010,0.5
73,10649.00,10645.00,4.00,0.673,3189,0.003,0.071,0.011,0.578,0.010,0.4
74,7530.00,7527.00,3.00,0.561,2255,0.003,0.076,0.011,0.461,0.010,0.5
