Second,Ops/sec,Hits/sec,Misses/sec,Latency,KB/sec,Request_Creation_Time,Request_Buffer_Time,MW_Writes_To_Memcached_Time,Memcached_Process_Time,MW_Writes_To_Memtier_Time,Queue_Size
4,4201.00,4201.00,0.00,2.123,2309,0.012,0.417,0.025,1.634,0.035,3.4
5,16663.00,16663.00,0.00,1.539,9158,0.004,0.286,0.012,1.221,0.015,3.0
6,19001.00,19001.00,0.00,1.200,10443,0.005,0.222,0.012,0.946,0.015,2.5
7,19419.00,19419.00,0.00,1.199,10672,0.005,0.262,0.010,0.911,0.011,3.1
8,17916.00,17916.00,0.00,1.396,9846,0.004,0.300,0.012,1.068,0.012,2.9
9,18051.00,18051.00,0.00,1.290,9921,0.005,0.215,0.011,1.045,0.014,2.6
10,19189.00,19184.00,5.00,1.156,10544,0.004,0.196,0.010,0.933,0.012,2.5
11,19159.00,19120.00,39.00,1.310,10507,0.003,0.243,0.012,1.040,0.012,2.7
12,18660.00,18656.00,4.00,1.320,10252,0.003,0.267,0.013,1.024,0.013,3.3
13,19251.00,19251.00,0.00,1.243,10580,0.003,0.257,0.011,0.959,0.012,3.2
14,18911.00,18911.00,0.00,1.252,10394,0.004,0.272,0.010,0.954,0.013,3.1
15,19618.00,19618.00,0.00,1.177,10782,0.004,0.238,0.010,0.910,0.015,2.7
16,19193.00,19193.00,0.00,1.288,10548,0.004,0.262,0.013,0.996,0.013,3.1
17,18841.00,18841.00,0.00,1.253,10354,0.004,0.255,0.013,0.970,0.011,2.9
18,18893.00,18893.00,0.00,1.222,10383,0.004,0.247,0.012,0.947,0.012,3.0
19,19301.00,19301.00,0.00,1.250,10607,0.003,0.231,0.011,0.991,0.014,2.8
20,19053.00,19053.00,0.00,1.181,10471,0.003,0.234,0.011,0.921,0.011,2.9
21,19155.00,19154.00,1.00,1.236,10527,0.003,0.254,0.011,0.958,0.011,2.8
22,19702.00,19684.00,18.00,1.205,10819,0.004,0.235,0.011,0.945,0.011,2.9
23,18442.00,18427.00,15.00,1.289,10127,0.004,0.288,0.012,0.973,0.012,3.2
24,19021.00,19013.00,8.00,1.213,10449,0.004,0.236,0.013,0.950,0.011,3.0
25,18677.00,18672.00,5.00,1.170,10262,0.004,0.241,0.010,0.902,0.013,3.0
26,19272.00,19271.00,1.00,1.266,10591,0.005,0.278,0.010,0.960,0.013,3.1
27,19615.00,19615.00,0.00,1.181,10780,0.004,0.243,0.011,0.911,0.013,3.0
28,18585.00,18585.00,0.00,1.333,10214,0.004,0.279,0.013,1.024,0.013,3.2
29,18913.00,18913.00,0.00,1.320,10395,0.004,0.309,0.010,0.987,0.011,3.1
30,19416.00,19416.00,0.00,1.079,10671,0.004,0.179,0.012,0.871,0.013,2.6
31,19490.00,19490.00,0.00,1.259,10712,0.003,0.283,0.009,0.951,0.012,3.1
32,19095.00,19095.00,0.00,1.228,10495,0.004,0.266,0.013,0.933,0.012,2.8
33,20335.00,20335.00,0.00,1.180,11176,0.003,0.230,0.013,0.920,0.014,2.8
34,18969.00,18969.00,0.00,1.247,10425,0.005,0.233,0.011,0.987,0.011,2.7
35,19251.00,19251.00,0.00,1.145,10580,0.005,0.206,0.012,0.910,0.012,2.7
36,19411.00,19411.00,0.00,1.289,10668,0.004,0.267,0.010,0.997,0.012,2.8
37,19835.00,19835.00,0.00,1.139,10901,0.004,0.211,0.011,0.898,0.015,2.5
38,19747.00,19747.00,0.00,1.187,10853,0.004,0.231,0.011,0.930,0.011,2.8
39,18889.00,18889.00,0.00,1.269,10381,0.004,0.298,0.012,0.944,0.012,3.0
40,19397.00,19397.00,0.00,1.100,10661,0.004,0.228,0.011,0.846,0.011,2.7
41,18727.00,18727.00,0.00,1.295,10292,0.004,0.263,0.012,1.003,0.013,2.6
42,19229.00,19229.00,0.00,1.241,10568,0.003,0.220,0.011,0.994,0.012,2.4
43,19766.00,19766.00,0.00,1.130,10863,0.004,0.223,0.011,0.881,0.011,2.7
44,18866.00,18866.00,0.00,1.261,10369,0.003,0.247,0.010,0.990,0.012,3.0
45,19147.00,19147.00,0.00,1.267,10523,0.005,0.247,0.011,0.992,0.012,2.8
46,19540.00,19540.00,0.00,1.150,10739,0.004,0.209,0.011,0.912,0.014,2.6
47,19593.00,19593.00,0.00,1.379,10768,0.004,0.266,0.012,1.086,0.012,2.7
48,19069.00,19069.00,0.00,1.276,10480,0.004,0.262,0.012,0.983,0.015,2.9
49,19191.00,19191.00,0.00,1.217,10547,0.003,0.243,0.011,0.948,0.012,3.1
50,19392.00,19392.00,0.00,1.245,10658,0.003,0.229,0.011,0.992,0.011,2.6
51,19161.00,19159.00,2.00,1.289,10530,0.004,0.254,0.013,1.003,0.014,2.9
52,19450.00,19442.00,8.00,1.297,10685,0.003,0.244,0.012,1.026,0.012,2.7
53,19429.00,19421.00,8.00,1.166,10674,0.005,0.234,0.010,0.906,0.013,2.7
54,18438.00,18427.00,11.00,1.161,10127,0.005,0.230,0.012,0.903,0.011,2.6
55,18100.00,18094.00,6.00,1.386,9944,0.003,0.302,0.011,1.059,0.011,3.0
56,19511.00,19499.00,12.00,1.332,10717,0.003,0.292,0.012,1.012,0.012,2.8
57,18961.00,18947.00,14.00,1.205,10413,0.004,0.250,0.010,0.929,0.012,2.7
58,19794.00,19777.00,17.00,1.165,10869,0.004,0.209,0.014,0.925,0.013,2.8
59,19525.00,19508.00,17.00,1.219,10721,0.003,0.236,0.011,0.957,0.012,2.7
60,19286.00,19274.00,12.00,1.197,10593,0.004,0.227,0.011,0.942,0.013,2.5
61,19721.00,19718.00,3.00,1.120,10837,0.003,0.243,0.012,0.852,0.011,2.7
62,19638.00,19631.00,7.00,1.260,10789,0.003,0.264,0.010,0.969,0.014,2.9
63,19427.00,19422.00,5.00,1.214,10674,0.004,0.258,0.012,0.927,0.013,2.6
64,19625.00,19617.00,8.00,1.162,10781,0.003,0.219,0.012,0.915,0.012,2.7
65,18559.00,18554.00,5.00,1.277,10197,0.004,0.261,0.011,0.988,0.013,3.1
66,19439.00,19435.00,4.00,1.121,10681,0.005,0.220,0.011,0.875,0.011,2.9
67,19520.00,19519.00,1.00,1.242,10727,0.004,0.260,0.010,0.954,0.013,2.7
68,19839.00,19837.00,2.00,1.098,10902,0.003,0.192,0.012,0.880,0.011,2.6
69,18750.00,18749.00,1.00,1.172,10304,0.004,0.210,0.010,0.936,0.012,2.7
70,19329.00,19328.00,1.00,1.256,10622,0.003,0.278,0.011,0.950,0.013,2.9
71,19473.00,19473.00,0.00,1.175,10702,0.003,0.205,0.010,0.944,0.013,2.8
72,19509.00,19509.00,0.00,1.255,10722,0.003,0.262,0.012,0.967,0.011,2.9
73,19998.00,19998.00,0.00,1.050,10990,0.004,0.190,0.010,0.834,0.012,2.7
74,11471.00,11471.00,0.00,1.131,6304,0.004,0.237,0.011,0.866,0.013,3.0
