Second,Ops/sec,Hits/sec,Misses/sec,Latency,KB/sec,Request_Creation_Time,Request_Buffer_Time,MW_Writes_To_Memcached_Time,Memcached_Process_Time,MW_Writes_To_Memtier_Time,Queue_Size
4,5764.00,5764.00,0.00,1.871,6056,0.014,0.463,0.030,1.325,0.039,3.6
5,15836.00,15836.00,0.00,1.735,16637,0.007,0.252,0.015,1.446,0.015,2.7
6,18231.00,18231.00,0.00,1.471,19153,0.006,0.214,0.013,1.224,0.014,2.3
7,17788.00,17788.00,0.00,1.521,18687,0.006,0.224,0.014,1.266,0.012,2.3
8,17479.00,17479.00,0.00,1.731,18363,0.004,0.196,0.014,1.503,0.013,2.1
9,16601.00,16601.00,0.00,1.668,17441,0.006,0.254,0.014,1.377,0.015,2.5
10,18526.00,18525.00,1.00,1.434,19462,0.004,0.183,0.012,1.220,0.015,2.2
11,17400.00,17363.00,37.00,1.546,18241,0.004,0.197,0.018,1.311,0.016,2.5
12,17864.00,17854.00,10.00,1.462,18756,0.006,0.166,0.014,1.259,0.017,2.3
13,17436.00,17436.00,0.00,1.650,18317,0.004,0.187,0.015,1.429,0.014,2.2
14,18143.00,18143.00,0.00,1.477,19061,0.006,0.177,0.014,1.267,0.013,2.2
15,17507.00,17507.00,0.00,1.660,18393,0.004,0.289,0.014,1.341,0.012,2.9
16,17933.00,17933.00,0.00,1.538,18840,0.004,0.258,0.014,1.248,0.014,2.7
17,17735.00,17735.00,0.00,1.526,18631,0.005,0.232,0.012,1.265,0.014,2.6
18,18166.00,18166.00,0.00,1.625,19084,0.004,0.205,0.013,1.388,0.014,2.4
19,17575.00,17575.00,0.00,1.671,18464,0.007,0.253,0.015,1.384,0.012,2.5
20,17548.00,17548.00,0.00,1.612,18435,0.005,0.227,0.014,1.351,0.015,2.7
21,18027.00,18027.00,0.00,1.501,18938,0.004,0.224,0.015,1.244,0.013,2.6
22,17830.00,17830.00,0.00,1.501,18732,0.004,0.252,0.011,1.218,0.015,2.3
23,18162.00,18152.00,10.00,1.401,19070,0.006,0.226,0.014,1.142,0.014,2.8
24,17778.00,17754.00,24.00,1.637,18652,0.004,0.219,0.012,1.389,0.012,2.8
25,17449.00,17440.00,9.00,1.725,18322,0.005,0.191,0.013,1.503,0.012,2.3
26,17882.00,17877.00,5.00,1.552,18781,0.004,0.198,0.012,1.324,0.014,2.4
27,18259.00,18259.00,0.00,1.606,19182,0.005,0.170,0.011,1.404,0.016,2.1
28,17897.00,17897.00,0.00,1.582,18802,0.003,0.238,0.011,1.316,0.013,3.0
29,17887.00,17887.00,0.00,1.534,18792,0.004,0.312,0.012,1.192,0.014,3.4
30,18029.00,18029.00,0.00,1.579,18941,0.004,0.213,0.012,1.338,0.012,2.5
31,18662.00,18662.00,0.00,1.441,19606,0.005,0.159,0.014,1.249,0.013,2.0
32,17968.00,17968.00,0.00,1.372,18877,0.005,0.202,0.012,1.141,0.013,2.5
33,18767.00,18767.00,0.00,1.597,19716,0.004,0.142,0.012,1.427,0.013,2.0
34,17850.00,17850.00,0.00,1.504,18753,0.004,0.198,0.012,1.279,0.012,2.5
35,17943.00,17943.00,0.00,1.546,18851,0.003,0.204,0.011,1.315,0.013,2.5
36,18305.00,18305.00,0.00,1.610,19231,0.004,0.173,0.011,1.410,0.012,2.3
37,18086.00,18086.00,0.00,1.337,19000,0.005,0.164,0.011,1.143,0.015,2.1
38,17698.00,17698.00,0.00,1.656,18593,0.004,0.147,0.011,1.478,0.015,2.0
39,18813.00,18813.00,0.00,1.419,19764,0.004,0.162,0.012,1.230,0.011,2.0
40,18154.00,18154.00,0.00,1.498,19072,0.003,0.166,0.011,1.306,0.011,2.1
41,18555.00,18555.00,0.00,1.524,19493,0.004,0.140,0.014,1.354,0.011,1.8
42,18038.00,18038.00,0.00,1.541,18950,0.005,0.189,0.011,1.325,0.010,2.2
43,18454.00,18454.00,0.00,1.624,19387,0.004,0.156,0.010,1.444,0.011,2.0
44,17829.00,17829.00,0.00,1.583,18731,0.005,0.194,0.013,1.357,0.015,2.5
45,17979.00,17979.00,0.00,1.704,18888,0.003,0.207,0.011,1.472,0.012,2.5
46,18397.00,18397.00,0.00,1.776,19327,0.003,0.175,0.011,1.576,0.010,2.2
47,18025.00,18025.00,0.00,1.489,18936,0.004,0.146,0.010,1.313,0.015,1.9
48,18582.00,18582.00,0.00,1.682,19522,0.004,0.144,0.012,1.513,0.010,2.0
49,18083.00,18083.00,0.00,1.487,18997,0.005,0.248,0.011,1.209,0.014,2.6
50,18318.00,18318.00,0.00,1.635,19244,0.004,0.208,0.012,1.399,0.012,2.5
51,18393.00,18393.00,0.00,1.614,19323,0.003,0.208,0.011,1.382,0.010,2.3
52,18148.00,18148.00,0.00,1.533,19066,0.004,0.196,0.013,1.309,0.010,2.1
53,18467.00,18467.00,0.00,1.600,19401,0.004,0.197,0.010,1.377,0.011,2.4
54,18696.00,18695.00,1.00,1.470,19640,0.004,0.190,0.010,1.254,0.011,2.5
55,18482.00,18480.00,2.00,1.579,19415,0.005,0.177,0.010,1.376,0.011,2.0
56,17792.00,17786.00,6.00,1.621,18686,0.004,0.211,0.011,1.383,0.013,2.6
57,18080.00,18068.00,12.00,1.642,18982,0.003,0.219,0.013,1.395,0.012,2.6
58,18173.00,18164.00,9.00,1.680,19083,0.004,0.205,0.011,1.447,0.013,2.2
59,18372.00,18360.00,12.00,1.530,19289,0.005,0.198,0.013,1.302,0.012,2.4
60,18358.00,18348.00,10.00,1.622,19276,0.004,0.187,0.012,1.408,0.011,2.1
61,17711.00,17693.00,18.00,1.625,18588,0.004,0.231,0.010,1.368,0.012,2.5
62,18420.00,18406.00,14.00,1.543,19337,0.004,0.220,0.012,1.294,0.013,2.5
63,18175.00,18154.00,21.00,1.471,19072,0.004,0.243,0.013,1.200,0.011,2.5
64,17984.00,17974.00,10.00,1.448,18883,0.004,0.212,0.013,1.208,0.011,2.3
65,17948.00,17938.00,10.00,1.518,18845,0.006,0.191,0.010,1.300,0.012,2.3
66,18136.00,18131.00,5.00,1.448,19048,0.005,0.147,0.013,1.269,0.015,2.2
67,18200.00,18194.00,6.00,1.403,19114,0.004,0.165,0.013,1.210,0.011,2.1
68,18632.00,18628.00,4.00,1.459,19570,0.004,0.171,0.012,1.259,0.011,2.1
69,17949.00,17948.00,1.00,1.529,18855,0.004,0.222,0.010,1.281,0.011,2.5
70,17846.00,17843.00,3.00,1.583,18745,0.004,0.182,0.012,1.374,0.012,2.2
71,18301.00,18301.00,0.00,1.624,19226,0.004,0.188,0.012,1.408,0.012,2.3
72,17929.00,17929.00,0.00,1.498,18835,0.005,0.219,0.013,1.246,0.016,2.6
73,18243.00,18243.00,0.00,1.601,19165,0.004,0.204,0.010,1.372,0.012,2.1
74,9405.00,9405.00,0.00,1.495,9880,0.006,0.174,0.011,1.293,0.012,2.1
