Second,Ops/sec,Hits/sec,Misses/sec,Latency,KB/sec,Request_Creation_Time,Request_Buffer_Time,MW_Writes_To_Memcached_Time,Memcached_Process_Time,MW_Writes_To_Memtier_Time,Queue_Size
4,1946.00,1946.00,0.00,0.967,1070,0.017,0.174,0.024,0.700,0.053,0.9
5,7568.00,7568.00,0.00,0.965,4159,0.005,0.158,0.012,0.778,0.012,0.8
6,11380.00,11380.00,0.00,0.597,6254,0.005,0.088,0.010,0.483,0.011,0.8
7,11044.00,11032.00,12.00,0.618,6063,0.005,0.101,0.010,0.491,0.011,0.7
8,10781.00,10781.00,0.00,0.607,5925,0.005,0.089,0.011,0.492,0.011,0.7
9,11177.00,11177.00,0.00,0.622,6143,0.004,0.095,0.010,0.503,0.011,0.8
10,10369.00,10369.00,0.00,0.672,5698,0.005,0.083,0.010,0.563,0.011,0.7
11,10161.00,10161.00,0.00,0.694,5584,0.004,0.110,0.011,0.559,0.011,0.8
12,11645.00,11643.00,2.00,0.552,6399,0.003,0.079,0.009,0.449,0.011,0.7
13,10515.00,10505.00,10.00,0.625,5773,0.003,0.108,0.010,0.493,0.011,0.8
14,11384.00,11384.00,0.00,0.604,6257,0.003,0.093,0.009,0.488,0.011,0.8
15,11811.00,11811.00,0.00,0.564,6491,0.003,0.080,0.010,0.461,0.011,0.7
16,10486.00,10486.00,0.00,0.670,5763,0.003,0.120,0.010,0.526,0.011,0.8
17,11440.00,11440.00,0.00,0.604,6288,0.003,0.098,0.009,0.483,0.011,0.8
18,11797.00,11797.00,0.00,0.564,6484,0.003,0.093,0.009,0.449,0.010,0.8
19,11906.00,11906.00,0.00,0.565,6543,0.003,0.079,0.009,0.464,0.011,0.7
20,11375.00,11375.00,0.00,0.582,6252,0.003,0.092,0.009,0.467,0.010,0.8
21,11551.00,11551.00,0.00,0.589,6348,0.004,0.101,0.009,0.464,0.010,0.7
22,11048.00,11048.00,0.00,0.611,6072,0.003,0.105,0.009,0.483,0.010,0.8
23,11646.00,11646.00,0.00,0.580,6401,0.003,0.087,0.009,0.469,0.011,0.7
24,11204.00,11204.00,0.00,0.609,6158,0.003,0.097,0.009,0.489,0.011,0.8
25,11180.00,11180.00,0.00,0.594,6144,0.004,0.085,0.009,0.485,0.011,0.8
26,11930.00,11921.00,9.00,0.572,6552,0.003,0.089,0.009,0.460,0.010,0.7
27,10717.00,10713.00,4.00,0.644,5888,0.003,0.110,0.009,0.511,0.011,0.7
28,11152.00,11139.00,13.00,0.597,6122,0.003,0.102,0.009,0.472,0.011,0.8
29,12066.00,12057.00,9.00,0.552,6626,0.003,0.077,0.010,0.451,0.011,0.8
30,10864.00,10863.00,1.00,0.627,5970,0.003,0.097,0.009,0.507,0.011,0.8
31,11377.00,11377.00,0.00,0.581,6253,0.003,0.085,0.009,0.473,0.011,0.8
32,11185.00,11185.00,0.00,0.602,6147,0.003,0.105,0.009,0.474,0.011,0.8
33,10490.00,10490.00,0.00,0.666,5765,0.003,0.126,0.009,0.517,0.010,0.8
34,11903.00,11903.00,0.00,0.535,6542,0.003,0.079,0.009,0.433,0.010,0.7
35,11807.00,11807.00,0.00,0.563,6489,0.004,0.079,0.009,0.461,0.010,0.7
36,10967.00,10967.00,0.00,0.640,6027,0.003,0.103,0.009,0.514,0.011,0.8
37,11120.00,11120.00,0.00,0.617,6111,0.003,0.105,0.009,0.490,0.010,0.8
38,10860.00,10860.00,0.00,0.637,5968,0.003,0.113,0.009,0.501,0.010,0.8
39,11505.00,11505.00,0.00,0.611,6323,0.003,0.094,0.009,0.494,0.011,0.8
40,11345.00,11345.00,0.00,0.571,6235,0.003,0.087,0.009,0.460,0.011,0.8
41,11014.00,11014.00,0.00,0.626,6053,0.003,0.102,0.009,0.500,0.011,0.8
42,10187.00,10187.00,0.00,0.698,5599,0.003,0.131,0.009,0.544,0.011,0.8
43,11158.00,11158.00,0.00,0.611,6132,0.003,0.101,0.009,0.488,0.011,0.7
44,11171.00,11171.00,0.00,0.611,6139,0.003,0.108,0.009,0.480,0.011,0.8
45,10474.00,10474.00,0.00,0.654,5756,0.003,0.111,0.009,0.519,0.011,0.8
46,11536.00,11536.00,0.00,0.596,6340,0.003,0.091,0.009,0.483,0.010,0.8
47,10112.00,10112.00,0.00,0.680,5557,0.003,0.139,0.009,0.518,0.011,0.9
48,11292.00,11292.00,0.00,0.619,6206,0.004,0.099,0.009,0.497,0.011,0.8
49,11569.00,11569.00,0.00,0.585,6358,0.003,0.095,0.009,0.468,0.010,0.8
50,11288.00,11288.00,0.00,0.593,6204,0.003,0.106,0.009,0.464,0.010,0.9
51,10640.00,10640.00,0.00,0.673,5847,0.003,0.126,0.010,0.523,0.011,0.9
52,11036.00,11036.00,0.00,0.604,6065,0.003,0.098,0.009,0.483,0.010,0.8
53,10492.00,10492.00,0.00,0.670,5766,0.003,0.126,0.009,0.521,0.011,0.8
54,11347.00,11347.00,0.00,0.629,6236,0.003,0.107,0.009,0.500,0.010,0.8
55,11720.00,11720.00,0.00,0.557,6441,0.003,0.094,0.009,0.440,0.011,0.8
56,11234.00,11234.00,0.00,0.616,6174,0.004,0.096,0.009,0.496,0.011,0.8
57,9884.00,9884.00,0.00,0.707,5432,0.003,0.137,0.010,0.546,0.011,0.9
58,10978.00,10978.00,0.00,0.632,6033,0.003,0.095,0.009,0.515,0.011,0.8
59,11016.00,11016.00,0.00,0.645,6054,0.003,0.104,0.009,0.518,0.011,0.9
60,10417.00,10417.00,0.00,0.666,5725,0.003,0.105,0.010,0.536,0.012,0.8
61,11230.00,11230.00,0.00,0.614,6172,0.003,0.090,0.009,0.501,0.011,0.8
62,10927.00,10927.00,0.00,0.629,6005,0.003,0.099,0.009,0.507,0.011,0.8
63,10685.00,10685.00,0.00,0.666,5872,0.003,0.108,0.010,0.534,0.011,0.8
64,11194.00,11194.00,0.00,0.602,6152,0.004,0.088,0.009,0.491,0.011,0.8
65,10828.00,10828.00,0.00,0.647,5951,0.003,0.098,0.009,0.525,0.011,0.8
66,10949.00,10949.00,0.00,0.636,6017,0.003,0.095,0.009,0.518,0.011,0.8
67,10872.00,10872.00,0.00,0.643,5975,0.003,0.091,0.009,0.529,0.011,0.8
68,10436.00,10436.00,0.00,0.661,5735,0.003,0.101,0.009,0.536,0.011,0.7
69,11604.00,11604.00,0.00,0.587,6378,0.003,0.085,0.009,0.479,0.011,0.8
70,11301.00,11301.00,0.00,0.593,6211,0.003,0.090,0.009,0.480,0.011,0.8
71,9838.00,9838.00,0.00,0.719,5407,0.003,0.129,0.009,0.567,0.011,0.9
72,12103.00,12100.00,3.00,0.546,6650,0.003,0.073,0.009,0.451,0.011,0.8
73,10586.00,10582.00,4.00,0.683,5816,0.003,0.122,0.009,0.538,0.011,0.8
74,8016.00,8009.00,7.00,0.647,4402,0.004,0.093,0.009,0.531,0.011,0.8
