Second,Ops/sec,Hits/sec,Misses/sec,Latency,KB/sec,Request_Creation_Time,Request_Buffer_Time,MW_Writes_To_Memcached_Time,Memcached_Process_Time,MW_Writes_To_Memtier_Time,Queue_Size
4,1314.00,1314.00,0.00,3.644,146,0.029,2.689,0.030,0.867,0.029,25.2
5,11225.00,11225.00,0.00,3.385,1248,0.005,2.674,0.008,0.686,0.013,30.7
6,11855.00,11855.00,0.00,3.529,1317,0.004,2.853,0.007,0.652,0.013,33.8
7,12022.00,12022.00,0.00,3.345,1336,0.004,2.683,0.007,0.639,0.013,32.6
8,12815.00,12815.00,0.00,3.138,1423,0.003,2.517,0.007,0.599,0.012,32.8
9,12410.00,12410.00,0.00,3.267,1379,0.003,2.624,0.007,0.620,0.013,32.6
10,10024.00,10024.00,0.00,3.942,1113,0.003,3.143,0.006,0.778,0.012,32.2
11,12315.00,12315.00,0.00,3.178,1369,0.003,2.526,0.006,0.631,0.012,31.5
12,12669.00,12669.00,0.00,3.223,1408,0.003,2.591,0.006,0.610,0.012,33.1
13,10888.00,10888.00,0.00,3.815,1210,0.003,3.084,0.006,0.709,0.013,33.8
14,11838.00,11831.00,7.00,3.430,1315,0.003,2.757,0.007,0.650,0.013,33.2
15,11100.00,11059.00,41.00,3.680,1228,0.003,2.966,0.008,0.690,0.014,33.4
16,12485.00,12485.00,0.00,3.331,1386,0.003,2.692,0.008,0.615,0.014,34.0
17,12212.00,12212.00,0.00,3.223,1357,0.003,2.583,0.007,0.617,0.013,32.6
18,11998.00,11998.00,0.00,3.478,1333,0.003,2.812,0.008,0.642,0.013,33.9
19,11393.00,11393.00,0.00,3.622,1266,0.003,2.921,0.007,0.677,0.013,33.6
20,11731.00,11731.00,0.00,3.529,1304,0.003,2.848,0.007,0.657,0.014,33.8
21,12050.00,12050.00,0.00,3.455,1339,0.003,2.792,0.007,0.638,0.015,34.2
22,12458.00,12458.00,0.00,3.224,1384,0.003,2.581,0.007,0.620,0.013,32.4
23,12003.00,12003.00,0.00,3.455,1334,0.003,2.794,0.007,0.638,0.014,34.1
24,10955.00,10955.00,0.00,3.738,1217,0.003,3.013,0.007,0.702,0.013,33.2
25,11694.00,11694.00,0.00,3.553,1299,0.003,2.869,0.007,0.662,0.014,33.7
26,11408.00,11408.00,0.00,3.681,1267,0.003,2.980,0.007,0.678,0.014,34.2
27,11101.00,11101.00,0.00,3.811,1234,0.003,3.089,0.007,0.698,0.014,34.2
28,11628.00,11628.00,0.00,3.580,1292,0.003,2.891,0.007,0.666,0.013,33.6
29,11842.00,11842.00,0.00,3.490,1315,0.003,2.812,0.007,0.654,0.014,33.4
30,11543.00,11543.00,0.00,3.592,1282,0.003,2.898,0.006,0.671,0.013,33.5
31,12264.00,12264.00,0.00,3.309,1363,0.003,2.660,0.007,0.627,0.013,33.1
32,12194.00,12194.00,0.00,3.327,1355,0.003,2.671,0.006,0.634,0.013,33.1
33,11982.00,11980.00,2.00,3.418,1332,0.003,2.751,0.007,0.645,0.013,33.1
34,11091.00,11062.00,29.00,3.641,1230,0.003,2.931,0.006,0.689,0.013,33.0
35,12599.00,12582.00,17.00,3.236,1398,0.003,2.600,0.006,0.615,0.012,32.9
36,11469.00,11469.00,0.00,3.565,1274,0.003,2.870,0.006,0.674,0.013,33.3
37,12167.00,12167.00,0.00,3.267,1352,0.003,2.612,0.006,0.635,0.012,32.1
38,12322.00,12322.00,0.00,3.344,1369,0.003,2.696,0.006,0.627,0.012,33.7
39,11558.00,11558.00,0.00,3.549,1285,0.003,2.856,0.007,0.671,0.013,33.0
40,11884.00,11884.00,0.00,3.300,1320,0.003,2.635,0.006,0.644,0.012,31.9
41,12212.00,12212.00,0.00,3.471,1357,0.003,2.810,0.006,0.639,0.013,34.2
42,12435.00,12435.00,0.00,3.312,1382,0.003,2.667,0.006,0.622,0.014,33.3
43,13147.00,13147.00,0.00,3.016,1461,0.003,2.409,0.006,0.585,0.013,32.1
44,12022.00,12022.00,0.00,3.400,1336,0.003,2.732,0.006,0.645,0.013,32.8
45,11393.00,11393.00,0.00,3.582,1266,0.003,2.879,0.006,0.681,0.013,32.9
46,11856.00,11856.00,0.00,3.410,1318,0.003,2.734,0.006,0.654,0.013,32.4
47,12032.00,12032.00,0.00,3.468,1337,0.003,2.800,0.006,0.644,0.014,33.7
48,13069.00,13069.00,0.00,3.127,1452,0.003,2.516,0.006,0.589,0.013,33.2
49,12022.00,12022.00,0.00,3.392,1336,0.003,2.722,0.006,0.648,0.013,32.1
50,12507.00,12507.00,0.00,3.331,1390,0.003,2.690,0.006,0.619,0.013,33.9
51,11718.00,11718.00,0.00,3.350,1302,0.003,2.679,0.007,0.649,0.012,32.5
52,12379.00,12379.00,0.00,3.312,1376,0.003,2.663,0.006,0.627,0.013,32.9
53,13329.00,13329.00,0.00,3.021,1482,0.003,2.424,0.006,0.576,0.013,32.6
54,12162.00,12162.00,0.00,3.329,1351,0.003,2.673,0.006,0.634,0.013,32.8
55,11810.00,11810.00,0.00,3.544,1312,0.003,2.865,0.006,0.657,0.013,33.7
56,12447.00,12447.00,0.00,3.254,1383,0.003,2.613,0.006,0.620,0.012,32.9
57,12317.00,12317.00,0.00,3.261,1368,0.003,2.612,0.006,0.628,0.013,32.4
58,12573.00,12573.00,0.00,3.231,1397,0.003,2.594,0.007,0.615,0.013,32.5
59,11894.00,11894.00,0.00,3.485,1322,0.003,2.811,0.006,0.652,0.013,33.4
60,12243.00,12243.00,0.00,3.345,1360,0.003,2.689,0.006,0.634,0.013,33.0
61,11739.00,11739.00,0.00,3.486,1304,0.003,2.804,0.006,0.660,0.012,33.3
62,11724.00,11724.00,0.00,3.262,1303,0.003,2.587,0.006,0.653,0.012,31.0
63,12993.00,12993.00,0.00,3.096,1444,0.003,2.480,0.006,0.594,0.013,32.5
64,11899.00,11899.00,0.00,3.430,1322,0.003,2.757,0.007,0.651,0.012,32.5
65,12517.00,12517.00,0.00,3.227,1391,0.003,2.586,0.006,0.619,0.013,32.5
66,12502.00,12502.00,0.00,3.281,1389,0.003,2.641,0.007,0.618,0.013,33.5
67,11892.00,11892.00,0.00,3.415,1321,0.003,2.742,0.006,0.651,0.013,32.7
68,12718.00,12718.00,0.00,3.246,1413,0.003,2.615,0.006,0.609,0.013,33.3
69,12768.00,12768.00,0.00,3.190,1419,0.003,2.563,0.006,0.605,0.013,32.9
70,11539.00,11539.00,0.00,3.589,1282,0.003,2.894,0.006,0.673,0.013,33.4
71,13191.00,13191.00,0.00,2.968,1465,0.003,2.366,0.006,0.580,0.013,31.4
72,12862.00,12862.00,0.00,3.010,1429,0.003,2.398,0.006,0.590,0.012,31.7
73,12069.00,12069.00,0.00,3.344,1341,0.003,2.681,0.006,0.641,0.013,32.1
74,10464.00,10464.00,0.00,3.254,1163,0.003,2.606,0.006,0.626,0.013,32.3
