Second,Ops/sec,Hits/sec,Misses/sec,Latency,KB/sec,Request_Creation_Time,Request_Buffer_Time,MW_Writes_To_Memcached_Time,Memcached_Process_Time,MW_Writes_To_Memtier_Time,Queue_Size
4,4217.00,4217.00,0.00,1.583,469,0.018,0.284,0.028,1.216,0.038,3.3
5,16292.00,16292.00,0.00,1.647,1810,0.006,0.321,0.017,1.287,0.017,3.4
6,19978.00,19978.00,0.00,1.100,2220,0.006,0.206,0.012,0.863,0.014,2.6
7,19884.00,19884.00,0.00,1.222,2209,0.005,0.207,0.013,0.985,0.012,2.6
8,18301.00,18301.00,0.00,1.443,2033,0.004,0.292,0.012,1.122,0.013,2.7
9,19455.00,19455.00,0.00,1.173,2162,0.004,0.243,0.013,0.902,0.011,3.1
10,17922.00,17910.00,12.00,1.404,1990,0.005,0.286,0.012,1.088,0.013,2.9
11,19258.00,19226.00,32.00,1.327,2135,0.003,0.263,0.013,1.030,0.017,3.2
12,19571.00,19567.00,4.00,1.210,2173,0.004,0.254,0.013,0.922,0.017,3.3
13,18726.00,18726.00,0.00,1.257,2081,0.004,0.263,0.015,0.960,0.016,3.2
14,18726.00,18726.00,0.00,1.348,2081,0.004,0.302,0.013,1.008,0.020,3.2
15,17618.00,17618.00,0.00,1.472,1957,0.004,0.316,0.017,1.120,0.015,3.5
16,19729.00,19729.00,0.00,1.204,2192,0.003,0.265,0.013,0.905,0.018,3.1
17,19792.00,19792.00,0.00,1.320,2199,0.003,0.279,0.014,1.010,0.014,2.8
18,19424.00,19424.00,0.00,1.202,2158,0.004,0.211,0.015,0.955,0.017,2.8
19,19628.00,19628.00,0.00,1.321,2180,0.003,0.245,0.013,1.043,0.017,2.8
20,18359.00,18359.00,0.00,1.417,2040,0.004,0.311,0.013,1.074,0.015,3.5
21,18877.00,18876.00,1.00,1.227,2098,0.005,0.222,0.013,0.972,0.014,2.8
22,19298.00,19272.00,26.00,1.219,2142,0.004,0.241,0.012,0.950,0.013,3.0
23,19544.00,19539.00,5.00,1.326,2171,0.004,0.286,0.013,1.009,0.014,3.1
24,19395.00,19386.00,9.00,1.285,2154,0.004,0.290,0.013,0.959,0.018,3.1
25,19502.00,19495.00,7.00,1.399,2166,0.005,0.297,0.012,1.073,0.012,3.2
26,18751.00,18751.00,0.00,1.397,2083,0.004,0.278,0.013,1.088,0.014,2.9
27,20074.00,20074.00,0.00,1.197,2231,0.004,0.244,0.012,0.924,0.013,3.1
28,19889.00,19889.00,0.00,1.173,2210,0.004,0.228,0.014,0.912,0.015,2.8
29,19046.00,19046.00,0.00,1.247,2117,0.005,0.288,0.010,0.929,0.014,3.0
30,19159.00,19159.00,0.00,1.343,2129,0.005,0.326,0.012,0.987,0.014,3.0
31,20222.00,20222.00,0.00,1.210,2247,0.003,0.237,0.012,0.943,0.014,2.8
32,19451.00,19451.00,0.00,1.292,2162,0.004,0.255,0.013,1.003,0.017,2.8
33,19106.00,19106.00,0.00,1.302,2123,0.005,0.302,0.012,0.968,0.014,3.3
34,19699.00,19699.00,0.00,1.099,2189,0.004,0.220,0.012,0.849,0.014,2.7
35,18979.00,18979.00,0.00,1.442,2109,0.004,0.274,0.011,1.136,0.016,2.8
36,20059.00,20059.00,0.00,1.288,2229,0.004,0.283,0.012,0.975,0.014,2.9
37,19666.00,19666.00,0.00,1.160,2185,0.003,0.203,0.012,0.929,0.013,2.5
38,19785.00,19785.00,0.00,1.214,2198,0.004,0.253,0.013,0.931,0.014,2.8
39,19593.00,19593.00,0.00,1.285,2177,0.004,0.256,0.011,1.002,0.012,2.7
40,19444.00,19444.00,0.00,1.334,2161,0.003,0.276,0.010,1.031,0.013,2.8
41,19930.00,19930.00,0.00,1.288,2215,0.004,0.267,0.012,0.992,0.012,3.0
42,18978.00,18978.00,0.00,1.263,2109,0.004,0.277,0.011,0.959,0.012,2.8
43,20218.00,20218.00,0.00,1.165,2246,0.003,0.227,0.013,0.905,0.016,2.9
44,19983.00,19983.00,0.00,1.129,2220,0.003,0.205,0.011,0.898,0.012,2.6
45,19127.00,19127.00,0.00,1.380,2125,0.003,0.315,0.010,1.040,0.012,3.1
46,20047.00,20047.00,0.00,1.168,2227,0.003,0.243,0.012,0.896,0.015,2.7
47,19325.00,19325.00,0.00,1.287,2147,0.003,0.263,0.013,0.996,0.013,2.8
48,19737.00,19737.00,0.00,1.275,2193,0.003,0.254,0.012,0.988,0.017,2.8
49,20600.00,20600.00,0.00,1.216,2289,0.003,0.223,0.011,0.967,0.012,2.7
50,20146.00,20146.00,0.00,1.270,2239,0.004,0.272,0.011,0.971,0.012,3.0
51,19001.00,18996.00,5.00,1.300,2111,0.003,0.272,0.010,1.003,0.012,3.1
52,18224.00,18215.00,9.00,1.450,2024,0.003,0.327,0.011,1.098,0.011,3.0
53,19366.00,19356.00,10.00,1.230,2151,0.004,0.239,0.013,0.960,0.014,3.0
54,19079.00,19073.00,6.00,1.284,2119,0.003,0.286,0.013,0.969,0.012,3.0
55,19118.00,19109.00,9.00,1.363,2123,0.003,0.277,0.013,1.055,0.015,2.9
56,19985.00,19970.00,15.00,1.256,2219,0.003,0.248,0.013,0.979,0.014,2.7
57,20587.00,20567.00,20.00,1.205,2286,0.003,0.271,0.011,0.907,0.013,2.9
58,19828.00,19811.00,17.00,1.143,2201,0.004,0.237,0.012,0.876,0.014,3.0
59,20072.00,20061.00,11.00,1.113,2229,0.004,0.223,0.011,0.861,0.013,2.8
60,19757.00,19750.00,7.00,1.334,2194,0.003,0.267,0.011,1.040,0.013,2.9
61,19916.00,19908.00,8.00,1.170,2212,0.004,0.249,0.010,0.894,0.013,2.8
62,19888.00,19886.00,2.00,1.182,2210,0.004,0.234,0.012,0.920,0.013,2.6
63,19590.00,19580.00,10.00,1.357,2175,0.003,0.282,0.010,1.051,0.012,2.9
64,20002.00,19996.00,6.00,1.164,2222,0.003,0.197,0.011,0.940,0.012,2.5
65,19511.00,19507.00,4.00,1.294,2167,0.003,0.236,0.011,1.030,0.013,2.5
66,20152.00,20148.00,4.00,1.316,2238,0.004,0.284,0.013,1.004,0.012,2.8
67,19489.00,19488.00,1.00,1.169,2165,0.004,0.252,0.011,0.889,0.013,3.0
68,19301.00,19301.00,0.00,1.137,2145,0.004,0.203,0.013,0.901,0.016,2.8
69,19114.00,19114.00,0.00,1.256,2124,0.003,0.277,0.010,0.953,0.012,3.1
70,19949.00,19949.00,0.00,1.192,2217,0.003,0.202,0.012,0.960,0.015,2.4
71,20034.00,20034.00,0.00,1.227,2226,0.004,0.245,0.012,0.954,0.013,2.7
72,19393.00,19393.00,0.00,1.283,2154,0.004,0.273,0.010,0.983,0.013,2.6
73,20618.00,20618.00,0.00,1.193,2290,0.003,0.258,0.011,0.909,0.012,3.2
74,13107.00,13107.00,0.00,1.163,1456,0.003,0.196,0.013,0.939,0.011,2.6
