Second,Ops/sec,Hits/sec,Misses/sec,Latency,KB/sec,Request_Creation_Time,Request_Buffer_Time,MW_Writes_To_Memcached_Time,Memcached_Process_Time,MW_Writes_To_Memtier_Time,Queue_Size
4,2673.00,2673.00,0.00,1.874,297,0.010,0.979,0.022,0.828,0.035,8.9
5,12217.00,12217.00,0.00,1.332,1358,0.006,0.693,0.007,0.614,0.013,8.6
6,13436.00,13436.00,0.00,1.245,1493,0.004,0.657,0.007,0.564,0.013,9.4
7,11893.00,11893.00,0.00,1.453,1321,0.004,0.787,0.007,0.643,0.012,9.4
8,12805.00,12805.00,0.00,1.311,1423,0.003,0.700,0.007,0.589,0.012,9.4
9,11372.00,11348.00,24.00,1.476,1261,0.004,0.784,0.007,0.670,0.012,9.0
10,11124.00,11124.00,0.00,1.531,1235,0.004,0.818,0.006,0.692,0.011,9.1
11,12321.00,12321.00,0.00,1.360,1369,0.003,0.731,0.006,0.608,0.012,9.1
12,13293.00,13293.00,0.00,1.239,1478,0.003,0.647,0.006,0.571,0.012,8.8
13,12809.00,12809.00,0.00,1.287,1423,0.003,0.677,0.006,0.589,0.012,8.9
14,11198.00,11198.00,0.00,1.537,1244,0.003,0.836,0.006,0.679,0.013,9.6
15,12260.00,12260.00,0.00,1.423,1362,0.003,0.774,0.006,0.628,0.013,9.6
16,12949.00,12949.00,0.00,1.286,1439,0.003,0.679,0.006,0.585,0.012,9.1
17,13075.00,13075.00,0.00,1.260,1453,0.003,0.667,0.006,0.571,0.012,9.2
18,13113.00,13100.00,13.00,1.325,1456,0.003,0.720,0.006,0.584,0.012,9.7
19,11828.00,11817.00,11.00,1.491,1313,0.003,0.827,0.006,0.642,0.013,9.7
20,12277.00,12277.00,0.00,1.349,1364,0.003,0.718,0.007,0.610,0.012,9.2
21,12767.00,12767.00,0.00,1.282,1419,0.003,0.679,0.006,0.582,0.012,8.9
22,12507.00,12507.00,0.00,1.318,1390,0.003,0.703,0.006,0.594,0.012,9.1
23,13061.00,13061.00,0.00,1.302,1451,0.003,0.700,0.006,0.581,0.013,9.5
24,12070.00,12070.00,0.00,1.465,1341,0.003,0.805,0.006,0.637,0.013,9.9
25,12372.00,12372.00,0.00,1.386,1375,0.003,0.756,0.006,0.609,0.012,9.7
26,13076.00,13076.00,0.00,1.297,1453,0.003,0.693,0.006,0.582,0.013,9.3
27,12830.00,12830.00,0.00,1.292,1426,0.003,0.691,0.006,0.581,0.012,9.4
28,12254.00,12254.00,0.00,1.469,1362,0.003,0.815,0.006,0.632,0.013,10.1
29,12489.00,12489.00,0.00,1.374,1387,0.003,0.746,0.006,0.605,0.013,9.5
30,12146.00,12146.00,0.00,1.409,1350,0.003,0.758,0.006,0.629,0.013,9.2
31,12489.00,12489.00,0.00,1.389,1388,0.003,0.755,0.007,0.612,0.012,9.6
32,12747.00,12747.00,0.00,1.290,1417,0.003,0.683,0.006,0.586,0.012,9.1
33,12346.00,12346.00,0.00,1.361,1372,0.003,0.731,0.006,0.609,0.012,9.4
34,12537.00,12537.00,0.00,1.385,1393,0.003,0.749,0.006,0.615,0.012,9.5
35,12060.00,12060.00,0.00,1.512,1340,0.003,0.850,0.006,0.640,0.013,10.2
36,12218.00,12218.00,0.00,1.460,1357,0.003,0.807,0.006,0.631,0.013,10.1
37,13135.00,13135.00,0.00,1.340,1459,0.003,0.731,0.006,0.589,0.012,9.8
38,12470.00,12470.00,0.00,1.402,1386,0.003,0.768,0.006,0.613,0.012,9.8
39,12391.00,12391.00,0.00,1.404,1377,0.003,0.762,0.006,0.620,0.013,9.5
40,11975.00,11975.00,0.00,1.455,1330,0.003,0.794,0.007,0.639,0.012,9.6
41,13001.00,13000.00,1.00,1.312,1445,0.003,0.707,0.006,0.584,0.012,9.3
42,12753.00,12751.00,2.00,1.294,1417,0.003,0.682,0.007,0.589,0.013,9.0
43,12255.00,12243.00,12.00,1.305,1361,0.003,0.684,0.006,0.601,0.012,8.4
44,12821.00,12813.00,8.00,1.325,1424,0.003,0.716,0.006,0.588,0.012,9.4
45,12358.00,12352.00,6.00,1.399,1372,0.003,0.760,0.006,0.619,0.012,9.3
46,13496.00,13482.00,14.00,1.210,1498,0.003,0.636,0.006,0.554,0.011,8.9
47,12281.00,12265.00,16.00,1.381,1363,0.003,0.745,0.006,0.615,0.012,9.5
48,12962.00,12953.00,9.00,1.311,1439,0.003,0.702,0.006,0.588,0.011,9.2
49,12863.00,12859.00,4.00,1.301,1429,0.003,0.691,0.006,0.590,0.012,9.1
50,11396.00,11396.00,0.00,1.569,1266,0.003,0.879,0.006,0.670,0.012,10.0
51,12845.00,12845.00,0.00,1.278,1427,0.003,0.670,0.006,0.588,0.011,8.8
52,12651.00,12651.00,0.00,1.351,1405,0.003,0.727,0.006,0.603,0.012,9.6
53,12240.00,12240.00,0.00,1.369,1360,0.003,0.737,0.006,0.612,0.012,9.4
54,12917.00,12917.00,0.00,1.250,1435,0.003,0.653,0.006,0.577,0.012,8.6
55,12251.00,12251.00,0.00,1.397,1361,0.003,0.762,0.006,0.614,0.012,9.5
56,12627.00,12627.00,0.00,1.354,1403,0.003,0.727,0.006,0.606,0.012,9.3
57,12993.00,12993.00,0.00,1.277,1444,0.003,0.684,0.006,0.573,0.012,9.0
58,12479.00,12479.00,0.00,1.396,1386,0.003,0.771,0.006,0.604,0.012,10.1
59,11626.00,11626.00,0.00,1.456,1292,0.003,0.789,0.006,0.646,0.012,9.1
60,10737.00,10737.00,0.00,1.677,1193,0.003,0.941,0.006,0.713,0.014,10.1
61,12286.00,12286.00,0.00,1.432,1365,0.003,0.791,0.006,0.620,0.013,10.0
62,11953.00,11953.00,0.00,1.428,1328,0.003,0.777,0.006,0.629,0.013,9.6
63,11644.00,11644.00,0.00,1.470,1294,0.003,0.794,0.006,0.655,0.013,9.5
64,11344.00,11344.00,0.00,1.488,1260,0.003,0.810,0.006,0.657,0.013,9.6
65,11733.00,11733.00,0.00,1.511,1304,0.003,0.836,0.006,0.653,0.012,9.7
66,12824.00,12824.00,0.00,1.344,1425,0.003,0.723,0.006,0.600,0.012,9.5
67,12935.00,12935.00,0.00,1.303,1437,0.003,0.696,0.006,0.586,0.012,9.2
68,12843.00,12843.00,0.00,1.350,1427,0.003,0.731,0.006,0.599,0.012,9.5
69,12208.00,12208.00,0.00,1.366,1357,0.003,0.727,0.006,0.619,0.012,9.3
70,12342.00,12342.00,0.00,1.375,1371,0.003,0.738,0.006,0.616,0.012,9.1
71,12444.00,12444.00,0.00,1.416,1383,0.003,0.775,0.006,0.621,0.012,9.7
72,12855.00,12855.00,0.00,1.303,1428,0.003,0.690,0.006,0.591,0.012,9.1
73,12777.00,12777.00,0.00,1.282,1420,0.003,0.674,0.007,0.586,0.012,8.9
74,8621.00,8621.00,0.00,1.381,958,0.003,0.758,0.006,0.602,0.012,9.7
