Second,Ops/sec,Hits/sec,Misses/sec,Latency,KB/sec,Request_Creation_Time,Request_Buffer_Time,MW_Writes_To_Memcached_Time,Memcached_Process_Time,MW_Writes_To_Memtier_Time,Queue_Size
4,2015.00,2015.00,0.00,5.190,2117,0.014,4.041,0.021,1.081,0.033,30.4
5,9170.00,9170.00,0.00,4.390,9634,0.006,3.519,0.007,0.843,0.014,32.5
6,11485.00,11485.00,0.00,3.660,12066,0.004,2.963,0.007,0.674,0.013,34.0
7,10497.00,10497.00,0.00,4.005,11028,0.003,3.241,0.007,0.741,0.013,33.5
8,11285.00,11285.00,0.00,3.740,11855,0.003,3.031,0.007,0.686,0.013,34.0
9,11703.00,11703.00,0.00,3.552,12295,0.003,2.867,0.007,0.662,0.013,33.5
10,10571.00,10571.00,0.00,3.889,11106,0.003,3.140,0.007,0.727,0.013,33.4
11,9059.00,9059.00,0.00,4.387,9517,0.003,3.502,0.006,0.863,0.012,32.3
12,10944.00,10944.00,0.00,3.776,11498,0.003,3.045,0.006,0.709,0.013,33.2
13,11676.00,11676.00,0.00,3.580,12267,0.003,2.893,0.006,0.665,0.013,34.0
14,12570.00,12570.00,0.00,3.262,13206,0.003,2.624,0.006,0.616,0.013,32.9
15,10443.00,10422.00,21.00,3.957,10949,0.004,3.192,0.007,0.740,0.014,33.9
16,11131.00,11104.00,27.00,3.799,11665,0.003,3.081,0.007,0.694,0.014,34.6
17,12170.00,12170.00,0.00,3.385,12784,0.003,2.728,0.007,0.633,0.014,33.5
18,11955.00,11955.00,0.00,3.402,12559,0.003,2.737,0.007,0.641,0.014,32.9
19,11650.00,11650.00,0.00,3.548,12239,0.003,2.862,0.008,0.661,0.014,33.6
20,11242.00,11242.00,0.00,3.798,11811,0.003,3.088,0.008,0.686,0.014,34.8
21,11295.00,11295.00,0.00,3.612,11867,0.003,2.913,0.008,0.674,0.014,33.4
22,11938.00,11938.00,0.00,3.456,12542,0.003,2.788,0.007,0.645,0.013,33.7
23,11811.00,11811.00,0.00,3.496,12407,0.003,2.819,0.007,0.655,0.013,33.3
24,12285.00,12285.00,0.00,3.430,12906,0.003,2.778,0.007,0.630,0.013,34.3
25,12765.00,12765.00,0.00,3.188,13410,0.003,2.564,0.007,0.601,0.013,33.3
26,11115.00,11115.00,0.00,3.812,11677,0.003,3.090,0.007,0.699,0.014,34.3
27,11767.00,11767.00,0.00,3.483,12362,0.003,2.803,0.006,0.658,0.013,33.4
28,11666.00,11666.00,0.00,3.580,12256,0.003,2.893,0.007,0.664,0.014,33.9
29,11597.00,11597.00,0.00,3.550,12183,0.003,2.859,0.006,0.670,0.013,33.2
30,12301.00,12301.00,0.00,3.295,12923,0.003,2.649,0.006,0.624,0.013,33.0
31,12310.00,12310.00,0.00,3.412,12932,0.003,2.760,0.006,0.630,0.013,34.2
32,11168.00,11168.00,0.00,3.710,11733,0.003,2.994,0.006,0.695,0.013,33.6
33,11897.00,11897.00,0.00,3.471,12499,0.003,2.801,0.006,0.649,0.012,33.8
34,11899.00,11896.00,3.00,3.404,12498,0.002,2.729,0.006,0.654,0.013,32.5
35,11391.00,11354.00,37.00,3.556,11928,0.003,2.860,0.006,0.676,0.012,32.9
36,11120.00,11112.00,8.00,3.805,11673,0.003,3.084,0.006,0.701,0.012,34.1
37,11119.00,11119.00,0.00,3.762,11681,0.002,3.044,0.006,0.697,0.012,33.8
38,11555.00,11555.00,0.00,3.600,12139,0.003,2.906,0.006,0.673,0.012,33.7
39,11977.00,11977.00,0.00,3.444,12583,0.003,2.777,0.006,0.646,0.013,33.6
40,11828.00,11828.00,0.00,3.447,12426,0.003,2.775,0.006,0.651,0.012,33.2
41,11761.00,11761.00,0.00,3.496,12356,0.003,2.814,0.006,0.661,0.012,33.3
42,11463.00,11463.00,0.00,3.641,12043,0.003,2.941,0.006,0.678,0.014,33.8
43,12174.00,12174.00,0.00,3.369,12790,0.003,2.711,0.006,0.638,0.013,33.3
44,11708.00,11708.00,0.00,3.514,12300,0.003,2.829,0.006,0.663,0.013,33.1
45,12835.00,12835.00,0.00,3.071,13484,0.002,2.453,0.006,0.597,0.012,31.9
46,12054.00,12054.00,0.00,3.448,12664,0.003,2.785,0.006,0.642,0.012,33.6
47,11087.00,11087.00,0.00,3.660,11648,0.003,2.945,0.006,0.694,0.013,32.8
48,11804.00,11804.00,0.00,3.515,12401,0.003,2.835,0.006,0.658,0.013,33.7
49,11277.00,11277.00,0.00,3.670,11847,0.002,2.964,0.006,0.685,0.012,33.6
50,11119.00,11119.00,0.00,3.732,11681,0.003,3.012,0.006,0.699,0.013,33.6
51,11790.00,11790.00,0.00,3.584,12386,0.003,2.904,0.006,0.660,0.013,34.5
52,11288.00,11288.00,0.00,3.716,11859,0.003,3.005,0.006,0.689,0.013,34.0
53,11844.00,11844.00,0.00,3.480,12443,0.003,2.803,0.006,0.656,0.013,33.3
54,11746.00,11746.00,0.00,3.537,12341,0.003,2.854,0.006,0.662,0.013,33.7
55,11041.00,11041.00,0.00,3.709,11600,0.003,2.985,0.006,0.702,0.013,32.7
56,11813.00,11813.00,0.00,3.511,12410,0.003,2.832,0.006,0.656,0.014,33.5
57,12388.00,12388.00,0.00,3.344,13014,0.003,2.696,0.006,0.625,0.014,33.5
58,11776.00,11776.00,0.00,3.497,12371,0.003,2.814,0.006,0.660,0.013,33.4
59,11672.00,11672.00,0.00,3.550,12262,0.003,2.864,0.006,0.664,0.013,33.6
60,11935.00,11935.00,0.00,3.454,12539,0.003,2.782,0.006,0.650,0.013,33.4
61,11819.00,11819.00,0.00,3.487,12417,0.003,2.811,0.006,0.654,0.013,33.5
62,12399.00,12399.00,0.00,3.292,13026,0.003,2.646,0.006,0.625,0.013,33.1
63,10814.00,10814.00,0.00,3.891,11361,0.003,3.149,0.006,0.720,0.013,34.1
64,11542.00,11542.00,0.00,3.504,12126,0.002,2.813,0.006,0.670,0.012,32.6
65,11577.00,11577.00,0.00,3.592,12163,0.003,2.899,0.006,0.673,0.012,33.8
66,12750.00,12750.00,0.00,3.178,13395,0.003,2.551,0.006,0.606,0.012,32.6
67,12031.00,12031.00,0.00,3.335,12639,0.003,2.671,0.006,0.642,0.012,32.5
68,12014.00,12014.00,0.00,3.453,12621,0.003,2.785,0.006,0.646,0.013,33.7
69,11748.00,11748.00,0.00,3.462,12342,0.003,2.780,0.006,0.660,0.013,32.4
70,11178.00,11178.00,0.00,3.647,11743,0.003,2.933,0.006,0.692,0.013,33.0
71,12838.00,12838.00,0.00,3.059,13487,0.002,2.444,0.006,0.595,0.012,32.2
72,12092.00,12092.00,0.00,3.392,12703,0.003,2.730,0.006,0.641,0.013,33.1
73,11495.00,11495.00,0.00,3.545,12076,0.003,2.853,0.006,0.671,0.013,33.0
74,8821.00,8821.00,0.00,3.385,9267,0.003,2.717,0.006,0.647,0.012,32.3
