Second,Ops/sec,Hits/sec,Misses/sec,Latency,KB/sec,Request_Creation_Time,Request_Buffer_Time,MW_Writes_To_Memcached_Time,Memcached_Process_Time,MW_Writes_To_Memtier_Time,Queue_Size
4,4023.00,4023.00,0.00,1.428,447,0.013,0.215,0.039,1.132,0.029,1.4
5,12008.00,12008.00,0.00,1.150,1334,0.004,0.116,0.013,1.005,0.012,0.9
6,14065.00,14065.00,0.00,0.941,1563,0.005,0.140,0.012,0.773,0.012,1.2
7,14113.00,14113.00,0.00,0.868,1568,0.004,0.141,0.011,0.701,0.011,1.1
8,14471.00,14466.00,5.00,0.984,1608,0.005,0.093,0.014,0.862,0.010,0.9
9,13638.00,13619.00,19.00,1.079,1513,0.004,0.106,0.012,0.945,0.012,0.9
10,14505.00,14505.00,0.00,1.040,1612,0.005,0.121,0.013,0.891,0.010,1.0
11,14848.00,14848.00,0.00,0.942,1650,0.003,0.107,0.011,0.811,0.009,0.9
12,14675.00,14675.00,0.00,0.929,1630,0.005,0.140,0.012,0.761,0.011,1.2
13,14146.00,14146.00,0.00,1.050,1571,0.003,0.102,0.011,0.921,0.012,0.8
14,14767.00,14767.00,0.00,0.907,1641,0.004,0.111,0.010,0.771,0.011,1.0
15,14060.00,14060.00,0.00,0.993,1562,0.003,0.136,0.010,0.833,0.011,1.0
16,14481.00,14472.00,9.00,0.920,1608,0.005,0.108,0.010,0.787,0.010,0.8
17,14669.00,14655.00,14.00,0.942,1628,0.003,0.107,0.010,0.810,0.012,1.1
18,13914.00,13913.00,1.00,0.994,1546,0.004,0.150,0.012,0.817,0.011,1.3
19,14496.00,14496.00,0.00,0.949,1611,0.003,0.090,0.012,0.832,0.012,0.9
20,14633.00,14633.00,0.00,0.935,1626,0.004,0.108,0.010,0.801,0.012,1.0
21,14735.00,14735.00,0.00,0.863,1638,0.004,0.104,0.013,0.731,0.011,0.9
22,14574.00,14574.00,0.00,0.967,1620,0.005,0.106,0.012,0.832,0.011,0.9
23,14216.00,14216.00,0.00,0.993,1580,0.004,0.129,0.010,0.839,0.011,1.1
24,14956.00,14956.00,0.00,0.886,1662,0.004,0.099,0.013,0.757,0.013,0.9
25,14687.00,14687.00,0.00,0.981,1632,0.004,0.071,0.012,0.882,0.012,0.7
26,14424.00,14424.00,0.00,0.897,1603,0.005,0.083,0.011,0.788,0.010,0.7
27,14950.00,14950.00,0.00,0.838,1661,0.004,0.093,0.011,0.718,0.011,0.9
28,14374.00,14374.00,0.00,0.959,1597,0.006,0.111,0.011,0.821,0.011,0.9
29,13884.00,13884.00,0.00,1.050,1543,0.004,0.117,0.011,0.907,0.011,1.0
30,14519.00,14519.00,0.00,0.987,1613,0.005,0.123,0.010,0.838,0.011,1.1
31,14813.00,14813.00,0.00,0.826,1646,0.005,0.082,0.011,0.715,0.013,0.8
32,14862.00,14862.00,0.00,0.946,1651,0.005,0.099,0.010,0.822,0.011,0.9
33,14473.00,14473.00,0.00,0.941,1608,0.004,0.105,0.011,0.810,0.011,0.9
34,14929.00,14929.00,0.00,0.894,1659,0.003,0.116,0.012,0.751,0.012,1.0
35,14737.00,14737.00,0.00,0.910,1637,0.004,0.093,0.011,0.792,0.011,0.9
36,15078.00,15074.00,4.00,0.930,1675,0.005,0.094,0.011,0.809,0.011,0.9
37,14766.00,14759.00,7.00,0.933,1640,0.006,0.100,0.010,0.804,0.012,0.9
38,14360.00,14353.00,7.00,0.980,1595,0.005,0.124,0.011,0.829,0.011,1.2
39,13247.00,13235.00,12.00,1.037,1471,0.003,0.160,0.010,0.850,0.013,1.2
40,14414.00,14403.00,11.00,1.000,1601,0.004,0.154,0.010,0.822,0.010,1.3
41,14892.00,14880.00,12.00,0.962,1653,0.003,0.091,0.010,0.847,0.010,0.8
42,14453.00,14445.00,8.00,0.973,1605,0.005,0.109,0.011,0.837,0.011,0.9
43,14738.00,14731.00,7.00,0.883,1637,0.004,0.104,0.010,0.753,0.011,0.9
44,14602.00,14599.00,3.00,1.017,1622,0.003,0.109,0.012,0.882,0.011,0.9
45,14520.00,14519.00,1.00,0.998,1613,0.003,0.087,0.013,0.884,0.011,0.8
46,15250.00,15250.00,0.00,0.926,1694,0.004,0.089,0.011,0.812,0.011,0.8
47,14735.00,14735.00,0.00,0.971,1637,0.004,0.113,0.010,0.834,0.010,0.9
48,13995.00,13995.00,0.00,1.113,1555,0.006,0.128,0.010,0.958,0.012,1.1
49,14865.00,14865.00,0.00,0.908,1652,0.004,0.123,0.013,0.756,0.012,1.0
50,14550.00,14550.00,0.00,0.987,1616,0.004,0.118,0.011,0.843,0.011,1.0
51,14392.00,14392.00,0.00,0.898,1599,0.006,0.093,0.010,0.780,0.010,0.9
52,13920.00,13920.00,0.00,0.788,1547,0.004,0.087,0.010,0.677,0.011,0.8
53,13492.00,13492.00,0.00,0.951,1499,0.004,0.093,0.010,0.833,0.010,0.8
54,12986.00,12986.00,0.00,0.834,1443,0.005,0.094,0.012,0.713,0.010,0.8
55,13584.00,13584.00,0.00,0.985,1509,0.005,0.127,0.011,0.831,0.010,1.1
56,14612.00,14612.00,0.00,1.011,1624,0.004,0.091,0.011,0.895,0.011,0.9
57,14167.00,14167.00,0.00,0.967,1574,0.005,0.121,0.012,0.818,0.011,0.9
58,14869.00,14869.00,0.00,0.923,1652,0.005,0.091,0.012,0.805,0.011,0.8
59,13462.00,13462.00,0.00,1.027,1496,0.003,0.076,0.011,0.927,0.011,0.7
60,13728.00,13728.00,0.00,0.913,1525,0.003,0.077,0.010,0.812,0.011,0.8
61,14118.00,14118.00,0.00,0.869,1568,0.005,0.124,0.010,0.719,0.011,1.0
62,14834.00,14834.00,0.00,0.882,1648,0.005,0.097,0.012,0.758,0.010,0.9
63,13522.00,13522.00,0.00,0.942,1502,0.005,0.095,0.011,0.822,0.010,0.8
64,14818.00,14818.00,0.00,0.891,1646,0.006,0.097,0.010,0.767,0.011,0.9
65,14205.00,14205.00,0.00,0.971,1578,0.005,0.113,0.010,0.833,0.010,1.0
66,13886.00,13886.00,0.00,0.927,1543,0.003,0.092,0.010,0.811,0.011,0.8
67,14694.00,14694.00,0.00,0.834,1633,0.005,0.105,0.011,0.703,0.011,0.9
68,14876.00,14876.00,0.00,0.922,1653,0.003,0.081,0.011,0.816,0.011,0.8
69,13724.00,13724.00,0.00,0.998,1525,0.004,0.109,0.012,0.863,0.011,0.9
70,14557.00,14557.00,0.00,0.944,1617,0.003,0.114,0.011,0.804,0.012,0.9
71,13522.00,13522.00,0.00,0.931,1502,0.003,0.149,0.010,0.759,0.010,1.2
72,12890.00,12890.00,0.00,0.880,1432,0.004,0.143,0.010,0.715,0.010,1.1
73,13919.00,13919.00,0.00,0.812,1546,0.004,0.109,0.010,0.679,0.010,0.9
74,7701.00,7701.00,0.00,0.769,856,0.003,0.100,0.010,0.647,0.009,0.9
