Second,Ops/sec,Hits/sec,Misses/sec,Latency,KB/sec,Request_Creation_Time,Request_Buffer_Time,MW_Writes_To_Memcached_Time,Memcached_Process_Time,MW_Writes_To_Memtier_Time,Queue_Size
4,5848.00,5848.00,0.00,2.886,3215,0.014,0.955,0.033,1.834,0.051,10.9
5,20702.00,20702.00,0.00,2.083,11378,0.007,0.465,0.014,1.578,0.019,8.6
6,22408.00,22408.00,0.00,2.114,12315,0.005,0.493,0.014,1.588,0.015,7.3
7,22219.00,22219.00,0.00,1.809,12212,0.005,0.470,0.011,1.310,0.013,7.5
8,21340.00,21340.00,0.00,2.114,11728,0.004,0.450,0.014,1.630,0.015,7.1
9,21274.00,21274.00,0.00,2.037,11692,0.005,0.499,0.013,1.504,0.015,7.3
10,22671.00,22671.00,0.00,1.827,12460,0.004,0.439,0.013,1.359,0.012,6.6
11,23501.00,23501.00,0.00,1.840,12916,0.003,0.414,0.012,1.396,0.015,7.2
12,23197.00,23197.00,0.00,1.942,12749,0.004,0.450,0.011,1.463,0.015,7.0
13,21334.00,21334.00,0.00,2.243,11725,0.004,0.523,0.013,1.689,0.014,7.8
14,21537.00,21531.00,6.00,2.073,11833,0.004,0.487,0.014,1.553,0.014,7.6
15,22265.00,22210.00,55.00,1.982,12206,0.005,0.469,0.014,1.478,0.017,8.0
16,21833.00,21799.00,34.00,2.014,11979,0.003,0.458,0.012,1.526,0.016,7.6
17,22481.00,22480.00,1.00,1.864,12354,0.005,0.485,0.015,1.340,0.019,7.9
18,22049.00,22049.00,0.00,2.084,12117,0.003,0.463,0.015,1.583,0.019,8.0
19,20500.00,20500.00,0.00,2.012,11266,0.005,0.477,0.014,1.501,0.015,7.7
20,21576.00,21576.00,0.00,2.113,11858,0.004,0.499,0.013,1.582,0.014,8.3
21,22644.00,22644.00,0.00,1.847,12445,0.004,0.436,0.013,1.379,0.015,7.2
22,22658.00,22658.00,0.00,2.115,12453,0.005,0.511,0.016,1.569,0.014,7.7
23,21001.00,21001.00,0.00,2.234,11542,0.004,0.589,0.013,1.610,0.019,8.5
24,23826.00,23826.00,0.00,1.895,13094,0.004,0.510,0.014,1.351,0.016,9.5
25,22608.00,22608.00,0.00,2.137,12425,0.004,0.616,0.014,1.488,0.014,9.7
26,22828.00,22828.00,0.00,1.913,12545,0.004,0.473,0.013,1.409,0.014,7.9
27,21611.00,21611.00,0.00,2.131,11877,0.005,0.550,0.014,1.544,0.017,9.1
28,21991.00,21991.00,0.00,2.260,12086,0.004,0.566,0.013,1.660,0.018,8.7
29,21684.00,21684.00,0.00,1.986,11917,0.005,0.567,0.015,1.383,0.016,9.7
30,23256.00,23256.00,0.00,1.855,12781,0.005,0.476,0.015,1.347,0.013,8.7
31,22682.00,22682.00,0.00,1.979,12465,0.003,0.512,0.012,1.438,0.013,9.7
32,22172.00,22172.00,0.00,1.995,12185,0.005,0.456,0.014,1.503,0.017,8.1
33,21343.00,21340.00,3.00,2.139,11729,0.005,0.574,0.014,1.534,0.013,9.2
34,21464.00,21451.00,13.00,2.260,11790,0.004,0.621,0.011,1.608,0.015,8.9
35,22640.00,22614.00,26.00,1.836,12429,0.005,0.433,0.013,1.370,0.015,7.9
36,22921.00,22906.00,15.00,1.834,12589,0.004,0.467,0.014,1.334,0.015,8.2
37,21454.00,21437.00,17.00,2.164,11781,0.004,0.520,0.014,1.610,0.015,7.7
38,22534.00,22524.00,10.00,1.905,12379,0.004,0.489,0.015,1.385,0.013,8.0
39,22628.00,22619.00,9.00,1.674,12431,0.004,0.455,0.014,1.187,0.014,9.4
40,22885.00,22882.00,3.00,1.842,12575,0.004,0.458,0.012,1.355,0.013,7.1
41,22595.00,22595.00,0.00,1.656,12418,0.003,0.399,0.015,1.225,0.014,7.2
42,23351.00,23351.00,0.00,1.763,12834,0.005,0.427,0.015,1.301,0.015,8.1
43,22957.00,22957.00,0.00,2.011,12617,0.004,0.449,0.011,1.529,0.018,7.1
44,21136.00,21136.00,0.00,1.998,11616,0.006,0.514,0.013,1.453,0.012,7.5
45,22975.00,22975.00,0.00,1.788,12627,0.005,0.447,0.013,1.310,0.013,8.1
46,22161.00,22161.00,0.00,1.805,12180,0.003,0.429,0.012,1.346,0.015,8.1
47,22654.00,22654.00,0.00,2.004,12451,0.004,0.522,0.011,1.455,0.012,7.9
48,22938.00,22938.00,0.00,1.955,12607,0.003,0.490,0.012,1.435,0.016,8.3
49,22581.00,22581.00,0.00,1.965,12410,0.003,0.493,0.011,1.443,0.014,8.5
50,21935.00,21935.00,0.00,1.943,12056,0.005,0.439,0.011,1.474,0.014,7.3
51,23752.00,23752.00,0.00,1.643,13054,0.004,0.425,0.011,1.188,0.015,8.2
52,21994.00,21994.00,0.00,1.894,12088,0.004,0.491,0.011,1.375,0.013,8.0
53,22510.00,22510.00,0.00,2.098,12372,0.004,0.513,0.013,1.555,0.013,7.5
54,22740.00,22740.00,0.00,1.878,12498,0.004,0.421,0.013,1.425,0.016,7.6
55,22921.00,22921.00,0.00,1.963,12597,0.004,0.492,0.014,1.439,0.014,7.6
56,22060.00,22060.00,0.00,1.913,12124,0.005,0.497,0.013,1.384,0.014,7.9
57,22587.00,22587.00,0.00,1.839,12414,0.006,0.442,0.013,1.365,0.013,7.9
58,21984.00,21984.00,0.00,2.073,12082,0.004,0.433,0.013,1.608,0.016,6.8
59,21965.00,21965.00,0.00,2.147,12072,0.004,0.519,0.013,1.595,0.015,7.9
60,23370.00,23370.00,0.00,1.727,12844,0.003,0.425,0.010,1.276,0.012,7.3
61,23412.00,23412.00,0.00,1.966,12867,0.004,0.423,0.012,1.510,0.016,7.5
62,22164.00,22164.00,0.00,2.224,12181,0.006,0.491,0.012,1.701,0.014,7.9
63,21977.00,21977.00,0.00,2.007,12078,0.004,0.565,0.011,1.412,0.014,8.6
64,22727.00,22727.00,0.00,2.012,12491,0.005,0.487,0.013,1.492,0.015,8.4
65,21949.00,21949.00,0.00,2.061,12063,0.004,0.610,0.011,1.423,0.012,8.5
66,23130.00,23130.00,0.00,1.763,12712,0.003,0.433,0.012,1.302,0.013,7.8
67,22222.00,22222.00,0.00,2.041,12213,0.005,0.517,0.012,1.496,0.012,8.6
68,22751.00,22751.00,0.00,2.067,12504,0.004,0.497,0.012,1.539,0.014,7.6
69,22436.00,22436.00,0.00,1.765,12331,0.004,0.442,0.013,1.293,0.014,7.5
70,22531.00,22531.00,0.00,1.815,12383,0.005,0.497,0.012,1.288,0.013,7.8
71,22918.00,22918.00,0.00,1.907,12596,0.004,0.429,0.012,1.444,0.017,7.0
72,22743.00,22743.00,0.00,1.705,12499,0.003,0.392,0.010,1.288,0.011,6.4
73,22302.00,22302.00,0.00,2.117,12257,0.004,0.571,0.013,1.517,0.012,8.6
74,11829.00,11829.00,0.00,2.006,6501,0.003,0.457,0.014,1.519,0.013,7.0
