Second,Ops/sec,Hits/sec,Misses/sec,Latency,KB/sec,Request_Creation_Time,Request_Buffer_Time,MW_Writes_To_Memcached_Time,Memcached_Process_Time,MW_Writes_To_Memtier_Time,Queue_Size
4,1256.00,1256.00,0.00,7.134,140,0.027,6.053,0.021,1.005,0.027,51.9
5,9002.00,9002.00,0.00,9.462,1001,0.005,8.573,0.009,0.861,0.014,77.9
6,11360.00,11360.00,0.00,7.814,1263,0.004,7.108,0.007,0.683,0.013,80.6
7,12358.00,12358.00,0.00,7.149,1373,0.003,6.501,0.006,0.626,0.012,80.6
8,11165.00,11165.00,0.00,7.968,1240,0.003,7.249,0.006,0.696,0.013,80.8
9,11515.00,11515.00,0.00,7.708,1280,0.003,7.012,0.006,0.673,0.013,81.1
10,11606.00,11606.00,0.00,7.500,1289,0.003,6.811,0.006,0.669,0.012,79.3
11,9511.00,9511.00,0.00,9.266,1057,0.003,8.421,0.006,0.823,0.012,80.6
12,10773.00,10773.00,0.00,8.203,1196,0.003,7.460,0.006,0.722,0.013,80.0
13,11854.00,11854.00,0.00,7.527,1317,0.003,6.849,0.006,0.657,0.012,81.0
14,12165.00,12165.00,0.00,7.263,1351,0.003,6.604,0.006,0.638,0.013,80.6
15,12068.00,12068.00,0.00,7.163,1341,0.003,6.499,0.006,0.644,0.012,78.4
16,11557.00,11557.00,0.00,7.686,1284,0.002,6.991,0.006,0.675,0.012,80.8
17,12190.00,12190.00,0.00,7.069,1354,0.003,6.413,0.006,0.635,0.012,78.1
18,10679.00,10679.00,0.00,8.206,1187,0.003,7.457,0.006,0.728,0.012,79.8
19,12220.00,12220.00,0.00,7.248,1358,0.003,6.592,0.006,0.636,0.012,81.3
20,11915.00,11915.00,0.00,7.169,1325,0.003,6.496,0.006,0.651,0.014,78.0
21,11601.00,11601.00,0.00,7.622,1289,0.003,6.929,0.006,0.671,0.012,80.1
22,11456.00,11456.00,0.00,7.608,1273,0.003,6.908,0.006,0.678,0.013,79.2
23,11904.00,11904.00,0.00,7.356,1323,0.003,6.683,0.008,0.650,0.013,79.7
24,11342.00,11342.00,0.00,7.798,1260,0.003,7.091,0.006,0.685,0.013,80.0
25,10616.00,10600.00,16.00,8.201,1177,0.003,7.448,0.007,0.730,0.013,79.8
26,12590.00,12510.00,80.00,7.063,1390,0.003,6.426,0.007,0.615,0.013,80.5
27,11161.00,11161.00,0.00,7.994,1240,0.003,7.276,0.007,0.694,0.014,81.1
28,11542.00,11542.00,0.00,7.683,1281,0.003,6.990,0.006,0.671,0.013,80.4
29,11617.00,11617.00,0.00,7.696,1290,0.003,7.005,0.007,0.667,0.014,81.8
30,11522.00,11522.00,0.00,7.712,1280,0.003,7.016,0.006,0.673,0.013,80.9
31,11467.00,11467.00,0.00,7.841,1274,0.003,7.142,0.006,0.676,0.014,82.2
32,13674.00,13674.00,0.00,6.382,1519,0.003,5.795,0.006,0.566,0.012,79.3
33,12359.00,12359.00,0.00,7.090,1373,0.003,6.442,0.006,0.626,0.013,79.9
34,11977.00,11977.00,0.00,7.356,1331,0.003,6.687,0.006,0.648,0.013,80.5
35,12330.00,12330.00,0.00,7.218,1371,0.003,6.567,0.006,0.629,0.013,81.0
36,10508.00,10508.00,0.00,8.292,1168,0.003,7.533,0.006,0.737,0.013,79.5
37,11793.00,11793.00,0.00,7.547,1311,0.003,6.866,0.006,0.659,0.013,81.0
38,11895.00,11895.00,0.00,7.489,1322,0.003,6.815,0.007,0.651,0.013,81.2
39,12124.00,12124.00,0.00,7.282,1348,0.003,6.620,0.006,0.640,0.013,80.5
40,11244.00,11244.00,0.00,7.913,1249,0.003,7.201,0.006,0.689,0.013,81.1
41,12105.00,12105.00,0.00,7.334,1344,0.003,6.670,0.006,0.642,0.013,80.5
42,11874.00,11874.00,0.00,7.462,1319,0.003,6.786,0.006,0.653,0.014,80.8
43,12201.00,12201.00,0.00,7.221,1356,0.003,6.564,0.006,0.634,0.014,80.9
44,12300.00,12300.00,0.00,7.275,1366,0.003,6.622,0.006,0.631,0.013,81.0
45,12064.00,12064.00,0.00,7.249,1340,0.003,6.583,0.006,0.644,0.013,79.9
46,12232.00,12232.00,0.00,7.199,1359,0.003,6.544,0.006,0.635,0.012,79.9
47,12691.00,12691.00,0.00,6.887,1410,0.003,6.255,0.006,0.611,0.013,79.8
48,12331.00,12331.00,0.00,7.210,1369,0.003,6.559,0.006,0.629,0.013,81.3
49,11329.00,11329.00,0.00,7.868,1259,0.003,7.162,0.006,0.685,0.013,81.4
50,11410.00,11410.00,0.00,7.689,1268,0.003,6.984,0.006,0.682,0.013,80.3
51,12105.00,12105.00,0.00,7.389,1345,0.003,6.726,0.006,0.641,0.013,81.7
52,12153.00,12153.00,0.00,7.214,1351,0.003,6.554,0.006,0.638,0.013,79.7
53,12174.00,12174.00,0.00,7.262,1352,0.003,6.600,0.006,0.640,0.013,80.6
54,11924.00,11924.00,0.00,7.421,1325,0.003,6.751,0.006,0.650,0.012,81.0
55,11981.00,11981.00,0.00,7.384,1330,0.003,6.714,0.006,0.648,0.013,80.7
56,10968.00,10968.00,0.00,8.131,1218,0.003,7.401,0.007,0.706,0.014,80.7
57,12484.00,12484.00,0.00,7.039,1387,0.003,6.395,0.006,0.623,0.013,80.0
58,12085.00,12085.00,0.00,7.310,1343,0.003,6.647,0.006,0.641,0.013,80.5
59,12517.00,12517.00,0.00,7.075,1391,0.003,6.433,0.007,0.620,0.013,80.7
60,13179.00,13179.00,0.00,6.611,1465,0.003,6.002,0.006,0.587,0.013,79.2
61,11637.00,11637.00,0.00,7.698,1294,0.003,7.008,0.006,0.669,0.012,81.7
62,12120.00,12120.00,0.00,7.359,1347,0.003,6.698,0.006,0.639,0.013,81.4
63,12546.00,12533.00,13.00,6.911,1393,0.003,6.272,0.006,0.617,0.014,79.6
64,11569.00,11515.00,54.00,7.642,1280,0.003,6.948,0.007,0.671,0.013,80.2
65,12025.00,11996.00,29.00,7.348,1333,0.003,6.681,0.006,0.646,0.013,80.6
66,11503.00,11503.00,0.00,7.656,1277,0.003,6.959,0.006,0.676,0.013,80.4
67,11144.00,11144.00,0.00,7.985,1237,0.003,7.265,0.006,0.698,0.013,80.6
68,12128.00,12128.00,0.00,7.291,1347,0.003,6.629,0.006,0.640,0.013,80.8
69,12562.00,12562.00,0.00,7.053,1396,0.003,6.414,0.006,0.617,0.013,80.6
70,11474.00,11474.00,0.00,7.718,1274,0.003,7.018,0.006,0.678,0.013,80.4
71,12291.00,12291.00,0.00,7.201,1365,0.002,6.549,0.006,0.632,0.012,80.8
72,11619.00,11619.00,0.00,7.683,1292,0.003,6.992,0.006,0.669,0.013,81.4
73,11438.00,11438.00,0.00,7.829,1271,0.003,7.128,0.006,0.679,0.013,81.3
74,10245.00,10245.00,0.00,7.135,1139,0.003,6.461,0.007,0.652,0.013,75.7
75,2750.00,2750.00,0.00,0.635,306,0.004,0.076,0.018,0.523,0.014,0.1
