Second,Ops/sec,Hits/sec,Misses/sec,Latency,KB/sec,Request_Creation_Time,Request_Buffer_Time,MW_Writes_To_Memcached_Time,Memcached_Process_Time,MW_Writes_To_Memtier_Time,Queue_Size
4,2098.00,2098.00,0.00,8.274,233,0.017,7.208,0.044,0.972,0.034,59.8
5,10522.00,10522.00,0.00,8.359,1170,0.005,7.596,0.008,0.737,0.013,80.1
6,11223.00,11223.00,0.00,7.995,1248,0.004,7.280,0.007,0.690,0.013,81.7
7,12399.00,12399.00,0.00,7.146,1378,0.003,6.500,0.007,0.623,0.013,80.6
8,11678.00,11678.00,0.00,7.520,1298,0.003,6.835,0.007,0.663,0.013,80.1
9,11380.00,11380.00,0.00,7.816,1265,0.003,7.113,0.007,0.679,0.014,80.8
10,9710.00,9710.00,0.00,9.158,1079,0.003,8.333,0.007,0.802,0.013,80.6
11,10075.00,10075.00,0.00,8.717,1120,0.003,7.921,0.007,0.774,0.013,79.5
12,10974.00,10974.00,0.00,8.227,1218,0.003,7.496,0.006,0.710,0.013,82.1
13,11480.00,11480.00,0.00,7.715,1275,0.003,7.018,0.006,0.676,0.013,81.3
14,11834.00,11834.00,0.00,7.526,1315,0.003,6.847,0.006,0.658,0.013,80.2
15,11886.00,11886.00,0.00,7.428,1321,0.003,6.754,0.006,0.653,0.013,80.3
16,12161.00,12161.00,0.00,7.275,1351,0.003,6.616,0.007,0.637,0.013,80.8
17,12280.00,12280.00,0.00,7.173,1364,0.003,6.519,0.006,0.633,0.012,79.8
18,11929.00,11929.00,0.00,7.451,1326,0.003,6.778,0.007,0.648,0.014,81.1
19,12137.00,12137.00,0.00,7.345,1348,0.003,6.685,0.007,0.639,0.013,81.3
20,12858.00,12858.00,0.00,6.832,1429,0.003,6.207,0.006,0.602,0.014,80.3
21,11197.00,11197.00,0.00,7.893,1245,0.003,7.177,0.007,0.693,0.013,80.3
22,11866.00,11866.00,0.00,7.445,1318,0.003,6.769,0.007,0.653,0.014,80.7
23,12485.00,12485.00,0.00,7.050,1388,0.003,6.408,0.007,0.620,0.013,80.1
24,11062.00,11062.00,0.00,8.121,1228,0.003,7.396,0.007,0.702,0.014,82.0
25,11802.00,11726.00,76.00,7.402,1303,0.003,6.722,0.007,0.653,0.016,79.6
26,11526.00,11506.00,20.00,7.693,1278,0.003,6.998,0.007,0.671,0.014,80.9
27,11625.00,11625.00,0.00,7.670,1291,0.003,6.981,0.007,0.667,0.013,81.2
28,11950.00,11950.00,0.00,7.399,1326,0.003,6.727,0.007,0.649,0.013,80.7
29,11759.00,11759.00,0.00,7.596,1306,0.003,6.914,0.007,0.659,0.013,81.4
30,11754.00,11754.00,0.00,7.499,1306,0.003,6.817,0.007,0.660,0.013,80.4
31,11628.00,11628.00,0.00,7.545,1292,0.003,6.857,0.007,0.666,0.013,79.5
32,12197.00,12197.00,0.00,7.241,1355,0.003,6.582,0.006,0.636,0.013,80.5
33,12317.00,12317.00,0.00,7.199,1368,0.003,6.548,0.007,0.629,0.013,80.9
34,11101.00,11101.00,0.00,8.112,1233,0.003,7.390,0.007,0.700,0.013,81.9
35,12199.00,12199.00,0.00,7.189,1356,0.003,6.531,0.007,0.635,0.013,80.0
36,12258.00,12258.00,0.00,7.231,1363,0.003,6.576,0.006,0.632,0.013,80.8
37,11592.00,11592.00,0.00,7.547,1288,0.003,6.855,0.006,0.670,0.013,79.9
38,13083.00,13083.00,0.00,6.767,1454,0.003,6.155,0.006,0.592,0.012,80.5
39,11764.00,11764.00,0.00,7.577,1308,0.003,6.894,0.007,0.661,0.013,81.5
40,11473.00,11473.00,0.00,7.816,1274,0.003,7.117,0.007,0.677,0.013,81.2
41,11822.00,11822.00,0.00,7.383,1312,0.003,6.706,0.006,0.656,0.012,79.9
42,11610.00,11610.00,0.00,7.547,1291,0.003,6.855,0.006,0.670,0.013,79.7
43,11240.00,11240.00,0.00,7.831,1249,0.003,7.117,0.006,0.692,0.013,80.1
44,12680.00,12680.00,0.00,6.990,1409,0.003,6.357,0.006,0.611,0.013,80.7
45,12329.00,12329.00,0.00,7.066,1370,0.002,6.415,0.006,0.629,0.013,79.5
46,11183.00,11183.00,0.00,7.913,1242,0.003,7.196,0.006,0.694,0.014,80.1
47,12015.00,12015.00,0.00,7.390,1334,0.002,6.721,0.006,0.647,0.013,80.6
48,11467.00,11467.00,0.00,7.716,1273,0.003,7.018,0.006,0.677,0.013,80.6
49,12218.00,12218.00,0.00,7.268,1358,0.003,6.611,0.006,0.634,0.013,80.8
50,12121.00,12121.00,0.00,7.367,1347,0.003,6.704,0.007,0.641,0.013,81.3
51,12172.00,12172.00,0.00,7.299,1353,0.003,6.640,0.007,0.636,0.013,81.1
52,11850.00,11850.00,0.00,7.420,1317,0.003,6.742,0.006,0.656,0.013,79.9
53,11972.00,11972.00,0.00,7.369,1330,0.003,6.699,0.006,0.648,0.013,80.4
54,12473.00,12473.00,0.00,7.065,1386,0.003,6.421,0.006,0.622,0.013,80.1
55,11332.00,11332.00,0.00,7.820,1258,0.003,7.112,0.006,0.686,0.013,80.8
56,12236.00,12236.00,0.00,7.222,1359,0.003,6.567,0.006,0.634,0.012,80.2
57,11889.00,11889.00,0.00,7.452,1321,0.003,6.777,0.006,0.652,0.014,80.6
58,11514.00,11514.00,0.00,7.746,1279,0.003,7.049,0.006,0.674,0.013,81.2
59,11524.00,11524.00,0.00,7.626,1281,0.003,6.929,0.006,0.674,0.013,80.2
60,12642.00,12642.00,0.00,6.913,1405,0.003,6.278,0.007,0.611,0.013,79.6
61,11561.00,11561.00,0.00,7.775,1285,0.003,7.081,0.006,0.672,0.013,81.7
62,12493.00,12493.00,0.00,6.992,1389,0.003,6.350,0.007,0.620,0.013,79.3
63,11870.00,11857.00,13.00,7.367,1318,0.002,6.691,0.006,0.655,0.012,80.1
64,11207.00,11147.00,60.00,7.957,1239,0.003,7.244,0.006,0.692,0.012,81.3
65,12362.00,12340.00,22.00,6.964,1371,0.002,6.315,0.006,0.627,0.013,78.3
66,12034.00,12033.00,1.00,7.377,1336,0.003,6.710,0.006,0.646,0.013,80.8
67,12275.00,12275.00,0.00,7.229,1363,0.003,6.575,0.006,0.633,0.013,80.8
68,12507.00,12507.00,0.00,7.014,1389,0.003,6.372,0.007,0.620,0.012,79.8
69,11373.00,11373.00,0.00,7.725,1264,0.003,7.019,0.006,0.685,0.013,79.7
70,12288.00,12288.00,0.00,7.177,1365,0.003,6.524,0.006,0.631,0.013,80.3
71,11820.00,11820.00,0.00,7.461,1313,0.003,6.782,0.006,0.658,0.012,80.1
72,12620.00,12620.00,0.00,7.026,1403,0.003,6.390,0.006,0.615,0.012,80.6
73,11934.00,11934.00,0.00,7.499,1326,0.002,6.828,0.006,0.651,0.012,81.6
74,8719.00,8719.00,0.00,7.148,969,0.003,6.484,0.006,0.641,0.014,78.4
