Second,Ops/sec,Hits/sec,Misses/sec,Latency,KB/sec,Request_Creation_Time,Request_Buffer_Time,MW_Writes_To_Memcached_Time,Memcached_Process_Time,MW_Writes_To_Memtier_Time,Queue_Size
4,2429.00,2429.00,0.00,4.138,728,0.013,3.214,0.014,0.861,0.036,30.2
5,9190.00,9190.00,0.00,4.386,2754,0.005,3.512,0.007,0.846,0.015,32.9
6,11936.00,11936.00,0.00,3.447,3576,0.004,2.777,0.007,0.646,0.013,33.2
7,11003.00,11003.00,0.00,3.762,3297,0.003,3.034,0.007,0.705,0.013,33.1
8,11835.00,11835.00,0.00,3.413,3545,0.003,2.739,0.007,0.651,0.013,33.0
9,11985.00,11985.00,0.00,3.387,3591,0.003,2.721,0.007,0.643,0.013,33.0
10,11254.00,11254.00,0.00,3.625,3371,0.003,2.913,0.007,0.689,0.014,32.8
11,11317.00,11317.00,0.00,3.540,3391,0.003,2.832,0.006,0.687,0.012,32.5
12,10254.00,10254.00,0.00,4.066,3072,0.003,3.286,0.006,0.758,0.013,33.6
13,10953.00,10953.00,0.00,3.725,3282,0.003,2.997,0.006,0.706,0.013,32.7
14,11015.00,11015.00,0.00,3.771,3300,0.003,3.043,0.006,0.706,0.012,33.5
15,10779.00,10738.00,41.00,3.875,3217,0.003,3.133,0.007,0.718,0.014,34.1
16,10663.00,10656.00,7.00,3.967,3192,0.003,3.217,0.008,0.723,0.015,34.5
17,11928.00,11928.00,0.00,3.395,3573,0.003,2.728,0.007,0.643,0.014,33.1
18,11918.00,11918.00,0.00,3.408,3570,0.003,2.743,0.008,0.640,0.014,33.6
19,10470.00,10470.00,0.00,3.916,3137,0.003,3.153,0.007,0.739,0.014,33.6
20,12104.00,12104.00,0.00,3.408,3626,0.003,2.749,0.007,0.635,0.014,33.7
21,12466.00,12466.00,0.00,3.289,3735,0.003,2.651,0.007,0.615,0.014,33.7
22,11195.00,11195.00,0.00,3.643,3354,0.003,2.935,0.007,0.685,0.013,33.1
23,12452.00,12452.00,0.00,3.323,3730,0.003,2.679,0.007,0.621,0.014,33.4
24,12001.00,12001.00,0.00,3.323,3595,0.003,2.660,0.007,0.640,0.013,32.6
25,11561.00,11561.00,0.00,3.507,3463,0.003,2.815,0.006,0.669,0.014,33.0
26,11485.00,11485.00,0.00,3.634,3440,0.003,2.939,0.007,0.672,0.014,33.9
27,11621.00,11621.00,0.00,3.579,3481,0.003,2.888,0.006,0.668,0.013,33.7
28,11544.00,11544.00,0.00,3.548,3459,0.003,2.853,0.007,0.671,0.013,32.7
29,11845.00,11845.00,0.00,3.361,3549,0.003,2.694,0.006,0.644,0.013,32.5
30,11479.00,11479.00,0.00,3.431,3438,0.003,2.746,0.006,0.662,0.013,32.6
31,11532.00,11532.00,0.00,3.617,3455,0.003,2.922,0.006,0.673,0.013,33.9
32,11058.00,11058.00,0.00,3.801,3313,0.003,3.076,0.006,0.703,0.013,33.9
33,12762.00,12762.00,0.00,3.120,3824,0.003,2.493,0.006,0.605,0.013,32.0
34,12244.00,12237.00,7.00,3.372,3667,0.003,2.717,0.006,0.633,0.013,33.4
35,11601.00,11567.00,34.00,3.511,3466,0.003,2.822,0.006,0.667,0.013,32.6
36,11775.00,11768.00,7.00,3.512,3525,0.003,2.832,0.006,0.658,0.013,33.8
37,11410.00,11410.00,0.00,3.630,3418,0.003,2.926,0.006,0.681,0.014,33.3
38,11498.00,11498.00,0.00,3.577,3444,0.003,2.880,0.006,0.674,0.014,33.0
39,12129.00,12129.00,0.00,3.432,3634,0.003,2.769,0.006,0.640,0.013,33.8
40,11955.00,11955.00,0.00,3.456,3582,0.003,2.785,0.006,0.650,0.013,33.4
41,11865.00,11865.00,0.00,3.474,3554,0.003,2.797,0.006,0.655,0.013,33.2
42,11093.00,11093.00,0.00,3.711,3323,0.003,2.989,0.006,0.699,0.013,33.1
43,11398.00,11398.00,0.00,3.702,3415,0.003,2.998,0.006,0.682,0.013,34.1
44,12340.00,12340.00,0.00,3.334,3697,0.003,2.683,0.007,0.628,0.013,33.3
45,12573.00,12573.00,0.00,3.289,3767,0.003,2.651,0.006,0.616,0.013,33.8
46,11726.00,11726.00,0.00,3.489,3513,0.003,2.809,0.006,0.659,0.013,33.5
47,11376.00,11376.00,0.00,3.575,3409,0.003,2.879,0.006,0.673,0.014,33.0
48,12131.00,12131.00,0.00,3.456,3634,0.003,2.795,0.006,0.639,0.013,33.8
49,11035.00,11035.00,0.00,3.721,3306,0.003,2.997,0.006,0.702,0.013,33.4
50,11498.00,11498.00,0.00,3.596,3445,0.003,2.898,0.006,0.677,0.013,33.3
51,11501.00,11501.00,0.00,3.497,3446,0.003,2.806,0.006,0.669,0.012,33.2
52,11493.00,11493.00,0.00,3.606,3444,0.003,2.909,0.006,0.675,0.013,33.5
53,11804.00,11804.00,0.00,3.482,3537,0.003,2.804,0.006,0.656,0.013,33.0
54,12892.00,12892.00,0.00,3.175,3863,0.003,2.554,0.006,0.600,0.013,33.2
55,12389.00,12389.00,0.00,3.353,3712,0.003,2.705,0.006,0.626,0.013,33.9
56,10549.00,10549.00,0.00,3.884,3160,0.003,3.129,0.006,0.734,0.013,33.2
57,11300.00,11300.00,0.00,3.665,3385,0.003,2.959,0.006,0.685,0.012,34.0
58,11993.00,11993.00,0.00,3.434,3593,0.003,2.765,0.006,0.648,0.013,33.4
59,11703.00,11703.00,0.00,3.510,3506,0.003,2.825,0.006,0.663,0.013,32.9
60,13107.00,13107.00,0.00,3.122,3927,0.003,2.509,0.006,0.591,0.013,33.2
61,12100.00,12100.00,0.00,3.412,3625,0.003,2.750,0.006,0.639,0.013,33.7
62,10624.00,10624.00,0.00,3.929,3183,0.003,3.177,0.006,0.731,0.013,33.8
63,12647.00,12647.00,0.00,3.297,3789,0.003,2.660,0.006,0.615,0.013,33.6
64,11911.00,11911.00,0.00,3.491,3569,0.003,2.817,0.006,0.651,0.014,33.8
65,11887.00,11887.00,0.00,3.411,3561,0.003,2.736,0.007,0.651,0.014,32.4
66,12124.00,12124.00,0.00,3.416,3632,0.003,2.755,0.006,0.639,0.013,33.7
67,12000.00,12000.00,0.00,3.405,3595,0.003,2.740,0.007,0.643,0.013,33.2
68,10966.00,10966.00,0.00,3.770,3285,0.003,3.045,0.006,0.703,0.013,33.1
69,11436.00,11436.00,0.00,3.441,3426,0.003,2.752,0.006,0.668,0.013,32.3
70,12361.00,12361.00,0.00,3.290,3703,0.003,2.642,0.006,0.628,0.012,33.0
71,11971.00,11971.00,0.00,3.409,3586,0.003,2.741,0.006,0.647,0.013,33.1
72,11823.00,11823.00,0.00,3.484,3542,0.003,2.810,0.006,0.653,0.013,33.5
73,10839.00,10839.00,0.00,3.747,3247,0.003,3.012,0.006,0.713,0.013,32.8
74,8923.00,8923.00,0.00,3.288,2673,0.003,2.653,0.006,0.613,0.014,33.6
