Second,Ops/sec,Hits/sec,Misses/sec,Latency,KB/sec,Request_Creation_Time,Request_Buffer_Time,MW_Writes_To_Memcached_Time,Memcached_Process_Time,MW_Writes_To_Memtier_Time,Queue_Size
4,2998.00,2998.00,0.00,1.416,333,0.019,0.198,0.033,1.140,0.026,1.2
5,12492.00,12492.00,0.00,1.192,1388,0.006,0.106,0.012,1.058,0.011,0.8
6,14892.00,14892.00,0.00,0.967,1654,0.006,0.140,0.010,0.800,0.011,1.1
7,14882.00,14882.00,0.00,0.857,1654,0.006,0.126,0.011,0.702,0.012,1.0
8,14624.00,14615.00,9.00,0.982,1624,0.004,0.114,0.012,0.838,0.013,1.1
9,14201.00,14186.00,15.00,1.149,1576,0.004,0.109,0.012,1.015,0.010,1.0
10,14171.00,14171.00,0.00,0.994,1575,0.005,0.114,0.012,0.849,0.014,1.0
11,15279.00,15279.00,0.00,0.987,1698,0.003,0.119,0.013,0.838,0.014,1.1
12,14845.00,14845.00,0.00,0.999,1649,0.003,0.098,0.010,0.876,0.011,0.9
13,15278.00,15278.00,0.00,0.909,1697,0.003,0.103,0.011,0.781,0.010,0.9
14,14972.00,14972.00,0.00,0.941,1663,0.003,0.108,0.013,0.805,0.012,0.9
15,14407.00,14407.00,0.00,1.063,1601,0.003,0.102,0.010,0.937,0.011,0.9
16,15194.00,15177.00,17.00,0.971,1687,0.004,0.110,0.011,0.837,0.010,1.1
17,15220.00,15213.00,7.00,0.936,1690,0.003,0.110,0.010,0.802,0.011,1.1
18,15091.00,15091.00,0.00,0.943,1677,0.004,0.088,0.011,0.831,0.010,0.9
19,14709.00,14709.00,0.00,1.007,1634,0.004,0.104,0.013,0.876,0.012,1.0
20,15149.00,15149.00,0.00,0.951,1683,0.003,0.105,0.012,0.819,0.012,1.0
21,15072.00,15072.00,0.00,0.998,1675,0.003,0.084,0.011,0.889,0.011,1.0
22,15258.00,15258.00,0.00,0.931,1696,0.003,0.132,0.010,0.774,0.011,1.2
23,15288.00,15288.00,0.00,0.881,1699,0.003,0.123,0.011,0.733,0.011,1.2
24,14999.00,14999.00,0.00,1.003,1667,0.003,0.098,0.011,0.880,0.010,0.9
25,15507.00,15507.00,0.00,0.959,1723,0.003,0.097,0.011,0.837,0.011,1.0
26,15350.00,15350.00,0.00,0.989,1705,0.003,0.096,0.010,0.869,0.011,0.9
27,14548.00,14548.00,0.00,1.051,1617,0.003,0.126,0.011,0.900,0.011,1.2
28,14838.00,14838.00,0.00,0.984,1649,0.004,0.123,0.010,0.835,0.012,1.1
29,15766.00,15766.00,0.00,0.945,1752,0.004,0.090,0.011,0.829,0.012,0.8
30,14168.00,14168.00,0.00,1.065,1574,0.003,0.101,0.010,0.941,0.011,0.9
31,15015.00,15015.00,0.00,0.976,1668,0.003,0.111,0.011,0.841,0.010,1.0
32,14826.00,14826.00,0.00,0.849,1647,0.005,0.114,0.010,0.708,0.012,1.0
33,14125.00,14125.00,0.00,1.122,1569,0.003,0.168,0.011,0.928,0.011,1.3
34,15353.00,15353.00,0.00,0.922,1706,0.003,0.090,0.010,0.809,0.011,0.9
35,15124.00,15121.00,3.00,0.959,1681,0.003,0.100,0.012,0.833,0.011,0.9
36,14705.00,14696.00,9.00,0.958,1633,0.004,0.088,0.011,0.844,0.011,0.8
37,15864.00,15860.00,4.00,0.916,1762,0.003,0.084,0.011,0.807,0.010,0.8
38,15280.00,15270.00,10.00,0.950,1697,0.003,0.106,0.011,0.816,0.012,1.0
39,15067.00,15048.00,19.00,0.943,1672,0.005,0.104,0.011,0.812,0.011,1.0
40,15000.00,14987.00,13.00,0.946,1665,0.003,0.119,0.010,0.802,0.011,1.0
41,14877.00,14874.00,3.00,0.881,1653,0.003,0.107,0.011,0.749,0.011,0.9
42,15160.00,15154.00,6.00,0.979,1684,0.003,0.102,0.011,0.851,0.011,1.1
43,15000.00,14997.00,3.00,0.973,1666,0.003,0.117,0.011,0.832,0.010,1.0
44,15478.00,15476.00,2.00,0.925,1719,0.003,0.105,0.010,0.795,0.012,1.1
45,14812.00,14812.00,0.00,0.966,1645,0.003,0.102,0.011,0.839,0.011,0.8
46,15078.00,15078.00,0.00,0.955,1675,0.003,0.104,0.010,0.828,0.010,0.8
47,15543.00,15543.00,0.00,0.913,1727,0.003,0.100,0.011,0.787,0.012,1.0
48,15337.00,15337.00,0.00,0.986,1704,0.003,0.106,0.010,0.857,0.011,1.0
49,13781.00,13781.00,0.00,1.074,1531,0.003,0.173,0.010,0.876,0.011,1.3
50,13979.00,13979.00,0.00,1.064,1553,0.003,0.183,0.010,0.858,0.010,1.5
51,14542.00,14542.00,0.00,0.957,1616,0.003,0.158,0.010,0.776,0.011,1.3
52,14578.00,14578.00,0.00,0.896,1620,0.003,0.129,0.010,0.742,0.012,1.1
53,15414.00,15414.00,0.00,0.875,1713,0.003,0.137,0.012,0.711,0.011,1.1
54,14658.00,14658.00,0.00,0.964,1629,0.004,0.123,0.012,0.814,0.011,1.1
55,14471.00,14471.00,0.00,1.047,1608,0.003,0.129,0.010,0.893,0.011,1.1
56,15431.00,15431.00,0.00,0.951,1715,0.003,0.076,0.009,0.853,0.009,0.8
57,15882.00,15882.00,0.00,0.914,1765,0.003,0.079,0.010,0.810,0.011,0.8
58,13963.00,13963.00,0.00,1.003,1552,0.004,0.145,0.011,0.832,0.011,1.3
59,15045.00,15045.00,0.00,0.925,1672,0.003,0.096,0.011,0.804,0.011,1.0
60,13105.00,13105.00,0.00,1.120,1456,0.004,0.196,0.011,0.899,0.010,1.6
61,14158.00,14158.00,0.00,1.102,1573,0.003,0.158,0.010,0.920,0.012,1.1
62,13772.00,13772.00,0.00,1.083,1530,0.003,0.239,0.009,0.822,0.010,1.7
63,14949.00,14949.00,0.00,1.009,1661,0.003,0.132,0.010,0.853,0.012,1.2
64,14433.00,14433.00,0.00,1.040,1604,0.003,0.117,0.010,0.901,0.009,0.9
65,14563.00,14563.00,0.00,0.982,1618,0.003,0.146,0.010,0.812,0.011,1.2
66,14417.00,14417.00,0.00,0.977,1602,0.003,0.137,0.010,0.817,0.010,1.2
67,14852.00,14852.00,0.00,0.968,1650,0.003,0.117,0.011,0.826,0.011,1.0
68,15078.00,15078.00,0.00,0.890,1675,0.004,0.137,0.012,0.726,0.011,1.0
69,15217.00,15217.00,0.00,0.969,1691,0.004,0.101,0.010,0.844,0.010,1.0
70,14435.00,14435.00,0.00,0.976,1604,0.003,0.134,0.011,0.817,0.011,1.1
71,14812.00,14812.00,0.00,1.008,1646,0.003,0.145,0.011,0.838,0.012,1.3
72,14938.00,14938.00,0.00,0.956,1660,0.004,0.120,0.011,0.811,0.011,1.1
73,15081.00,15081.00,0.00,0.971,1675,0.004,0.124,0.011,0.821,0.012,1.0
74,9685.00,9685.00,0.00,0.963,1076,0.003,0.122,0.010,0.817,0.011,1.0
