Second,Ops/sec,Hits/sec,Misses/sec,Latency,KB/sec,Request_Creation_Time,Request_Buffer_Time,MW_Writes_To_Memcached_Time,Memcached_Process_Time,MW_Writes_To_Memtier_Time,Queue_Size
4,4046.00,4046.00,0.00,1.549,2224,0.020,0.324,0.040,1.126,0.039,1.2
5,11845.00,11845.00,0.00,1.155,6510,0.006,0.164,0.012,0.963,0.011,1.2
6,14384.00,14384.00,0.00,0.948,7905,0.006,0.131,0.012,0.786,0.013,1.1
7,14149.00,14149.00,0.00,0.938,7776,0.006,0.103,0.011,0.805,0.012,0.8
8,13952.00,13948.00,4.00,0.953,7666,0.006,0.109,0.013,0.809,0.016,1.0
9,14222.00,14202.00,20.00,0.946,7805,0.005,0.143,0.013,0.770,0.014,1.2
10,14444.00,14444.00,0.00,0.966,7938,0.005,0.109,0.011,0.830,0.012,1.0
11,15121.00,15121.00,0.00,0.893,8311,0.003,0.113,0.011,0.752,0.013,0.9
12,14996.00,14996.00,0.00,0.950,8241,0.003,0.085,0.010,0.839,0.012,0.8
13,13742.00,13742.00,0.00,1.074,7552,0.005,0.144,0.011,0.903,0.013,1.1
14,14948.00,14948.00,0.00,0.930,8215,0.003,0.087,0.010,0.819,0.011,0.9
15,15017.00,15017.00,0.00,0.931,8253,0.004,0.081,0.013,0.821,0.011,0.8
16,14072.00,14062.00,10.00,0.948,7729,0.004,0.092,0.012,0.830,0.010,0.9
17,14977.00,14965.00,12.00,0.917,8224,0.003,0.091,0.010,0.800,0.013,0.9
18,14322.00,14320.00,2.00,0.930,7870,0.004,0.113,0.011,0.789,0.013,1.0
19,14225.00,14225.00,0.00,0.961,7818,0.004,0.165,0.011,0.771,0.011,1.2
20,14463.00,14463.00,0.00,0.932,7949,0.006,0.116,0.012,0.785,0.012,1.1
21,14611.00,14611.00,0.00,0.883,8030,0.005,0.107,0.010,0.750,0.011,1.0
22,14783.00,14783.00,0.00,0.902,8125,0.003,0.118,0.012,0.757,0.011,1.0
23,14475.00,14475.00,0.00,0.928,7956,0.004,0.109,0.011,0.792,0.012,0.9
24,14172.00,14172.00,0.00,0.959,7789,0.004,0.135,0.013,0.794,0.013,1.0
25,15149.00,15149.00,0.00,0.871,8326,0.004,0.116,0.011,0.730,0.011,0.9
26,15041.00,15041.00,0.00,0.958,8266,0.004,0.089,0.011,0.841,0.013,0.9
27,14856.00,14856.00,0.00,0.960,8165,0.003,0.120,0.013,0.813,0.011,0.9
28,14432.00,14432.00,0.00,0.979,7932,0.004,0.121,0.013,0.829,0.012,1.0
29,14651.00,14651.00,0.00,0.938,8052,0.005,0.120,0.011,0.790,0.012,1.1
30,15083.00,15083.00,0.00,0.925,8289,0.004,0.116,0.012,0.782,0.011,1.0
31,14146.00,14146.00,0.00,1.003,7774,0.003,0.137,0.010,0.842,0.011,1.0
32,14934.00,14934.00,0.00,0.989,8208,0.004,0.102,0.012,0.858,0.012,0.9
33,14877.00,14877.00,0.00,0.967,8176,0.004,0.096,0.010,0.847,0.010,0.9
34,14499.00,14499.00,0.00,0.990,7968,0.004,0.098,0.011,0.865,0.011,0.9
35,15005.00,15004.00,1.00,0.979,8246,0.004,0.106,0.011,0.847,0.011,0.9
36,14515.00,14510.00,5.00,0.922,7975,0.005,0.097,0.012,0.797,0.011,0.8
37,14143.00,14140.00,3.00,0.961,7772,0.004,0.099,0.010,0.838,0.010,0.9
38,14808.00,14799.00,9.00,0.937,8134,0.004,0.096,0.012,0.813,0.013,0.9
39,14726.00,14713.00,13.00,0.882,8086,0.004,0.096,0.011,0.760,0.011,1.0
40,14393.00,14379.00,14.00,1.016,7903,0.004,0.113,0.010,0.879,0.011,1.0
41,15255.00,15243.00,12.00,0.955,8377,0.003,0.080,0.010,0.851,0.011,0.8
42,14419.00,14411.00,8.00,0.904,7920,0.005,0.094,0.012,0.782,0.010,0.8
43,14813.00,14810.00,3.00,0.973,8139,0.004,0.100,0.011,0.845,0.013,1.0
44,14362.00,14360.00,2.00,1.006,7892,0.003,0.108,0.012,0.871,0.012,0.9
45,14519.00,14518.00,1.00,0.905,7979,0.003,0.092,0.011,0.788,0.011,0.9
46,14853.00,14852.00,1.00,0.901,8162,0.004,0.086,0.011,0.789,0.011,0.8
47,14723.00,14723.00,0.00,0.965,8091,0.004,0.090,0.010,0.850,0.010,0.8
48,14960.00,14960.00,0.00,0.906,8222,0.005,0.087,0.011,0.792,0.011,0.9
49,14241.00,14241.00,0.00,0.939,7827,0.004,0.094,0.013,0.817,0.011,0.9
50,14286.00,14286.00,0.00,0.994,7851,0.004,0.112,0.010,0.856,0.011,1.0
51,14355.00,14355.00,0.00,0.952,7889,0.005,0.136,0.011,0.787,0.014,1.0
52,14888.00,14888.00,0.00,0.901,8182,0.006,0.092,0.011,0.781,0.011,0.9
53,14406.00,14406.00,0.00,0.987,7917,0.004,0.093,0.011,0.868,0.011,0.9
54,14684.00,14684.00,0.00,1.003,8070,0.003,0.105,0.011,0.872,0.011,1.0
55,14676.00,14676.00,0.00,0.968,8066,0.005,0.112,0.012,0.829,0.011,0.9
56,14265.00,14265.00,0.00,0.987,7840,0.004,0.108,0.010,0.853,0.011,0.9
57,14872.00,14872.00,0.00,0.958,8173,0.004,0.097,0.010,0.837,0.012,0.9
58,14817.00,14817.00,0.00,0.970,8143,0.003,0.075,0.012,0.869,0.011,0.8
59,14829.00,14829.00,0.00,0.953,8150,0.005,0.088,0.011,0.839,0.011,0.9
60,14454.00,14454.00,0.00,0.918,7944,0.003,0.136,0.013,0.753,0.013,1.1
61,15179.00,15179.00,0.00,0.899,8342,0.005,0.100,0.010,0.772,0.011,1.0
62,14185.00,14185.00,0.00,0.942,7796,0.004,0.100,0.011,0.817,0.011,0.9
63,14377.00,14377.00,0.00,0.964,7901,0.004,0.137,0.010,0.802,0.012,1.1
64,14688.00,14688.00,0.00,0.852,8072,0.003,0.076,0.011,0.752,0.010,0.8
65,14166.00,14166.00,0.00,0.897,7785,0.004,0.126,0.013,0.744,0.011,1.1
66,14901.00,14901.00,0.00,0.947,8189,0.004,0.085,0.010,0.837,0.010,0.8
67,13844.00,13844.00,0.00,0.997,7608,0.005,0.127,0.014,0.841,0.010,1.0
68,14853.00,14853.00,0.00,0.914,8163,0.003,0.086,0.010,0.802,0.012,0.8
69,14690.00,14690.00,0.00,0.993,8073,0.004,0.100,0.013,0.867,0.010,0.9
70,14992.00,14992.00,0.00,0.884,8239,0.003,0.098,0.012,0.760,0.011,0.9
71,14676.00,14676.00,0.00,0.978,8066,0.004,0.089,0.011,0.864,0.010,0.8
72,14366.00,14366.00,0.00,0.913,7895,0.004,0.118,0.011,0.769,0.012,1.0
73,15170.00,15170.00,0.00,0.920,8337,0.004,0.116,0.011,0.778,0.011,1.1
74,8048.00,8048.00,0.00,1.009,4423,0.003,0.086,0.011,0.900,0.010,0.8
