Second,Ops/sec,Hits/sec,Misses/sec,Latency,KB/sec,Request_Creation_Time,Request_Buffer_Time,MW_Writes_To_Memcached_Time,Memcached_Process_Time,MW_Writes_To_Memtier_Time,Queue_Size
4,4922.00,4922.00,0.00,1.990,1475,0.016,0.432,0.041,1.469,0.032,3.9
5,15928.00,15928.00,0.00,1.619,4772,0.005,0.304,0.015,1.278,0.017,3.0
6,18312.00,18312.00,0.00,1.303,5486,0.006,0.203,0.013,1.068,0.012,2.8
7,17718.00,17718.00,0.00,1.440,5308,0.005,0.205,0.010,1.207,0.013,2.5
8,18321.00,18321.00,0.00,1.327,5489,0.005,0.223,0.013,1.071,0.015,2.6
9,17629.00,17629.00,0.00,1.452,5282,0.005,0.227,0.012,1.195,0.013,2.7
10,17615.00,17612.00,3.00,1.464,5277,0.006,0.311,0.012,1.124,0.012,3.1
11,16981.00,16950.00,31.00,1.456,5078,0.004,0.263,0.014,1.158,0.017,2.7
12,17872.00,17858.00,14.00,1.335,5349,0.005,0.205,0.013,1.096,0.016,2.7
13,18219.00,18219.00,0.00,1.428,5458,0.005,0.256,0.015,1.136,0.016,2.9
14,18528.00,18528.00,0.00,1.375,5551,0.005,0.246,0.015,1.095,0.014,2.7
15,18393.00,18393.00,0.00,1.261,5511,0.005,0.251,0.013,0.979,0.014,2.9
16,18773.00,18773.00,0.00,1.315,5624,0.007,0.170,0.013,1.113,0.011,2.2
17,18602.00,18602.00,0.00,1.370,5573,0.004,0.234,0.012,1.107,0.014,2.9
18,18511.00,18511.00,0.00,1.314,5545,0.004,0.225,0.012,1.059,0.014,2.7
19,18183.00,18183.00,0.00,1.387,5447,0.004,0.245,0.013,1.109,0.016,2.6
20,18331.00,18331.00,0.00,1.384,5491,0.005,0.204,0.012,1.149,0.014,2.7
21,17793.00,17793.00,0.00,1.409,5331,0.004,0.269,0.015,1.102,0.019,3.0
22,18190.00,18182.00,8.00,1.466,5447,0.005,0.239,0.013,1.197,0.013,2.7
23,18384.00,18367.00,17.00,1.413,5503,0.004,0.272,0.014,1.107,0.015,3.0
24,18531.00,18522.00,9.00,1.329,5549,0.005,0.213,0.012,1.084,0.015,2.4
25,17925.00,17918.00,7.00,1.375,5368,0.004,0.191,0.014,1.154,0.012,2.4
26,18789.00,18785.00,4.00,1.239,5628,0.005,0.199,0.011,1.009,0.015,2.4
27,18745.00,18742.00,3.00,1.238,5615,0.006,0.203,0.013,1.001,0.014,2.4
28,18112.00,18112.00,0.00,1.490,5426,0.004,0.238,0.011,1.224,0.012,2.8
29,18648.00,18648.00,0.00,1.304,5587,0.006,0.195,0.014,1.077,0.013,2.5
30,18353.00,18353.00,0.00,1.411,5499,0.004,0.240,0.015,1.138,0.014,2.7
31,19150.00,19150.00,0.00,1.360,5737,0.004,0.210,0.014,1.121,0.012,2.3
32,18902.00,18902.00,0.00,1.262,5663,0.004,0.202,0.013,1.030,0.013,2.4
33,18688.00,18688.00,0.00,1.365,5599,0.004,0.237,0.012,1.097,0.015,2.8
34,18345.00,18345.00,0.00,1.379,5496,0.004,0.238,0.012,1.110,0.014,2.8
35,18080.00,18080.00,0.00,1.197,5417,0.006,0.226,0.011,0.941,0.013,2.7
36,18650.00,18650.00,0.00,1.306,5588,0.004,0.209,0.014,1.063,0.016,2.3
37,19640.00,19640.00,0.00,1.337,5884,0.003,0.164,0.012,1.145,0.013,2.1
38,18686.00,18686.00,0.00,1.321,5598,0.004,0.162,0.014,1.128,0.013,2.2
39,17965.00,17965.00,0.00,1.451,5382,0.004,0.172,0.012,1.249,0.013,2.3
40,18930.00,18930.00,0.00,1.239,5671,0.003,0.202,0.011,1.010,0.013,2.4
41,17925.00,17925.00,0.00,1.393,5370,0.006,0.203,0.013,1.160,0.012,2.4
42,18047.00,18047.00,0.00,1.220,5407,0.004,0.207,0.012,0.986,0.011,2.3
43,19282.00,19282.00,0.00,1.272,5777,0.004,0.181,0.013,1.062,0.013,2.1
44,18670.00,18670.00,0.00,1.343,5593,0.005,0.161,0.012,1.154,0.012,2.0
45,17974.00,17974.00,0.00,1.308,5385,0.005,0.261,0.010,1.020,0.012,2.8
46,18447.00,18447.00,0.00,1.351,5526,0.005,0.219,0.010,1.104,0.012,2.6
47,18500.00,18500.00,0.00,1.454,5542,0.004,0.249,0.011,1.179,0.011,2.7
48,18610.00,18610.00,0.00,1.416,5575,0.004,0.194,0.011,1.196,0.012,2.3
49,19227.00,19227.00,0.00,1.267,5760,0.006,0.188,0.010,1.050,0.013,2.3
50,18193.00,18193.00,0.00,1.442,5451,0.005,0.252,0.011,1.163,0.012,2.9
51,18700.00,18699.00,1.00,1.383,5602,0.004,0.196,0.010,1.159,0.014,2.4
52,18441.00,18439.00,2.00,1.316,5524,0.004,0.226,0.011,1.060,0.015,2.7
53,18464.00,18461.00,3.00,1.481,5531,0.004,0.209,0.010,1.247,0.011,2.6
54,18702.00,18700.00,2.00,1.360,5603,0.004,0.195,0.012,1.139,0.011,2.4
55,18675.00,18666.00,9.00,1.224,5593,0.005,0.194,0.011,1.003,0.011,2.6
56,18345.00,18330.00,15.00,1.469,5492,0.005,0.196,0.013,1.243,0.012,2.4
57,18991.00,18983.00,8.00,1.153,5687,0.006,0.176,0.011,0.947,0.014,2.2
58,18579.00,18569.00,10.00,1.338,5563,0.004,0.189,0.012,1.121,0.013,2.3
59,18259.00,18248.00,11.00,1.420,5467,0.004,0.198,0.015,1.190,0.013,2.4
60,18179.00,18166.00,13.00,1.268,5443,0.003,0.199,0.013,1.042,0.012,2.6
61,17929.00,17913.00,16.00,1.314,5367,0.004,0.214,0.013,1.070,0.013,2.7
62,18985.00,18973.00,12.00,1.233,5684,0.005,0.183,0.012,1.020,0.013,2.4
63,18929.00,18923.00,6.00,1.299,5669,0.005,0.201,0.010,1.072,0.011,2.4
64,19092.00,19084.00,8.00,1.156,5717,0.006,0.176,0.010,0.952,0.011,2.1
65,19124.00,19120.00,4.00,1.352,5728,0.004,0.212,0.011,1.115,0.011,2.5
66,17832.00,17825.00,7.00,1.475,5340,0.004,0.274,0.011,1.177,0.010,3.1
67,19161.00,19156.00,5.00,1.188,5739,0.005,0.208,0.011,0.951,0.012,2.4
68,18956.00,18954.00,2.00,1.271,5678,0.006,0.256,0.011,0.985,0.013,3.1
69,18368.00,18364.00,4.00,1.506,5501,0.004,0.228,0.013,1.251,0.010,2.5
70,18647.00,18645.00,2.00,1.355,5585,0.003,0.260,0.011,1.068,0.013,3.0
71,19197.00,19195.00,2.00,1.309,5750,0.004,0.166,0.011,1.115,0.014,2.3
72,19049.00,19047.00,2.00,1.324,5706,0.004,0.183,0.012,1.114,0.011,2.3
73,18935.00,18935.00,0.00,1.316,5673,0.004,0.210,0.010,1.080,0.013,2.2
74,10383.00,10383.00,0.00,1.361,3111,0.003,0.206,0.013,1.125,0.014,2.2
