Second,Ops/sec,Hits/sec,Misses/sec,Latency,KB/sec,Request_Creation_Time,Request_Buffer_Time,MW_Writes_To_Memcached_Time,Memcached_Process_Time,MW_Writes_To_Memtier_Time,Queue_Size
4,3240.00,3240.00,0.00,2.142,3404,0.020,0.561,0.056,1.465,0.040,4.5
5,16660.00,16660.00,0.00,1.632,17503,0.008,0.347,0.014,1.246,0.018,3.1
6,17908.00,17908.00,0.00,1.489,18814,0.006,0.315,0.013,1.141,0.014,3.5
7,17788.00,17788.00,0.00,1.510,18687,0.005,0.290,0.013,1.189,0.014,3.1
8,17656.00,17656.00,0.00,1.596,18549,0.003,0.287,0.011,1.281,0.014,3.1
9,17938.00,17938.00,0.00,1.517,18845,0.006,0.326,0.012,1.158,0.015,3.3
10,18460.00,18460.00,0.00,1.418,19394,0.004,0.278,0.011,1.112,0.014,3.1
11,16539.00,16505.00,34.00,1.698,17339,0.005,0.333,0.016,1.322,0.022,3.2
12,17975.00,17961.00,14.00,1.396,18868,0.004,0.272,0.014,1.090,0.016,3.5
13,17017.00,17017.00,0.00,1.684,17877,0.004,0.381,0.014,1.269,0.015,3.8
14,16878.00,16878.00,0.00,1.706,17732,0.004,0.370,0.014,1.300,0.017,3.5
15,17260.00,17260.00,0.00,1.701,18133,0.003,0.376,0.019,1.286,0.016,3.7
16,17605.00,17605.00,0.00,1.483,18495,0.005,0.268,0.014,1.182,0.013,3.2
17,17310.00,17310.00,0.00,1.731,18185,0.004,0.341,0.014,1.358,0.014,3.5
18,17641.00,17641.00,0.00,1.725,18533,0.004,0.371,0.012,1.324,0.014,3.7
19,17927.00,17927.00,0.00,1.536,18833,0.004,0.296,0.014,1.205,0.017,3.1
20,17547.00,17547.00,0.00,1.529,18434,0.004,0.348,0.013,1.150,0.015,3.4
21,17377.00,17377.00,0.00,1.597,18255,0.005,0.359,0.013,1.208,0.013,3.5
22,17531.00,17531.00,0.00,1.510,18417,0.004,0.339,0.010,1.143,0.014,3.9
23,16981.00,16975.00,6.00,1.599,17834,0.004,0.361,0.014,1.205,0.014,4.1
24,16755.00,16734.00,21.00,1.543,17580,0.004,0.336,0.013,1.175,0.015,4.0
25,17624.00,17614.00,10.00,1.539,18505,0.004,0.297,0.012,1.214,0.012,3.1
26,17394.00,17384.00,10.00,1.620,18263,0.003,0.397,0.014,1.193,0.013,3.9
27,17370.00,17369.00,1.00,1.705,18247,0.005,0.348,0.012,1.329,0.013,3.5
28,17280.00,17280.00,0.00,1.657,18154,0.004,0.376,0.013,1.249,0.014,3.6
29,17771.00,17771.00,0.00,1.528,18670,0.006,0.290,0.012,1.206,0.014,3.2
30,17211.00,17211.00,0.00,1.567,18081,0.003,0.354,0.013,1.184,0.013,3.2
31,17749.00,17749.00,0.00,1.471,18647,0.006,0.312,0.012,1.128,0.013,3.3
32,17967.00,17967.00,0.00,1.403,18876,0.005,0.314,0.012,1.058,0.013,3.4
33,17701.00,17701.00,0.00,1.401,18596,0.004,0.304,0.011,1.071,0.012,3.2
34,17529.00,17529.00,0.00,1.692,18416,0.004,0.324,0.012,1.339,0.013,3.2
35,17593.00,17593.00,0.00,1.632,18483,0.005,0.376,0.012,1.225,0.015,3.3
36,17750.00,17750.00,0.00,1.540,18648,0.004,0.321,0.013,1.188,0.014,3.2
37,17710.00,17710.00,0.00,1.459,18606,0.005,0.286,0.014,1.140,0.015,3.1
38,18364.00,18364.00,0.00,1.547,19293,0.004,0.311,0.010,1.209,0.013,3.1
39,17629.00,17629.00,0.00,1.566,18520,0.005,0.326,0.011,1.210,0.013,3.4
40,17519.00,17519.00,0.00,1.676,18405,0.003,0.378,0.011,1.273,0.012,3.2
41,17894.00,17894.00,0.00,1.584,18799,0.004,0.323,0.011,1.234,0.012,3.1
42,17741.00,17741.00,0.00,1.521,18638,0.006,0.310,0.010,1.178,0.016,3.1
43,17769.00,17769.00,0.00,1.502,18668,0.004,0.296,0.013,1.177,0.012,3.1
44,17899.00,17899.00,0.00,1.489,18804,0.003,0.282,0.013,1.178,0.013,3.1
45,17833.00,17833.00,0.00,1.567,18735,0.004,0.330,0.011,1.210,0.013,3.2
46,18090.00,18090.00,0.00,1.676,19005,0.004,0.335,0.012,1.313,0.012,3.1
47,17724.00,17724.00,0.00,1.606,18620,0.003,0.326,0.010,1.256,0.012,3.0
48,18173.00,18173.00,0.00,1.713,19092,0.003,0.371,0.009,1.318,0.012,3.2
49,17889.00,17889.00,0.00,1.530,18793,0.003,0.285,0.010,1.220,0.012,3.0
50,17791.00,17791.00,0.00,1.627,18691,0.003,0.368,0.010,1.233,0.012,3.1
51,17934.00,17934.00,0.00,1.565,18841,0.003,0.330,0.012,1.206,0.014,3.1
52,17659.00,17659.00,0.00,1.472,18552,0.004,0.293,0.011,1.151,0.012,2.9
53,17291.00,17291.00,0.00,1.512,18165,0.003,0.310,0.012,1.173,0.015,3.0
54,17798.00,17798.00,0.00,1.678,18698,0.003,0.373,0.011,1.279,0.012,3.3
55,17394.00,17394.00,0.00,1.568,18274,0.005,0.339,0.012,1.200,0.013,2.9
56,18207.00,18202.00,5.00,1.408,19123,0.003,0.294,0.011,1.087,0.013,3.0
57,17759.00,17757.00,2.00,1.623,18655,0.003,0.319,0.012,1.275,0.013,3.1
58,17591.00,17584.00,7.00,1.441,18474,0.003,0.288,0.012,1.126,0.013,3.1
59,17669.00,17655.00,14.00,1.473,18548,0.004,0.266,0.013,1.178,0.012,3.0
60,17603.00,17594.00,9.00,1.677,18484,0.005,0.342,0.011,1.305,0.014,3.1
61,17813.00,17804.00,9.00,1.688,18704,0.004,0.378,0.011,1.285,0.011,3.4
62,18201.00,18185.00,16.00,1.507,19105,0.005,0.313,0.011,1.165,0.013,3.1
63,17844.00,17824.00,20.00,1.601,18725,0.003,0.320,0.012,1.253,0.012,3.1
64,17814.00,17799.00,15.00,1.476,18699,0.004,0.313,0.010,1.139,0.012,3.1
65,17789.00,17774.00,15.00,1.413,18673,0.003,0.267,0.011,1.119,0.013,2.7
66,17774.00,17764.00,10.00,1.707,18662,0.003,0.369,0.010,1.314,0.011,3.3
67,17824.00,17817.00,7.00,1.574,18718,0.003,0.300,0.013,1.246,0.012,3.2
68,17724.00,17714.00,10.00,1.530,18610,0.005,0.301,0.011,1.201,0.012,2.9
69,17908.00,17907.00,1.00,1.620,18812,0.005,0.314,0.010,1.279,0.011,3.1
70,17891.00,17887.00,4.00,1.429,18791,0.003,0.266,0.010,1.138,0.012,2.9
71,18333.00,18333.00,0.00,1.585,19260,0.004,0.301,0.011,1.257,0.011,2.9
72,17712.00,17712.00,0.00,1.653,18607,0.004,0.371,0.011,1.255,0.012,3.2
73,17997.00,17997.00,0.00,1.514,18907,0.005,0.285,0.013,1.198,0.013,2.8
74,12142.00,12142.00,0.00,1.527,12756,0.004,0.288,0.011,1.210,0.013,3.0
