Second,Ops/sec,Hits/sec,Misses/sec,Latency,KB/sec,Request_Creation_Time,Request_Buffer_Time,MW_Writes_To_Memcached_Time,Memcached_Process_Time,MW_Writes_To_Memtier_Time,Queue_Size
4,3747.00,3747.00,0.00,2.854,3937,0.012,1.292,0.035,1.485,0.030,18.8
5,18498.00,18498.00,0.00,2.888,19434,0.008,1.397,0.013,1.453,0.017,26.0
6,18096.00,18096.00,0.00,4.143,19011,0.004,2.409,0.007,1.713,0.011,37.8
7,18207.00,18207.00,0.00,4.218,19128,0.003,2.468,0.006,1.730,0.010,39.9
8,17485.00,17485.00,0.00,4.445,18369,0.003,2.622,0.006,1.804,0.010,40.3
9,18158.00,18158.00,0.00,4.076,19075,0.003,2.370,0.006,1.688,0.010,37.3
10,18744.00,18744.00,0.00,3.940,19692,0.003,2.263,0.006,1.658,0.010,39.1
11,18303.00,18303.00,0.00,4.200,19228,0.003,2.456,0.006,1.725,0.010,39.2
12,18024.00,18024.00,0.00,4.251,18935,0.002,2.495,0.007,1.737,0.009,38.0
13,18238.00,18238.00,0.00,4.089,19160,0.002,2.349,0.006,1.723,0.009,38.6
14,18258.00,18258.00,0.00,4.174,19182,0.003,2.447,0.006,1.710,0.009,38.3
15,18071.00,18071.00,0.00,4.300,18985,0.002,2.549,0.006,1.732,0.010,39.9
16,18177.00,18177.00,0.00,4.289,19097,0.003,2.549,0.006,1.722,0.009,39.4
17,17271.00,17228.00,43.00,4.344,18099,0.003,2.499,0.007,1.824,0.011,39.1
18,17670.00,17630.00,40.00,4.563,18521,0.003,2.768,0.007,1.775,0.010,41.3
19,18496.00,18484.00,12.00,4.120,19417,0.003,2.398,0.007,1.702,0.011,39.8
20,18168.00,18167.00,1.00,4.425,19085,0.002,2.670,0.007,1.736,0.010,38.9
21,18078.00,18078.00,0.00,4.201,18992,0.003,2.483,0.008,1.697,0.011,37.3
22,17868.00,17868.00,0.00,4.487,18771,0.003,2.703,0.007,1.764,0.010,40.4
23,17754.00,17754.00,0.00,4.506,18652,0.003,2.713,0.007,1.774,0.010,39.1
24,17736.00,17736.00,0.00,4.423,18633,0.003,2.624,0.007,1.780,0.010,39.9
25,17809.00,17809.00,0.00,4.536,18710,0.003,2.738,0.007,1.778,0.010,41.7
26,18020.00,18020.00,0.00,4.373,18932,0.003,2.613,0.007,1.740,0.010,39.8
27,17763.00,17763.00,0.00,4.105,18661,0.003,2.335,0.007,1.749,0.011,37.6
28,17739.00,17739.00,0.00,4.453,18636,0.003,2.649,0.007,1.783,0.011,40.6
29,17841.00,17841.00,0.00,4.458,18743,0.002,2.676,0.007,1.762,0.010,41.6
30,17653.00,17653.00,0.00,4.243,18545,0.003,2.481,0.007,1.742,0.011,39.2
31,17716.00,17716.00,0.00,4.235,18611,0.003,2.480,0.007,1.735,0.011,38.7
32,18099.00,18099.00,0.00,4.207,19014,0.003,2.466,0.006,1.722,0.010,39.6
33,17643.00,17643.00,0.00,4.344,18535,0.003,2.563,0.007,1.760,0.012,40.1
34,18000.00,18000.00,0.00,4.362,18910,0.003,2.604,0.006,1.739,0.010,41.3
35,17805.00,17805.00,0.00,4.252,18705,0.003,2.496,0.007,1.735,0.011,40.1
36,17885.00,17885.00,0.00,4.175,18789,0.003,2.403,0.006,1.753,0.011,37.2
37,18403.00,18403.00,0.00,4.183,19333,0.003,2.460,0.006,1.704,0.010,39.9
38,17895.00,17895.00,0.00,4.248,18800,0.002,2.485,0.006,1.743,0.010,41.2
39,17551.00,17551.00,0.00,4.451,18438,0.003,2.648,0.007,1.784,0.010,39.9
40,17828.00,17828.00,0.00,4.354,18730,0.003,2.572,0.007,1.763,0.010,40.7
41,17922.00,17918.00,4.00,4.307,18825,0.003,2.524,0.006,1.765,0.010,41.5
42,17790.00,17766.00,24.00,4.268,18665,0.003,2.476,0.006,1.773,0.010,41.2
43,17718.00,17692.00,26.00,4.151,18587,0.003,2.386,0.006,1.746,0.010,37.8
44,17722.00,17709.00,13.00,4.380,18604,0.003,2.588,0.006,1.774,0.010,41.3
45,17726.00,17714.00,12.00,4.222,18610,0.003,2.442,0.007,1.761,0.010,39.2
46,17934.00,17919.00,15.00,4.315,18825,0.002,2.558,0.006,1.739,0.010,39.4
47,17742.00,17740.00,2.00,4.302,18637,0.003,2.524,0.006,1.760,0.010,39.4
48,17569.00,17569.00,0.00,4.298,18457,0.003,2.497,0.006,1.783,0.010,39.8
49,17456.00,17456.00,0.00,4.311,18339,0.003,2.529,0.006,1.764,0.010,39.1
50,17879.00,17879.00,0.00,4.459,18783,0.003,2.672,0.006,1.769,0.010,40.9
51,17572.00,17572.00,0.00,4.351,18461,0.003,2.551,0.006,1.781,0.010,38.7
52,17518.00,17518.00,0.00,4.424,18404,0.003,2.622,0.006,1.784,0.009,38.7
53,17855.00,17855.00,0.00,4.367,18758,0.003,2.618,0.006,1.731,0.010,39.8
54,17867.00,17867.00,0.00,4.180,18771,0.002,2.404,0.006,1.757,0.010,38.5
55,17635.00,17635.00,0.00,4.389,18527,0.003,2.595,0.006,1.776,0.010,39.8
56,17700.00,17700.00,0.00,4.263,18595,0.003,2.478,0.007,1.767,0.010,39.1
57,17754.00,17754.00,0.00,4.302,18652,0.002,2.543,0.006,1.740,0.010,39.7
58,17757.00,17757.00,0.00,4.409,18655,0.003,2.633,0.006,1.758,0.010,40.7
59,17731.00,17731.00,0.00,4.431,18628,0.002,2.654,0.006,1.760,0.009,40.9
60,17521.00,17521.00,0.00,4.538,18407,0.002,2.737,0.006,1.784,0.010,41.1
61,17440.00,17440.00,0.00,4.316,18322,0.003,2.527,0.006,1.771,0.010,38.0
62,17923.00,17923.00,0.00,4.409,18830,0.002,2.624,0.006,1.767,0.009,40.9
63,17290.00,17290.00,0.00,4.627,18165,0.003,2.786,0.006,1.822,0.010,41.7
64,17677.00,17677.00,0.00,4.475,18571,0.003,2.653,0.006,1.803,0.010,40.0
65,17850.00,17850.00,0.00,4.380,18753,0.003,2.594,0.006,1.767,0.009,41.2
66,17779.00,17779.00,0.00,4.263,18679,0.003,2.499,0.006,1.745,0.010,38.5
67,17369.00,17369.00,0.00,4.317,18248,0.003,2.498,0.006,1.800,0.010,39.1
68,17654.00,17654.00,0.00,4.498,18547,0.003,2.708,0.006,1.772,0.010,41.4
69,17597.00,17597.00,0.00,4.312,18487,0.003,2.496,0.007,1.796,0.011,39.6
70,17674.00,17674.00,0.00,4.397,18568,0.002,2.598,0.006,1.781,0.010,40.5
71,17866.00,17866.00,0.00,4.254,18769,0.003,2.482,0.006,1.754,0.009,39.6
72,17648.00,17648.00,0.00,4.378,18540,0.002,2.577,0.006,1.783,0.009,40.8
73,17491.00,17491.00,0.00,4.344,18375,0.003,2.536,0.006,1.790,0.010,38.8
74,13955.00,13955.00,0.00,3.869,14661,0.003,2.225,0.007,1.625,0.010,37.3
75,3055.00,3055.00,0.00,0.751,3209,0.005,0.068,0.014,0.652,0.012,0.2
