Second,Ops/sec,Hits/sec,Misses/sec,Latency,KB/sec,Request_Creation_Time,Request_Buffer_Time,MW_Writes_To_Memcached_Time,Memcached_Process_Time,MW_Writes_To_Memtier_Time,Queue_Size
4,1734.00,1734.00,0.00,0.930,1822,0.019,0.140,0.018,0.713,0.039,0.7
5,8916.00,8916.00,0.00,0.693,9367,0.005,0.095,0.014,0.568,0.012,0.7
6,11623.00,11623.00,0.00,0.555,12211,0.004,0.082,0.009,0.450,0.010,0.7
7,11233.00,11221.00,12.00,0.609,11788,0.005,0.086,0.010,0.498,0.012,0.8
8,10794.00,10794.00,0.00,0.627,11340,0.004,0.105,0.011,0.496,0.011,0.8
9,11246.00,11246.00,0.00,0.603,11815,0.004,0.096,0.010,0.484,0.011,0.8
10,10499.00,10499.00,0.00,0.661,11030,0.004,0.094,0.010,0.543,0.011,0.8
11,10421.00,10421.00,0.00,0.602,10948,0.004,0.091,0.010,0.486,0.012,0.7
12,11931.00,11923.00,8.00,0.549,12526,0.003,0.081,0.009,0.445,0.010,0.7
13,11105.00,11101.00,4.00,0.598,11662,0.003,0.101,0.010,0.474,0.010,0.8
14,11401.00,11401.00,0.00,0.612,11978,0.003,0.104,0.010,0.484,0.011,0.8
15,10205.00,10205.00,0.00,0.717,10721,0.003,0.123,0.009,0.572,0.011,0.8
16,12461.00,12461.00,0.00,0.533,13091,0.003,0.074,0.009,0.436,0.011,0.8
17,11840.00,11840.00,0.00,0.569,12439,0.004,0.090,0.009,0.455,0.011,0.8
18,10126.00,10126.00,0.00,0.673,10638,0.003,0.147,0.009,0.504,0.010,1.0
19,11265.00,11265.00,0.00,0.595,11835,0.003,0.109,0.009,0.463,0.010,0.9
20,10691.00,10691.00,0.00,0.649,11232,0.003,0.129,0.009,0.497,0.010,0.9
21,10997.00,10997.00,0.00,0.641,11553,0.003,0.116,0.009,0.502,0.011,0.8
22,11725.00,11725.00,0.00,0.555,12318,0.003,0.089,0.010,0.442,0.011,0.8
23,12074.00,12074.00,0.00,0.559,12685,0.003,0.085,0.009,0.451,0.010,0.8
24,10854.00,10854.00,0.00,0.631,11403,0.003,0.127,0.009,0.482,0.011,0.8
25,11987.00,11986.00,1.00,0.575,12592,0.003,0.088,0.009,0.464,0.011,0.8
26,12400.00,12391.00,9.00,0.548,13018,0.003,0.082,0.009,0.442,0.011,0.8
27,11885.00,11881.00,4.00,0.545,12482,0.003,0.081,0.009,0.441,0.010,0.7
28,12051.00,12033.00,18.00,0.522,12642,0.003,0.077,0.009,0.422,0.011,0.8
29,10968.00,10964.00,4.00,0.623,11518,0.003,0.105,0.009,0.495,0.011,0.8
30,11478.00,11478.00,0.00,0.604,12058,0.003,0.099,0.009,0.483,0.011,0.8
31,12303.00,12303.00,0.00,0.551,12925,0.003,0.078,0.009,0.451,0.011,0.8
32,11822.00,11822.00,0.00,0.546,12419,0.003,0.088,0.009,0.437,0.010,0.8
33,11370.00,11370.00,0.00,0.579,11945,0.003,0.104,0.009,0.453,0.011,0.8
34,11708.00,11708.00,0.00,0.577,12300,0.003,0.093,0.009,0.462,0.010,0.8
35,10808.00,10808.00,0.00,0.653,11354,0.003,0.122,0.008,0.510,0.010,0.9
36,11565.00,11565.00,0.00,0.599,12150,0.003,0.089,0.010,0.486,0.011,0.8
37,12267.00,12267.00,0.00,0.536,12887,0.003,0.076,0.009,0.437,0.011,0.8
38,12060.00,12060.00,0.00,0.558,12670,0.003,0.080,0.009,0.455,0.011,0.8
39,11486.00,11486.00,0.00,0.599,12067,0.003,0.097,0.009,0.479,0.011,0.8
40,11658.00,11658.00,0.00,0.571,12248,0.003,0.085,0.009,0.464,0.011,0.8
41,11811.00,11811.00,0.00,0.573,12408,0.003,0.084,0.009,0.465,0.011,0.8
42,12019.00,12019.00,0.00,0.567,12627,0.003,0.087,0.009,0.457,0.011,0.8
43,12143.00,12143.00,0.00,0.518,12757,0.003,0.072,0.009,0.423,0.011,0.7
44,12138.00,12138.00,0.00,0.545,12752,0.003,0.086,0.009,0.436,0.010,0.8
45,11534.00,11534.00,0.00,0.600,12117,0.003,0.092,0.009,0.485,0.011,0.8
46,11820.00,11820.00,0.00,0.563,12417,0.003,0.088,0.009,0.453,0.011,0.8
47,12133.00,12133.00,0.00,0.560,12746,0.003,0.078,0.009,0.459,0.011,0.8
48,12187.00,12187.00,0.00,0.542,12803,0.003,0.080,0.009,0.439,0.011,0.8
49,11175.00,11175.00,0.00,0.625,11740,0.003,0.102,0.009,0.501,0.011,0.8
50,10931.00,10931.00,0.00,0.651,11483,0.003,0.108,0.009,0.520,0.011,0.9
51,11535.00,11535.00,0.00,0.585,12118,0.004,0.098,0.009,0.464,0.010,0.8
52,11300.00,11300.00,0.00,0.612,11871,0.003,0.096,0.009,0.492,0.011,0.8
53,12323.00,12323.00,0.00,0.551,12946,0.003,0.079,0.009,0.448,0.011,0.9
54,11281.00,11281.00,0.00,0.623,11851,0.003,0.105,0.009,0.495,0.011,0.8
55,10845.00,10845.00,0.00,0.639,11393,0.003,0.105,0.009,0.511,0.011,0.8
56,11144.00,11144.00,0.00,0.591,11707,0.003,0.098,0.009,0.471,0.011,0.9
57,11932.00,11932.00,0.00,0.559,12535,0.003,0.087,0.009,0.449,0.011,0.8
58,11382.00,11382.00,0.00,0.596,11957,0.003,0.085,0.009,0.488,0.011,0.8
59,11416.00,11416.00,0.00,0.573,11993,0.003,0.084,0.010,0.465,0.011,0.7
60,11126.00,11126.00,0.00,0.634,11689,0.003,0.116,0.009,0.496,0.010,0.8
61,10810.00,10810.00,0.00,0.622,11357,0.003,0.112,0.009,0.487,0.011,0.8
62,11070.00,11070.00,0.00,0.581,11630,0.003,0.104,0.009,0.454,0.011,0.8
63,11778.00,11778.00,0.00,0.572,12373,0.003,0.087,0.009,0.462,0.011,0.8
64,11002.00,11002.00,0.00,0.639,11558,0.003,0.116,0.009,0.500,0.011,0.8
65,11638.00,11638.00,0.00,0.585,12227,0.003,0.098,0.009,0.464,0.011,0.8
66,11232.00,11232.00,0.00,0.594,11800,0.003,0.097,0.009,0.474,0.010,0.8
67,11500.00,11500.00,0.00,0.581,12082,0.003,0.088,0.009,0.471,0.010,0.8
68,12023.00,12023.00,0.00,0.551,12631,0.003,0.089,0.009,0.439,0.011,0.9
69,11750.00,11750.00,0.00,0.583,12344,0.003,0.091,0.009,0.470,0.011,0.8
70,10903.00,10901.00,2.00,0.647,11452,0.003,0.112,0.010,0.511,0.011,0.8
71,12280.00,12275.00,5.00,0.543,12896,0.003,0.084,0.009,0.436,0.011,0.8
72,11530.00,11515.00,15.00,0.599,12097,0.003,0.109,0.009,0.467,0.011,0.8
73,11442.00,11431.00,11.00,0.594,12009,0.003,0.097,0.009,0.474,0.011,0.8
74,8642.00,8640.00,2.00,0.567,9077,0.003,0.089,0.009,0.455,0.011,0.8
