Second,Ops/sec,Hits/sec,Misses/sec,Latency,KB/sec,Request_Creation_Time,Request_Buffer_Time,MW_Writes_To_Memcached_Time,Memcached_Process_Time,MW_Writes_To_Memtier_Time,Queue_Size
4,3684.00,3684.00,0.00,1.480,3871,0.010,0.243,0.026,1.148,0.054,1.3
5,12078.00,12078.00,0.00,1.183,12689,0.005,0.184,0.011,0.968,0.014,1.3
6,14444.00,14444.00,0.00,1.035,15174,0.004,0.129,0.010,0.880,0.011,1.2
7,13990.00,13990.00,0.00,0.913,14697,0.005,0.113,0.012,0.772,0.011,0.9
8,15469.00,15459.00,10.00,0.960,16241,0.004,0.085,0.013,0.845,0.013,0.8
9,13225.00,13211.00,14.00,1.104,13878,0.003,0.133,0.010,0.945,0.013,1.0
10,14656.00,14656.00,0.00,1.020,15397,0.003,0.099,0.011,0.897,0.011,1.0
11,15586.00,15586.00,0.00,0.973,16374,0.003,0.091,0.011,0.857,0.011,1.0
12,15175.00,15175.00,0.00,0.940,15942,0.003,0.107,0.010,0.810,0.010,0.9
13,15104.00,15104.00,0.00,0.922,15868,0.004,0.069,0.010,0.828,0.010,0.7
14,15402.00,15402.00,0.00,0.888,16181,0.003,0.086,0.011,0.777,0.011,0.8
15,14637.00,14637.00,0.00,1.001,15377,0.004,0.087,0.011,0.888,0.011,0.8
16,14766.00,14750.00,16.00,0.902,15496,0.005,0.091,0.011,0.785,0.010,0.8
17,15025.00,15017.00,8.00,0.860,15776,0.004,0.082,0.011,0.752,0.011,0.8
18,14535.00,14535.00,0.00,0.995,15270,0.003,0.099,0.010,0.871,0.011,0.9
19,14136.00,14136.00,0.00,0.956,14851,0.003,0.106,0.011,0.825,0.010,0.9
20,14565.00,14565.00,0.00,0.930,15302,0.004,0.098,0.012,0.805,0.011,0.8
21,15069.00,15069.00,0.00,0.950,15831,0.005,0.084,0.010,0.839,0.011,0.7
22,14707.00,14707.00,0.00,0.959,15451,0.005,0.086,0.011,0.847,0.011,0.7
23,15052.00,15052.00,0.00,0.958,15813,0.004,0.086,0.010,0.848,0.011,0.8
24,14633.00,14633.00,0.00,0.991,15373,0.004,0.070,0.011,0.897,0.010,0.7
25,14148.00,14148.00,0.00,0.963,14863,0.003,0.106,0.011,0.833,0.010,1.0
26,14715.00,14715.00,0.00,0.978,15459,0.004,0.084,0.011,0.868,0.012,0.7
27,15398.00,15398.00,0.00,1.020,16177,0.003,0.078,0.010,0.918,0.010,0.7
28,15169.00,15169.00,0.00,0.890,15936,0.004,0.077,0.011,0.786,0.011,0.7
29,14996.00,14996.00,0.00,0.949,15754,0.004,0.077,0.010,0.848,0.010,0.7
30,14115.00,14115.00,0.00,1.071,14829,0.004,0.103,0.012,0.941,0.011,0.9
31,15314.00,15314.00,0.00,0.945,16088,0.004,0.081,0.011,0.838,0.011,0.8
32,13565.00,13565.00,0.00,1.031,14251,0.004,0.113,0.010,0.894,0.010,0.9
33,14492.00,14492.00,0.00,0.978,15225,0.005,0.095,0.011,0.856,0.011,0.9
34,14556.00,14556.00,0.00,0.945,15292,0.003,0.105,0.012,0.815,0.010,0.8
35,13739.00,13738.00,1.00,1.078,14433,0.003,0.094,0.011,0.958,0.011,0.8
36,14922.00,14915.00,7.00,1.024,15670,0.003,0.093,0.011,0.905,0.012,0.8
37,14464.00,14456.00,8.00,0.965,15187,0.004,0.118,0.011,0.822,0.011,0.8
38,14569.00,14567.00,2.00,0.926,15304,0.003,0.085,0.011,0.817,0.010,0.8
39,14213.00,14198.00,15.00,1.073,14916,0.003,0.078,0.010,0.971,0.010,0.8
40,14557.00,14542.00,15.00,1.051,15277,0.004,0.075,0.011,0.949,0.011,0.7
41,14282.00,14273.00,9.00,0.993,14995,0.003,0.116,0.010,0.853,0.011,1.1
42,15194.00,15190.00,4.00,0.856,15958,0.003,0.084,0.012,0.746,0.011,0.7
43,14913.00,14905.00,8.00,0.940,15659,0.003,0.093,0.011,0.822,0.011,0.8
44,14349.00,14347.00,2.00,1.001,15072,0.004,0.101,0.010,0.875,0.010,0.8
45,14711.00,14710.00,1.00,0.991,15453,0.004,0.083,0.011,0.883,0.011,0.7
46,14496.00,14496.00,0.00,1.017,15229,0.004,0.121,0.010,0.870,0.011,1.0
47,14246.00,14246.00,0.00,0.957,14966,0.004,0.086,0.011,0.846,0.010,0.8
48,14585.00,14585.00,0.00,0.880,15323,0.003,0.129,0.010,0.727,0.011,1.3
49,15035.00,15035.00,0.00,1.020,15795,0.004,0.082,0.010,0.913,0.011,0.8
50,14653.00,14653.00,0.00,0.976,15394,0.003,0.067,0.010,0.885,0.011,0.7
51,15441.00,15441.00,0.00,0.910,16222,0.004,0.090,0.011,0.795,0.011,0.8
52,14306.00,14306.00,0.00,0.924,15029,0.005,0.114,0.010,0.785,0.010,1.0
53,14686.00,14686.00,0.00,0.970,15429,0.004,0.089,0.010,0.856,0.011,0.9
54,14886.00,14886.00,0.00,0.939,15639,0.004,0.095,0.011,0.817,0.012,0.9
55,14530.00,14530.00,0.00,1.071,15265,0.003,0.071,0.010,0.976,0.012,0.7
56,15000.00,15000.00,0.00,0.879,15758,0.004,0.085,0.010,0.767,0.012,0.8
57,15403.00,15403.00,0.00,0.883,16182,0.003,0.099,0.011,0.760,0.010,0.9
58,14174.00,14174.00,0.00,1.009,14891,0.004,0.099,0.010,0.885,0.012,0.9
59,14312.00,14312.00,0.00,0.932,15036,0.004,0.087,0.010,0.821,0.011,0.8
60,14668.00,14668.00,0.00,0.981,15410,0.003,0.086,0.011,0.870,0.011,0.7
61,14908.00,14908.00,0.00,0.996,15662,0.004,0.095,0.010,0.876,0.011,0.8
62,14975.00,14975.00,0.00,0.855,15732,0.004,0.088,0.010,0.742,0.011,0.8
63,14393.00,14393.00,0.00,1.016,15121,0.004,0.125,0.010,0.867,0.010,1.1
64,14814.00,14814.00,0.00,0.961,15563,0.003,0.077,0.011,0.859,0.011,0.8
65,13137.00,13137.00,0.00,1.108,13801,0.004,0.138,0.010,0.944,0.011,1.0
66,14840.00,14840.00,0.00,0.966,15590,0.003,0.093,0.010,0.849,0.011,0.9
67,14492.00,14492.00,0.00,0.987,15224,0.004,0.085,0.012,0.875,0.011,0.8
68,15041.00,15041.00,0.00,0.810,15801,0.005,0.092,0.012,0.690,0.011,0.8
69,14122.00,14122.00,0.00,0.894,14836,0.003,0.098,0.011,0.771,0.011,0.9
70,14202.00,14202.00,0.00,0.994,14920,0.004,0.126,0.010,0.843,0.011,1.0
71,14503.00,14503.00,0.00,0.961,15236,0.004,0.118,0.011,0.816,0.012,1.1
72,14798.00,14798.00,0.00,0.866,15546,0.003,0.068,0.010,0.774,0.010,0.7
73,15039.00,15039.00,0.00,0.968,15799,0.003,0.081,0.010,0.862,0.011,0.8
74,9197.00,9197.00,0.00,0.899,9662,0.004,0.072,0.010,0.804,0.010,0.8
