Second,Ops/sec,Hits/sec,Misses/sec,Latency,KB/sec,Request_Creation_Time,Request_Buffer_Time,MW_Writes_To_Memcached_Time,Memcached_Process_Time,MW_Writes_To_Memtier_Time,Queue_Size
4,7091.00,7091.00,0.00,3.152,2125,0.016,0.748,0.031,2.325,0.033,9.1
5,21521.00,21521.00,0.00,1.977,6448,0.006,0.379,0.013,1.562,0.016,6.5
6,22117.00,22117.00,0.00,1.832,6626,0.004,0.479,0.014,1.321,0.014,7.8
7,23159.00,23159.00,0.00,1.991,6938,0.006,0.439,0.015,1.516,0.014,7.5
8,23608.00,23608.00,0.00,1.690,7072,0.005,0.395,0.011,1.262,0.016,7.0
9,21160.00,21160.00,0.00,2.027,6339,0.004,0.439,0.013,1.556,0.015,6.7
10,23543.00,23543.00,0.00,1.861,7053,0.005,0.400,0.012,1.431,0.013,7.0
11,23727.00,23727.00,0.00,1.596,7108,0.004,0.397,0.011,1.172,0.012,7.5
12,22942.00,22942.00,0.00,1.786,6874,0.004,0.421,0.012,1.337,0.013,7.3
13,23089.00,23088.00,1.00,1.821,6917,0.004,0.392,0.012,1.400,0.013,6.8
14,20821.00,20800.00,21.00,2.282,6232,0.005,0.527,0.014,1.719,0.016,7.8
15,21463.00,21416.00,47.00,1.978,6415,0.004,0.559,0.016,1.382,0.018,9.2
16,22350.00,22324.00,26.00,2.126,6687,0.007,0.527,0.015,1.562,0.014,8.7
17,23222.00,23221.00,1.00,1.745,6956,0.005,0.383,0.015,1.326,0.016,7.5
18,21922.00,21922.00,0.00,2.031,6567,0.004,0.589,0.012,1.407,0.019,9.9
19,22847.00,22847.00,0.00,2.080,6845,0.005,0.488,0.011,1.560,0.017,8.3
20,22744.00,22744.00,0.00,2.014,6814,0.005,0.482,0.012,1.500,0.015,8.7
21,21522.00,21522.00,0.00,1.939,6448,0.004,0.505,0.014,1.401,0.015,8.7
22,22252.00,22252.00,0.00,2.062,6667,0.004,0.483,0.013,1.546,0.015,8.7
23,22588.00,22588.00,0.00,1.982,6767,0.005,0.463,0.011,1.488,0.015,7.7
24,23211.00,23211.00,0.00,1.912,6953,0.005,0.424,0.010,1.459,0.013,6.4
25,23502.00,23502.00,0.00,1.715,7041,0.003,0.376,0.011,1.313,0.011,6.6
26,23405.00,23405.00,0.00,1.747,7011,0.004,0.390,0.011,1.327,0.014,7.1
27,23048.00,23048.00,0.00,1.798,6905,0.005,0.406,0.013,1.359,0.016,7.1
28,23193.00,23193.00,0.00,1.809,6948,0.005,0.409,0.010,1.374,0.012,7.0
29,22570.00,22570.00,0.00,2.091,6762,0.003,0.516,0.010,1.547,0.014,8.1
30,22337.00,22337.00,0.00,1.896,6692,0.004,0.437,0.013,1.425,0.017,6.8
31,22698.00,22697.00,1.00,1.607,6800,0.006,0.391,0.009,1.187,0.013,7.1
32,23207.00,23200.00,7.00,1.954,6951,0.005,0.426,0.010,1.501,0.012,6.6
33,22907.00,22898.00,9.00,1.908,6860,0.003,0.527,0.010,1.356,0.010,7.7
34,22795.00,22782.00,13.00,2.006,6826,0.004,0.475,0.012,1.505,0.010,7.3
35,23304.00,23280.00,24.00,1.865,6975,0.005,0.425,0.014,1.406,0.015,6.9
36,21961.00,21948.00,13.00,1.951,6575,0.004,0.494,0.013,1.426,0.015,7.5
37,21481.00,21463.00,18.00,1.865,6430,0.005,0.404,0.013,1.428,0.016,6.6
38,23652.00,23644.00,8.00,1.902,7083,0.004,0.443,0.012,1.431,0.012,6.6
39,22557.00,22556.00,1.00,2.037,6757,0.003,0.467,0.010,1.545,0.012,6.8
40,22456.00,22454.00,2.00,1.732,6727,0.004,0.419,0.011,1.286,0.012,7.3
41,22547.00,22547.00,0.00,2.185,6755,0.004,0.487,0.010,1.670,0.015,7.4
42,23651.00,23651.00,0.00,1.738,7086,0.004,0.345,0.013,1.363,0.013,6.5
43,23127.00,23127.00,0.00,1.765,6929,0.005,0.353,0.011,1.383,0.013,6.0
44,22357.00,22357.00,0.00,2.129,6698,0.004,0.533,0.011,1.566,0.015,7.8
45,22842.00,22842.00,0.00,1.838,6843,0.004,0.415,0.011,1.398,0.010,6.6
46,22866.00,22866.00,0.00,1.673,6851,0.005,0.412,0.011,1.234,0.011,6.8
47,22665.00,22665.00,0.00,2.001,6791,0.004,0.398,0.011,1.577,0.011,6.7
48,23832.00,23832.00,0.00,1.593,7140,0.005,0.368,0.011,1.198,0.011,6.6
49,23883.00,23883.00,0.00,1.829,7155,0.004,0.437,0.012,1.366,0.011,7.5
50,22492.00,22492.00,0.00,1.982,6739,0.004,0.461,0.010,1.496,0.011,6.8
51,23083.00,23083.00,0.00,1.761,6916,0.003,0.412,0.012,1.319,0.014,6.5
52,23056.00,23056.00,0.00,1.764,6908,0.003,0.382,0.013,1.355,0.012,6.8
53,23010.00,23010.00,0.00,1.924,6894,0.004,0.413,0.010,1.484,0.013,6.6
54,23248.00,23248.00,0.00,1.899,6965,0.003,0.380,0.011,1.494,0.011,6.6
55,23194.00,23194.00,0.00,1.768,6949,0.005,0.421,0.010,1.321,0.012,7.2
56,23250.00,23250.00,0.00,1.693,6966,0.005,0.355,0.012,1.311,0.011,6.1
57,22860.00,22860.00,0.00,1.974,6849,0.004,0.399,0.011,1.544,0.015,6.6
58,23522.00,23522.00,0.00,1.653,7047,0.005,0.452,0.013,1.170,0.014,8.0
59,22712.00,22712.00,0.00,1.846,6804,0.004,0.419,0.011,1.401,0.011,6.8
60,23094.00,23094.00,0.00,2.082,6919,0.003,0.513,0.011,1.541,0.014,7.5
61,23000.00,23000.00,0.00,1.720,6890,0.005,0.395,0.014,1.292,0.014,6.5
62,22836.00,22836.00,0.00,1.807,6842,0.004,0.435,0.010,1.343,0.014,6.7
63,23344.00,23344.00,0.00,1.815,6994,0.003,0.399,0.011,1.390,0.012,6.4
64,22653.00,22653.00,0.00,1.739,6787,0.005,0.394,0.011,1.316,0.012,6.8
65,22864.00,22864.00,0.00,1.925,6850,0.005,0.440,0.010,1.457,0.013,6.7
66,22870.00,22870.00,0.00,1.987,6852,0.003,0.423,0.011,1.537,0.013,6.9
67,22265.00,22265.00,0.00,1.853,6670,0.004,0.349,0.016,1.469,0.015,6.5
68,23623.00,23623.00,0.00,1.776,7077,0.004,0.372,0.014,1.372,0.013,6.7
69,23302.00,23302.00,0.00,1.865,6981,0.004,0.425,0.011,1.413,0.013,6.3
70,23489.00,23489.00,0.00,1.769,7037,0.005,0.442,0.012,1.299,0.012,6.5
71,22774.00,22774.00,0.00,1.735,6823,0.004,0.395,0.011,1.310,0.015,7.3
72,23563.00,23563.00,0.00,1.914,7059,0.004,0.409,0.012,1.479,0.011,6.7
73,22499.00,22499.00,0.00,1.738,6740,0.004,0.444,0.012,1.266,0.012,7.4
74,13739.00,13739.00,0.00,1.590,4116,0.004,0.348,0.013,1.212,0.013,5.8
75,2020.00,2020.00,0.00,0.904,605,0.004,0.068,0.014,0.809,0.009,0.2
