Second,Ops/sec,Hits/sec,Misses/sec,Latency,KB/sec,Request_Creation_Time,Request_Buffer_Time,MW_Writes_To_Memcached_Time,Memcached_Process_Time,MW_Writes_To_Memtier_Time,Queue_Size
4,1144.00,1144.00,0.00,2.134,629,0.029,1.171,0.025,0.843,0.066,9.9
5,8849.00,8849.00,0.00,1.995,4864,0.005,1.095,0.008,0.873,0.014,10.2
6,10254.00,10254.00,0.00,1.835,5636,0.004,1.057,0.007,0.754,0.013,10.5
7,12107.00,12107.00,0.00,1.463,6654,0.004,0.806,0.007,0.634,0.013,10.0
8,11935.00,11935.00,0.00,1.439,6559,0.003,0.792,0.007,0.624,0.013,9.9
9,12012.00,12012.00,0.00,1.436,6602,0.003,0.781,0.007,0.632,0.013,9.4
10,10690.00,10666.00,24.00,1.645,5862,0.004,0.905,0.007,0.716,0.013,10.1
11,10034.00,10034.00,0.00,1.870,5514,0.003,1.072,0.007,0.774,0.014,10.6
12,11348.00,11348.00,0.00,1.626,6237,0.003,0.922,0.006,0.682,0.013,10.5
13,11554.00,11554.00,0.00,1.542,6350,0.003,0.857,0.006,0.662,0.014,10.2
14,10781.00,10781.00,0.00,1.658,5925,0.003,0.922,0.007,0.713,0.013,10.0
15,11283.00,11283.00,0.00,1.607,6201,0.003,0.905,0.006,0.679,0.013,10.3
16,11364.00,11364.00,0.00,1.608,6245,0.003,0.906,0.006,0.679,0.014,10.5
17,11662.00,11662.00,0.00,1.519,6409,0.003,0.840,0.006,0.656,0.013,10.0
18,10974.00,10974.00,0.00,1.637,6031,0.003,0.921,0.006,0.695,0.012,10.1
19,12557.00,12557.00,0.00,1.333,6902,0.003,0.713,0.006,0.600,0.012,9.3
20,12785.00,12762.00,23.00,1.310,7014,0.003,0.701,0.006,0.588,0.012,9.4
21,11204.00,11203.00,1.00,1.592,6157,0.003,0.896,0.006,0.675,0.012,10.4
22,11856.00,11856.00,0.00,1.511,6516,0.003,0.838,0.006,0.652,0.013,10.1
23,12684.00,12684.00,0.00,1.379,6971,0.002,0.752,0.006,0.606,0.012,9.8
24,12081.00,12081.00,0.00,1.447,6640,0.002,0.790,0.006,0.637,0.012,9.8
25,12172.00,12172.00,0.00,1.456,6690,0.003,0.809,0.006,0.625,0.013,10.2
26,12310.00,12310.00,0.00,1.359,6766,0.002,0.725,0.007,0.613,0.012,9.4
27,12159.00,12159.00,0.00,1.486,6682,0.003,0.827,0.006,0.636,0.013,10.2
28,11320.00,11320.00,0.00,1.591,6222,0.002,0.895,0.006,0.674,0.013,10.3
29,12105.00,12105.00,0.00,1.493,6653,0.003,0.833,0.006,0.639,0.013,10.1
30,11847.00,11847.00,0.00,1.521,6511,0.003,0.850,0.006,0.649,0.013,10.2
31,11272.00,11272.00,0.00,1.592,6195,0.003,0.895,0.006,0.675,0.013,10.3
32,11527.00,11527.00,0.00,1.508,6335,0.003,0.829,0.006,0.656,0.014,9.7
33,11822.00,11822.00,0.00,1.528,6497,0.003,0.853,0.006,0.653,0.013,10.2
34,11282.00,11282.00,0.00,1.601,6201,0.003,0.899,0.007,0.679,0.013,10.1
35,12173.00,12173.00,0.00,1.452,6690,0.003,0.805,0.006,0.625,0.013,10.1
36,11728.00,11728.00,0.00,1.543,6446,0.003,0.868,0.006,0.653,0.013,10.4
37,11501.00,11501.00,0.00,1.544,6321,0.003,0.851,0.006,0.670,0.014,10.0
38,11884.00,11884.00,0.00,1.518,6531,0.003,0.849,0.006,0.648,0.013,10.1
39,11908.00,11908.00,0.00,1.483,6544,0.003,0.817,0.006,0.644,0.013,9.9
40,11640.00,11640.00,0.00,1.587,6397,0.003,0.904,0.006,0.662,0.013,10.5
41,12584.00,12584.00,0.00,1.377,6916,0.003,0.747,0.006,0.609,0.013,9.6
42,12510.00,12510.00,0.00,1.322,6875,0.003,0.703,0.006,0.598,0.013,9.4
43,12090.00,12090.00,0.00,1.506,6644,0.003,0.845,0.006,0.639,0.013,10.4
44,13121.00,13121.00,0.00,1.266,7211,0.003,0.676,0.006,0.569,0.013,9.4
45,12456.00,12450.00,6.00,1.386,6843,0.003,0.752,0.006,0.612,0.013,9.5
46,11311.00,11299.00,12.00,1.631,6210,0.003,0.929,0.006,0.680,0.013,10.3
47,12196.00,12190.00,6.00,1.466,6699,0.003,0.812,0.006,0.632,0.013,10.2
48,12500.00,12494.00,6.00,1.341,6867,0.003,0.722,0.006,0.597,0.013,9.3
49,12016.00,12002.00,14.00,1.460,6596,0.003,0.807,0.006,0.631,0.013,9.6
50,12781.00,12763.00,18.00,1.370,7014,0.003,0.751,0.006,0.598,0.013,10.0
51,11593.00,11584.00,9.00,1.505,6366,0.003,0.828,0.006,0.656,0.012,9.9
52,11713.00,11712.00,1.00,1.560,6437,0.003,0.878,0.006,0.660,0.013,10.3
53,12053.00,12053.00,0.00,1.476,6624,0.003,0.817,0.006,0.638,0.013,10.3
54,12616.00,12616.00,0.00,1.326,6934,0.003,0.701,0.006,0.603,0.013,9.3
55,10979.00,10979.00,0.00,1.692,6034,0.003,0.962,0.006,0.708,0.013,10.4
56,12111.00,12111.00,0.00,1.496,6656,0.003,0.836,0.006,0.639,0.013,10.3
57,12550.00,12550.00,0.00,1.348,6897,0.003,0.729,0.006,0.598,0.013,9.7
58,12069.00,12069.00,0.00,1.534,6633,0.003,0.869,0.006,0.642,0.013,10.6
59,11393.00,11393.00,0.00,1.518,6262,0.003,0.825,0.006,0.673,0.012,9.8
60,11806.00,11806.00,0.00,1.411,6489,0.003,0.762,0.006,0.627,0.012,9.4
61,11577.00,11577.00,0.00,1.581,6363,0.003,0.894,0.006,0.665,0.013,10.1
62,12304.00,12304.00,0.00,1.465,6762,0.003,0.816,0.006,0.628,0.012,10.2
63,12380.00,12380.00,0.00,1.399,6804,0.003,0.763,0.006,0.616,0.012,9.6
64,11660.00,11660.00,0.00,1.517,6408,0.003,0.840,0.006,0.655,0.012,9.9
65,12707.00,12707.00,0.00,1.365,6984,0.003,0.745,0.006,0.598,0.012,9.7
66,12000.00,12000.00,0.00,1.455,6595,0.003,0.796,0.006,0.638,0.012,9.7
67,11704.00,11704.00,0.00,1.511,6432,0.003,0.839,0.006,0.650,0.012,9.7
68,12485.00,12485.00,0.00,1.449,6862,0.003,0.807,0.006,0.619,0.013,10.4
69,12409.00,12409.00,0.00,1.332,6820,0.003,0.707,0.006,0.603,0.012,9.0
70,11760.00,11760.00,0.00,1.489,6463,0.003,0.819,0.007,0.647,0.013,9.7
71,12310.00,12310.00,0.00,1.450,6765,0.003,0.803,0.006,0.627,0.012,9.9
72,12382.00,12382.00,0.00,1.342,6805,0.003,0.710,0.006,0.610,0.013,9.2
73,12101.00,12101.00,0.00,1.452,6651,0.003,0.795,0.006,0.636,0.012,9.5
74,10386.00,10386.00,0.00,1.491,5708,0.003,0.834,0.006,0.636,0.012,10.1
