Second,Ops/sec,Hits/sec,Misses/sec,Latency,KB/sec,Request_Creation_Time,Request_Buffer_Time,MW_Writes_To_Memcached_Time,Memcached_Process_Time,MW_Writes_To_Memtier_Time,Queue_Size
4,3457.00,3457.00,0.00,1.061,384,0.011,0.099,0.030,0.875,0.047,0.4
5,8102.00,8102.00,0.00,0.836,900,0.006,0.092,0.012,0.714,0.012,0.5
6,12087.00,12087.00,0.00,0.572,1343,0.004,0.051,0.011,0.496,0.010,0.4
7,9689.00,9677.00,12.00,0.763,1075,0.005,0.063,0.013,0.671,0.011,0.4
8,10670.00,10670.00,0.00,0.649,1185,0.004,0.080,0.012,0.543,0.010,0.4
9,11247.00,11247.00,0.00,0.650,1250,0.004,0.073,0.011,0.551,0.011,0.4
10,10667.00,10667.00,0.00,0.681,1185,0.004,0.059,0.012,0.596,0.010,0.4
11,9975.00,9975.00,0.00,0.707,1108,0.004,0.063,0.011,0.618,0.010,0.4
12,11847.00,11843.00,4.00,0.567,1316,0.003,0.058,0.011,0.485,0.010,0.5
13,11498.00,11490.00,8.00,0.595,1276,0.003,0.047,0.012,0.523,0.010,0.4
14,10186.00,10186.00,0.00,0.709,1132,0.003,0.097,0.011,0.589,0.010,0.5
15,11317.00,11317.00,0.00,0.616,1258,0.003,0.061,0.011,0.532,0.010,0.4
16,11298.00,11298.00,0.00,0.609,1255,0.003,0.067,0.011,0.518,0.010,0.5
17,11529.00,11529.00,0.00,0.585,1281,0.003,0.064,0.011,0.497,0.010,0.5
18,10941.00,10941.00,0.00,0.631,1216,0.003,0.066,0.011,0.540,0.010,0.5
19,10176.00,10176.00,0.00,0.693,1131,0.003,0.093,0.012,0.572,0.013,0.6
20,10964.00,10964.00,0.00,0.643,1218,0.003,0.060,0.010,0.560,0.010,0.5
21,11275.00,11275.00,0.00,0.607,1253,0.003,0.063,0.011,0.520,0.010,0.4
22,11207.00,11207.00,0.00,0.637,1245,0.003,0.076,0.010,0.538,0.010,0.5
23,11066.00,11066.00,0.00,0.634,1230,0.003,0.077,0.011,0.533,0.010,0.5
24,10553.00,10553.00,0.00,0.655,1173,0.003,0.065,0.012,0.564,0.010,0.5
25,11695.00,11695.00,0.00,0.601,1299,0.003,0.055,0.010,0.522,0.010,0.5
26,10962.00,10956.00,6.00,0.635,1218,0.003,0.065,0.011,0.547,0.010,0.4
27,11796.00,11788.00,8.00,0.574,1310,0.004,0.051,0.011,0.499,0.010,0.4
28,12081.00,12072.00,9.00,0.557,1341,0.003,0.061,0.010,0.473,0.010,0.5
29,10175.00,10164.00,11.00,0.698,1129,0.004,0.063,0.011,0.610,0.010,0.4
30,11477.00,11475.00,2.00,0.606,1275,0.003,0.059,0.011,0.522,0.010,0.5
31,12195.00,12195.00,0.00,0.546,1355,0.003,0.047,0.011,0.475,0.010,0.4
32,11066.00,11066.00,0.00,0.617,1229,0.003,0.075,0.010,0.518,0.011,0.5
33,12089.00,12089.00,0.00,0.576,1343,0.003,0.054,0.010,0.500,0.010,0.4
34,10809.00,10809.00,0.00,0.648,1201,0.003,0.074,0.011,0.550,0.010,0.5
35,10627.00,10627.00,0.00,0.673,1181,0.003,0.084,0.011,0.566,0.010,0.5
36,11092.00,11092.00,0.00,0.633,1232,0.003,0.081,0.011,0.528,0.010,0.6
37,12092.00,12092.00,0.00,0.551,1343,0.003,0.055,0.010,0.473,0.010,0.4
38,11829.00,11829.00,0.00,0.605,1314,0.003,0.056,0.010,0.525,0.010,0.4
39,10844.00,10844.00,0.00,0.674,1205,0.003,0.061,0.011,0.589,0.010,0.4
40,12547.00,12547.00,0.00,0.515,1394,0.003,0.047,0.010,0.445,0.010,0.4
41,10034.00,10034.00,0.00,0.737,1115,0.003,0.088,0.011,0.625,0.010,0.5
42,11612.00,11612.00,0.00,0.563,1290,0.003,0.069,0.010,0.471,0.010,0.5
43,12021.00,12021.00,0.00,0.559,1336,0.003,0.049,0.011,0.487,0.010,0.4
44,10448.00,10448.00,0.00,0.709,1161,0.003,0.051,0.011,0.633,0.011,0.4
45,11872.00,11872.00,0.00,0.565,1319,0.004,0.067,0.011,0.473,0.010,0.5
46,10852.00,10852.00,0.00,0.638,1206,0.003,0.098,0.010,0.517,0.010,0.6
47,10918.00,10918.00,0.00,0.641,1213,0.003,0.071,0.010,0.547,0.010,0.5
48,11110.00,11110.00,0.00,0.632,1234,0.003,0.088,0.010,0.520,0.010,0.5
49,10289.00,10289.00,0.00,0.704,1143,0.003,0.079,0.011,0.601,0.011,0.5
50,11460.00,11460.00,0.00,0.630,1273,0.003,0.051,0.010,0.555,0.010,0.4
51,12070.00,12070.00,0.00,0.537,1341,0.003,0.051,0.010,0.463,0.010,0.4
52,10984.00,10984.00,0.00,0.651,1220,0.003,0.089,0.010,0.538,0.010,0.5
53,11297.00,11297.00,0.00,0.630,1255,0.003,0.061,0.010,0.545,0.010,0.5
54,11326.00,11326.00,0.00,0.600,1258,0.003,0.049,0.010,0.528,0.010,0.4
55,11625.00,11625.00,0.00,0.572,1291,0.003,0.050,0.010,0.500,0.010,0.4
56,12030.00,12030.00,0.00,0.586,1337,0.003,0.054,0.010,0.510,0.010,0.5
57,11277.00,11277.00,0.00,0.616,1253,0.003,0.076,0.010,0.518,0.010,0.5
58,11235.00,11235.00,0.00,0.624,1248,0.003,0.087,0.010,0.514,0.010,0.5
59,11005.00,11005.00,0.00,0.662,1223,0.003,0.051,0.010,0.587,0.010,0.4
60,11544.00,11544.00,0.00,0.579,1283,0.003,0.066,0.010,0.490,0.010,0.4
61,12045.00,12045.00,0.00,0.575,1338,0.003,0.052,0.010,0.500,0.010,0.4
62,11341.00,11341.00,0.00,0.593,1260,0.003,0.062,0.010,0.507,0.010,0.5
63,11405.00,11405.00,0.00,0.599,1267,0.003,0.060,0.010,0.515,0.010,0.4
64,11243.00,11243.00,0.00,0.647,1249,0.003,0.057,0.011,0.566,0.010,0.5
65,11097.00,11097.00,0.00,0.629,1233,0.003,0.062,0.010,0.543,0.010,0.5
66,11952.00,11952.00,0.00,0.567,1328,0.003,0.052,0.010,0.491,0.010,0.4
67,11941.00,11941.00,0.00,0.587,1327,0.003,0.065,0.010,0.499,0.010,0.5
68,10561.00,10561.00,0.00,0.661,1174,0.003,0.097,0.011,0.540,0.010,0.5
69,10702.00,10702.00,0.00,0.692,1189,0.004,0.066,0.010,0.601,0.010,0.4
70,12246.00,12243.00,3.00,0.552,1360,0.003,0.045,0.011,0.483,0.010,0.4
71,11767.00,11764.00,3.00,0.574,1307,0.003,0.054,0.011,0.497,0.010,0.4
72,11619.00,11617.00,2.00,0.588,1291,0.003,0.062,0.011,0.501,0.011,0.4
73,11344.00,11336.00,8.00,0.631,1260,0.003,0.068,0.011,0.539,0.010,0.5
74,5329.00,5324.00,5.00,0.659,592,0.003,0.070,0.010,0.566,0.010,0.5
