"Dstat 0.7.2 CSV output"
"Author:","Dag Wieers <dag@wieers.com>",,,,"URL:","http://dag.wieers.com/home-made/dstat/"
"Host:","Server1",,,,"User:","mstevan"
"Cmdline:","dstat --output /home/mstevan/logs/experiment_3.3/dstat/vs_1024-vcpr_16-wtpm_64-rep_4.csv 5 16",,,,"Date:","28 Oct 2019 15:18:50 UTC"

"total cpu usage",,,,,,"dsk/total",,"net/total",,"paging",,"system",
"usr","sys","idl","wai","hiq","siq","read","writ","recv","send","in","out","int","csw"
6.055,14.812,76.390,0.211,0.0,2.531,4910.306,756320.709,0.0,0.0,0.0,0.0,0.065,3049.245
0.602,0.803,98.394,0.0,0.0,0.201,0.0,1638.400,31154.800,257118.200,0.0,0.0,0.0,237.400
2.899,7.453,87.785,0.0,0.0,1.863,0.0,819.200,947205.0,12629143.200,0.0,0.0,0.0,1770.200
2.484,7.039,88.199,0.621,0.0,1.656,0.0,19660.800,939022.0,12499998.600,0.0,0.0,0.0,1541.200
3.112,7.884,87.759,0.0,0.0,1.245,0.0,5734.400,939411.400,12539033.600,0.0,0.0,0.0,1560.0
3.313,6.832,87.992,0.0,0.0,1.863,0.0,1638.400,939721.200,12499965.600,0.0,0.0,0.0,1526.200
2.521,6.933,89.076,0.0,0.0,1.471,0.0,1638.400,939727.0,12499924.600,0.0,0.0,0.0,1547.600
2.058,7.613,88.683,0.0,0.0,1.646,0.0,2457.600,936035.200,12500050.0,0.0,0.0,0.0,1447.0
2.096,7.338,88.889,0.0,0.0,1.677,0.0,1638.400,939331.400,12499866.600,0.0,0.0,0.0,1507.800
2.516,5.451,89.937,0.0,0.0,2.096,0.0,819.200,936269.800,12496775.200,0.0,0.0,0.0,1549.800
2.720,6.695,89.331,0.209,0.0,1.046,0.0,15564.800,938997.400,12503323.0,0.0,0.0,0.0,1538.800
3.520,7.246,87.785,0.0,0.0,1.449,0.0,1638.400,941976.0,12539093.600,0.0,0.0,0.0,1605.600
2.905,6.017,89.419,0.0,0.0,1.660,0.0,819.200,936264.800,12500066.400,0.0,0.0,0.0,1447.400
3.556,6.695,88.075,0.0,0.0,1.674,0.0,1638.400,939769.400,12499969.800,0.0,0.0,0.0,1495.400
2.917,6.667,88.750,0.0,0.0,1.667,0.0,3276.800,939322.800,12500016.200,0.0,0.0,0.0,1407.200
3.099,6.612,88.430,0.0,0.0,1.860,0.0,819.200,919527.600,12272727.800,0.0,0.0,0.0,1408.0
0.601,0.200,98.397,0.802,0.0,0.0,0.0,17203.200,6718.200,2340.400,0.0,0.0,0.0,95.600
