"Dstat 0.7.2 CSV output"
"Author:","Dag Wieers <dag@wieers.com>",,,,"URL:","http://dag.wieers.com/home-made/dstat/"
"Host:","Server1",,,,"User:","mstevan"
"Cmdline:","dstat --output /home/mstevan/logs/experiment_3.3/dstat/vs_1024-vcpr_8-wtpm_32-rep_2.csv 5 16",,,,"Date:","28 Oct 2019 14:53:15 UTC"

"total cpu usage",,,,,,"dsk/total",,"net/total",,"paging",,"system",
"usr","sys","idl","wai","hiq","siq","read","writ","recv","send","in","out","int","csw"
6.157,15.081,75.972,0.216,0.0,2.574,5043.316,776673.651,0.0,0.0,0.0,0.0,0.067,3078.114
0.202,0.605,98.790,0.403,0.0,0.0,0.0,18022.400,30212.0,329315.400,0.0,0.0,0.0,235.800
4.202,8.824,85.714,0.0,0.0,1.261,0.0,1638.400,944551.600,12560636.200,0.0,0.0,0.0,3137.200
3.158,7.579,87.789,0.0,0.0,1.474,0.0,2457.600,939178.400,12499939.200,0.0,0.0,0.0,2833.600
2.521,8.403,87.815,0.0,0.0,1.261,0.0,1638.400,939559.800,12539053.400,0.0,0.0,0.0,3005.200
2.941,7.773,87.815,0.0,0.0,1.471,0.0,1638.400,939144.600,12500090.800,0.0,0.0,0.0,2760.200
3.165,8.017,87.553,0.0,0.0,1.266,0.0,1638.400,939016.400,12499994.600,0.0,0.0,0.0,2823.0
3.354,7.547,88.050,0.0,0.0,1.048,0.0,16384.0,936277.600,12499860.200,0.0,0.0,0.0,2896.600
3.165,6.962,88.608,0.0,0.0,1.266,0.0,4915.200,942601.0,12539046.200,0.0,0.0,0.0,2758.200
3.165,7.384,88.186,0.0,0.0,1.266,0.0,819.200,939004.0,12539021.600,0.0,0.0,0.0,2807.800
3.390,7.415,88.136,0.0,0.0,1.059,0.0,1638.400,939275.800,12500103.400,0.0,0.0,0.0,2777.800
4.478,6.610,87.207,0.0,0.0,1.706,0.0,1638.400,939635.200,12499995.0,0.0,0.0,0.0,2849.400
1.895,8.211,88.632,0.0,0.0,1.263,0.0,819.200,939043.200,12539060.600,0.0,0.0,0.0,2777.800
3.609,6.582,88.535,0.425,0.0,0.849,0.0,16384.0,939128.200,12499896.400,0.0,0.0,0.0,2840.200
4.612,6.918,87.841,0.0,0.0,0.629,0.0,2457.600,939231.0,12499958.800,0.0,0.0,0.0,2760.200
2.929,7.322,88.285,0.0,0.0,1.464,0.0,819.200,914400.400,12208826.400,0.0,0.0,0.0,2687.400
0.401,0.200,99.399,0.0,0.0,0.0,0.0,1638.400,6254.0,1869.600,0.0,0.0,0.0,75.600
