"Dstat 0.7.2 CSV output"
"Author:","Dag Wieers <dag@wieers.com>",,,,"URL:","http://dag.wieers.com/home-made/dstat/"
"Host:","Server1",,,,"User:","mstevan"
"Cmdline:","dstat --output /home/mstevan/logs/experiment_3.3/dstat/vs_1024-vcpr_32-wtpm_8-rep_4.csv 5 16",,,,"Date:","28 Oct 2019 15:24:31 UTC"

"total cpu usage",,,,,,"dsk/total",,"net/total",,"paging",,"system",
"usr","sys","idl","wai","hiq","siq","read","writ","recv","send","in","out","int","csw"
6.033,14.756,76.479,0.210,0.0,2.522,4881.698,751942.737,0.0,0.0,0.0,0.0,0.065,3046.325
0.605,1.210,98.185,0.0,0.0,0.0,0.0,819.200,19709.800,211087.600,0.0,0.0,0.0,414.200
4.357,7.625,86.710,0.218,0.0,1.089,0.0,18841.600,947920.200,12614354.400,0.0,0.0,0.0,3849.400
3.397,7.431,88.535,0.0,0.0,0.637,0.0,1638.400,939542.400,12502628.800,0.0,0.0,0.0,3707.400
3.165,7.595,88.819,0.0,0.0,0.422,0.0,2457.600,935854.200,12497183.600,0.0,0.0,0.0,3667.0
2.754,8.686,87.500,0.0,0.0,1.059,0.0,1638.400,938317.800,12492846.800,0.0,0.0,0.0,3632.200
3.579,8.421,86.947,0.0,0.0,1.053,0.0,1638.400,939872.0,12510834.0,0.0,0.0,0.0,3648.0
3.354,8.176,87.212,0.0,0.0,1.258,0.0,2457.600,936068.200,12499048.400,0.0,0.0,0.0,3609.600
3.822,8.917,86.412,0.0,0.0,0.849,0.0,1638.400,939589.800,12498050.800,0.0,0.0,0.0,3577.0
2.960,7.611,87.738,0.634,0.0,1.057,0.0,18022.400,936132.800,12499159.200,0.0,0.0,0.0,3680.800
3.376,8.017,87.131,0.0,0.0,1.477,0.0,1638.400,941814.400,12500608.600,0.0,0.0,0.0,3747.600
2.537,8.668,87.315,0.0,0.0,1.480,0.0,1638.400,938982.0,12499490.0,0.0,0.0,0.0,3652.800
2.743,6.751,89.241,0.0,0.0,1.266,0.0,819.200,935931.400,12499757.0,0.0,0.0,0.0,3728.0
3.185,7.006,88.747,0.0,0.0,1.062,0.0,1638.400,939069.800,12500046.200,0.0,0.0,0.0,3635.600
3.426,7.495,88.009,0.0,0.0,1.071,0.0,3276.800,939103.600,12499041.800,0.0,0.0,0.0,3485.600
3.205,7.265,89.103,0.0,0.0,0.427,0.0,14745.600,935865.0,12496079.600,0.0,0.0,0.0,3614.0
0.833,2.500,96.458,0.0,0.0,0.208,0.0,1638.400,180637.800,2336313.800,0.0,0.0,0.0,1504.600
