"Dstat 0.7.2 CSV output"
"Author:","Dag Wieers <dag@wieers.com>",,,,"URL:","http://dag.wieers.com/home-made/dstat/"
"Host:","Server1",,,,"User:","mstevan"
"Cmdline:","dstat --output /home/mstevan/logs/experiment_3.3/dstat/vs_1024-vcpr_16-wtpm_32-rep_4.csv 5 16",,,,"Date:","28 Oct 2019 15:13:09 UTC"

"total cpu usage",,,,,,"dsk/total",,"net/total",,"paging",,"system",
"usr","sys","idl","wai","hiq","siq","read","writ","recv","send","in","out","int","csw"
6.079,14.874,76.295,0.212,0.0,2.540,4939.254,760750.054,0.0,0.0,0.0,0.0,0.066,3059.912
0.202,0.810,98.785,0.0,0.0,0.202,0.0,1638.400,41020.0,423466.800,0.0,0.0,0.0,251.600
2.505,6.472,89.979,0.0,0.0,1.044,0.0,819.200,936681.600,12502111.600,0.0,0.0,0.0,1351.400
2.500,6.458,89.375,0.0,0.0,1.667,0.0,1638.400,938999.0,12500183.600,0.0,0.0,0.0,1218.400
3.534,5.198,89.605,0.208,0.0,1.455,0.0,22937.600,939189.400,12499784.0,0.0,0.0,0.0,1248.400
2.066,6.612,89.876,0.0,0.0,1.446,0.0,819.200,936276.600,12500100.800,0.0,0.0,0.0,1190.200
2.708,7.083,89.583,0.0,0.0,0.625,0.0,1638.400,940327.400,12499991.800,0.0,0.0,0.200,1218.200
2.675,6.173,89.300,0.0,0.0,1.852,0.0,3276.800,939040.800,12499790.400,0.0,0.0,0.0,1279.200
2.101,5.672,91.176,0.0,0.0,1.050,0.0,819.200,936206.400,12500030.600,0.0,0.0,0.0,1208.400
3.061,7.959,88.163,0.0,0.0,0.816,0.0,1638.400,939147.800,12500072.400,0.0,0.0,0.0,1230.200
2.469,6.584,89.918,0.0,0.0,1.029,0.0,819.200,935979.200,12499998.400,0.0,0.0,0.0,1181.600
3.292,7.819,87.449,0.206,0.0,1.235,0.0,21299.200,939060.600,12500039.800,0.0,0.0,0.0,1191.0
3.326,7.069,88.150,0.0,0.0,1.455,0.0,1638.400,942378.600,12538943.0,0.0,0.0,0.0,1199.0
2.869,6.557,89.139,0.0,0.0,1.434,0.0,819.200,936527.600,12500085.400,0.0,0.0,0.0,1141.0
2.917,6.250,89.583,0.0,0.0,1.250,0.0,3276.800,939917.600,12499910.600,0.0,0.0,0.0,1220.800
2.484,6.625,89.648,0.0,0.0,1.242,0.0,1638.400,917721.600,12213267.400,0.0,0.0,0.0,1235.0
0.200,0.0,99.800,0.0,0.0,0.0,0.0,819.200,3167.0,1005.600,0.0,0.0,0.0,61.600
