"Dstat 0.7.2 CSV output"
"Author:","Dag Wieers <dag@wieers.com>",,,,"URL:","http://dag.wieers.com/home-made/dstat/"
"Host:","Server1",,,,"User:","mstevan"
"Cmdline:","dstat --output /home/mstevan/logs/experiment_3.3/dstat/vs_1024-vcpr_32-wtpm_8-rep_2.csv 5 16",,,,"Date:","28 Oct 2019 15:21:41 UTC"

"total cpu usage",,,,,,"dsk/total",,"net/total",,"paging",,"system",
"usr","sys","idl","wai","hiq","siq","read","writ","recv","send","in","out","int","csw"
6.044,14.783,76.435,0.211,0.0,2.527,4895.959,754124.263,0.0,0.0,0.0,0.0,0.065,3046.577
0.805,0.604,98.592,0.0,0.0,0.0,0.0,1638.400,27100.400,268062.0,0.0,0.0,0.0,209.200
3.471,6.074,88.937,0.0,0.0,1.518,0.0,819.200,942760.600,12585626.400,0.0,0.0,0.0,3679.800
3.830,7.447,87.447,0.0,0.0,1.277,0.0,1638.400,939270.200,12499831.400,0.0,0.0,0.0,3532.200
3.617,7.234,88.511,0.0,0.0,0.638,0.0,2457.600,939076.400,12500055.200,0.0,0.0,0.0,3571.400
2.316,8.421,88.0,0.0,0.0,1.263,0.0,1638.400,935873.800,12499866.0,0.0,0.0,0.0,3565.600
3.024,6.695,88.553,0.0,0.0,1.728,0.0,37683.200,942447.400,12539429.400,0.0,0.0,0.0,3559.600
3.299,9.278,86.186,0.0,0.0,1.237,0.0,25395.200,942039.0,12539000.200,0.0,0.0,0.0,3638.800
2.966,7.203,88.983,0.0,0.0,0.847,0.0,819.200,936180.800,12499797.600,0.0,0.0,0.0,3577.400
4.184,7.950,86.611,0.0,0.0,1.255,0.0,1638.400,939292.600,12500062.600,0.0,0.0,0.0,3625.400
3.354,7.966,87.631,0.0,0.0,1.048,0.0,819.200,938988.600,12499987.400,0.0,0.0,0.0,3510.200
4.219,7.384,87.553,0.0,0.0,0.844,0.0,1638.400,938678.800,12499865.0,0.0,0.0,0.0,3514.0
2.526,8.632,87.368,0.211,0.0,1.263,0.0,15564.800,938990.800,12500176.200,0.0,0.0,0.0,3421.200
2.141,7.281,89.936,0.0,0.0,0.642,0.0,819.200,936109.800,12499992.600,0.0,0.0,0.0,3376.200
2.960,8.245,87.949,0.0,0.0,0.846,0.0,3276.800,939171.0,12499719.800,0.0,0.0,0.0,3452.600
3.368,7.789,87.158,0.0,0.0,1.684,0.0,1638.400,921096.400,12257492.0,0.0,0.0,0.0,3393.400
0.401,0.0,99.599,0.0,0.0,0.0,0.0,819.200,3167.0,1005.600,0.0,0.0,0.0,62.400
