"Dstat 0.7.2 CSV output"
"Author:","Dag Wieers <dag@wieers.com>",,,,"URL:","http://dag.wieers.com/home-made/dstat/"
"Host:","Server1",,,,"User:","mstevan"
"Cmdline:","dstat --output /home/mstevan/logs/experiment_3.3/dstat/vs_1024-vcpr_4-wtpm_64-rep_1.csv 5 16",,,,"Date:","28 Oct 2019 14:40:27 UTC"

"total cpu usage",,,,,,"dsk/total",,"net/total",,"paging",,"system",
"usr","sys","idl","wai","hiq","siq","read","writ","recv","send","in","out","int","csw"
6.198,15.188,75.806,0.218,0.0,2.590,5112.556,787275.464,0.0,0.0,0.0,0.0,0.068,3071.999
0.604,0.604,98.793,0.0,0.0,0.0,0.0,819.200,26129.400,208309.600,0.0,0.0,0.0,272.600
6.195,10.398,79.867,0.221,0.0,3.319,0.0,18841.600,949578.0,12618207.800,0.0,0.0,0.0,5578.400
4.911,12.946,79.911,0.0,0.0,2.232,0.0,4915.200,942893.200,12503423.600,0.0,0.0,0.0,5283.200
4.646,11.726,81.416,0.0,0.0,2.212,0.0,2457.600,937513.0,12478922.0,0.0,0.0,0.0,5495.0
5.011,13.072,78.867,0.0,0.0,3.050,0.0,1638.400,945401.0,12546963.0,0.0,0.0,0.0,5076.400
5.077,13.024,79.912,0.0,0.0,1.987,0.0,1638.400,940746.800,12498161.800,0.0,0.0,0.0,5117.200
5.286,12.115,79.956,0.0,0.0,2.643,0.0,2457.600,939208.600,12514772.200,0.0,0.0,0.0,5174.800
5.543,11.973,79.379,0.0,0.0,3.104,0.0,1638.400,944533.400,12536784.0,0.0,0.0,0.0,5119.800
5.100,10.643,81.375,0.222,0.0,2.661,0.0,20480.0,939467.400,12514409.0,0.0,0.0,0.0,5228.0
4.795,11.416,81.279,0.0,0.0,2.511,0.0,1638.400,943766.600,12520622.200,0.0,0.0,0.0,5154.800
5.333,11.111,80.889,0.0,0.0,2.667,0.0,1638.400,942412.600,12507947.400,0.0,0.0,0.0,4859.200
4.740,12.641,79.684,0.0,0.0,2.935,0.0,819.200,938627.400,12497179.400,0.0,0.0,0.0,5194.0
4.762,11.338,80.272,0.0,0.0,3.628,0.0,1638.400,941198.800,12482271.400,0.0,0.0,0.0,5539.800
5.057,11.264,80.460,0.0,0.0,3.218,0.0,2457.600,941913.600,12498904.800,0.0,0.0,0.0,5136.400
5.275,10.549,80.879,0.659,0.0,2.637,0.0,21299.200,917813.0,12210832.0,0.0,0.0,0.0,4932.600
0.201,0.201,99.598,0.0,0.0,0.0,0.0,1638.400,6338.400,2012.0,0.0,0.0,0.0,67.400
