"Dstat 0.7.2 CSV output"
"Author:","Dag Wieers <dag@wieers.com>",,,,"URL:","http://dag.wieers.com/home-made/dstat/"
"Host:","Server1",,,,"User:","mstevan"
"Cmdline:","dstat --output /home/mstevan/logs/experiment_3.3/dstat/vs_1024-vcpr_32-wtpm_8-rep_1.csv 5 16",,,,"Date:","28 Oct 2019 15:20:16 UTC"

"total cpu usage",,,,,,"dsk/total",,"net/total",,"paging",,"system",
"usr","sys","idl","wai","hiq","siq","read","writ","recv","send","in","out","int","csw"
6.049,14.797,76.413,0.211,0.0,2.529,4903.120,755220.555,0.0,0.0,0.0,0.0,0.065,3046.650
0.402,0.201,99.197,0.0,0.0,0.201,0.0,819.200,29559.600,344832.0,0.0,0.0,0.0,237.200
3.404,7.872,87.660,0.0,0.0,1.064,0.0,1638.400,942566.800,12540418.0,0.0,0.0,0.0,3735.200
2.548,7.856,88.747,0.0,0.0,0.849,0.0,819.200,936220.600,12499837.600,0.0,0.0,0.0,3425.400
2.766,8.085,87.447,0.0,0.0,1.702,0.0,3276.800,939028.0,12500006.0,0.0,0.0,0.0,3630.200
2.766,8.085,87.872,0.0,0.0,1.277,0.0,19660.800,938949.600,12499985.0,0.0,0.0,0.0,3529.0
3.376,7.384,88.397,0.0,0.0,0.844,0.0,819.200,936062.600,12500096.200,0.0,0.0,0.0,3496.0
3.992,8.193,86.765,0.0,0.0,1.050,0.0,3276.800,942031.200,12538784.800,0.0,0.0,0.0,3514.0
3.571,8.403,86.765,0.0,0.0,1.261,0.0,1638.400,939241.600,12500012.0,0.0,0.0,0.0,3509.800
3.354,7.547,88.260,0.0,0.0,0.839,0.0,819.200,936254.800,12500079.200,0.0,0.0,0.0,3482.0
2.548,8.280,88.747,0.0,0.0,0.425,0.0,1638.400,942079.0,12499986.0,0.0,0.0,0.0,3589.200
2.784,7.709,87.794,0.428,0.0,1.285,0.0,15564.800,936380.800,12503550.600,0.0,0.0,0.0,3507.400
3.586,8.650,86.920,0.0,0.0,0.844,0.0,6553.600,941632.400,12535461.200,0.0,0.0,0.0,3502.800
3.383,6.765,87.949,0.0,0.0,1.903,0.0,1638.400,939065.600,12500043.200,0.0,0.0,0.0,3575.0
3.390,6.992,87.924,0.0,0.0,1.695,0.0,1638.400,939054.400,12538863.600,0.0,0.0,0.0,3480.800
4.219,7.384,87.553,0.0,0.0,0.844,0.0,2457.600,937740.400,12481159.600,0.0,0.0,0.0,3524.200
0.820,1.844,97.336,0.0,0.0,0.0,0.0,819.200,165249.800,2170835.400,0.0,0.0,0.0,1284.800
