"Dstat 0.7.2 CSV output"
"Author:","Dag Wieers <dag@wieers.com>",,,,"URL:","http://dag.wieers.com/home-made/dstat/"
"Host:","Server1",,,,"User:","mstevan"
"Cmdline:","dstat --output /home/mstevan/logs/experiment_3.3/dstat/vs_1024-vcpr_16-wtpm_64-rep_1.csv 5 16",,,,"Date:","28 Oct 2019 15:14:34 UTC"

"total cpu usage",,,,,,"dsk/total",,"net/total",,"paging",,"system",
"usr","sys","idl","wai","hiq","siq","read","writ","recv","send","in","out","int","csw"
6.072,14.858,76.319,0.212,0.0,2.538,4931.987,759637.640,0.0,0.0,0.0,0.0,0.065,3056.921
0.402,0.803,98.795,0.0,0.0,0.0,0.0,1638.400,33040.200,276674.0,0.0,0.0,0.0,246.400
3.145,7.128,88.050,0.0,0.0,1.677,0.0,819.200,942857.200,12582143.800,0.0,0.0,0.0,1925.400
3.119,7.069,88.565,0.0,0.0,1.247,0.0,1638.400,937893.600,12478430.800,0.0,0.0,0.0,1587.800
3.306,7.025,88.636,0.0,0.0,1.033,0.0,2457.600,936291.600,12521506.800,0.0,0.0,0.0,1629.0
3.354,6.289,89.099,0.0,0.0,1.258,0.0,1638.400,940124.200,12499967.200,0.0,0.0,0.0,1554.600
2.725,5.660,88.889,0.419,0.0,2.306,0.0,22937.600,939147.600,12499851.800,0.0,0.0,0.0,1626.400
3.061,8.571,86.735,0.0,0.0,1.633,0.0,2457.600,936699.400,12478501.0,0.0,0.0,0.0,1592.800
3.347,6.904,88.703,0.0,0.0,1.046,0.0,1638.400,942324.400,12560642.600,0.0,0.0,0.0,1567.800
3.112,6.846,88.589,0.0,0.0,1.452,0.0,819.200,942244.0,12538200.200,0.0,0.0,0.0,1497.200
2.748,5.074,90.909,0.0,0.0,1.268,0.0,1638.400,936928.400,12500782.0,0.0,0.0,0.0,1544.400
3.498,7.202,87.860,0.0,0.0,1.440,0.0,1638.400,937777.200,12490781.400,0.0,0.0,0.0,1524.200
2.714,6.681,88.309,0.835,0.0,1.461,0.0,14745.600,939234.800,12548069.800,0.0,0.0,0.0,1558.0
3.099,7.438,87.603,0.0,0.0,1.860,0.0,1638.400,939668.200,12500134.600,0.0,0.0,0.0,1503.200
3.326,6.861,88.358,0.0,0.0,1.455,0.0,3276.800,939464.0,12500068.600,0.0,0.0,0.0,1604.800
2.917,6.458,89.583,0.0,0.0,1.042,0.0,819.200,919501.800,12253930.200,0.0,0.0,0.0,1506.400
0.601,0.200,99.198,0.0,0.0,0.0,0.0,1638.400,6335.200,1896.800,0.0,0.0,0.0,76.600
