"Dstat 0.7.2 CSV output"
"Author:","Dag Wieers <dag@wieers.com>",,,,"URL:","http://dag.wieers.com/home-made/dstat/"
"Host:","Server1",,,,"User:","mstevan"
"Cmdline:","dstat --output /home/mstevan/logs/experiment_3.3/dstat/vs_1024-vcpr_8-wtpm_64-rep_4.csv 5 16",,,,"Date:","28 Oct 2019 15:01:47 UTC"

"total cpu usage",,,,,,"dsk/total",,"net/total",,"paging",,"system",
"usr","sys","idl","wai","hiq","siq","read","writ","recv","send","in","out","int","csw"
6.124,14.992,76.109,0.214,0.0,2.561,4998.186,769763.431,0.0,0.0,0.0,0.0,0.066,3071.013
0.803,0.602,98.594,0.0,0.0,0.0,0.0,18841.600,29450.600,234637.400,0.0,0.0,0.0,277.0
3.165,7.806,86.709,0.0,0.0,2.321,0.0,7372.800,947531.400,12616609.0,0.0,0.0,0.0,3042.0
3.564,7.338,87.002,0.0,0.0,2.096,0.0,1638.400,940733.400,12500174.0,0.0,0.0,0.0,2677.600
4.167,8.125,86.250,0.0,0.0,1.458,0.0,2457.600,941365.200,12499925.0,0.0,0.0,0.0,2742.800
3.390,7.415,87.288,0.0,0.0,1.907,0.0,1638.400,938676.400,12499926.600,0.0,0.0,0.0,2735.0
3.975,7.950,86.611,0.0,0.0,1.464,0.0,1638.400,943597.600,12539020.800,0.0,0.0,0.0,2599.200
2.714,7.933,86.430,0.418,0.0,2.505,0.0,16384.0,941384.0,12500091.800,0.0,0.0,0.0,2734.800
3.138,7.950,87.238,0.0,0.0,1.674,0.0,819.200,938250.0,12499920.0,0.0,0.0,0.0,2688.0
3.313,9.110,85.921,0.0,0.0,1.656,0.0,1638.400,940754.0,12499897.200,0.0,0.0,0.0,2568.200
3.376,6.751,88.397,0.0,0.0,1.477,0.0,819.200,938064.400,12500012.600,0.0,0.0,0.0,2660.800
2.966,8.263,87.076,0.0,0.0,1.695,0.0,1638.400,941108.800,12499991.0,0.0,0.0,0.0,2626.400
3.178,7.203,87.924,0.0,0.0,1.695,0.0,1638.400,941879.0,12500150.200,0.0,0.0,0.0,2794.400
3.397,5.945,89.384,0.0,0.0,1.274,0.0,819.200,937244.800,12499699.800,0.0,0.0,0.0,2588.0
3.390,7.203,86.864,0.424,0.0,2.119,0.0,17203.200,947189.200,12578347.600,0.0,0.0,0.0,2672.600
3.404,7.234,87.872,0.0,0.0,1.489,0.0,1638.400,924110.800,12262955.800,0.0,0.0,0.0,2600.400
0.200,0.200,99.599,0.0,0.0,0.0,0.0,819.200,3167.0,1005.600,0.0,0.0,0.0,60.400
