"Dstat 0.7.2 CSV output"
"Author:","Dag Wieers <dag@wieers.com>",,,,"URL:","http://dag.wieers.com/home-made/dstat/"
"Host:","Server1",,,,"User:","mstevan"
"Cmdline:","dstat --output /home/mstevan/logs/experiment_3.3/dstat/vs_256-vcpr_16-wtpm_8-rep_2.csv 5 16",,,,"Date:","28 Oct 2019 12:48:00 UTC"

"total cpu usage",,,,,,"dsk/total",,"net/total",,"paging",,"system",
"usr","sys","idl","wai","hiq","siq","read","writ","recv","send","in","out","int","csw"
5.824,14.134,77.437,0.238,0.0,2.367,5814.076,894691.298,0.0,0.0,0.0,0.0,0.077,3077.431
0.402,0.602,98.996,0.0,0.0,0.0,0.0,1638.400,20928.400,60500.800,0.0,0.0,0.0,186.0
12.647,30.0,52.647,0.0,0.0,4.706,0.0,819.200,1307681.800,5518709.200,0.0,0.0,0.0,5050.0
14.368,32.471,48.276,0.0,0.0,4.885,0.0,1638.400,1313379.400,5532306.0,0.0,0.0,0.0,4779.400
11.446,36.747,44.880,0.0,0.0,6.928,0.0,2457.600,1367958.0,5774303.0,0.0,0.0,0.0,5238.800
10.787,34.402,50.146,0.292,0.0,4.373,0.0,23756.800,1318508.0,5549288.0,0.0,0.0,0.200,4924.200
12.647,35.294,47.059,0.0,0.0,5.0,0.0,1638.400,1322267.400,5568480.800,0.0,0.0,0.0,4828.800
11.145,33.434,49.398,0.0,0.0,6.024,0.0,2457.600,1322271.800,5581726.800,0.0,0.0,0.0,4876.0
11.988,36.550,47.076,0.0,0.0,4.386,0.0,1638.400,1327556.400,5592011.0,0.0,0.0,0.0,4825.400
12.536,32.362,50.437,0.0,0.0,4.665,0.0,1638.400,1307809.0,5508632.600,0.0,0.0,0.0,4547.200
13.988,30.952,51.190,0.0,0.0,3.869,0.0,819.200,1325000.200,5588147.200,0.0,0.0,0.0,4608.600
12.130,31.361,51.775,0.296,0.0,4.438,0.0,15564.800,1330042.800,5599571.200,0.0,0.0,0.0,4582.200
10.663,35.735,48.991,0.0,0.0,4.611,0.0,819.200,1322940.400,5584144.200,0.0,0.0,0.0,4618.800
13.314,34.320,47.041,0.0,0.0,5.325,0.0,1638.400,1321138.0,5564182.600,0.0,0.0,0.0,4661.0
13.081,34.302,48.256,0.0,0.0,4.360,0.0,2457.600,1325650.200,5582638.200,0.0,0.0,0.0,4664.0
11.642,34.030,50.746,0.0,0.0,3.582,0.0,1638.400,1315251.200,5551729.400,0.0,0.0,0.0,4681.400
0.802,0.0,99.198,0.0,0.0,0.0,0.0,1638.400,6254.0,1856.400,0.0,0.0,0.0,73.400
