"Dstat 0.7.2 CSV output"
"Author:","Dag Wieers <dag@wieers.com>",,,,"URL:","http://dag.wieers.com/home-made/dstat/"
"Host:","Server1",,,,"User:","mstevan"
"Cmdline:","dstat --output /home/mstevan/logs/experiment_3.3/dstat/vs_256-vcpr_8-wtpm_64-rep_1.csv 5 16",,,,"Date:","28 Oct 2019 12:40:54 UTC"

"total cpu usage",,,,,,"dsk/total",,"net/total",,"paging",,"system",
"usr","sys","idl","wai","hiq","siq","read","writ","recv","send","in","out","int","csw"
5.787,14.030,77.597,0.240,0.0,2.346,5864.946,902479.675,0.0,0.0,0.0,0.0,0.077,3078.240
0.402,0.805,98.793,0.0,0.0,0.0,0.0,1638.400,34686.800,98674.0,0.0,0.0,0.0,303.400
12.903,35.777,43.988,0.0,0.0,7.331,0.0,1638.400,1524085.600,6422761.200,0.0,0.0,0.0,3720.0
15.016,35.783,42.173,0.0,0.0,7.029,0.0,819.200,1541273.400,6501022.400,0.0,0.0,0.0,3607.800
14.596,38.199,38.199,0.0,0.0,9.006,0.0,2457.600,1579963.600,6658994.600,0.0,0.0,0.0,3376.0
16.308,36.615,38.462,0.308,0.0,8.308,0.0,26214.400,1566065.0,6597127.800,0.0,0.0,0.0,3346.800
12.422,39.130,40.994,0.0,0.0,7.453,0.0,819.200,1601875.800,6762593.800,0.0,0.0,0.0,3362.400
15.929,37.758,37.463,0.0,0.0,8.850,0.0,3276.800,1600963.0,6746383.200,0.0,0.0,0.0,3521.0
14.076,38.123,38.710,0.0,0.0,9.091,0.0,819.200,1613101.800,6809307.600,0.0,0.0,0.0,3382.800
16.119,39.104,36.418,0.0,0.0,8.358,0.0,1638.400,1594140.400,6718393.0,0.0,0.0,0.0,3342.400
16.717,37.386,40.122,0.0,0.0,5.775,0.0,1638.400,1583025.800,6671391.800,0.0,0.0,0.0,3402.200
12.500,40.244,39.024,0.0,0.0,8.232,0.0,24576.0,1593523.800,6727385.600,0.0,0.0,0.0,3388.400
14.953,35.826,40.187,0.0,0.0,9.034,0.0,1638.400,1555482.200,6549728.600,0.0,0.0,0.0,3322.200
14.414,39.339,38.739,0.0,0.0,7.508,0.0,819.200,1590008.600,6712152.600,0.0,0.0,0.0,3285.600
13.889,40.123,38.889,0.0,0.0,7.099,0.0,3276.800,1557410.600,6560299.0,0.0,0.0,0.0,3230.400
13.846,38.154,41.231,0.0,0.0,6.769,0.0,1638.400,1538443.800,6479869.600,0.0,0.0,0.0,3223.600
0.201,0.201,99.598,0.0,0.0,0.0,0.0,819.200,3167.0,1005.600,0.0,0.0,0.0,61.800
