"Dstat 0.7.2 CSV output"
"Author:","Dag Wieers <dag@wieers.com>",,,,"URL:","http://dag.wieers.com/home-made/dstat/"
"Host:","Server1",,,,"User:","mstevan"
"Cmdline:","dstat --output /home/mstevan/logs/experiment_3.3/dstat/vs_256-vcpr_8-wtpm_8-rep_2.csv 5 16",,,,"Date:","28 Oct 2019 12:30:57 UTC"

"total cpu usage",,,,,,"dsk/total",,"net/total",,"paging",,"system",
"usr","sys","idl","wai","hiq","siq","read","writ","recv","send","in","out","int","csw"
5.735,13.890,77.807,0.242,0.0,2.326,5937.680,913616.628,0.0,0.0,0.0,0.0,0.078,3075.533
0.605,0.605,98.185,0.605,0.0,0.0,0.0,26214.400,22447.0,66887.600,0.0,0.0,0.0,185.800
11.932,31.818,52.557,0.0,0.0,3.693,0.0,1638.400,1335589.200,5625555.800,0.0,0.0,0.0,4981.600
11.607,31.845,53.571,0.0,0.0,2.976,0.0,819.200,1318462.600,5562946.400,0.0,0.0,0.0,4688.600
12.059,30.294,52.353,0.0,0.0,5.294,0.0,3276.800,1321631.400,5566518.800,0.0,0.0,0.0,4576.400
13.120,33.528,49.271,0.0,0.0,4.082,0.0,1638.400,1338225.200,5636992.200,0.0,0.0,0.0,4784.200
12.575,32.335,50.599,0.0,0.0,4.491,0.0,819.200,1337921.200,5644734.800,0.0,0.0,0.0,4642.200
12.429,33.051,48.023,0.565,0.0,5.932,0.0,17203.200,1342341.0,5654997.200,0.0,0.0,0.0,4689.0
11.696,33.626,50.0,0.0,0.0,4.678,0.0,819.200,1323418.400,5584874.200,0.0,0.0,0.0,4516.800
13.864,31.858,50.442,0.0,0.0,3.835,0.0,1638.400,1307663.600,5507295.800,0.0,0.0,0.0,4366.400
12.356,33.046,50.862,0.0,0.0,3.736,0.0,1638.400,1325644.0,5582943.600,0.0,0.0,0.0,4568.400
13.143,34.0,48.571,0.0,0.0,4.286,0.0,819.200,1311892.600,5536151.0,0.0,0.0,0.0,4545.800
12.874,34.731,49.102,0.0,0.0,3.293,0.0,1638.400,1312502.400,5527960.400,0.0,0.0,0.0,4547.600
11.331,34.561,50.708,0.0,0.0,3.399,0.0,819.200,1315421.400,5545009.400,0.0,0.0,0.0,4488.400
13.703,34.111,47.813,0.0,0.0,4.373,0.0,15564.800,1305211.800,5500577.600,0.0,0.0,0.0,4640.0
11.953,33.819,49.563,0.0,0.0,4.665,0.0,3276.800,1294907.0,5449573.400,0.0,0.0,0.0,4518.200
0.200,0.400,99.400,0.0,0.0,0.0,0.0,819.200,3193.400,1005.600,0.0,0.0,0.0,65.800
