"Dstat 0.7.2 CSV output"
"Author:","Dag Wieers <dag@wieers.com>",,,,"URL:","http://dag.wieers.com/home-made/dstat/"
"Host:","Server1",,,,"User:","mstevan"
"Cmdline:","dstat --output /home/mstevan/logs/experiment_3.3/dstat/vs_256-vcpr_4-wtpm_32-rep_4.csv 5 16",,,,"Date:","28 Oct 2019 12:22:25 UTC"

"total cpu usage",,,,,,"dsk/total",,"net/total",,"paging",,"system",
"usr","sys","idl","wai","hiq","siq","read","writ","recv","send","in","out","int","csw"
5.707,13.815,77.924,0.243,0.0,2.311,6001.471,923386.946,0.0,0.0,0.0,0.0,0.079,3063.728
0.601,0.601,98.798,0.0,0.0,0.0,0.0,1638.400,23921.400,65290.200,0.0,0.0,0.0,249.800
9.409,26.882,58.602,0.0,0.0,5.108,0.0,1638.400,1048216.200,4410411.0,0.0,0.0,0.0,5595.0
10.435,27.536,59.420,0.0,0.0,2.609,0.0,819.200,1067511.200,4502444.400,0.0,0.0,0.0,5111.200
10.227,28.409,58.523,0.0,0.0,2.841,0.0,3276.800,1074690.0,4520319.400,0.0,0.0,0.0,5143.400
11.272,29.191,54.913,0.289,0.0,4.335,0.0,18841.600,1068410.0,4494202.0,0.0,0.0,0.0,5054.600
10.632,27.586,56.897,0.0,0.0,4.885,0.0,819.200,1074147.400,4530845.400,0.0,0.0,0.0,5211.800
13.260,29.006,53.315,0.0,0.0,4.420,0.0,3276.800,1091637.800,4593443.800,0.0,0.0,0.0,5209.0
9.064,28.947,58.480,0.0,0.0,3.509,0.0,819.200,1087520.600,4588462.0,0.0,0.0,0.0,5270.800
12.465,29.640,54.571,0.0,0.0,3.324,0.0,1638.400,1083889.400,4558954.800,0.0,0.0,0.0,5031.400
10.256,27.350,57.835,0.0,0.0,4.558,0.0,1638.400,1080513.800,4545362.600,0.0,0.0,0.0,5261.600
10.955,28.090,56.461,0.562,0.0,3.933,0.0,18022.400,1095694.600,4621598.0,0.0,0.0,0.0,5309.200
10.857,24.857,59.714,0.0,0.0,4.571,0.0,1638.400,1111957.600,4679579.600,0.0,0.0,0.0,5454.200
11.471,26.765,58.235,0.0,0.0,3.529,0.0,1638.400,1088704.200,4580914.400,0.0,0.0,0.0,5196.0
11.594,27.536,56.812,0.0,0.0,4.058,0.0,2457.600,1066498.800,4499309.0,0.0,0.0,0.0,5212.600
10.864,25.905,59.610,0.0,0.0,3.621,0.0,1638.400,1055515.800,4438994.800,0.0,0.0,0.0,4925.0
0.201,0.0,99.799,0.0,0.0,0.0,0.0,819.200,3167.0,1005.600,0.0,0.0,0.0,64.200
