"Dstat 0.7.2 CSV output"
"Author:","Dag Wieers <dag@wieers.com>",,,,"URL:","http://dag.wieers.com/home-made/dstat/"
"Host:","Server1",,,,"User:","mstevan"
"Cmdline:","dstat --output /home/mstevan/logs/experiment_3.3/dstat/vs_256-vcpr_8-wtpm_32-rep_2.csv 5 16",,,,"Date:","28 Oct 2019 12:36:38 UTC"

"total cpu usage",,,,,,"dsk/total",,"net/total",,"paging",,"system",
"usr","sys","idl","wai","hiq","siq","read","writ","recv","send","in","out","int","csw"
5.761,13.964,77.700,0.240,0.0,2.334,5895.900,907220.442,0.0,0.0,0.0,0.0,0.078,3079.273
0.601,0.200,99.198,0.0,0.0,0.0,0.0,4096.0,18850.800,45657.400,0.0,0.0,0.0,187.600
15.291,36.391,42.508,0.0,0.0,5.810,0.0,1638.400,1568424.800,6607205.0,0.0,0.0,0.0,3823.200
14.759,37.349,42.771,0.0,0.0,5.120,0.0,819.200,1579159.200,6663991.800,0.0,0.0,0.0,3538.400
14.370,38.710,39.003,0.0,0.0,7.918,0.0,2457.600,1618960.400,6824761.400,0.0,0.0,0.0,3514.600
13.253,37.952,41.867,0.0,0.0,6.928,0.0,1638.400,1628101.0,6875224.0,0.0,0.0,0.0,3546.400
16.867,38.253,39.157,0.0,0.0,5.723,0.0,1638.400,1597132.800,6729119.600,0.0,0.0,0.0,3426.400
15.698,38.663,38.663,0.0,0.0,6.977,0.0,19660.800,1609737.400,6784930.200,0.0,0.0,0.0,3503.800
13.456,39.755,39.755,0.0,0.0,7.034,0.0,819.200,1612018.800,6806963.0,0.0,0.0,0.0,3352.200
16.667,38.580,39.198,0.0,0.0,5.556,0.0,1638.400,1609644.400,6787075.600,0.0,0.0,0.0,3469.0
16.716,38.507,39.403,0.0,0.0,5.373,0.0,819.200,1607370.600,6778464.0,0.0,0.0,0.0,3500.200
15.616,37.838,39.640,0.0,0.0,6.907,0.0,1638.400,1598569.0,6743494.400,0.0,0.0,0.0,3473.800
12.766,38.298,41.033,0.0,0.0,7.903,0.0,1638.400,1564391.400,6589640.200,0.0,0.0,0.0,3457.0
12.883,41.411,38.650,0.307,0.0,6.748,0.0,20480.0,1585349.200,6691668.0,0.0,0.0,0.0,3454.600
13.761,40.367,39.755,0.0,0.0,6.116,0.0,3276.800,1587995.600,6692943.400,0.0,0.0,0.0,3357.800
13.772,37.425,40.419,0.0,0.0,8.383,0.0,1638.400,1556165.800,6557135.0,0.0,0.0,0.0,3315.200
0.200,0.200,99.599,0.0,0.0,0.0,0.0,819.200,3167.0,1005.600,0.0,0.0,0.0,68.200
