"Dstat 0.7.2 CSV output"
"Author:","Dag Wieers <dag@wieers.com>",,,,"URL:","http://dag.wieers.com/home-made/dstat/"
"Host:","Server1",,,,"User:","mstevan"
"Cmdline:","dstat --output /home/mstevan/logs/experiment_3.3/dstat/vs_256-vcpr_32-wtpm_8-rep_2.csv 5 16",,,,"Date:","28 Oct 2019 13:05:04 UTC"

"total cpu usage",,,,,,"dsk/total",,"net/total",,"paging",,"system",
"usr","sys","idl","wai","hiq","siq","read","writ","recv","send","in","out","int","csw"
5.930,14.437,76.968,0.235,0.0,2.431,5695.514,876534.256,0.0,0.0,0.0,0.0,0.075,3061.718
0.403,0.403,98.992,0.202,0.0,0.0,0.0,18022.400,23873.200,85126.400,0.0,0.0,0.0,207.400
15.318,30.925,49.133,0.0,0.0,4.624,0.0,1638.400,1335074.600,5622989.800,0.0,0.0,0.0,4952.600
12.500,33.721,48.837,0.0,0.0,4.942,0.0,2457.600,1353567.800,5700417.800,0.0,0.0,0.0,4924.600
11.953,33.819,48.688,0.0,0.0,5.539,0.0,1638.400,1344712.800,5677297.600,0.0,0.0,0.0,4883.800
11.765,34.706,49.706,0.0,0.0,3.824,0.0,1638.400,1362027.400,5737645.800,0.0,0.0,0.0,4896.800
14.627,30.448,49.552,0.0,0.0,5.373,0.0,1638.400,1342481.800,5654144.600,0.0,0.0,0.0,4709.600
12.130,33.432,49.704,0.0,0.0,4.734,0.0,2457.600,1355794.800,5720208.0,0.0,0.0,0.0,4852.0
10.914,30.383,53.097,0.295,0.0,5.310,0.0,22937.600,1339687.800,5636342.600,0.0,0.0,0.0,4719.0
11.272,36.416,47.977,0.0,0.0,4.335,0.0,819.200,1360803.0,5734602.0,0.0,0.0,0.0,4778.200
12.754,35.072,46.957,0.0,0.0,5.217,0.0,1638.400,1342997.400,5665659.200,0.0,0.0,0.0,4782.0
14.907,31.677,49.689,0.0,0.0,3.727,0.0,1638.400,1364748.800,5747846.600,0.0,0.0,0.0,4846.800
11.662,34.985,49.854,0.0,0.0,3.499,0.0,819.200,1359148.200,5738398.800,0.0,0.0,0.0,4825.800
12.463,35.015,48.665,0.0,0.0,3.858,0.0,2457.600,1342145.200,5653524.0,0.0,0.0,0.0,4829.600
11.696,30.702,52.924,0.292,0.0,4.386,0.0,16384.0,1362890.0,5742194.200,0.0,0.0,0.0,4976.200
12.573,36.257,46.199,0.0,0.0,4.971,0.0,819.200,1332680.800,5625738.200,0.0,0.0,0.0,4859.200
1.224,1.633,96.735,0.0,0.0,0.408,0.0,1638.400,164379.200,670025.800,0.0,0.0,0.0,1355.400
