"Dstat 0.7.2 CSV output"
"Author:","Dag Wieers <dag@wieers.com>",,,,"URL:","http://dag.wieers.com/home-made/dstat/"
"Host:","Server1",,,,"User:","mstevan"
"Cmdline:","dstat --output /home/mstevan/logs/experiment_3.3/dstat/vs_256-vcpr_8-wtpm_32-rep_3.csv 5 16",,,,"Date:","28 Oct 2019 12:38:03 UTC"

"total cpu usage",,,,,,"dsk/total",,"net/total",,"paging",,"system",
"usr","sys","idl","wai","hiq","siq","read","writ","recv","send","in","out","int","csw"
5.770,13.987,77.666,0.240,0.0,2.338,5885.544,905633.679,0.0,0.0,0.0,0.0,0.078,3078.916
0.601,0.601,98.597,0.0,0.0,0.200,0.0,1638.400,21325.600,53323.800,0.0,0.0,0.0,192.200
15.123,36.728,42.593,0.0,0.0,5.556,0.0,18022.400,1567338.400,6617647.0,0.0,0.0,0.0,3845.600
15.741,36.420,40.741,0.0,0.0,7.099,0.0,1638.400,1573918.400,6632466.600,0.0,0.0,0.0,3632.400
13.855,38.253,40.361,0.0,0.0,7.530,0.0,2457.600,1614547.600,6818413.600,0.0,0.0,0.0,3498.800
15.152,37.576,40.303,0.0,0.0,6.970,0.0,1638.400,1587714.0,6688464.400,0.0,0.0,0.0,3463.200
13.836,37.107,41.509,0.0,0.0,7.547,0.0,1638.400,1592891.600,6713534.200,0.0,0.0,0.0,3349.200
17.445,38.318,38.318,0.0,0.0,5.919,0.0,2457.600,1594216.800,6731400.400,0.0,0.0,0.0,3429.800
14.417,39.877,38.650,0.307,0.0,6.748,0.0,18841.600,1584075.400,6676651.400,0.0,0.0,0.0,3394.800
15.217,36.646,40.683,0.0,0.0,7.453,0.0,1638.400,1603122.400,6757216.0,0.0,0.0,0.0,3495.600
16.216,38.138,39.039,0.0,0.0,6.607,0.0,819.200,1600904.400,6759505.200,0.0,0.0,0.0,3350.600
17.231,36.308,38.462,0.0,0.0,8.0,0.0,1638.400,1611189.800,6790531.400,0.0,0.0,0.0,3503.400
15.988,42.733,34.884,0.0,0.0,6.395,0.0,819.200,1620511.600,6837840.0,0.0,0.0,0.0,3396.600
15.497,40.643,35.673,0.0,0.0,8.187,0.0,1638.400,1643173.0,6923655.0,0.0,0.0,0.0,3626.0
16.216,37.237,38.739,0.0,0.0,7.808,0.0,17203.200,1624089.200,6849493.200,0.0,0.0,0.0,3462.200
13.333,39.697,41.515,0.0,0.0,5.455,0.0,819.200,1612206.400,6804913.200,0.0,0.0,0.0,3537.600
0.601,0.200,98.998,0.0,0.0,0.200,0.0,1638.400,6254.0,1856.400,0.0,0.0,0.0,69.400
