"Dstat 0.7.2 CSV output"
"Author:","Dag Wieers <dag@wieers.com>",,,,"URL:","http://dag.wieers.com/home-made/dstat/"
"Host:","Server1",,,,"User:","mstevan"
"Cmdline:","dstat --output /home/mstevan/logs/experiment_3.3/dstat/vs_256-vcpr_4-wtpm_8-rep_3.csv 5 16",,,,"Date:","28 Oct 2019 12:15:19 UTC"

"total cpu usage",,,,,,"dsk/total",,"net/total",,"paging",,"system",
"usr","sys","idl","wai","hiq","siq","read","writ","recv","send","in","out","int","csw"
5.681,13.753,78.016,0.244,0.0,2.306,6055.685,931687.005,0.0,0.0,0.0,0.0,0.080,3048.989
0.601,0.401,98.798,0.0,0.0,0.200,0.0,1638.400,20153.800,57375.200,0.0,0.0,0.0,224.200
8.356,28.841,60.647,0.0,0.0,2.156,0.0,819.200,1102058.600,4648371.400,0.0,0.0,0.0,6722.200
11.239,29.107,55.908,0.0,0.0,3.746,0.0,2457.600,1079749.200,4544696.800,0.0,0.0,0.0,6299.600
14.583,29.762,52.083,0.595,0.0,2.976,0.0,18022.400,1081206.0,4559208.800,0.0,0.0,0.0,6183.400
12.174,27.536,55.942,0.0,0.0,4.348,0.0,2457.600,1071537.200,4508357.600,0.0,0.0,0.0,6169.800
12.245,30.904,53.353,0.0,0.0,3.499,0.0,1638.400,1087104.800,4572779.400,0.0,0.0,0.0,6355.0
9.659,28.977,58.239,0.0,0.0,3.125,0.0,2457.600,1108826.800,4678383.200,0.0,0.0,0.0,6361.600
11.816,30.548,54.179,0.0,0.0,3.458,0.0,1638.400,1108260.200,4663884.200,0.0,0.0,0.0,6478.200
13.636,29.830,53.409,0.0,0.0,3.125,0.0,1638.400,1089153.800,4580570.800,0.0,0.0,0.0,6390.400
11.615,30.028,55.241,0.283,0.0,2.833,0.0,14745.600,1091152.600,4601636.400,0.0,0.0,0.0,6177.0
13.218,28.448,54.598,0.0,0.0,3.736,0.0,4915.200,1099268.200,4626224.200,0.0,0.0,0.0,6276.200
11.243,29.586,55.325,0.0,0.0,3.846,0.0,819.200,1068833.0,4509122.200,0.0,0.0,0.0,6405.200
10.234,30.702,54.094,0.0,0.0,4.971,0.0,2457.600,1089788.600,4586417.600,0.0,0.0,0.0,6484.800
13.506,29.598,53.448,0.0,0.0,3.448,0.0,2457.600,1090023.400,4586113.0,0.0,0.0,0.0,6380.600
12.428,30.058,53.757,0.0,0.0,3.757,0.0,819.200,1067201.800,4502657.600,0.0,0.0,0.0,6209.0
0.600,0.200,98.800,0.200,0.0,0.200,0.0,15564.800,6254.0,1869.600,0.0,0.0,0.0,73.0
