"Dstat 0.7.2 CSV output"
"Author:","Dag Wieers <dag@wieers.com>",,,,"URL:","http://dag.wieers.com/home-made/dstat/"
"Host:","Server1",,,,"User:","mstevan"
"Cmdline:","dstat --output /home/mstevan/logs/experiment_3.3/dstat/vs_256-vcpr_16-wtpm_8-rep_3.csv 5 16",,,,"Date:","28 Oct 2019 12:49:26 UTC"

"total cpu usage",,,,,,"dsk/total",,"net/total",,"paging",,"system",
"usr","sys","idl","wai","hiq","siq","read","writ","recv","send","in","out","int","csw"
5.830,14.151,77.412,0.238,0.0,2.369,5804.006,893149.567,0.0,0.0,0.0,0.0,0.077,3078.925
0.606,0.606,98.788,0.0,0.0,0.0,0.0,819.200,32609.400,122104.600,0.0,0.0,0.0,229.800
12.166,33.234,50.742,0.0,0.0,3.858,0.0,1638.400,1343087.600,5656468.0,0.0,0.0,0.0,4612.800
12.874,31.437,51.198,0.0,0.0,4.491,0.0,819.200,1333878.400,5631232.600,0.0,0.0,0.0,4523.400
11.607,35.417,49.702,0.0,0.0,3.274,0.0,2457.600,1341743.400,5650006.200,0.0,0.0,0.0,4478.600
13.743,32.164,50.292,0.0,0.0,3.801,0.0,2457.600,1310408.0,5514278.0,0.0,0.0,0.0,4376.0
13.554,32.530,49.699,0.0,0.0,4.217,0.0,819.200,1327777.400,5604264.800,0.0,0.0,0.0,4534.400
13.018,34.024,47.633,0.0,0.0,5.325,0.0,20480.0,1327059.600,5590168.200,0.0,0.0,0.0,4450.400
14.535,30.523,50.0,0.0,0.0,4.942,0.0,1638.400,1333115.400,5615297.0,0.0,0.0,0.0,4488.600
13.690,32.143,49.702,0.0,0.0,4.464,0.0,819.200,1329438.800,5612322.200,0.0,0.0,0.0,4294.0
12.069,33.908,50.0,0.0,0.0,4.023,0.0,1638.400,1337901.800,5629975.200,0.0,0.0,0.0,4306.0
11.276,34.421,50.742,0.0,0.0,3.561,0.0,819.200,1319754.800,5570102.400,0.0,0.0,0.0,4316.800
12.575,33.234,51.198,0.0,0.0,2.994,0.0,1638.400,1348034.600,5678125.400,0.0,0.0,0.0,4487.200
13.473,32.036,49.401,0.599,0.0,4.491,0.0,18841.600,1341389.800,5649908.400,0.0,0.0,0.0,4510.200
13.353,32.641,51.632,0.0,0.0,2.374,0.0,2457.600,1333225.400,5627219.600,0.0,0.0,0.0,4428.400
12.941,32.647,50.588,0.0,0.0,3.824,0.0,1638.400,1285883.600,5415275.0,0.0,0.0,0.0,4324.200
0.602,0.201,99.197,0.0,0.0,0.0,0.0,1638.400,6267.200,1869.600,0.0,0.0,0.0,73.400
