"Dstat 0.7.2 CSV output"
"Author:","Dag Wieers <dag@wieers.com>",,,,"URL:","http://dag.wieers.com/home-made/dstat/"
"Host:","Server1",,,,"User:","mstevan"
"Cmdline:","dstat --output /home/mstevan/logs/experiment_3.3/dstat/vs_512-vcpr_8-wtpm_32-rep_1.csv 5 16",,,,"Date:","28 Oct 2019 13:43:31 UTC"

"total cpu usage",,,,,,"dsk/total",,"net/total",,"paging",,"system",
"usr","sys","idl","wai","hiq","siq","read","writ","recv","send","in","out","int","csw"
6.097,14.912,76.233,0.229,0.0,2.529,5445.220,838213.414,0.0,0.0,0.0,0.0,0.072,3083.704
0.402,0.402,99.195,0.0,0.0,0.0,0.0,1638.400,27835.200,136279.400,0.0,0.0,0.0,240.800
13.731,34.328,43.284,0.0,0.0,8.657,0.0,1638.400,1573111.400,11410800.600,0.0,0.0,0.0,3912.400
15.576,35.514,43.302,0.0,0.0,5.607,0.0,819.200,1621846.400,11783949.200,0.0,0.0,0.0,3951.200
13.190,40.184,40.184,0.0,0.0,6.442,0.0,3276.800,1621642.600,11766512.800,0.0,0.0,0.0,3783.0
15.964,37.651,40.060,0.0,0.0,6.325,0.0,18841.600,1614997.600,11711502.400,0.0,0.0,0.0,3717.200
13.213,37.838,41.742,0.0,0.0,7.207,0.0,4096.0,1630063.400,11845120.600,0.0,0.0,0.0,3730.200
14.861,35.294,43.344,0.0,0.0,6.502,0.0,3276.800,1613581.0,11708526.600,0.0,0.0,0.0,3865.600
13.274,37.168,43.363,0.0,0.0,6.195,0.0,819.200,1626869.800,11822027.600,0.0,0.0,0.0,3758.0
13.166,36.364,42.947,0.0,0.0,7.524,0.0,1638.400,1630641.800,11830361.200,0.0,0.0,0.0,3783.200
14.688,36.562,41.562,0.0,0.0,7.188,0.0,1638.400,1633812.200,11857396.400,0.0,0.0,0.0,3669.400
17.021,37.082,39.818,0.0,0.0,6.079,0.0,819.200,1637195.600,11894063.600,0.0,0.0,0.0,3810.600
15.805,37.994,39.514,0.304,0.0,6.383,0.0,15564.800,1626303.800,11791807.400,0.0,0.0,0.0,3742.200
17.683,37.195,39.329,0.0,0.0,5.793,0.0,1638.400,1610153.800,11676478.200,0.0,0.0,0.0,3693.400
15.265,36.137,42.056,0.0,0.0,6.542,0.0,2457.600,1635581.600,11887774.0,0.0,0.0,0.0,3759.800
13.110,38.415,42.073,0.0,0.0,6.402,0.0,1638.400,1606682.600,11656935.400,0.0,0.0,0.0,3791.400
0.401,0.0,99.399,0.0,0.0,0.200,0.0,819.200,3167.0,1005.600,0.0,0.0,0.0,67.200
