"Dstat 0.7.2 CSV output"
"Author:","Dag Wieers <dag@wieers.com>",,,,"URL:","http://dag.wieers.com/home-made/dstat/"
"Host:","Server1",,,,"User:","mstevan"
"Cmdline:","dstat --output /home/mstevan/logs/experiment_3.3/dstat/vs_512-vcpr_16-wtpm_8-rep_3.csv 5 16",,,,"Date:","28 Oct 2019 13:57:44 UTC"

"total cpu usage",,,,,,"dsk/total",,"net/total",,"paging",,"system",
"usr","sys","idl","wai","hiq","siq","read","writ","recv","send","in","out","int","csw"
6.162,15.079,75.972,0.226,0.0,2.562,5358.164,824881.288,0.0,0.0,0.0,0.0,0.071,3087.336
0.802,0.401,98.397,0.401,0.0,0.0,0.0,18841.600,24101.800,125874.400,0.0,0.0,0.0,191.200
10.141,27.042,58.873,0.0,0.0,3.944,0.0,819.200,1390688.400,10103641.800,0.0,0.0,0.0,5324.200
9.632,28.329,57.507,0.0,0.0,4.533,0.0,2457.600,1397113.400,10132873.800,0.0,0.0,0.0,5126.600
9.669,28.177,58.840,0.0,0.0,3.315,0.0,1638.400,1395333.800,10105385.400,0.0,0.0,0.0,5053.800
12.394,25.634,58.310,0.0,0.0,3.662,0.0,1638.400,1412046.800,10259086.0,0.0,0.0,0.0,5206.0
12.188,28.255,55.956,0.0,0.0,3.601,0.0,1638.400,1377571.600,9987413.0,0.0,0.0,0.0,4957.400
9.831,32.865,53.652,0.281,0.0,3.371,0.0,16384.0,1404703.400,10208283.600,0.0,0.0,0.0,5255.0
11.884,26.377,58.841,0.0,0.0,2.899,0.0,4915.200,1393194.200,10102515.800,0.0,0.0,0.0,4932.600
13.333,28.116,55.072,0.0,0.0,3.478,0.0,1638.400,1380008.0,10005585.800,0.0,0.0,0.0,4963.400
12.605,30.252,54.342,0.0,0.0,2.801,0.0,819.200,1401361.800,10171947.0,0.0,0.0,0.0,5114.800
13.081,30.523,52.326,0.0,0.0,4.070,0.0,1638.400,1381464.200,10016398.400,0.0,0.0,0.0,4972.400
11.628,27.907,55.814,0.0,0.0,4.651,0.0,819.200,1404004.200,10181657.600,0.0,0.0,0.0,5189.400
12.938,25.337,58.221,0.270,0.0,3.235,0.0,15564.800,1379601.400,10022325.600,0.0,0.0,0.0,4894.600
12.295,27.322,56.557,0.0,0.0,3.825,0.0,3276.800,1404344.600,10184308.400,0.0,0.0,0.0,4884.200
10.933,30.400,56.0,0.0,0.0,2.667,0.0,819.200,1373129.800,9973929.800,0.0,0.0,0.0,4813.800
0.600,0.800,98.600,0.0,0.0,0.0,0.0,1638.400,6705.0,2340.400,0.0,0.0,0.0,83.200
