"Dstat 0.7.2 CSV output"
"Author:","Dag Wieers <dag@wieers.com>",,,,"URL:","http://dag.wieers.com/home-made/dstat/"
"Host:","Server1",,,,"User:","mstevan"
"Cmdline:","dstat --output /home/mstevan/logs/experiment_3.3/dstat/vs_512-vcpr_4-wtpm_8-rep_4.csv 5 16",,,,"Date:","28 Oct 2019 13:25:02 UTC"

"total cpu usage",,,,,,"dsk/total",,"net/total",,"paging",,"system",
"usr","sys","idl","wai","hiq","siq","read","writ","recv","send","in","out","int","csw"
6.047,14.780,76.429,0.231,0.0,2.513,5562.710,856202.284,0.0,0.0,0.0,0.0,0.073,3052.439
0.401,0.601,98.597,0.401,0.0,0.0,0.0,18022.400,23952.600,147981.600,0.0,0.0,0.0,274.800
11.111,27.920,56.980,0.0,0.0,3.989,0.0,8192.0,1095386.600,7928528.400,0.0,0.0,0.0,6867.600
11.017,28.814,56.780,0.0,0.0,3.390,0.0,819.200,1119094.200,8127851.0,0.0,0.0,0.0,6683.200
10.602,30.659,55.014,0.0,0.0,3.725,0.0,2457.600,1127327.200,8165173.0,0.0,0.0,0.0,6760.0
13.372,26.744,56.686,0.0,0.0,3.198,0.0,2457.600,1150898.800,8334991.0,0.0,0.0,0.0,6931.0
10.888,27.507,58.166,0.0,0.0,3.438,0.0,819.200,1139345.800,8274600.400,0.0,0.0,0.0,6749.400
11.079,30.612,55.102,0.0,0.0,3.207,0.0,3276.800,1118981.600,8105119.0,0.0,0.0,0.0,6688.200
12.465,29.178,54.108,0.283,0.0,3.966,0.0,15564.800,1120312.200,8113854.600,0.0,0.0,0.0,6592.800
8.857,30.0,57.429,0.0,0.0,3.714,0.0,819.200,1134461.400,8233639.200,0.0,0.0,0.0,6792.0
11.573,28.783,55.490,0.0,0.0,4.154,0.0,1638.400,1115793.0,8079448.600,0.0,0.0,0.0,6428.400
10.180,29.641,57.186,0.0,0.0,2.994,0.0,819.200,1116370.600,8105454.600,0.0,0.0,0.0,6527.800
11.561,29.769,55.202,0.0,0.0,3.468,0.0,1638.400,1117938.200,8097718.400,0.0,0.0,0.0,6639.400
12.0,30.0,54.857,0.0,0.0,3.143,0.0,1638.400,1109317.200,8034604.800,0.0,0.0,0.0,6579.400
11.594,28.986,56.522,0.290,0.0,2.609,0.0,19660.800,1127536.200,8190291.800,0.0,0.0,0.0,6555.800
11.272,28.035,56.647,0.0,0.0,4.046,0.0,1638.400,1096276.0,7938402.800,0.0,0.0,0.0,6440.600
0.402,0.0,99.598,0.0,0.0,0.0,0.0,1638.400,6254.0,1869.600,0.0,0.0,0.0,76.0
