"Dstat 0.7.2 CSV output"
"Author:","Dag Wieers <dag@wieers.com>",,,,"URL:","http://dag.wieers.com/home-made/dstat/"
"Host:","Server1",,,,"User:","mstevan"
"Cmdline:","dstat --output /home/mstevan/logs/experiment_3.3/dstat/vs_512-vcpr_8-wtpm_8-rep_1.csv 5 16",,,,"Date:","28 Oct 2019 13:37:50 UTC"

"total cpu usage",,,,,,"dsk/total",,"net/total",,"paging",,"system",
"usr","sys","idl","wai","hiq","siq","read","writ","recv","send","in","out","int","csw"
6.077,14.859,76.310,0.229,0.0,2.525,5480.846,843668.183,0.0,0.0,0.0,0.0,0.072,3076.911
0.805,0.0,99.195,0.0,0.0,0.0,0.0,1638.400,21126.600,103998.800,0.0,0.0,0.0,190.800
10.951,32.853,50.432,0.0,0.0,5.764,0.0,2457.600,1359837.200,9857981.600,0.0,0.0,0.0,5207.600
12.121,31.212,53.333,0.0,0.0,3.333,0.0,819.200,1388506.200,10084060.800,0.0,0.0,0.0,5126.200
12.209,32.558,52.326,0.0,0.0,2.907,0.0,1638.400,1413418.0,10247723.0,0.0,0.0,0.0,5030.800
13.390,29.345,52.422,0.0,0.0,4.843,0.0,2457.600,1394264.0,10109994.600,0.0,0.0,0.0,4978.0
13.433,32.537,49.552,0.0,0.0,4.478,0.0,819.200,1395597.0,10135537.400,0.0,0.0,0.0,4965.400
13.390,30.199,47.578,2.279,0.0,6.553,0.0,23756.800,1407820.600,10207753.0,0.0,0.0,0.0,5137.200
14.201,33.136,48.521,0.0,0.0,4.142,0.0,819.200,1389957.200,10098371.600,0.0,0.0,0.0,5053.0
13.196,34.897,47.214,0.0,0.0,4.692,0.0,1638.400,1376081.200,9978066.600,0.0,0.0,0.0,4940.600
13.772,31.737,50.299,0.0,0.0,4.192,0.0,1638.400,1358603.400,9848664.800,0.0,0.0,0.0,4812.0
11.404,33.918,51.170,0.0,0.0,3.509,0.0,819.200,1364167.0,9912413.0,0.0,0.0,0.0,4787.800
11.648,28.693,55.682,0.0,0.0,3.977,0.0,1638.400,1420719.200,10303301.0,0.0,0.0,0.0,4856.800
13.314,28.895,52.975,0.0,0.0,4.816,0.0,14745.600,1423501.400,10316293.400,0.0,0.0,0.0,4959.600
11.299,33.898,49.718,0.0,0.0,5.085,0.0,3276.800,1380084.600,10017081.200,0.0,0.0,0.0,4882.600
12.605,32.213,51.261,0.0,0.0,3.922,0.0,1638.400,1347938.400,9768913.200,0.0,0.0,0.0,4697.400
0.400,0.200,99.400,0.0,0.0,0.0,0.0,819.200,3251.400,1148.0,0.0,0.0,0.0,64.400
