"Dstat 0.7.2 CSV output"
"Author:","Dag Wieers <dag@wieers.com>",,,,"URL:","http://dag.wieers.com/home-made/dstat/"
"Host:","Server1",,,,"User:","mstevan"
"Cmdline:","dstat --output /home/mstevan/logs/experiment_3.3/dstat/vs_512-vcpr_8-wtpm_32-rep_4.csv 5 16",,,,"Date:","28 Oct 2019 13:47:47 UTC"

"total cpu usage",,,,,,"dsk/total",,"net/total",,"paging",,"system",
"usr","sys","idl","wai","hiq","siq","read","writ","recv","send","in","out","int","csw"
6.118,14.965,76.150,0.228,0.0,2.539,5418.809,834169.110,0.0,0.0,0.0,0.0,0.072,3084.062
0.403,0.202,99.194,0.0,0.0,0.202,0.0,819.200,31048.800,185492.0,0.0,0.0,0.0,234.600
12.195,38.110,43.598,0.0,0.0,6.098,0.0,1638.400,1576475.400,11431894.400,0.0,0.0,0.0,3912.400
17.365,35.629,39.820,0.299,0.0,6.886,0.0,18841.600,1599977.600,11600196.200,0.0,0.0,0.0,3857.400
13.694,35.032,46.497,0.0,0.0,4.777,0.0,2457.600,1623080.0,11799747.0,0.0,0.0,0.0,3691.600
15.361,36.991,41.066,0.0,0.0,6.583,0.0,1638.400,1615537.400,11714732.600,0.0,0.0,0.0,3700.800
15.476,35.714,41.964,0.0,0.0,6.845,0.0,819.200,1657681.200,12051323.400,0.0,0.0,0.0,3852.400
13.249,36.278,42.902,0.0,0.0,7.571,0.0,3276.800,1624591.800,11782574.800,0.0,0.0,0.0,3842.0
15.698,36.919,38.663,0.0,0.0,8.721,0.0,1638.400,1630007.400,11825962.0,0.0,0.0,0.0,3733.0
15.710,38.973,39.879,0.0,0.0,5.438,0.0,819.200,1623515.200,11800875.400,0.0,0.0,0.0,3755.800
14.679,36.391,40.673,0.306,0.0,7.951,0.0,18841.600,1619249.0,11747820.400,0.0,0.0,0.0,3866.400
14.894,35.258,42.857,0.0,0.0,6.991,0.0,1638.400,1606389.200,11650634.800,0.0,0.0,0.0,3814.800
13.678,38.906,41.337,0.0,0.0,6.079,0.0,819.200,1607772.600,11681187.800,0.0,0.0,0.0,3835.200
13.814,36.336,42.342,0.0,0.0,7.508,0.0,1638.400,1612561.0,11694026.0,0.0,0.0,0.0,3625.600
14.067,37.615,39.755,0.0,0.0,8.563,0.0,2457.600,1626273.800,11817924.400,0.0,0.0,0.0,3690.200
13.690,38.393,41.667,0.0,0.0,6.250,0.0,1638.400,1566537.200,11361742.400,0.0,0.0,0.0,3568.200
0.600,0.200,98.600,0.600,0.0,0.0,0.0,15564.800,6254.0,1869.600,0.0,0.0,0.0,76.200
