"Dstat 0.7.2 CSV output"
"Author:","Dag Wieers <dag@wieers.com>",,,,"URL:","http://dag.wieers.com/home-made/dstat/"
"Host:","Server1",,,,"User:","mstevan"
"Cmdline:","dstat --output /home/mstevan/logs/experiment_3.3/dstat/vs_512-vcpr_4-wtpm_32-rep_2.csv 5 16",,,,"Date:","28 Oct 2019 13:27:53 UTC"

"total cpu usage",,,,,,"dsk/total",,"net/total",,"paging",,"system",
"usr","sys","idl","wai","hiq","siq","read","writ","recv","send","in","out","int","csw"
6.054,14.800,76.401,0.231,0.0,2.514,5544.310,853385.465,0.0,0.0,0.0,0.0,0.073,3058.985
0.802,0.601,98.397,0.0,0.0,0.200,0.0,1638.400,15236.800,46551.600,0.0,0.0,0.0,172.0
8.995,24.868,62.169,0.0,0.0,3.968,0.0,819.200,1098765.800,7974964.400,0.0,0.0,0.0,6202.600
10.057,26.149,58.046,0.0,0.0,5.747,0.0,1638.400,1116023.800,8083598.0,0.0,0.0,0.0,5895.200
11.048,23.513,60.907,0.567,0.0,3.966,0.0,32768.0,1106066.800,8007603.600,0.0,0.0,0.0,5655.800
9.290,28.142,59.836,0.0,0.0,2.732,0.0,819.200,1136757.400,8256269.200,0.0,0.0,0.0,5666.200
10.765,27.195,58.924,0.0,0.0,3.116,0.0,1638.400,1099192.200,7959775.800,0.0,0.0,0.0,5698.200
10.857,28.286,56.857,0.0,0.0,4.0,0.0,3276.800,1092439.200,7912689.600,0.0,0.0,0.0,5515.400
11.017,28.814,56.780,0.0,0.0,3.390,0.0,819.200,1113415.800,8088080.800,0.0,0.0,0.0,5582.0
11.111,26.496,58.689,0.0,0.0,3.704,0.0,1638.400,1116525.800,8078599.400,0.0,0.0,0.0,5497.600
10.364,24.650,62.185,0.280,0.0,2.521,0.0,14745.600,1129208.600,8198192.800,0.0,0.0,0.0,5578.800
10.169,25.989,60.452,0.0,0.0,3.390,0.0,1638.400,1118497.800,8102059.0,0.0,0.0,0.0,5517.200
11.268,24.789,60.0,0.0,0.0,3.944,0.0,1638.400,1136120.600,8230017.400,0.0,0.0,0.0,5455.400
11.048,28.895,55.241,0.0,0.0,4.816,0.0,819.200,1078106.200,7826140.800,0.0,0.0,0.0,5330.0
9.456,26.648,59.026,0.0,0.0,4.871,0.0,2457.600,1107079.0,8018015.600,0.0,0.0,0.0,5566.800
11.517,24.157,61.517,0.0,0.0,2.809,0.0,2457.600,1107050.600,8015401.400,0.0,0.0,0.0,5769.600
0.400,0.200,99.0,0.400,0.0,0.0,0.0,14745.600,3219.800,1005.600,0.0,0.0,0.0,73.800
