"Dstat 0.7.2 CSV output"
"Author:","Dag Wieers <dag@wieers.com>",,,,"URL:","http://dag.wieers.com/home-made/dstat/"
"Host:","Server1",,,,"User:","mstevan"
"Cmdline:","dstat --output /home/mstevan/logs/experiment_3.3/dstat/vs_512-vcpr_32-wtpm_32-rep_3.csv 5 16",,,,"Date:","28 Oct 2019 14:20:29 UTC"

"total cpu usage",,,,,,"dsk/total",,"net/total",,"paging",,"system",
"usr","sys","idl","wai","hiq","siq","read","writ","recv","send","in","out","int","csw"
6.232,15.275,75.670,0.222,0.0,2.601,5224.525,804420.623,0.0,0.0,0.0,0.0,0.069,3072.923
0.403,0.605,98.790,0.0,0.0,0.202,0.0,819.200,33786.400,198976.0,0.0,0.0,0.0,200.800
9.824,23.678,61.965,0.0,0.0,4.534,0.0,1638.400,1739868.200,12622826.0,0.0,0.0,0.0,1480.800
9.351,21.818,64.675,0.0,0.0,4.156,0.0,1638.400,1721914.200,12497254.400,0.0,0.0,0.0,1460.0
8.629,24.112,63.452,0.0,0.0,3.807,0.0,19660.800,1719849.200,12502679.800,0.0,0.0,0.0,1394.600
10.541,26.496,56.125,0.0,0.0,6.838,0.0,1638.400,1723558.0,12506276.400,0.0,0.0,0.0,1387.600
9.302,26.615,59.173,0.0,0.0,4.910,0.0,819.200,1721292.200,12494580.400,0.0,0.0,0.0,1409.200
6.977,27.132,60.465,0.0,0.0,5.426,0.0,3276.800,1722759.400,12501805.800,0.0,0.0,0.0,1476.400
10.026,23.483,61.214,0.0,0.0,5.277,0.0,1638.400,1722661.800,12498997.600,0.0,0.0,0.0,1434.0
12.401,26.385,56.464,0.0,0.0,4.749,0.0,819.200,1718814.600,12492745.600,0.0,0.0,0.0,1385.600
7.940,22.333,66.253,0.0,0.0,3.474,0.0,1638.400,1722417.0,12500482.400,0.0,0.0,0.0,1392.0
7.960,23.134,65.920,0.498,0.0,2.488,0.0,18022.400,1719419.600,12500669.600,0.0,0.0,0.0,1418.800
9.893,27.005,58.289,0.0,0.0,4.813,0.0,1638.400,1722638.600,12501034.200,0.0,0.0,0.0,1408.0
9.920,27.078,58.445,0.0,0.0,4.558,0.0,1638.400,1723259.600,12508207.400,0.0,0.0,0.0,1394.0
7.426,21.782,66.089,0.0,0.0,4.703,0.0,2457.600,1718791.800,12489502.200,0.0,0.0,0.0,1403.400
10.904,27.926,56.383,0.0,0.0,4.787,0.0,1638.400,1714298.800,12432350.200,0.0,0.0,0.0,1457.400
0.609,1.826,97.160,0.0,0.0,0.406,0.0,1638.400,165091.200,1153090.800,0.0,0.0,0.200,1018.200
