"Dstat 0.7.2 CSV output"
"Author:","Dag Wieers <dag@wieers.com>",,,,"URL:","http://dag.wieers.com/home-made/dstat/"
"Host:","Server1",,,,"User:","mstevan"
"Cmdline:","dstat --output /home/mstevan/logs/experiment_3.3/dstat/vs_512-vcpr_32-wtpm_8-rep_4.csv 5 16",,,,"Date:","28 Oct 2019 14:16:13 UTC"

"total cpu usage",,,,,,"dsk/total",,"net/total",,"paging",,"system",
"usr","sys","idl","wai","hiq","siq","read","writ","recv","send","in","out","int","csw"
6.224,15.251,75.704,0.223,0.0,2.598,5249.070,808179.252,0.0,0.0,0.0,0.0,0.069,3076.870
0.202,0.404,99.394,0.0,0.0,0.0,0.0,1638.400,29124.600,183784.0,0.0,0.0,0.0,248.0
11.471,31.176,53.824,0.0,0.0,3.529,0.0,1638.400,1350479.200,9789100.400,0.0,0.0,0.0,5167.600
11.272,34.682,50.0,0.0,0.0,4.046,0.0,1638.400,1341524.800,9724019.600,0.0,0.0,0.0,5200.800
11.628,31.105,53.198,0.0,0.0,4.070,0.0,2457.600,1375489.600,9996250.800,0.0,0.0,0.0,4982.200
12.011,28.492,55.587,0.0,0.0,3.911,0.0,1638.400,1390186.0,10080080.400,0.0,0.0,0.200,4944.200
12.389,28.614,53.982,0.0,0.0,5.015,0.0,819.200,1367789.400,9915973.200,0.0,0.0,0.0,4963.600
13.960,30.199,50.997,0.285,0.0,4.558,0.0,18841.600,1381910.0,10027261.0,0.0,0.0,0.0,5085.0
13.725,34.734,48.459,0.0,0.0,3.081,0.0,1638.400,1361159.400,9864718.400,0.0,0.0,0.0,4876.0
11.504,33.038,51.622,0.0,0.0,3.835,0.0,819.200,1363466.400,9907602.400,0.0,0.0,0.0,4926.400
13.274,32.153,49.263,0.0,0.0,5.310,0.0,1638.400,1387902.400,10060004.400,0.0,0.0,0.0,5257.200
12.500,33.239,49.432,0.0,0.0,4.830,0.0,1638.400,1374287.400,9961369.400,0.0,0.0,0.0,5026.600
13.675,31.054,51.282,0.0,0.0,3.989,0.0,819.200,1382267.400,10046293.600,0.0,0.0,0.0,4967.200
12.722,30.178,52.663,0.0,0.0,4.438,0.0,27852.800,1369453.200,9929550.600,0.0,0.0,0.0,4867.0
11.243,31.065,53.550,0.0,0.0,4.142,0.0,2457.600,1366294.600,9925528.400,0.0,0.0,0.0,4953.200
10.811,30.330,55.255,0.0,0.0,3.604,0.0,1638.400,1382962.200,10030258.400,0.0,0.0,0.0,5003.200
2.141,4.283,93.362,0.0,0.0,0.214,0.0,3276.800,248643.200,1767190.600,0.0,0.0,0.0,1039.0
