"Dstat 0.7.2 CSV output"
"Author:","Dag Wieers <dag@wieers.com>",,,,"URL:","http://dag.wieers.com/home-made/dstat/"
"Host:","Server1",,,,"User:","mstevan"
"Cmdline:","dstat --output /home/mstevan/logs/experiment_3.3/dstat/vs_512-vcpr_4-wtpm_64-rep_4.csv 5 16",,,,"Date:","28 Oct 2019 13:36:25 UTC"

"total cpu usage",,,,,,"dsk/total",,"net/total",,"paging",,"system",
"usr","sys","idl","wai","hiq","siq","read","writ","recv","send","in","out","int","csw"
6.073,14.851,76.323,0.230,0.0,2.523,5489.818,845041.653,0.0,0.0,0.0,0.0,0.073,3074.407
0.403,0.403,98.992,0.0,0.0,0.202,0.0,819.200,29009.0,149162.800,0.0,0.0,0.0,295.200
11.173,25.140,57.821,0.0,0.0,5.866,0.0,1638.400,1048803.600,7569667.400,0.0,0.0,0.0,5713.200
8.914,26.184,59.053,0.0,0.0,5.850,0.0,1638.400,1089016.200,7869927.800,0.0,0.0,0.0,5688.0
8.488,25.995,60.212,0.0,0.0,5.305,0.0,2457.600,1093027.800,7908706.800,0.0,0.0,0.0,6038.600
12.885,26.050,55.742,0.280,0.0,5.042,0.0,18841.600,1121426.400,8114575.400,0.0,0.0,0.0,5528.400
11.111,26.111,58.056,0.0,0.0,4.722,0.0,1638.400,1120603.800,8129824.0,0.0,0.0,0.0,5504.600
11.357,25.485,57.895,0.0,0.0,5.263,0.0,1638.400,1093809.0,7911456.800,0.0,0.0,0.0,5443.600
10.393,26.124,56.180,0.0,0.0,7.303,0.0,2457.600,1104940.800,7997816.0,0.0,0.0,0.0,5590.200
9.322,26.836,59.040,0.0,0.0,4.802,0.0,819.200,1103187.0,7996461.600,0.0,0.0,0.0,5422.600
10.306,25.348,59.331,0.0,0.0,5.014,0.0,1638.400,1121109.800,8108316.800,0.0,0.0,0.0,5839.400
9.770,27.874,56.897,0.287,0.0,5.172,0.0,15564.800,1104558.400,7991228.600,0.0,0.0,0.0,5594.400
11.111,26.667,59.167,0.0,0.0,3.056,0.0,4096.0,1140291.0,8277164.0,0.0,0.0,0.0,5476.0
10.920,26.724,58.046,0.0,0.0,4.310,0.0,2457.600,1104381.0,7990891.400,0.0,0.0,0.0,5475.800
10.833,27.222,58.333,0.0,0.0,3.611,0.0,819.200,1102855.800,7998470.600,0.0,0.0,0.0,5530.0
10.955,25.562,58.989,0.0,0.0,4.494,0.0,2457.600,1076182.800,7769930.200,0.0,0.0,0.0,5226.200
0.402,0.201,99.398,0.0,0.0,0.0,0.0,1638.400,6254.0,1869.600,0.0,0.0,0.0,72.800
