"Dstat 0.7.2 CSV output"
"Author:","Dag Wieers <dag@wieers.com>",,,,"URL:","http://dag.wieers.com/home-made/dstat/"
"Host:","Server1",,,,"User:","mstevan"
"Cmdline:","dstat --output /home/mstevan/logs/experiment_3.3/dstat/vs_512-vcpr_32-wtpm_32-rep_1.csv 5 16",,,,"Date:","28 Oct 2019 14:17:38 UTC"

"total cpu usage",,,,,,"dsk/total",,"net/total",,"paging",,"system",
"usr","sys","idl","wai","hiq","siq","read","writ","recv","send","in","out","int","csw"
6.228,15.264,75.686,0.223,0.0,2.599,5240.863,806922.256,0.0,0.0,0.0,0.0,0.069,3078.622
0.806,0.403,98.790,0.0,0.0,0.0,0.0,1638.400,40278.800,224358.400,0.0,0.0,0.0,252.800
8.838,21.717,64.899,0.253,0.0,4.293,0.0,18841.600,1734041.600,12581368.800,0.0,0.0,0.0,1532.0
9.476,21.696,65.835,0.0,0.0,2.993,0.0,819.200,1720401.600,12507766.200,0.0,0.0,0.0,1434.400
9.799,24.623,59.799,0.0,0.0,5.779,0.0,2457.600,1723177.600,12505154.600,0.0,0.0,0.0,1433.800
10.909,27.532,56.883,0.0,0.0,4.675,0.0,2457.600,1728210.800,12537193.0,0.0,0.0,0.0,1451.800
5.995,18.945,71.463,0.0,0.0,3.597,0.0,819.200,1728540.800,12547646.400,0.0,0.0,0.0,1469.400
9.645,23.096,61.929,0.0,0.0,5.330,0.0,3276.800,1729697.600,12552498.0,0.0,0.0,0.0,1440.0
11.111,26.190,57.143,0.0,0.0,5.556,0.0,14745.600,1721774.600,12522696.400,0.0,0.0,0.0,1407.200
9.686,20.942,65.445,0.0,0.0,3.927,0.0,4915.200,1724020.600,12502969.0,0.0,0.0,0.0,1458.200
10.471,27.225,58.377,0.0,0.0,3.927,0.0,1638.400,1719743.600,12480392.400,0.0,0.0,0.0,1393.600
7.177,19.378,70.335,0.0,0.0,3.110,0.0,819.200,1721263.0,12514229.400,0.0,0.0,0.0,1426.400
9.091,24.935,62.078,0.0,0.0,3.896,0.0,1638.400,1722996.0,12503799.600,0.0,0.0,0.0,1381.0
6.931,21.782,67.327,0.0,0.0,3.960,0.0,1638.400,1719593.800,12501476.0,0.0,0.0,0.0,1405.800
8.020,22.807,64.662,0.251,0.0,4.261,0.0,16384.0,1722972.800,12499942.200,0.0,0.0,0.0,1392.0
7.940,22.333,66.005,0.0,0.0,3.722,0.0,1638.400,1706366.0,12377473.200,0.0,0.0,0.0,1500.0
1.022,2.863,95.910,0.0,0.0,0.204,0.0,819.200,181875.200,1295806.800,0.0,0.0,0.0,1233.400
