"Dstat 0.7.2 CSV output"
"Author:","Dag Wieers <dag@wieers.com>",,,,"URL:","http://dag.wieers.com/home-made/dstat/"
"Host:","Server1",,,,"User:","mstevan"
"Cmdline:","dstat --output /home/mstevan/logs/experiment_3.3/dstat/vs_512-vcpr_16-wtpm_32-rep_4.csv 5 16",,,,"Date:","28 Oct 2019 14:04:51 UTC"

"total cpu usage",,,,,,"dsk/total",,"net/total",,"paging",,"system",
"usr","sys","idl","wai","hiq","siq","read","writ","recv","send","in","out","int","csw"
6.185,15.141,75.878,0.225,0.0,2.571,5315.672,818374.543,0.0,0.0,0.0,0.0,0.070,3083.237
0.401,1.002,98.397,0.200,0.0,0.0,0.0,18841.600,38919.800,218001.200,0.0,0.0,0.0,244.0
10.644,32.493,50.980,0.0,0.0,5.882,0.0,1638.400,1735912.600,12590694.800,0.0,0.0,0.0,2051.200
11.594,33.333,50.145,0.0,0.0,4.928,0.0,819.200,1723261.600,12526752.400,0.0,0.0,0.0,1889.600
10.959,31.781,52.603,0.0,0.0,4.658,0.0,3276.800,1722329.200,12491650.0,0.0,0.0,0.0,1900.200
12.948,31.129,50.138,0.0,0.0,5.785,0.0,1638.400,1724056.200,12512889.800,0.0,0.0,0.0,1878.600
10.428,30.214,53.209,0.0,0.0,6.150,0.0,1638.400,1718340.200,12487903.600,0.0,0.0,0.0,1855.0
12.573,33.041,46.784,0.0,0.0,7.602,0.0,1638.400,1723457.0,12507438.200,0.0,0.0,0.0,1887.800
12.181,30.878,48.725,0.0,0.0,8.215,0.0,18841.600,1716810.800,12473239.0,0.0,0.0,0.0,1866.0
12.291,31.844,48.603,0.0,0.0,7.263,0.0,1638.400,1727862.400,12534817.0,0.0,0.0,0.0,1792.400
12.712,32.486,49.153,0.0,0.0,5.650,0.0,1638.400,1726791.400,12534481.600,0.0,0.0,0.0,1782.0
11.389,29.722,53.056,0.0,0.0,5.833,0.0,819.200,1715645.200,12466864.200,0.0,0.0,0.0,1790.600
12.742,32.964,47.922,0.0,0.0,6.371,0.0,1638.400,1725864.400,12522765.0,0.0,0.0,0.0,1853.800
12.262,35.695,44.959,0.0,0.0,7.084,0.0,2457.600,1713266.200,12432108.400,0.0,0.0,0.0,1789.800
11.357,31.856,50.693,0.554,0.0,5.540,0.0,14745.600,1724635.400,12534921.200,0.0,0.0,0.0,1843.600
10.632,32.471,51.149,0.0,0.0,5.747,0.0,2457.600,1691763.800,12276317.600,0.0,0.0,0.0,1795.600
0.200,0.401,99.399,0.0,0.0,0.0,0.0,819.200,3248.200,1046.0,0.0,0.0,0.0,67.600
