"Dstat 0.7.2 CSV output"
"Author:","Dag Wieers <dag@wieers.com>",,,,"URL:","http://dag.wieers.com/home-made/dstat/"
"Host:","Server1",,,,"User:","mstevan"
"Cmdline:","dstat --output /home/mstevan/logs/experiment_3.3/dstat/vs_512-vcpr_4-wtpm_64-rep_1.csv 5 16",,,,"Date:","28 Oct 2019 13:32:09 UTC"

"total cpu usage",,,,,,"dsk/total",,"net/total",,"paging",,"system",
"usr","sys","idl","wai","hiq","siq","read","writ","recv","send","in","out","int","csw"
6.064,14.827,76.363,0.230,0.0,2.516,5516.933,849193.177,0.0,0.0,0.0,0.0,0.073,3066.642
0.403,0.806,98.387,0.202,0.0,0.202,0.0,18841.600,25653.0,105547.0,0.0,0.0,0.0,286.200
8.635,24.234,63.510,0.0,0.0,3.621,0.0,4915.200,1068474.400,7718390.0,0.0,0.0,0.0,5839.400
11.022,26.075,58.333,0.0,0.0,4.570,0.0,819.200,1100160.400,7978055.400,0.0,0.0,0.0,5733.600
11.396,26.496,57.835,0.0,0.0,4.274,0.0,3276.800,1107975.200,8014897.400,0.0,0.0,0.0,5663.200
10.929,27.596,56.831,0.0,0.0,4.645,0.0,1638.400,1115169.600,8068388.600,0.0,0.0,0.0,5482.0
10.364,28.291,55.462,0.0,0.0,5.882,0.0,819.200,1097118.0,7957677.200,0.0,0.0,0.0,5373.0
12.601,22.252,58.713,0.268,0.0,6.166,0.0,17203.200,1089502.800,7858079.400,0.0,0.0,0.0,5737.600
10.440,28.297,56.593,0.0,0.0,4.670,0.0,819.200,1118446.400,8115459.0,0.0,0.0,0.0,5590.0
10.833,27.222,56.944,0.0,0.0,5.0,0.0,1638.400,1098718.0,7945464.0,0.0,0.0,0.0,5368.200
12.216,23.864,57.670,0.0,0.0,6.250,0.0,1638.400,1094031.800,7906400.800,0.0,0.0,0.0,5424.800
9.777,26.257,58.380,0.0,0.0,5.587,0.0,819.200,1092785.600,7920481.400,0.0,0.0,0.0,5403.800
10.335,26.257,57.542,0.0,0.0,5.866,0.0,1638.400,1090027.600,7885601.800,0.0,0.0,0.0,5473.800
10.782,27.224,57.412,0.0,0.0,4.582,0.0,1638.400,1112778.600,8047407.800,0.0,0.0,0.0,5547.800
10.165,27.747,57.143,0.275,0.0,4.670,0.0,18841.600,1112918.800,8073364.0,0.0,0.0,0.0,5503.200
10.734,24.576,59.605,0.0,0.0,5.085,0.0,2457.600,1092011.600,7892872.800,0.0,0.0,0.0,5270.0
0.401,0.200,99.399,0.0,0.0,0.0,0.0,819.200,3167.0,992.400,0.0,0.0,0.0,61.800
