"Dstat 0.7.2 CSV output"
"Author:","Dag Wieers <dag@wieers.com>",,,,"URL:","http://dag.wieers.com/home-made/dstat/"
"Host:","Server1",,,,"User:","mstevan"
"Cmdline:","dstat --output /home/mstevan/logs/experiment_3.3/dstat/vs_512-vcpr_16-wtpm_32-rep_1.csv 5 16",,,,"Date:","28 Oct 2019 14:00:35 UTC"

"total cpu usage",,,,,,"dsk/total",,"net/total",,"paging",,"system",
"usr","sys","idl","wai","hiq","siq","read","writ","recv","send","in","out","int","csw"
6.170,15.101,75.941,0.226,0.0,2.562,5341.088,822266.607,0.0,0.0,0.0,0.0,0.071,3090.726
0.606,0.404,98.990,0.0,0.0,0.0,0.0,819.200,34003.800,207749.800,0.0,0.0,0.0,213.200
11.878,32.320,48.895,0.0,0.0,6.906,0.0,1638.400,1734942.0,12583332.400,0.0,0.0,0.0,2031.600
10.270,28.649,55.405,0.0,0.0,5.676,0.0,819.200,1719517.200,12500025.800,0.0,0.0,0.0,1882.800
12.139,32.948,48.844,0.0,0.0,6.069,0.0,21299.200,1723838.400,12499305.800,0.0,0.0,0.0,1805.600
12.139,33.526,47.399,0.0,0.0,6.936,0.0,1638.400,1715132.400,12442665.600,0.0,0.0,0.200,1865.600
12.500,24.479,57.292,0.0,0.0,5.729,0.0,819.200,1727330.0,12557315.800,0.0,0.0,0.0,1874.400
11.898,32.011,50.142,0.0,0.0,5.949,0.0,3276.800,1722006.800,12499960.200,0.0,0.0,0.0,1827.600
13.223,31.129,50.413,0.0,0.0,5.234,0.0,819.200,1726062.800,12539236.0,0.0,0.0,0.0,1756.0
12.325,32.493,48.459,0.0,0.0,6.723,0.0,1638.400,1723118.0,12499969.800,0.0,0.0,0.0,1853.600
12.464,30.725,49.565,0.290,0.0,6.957,0.0,22937.600,1722514.600,12499908.0,0.0,0.0,0.0,1910.600
11.634,32.410,50.416,0.0,0.0,5.540,0.0,819.200,1719893.400,12499978.200,0.0,0.0,0.0,1839.400
12.228,29.891,51.902,0.0,0.0,5.978,0.0,1638.400,1727556.800,12539233.200,0.0,0.0,0.0,1818.0
11.080,34.659,47.443,0.0,0.0,6.818,0.0,1638.400,1722055.400,12492118.400,0.0,0.0,0.0,1790.800
12.500,30.682,51.705,0.0,0.0,5.114,0.0,2457.600,1720679.600,12507709.600,0.0,0.0,0.0,1815.600
13.859,29.348,49.728,0.0,0.0,7.065,0.0,1638.400,1689263.200,12259196.400,0.0,0.0,0.0,1779.800
0.0,0.402,99.197,0.402,0.0,0.0,0.0,14745.600,3167.0,1005.600,0.0,0.0,0.0,68.200
