"Dstat 0.7.2 CSV output"
"Author:","Dag Wieers <dag@wieers.com>",,,,"URL:","http://dag.wieers.com/home-made/dstat/"
"Host:","Server1",,,,"User:","mstevan"
"Cmdline:","dstat --output /home/mstevan/logs/experiment_3.3/dstat/vs_512-vcpr_4-wtpm_64-rep_3.csv 5 16",,,,"Date:","28 Oct 2019 13:34:59 UTC"

"total cpu usage",,,,,,"dsk/total",,"net/total",,"paging",,"system",
"usr","sys","idl","wai","hiq","siq","read","writ","recv","send","in","out","int","csw"
6.070,14.843,76.336,0.230,0.0,2.521,5498.826,846420.925,0.0,0.0,0.0,0.0,0.073,3071.846
0.607,0.405,98.988,0.0,0.0,0.0,0.0,1638.400,30717.200,140270.800,0.0,0.0,0.200,316.600
9.549,21.485,64.456,0.0,0.0,4.509,0.0,819.200,1138189.200,8247264.600,0.0,0.0,0.0,6195.400
11.527,26.513,58.213,0.0,0.0,3.746,0.0,1638.400,1133642.0,8208108.200,0.0,0.0,0.0,5669.800
10.160,26.471,57.487,0.267,0.0,5.615,0.0,22937.600,1124166.400,8150993.600,0.0,0.0,0.0,5684.600
9.589,27.397,57.534,0.0,0.0,5.479,0.0,1638.400,1123588.600,8122070.600,0.0,0.0,0.0,5564.600
10.989,27.473,56.868,0.0,0.0,4.670,0.0,1638.400,1142549.600,8270215.800,0.0,0.0,0.0,5726.400
9.615,23.352,61.264,0.0,0.0,5.769,0.0,2457.600,1161988.0,8436324.400,0.0,0.0,0.0,5769.200
8.540,25.895,59.780,0.0,0.0,5.785,0.0,1638.400,1141649.800,8259970.200,0.0,0.0,0.0,5556.200
10.440,27.473,57.692,0.0,0.0,4.396,0.0,1638.400,1110220.0,8026476.0,0.0,0.0,0.0,5381.600
11.176,26.765,57.059,0.294,0.0,4.706,0.0,14745.600,1101811.200,7991797.400,0.0,0.0,0.0,5515.0
8.499,29.462,56.091,0.0,0.0,5.949,0.0,1638.400,1116906.0,8084114.200,0.0,0.0,0.0,5432.200
11.111,27.066,56.695,0.0,0.0,5.128,0.0,819.200,1119409.400,8115012.400,0.0,0.0,0.0,5522.200
9.915,26.912,58.357,0.0,0.0,4.816,0.0,1638.400,1104177.0,7984414.600,0.0,0.0,0.0,5488.800
10.734,26.271,56.497,0.0,0.0,6.497,0.0,3276.800,1084906.400,7830704.400,0.0,0.0,0.0,5630.800
10.704,24.507,60.282,0.0,0.0,4.507,0.0,819.200,1088506.800,7884288.600,0.0,0.0,0.0,5448.400
0.601,0.200,98.397,0.802,0.0,0.0,0.0,16384.0,6254.0,1869.600,0.0,0.0,0.0,79.800
