"Dstat 0.7.2 CSV output"
"Author:","Dag Wieers <dag@wieers.com>",,,,"URL:","http://dag.wieers.com/home-made/dstat/"
"Host:","Server1",,,,"User:","mstevan"
"Cmdline:","dstat --output /home/mstevan/logs/experiment_3.3/dstat/vs_64-vcpr_32-wtpm_32-rep_3.csv 5 16",,,,"Date:","28 Oct 2019 12:03:52 UTC"

"total cpu usage",,,,,,"dsk/total",,"net/total",,"paging",,"system",
"usr","sys","idl","wai","hiq","siq","read","writ","recv","send","in","out","int","csw"
5.592,13.512,78.412,0.246,0.0,2.238,6145.092,945373.988,0.0,0.0,0.0,0.0,0.081,3063.651
0.805,0.805,98.189,0.0,0.0,0.201,0.0,1638.400,49477.200,79749.800,0.0,0.0,0.0,227.800
15.556,47.619,28.571,0.0,0.0,8.254,0.0,819.200,2152958.800,4149268.200,0.0,0.0,0.0,1569.600
16.556,46.358,29.470,0.0,0.0,7.616,0.0,1638.400,2169054.800,4175775.800,0.0,0.0,0.0,1557.800
15.909,45.455,29.545,0.0,0.0,9.091,0.0,2457.600,2193231.0,4224314.0,0.0,0.0,0.0,1582.800
19.481,43.831,30.195,0.0,0.0,6.494,0.0,1638.400,2186877.600,4209707.0,0.0,0.0,0.0,1559.0
17.419,45.806,27.742,0.323,0.0,8.710,0.0,18841.600,2173091.200,4183648.0,0.0,0.0,0.0,1568.0
16.721,46.230,28.852,0.0,0.0,8.197,0.0,2457.600,2210764.200,4260923.800,0.0,0.0,0.0,1624.200
14.744,48.718,28.205,0.0,0.0,8.333,0.0,1638.400,2203641.600,4242547.800,0.0,0.0,0.0,1581.400
18.576,48.297,26.316,0.0,0.0,6.811,0.0,0.0,2189628.400,4220716.0,0.0,0.0,0.0,1526.800
17.516,48.726,25.478,0.0,0.0,8.280,0.0,1638.400,2216486.0,4272382.600,0.0,0.0,0.0,1551.200
17.949,48.077,26.282,0.0,0.0,7.692,0.0,1638.400,2177393.600,4191115.400,0.0,0.0,0.0,1590.600
19.293,46.945,25.402,0.0,0.0,8.360,0.0,819.200,2160935.200,4162523.0,0.0,0.0,0.0,1499.600
19.385,47.385,25.538,0.308,0.0,7.385,0.0,18022.400,2172867.0,4181723.400,0.0,0.0,0.0,1570.800
19.814,47.678,25.077,0.0,0.0,7.430,0.0,3276.800,2195092.400,4225821.200,0.0,0.0,0.0,1522.0
17.628,45.833,30.128,0.0,0.0,6.410,0.0,819.200,2139144.0,4124787.400,0.0,0.0,0.0,1566.0
0.815,0.815,97.963,0.0,0.0,0.407,0.0,1638.400,97624.800,176784.400,0.0,0.0,0.0,846.600
