"Dstat 0.7.2 CSV output"
"Author:","Dag Wieers <dag@wieers.com>",,,,"URL:","http://dag.wieers.com/home-made/dstat/"
"Host:","Server1",,,,"User:","mstevan"
"Cmdline:","dstat --output /home/mstevan/logs/experiment_3.3/dstat/vs_64-vcpr_8-wtpm_64-rep_2.csv 5 16",,,,"Date:","28 Oct 2019 11:34:01 UTC"

"total cpu usage",,,,,,"dsk/total",,"net/total",,"paging",,"system",
"usr","sys","idl","wai","hiq","siq","read","writ","recv","send","in","out","int","csw"
5.382,12.966,79.265,0.252,0.0,2.134,6391.187,983057.069,0.0,0.0,0.0,0.0,0.084,3080.735
0.404,0.606,98.990,0.0,0.0,0.0,0.0,1638.400,34966.0,48485.600,0.0,0.0,0.0,306.800
13.846,35.692,42.769,0.0,0.0,7.692,0.0,819.200,1548095.800,2980524.400,0.0,0.0,0.0,3637.800
15.710,35.650,41.692,0.0,0.0,6.949,0.0,2457.600,1603191.800,3081982.800,0.0,0.0,0.0,3813.600
14.540,38.872,40.356,0.890,0.0,5.341,0.0,20480.0,1632475.600,3139818.200,0.0,0.0,0.0,3552.800
14.907,36.335,42.236,0.0,0.0,6.522,0.0,819.200,1611435.0,3103447.400,0.0,0.0,0.0,3533.600
14.848,37.576,40.0,0.0,0.0,7.576,0.0,1638.400,1617993.600,3111568.600,0.0,0.0,0.0,3386.0
15.902,38.226,37.309,0.0,0.0,8.563,0.0,2457.600,1617340.0,3115711.200,0.0,0.0,0.0,3492.0
16.0,37.846,38.462,0.0,0.0,7.692,0.0,1638.400,1616440.200,3108909.800,0.0,0.0,0.0,3545.0
15.680,40.237,36.686,0.0,0.0,7.396,0.0,1638.400,1601254.200,3078799.0,0.0,0.0,0.0,3424.800
15.644,38.344,38.344,0.307,0.0,7.362,0.0,19660.800,1625059.600,3130662.800,0.0,0.0,0.0,3458.200
16.517,40.541,34.234,0.0,0.0,8.709,0.0,1638.400,1638300.200,3151831.200,0.0,0.0,0.0,3704.600
18.209,36.716,37.910,0.0,0.0,7.164,0.0,1638.400,1622206.200,3117212.600,0.0,0.0,0.0,3461.600
12.689,41.390,37.764,0.0,0.0,8.157,0.0,819.200,1613365.0,3106399.400,0.0,0.0,0.0,3466.200
14.458,36.145,41.566,0.0,0.0,7.831,0.0,3276.800,1628788.400,3132913.200,0.0,0.0,0.0,3548.0
15.198,34.347,44.377,0.0,0.0,6.079,0.0,819.200,1583834.400,3049558.0,0.0,0.0,0.0,3397.200
0.402,0.402,98.996,0.201,0.0,0.0,0.0,15564.800,6254.0,1856.400,0.0,0.0,0.0,78.0
