"Dstat 0.7.2 CSV output"
"Author:","Dag Wieers <dag@wieers.com>",,,,"URL:","http://dag.wieers.com/home-made/dstat/"
"Host:","Server1",,,,"User:","mstevan"
"Cmdline:","dstat --output /home/mstevan/logs/experiment_3.3/dstat/vs_64-vcpr_4-wtpm_64-rep_2.csv 5 16",,,,"Date:","28 Oct 2019 11:16:57 UTC"

"total cpu usage",,,,,,"dsk/total",,"net/total",,"paging",,"system",
"usr","sys","idl","wai","hiq","siq","read","writ","recv","send","in","out","int","csw"
5.282,12.723,79.646,0.256,0.0,2.094,6540.885,1005980.711,0.0,0.0,0.0,0.0,0.086,3067.724
0.802,0.401,98.798,0.0,0.0,0.0,0.0,1638.400,19849.600,20885.200,0.0,0.0,0.0,246.400
9.474,25.789,60.263,0.0,0.0,4.474,0.0,2457.600,1073471.400,2054275.400,0.0,0.0,0.0,5757.200
11.507,26.301,57.260,0.0,0.0,4.932,0.0,819.200,1106465.400,2127882.400,0.0,0.0,0.0,5324.400
12.534,27.248,55.313,0.0,0.0,4.905,0.0,2457.600,1095660.600,2099513.200,0.0,0.0,0.0,5268.800
9.809,25.613,59.946,0.0,0.0,4.632,0.0,819.200,1151338.800,2214263.600,0.0,0.0,0.0,5528.400
11.602,25.414,58.564,0.276,0.0,4.144,0.0,23756.800,1134561.0,2174426.600,0.0,0.0,0.0,5316.600
11.019,29.201,53.719,0.0,0.0,6.061,0.0,11468.800,1094143.400,2096097.600,0.0,0.0,0.0,5173.600
11.396,24.501,57.835,0.0,0.0,6.268,0.0,2457.600,1110616.800,2133274.400,0.0,0.0,0.0,5458.600
13.661,26.503,53.552,0.0,0.0,6.284,0.0,1638.400,1081533.0,2070976.400,0.0,0.0,0.0,5104.600
13.390,25.926,55.271,0.0,0.0,5.413,0.0,1638.400,1091040.800,2089692.800,0.0,0.0,0.0,5328.600
10.315,28.080,56.734,0.0,0.0,4.871,0.0,819.200,1106262.200,2125190.600,0.0,0.0,0.0,5352.200
10.086,30.836,53.602,0.288,0.0,5.187,0.0,15564.800,1070363.600,2050911.0,0.0,0.0,0.0,5201.200
11.494,27.299,56.609,0.0,0.0,4.598,0.0,819.200,1099701.0,2111414.400,0.0,0.0,0.0,5318.0
10.955,28.933,57.022,0.0,0.0,3.090,0.0,3276.800,1098875.400,2106556.200,0.0,0.0,0.0,5348.400
10.345,26.149,58.908,0.0,0.0,4.598,0.0,1638.400,1086406.600,2079229.800,0.0,0.0,0.0,5282.400
0.201,0.201,99.598,0.0,0.0,0.0,0.0,819.200,3167.0,1005.600,0.0,0.0,0.0,63.200
