"Dstat 0.7.2 CSV output"
"Author:","Dag Wieers <dag@wieers.com>",,,,"URL:","http://dag.wieers.com/home-made/dstat/"
"Host:","Server1",,,,"User:","mstevan"
"Cmdline:","dstat --output /home/mstevan/logs/experiment_3.3/dstat/vs_64-vcpr_16-wtpm_8-rep_2.csv 5 16",,,,"Date:","28 Oct 2019 11:39:42 UTC"

"total cpu usage",,,,,,"dsk/total",,"net/total",,"paging",,"system",
"usr","sys","idl","wai","hiq","siq","read","writ","recv","send","in","out","int","csw"
5.420,13.058,79.119,0.251,0.0,2.151,6342.802,975647.999,0.0,0.0,0.0,0.0,0.083,3081.263
0.202,0.806,98.790,0.0,0.0,0.202,0.0,1638.400,26953.600,40436.600,0.0,0.0,0.0,170.800
13.450,31.871,50.877,0.292,0.0,3.509,0.0,18841.600,1327238.200,2555965.200,0.0,0.0,0.0,4857.400
14.118,32.353,50.0,0.0,0.0,3.529,0.0,1638.400,1324162.400,2545266.600,0.0,0.0,0.0,4650.200
14.409,31.412,51.297,0.0,0.0,2.882,0.0,1638.400,1387098.800,2671109.600,0.0,0.0,0.0,4699.800
13.353,31.454,50.742,0.0,0.0,4.451,0.0,2457.600,1354888.800,2603443.800,0.0,0.0,0.0,4832.200
13.650,33.828,49.555,0.0,0.0,2.967,0.0,1638.400,1362947.400,2619689.600,0.0,0.0,0.0,4780.600
11.080,31.534,50.568,0.0,0.0,6.818,0.0,2457.600,1339059.400,2579190.600,0.0,0.0,0.0,4581.200
12.647,31.765,50.882,0.0,0.0,4.706,0.0,1638.400,1361064.0,2616365.800,0.0,0.0,0.0,4644.0
10.942,31.003,53.495,0.304,0.0,4.255,0.0,22118.400,1367605.800,2634224.400,0.0,0.0,0.0,4783.600
13.393,34.524,48.810,0.0,0.0,3.274,0.0,1638.400,1360883.800,2614003.400,0.0,0.0,0.0,4780.0
10.725,35.072,49.275,0.0,0.0,4.928,0.0,1638.400,1348153.400,2591560.400,0.0,0.0,0.0,4661.400
13.235,30.0,53.235,0.0,0.0,3.529,0.0,819.200,1385760.0,2669071.200,0.0,0.0,0.0,4683.200
12.680,34.006,48.703,0.0,0.0,4.611,0.0,2457.600,1342902.800,2582157.0,0.0,0.0,0.0,4697.600
13.994,29.738,51.020,0.0,0.0,5.248,0.0,1638.400,1362569.0,2624599.0,0.0,0.0,0.0,4668.400
12.394,34.085,49.296,0.563,0.0,3.662,0.0,21299.200,1341031.200,2577249.600,0.0,0.0,0.200,4632.600
0.201,0.201,99.598,0.0,0.0,0.0,0.0,1638.400,6338.400,2012.0,0.0,0.0,0.0,73.600
