"Dstat 0.7.2 CSV output"
"Author:","Dag Wieers <dag@wieers.com>",,,,"URL:","http://dag.wieers.com/home-made/dstat/"
"Host:","Server1",,,,"User:","mstevan"
"Cmdline:","dstat --output /home/mstevan/logs/experiment_3.3/dstat/vs_64-vcpr_4-wtpm_64-rep_1.csv 5 16",,,,"Date:","28 Oct 2019 11:15:32 UTC"

"total cpu usage",,,,,,"dsk/total",,"net/total",,"paging",,"system",
"usr","sys","idl","wai","hiq","siq","read","writ","recv","send","in","out","int","csw"
5.276,12.709,79.669,0.257,0.0,2.090,6553.676,1007939.284,0.0,0.0,0.0,0.0,0.086,3065.091
0.600,0.600,98.600,0.0,0.0,0.200,0.0,819.200,26021.400,37047.600,0.0,0.0,0.0,282.600
11.429,24.0,59.714,0.0,0.0,4.857,0.0,1638.400,1071441.600,2049742.0,0.0,0.0,0.0,5765.400
8.611,28.333,57.778,0.0,0.0,5.278,0.0,2457.600,1088849.400,2083826.0,0.0,0.0,0.0,5380.200
8.864,27.424,59.280,0.0,0.0,4.432,0.0,819.200,1088996.0,2090656.0,0.0,0.0,0.0,5243.400
12.034,26.934,55.301,0.287,0.0,5.444,0.0,19660.800,1090989.600,2091990.400,0.0,0.0,0.0,5219.800
11.919,26.453,55.523,0.0,0.0,6.105,0.0,4096.0,1099438.0,2113209.400,0.0,0.0,0.0,5216.600
11.396,25.641,56.695,0.0,0.0,6.268,0.0,3276.800,1083682.600,2076901.600,0.0,0.0,0.0,5209.200
10.864,26.462,57.103,0.0,0.0,5.571,0.0,1638.400,1094719.400,2092151.0,0.0,0.0,0.0,5339.200
14.011,27.198,53.846,0.0,0.0,4.945,0.0,819.200,1099342.800,2109329.200,0.0,0.0,0.0,5279.800
11.966,29.345,53.276,0.0,0.0,5.413,0.0,1638.400,1084437.400,2079226.800,0.0,0.0,0.0,5126.800
12.228,26.630,54.620,0.543,0.0,5.978,0.0,14745.600,1106510.400,2122420.400,0.0,0.0,0.0,5325.400
11.396,29.060,55.271,0.0,0.0,4.274,0.0,1638.400,1099043.400,2111681.600,0.0,0.0,0.0,5537.400
10.833,26.111,57.778,0.0,0.0,5.278,0.0,2457.600,1101217.800,2108358.600,0.0,0.0,0.0,5543.0
11.207,27.874,55.460,0.0,0.0,5.460,0.0,1638.400,1081031.200,2077097.600,0.0,0.0,0.0,5379.600
9.890,25.549,58.791,0.0,0.0,5.769,0.0,1638.400,1063833.600,2033685.200,0.0,0.0,0.0,5296.0
0.800,0.200,99.0,0.0,0.0,0.0,0.0,1638.400,6254.0,1869.600,0.0,0.0,0.0,73.800
