"Dstat 0.7.2 CSV output"
"Author:","Dag Wieers <dag@wieers.com>",,,,"URL:","http://dag.wieers.com/home-made/dstat/"
"Host:","Server1",,,,"User:","mstevan"
"Cmdline:","dstat --output /home/mstevan/logs/experiment_3.3/dstat/vs_64-vcpr_8-wtpm_32-rep_1.csv 5 16",,,,"Date:","28 Oct 2019 11:26:54 UTC"

"total cpu usage",,,,,,"dsk/total",,"net/total",,"paging",,"system",
"usr","sys","idl","wai","hiq","siq","read","writ","recv","send","in","out","int","csw"
5.332,12.842,79.462,0.254,0.0,2.110,6452.715,992479.311,0.0,0.0,0.0,0.0,0.085,3081.858
0.600,0.400,98.800,0.0,0.0,0.200,0.0,1638.400,25493.200,38542.600,0.0,0.0,0.0,215.600
14.769,36.0,43.385,0.0,0.0,5.846,0.0,1638.400,1543421.800,2966742.200,0.0,0.0,0.0,3868.400
16.061,36.970,42.121,0.303,0.0,4.545,0.0,18022.400,1622667.600,3125476.800,0.0,0.0,0.0,3829.200
15.692,37.846,41.231,0.0,0.0,5.231,0.0,3276.800,1634051.200,3143257.200,0.0,0.0,0.0,3593.400
15.385,38.769,38.154,0.0,0.0,7.692,0.0,1638.400,1624073.600,3123025.200,0.0,0.0,0.0,3555.400
16.463,35.671,41.159,0.0,0.0,6.707,0.0,819.200,1630011.400,3140391.200,0.0,0.0,0.0,3617.400
17.378,36.890,38.720,0.0,0.0,7.012,0.0,3276.800,1643628.0,3161525.200,0.0,0.0,0.0,3746.600
16.508,37.143,40.952,0.0,0.0,5.397,0.0,819.200,1628743.400,3132633.0,0.0,0.0,0.0,3597.800
13.678,40.426,39.514,0.0,0.0,6.383,0.0,19660.800,1645466.0,3170467.200,0.0,0.0,0.0,3649.600
16.422,38.123,39.296,0.0,0.0,6.158,0.0,1638.400,1617747.800,3111275.0,0.0,0.0,0.0,3547.400
13.947,40.059,41.246,0.0,0.0,4.748,0.0,819.200,1636270.0,3151968.600,0.0,0.0,0.0,3598.200
16.301,35.110,42.006,0.0,0.0,6.583,0.0,1638.400,1654621.600,3181340.0,0.0,0.0,0.0,3604.400
14.199,39.879,38.973,0.0,0.0,6.949,0.0,1638.400,1628714.600,3132173.800,0.0,0.0,0.0,3502.200
16.012,37.160,41.088,0.0,0.0,5.740,0.0,2457.600,1642606.400,3164685.200,0.0,0.0,0.0,3610.600
13.456,37.615,41.896,0.612,0.0,6.422,0.0,15564.800,1583432.200,3045519.200,0.0,0.0,0.0,3401.800
0.200,0.0,99.599,0.0,0.0,0.200,0.0,819.200,3167.0,1005.600,0.0,0.0,0.0,62.400
