"Dstat 0.7.2 CSV output"
"Author:","Dag Wieers <dag@wieers.com>",,,,"URL:","http://dag.wieers.com/home-made/dstat/"
"Host:","Server1",,,,"User:","mstevan"
"Cmdline:","dstat --output /home/mstevan/logs/experiment_3.3/dstat/vs_64-vcpr_32-wtpm_64-rep_3.csv 5 16",,,,"Date:","28 Oct 2019 12:09:33 UTC"

"total cpu usage",,,,,,"dsk/total",,"net/total",,"paging",,"system",
"usr","sys","idl","wai","hiq","siq","read","writ","recv","send","in","out","int","csw"
5.643,13.650,78.186,0.245,0.0,2.276,6100.347,938521.959,0.0,0.0,0.0,0.0,0.080,3049.226
0.601,0.601,98.597,0.0,0.0,0.200,0.0,1638.400,24986.200,28127.200,0.0,0.0,0.0,228.400
15.556,53.333,18.095,0.0,0.0,13.016,0.0,819.200,2507018.0,4830972.600,0.0,0.0,0.0,1144.600
20.0,51.692,12.923,0.0,0.0,15.385,0.0,1638.400,2526195.200,4866697.800,0.0,0.0,0.0,914.800
19.764,51.327,13.569,0.0,0.0,15.339,0.0,2457.600,2568664.0,4949205.600,0.0,0.0,0.0,883.400
17.665,52.994,13.473,0.0,0.0,15.868,0.0,44236.800,2542755.400,4896138.800,0.0,0.0,0.0,863.800
20.0,52.424,13.030,0.0,0.0,14.545,0.0,2457.600,2548203.400,4905745.600,0.0,0.0,0.0,822.400
19.453,50.760,13.070,0.0,0.0,16.717,0.0,2457.600,2543153.800,4903172.800,0.0,0.0,0.0,892.0
18.237,53.191,13.070,0.0,0.0,15.502,0.0,1638.400,2543245.800,4896951.200,0.0,0.0,0.0,924.0
21.317,48.276,15.047,0.0,0.0,15.361,0.0,1638.400,2536398.800,4885682.200,0.0,0.0,0.0,923.400
18.519,51.852,14.198,0.0,0.0,15.432,0.0,819.200,2555676.800,4924482.0,0.0,0.0,0.0,865.200
20.0,53.030,12.727,0.0,0.0,14.242,0.0,17203.200,2572607.400,4954189.800,0.0,0.0,0.0,865.200
18.692,52.648,12.773,0.0,0.0,15.888,0.0,819.200,2541846.600,4899584.200,0.0,0.0,0.0,838.800
17.791,50.613,12.577,0.0,0.0,19.018,0.0,1638.400,2536348.200,4882564.800,0.0,0.0,0.0,874.200
22.082,51.735,12.934,0.0,0.0,13.249,0.0,3276.800,2546959.800,4905244.600,0.0,0.0,0.0,913.800
20.382,51.911,14.968,0.0,0.0,12.739,0.0,819.200,2500779.200,4823417.400,0.0,0.0,0.0,914.600
0.403,1.008,98.387,0.0,0.0,0.202,0.0,1638.400,40986.0,64395.200,0.0,0.0,0.0,419.800
