 & 1.62 & 2.72 & 4.54 & 8.35 & 1.69 & 2.82 & 4.63 & 8.70 & 1.76 & 3.52 & 7.03 & 14.06 & 3.24 & 6.48 & 12.95 & 25.96
 & 22.14 & 26.47 & 31.73 & 34.57 & 21.23 & 25.50 & 31.26 & 33.05 & 20.44 & 20.46 & 20.47 & 20.51 & 11.13 & 11.13 & 11.14 & 11.07
 & 1.00 & 1.00 & 1.00 & 1.00 & 1.00 & 1.00 & 1.00 & 1.00 & 1.00 & 1.00 & 1.00 & 1.00 & 1.00 & 1.00 & 1.00 & 1.00
