,Total number of clients,64,256,512,1024
0,24,1.7588888888888887,1.800222222222222,1.7988888888888888,2.1566666666666667
1,48,2.544777777777778,2.56,2.555444444444445,4.313888888888889
2,96,3.922333333333334,3.958222222222222,4.679111111111111,8.596666666666666
3,192,7.449333333333333,7.612000000000001,9.270111111111111,16.997777777777774
