,Total number of clients,64,256,512,1024
0,24,1.4688644067796608,1.4951977401129943,1.4698813559322037,1.6858022598870053
1,48,3.295028248587571,3.397440677966101,3.372796610169491,3.8023615819209042
2,96,7.281491525423728,7.264768361581922,7.258898305084745,8.092361581920905
3,192,15.346384180790961,15.111796610169492,14.82736723163842,16.731158192090394
