"Dstat 0.7.2 CSV output"
"Author:","Dag Wieers <dag@wieers.com>",,,,"URL:","http://dag.wieers.com/home-made/dstat/"
"Host:","Middleware2",,,,"User:","mstevan"
"Cmdline:","dstat --output /home/mstevan/logs/experiment_3.3/dstat/vs_1024-vcpr_16-wtpm_64-rep_4.csv 5 16",,,,"Date:","28 Oct 2019 15:18:50 UTC"

"total cpu usage",,,,,,"dsk/total",,"net/total",,"paging",,"system",
"usr","sys","idl","wai","hiq","siq","read","writ","recv","send","in","out","int","csw"
0.576,0.955,98.296,0.047,0.0,0.125,7873.318,4507266.915,0.0,0.0,0.0,0.0,2245.574,6498.575
0.878,0.301,98.796,0.0,0.0,0.025,0.0,819.200,240313.800,231891.800,0.0,0.0,440.400,1271.400
4.622,2.789,92.202,0.0,0.0,0.387,0.0,1638.400,6109989.200,6110747.600,0.0,0.0,6902.0,19954.800
1.255,2.613,95.722,0.0,0.0,0.410,0.0,1638.400,6017806.600,6014814.600,0.0,0.0,6950.200,19612.200
2.047,2.661,94.959,0.0,0.0,0.333,0.0,2457.600,6029965.600,6027736.0,0.0,0.0,7041.600,19862.0
1.530,2.882,95.282,0.0,0.0,0.306,0.0,1638.400,5955644.200,5951198.200,0.0,0.0,7060.800,19750.200
2.172,2.888,94.454,0.026,0.0,0.460,0.0,36044.800,5992771.800,5988339.0,0.0,0.0,7125.200,19966.0
1.350,3.108,95.236,0.0,0.0,0.306,0.0,9011.200,6015148.400,6011965.800,0.0,0.0,7105.600,20099.800
1.346,3.277,95.047,0.0,0.0,0.330,0.0,1638.400,5989480.400,5985974.200,0.0,0.0,7066.600,19874.400
1.280,2.662,95.802,0.0,0.0,0.256,0.0,1638.400,5994245.200,5989805.200,0.0,0.0,7105.200,19904.0
1.378,2.654,95.637,0.0,0.0,0.332,0.0,819.200,5968590.200,5966387.0,0.0,0.0,6959.400,19655.0
1.379,2.732,95.558,0.0,0.0,0.332,0.0,1638.400,5917042.600,5912606.200,0.0,0.0,6964.400,19621.800
1.376,2.880,95.463,0.025,0.0,0.255,0.0,17203.200,5990647.200,5980439.600,0.0,0.0,7076.800,19875.400
1.345,3.070,95.154,0.0,0.0,0.431,0.0,9011.200,6020123.600,6023659.200,0.0,0.0,7037.400,19970.200
1.300,2.906,95.514,0.0,0.0,0.280,0.0,7372.800,5955144.800,5949674.600,0.0,0.0,6960.400,19714.800
1.223,2.854,95.642,0.0,0.0,0.280,0.0,819.200,5823782.800,5822792.600,0.0,0.0,6810.200,19286.600
0.025,0.0,99.950,0.0,0.0,0.025,0.0,1638.400,7180.800,2378.400,0.0,0.0,47.400,150.0
