"Dstat 0.7.2 CSV output"
"Author:","Dag Wieers <dag@wieers.com>",,,,"URL:","http://dag.wieers.com/home-made/dstat/"
"Host:","Middleware2",,,,"User:","mstevan"
"Cmdline:","dstat --output /home/mstevan/logs/experiment_3.3/dstat/vs_1024-vcpr_8-wtpm_64-rep_3.csv 5 16",,,,"Date:","28 Oct 2019 15:00:21 UTC"

"total cpu usage",,,,,,"dsk/total",,"net/total",,"paging",,"system",
"usr","sys","idl","wai","hiq","siq","read","writ","recv","send","in","out","int","csw"
0.559,0.932,98.338,0.048,0.0,0.123,8026.206,4594645.861,0.0,0.0,0.0,0.0,2186.515,6334.778
0.877,0.351,98.697,0.050,0.0,0.025,0.0,32768.0,175022.0,166066.0,0.0,0.0,457.600,1270.400
4.774,3.716,91.200,0.0,0.0,0.310,0.0,819.200,6550410.400,6555244.400,0.0,0.0,8598.400,24264.400
1.860,3.516,94.217,0.0,0.0,0.408,0.0,1638.400,6445704.600,6442578.600,0.0,0.0,8775.600,23793.600
3.817,3.173,92.649,0.0,0.0,0.361,0.0,2457.600,6373352.600,6371237.400,0.0,0.0,8919.400,23713.200
1.560,3.094,94.861,0.0,0.0,0.486,0.0,1638.400,6380172.0,6378915.600,0.0,0.0,8974.200,23962.200
1.713,3.170,94.811,0.0,0.0,0.307,0.0,4096.0,6352041.600,6348904.800,0.0,0.0,8904.800,23765.0
1.613,3.277,94.803,0.0,0.0,0.307,0.0,9011.200,6395448.600,6395064.600,0.0,0.0,8999.800,24185.600
1.494,2.937,95.337,0.026,0.0,0.206,0.0,23756.800,6400567.400,6397943.0,0.0,0.0,8995.0,24361.800
1.613,3.227,94.853,0.0,0.0,0.307,0.0,1638.400,6358010.800,6355122.400,0.0,0.0,8923.600,24151.0
1.559,3.194,94.914,0.0,0.0,0.332,0.0,819.200,6313615.800,6313471.800,0.0,0.0,8968.0,23925.600
1.892,3.221,94.530,0.0,0.0,0.358,0.0,1638.400,6311928.0,6309435.600,0.0,0.0,8978.600,23824.800
1.534,3.246,94.760,0.0,0.0,0.460,0.0,1638.400,6355204.800,6352554.0,0.0,0.0,9038.800,23971.800
1.455,3.497,94.691,0.0,0.0,0.357,0.0,4915.200,6389648.600,6388976.600,0.0,0.0,9015.0,24086.600
1.736,3.166,94.714,0.051,0.0,0.332,0.0,19660.800,6377799.600,6374685.600,0.0,0.0,9069.800,24062.200
1.514,3.002,95.228,0.0,0.0,0.257,0.0,1638.400,6281838.600,6279247.800,0.0,0.0,8875.200,23638.0
0.050,0.050,99.900,0.0,0.0,0.0,0.0,819.200,3462.200,1206.200,0.0,0.0,41.800,133.200
