"Dstat 0.7.2 CSV output"
"Author:","Dag Wieers <dag@wieers.com>",,,,"URL:","http://dag.wieers.com/home-made/dstat/"
"Host:","Middleware2",,,,"User:","mstevan"
"Cmdline:","dstat --output /home/mstevan/logs/experiment_3.3/dstat/vs_1024-vcpr_32-wtpm_8-rep_4.csv 5 16",,,,"Date:","28 Oct 2019 15:24:31 UTC"

"total cpu usage",,,,,,"dsk/total",,"net/total",,"paging",,"system",
"usr","sys","idl","wai","hiq","siq","read","writ","recv","send","in","out","int","csw"
0.581,0.961,98.285,0.047,0.0,0.126,7827.448,4481045.733,0.0,0.0,0.0,0.0,2263.779,6543.676
0.826,0.150,98.999,0.0,0.0,0.025,0.0,1638.400,151151.0,144822.800,0.0,0.0,247.600,765.200
4.162,2.430,93.175,0.0,0.0,0.233,0.0,1638.400,6731847.0,6728812.400,0.0,0.0,5788.0,15921.0
1.433,1.996,96.418,0.0,0.0,0.154,0.0,1638.400,6555894.800,6551437.200,0.0,0.0,5971.400,15802.800
3.046,2.065,94.708,0.0,0.0,0.181,0.0,1638.400,6498364.0,6493905.200,0.0,0.0,5970.800,15776.400
0.950,1.900,96.970,0.051,0.0,0.128,0.0,35225.600,6590323.0,6588095.200,0.0,0.0,6115.200,16056.600
1.068,2.720,96.035,0.0,0.0,0.178,0.0,5734.400,6709215.800,6704754.400,0.0,0.0,6218.400,16349.800
0.921,2.124,96.775,0.0,0.0,0.179,0.0,9830.400,6622511.0,6618129.600,0.0,0.0,6081.200,16132.400
1.097,2.346,96.404,0.0,0.0,0.153,0.0,819.200,6590316.400,6588145.0,0.0,0.0,6083.200,16129.400
0.975,1.898,96.897,0.0,0.0,0.231,0.0,1638.400,6602131.600,6597672.0,0.0,0.0,6050.400,16083.400
1.649,2.138,96.059,0.0,0.0,0.155,0.0,1638.400,6587933.800,6583435.200,0.0,0.0,6258.400,16301.600
0.974,2.077,96.692,0.051,0.0,0.205,0.0,24576.0,6646931.400,6644702.800,0.0,0.0,6175.600,16283.200
1.181,2.003,96.610,0.0,0.0,0.205,0.0,1638.400,6588162.200,6583703.0,0.0,0.0,6075.0,16048.200
1.100,2.021,96.674,0.0,0.0,0.205,0.0,4915.200,6604099.800,6601888.600,0.0,0.0,6139.200,16103.400
1.101,1.996,96.673,0.0,0.0,0.230,0.0,3276.800,6639883.600,6635422.800,0.0,0.0,6155.800,16184.600
0.925,1.953,97.020,0.0,0.0,0.103,0.0,1638.400,6683291.400,6679142.0,0.0,0.0,6197.200,16324.0
0.453,0.907,98.514,0.0,0.0,0.126,0.0,819.200,2236959.600,2233534.600,0.0,0.0,2480.200,5925.400
