"Dstat 0.7.2 CSV output"
"Author:","Dag Wieers <dag@wieers.com>",,,,"URL:","http://dag.wieers.com/home-made/dstat/"
"Host:","Middleware2",,,,"User:","mstevan"
"Cmdline:","dstat --output /home/mstevan/logs/experiment_3.3/dstat/vs_1024-vcpr_4-wtpm_8-rep_3.csv 5 16",,,,"Date:","28 Oct 2019 14:31:55 UTC"

"total cpu usage",,,,,,"dsk/total",,"net/total",,"paging",,"system",
"usr","sys","idl","wai","hiq","siq","read","writ","recv","send","in","out","int","csw"
0.529,0.882,98.420,0.049,0.0,0.120,8273.350,4735922.306,0.0,0.0,0.0,0.0,2043.619,5920.602
0.677,0.125,99.198,0.0,0.0,0.0,0.0,1638.400,141528.0,136452.400,0.0,0.0,282.400,881.800
4.860,3.335,91.365,0.0,0.0,0.440,0.0,819.200,6825437.600,6823691.200,0.0,0.0,6479.0,24826.800
2.269,2.784,94.818,0.0,0.0,0.129,0.0,1638.400,6758121.600,6753720.400,0.0,0.0,5681.400,24403.800
2.133,3.161,94.449,0.0,0.0,0.257,0.0,3276.800,6805586.0,6800838.600,0.0,0.0,5793.0,24965.200
1.561,3.095,95.063,0.051,0.0,0.230,0.0,31948.800,6774574.0,6772606.400,0.0,0.0,6011.600,24753.0
1.433,3.199,95.138,0.0,0.0,0.230,0.0,4096.0,6765830.400,6761371.0,0.0,0.0,5903.0,24841.400
1.804,2.937,95.053,0.0,0.0,0.206,0.0,9011.200,6689197.800,6686987.400,0.0,0.0,5746.800,24635.400
1.337,3.086,95.372,0.0,0.0,0.206,0.0,1638.400,6903195.0,6898736.0,0.0,0.0,5942.600,25390.600
1.465,2.673,95.682,0.0,0.0,0.180,0.0,1638.400,6759677.600,6755218.200,0.0,0.0,5992.0,24736.400
1.608,3.215,94.922,0.0,0.0,0.255,0.0,819.200,6718214.800,6715985.200,0.0,0.0,5898.400,24594.600
1.432,3.248,95.038,0.077,0.0,0.205,0.0,28672.0,6738623.200,6734147.600,0.0,0.0,5719.800,24730.600
1.281,3.101,95.387,0.0,0.0,0.231,0.0,1638.400,6703383.600,6698941.0,0.0,0.0,5822.200,24639.200
1.432,3.120,95.217,0.0,0.0,0.230,0.0,4915.200,6677621.800,6675351.200,0.0,0.0,5988.600,24533.0
1.406,3.272,95.118,0.0,0.0,0.204,0.0,3276.800,6847329.600,6842870.400,0.0,0.0,5871.200,24953.400
1.352,3.266,95.152,0.0,0.0,0.230,0.0,1638.400,6518091.600,6513704.800,0.0,0.0,5843.800,23834.600
0.025,0.025,99.950,0.0,0.0,0.0,0.0,819.200,3237.800,1100.600,0.0,0.0,45.0,138.200
