"Dstat 0.7.2 CSV output"
"Author:","Dag Wieers <dag@wieers.com>",,,,"URL:","http://dag.wieers.com/home-made/dstat/"
"Host:","Middleware2",,,,"User:","mstevan"
"Cmdline:","dstat --output /home/mstevan/logs/experiment_3.3/dstat/vs_1024-vcpr_4-wtpm_32-rep_3.csv 5 16",,,,"Date:","28 Oct 2019 14:37:37 UTC"

"total cpu usage",,,,,,"dsk/total",,"net/total",,"paging",,"system",
"usr","sys","idl","wai","hiq","siq","read","writ","recv","send","in","out","int","csw"
0.536,0.893,98.402,0.049,0.0,0.121,8222.715,4706977.522,0.0,0.0,0.0,0.0,2070.000,6014.877
0.601,0.075,99.298,0.0,0.0,0.025,0.0,819.200,80283.400,77542.800,0.0,0.0,256.0,736.600
5.992,4.442,89.127,0.0,0.0,0.439,0.0,1638.400,7043117.200,7039433.0,0.0,0.0,9121.0,28782.400
2.648,3.626,93.469,0.0,0.0,0.257,0.0,1638.400,6972673.800,6967989.800,0.0,0.0,9074.600,28363.800
3.386,3.593,92.660,0.052,0.0,0.310,0.0,31948.800,6849824.400,6847819.600,0.0,0.0,9218.0,28136.600
1.725,3.399,94.645,0.0,0.0,0.232,0.0,10649.600,6830369.800,6826108.600,0.0,0.0,9140.0,28102.400
1.815,3.579,94.402,0.0,0.0,0.204,0.0,1638.400,6691663.200,6687120.200,0.0,0.0,8919.600,27625.400
1.414,3.497,94.909,0.0,0.0,0.180,0.0,11468.800,6719907.0,6717244.400,0.0,0.0,9157.200,27665.200
1.444,3.197,95.128,0.0,0.0,0.232,0.0,1638.400,6606247.600,6602587.600,0.0,0.0,9078.0,27422.800
1.688,3.812,94.270,0.0,0.0,0.230,0.0,819.200,6800725.200,6797522.200,0.0,0.0,9318.600,27960.400
1.417,3.426,94.925,0.052,0.0,0.180,0.0,18841.600,6813118.800,6808401.600,0.0,0.0,9362.200,28103.200
1.866,3.732,94.095,0.0,0.0,0.307,0.0,1638.400,6894341.200,6891091.800,0.0,0.0,9518.0,28385.200
1.541,3.571,94.683,0.0,0.0,0.205,0.0,819.200,7039823.800,7037594.200,0.0,0.0,9769.600,28876.600
1.517,3.471,94.806,0.0,0.0,0.206,0.0,6553.600,6927558.600,6923099.400,0.0,0.0,9546.800,28383.800
1.620,3.471,94.729,0.0,0.0,0.180,0.0,2457.600,6843924.600,6839415.600,0.0,0.0,9493.800,28014.400
1.668,3.439,94.661,0.0,0.0,0.231,0.0,819.200,6808873.400,6806957.600,0.0,0.0,9342.800,27824.200
0.075,0.025,99.825,0.075,0.0,0.0,0.0,17203.200,6349.200,1956.0,0.0,0.0,48.200,143.200
