"Dstat 0.7.2 CSV output"
"Author:","Dag Wieers <dag@wieers.com>",,,,"URL:","http://dag.wieers.com/home-made/dstat/"
"Host:","Middleware2",,,,"User:","mstevan"
"Cmdline:","dstat --output /home/mstevan/logs/experiment_3.3/dstat/vs_1024-vcpr_8-wtpm_64-rep_4.csv 5 16",,,,"Date:","28 Oct 2019 15:01:47 UTC"

"total cpu usage",,,,,,"dsk/total",,"net/total",,"paging",,"system",
"usr","sys","idl","wai","hiq","siq","read","writ","recv","send","in","out","int","csw"
0.561,0.934,98.334,0.048,0.0,0.123,8014.238,4587804.649,0.0,0.0,0.0,0.0,2194.235,6354.826
0.853,0.251,98.896,0.0,0.0,0.0,0.0,1638.400,97788.200,92811.800,0.0,0.0,347.0,944.0
5.211,3.578,90.796,0.0,0.0,0.415,0.0,819.200,6553376.0,6554249.600,0.0,0.0,8630.800,24308.200
1.748,3.058,94.629,0.257,0.0,0.308,0.0,43417.600,6448607.200,6444746.0,0.0,0.0,8916.400,23897.200
3.082,3.236,93.451,0.0,0.0,0.231,0.0,2457.600,6401837.800,6401848.200,0.0,0.0,8872.0,24007.400
1.485,3.149,95.161,0.0,0.0,0.205,0.0,1638.400,6286996.600,6284275.800,0.0,0.0,8850.0,23736.400
1.331,3.378,95.036,0.0,0.0,0.256,0.0,4096.0,6380262.800,6377106.200,0.0,0.0,8996.200,24003.800
1.628,3.561,94.456,0.0,0.0,0.356,0.0,9011.200,6388007.0,6387884.400,0.0,0.0,9027.200,24166.400
1.640,3.280,94.799,0.0,0.0,0.282,0.0,1638.400,6386073.800,6382929.800,0.0,0.0,9064.200,24329.800
1.616,2.771,95.151,0.026,0.0,0.436,0.0,17203.200,6370054.0,6367097.200,0.0,0.0,8986.600,24192.200
1.514,3.131,95.022,0.0,0.0,0.334,0.0,819.200,6453235.400,6452675.0,0.0,0.0,9123.600,24573.0
1.335,3.054,95.226,0.0,0.0,0.385,0.0,1638.400,6412417.600,6409721.200,0.0,0.0,9052.200,24364.800
1.534,3.093,95.066,0.0,0.0,0.307,0.0,1638.400,6262530.0,6260465.200,0.0,0.0,8837.800,23684.200
1.154,3.256,95.335,0.0,0.0,0.256,0.0,819.200,6355544.600,6354204.400,0.0,0.0,8885.0,23779.800
1.481,3.372,94.815,0.0,0.0,0.332,0.0,6553.600,6482563.800,6480197.200,0.0,0.0,9223.200,24472.0
1.306,3.150,95.314,0.051,0.0,0.179,0.0,18022.400,6267372.400,6267307.600,0.0,0.0,8861.0,23608.600
0.075,0.025,99.900,0.0,0.0,0.0,0.0,4915.200,6547.200,2061.600,0.0,0.0,46.600,144.0
