"Dstat 0.7.2 CSV output"
"Author:","Dag Wieers <dag@wieers.com>",,,,"URL:","http://dag.wieers.com/home-made/dstat/"
"Host:","Middleware2",,,,"User:","mstevan"
"Cmdline:","dstat --output /home/mstevan/logs/experiment_3.3/dstat/vs_1024-vcpr_16-wtpm_8-rep_3.csv 5 16",,,,"Date:","28 Oct 2019 15:06:03 UTC"

"total cpu usage",,,,,,"dsk/total",,"net/total",,"paging",,"system",
"usr","sys","idl","wai","hiq","siq","read","writ","recv","send","in","out","int","csw"
0.565,0.939,98.325,0.048,0.0,0.124,7978.537,4567399.228,0.0,0.0,0.0,0.0,2211.574,6396.367
0.577,0.176,99.222,0.0,0.0,0.025,0.0,4915.200,115177.800,109264.800,0.0,0.0,206.0,652.0
4.362,2.900,92.430,0.0,0.0,0.308,0.0,1638.400,6702144.800,6698202.600,0.0,0.0,4966.400,16162.200
1.354,2.274,96.192,0.0,0.0,0.179,0.0,1638.400,6676237.600,6674008.200,0.0,0.0,5785.400,15985.800
3.134,2.415,94.041,0.0,0.0,0.411,0.0,3276.800,6638199.0,6633740.600,0.0,0.0,6277.0,16039.0
1.130,1.874,96.842,0.0,0.0,0.154,0.0,819.200,6693431.400,6691201.0,0.0,0.0,6583.800,16139.0
1.945,2.483,95.291,0.0,0.0,0.282,0.0,5734.400,6693489.400,6689050.0,0.0,0.0,6235.0,16178.400
1.278,2.199,96.241,0.077,0.0,0.205,0.0,31948.800,6679861.600,6675402.0,0.0,0.0,6333.600,16086.0
1.076,1.998,96.746,0.0,0.0,0.179,0.0,819.200,6702605.800,6700376.400,0.0,0.0,6583.600,16132.0
0.925,1.927,96.994,0.0,0.0,0.154,0.0,1638.400,6766881.800,6762423.0,0.0,0.0,6823.800,16265.200
1.026,2.077,96.717,0.0,0.0,0.180,0.0,1638.400,6677296.200,6672894.800,0.0,0.0,6683.400,16059.0
1.150,2.069,96.551,0.0,0.0,0.230,0.0,819.200,6690869.0,6688638.800,0.0,0.0,6678.0,16129.600
0.974,2.076,96.822,0.0,0.0,0.128,0.0,1638.400,6715296.600,6710837.800,0.0,0.0,6644.600,16194.200
0.793,2.429,96.420,0.128,0.0,0.230,0.0,23756.800,6714255.200,6709741.200,0.0,0.0,6635.600,16186.0
0.819,2.201,96.750,0.0,0.0,0.230,0.0,5734.400,6686250.0,6684021.800,0.0,0.0,6695.0,16175.400
0.923,1.897,96.975,0.0,0.0,0.205,0.0,2457.600,6539048.800,6534732.0,0.0,0.0,6523.600,15761.800
0.025,0.050,99.925,0.0,0.0,0.0,0.0,819.200,4082.600,1509.800,0.0,0.0,40.600,131.400
