"Dstat 0.7.2 CSV output"
"Author:","Dag Wieers <dag@wieers.com>",,,,"URL:","http://dag.wieers.com/home-made/dstat/"
"Host:","Middleware2",,,,"User:","mstevan"
"Cmdline:","dstat --output /home/mstevan/logs/experiment_3.3/dstat/vs_1024-vcpr_8-wtpm_32-rep_3.csv 5 16",,,,"Date:","28 Oct 2019 14:54:40 UTC"

"total cpu usage",,,,,,"dsk/total",,"net/total",,"paging",,"system",
"usr","sys","idl","wai","hiq","siq","read","writ","recv","send","in","out","int","csw"
0.553,0.921,98.355,0.048,0.0,0.122,8074.451,4622224.472,0.0,0.0,0.0,0.0,2157.638,6254.366
0.651,0.276,99.023,0.0,0.0,0.050,0.0,1638.400,122346.800,117993.200,0.0,0.0,332.600,920.800
5.802,3.186,90.546,0.052,0.0,0.414,0.0,33587.200,6401927.800,6397521.400,0.0,0.0,8054.200,23706.600
1.792,3.097,94.830,0.0,0.0,0.282,0.0,9830.400,6516040.600,6513811.0,0.0,0.0,8248.200,23920.800
3.872,3.330,92.540,0.0,0.0,0.258,0.0,2457.600,6387790.0,6383330.800,0.0,0.0,8108.0,23674.0
1.381,3.120,95.141,0.0,0.0,0.358,0.0,2457.600,6404171.800,6399712.600,0.0,0.0,8166.800,23940.400
1.338,2.882,95.522,0.0,0.0,0.257,0.0,819.200,6414684.200,6412454.600,0.0,0.0,8195.600,23960.600
1.665,2.946,95.082,0.0,0.0,0.307,0.0,12288.0,6351176.0,6346716.800,0.0,0.0,8149.0,23850.400
1.636,3.221,94.709,0.128,0.0,0.307,0.0,16384.0,6337448.600,6332989.400,0.0,0.0,8096.800,23821.200
1.332,3.150,95.237,0.0,0.0,0.282,0.0,819.200,6377031.600,6374761.200,0.0,0.0,8235.200,24115.0
1.593,2.903,95.145,0.0,0.0,0.360,0.0,1638.400,6423457.200,6419017.200,0.0,0.0,8197.0,24174.0
1.505,3.342,94.770,0.0,0.0,0.383,0.0,819.200,6376060.0,6371584.0,0.0,0.0,8127.600,23961.600
1.480,3.367,94.847,0.0,0.0,0.306,0.0,1638.400,6370430.0,6368275.200,0.0,0.0,8075.200,23835.800
1.379,3.321,94.968,0.0,0.0,0.332,0.0,5734.400,6345408.800,6340949.600,0.0,0.0,8035.600,23733.800
1.386,2.823,95.535,0.026,0.0,0.231,0.0,18022.400,6332466.600,6330342.600,0.0,0.0,8049.0,23691.400
1.105,2.956,95.708,0.0,0.0,0.231,0.0,1638.400,6319884.600,6315531.0,0.0,0.0,8017.600,23638.400
0.075,0.025,99.900,0.0,0.0,0.0,0.0,1638.400,6771.600,2167.200,0.0,0.0,40.800,132.0
