"Dstat 0.7.2 CSV output"
"Author:","Dag Wieers <dag@wieers.com>",,,,"URL:","http://dag.wieers.com/home-made/dstat/"
"Host:","Middleware2",,,,"User:","mstevan"
"Cmdline:","dstat --output /home/mstevan/logs/experiment_3.3/dstat/vs_1024-vcpr_8-wtpm_32-rep_2.csv 5 16",,,,"Date:","28 Oct 2019 14:53:15 UTC"

"total cpu usage",,,,,,"dsk/total",,"net/total",,"paging",,"system",
"usr","sys","idl","wai","hiq","siq","read","writ","recv","send","in","out","int","csw"
0.552,0.919,98.359,0.048,0.0,0.122,8086.601,4629171.715,0.0,0.0,0.0,0.0,2151.002,6234.172
0.953,0.251,98.721,0.0,0.0,0.075,0.0,819.200,189553.800,184648.600,0.0,0.0,427.800,1192.800
5.399,3.487,90.623,0.0,0.0,0.491,0.0,1638.400,6446598.600,6444920.600,0.0,0.0,8016.400,23612.400
1.535,3.173,94.857,0.0,0.0,0.435,0.0,819.200,6466490.600,6464280.200,0.0,0.0,7995.600,23809.400
4.248,3.424,91.916,0.0,0.0,0.412,0.0,3276.800,6390258.600,6385504.600,0.0,0.0,7997.400,23814.400
1.228,3.453,95.064,0.0,0.0,0.256,0.0,1638.400,6473053.600,6468947.200,0.0,0.0,8111.0,24139.200
1.481,3.320,94.893,0.0,0.0,0.306,0.0,3276.800,6419752.800,6417523.200,0.0,0.0,8017.0,23942.600
1.481,3.370,94.843,0.051,0.0,0.255,0.0,40960.0,6395622.800,6391216.400,0.0,0.0,7926.0,23841.0
1.280,3.303,95.160,0.0,0.0,0.256,0.0,1638.400,6487793.800,6483334.600,0.0,0.0,8069.200,24163.800
1.179,3.153,95.360,0.0,0.0,0.308,0.0,819.200,6515238.200,6513008.600,0.0,0.0,8084.0,24251.200
1.153,3.203,95.336,0.0,0.0,0.308,0.0,1638.400,6452746.800,6448254.0,0.0,0.0,7998.200,24047.800
1.333,3.050,95.360,0.0,0.0,0.256,0.0,1638.400,6293090.600,6288665.0,0.0,0.0,7771.800,23403.800
1.202,3.324,95.167,0.0,0.0,0.307,0.0,819.200,6390109.0,6387329.0,0.0,0.0,7911.800,23775.600
1.334,2.874,95.407,0.051,0.0,0.334,0.0,18841.600,6341052.600,6337103.0,0.0,0.0,7824.800,23618.400
1.456,3.143,95.018,0.0,0.0,0.383,0.0,5734.400,6416537.600,6414294.800,0.0,0.0,7924.0,24008.400
1.177,3.224,95.343,0.0,0.0,0.256,0.0,2457.600,6321734.600,6317367.800,0.0,0.0,7825.600,23590.0
0.050,0.050,99.900,0.0,0.0,0.0,0.0,1638.400,7532.0,2899.200,0.0,0.0,56.0,168.400
