"Dstat 0.7.2 CSV output"
"Author:","Dag Wieers <dag@wieers.com>",,,,"URL:","http://dag.wieers.com/home-made/dstat/"
"Host:","Middleware2",,,,"User:","mstevan"
"Cmdline:","dstat --output /home/mstevan/logs/experiment_3.3/dstat/vs_1024-vcpr_16-wtpm_8-rep_2.csv 5 16",,,,"Date:","28 Oct 2019 15:04:37 UTC"

"total cpu usage",,,,,,"dsk/total",,"net/total",,"paging",,"system",
"usr","sys","idl","wai","hiq","siq","read","writ","recv","send","in","out","int","csw"
0.564,0.938,98.327,0.048,0.0,0.123,7990.401,4574179.607,0.0,0.0,0.0,0.0,2206.539,6385.500
0.451,0.175,99.349,0.0,0.0,0.025,0.0,1638.400,77620.400,71611.600,0.0,0.0,177.200,578.600
3.815,2.206,93.641,0.0,0.0,0.337,0.0,1638.400,7001084.400,6997548.0,0.0,0.0,5277.800,16678.800
1.079,2.056,96.736,0.0,0.0,0.129,0.0,819.200,6916107.800,6913878.0,0.0,0.0,6812.200,16443.600
3.345,2.136,94.236,0.0,0.0,0.283,0.0,3276.800,6926341.400,6921882.600,0.0,0.0,6766.600,16642.600
1.079,1.927,96.686,0.051,0.0,0.257,0.0,31948.800,6947125.200,6942612.800,0.0,0.0,6749.0,16805.800
2.111,2.059,95.573,0.0,0.0,0.257,0.0,13107.200,6885756.800,6883526.600,0.0,0.0,6707.800,16707.0
0.898,2.130,96.741,0.0,0.0,0.231,0.0,9830.400,6900224.800,6895765.600,0.0,0.0,6884.800,16691.400
0.847,2.105,96.792,0.0,0.0,0.257,0.0,819.200,6864067.800,6861838.0,0.0,0.0,7013.600,16631.0
1.150,2.402,96.269,0.0,0.0,0.179,0.0,1638.400,6848955.0,6844495.800,0.0,0.0,7073.800,16526.600
1.002,1.876,96.839,0.0,0.0,0.283,0.0,1638.400,6888944.200,6884486.800,0.0,0.0,7130.0,16559.400
0.872,2.358,96.591,0.0,0.0,0.179,0.0,819.200,6924015.800,6921803.200,0.0,0.0,7160.200,16767.800
0.847,2.156,96.664,0.026,0.0,0.308,0.0,18841.600,6909789.800,6905330.600,0.0,0.0,7077.200,16708.400
0.871,2.459,96.414,0.0,0.0,0.256,0.0,5734.400,6935838.200,6931373.800,0.0,0.0,7001.400,16752.800
1.203,2.201,96.366,0.0,0.0,0.230,0.0,2457.600,6862809.400,6860568.600,0.0,0.0,6804.200,16518.0
1.410,2.307,95.975,0.0,0.0,0.308,0.0,1638.400,6780531.600,6776293.800,0.0,0.0,6741.400,16411.400
0.100,0.0,99.900,0.0,0.0,0.0,0.0,1638.400,7260.400,2490.400,0.0,0.0,47.600,138.800
