"Dstat 0.7.2 CSV output"
"Author:","Dag Wieers <dag@wieers.com>",,,,"URL:","http://dag.wieers.com/home-made/dstat/"
"Host:","Middleware2",,,,"User:","mstevan"
"Cmdline:","dstat --output /home/mstevan/logs/experiment_3.3/dstat/vs_1024-vcpr_32-wtpm_8-rep_2.csv 5 16",,,,"Date:","28 Oct 2019 15:21:41 UTC"

"total cpu usage",,,,,,"dsk/total",,"net/total",,"paging",,"system",
"usr","sys","idl","wai","hiq","siq","read","writ","recv","send","in","out","int","csw"
0.579,0.959,98.290,0.047,0.0,0.126,7850.315,4494116.304,0.0,0.0,0.0,0.0,2255.460,6523.641
0.702,0.125,99.173,0.0,0.0,0.0,0.0,819.200,123395.800,116944.600,0.0,0.0,251.800,749.0
4.101,2.218,93.294,0.052,0.0,0.335,0.0,34406.400,6729710.0,6725972.0,0.0,0.0,5621.0,16121.800
1.282,1.821,96.564,0.0,0.0,0.333,0.0,1638.400,6727980.800,6723655.600,0.0,0.0,6202.800,16054.0
3.494,2.441,93.782,0.0,0.0,0.283,0.0,2457.600,6692450.600,6691327.200,0.0,0.0,6007.600,15969.400
0.996,2.478,96.373,0.0,0.0,0.153,0.0,1638.400,6675669.600,6669829.200,0.0,0.0,6192.800,16132.800
0.996,2.273,96.475,0.0,0.0,0.255,0.0,5734.400,6723625.600,6719716.800,0.0,0.0,6158.200,16219.400
1.176,2.044,96.550,0.0,0.0,0.230,0.0,9011.200,6695253.400,6693807.600,0.0,0.0,6340.600,16125.600
0.995,2.322,96.377,0.051,0.0,0.255,0.0,22937.600,6678936.200,6673677.200,0.0,0.0,6370.200,16096.400
1.024,1.997,96.748,0.0,0.0,0.230,0.0,819.200,6743541.0,6742002.400,0.0,0.0,6437.0,16302.0
1.866,2.198,95.707,0.0,0.0,0.230,0.0,1638.400,6666277.400,6661927.800,0.0,0.0,6247.200,16140.200
1.299,2.318,96.103,0.0,0.0,0.280,0.0,1638.400,6637633.400,6633034.0,0.0,0.0,6101.400,16057.400
1.129,1.899,96.818,0.0,0.0,0.154,0.0,819.200,6689720.400,6687523.800,0.0,0.0,6080.800,16059.400
0.874,1.800,97.197,0.0,0.0,0.129,0.0,5734.400,6672912.800,6667262.800,0.0,0.0,6141.200,16088.200
0.951,1.877,96.915,0.077,0.0,0.180,0.0,20480.0,6692806.600,6688865.200,0.0,0.0,6273.400,16111.600
1.118,2.567,96.086,0.0,0.0,0.229,0.0,819.200,6550772.800,6549656.200,0.0,0.0,6159.200,15774.600
0.100,0.025,99.875,0.0,0.0,0.0,0.0,1638.400,8870.400,3223.200,0.0,0.0,44.600,138.800
