"Dstat 0.7.2 CSV output"
"Author:","Dag Wieers <dag@wieers.com>",,,,"URL:","http://dag.wieers.com/home-made/dstat/"
"Host:","Middleware2",,,,"User:","mstevan"
"Cmdline:","dstat --output /home/mstevan/logs/experiment_3.3/dstat/vs_1024-vcpr_32-wtpm_8-rep_1.csv 5 16",,,,"Date:","28 Oct 2019 15:20:16 UTC"

"total cpu usage",,,,,,"dsk/total",,"net/total",,"paging",,"system",
"usr","sys","idl","wai","hiq","siq","read","writ","recv","send","in","out","int","csw"
0.578,0.957,98.292,0.047,0.0,0.126,7861.800,4500681.673,0.0,0.0,0.0,0.0,2250.757,6512.982
0.676,0.175,99.074,0.075,0.0,0.0,0.0,32768.0,165214.0,160568.600,0.0,0.0,243.400,743.800
5.391,2.708,91.617,0.0,0.0,0.284,0.0,1638.400,6735299.600,6728998.800,0.0,0.0,5910.800,15916.600
1.227,2.300,96.243,0.0,0.0,0.230,0.0,2457.600,6745700.0,6740844.800,0.0,0.0,6495.200,16266.600
3.302,2.270,94.195,0.0,0.0,0.232,0.0,1638.400,6805525.600,6804978.600,0.0,0.0,6518.0,16388.600
0.974,2.101,96.771,0.0,0.0,0.154,0.0,1638.400,6744444.600,6739585.200,0.0,0.0,6529.800,16434.200
1.099,2.095,96.551,0.0,0.0,0.255,0.0,4915.200,6800076.0,6795033.600,0.0,0.0,6529.800,16539.600
1.046,2.321,96.429,0.026,0.0,0.179,0.0,26214.400,6797529.600,6796457.0,0.0,0.0,6617.600,16568.400
0.995,2.321,96.454,0.0,0.0,0.230,0.0,9011.200,6794380.400,6790129.800,0.0,0.0,6595.600,16514.0
0.869,2.224,96.677,0.0,0.0,0.230,0.0,1638.400,6767905.600,6763163.0,0.0,0.0,6604.0,16548.0
1.662,2.225,95.908,0.0,0.0,0.205,0.0,819.200,6820999.400,6817722.200,0.0,0.0,6614.600,16622.200
1.072,2.450,96.274,0.0,0.0,0.204,0.0,1638.400,6743598.400,6740745.600,0.0,0.0,6511.0,16431.400
1.025,2.024,96.747,0.0,0.0,0.205,0.0,819.200,6738085.200,6734378.800,0.0,0.0,6514.200,16434.800
0.819,2.047,96.827,0.051,0.0,0.256,0.0,20480.0,6732458.600,6727200.400,0.0,0.0,6480.600,16399.400
0.972,2.098,96.777,0.0,0.0,0.153,0.0,3276.800,6801988.400,6797822.0,0.0,0.0,6636.400,16542.800
1.122,2.396,96.278,0.0,0.0,0.204,0.0,819.200,6836433.0,6834898.400,0.0,0.0,6573.200,16546.800
0.680,0.680,98.564,0.0,0.0,0.076,0.0,1638.400,1912554.0,1908830.0,0.0,0.0,1873.400,4476.200
