"Dstat 0.7.2 CSV output"
"Author:","Dag Wieers <dag@wieers.com>",,,,"URL:","http://dag.wieers.com/home-made/dstat/"
"Host:","Middleware2",,,,"User:","mstevan"
"Cmdline:","dstat --output /home/mstevan/logs/experiment_3.3/dstat/vs_256-vcpr_8-wtpm_8-rep_2.csv 5 16",,,,"Date:","28 Oct 2019 12:30:57 UTC"

"total cpu usage",,,,,,"dsk/total",,"net/total",,"paging",,"system",
"usr","sys","idl","wai","hiq","siq","read","writ","recv","send","in","out","int","csw"
0.278,0.434,99.178,0.054,0.0,0.055,9520.715,5448921.042,0.0,0.0,0.0,0.0,998.616,2932.722
0.676,0.200,99.099,0.0,0.0,0.025,0.0,1638.400,43937.200,38609.400,0.0,0.0,222.200,688.200
4.867,3.696,91.020,0.0,0.0,0.416,0.0,1638.400,3533031.800,3531191.200,0.0,0.0,7077.200,23676.600
3.395,3.110,93.055,0.0,0.0,0.441,0.0,1638.400,3492933.600,3488507.800,0.0,0.0,8790.600,23433.800
1.476,2.953,95.312,0.0,0.0,0.259,0.0,2457.600,3489241.400,3484768.0,0.0,0.0,8923.200,23450.400
1.220,3.037,95.379,0.182,0.0,0.182,0.0,31129.600,3523553.800,3521283.400,0.0,0.0,8888.600,23828.400
1.398,3.030,95.262,0.0,0.0,0.311,0.0,4096.0,3564861.200,3560402.0,0.0,0.0,8995.600,23985.600
1.191,3.238,95.234,0.0,0.0,0.337,0.0,9830.400,3570946.600,3566262.600,0.0,0.0,8877.600,24001.600
1.245,2.827,95.617,0.0,0.0,0.311,0.0,819.200,3494460.0,3492376.600,0.0,0.0,8946.400,23552.0
1.066,2.886,95.840,0.0,0.0,0.208,0.0,1638.400,3472675.200,3468281.800,0.0,0.0,8854.800,23350.200
1.341,3.223,95.049,0.0,0.0,0.387,0.0,1638.400,3506685.400,3502225.400,0.0,0.0,8986.400,23508.800
1.241,3.232,95.294,0.0,0.0,0.233,0.0,6553.600,3471081.400,3468375.600,0.0,0.0,8983.800,23408.200
1.366,3.222,95.026,0.077,0.0,0.309,0.0,17203.200,3500609.200,3496693.800,0.0,0.0,9105.200,23463.600
1.220,2.726,95.794,0.0,0.0,0.260,0.0,4915.200,3511078.0,3508631.200,0.0,0.0,9301.800,23515.800
1.344,3.076,95.296,0.0,0.0,0.284,0.0,3276.800,3445617.400,3440760.400,0.0,0.0,9037.400,23290.800
1.087,3.287,95.367,0.0,0.0,0.259,0.0,1638.400,3454780.200,3450984.0,0.0,0.0,9130.400,23388.400
0.050,0.050,99.900,0.0,0.0,0.0,0.0,819.200,3887.400,1650.600,0.0,0.0,45.800,139.0
