"Dstat 0.7.2 CSV output"
"Author:","Dag Wieers <dag@wieers.com>",,,,"URL:","http://dag.wieers.com/home-made/dstat/"
"Host:","Middleware2",,,,"User:","mstevan"
"Cmdline:","dstat --output /home/mstevan/logs/experiment_3.3/dstat/vs_256-vcpr_32-wtpm_32-rep_3.csv 5 16",,,,"Date:","28 Oct 2019 13:12:10 UTC"

"total cpu usage",,,,,,"dsk/total",,"net/total",,"paging",,"system",
"usr","sys","idl","wai","hiq","siq","read","writ","recv","send","in","out","int","csw"
0.375,0.609,98.883,0.052,0.0,0.081,9055.454,5182967.034,0.0,0.0,0.0,0.0,1434.949,4132.017
0.703,0.276,98.946,0.0,0.0,0.075,0.0,36044.800,72984.200,69241.800,0.0,0.0,312.800,951.800
6.607,5.360,86.601,0.0,0.0,1.433,0.0,1638.400,5344549.800,5339426.800,0.0,0.0,8071.200,27122.0
4.414,5.623,88.728,0.0,0.0,1.235,0.0,2457.600,5374354.400,5369895.800,0.0,0.0,9223.600,27650.200
2.075,4.991,91.883,0.0,0.0,1.051,0.0,1638.400,5341066.200,5338001.800,0.0,0.0,10002.800,27557.600
2.865,5.046,91.038,0.0,0.0,1.051,0.0,1638.400,5321000.400,5317374.800,0.0,0.0,9766.0,27263.400
3.187,5.460,90.125,0.0,0.0,1.228,0.0,5734.400,5289263.800,5284864.0,0.0,0.0,9343.200,26913.200
2.701,5.427,90.718,0.026,0.0,1.127,0.0,26214.400,5315965.600,5313735.400,0.0,0.0,9395.600,26998.200
2.994,5.515,90.257,0.0,0.0,1.234,0.0,9830.400,5437178.800,5432720.200,0.0,0.0,9719.0,27959.600
2.690,4.562,91.535,0.0,0.0,1.213,0.0,1638.400,5293136.400,5288636.800,0.0,0.0,9463.0,27215.600
2.258,5.121,91.492,0.0,0.0,1.129,0.0,819.200,5338308.800,5335081.0,0.0,0.0,9706.0,27577.600
2.386,4.984,91.569,0.0,0.0,1.060,0.0,1638.400,5431422.200,5427960.200,0.0,0.0,9717.600,27996.200
2.413,5.299,91.159,0.0,0.0,1.128,0.0,819.200,5340160.200,5337930.0,0.0,0.0,9503.800,27551.600
1.823,4.886,92.102,0.106,0.0,1.083,0.0,19660.800,5320842.200,5316384.0,0.0,0.0,9647.0,27496.200
2.547,5.068,91.282,0.0,0.0,1.103,0.0,3276.800,5401324.200,5396883.600,0.0,0.0,9748.800,28095.200
1.908,5.593,91.453,0.0,0.0,1.045,0.0,819.200,5316885.600,5314515.800,0.0,0.0,9716.0,27713.800
0.376,0.452,99.122,0.0,0.0,0.050,0.0,1638.400,307806.600,302595.0,0.0,0.0,1342.400,3305.600
