"Dstat 0.7.2 CSV output"
"Author:","Dag Wieers <dag@wieers.com>",,,,"URL:","http://dag.wieers.com/home-made/dstat/"
"Host:","Middleware2",,,,"User:","mstevan"
"Cmdline:","dstat --output /home/mstevan/logs/experiment_3.3/dstat/vs_256-vcpr_4-wtpm_32-rep_3.csv 5 16",,,,"Date:","28 Oct 2019 12:21:00 UTC"

"total cpu usage",,,,,,"dsk/total",,"net/total",,"paging",,"system",
"usr","sys","idl","wai","hiq","siq","read","writ","recv","send","in","out","int","csw"
0.258,0.400,99.234,0.055,0.0,0.053,9640.267,5517263.283,0.0,0.0,0.0,0.0,895.989,2657.666
0.802,0.226,98.947,0.0,0.0,0.025,0.0,819.200,53211.600,51229.200,0.0,0.0,358.400,1028.0
5.440,4.191,90.005,0.052,0.0,0.312,0.0,31948.800,2757218.600,2752472.400,0.0,0.0,9930.0,30930.400
3.008,3.941,92.740,0.0,0.0,0.311,0.0,2457.600,2812075.200,2807875.200,0.0,0.0,10459.0,31649.600
3.476,3.995,92.192,0.0,0.0,0.337,0.0,1638.400,2840016.0,2837221.200,0.0,0.0,10735.400,32163.400
2.149,3.676,93.813,0.0,0.0,0.362,0.0,1638.400,2810309.400,2806505.600,0.0,0.0,10666.800,31853.0
2.114,3.791,93.863,0.0,0.0,0.232,0.0,1638.400,2814958.600,2810482.600,0.0,0.0,10733.800,31946.200
1.607,3.759,94.322,0.0,0.0,0.311,0.0,11468.800,2829303.600,2827090.800,0.0,0.0,10719.800,32048.0
2.087,4.225,93.405,0.052,0.0,0.232,0.0,15564.800,2777755.600,2773354.400,0.0,0.0,10562.600,31535.600
1.736,4.017,93.962,0.0,0.0,0.285,0.0,7372.800,2763964.0,2761693.600,0.0,0.0,10475.600,31627.600
1.855,4.458,93.301,0.0,0.0,0.386,0.0,1638.400,2810086.800,2805452.200,0.0,0.0,10627.800,32163.200
1.884,4.233,93.573,0.0,0.0,0.310,0.0,1638.400,2746241.400,2741957.600,0.0,0.0,10336.0,31395.800
1.832,4.128,93.782,0.0,0.0,0.258,0.0,819.200,2742228.800,2739999.200,0.0,0.0,10431.400,31229.600
1.919,3.786,94.009,0.0,0.0,0.285,0.0,6553.600,2801114.600,2796324.800,0.0,0.0,10743.600,31832.400
1.556,4.071,94.141,0.052,0.0,0.181,0.0,17203.200,2787294.0,2782752.600,0.0,0.0,10744.800,31646.800
1.979,4.163,93.575,0.0,0.0,0.283,0.0,819.200,2694476.200,2692936.600,0.0,0.0,10335.400,30693.400
0.100,0.225,99.675,0.0,0.0,0.0,0.0,1638.400,6774.400,2400.400,0.0,0.0,144.0,340.400
