"Dstat 0.7.2 CSV output"
"Author:","Dag Wieers <dag@wieers.com>",,,,"URL:","http://dag.wieers.com/home-made/dstat/"
"Host:","Middleware2",,,,"User:","mstevan"
"Cmdline:","dstat --output /home/mstevan/logs/experiment_3.3/dstat/vs_256-vcpr_16-wtpm_32-rep_4.csv 5 16",,,,"Date:","28 Oct 2019 12:56:32 UTC"

"total cpu usage",,,,,,"dsk/total",,"net/total",,"paging",,"system",
"usr","sys","idl","wai","hiq","siq","read","writ","recv","send","in","out","int","csw"
0.337,0.540,99.001,0.053,0.0,0.069,9226.472,5280720.116,0.0,0.0,0.0,0.0,1275.051,3697.106
0.726,0.225,99.023,0.0,0.0,0.025,0.0,1638.400,53842.800,48732.800,0.0,0.0,256.200,794.200
7.356,6.245,84.917,0.0,0.0,1.482,0.0,1638.400,4973912.600,4969624.600,0.0,0.0,10523.400,34711.0
4.639,6.695,87.586,0.0,0.0,1.081,0.0,819.200,5105975.400,5102890.400,0.0,0.0,11206.400,35978.800
4.268,5.980,88.514,0.079,0.0,1.159,0.0,34406.400,5019509.200,5015479.0,0.0,0.0,10533.800,34780.0
3.159,6.136,89.608,0.0,0.0,1.097,0.0,8192.0,5144236.0,5142392.400,0.0,0.0,11131.200,36226.400
2.887,6.736,89.311,0.0,0.0,1.066,0.0,4915.200,5176840.800,5172381.400,0.0,0.0,11402.400,36657.400
2.562,5.961,90.196,0.0,0.0,1.281,0.0,9830.400,5136441.200,5131981.400,0.0,0.0,11326.600,36378.0
2.348,5.777,90.873,0.0,0.0,1.002,0.0,819.200,5103646.600,5100523.800,0.0,0.0,11309.600,36050.800
2.721,6.997,89.324,0.0,0.0,0.959,0.0,1638.400,5157073.200,5153332.600,0.0,0.0,11425.400,36337.800
2.718,6.323,89.757,0.052,0.0,1.150,0.0,18841.600,5008515.0,5004413.400,0.0,0.0,11156.800,35454.600
2.601,6.502,89.675,0.0,0.0,1.222,0.0,819.200,5113951.200,5111721.400,0.0,0.0,11264.400,36147.0
2.657,6.077,90.213,0.0,0.0,1.052,0.0,1638.400,5238898.600,5233793.200,0.0,0.0,11591.400,37155.400
2.995,6.589,89.349,0.0,0.0,1.068,0.0,5734.400,5153093.800,5148937.800,0.0,0.0,11368.800,36273.400
2.653,5.910,90.544,0.0,0.0,0.893,0.0,2457.600,5212484.800,5210598.800,0.0,0.0,11623.800,36794.0
2.416,5.336,91.027,0.0,0.0,1.221,0.0,1638.400,5124125.800,5119723.600,0.0,0.0,11510.600,36037.0
0.075,0.025,99.900,0.0,0.0,0.0,0.0,819.200,3660.200,1298.600,0.0,0.0,44.200,116.200
