"Dstat 0.7.2 CSV output"
"Author:","Dag Wieers <dag@wieers.com>",,,,"URL:","http://dag.wieers.com/home-made/dstat/"
"Host:","Middleware2",,,,"User:","mstevan"
"Cmdline:","dstat --output /home/mstevan/logs/experiment_3.3/dstat/vs_256-vcpr_32-wtpm_64-rep_2.csv 5 16",,,,"Date:","28 Oct 2019 13:16:26 UTC"

"total cpu usage",,,,,,"dsk/total",,"net/total",,"paging",,"system",
"usr","sys","idl","wai","hiq","siq","read","writ","recv","send","in","out","int","csw"
0.386,0.630,98.846,0.052,0.0,0.086,9009.907,5156932.937,0.0,0.0,0.0,0.0,1468.651,4234.440
0.852,0.401,98.722,0.0,0.0,0.025,0.0,1638.400,63443.400,56803.0,0.0,0.0,350.600,998.200
7.325,7.139,83.519,0.0,0.0,2.017,0.0,2457.600,5844377.0,5841639.200,0.0,0.0,9674.400,32372.600
3.568,6.950,87.711,0.0,0.0,1.771,0.0,819.200,6064805.600,6062575.800,0.0,0.0,10442.800,33501.600
2.739,7.085,88.201,0.0,0.0,1.975,0.0,1638.400,5997598.600,5993055.600,0.0,0.0,10531.600,33728.200
4.731,7.423,85.912,0.052,0.0,1.882,0.0,36044.800,6094160.800,6091930.800,0.0,0.0,10570.400,34314.800
4.226,7.441,86.181,0.0,0.0,2.152,0.0,5734.400,5942957.600,5938428.0,0.0,0.0,9931.400,32768.200
3.910,7.085,86.959,0.0,0.0,2.047,0.0,9830.400,5899536.0,5895288.800,0.0,0.0,9935.0,32893.0
3.443,6.544,87.963,0.0,0.0,2.050,0.0,2457.600,5958109.0,5955156.800,0.0,0.0,10057.400,33348.0
3.940,7.309,86.807,0.0,0.0,1.944,0.0,1638.400,5936575.800,5932839.400,0.0,0.0,10187.400,33451.0
3.515,7.524,86.930,0.0,0.0,2.031,0.0,1638.400,6015870.800,6010340.600,0.0,0.0,10119.600,33775.400
3.412,7.320,86.924,0.078,0.0,2.266,0.0,27852.800,5900837.600,5899658.0,0.0,0.0,10077.800,33173.400
3.119,7.434,87.575,0.0,0.0,1.872,0.0,1638.400,5895766.0,5891307.400,0.0,0.0,10214.400,33424.600
2.850,6.980,88.314,0.0,0.0,1.856,0.0,4915.200,5966241.800,5963283.400,0.0,0.0,10426.600,33660.600
2.779,6.789,88.624,0.0,0.0,1.809,0.0,4915.200,6039080.200,6034152.600,0.0,0.0,10573.600,33900.400
3.086,7.287,87.811,0.0,0.0,1.815,0.0,1638.400,5834153.400,5831005.0,0.0,0.0,10225.800,32831.600
0.0,0.025,99.975,0.0,0.0,0.0,0.0,819.200,3237.800,1087.400,0.0,0.0,42.200,130.800
