"Dstat 0.7.2 CSV output"
"Author:","Dag Wieers <dag@wieers.com>",,,,"URL:","http://dag.wieers.com/home-made/dstat/"
"Host:","Middleware2",,,,"User:","mstevan"
"Cmdline:","dstat --output /home/mstevan/logs/experiment_3.3/dstat/vs_256-vcpr_16-wtpm_64-rep_1.csv 5 16",,,,"Date:","28 Oct 2019 12:57:57 UTC"

"total cpu usage",,,,,,"dsk/total",,"net/total",,"paging",,"system",
"usr","sys","idl","wai","hiq","siq","read","writ","recv","send","in","out","int","csw"
0.341,0.548,98.988,0.053,0.0,0.071,9210.660,5271682.212,0.0,0.0,0.0,0.0,1288.715,3741.623
0.802,0.326,98.822,0.0,0.0,0.050,0.0,1638.400,39640.600,36031.0,0.0,0.0,320.600,906.0
8.194,7.346,82.896,0.0,0.0,1.565,0.0,819.200,4820122.0,4817952.400,0.0,0.0,14989.200,42897.600
5.379,7.258,86.005,0.0,0.0,1.358,0.0,1638.400,5020247.0,5015787.800,0.0,0.0,16124.0,45164.200
3.192,7.692,88.069,0.0,0.0,1.047,0.0,3276.800,4962951.800,4958519.0,0.0,0.0,16125.400,44738.400
3.019,7.351,88.448,0.0,0.0,1.181,0.0,819.200,5032799.400,5030647.0,0.0,0.0,16578.200,45626.400
3.190,7.218,88.154,0.209,0.0,1.229,0.0,36864.0,5028526.0,5024033.600,0.0,0.0,16580.200,45676.0
3.079,7.542,88.283,0.0,0.0,1.096,0.0,9830.400,5003781.600,4999355.600,0.0,0.0,16566.600,45356.600
3.888,7.020,88.048,0.0,0.0,1.044,0.0,819.200,4884543.800,4882301.0,0.0,0.0,16192.600,44615.0
3.139,7.298,88.308,0.0,0.0,1.256,0.0,1638.400,4958990.0,4954530.800,0.0,0.0,16329.200,45185.200
3.244,7.091,88.488,0.0,0.0,1.177,0.0,1638.400,4908670.400,4904211.200,0.0,0.0,16120.200,44323.400
2.995,7.448,88.490,0.0,0.0,1.068,0.0,819.200,4908040.600,4905811.0,0.0,0.0,16267.400,44844.0
3.348,6.433,89.085,0.079,0.0,1.055,0.0,19660.800,4922867.600,4917888.400,0.0,0.0,16244.800,44647.400
3.044,7.156,88.603,0.0,0.0,1.197,0.0,8192.0,4922181.600,4920215.800,0.0,0.0,16371.0,44432.200
2.994,6.828,88.997,0.0,0.0,1.182,0.0,6553.600,4972075.800,4968135.600,0.0,0.0,16371.200,44802.800
2.995,7.422,88.594,0.0,0.0,0.990,0.0,2457.600,4860130.800,4855882.800,0.0,0.0,16331.800,44599.600
0.050,0.0,99.950,0.0,0.0,0.0,0.0,819.200,3237.800,1074.200,0.0,0.0,35.0,110.800
