"Dstat 0.7.2 CSV output"
"Author:","Dag Wieers <dag@wieers.com>",,,,"URL:","http://dag.wieers.com/home-made/dstat/"
"Host:","Middleware2",,,,"User:","mstevan"
"Cmdline:","dstat --output /home/mstevan/logs/experiment_3.3/dstat/vs_256-vcpr_32-wtpm_8-rep_2.csv 5 16",,,,"Date:","28 Oct 2019 13:05:04 UTC"

"total cpu usage",,,,,,"dsk/total",,"net/total",,"paging",,"system",
"usr","sys","idl","wai","hiq","siq","read","writ","recv","send","in","out","int","csw"
0.362,0.587,98.922,0.053,0.0,0.077,9132.393,5226944.422,0.0,0.0,0.0,0.0,1380.240,3990.169
0.677,0.175,99.048,0.0,0.0,0.100,0.0,1638.400,75438.0,68984.400,0.0,0.0,225.0,799.0
5.547,3.715,90.293,0.0,0.0,0.445,0.0,819.200,3513359.400,3509460.600,0.0,0.0,6448.400,22915.600
4.120,3.654,91.760,0.0,0.0,0.466,0.0,1638.400,3508692.800,3505012.200,0.0,0.0,8229.200,22929.200
1.501,3.236,94.952,0.0,0.0,0.311,0.0,3276.800,3452339.200,3447797.600,0.0,0.0,8882.600,22737.0
1.402,3.296,95.017,0.0,0.0,0.285,0.0,819.200,3534642.0,3532454.200,0.0,0.0,9505.400,23204.600
1.422,3.257,94.907,0.052,0.0,0.362,0.0,27852.800,3525345.600,3520861.400,0.0,0.0,9700.0,23169.400
2.315,2.966,94.303,0.0,0.0,0.416,0.0,18022.400,3531963.400,3527503.400,0.0,0.0,9903.800,23322.200
1.273,3.092,95.271,0.0,0.0,0.364,0.0,819.200,3493528.400,3491301.400,0.0,0.0,9854.600,23054.400
1.427,3.348,94.965,0.0,0.0,0.260,0.0,1638.400,3521309.200,3516848.200,0.0,0.0,9877.0,23075.600
1.498,3.410,94.678,0.0,0.0,0.413,0.0,819.200,3498665.0,3496435.400,0.0,0.0,9862.800,22932.200
1.652,3.382,94.657,0.0,0.0,0.310,0.0,1638.400,3572821.800,3568357.800,0.0,0.0,9859.0,23466.200
1.268,3.364,94.850,0.078,0.0,0.440,0.0,16384.0,3579347.0,3574892.200,0.0,0.0,9727.600,23482.400
1.522,3.431,94.711,0.0,0.0,0.335,0.0,4915.200,3440673.400,3438445.400,0.0,0.0,9538.200,22614.600
1.605,3.132,94.952,0.0,0.0,0.311,0.0,3276.800,3552793.0,3548115.800,0.0,0.0,9506.800,23201.200
1.571,3.477,94.540,0.0,0.0,0.412,0.0,1638.400,3511262.200,3507249.400,0.0,0.0,9380.800,22979.800
0.478,0.729,98.717,0.0,0.0,0.075,0.0,819.200,706210.0,702897.0,0.0,0.0,1532.400,4641.0
