"Dstat 0.7.2 CSV output"
"Author:","Dag Wieers <dag@wieers.com>",,,,"URL:","http://dag.wieers.com/home-made/dstat/"
"Host:","Middleware2",,,,"User:","mstevan"
"Cmdline:","dstat --output /home/mstevan/logs/experiment_3.3/dstat/vs_256-vcpr_16-wtpm_64-rep_2.csv 5 16",,,,"Date:","28 Oct 2019 12:59:23 UTC"

"total cpu usage",,,,,,"dsk/total",,"net/total",,"paging",,"system",
"usr","sys","idl","wai","hiq","siq","read","writ","recv","send","in","out","int","csw"
0.345,0.557,98.973,0.053,0.0,0.072,9194.899,5262671.640,0.0,0.0,0.0,0.0,1309.342,3798.231
0.750,0.275,98.875,0.050,0.0,0.050,0.0,32768.0,45111.800,41048.600,0.0,0.0,335.200,942.0
8.057,8.110,82.322,0.0,0.0,1.511,0.0,819.200,4849138.400,4847463.200,0.0,0.0,15186.200,43089.0
4.600,6.714,87.391,0.0,0.0,1.295,0.0,1638.400,4937369.0,4931664.0,0.0,0.0,15994.200,44181.400
3.496,7.566,87.895,0.0,0.0,1.044,0.0,2457.600,4881524.600,4877995.800,0.0,0.0,16012.400,43946.400
3.518,7.558,87.725,0.0,0.0,1.199,0.0,1638.400,4948339.200,4946768.200,0.0,0.0,16221.600,44276.200
2.816,6.474,89.474,0.0,0.0,1.237,0.0,1638.400,4983894.800,4979333.400,0.0,0.0,16501.400,45229.200
5.594,9.279,83.457,0.053,0.0,1.617,0.0,28672.0,4679274.800,4678845.400,0.0,0.0,15563.200,42699.800
3.356,7.813,87.441,0.026,0.0,1.363,0.0,9011.200,4947454.800,4942380.600,0.0,0.0,16101.800,44638.400
3.732,7.672,87.343,0.0,0.0,1.253,0.0,819.200,4900361.200,4899951.800,0.0,0.0,16177.400,44463.600
4.741,9.218,84.567,0.0,0.0,1.475,0.0,1638.400,4876719.600,4875741.800,0.0,0.0,16013.200,44296.200
4.314,7.941,86.130,0.0,0.0,1.615,0.0,1638.400,4874424.400,4873082.200,0.0,0.0,16040.800,44073.0
3.653,7.569,87.122,0.0,0.0,1.656,0.0,819.200,4859541.0,4859857.400,0.0,0.0,16148.800,44159.800
2.793,7.492,88.228,0.052,0.0,1.436,0.0,26214.400,4958242.0,4953840.800,0.0,0.0,16427.400,44847.400
2.574,6.369,89.889,0.0,0.0,1.168,0.0,3276.800,4910192.800,4906076.800,0.0,0.0,16253.800,44081.0
2.989,6.738,89.171,0.0,0.0,1.101,0.0,819.200,4954126.0,4952107.600,0.0,0.0,16549.0,44939.0
0.050,0.0,99.950,0.0,0.0,0.0,0.0,1638.400,6349.200,1956.0,0.0,0.0,47.0,137.800
