"Dstat 0.7.2 CSV output"
"Author:","Dag Wieers <dag@wieers.com>",,,,"URL:","http://dag.wieers.com/home-made/dstat/"
"Host:","Middleware2",,,,"User:","mstevan"
"Cmdline:","dstat --output /home/mstevan/logs/experiment_3.3/dstat/vs_256-vcpr_8-wtpm_64-rep_4.csv 5 16",,,,"Date:","28 Oct 2019 12:45:10 UTC"

"total cpu usage",,,,,,"dsk/total",,"net/total",,"paging",,"system",
"usr","sys","idl","wai","hiq","siq","read","writ","recv","send","in","out","int","csw"
0.311,0.496,99.077,0.054,0.0,0.062,9354.972,5354176.539,0.0,0.0,0.0,0.0,1167.936,3402.412
0.803,0.351,98.770,0.0,0.0,0.075,0.0,1638.400,60278.600,56507.0,0.0,0.0,449.0,1190.600
7.071,5.502,86.364,0.0,0.0,1.063,0.0,1638.400,3767053.400,3763151.400,0.0,0.0,14361.400,39471.0
5.327,5.512,88.423,0.0,0.0,0.738,0.0,819.200,3853461.200,3851688.0,0.0,0.0,15540.800,40802.0
2.617,5.967,90.578,0.0,0.0,0.837,0.0,3276.800,3981365.800,3977586.200,0.0,0.0,16044.600,42480.800
2.715,5.822,90.809,0.0,0.0,0.653,0.0,819.200,4059420.200,4057165.200,0.0,0.0,16329.200,43242.200
2.531,5.844,90.764,0.052,0.0,0.809,0.0,35225.600,3991059.600,3986942.600,0.0,0.0,16251.600,42520.200
2.741,5.870,90.587,0.0,0.0,0.802,0.0,9830.400,3866609.600,3862422.200,0.0,0.0,15814.600,41111.800
2.478,5.922,91.077,0.0,0.0,0.522,0.0,819.200,3998191.800,3996297.600,0.0,0.0,16435.200,42647.200
2.279,5.605,91.540,0.0,0.0,0.576,0.0,1638.400,3892177.800,3888114.600,0.0,0.0,15874.800,41440.800
2.555,5.918,90.876,0.0,0.0,0.652,0.0,1638.400,3945867.600,3941804.400,0.0,0.0,16161.0,42189.200
2.383,5.474,91.514,0.0,0.0,0.629,0.0,819.200,3991664.400,3989566.800,0.0,0.0,16360.400,42455.600
2.570,5.867,90.784,0.026,0.0,0.753,0.0,18022.400,3893055.800,3888629.800,0.0,0.0,15970.0,41446.0
2.229,5.455,91.844,0.0,0.0,0.472,0.0,819.200,3917181.400,3912892.400,0.0,0.0,16011.0,41611.200
2.429,5.667,91.225,0.0,0.0,0.679,0.0,6553.600,3969032.800,3967652.600,0.0,0.0,16328.0,42340.0
2.478,5.687,91.156,0.0,0.0,0.678,0.0,2457.600,3857238.0,3853597.200,0.0,0.0,15872.200,41068.0
0.025,0.0,99.975,0.0,0.0,0.0,0.0,819.200,3237.800,1061.0,0.0,0.0,40.400,133.600
