"Dstat 0.7.2 CSV output"
"Author:","Dag Wieers <dag@wieers.com>",,,,"URL:","http://dag.wieers.com/home-made/dstat/"
"Host:","Middleware2",,,,"User:","mstevan"
"Cmdline:","dstat --output /home/mstevan/logs/experiment_3.3/dstat/vs_256-vcpr_16-wtpm_8-rep_2.csv 5 16",,,,"Date:","28 Oct 2019 12:48:00 UTC"

"total cpu usage",,,,,,"dsk/total",,"net/total",,"paging",,"system",
"usr","sys","idl","wai","hiq","siq","read","writ","recv","send","in","out","int","csw"
0.317,0.507,99.060,0.054,0.0,0.064,9322.512,5335619.630,0.0,0.0,0.0,0.0,1199.226,3482.872
0.501,0.175,99.299,0.0,0.0,0.025,0.0,1638.400,28874.800,23704.200,0.0,0.0,166.0,508.400
5.372,3.556,90.553,0.104,0.0,0.415,0.0,31948.800,3431342.0,3429007.800,0.0,0.0,8049.600,22591.400
2.414,3.063,94.160,0.0,0.0,0.363,0.0,1638.400,3446087.600,3441733.0,0.0,0.0,9483.800,22874.200
1.507,3.040,94.908,0.0,0.0,0.546,0.0,3276.800,3537573.400,3533191.600,0.0,0.0,9911.800,23783.200
2.755,3.197,93.631,0.0,0.0,0.416,0.0,819.200,3402288.0,3400051.0,0.0,0.0,9506.400,23000.600
2.307,3.059,94.296,0.0,0.0,0.337,0.0,4915.200,3423322.800,3418964.800,0.0,0.0,9503.800,23110.800
1.325,2.909,95.455,0.0,0.0,0.312,0.0,9830.400,3470791.800,3465981.800,0.0,0.0,9605.400,23307.800
1.489,3.645,94.482,0.0,0.0,0.385,0.0,819.200,3452343.800,3450330.800,0.0,0.0,9679.800,23297.600
1.241,3.127,95.270,0.052,0.0,0.310,0.0,27033.600,3397580.400,3392904.0,0.0,0.0,9559.400,22901.200
1.350,3.063,95.301,0.0,0.0,0.286,0.0,819.200,3463806.200,3460484.600,0.0,0.0,9772.0,23293.200
1.194,2.985,95.613,0.0,0.0,0.208,0.0,1638.400,3470913.0,3467763.200,0.0,0.0,9715.400,23393.200
1.466,3.498,94.676,0.0,0.0,0.360,0.0,1638.400,3470484.400,3466024.800,0.0,0.0,9660.800,23426.0
1.193,3.138,95.462,0.0,0.0,0.207,0.0,4915.200,3457520.800,3455291.600,0.0,0.0,9662.600,23355.800
1.269,3.212,95.285,0.0,0.0,0.233,0.0,3276.800,3508445.400,3504044.200,0.0,0.0,9857.800,23711.0
1.342,3.381,94.890,0.129,0.0,0.258,0.0,17203.200,3455470.800,3451141.400,0.0,0.0,9775.800,23288.400
0.050,0.050,99.900,0.0,0.0,0.0,0.0,819.200,4534.200,1993.800,0.0,0.0,45.0,143.200
