"Dstat 0.7.2 CSV output"
"Author:","Dag Wieers <dag@wieers.com>",,,,"URL:","http://dag.wieers.com/home-made/dstat/"
"Host:","Middleware2",,,,"User:","mstevan"
"Cmdline:","dstat --output /home/mstevan/logs/experiment_3.3/dstat/vs_256-vcpr_8-wtpm_64-rep_1.csv 5 16",,,,"Date:","28 Oct 2019 12:40:54 UTC"

"total cpu usage",,,,,,"dsk/total",,"net/total",,"paging",,"system",
"usr","sys","idl","wai","hiq","siq","read","writ","recv","send","in","out","int","csw"
0.300,0.475,99.112,0.054,0.0,0.060,9404.090,5382252.670,0.0,0.0,0.0,0.0,1105.937,3239.020
0.803,0.251,98.896,0.0,0.0,0.050,0.0,819.200,41758.800,39699.600,0.0,0.0,363.0,986.0
6.868,6.079,86.211,0.053,0.0,0.789,0.0,31948.800,3869632.800,3865967.200,0.0,0.0,15021.200,40355.600
4.936,6.137,88.065,0.0,0.0,0.862,0.0,819.200,3952943.0,3951378.200,0.0,0.0,16052.200,41894.400
2.708,5.754,90.914,0.0,0.0,0.625,0.0,3276.800,3967421.800,3963006.800,0.0,0.0,16249.600,42086.600
2.559,5.484,91.199,0.0,0.0,0.757,0.0,1638.400,3912601.800,3907822.400,0.0,0.0,16119.200,41659.0
2.598,6.521,90.153,0.0,0.0,0.727,0.0,3276.800,4022224.200,4020738.800,0.0,0.0,16554.200,42915.0
2.462,5.657,91.147,0.0,0.0,0.733,0.0,9830.400,3966185.400,3961420.600,0.0,0.0,16243.200,42179.800
2.225,5.785,91.492,0.026,0.0,0.471,0.0,23756.800,4027453.0,4024004.400,0.0,0.0,16552.0,42840.600
2.166,6.080,91.127,0.0,0.0,0.626,0.0,819.200,3983900.200,3980673.0,0.0,0.0,16329.0,42381.0
2.295,5.841,91.343,0.0,0.0,0.522,0.0,1638.400,3949107.400,3946168.200,0.0,0.0,16148.0,41990.200
2.584,5.532,91.258,0.0,0.0,0.626,0.0,1638.400,3994979.600,3990599.600,0.0,0.0,16374.800,42515.0
2.603,5.519,91.330,0.0,0.0,0.547,0.0,819.200,3890375.0,3888313.600,0.0,0.0,15915.400,41443.400
1.916,5.668,91.761,0.0,0.0,0.656,0.0,5734.400,4025660.400,4021282.600,0.0,0.0,16444.200,42800.200
2.206,4.991,92.172,0.0,0.0,0.630,0.0,819.200,3917081.400,3914657.800,0.0,0.0,15970.800,41618.200
2.143,5.097,91.976,0.105,0.0,0.680,0.0,19660.800,3886329.600,3882940.800,0.0,0.0,15863.200,41369.800
0.050,0.025,99.925,0.0,0.0,0.0,0.0,1638.400,6547.200,2061.600,0.0,0.0,44.600,139.400
