"Dstat 0.7.2 CSV output"
"Author:","Dag Wieers <dag@wieers.com>",,,,"URL:","http://dag.wieers.com/home-made/dstat/"
"Host:","Middleware2",,,,"User:","mstevan"
"Cmdline:","dstat --output /home/mstevan/logs/experiment_3.3/dstat/vs_512-vcpr_8-wtpm_8-rep_2.csv 5 16",,,,"Date:","28 Oct 2019 13:39:15 UTC"

"total cpu usage",,,,,,"dsk/total",,"net/total",,"paging",,"system",
"usr","sys","idl","wai","hiq","siq","read","writ","recv","send","in","out","int","csw"
0.432,0.711,98.710,0.051,0.0,0.096,8773.820,5021986.553,0.0,0.0,0.0,0.0,1650.198,4795.837
0.701,0.225,98.998,0.0,0.0,0.075,0.0,819.200,78807.0,74859.0,0.0,0.0,240.0,740.400
5.551,4.099,89.857,0.0,0.0,0.493,0.0,1638.400,5582643.600,5579442.600,0.0,0.0,8222.600,23246.400
4.323,2.987,92.219,0.0,0.0,0.472,0.0,819.200,5588916.800,5585916.0,0.0,0.0,9440.800,23521.600
1.532,3.375,94.756,0.0,0.0,0.337,0.0,3276.800,5883454.800,5879766.200,0.0,0.0,10436.200,25007.400
1.449,3.441,94.825,0.0,0.0,0.285,0.0,1638.400,5521017.200,5516570.600,0.0,0.0,9604.600,23620.600
1.521,3.402,94.665,0.052,0.0,0.361,0.0,42598.400,5572199.600,5569969.600,0.0,0.0,9752.800,23741.600
1.426,3.008,95.204,0.0,0.0,0.363,0.0,9011.200,5575087.400,5570665.200,0.0,0.0,9978.800,23617.600
1.474,3.388,94.880,0.0,0.0,0.259,0.0,1638.400,5615801.200,5610276.400,0.0,0.0,9994.0,23961.200
1.226,2.451,96.037,0.0,0.0,0.287,0.0,819.200,5518132.200,5516918.0,0.0,0.0,9496.200,23612.800
1.443,3.479,94.768,0.0,0.0,0.309,0.0,1638.400,5535382.600,5530957.200,0.0,0.0,9575.600,23541.0
1.372,3.157,95.160,0.0,0.0,0.311,0.0,1638.400,5455507.800,5451072.600,0.0,0.0,9448.800,23305.600
1.423,3.364,94.772,0.052,0.0,0.388,0.0,18022.400,5797346.0,5795116.600,0.0,0.0,10078.200,24773.600
1.420,3.487,94.680,0.0,0.0,0.413,0.0,2457.600,5681829.400,5676515.200,0.0,0.0,9882.400,24241.200
1.446,3.486,94.707,0.0,0.0,0.361,0.0,5734.400,5610735.800,5610891.800,0.0,0.0,9808.400,23862.400
1.246,2.856,95.639,0.0,0.0,0.260,0.0,1638.400,5466872.800,5462387.200,0.0,0.0,9536.200,23245.800
0.050,0.025,99.900,0.0,0.0,0.025,0.0,1638.400,6771.600,2180.400,0.0,0.0,42.400,147.200
