"Dstat 0.7.2 CSV output"
"Author:","Dag Wieers <dag@wieers.com>",,,,"URL:","http://dag.wieers.com/home-made/dstat/"
"Host:","Middleware2",,,,"User:","mstevan"
"Cmdline:","dstat --output /home/mstevan/logs/experiment_3.3/dstat/vs_512-vcpr_32-wtpm_8-rep_3.csv 5 16",,,,"Date:","28 Oct 2019 14:14:48 UTC"

"total cpu usage",,,,,,"dsk/total",,"net/total",,"paging",,"system",
"usr","sys","idl","wai","hiq","siq","read","writ","recv","send","in","out","int","csw"
0.501,0.836,98.501,0.050,0.0,0.112,8429.731,4825307.652,0.0,0.0,0.0,0.0,1965.810,5666.249
0.676,0.200,99.099,0.0,0.0,0.025,0.0,1638.400,72956.800,66127.400,0.0,0.0,229.400,706.200
5.233,3.912,90.311,0.026,0.0,0.518,0.0,34406.400,5803246.600,5800864.800,0.0,0.0,6805.0,23821.0
2.579,3.230,93.827,0.0,0.0,0.365,0.0,1638.400,5749719.800,5744284.800,0.0,0.0,8764.800,23710.400
1.454,3.298,94.910,0.0,0.0,0.338,0.0,3276.800,5747678.400,5744195.600,0.0,0.0,10053.200,23694.600
1.652,3.279,94.759,0.0,0.0,0.310,0.0,819.200,5644917.0,5642688.0,0.0,0.0,9873.800,23206.600
1.347,3.368,94.948,0.0,0.0,0.337,0.0,5734.400,5696340.200,5691947.0,0.0,0.0,9755.200,23472.600
1.800,3.235,94.573,0.0,0.0,0.391,0.0,9830.400,5728066.0,5722565.200,0.0,0.0,9712.0,23734.600
1.506,3.375,94.652,0.078,0.0,0.389,0.0,22937.600,5661285.600,5659923.600,0.0,0.0,9595.600,23482.600
1.222,3.042,95.372,0.0,0.0,0.364,0.0,1638.400,5621171.200,5616891.400,0.0,0.0,9821.400,23178.800
1.400,3.215,94.996,0.0,0.0,0.389,0.0,1638.400,5738678.0,5733506.200,0.0,0.0,9985.200,23719.600
1.298,3.192,95.225,0.0,0.0,0.285,0.0,819.200,5740257.400,5738728.200,0.0,0.0,10054.800,23774.800
1.352,2.860,95.424,0.0,0.0,0.364,0.0,1638.400,5563736.600,5558922.400,0.0,0.0,9867.0,22969.200
1.271,3.010,95.252,0.0,0.0,0.467,0.0,4915.200,5735820.400,5733805.200,0.0,0.0,10068.400,23645.600
1.534,2.834,95.268,0.052,0.0,0.312,0.0,19660.800,5752189.600,5747874.200,0.0,0.0,10044.600,23748.400
1.377,3.092,95.038,0.0,0.0,0.494,0.0,1638.400,5649189.200,5644988.600,0.0,0.0,9708.800,23563.600
0.831,0.554,98.564,0.0,0.0,0.050,0.0,819.200,806113.600,803174.600,0.0,0.0,1208.600,4685.600
