"Dstat 0.7.2 CSV output"
"Author:","Dag Wieers <dag@wieers.com>",,,,"URL:","http://dag.wieers.com/home-made/dstat/"
"Host:","Middleware2",,,,"User:","mstevan"
"Cmdline:","dstat --output /home/mstevan/logs/experiment_3.3/dstat/vs_512-vcpr_4-wtpm_32-rep_4.csv 5 16",,,,"Date:","28 Oct 2019 13:30:43 UTC"

"total cpu usage",,,,,,"dsk/total",,"net/total",,"paging",,"system",
"usr","sys","idl","wai","hiq","siq","read","writ","recv","send","in","out","int","csw"
0.417,0.685,98.753,0.052,0.0,0.094,8860.633,5071608.951,0.0,0.0,0.0,0.0,1573.472,4590.405
0.651,0.150,99.199,0.0,0.0,0.0,0.0,1638.400,35888.200,31242.600,0.0,0.0,201.600,628.200
5.263,4.117,90.229,0.0,0.0,0.391,0.0,819.200,4374450.600,4372691.0,0.0,0.0,10114.800,30926.400
3.252,4.052,92.465,0.0,0.0,0.232,0.0,1638.400,4522460.0,4516987.400,0.0,0.0,10902.600,32075.200
3.463,3.955,92.117,0.052,0.0,0.414,0.0,16384.0,4490262.800,4489085.0,0.0,0.0,10829.800,32145.0
1.976,4.466,93.198,0.051,0.0,0.308,0.0,18841.600,4625271.600,4620637.200,0.0,0.0,10959.0,33104.800
1.878,4.579,93.362,0.0,0.0,0.180,0.0,4096.0,4718215.800,4713613.0,0.0,0.0,11104.400,33737.600
1.724,4.272,93.773,0.0,0.0,0.232,0.0,9011.200,4546323.0,4544043.200,0.0,0.0,10734.400,32582.600
1.887,4.187,93.513,0.0,0.0,0.414,0.0,1638.400,4794612.400,4790500.600,0.0,0.0,11368.0,34308.200
1.689,3.715,94.336,0.0,0.0,0.260,0.0,1638.400,4618426.200,4613916.800,0.0,0.0,10921.400,33086.0
1.933,4.099,93.658,0.0,0.0,0.309,0.0,819.200,4660333.600,4657981.600,0.0,0.0,10915.800,33281.200
1.852,4.372,93.493,0.051,0.0,0.231,0.0,31948.800,4610334.0,4605858.0,0.0,0.0,10817.0,32893.0
1.773,4.215,93.626,0.0,0.0,0.386,0.0,1638.400,4499101.0,4494727.0,0.0,0.0,10574.0,32111.800
1.857,4.074,93.785,0.0,0.0,0.284,0.0,819.200,4594223.800,4592078.400,0.0,0.0,10887.0,32831.800
1.886,3.901,93.903,0.0,0.0,0.310,0.0,7372.800,4623808.0,4619382.0,0.0,0.0,10880.600,32959.0
1.950,4.464,93.356,0.0,0.0,0.231,0.0,819.200,4505001.600,4501251.400,0.0,0.0,10676.0,32191.200
0.100,0.050,99.850,0.0,0.0,0.0,0.0,1638.400,4834.0,2230.600,0.0,0.0,39.400,125.600
