"Dstat 0.7.2 CSV output"
"Author:","Dag Wieers <dag@wieers.com>",,,,"URL:","http://dag.wieers.com/home-made/dstat/"
"Host:","Middleware2",,,,"User:","mstevan"
"Cmdline:","dstat --output /home/mstevan/logs/experiment_3.3/dstat/vs_512-vcpr_4-wtpm_8-rep_3.csv 5 16",,,,"Date:","28 Oct 2019 13:23:37 UTC"

"total cpu usage",,,,,,"dsk/total",,"net/total",,"paging",,"system",
"usr","sys","idl","wai","hiq","siq","read","writ","recv","send","in","out","int","csw"
0.405,0.663,98.787,0.052,0.0,0.093,8934.278,5113706.037,0.0,0.0,0.0,0.0,1519.314,4416.898
0.550,0.175,99.249,0.0,0.0,0.025,0.0,1638.400,44725.400,40122.200,0.0,0.0,193.200,615.0
6.625,4.079,88.880,0.0,0.0,0.416,0.0,819.200,4420397.200,4417085.200,0.0,0.0,7697.800,28151.800
2.887,3.919,93.039,0.0,0.0,0.155,0.0,1638.400,4458560.600,4455234.200,0.0,0.0,7572.600,28288.600
2.666,3.650,93.321,0.078,0.0,0.285,0.0,32768.0,4512221.400,4507684.800,0.0,0.0,7617.200,28789.200
1.601,3.589,94.604,0.0,0.0,0.207,0.0,1638.400,4577758.600,4575584.0,0.0,0.0,7659.0,29170.400
1.600,3.689,94.453,0.0,0.0,0.258,0.0,1638.400,4485989.800,4481513.800,0.0,0.0,7494.400,28513.600
1.726,3.530,94.537,0.0,0.0,0.206,0.0,12288.0,4547380.400,4542887.800,0.0,0.0,7596.200,28859.800
1.778,3.375,94.589,0.0,0.0,0.258,0.0,819.200,4467398.600,4465219.400,0.0,0.0,7495.200,28549.800
1.447,3.487,94.859,0.0,0.0,0.207,0.0,1638.400,4457263.800,4452840.400,0.0,0.0,7459.600,28487.600
1.558,3.453,94.808,0.078,0.0,0.104,0.0,17203.200,4540284.800,4535808.800,0.0,0.0,7633.800,29010.800
1.545,3.913,94.387,0.0,0.0,0.154,0.0,9011.200,4586004.600,4583669.600,0.0,0.0,7608.0,29132.0
1.720,4.055,93.994,0.0,0.0,0.231,0.0,1638.400,4690628.800,4685975.800,0.0,0.0,7744.200,29749.600
1.742,4.228,93.851,0.0,0.0,0.179,0.0,4915.200,4692092.400,4689801.200,0.0,0.0,7764.0,29740.200
1.782,3.409,94.628,0.0,0.0,0.181,0.0,3276.800,4540130.800,4535553.400,0.0,0.0,7118.200,28888.0
1.644,3.649,94.527,0.0,0.0,0.180,0.0,1638.400,4521281.0,4517274.400,0.0,0.0,7374.0,28767.600
0.050,0.025,99.925,0.0,0.0,0.0,0.0,819.200,3427.800,1256.200,0.0,0.0,35.600,132.400
