"Dstat 0.7.2 CSV output"
"Author:","Dag Wieers <dag@wieers.com>",,,,"URL:","http://dag.wieers.com/home-made/dstat/"
"Host:","Middleware2",,,,"User:","mstevan"
"Cmdline:","dstat --output /home/mstevan/logs/experiment_3.3/dstat/vs_512-vcpr_32-wtpm_8-rep_1.csv 5 16",,,,"Date:","28 Oct 2019 14:11:57 UTC"

"total cpu usage",,,,,,"dsk/total",,"net/total",,"paging",,"system",
"usr","sys","idl","wai","hiq","siq","read","writ","recv","send","in","out","int","csw"
0.498,0.830,98.511,0.050,0.0,0.111,8456.258,4840471.121,0.0,0.0,0.0,0.0,1947.494,5621.761
0.776,0.275,98.898,0.0,0.0,0.050,0.0,1638.400,121621.600,114278.0,0.0,0.0,255.800,863.600
6.427,3.747,89.227,0.0,0.0,0.598,0.0,1638.400,5576742.0,5572509.800,0.0,0.0,7328.400,23097.600
2.665,3.441,93.480,0.0,0.0,0.414,0.0,819.200,5683396.400,5681168.400,0.0,0.0,9192.0,23396.800
1.601,3.460,94.552,0.0,0.0,0.387,0.0,3276.800,5728320.0,5723926.600,0.0,0.0,9386.800,23533.400
1.493,3.733,94.336,0.026,0.0,0.412,0.0,34406.400,5782558.0,5778032.600,0.0,0.0,9574.0,23654.0
1.396,3.413,94.726,0.0,0.0,0.465,0.0,4096.0,5749919.200,5747707.0,0.0,0.0,9830.800,23613.0
2.114,3.533,93.760,0.0,0.0,0.593,0.0,9830.400,5746871.0,5742412.400,0.0,0.0,9545.600,23678.600
1.910,3.588,94.063,0.0,0.0,0.439,0.0,1638.400,5794446.200,5789946.0,0.0,0.0,9654.400,23810.400
1.674,3.656,94.284,0.0,0.0,0.386,0.0,819.200,5718580.200,5716350.800,0.0,0.0,9793.800,23543.0
1.569,3.574,94.497,0.0,0.0,0.360,0.0,1638.400,5563498.0,5558991.200,0.0,0.0,9746.600,22934.600
1.495,3.660,94.510,0.0,0.0,0.335,0.0,6553.600,5709658.800,5707570.600,0.0,0.0,9903.400,23368.0
1.625,3.378,94.327,0.052,0.0,0.619,0.0,18841.600,5845747.400,5840726.200,0.0,0.0,10150.200,24154.200
1.143,3.376,95.144,0.0,0.0,0.338,0.0,5734.400,5670390.400,5666162.200,0.0,0.0,9850.600,23463.200
1.575,3.459,94.657,0.0,0.0,0.310,0.0,2457.600,5654872.0,5652924.800,0.0,0.0,9685.800,23246.400
1.523,3.563,94.604,0.0,0.0,0.310,0.0,1638.400,5762358.800,5758531.400,0.0,0.0,9964.800,23608.800
0.353,0.731,98.866,0.0,0.0,0.050,0.0,1638.400,1140752.200,1134775.0,0.0,0.0,1478.200,4693.800
