"Dstat 0.7.2 CSV output"
"Author:","Dag Wieers <dag@wieers.com>",,,,"URL:","http://dag.wieers.com/home-made/dstat/"
"Host:","Middleware2",,,,"User:","mstevan"
"Cmdline:","dstat --output /home/mstevan/logs/experiment_3.3/dstat/vs_512-vcpr_4-wtpm_8-rep_4.csv 5 16",,,,"Date:","28 Oct 2019 13:25:02 UTC"

"total cpu usage",,,,,,"dsk/total",,"net/total",,"paging",,"system",
"usr","sys","idl","wai","hiq","siq","read","writ","recv","send","in","out","int","csw"
0.407,0.667,98.781,0.052,0.0,0.093,8919.453,5105231.635,0.0,0.0,0.0,0.0,1527.120,4448.982
0.651,0.175,99.149,0.0,0.0,0.025,0.0,1638.400,55560.0,50980.800,0.0,0.0,216.800,670.400
5.432,3.970,90.180,0.0,0.0,0.418,0.0,819.200,4387160.800,4384931.200,0.0,0.0,8676.200,27380.800
3.210,3.728,92.726,0.0,0.0,0.337,0.0,1638.400,4482800.400,4477835.800,0.0,0.0,8894.600,27943.0
3.646,3.801,92.268,0.0,0.0,0.284,0.0,3276.800,4551618.200,4547472.800,0.0,0.0,8929.400,28618.400
2.206,3.951,93.535,0.0,0.0,0.308,0.0,819.200,4600978.200,4598976.200,0.0,0.0,9059.800,28924.600
1.729,3.924,93.960,0.052,0.0,0.336,0.0,44236.800,4604136.600,4598927.400,0.0,0.0,9346.0,28927.200
1.701,3.685,94.254,0.0,0.0,0.361,0.0,9830.400,4520270.600,4516544.800,0.0,0.0,9275.0,28435.800
1.704,3.511,94.578,0.0,0.0,0.207,0.0,819.200,4535640.0,4533355.400,0.0,0.0,8944.800,28460.0
1.897,3.821,94.026,0.0,0.0,0.256,0.0,1638.400,4568725.800,4564086.600,0.0,0.0,8635.0,28651.600
1.742,3.920,94.133,0.0,0.0,0.205,0.0,1638.400,4537294.600,4532768.600,0.0,0.0,8611.400,28491.200
1.519,3.655,94.492,0.0,0.0,0.335,0.0,819.200,4506277.200,4503616.600,0.0,0.0,8972.600,28314.200
1.830,3.351,94.536,0.026,0.0,0.258,0.0,19660.800,4540678.200,4536585.400,0.0,0.0,8849.400,28640.600
1.323,3.320,95.073,0.0,0.0,0.285,0.0,4915.200,4518035.600,4516189.400,0.0,0.0,8883.400,28392.200
1.885,3.357,94.500,0.0,0.0,0.258,0.0,3276.800,4566129.200,4561686.800,0.0,0.0,8862.0,28805.0
1.400,3.292,94.997,0.0,0.0,0.311,0.0,1638.400,4478250.200,4473775.400,0.0,0.0,8836.800,28205.600
0.050,0.050,99.900,0.0,0.0,0.0,0.0,819.200,3689.400,1571.400,0.0,0.0,46.400,144.800
