"Dstat 0.7.2 CSV output"
"Author:","Dag Wieers <dag@wieers.com>",,,,"URL:","http://dag.wieers.com/home-made/dstat/"
"Host:","Middleware2",,,,"User:","mstevan"
"Cmdline:","dstat --output /home/mstevan/logs/experiment_3.3/dstat/vs_512-vcpr_32-wtpm_32-rep_2.csv 5 16",,,,"Date:","28 Oct 2019 14:19:03 UTC"

"total cpu usage",,,,,,"dsk/total",,"net/total",,"paging",,"system",
"usr","sys","idl","wai","hiq","siq","read","writ","recv","send","in","out","int","csw"
0.508,0.846,98.483,0.050,0.0,0.113,8390.246,4802741.186,0.0,0.0,0.0,0.0,1990.821,5729.823
0.852,0.251,98.847,0.0,0.0,0.050,0.0,1638.400,118843.400,113111.800,0.0,0.0,285.200,885.400
5.831,4.439,88.626,0.0,0.0,1.103,0.0,1638.400,7024819.0,7019730.600,0.0,0.0,6124.600,21897.200
2.396,3.880,92.969,0.0,0.0,0.755,0.0,819.200,6967994.400,6963956.800,0.0,0.0,7069.0,21647.400
1.764,4.333,93.046,0.0,0.0,0.856,0.0,3276.800,6924416.0,6921520.400,0.0,0.0,7736.200,21883.800
1.744,3.723,93.778,0.0,0.0,0.755,0.0,1638.400,6929626.400,6925430.800,0.0,0.0,7438.600,21793.600
2.665,4.050,92.605,0.026,0.0,0.653,0.0,36864.0,6917359.0,6915180.600,0.0,0.0,7401.800,21908.800
2.699,4.127,92.266,0.0,0.0,0.908,0.0,9830.400,6904354.200,6899844.800,0.0,0.0,7183.600,21509.0
2.359,4.303,92.354,0.0,0.0,0.985,0.0,819.200,6922119.0,6917697.200,0.0,0.0,7346.400,21657.200
2.159,4.031,92.874,0.0,0.0,0.936,0.0,1638.400,6886625.0,6884356.800,0.0,0.0,7192.600,21513.200
2.235,3.820,93.009,0.0,0.0,0.936,0.0,1638.400,6898408.0,6893948.800,0.0,0.0,7265.200,21663.0
2.263,4.005,93.082,0.0,0.0,0.650,0.0,819.200,6962612.400,6960442.600,0.0,0.0,7183.800,21758.400
1.509,4.032,93.652,0.104,0.0,0.702,0.0,23756.800,6955179.800,6950601.600,0.0,0.0,7359.400,21910.0
1.614,3.800,93.961,0.0,0.0,0.625,0.0,5734.400,6927502.600,6923212.800,0.0,0.0,7240.800,21855.400
1.864,3.884,93.371,0.0,0.0,0.880,0.0,2457.600,6933986.0,6931756.600,0.0,0.0,7232.600,21848.400
1.865,4.196,93.266,0.0,0.0,0.673,0.0,1638.400,6824711.400,6819645.600,0.0,0.0,7295.200,21942.600
0.402,0.779,98.769,0.0,0.0,0.050,0.0,819.200,723383.600,720907.200,0.0,0.0,2017.600,5064.0
