"Dstat 0.7.2 CSV output"
"Author:","Dag Wieers <dag@wieers.com>",,,,"URL:","http://dag.wieers.com/home-made/dstat/"
"Host:","Middleware2",,,,"User:","mstevan"
"Cmdline:","dstat --output /home/mstevan/logs/experiment_3.3/dstat/vs_512-vcpr_8-wtpm_8-rep_3.csv 5 16",,,,"Date:","28 Oct 2019 13:40:40 UTC"

"total cpu usage",,,,,,"dsk/total",,"net/total",,"paging",,"system",
"usr","sys","idl","wai","hiq","siq","read","writ","recv","send","in","out","int","csw"
0.434,0.714,98.705,0.051,0.0,0.096,8759.518,5013809.359,0.0,0.0,0.0,0.0,1660.466,4819.972
0.702,0.226,98.997,0.025,0.0,0.050,0.0,36864.0,99279.600,93859.0,0.0,0.0,271.800,856.400
4.875,3.415,91.189,0.0,0.0,0.521,0.0,15564.800,5557952.200,5554306.200,0.0,0.0,6758.600,23365.0
3.961,3.492,92.207,0.0,0.0,0.339,0.0,1638.400,5729955.800,5727688.200,0.0,0.0,8387.0,24304.400
1.372,3.521,94.770,0.0,0.0,0.337,0.0,2457.600,5707378.800,5702881.600,0.0,0.0,8992.0,24234.600
1.293,3.490,94.778,0.0,0.0,0.440,0.0,819.200,5620204.800,5618013.800,0.0,0.0,9145.600,23957.0
1.472,3.357,94.810,0.0,0.0,0.361,0.0,4096.0,5627830.800,5623371.600,0.0,0.0,8955.200,24031.800
1.543,3.961,94.136,0.026,0.0,0.334,0.0,25395.200,5728446.0,5723934.0,0.0,0.0,9202.800,24553.600
1.749,3.574,94.394,0.0,0.0,0.283,0.0,819.200,5655547.800,5653428.800,0.0,0.0,8692.800,24168.0
1.567,3.905,94.013,0.0,0.0,0.514,0.0,1638.400,5757861.800,5752706.600,0.0,0.0,9522.200,24580.400
1.522,3.328,94.711,0.0,0.0,0.439,0.0,1638.400,5628514.200,5624887.600,0.0,0.0,9316.0,24010.800
1.530,3.267,94.918,0.0,0.0,0.285,0.0,819.200,5650822.400,5648474.800,0.0,0.0,9103.800,24243.400
1.599,3.405,94.583,0.0,0.0,0.413,0.0,1638.400,5612835.0,5607432.600,0.0,0.0,9058.200,24048.0
1.576,3.384,94.446,0.077,0.0,0.517,0.0,22118.400,5760195.400,5756639.0,0.0,0.0,9180.0,24748.400
1.575,3.382,94.786,0.0,0.0,0.258,0.0,5734.400,5599543.800,5596909.800,0.0,0.0,8713.200,24025.600
1.347,3.134,95.105,0.0,0.0,0.414,0.0,1638.400,5546393.400,5542395.800,0.0,0.0,8753.400,23776.600
0.050,0.025,99.925,0.0,0.0,0.0,0.0,819.200,3449.0,1166.600,0.0,0.0,36.600,113.400
