"Dstat 0.7.2 CSV output"
"Author:","Dag Wieers <dag@wieers.com>",,,,"URL:","http://dag.wieers.com/home-made/dstat/"
"Host:","Middleware2",,,,"User:","mstevan"
"Cmdline:","dstat --output /home/mstevan/logs/experiment_3.3/dstat/vs_512-vcpr_8-wtpm_64-rep_3.csv 5 16",,,,"Date:","28 Oct 2019 13:52:03 UTC"

"total cpu usage",,,,,,"dsk/total",,"net/total",,"paging",,"system",
"usr","sys","idl","wai","hiq","siq","read","writ","recv","send","in","out","int","csw"
0.458,0.760,98.630,0.051,0.0,0.101,8646.758,4949357.532,0.0,0.0,0.0,0.0,1779.649,5156.996
0.752,0.276,98.923,0.0,0.0,0.050,0.0,819.200,56051.800,53235.600,0.0,0.0,329.200,916.0
7.215,6.369,85.386,0.0,0.0,1.031,0.0,1638.400,6141964.800,6139372.600,0.0,0.0,14986.800,40874.800
4.922,5.742,88.542,0.0,0.0,0.794,0.0,2457.600,6189409.0,6184812.200,0.0,0.0,15594.800,41595.400
2.630,6.172,90.443,0.0,0.0,0.755,0.0,1638.400,6410624.400,6407888.0,0.0,0.0,16383.600,43357.800
2.507,6.084,90.078,0.496,0.0,0.836,0.0,31948.800,6311601.800,6308255.400,0.0,0.0,16107.400,42696.400
2.469,6.237,90.644,0.0,0.0,0.650,0.0,9011.200,6423997.200,6421924.400,0.0,0.0,16463.600,43588.400
2.534,5.852,90.883,0.0,0.0,0.731,0.0,12288.0,6549751.600,6545081.600,0.0,0.0,16781.600,44310.200
2.393,6.190,90.637,0.0,0.0,0.780,0.0,1638.400,6446332.400,6441574.600,0.0,0.0,16344.600,43392.0
2.450,5.839,90.928,0.0,0.0,0.782,0.0,819.200,6397058.200,6395758.800,0.0,0.0,16255.200,43179.800
2.719,6.033,90.497,0.0,0.0,0.751,0.0,1638.400,6462195.600,6457665.600,0.0,0.0,16404.400,43534.200
2.448,5.885,90.859,0.052,0.0,0.755,0.0,19660.800,6373377.600,6369040.400,0.0,0.0,16332.400,43104.800
2.601,5.852,90.871,0.0,0.0,0.676,0.0,819.200,6326767.600,6324736.0,0.0,0.0,16161.200,42794.600
2.533,5.796,90.966,0.0,0.0,0.705,0.0,6553.600,6335426.200,6331085.800,0.0,0.0,16249.0,42905.400
2.551,6.040,90.732,0.0,0.0,0.677,0.0,1638.400,6319876.200,6316321.0,0.0,0.0,16161.200,42682.800
2.456,5.904,90.961,0.0,0.0,0.679,0.0,1638.400,6311331.0,6308936.600,0.0,0.0,16194.0,42642.200
0.050,0.0,99.950,0.0,0.0,0.0,0.0,1638.400,6547.200,2061.600,0.0,0.0,43.0,130.600
