"Dstat 0.7.2 CSV output"
"Author:","Dag Wieers <dag@wieers.com>",,,,"URL:","http://dag.wieers.com/home-made/dstat/"
"Host:","Middleware2",,,,"User:","mstevan"
"Cmdline:","dstat --output /home/mstevan/logs/experiment_3.3/dstat/vs_512-vcpr_32-wtpm_64-rep_1.csv 5 16",,,,"Date:","28 Oct 2019 14:23:19 UTC"

"total cpu usage",,,,,,"dsk/total",,"net/total",,"paging",,"system",
"usr","sys","idl","wai","hiq","siq","read","writ","recv","send","in","out","int","csw"
0.515,0.858,98.461,0.049,0.0,0.116,8351.132,4780382.329,0.0,0.0,0.0,0.0,2009.873,5787.989
1.079,0.351,98.545,0.0,0.0,0.025,0.0,1638.400,142591.400,135981.800,0.0,0.0,431.800,1258.0
6.027,4.979,87.972,0.0,0.0,1.022,0.0,819.200,6832608.400,6826449.200,0.0,0.0,6838.0,23962.200
2.636,4.782,91.419,0.0,0.0,1.163,0.0,1638.400,6833071.200,6829564.400,0.0,0.0,6967.200,23878.200
2.048,4.536,92.483,0.078,0.0,0.855,0.0,45875.200,6823188.200,6819065.400,0.0,0.0,7082.800,24051.800
1.863,4.450,92.755,0.0,0.0,0.931,0.0,819.200,6818395.800,6817935.200,0.0,0.0,7037.800,24143.600
3.336,4.758,90.820,0.0,0.0,1.086,0.0,5734.400,6779692.400,6773989.800,0.0,0.0,6820.800,23649.400
2.918,4.881,91.451,0.0,0.0,0.749,0.0,9011.200,6902807.0,6900009.200,0.0,0.0,6996.0,24398.600
2.829,4.810,91.255,0.0,0.0,1.106,0.0,1638.400,6869488.400,6861163.800,0.0,0.0,6941.600,24188.400
2.730,4.238,92.122,0.0,0.0,0.910,0.0,1638.400,6792920.600,6788622.800,0.0,0.0,6972.200,24007.0
2.884,4.789,91.323,0.051,0.0,0.953,0.0,18022.400,6853778.800,6859125.600,0.0,0.0,7390.600,24807.400
2.455,4.730,92.039,0.0,0.0,0.775,0.0,1638.400,6842150.400,6832660.200,0.0,0.0,7384.800,24820.400
2.344,4.970,91.785,0.0,0.0,0.901,0.0,1638.400,6794829.400,6791044.600,0.0,0.0,7221.200,24393.800
1.940,4.604,92.525,0.0,0.0,0.931,0.0,4915.200,6798312.400,6799909.0,0.0,0.0,7250.800,24464.200
2.040,4.906,91.893,0.0,0.0,1.162,0.0,3276.800,6840767.800,6837061.400,0.0,0.0,7310.400,24680.0
2.233,4.077,92.807,0.0,0.0,0.883,0.0,819.200,6727066.200,6722357.400,0.0,0.0,7346.400,24530.600
0.502,0.879,98.519,0.050,0.0,0.050,0.0,20480.0,844460.400,841618.200,0.0,0.0,2341.400,5795.600
