"Dstat 0.7.2 CSV output"
"Author:","Dag Wieers <dag@wieers.com>",,,,"URL:","http://dag.wieers.com/home-made/dstat/"
"Host:","Middleware2",,,,"User:","mstevan"
"Cmdline:","dstat --output /home/mstevan/logs/experiment_3.3/dstat/vs_512-vcpr_16-wtpm_8-rep_1.csv 5 16",,,,"Date:","28 Oct 2019 13:54:53 UTC"

"total cpu usage",,,,,,"dsk/total",,"net/total",,"paging",,"system",
"usr","sys","idl","wai","hiq","siq","read","writ","recv","send","in","out","int","csw"
0.464,0.773,98.610,0.051,0.0,0.103,8619.021,4933501.767,0.0,0.0,0.0,0.0,1816.625,5252.538
0.677,0.175,99.123,0.0,0.0,0.025,0.0,1638.400,94764.800,89123.400,0.0,0.0,270.600,806.200
5.152,3.383,90.867,0.052,0.0,0.546,0.0,35225.600,5653478.800,5649146.200,0.0,0.0,8594.0,23306.200
4.100,3.088,92.423,0.0,0.0,0.389,0.0,819.200,5641825.800,5639479.0,0.0,0.0,9274.600,23534.400
2.637,3.387,93.614,0.0,0.0,0.362,0.0,3276.800,5596734.200,5592275.400,0.0,0.0,9207.600,23562.800
2.466,3.699,93.527,0.0,0.0,0.308,0.0,1638.400,5573289.600,5567852.800,0.0,0.0,9459.200,23493.200
2.348,3.200,94.116,0.0,0.0,0.335,0.0,3276.800,5706697.200,5704467.0,0.0,0.0,9413.400,24008.800
1.550,3.409,94.731,0.0,0.0,0.310,0.0,9830.400,5636740.0,5633385.800,0.0,0.0,9465.800,23736.600
0.962,3.119,95.452,0.052,0.0,0.416,0.0,30310.400,5725472.200,5720921.600,0.0,0.0,9665.400,24105.400
1.267,3.438,94.907,0.0,0.0,0.388,0.0,819.200,5943457.400,5940789.200,0.0,0.0,9822.200,24906.600
1.370,2.997,95.401,0.0,0.0,0.233,0.0,1638.400,5477473.400,5473453.200,0.0,0.0,9179.200,23150.200
1.373,2.954,95.439,0.0,0.0,0.233,0.0,819.200,5681146.200,5678916.400,0.0,0.0,9504.600,23897.200
1.269,2.901,95.493,0.0,0.0,0.337,0.0,1638.400,5578536.600,5574077.800,0.0,0.0,9165.200,23512.400
1.042,2.632,96.091,0.0,0.0,0.235,0.0,5734.400,5569342.200,5564882.800,0.0,0.0,9204.800,23440.200
1.296,2.773,95.516,0.052,0.0,0.363,0.0,19660.800,5643357.0,5641127.200,0.0,0.0,9375.600,23736.400
1.265,3.021,95.352,0.0,0.0,0.361,0.0,1638.400,5491962.0,5487646.400,0.0,0.0,9127.0,22979.400
0.025,0.025,99.950,0.0,0.0,0.0,0.0,1638.400,7194.0,2391.600,0.0,0.0,45.0,129.400
