"Dstat 0.7.2 CSV output"
"Author:","Dag Wieers <dag@wieers.com>",,,,"URL:","http://dag.wieers.com/home-made/dstat/"
"Host:","Middleware2",,,,"User:","mstevan"
"Cmdline:","dstat --output /home/mstevan/logs/experiment_3.3/dstat/vs_512-vcpr_16-wtpm_64-rep_2.csv 5 16",,,,"Date:","28 Oct 2019 14:07:41 UTC"

"total cpu usage",,,,,,"dsk/total",,"net/total",,"paging",,"system",
"usr","sys","idl","wai","hiq","siq","read","writ","recv","send","in","out","int","csw"
0.488,0.812,98.542,0.050,0.0,0.108,8496.369,4863394.106,0.0,0.0,0.0,0.0,1904.401,5502.666
1.027,0.401,98.522,0.0,0.0,0.050,0.0,819.200,125188.800,123526.800,0.0,0.0,441.400,1261.400
6.291,6.396,86.239,0.105,0.0,0.970,0.0,47513.600,6645243.800,6640974.400,0.0,0.0,12978.0,37485.600
3.216,5.887,89.938,0.0,0.0,0.960,0.0,1638.400,6570238.400,6565577.600,0.0,0.0,13346.600,37473.400
3.805,6.229,89.184,0.0,0.0,0.782,0.0,2457.600,6563058.800,6561131.400,0.0,0.0,13178.200,37289.0
3.300,5.431,90.489,0.0,0.0,0.780,0.0,1638.400,6497880.0,6493014.200,0.0,0.0,13142.0,36977.800
3.396,5.393,90.381,0.0,0.0,0.830,0.0,4096.0,6531519.600,6528932.200,0.0,0.0,13395.800,37452.400
3.105,5.847,90.246,0.0,0.0,0.802,0.0,9830.400,6547746.400,6544051.600,0.0,0.0,13313.400,37283.0
3.280,5.624,90.263,0.104,0.0,0.729,0.0,18022.400,6459823.600,6454710.400,0.0,0.0,13151.400,36760.0
2.939,5.644,90.741,0.0,0.0,0.676,0.0,819.200,6568389.0,6566679.400,0.0,0.0,13554.400,37417.400
3.015,5.927,90.330,0.0,0.0,0.728,0.0,1638.400,6522876.800,6518662.0,0.0,0.0,13485.600,37179.800
2.704,5.980,90.562,0.0,0.0,0.754,0.0,1638.400,6565345.200,6560886.0,0.0,0.0,13725.600,37562.400
2.754,5.820,90.751,0.0,0.0,0.676,0.0,819.200,6490212.200,6487982.600,0.0,0.0,13488.0,37116.200
2.666,5.745,90.813,0.0,0.0,0.776,0.0,5734.400,6504065.600,6497448.600,0.0,0.0,13564.0,37212.0
2.287,5.717,91.216,0.078,0.0,0.702,0.0,24576.0,6532455.800,6529112.600,0.0,0.0,13599.800,37285.800
2.131,5.249,91.632,0.0,0.0,0.988,0.0,819.200,6363421.400,6362898.800,0.0,0.0,13204.800,36165.800
0.025,0.0,99.975,0.0,0.0,0.0,0.0,1638.400,6745.200,2140.800,0.0,0.0,41.600,132.800
