"Dstat 0.7.2 CSV output"
"Author:","Dag Wieers <dag@wieers.com>",,,,"URL:","http://dag.wieers.com/home-made/dstat/"
"Host:","Middleware2",,,,"User:","mstevan"
"Cmdline:","dstat --output /home/mstevan/logs/experiment_3.3/dstat/vs_512-vcpr_8-wtpm_64-rep_1.csv 5 16",,,,"Date:","28 Oct 2019 13:49:12 UTC"

"total cpu usage",,,,,,"dsk/total",,"net/total",,"paging",,"system",
"usr","sys","idl","wai","hiq","siq","read","writ","recv","send","in","out","int","csw"
0.451,0.747,98.652,0.051,0.0,0.100,8674.679,4965316.713,0.0,0.0,0.0,0.0,1743.235,5060.906
0.778,0.150,99.047,0.0,0.0,0.025,0.0,1638.400,46842.400,42921.200,0.0,0.0,316.200,965.200
7.543,6.862,84.678,0.0,0.0,0.917,0.0,1638.400,5944624.600,5943262.600,0.0,0.0,14366.0,39344.600
4.283,6.216,88.587,0.104,0.0,0.810,0.0,45056.0,6240804.600,6237075.0,0.0,0.0,15618.800,41772.600
2.637,5.953,90.601,0.0,0.0,0.809,0.0,1638.400,6482464.600,6479321.200,0.0,0.0,16233.0,43543.0
2.962,5.872,90.595,0.0,0.0,0.572,0.0,1638.400,6319768.400,6316539.800,0.0,0.0,15743.0,42258.0
2.571,6.206,90.366,0.0,0.0,0.857,0.0,4096.0,6364132.800,6359739.600,0.0,0.0,15902.0,42746.0
2.405,5.935,91.007,0.0,0.0,0.654,0.0,9011.200,6352620.400,6350496.400,0.0,0.0,15979.0,42651.400
2.939,6.008,90.351,0.0,0.0,0.702,0.0,1638.400,6315653.200,6311378.800,0.0,0.0,15804.800,42332.400
2.148,5.919,91.331,0.026,0.0,0.576,0.0,18841.600,6322169.0,6317987.0,0.0,0.0,15836.400,42392.0
2.232,5.618,91.468,0.0,0.0,0.683,0.0,819.200,6351314.800,6349324.0,0.0,0.0,15891.0,42581.200
2.609,6.235,90.556,0.0,0.0,0.600,0.0,1638.400,6392059.600,6387863.200,0.0,0.0,15980.800,42733.200
2.742,6.441,90.145,0.0,0.0,0.673,0.0,819.200,6422012.200,6419686.600,0.0,0.0,15972.800,43095.600
2.202,5.976,91.166,0.0,0.0,0.655,0.0,5734.400,6356126.200,6351809.0,0.0,0.0,15898.600,42610.600
2.456,6.114,90.828,0.0,0.0,0.601,0.0,3276.800,6431037.600,6426972.0,0.0,0.0,16129.0,43115.600
2.654,6.011,90.580,0.078,0.0,0.677,0.0,18841.600,6158342.400,6156699.600,0.0,0.0,15477.0,41324.0
0.050,0.0,99.950,0.0,0.0,0.0,0.0,1638.400,6336.0,1956.0,0.0,0.0,34.0,121.0
