"Dstat 0.7.2 CSV output"
"Author:","Dag Wieers <dag@wieers.com>",,,,"URL:","http://dag.wieers.com/home-made/dstat/"
"Host:","Middleware2",,,,"User:","mstevan"
"Cmdline:","dstat --output /home/mstevan/logs/experiment_3.3/dstat/vs_512-vcpr_4-wtpm_32-rep_1.csv 5 16",,,,"Date:","28 Oct 2019 13:26:27 UTC"

"total cpu usage",,,,,,"dsk/total",,"net/total",,"paging",,"system",
"usr","sys","idl","wai","hiq","siq","read","writ","recv","send","in","out","int","csw"
0.409,0.671,98.775,0.052,0.0,0.094,8904.673,5096781.305,0.0,0.0,0.0,0.0,1536.742,4480.389
0.828,0.201,98.921,0.050,0.0,0.0,0.0,41779.200,94281.600,89876.600,0.0,0.0,377.800,1089.400
6.346,4.179,88.953,0.0,0.0,0.522,0.0,819.200,4401217.0,4399054.800,0.0,0.0,10228.0,31044.800
3.306,4.434,92.004,0.0,0.0,0.256,0.0,1638.400,4551141.0,4546837.400,0.0,0.0,10850.200,32036.800
3.234,4.450,91.928,0.0,0.0,0.388,0.0,3276.800,4506845.400,4502386.200,0.0,0.0,10854.800,32049.400
1.880,4.222,93.692,0.0,0.0,0.206,0.0,819.200,4528099.200,4525172.0,0.0,0.0,10760.0,32015.600
2.049,4.380,93.238,0.0,0.0,0.333,0.0,4096.0,4530122.200,4526226.600,0.0,0.0,10794.200,32036.400
2.105,4.390,93.145,0.051,0.0,0.308,0.0,27033.600,4567080.200,4562355.200,0.0,0.0,10811.400,32347.200
1.754,4.360,93.550,0.0,0.0,0.335,0.0,819.200,4661458.400,4659473.200,0.0,0.0,11018.0,32990.600
1.775,4.348,93.594,0.0,0.0,0.283,0.0,1638.400,4584402.800,4580065.800,0.0,0.0,10806.200,32494.0
1.653,4.133,93.903,0.0,0.0,0.310,0.0,819.200,4620008.0,4617828.800,0.0,0.0,10953.200,32759.0
1.999,4.819,92.925,0.0,0.0,0.256,0.0,1638.400,4521425.0,4516429.400,0.0,0.0,10682.400,32113.400
1.631,3.987,94.150,0.0,0.0,0.233,0.0,1638.400,4525478.200,4521018.600,0.0,0.0,10633.800,32079.800
1.902,4.396,93.342,0.077,0.0,0.283,0.0,15564.800,4607134.400,4605325.400,0.0,0.0,10776.200,32665.0
1.926,4.468,93.374,0.0,0.0,0.231,0.0,9011.200,4584965.600,4580628.600,0.0,0.0,10688.600,32408.200
1.953,3.932,93.806,0.0,0.0,0.308,0.0,2457.600,4401531.400,4397336.200,0.0,0.0,10258.200,31037.600
0.050,0.025,99.925,0.0,0.0,0.0,0.0,819.200,3237.800,1100.600,0.0,0.0,38.600,119.200
