"Dstat 0.7.2 CSV output"
"Author:","Dag Wieers <dag@wieers.com>",,,,"URL:","http://dag.wieers.com/home-made/dstat/"
"Host:","Middleware2",,,,"User:","mstevan"
"Cmdline:","dstat --output /home/mstevan/logs/experiment_3.3/dstat/vs_512-vcpr_8-wtpm_32-rep_2.csv 5 16",,,,"Date:","28 Oct 2019 13:44:56 UTC"

"total cpu usage",,,,,,"dsk/total",,"net/total",,"paging",,"system",
"usr","sys","idl","wai","hiq","siq","read","writ","recv","send","in","out","int","csw"
0.441,0.727,98.683,0.051,0.0,0.098,8716.891,4989445.384,0.0,0.0,0.0,0.0,1693.981,4916.755
0.627,0.201,99.123,0.0,0.0,0.050,0.0,1638.400,61771.600,56633.200,0.0,0.0,313.200,869.800
6.764,6.499,85.892,0.0,0.0,0.845,0.0,1638.400,6338727.200,6337254.800,0.0,0.0,14178.200,41406.800
5.219,6.194,87.902,0.0,0.0,0.685,0.0,1638.400,6373672.0,6369212.800,0.0,0.0,14404.600,42033.800
2.681,5.678,90.799,0.0,0.0,0.841,0.0,2457.600,6388247.200,6383846.0,0.0,0.0,14363.600,42138.0
2.277,5.864,91.152,0.026,0.0,0.681,0.0,32768.0,6278904.400,6276886.0,0.0,0.0,14122.800,41419.200
2.982,6.352,89.940,0.0,0.0,0.726,0.0,4096.0,6468894.400,6464079.400,0.0,0.0,14599.800,42679.600
2.656,6.250,90.312,0.0,0.0,0.781,0.0,9830.400,6350437.400,6346340.0,0.0,0.0,14277.200,41866.800
2.847,5.850,90.467,0.0,0.0,0.836,0.0,819.200,6490251.600,6488022.0,0.0,0.0,14688.0,42924.0
2.383,5.970,91.019,0.0,0.0,0.628,0.0,1638.400,6437535.600,6433076.400,0.0,0.0,14560.200,42573.0
3.089,6.075,90.213,0.0,0.0,0.623,0.0,819.200,6365761.600,6363532.0,0.0,0.0,14276.200,41955.800
2.629,6.299,90.370,0.052,0.0,0.651,0.0,19660.800,6366612.600,6362153.400,0.0,0.0,14330.800,42123.400
2.287,5.783,91.377,0.0,0.0,0.552,0.0,10649.600,6462305.0,6457845.800,0.0,0.0,14574.800,42787.800
2.537,5.753,91.109,0.0,0.0,0.601,0.0,4915.200,6403398.0,6401168.400,0.0,0.0,14381.400,42330.0
2.602,6.219,90.450,0.0,0.0,0.729,0.0,3276.800,6384510.800,6378988.0,0.0,0.0,14389.400,42283.800
2.259,6.252,90.833,0.0,0.0,0.657,0.0,1638.400,6489837.0,6486611.800,0.0,0.0,14632.800,42912.600
0.0,0.025,99.975,0.0,0.0,0.0,0.0,819.200,3224.600,1074.200,0.0,0.0,37.0,116.400
