"Dstat 0.7.2 CSV output"
"Author:","Dag Wieers <dag@wieers.com>",,,,"URL:","http://dag.wieers.com/home-made/dstat/"
"Host:","Middleware2",,,,"User:","mstevan"
"Cmdline:","dstat --output /home/mstevan/logs/experiment_3.3/dstat/vs_64-vcpr_16-wtpm_8-rep_4.csv 5 16",,,,"Date:","28 Oct 2019 11:42:32 UTC"

"total cpu usage",,,,,,"dsk/total",,"net/total",,"paging",,"system",
"usr","sys","idl","wai","hiq","siq","read","writ","recv","send","in","out","int","csw"
0.150,0.207,99.568,0.057,0.0,0.018,10131.986,5798348.765,0.0,0.0,0.0,0.0,488.095,1441.097
0.451,0.150,99.399,0.0,0.0,0.0,0.0,819.200,15718.600,12475.0,0.0,0.0,169.600,513.0
4.827,3.287,91.364,0.0,0.0,0.522,0.0,1638.400,1977463.800,1973150.0,0.0,0.0,6305.600,23254.200
3.927,3.063,92.749,0.0,0.0,0.262,0.0,1638.400,1995939.0,1991478.400,0.0,0.0,8531.200,23399.400
2.295,3.636,93.605,0.026,0.0,0.438,0.0,32768.0,2002889.800,2000732.600,0.0,0.0,8762.400,23652.400
2.342,3.409,93.885,0.0,0.0,0.364,0.0,1638.400,2037635.800,2033200.800,0.0,0.0,8451.400,24039.600
1.747,2.947,95.020,0.0,0.0,0.287,0.0,4096.0,2003101.400,2000645.200,0.0,0.0,8420.400,23716.200
1.686,3.139,94.890,0.0,0.0,0.285,0.0,9830.400,2026589.400,2022306.800,0.0,0.0,9216.600,23921.800
1.424,3.288,94.847,0.0,0.0,0.440,0.0,819.200,2027639.0,2025429.400,0.0,0.0,9324.600,23972.800
1.119,3.280,95.393,0.0,0.0,0.208,0.0,1638.400,2025011.400,2020522.400,0.0,0.0,9407.800,23815.800
1.557,3.010,94.966,0.052,0.0,0.415,0.0,22118.400,2049498.200,2045044.800,0.0,0.0,9589.600,24186.400
1.683,3.313,94.693,0.0,0.0,0.311,0.0,819.200,2050161.400,2047770.200,0.0,0.0,9454.800,24194.0
1.274,3.016,95.398,0.0,0.0,0.312,0.0,1638.400,2018203.0,2014038.800,0.0,0.0,9231.0,23868.400
1.067,3.226,95.343,0.0,0.0,0.364,0.0,5734.400,2015833.400,2011094.200,0.0,0.0,9386.800,23858.0
1.347,3.265,95.154,0.0,0.0,0.233,0.0,2457.600,1985552.0,1983506.200,0.0,0.0,9185.800,23458.0
1.273,3.091,95.247,0.0,0.0,0.390,0.0,1638.400,2014925.400,2010554.400,0.0,0.0,9717.200,23824.800
0.150,0.025,99.825,0.0,0.0,0.0,0.0,18841.600,7252.0,2507.600,0.0,0.0,49.800,142.400
