"Dstat 0.7.2 CSV output"
"Author:","Dag Wieers <dag@wieers.com>",,,,"URL:","http://dag.wieers.com/home-made/dstat/"
"Host:","Middleware2",,,,"User:","mstevan"
"Cmdline:","dstat --output /home/mstevan/logs/experiment_3.3/dstat/vs_64-vcpr_32-wtpm_64-rep_3.csv 5 16",,,,"Date:","28 Oct 2019 12:09:33 UTC"

"total cpu usage",,,,,,"dsk/total",,"net/total",,"paging",,"system",
"usr","sys","idl","wai","hiq","siq","read","writ","recv","send","in","out","int","csw"
0.231,0.352,99.316,0.056,0.0,0.046,9781.556,5598028.900,0.0,0.0,0.0,0.0,796.657,2329.047
0.501,0.226,99.273,0.0,0.0,0.0,0.0,1638.400,21474.400,15431.200,0.0,0.0,290.0,790.0
7.821,7.635,82.344,0.0,0.0,2.200,0.0,1638.400,3379574.0,3376190.400,0.0,0.0,10077.400,33912.600
5.372,6.866,85.770,0.0,0.0,1.992,0.0,819.200,3360120.400,3357889.800,0.0,0.0,10217.400,33423.0
2.981,7.374,87.605,0.0,0.0,2.040,0.0,3276.800,3495080.800,3490423.0,0.0,0.0,10415.800,34282.600
4.667,7.315,85.711,0.052,0.0,2.255,0.0,35225.600,3352400.600,3350305.600,0.0,0.0,10144.0,33427.200
4.087,6.916,86.822,0.0,0.0,2.174,0.0,12288.0,3398115.0,3393076.600,0.0,0.0,10216.800,33979.400
3.772,7.543,86.564,0.0,0.0,2.122,0.0,13926.400,3392259.200,3388402.200,0.0,0.0,10315.400,34036.800
3.317,6.741,88.057,0.0,0.0,1.884,0.0,2457.600,3416545.200,3414125.400,0.0,0.0,10379.800,34253.600
3.601,6.914,87.434,0.0,0.0,2.050,0.0,1638.400,3357389.800,3355156.400,0.0,0.0,10166.0,33659.0
3.327,6.759,87.896,0.0,0.0,2.017,0.0,1638.400,3414914.600,3410470.200,0.0,0.0,10502.400,34351.400
3.021,6.961,87.917,0.053,0.0,2.049,0.0,22937.600,3453596.600,3451425.200,0.0,0.0,10554.800,34424.200
3.136,6.798,88.169,0.0,0.0,1.897,0.0,1638.400,3433754.400,3429295.200,0.0,0.0,10516.600,34555.200
2.885,6.845,88.277,0.0,0.0,1.993,0.0,5734.400,3424999.0,3420473.600,0.0,0.0,10395.200,34038.800
3.124,7.524,87.321,0.0,0.0,2.031,0.0,2457.600,3409703.400,3407541.200,0.0,0.0,10293.0,33731.200
3.061,7.497,87.419,0.0,0.0,2.023,0.0,1638.400,3377807.400,3373342.800,0.0,0.0,10458.400,33886.0
0.050,0.025,99.925,0.0,0.0,0.0,0.0,819.200,3237.800,1206.200,0.0,0.0,39.400,124.200
