"Dstat 0.7.2 CSV output"
"Author:","Dag Wieers <dag@wieers.com>",,,,"URL:","http://dag.wieers.com/home-made/dstat/"
"Host:","Middleware2",,,,"User:","mstevan"
"Cmdline:","dstat --output /home/mstevan/logs/experiment_3.3/dstat/vs_64-vcpr_8-wtpm_64-rep_3.csv 5 16",,,,"Date:","28 Oct 2019 11:35:26 UTC"

"total cpu usage",,,,,,"dsk/total",,"net/total",,"paging",,"system",
"usr","sys","idl","wai","hiq","siq","read","writ","recv","send","in","out","int","csw"
0.132,0.177,99.619,0.057,0.0,0.015,10228.417,5853472.665,0.0,0.0,0.0,0.0,397.846,1211.104
0.677,0.201,99.097,0.0,0.0,0.025,0.0,1638.400,23217.600,19001.600,0.0,0.0,309.800,861.400
7.226,6.197,85.549,0.0,0.0,1.028,0.0,1638.400,2194609.400,2190792.600,0.0,0.0,14806.800,40924.800
5.496,6.278,87.393,0.0,0.0,0.834,0.0,1638.400,2259569.600,2257919.600,0.0,0.0,15922.200,42538.0
2.413,5.666,91.264,0.052,0.0,0.603,0.0,31948.800,2225470.0,2221082.0,0.0,0.0,15960.200,42149.200
2.403,6.008,90.961,0.0,0.0,0.627,0.0,819.200,2236488.400,2234584.0,0.0,0.0,16163.0,42456.400
2.461,5.708,91.280,0.0,0.0,0.550,0.0,1638.400,2233495.0,2229395.800,0.0,0.0,16114.200,42243.200
2.744,5.980,90.448,0.0,0.0,0.828,0.0,12288.0,2276684.200,2272019.0,0.0,0.0,16274.400,42998.600
2.435,5.340,91.361,0.0,0.0,0.864,0.0,819.200,2214820.800,2213378.0,0.0,0.0,15875.600,41954.400
2.720,5.675,91.004,0.0,0.0,0.601,0.0,1638.400,2271420.800,2267060.0,0.0,0.0,16306.400,43031.800
2.476,5.942,90.983,0.026,0.0,0.573,0.0,16384.0,2255735.800,2251344.0,0.0,0.0,16207.400,42548.800
2.610,5.846,90.919,0.0,0.0,0.626,0.0,7372.800,2249390.400,2247463.0,0.0,0.0,16171.0,42632.800
2.147,6.021,91.230,0.0,0.0,0.602,0.0,1638.400,2270674.800,2266098.600,0.0,0.0,16418.0,43103.0
2.112,5.702,91.631,0.0,0.0,0.554,0.0,5734.400,2274246.0,2272701.0,0.0,0.0,16450.400,43068.400
2.593,5.991,90.742,0.0,0.0,0.674,0.0,2457.600,2261701.800,2257547.400,0.0,0.0,16207.600,42711.800
2.490,6.017,90.871,0.0,0.0,0.622,0.0,1638.400,2193871.200,2190163.200,0.0,0.0,15751.400,41477.800
0.050,0.025,99.825,0.100,0.0,0.0,0.0,14745.600,3309.0,1216.600,0.0,0.0,46.0,137.400
