"Dstat 0.7.2 CSV output"
"Author:","Dag Wieers <dag@wieers.com>",,,,"URL:","http://dag.wieers.com/home-made/dstat/"
"Host:","Middleware2",,,,"User:","mstevan"
"Cmdline:","dstat --output /home/mstevan/logs/experiment_3.3/dstat/vs_64-vcpr_8-wtpm_8-rep_2.csv 5 16",,,,"Date:","28 Oct 2019 11:22:38 UTC"

"total cpu usage",,,,,,"dsk/total",,"net/total",,"paging",,"system",
"usr","sys","idl","wai","hiq","siq","read","writ","recv","send","in","out","int","csw"
0.098,0.112,99.724,0.058,0.0,0.007,10406.718,5955400.402,0.0,0.0,0.0,0.0,219.383,712.643
0.752,0.251,98.922,0.0,0.0,0.075,0.0,1638.400,40786.400,35981.600,0.0,0.0,272.800,870.800
4.952,3.414,91.321,0.0,0.0,0.313,0.0,819.200,1930650.800,1928258.600,0.0,0.0,7078.600,23052.600
3.240,3.344,93.157,0.0,0.0,0.259,0.0,1638.400,1966397.0,1961966.200,0.0,0.0,8425.0,23643.600
1.301,2.862,95.550,0.078,0.0,0.208,0.0,31129.600,1978059.200,1975830.400,0.0,0.0,8738.800,23759.400
1.476,3.108,95.208,0.0,0.0,0.207,0.0,1638.400,2006039.800,2001539.200,0.0,0.0,8416.800,24051.200
1.167,3.087,95.486,0.0,0.0,0.259,0.0,4096.0,1991684.400,1987225.200,0.0,0.0,8696.400,23986.200
1.499,3.128,95.010,0.0,0.0,0.362,0.0,819.200,2028434.600,2026358.200,0.0,0.0,8632.600,24460.600
1.502,2.952,95.184,0.0,0.0,0.363,0.0,9830.400,2020911.400,2016240.200,0.0,0.0,8450.400,24445.0
1.401,2.932,95.407,0.0,0.0,0.259,0.0,1638.400,2018417.400,2014036.200,0.0,0.0,9139.800,24125.0
1.318,3.386,95.012,0.0,0.0,0.284,0.0,819.200,2018415.0,2016285.800,0.0,0.0,9389.0,24142.200
1.269,3.057,95.311,0.052,0.0,0.311,0.0,27033.600,2003201.200,1998699.600,0.0,0.0,9254.200,24009.800
1.294,3.288,95.159,0.0,0.0,0.259,0.0,1638.400,1998164.600,1993705.200,0.0,0.0,9375.200,23777.800
1.222,2.677,95.867,0.0,0.0,0.234,0.0,819.200,1934765.800,1932538.600,0.0,0.0,9097.200,23067.200
1.423,3.157,95.031,0.0,0.0,0.388,0.0,6553.600,2010425.600,2005869.0,0.0,0.0,9475.0,23907.800
1.417,3.401,94.924,0.0,0.0,0.258,0.0,1638.400,1954915.200,1952838.0,0.0,0.0,8916.800,23307.800
0.025,0.025,99.950,0.0,0.0,0.0,0.0,1638.400,6547.200,2074.800,0.0,0.0,46.0,145.600
