"Dstat 0.7.2 CSV output"
"Author:","Dag Wieers <dag@wieers.com>",,,,"URL:","http://dag.wieers.com/home-made/dstat/"
"Host:","Middleware2",,,,"User:","mstevan"
"Cmdline:","dstat --output /home/mstevan/logs/experiment_3.3/dstat/vs_64-vcpr_4-wtpm_8-rep_3.csv 5 16",,,,"Date:","28 Oct 2019 11:07:00 UTC"

"total cpu usage",,,,,,"dsk/total",,"net/total",,"paging",,"system",
"usr","sys","idl","wai","hiq","siq","read","writ","recv","send","in","out","int","csw"
0.061,0.047,99.831,0.059,0.0,0.003,10633.242,6084893.421,0.0,0.0,0.0,0.0,35.086,172.201
0.626,0.150,99.199,0.0,0.0,0.025,0.0,1638.400,28964.0,24344.0,0.0,0.0,255.600,762.0
6.229,3.701,89.627,0.052,0.0,0.391,0.0,28672.0,1575843.600,1573535.0,0.0,0.0,7132.600,28332.200
2.779,3.654,93.258,0.0,0.0,0.309,0.0,7372.800,1617023.800,1612755.600,0.0,0.0,6727.800,28972.0
2.709,3.483,93.602,0.0,0.0,0.206,0.0,2457.600,1615002.400,1610508.800,0.0,0.0,6947.400,28822.200
1.594,3.780,94.369,0.0,0.0,0.257,0.0,1638.400,1654176.0,1652013.200,0.0,0.0,7388.600,29759.400
1.567,3.724,94.504,0.0,0.0,0.205,0.0,1638.400,1627110.800,1622584.400,0.0,0.0,7126.600,29306.400
1.572,3.196,94.948,0.0,0.0,0.284,0.0,12288.0,1596793.200,1592106.800,0.0,0.0,7207.200,28726.0
1.858,3.122,94.788,0.0,0.0,0.232,0.0,819.200,1604226.0,1602223.600,0.0,0.0,7410.800,28973.200
1.575,2.969,95.249,0.026,0.0,0.181,0.0,16384.0,1593436.0,1589044.0,0.0,0.0,7230.800,28616.800
1.414,3.677,94.729,0.0,0.0,0.180,0.0,1638.400,1636744.600,1632218.200,0.0,0.0,6749.0,29382.200
1.520,3.092,95.053,0.0,0.0,0.335,0.0,819.200,1610318.600,1607960.800,0.0,0.0,7032.200,28998.800
1.742,3.894,94.158,0.0,0.0,0.205,0.0,1638.400,1647713.400,1643382.400,0.0,0.0,7338.200,29517.0
1.439,3.675,94.731,0.0,0.0,0.154,0.0,5734.400,1617748.200,1613168.0,0.0,0.0,7220.400,29155.600
1.570,3.166,94.903,0.0,0.0,0.360,0.0,2457.600,1597126.800,1594983.400,0.0,0.0,7284.400,28711.600
1.496,3.353,94.867,0.077,0.0,0.206,0.0,16384.0,1620622.0,1616235.200,0.0,0.0,7356.400,29142.0
0.050,0.025,99.925,0.0,0.0,0.0,0.0,819.200,3251.0,1100.600,0.0,0.0,41.0,114.200
