"Dstat 0.7.2 CSV output"
"Author:","Dag Wieers <dag@wieers.com>",,,,"URL:","http://dag.wieers.com/home-made/dstat/"
"Host:","Middleware2",,,,"User:","mstevan"
"Cmdline:","dstat --output /home/mstevan/logs/experiment_3.3/dstat/vs_64-vcpr_4-wtpm_64-rep_1.csv 5 16",,,,"Date:","28 Oct 2019 11:15:32 UTC"

"total cpu usage",,,,,,"dsk/total",,"net/total",,"paging",,"system",
"usr","sys","idl","wai","hiq","siq","read","writ","recv","send","in","out","int","csw"
0.081,0.083,99.773,0.059,0.0,0.005,10508.473,6013569.682,0.0,0.0,0.0,0.0,129.467,474.313
0.755,0.252,98.943,0.0,0.0,0.050,0.0,1638.400,34566.0,30595.200,0.0,0.0,403.0,1144.800
5.412,4.346,89.696,0.0,0.0,0.546,0.0,1638.400,1529392.0,1527809.200,0.0,0.0,11102.800,30563.400
3.368,4.113,92.185,0.0,0.0,0.334,0.0,819.200,1548613.400,1549904.600,0.0,0.0,11814.0,31043.600
3.146,4.186,92.330,0.052,0.0,0.286,0.0,32768.0,1594152.800,1590949.0,0.0,0.0,12141.400,31923.600
2.066,3.641,94.036,0.0,0.0,0.258,0.0,1638.400,1580429.0,1579004.600,0.0,0.0,12118.600,31736.600
1.860,3.772,94.033,0.0,0.0,0.336,0.0,4096.0,1600484.600,1597139.0,0.0,0.0,12221.200,32041.800
2.050,4.254,93.388,0.0,0.0,0.308,0.0,9830.400,1561360.600,1558060.400,0.0,0.0,11972.600,31362.800
1.777,3.888,94.001,0.0,0.0,0.335,0.0,819.200,1539964.200,1542521.600,0.0,0.0,11800.400,31053.0
1.602,4.133,94.007,0.0,0.0,0.258,0.0,1638.400,1573745.200,1572050.600,0.0,0.0,12069.800,31616.0
1.778,4.201,93.711,0.077,0.0,0.232,0.0,17203.200,1575237.800,1571673.0,0.0,0.0,12013.600,31572.0
1.725,4.299,93.642,0.0,0.0,0.335,0.0,7372.800,1607552.800,1606234.0,0.0,0.0,12284.600,32323.400
1.861,3.749,94.080,0.0,0.0,0.310,0.0,1638.400,1607859.800,1605129.800,0.0,0.0,12271.200,32378.400
1.874,4.312,93.429,0.0,0.0,0.385,0.0,5734.400,1604727.400,1602379.0,0.0,0.0,12245.600,32180.600
1.676,4.202,93.916,0.0,0.0,0.206,0.0,2457.600,1576871.0,1575537.0,0.0,0.0,12022.200,31629.200
1.706,3.749,94.338,0.0,0.0,0.207,0.0,1638.400,1514823.200,1513996.0,0.0,0.0,11622.400,30524.400
0.025,0.025,99.950,0.0,0.0,0.0,0.0,819.200,3237.800,1061.0,0.0,0.0,38.800,117.200
