"Dstat 0.7.2 CSV output"
"Author:","Dag Wieers <dag@wieers.com>",,,,"URL:","http://dag.wieers.com/home-made/dstat/"
"Host:","Middleware2",,,,"User:","mstevan"
"Cmdline:","dstat --output /home/mstevan/logs/experiment_3.3/dstat/vs_64-vcpr_8-wtpm_8-rep_1.csv 5 16",,,,"Date:","28 Oct 2019 11:21:13 UTC"

"total cpu usage",,,,,,"dsk/total",,"net/total",,"paging",,"system",
"usr","sys","idl","wai","hiq","siq","read","writ","recv","send","in","out","int","csw"
0.096,0.108,99.732,0.058,0.0,0.007,10426.913,5966945.423,0.0,0.0,0.0,0.0,205.805,675.926
0.576,0.100,99.299,0.0,0.0,0.025,0.0,1638.400,26315.200,21505.600,0.0,0.0,202.800,632.200
4.893,3.982,90.656,0.0,0.0,0.469,0.0,819.200,1947735.400,1945521.600,0.0,0.0,6774.0,23589.200
5.186,3.053,91.050,0.395,0.0,0.316,0.0,31129.600,1972021.600,1967670.600,0.0,0.0,7989.600,23775.400
1.507,3.222,94.984,0.0,0.0,0.286,0.0,9830.400,1977423.800,1972899.800,0.0,0.0,9124.600,23612.0
1.396,3.489,94.779,0.0,0.0,0.336,0.0,819.200,1994503.800,1992288.800,0.0,0.0,9485.200,23824.200
1.299,3.041,95.348,0.0,0.0,0.312,0.0,4096.0,1968824.200,1964364.800,0.0,0.0,8891.200,23832.0
1.475,3.313,94.902,0.0,0.0,0.311,0.0,9830.400,2000058.400,1995750.400,0.0,0.0,9395.200,24120.400
1.400,3.136,95.308,0.0,0.0,0.156,0.0,819.200,1993468.0,1991221.600,0.0,0.0,8919.400,24012.200
1.222,2.859,95.529,0.026,0.0,0.364,0.0,16384.0,1982388.600,1977754.400,0.0,0.0,8907.600,23857.200
1.272,3.140,95.225,0.0,0.0,0.363,0.0,819.200,1985918.800,1983689.800,0.0,0.0,8888.0,23984.800
1.115,3.422,95.178,0.0,0.0,0.285,0.0,1638.400,1985191.800,1980732.0,0.0,0.0,9032.200,23943.400
1.452,3.060,95.124,0.0,0.0,0.363,0.0,1638.400,1971538.200,1967098.600,0.0,0.0,8676.0,23891.200
1.169,3.013,95.455,0.0,0.0,0.364,0.0,4915.200,1994479.0,1992059.200,0.0,0.0,8786.800,24089.400
1.477,2.955,95.231,0.0,0.0,0.337,0.0,3276.800,1983593.800,1979312.400,0.0,0.0,9156.0,23899.600
1.066,2.937,95.581,0.078,0.0,0.338,0.0,17203.200,1950726.800,1946368.600,0.0,0.0,8783.600,23577.800
0.050,0.025,99.925,0.0,0.0,0.0,0.0,819.200,3237.800,1074.200,0.0,0.0,36.200,112.800
