"Dstat 0.7.2 CSV output"
"Author:","Dag Wieers <dag@wieers.com>",,,,"URL:","http://dag.wieers.com/home-made/dstat/"
"Host:","Middleware2",,,,"User:","mstevan"
"Cmdline:","dstat --output /home/mstevan/logs/experiment_3.3/dstat/vs_64-vcpr_8-wtpm_64-rep_2.csv 5 16",,,,"Date:","28 Oct 2019 11:34:00 UTC"

"total cpu usage",,,,,,"dsk/total",,"net/total",,"paging",,"system",
"usr","sys","idl","wai","hiq","siq","read","writ","recv","send","in","out","int","csw"
0.128,0.168,99.632,0.058,0.0,0.014,10247.926,5864625.276,0.0,0.0,0.0,0.0,372.964,1146.016
0.828,0.226,98.921,0.0,0.0,0.025,0.0,1638.400,36114.400,31949.200,0.0,0.0,398.400,1111.0
6.647,5.530,86.839,0.080,0.0,0.904,0.0,31129.600,2158525.400,2155349.0,0.0,0.0,14714.0,40212.0
5.643,6.168,87.218,0.0,0.0,0.971,0.0,819.200,2232987.0,2230576.800,0.0,0.0,16080.600,42345.400
2.493,5.328,91.391,0.0,0.0,0.787,0.0,3276.800,2313760.600,2309876.800,0.0,0.0,16733.800,43900.400
2.482,5.669,91.118,0.0,0.0,0.731,0.0,1638.400,2290798.400,2286485.600,0.0,0.0,16505.600,43354.600
2.653,5.801,91.129,0.0,0.0,0.416,0.0,3276.800,2296000.400,2293902.800,0.0,0.0,16601.400,43519.0
2.688,5.480,91.101,0.0,0.0,0.731,0.0,9830.400,2298826.600,2294420.200,0.0,0.0,16510.400,43402.400
2.537,5.439,91.344,0.026,0.0,0.654,0.0,16384.0,2299589.600,2295241.200,0.0,0.0,16623.400,43523.200
2.372,5.970,91.137,0.0,0.0,0.521,0.0,7372.800,2198825.600,2196898.400,0.0,0.0,15948.600,41698.600
2.301,5.779,91.213,0.0,0.0,0.706,0.0,1638.400,2295629.800,2291302.600,0.0,0.0,16697.0,43451.800
2.404,5.363,91.625,0.0,0.0,0.608,0.0,819.200,2320557.800,2318196.200,0.0,0.0,16881.800,44039.0
2.558,5.560,91.308,0.0,0.0,0.574,0.0,1638.400,2267056.800,2263023.600,0.0,0.0,16363.400,42961.600
2.549,5.800,90.923,0.0,0.0,0.728,0.0,5734.400,2270709.800,2266788.200,0.0,0.0,16466.400,43070.200
2.412,5.794,91.243,0.0,0.0,0.551,0.0,2457.600,2278993.400,2276080.0,0.0,0.0,16493.0,43282.200
2.254,5.242,91.796,0.026,0.0,0.682,0.0,15564.800,2244436.200,2241313.600,0.0,0.0,16234.200,42644.400
0.075,0.025,99.900,0.0,0.0,0.0,0.0,1638.400,6336.0,1956.0,0.0,0.0,48.0,138.600
