"Dstat 0.7.2 CSV output"
"Author:","Dag Wieers <dag@wieers.com>",,,,"URL:","http://dag.wieers.com/home-made/dstat/"
"Host:","Middleware1",,,,"User:","mstevan"
"Cmdline:","dstat --output /home/mstevan/logs/experiment_3.3/dstat/vs_1024-vcpr_16-wtpm_32-rep_4.csv 5 16",,,,"Date:","28 Oct 2019 15:13:09 UTC"

"total cpu usage",,,,,,"dsk/total",,"net/total",,"paging",,"system",
"usr","sys","idl","wai","hiq","siq","read","writ","recv","send","in","out","int","csw"
2.028,4.198,93.003,0.048,0.0,0.723,5387.327,4530773.301,0.0,0.0,0.0,0.0,11095.251,32343.996
0.802,0.351,98.771,0.050,0.0,0.025,0.0,33587.200,250438.0,242717.600,0.0,0.0,452.600,1308.400
4.025,2.410,93.309,0.0,0.0,0.256,0.0,9830.400,6926495.600,6927029.200,0.0,0.0,5396.200,18424.800
1.043,2.187,96.592,0.0,0.0,0.178,0.0,1638.400,6970443.800,6965981.600,0.0,0.0,5598.800,18150.200
2.372,2.346,94.950,0.0,0.0,0.332,0.0,2457.600,7050258.200,7048045.800,0.0,0.0,5834.200,18795.200
1.403,1.964,96.429,0.0,0.0,0.204,0.0,1638.400,6998544.600,6994099.600,0.0,0.0,5743.400,18733.200
1.599,2.183,95.887,0.0,0.0,0.330,0.0,4915.200,7031247.400,7026785.200,0.0,0.0,5656.600,18808.200
1.398,2.059,96.187,0.0,0.0,0.356,0.0,9011.200,6997854.200,6995623.400,0.0,0.0,5600.800,18633.0
1.066,1.980,96.548,0.076,0.0,0.330,0.0,17203.200,7055776.600,7051313.800,0.0,0.0,5710.0,18866.600
0.686,2.338,96.747,0.0,0.0,0.229,0.0,1638.400,6969233.400,6964771.200,0.0,0.0,5500.200,18513.400
0.791,1.888,97.117,0.0,0.0,0.204,0.0,819.200,6993172.800,6990942.0,0.0,0.0,5646.400,18713.0
0.764,2.038,96.893,0.0,0.0,0.306,0.0,1638.400,6974403.0,6969940.600,0.0,0.0,5509.0,18655.600
0.966,2.135,96.670,0.0,0.0,0.229,0.0,1638.400,7053334.800,7048871.800,0.0,0.0,5520.600,18727.600
0.842,1.837,97.143,0.0,0.0,0.179,0.0,819.200,6990256.800,6988025.200,0.0,0.0,5454.400,18605.200
1.091,2.156,96.424,0.051,0.0,0.279,0.0,22118.400,7019169.0,7007513.800,0.0,0.0,5469.400,18799.800
0.815,1.884,97.072,0.0,0.0,0.229,0.0,1638.400,6849916.400,6854935.600,0.0,0.0,5355.600,18387.0
0.050,0.025,99.925,0.0,0.0,0.0,0.0,1638.400,7632.600,2859.200,0.0,0.0,55.600,159.0
