"Dstat 0.7.2 CSV output"
"Author:","Dag Wieers <dag@wieers.com>",,,,"URL:","http://dag.wieers.com/home-made/dstat/"
"Host:","Middleware1",,,,"User:","mstevan"
"Cmdline:","dstat --output /home/mstevan/logs/experiment_3.3/dstat/vs_1024-vcpr_32-wtpm_64-rep_1.csv 5 16",,,,"Date:","28 Oct 2019 15:31:38 UTC"

"total cpu usage",,,,,,"dsk/total",,"net/total",,"paging",,"system",
"usr","sys","idl","wai","hiq","siq","read","writ","recv","send","in","out","int","csw"
2.011,4.151,93.078,0.047,0.0,0.713,5286.051,4445735.473,0.0,0.0,0.0,0.0,10989.271,32023.458
0.626,0.275,99.099,0.0,0.0,0.0,0.0,1638.400,100021.0,88241.200,0.0,0.0,344.600,958.800
3.886,2.136,93.567,0.0,0.0,0.412,0.0,2457.600,6719092.0,6721226.600,0.0,0.0,3819.200,14638.200
0.890,1.628,97.303,0.0,0.0,0.178,0.0,819.200,6666967.800,6665031.0,0.0,0.0,3817.600,14286.400
2.168,1.939,95.689,0.0,0.0,0.204,0.0,1638.400,6612552.0,6608090.400,0.0,0.0,3778.600,14289.800
1.035,1.894,96.641,0.076,0.0,0.354,0.0,33587.200,6632391.200,6627928.400,0.0,0.0,3813.800,14481.200
0.935,2.073,96.764,0.0,0.0,0.228,0.0,4915.200,6771785.0,6769556.0,0.0,0.0,3893.600,14769.400
0.809,2.023,96.941,0.0,0.0,0.228,0.0,9830.400,6637221.200,6632756.600,0.0,0.0,3870.400,14527.0
0.939,1.826,97.057,0.0,0.0,0.178,0.0,819.200,6670269.200,6666594.400,0.0,0.0,3899.200,14661.600
0.983,2.092,96.648,0.0,0.0,0.277,0.0,1638.400,6687547.200,6684634.600,0.0,0.0,3918.200,14581.400
1.654,1.832,96.260,0.0,0.0,0.254,0.0,1638.400,6643039.800,6638563.800,0.0,0.0,3817.400,14437.600
0.861,1.873,96.988,0.0,0.0,0.278,0.0,819.200,6644163.400,6641951.600,0.0,0.0,3904.400,14607.400
1.085,2.069,96.568,0.050,0.0,0.227,0.0,22118.400,6697610.400,6693147.400,0.0,0.0,3950.600,14690.400
0.836,1.823,97.164,0.0,0.0,0.177,0.0,5734.400,6674443.400,6669940.200,0.0,0.0,3958.200,14682.200
0.788,1.474,97.534,0.0,0.0,0.203,0.0,2457.600,6640521.800,6638555.600,0.0,0.0,3957.0,14619.400
0.834,2.022,96.866,0.0,0.0,0.278,0.0,1638.400,6598266.0,6593116.400,0.0,0.0,3868.400,14498.400
0.201,0.326,99.448,0.0,0.0,0.025,0.0,1638.400,664127.0,659876.800,0.0,0.0,1065.0,2682.800
