"Dstat 0.7.2 CSV output"
"Author:","Dag Wieers <dag@wieers.com>",,,,"URL:","http://dag.wieers.com/home-made/dstat/"
"Host:","Middleware1",,,,"User:","mstevan"
"Cmdline:","dstat --output /home/mstevan/logs/experiment_3.3/dstat/vs_1024-vcpr_32-wtpm_8-rep_1.csv 5 16",,,,"Date:","28 Oct 2019 15:20:16 UTC"

"total cpu usage",,,,,,"dsk/total",,"net/total",,"paging",,"system",
"usr","sys","idl","wai","hiq","siq","read","writ","recv","send","in","out","int","csw"
2.023,4.183,93.027,0.048,0.0,0.720,5347.918,4497681.231,0.0,0.0,0.0,0.0,11062.862,32253.631
0.701,0.125,99.174,0.0,0.0,0.0,0.0,819.200,138651.800,131600.200,0.0,0.0,229.200,745.0
3.764,2.062,93.890,0.077,0.0,0.206,0.0,40960.0,6767203.0,6765214.0,0.0,0.0,5526.0,16340.600
1.122,1.938,96.787,0.0,0.0,0.153,0.0,1638.400,6708372.0,6702963.200,0.0,0.0,6965.0,16277.200
2.950,1.656,95.238,0.0,0.0,0.155,0.0,2457.600,6632292.400,6630912.0,0.0,0.0,7040.0,16301.600
0.822,1.515,97.560,0.0,0.0,0.103,0.0,1638.400,6694072.400,6686902.0,0.0,0.0,7105.400,16439.200
0.920,1.941,97.011,0.0,0.0,0.128,0.0,4915.200,6647136.400,6641966.0,0.0,0.0,6941.600,16276.200
0.870,1.637,97.314,0.0,0.0,0.179,0.0,9011.200,6683243.0,6682910.800,0.0,0.0,7085.200,16395.200
0.893,1.939,96.913,0.051,0.0,0.204,0.0,18841.600,6652247.200,6649249.0,0.0,0.0,7028.0,16407.800
0.642,1.540,97.691,0.0,0.0,0.128,0.0,819.200,6665509.0,6663518.800,0.0,0.0,7035.400,16429.800
1.494,1.494,96.858,0.0,0.0,0.155,0.0,1638.400,6624398.800,6618884.200,0.0,0.0,6953.400,16341.600
0.969,1.939,96.913,0.0,0.0,0.179,0.0,1638.400,6692033.400,6687538.600,0.0,0.0,7192.0,16451.200
1.196,2.138,96.564,0.0,0.0,0.102,0.0,819.200,6734577.0,6733378.200,0.0,0.0,7136.400,16474.200
0.717,1.742,97.413,0.0,0.0,0.128,0.0,5734.400,6726276.400,6719914.0,0.0,0.0,7178.400,16648.200
0.867,1.938,96.991,0.051,0.0,0.153,0.0,19660.800,6679117.800,6675374.200,0.0,0.0,7063.0,16477.600
0.816,2.039,96.992,0.0,0.0,0.153,0.0,819.200,6612019.800,6610455.200,0.0,0.0,7032.0,16310.600
0.201,0.376,99.398,0.0,0.0,0.025,0.0,1638.400,475314.0,470456.800,0.0,0.0,737.600,2087.0
