"Dstat 0.7.2 CSV output"
"Author:","Dag Wieers <dag@wieers.com>",,,,"URL:","http://dag.wieers.com/home-made/dstat/"
"Host:","Middleware1",,,,"User:","mstevan"
"Cmdline:","dstat --output /home/mstevan/logs/experiment_3.3/dstat/vs_1024-vcpr_4-wtpm_64-rep_4.csv 5 16",,,,"Date:","28 Oct 2019 14:44:43 UTC"

"total cpu usage",,,,,,"dsk/total",,"net/total",,"paging",,"system",
"usr","sys","idl","wai","hiq","siq","read","writ","recv","send","in","out","int","csw"
2.053,4.268,92.889,0.049,0.0,0.740,5550.942,4668173.242,0.0,0.0,0.0,0.0,11242.962,32792.118
0.778,0.150,98.997,0.025,0.0,0.050,0.0,32768.0,143626.800,139934.800,0.0,0.0,399.400,1153.600
4.175,3.242,92.324,0.0,0.0,0.259,0.0,819.200,6723144.600,6720631.0,0.0,0.0,9703.400,26835.800
2.106,3.057,94.631,0.0,0.0,0.205,0.0,1638.400,6550041.600,6547412.800,0.0,0.0,10053.200,26527.200
2.002,3.131,94.611,0.0,0.0,0.257,0.0,2457.600,6648518.800,6645470.800,0.0,0.0,10249.800,26921.600
1.406,2.939,95.451,0.0,0.0,0.204,0.0,1638.400,6593368.800,6591129.0,0.0,0.0,10115.0,26655.200
1.327,3.036,95.383,0.0,0.0,0.255,0.0,1638.400,6661476.0,6659398.200,0.0,0.0,10269.0,27081.200
1.277,3.166,95.276,0.051,0.0,0.230,0.0,27033.600,6524091.600,6522946.400,0.0,0.0,10066.600,26602.800
1.567,2.773,95.403,0.0,0.0,0.257,0.0,9011.200,6655579.200,6652352.800,0.0,0.0,10277.0,27246.200
1.566,2.721,95.560,0.0,0.0,0.154,0.0,1638.400,6625371.800,6621857.200,0.0,0.0,10270.400,27209.400
1.359,2.974,95.462,0.0,0.0,0.205,0.0,819.200,6588218.200,6586725.400,0.0,0.0,10210.200,26979.0
1.380,3.093,95.373,0.0,0.0,0.153,0.0,1638.400,6563504.400,6560811.600,0.0,0.0,10147.200,26913.400
1.302,3.218,95.225,0.0,0.0,0.255,0.0,1638.400,6698582.200,6694601.600,0.0,0.0,10303.400,27125.400
1.281,3.330,95.056,0.077,0.0,0.256,0.0,19660.800,6852316.800,6849002.600,0.0,0.0,10570.400,27851.600
1.350,3.465,95.006,0.0,0.0,0.178,0.0,2457.600,6668444.0,6667854.400,0.0,0.0,10281.600,27011.0
1.230,2.691,95.874,0.0,0.0,0.205,0.0,1638.400,6489118.0,6486398.800,0.0,0.0,9985.400,26361.400
0.050,0.025,99.925,0.0,0.0,0.0,0.0,819.200,3224.600,1059.400,0.0,0.0,36.600,119.0
