"Dstat 0.7.2 CSV output"
"Author:","Dag Wieers <dag@wieers.com>",,,,"URL:","http://dag.wieers.com/home-made/dstat/"
"Host:","Middleware1",,,,"User:","mstevan"
"Cmdline:","dstat --output /home/mstevan/logs/experiment_3.3/dstat/vs_1024-vcpr_32-wtpm_8-rep_2.csv 5 16",,,,"Date:","28 Oct 2019 15:21:41 UTC"

"total cpu usage",,,,,,"dsk/total",,"net/total",,"paging",,"system",
"usr","sys","idl","wai","hiq","siq","read","writ","recv","send","in","out","int","csw"
2.022,4.179,93.033,0.048,0.0,0.719,5340.102,4491118.368,0.0,0.0,0.0,0.0,11055.114,32226.416
0.626,0.175,99.173,0.0,0.0,0.025,0.0,819.200,184100.200,179276.200,0.0,0.0,268.0,839.600
3.826,2.209,93.785,0.0,0.0,0.180,0.0,1638.400,6822672.200,6818054.400,0.0,0.0,5959.800,16421.200
1.018,2.010,96.744,0.076,0.0,0.153,0.0,31948.800,6714402.400,6709943.200,0.0,0.0,6182.200,16430.600
3.059,2.005,94.781,0.0,0.0,0.154,0.0,2457.600,6739395.600,6737162.600,0.0,0.0,6163.600,16320.800
0.891,1.934,97.022,0.0,0.0,0.153,0.0,1638.400,6776876.800,6772372.800,0.0,0.0,6328.200,16719.800
0.764,1.807,97.277,0.0,0.0,0.153,0.0,4915.200,6753401.0,6751171.0,0.0,0.0,6319.0,16733.200
0.941,1.857,97.049,0.0,0.0,0.153,0.0,9830.400,6788722.0,6784259.200,0.0,0.0,6283.0,16787.200
0.765,1.785,97.323,0.0,0.0,0.127,0.0,1638.400,6763240.200,6758881.600,0.0,0.0,6205.800,16681.800
1.014,2.027,96.706,0.051,0.0,0.203,0.0,17203.200,6699034.600,6696804.200,0.0,0.0,6321.200,16564.800
1.679,2.010,96.082,0.0,0.0,0.229,0.0,9011.200,6769215.600,6764774.0,0.0,0.0,6313.0,16797.400
1.017,1.831,97.025,0.0,0.0,0.127,0.0,1638.400,6815975.600,6811512.800,0.0,0.0,6434.400,16855.600
0.816,1.963,97.094,0.0,0.0,0.127,0.0,819.200,6745388.400,6743156.800,0.0,0.0,6239.0,16583.800
0.764,1.580,97.503,0.0,0.0,0.153,0.0,1638.400,6771553.600,6767147.400,0.0,0.0,6247.800,16676.800
0.690,1.636,97.597,0.0,0.0,0.077,0.0,7372.800,6750607.600,6746145.200,0.0,0.0,6290.600,16667.400
0.716,1.636,97.495,0.077,0.0,0.077,0.0,13926.400,6612196.400,6610281.400,0.0,0.0,6171.0,16250.200
0.200,0.050,99.750,0.0,0.0,0.0,0.0,1638.400,8870.400,3233.200,0.0,0.0,51.800,149.0
