"Dstat 0.7.2 CSV output"
"Author:","Dag Wieers <dag@wieers.com>",,,,"URL:","http://dag.wieers.com/home-made/dstat/"
"Host:","Middleware1",,,,"User:","mstevan"
"Cmdline:","dstat --output /home/mstevan/logs/experiment_3.3/dstat/vs_1024-vcpr_16-wtpm_64-rep_3.csv 5 16",,,,"Date:","28 Oct 2019 15:17:25 UTC"

"total cpu usage",,,,,,"dsk/total",,"net/total",,"paging",,"system",
"usr","sys","idl","wai","hiq","siq","read","writ","recv","send","in","out","int","csw"
2.025,4.189,93.018,0.048,0.0,0.721,5363.611,4510860.945,0.0,0.0,0.0,0.0,11074.294,32286.478
0.903,0.452,98.545,0.0,0.0,0.100,0.0,819.200,241358.800,237301.0,0.0,0.0,477.0,1398.600
4.209,2.977,92.479,0.0,0.0,0.334,0.0,3276.800,7419757.400,7417536.600,0.0,0.0,8473.0,25264.600
1.472,2.589,95.532,0.0,0.0,0.406,0.0,1638.400,7513799.400,7509395.0,0.0,0.0,8657.400,25636.800
2.357,2.741,94.544,0.0,0.0,0.359,0.0,2457.600,7382232.800,7380001.600,0.0,0.0,8642.400,25286.0
2.262,2.770,94.638,0.051,0.0,0.280,0.0,32768.0,7471618.0,7467114.800,0.0,0.0,8718.0,25820.0
1.428,2.499,95.818,0.0,0.0,0.255,0.0,4915.200,7404933.0,7400470.600,0.0,0.0,8533.800,25242.400
1.574,2.843,95.380,0.0,0.0,0.203,0.0,9011.200,7442915.400,7440684.200,0.0,0.0,8607.800,25399.800
1.599,2.690,95.406,0.0,0.0,0.305,0.0,1638.400,7440621.800,7436159.400,0.0,0.0,8626.200,25597.0
1.427,2.522,95.720,0.0,0.0,0.331,0.0,819.200,7467178.200,7463553.200,0.0,0.0,8744.800,25758.200
1.373,2.745,95.628,0.0,0.0,0.254,0.0,1638.400,7483062.800,7479994.200,0.0,0.0,8727.400,25743.400
1.621,2.838,95.212,0.051,0.0,0.279,0.0,17203.200,7482510.0,7478047.600,0.0,0.0,8768.600,25750.800
1.524,2.566,95.554,0.0,0.0,0.356,0.0,9011.200,7450713.800,7448469.400,0.0,0.0,8702.400,25520.200
1.572,2.788,95.285,0.0,0.0,0.355,0.0,1638.400,7320879.600,7316436.200,0.0,0.0,8614.0,25194.0
1.421,2.893,95.381,0.0,0.0,0.305,0.0,6553.600,7405809.200,7401346.800,0.0,0.0,8694.800,25427.600
1.393,2.685,95.567,0.0,0.0,0.355,0.0,1638.400,7137625.400,7135663.400,0.0,0.0,8479.800,24645.0
0.050,0.0,99.950,0.0,0.0,0.0,0.0,1638.400,6349.200,1966.0,0.0,0.0,39.600,134.800
