"Dstat 0.7.2 CSV output"
"Author:","Dag Wieers <dag@wieers.com>",,,,"URL:","http://dag.wieers.com/home-made/dstat/"
"Host:","Middleware1",,,,"User:","mstevan"
"Cmdline:","dstat --output /home/mstevan/logs/experiment_3.3/dstat/vs_1024-vcpr_8-wtpm_32-rep_4.csv 5 16",,,,"Date:","28 Oct 2019 14:56:05 UTC"

"total cpu usage",,,,,,"dsk/total",,"net/total",,"paging",,"system",
"usr","sys","idl","wai","hiq","siq","read","writ","recv","send","in","out","int","csw"
2.043,4.240,92.935,0.049,0.0,0.733,5484.318,4612221.748,0.0,0.0,0.0,0.0,11183.856,32611.537
0.676,0.326,98.998,0.0,0.0,0.0,0.0,1638.400,159067.400,154710.600,0.0,0.0,379.0,1050.600
4.231,2.735,92.776,0.0,0.0,0.258,0.0,1638.400,7068526.400,7064122.0,0.0,0.0,8664.0,26285.200
1.351,2.702,95.743,0.0,0.0,0.204,0.0,819.200,7133469.0,7131237.800,0.0,0.0,8807.600,26460.800
3.102,2.481,94.210,0.0,0.0,0.207,0.0,3276.800,7040175.800,7035713.400,0.0,0.0,8740.400,26402.200
1.148,2.705,95.968,0.077,0.0,0.102,0.0,37683.200,7038268.0,7033783.800,0.0,0.0,8742.800,26564.800
1.195,2.669,95.958,0.0,0.0,0.178,0.0,3276.800,7049244.400,7047013.200,0.0,0.0,8685.400,26504.600
1.144,2.618,95.933,0.0,0.0,0.305,0.0,9830.400,6984171.0,6979708.600,0.0,0.0,8624.400,26252.0
1.045,2.549,96.151,0.0,0.0,0.255,0.0,1638.400,7060899.200,7056436.800,0.0,0.0,8730.800,26597.600
0.841,2.752,96.279,0.0,0.0,0.127,0.0,819.200,7058797.800,7056566.600,0.0,0.0,8747.200,26548.0
1.041,2.743,95.962,0.0,0.0,0.254,0.0,1638.400,6982017.600,6977555.200,0.0,0.0,8595.600,26140.200
1.118,2.693,95.910,0.051,0.0,0.229,0.0,15564.800,6938140.600,6935909.400,0.0,0.0,8516.600,25927.800
0.971,2.377,96.472,0.0,0.0,0.179,0.0,1638.400,6958000.400,6953538.0,0.0,0.0,8491.800,25992.200
1.017,2.796,95.882,0.0,0.0,0.305,0.0,5734.400,7099128.200,7094665.800,0.0,0.0,8740.400,26546.0
1.067,2.946,95.784,0.0,0.0,0.203,0.0,819.200,6987541.800,6985310.600,0.0,0.0,8597.800,26210.0
1.146,2.546,96.079,0.0,0.0,0.229,0.0,3276.800,6849972.400,6845673.600,0.0,0.0,8419.400,25561.0
0.075,0.025,99.900,0.0,0.0,0.0,0.0,1638.400,6547.200,2058.400,0.0,0.0,48.200,137.600
