"Dstat 0.7.2 CSV output"
"Author:","Dag Wieers <dag@wieers.com>",,,,"URL:","http://dag.wieers.com/home-made/dstat/"
"Host:","Middleware1",,,,"User:","mstevan"
"Cmdline:","dstat --output /home/mstevan/logs/experiment_3.3/dstat/vs_1024-vcpr_8-wtpm_8-rep_3.csv 5 16",,,,"Date:","28 Oct 2019 14:48:59 UTC"

"total cpu usage",,,,,,"dsk/total",,"net/total",,"paging",,"system",
"usr","sys","idl","wai","hiq","siq","read","writ","recv","send","in","out","int","csw"
2.049,4.257,92.907,0.049,0.0,0.738,5525.772,4647034.621,0.0,0.0,0.0,0.0,11220.875,32718.157
0.476,0.050,99.449,0.0,0.0,0.025,0.0,819.200,63220.400,60052.600,0.0,0.0,204.600,611.0
3.808,1.865,94.016,0.0,0.0,0.311,0.0,1638.400,6804382.600,6800381.200,0.0,0.0,4611.400,16776.0
1.048,2.019,96.780,0.0,0.0,0.153,0.0,1638.400,6595439.400,6590976.800,0.0,0.0,5910.800,16295.600
2.953,2.003,94.814,0.0,0.0,0.231,0.0,1638.400,6726936.200,6724722.200,0.0,0.0,5927.400,16661.600
0.869,1.967,96.934,0.051,0.0,0.179,0.0,42598.400,6609254.800,6604775.400,0.0,0.0,6433.400,16337.800
0.992,2.163,96.667,0.0,0.0,0.178,0.0,1638.400,6635186.600,6630743.400,0.0,0.0,6514.600,16501.800
0.846,1.641,97.384,0.0,0.0,0.128,0.0,11468.800,6673466.800,6671235.800,0.0,0.0,6171.800,16528.400
0.768,1.792,97.236,0.0,0.0,0.205,0.0,1638.400,6618643.400,6614180.800,0.0,0.0,6372.800,16350.600
0.820,1.820,97.206,0.0,0.0,0.154,0.0,1638.400,6673203.800,6668775.0,0.0,0.0,6680.400,16468.400
0.892,2.167,96.788,0.0,0.0,0.153,0.0,819.200,6624203.800,6620623.800,0.0,0.0,6515.400,16364.600
0.843,1.917,97.061,0.026,0.0,0.153,0.0,17203.200,6591408.800,6587670.800,0.0,0.0,6317.400,16302.0
0.741,1.992,97.165,0.0,0.0,0.102,0.0,819.200,6591126.400,6589485.800,0.0,0.0,6048.800,16319.200
0.843,1.916,97.062,0.0,0.0,0.179,0.0,6553.600,6666652.200,6662223.400,0.0,0.0,6069.800,16519.0
0.665,1.815,97.315,0.0,0.0,0.205,0.0,2457.600,6679065.200,6671663.600,0.0,0.0,6289.800,16629.200
0.642,1.567,97.663,0.0,0.0,0.128,0.0,819.200,6558603.0,6559351.800,0.0,0.0,6374.600,16279.400
0.025,0.025,99.950,0.0,0.0,0.0,0.0,1638.400,6534.0,2045.200,0.0,0.0,34.800,120.200
