"Dstat 0.7.2 CSV output"
"Author:","Dag Wieers <dag@wieers.com>",,,,"URL:","http://dag.wieers.com/home-made/dstat/"
"Host:","Middleware1",,,,"User:","mstevan"
"Cmdline:","dstat --output /home/mstevan/logs/experiment_3.3/dstat/vs_256-vcpr_8-wtpm_32-rep_3.csv 5 16",,,,"Date:","28 Oct 2019 12:38:03 UTC"

"total cpu usage",,,,,,"dsk/total",,"net/total",,"paging",,"system",
"usr","sys","idl","wai","hiq","siq","read","writ","recv","send","in","out","int","csw"
2.103,4.456,92.579,0.056,0.0,0.806,6419.451,5397525.321,0.0,0.0,0.0,0.0,11431.742,33445.564
0.626,0.225,99.124,0.0,0.0,0.025,0.0,1638.400,39855.400,34458.200,0.0,0.0,298.0,825.0
5.534,4.638,89.328,0.0,0.0,0.501,0.0,1638.400,4318140.600,4316748.400,0.0,0.0,14834.600,45364.200
3.036,4.619,91.956,0.0,0.0,0.389,0.0,1638.400,4309718.600,4305426.200,0.0,0.0,15022.0,45490.0
1.798,3.804,93.929,0.0,0.0,0.469,0.0,1638.400,4355648.400,4353467.600,0.0,0.0,15173.400,46225.0
1.978,4.649,92.833,0.0,0.0,0.539,0.0,1638.400,4322258.400,4317779.200,0.0,0.0,14982.0,45814.200
2.080,4.570,92.914,0.051,0.0,0.385,0.0,35225.600,4336639.400,4332177.0,0.0,0.0,15111.200,46089.0
1.930,4.400,93.232,0.0,0.0,0.437,0.0,9011.200,4349330.400,4347116.0,0.0,0.0,15167.400,46438.800
1.875,4.622,93.066,0.0,0.0,0.437,0.0,1638.400,4333526.400,4329064.0,0.0,0.0,15111.0,45968.800
1.952,4.700,92.861,0.0,0.0,0.488,0.0,1638.400,4368626.0,4364163.600,0.0,0.0,15202.400,46429.800
2.032,4.450,93.158,0.0,0.0,0.360,0.0,819.200,4367717.600,4365544.400,0.0,0.0,15280.600,46561.0
1.807,4.491,93.237,0.0,0.0,0.465,0.0,1638.400,4319829.600,4314840.600,0.0,0.0,14922.0,45827.0
1.939,4.395,93.252,0.026,0.0,0.388,0.0,28672.0,4418176.400,4414199.800,0.0,0.0,15257.200,46952.800
1.936,4.698,92.979,0.0,0.0,0.387,0.0,4915.200,4492462.0,4490230.800,0.0,0.0,15548.600,47910.800
1.909,4.462,93.165,0.0,0.0,0.464,0.0,3276.800,4380502.800,4376040.400,0.0,0.0,15073.600,46358.0
1.874,4.954,92.608,0.0,0.0,0.565,0.0,1638.400,4410486.600,4406148.800,0.0,0.0,15200.800,46618.400
0.025,0.025,99.950,0.0,0.0,0.0,0.0,819.200,3224.600,1059.400,0.0,0.0,38.800,125.200
