"Dstat 0.7.2 CSV output"
"Author:","Dag Wieers <dag@wieers.com>",,,,"URL:","http://dag.wieers.com/home-made/dstat/"
"Host:","Middleware1",,,,"User:","mstevan"
"Cmdline:","dstat --output /home/mstevan/logs/experiment_3.3/dstat/vs_256-vcpr_4-wtpm_64-rep_2.csv 5 16",,,,"Date:","28 Oct 2019 12:25:16 UTC"

"total cpu usage",,,,,,"dsk/total",,"net/total",,"paging",,"system",
"usr","sys","idl","wai","hiq","siq","read","writ","recv","send","in","out","int","csw"
2.113,4.484,92.531,0.056,0.0,0.815,6522.533,5484093.230,0.0,0.0,0.0,0.0,11467.482,33572.434
0.652,0.351,98.972,0.0,0.0,0.025,0.0,1638.400,50972.0,47067.400,0.0,0.0,365.600,1067.400
5.408,3.752,90.556,0.0,0.0,0.285,0.0,2457.600,2783729.600,2779968.800,0.0,0.0,11449.400,31189.600
2.239,3.320,94.210,0.0,0.0,0.232,0.0,819.200,2840754.400,2839961.600,0.0,0.0,12181.0,31826.200
3.075,3.463,93.152,0.0,0.0,0.310,0.0,2457.600,2842457.800,2838817.0,0.0,0.0,12206.600,31980.800
1.286,3.395,95.062,0.051,0.0,0.206,0.0,31948.800,2833493.0,2830374.0,0.0,0.0,12069.0,31909.600
1.721,3.699,94.349,0.0,0.0,0.231,0.0,11468.800,3024948.0,3023389.400,0.0,0.0,12941.0,33994.800
1.408,3.969,94.469,0.0,0.0,0.154,0.0,9830.400,2893989.400,2890935.200,0.0,0.0,12279.0,32417.800
1.334,3.617,94.844,0.0,0.0,0.205,0.0,819.200,2831165.400,2829138.200,0.0,0.0,11954.200,31763.800
1.456,3.780,94.508,0.0,0.0,0.255,0.0,1638.400,2829606.200,2827808.200,0.0,0.0,12032.400,31936.200
1.308,3.514,94.973,0.0,0.0,0.205,0.0,1638.400,2721030.0,2718328.400,0.0,0.0,11515.800,30659.200
1.435,3.409,94.977,0.0,0.0,0.179,0.0,819.200,2735635.0,2734408.200,0.0,0.0,11524.600,30768.800
1.234,3.470,94.911,0.129,0.0,0.257,0.0,18022.400,2842681.400,2838971.400,0.0,0.0,12016.400,32083.0
1.389,3.420,95.012,0.0,0.0,0.180,0.0,6553.600,2866256.200,2862074.600,0.0,0.0,11997.400,32208.800
1.439,3.315,95.066,0.0,0.0,0.180,0.0,2457.600,2864197.200,2863269.200,0.0,0.0,11969.200,32168.800
1.585,3.604,94.632,0.0,0.0,0.179,0.0,1638.400,2787852.0,2784683.200,0.0,0.0,11598.800,31169.800
0.050,0.025,99.925,0.0,0.0,0.0,0.0,1638.400,6336.0,1966.0,0.0,0.0,44.400,127.0
