"Dstat 0.7.2 CSV output"
"Author:","Dag Wieers <dag@wieers.com>",,,,"URL:","http://dag.wieers.com/home-made/dstat/"
"Host:","Middleware1",,,,"User:","mstevan"
"Cmdline:","dstat --output /home/mstevan/logs/experiment_3.3/dstat/vs_256-vcpr_32-wtpm_8-rep_3.csv 5 16",,,,"Date:","28 Oct 2019 13:06:29 UTC"

"total cpu usage",,,,,,"dsk/total",,"net/total",,"paging",,"system",
"usr","sys","idl","wai","hiq","siq","read","writ","recv","send","in","out","int","csw"
2.097,4.425,92.633,0.054,0.0,0.791,6201.641,5214618.227,0.0,0.0,0.0,0.0,11460.454,33476.864
0.526,0.100,99.374,0.0,0.0,0.0,0.0,819.200,38924.400,34891.200,0.0,0.0,213.600,637.800
5.640,2.846,91.149,0.0,0.0,0.366,0.0,1638.400,3436920.200,3431696.0,0.0,0.0,6862.0,22542.600
3.653,2.871,93.241,0.0,0.0,0.235,0.0,1638.400,3558272.600,3553770.0,0.0,0.0,9703.600,23732.400
1.133,2.936,95.751,0.0,0.0,0.180,0.0,1638.400,3577091.600,3574858.400,0.0,0.0,10063.400,23983.600
0.904,2.351,96.486,0.0,0.0,0.258,0.0,2457.600,3461621.600,3457159.0,0.0,0.0,9874.400,23123.600
1.129,2.720,95.817,0.051,0.0,0.282,0.0,22118.400,3498793.400,3493523.600,0.0,0.0,10029.200,23383.400
1.714,2.389,95.663,0.0,0.0,0.234,0.0,19660.800,3464186.400,3462914.600,0.0,0.0,9847.400,23015.400
1.163,2.817,95.814,0.0,0.0,0.207,0.0,1638.400,3449227.600,3444615.200,0.0,0.0,9765.800,22952.0
1.342,2.761,95.613,0.0,0.0,0.284,0.0,819.200,3537185.400,3534952.200,0.0,0.0,10322.800,23610.0
1.183,2.982,95.527,0.0,0.0,0.308,0.0,1638.400,3527823.200,3523379.600,0.0,0.0,10371.600,23648.600
1.158,2.909,95.727,0.0,0.0,0.206,0.0,1638.400,3534841.0,3530436.400,0.0,0.0,10419.200,23692.200
0.907,2.306,96.579,0.0,0.0,0.207,0.0,819.200,3566611.600,3564367.400,0.0,0.0,10497.800,23853.800
1.137,2.455,96.149,0.078,0.0,0.181,0.0,22937.600,3518099.0,3513638.200,0.0,0.0,10225.400,23505.400
1.137,2.481,96.176,0.0,0.0,0.207,0.0,3276.800,3542002.800,3537624.400,0.0,0.0,10338.200,23774.600
1.209,2.906,95.629,0.0,0.0,0.257,0.0,819.200,3484683.200,3482613.800,0.0,0.0,9962.600,23281.200
0.629,0.603,98.718,0.0,0.0,0.050,0.0,1638.400,635443.800,630260.800,0.0,0.0,1463.600,4267.600
