"Dstat 0.7.2 CSV output"
"Author:","Dag Wieers <dag@wieers.com>",,,,"URL:","http://dag.wieers.com/home-made/dstat/"
"Host:","Middleware1",,,,"User:","mstevan"
"Cmdline:","dstat --output /home/mstevan/logs/experiment_3.3/dstat/vs_256-vcpr_16-wtpm_32-rep_2.csv 5 16",,,,"Date:","28 Oct 2019 12:53:42 UTC"

"total cpu usage",,,,,,"dsk/total",,"net/total",,"paging",,"system",
"usr","sys","idl","wai","hiq","siq","read","writ","recv","send","in","out","int","csw"
2.096,4.432,92.621,0.055,0.0,0.796,6297.801,5295366.466,0.0,0.0,0.0,0.0,11427.338,33397.146
0.728,0.176,98.945,0.0,0.0,0.151,0.0,33587.200,76248.600,72089.0,0.0,0.0,358.400,1068.600
5.260,4.892,88.979,0.0,0.0,0.868,0.0,1638.400,5554844.200,5551936.0,0.0,0.0,13147.600,43541.200
4.174,4.673,90.470,0.0,0.0,0.683,0.0,819.200,5601594.400,5599363.0,0.0,0.0,13723.600,44312.600
2.992,4.761,91.805,0.0,0.0,0.442,0.0,1638.400,5797859.200,5793440.400,0.0,0.0,13997.0,45904.200
2.723,5.471,91.164,0.0,0.0,0.642,0.0,3276.800,5681463.400,5676825.0,0.0,0.0,13990.200,45296.0
2.655,5.077,91.649,0.0,0.0,0.619,0.0,819.200,5597434.400,5595353.0,0.0,0.0,13558.0,44267.200
2.686,5.088,91.426,0.026,0.0,0.775,0.0,29491.200,5818875.0,5814431.800,0.0,0.0,14180.200,46273.600
2.016,4.162,93.298,0.0,0.0,0.524,0.0,9011.200,5605064.0,5599850.200,0.0,0.0,13582.400,44503.600
2.380,5.563,91.669,0.0,0.0,0.388,0.0,819.200,5787944.0,5786164.800,0.0,0.0,14167.800,46233.400
1.850,4.326,93.250,0.0,0.0,0.573,0.0,1638.400,5693091.600,5688945.200,0.0,0.0,14053.400,45392.400
1.941,4.917,92.547,0.0,0.0,0.595,0.0,1638.400,5631783.600,5627304.600,0.0,0.0,13960.200,44853.400
2.150,4.482,92.824,0.0,0.0,0.544,0.0,819.200,5580018.0,5577786.600,0.0,0.0,13747.800,44271.800
1.921,4.751,92.731,0.052,0.0,0.545,0.0,22118.400,5671357.0,5666241.0,0.0,0.0,13958.600,44631.800
2.180,5.078,92.126,0.0,0.0,0.616,0.0,2457.600,5540781.400,5535410.800,0.0,0.0,13708.0,44141.400
1.890,4.428,93.138,0.0,0.0,0.544,0.0,1638.400,5524326.600,5523714.600,0.0,0.0,13691.0,43840.200
0.075,0.0,99.925,0.0,0.0,0.0,0.0,1638.400,7248.800,2402.400,0.0,0.0,50.800,144.600
