"Dstat 0.7.2 CSV output"
"Author:","Dag Wieers <dag@wieers.com>",,,,"URL:","http://dag.wieers.com/home-made/dstat/"
"Host:","Middleware1",,,,"User:","mstevan"
"Cmdline:","dstat --output /home/mstevan/logs/experiment_3.3/dstat/vs_256-vcpr_8-wtpm_32-rep_1.csv 5 16",,,,"Date:","28 Oct 2019 12:35:13 UTC"

"total cpu usage",,,,,,"dsk/total",,"net/total",,"paging",,"system",
"usr","sys","idl","wai","hiq","siq","read","writ","recv","send","in","out","int","csw"
2.104,4.458,92.575,0.056,0.0,0.807,6442.082,5416531.294,0.0,0.0,0.0,0.0,11428.029,33430.273
0.727,0.251,99.022,0.0,0.0,0.0,0.0,1638.400,65294.0,60450.200,0.0,0.0,394.200,1164.600
5.667,4.779,88.874,0.026,0.0,0.653,0.0,30310.400,4166881.600,4165140.0,0.0,0.0,14542.600,43782.400
4.030,4.449,91.076,0.0,0.0,0.445,0.0,1638.400,4400709.200,4396263.200,0.0,0.0,15509.0,46472.200
2.187,4.682,92.745,0.0,0.0,0.386,0.0,3276.800,4331326.600,4326638.200,0.0,0.0,15301.600,45798.400
1.875,4.674,92.938,0.0,0.0,0.514,0.0,819.200,4299623.400,4297618.200,0.0,0.0,15245.200,45676.200
2.161,4.374,93.028,0.0,0.0,0.437,0.0,4096.0,4315349.600,4310874.0,0.0,0.0,15218.800,45607.600
1.734,4.634,93.321,0.0,0.0,0.311,0.0,9830.400,4250606.800,4245025.800,0.0,0.0,14990.200,44904.800
1.834,4.210,93.492,0.0,0.0,0.465,0.0,819.200,4239775.200,4238679.800,0.0,0.0,14872.0,44844.800
1.909,4.154,93.344,0.077,0.0,0.516,0.0,24576.0,4269291.600,4264829.200,0.0,0.0,14981.800,45074.0
1.912,4.572,92.999,0.0,0.0,0.517,0.0,1638.400,4395359.0,4390896.600,0.0,0.0,15533.600,46608.0
2.158,4.702,92.703,0.0,0.0,0.437,0.0,819.200,4346533.400,4344302.200,0.0,0.0,15259.400,46173.400
1.680,4.238,93.618,0.0,0.0,0.465,0.0,1638.400,4272265.200,4267029.600,0.0,0.0,15126.200,45460.600
1.996,4.964,92.528,0.0,0.0,0.512,0.0,4915.200,4312352.0,4310694.600,0.0,0.0,15269.0,45768.600
1.829,4.921,92.811,0.0,0.0,0.438,0.0,3276.800,4419026.0,4414614.0,0.0,0.0,15562.600,46914.0
1.906,4.687,92.918,0.052,0.0,0.438,0.0,17203.200,4350861.800,4346673.0,0.0,0.0,15223.800,46021.800
0.050,0.0,99.950,0.0,0.0,0.0,0.0,819.200,3647.0,1283.800,0.0,0.0,42.600,130.0
