"Dstat 0.7.2 CSV output"
"Author:","Dag Wieers <dag@wieers.com>",,,,"URL:","http://dag.wieers.com/home-made/dstat/"
"Host:","Middleware1",,,,"User:","mstevan"
"Cmdline:","dstat --output /home/mstevan/logs/experiment_3.3/dstat/vs_256-vcpr_8-wtpm_32-rep_4.csv 5 16",,,,"Date:","28 Oct 2019 12:39:29 UTC"

"total cpu usage",,,,,,"dsk/total",,"net/total",,"paging",,"system",
"usr","sys","idl","wai","hiq","siq","read","writ","recv","send","in","out","int","csw"
2.103,4.455,92.582,0.056,0.0,0.805,6408.200,5388075.701,0.0,0.0,0.0,0.0,11433.522,33453.664
0.651,0.301,98.973,0.025,0.0,0.050,0.0,33587.200,65590.600,61011.800,0.0,0.0,369.600,1088.800
5.098,4.758,89.621,0.0,0.0,0.523,0.0,819.200,4125903.200,4123894.0,0.0,0.0,13800.800,43250.200
3.229,4.857,91.372,0.0,0.0,0.542,0.0,1638.400,4350148.800,4345598.600,0.0,0.0,14465.0,45771.400
2.055,5.009,92.474,0.0,0.0,0.462,0.0,2457.600,4359583.800,4357440.400,0.0,0.0,14624.400,46227.800
1.960,4.282,93.268,0.0,0.0,0.490,0.0,1638.400,4299906.400,4295502.0,0.0,0.0,14321.0,45506.0
1.755,4.697,93.084,0.0,0.0,0.465,0.0,4915.200,4347344.0,4342881.600,0.0,0.0,14529.0,46142.200
1.756,4.570,93.184,0.026,0.0,0.465,0.0,35225.600,4408449.200,4405648.600,0.0,0.0,14735.800,47100.800
2.136,4.556,92.793,0.0,0.0,0.515,0.0,1638.400,4352517.800,4348584.0,0.0,0.0,14549.600,46353.200
1.739,4.258,93.614,0.0,0.0,0.389,0.0,1638.400,4413314.0,4408616.400,0.0,0.0,14852.0,47093.200
1.960,4.487,93.089,0.0,0.0,0.464,0.0,819.200,4367883.800,4367345.600,0.0,0.0,14680.200,46536.600
1.888,4.344,93.432,0.0,0.0,0.336,0.0,1638.400,4405360.800,4400898.400,0.0,0.0,14836.800,47072.600
1.857,4.359,93.397,0.0,0.0,0.387,0.0,1638.400,4393967.400,4389505.0,0.0,0.0,14772.0,46881.600
1.879,4.247,93.333,0.051,0.0,0.489,0.0,24576.0,4296549.0,4294301.0,0.0,0.0,14343.200,45606.0
1.962,4.388,93.289,0.0,0.0,0.361,0.0,3276.800,4390688.800,4386243.200,0.0,0.0,14835.800,46908.600
1.808,4.210,93.673,0.0,0.0,0.310,0.0,819.200,4291898.200,4289772.600,0.0,0.0,14357.400,45582.400
0.100,0.0,99.900,0.0,0.0,0.0,0.0,1638.400,6336.0,1966.0,0.0,0.0,47.600,138.800
