"Dstat 0.7.2 CSV output"
"Author:","Dag Wieers <dag@wieers.com>",,,,"URL:","http://dag.wieers.com/home-made/dstat/"
"Host:","Middleware1",,,,"User:","mstevan"
"Cmdline:","dstat --output /home/mstevan/logs/experiment_3.3/dstat/vs_256-vcpr_16-wtpm_8-rep_4.csv 5 16",,,,"Date:","28 Oct 2019 12:50:51 UTC"

"total cpu usage",,,,,,"dsk/total",,"net/total",,"paging",,"system",
"usr","sys","idl","wai","hiq","siq","read","writ","recv","send","in","out","int","csw"
2.098,4.437,92.613,0.055,0.0,0.798,6319.571,5313648.850,0.0,0.0,0.0,0.0,11434.270,33415.423
0.651,0.100,99.249,0.0,0.0,0.0,0.0,819.200,60342.400,56432.0,0.0,0.0,220.400,718.0
4.094,2.790,92.803,0.0,0.0,0.313,0.0,1638.400,3394561.800,3390044.600,0.0,0.0,8339.800,22590.600
3.220,2.701,93.872,0.0,0.0,0.208,0.0,1638.400,3476620.800,3472751.200,0.0,0.0,8650.200,23501.200
1.462,2.822,95.485,0.0,0.0,0.231,0.0,2457.600,3466443.800,3464212.600,0.0,0.0,8935.400,23601.0
2.611,2.995,94.060,0.051,0.0,0.282,0.0,45056.0,3453271.0,3448928.400,0.0,0.0,8758.800,23486.600
1.753,2.320,95.721,0.0,0.0,0.206,0.0,4096.0,3452587.800,3450255.400,0.0,0.0,8891.400,23580.400
1.495,2.526,95.825,0.0,0.0,0.155,0.0,9830.400,3548087.800,3543627.0,0.0,0.0,9021.800,24146.0
1.136,2.350,96.385,0.0,0.0,0.129,0.0,1638.400,3433989.600,3429526.200,0.0,0.0,8872.400,23376.400
1.028,2.545,96.195,0.0,0.0,0.231,0.0,819.200,3423428.800,3421332.400,0.0,0.0,8700.800,23388.800
1.030,2.265,96.551,0.0,0.0,0.154,0.0,1638.400,3389035.400,3384438.0,0.0,0.0,8704.0,23127.0
1.082,2.809,95.903,0.129,0.0,0.077,0.0,18841.600,3510494.200,3505676.200,0.0,0.0,8889.400,23788.0
1.079,2.696,96.020,0.0,0.0,0.205,0.0,819.200,3327629.0,3325712.800,0.0,0.0,8469.800,22603.400
1.184,2.625,96.010,0.0,0.0,0.180,0.0,5734.400,3412757.800,3407677.200,0.0,0.0,8745.200,23245.600
1.081,2.549,96.112,0.0,0.0,0.257,0.0,3276.800,3408260.600,3404417.400,0.0,0.0,8741.0,23030.200
0.901,2.548,96.268,0.0,0.0,0.283,0.0,819.200,3318038.400,3316007.200,0.0,0.0,8356.800,22502.0
0.025,0.075,99.900,0.0,0.0,0.0,0.0,1638.400,6322.800,1926.400,0.0,0.0,39.400,123.0
