"Dstat 0.7.2 CSV output"
"Author:","Dag Wieers <dag@wieers.com>",,,,"URL:","http://dag.wieers.com/home-made/dstat/"
"Host:","Middleware1",,,,"User:","mstevan"
"Cmdline:","dstat --output /home/mstevan/logs/experiment_3.3/dstat/vs_256-vcpr_16-wtpm_8-rep_1.csv 5 16",,,,"Date:","28 Oct 2019 12:46:35 UTC"

"total cpu usage",,,,,,"dsk/total",,"net/total",,"paging",,"system",
"usr","sys","idl","wai","hiq","siq","read","writ","recv","send","in","out","int","csw"
2.102,4.449,92.593,0.055,0.0,0.801,6352.523,5341320.705,0.0,0.0,0.0,0.0,11453.285,33489.139
0.476,0.176,99.298,0.025,0.0,0.025,0.0,31948.800,58893.800,55439.400,0.0,0.0,225.800,769.200
3.843,2.641,93.150,0.0,0.0,0.366,0.0,1638.400,3400771.400,3396332.600,0.0,0.0,7471.600,22542.400
2.008,2.883,94.903,0.0,0.0,0.206,0.0,1638.400,3505918.800,3501456.800,0.0,0.0,9922.200,23329.600
1.166,1.866,96.760,0.0,0.0,0.207,0.0,2457.600,3404765.800,3402567.600,0.0,0.0,9845.600,22937.0
2.094,2.689,94.933,0.0,0.0,0.284,0.0,1638.400,3414228.0,3409790.400,0.0,0.0,9452.800,22971.0
1.726,2.962,95.054,0.0,0.0,0.258,0.0,3276.800,3465073.800,3462417.0,0.0,0.0,9812.0,23420.400
1.089,2.618,96.086,0.052,0.0,0.156,0.0,25395.200,3524662.400,3520643.0,0.0,0.0,10240.400,23729.400
1.283,2.977,95.483,0.0,0.0,0.257,0.0,9011.200,3526225.600,3521319.400,0.0,0.0,10405.800,23780.800
1.130,2.800,95.787,0.0,0.0,0.283,0.0,819.200,3486233.400,3484447.400,0.0,0.0,10299.0,23565.600
0.933,2.591,96.295,0.0,0.0,0.181,0.0,1638.400,3539419.0,3535074.400,0.0,0.0,10391.600,23997.0
1.004,2.934,95.830,0.0,0.0,0.232,0.0,1638.400,3512908.400,3508328.600,0.0,0.0,10277.200,23743.600
1.234,2.828,95.707,0.0,0.0,0.231,0.0,819.200,3492171.600,3489787.600,0.0,0.0,10348.0,23572.600
0.982,2.327,96.406,0.052,0.0,0.233,0.0,22118.400,3449301.200,3445071.400,0.0,0.0,10245.0,23230.400
1.060,2.483,96.250,0.0,0.0,0.207,0.0,3276.800,3455301.400,3450806.400,0.0,0.0,10104.600,23262.0
1.159,2.602,96.059,0.0,0.0,0.180,0.0,819.200,3395213.600,3393024.400,0.0,0.0,10125.200,22885.600
0.050,0.025,99.925,0.0,0.0,0.0,0.0,1638.400,6745.200,2150.800,0.0,0.0,47.600,142.600
