"Dstat 0.7.2 CSV output"
"Author:","Dag Wieers <dag@wieers.com>",,,,"URL:","http://dag.wieers.com/home-made/dstat/"
"Host:","Middleware1",,,,"User:","mstevan"
"Cmdline:","dstat --output /home/mstevan/logs/experiment_3.3/dstat/vs_256-vcpr_8-wtpm_8-rep_4.csv 5 16",,,,"Date:","28 Oct 2019 12:33:47 UTC"

"total cpu usage",,,,,,"dsk/total",,"net/total",,"paging",,"system",
"usr","sys","idl","wai","hiq","siq","read","writ","recv","send","in","out","int","csw"
2.105,4.462,92.568,0.056,0.0,0.809,6453.447,5426075.173,0.0,0.0,0.0,0.0,11435.825,33455.972
0.526,0.125,99.224,0.075,0.0,0.050,0.0,31948.800,62316.600,57387.400,0.0,0.0,240.0,792.200
4.190,3.001,92.525,0.0,0.0,0.285,0.0,9830.400,3289964.600,3287270.800,0.0,0.0,7666.800,22129.400
3.323,2.752,93.795,0.0,0.0,0.130,0.0,1638.400,3299147.800,3294543.800,0.0,0.0,8378.200,22498.800
1.130,2.697,95.967,0.0,0.0,0.205,0.0,2457.600,3370796.200,3366387.600,0.0,0.0,8476.400,23049.0
0.952,2.728,96.190,0.0,0.0,0.129,0.0,819.200,3375803.400,3374123.200,0.0,0.0,8486.200,23084.0
1.208,2.673,95.939,0.0,0.0,0.180,0.0,4096.0,3395722.0,3390885.800,0.0,0.0,8539.600,23275.600
1.287,2.420,96.061,0.051,0.0,0.180,0.0,26214.400,3396438.400,3392368.400,0.0,0.0,8603.200,23189.600
1.103,2.668,96.049,0.0,0.0,0.180,0.0,819.200,3344758.800,3342098.0,0.0,0.0,8457.200,22813.600
1.074,3.043,95.628,0.0,0.0,0.256,0.0,1638.400,3373901.0,3369371.600,0.0,0.0,8658.0,22916.400
1.154,2.538,96.179,0.0,0.0,0.128,0.0,1638.400,3301035.600,3297086.400,0.0,0.0,8617.800,22615.400
1.061,2.095,96.767,0.0,0.0,0.078,0.0,819.200,3324670.0,3322397.800,0.0,0.0,8593.600,22619.200
1.058,2.450,96.286,0.0,0.0,0.206,0.0,1638.400,3391726.800,3387373.400,0.0,0.0,8689.800,23158.800
0.981,2.400,96.465,0.052,0.0,0.103,0.0,20480.0,3349147.200,3344617.200,0.0,0.0,8592.200,22898.200
1.081,2.598,96.064,0.0,0.0,0.257,0.0,5734.400,3376222.200,3373991.0,0.0,0.0,8664.400,23039.400
1.006,2.347,96.415,0.0,0.0,0.232,0.0,1638.400,3384273.200,3379868.400,0.0,0.0,8719.800,23169.200
0.025,0.0,99.975,0.0,0.0,0.0,0.0,819.200,3237.800,1099.0,0.0,0.0,39.800,116.400
