"Dstat 0.7.2 CSV output"
"Author:","Dag Wieers <dag@wieers.com>",,,,"URL:","http://dag.wieers.com/home-made/dstat/"
"Host:","Middleware1",,,,"User:","mstevan"
"Cmdline:","dstat --output /home/mstevan/logs/experiment_3.3/dstat/vs_256-vcpr_16-wtpm_32-rep_4.csv 5 16",,,,"Date:","28 Oct 2019 12:56:32 UTC"

"total cpu usage",,,,,,"dsk/total",,"net/total",,"paging",,"system",
"usr","sys","idl","wai","hiq","siq","read","writ","recv","send","in","out","int","csw"
2.097,4.430,92.623,0.055,0.0,0.795,6276.173,5277205.290,0.0,0.0,0.0,0.0,11427.566,33407.837
0.502,0.151,99.297,0.0,0.0,0.050,0.0,1638.400,35794.400,30171.200,0.0,0.0,258.600,739.400
5.648,4.698,88.810,0.0,0.0,0.845,0.0,1638.400,5497755.800,5493667.800,0.0,0.0,13126.400,43000.0
4.558,5.569,89.070,0.0,0.0,0.803,0.0,819.200,5637923.600,5635650.800,0.0,0.0,14307.0,44767.0
3.109,5.319,90.853,0.051,0.0,0.668,0.0,35225.600,5660402.400,5656322.800,0.0,0.0,14123.800,44706.800
2.510,4.995,91.848,0.0,0.0,0.647,0.0,1638.400,5592451.600,5588060.0,0.0,0.0,14245.600,44320.800
2.299,5.192,91.656,0.0,0.0,0.852,0.0,4096.0,5665231.0,5663000.0,0.0,0.0,14192.400,44936.0
2.626,5.021,91.426,0.0,0.0,0.927,0.0,9830.400,5651322.0,5646731.800,0.0,0.0,14025.400,44646.400
2.437,4.874,92.066,0.0,0.0,0.622,0.0,1638.400,5655455.200,5651276.0,0.0,0.0,14083.600,44706.200
2.330,5.023,91.973,0.0,0.0,0.673,0.0,819.200,5643888.200,5641524.600,0.0,0.0,14268.600,44758.600
2.013,4.982,92.230,0.052,0.0,0.723,0.0,27033.600,5554105.200,5549642.800,0.0,0.0,14155.400,44086.400
2.577,4.373,92.504,0.0,0.0,0.547,0.0,819.200,5570738.600,5568043.200,0.0,0.0,14351.200,44641.800
2.008,4.589,92.777,0.0,0.0,0.626,0.0,1638.400,5806886.200,5802888.200,0.0,0.0,14935.400,46909.600
2.250,4.889,92.318,0.0,0.0,0.543,0.0,1638.400,5661103.800,5656641.800,0.0,0.0,14380.600,45184.200
2.078,4.649,92.623,0.0,0.0,0.649,0.0,5734.400,5759193.800,5756891.0,0.0,0.0,14531.600,45677.600
2.089,4.360,93.055,0.0,0.0,0.496,0.0,2457.600,5784937.0,5780510.600,0.0,0.0,14729.0,46045.0
0.050,0.025,99.875,0.050,0.0,0.0,0.0,17203.200,7167.600,2441.200,0.0,0.0,45.0,140.600
