"Dstat 0.7.2 CSV output"
"Author:","Dag Wieers <dag@wieers.com>",,,,"URL:","http://dag.wieers.com/home-made/dstat/"
"Host:","Middleware1",,,,"User:","mstevan"
"Cmdline:","dstat --output /home/mstevan/logs/experiment_3.3/dstat/vs_512-vcpr_8-wtpm_8-rep_1.csv 5 16",,,,"Date:","28 Oct 2019 13:37:50 UTC"

"total cpu usage",,,,,,"dsk/total",,"net/total",,"paging",,"system",
"usr","sys","idl","wai","hiq","siq","read","writ","recv","send","in","out","int","csw"
2.084,4.377,92.712,0.052,0.0,0.775,5978.041,5026848.652,0.0,0.0,0.0,0.0,11401.411,33284.706
0.602,0.276,98.997,0.0,0.0,0.125,0.0,1638.400,64260.800,59455.800,0.0,0.0,225.600,713.400
4.486,2.556,92.671,0.026,0.0,0.261,0.0,31129.600,5673971.600,5671857.800,0.0,0.0,7614.200,24179.0
2.436,2.565,94.714,0.0,0.0,0.285,0.0,9011.200,5814102.800,5809657.400,0.0,0.0,9258.0,25045.800
1.084,2.606,95.975,0.0,0.0,0.335,0.0,3276.800,5897016.800,5892394.400,0.0,0.0,9564.600,25548.200
1.260,2.726,95.756,0.0,0.0,0.257,0.0,819.200,5797554.600,5794666.0,0.0,0.0,9392.200,25139.0
1.139,2.226,96.273,0.0,0.0,0.362,0.0,4096.0,5783636.400,5780010.400,0.0,0.0,9392.600,24998.400
0.904,2.634,96.282,0.0,0.0,0.181,0.0,9830.400,5852659.800,5848063.200,0.0,0.0,9584.400,25260.0
1.109,2.423,96.210,0.0,0.0,0.258,0.0,819.200,5755552.200,5753320.800,0.0,0.0,9149.0,24937.600
1.034,2.121,96.587,0.052,0.0,0.207,0.0,18022.400,5660761.0,5655721.400,0.0,0.0,9525.0,24549.0
0.956,2.144,96.720,0.0,0.0,0.181,0.0,1638.400,5617284.800,5613378.400,0.0,0.0,9293.200,24229.200
1.049,2.918,95.854,0.0,0.0,0.179,0.0,819.200,5653283.400,5651033.200,0.0,0.0,9457.200,24430.0
1.111,2.505,96.178,0.0,0.0,0.207,0.0,1638.400,5836725.0,5831718.200,0.0,0.0,9713.800,25206.0
1.185,2.524,96.136,0.0,0.0,0.155,0.0,819.200,5869713.400,5868083.800,0.0,0.0,9826.200,25329.800
1.287,2.625,95.883,0.0,0.0,0.206,0.0,6553.600,5680976.800,5676632.200,0.0,0.0,9408.200,24567.400
1.052,2.849,95.791,0.051,0.0,0.257,0.0,19660.800,5551476.800,5546954.200,0.0,0.0,8980.400,24007.600
0.050,0.025,99.925,0.0,0.0,0.0,0.0,819.200,3435.800,1178.200,0.0,0.0,32.0,114.800
