"Dstat 0.7.2 CSV output"
"Author:","Dag Wieers <dag@wieers.com>",,,,"URL:","http://dag.wieers.com/home-made/dstat/"
"Host:","Middleware1",,,,"User:","mstevan"
"Cmdline:","dstat --output /home/mstevan/logs/experiment_3.3/dstat/vs_512-vcpr_4-wtpm_64-rep_1.csv 5 16",,,,"Date:","28 Oct 2019 13:32:09 UTC"

"total cpu usage",,,,,,"dsk/total",,"net/total",,"paging",,"system",
"usr","sys","idl","wai","hiq","siq","read","writ","recv","send","in","out","int","csw"
2.087,4.387,92.695,0.053,0.0,0.779,6017.404,5059905.975,0.0,0.0,0.0,0.0,11409.505,33327.092
0.576,0.250,99.174,0.0,0.0,0.0,0.0,1638.400,61297.600,57473.600,0.0,0.0,345.400,972.200
4.938,4.214,90.486,0.0,0.0,0.362,0.0,1638.400,4391366.600,4387876.200,0.0,0.0,11356.400,31059.0
2.756,3.451,93.562,0.0,0.0,0.232,0.0,819.200,4516730.600,4514862.800,0.0,0.0,12177.400,32185.0
1.976,3.722,94.020,0.051,0.0,0.231,0.0,34406.400,4604693.800,4600823.0,0.0,0.0,12401.0,32805.200
1.641,3.411,94.717,0.0,0.0,0.231,0.0,819.200,4621789.600,4618690.0,0.0,0.0,12393.0,32862.800
1.385,3.641,94.821,0.0,0.0,0.154,0.0,4096.0,4521575.400,4517984.0,0.0,0.0,12230.0,32249.800
1.489,3.492,94.737,0.0,0.0,0.282,0.0,9830.400,4770742.0,4767460.200,0.0,0.0,12845.200,33946.600
1.164,3.232,95.345,0.0,0.0,0.259,0.0,819.200,4650490.200,4648662.800,0.0,0.0,12573.0,33047.0
1.209,3.344,95.216,0.0,0.0,0.231,0.0,1638.400,4504382.400,4500687.800,0.0,0.0,12243.800,32081.800
1.436,3.385,94.897,0.077,0.0,0.205,0.0,25395.200,4566111.400,4561628.400,0.0,0.0,12383.200,32423.0
1.334,3.541,94.919,0.0,0.0,0.205,0.0,819.200,4691298.800,4689721.800,0.0,0.0,12724.400,33308.600
1.438,3.544,94.761,0.0,0.0,0.257,0.0,1638.400,4533513.800,4529381.400,0.0,0.0,12343.600,32313.200
1.382,3.815,94.598,0.0,0.0,0.205,0.0,5734.400,4531088.600,4527629.400,0.0,0.0,12338.800,32302.400
1.338,3.295,95.135,0.0,0.0,0.232,0.0,2457.600,4660607.200,4658613.600,0.0,0.0,12669.800,33137.0
1.485,3.585,94.597,0.0,0.0,0.333,0.0,1638.400,4451378.0,4448068.600,0.0,0.0,12060.600,31672.600
0.050,0.025,99.900,0.025,0.0,0.0,0.0,16384.0,6336.0,1966.0,0.0,0.0,42.600,142.800
