"Dstat 0.7.2 CSV output"
"Author:","Dag Wieers <dag@wieers.com>",,,,"URL:","http://dag.wieers.com/home-made/dstat/"
"Host:","Middleware1",,,,"User:","mstevan"
"Cmdline:","dstat --output /home/mstevan/logs/experiment_3.3/dstat/vs_512-vcpr_32-wtpm_32-rep_2.csv 5 16",,,,"Date:","28 Oct 2019 14:19:03 UTC"

"total cpu usage",,,,,,"dsk/total",,"net/total",,"paging",,"system",
"usr","sys","idl","wai","hiq","siq","read","writ","recv","send","in","out","int","csw"
2.068,4.318,92.809,0.050,0.0,0.754,5707.370,4799543.123,0.0,0.0,0.0,0.0,11357.180,33092.169
0.878,0.226,98.871,0.0,0.0,0.025,0.0,819.200,114174.800,109377.0,0.0,0.0,307.200,945.400
4.897,3.142,91.254,0.0,0.0,0.707,0.0,1638.400,7332249.200,7326491.800,0.0,0.0,7328.200,24085.200
2.627,2.887,93.810,0.052,0.0,0.624,0.0,33587.200,7254607.0,7252347.400,0.0,0.0,8984.0,24471.200
1.158,3.165,95.214,0.0,0.0,0.463,0.0,2457.600,7274456.600,7272245.800,0.0,0.0,9136.800,24753.0
1.137,2.817,95.711,0.0,0.0,0.336,0.0,1638.400,7324712.800,7320282.600,0.0,0.0,9153.400,24931.800
2.123,3.132,94.201,0.0,0.0,0.544,0.0,5734.400,7288013.600,7283576.600,0.0,0.0,8987.800,24756.800
1.675,3.144,94.666,0.0,0.0,0.515,0.0,9011.200,7335387.0,7333154.800,0.0,0.0,9008.0,24835.600
2.100,3.329,94.085,0.0,0.0,0.487,0.0,1638.400,7311156.600,7306694.0,0.0,0.0,8938.600,24642.600
1.521,3.222,94.844,0.052,0.0,0.361,0.0,22118.400,7314723.400,7312223.200,0.0,0.0,9166.400,24825.0
1.498,2.893,95.274,0.0,0.0,0.336,0.0,1638.400,7322255.200,7318062.400,0.0,0.0,9148.0,24909.0
1.542,3.290,94.653,0.0,0.0,0.514,0.0,1638.400,7287684.400,7282643.600,0.0,0.0,8966.200,24508.400
1.234,3.213,95.143,0.0,0.0,0.411,0.0,819.200,7297680.0,7296027.0,0.0,0.0,9174.400,24804.400
1.408,3.123,94.830,0.0,0.0,0.640,0.0,5734.400,7300924.200,7296419.200,0.0,0.0,9158.200,24872.0
1.339,3.090,95.185,0.0,0.0,0.386,0.0,3276.800,7304159.600,7298885.0,0.0,0.0,9066.200,24838.0
1.360,3.131,95.073,0.026,0.0,0.411,0.0,15564.800,7207407.600,7206219.800,0.0,0.0,9015.600,24551.0
0.075,0.025,99.900,0.0,0.0,0.0,0.0,1638.400,7180.800,2348.800,0.0,0.0,48.200,138.800
