"Dstat 0.7.2 CSV output"
"Author:","Dag Wieers <dag@wieers.com>",,,,"URL:","http://dag.wieers.com/home-made/dstat/"
"Host:","Middleware1",,,,"User:","mstevan"
"Cmdline:","dstat --output /home/mstevan/logs/experiment_3.3/dstat/vs_512-vcpr_16-wtpm_64-rep_3.csv 5 16",,,,"Date:","28 Oct 2019 14:09:06 UTC"

"total cpu usage",,,,,,"dsk/total",,"net/total",,"paging",,"system",
"usr","sys","idl","wai","hiq","siq","read","writ","recv","send","in","out","int","csw"
2.073,4.335,92.782,0.051,0.0,0.759,5770.430,4852496.284,0.0,0.0,0.0,0.0,11376.924,33176.969
0.752,0.251,98.997,0.0,0.0,0.0,0.0,1638.400,61025.800,57395.0,0.0,0.0,338.200,952.800
6.188,5.454,87.572,0.0,0.0,0.787,0.0,1638.400,7807508.600,7804745.200,0.0,0.0,16076.400,47423.400
3.757,5.105,90.516,0.0,0.0,0.622,0.0,1638.400,7686354.400,7682450.600,0.0,0.0,16709.600,47438.400
3.767,4.499,91.002,0.0,0.0,0.732,0.0,4915.200,7607880.200,7596929.600,0.0,0.0,16460.600,47121.800
2.264,5.145,91.716,0.0,0.0,0.875,0.0,819.200,7673190.400,7674189.400,0.0,0.0,16697.400,47660.0
2.381,4.633,92.391,0.078,0.0,0.518,0.0,55705.600,7598908.0,7594412.0,0.0,0.0,16553.200,47287.800
2.217,5.208,91.982,0.0,0.0,0.593,0.0,9830.400,7603420.400,7598816.600,0.0,0.0,16669.200,47429.0
2.448,4.896,91.832,0.0,0.0,0.825,0.0,819.200,7717027.0,7714930.0,0.0,0.0,16894.600,48069.800
2.408,5.483,91.647,0.0,0.0,0.461,0.0,1638.400,7684895.600,7680420.0,0.0,0.0,16686.200,47661.400
2.119,5.118,92.324,0.0,0.0,0.439,0.0,2457.600,7636524.400,7632062.0,0.0,0.0,16605.600,47475.400
2.079,5.363,91.712,0.0,0.0,0.847,0.0,819.200,7694826.800,7692595.600,0.0,0.0,16832.200,47857.800
1.898,4.393,93.267,0.026,0.0,0.416,0.0,22937.600,7616283.600,7611821.200,0.0,0.0,16708.200,47359.200
1.990,4.806,92.739,0.0,0.0,0.465,0.0,4915.200,7666246.600,7661703.200,0.0,0.0,16905.200,47677.400
1.955,5.067,92.464,0.0,0.0,0.514,0.0,4915.200,7675133.0,7672005.200,0.0,0.0,16873.600,47621.800
1.962,4.673,92.925,0.0,0.0,0.439,0.0,1638.400,7513946.200,7510672.600,0.0,0.0,16682.600,46800.400
0.050,0.050,99.900,0.0,0.0,0.0,0.0,819.200,4296.200,4041.200,0.0,0.0,54.200,163.0
