"Dstat 0.7.2 CSV output"
"Author:","Dag Wieers <dag@wieers.com>",,,,"URL:","http://dag.wieers.com/home-made/dstat/"
"Host:","Middleware1",,,,"User:","mstevan"
"Cmdline:","dstat --output /home/mstevan/logs/experiment_3.3/dstat/vs_512-vcpr_32-wtpm_8-rep_4.csv 5 16",,,,"Date:","28 Oct 2019 14:16:13 UTC"

"total cpu usage",,,,,,"dsk/total",,"net/total",,"paging",,"system",
"usr","sys","idl","wai","hiq","siq","read","writ","recv","send","in","out","int","csw"
2.070,4.324,92.799,0.050,0.0,0.756,5725.246,4814556.773,0.0,0.0,0.0,0.0,11369.096,33131.737
0.577,0.151,99.222,0.0,0.0,0.050,0.0,1638.400,89301.0,81122.0,0.0,0.0,254.600,755.800
4.271,2.760,92.578,0.0,0.0,0.391,0.0,819.200,5477850.800,5476333.400,0.0,0.0,8175.0,22884.200
3.784,2.592,93.313,0.0,0.0,0.311,0.0,1638.400,5525253.800,5521249.200,0.0,0.0,8832.800,23405.400
1.231,2.976,95.562,0.0,0.0,0.231,0.0,1638.400,5717363.0,5715061.200,0.0,0.0,9171.200,24272.600
1.158,2.702,95.960,0.0,0.0,0.180,0.0,2457.600,5749451.800,5745117.200,0.0,0.0,9267.800,24484.200
1.129,2.849,95.611,0.051,0.0,0.359,0.0,22118.400,5680166.400,5675704.400,0.0,0.0,8906.200,24173.0
1.590,3.128,95.026,0.0,0.0,0.256,0.0,18841.600,5702478.0,5700380.800,0.0,0.0,9099.200,24337.0
1.186,2.448,96.237,0.0,0.0,0.129,0.0,1638.400,5619169.600,5614572.200,0.0,0.0,9109.800,23921.200
1.314,2.318,96.188,0.0,0.0,0.180,0.0,1638.400,5592313.0,5587741.200,0.0,0.0,8993.400,23794.600
1.108,2.653,96.033,0.0,0.0,0.206,0.0,819.200,5710571.200,5708624.800,0.0,0.0,9160.600,24278.600
1.105,2.723,95.941,0.0,0.0,0.231,0.0,1638.400,5625696.0,5621067.400,0.0,0.0,9049.0,23975.600
1.105,2.853,95.734,0.051,0.0,0.257,0.0,20480.0,5716679.800,5712154.600,0.0,0.0,9138.400,24396.0
1.159,2.447,96.060,0.0,0.0,0.335,0.0,5734.400,5604334.200,5602103.400,0.0,0.0,8807.800,23880.400
1.458,2.865,95.395,0.0,0.0,0.281,0.0,2457.600,5654310.600,5649982.0,0.0,0.0,8982.400,24088.600
1.108,2.835,95.851,0.0,0.0,0.206,0.0,819.200,5696387.800,5694257.600,0.0,0.0,8958.600,24155.800
0.555,0.454,98.940,0.0,0.0,0.050,0.0,1638.400,1041504.400,1036420.400,0.0,0.0,1658.200,4309.200
