"Dstat 0.7.2 CSV output"
"Author:","Dag Wieers <dag@wieers.com>",,,,"URL:","http://dag.wieers.com/home-made/dstat/"
"Host:","Middleware1",,,,"User:","mstevan"
"Cmdline:","dstat --output /home/mstevan/logs/experiment_3.3/dstat/vs_512-vcpr_8-wtpm_64-rep_4.csv 5 16",,,,"Date:","28 Oct 2019 13:53:28 UTC"

"total cpu usage",,,,,,"dsk/total",,"net/total",,"paging",,"system",
"usr","sys","idl","wai","hiq","siq","read","writ","recv","send","in","out","int","csw"
2.078,4.357,92.747,0.052,0.0,0.767,5872.401,4938132.912,0.0,0.0,0.0,0.0,11400.383,33258.998
0.727,0.276,98.922,0.0,0.0,0.075,0.0,819.200,93889.600,92299.400,0.0,0.0,449.800,1259.0
5.481,4.458,89.352,0.0,0.0,0.708,0.0,1638.400,6600703.400,6596536.0,0.0,0.0,15939.800,44038.800
4.398,4.814,90.034,0.0,0.0,0.755,0.0,1638.400,6998279.0,6992120.200,0.0,0.0,17614.600,46912.0
1.962,4.880,92.667,0.052,0.0,0.439,0.0,38502.400,7050503.400,7050097.0,0.0,0.0,17815.0,47396.200
1.940,4.604,93.042,0.0,0.0,0.414,0.0,1638.400,6951819.600,6946776.400,0.0,0.0,17513.0,46757.600
1.881,4.793,92.682,0.0,0.0,0.644,0.0,3276.800,6971311.400,6969691.0,0.0,0.0,17646.400,47012.200
1.950,4.159,93.423,0.0,0.0,0.468,0.0,9830.400,7124185.200,7119722.800,0.0,0.0,18003.200,48051.0
2.100,5.352,92.087,0.0,0.0,0.461,0.0,1638.400,6893728.200,6889323.800,0.0,0.0,17529.200,46547.200
2.094,4.652,92.918,0.0,0.0,0.336,0.0,819.200,7056015.800,7053797.800,0.0,0.0,17897.600,47553.600
2.040,4.881,92.717,0.026,0.0,0.336,0.0,17203.200,6986025.0,6981562.600,0.0,0.0,17709.600,47081.800
1.837,4.658,93.038,0.0,0.0,0.466,0.0,1638.400,6961546.800,6957129.800,0.0,0.0,17694.200,46897.600
2.015,4.857,92.844,0.0,0.0,0.284,0.0,819.200,6962944.0,6960540.200,0.0,0.0,17736.400,47104.200
1.907,4.794,92.784,0.0,0.0,0.515,0.0,5734.400,6902418.0,6898128.200,0.0,0.0,17504.600,46422.400
1.960,4.796,92.780,0.0,0.0,0.464,0.0,3276.800,6961010.800,6956561.600,0.0,0.0,17860.200,46967.600
1.932,4.817,92.865,0.0,0.0,0.386,0.0,819.200,6861879.200,6860148.400,0.0,0.0,17456.200,46124.0
0.075,0.025,99.850,0.050,0.0,0.0,0.0,20480.0,6547.200,2071.600,0.0,0.0,45.400,135.800
