"Dstat 0.7.2 CSV output"
"Author:","Dag Wieers <dag@wieers.com>",,,,"URL:","http://dag.wieers.com/home-made/dstat/"
"Host:","Middleware1",,,,"User:","mstevan"
"Cmdline:","dstat --output /home/mstevan/logs/experiment_3.3/dstat/vs_512-vcpr_16-wtpm_64-rep_4.csv 5 16",,,,"Date:","28 Oct 2019 14:10:32 UTC"

"total cpu usage",,,,,,"dsk/total",,"net/total",,"paging",,"system",
"usr","sys","idl","wai","hiq","siq","read","writ","recv","send","in","out","int","csw"
2.073,4.335,92.782,0.051,0.0,0.759,5761.339,4844862.963,0.0,0.0,0.0,0.0,11380.603,33186.255
0.526,0.276,99.148,0.025,0.0,0.025,0.0,59801.600,31355.400,26494.0,0.0,0.0,277.600,760.600
6.028,5.898,87.422,0.0,0.0,0.652,0.0,819.200,7777199.800,7776212.400,0.0,0.0,16274.800,47508.200
4.039,5.023,90.212,0.0,0.0,0.725,0.0,1638.400,7752059.0,7746824.600,0.0,0.0,17046.800,47986.0
3.222,5.052,91.031,0.0,0.0,0.696,0.0,3276.800,7690734.0,7687002.800,0.0,0.0,16747.400,47843.200
2.567,5.133,91.709,0.0,0.0,0.590,0.0,819.200,7624568.600,7622337.400,0.0,0.0,16680.400,47421.400
2.745,4.324,92.361,0.0,0.0,0.570,0.0,4915.200,7598133.0,7592864.0,0.0,0.0,16811.0,47238.800
2.251,4.605,92.316,0.052,0.0,0.776,0.0,25395.200,7702691.400,7699160.0,0.0,0.0,17058.800,47905.400
2.470,5.042,91.870,0.0,0.0,0.617,0.0,819.200,7657685.0,7655453.800,0.0,0.0,16851.200,47473.600
2.490,5.160,91.630,0.0,0.0,0.719,0.0,1638.400,7709747.400,7703629.400,0.0,0.0,17213.600,48071.800
2.452,4.903,92.129,0.0,0.0,0.516,0.0,1638.400,7618965.400,7614325.600,0.0,0.0,17136.800,47442.200
2.042,4.731,92.658,0.0,0.0,0.569,0.0,819.200,7642084.600,7641750.200,0.0,0.0,17406.800,47863.800
1.989,4.675,92.794,0.0,0.0,0.542,0.0,1638.400,7624031.200,7619065.800,0.0,0.0,17444.200,47600.400
1.789,4.278,93.285,0.026,0.0,0.622,0.0,24576.0,7616772.0,7615043.800,0.0,0.0,17292.800,47555.200
1.715,4.366,93.425,0.0,0.0,0.494,0.0,3276.800,7652511.600,7648049.200,0.0,0.0,17393.200,47713.200
1.753,4.822,92.754,0.0,0.0,0.670,0.0,1638.400,7687355.200,7683063.200,0.0,0.0,17328.0,47665.800
0.050,0.025,99.925,0.0,0.0,0.0,0.0,819.200,3237.800,1085.800,0.0,0.0,45.600,121.400
