"Dstat 0.7.2 CSV output"
"Author:","Dag Wieers <dag@wieers.com>",,,,"URL:","http://dag.wieers.com/home-made/dstat/"
"Host:","Middleware1",,,,"User:","mstevan"
"Cmdline:","dstat --output /home/mstevan/logs/experiment_3.3/dstat/vs_512-vcpr_4-wtpm_32-rep_3.csv 5 16",,,,"Date:","28 Oct 2019 13:29:18 UTC"

"total cpu usage",,,,,,"dsk/total",,"net/total",,"paging",,"system",
"usr","sys","idl","wai","hiq","siq","read","writ","recv","send","in","out","int","csw"
2.089,4.392,92.685,0.053,0.0,0.781,6037.280,5076597.953,0.0,0.0,0.0,0.0,11416.846,33348.067
0.351,0.075,99.549,0.0,0.0,0.025,0.0,31948.800,11925.0,7556.200,0.0,0.0,140.400,448.600
4.915,4.035,90.740,0.0,0.0,0.310,0.0,1638.400,4463089.400,4458280.800,0.0,0.0,10356.200,31602.200
2.461,2.902,94.482,0.0,0.0,0.155,0.0,819.200,4651144.0,4649296.200,0.0,0.0,11302.0,32819.0
1.851,3.291,94.574,0.0,0.0,0.283,0.0,3276.800,4582431.800,4577674.800,0.0,0.0,11136.800,32408.200
1.623,3.504,94.666,0.0,0.0,0.206,0.0,1638.400,4651404.600,4647311.600,0.0,0.0,11269.200,32892.600
1.709,3.953,94.109,0.0,0.0,0.230,0.0,3276.800,4607413.400,4605304.400,0.0,0.0,11170.0,32650.200
1.491,3.084,95.245,0.051,0.0,0.129,0.0,34406.400,4583766.0,4577959.800,0.0,0.0,11115.600,32569.600
1.619,3.084,95.014,0.0,0.0,0.283,0.0,819.200,4616567.800,4615680.400,0.0,0.0,11147.200,32624.600
1.490,3.135,95.195,0.0,0.0,0.180,0.0,1638.400,4565725.400,4561263.0,0.0,0.0,11040.800,32393.800
1.335,3.724,94.658,0.0,0.0,0.282,0.0,1638.400,4839485.400,4834778.600,0.0,0.0,11678.400,34307.400
1.360,3.516,94.944,0.0,0.0,0.180,0.0,819.200,4702830.200,4700759.400,0.0,0.0,11268.800,33281.800
1.915,3.805,94.127,0.0,0.0,0.153,0.0,1638.400,4782786.600,4778228.400,0.0,0.0,11481.800,33940.200
1.769,3.256,94.641,0.077,0.0,0.256,0.0,17203.200,4599900.400,4595596.0,0.0,0.0,11049.400,32887.0
1.613,3.635,94.598,0.0,0.0,0.154,0.0,5734.400,4758809.400,4756578.200,0.0,0.0,11393.800,34030.800
1.593,3.237,94.991,0.0,0.0,0.180,0.0,2457.600,4703647.600,4699026.800,0.0,0.0,11197.200,33561.200
0.050,0.0,99.950,0.0,0.0,0.0,0.0,1638.400,6349.200,2388.400,0.0,0.0,46.400,136.0
