"Dstat 0.7.2 CSV output"
"Author:","Dag Wieers <dag@wieers.com>",,,,"URL:","http://dag.wieers.com/home-made/dstat/"
"Host:","Middleware1",,,,"User:","mstevan"
"Cmdline:","dstat --output /home/mstevan/logs/experiment_3.3/dstat/vs_512-vcpr_8-wtpm_64-rep_1.csv 5 16",,,,"Date:","28 Oct 2019 13:49:12 UTC"

"total cpu usage",,,,,,"dsk/total",,"net/total",,"paging",,"system",
"usr","sys","idl","wai","hiq","siq","read","writ","recv","send","in","out","int","csw"
2.078,4.359,92.742,0.052,0.0,0.769,5900.836,4962015.705,0.0,0.0,0.0,0.0,11385.838,33234.825
0.802,0.226,98.897,0.0,0.0,0.075,0.0,819.200,117081.600,115084.0,0.0,0.0,516.600,1432.600
5.455,5.039,88.779,0.0,0.0,0.727,0.0,1638.400,6717035.400,6713083.200,0.0,0.0,16395.0,44615.400
4.127,4.336,91.066,0.0,0.0,0.470,0.0,1638.400,6842578.400,6838129.200,0.0,0.0,17418.800,45680.0
1.867,4.771,93.026,0.0,0.0,0.337,0.0,2457.600,7132415.600,7130184.400,0.0,0.0,18189.0,47918.600
2.056,4.780,92.675,0.0,0.0,0.488,0.0,1638.400,6824287.600,6819455.0,0.0,0.0,17604.0,45934.600
2.078,5.028,92.355,0.026,0.0,0.513,0.0,25395.200,6831735.800,6827213.200,0.0,0.0,17507.400,45791.400
1.757,4.753,92.948,0.0,0.0,0.542,0.0,15564.800,7063462.400,7061055.600,0.0,0.0,18279.800,47432.400
1.789,4.408,93.389,0.0,0.0,0.415,0.0,1638.400,6929652.200,6924801.800,0.0,0.0,17799.0,46530.800
1.786,4.400,93.271,0.0,0.0,0.543,0.0,1638.400,6855719.600,6852356.800,0.0,0.0,17684.0,46010.0
1.772,5.085,92.604,0.0,0.0,0.539,0.0,819.200,6883831.800,6881466.200,0.0,0.0,17709.200,46163.600
1.652,4.957,92.977,0.0,0.0,0.413,0.0,1638.400,6936344.200,6932057.400,0.0,0.0,17813.800,46558.600
2.048,5.247,92.245,0.0,0.0,0.461,0.0,819.200,6866377.200,6863995.200,0.0,0.0,17688.0,46111.600
1.863,4.476,93.247,0.052,0.0,0.362,0.0,20480.0,6882536.0,6878241.200,0.0,0.0,17626.600,46085.800
2.011,4.640,93.014,0.0,0.0,0.335,0.0,3276.800,7045434.0,7040013.200,0.0,0.0,18180.200,47517.400
1.806,4.205,93.550,0.0,0.0,0.439,0.0,819.200,6785199.800,6784433.200,0.0,0.0,17529.0,45680.200
0.050,0.025,99.925,0.0,0.0,0.0,0.0,1638.400,6322.800,1926.400,0.0,0.0,38.800,125.200
