"Dstat 0.7.2 CSV output"
"Author:","Dag Wieers <dag@wieers.com>",,,,"URL:","http://dag.wieers.com/home-made/dstat/"
"Host:","Middleware1",,,,"User:","mstevan"
"Cmdline:","dstat --output /home/mstevan/logs/experiment_3.3/dstat/vs_512-vcpr_16-wtpm_32-rep_4.csv 5 16",,,,"Date:","28 Oct 2019 14:04:51 UTC"

"total cpu usage",,,,,,"dsk/total",,"net/total",,"paging",,"system",
"usr","sys","idl","wai","hiq","siq","read","writ","recv","send","in","out","int","csw"
2.072,4.338,92.778,0.051,0.0,0.761,5797.888,4875555.610,0.0,0.0,0.0,0.0,11372.377,33164.401
0.829,0.276,98.870,0.0,0.0,0.025,0.0,1638.400,127084.400,120689.800,0.0,0.0,377.400,1114.600
5.528,4.256,89.411,0.156,0.0,0.649,0.0,32768.0,7526535.400,7523552.0,0.0,0.0,10527.800,35348.400
3.334,4.420,91.781,0.0,0.0,0.465,0.0,819.200,7431515.200,7429284.0,0.0,0.0,10904.400,35046.200
3.049,4.612,91.750,0.0,0.0,0.589,0.0,2457.600,7391256.0,7386793.800,0.0,0.0,10456.200,34756.400
2.449,3.738,93.220,0.0,0.0,0.593,0.0,1638.400,7451539.400,7447076.400,0.0,0.0,10777.400,35300.600
2.191,3.790,93.529,0.0,0.0,0.490,0.0,4096.0,7393374.0,7391201.200,0.0,0.0,10768.600,35090.0
2.475,4.542,92.422,0.0,0.0,0.561,0.0,9830.400,7392361.0,7387876.800,0.0,0.0,10804.800,35176.200
2.041,3.514,93.824,0.052,0.0,0.568,0.0,25395.200,7382234.400,7378621.600,0.0,0.0,10780.0,35168.400
1.938,3.514,94.031,0.0,0.0,0.517,0.0,1638.400,7368539.800,7364604.400,0.0,0.0,10817.200,35078.0
1.855,3.865,93.945,0.0,0.0,0.335,0.0,1638.400,7376035.400,7371450.0,0.0,0.0,11008.600,35409.0
1.779,3.610,94.146,0.0,0.0,0.464,0.0,819.200,7395424.400,7392485.800,0.0,0.0,10960.200,35162.0
1.827,3.859,93.903,0.0,0.0,0.412,0.0,1638.400,7376622.200,7373878.200,0.0,0.0,10934.800,35157.800
1.692,4.127,93.720,0.0,0.0,0.461,0.0,5734.400,7364292.400,7359796.200,0.0,0.0,10896.200,35148.400
1.807,3.717,94.037,0.052,0.0,0.387,0.0,15564.800,7419222.800,7416536.600,0.0,0.0,10950.600,35312.600
1.527,3.571,94.592,0.0,0.0,0.310,0.0,1638.400,7289637.600,7285687.800,0.0,0.0,10965.600,34982.600
0.050,0.050,99.900,0.0,0.0,0.0,0.0,1638.400,7590.0,2560.0,0.0,0.0,48.0,147.0
