"Dstat 0.7.2 CSV output"
"Author:","Dag Wieers <dag@wieers.com>",,,,"URL:","http://dag.wieers.com/home-made/dstat/"
"Host:","Middleware1",,,,"User:","mstevan"
"Cmdline:","dstat --output /home/mstevan/logs/experiment_3.3/dstat/vs_512-vcpr_32-wtpm_32-rep_1.csv 5 16",,,,"Date:","28 Oct 2019 14:17:38 UTC"

"total cpu usage",,,,,,"dsk/total",,"net/total",,"paging",,"system",
"usr","sys","idl","wai","hiq","siq","read","writ","recv","send","in","out","int","csw"
2.069,4.321,92.805,0.050,0.0,0.755,5716.291,4807034.440,0.0,0.0,0.0,0.0,11363.012,33111.202
0.954,0.402,98.545,0.050,0.0,0.050,0.0,31129.600,184010.600,178522.800,0.0,0.0,384.800,1221.0
4.188,3.010,92.251,0.0,0.0,0.550,0.0,12288.0,7297125.400,7293915.600,0.0,0.0,7374.400,24005.400
2.978,2.874,93.630,0.0,0.0,0.518,0.0,1638.400,7248113.200,7243648.400,0.0,0.0,8853.400,24365.600
1.236,3.142,95.210,0.0,0.0,0.412,0.0,1638.400,7406429.0,7404198.800,0.0,0.0,9090.0,25035.400
1.361,3.235,94.942,0.0,0.0,0.462,0.0,1638.400,7436167.400,7431703.400,0.0,0.0,9143.800,25152.400
2.176,2.901,94.509,0.0,0.0,0.414,0.0,5734.400,7300811.0,7296309.400,0.0,0.0,8941.600,24674.800
2.021,3.582,93.936,0.0,0.0,0.461,0.0,9011.200,7541672.200,7539441.800,0.0,0.0,9388.400,25719.400
1.316,2.839,95.354,0.052,0.0,0.439,0.0,17203.200,7401774.600,7397311.600,0.0,0.0,9415.400,25235.0
1.237,2.965,95.308,0.0,0.0,0.490,0.0,1638.400,7433649.800,7429186.400,0.0,0.0,9217.600,25157.0
1.065,2.701,95.922,0.0,0.0,0.312,0.0,819.200,7276404.0,7274192.0,0.0,0.0,9257.600,24785.400
1.256,3.332,94.951,0.0,0.0,0.461,0.0,1638.400,7308094.800,7303690.600,0.0,0.0,9353.600,24955.800
1.361,3.005,95.172,0.0,0.0,0.462,0.0,819.200,7303168.600,7300938.200,0.0,0.0,9283.800,24845.600
1.188,2.944,95.455,0.0,0.0,0.413,0.0,5734.400,7255273.800,7250811.200,0.0,0.0,9246.800,24727.0
1.058,2.915,95.511,0.077,0.0,0.439,0.0,18841.600,7296246.800,7291783.400,0.0,0.0,9220.600,24931.0
1.030,3.168,95.416,0.0,0.0,0.386,0.0,819.200,7197844.400,7195360.600,0.0,0.0,9171.0,24838.200
0.503,0.755,98.642,0.0,0.0,0.101,0.0,1638.400,987912.400,982730.800,0.0,0.0,2620.200,6764.0
