"Dstat 0.7.2 CSV output"
"Author:","Dag Wieers <dag@wieers.com>",,,,"URL:","http://dag.wieers.com/home-made/dstat/"
"Host:","Middleware1",,,,"User:","mstevan"
"Cmdline:","dstat --output /home/mstevan/logs/experiment_3.3/dstat/vs_512-vcpr_16-wtpm_32-rep_2.csv 5 16",,,,"Date:","28 Oct 2019 14:02:00 UTC"

"total cpu usage",,,,,,"dsk/total",,"net/total",,"paging",,"system",
"usr","sys","idl","wai","hiq","siq","read","writ","recv","send","in","out","int","csw"
2.073,4.341,92.773,0.051,0.0,0.762,5816.343,4891055.244,0.0,0.0,0.0,0.0,11380.086,33176.710
0.726,0.175,99.074,0.0,0.0,0.025,0.0,1638.400,55500.0,50497.800,0.0,0.0,307.0,824.200
5.754,4.400,88.961,0.0,0.0,0.885,0.0,1638.400,7446927.800,7442810.800,0.0,0.0,10363.200,35214.400
2.914,4.023,92.522,0.0,0.0,0.542,0.0,819.200,7467321.0,7464922.200,0.0,0.0,10805.600,35665.0
2.964,3.918,92.526,0.0,0.0,0.593,0.0,3276.800,7451639.0,7447234.400,0.0,0.0,10524.600,35292.200
2.342,3.964,93.153,0.051,0.0,0.489,0.0,31129.600,7520714.600,7516271.800,0.0,0.0,10866.400,36023.600
2.438,4.234,92.815,0.0,0.0,0.513,0.0,4096.0,7511873.600,7509642.0,0.0,0.0,10690.800,35782.800
2.205,4.051,93.282,0.0,0.0,0.462,0.0,9830.400,7475047.800,7470585.400,0.0,0.0,10872.600,35941.400
2.279,3.995,93.163,0.0,0.0,0.563,0.0,1638.400,7513637.200,7507059.800,0.0,0.0,10902.0,35973.800
1.800,3.755,93.904,0.0,0.0,0.540,0.0,819.200,7440162.200,7440045.600,0.0,0.0,10807.400,35680.800
1.955,3.910,93.723,0.0,0.0,0.412,0.0,1638.400,7442051.200,7437589.200,0.0,0.0,10736.0,35746.800
1.756,3.744,93.958,0.0,0.0,0.542,0.0,819.200,7374103.200,7371871.800,0.0,0.0,10654.600,35294.600
1.475,3.829,94.360,0.026,0.0,0.310,0.0,22937.600,7452335.200,7447873.0,0.0,0.0,10698.800,35588.600
1.870,4.201,93.443,0.0,0.0,0.487,0.0,5734.400,7417853.0,7413390.400,0.0,0.0,10863.200,35530.600
1.932,3.607,93.971,0.0,0.0,0.490,0.0,2457.600,7442258.200,7440027.0,0.0,0.0,10858.400,35498.200
1.869,3.995,93.649,0.0,0.0,0.487,0.0,1638.400,7345858.0,7341412.200,0.0,0.0,10823.600,35064.0
0.025,0.0,99.975,0.0,0.0,0.0,0.0,1638.400,6433.600,2108.400,0.0,0.0,36.600,127.400
