"Dstat 0.7.2 CSV output"
"Author:","Dag Wieers <dag@wieers.com>",,,,"URL:","http://dag.wieers.com/home-made/dstat/"
"Host:","Middleware1",,,,"User:","mstevan"
"Cmdline:","dstat --output /home/mstevan/logs/experiment_3.3/dstat/vs_64-vcpr_32-wtpm_8-rep_4.csv 5 16",,,,"Date:","28 Oct 2019 11:59:36 UTC"

"total cpu usage",,,,,,"dsk/total",,"net/total",,"paging",,"system",
"usr","sys","idl","wai","hiq","siq","read","writ","recv","send","in","out","int","csw"
2.124,4.529,92.459,0.058,0.0,0.830,6739.611,5666383.912,0.0,0.0,0.0,0.0,11518.209,33731.828
0.551,0.075,99.349,0.0,0.0,0.025,0.0,33587.200,37042.200,30210.0,0.0,0.0,218.800,705.0
4.396,2.695,92.595,0.0,0.0,0.314,0.0,1638.400,1971687.200,1966573.0,0.0,0.0,8340.600,22921.400
2.216,2.835,94.665,0.0,0.0,0.284,0.0,819.200,1997404.400,1995188.400,0.0,0.0,9802.200,23736.800
1.160,2.604,96.030,0.0,0.0,0.206,0.0,2457.600,1956004.800,1951543.200,0.0,0.0,9455.400,23344.800
1.109,2.425,96.260,0.0,0.0,0.206,0.0,1638.400,2038387.800,2036143.200,0.0,0.0,9806.400,24301.600
1.332,2.946,95.542,0.0,0.0,0.179,0.0,1638.400,2010012.400,2005549.400,0.0,0.0,9629.400,23970.800
1.880,2.704,95.055,0.052,0.0,0.309,0.0,29491.200,1980849.800,1976434.0,0.0,0.0,9431.800,23786.400
1.490,2.724,95.427,0.0,0.0,0.360,0.0,9011.200,2010916.600,2008703.800,0.0,0.0,9821.0,24165.200
1.259,2.569,96.018,0.0,0.0,0.154,0.0,1638.400,2011213.800,2006787.200,0.0,0.0,9939.200,23920.200
0.901,2.625,96.242,0.0,0.0,0.232,0.0,1638.400,2061211.200,2056438.600,0.0,0.0,10261.400,24647.600
1.031,2.294,96.366,0.0,0.0,0.309,0.0,819.200,1971639.200,1969474.400,0.0,0.0,9746.400,23410.200
1.429,3.011,95.356,0.0,0.0,0.204,0.0,1638.400,1989368.400,1985072.400,0.0,0.0,9608.400,23625.0
1.107,2.523,96.138,0.026,0.0,0.206,0.0,22118.400,2002088.0,1997626.600,0.0,0.0,9848.800,23973.0
1.077,3.026,95.667,0.0,0.0,0.231,0.0,1638.400,1982128.800,1979895.800,0.0,0.0,9881.800,23787.600
1.111,2.274,96.433,0.0,0.0,0.181,0.0,1638.400,2035710.400,2031619.400,0.0,0.0,10272.600,24575.600
0.352,0.503,99.121,0.0,0.0,0.025,0.0,819.200,353833.600,350359.0,0.0,0.0,1757.0,5209.0
