"Dstat 0.7.2 CSV output"
"Author:","Dag Wieers <dag@wieers.com>",,,,"URL:","http://dag.wieers.com/home-made/dstat/"
"Host:","Middleware1",,,,"User:","mstevan"
"Cmdline:","dstat --output /home/mstevan/logs/experiment_3.3/dstat/vs_64-vcpr_16-wtpm_8-rep_3.csv 5 16",,,,"Date:","28 Oct 2019 11:41:07 UTC"

"total cpu usage",,,,,,"dsk/total",,"net/total",,"paging",,"system",
"usr","sys","idl","wai","hiq","siq","read","writ","recv","send","in","out","int","csw"
2.128,4.552,92.421,0.059,0.0,0.840,6905.119,5805373.529,0.0,0.0,0.0,0.0,11501.996,33714.173
0.376,0.125,99.474,0.0,0.0,0.025,0.0,819.200,19603.600,16090.600,0.0,0.0,193.400,568.200
4.055,2.677,92.956,0.0,0.0,0.312,0.0,1638.400,1929090.400,1924836.400,0.0,0.0,8779.200,22811.800
1.936,2.789,95.068,0.026,0.0,0.181,0.0,35225.600,1976477.600,1972026.600,0.0,0.0,9113.0,23668.0
1.135,2.811,95.848,0.0,0.0,0.206,0.0,2457.600,1976824.800,1974610.800,0.0,0.0,9101.400,23664.600
2.238,2.958,94.573,0.0,0.0,0.231,0.0,1638.400,1952454.200,1947650.800,0.0,0.0,9024.200,23446.600
2.044,2.913,94.788,0.0,0.0,0.255,0.0,4915.200,1949772.600,1945457.200,0.0,0.0,9002.800,23478.800
1.333,2.896,95.541,0.0,0.0,0.231,0.0,9011.200,1921326.0,1919205.0,0.0,0.0,8939.400,23156.600
1.312,2.598,95.884,0.0,0.0,0.206,0.0,1638.400,1942444.800,1937949.400,0.0,0.0,8905.600,23352.600
1.030,2.472,96.317,0.052,0.0,0.129,0.0,26214.400,1919730.200,1916444.0,0.0,0.0,8878.200,23123.600
1.306,2.741,95.748,0.0,0.0,0.205,0.0,1638.400,1928502.0,1925319.800,0.0,0.0,8826.400,23169.600
1.305,2.892,95.598,0.0,0.0,0.205,0.0,1638.400,1939600.0,1934990.600,0.0,0.0,8938.0,23280.600
1.105,2.544,96.095,0.0,0.0,0.257,0.0,819.200,1917996.400,1915764.800,0.0,0.0,8865.600,23072.800
1.104,2.823,95.842,0.0,0.0,0.231,0.0,5734.400,1949247.800,1944759.0,0.0,0.0,9110.800,23459.0
1.105,2.724,95.965,0.0,0.0,0.206,0.0,3276.800,1960143.800,1955534.0,0.0,0.0,8951.400,23536.200
1.259,2.416,96.068,0.103,0.0,0.154,0.0,18022.400,1901447.0,1899551.800,0.0,0.0,8738.0,22818.600
0.050,0.050,99.900,0.0,0.0,0.0,0.0,1638.400,6839.600,2217.600,0.0,0.0,42.600,145.0
