"Dstat 0.7.2 CSV output"
"Author:","Dag Wieers <dag@wieers.com>",,,,"URL:","http://dag.wieers.com/home-made/dstat/"
"Host:","Middleware1",,,,"User:","mstevan"
"Cmdline:","dstat --output /home/mstevan/logs/experiment_3.3/dstat/vs_64-vcpr_8-wtpm_64-rep_1.csv 5 16",,,,"Date:","28 Oct 2019 11:32:35 UTC"

"total cpu usage",,,,,,"dsk/total",,"net/total",,"paging",,"system",
"usr","sys","idl","wai","hiq","siq","read","writ","recv","send","in","out","int","csw"
2.132,4.567,92.396,0.060,0.0,0.846,6984.277,5871848.146,0.0,0.0,0.0,0.0,11494.428,33733.887
0.551,0.276,99.123,0.025,0.0,0.025,0.0,31948.800,32081.200,28397.600,0.0,0.0,393.0,1093.200
5.515,4.679,89.336,0.0,0.0,0.470,0.0,7372.800,2395982.600,2393570.800,0.0,0.0,16278.200,44861.800
4.235,4.235,91.031,0.0,0.0,0.500,0.0,1638.400,2457730.200,2453544.800,0.0,0.0,17229.600,46342.0
1.914,4.708,92.887,0.0,0.0,0.491,0.0,3276.800,2442035.0,2437474.200,0.0,0.0,17248.0,46295.800
1.928,5.141,92.391,0.0,0.0,0.540,0.0,819.200,2498885.400,2496831.800,0.0,0.0,17609.0,47418.200
1.965,4.396,93.173,0.0,0.0,0.465,0.0,4096.0,2453025.400,2448589.400,0.0,0.0,17372.800,46576.800
1.969,4.249,93.316,0.026,0.0,0.440,0.0,17203.200,2473252.200,2468378.400,0.0,0.0,17437.600,46906.400
2.062,4.588,92.835,0.026,0.0,0.490,0.0,9011.200,2499843.600,2498042.800,0.0,0.0,17623.800,47538.400
1.954,4.884,92.776,0.0,0.0,0.386,0.0,1638.400,2459163.400,2454701.0,0.0,0.0,17238.0,46656.600
2.152,5.020,92.367,0.0,0.0,0.461,0.0,819.200,2440535.200,2438204.400,0.0,0.0,17157.0,46358.600
1.857,4.617,93.087,0.0,0.0,0.438,0.0,1638.400,2434890.400,2430950.0,0.0,0.0,17112.200,46139.800
1.912,4.650,93.128,0.0,0.0,0.310,0.0,1638.400,2416499.800,2411830.0,0.0,0.0,16919.200,45824.0
1.788,4.352,93.472,0.0,0.0,0.389,0.0,4915.200,2465892.200,2463894.800,0.0,0.0,17276.600,46682.800
2.246,5.105,92.164,0.026,0.0,0.459,0.0,21299.200,2421588.400,2416536.200,0.0,0.0,16907.0,45868.400
2.061,4.406,93.198,0.0,0.0,0.335,0.0,1638.400,2397581.400,2394294.800,0.0,0.0,16690.600,45368.400
0.0,0.025,99.975,0.0,0.0,0.0,0.0,819.200,3319.0,1126.200,0.0,0.0,41.200,133.400
