"Dstat 0.7.2 CSV output"
"Author:","Dag Wieers <dag@wieers.com>",,,,"URL:","http://dag.wieers.com/home-made/dstat/"
"Host:","Middleware1",,,,"User:","mstevan"
"Cmdline:","dstat --output /home/mstevan/logs/experiment_3.3/dstat/vs_64-vcpr_8-wtpm_8-rep_2.csv 5 16",,,,"Date:","28 Oct 2019 11:22:38 UTC"

"total cpu usage",,,,,,"dsk/total",,"net/total",,"paging",,"system",
"usr","sys","idl","wai","hiq","siq","read","writ","recv","send","in","out","int","csw"
2.138,4.586,92.363,0.061,0.0,0.854,7078.968,5951371.760,0.0,0.0,0.0,0.0,11507.492,33780.049
0.626,0.175,99.174,0.0,0.0,0.025,0.0,819.200,36407.800,33616.600,0.0,0.0,246.0,799.400
3.971,2.403,93.417,0.0,0.0,0.209,0.0,1638.400,1966146.0,1961763.600,0.0,0.0,8274.400,23667.0
3.498,2.928,93.263,0.0,0.0,0.311,0.0,819.200,1932062.200,1929572.200,0.0,0.0,9618.400,23447.600
1.160,2.784,95.851,0.052,0.0,0.155,0.0,31948.800,1946480.200,1942276.800,0.0,0.0,9880.600,23776.800
1.490,2.620,95.710,0.0,0.0,0.180,0.0,2457.600,1943959.400,1939497.200,0.0,0.0,9906.0,23777.200
1.361,2.670,95.764,0.0,0.0,0.205,0.0,819.200,1969138.800,1966927.400,0.0,0.0,10076.400,24037.800
1.204,3.073,95.467,0.0,0.0,0.256,0.0,12288.0,1969069.200,1964453.200,0.0,0.0,10038.400,24075.600
1.412,2.850,95.507,0.0,0.0,0.231,0.0,1638.400,1973782.600,1969566.200,0.0,0.0,9817.200,24090.800
1.291,2.169,96.358,0.0,0.0,0.181,0.0,819.200,1961784.600,1959474.400,0.0,0.0,9762.400,23924.800
1.029,2.779,95.857,0.077,0.0,0.257,0.0,17203.200,1982891.0,1978246.400,0.0,0.0,10013.600,24147.200
1.027,3.030,95.661,0.0,0.0,0.282,0.0,9011.200,1961763.600,1957486.800,0.0,0.0,10017.400,24079.200
1.254,2.995,95.520,0.0,0.0,0.230,0.0,819.200,1951917.400,1949686.0,0.0,0.0,9914.0,23769.200
1.074,2.965,95.782,0.0,0.0,0.179,0.0,5734.400,1915541.200,1910918.0,0.0,0.0,9723.0,23421.0
1.032,2.167,96.646,0.0,0.0,0.155,0.0,2457.600,1958217.200,1956022.0,0.0,0.0,10080.600,23880.0
1.025,2.871,95.847,0.0,0.0,0.256,0.0,1638.400,1895010.600,1890730.0,0.0,0.0,9631.600,23070.400
0.050,0.025,99.925,0.0,0.0,0.0,0.0,15564.800,6336.0,1966.0,0.0,0.0,46.400,140.800
