"Dstat 0.7.2 CSV output"
"Author:","Dag Wieers <dag@wieers.com>",,,,"URL:","http://dag.wieers.com/home-made/dstat/"
"Host:","Middleware1",,,,"User:","mstevan"
"Cmdline:","dstat --output /home/mstevan/logs/experiment_3.3/dstat/vs_64-vcpr_8-wtpm_8-rep_4.csv 5 16",,,,"Date:","28 Oct 2019 11:25:29 UTC"

"total cpu usage",,,,,,"dsk/total",,"net/total",,"paging",,"system",
"usr","sys","idl","wai","hiq","siq","read","writ","recv","send","in","out","int","csw"
2.134,4.576,92.378,0.060,0.0,0.851,7051.651,5928429.078,0.0,0.0,0.0,0.0,11494.137,33725.402
0.626,0.175,99.149,0.0,0.0,0.050,0.0,39321.600,36249.200,31160.400,0.0,0.0,239.0,798.0
4.140,3.157,92.367,0.0,0.0,0.336,0.0,819.200,1992919.400,1989369.200,0.0,0.0,7103.600,23832.200
2.521,2.727,94.469,0.0,0.0,0.283,0.0,1638.400,2040228.200,2037470.600,0.0,0.0,9041.400,24722.800
1.284,2.850,95.584,0.0,0.0,0.282,0.0,3276.800,2018964.800,2014338.200,0.0,0.0,9354.600,24486.0
1.103,2.821,95.871,0.0,0.0,0.205,0.0,819.200,1966880.800,1964728.600,0.0,0.0,8936.0,23956.600
1.209,2.546,96.040,0.0,0.0,0.206,0.0,4096.0,1976660.200,1972182.0,0.0,0.0,8877.200,24022.800
1.408,2.893,95.469,0.051,0.0,0.179,0.0,24576.0,2007297.0,2002820.600,0.0,0.0,8951.0,24505.0
1.153,3.023,95.593,0.0,0.0,0.231,0.0,819.200,1983141.400,1980980.800,0.0,0.0,9024.800,24269.400
0.879,2.481,96.434,0.0,0.0,0.207,0.0,1638.400,2027138.200,2022624.200,0.0,0.0,9355.400,24644.0
1.157,2.648,95.963,0.0,0.0,0.231,0.0,1638.400,1985358.800,1980456.600,0.0,0.0,9012.0,24103.800
1.105,2.750,95.888,0.0,0.0,0.257,0.0,819.200,2020496.600,2018704.800,0.0,0.0,8960.400,24602.800
1.082,2.783,95.929,0.0,0.0,0.206,0.0,1638.400,2006957.200,2002521.200,0.0,0.0,9463.0,24338.200
1.107,2.575,96.034,0.052,0.0,0.232,0.0,17203.200,1972140.800,1967533.600,0.0,0.0,8983.200,24007.400
1.132,2.702,95.960,0.0,0.0,0.206,0.0,8192.0,1983276.400,1981181.200,0.0,0.0,9202.200,24205.400
1.208,2.492,96.069,0.0,0.0,0.231,0.0,1638.400,1943501.800,1939096.600,0.0,0.0,8744.600,23759.600
0.025,0.025,99.950,0.0,0.0,0.0,0.0,819.200,3237.800,1085.800,0.0,0.0,41.400,112.200
