"Dstat 0.7.2 CSV output"
"Author:","Dag Wieers <dag@wieers.com>",,,,"URL:","http://dag.wieers.com/home-made/dstat/"
"Host:","Middleware1",,,,"User:","mstevan"
"Cmdline:","dstat --output /home/mstevan/logs/experiment_3.3/dstat/vs_64-vcpr_4-wtpm_64-rep_1.csv 5 16",,,,"Date:","28 Oct 2019 11:15:32 UTC"

"total cpu usage",,,,,,"dsk/total",,"net/total",,"paging",,"system",
"usr","sys","idl","wai","hiq","siq","read","writ","recv","send","in","out","int","csw"
2.143,4.604,92.331,0.061,0.0,0.860,7148.186,6009498.923,0.0,0.0,0.0,0.0,11527.685,33864.067
0.626,0.325,99.024,0.0,0.0,0.025,0.0,819.200,25514.600,24058.600,0.0,0.0,368.200,1018.400
4.987,3.786,90.783,0.0,0.0,0.444,0.0,1638.400,1589163.600,1585825.600,0.0,0.0,11737.600,31815.200
3.304,3.640,92.824,0.0,0.0,0.232,0.0,1638.400,1615958.0,1611970.800,0.0,0.0,12365.200,32341.0
2.444,3.782,93.491,0.129,0.0,0.154,0.0,31129.600,1594816.800,1593337.400,0.0,0.0,12228.400,32056.800
1.767,3.712,94.342,0.0,0.0,0.179,0.0,1638.400,1604690.800,1601211.800,0.0,0.0,12313.200,32186.800
1.614,3.587,94.517,0.0,0.0,0.282,0.0,4096.0,1612871.0,1609128.600,0.0,0.0,12347.600,32430.200
1.342,3.302,95.046,0.0,0.0,0.310,0.0,9011.200,1598607.0,1597405.400,0.0,0.0,12167.0,32060.200
1.541,3.647,94.453,0.0,0.0,0.360,0.0,1638.400,1636007.800,1631890.800,0.0,0.0,12483.600,32808.800
1.790,3.862,94.194,0.0,0.0,0.153,0.0,819.200,1650857.600,1646726.200,0.0,0.0,12613.400,33115.400
1.389,3.343,94.986,0.051,0.0,0.231,0.0,24576.0,1586041.600,1584657.800,0.0,0.0,12144.600,31819.800
1.548,3.071,95.174,0.0,0.0,0.206,0.0,1638.400,1626134.400,1622178.800,0.0,0.0,12465.400,32605.800
1.236,3.320,95.161,0.0,0.0,0.283,0.0,819.200,1601463.200,1600079.600,0.0,0.0,12335.400,32363.600
1.565,3.592,94.638,0.0,0.0,0.205,0.0,5734.400,1606451.200,1602844.0,0.0,0.0,12366.800,32401.400
1.630,4.152,94.065,0.0,0.0,0.153,0.0,3276.800,1584399.400,1580631.0,0.0,0.0,12228.0,32005.200
1.517,3.316,94.961,0.0,0.0,0.206,0.0,819.200,1588010.400,1587157.600,0.0,0.0,12216.800,31955.800
0.050,0.0,99.925,0.025,0.0,0.0,0.0,16384.0,6417.200,2006.400,0.0,0.0,42.400,138.800
