"Dstat 0.7.2 CSV output"
"Author:","Dag Wieers <dag@wieers.com>",,,,"URL:","http://dag.wieers.com/home-made/dstat/"
"Host:","Middleware1",,,,"User:","mstevan"
"Cmdline:","dstat --output /home/mstevan/logs/experiment_3.3/dstat/vs_64-vcpr_16-wtpm_8-rep_2.csv 5 16",,,,"Date:","28 Oct 2019 11:39:42 UTC"

"total cpu usage",,,,,,"dsk/total",,"net/total",,"paging",,"system",
"usr","sys","idl","wai","hiq","siq","read","writ","recv","send","in","out","int","csw"
2.129,4.557,92.414,0.059,0.0,0.841,6918.186,5816345.174,0.0,0.0,0.0,0.0,11508.890,33740.972
0.551,0.050,99.324,0.050,0.0,0.025,0.0,31129.600,24251.400,20761.200,0.0,0.0,197.0,623.0
3.818,2.589,93.305,0.0,0.0,0.288,0.0,10649.600,1924794.600,1920402.0,0.0,0.0,8126.0,22657.800
3.182,3.001,93.609,0.0,0.0,0.207,0.0,1638.400,1955369.200,1950954.600,0.0,0.0,9150.200,23264.800
1.161,2.813,95.819,0.0,0.0,0.206,0.0,819.200,2012318.800,2010121.400,0.0,0.0,9830.600,24331.200
2.326,2.688,94.805,0.0,0.0,0.181,0.0,2457.600,1962204.0,1957825.0,0.0,0.0,9469.0,23735.400
1.641,2.845,95.283,0.0,0.0,0.231,0.0,4915.200,1983993.600,1980838.400,0.0,0.0,9752.0,23940.400
1.389,2.521,95.936,0.0,0.0,0.154,0.0,9011.200,1961544.800,1959342.600,0.0,0.0,9632.200,23670.0
1.384,2.562,95.670,0.026,0.0,0.359,0.0,23756.800,1973287.400,1968853.600,0.0,0.0,9783.800,23795.0
1.132,2.418,96.245,0.0,0.0,0.206,0.0,1638.400,2010345.600,2006048.800,0.0,0.0,9944.600,24260.800
0.980,2.321,96.544,0.0,0.0,0.155,0.0,819.200,1974519.800,1972141.800,0.0,0.0,9585.800,23869.800
1.236,2.499,96.136,0.0,0.0,0.129,0.0,1638.400,1950287.0,1945736.600,0.0,0.0,9586.0,23539.800
1.056,2.731,96.083,0.0,0.0,0.129,0.0,819.200,2026331.400,2022660.200,0.0,0.0,9753.400,24447.0
1.230,2.845,95.669,0.0,0.0,0.256,0.0,5734.400,1945539.600,1942518.400,0.0,0.0,9633.600,23508.0
1.109,2.347,96.287,0.129,0.0,0.129,0.0,27033.600,1985220.400,1981082.800,0.0,0.0,9858.600,24019.800
1.282,2.795,95.744,0.0,0.0,0.179,0.0,819.200,1962574.400,1960218.400,0.0,0.0,9653.200,23517.200
0.050,0.050,99.900,0.0,0.0,0.0,0.0,1638.400,6322.800,1939.600,0.0,0.0,40.200,133.200
