"Dstat 0.7.2 CSV output"
"Author:","Dag Wieers <dag@wieers.com>",,,,"URL:","http://dag.wieers.com/home-made/dstat/"
"Host:","Middleware1",,,,"User:","mstevan"
"Cmdline:","dstat --output /home/mstevan/logs/experiment_3.3/dstat/vs_64-vcpr_4-wtpm_8-rep_3.csv 5 16",,,,"Date:","28 Oct 2019 11:07:00 UTC"

"total cpu usage",,,,,,"dsk/total",,"net/total",,"paging",,"system",
"usr","sys","idl","wai","hiq","siq","read","writ","recv","send","in","out","int","csw"
2.151,4.627,92.292,0.062,0.0,0.869,7233.049,6080764.392,0.0,0.0,0.0,0.0,11567.906,33957.819
0.626,0.150,99.173,0.0,0.0,0.050,0.0,1638.400,28047.200,23464.800,0.0,0.0,265.600,813.800
4.685,3.254,91.749,0.026,0.0,0.286,0.0,29491.200,1586097.800,1583871.200,0.0,0.0,7172.200,28759.200
2.221,2.943,94.681,0.0,0.0,0.155,0.0,8192.0,1660141.800,1655625.400,0.0,0.0,7082.200,29902.600
2.409,2.772,94.585,0.0,0.0,0.233,0.0,3276.800,1636198.0,1631808.0,0.0,0.0,6758.600,29578.0
1.562,3.175,95.136,0.0,0.0,0.128,0.0,819.200,1668153.400,1665922.200,0.0,0.0,6989.200,30347.600
1.387,2.826,95.555,0.0,0.0,0.231,0.0,4096.0,1658516.200,1653956.600,0.0,0.0,7227.0,29922.800
1.386,2.746,95.637,0.0,0.0,0.231,0.0,9830.400,1642371.600,1638040.0,0.0,0.0,7311.0,29711.200
1.135,2.476,96.184,0.0,0.0,0.206,0.0,819.200,1618550.600,1616286.0,0.0,0.0,6781.800,29291.800
1.181,2.773,95.763,0.103,0.0,0.180,0.0,18022.400,1630186.600,1625692.800,0.0,0.0,7178.200,29500.200
1.230,2.922,95.565,0.0,0.0,0.282,0.0,1638.400,1662467.400,1658036.400,0.0,0.0,7057.800,29941.600
1.307,2.794,95.642,0.0,0.0,0.256,0.0,819.200,1614419.600,1612175.0,0.0,0.0,6926.400,29112.600
1.460,2.868,95.467,0.0,0.0,0.205,0.0,1638.400,1633298.600,1628836.200,0.0,0.0,7173.400,29426.800
1.227,2.864,95.602,0.0,0.0,0.307,0.0,4915.200,1628847.200,1626504.400,0.0,0.0,6616.800,29504.800
1.230,2.921,95.696,0.0,0.0,0.154,0.0,3276.800,1622951.800,1618620.200,0.0,0.0,6690.800,29202.200
1.155,3.131,95.484,0.103,0.0,0.128,0.0,20480.0,1658568.0,1654119.800,0.0,0.0,7008.600,29865.800
0.025,0.025,99.950,0.0,0.0,0.0,0.0,819.200,3403.400,1268.600,0.0,0.0,39.0,135.600
