"Dstat 0.7.2 CSV output"
"Author:","Dag Wieers <dag@wieers.com>",,,,"URL:","http://dag.wieers.com/home-made/dstat/"
"Host:","Middleware1",,,,"User:","mstevan"
"Cmdline:","dstat --output /home/mstevan/logs/experiment_3.3/dstat/vs_64-vcpr_32-wtpm_32-rep_3.csv 5 16",,,,"Date:","28 Oct 2019 12:03:52 UTC"

"total cpu usage",,,,,,"dsk/total",,"net/total",,"paging",,"system",
"usr","sys","idl","wai","hiq","siq","read","writ","recv","send","in","out","int","csw"
2.121,4.519,92.474,0.058,0.0,0.827,6702.541,5635254.414,0.0,0.0,0.0,0.0,11506.306,33680.295
0.778,0.251,98.947,0.0,0.0,0.025,0.0,1638.400,70095.400,61254.400,0.0,0.0,374.600,1181.600
4.461,3.478,91.450,0.0,0.0,0.611,0.0,819.200,3248224.400,3248119.200,0.0,0.0,9717.400,31041.800
2.559,3.394,93.420,0.0,0.0,0.627,0.0,1638.400,3277104.400,3273423.400,0.0,0.0,12180.800,32178.0
1.477,4.069,93.701,0.0,0.0,0.752,0.0,2457.600,3310838.800,3306480.200,0.0,0.0,12385.200,32553.200
2.517,4.281,92.449,0.052,0.0,0.701,0.0,34406.400,3282111.200,3279587.0,0.0,0.0,12132.200,32175.800
1.942,3.936,93.449,0.0,0.0,0.673,0.0,9011.200,3274214.600,3269799.600,0.0,0.0,12347.200,32363.600
2.008,4.171,93.151,0.0,0.0,0.669,0.0,13926.400,3347952.0,3343407.400,0.0,0.0,12744.600,33165.600
1.482,3.589,94.148,0.0,0.0,0.780,0.0,819.200,3319606.200,3317692.800,0.0,0.0,12512.400,32677.0
1.435,3.547,94.497,0.0,0.0,0.522,0.0,819.200,3293136.400,3290988.400,0.0,0.0,12632.200,32566.400
1.556,4.098,93.854,0.0,0.0,0.493,0.0,819.200,3356940.200,3353759.200,0.0,0.0,12951.200,33431.0
1.323,3.969,93.982,0.052,0.0,0.674,0.0,18022.400,3295699.800,3292242.200,0.0,0.0,12553.200,32628.600
1.556,3.995,94.008,0.0,0.0,0.441,0.0,819.200,3265185.800,3262540.0,0.0,0.0,12406.800,32324.800
1.583,3.919,93.927,0.0,0.0,0.571,0.0,6553.600,3274551.600,3269721.400,0.0,0.0,12534.800,32472.0
1.450,4.013,93.863,0.0,0.0,0.673,0.0,2457.600,3296058.200,3292368.400,0.0,0.0,12519.800,32621.600
1.372,4.091,93.889,0.0,0.0,0.647,0.0,819.200,3236663.0,3233789.400,0.0,0.0,12427.600,32344.400
0.478,0.427,99.070,0.0,0.0,0.025,0.0,1638.400,134546.600,129804.400,0.0,0.0,1037.0,2611.600
