"Dstat 0.7.2 CSV output"
"Author:","Dag Wieers <dag@wieers.com>",,,,"URL:","http://dag.wieers.com/home-made/dstat/"
"Host:","Middleware1",,,,"User:","mstevan"
"Cmdline:","dstat --output /home/mstevan/logs/experiment_3.3/dstat/vs_64-vcpr_4-wtpm_32-rep_4.csv 5 16",,,,"Date:","28 Oct 2019 11:14:06 UTC"

"total cpu usage",,,,,,"dsk/total",,"net/total",,"paging",,"system",
"usr","sys","idl","wai","hiq","siq","read","writ","recv","send","in","out","int","csw"
2.144,4.607,92.326,0.061,0.0,0.862,7162.190,6021259.132,0.0,0.0,0.0,0.0,11533.299,33878.230
0.602,0.100,99.248,0.0,0.0,0.050,0.0,1638.400,23401.400,19222.0,0.0,0.0,266.600,781.600
5.599,3.724,90.417,0.0,0.0,0.260,0.0,1638.400,1579633.600,1577402.400,0.0,0.0,10075.200,31534.200
2.012,3.251,94.427,0.103,0.0,0.206,0.0,31948.800,1608045.0,1603549.0,0.0,0.0,10151.0,32074.200
2.684,3.510,93.574,0.0,0.0,0.232,0.0,2457.600,1555091.800,1552820.200,0.0,0.0,10102.200,31187.200
1.537,4.202,94.107,0.0,0.0,0.154,0.0,1638.400,1647492.0,1643161.600,0.0,0.0,10704.200,32953.400
1.592,3.390,94.838,0.0,0.0,0.180,0.0,1638.400,1610932.800,1606322.0,0.0,0.0,10415.800,32160.0
1.711,3.830,94.280,0.0,0.0,0.179,0.0,11468.800,1627573.800,1625336.400,0.0,0.0,10575.800,32519.600
1.714,4.041,94.015,0.0,0.0,0.230,0.0,1638.400,1706978.800,1702531.800,0.0,0.0,11208.600,34218.800
1.537,3.741,94.517,0.051,0.0,0.154,0.0,22937.600,1638202.400,1633788.0,0.0,0.0,10883.0,32887.400
1.793,3.534,94.417,0.0,0.0,0.256,0.0,819.200,1623412.600,1621231.800,0.0,0.0,10624.0,32764.400
1.594,3.470,94.704,0.0,0.0,0.231,0.0,1638.400,1571744.200,1566924.400,0.0,0.0,10301.0,31789.0
1.466,3.473,94.777,0.0,0.0,0.283,0.0,1638.400,1603118.200,1598818.800,0.0,0.0,10665.200,32482.400
1.666,3.666,94.463,0.0,0.0,0.205,0.0,4915.200,1587246.800,1585148.600,0.0,0.0,10482.400,32165.600
1.360,3.645,94.790,0.0,0.0,0.205,0.0,3276.800,1606148.600,1601602.400,0.0,0.0,10638.600,32320.600
1.567,3.211,94.940,0.051,0.0,0.231,0.0,18841.600,1588616.400,1586800.200,0.0,0.0,10558.400,32133.800
0.025,0.050,99.925,0.0,0.0,0.0,0.0,1638.400,6407.200,2068.800,0.0,0.0,35.600,131.200
