,Total number of clients,64,256,512,1024
0,24,1.0770416666666667,1.1995416666666667,1.1285833333333333,1.10325
1,48,1.9352916666666666,2.0047083333333338,1.9949583333333334,2.052833333333333
2,96,3.9222916666666667,4.038208333333333,4.078541666666666,4.085791666666667
3,192,7.954083333333332,8.127583333333334,8.057416666666667,8.03
