,Total number of clients,1024,512,256,64
0,24,21.72401,21.2491075,20.242665000000002,22.180777499999998
1,48,23.318749999999998,24.001965000000002,23.898357499999996,24.74244
2,96,23.384632500000002,23.515829999999998,23.916475000000005,24.187245
3,192,23.907347500000004,23.794937499999996,23.6134475,24.120492499999997
