,Total number of clients,1024,512,256,64
0,24,21.134309322033896,21.73353813559322,21.409173728813556,21.43074576271186
1,48,26.753927966101696,26.96429661016949,27.021800847457627,27.175495762711865
2,96,33.303838983050845,34.52150847457627,34.35870762711865,34.67804661016949
3,192,33.36537711864407,41.556898305084744,41.77472457627118,42.11361440677967
