PING 10.0.0.11 (10.0.0.11) 56(84) bytes of data.
64 bytes from 10.0.0.11: icmp_seq=1 ttl=64 time=0.59964 b64 bytes from 10.0.0.11: icmp_seq=2 ttl=64 time=0.46464 bytes from 10.0.0.6: icmp_seq=3 ttl=64 time=0.455 m6464 by64 bytes from 10.0.0.11: icmp_seq=4 ttl=64 time=06464 bytes from 10.0.0.6: icmp_seq=5 ttl=64 time=0.397 m6464 bytes from 10.0.0.6: icmp_seq=6 ttl=64 time=0.630 m6464 bytes64 bytes from 10.0.0.11: icmp_seq=7 ttl=64 tim6464 bytes from 10.0.0.6: icmp_seq=8 ttl=64 time=0.584 m6464 bytes f64 bytes from 10.0.0.11: icmp_seq=9 ttl=64 t6464 bytes from 10.0.0.6: icmp_seq=10 ttl=64 time=0.596 m6464 bytes fro64 bytes from 10.0.0.11: icmp_seq=11 ttl=646464 bytes from 10.0.0.6: icmp_seq=12 ttl=64 time=2.65 ms664 bytes from 164 bytes from 10.0.0.11: icmp_seq=13 ttl=664 bytes from 10.0.0.6: icmp_seq=14 ttl=64 time=0.511 ms664 bytes from 10.0.0.6: icmp_seq=15 ttl=64 time=1.22 ms
64 bytes from 10.0.64 bytes from 10.0.0.11: icmp_seq=16 ttl=64 time=1.88 ms

--- 10.0.0.11 ping statistics ---
16 packets transmitted, 16 received, 0% packet loss, time 76807ms
rtt min/avg/max/mdev = 0.362/0.649/1.886/0.352 ms
