PING 10.0.0.7 (10.0.0.7) 56(84) bytes of data.
64 bytes from 10.0.0.7: icmp_seq=1 ttl=64 time=0.732 ms
64 bytes from 10.0.0.7: icmp_seq=2 ttl=64 time=0.390 ms
64 bytes from 10.0.0.7: icmp_seq=3 ttl=64 time=0.847 ms
64 bytes from 10.0.0.6: icmp_seq=4 ttl=64 time=0.803 ms
64 bytes from 10.0.0.7: icmp_seq=5 ttl=64 time=0.686 ms
64 bytes from 10.0.0.6: icmp_seq=6 ttl=64 time=1.89 ms
664 bytes from 10.0.0.7: icmp_seq=7 ttl=64 time=0.701 m6464 bytes 64 bytes from 10.0.0.11: icmp_seq=8 ttl=64 ti6464 bytes f64 bytes from 10.0.0.11: icmp_seq=9 ttl=64 64 64 bytes from 10.0.0.7: icmp_seq=10 ttl=64 time=1.06 m6464 bytes fro64 bytes from 10.0.0.11: icmp_seq=11 ttl=664 64 bytes from 10.0.0.7: icmp_seq=12 ttl=64 time=0.47864 b64 bytes from 64 bytes from 10.0.0.11: icmp_seq=13 tt64 b64 bytes from 10.0.0.7: icmp_seq=14 ttl=64 time=0.41064 b64 bytes from 10.0.0.7: icmp_seq=15 ttl=64 time=1.03 64 64 bytes from 10.0.0.7: icmp_seq=16 ttl=64 time=0.617 ms

--- 10.0.0.7 ping statistics ---
16 packets transmitted, 16 received, 0% packet loss, time 76649ms
rtt min/avg/max/mdev = 0.333/0.669/1.067/0.224 ms
96/7.597/1.704 ms
