PING 10.0.0.7 (10.0.0.7) 56(84) bytes of data.
64 bytes from 10.0.0.7: icmp_seq=1 ttl=64 time=1.01 ms
64 bytes from 10.0.0.7: icmp_seq=2 ttl=64 time=0.725 ms
64 by64 bytes from 10.0.0.11: icmp_seq=3 ttl=64 time=0.364 byt64 bytes from 10.0.0.11: icmp_seq=4 ttl=64 time=0.64 byte64 bytes from 10.0.0.11: icmp_seq=5 ttl=64 time=664 bytes64 bytes from 10.0.0.11: icmp_seq=6 ttl=64 tim6464 bytes from 10.0.0.7: icmp_seq=7 ttl=64 time=0.404 m6464 bytes from 10.0.0.7: icmp_seq=8 ttl=64 time=0.563 m6464 bytes fr64 bytes from 10.0.0.11: icmp_seq=9 ttl=64 6464 bytes fro64 bytes from 10.0.0.11: icmp_seq=10 ttl=664 64 bytes from 10.0.0.7: icmp_seq=11 ttl=64 time=0.42764 b64 bytes from 10.0.0.7: icmp_seq=12 ttl=64 time=0.50064 b64 bytes from 10.0.0.7: icmp_seq=13 ttl=64 time=0.54064 b64 bytes from 164 bytes from 10.0.0.11: icmp_seq=14 t64 b64 bytes from 10.0.0.7: icmp_seq=15 ttl=64 time=0.43864 b64 bytes from 10.0.0.7: icmp_seq=16 ttl=64 time=1.29 ms

--- 10.0.0.7 ping statistics ---
16 packets transmitted, 16 received, 0% packet loss, time 76731ms
rtt min/avg/max/mdev = 0.396/0.609/1.294/0.240 ms
87/8.939/2.025 ms
