PING 10.0.0.11 (10.0.0.11) 56(84) bytes of data.
64 bytes from 10.0.0.11: icmp_seq=1 ttl=64 time=0.61064 b64 bytes from 10.0.0.11: icmp_seq=2 ttl=64 time=0.3764 bytes from 10.0.0.6: icmp_seq=3 ttl=64 time=0.763 ms
664 bytes from 10.0.0.7: icmp_seq=4 ttl=64 time=0.554 ms664 bytes from 10.0.0.7: icmp_seq=5 ttl=64 time=0.508 ms64 bytes from 10.0.0.6: icmp_seq=6 ttl=64 time=0.555 ms
64 bytes 64 bytes from 10.0.0.11: icmp_seq=7 ttl=64 tim6464 bytes from 10.0.0.7: icmp_seq=8 ttl=64 time=0.614 m64 bytes fro64 bytes from 10.0.0.11: icmp_seq=9 ttl=64 t64 bytes from 10.0.0.6: icmp_seq=10 ttl=64 time=1.46 ms
64 bytes from 164 bytes from 10.0.0.11: icmp_seq=11 ttl=64 64 bytes from 10.0.0.7: icmp_seq=12 ttl=64 time=0.52264 b64 bytes from 10.0.0.7: icmp_seq=13 ttl=64 time=0.59764 b64 bytes from 10.0.0.7: icmp_seq=14 ttl=64 time=0.79164 b64 bytes from 10.64 bytes from 10.0.0.11: icmp_seq=1564 b64 bytes from 10.0.0.7: icmp_seq=16 ttl=64 time=0.675 ms

--- 10.0.0.7 ping statistics ---
16 packets transmitted, 16 received, 0% packet loss, time 76773ms
rtt min/avg/max/mdev = 0.416/0.613/1.008/0.165 ms
.531/0.848/0.115 ms
