PING 10.0.0.11 (10.0.0.11) 56(84) bytes of data.
64 bytes from 10.0.0.11: icmp_seq=1 ttl=64 time=0.772 64 bytes from 10.0.0.6: icmp_seq=2 ttl=64 time=1.74 ms
664 bytes from 10.0.0.7: icmp_seq=3 ttl=64 time=0.503 ms664 by64 bytes from 10.0.0.11: icmp_seq=4 ttl=64 time=264 byte64 bytes from 10.0.0.11: icmp_seq=5 ttl=64 time=64 bytes64 bytes from 10.0.0.11: icmp_seq=6 ttl=64 time=6464 bytes from 10.0.0.7: icmp_seq=7 ttl=64 time=17.1 m6464 bytes 64 bytes from 10.0.0.11: icmp_seq=8 ttl=64 t64 64 bytes f64 bytes from 10.0.0.11: icmp_seq=9 ttl=64 64 64 bytes from 10.0.0.7: icmp_seq=10 ttl=64 time=0.413 64 64 bytes from 10.0.0.7: icmp_seq=11 ttl=64 time=0.559 64 64 bytes from64 bytes from 10.0.0.11: icmp_seq=12 ttl64 b64 bytes from 64 bytes from 10.0.0.11: icmp_seq=13 tt64 b64 bytes from 164 bytes from 10.0.0.11: icmp_seq=14 t64 b64 bytes from 10.0.0.7: icmp_seq=15 ttl=64 time=0.36564 b64 bytes from 10.64 bytes from 10.0.0.11: icmp_seq=16 ttl=--- 10.0.0.7 ping --- 10.0.0.11 ping statistics ---
16 packets transmitted, 16 received, 0% packet loss, time 76376ms
rtt min/avg/max/mdev = 0.363/1.104/7.088/1.639 ms
