PING 10.0.0.7 (10.0.0.7) 56(84) bytes of data.
64 bytes from 10.0.0.7: icmp_seq=1 ttl=64 time=0.604 ms
64 bytes from 10.0.0.6: icmp_seq=2 ttl=64 time=0.556 ms
64 b64 bytes from 10.0.0.11: icmp_seq=3 ttl=64 time=10.264 bytes from 10.0.0.6: icmp_seq=4 ttl=64 time=16.3 ms
664 bytes from 10.0.0.7: icmp_seq=5 ttl=64 time=7.63 ms
64 bytes from 10.0.0.6: icmp_seq=6 ttl=64 time=0.493 ms
64 byte64 bytes from 10.0.0.11: icmp_seq=7 ttl=64 time=064 bytes from 10.0.0.6: icmp_seq=8 ttl=64 time=3.36 ms
664 bytes from 10.0.0.7: icmp_seq=9 ttl=64 time=0.576 m6464 bytes from 10.0.0.7: icmp_seq=10 ttl=64 time=1.30 m6464 bytes fro64 bytes from 10.0.0.11: icmp_seq=11 ttl=646464 bytes from 10.0.0.7: icmp_seq=12 ttl=64 time=0.450 m6464 bytes from 64 bytes from 10.0.0.11: icmp_seq=13 ttl=6464 bytes from 10.0.0.7: icmp_seq=14 ttl=64 time=1.73 m6464 bytes from 10.64 bytes from 10.0.0.11: icmp_seq=15 64 64 bytes from 10.0.0.7: icmp_seq=16 ttl=64 time=1.02 ms

--- 10.0.0.7 ping statistics ---
16 packets transmitted, 16 received, 0% packet loss, time 76871ms
rtt min/avg/max/mdev = 0.314/1.153/7.638/1.715 ms
.212/10.221/2.344 ms
