PING 10.0.0.7 (10.0.0.7) 56(84) bytes of data.
64 bytes from 10.0.0.7: icmp_seq=1 ttl=64 time=0.561 ms
64 bytes from 10.0.0.7: icmp_seq=2 ttl=64 time=0.788 ms
64 bytes from 10.0.0.7: icmp_seq=3 ttl=64 time=0.992 ms
64 by64 bytes from 10.0.0.11: icmp_seq=4 ttl=64 time=5.664 bytes from 10.0.0.6: icmp_seq=5 ttl=64 time=0.470 ms664 bytes from 10.0.0.6: icmp_seq=6 ttl=64 time=0.404 m6464 bytes from 10.0.0.6: icmp_seq=7 ttl=64 time=0.485 m6464 bytes from 10.0.0.6: icmp_seq=8 ttl=64 time=0.604 m6464 bytes from 10.0.0.6: icmp_seq=9 ttl=64 time=0.514 m6464 bytes from 10.0.0.6: icmp_seq=10 ttl=64 time=0.784 m6464 bytes from 10.0.0.6: icmp_seq=11 ttl=64 time=0.800 m6464 bytes from 10.0.0.6: icmp_seq=12 ttl=64 time=0.586 m6464 bytes from 10.0.0.6: icmp_seq=13 ttl=64 time=0.591 m6464 bytes from 10.0.0.6: icmp_seq=14 ttl=64 time=0.494 m6464 bytes from 10.0.0.6: icmp_seq=15 ttl=64 time=0.367 m6464 bytes from 10.0.0.6: icmp_seq=16 ttl=64 time=0.864 ms

--- 10.0.0.6 ping statistics ---
16 packets transmitted, 16 received, 0% packet loss, time 76770ms
rtt min/avg/max/mdev = 0.367/0.569/0.864/0.150 ms
6.700/1.866 ms
