PING 10.0.0.11 (10.0.0.11) 56(84) bytes of data.
64 bytes from 10.0.0.11: icmp_seq=1 ttl=64 time=0.779 64 64 bytes from 10.0.0.11: icmp_seq=2 ttl=64 time=0.60464 b64 bytes from 10.0.0.11: icmp_seq=3 ttl=64 time=7.1164 bytes from 10.0.0.7: icmp_seq=4 ttl=64 time=0.436 ms
64 by64 bytes from 10.0.0.11: icmp_seq=5 ttl=64 time=0.964 bytes from 10.0.0.7: icmp_seq=6 ttl=64 time=1.11 ms
664 bytes from 10.0.0.6: icmp_seq=7 ttl=64 time=0.497 ms64 bytes from 10.0.0.7: icmp_seq=8 ttl=64 time=3.39 ms
6464 bytes from 10.0.0.6: icmp_seq=9 ttl=64 time=0.622 m64 bytes from 10.0.0.7: icmp_seq=10 ttl=64 time=0.680 ms
6464 bytes from 10.0.0.6: icmp_seq=11 ttl=64 time=0.618 m64 bytes from 10.0.0.7: icmp_seq=12 ttl=64 time=0.773 ms
64 bytes from 10.0.0.7: icmp_seq=13 ttl=64 time=0.769 ms
64 bytes from 10.0.0.7: icmp_seq=14 ttl=64 time=0.715 ms
6464 bytes from 164 bytes from 10.0.0.11: icmp_seq=15 ttl64 bytes from 10.064 bytes from 10.0.0.11: icmp_seq=16 ttl=64 time=0.798 ms

--- 10.0.0.11 ping statistics ---
16 packets transmitted, 16 received, 0% packet loss, time 76793ms
rtt min/avg/max/mdev = 0.374/1.011/7.114/1.584 ms
