PING 10.0.0.6 (10.0.0.6) 56(84) bytes of data.
64 bytes from 10.0.0.6: icmp_seq=1 ttl=64 time=0.675 ms664 bytes from 10.0.0.6: icmp_seq=2 ttl=64 time=0.367 m6464 bytes from 10.0.0.6: icmp_seq=3 ttl=64 time=2.30 ms64 bytes from 10.0.0.7: icmp_seq=4 ttl=64 time=0.662 ms
64 bytes from 10.0.0.7: icmp_seq=5 ttl=64 time=0.784 ms
64 bytes from 10.0.0.7: icmp_seq=6 ttl=64 time=0.261 ms
664 bytes from 10.0.0.6: icmp_seq=7 ttl=64 time=0.614 ms664 bytes from 10.0.0.6: icmp_seq=8 ttl=64 time=0.552 ms664 bytes from 10.0.0.6: icmp_seq=9 ttl=64 time=0.746 ms664 bytes fro64 bytes from 10.0.0.11: icmp_seq=10 ttl=64 664 bytes from 10.0.0.6: icmp_seq=11 ttl=64 time=0.527 ms64 bytes from 164 bytes from 10.0.0.11: icmp_seq=12 ttl=6664 bytes from 10.0.0.6: icmp_seq=13 ttl=64 time=0.554 ms64 bytes from 1064 bytes from 10.0.0.11: icmp_seq=14 ttl=64 bytes from 10.0.0.7: icmp_seq=15 ttl=64 time=0.660 ms
64 bytes from 10.0.0.7: icmp_seq=16 ttl=64 time=0.743 ms

--- 10.0.0.7 ping statistics ---
16 packets transmitted, 16 received, 0% packet loss, time 76685ms
rtt min/avg/max/mdev = 0.261/0.668/1.762/0.348 ms

628/1.771/0.322 ms
