PING 10.0.0.6 (10.0.0.6) 56(84) bytes of data.
64 bytes from 10.0.0.6: icmp_seq=1 ttl=64 time=0.527 ms
64 bytes from 10.0.0.6: icmp_seq=2 ttl=64 time=3.00 ms
664 bytes from 10.0.0.7: icmp_seq=3 ttl=64 time=1.14 ms664 byt64 bytes from 10.0.0.11: icmp_seq=4 ttl=64 time=7664 bytes from 10.0.0.7: icmp_seq=5 ttl=64 time=0.686 ms664 bytes from 10.0.0.7: icmp_seq=6 ttl=64 time=0.494 m6464 bytes from 10.0.0.7: icmp_seq=7 ttl=64 time=9.40 ms664 bytes f64 bytes from 10.0.0.11: icmp_seq=8 ttl=64 ti664 bytes from 10.0.0.7: icmp_seq=9 ttl=64 time=0.496 ms664 bytes fro64 bytes from 10.0.0.11: icmp_seq=10 ttl=64 664 bytes from64 bytes from 10.0.0.11: icmp_seq=11 ttl=64664 bytes from 64 bytes from 10.0.0.11: icmp_seq=12 ttl=6664 bytes from 10.0.0.7: icmp_seq=13 ttl=64 time=0.515 m6464 bytes from 1064 bytes from 10.0.0.11: icmp_seq=14 tt6464 bytes from 10.64 bytes from 10.0.0.11: icmp_seq=15 t6464 bytes from 10.0.0.7: icmp_seq=16 ttl=64 time=0.789 ms

--- 10.0.0.7 ping statistics ---
16 packets transmitted, 16 received, 0% packet loss, time 76721ms
rtt min/avg/max/mdev = 0.412/1.172/9.403/2.133 ms
.924/7.001/1.575 ms
