PING 10.0.0.6 (10.0.0.6) 56(84) bytes of data.
64 bytes from 10.0.0.6: icmp_seq=1 ttl=64 time=5.16 ms
64 64 bytes from 10.0.0.11: icmp_seq=2 ttl=64 time=0.88264 bytes from 10.0.0.6: icmp_seq=3 ttl=64 time=0.511 ms
64 bytes from 10.0.0.6: icmp_seq=4 ttl=64 time=0.721 ms
64 bytes from 10.0.0.6: icmp_seq=5 ttl=64 time=0.501 ms
64 bytes from 10.0.0.6: icmp_seq=6 ttl=64 time=0.579 ms
664 bytes from 10.0.0.7: icmp_seq=7 ttl=64 time=0.727 ms64 bytes from 10.0.0.6: icmp_seq=8 ttl=64 time=0.605 ms
64 bytes f64 bytes from 10.0.0.11: icmp_seq=9 ttl=64 tim64 bytes from 10.0.0.6: icmp_seq=10 ttl=64 time=1.36 ms
6464 bytes from 10.0.0.7: icmp_seq=11 ttl=64 time=0.599 m6464 bytes fro64 bytes from 10.0.0.11: icmp_seq=12 ttl=646464 bytes from 10.0.0.7: icmp_seq=13 ttl=64 time=0.630 m64 bytes from 10.0.0.6: icmp_seq=14 ttl=64 time=1.48 ms
64 64 bytes from 64 bytes from 10.0.0.11: icmp_seq=15 ttl64 bytes from 10.0.0.6: icmp_seq=16 ttl=64 time=1.13 ms

--- 10.0.0.6 ping statistics ---
16 packets transmitted, 16 received, 0% packet loss, time 76652ms
rtt min/avg/max/mdev = 0.355/0.971/5.160/1.130 ms
0.606/1.181/0.256 ms
