PING 10.0.0.6 (10.0.0.6) 56(84) bytes of data.
64 bytes from 10.0.0.6: icmp_seq=1 ttl=64 time=0.438 ms
64 bytes from 10.0.0.6: icmp_seq=2 ttl=64 time=0.312 ms
64 bytes from 10.0.0.7: icmp_seq=3 ttl=64 time=0.626 ms
64 bytes from 10.0.0.7: icmp_seq=4 ttl=64 time=0.552 ms
64 bytes from 10.0.0.6: icmp_seq=5 ttl=64 time=0.550 ms
64 byte64 bytes from 10.0.0.11: icmp_seq=6 ttl=64 time=664 bytes from 10.0.0.6: icmp_seq=7 ttl=64 time=0.538 ms664 bytes from 10.0.0.6: icmp_seq=8 ttl=64 time=0.433 m6464 bytes from 10.0.0.6: icmp_seq=9 ttl=64 time=3.58 ms64 bytes from 10.0.0.7: icmp_seq=10 ttl=64 time=0.989 ms
664 bytes from 10.0.0.6: icmp_seq=11 ttl=64 time=4.32 ms
64 bytes from 10.0.0.6: icmp_seq=12 ttl=64 time=0.378 ms664 bytes from 10.0.0.6: icmp_seq=13 ttl=64 time=0.692 m6464 bytes from 10.0.0.6: icmp_seq=14 ttl=64 time=0.713 m6464 bytes from 10.0.0.6: icmp_seq=15 ttl=64 time=3.24 ms664 bytes from 10.0.0.6: icmp_seq=16 ttl=64 time=0.696 ms

--- 10.0.0.6 ping statistics ---
16 packets transmitted, 16 received, 0% packet loss, time 76561ms
rtt min/avg/max/mdev = 0.312/1.116/4.325/1.270 ms
.986/6.901/1.539 ms
