PING 10.0.0.6 (10.0.0.6) 56(84) bytes of data.
64 bytes from 10.0.0.6: icmp_seq=1 ttl=64 time=5.88 ms
64 b64 bytes from 10.0.0.11: icmp_seq=2 ttl=64 time=7.9864 bytes from 10.0.0.6: icmp_seq=3 ttl=64 time=5.07 ms
664 by64 bytes from 10.0.0.11: icmp_seq=4 ttl=64 time=0.664 bytes from 10.0.0.7: icmp_seq=5 ttl=64 time=0.766 ms64 bytes from 10.0.0.6: icmp_seq=6 ttl=64 time=0.537 ms
664 bytes from 10.0.0.7: icmp_seq=7 ttl=64 time=0.572 ms664 bytes from 10.0.0.7: icmp_seq=8 ttl=64 time=0.659 ms664 bytes from 10.0.0.7: icmp_seq=9 ttl=64 time=0.850 ms64 bytes from 10.0.0.6: icmp_seq=10 ttl=64 time=1.02 ms
6464 bytes fro64 bytes from 10.0.0.11: icmp_seq=11 ttl=6464 bytes from 10.0.0.6: icmp_seq=12 ttl=64 time=0.484 ms
6464 bytes from 10.0.0.7: icmp_seq=13 ttl=64 time=0.578 m64 bytes from 10.0.0.6: icmp_seq=14 ttl=64 time=0.382 ms
6464 bytes from 10.0.0.7: icmp_seq=15 ttl=64 time=0.469 m6464 bytes from 10.0.0.7: icmp_seq=16 ttl=64 time=0.959 ms

--- 10.0.0.7 ping statistics ---
16 packets transmitted, 16 received, 0% packet loss, time 76631ms
rtt min/avg/max/mdev = 0.434/0.698/1.868/0.338 ms
032/7.980/1.797 ms
