PING 10.0.0.7 (10.0.0.7) 56(84) bytes of data.
64 bytes from 10.0.0.7: icmp_seq=1 ttl=64 time=0.842 ms
64 bytes from 10.0.0.7: icmp_seq=2 ttl=64 time=1.30 ms
664 b64 bytes from 10.0.0.11: icmp_seq=3 ttl=64 time=1.3664 bytes from 10.0.0.6: icmp_seq=4 ttl=64 time=0.588 ms664 by64 bytes from 10.0.0.11: icmp_seq=5 ttl=64 time=0.664 byt64 bytes from 10.0.0.11: icmp_seq=6 ttl=64 time=0664 bytes from 10.0.0.6: icmp_seq=7 ttl=64 time=0.636 ms664 bytes from 10.0.0.6: icmp_seq=8 ttl=64 time=0.521 ms664 bytes 64 bytes from 10.0.0.11: icmp_seq=9 ttl=64 tim664 bytes from 10.0.0.6: icmp_seq=10 ttl=64 time=0.732 ms664 bytes fr64 bytes from 10.0.0.11: icmp_seq=11 ttl=64 t664 bytes fro64 bytes from 10.0.0.11: icmp_seq=12 ttl=64 664 bytes from 10.0.0.6: icmp_seq=13 ttl=64 time=0.569 ms664 bytes from 10.0.0.6: icmp_seq=14 ttl=64 time=0.600 ms664 bytes from 10.0.0.6: icmp_seq=15 ttl=64 time=0.715 ms664 bytes from 1064 bytes from 10.0.0.11: icmp_seq=16 ttl=
--- 10.0.0.6 ping--- 10.0.0.11 ping statistics ---
16 packets transmitted, 16 received, 0% packet loss, time 76819ms
rtt min/avg/max/mdev = 0.342/0.620/1.375/0.236 ms
