PING 10.0.0.6 (10.0.0.6) 56(84) bytes of data.
64 bytes from 10.0.0.6: icmp_seq=1 ttl=64 time=0.447 ms664 bytes from 10.0.0.6: icmp_seq=2 ttl=64 time=0.371 m6464 bytes from 10.0.0.6: icmp_seq=3 ttl=64 time=0.411 64 64 bytes from 10.0.0.6: icmp_seq=4 ttl=64 time=0.383 64 64 bytes from 10.0.0.6: icmp_seq=5 ttl=64 time=0.497 64 64 bytes from 10.0.0.6: icmp_seq=6 ttl=64 time=0.567 64 64 bytes from 10.0.0.6: icmp_seq=7 ttl=64 time=0.486 64 64 bytes 64 bytes from 10.0.0.11: icmp_seq=8 ttl=64 t64 64 bytes from 10.0.0.6: icmp_seq=9 ttl=64 time=0.496 64 64 bytes fr64 bytes from 10.0.0.11: icmp_seq=10 ttl=664 b64 bytes from 10.0.0.6: icmp_seq=11 ttl=64 time=0.37364 b64 bytes from 10.0.0.6: icmp_seq=12 ttl=64 time=5.92 64 64 bytes from 164 bytes from 10.0.0.11: icmp_seq=13 tt64 64 bytes from 10.0.0.6: icmp_seq=14 ttl=64 time=0.810 64 64 bytes from 10.0.0.6: icmp_seq=15 ttl=64 time=0.413 64 64 bytes from 10.064 bytes from 10.0.0.11: icmp_seq=16 ttl=64 time=1.55 ms

--- 10.0.0.11 ping statistics ---
16 packets transmitted, 16 received, 0% packet loss, time 76787ms
rtt min/avg/max/mdev = 0.355/0.586/1.550/0.304 ms
