PING 10.0.0.11 (10.0.0.11) 56(84) bytes of data.
64 bytes from 10.0.0.11: icmp_seq=1 ttl=64 time=0.857 64 64 bytes from 10.0.0.11: icmp_seq=2 ttl=64 time=6.70 64 bytes from 10.0.0.6: icmp_seq=3 ttl=64 time=4.13 ms
664 bytes from 10.0.0.7: icmp_seq=4 ttl=64 time=0.538 ms64 bytes from 10.0.0.6: icmp_seq=5 ttl=64 time=2.63 ms
6464 bytes from 10.0.0.7: icmp_seq=6 ttl=64 time=0.719 m64 bytes from 10.0.0.6: icmp_seq=7 ttl=64 time=0.608 ms
64 bytes from 10.0.0.6: icmp_seq=8 ttl=64 time=3.46 ms
64 64 bytes from 10.0.0.7: icmp_seq=9 ttl=64 time=1.78 64 64 bytes from 10.0.0.7: icmp_seq=10 ttl=64 time=0.710 64 64 bytes from 10.0.0.7: icmp_seq=11 ttl=64 time=0.62664 b64 bytes from 10.0.0.7: icmp_seq=12 ttl=64 time=0.41964 b64 bytes from 10.0.0.7: icmp_seq=13 ttl=64 time=0.80064 b64 bytes from 10.0.0.7: icmp_seq=14 ttl=64 time=7.21 64 64 bytes from 10.0.0.7: icmp_seq=15 ttl=64 time=0.58864 b64 bytes from 10.0.0.7: icmp_seq=16 ttl=64 time=0.572 ms

--- 10.0.0.7 ping statistics ---
16 packets transmitted, 16 received, 0% packet loss, time 76795ms
rtt min/avg/max/mdev = 0.419/1.098/7.214/1.607 ms
.918/6.708/1.502 ms
