PING 10.0.0.7 (10.0.0.7) 56(84) bytes of data.
64 bytes from 10.0.0.7: icmp_seq=1 ttl=64 time=0.568 ms
64 bytes from 10.0.0.7: icmp_seq=2 ttl=64 time=0.700 ms
64 b64 bytes from 10.0.0.11: icmp_seq=3 ttl=64 time=4.0664 bytes from 10.0.0.6: icmp_seq=4 ttl=64 time=0.541 ms664 by64 bytes from 10.0.0.11: icmp_seq=5 ttl=64 time=5.664 bytes from 10.0.0.6: icmp_seq=6 ttl=64 time=0.520 ms664 bytes from 10.0.0.6: icmp_seq=7 ttl=64 time=0.499 ms664 bytes from 10.0.0.6: icmp_seq=8 ttl=64 time=0.671 ms64 bytes from 10.0.0.7: icmp_seq=9 ttl=64 time=0.498 ms
664 bytes from 10.0.0.6: icmp_seq=10 ttl=64 time=0.576 ms64 bytes fr64 bytes from 10.0.0.11: icmp_seq=11 ttl=64 ti64 bytes from 10.0.0.7: icmp_seq=12 ttl=64 time=0.800 ms
664 bytes from 10.0.0.6: icmp_seq=13 ttl=64 time=1.04 ms
64 bytes from 10.0.0.7: icmp_seq=14 ttl=64 time=0.577 ms
64 bytes from 164 bytes from 10.0.0.11: icmp_seq=15 ttl=664 bytes from 10.0.0.7: icmp_seq=16 ttl=64 time=0.775 ms

--- 10.0.0.7 ping statistics ---
16 packets transmitted, 16 received, 0% packet loss, time 76710ms
rtt min/avg/max/mdev = 0.416/0.777/3.441/0.698 ms
89/5.275/1.369 ms
