PING 10.0.0.6 (10.0.0.6) 56(84) bytes of data.
64 bytes from 10.0.0.6: icmp_seq=1 ttl=64 time=0.584 ms
64 bytes from 10.0.0.7: icmp_seq=2 ttl=64 time=0.511 ms664 bytes from 10.0.0.7: icmp_seq=3 ttl=64 time=0.818 ms664 bytes from 10.0.0.7: icmp_seq=4 ttl=64 time=0.466 ms664 bytes from 10.0.0.7: icmp_seq=5 ttl=64 time=0.634 ms664 bytes from 10.0.0.7: icmp_seq=6 ttl=64 time=0.431 ms664 bytes from 10.0.0.7: icmp_seq=7 ttl=64 time=1.18 ms
64 bytes from 10.0.0.7: icmp_seq=8 ttl=64 time=0.582 ms
64 bytes from 10.0.0.7: icmp_seq=9 ttl=64 time=0.634 ms
64 bytes from 10.0.0.7: icmp_seq=10 ttl=64 time=0.896 ms
64 bytes from 10.0.0.7: icmp_seq=11 ttl=64 time=0.420 ms
64 bytes from 10.0.0.7: icmp_seq=12 ttl=64 time=0.570 ms
64 bytes from 10.0.0.7: icmp_seq=13 ttl=64 time=0.343 ms
64 bytes from 10.0.0.7: icmp_seq=14 ttl=64 time=0.627 ms
64 bytes from 10.0.0.7: icmp_seq=15 ttl=64 time=0.496 ms
64 bytes from 10.0.0.7: icmp_seq=16 ttl=64 time=0.675 ms

--- 10.0.0.7 ping statistics ---
16 packets transmitted, 16 received, 0% packet loss, time 76800ms
rtt min/avg/max/mdev = 0.343/0.620/1.184/0.203 ms
864/5.138/1.115 ms
