PING 10.0.0.6 (10.0.0.6) 56(84) bytes of data.
64 bytes from 10.0.0.6: icmp_seq=1 ttl=64 time=0.985 ms
64 bytes from 10.0.0.6: icmp_seq=2 ttl=64 time=8.86 ms
664 bytes from 10.0.0.7: icmp_seq=3 ttl=64 time=0.783 ms64 bytes from 10.0.0.6: icmp_seq=4 ttl=64 time=4.61 ms
6464 bytes from 10.0.0.7: icmp_seq=5 ttl=64 time=0.496 m64 bytes 64 bytes from 10.0.0.11: icmp_seq=6 ttl=64 time64 bytes from 10.0.0.6: icmp_seq=7 ttl=64 time=7.43 ms
64 bytes fro64 bytes from 10.0.0.11: icmp_seq=8 ttl=64 64 b64 bytes f64 bytes from 10.0.0.11: icmp_seq=9 ttl=664 by64 bytes from 10.0.0.7: icmp_seq=10 ttl=64 time=0.6864 by64 bytes fro64 bytes from 10.0.0.11: icmp_seq=11 ttl64 by64 bytes from 10.0.0.7: icmp_seq=12 ttl=64 time=0.3564 by64 bytes from 10.0.0.7: icmp_seq=13 ttl=64 time=0.4764 by64 bytes from 10.0.0.7: icmp_seq=14 ttl=64 time=7.064 by64 bytes from 1064 bytes from 10.0.0.11: icmp_seq=164 byt64 bytes from 10.0.0.7: icmp_seq=16 ttl=64 time=0.951 ms

--- 10.0.0.7 ping statistics ---
16 packets transmitted, 16 received, 0% packet loss, time 76723ms
rtt min/avg/max/mdev = 0.322/1.025/7.031/1.563 ms
966/7.132/1.603 ms
