PING 10.0.0.6 (10.0.0.6) 56(84) bytes of data.
64 bytes from 10.0.0.6: icmp_seq=1 ttl=64 time=0.720 ms
64 bytes from 10.0.0.6: icmp_seq=2 ttl=64 time=0.399 ms
64 b64 bytes from 10.0.0.11: icmp_seq=3 ttl=64 time=0.5064 by64 bytes from 10.0.0.11: icmp_seq=4 ttl=64 time=0.764 bytes from 10.0.0.6: icmp_seq=5 ttl=64 time=0.747 ms
64 bytes from 10.0.0.6: icmp_seq=6 ttl=64 time=0.498 ms
64 bytes from 10.0.0.7: icmp_seq=7 ttl=64 time=0.336 ms
64 bytes from 10.0.0.6: icmp_seq=8 ttl=64 time=0.717 ms
64 bytes from 10.0.0.7: icmp_seq=9 ttl=64 time=0.578 ms
64 bytes from 10.0.0.7: icmp_seq=10 ttl=64 time=1.20 ms
664 bytes from 10.0.0.6: icmp_seq=11 ttl=64 time=0.459 ms664 bytes from 10.0.0.6: icmp_seq=12 ttl=64 time=0.599 ms64 bytes from 10.0.0.7: icmp_seq=13 ttl=64 time=0.552 ms
664 bytes from 10.0.0.6: icmp_seq=14 ttl=64 time=0.414 m6464 bytes from 10.0.0.6: icmp_seq=15 ttl=64 time=0.490 m64 bytes from 10.0.0.7: icmp_seq=16 ttl=64 time=0.836 ms

--- 10.0.0.7 ping statistics ---
16 packets transmitted, 16 received, 0% packet loss, time 76757ms
rtt min/avg/max/mdev = 0.336/0.789/3.391/0.706 ms
s
/2.550/0.541 ms
