PING 10.0.0.6 (10.0.0.6) 56(84) bytes of data.
64 bytes from 10.0.0.6: icmp_seq=1 ttl=64 time=0.562 ms664 bytes from 10.0.0.6: icmp_seq=2 ttl=64 time=0.720 m6464 bytes from 10.0.0.6: icmp_seq=3 ttl=64 time=0.469 m64 byt64 bytes from 10.0.0.11: icmp_seq=4 ttl=64 time=0.6464 bytes from 10.0.0.6: icmp_seq=5 ttl=64 time=5.42 m64 bytes 64 bytes from 10.0.0.11: icmp_seq=6 ttl=64 time6464 bytes from 10.0.0.6: icmp_seq=7 ttl=64 time=0.672 m6464 bytes from 10.0.0.6: icmp_seq=8 ttl=64 time=0.446 m6464 bytes 64 bytes from 10.0.0.11: icmp_seq=9 ttl=64 t64 64 bytes f64 bytes from 10.0.0.11: icmp_seq=10 ttl=64 64 64 bytes from 10.0.0.6: icmp_seq=11 ttl=64 time=0.544 64 64 bytes from 10.0.0.6: icmp_seq=12 ttl=64 time=0.484 64 bytes from 164 bytes from 10.0.0.11: icmp_seq=13 ttl=664 bytes from 10.0.0.7: icmp_seq=14 ttl=64 time=1.25 ms
64 bytes from 10.064 bytes from 10.0.0.11: icmp_seq=15 tt64 bytes from 10.0.64 bytes from 10.0.0.11: icmp_seq=16 ttl=64 time=0.572 ms

--- 10.0.0.11 ping statistics ---
16 packets transmitted, 16 received, 0% packet loss, time 76610ms
rtt min/avg/max/mdev = 0.402/1.373/9.722/2.274 ms
