PING 10.0.0.7 (10.0.0.7) 56(84) bytes of data.
64 bytes from 10.0.0.7: icmp_seq=1 ttl=64 time=0.779 ms
64 bytes from 10.0.0.6: icmp_seq=2 ttl=64 time=7.04 ms
664 b64 bytes from 10.0.0.11: icmp_seq=3 ttl=64 time=0.6464 by64 bytes from 10.0.0.11: icmp_seq=4 ttl=64 time=06464 bytes from 10.0.0.7: icmp_seq=5 ttl=64 time=0.466 m6464 bytes from 10.0.0.7: icmp_seq=6 ttl=64 time=0.629 m6464 bytes from 10.0.0.7: icmp_seq=7 ttl=64 time=0.592 m6464 bytes from 10.0.0.7: icmp_seq=8 ttl=64 time=0.398 m6464 bytes from 10.0.0.7: icmp_seq=9 ttl=64 time=1.02 ms664 bytes fro64 bytes from 10.0.0.11: icmp_seq=10 ttl=64 664 bytes from 10.0.0.7: icmp_seq=11 ttl=64 time=0.961 ms664 bytes from 64 bytes from 10.0.0.11: icmp_seq=12 ttl=6664 bytes from 164 bytes from 10.0.0.11: icmp_seq=13 ttl=664 bytes from 1064 bytes from 10.0.0.11: icmp_seq=14 ttl664 bytes from 10.64 bytes from 10.0.0.11: icmp_seq=15 tt664 bytes from 10.064 bytes from 10.0.0.11: icmp_seq=16 tt
--- 10.0.0.7 ping statistics ---
16 packets transmitted, 16 received, 0% packet loss, time 76725ms
rtt min/avg/max/mdev = 0.385/0.600/1.024/0.211 ms
.568/0.906/0.180 ms
