PING 10.0.0.11 (10.0.0.11) 56(84) bytes of data.
64 bytes from 10.0.0.11: icmp_seq=1 ttl=64 time=1.29 664 bytes from 10.0.0.6: icmp_seq=2 ttl=64 time=0.472 ms64 b64 bytes from 10.0.0.11: icmp_seq=3 ttl=64 time=0.46664 bytes from 10.0.0.6: icmp_seq=4 ttl=64 time=2.27 ms
64 byt64 bytes from 10.0.0.11: icmp_seq=5 ttl=64 time=0.64 bytes from 10.0.0.7: icmp_seq=6 ttl=64 time=1.30 ms
664 bytes from 10.0.0.6: icmp_seq=7 ttl=64 time=4.98 ms
64 bytes from 10.0.0.7: icmp_seq=8 ttl=64 time=0.507 ms664 bytes from 10.0.0.7: icmp_seq=9 ttl=64 time=1.48 ms664 bytes from64 bytes from 10.0.0.11: icmp_seq=10 ttl=64664 bytes from 64 bytes from 10.0.0.11: icmp_seq=11 ttl=6664 bytes from 164 bytes from 10.0.0.11: icmp_seq=12 ttl=664 bytes from 10.0.0.7: icmp_seq=13 ttl=64 time=0.865 ms664 bytes from 10.64 bytes from 10.0.0.11: icmp_seq=14 tt664 bytes from 10.0.0.7: icmp_seq=15 ttl=64 time=0.632 m6464 bytes from 10.0.0.7: icmp_seq=16 ttl=64 time=1.11 ms

--- 10.0.0.7 ping statistics ---
16 packets transmitted, 16 received, 0% packet loss, time 76669ms
rtt min/avg/max/mdev = 0.351/0.739/1.489/0.353 ms
/0.597/1.293/0.214 ms
