PING 10.0.0.11 (10.0.0.11) 56(84) bytes of data.
64 bytes from 10.0.0.11: icmp_seq=1 ttl=64 time=0.542664 64 bytes from 10.0.0.11: icmp_seq=2 ttl=64 time=0.56464 bytes from 10.0.0.6: icmp_seq=3 ttl=64 time=1.04 ms64 bytes from 10.0.0.7: icmp_seq=4 ttl=64 time=0.393 ms
64 bytes from 10.0.0.7: icmp_seq=5 ttl=64 time=10.1 ms
64 bytes f64 bytes from 10.0.0.11: icmp_seq=6 ttl=64 tim64 bytes from 10.0.0.7: icmp_seq=7 ttl=64 time=0.882 ms
64 bytes fro64 bytes from 10.0.0.11: icmp_seq=8 ttl=64 664 bytes from 10.0.0.7: icmp_seq=9 ttl=64 time=0.638 m6464 bytes from 10.0.0.7: icmp_seq=10 ttl=64 time=0.411 m6464 bytes from 10.0.0.7: icmp_seq=11 ttl=64 time=2.39 m6464 bytes from 10.0.0.7: icmp_seq=12 ttl=64 time=1.43 ms664 bytes from 10.64 bytes from 10.0.0.11: icmp_seq=13 tt64 bytes from 10.0.64 bytes from 10.0.0.11: icmp_seq=14 664 bytes from 10.0.064 bytes from 10.0.0.11: icmp_seq=16464 bytes from 10.0.0.64 bytes from 10.0.0.11: icmp_seq=16 ttl=64 time=1.36 ms

--- 10.0.0.11 ping statistics ---
16 packets transmitted, 16 received, 0% packet loss, time 76660ms
rtt min/avg/max/mdev = 0.409/1.057/6.624/1.471 ms
