PING 10.0.0.7 (10.0.0.7) 56(84) bytes of data.
64 bytes from 10.0.0.7: icmp_seq=1 ttl=64 time=1.27 ms
64 bytes from 10.0.0.7: icmp_seq=2 ttl=64 time=0.565 ms
64 by64 bytes from 10.0.0.11: icmp_seq=3 ttl=64 time=0.764 bytes from 10.0.0.7: icmp_seq=4 ttl=64 time=1.71 ms
6464 byt64 bytes from 10.0.0.11: icmp_seq=5 ttl=64 time=64 bytes from 10.0.0.7: icmp_seq=6 ttl=64 time=1.03 ms
64 bytes fr64 bytes from 10.0.0.11: icmp_seq=7 ttl=64 t64 bytes from64 bytes from 10.0.0.11: icmp_seq=8 ttl=64 64 bytes from 64 bytes from 10.0.0.11: icmp_seq=9 ttl=6464 bytes from 164 bytes from 10.0.0.11: icmp_seq=10 ttl=664 bytes from 164 bytes from 10.0.0.11: icmp_seq=11 ttl=64 64 bytes from64 bytes from 10.0.0.11: icmp_seq=12 ttl=64 64 bytes from 10.0.0.6: icmp_seq=13 ttl=64 time=0.597 64 64 bytes from 10.0.0.6: icmp_seq=14 ttl=64 time=1.23 m64 bytes from 10.0.64 bytes from 10.0.0.11: icmp_seq=15 t64 bytes from 10.0.0.7: icmp_seq=16 ttl=64 time=0.718 ms

--- 10.0.0.7 ping statistics ---
16 packets transmitted, 16 received, 0% packet loss, time 76360ms
rtt min/avg/max/mdev = 0.434/0.840/1.949/0.439 ms
/1.089/5.295/1.354 ms
