PING 10.0.0.11 (10.0.0.11) 56(84) bytes of data.
64 bytes from 10.0.0.11: icmp_seq=1 ttl=64 time=0.675 64 64 bytes from 10.0.0.11: icmp_seq=2 ttl=64 time=0.56664 b64 bytes from 10.0.0.11: icmp_seq=3 ttl=64 time=0.4664 by64 bytes from 10.0.0.11: icmp_seq=4 ttl=64 time=0.64 byte64 bytes from 10.0.0.11: icmp_seq=5 ttl=64 time=0664 byte64 bytes from 10.0.0.11: icmp_seq=6 ttl=64 time=664 bytes64 bytes from 10.0.0.11: icmp_seq=7 ttl=64 time664 bytes 64 bytes from 10.0.0.11: icmp_seq=8 ttl=64 tim664 bytes f64 bytes from 10.0.0.11: icmp_seq=9 ttl=64 ti664 bytes fr64 bytes from 10.0.0.11: icmp_seq=10 ttl=64 t64 bytes from64 bytes from 10.0.0.11: icmp_seq=11 ttl=64 664 bytes from64 bytes from 10.0.0.11: icmp_seq=12 ttl=6464 bytes from 164 bytes from 10.0.0.11: icmp_seq=13 ttl=6664 bytes from 164 bytes from 10.0.0.11: icmp_seq=14 ttl=664 bytes from 1064 bytes from 10.0.0.11: icmp_seq=15 ttl64 bytes from 10.064 bytes from 10.0.0.11: icmp_seq=16 ttl=64 time=0.586 ms

--- 10.0.0.11 ping statistics ---
16 packets transmitted, 16 received, 0% packet loss, time 76933ms
rtt min/avg/max/mdev = 0.403/0.575/0.872/0.147 ms
