PING 10.0.0.7 (10.0.0.7) 56(84) bytes of data.
64 bytes from 10.0.0.7: icmp_seq=1 ttl=64 time=39.5 ms
64 bytes from 10.0.0.7: icmp_seq=2 ttl=64 time=0.502 ms
64 bytes from 10.0.0.6: icmp_seq=3 ttl=64 time=0.596 ms
64 bytes from 10.0.0.7: icmp_seq=4 ttl=64 time=0.630 ms
64 byte64 bytes from 10.0.0.11: icmp_seq=5 ttl=64 time=64 bytes from 10.0.0.6: icmp_seq=6 ttl=64 time=3.71 ms
6464 bytes 64 bytes from 10.0.0.11: icmp_seq=7 ttl=64 ti6464 bytes from 10.0.0.7: icmp_seq=8 ttl=64 time=1.29 ms664 bytes fro64 bytes from 10.0.0.11: icmp_seq=9 ttl=64664 bytes from 64 bytes from 10.0.0.11: icmp_seq=10 ttl=664 bytes from 1064 bytes from 10.0.0.11: icmp_seq=11 ttl64 bytes from 10.064 bytes from 10.0.0.11: icmp_seq=12 tt64 bytes from 10.0.64 bytes from 10.0.0.11: icmp_seq=13 6464 bytes from 10.064 bytes from 10.0.0.11: icmp_seq=14 64 bytes from 10.0.0.64 bytes from 10.0.0.11: icmp_seq=156464 bytes from 10.0.64 bytes from 10.0.0.11: icmp_seq=16 ttl=64 time=1.39 ms

--- 10.0.0.11 ping statistics ---
16 packets transmitted, 16 received, 0% packet loss, time 76699ms
rtt min/avg/max/mdev = 0.352/1.249/7.538/1.884 ms
