PING 10.0.0.7 (10.0.0.7) 56(84) bytes of data.
64 bytes from 10.0.0.7: icmp_seq=1 ttl=64 time=0.517 ms
64 bytes from 10.0.0.7: icmp_seq=2 ttl=64 time=0.401 ms
64 bytes from 10.0.0.6: icmp_seq=3 ttl=64 time=0.911 ms
64 by64 bytes from 10.0.0.11: icmp_seq=4 ttl=64 time=0.464 bytes from 10.0.0.6: icmp_seq=5 ttl=64 time=0.631 ms664 byte64 bytes from 10.0.0.11: icmp_seq=6 ttl=64 time=64 bytes from 10.0.0.7: icmp_seq=7 ttl=64 time=0.417 ms
664 bytes from 10.0.0.6: icmp_seq=8 ttl=64 time=0.334 ms64 bytes from 10.0.0.7: icmp_seq=9 ttl=64 time=0.472 ms
64 bytes from 10.0.0.7: icmp_seq=10 ttl=64 time=2.26 ms
6464 bytes fr64 bytes from 10.0.0.11: icmp_seq=11 ttl=6464 64 bytes fro64 bytes from 10.0.0.11: icmp_seq=12 ttl=66464 bytes from 10.0.0.6: icmp_seq=13 ttl=64 time=0.478 m6464 bytes from 10.0.0.6: icmp_seq=14 ttl=64 time=0.602 64 64 bytes from 10.0.0.6: icmp_seq=15 ttl=64 time=13.6 m6464 bytes from 10.0.0.6: icmp_seq=16 ttl=64 time=1.47 ms

--- 10.0.0.6 ping statistics ---
16 packets transmitted, 16 received, 0% packet loss, time 76567ms
rtt min/avg/max/mdev = 0.334/1.488/13.634/3.170 ms
993/6.648/1.497 ms
