PING 10.0.0.6 (10.0.0.6) 56(84) bytes of data.
64 bytes from 10.0.0.6: icmp_seq=1 ttl=64 time=0.608 ms664 bytes from 10.0.0.6: icmp_seq=2 ttl=64 time=7.99 ms664 bytes from 10.0.0.6: icmp_seq=3 ttl=64 time=0.599 m6464 by64 bytes from 10.0.0.11: icmp_seq=4 ttl=64 time=64 64 bytes from 10.0.0.6: icmp_seq=5 ttl=64 time=9.63 m6464 bytes from 10.0.0.6: icmp_seq=6 ttl=64 time=4.88 ms664 bytes from 10.0.0.6: icmp_seq=7 ttl=64 time=0.569 ms64 bytes from 10.0.0.7: icmp_seq=8 ttl=64 time=0.432 ms
64 bytes from 10.0.0.7: icmp_seq=9 ttl=64 time=0.337 ms
64 bytes from 10.0.0.7: icmp_seq=10 ttl=64 time=2.82 ms
6464 bytes from 10.0.0.6: icmp_seq=11 ttl=64 time=0.420 64 64 bytes from 10.0.0.6: icmp_seq=12 ttl=64 time=7.25 m6464 bytes from 10.0.0.6: icmp_seq=13 ttl=64 time=1.02 ms664 bytes from 10.0.0.6: icmp_seq=14 ttl=64 time=10.2 ms
64 bytes from 10.0.0.7: icmp_seq=15 ttl=64 time=0.347 ms
64 bytes from 10.0.0.7: icmp_seq=16 ttl=64 time=0.905 ms

--- 10.0.0.7 ping statistics ---
16 packets transmitted, 16 received, 0% packet loss, time 76147ms
rtt min/avg/max/mdev = 0.337/1.492/4.532/1.362 ms

8/9.984/2.640 ms
