PING 10.0.0.7 (10.0.0.7) 56(84) bytes of data.
64 bytes from 10.0.0.7: icmp_seq=1 ttl=64 time=0.955 ms664 64 bytes from 10.0.0.11: icmp_seq=2 ttl=64 time=0.50664 bytes from 10.0.0.7: icmp_seq=3 ttl=64 time=0.404 ms64 bytes from 10.0.0.6: icmp_seq=4 ttl=64 time=0.461 ms
664 bytes from 10.0.0.7: icmp_seq=5 ttl=64 time=0.590 ms64 bytes64 bytes from 10.0.0.11: icmp_seq=6 ttl=64 time6464 bytes64 bytes from 10.0.0.11: icmp_seq=7 ttl=64 tim6464 bytes 64 bytes from 10.0.0.11: icmp_seq=8 ttl=64 ti6464 bytes f64 bytes from 10.0.0.11: icmp_seq=9 ttl=64 t64 bytes from 10.0.0.6: icmp_seq=10 ttl=64 time=0.565 ms
6464 bytes from 10.0.0.7: icmp_seq=11 ttl=64 time=0.595 m64 bytes from 10.0.0.6: icmp_seq=12 ttl=64 time=5.71 ms
64 64 bytes from 10.0.0.7: icmp_seq=13 ttl=64 time=0.50964 b64 bytes from 10.0.0.7: icmp_seq=14 ttl=64 time=1.01 64 64 bytes from 1064 bytes from 10.0.0.11: icmp_seq=15 t64 64 bytes from 10.0.0.7: icmp_seq=16 ttl=64 time=0.885 ms

--- 10.0.0.7 ping statistics ---
16 packets transmitted, 16 received, 0% packet loss, time 76618ms
rtt min/avg/max/mdev = 0.390/0.641/1.010/0.202 ms
562/1.010/0.192 ms
