PING 10.0.0.7 (10.0.0.7) 56(84) bytes of data.
64 bytes from 10.0.0.7: icmp_seq=1 ttl=64 time=3.13 ms
64 b64 bytes from 10.0.0.11: icmp_seq=2 ttl=64 time=5.47664 bytes from 10.0.0.6: icmp_seq=3 ttl=64 time=5.15 ms
64 bytes from 10.0.0.7: icmp_seq=4 ttl=64 time=2.18 ms
64 byte64 bytes from 10.0.0.11: icmp_seq=5 ttl=64 time=064 bytes64 bytes from 10.0.0.11: icmp_seq=6 ttl=64 time664 bytes 64 bytes from 10.0.0.11: icmp_seq=7 ttl=64 tim664 bytes from 10.0.0.7: icmp_seq=8 ttl=64 time=0.468 ms664 bytes fr64 bytes from 10.0.0.11: icmp_seq=9 ttl=64 t664 bytes from 10.0.0.7: icmp_seq=10 ttl=64 time=0.912 ms664 bytes fro64 bytes from 10.0.0.11: icmp_seq=11 ttl=64 664 bytes from 10.0.0.7: icmp_seq=12 ttl=64 time=0.684 ms664 bytes from 10.0.0.7: icmp_seq=13 ttl=64 time=0.871 ms664 bytes from 10.0.0.7: icmp_seq=14 ttl=64 time=0.667 ms664 bytes from 10.0.0.7: icmp_seq=15 ttl=64 time=2.18 ms
64 bytes from 10.064 bytes from 10.0.0.11: icmp_seq=16 ttl=64 time=0.879 ms

--- 10.0.0.11 ping statistics ---
16 packets transmitted, 16 received, 0% packet loss, time 76776ms
rtt min/avg/max/mdev = 0.392/0.954/5.475/1.184 ms
