PING 10.0.0.7 (10.0.0.7) 56(84) bytes of data.
64 bytes from 10.0.0.7: icmp_seq=1 ttl=64 time=0.628 ms664 bytes from 10.0.0.7: icmp_seq=2 ttl=64 time=0.691 ms64 bytes from 10.0.0.6: icmp_seq=3 ttl=64 time=0.542 ms
664 bytes from 10.0.0.7: icmp_seq=4 ttl=64 time=0.787 ms64 byt64 bytes from 10.0.0.11: icmp_seq=5 ttl=64 time=0.64 bytes from 10.0.0.6: icmp_seq=6 ttl=64 time=0.597 ms
664 bytes from 10.0.0.7: icmp_seq=7 ttl=64 time=0.906 ms664 bytes from 10.0.0.7: icmp_seq=8 ttl=64 time=0.550 ms664 bytes 64 bytes from 10.0.0.11: icmp_seq=9 ttl=64 tim64 bytes from 10.0.0.6: icmp_seq=10 ttl=64 time=0.419 ms
64 bytes from 10.0.0.6: icmp_seq=11 ttl=64 time=0.547 ms
64 bytes fro64 bytes from 10.0.0.11: icmp_seq=12 ttl=64 t64 bytes from 10.0.0.6: icmp_seq=13 ttl=64 time=5.14 ms
6464 bytes fro64 bytes from 10.0.0.11: icmp_seq=14 ttl=664 64 bytes from 10.0.0.7: icmp_seq=15 ttl=64 time=0.820 64 64 bytes from 10.0.0.7: icmp_seq=16 ttl=64 time=1.59 ms

--- 10.0.0.7 ping statistics ---
16 packets transmitted, 16 received, 0% packet loss, time 76583ms
rtt min/avg/max/mdev = 0.328/0.619/1.594/0.303 ms
/8.623/2.131 ms
