PING 10.0.0.6 (10.0.0.6) 56(84) bytes of data.
64 bytes from 10.0.0.6: icmp_seq=1 ttl=64 time=0.525 ms
64 bytes from 10.0.0.6: icmp_seq=2 ttl=64 time=2.69 ms
664 b64 bytes from 10.0.0.11: icmp_seq=3 ttl=64 time=0.4664 bytes from 10.0.0.7: icmp_seq=4 ttl=64 time=0.791 ms664 bytes from 10.0.0.7: icmp_seq=5 ttl=64 time=0.443 ms664 bytes from 10.0.0.7: icmp_seq=6 ttl=64 time=0.569 ms664 bytes64 bytes from 10.0.0.11: icmp_seq=7 ttl=64 time664 bytes from 10.0.0.7: icmp_seq=8 ttl=64 time=0.450 ms664 bytes from 10.0.0.7: icmp_seq=9 ttl=64 time=0.750 ms64 bytes from 10.0.0.6: icmp_seq=10 ttl=64 time=1.89 ms
664 bytes fro64 bytes from 10.0.0.11: icmp_seq=11 ttl=64 64 bytes from 64 bytes from 10.0.0.11: icmp_seq=12 ttl=6464 bytes from 10.0.0.6: icmp_seq=13 ttl=64 time=0.548 ms
64 bytes from 10.0.0.6: icmp_seq=14 ttl=64 time=0.558 ms
64 bytes from 10.0.0.6: icmp_seq=15 ttl=64 time=0.774 ms
64 bytes from 10.0.0.6: icmp_seq=16 ttl=64 time=0.750 ms

--- 10.0.0.6 ping statistics ---
16 packets transmitted, 16 received, 0% packet loss, time 76648ms
rtt min/avg/max/mdev = 0.382/0.768/2.697/0.603 ms
.635/1.861/0.338 ms
