PING 10.0.0.7 (10.0.0.7) 56(84) bytes of data.
64 bytes from 10.0.0.7: icmp_seq=1 ttl=64 time=0.752 ms
64 bytes from 10.0.0.7: icmp_seq=2 ttl=64 time=0.400 ms
64 bytes from 10.0.0.7: icmp_seq=3 ttl=64 time=0.943 ms
64 bytes from 10.0.0.7: icmp_seq=4 ttl=64 time=0.390 ms
64 bytes from 10.0.0.7: icmp_seq=5 ttl=64 time=7.62 ms
664 bytes from 10.0.0.6: icmp_seq=6 ttl=64 time=0.402 ms664 bytes from 10.0.0.6: icmp_seq=7 ttl=64 time=0.923 ms664 bytes from 10.0.0.6: icmp_seq=8 ttl=64 time=0.487 ms664 bytes from 10.0.0.6: icmp_seq=9 ttl=64 time=0.484 ms664 bytes fr64 bytes from 10.0.0.11: icmp_seq=10 ttl=64 t664 bytes from 10.0.0.6: icmp_seq=11 ttl=64 time=0.408 m6464 bytes from 10.0.0.6: icmp_seq=12 ttl=64 time=6.92 ms64 bytes from 10.0.0.7: icmp_seq=13 ttl=64 time=1.96 ms
64 bytes from 10.064 bytes from 10.0.0.11: icmp_seq=14 t64 bytes from 10.0.064 bytes from 10.0.0.11: icmp_seq=15 6464 bytes from 10.0.64 bytes from 10.0.0.11: icmp_seq=16 ttl=64 time=0.630 ms

--- 10.0.0.11 ping statistics ---
16 packets transmitted, 16 received, 0% packet loss, time 76812ms
rtt min/avg/max/mdev = 0.357/0.528/0.802/0.138 ms
