"Dstat 0.7.2 CSV output"
"Author:","Dag Wieers <dag@wieers.com>",,,,"URL:","http://dag.wieers.com/home-made/dstat/"
"Host:","Server3",,,,"User:","mstevan"
"Cmdline:","dstat --output /home/mstevan/logs/experiment_3.4/dstat/vs_1024-vcpr_32-wtpm_8-rep_2.csv 5 16",,,,"Date:","28 Oct 2019 19:55:26 UTC"

"total cpu usage",,,,,,"dsk/total",,"net/total",,"paging",,"system",
"usr","sys","idl","wai","hiq","siq","read","writ","recv","send","in","out","int","csw"
2.388,4.752,91.895,0.197,0.0,0.768,5794.342,592656.908,0.0,0.0,0.0,0.0,0.052,1697.245
0.604,0.604,98.189,0.402,0.0,0.201,0.0,22937.600,17447.400,142751.0,0.0,0.0,0.0,179.0
2.790,7.511,88.627,0.0,0.0,1.073,0.0,819.200,663564.0,8844259.800,0.0,0.0,0.0,3074.0
3.888,7.991,87.473,0.0,0.0,0.648,0.0,1638.400,653621.0,8669267.600,0.0,0.0,0.0,3242.600
3.672,7.127,88.337,0.0,0.0,0.864,0.0,3276.800,691323.200,9184155.600,0.0,0.0,0.0,3024.0
2.947,8.0,88.0,0.0,0.0,1.053,0.0,819.200,675960.600,9009893.400,0.0,0.0,0.0,2724.600
3.696,6.739,89.130,0.0,0.0,0.435,0.0,1638.400,680614.400,9029106.600,0.0,0.0,0.0,2918.600
2.966,7.415,87.500,0.636,0.0,1.483,0.0,17203.200,656154.600,8709214.200,0.0,0.0,0.0,2575.600
2.553,7.447,88.936,0.0,0.0,1.064,0.0,819.200,657799.600,8770506.200,0.0,0.0,0.0,2708.400
3.782,7.353,87.395,0.0,0.0,1.471,0.0,1638.400,650729.0,8636728.800,0.0,0.0,0.0,2576.200
3.024,6.048,90.065,0.0,0.0,0.864,0.0,819.200,675429.400,9006542.600,0.0,0.0,0.0,2799.0
3.412,7.676,87.633,0.0,0.0,1.279,0.0,1638.400,690737.400,9176081.400,0.0,0.0,0.0,2935.200
2.731,9.664,86.345,0.0,0.0,1.261,0.0,1638.400,670649.800,8900465.400,0.0,0.0,0.0,2806.200
2.985,7.463,88.699,0.426,0.0,0.426,0.0,15564.800,690070.800,9190546.600,0.0,0.0,0.0,2774.400
2.784,7.709,88.865,0.0,0.0,0.642,0.0,3276.800,680001.200,9028141.600,0.0,0.0,0.0,2607.0
3.632,8.333,86.538,0.0,0.0,1.496,0.0,1638.400,673861.800,8941648.0,0.0,0.0,0.0,2776.400
0.406,1.217,98.174,0.0,0.0,0.203,0.0,819.200,59162.200,749289.600,0.0,0.0,0.0,774.400
