"Dstat 0.7.2 CSV output"
"Author:","Dag Wieers <dag@wieers.com>",,,,"URL:","http://dag.wieers.com/home-made/dstat/"
"Host:","Server3",,,,"User:","mstevan"
"Cmdline:","dstat --output /home/mstevan/logs/experiment_3.4/dstat/vs_1024-vcpr_4-wtpm_8-rep_2.csv 5 16",,,,"Date:","28 Oct 2019 19:04:13 UTC"

"total cpu usage",,,,,,"dsk/total",,"net/total",,"paging",,"system",
"usr","sys","idl","wai","hiq","siq","read","writ","recv","send","in","out","int","csw"
2.286,4.498,92.296,0.203,0.0,0.717,6042.503,617844.726,0.0,0.0,0.0,0.0,0.054,1597.096
0.805,0.402,98.793,0.0,0.0,0.0,0.0,1638.400,11671.400,65423.0,0.0,0.0,0.0,150.400
2.709,8.352,88.488,0.0,0.0,0.451,0.0,2457.600,536692.400,7103926.200,0.0,0.0,0.0,6172.200
3.786,8.463,86.637,0.0,0.0,1.114,0.0,819.200,578685.600,7710202.800,0.0,0.0,0.0,6567.400
4.565,11.522,81.739,0.435,0.0,1.739,0.0,19660.800,590962.600,7830984.800,0.0,0.0,0.0,6405.600
3.947,9.649,85.088,0.0,0.0,1.316,0.0,4915.200,585216.200,7758178.800,0.0,0.0,0.0,6473.200
4.158,8.972,85.120,0.0,0.0,1.751,0.0,819.200,601756.0,8020233.600,0.0,0.0,0.0,6666.200
3.728,11.184,84.430,0.0,0.0,0.658,0.0,3276.800,594945.800,7885104.200,0.0,0.0,0.0,6535.800
4.148,10.044,84.498,0.0,0.0,1.310,0.0,819.200,599479.200,7982402.400,0.0,0.0,0.0,6565.0
3.348,10.268,85.268,0.0,0.0,1.116,0.0,1638.400,605154.800,8032322.400,0.0,0.0,0.0,6579.0
4.474,9.396,85.011,0.224,0.0,0.895,0.0,15564.800,601368.600,7975308.400,0.0,0.0,0.0,6491.400
4.857,9.272,84.989,0.0,0.0,0.883,0.0,819.200,590597.800,7873467.800,0.0,0.0,0.0,6285.600
4.376,11.160,83.370,0.0,0.0,1.094,0.0,1638.400,596132.600,7905159.600,0.0,0.0,0.0,6537.0
3.509,11.184,83.991,0.0,0.0,1.316,0.0,1638.400,581549.400,7709417.600,0.0,0.0,0.0,6405.0
2.895,11.359,85.301,0.0,0.0,0.445,0.0,2457.600,595343.0,7937111.0,0.0,0.0,0.0,6570.200
3.540,9.513,85.619,0.0,0.0,1.327,0.0,1638.400,585089.800,7751838.600,0.0,0.0,0.0,6401.800
0.601,0.802,98.196,0.401,0.0,0.0,0.0,15564.800,6789.400,2471.200,0.0,0.0,0.0,90.600
