"Dstat 0.7.2 CSV output"
"Author:","Dag Wieers <dag@wieers.com>",,,,"URL:","http://dag.wieers.com/home-made/dstat/"
"Host:","Server3",,,,"User:","mstevan"
"Cmdline:","dstat --output /home/mstevan/logs/experiment_3.4/dstat/vs_1024-vcpr_4-wtpm_32-rep_3.csv 5 16",,,,"Date:","28 Oct 2019 19:11:20 UTC"

"total cpu usage",,,,,,"dsk/total",,"net/total",,"paging",,"system",
"usr","sys","idl","wai","hiq","siq","read","writ","recv","send","in","out","int","csw"
2.295,4.524,92.260,0.202,0.0,0.719,6006.774,614218.967,0.0,0.0,0.0,0.0,0.054,1619.239
0.604,0.201,99.195,0.0,0.0,0.0,0.0,819.200,12194.0,87893.0,0.0,0.0,0.0,181.600
5.963,11.239,80.963,0.0,0.0,1.835,0.0,1638.400,551038.600,7290747.200,0.0,0.0,0.0,6124.200
5.467,12.984,79.499,0.0,0.0,2.050,0.0,2457.600,593678.600,7867507.400,0.0,0.0,0.0,6447.0
5.669,12.472,80.726,0.0,0.0,1.134,0.0,819.200,623130.0,8305943.0,0.0,0.0,0.0,6827.800
6.383,11.348,80.851,0.236,0.0,1.182,0.0,26214.400,593529.400,7861376.0,0.0,0.0,0.0,6457.400
5.128,12.821,80.653,0.0,0.0,1.399,0.0,819.200,620347.0,8263753.600,0.0,0.0,0.0,6576.800
5.556,12.963,79.167,0.0,0.0,2.315,0.0,3276.800,621096.200,8243768.0,0.0,0.0,0.0,6627.600
6.005,12.009,80.139,0.0,0.0,1.848,0.0,1638.400,606567.200,8044295.600,0.0,0.0,0.0,6695.600
5.923,14.123,78.360,0.0,0.0,1.595,0.0,819.200,611316.400,8148870.600,0.0,0.0,0.0,6657.200
6.378,13.667,78.588,0.0,0.0,1.367,0.0,1638.400,610607.400,8096686.0,0.0,0.0,0.0,6529.200
5.386,12.881,79.859,0.468,0.0,1.405,0.0,15564.800,601590.0,7975505.800,0.0,0.0,0.0,6424.400
5.800,13.689,78.886,0.0,0.0,1.624,0.0,10649.600,605672.600,8079581.600,0.0,0.0,0.0,6357.600
5.800,12.993,80.046,0.0,0.0,1.160,0.0,2457.600,615441.200,8161004.0,0.0,0.0,0.200,6634.400
5.104,14.617,79.118,0.0,0.0,1.160,0.0,1638.400,601310.0,8005055.200,0.0,0.0,0.0,6374.800
5.023,10.731,82.648,0.0,0.0,1.598,0.0,1638.400,605821.0,8023285.800,0.0,0.0,0.0,6491.200
0.602,0.602,98.795,0.0,0.0,0.0,0.0,1638.400,6338.400,2013.600,0.0,0.0,0.0,77.200
