"Dstat 0.7.2 CSV output"
"Author:","Dag Wieers <dag@wieers.com>",,,,"URL:","http://dag.wieers.com/home-made/dstat/"
"Host:","Server3",,,,"User:","mstevan"
"Cmdline:","dstat --output /home/mstevan/logs/experiment_3.4/dstat/vs_1024-vcpr_32-wtpm_64-rep_2.csv 5 16",,,,"Date:","28 Oct 2019 20:06:48 UTC"

"total cpu usage",,,,,,"dsk/total",,"net/total",,"paging",,"system",
"usr","sys","idl","wai","hiq","siq","read","writ","recv","send","in","out","int","csw"
2.397,4.773,91.862,0.196,0.0,0.772,5741.937,587337.294,0.0,0.0,0.0,0.0,0.051,1699.098
0.403,0.202,99.395,0.0,0.0,0.0,0.0,819.200,16014.200,98676.0,0.0,0.0,0.0,193.400
4.846,10.132,81.718,0.0,0.0,3.304,0.0,2457.600,932233.0,12361205.200,0.0,0.0,0.0,2964.400
4.936,8.798,84.764,0.0,0.0,1.502,0.0,1638.400,939612.600,12503422.600,0.0,0.0,0.0,2256.800
4.459,9.130,84.926,0.0,0.0,1.486,0.0,1638.400,936836.600,12499039.0,0.0,0.0,0.0,2224.200
4.863,9.302,83.510,0.211,0.0,2.114,0.0,18841.600,939764.0,12525109.0,0.0,0.0,0.0,2382.400
4.430,9.916,82.911,0.0,0.0,2.743,0.0,819.200,937638.800,12510519.0,0.0,0.0,0.0,2397.200
4.095,8.621,85.345,0.0,0.0,1.940,0.0,3276.800,939651.600,12506512.600,0.0,0.0,0.0,2453.800
5.556,9.188,83.333,0.0,0.0,1.923,0.0,1638.400,939047.400,12494199.400,0.0,0.0,0.0,2326.800
4.184,10.669,84.310,0.0,0.0,0.837,0.0,819.200,936490.0,12497730.800,0.0,0.0,0.0,2187.0
5.085,10.805,82.627,0.0,0.0,1.483,0.0,1638.400,938036.600,12495545.800,0.0,0.0,0.0,2133.800
4.283,9.850,84.368,0.214,0.0,1.285,0.0,18841.600,939740.400,12505880.800,0.0,0.0,0.0,2320.600
3.579,9.474,85.474,0.0,0.0,1.474,0.0,819.200,938160.800,12522685.0,0.0,0.0,0.0,2120.200
4.478,8.316,84.648,0.0,0.0,2.559,0.0,1638.400,939961.0,12501949.600,0.0,0.0,0.0,2101.200
3.830,8.511,86.170,0.0,0.0,1.489,0.0,2457.600,935935.600,12494743.600,0.0,0.0,0.0,2148.0
4.641,8.650,84.599,0.0,0.0,2.110,0.0,1638.400,925452.600,12312218.600,0.0,0.0,0.0,2137.600
0.610,1.016,97.967,0.0,0.0,0.407,0.0,1638.400,69300.0,621361.600,0.0,0.0,0.0,716.800
