"Dstat 0.7.2 CSV output"
"Author:","Dag Wieers <dag@wieers.com>",,,,"URL:","http://dag.wieers.com/home-made/dstat/"
"Host:","Server3",,,,"User:","mstevan"
"Cmdline:","dstat --output /home/mstevan/logs/experiment_3.4/dstat/vs_1024-vcpr_4-wtpm_64-rep_3.csv 5 16",,,,"Date:","28 Oct 2019 19:17:01 UTC"

"total cpu usage",,,,,,"dsk/total",,"net/total",,"paging",,"system",
"usr","sys","idl","wai","hiq","siq","read","writ","recv","send","in","out","int","csw"
2.305,4.549,92.221,0.201,0.0,0.724,5978.495,611348.763,0.0,0.0,0.0,0.0,0.053,1636.943
0.604,0.805,98.592,0.0,0.0,0.0,0.0,819.200,18365.400,113062.400,0.0,0.0,0.0,263.800
3.516,11.648,81.758,0.0,0.0,3.077,0.0,2457.600,565800.200,7152101.400,0.0,0.0,0.0,6217.800
4.846,11.233,81.278,0.0,0.0,2.643,0.0,1638.400,594439.800,7755813.800,0.0,0.0,0.0,6589.600
4.615,10.330,80.440,0.220,0.0,4.396,0.0,35225.600,602860.400,7878710.200,0.0,0.0,0.0,6475.400
5.442,12.698,79.365,0.0,0.0,2.494,0.0,1638.400,606617.400,7894397.0,0.0,0.0,0.0,6422.200
6.696,15.179,74.777,0.0,0.0,3.348,0.0,1638.400,603097.200,7897371.400,0.0,0.0,0.0,6200.800
4.415,12.804,79.249,0.0,0.0,3.532,0.0,4096.0,608273.400,7993217.0,0.0,0.0,0.200,6670.800
5.169,11.011,80.674,0.0,0.0,3.146,0.0,1638.400,601415.600,7851650.200,0.0,0.0,0.0,6501.0
4.338,11.931,80.260,0.0,0.0,3.471,0.0,819.200,603422.800,7863602.200,0.0,0.0,0.0,6586.600
4.506,11.159,80.258,0.644,0.0,3.433,0.0,15564.800,605756.200,7940665.400,0.0,0.0,0.0,6743.400
4.857,11.038,79.691,0.0,0.0,4.415,0.0,1638.400,607495.800,7958201.600,0.0,0.0,0.0,6449.400
5.286,12.115,80.396,0.0,0.0,2.203,0.0,819.200,618634.800,8176649.400,0.0,0.0,0.0,6770.400
4.933,10.314,80.942,0.0,0.0,3.812,0.0,1638.400,608798.600,7980704.0,0.0,0.0,0.0,6531.800
5.531,13.717,77.434,0.0,0.0,3.319,0.0,3276.800,609345.600,7989004.0,0.0,0.0,0.0,6574.800
5.044,11.184,80.263,0.0,0.0,3.509,0.0,819.200,597705.200,7827424.600,0.0,0.0,0.0,6544.800
0.403,0.202,98.992,0.403,0.0,0.0,0.0,15564.800,6254.0,1858.0,0.0,0.0,0.0,71.200
