"Dstat 0.7.2 CSV output"
"Author:","Dag Wieers <dag@wieers.com>",,,,"URL:","http://dag.wieers.com/home-made/dstat/"
"Host:","Server3",,,,"User:","mstevan"
"Cmdline:","dstat --output /home/mstevan/logs/experiment_3.4/dstat/vs_1024-vcpr_4-wtpm_32-rep_1.csv 5 16",,,,"Date:","28 Oct 2019 19:08:29 UTC"

"total cpu usage",,,,,,"dsk/total",,"net/total",,"paging",,"system",
"usr","sys","idl","wai","hiq","siq","read","writ","recv","send","in","out","int","csw"
2.290,4.511,92.278,0.203,0.0,0.718,6021.013,615662.554,0.0,0.0,0.0,0.0,0.054,1610.354
0.805,0.604,98.592,0.0,0.0,0.0,0.0,1638.400,14648.200,77434.600,0.0,0.0,0.0,197.400
4.0,10.222,84.444,0.222,0.0,1.111,0.0,18841.600,548675.800,7303297.600,0.0,0.0,0.0,6194.800
4.966,12.190,81.490,0.0,0.0,1.354,0.0,1638.400,585151.200,7759105.800,0.0,0.0,0.0,6348.200
4.439,11.449,82.944,0.0,0.0,1.168,0.0,2457.600,615752.800,8167515.400,0.0,0.0,0.0,6728.400
5.594,11.888,81.119,0.0,0.0,1.399,0.0,819.200,618824.600,8250702.800,0.0,0.0,0.0,6610.400
5.800,12.297,79.118,0.0,0.0,2.784,0.0,1638.400,600113.600,7951797.400,0.0,0.0,0.0,6341.200
5.442,12.018,80.952,0.0,0.0,1.587,0.0,2457.600,596293.400,7942771.0,0.0,0.0,0.0,6536.800
5.787,12.500,79.167,0.463,0.0,2.083,0.0,18841.600,603302.800,7999107.200,0.0,0.0,0.0,6544.0
5.215,11.791,81.633,0.0,0.0,1.361,0.0,1638.400,590305.400,7820220.0,0.0,0.0,0.0,6489.400
4.587,12.156,81.651,0.0,0.0,1.606,0.0,819.200,613477.600,8180335.0,0.0,0.0,0.0,6605.0
5.936,14.155,78.767,0.0,0.0,1.142,0.0,1638.400,617658.200,8194253.400,0.0,0.0,0.0,6664.800
5.164,13.380,80.047,0.0,0.0,1.408,0.0,1638.400,607963.0,8058651.400,0.0,0.0,0.0,6507.0
5.634,11.737,80.751,0.0,0.0,1.878,0.0,819.200,610334.0,8136065.800,0.0,0.0,0.0,6492.200
5.950,11.670,80.778,0.458,0.0,1.144,0.0,17203.200,609286.0,8076129.400,0.0,0.0,0.0,6584.800
5.287,12.874,80.690,0.0,0.0,1.149,0.0,819.200,595132.800,7922958.0,0.0,0.0,0.0,6476.200
0.600,0.600,98.800,0.0,0.0,0.0,0.0,1638.400,6254.0,1858.0,0.0,0.0,0.0,69.0
