"Dstat 0.7.2 CSV output"
"Author:","Dag Wieers <dag@wieers.com>",,,,"URL:","http://dag.wieers.com/home-made/dstat/"
"Host:","Server3",,,,"User:","mstevan"
"Cmdline:","dstat --output /home/mstevan/logs/experiment_3.4/dstat/vs_1024-vcpr_4-wtpm_64-rep_4.csv 5 16",,,,"Date:","28 Oct 2019 19:18:27 UTC"

"total cpu usage",,,,,,"dsk/total",,"net/total",,"paging",,"system",
"usr","sys","idl","wai","hiq","siq","read","writ","recv","send","in","out","int","csw"
2.307,4.555,92.210,0.201,0.0,0.727,5971.467,610636.396,0.0,0.0,0.0,0.0,0.053,1641.336
0.202,0.808,98.990,0.0,0.0,0.0,0.0,819.200,15556.200,80011.800,0.0,0.0,0.0,225.400
3.247,9.957,83.333,0.0,0.0,3.463,0.0,1638.400,546920.800,6874517.200,0.0,0.0,0.0,6167.800
4.185,9.251,83.480,0.0,0.0,3.084,0.0,1638.400,578734.200,7534367.0,0.0,0.0,0.0,6486.0
4.069,11.991,80.728,0.0,0.0,3.212,0.0,2457.600,591747.800,7744565.800,0.0,0.0,0.0,6570.0
5.161,11.183,79.140,0.645,0.0,3.871,0.0,18841.600,592740.0,7737429.800,0.0,0.0,0.0,6689.0
3.509,10.746,80.702,0.0,0.0,5.044,0.0,819.200,585882.0,7692803.0,0.0,0.0,0.0,6488.0
3.854,11.135,81.585,0.0,0.0,3.426,0.0,3276.800,594149.0,7755460.600,0.0,0.0,0.0,6416.600
4.772,10.846,81.128,0.0,0.0,3.254,0.0,1638.400,592865.800,7699715.800,0.0,0.0,0.0,6396.800
3.778,11.333,82.0,0.0,0.0,2.889,0.0,819.200,595555.0,7813041.800,0.0,0.0,0.0,6450.800
4.526,10.129,81.897,0.0,0.0,3.448,0.0,1638.400,587768.800,7635450.0,0.0,0.0,0.0,6406.400
6.181,11.258,79.912,0.0,0.0,2.649,0.0,18841.600,590271.600,7685997.200,0.0,0.0,0.0,6501.800
4.677,9.800,81.960,0.0,0.0,3.563,0.0,819.200,594709.400,7800422.0,0.0,0.0,0.0,6508.800
4.444,11.556,81.333,0.0,0.0,2.667,0.0,1638.400,592321.800,7705349.400,0.0,0.0,0.0,6504.600
4.516,10.538,81.290,0.0,0.0,3.656,0.0,2457.600,590999.600,7727847.200,0.0,0.0,0.0,6487.600
4.329,9.957,82.468,0.0,0.0,3.247,0.0,1638.400,564546.0,7242392.600,0.0,0.0,0.0,6236.800
0.604,0.201,99.195,0.0,0.0,0.0,0.0,1638.400,6254.0,1871.200,0.0,0.0,0.0,74.400
