"Dstat 0.7.2 CSV output"
"Author:","Dag Wieers <dag@wieers.com>",,,,"URL:","http://dag.wieers.com/home-made/dstat/"
"Host:","Server3",,,,"User:","mstevan"
"Cmdline:","dstat --output /home/mstevan/logs/experiment_3.4/dstat/vs_1024-vcpr_32-wtpm_8-rep_1.csv 5 16",,,,"Date:","28 Oct 2019 19:54:00 UTC"

"total cpu usage",,,,,,"dsk/total",,"net/total",,"paging",,"system",
"usr","sys","idl","wai","hiq","siq","read","writ","recv","send","in","out","int","csw"
2.387,4.751,91.897,0.197,0.0,0.768,5800.960,593329.587,0.0,0.0,0.0,0.0,0.052,1696.616
1.004,0.402,98.594,0.0,0.0,0.0,0.0,1638.400,17366.400,142036.600,0.0,0.0,0.0,183.400
2.766,6.596,89.362,0.0,0.0,1.277,0.0,1638.400,646990.400,8625778.400,0.0,0.0,0.0,2750.800
4.086,6.237,88.387,0.0,0.0,1.290,0.0,1638.400,672515.800,8926892.400,0.0,0.0,0.0,2926.600
4.246,7.219,87.898,0.0,0.0,0.637,0.0,2457.600,677629.0,8996686.800,0.0,0.0,0.0,2716.200
4.008,7.595,87.764,0.0,0.0,0.633,0.0,819.200,679167.800,9053893.0,0.0,0.0,0.0,2802.400
3.609,7.431,87.049,0.425,0.0,1.486,0.0,22118.400,672716.400,8924757.600,0.0,0.0,0.0,2737.400
2.570,7.495,88.865,0.0,0.0,1.071,0.0,3276.800,683959.0,9084355.200,0.0,0.0,0.0,2785.400
3.830,7.872,87.234,0.0,0.0,1.064,0.0,819.200,668231.200,8900813.800,0.0,0.0,0.0,2608.400
3.441,6.452,89.032,0.0,0.0,1.075,0.0,1638.400,667392.200,8860834.600,0.0,0.0,0.0,2685.0
3.579,6.526,88.842,0.0,0.0,1.053,0.0,1638.400,622797.800,8266523.600,0.0,0.0,0.0,2334.400
3.185,6.582,89.384,0.0,0.0,0.849,0.0,819.200,648728.600,8646957.600,0.0,0.0,0.0,2403.200
3.024,7.127,88.337,0.432,0.0,1.080,0.0,15564.800,681110.0,9047894.400,0.0,0.0,0.0,2914.0
2.972,8.280,87.686,0.0,0.0,1.062,0.0,819.200,684318.200,9113860.0,0.0,0.0,0.0,2888.800
3.419,7.479,88.248,0.0,0.0,0.855,0.0,3276.800,682856.800,9059681.0,0.0,0.0,0.0,2585.400
2.814,6.494,89.827,0.0,0.0,0.866,0.0,1638.400,666781.800,8852225.400,0.0,0.0,0.0,2611.400
0.404,0.606,98.990,0.0,0.0,0.0,0.0,819.200,21322.400,242867.600,0.0,0.0,0.0,339.800
