"Dstat 0.7.2 CSV output"
"Author:","Dag Wieers <dag@wieers.com>",,,,"URL:","http://dag.wieers.com/home-made/dstat/"
"Host:","Server3",,,,"User:","mstevan"
"Cmdline:","dstat --output /home/mstevan/logs/experiment_3.4/dstat/vs_1024-vcpr_32-wtpm_32-rep_2.csv 5 16",,,,"Date:","28 Oct 2019 20:01:07 UTC"

"total cpu usage",,,,,,"dsk/total",,"net/total",,"paging",,"system",
"usr","sys","idl","wai","hiq","siq","read","writ","recv","send","in","out","int","csw"
2.391,4.761,91.883,0.197,0.0,0.769,5768.020,589985.294,0.0,0.0,0.0,0.0,0.052,1699.281
0.202,0.405,99.393,0.0,0.0,0.0,0.0,819.200,16160.0,140491.400,0.0,0.0,0.0,197.600
5.0,10.0,83.696,0.0,0.0,1.304,0.0,1638.400,936425.800,12448961.800,0.0,0.0,0.0,2588.600
3.789,8.421,85.895,0.0,0.0,1.895,0.0,1638.400,935507.0,12494873.600,0.0,0.0,0.0,2014.800
3.602,9.746,84.958,0.0,0.0,1.695,0.0,2457.600,939688.600,12501381.200,0.0,0.0,0.0,1887.600
4.274,8.120,85.684,0.0,0.0,1.923,0.0,1638.400,939317.200,12500301.600,0.0,0.0,0.0,1928.600
3.854,9.208,85.225,0.428,0.0,1.285,0.0,24576.0,938504.800,12525600.0,0.0,0.0,0.0,1888.0
5.063,8.228,84.599,0.0,0.0,2.110,0.0,3276.800,939176.200,12504543.0,0.0,0.0,0.0,1806.800
4.468,8.936,84.894,0.0,0.0,1.702,0.0,1638.400,938693.200,12497677.600,0.0,0.0,0.0,1794.400
3.797,7.806,86.709,0.0,0.0,1.688,0.0,819.200,936696.0,12500711.600,0.0,0.0,0.0,1792.400
4.661,9.958,83.898,0.0,0.0,1.483,0.0,1638.400,939804.400,12500647.800,0.0,0.0,0.0,1921.0
4.017,9.302,84.355,0.0,0.0,2.326,0.0,819.200,934410.400,12470236.200,0.0,0.0,0.0,1908.200
3.871,9.462,83.871,0.215,0.0,2.581,0.0,14745.600,940535.400,12524207.400,0.0,0.0,0.0,1898.0
4.310,9.267,84.483,0.0,0.0,1.940,0.0,2457.600,938891.800,12492964.400,0.0,0.0,0.0,1884.600
4.641,7.806,85.443,0.0,0.0,2.110,0.0,1638.400,936251.400,12501133.600,0.0,0.0,0.0,1517.0
4.283,8.779,84.797,0.0,0.0,2.141,0.0,1638.400,920145.800,12245228.200,0.0,0.0,0.0,1840.200
0.402,0.604,98.793,0.0,0.0,0.201,0.0,1638.400,13101.400,52221.800,0.0,0.0,0.0,165.400
