"Dstat 0.7.2 CSV output"
"Author:","Dag Wieers <dag@wieers.com>",,,,"URL:","http://dag.wieers.com/home-made/dstat/"
"Host:","Server3",,,,"User:","mstevan"
"Cmdline:","dstat --output /home/mstevan/logs/experiment_3.4/dstat/vs_1024-vcpr_16-wtpm_8-rep_4.csv 5 16",,,,"Date:","28 Oct 2019 19:41:12 UTC"

"total cpu usage",,,,,,"dsk/total",,"net/total",,"paging",,"system",
"usr","sys","idl","wai","hiq","siq","read","writ","recv","send","in","out","int","csw"
2.348,4.659,92.045,0.199,0.0,0.749,5861.207,599442.314,0.0,0.0,0.0,0.0,0.052,1677.655
0.602,0.201,99.197,0.0,0.0,0.0,0.0,819.200,11626.200,106328.800,0.0,0.0,0.0,134.0
3.198,7.249,89.126,0.0,0.0,0.426,0.0,2457.600,630459.800,8361378.600,0.0,0.0,0.0,2690.0
2.998,7.495,88.009,0.0,0.0,1.499,0.0,1638.400,667457.0,8859185.800,0.0,0.0,0.0,2866.200
2.586,7.328,89.655,0.0,0.0,0.431,0.0,1638.400,667328.600,8897925.200,0.0,0.0,0.0,2624.0
4.721,8.155,86.052,0.0,0.0,1.073,0.0,1638.400,683703.0,9068875.800,0.0,0.0,0.0,2694.600
4.449,7.203,87.500,0.212,0.0,0.636,0.0,25395.200,671133.800,8911460.600,0.0,0.0,0.0,2565.800
3.376,6.751,88.819,0.0,0.0,1.055,0.0,2457.600,663916.400,8850734.800,0.0,0.0,0.0,2541.600
2.796,6.667,89.462,0.0,0.0,1.075,0.0,1638.400,670290.200,8897224.200,0.0,0.0,0.0,2509.400
3.846,5.983,89.316,0.0,0.0,0.855,0.0,819.200,675346.600,9007526.400,0.0,0.0,0.0,2560.400
3.212,7.281,88.865,0.0,0.0,0.642,0.0,1638.400,670295.400,8896484.600,0.0,0.0,0.0,2655.200
3.205,6.624,89.103,0.0,0.0,1.068,0.0,1638.400,662240.200,8790280.600,0.0,0.0,0.0,2378.0
2.790,7.725,88.412,0.429,0.0,0.644,0.0,24576.0,688713.400,9185780.0,0.0,0.0,0.0,2645.800
4.025,7.627,87.924,0.0,0.0,0.424,0.0,1638.400,690147.0,9161293.400,0.0,0.0,0.0,2702.400
3.240,5.400,90.065,0.0,0.0,1.296,0.0,3276.800,637337.0,8457611.800,0.0,0.0,0.0,2446.0
3.132,8.142,88.309,0.0,0.0,0.418,0.0,819.200,638478.200,8511424.800,0.0,0.0,0.0,2314.800
0.404,0.0,99.596,0.0,0.0,0.0,0.0,1638.400,6254.0,1871.200,0.0,0.0,0.0,75.600
