"Dstat 0.7.2 CSV output"
"Author:","Dag Wieers <dag@wieers.com>",,,,"URL:","http://dag.wieers.com/home-made/dstat/"
"Host:","Server3",,,,"User:","mstevan"
"Cmdline:","dstat --output /home/mstevan/logs/experiment_3.4/dstat/vs_256-vcpr_4-wtpm_64-rep_1.csv 5 16",,,,"Date:","28 Oct 2019 16:57:21 UTC"

"total cpu usage",,,,,,"dsk/total",,"net/total",,"paging",,"system",
"usr","sys","idl","wai","hiq","siq","read","writ","recv","send","in","out","int","csw"
1.970,3.712,93.551,0.219,0.0,0.549,6759.854,690661.286,0.0,0.0,0.0,0.0,0.060,1328.185
1.205,0.402,98.193,0.0,0.0,0.201,0.0,1638.400,19966.800,32530.400,0.0,0.0,0.0,251.800
3.501,9.847,82.057,0.219,0.0,4.376,0.0,20480.0,570736.600,2272507.600,0.0,0.0,0.200,6258.600
5.857,11.280,79.176,0.0,0.0,3.688,0.0,9011.200,595637.600,2420719.200,0.0,0.0,0.0,6501.400
4.405,10.132,81.718,0.0,0.0,3.744,0.0,1638.400,617982.200,2557418.800,0.0,0.0,0.0,6809.400
4.803,11.354,80.131,0.0,0.0,3.712,0.0,2457.600,615969.600,2501531.800,0.0,0.0,0.0,6699.600
5.066,11.013,79.736,0.0,0.0,4.185,0.0,1638.400,616138.0,2515985.400,0.0,0.0,0.0,6629.400
4.086,11.613,80.0,0.0,0.0,4.301,0.0,2457.600,612284.0,2495056.800,0.0,0.0,0.0,6623.200
4.731,10.968,81.290,0.0,0.0,3.011,0.0,819.200,618731.400,2545851.200,0.0,0.0,0.0,6854.800
5.033,10.284,80.088,0.875,0.0,3.720,0.0,16384.0,625289.800,2566846.0,0.0,0.0,0.0,6906.200
3.991,11.530,80.044,0.0,0.0,4.435,0.0,2457.600,613908.400,2512078.600,0.0,0.0,0.0,6672.600
4.889,11.111,80.222,0.0,0.0,3.778,0.0,819.200,613878.600,2519900.600,0.0,0.0,0.0,6694.0
6.360,10.307,79.605,0.0,0.0,3.728,0.0,1638.400,612619.600,2508423.800,0.0,0.0,0.0,6674.600
3.341,10.468,83.296,0.0,0.0,2.895,0.0,819.200,620194.0,2551685.0,0.0,0.0,0.0,6870.400
3.548,12.860,80.488,0.0,0.0,3.104,0.0,3276.800,620288.800,2538736.200,0.0,0.0,0.0,6733.600
5.470,11.379,80.306,0.219,0.0,2.626,0.0,18022.400,614114.400,2507515.600,0.0,0.0,0.0,6639.0
0.402,0.402,99.195,0.0,0.0,0.0,0.0,819.200,3251.800,1277.400,0.0,0.0,0.0,81.800
