"Dstat 0.7.2 CSV output"
"Author:","Dag Wieers <dag@wieers.com>",,,,"URL:","http://dag.wieers.com/home-made/dstat/"
"Host:","Server3",,,,"User:","mstevan"
"Cmdline:","dstat --output /home/mstevan/logs/experiment_3.4/dstat/vs_256-vcpr_16-wtpm_32-rep_2.csv 5 16",,,,"Date:","28 Oct 2019 17:27:13 UTC"

"total cpu usage",,,,,,"dsk/total",,"net/total",,"paging",,"system",
"usr","sys","idl","wai","hiq","siq","read","writ","recv","send","in","out","int","csw"
2.035,3.868,93.293,0.215,0.0,0.589,6576.059,672006.942,0.0,0.0,0.0,0.0,0.058,1400.210
0.405,0.607,98.988,0.0,0.0,0.0,0.0,819.200,17473.800,45477.0,0.0,0.0,0.0,232.600
7.635,18.966,70.936,0.0,0.0,2.463,0.0,2457.600,930288.200,3909551.400,0.0,0.0,0.0,5194.200
8.313,17.115,72.372,0.0,0.0,2.200,0.0,819.200,965008.200,4071622.600,0.0,0.0,0.0,5355.200
8.651,21.628,65.649,0.254,0.0,3.817,0.0,22118.400,992130.400,4173086.800,0.0,0.0,0.0,4942.200
7.323,21.465,68.182,0.0,0.0,3.030,0.0,1638.400,981108.600,4121188.800,0.0,0.0,0.0,5006.400
9.620,20.253,65.823,0.0,0.0,4.304,0.0,819.200,984544.800,4154370.0,0.0,0.0,0.0,4928.800
8.354,18.987,69.367,0.0,0.0,3.291,0.0,3276.800,987726.200,4153267.800,0.0,0.0,0.0,5045.400
7.789,20.603,67.839,0.0,0.0,3.769,0.0,1638.400,987324.200,4150102.200,0.0,0.0,0.0,5027.800
8.158,19.474,68.947,0.0,0.0,3.421,0.0,819.200,986659.800,4163307.0,0.0,0.0,0.0,5007.200
8.861,19.241,69.114,0.0,0.0,2.785,0.0,15564.800,989704.800,4163437.800,0.0,0.0,0.0,4910.400
8.312,22.338,65.455,0.0,0.0,3.896,0.0,819.200,994797.600,4192302.800,0.0,0.0,0.0,4891.600
10.309,21.907,64.691,0.0,0.0,3.093,0.0,1638.400,1008325.600,4242999.600,0.0,0.0,0.0,4928.200
8.271,22.306,66.416,0.0,0.0,3.008,0.0,1638.400,979936.400,4119290.600,0.0,0.0,0.0,5048.200
7.219,20.053,68.182,0.0,0.0,4.545,0.0,2457.600,998825.600,4211500.0,0.0,0.0,0.0,5033.400
9.574,19.681,66.489,0.0,0.0,4.255,0.0,1638.400,974039.800,4092276.800,0.0,0.0,0.0,4807.400
0.402,0.402,98.394,0.602,0.0,0.201,0.0,15564.800,6254.0,1871.200,0.0,0.0,0.0,77.800
