"Dstat 0.7.2 CSV output"
"Author:","Dag Wieers <dag@wieers.com>",,,,"URL:","http://dag.wieers.com/home-made/dstat/"
"Host:","Server3",,,,"User:","mstevan"
"Cmdline:","dstat --output /home/mstevan/logs/experiment_3.4/dstat/vs_256-vcpr_16-wtpm_8-rep_4.csv 5 16",,,,"Date:","28 Oct 2019 17:24:22 UTC"

"total cpu usage",,,,,,"dsk/total",,"net/total",,"paging",,"system",
"usr","sys","idl","wai","hiq","siq","read","writ","recv","send","in","out","int","csw"
2.028,3.853,93.317,0.215,0.0,0.587,6593.130,673739.547,0.0,0.0,0.0,0.0,0.059,1395.680
0.803,0.402,97.992,0.803,0.0,0.0,0.0,18841.600,20121.400,58229.600,0.0,0.0,0.0,198.800
2.972,6.582,89.597,0.0,0.0,0.849,0.0,4096.0,646532.0,2722575.200,0.0,0.0,0.0,2700.200
2.526,7.789,89.053,0.0,0.0,0.632,0.0,1638.400,624207.400,2616132.0,0.0,0.0,0.0,2524.0
2.766,6.170,90.426,0.0,0.0,0.638,0.0,2457.600,644704.0,2713899.600,0.0,0.0,0.0,2452.800
3.617,7.872,88.298,0.0,0.0,0.213,0.0,1638.400,679646.200,2850714.800,0.0,0.0,0.0,2828.600
3.185,7.006,88.960,0.0,0.0,0.849,0.0,1638.400,672654.400,2820868.0,0.0,0.0,0.0,2555.600
2.998,5.782,90.364,0.0,0.0,0.857,0.0,2457.600,668845.400,2816281.200,0.0,0.0,0.0,2617.200
4.069,6.424,88.865,0.214,0.0,0.428,0.0,15564.800,668190.0,2801457.200,0.0,0.0,0.0,2442.600
3.419,6.410,89.530,0.0,0.0,0.641,0.0,1638.400,671583.200,2816494.0,0.0,0.0,0.0,2699.600
2.790,6.652,90.129,0.0,0.0,0.429,0.0,819.200,673112.400,2834883.200,0.0,0.0,0.0,2525.600
4.051,7.036,88.486,0.0,0.0,0.426,0.0,1638.400,676945.400,2837539.800,0.0,0.0,0.0,2660.200
3.426,6.852,89.507,0.0,0.0,0.214,0.0,1638.400,671662.200,2817060.800,0.0,0.0,0.0,2595.800
2.972,7.006,89.597,0.0,0.0,0.425,0.0,819.200,683894.200,2880728.600,0.0,0.0,0.0,2651.0
4.008,6.751,87.131,0.633,0.0,1.477,0.0,17203.200,675499.0,2832366.400,0.0,0.0,0.0,2568.200
2.985,6.397,90.405,0.0,0.0,0.213,0.0,819.200,656410.600,2764546.800,0.0,0.0,0.0,2728.800
0.604,1.610,97.787,0.0,0.0,0.0,0.0,1638.400,6254.0,1871.200,0.0,0.0,0.0,316.200
