"Dstat 0.7.2 CSV output"
"Author:","Dag Wieers <dag@wieers.com>",,,,"URL:","http://dag.wieers.com/home-made/dstat/"
"Host:","Server3",,,,"User:","mstevan"
"Cmdline:","dstat --output /home/mstevan/logs/experiment_3.4/dstat/vs_256-vcpr_4-wtpm_64-rep_4.csv 5 16",,,,"Date:","28 Oct 2019 17:01:37 UTC"

"total cpu usage",,,,,,"dsk/total",,"net/total",,"paging",,"system",
"usr","sys","idl","wai","hiq","siq","read","writ","recv","send","in","out","int","csw"
1.978,3.731,93.514,0.218,0.0,0.559,6732.971,687933.829,0.0,0.0,0.0,0.0,0.060,1344.888
0.802,0.601,98.597,0.0,0.0,0.0,0.0,819.200,13638.400,23629.800,0.0,0.0,0.0,198.800
5.184,10.151,81.210,0.0,0.0,3.456,0.0,1638.400,576229.200,2273022.400,0.0,0.0,0.0,6200.200
4.615,12.088,79.341,0.0,0.0,3.956,0.0,1638.400,607161.400,2465105.400,0.0,0.0,0.0,6719.800
4.698,10.962,80.313,0.0,0.0,4.027,0.0,1638.400,614360.800,2514984.0,0.0,0.0,0.0,6830.200
5.286,11.894,79.075,0.0,0.0,3.744,0.0,2457.600,620613.0,2546988.200,0.0,0.0,0.0,6755.200
4.091,8.864,83.864,0.0,0.0,3.182,0.0,819.200,632614.0,2598471.800,0.0,0.0,0.0,6893.0
5.044,9.430,81.579,0.219,0.0,3.728,0.0,20480.0,628394.0,2588680.0,0.0,0.0,0.0,6854.600
4.348,10.984,81.236,0.0,0.0,3.432,0.0,1638.400,630287.200,2585622.200,0.0,0.0,0.0,6794.0
4.292,11.588,80.687,0.0,0.0,3.433,0.0,819.200,622002.200,2536766.0,0.0,0.0,0.0,6908.200
5.714,11.209,79.341,0.0,0.0,3.736,0.0,1638.400,629938.600,2589940.400,0.0,0.0,0.0,6790.200
4.677,11.359,80.624,0.0,0.0,3.341,0.0,1638.400,628162.0,2572461.800,0.0,0.0,0.0,6967.400
4.555,11.714,79.610,0.0,0.0,4.121,0.0,819.200,620780.0,2539287.600,0.0,0.0,0.0,6843.800
4.730,9.685,81.306,0.450,0.0,3.829,0.0,19660.800,622500.0,2533404.600,0.0,0.0,0.200,6825.200
5.088,10.619,80.088,0.0,0.0,4.204,0.0,2457.600,623000.800,2533258.200,0.0,0.0,0.0,6715.400
4.444,12.0,80.0,0.0,0.0,3.556,0.0,819.200,613004.800,2523263.0,0.0,0.0,0.0,6621.600
0.602,0.602,98.795,0.0,0.0,0.0,0.0,1638.400,6254.0,1871.200,0.0,0.0,0.0,73.200
