"Dstat 0.7.2 CSV output"
"Author:","Dag Wieers <dag@wieers.com>",,,,"URL:","http://dag.wieers.com/home-made/dstat/"
"Host:","Server3",,,,"User:","mstevan"
"Cmdline:","dstat --output /home/mstevan/logs/experiment_3.4/dstat/vs_256-vcpr_4-wtpm_8-rep_1.csv 5 16",,,,"Date:","28 Oct 2019 16:45:58 UTC"

"total cpu usage",,,,,,"dsk/total",,"net/total",,"paging",,"system",
"usr","sys","idl","wai","hiq","siq","read","writ","recv","send","in","out","int","csw"
1.952,3.666,93.616,0.220,0.0,0.545,6832.608,698047.066,0.0,0.0,0.0,0.0,0.061,1286.363
0.803,0.602,98.594,0.0,0.0,0.0,0.0,1638.400,15244.0,47546.200,0.0,0.0,0.0,216.0
3.319,7.743,87.832,0.0,0.0,1.106,0.0,2457.600,543507.200,2274091.800,0.0,0.0,0.0,5993.400
3.922,10.240,84.967,0.0,0.0,0.871,0.0,1638.400,572867.200,2408497.400,0.0,0.0,0.0,6365.800
4.565,10.217,84.130,0.0,0.0,1.087,0.0,1638.400,601938.800,2522599.0,0.0,0.0,0.0,6662.600
4.167,9.649,84.649,0.219,0.0,1.316,0.0,26214.400,586888.0,2457913.0,0.0,0.0,0.0,6500.600
3.333,9.111,86.889,0.0,0.0,0.667,0.0,819.200,584929.400,2461263.400,0.0,0.0,0.0,6426.200
5.044,8.772,85.526,0.0,0.0,0.658,0.0,4096.0,594512.600,2490040.0,0.0,0.0,0.0,6911.0
3.905,10.846,83.731,0.0,0.0,1.518,0.0,1638.400,594600.800,2490947.400,0.0,0.0,0.0,6509.0
2.802,6.466,90.517,0.0,0.0,0.216,0.0,819.200,460159.600,1934683.600,0.0,0.0,0.0,4704.600
4.043,8.511,86.809,0.0,0.0,0.638,0.0,1638.400,503082.800,2102582.400,0.0,0.0,0.0,5292.600
2.998,6.424,89.936,0.0,0.0,0.642,0.0,8192.0,439487.600,1848142.200,0.0,0.0,0.0,4579.800
3.905,7.375,87.852,0.434,0.0,0.434,0.0,18022.400,499479.600,2088164.0,0.0,0.0,0.0,5209.200
3.063,8.096,88.184,0.0,0.0,0.656,0.0,1638.400,515406.200,2155603.400,0.0,0.0,0.0,5298.600
2.083,2.500,95.208,0.0,0.0,0.208,0.0,2457.600,236660.0,988405.400,0.0,0.0,0.200,1955.400
1.844,3.484,94.057,0.0,0.0,0.615,0.0,1638.400,202066.400,829182.800,0.0,0.0,0.0,1487.800
0.402,0.201,99.396,0.0,0.0,0.0,0.0,1638.400,6254.0,1871.200,0.0,0.0,0.0,70.400
