"Dstat 0.7.2 CSV output"
"Author:","Dag Wieers <dag@wieers.com>",,,,"URL:","http://dag.wieers.com/home-made/dstat/"
"Host:","Server3",,,,"User:","mstevan"
"Cmdline:","dstat --output /home/mstevan/logs/experiment_3.4/dstat/vs_256-vcpr_16-wtpm_8-rep_2.csv 5 16",,,,"Date:","28 Oct 2019 17:21:31 UTC"

"total cpu usage",,,,,,"dsk/total",,"net/total",,"paging",,"system",
"usr","sys","idl","wai","hiq","siq","read","writ","recv","send","in","out","int","csw"
2.026,3.848,93.324,0.215,0.0,0.587,6610.289,675482.481,0.0,0.0,0.0,0.0,0.059,1393.490
0.402,0.805,98.793,0.0,0.0,0.0,0.0,1638.400,17869.0,48643.400,0.0,0.0,0.0,156.200
1.702,6.809,90.851,0.0,0.0,0.638,0.0,819.200,619519.400,2607824.600,0.0,0.0,0.0,2624.600
4.008,8.017,87.131,0.0,0.0,0.844,0.0,2457.600,675622.0,2832945.0,0.0,0.0,0.0,3041.200
3.426,6.638,89.293,0.0,0.0,0.642,0.0,1638.400,650833.800,2727419.600,0.0,0.0,0.0,2648.0
3.037,5.423,90.239,0.434,0.0,0.868,0.0,18841.600,666457.800,2807688.400,0.0,0.0,0.0,2692.600
2.355,7.066,89.722,0.0,0.0,0.857,0.0,1638.400,665526.200,2790378.200,0.0,0.0,0.0,2676.0
4.017,6.765,87.949,0.0,0.0,1.268,0.0,3276.800,662921.0,2779543.200,0.0,0.0,0.0,2763.400
3.178,7.415,88.771,0.0,0.0,0.636,0.0,819.200,686581.600,2890954.200,0.0,0.0,0.0,2689.200
3.640,7.281,87.580,0.0,0.0,1.499,0.0,1638.400,682014.200,2859068.800,0.0,0.0,0.0,2805.200
2.141,7.709,89.293,0.0,0.0,0.857,0.0,819.200,689357.0,2904444.800,0.0,0.0,0.0,2853.800
3.376,8.228,86.920,0.844,0.0,0.633,0.0,15564.800,691808.400,2901333.800,0.0,0.0,0.0,2659.200
3.433,6.438,89.056,0.0,0.0,1.073,0.0,4915.200,675798.0,2834887.800,0.0,0.0,0.0,2598.0
3.030,5.844,90.693,0.0,0.0,0.433,0.0,1638.400,687609.600,2895662.0,0.0,0.0,0.0,2661.400
3.830,7.021,88.723,0.0,0.0,0.426,0.0,2457.600,685631.0,2876796.200,0.0,0.0,0.0,2696.600
3.419,6.624,89.316,0.0,0.0,0.641,0.0,1638.400,647968.800,2715839.200,0.0,0.0,0.0,2544.400
0.400,0.400,99.200,0.0,0.0,0.0,0.0,819.200,3167.0,1006.400,0.0,0.0,0.0,63.400
