"Dstat 0.7.2 CSV output"
"Author:","Dag Wieers <dag@wieers.com>",,,,"URL:","http://dag.wieers.com/home-made/dstat/"
"Host:","Server3",,,,"User:","mstevan"
"Cmdline:","dstat --output /home/mstevan/logs/experiment_3.4/dstat/vs_256-vcpr_4-wtpm_32-rep_1.csv 5 16",,,,"Date:","28 Oct 2019 16:51:39 UTC"

"total cpu usage",,,,,,"dsk/total",,"net/total",,"paging",,"system",
"usr","sys","idl","wai","hiq","siq","read","writ","recv","send","in","out","int","csw"
1.960,3.686,93.588,0.219,0.0,0.546,6796.034,694335.004,0.0,0.0,0.0,0.0,0.060,1306.755
0.805,0.604,98.390,0.0,0.0,0.201,0.0,1638.400,18274.0,43104.600,0.0,0.0,0.0,224.200
4.454,10.022,84.633,0.0,0.0,0.891,0.0,819.200,573474.400,2411954.800,0.0,0.0,0.0,6440.600
5.169,10.562,83.371,0.0,0.0,0.899,0.0,1638.400,599329.0,2511467.600,0.0,0.0,0.0,6464.0
4.955,11.486,82.432,0.225,0.0,0.901,0.0,19660.800,632558.200,2662767.0,0.0,0.0,0.0,6885.200
4.100,12.528,82.232,0.0,0.0,1.139,0.0,1638.400,636798.600,2669146.800,0.0,0.0,0.0,6846.200
4.805,10.984,83.066,0.0,0.0,1.144,0.0,819.200,631050.800,2649174.600,0.0,0.0,0.0,6779.600
5.275,12.156,81.193,0.0,0.0,1.376,0.0,1638.400,637430.0,2689152.200,0.0,0.0,0.0,6996.400
5.088,14.602,79.204,0.0,0.0,1.106,0.0,1638.400,637074.800,2681867.600,0.0,0.0,0.200,7053.600
5.531,12.389,80.752,0.0,0.0,1.327,0.0,1638.400,644727.600,2703469.600,0.0,0.0,0.0,6997.600
4.328,10.478,82.916,0.228,0.0,2.050,0.0,17203.200,639863.200,2694211.0,0.0,0.0,0.0,6985.600
5.568,12.472,80.624,0.0,0.0,1.336,0.0,1638.400,631600.0,2647242.0,0.0,0.0,0.0,6761.800
4.308,11.565,82.766,0.0,0.0,1.361,0.0,819.200,619203.800,2598980.200,0.0,0.0,0.0,6775.200
5.275,11.697,81.651,0.0,0.0,1.376,0.0,1638.400,626610.800,2634641.400,0.0,0.0,0.0,6831.600
4.878,11.530,81.375,0.0,0.0,2.217,0.0,3276.800,638210.400,2674358.400,0.0,0.0,0.0,6776.400
5.215,10.884,82.313,0.0,0.0,1.587,0.0,819.200,616819.600,2592846.200,0.0,0.0,0.0,6587.800
0.803,0.402,98.193,0.602,0.0,0.0,0.0,16384.0,6254.0,1871.200,0.0,0.0,0.0,76.0
