"Dstat 0.7.2 CSV output"
"Author:","Dag Wieers <dag@wieers.com>",,,,"URL:","http://dag.wieers.com/home-made/dstat/"
"Host:","Server3",,,,"User:","mstevan"
"Cmdline:","dstat --output /home/mstevan/logs/experiment_3.4/dstat/vs_256-vcpr_32-wtpm_64-rep_2.csv 5 16",,,,"Date:","28 Oct 2019 17:49:58 UTC"

"total cpu usage",,,,,,"dsk/total",,"net/total",,"paging",,"system",
"usr","sys","idl","wai","hiq","siq","read","writ","recv","send","in","out","int","csw"
2.109,4.052,93.002,0.212,0.0,0.626,6442.596,658457.955,0.0,0.0,0.0,0.0,0.057,1440.064
0.602,0.402,98.795,0.0,0.0,0.201,0.0,1638.400,23710.400,53556.200,0.0,0.0,0.0,242.600
7.519,22.306,65.915,0.0,0.0,4.261,0.0,819.200,1095959.800,4601977.800,0.0,0.0,0.0,4490.400
12.176,23.057,59.326,0.518,0.0,4.922,0.0,18841.600,1184482.800,4992528.400,0.0,0.0,0.0,4141.600
9.273,21.805,63.910,0.0,0.0,5.013,0.0,9011.200,1147155.400,4820789.400,0.0,0.0,0.0,4284.0
10.933,22.667,61.067,0.0,0.0,5.333,0.0,1638.400,1178401.200,4971146.800,0.0,0.0,0.0,4166.400
9.788,24.339,60.582,0.0,0.0,5.291,0.0,1638.400,1192939.600,5023401.400,0.0,0.0,0.0,4141.800
11.780,25.916,56.545,0.0,0.0,5.759,0.0,3276.800,1179300.0,4964678.400,0.0,0.0,0.0,3889.600
11.082,23.483,60.686,0.0,0.0,4.749,0.0,819.200,1182767.0,4988949.0,0.0,0.0,0.0,4130.400
11.200,25.067,58.667,0.0,0.0,5.067,0.0,1638.400,1191868.800,5013069.600,0.0,0.0,0.0,3908.600
9.750,24.750,59.500,0.250,0.0,5.750,0.0,14745.600,1171191.600,4941082.0,0.0,0.0,0.0,4046.600
8.995,24.868,61.111,0.0,0.0,5.026,0.0,1638.400,1199496.600,5042286.800,0.0,0.0,0.0,4185.400
9.043,22.872,63.564,0.0,0.0,4.521,0.0,1638.400,1175532.600,4950718.0,0.0,0.0,0.0,4024.200
9.290,27.596,58.197,0.0,0.0,4.918,0.0,819.200,1178463.400,4971352.0,0.0,0.0,0.0,4224.400
11.202,25.137,59.563,0.0,0.0,4.098,0.0,3276.800,1189160.400,5005531.400,0.0,0.0,0.0,3946.400
10.209,25.393,58.901,0.0,0.0,5.497,0.0,1638.400,1179432.600,4957525.400,0.0,0.0,0.0,3946.200
0.805,1.610,95.976,0.805,0.0,0.805,0.0,18022.400,90180.200,319552.400,0.0,0.0,0.0,891.400
