"Dstat 0.7.2 CSV output"
"Author:","Dag Wieers <dag@wieers.com>",,,,"URL:","http://dag.wieers.com/home-made/dstat/"
"Host:","Server3",,,,"User:","mstevan"
"Cmdline:","dstat --output /home/mstevan/logs/experiment_3.4/dstat/vs_256-vcpr_4-wtpm_8-rep_2.csv 5 16",,,,"Date:","28 Oct 2019 16:47:23 UTC"

"total cpu usage",,,,,,"dsk/total",,"net/total",,"paging",,"system",
"usr","sys","idl","wai","hiq","siq","read","writ","recv","send","in","out","int","csw"
1.954,3.670,93.611,0.220,0.0,0.545,6823.425,697116.320,0.0,0.0,0.0,0.0,0.061,1290.480
0.604,0.604,98.592,0.0,0.0,0.201,0.0,4915.200,17300.800,45806.600,0.0,0.0,0.0,204.400
3.304,9.031,86.564,0.0,0.0,1.101,0.0,1638.400,531468.800,2223530.400,0.0,0.0,0.0,6188.200
3.043,8.696,87.174,0.0,0.0,1.087,0.0,819.200,554183.200,2331976.400,0.0,0.0,0.0,6189.0
4.176,9.451,85.495,0.0,0.0,0.879,0.0,3276.800,597619.800,2503576.200,0.0,0.0,0.0,6485.800
3.778,7.778,86.667,0.0,0.0,1.778,0.0,1638.400,591644.800,2477707.800,0.0,0.0,0.0,6558.400
3.696,10.0,84.783,0.0,0.0,1.522,0.0,819.200,596981.200,2512347.800,0.0,0.0,0.0,6484.0
4.232,9.354,85.078,0.223,0.0,1.114,0.0,19660.800,598673.0,2508448.600,0.0,0.0,0.0,6556.400
3.433,10.730,84.549,0.0,0.0,1.288,0.0,819.200,580519.200,2443048.600,0.0,0.0,0.0,6305.200
4.595,8.534,85.777,0.0,0.0,1.094,0.0,1638.400,591546.600,2477535.200,0.0,0.0,0.0,6394.200
4.545,10.823,83.550,0.0,0.0,1.082,0.0,1638.400,578716.0,2421939.200,0.0,0.0,0.0,6242.200
3.803,9.172,86.130,0.0,0.0,0.895,0.0,819.200,602565.800,2538099.600,0.0,0.0,0.0,6474.400
4.185,9.251,85.242,0.0,0.0,1.322,0.0,1638.400,600534.600,2515398.800,0.0,0.0,0.0,6540.200
3.532,9.492,85.210,0.442,0.0,1.325,0.0,18022.400,600361.800,2515339.200,0.0,0.0,0.0,6556.400
2.870,9.272,86.534,0.0,0.0,1.325,0.0,2457.600,598825.200,2520602.200,0.0,0.0,0.0,6536.800
4.376,9.409,85.339,0.0,0.0,0.875,0.0,1638.400,575761.800,2411222.800,0.0,0.0,0.0,6245.200
0.401,0.401,99.198,0.0,0.0,0.0,0.0,819.200,3167.0,1006.400,0.0,0.0,0.0,63.400
