"Dstat 0.7.2 CSV output"
"Author:","Dag Wieers <dag@wieers.com>",,,,"URL:","http://dag.wieers.com/home-made/dstat/"
"Host:","Server3",,,,"User:","mstevan"
"Cmdline:","dstat --output /home/mstevan/logs/experiment_3.4/dstat/vs_512-vcpr_4-wtpm_8-rep_2.csv 5 16",,,,"Date:","28 Oct 2019 17:55:48 UTC"

"total cpu usage",,,,,,"dsk/total",,"net/total",,"paging",,"system",
"usr","sys","idl","wai","hiq","siq","read","writ","recv","send","in","out","int","csw"
2.131,4.104,92.917,0.211,0.0,0.637,6409.265,655074.485,0.0,0.0,0.0,0.0,0.057,1452.679
0.201,0.602,98.594,0.602,0.0,0.0,0.0,18022.400,11947.0,59882.800,0.0,0.0,0.0,178.0
3.501,9.190,85.777,0.0,0.0,1.532,0.0,1638.400,542748.600,3908519.600,0.0,0.0,0.0,5950.800
4.677,8.463,85.969,0.0,0.0,0.891,0.0,1638.400,590320.800,4253592.0,0.0,0.0,0.0,6500.600
5.519,8.830,84.547,0.0,0.0,1.104,0.0,2457.600,625330.800,4533001.0,0.0,0.0,0.0,6833.800
5.044,9.868,83.553,0.0,0.0,1.535,0.0,1638.400,620043.400,4471396.800,0.0,0.0,0.0,6560.0
3.974,9.713,84.327,0.0,0.0,1.987,0.0,1638.400,616659.200,4444496.400,0.0,0.0,0.0,6755.800
4.405,11.454,83.480,0.0,0.0,0.661,0.0,2457.600,616698.0,4466039.200,0.0,0.0,0.0,6741.0
6.054,8.072,84.305,0.448,0.0,1.121,0.0,18841.600,622223.0,4487872.800,0.0,0.0,0.0,6604.200
4.260,8.296,85.874,0.0,0.0,1.570,0.0,819.200,629883.400,4564633.600,0.0,0.0,0.0,6813.0
3.563,9.577,86.192,0.0,0.0,0.668,0.0,1638.400,625411.400,4510746.600,0.0,0.0,0.0,6766.800
4.867,9.071,84.735,0.0,0.0,1.327,0.0,1638.400,620902.200,4477580.600,0.0,0.0,0.0,6771.200
3.077,10.549,85.495,0.0,0.0,0.879,0.0,819.200,615288.0,4459967.400,0.0,0.0,0.0,6637.0
3.744,10.573,84.581,0.0,0.0,1.101,0.0,1638.400,622234.400,4486784.400,0.0,0.0,0.0,6607.400
4.474,9.396,85.235,0.224,0.0,0.671,0.0,17203.200,621115.0,4479844.800,0.0,0.0,0.0,6600.0
3.297,9.451,86.154,0.0,0.0,1.099,0.0,819.200,595392.800,4312981.200,0.0,0.0,0.0,6432.600
0.602,0.402,98.996,0.0,0.0,0.0,0.0,1638.400,6254.0,1871.200,0.0,0.0,0.0,72.0
