"Dstat 0.7.2 CSV output"
"Author:","Dag Wieers <dag@wieers.com>",,,,"URL:","http://dag.wieers.com/home-made/dstat/"
"Host:","Server3",,,,"User:","mstevan"
"Cmdline:","dstat --output /home/mstevan/logs/experiment_3.4/dstat/vs_512-vcpr_4-wtpm_32-rep_2.csv 5 16",,,,"Date:","28 Oct 2019 18:01:30 UTC"

"total cpu usage",,,,,,"dsk/total",,"net/total",,"paging",,"system",
"usr","sys","idl","wai","hiq","siq","read","writ","recv","send","in","out","int","csw"
2.139,4.123,92.889,0.210,0.0,0.639,6377.081,651808.012,0.0,0.0,0.0,0.0,0.057,1472.404
0.604,0.604,98.793,0.0,0.0,0.0,0.0,1638.400,14079.600,40339.400,0.0,0.0,0.0,185.0
4.444,8.222,86.0,0.0,0.0,1.333,0.0,819.200,541884.400,3917087.200,0.0,0.0,0.0,6212.800
4.846,10.793,83.040,0.0,0.0,1.322,0.0,1638.400,592993.800,4271766.600,0.0,0.0,0.0,6697.600
5.345,12.249,81.514,0.0,0.0,0.891,0.0,2457.600,621895.600,4485457.400,0.0,0.0,0.0,6655.200
4.911,9.821,84.152,0.0,0.0,1.116,0.0,1638.400,607239.600,4399319.0,0.0,0.0,0.0,6745.0
3.991,12.417,82.040,0.0,0.0,1.552,0.0,1638.400,611687.0,4408553.800,0.0,0.0,0.0,6738.600
5.791,12.249,79.955,0.445,0.0,1.559,0.0,31129.600,621245.800,4476780.0,0.0,0.0,0.0,6837.200
3.030,12.121,82.900,0.0,0.0,1.948,0.0,819.200,595233.0,4306545.400,0.0,0.0,0.0,6784.200
4.709,10.987,82.960,0.0,0.0,1.345,0.0,1638.400,604050.400,4352791.800,0.0,0.0,0.0,6687.800
4.525,11.538,82.805,0.0,0.0,1.131,0.0,819.200,619099.200,4474198.800,0.0,0.0,0.0,6800.600
4.072,11.312,83.032,0.0,0.0,1.584,0.0,1638.400,615537.200,4447251.200,0.0,0.0,0.0,6775.400
5.442,12.698,80.952,0.0,0.0,0.907,0.0,1638.400,602685.200,4345718.600,0.0,0.0,0.0,6591.200
4.814,12.473,80.963,0.219,0.0,1.532,0.0,14745.600,617864.400,4476535.0,0.0,0.0,0.0,6833.0
5.122,9.800,84.187,0.0,0.0,0.891,0.0,3276.800,613640.200,4425828.400,0.0,0.0,0.0,6845.800
5.568,10.245,82.851,0.0,0.0,1.336,0.0,1638.400,592433.200,4263143.0,0.0,0.0,0.0,6405.600
0.601,0.200,99.198,0.0,0.0,0.0,0.0,819.200,3180.200,1006.400,0.0,0.0,0.0,63.800
