"Dstat 0.7.2 CSV output"
"Author:","Dag Wieers <dag@wieers.com>",,,,"URL:","http://dag.wieers.com/home-made/dstat/"
"Host:","Server3",,,,"User:","mstevan"
"Cmdline:","dstat --output /home/mstevan/logs/experiment_3.4/dstat/vs_512-vcpr_32-wtpm_64-rep_1.csv 5 16",,,,"Date:","28 Oct 2019 18:56:58 UTC"

"total cpu usage",,,,,,"dsk/total",,"net/total",,"paging",,"system",
"usr","sys","idl","wai","hiq","siq","read","writ","recv","send","in","out","int","csw"
2.260,4.434,92.399,0.204,0.0,0.703,6079.381,621588.625,0.0,0.0,0.0,0.0,0.054,1583.787
0.604,0.604,98.592,0.0,0.0,0.201,0.0,1638.400,19022.0,56865.200,0.0,0.0,0.0,226.0
9.487,24.872,60.769,0.0,0.0,4.872,0.0,2457.600,1115209.200,8055051.800,0.0,0.0,0.0,4350.400
8.527,25.323,60.465,0.0,0.0,5.685,0.0,819.200,1176553.0,8554509.400,0.0,0.0,0.0,4022.400
10.026,20.823,64.010,0.0,0.0,5.141,0.0,2457.600,1152103.600,8329770.0,0.0,0.0,0.0,4231.400
10.317,23.545,61.905,0.0,0.0,4.233,0.0,819.200,1146791.800,8305712.0,0.0,0.0,0.0,4204.200
9.686,24.084,59.424,0.524,0.0,6.283,0.0,9011.200,1147793.200,8333588.600,0.0,0.0,0.0,4049.600
8.838,24.242,61.111,0.0,0.0,5.808,0.0,15564.800,1150902.800,8341133.800,0.0,0.0,0.0,4153.200
8.399,21.522,64.829,0.0,0.0,5.249,0.0,819.200,1165170.600,8452549.0,0.0,0.0,0.0,4182.600
8.672,27.371,58.266,0.0,0.0,5.691,0.0,1638.400,1169079.0,8465469.400,0.0,0.0,0.0,3859.800
10.554,22.691,61.741,0.0,0.0,5.013,0.0,1638.400,1159021.400,8395443.600,0.0,0.0,0.0,4068.0
7.833,26.371,61.358,0.0,0.0,4.439,0.0,819.200,1185294.600,8607693.400,0.0,0.0,0.0,3970.400
10.406,22.335,61.168,0.0,0.0,6.091,0.0,1638.400,1183120.0,8579242.800,0.0,0.0,0.0,4173.0
9.974,21.995,63.171,0.256,0.0,4.604,0.0,14745.600,1188353.200,8628306.800,0.0,0.0,0.0,3934.600
9.893,24.599,60.160,0.0,0.0,5.348,0.0,3276.800,1184346.0,8573959.200,0.0,0.0,0.0,4005.400
10.622,24.352,60.363,0.0,0.0,4.663,0.0,1638.400,1154698.200,8359980.0,0.0,0.0,0.0,3796.400
0.0,0.202,99.597,0.0,0.0,0.202,0.0,819.200,3167.0,1006.400,0.0,0.0,0.0,68.200
