"Dstat 0.7.2 CSV output"
"Author:","Dag Wieers <dag@wieers.com>",,,,"URL:","http://dag.wieers.com/home-made/dstat/"
"Host:","Server3",,,,"User:","mstevan"
"Cmdline:","dstat --output /home/mstevan/logs/experiment_3.4/dstat/vs_512-vcpr_4-wtpm_8-rep_1.csv 5 16",,,,"Date:","28 Oct 2019 17:54:23 UTC"

"total cpu usage",,,,,,"dsk/total",,"net/total",,"paging",,"system",
"usr","sys","idl","wai","hiq","siq","read","writ","recv","send","in","out","int","csw"
2.129,4.099,92.923,0.211,0.0,0.637,6417.363,655896.653,0.0,0.0,0.0,0.0,0.057,1447.750
0.803,0.602,98.594,0.0,0.0,0.0,0.0,1638.400,11539.600,35696.400,0.0,0.0,0.0,150.0
3.043,9.565,86.522,0.0,0.0,0.870,0.0,1638.400,538841.600,3901445.400,0.0,0.0,0.200,6114.200
4.536,9.503,85.313,0.0,0.0,0.648,0.0,2457.600,562997.200,4053915.600,0.0,0.0,0.0,6198.600
3.947,9.868,85.088,0.0,0.0,1.096,0.0,819.200,595984.800,4318085.400,0.0,0.0,0.0,6488.400
4.176,9.890,85.055,0.0,0.0,0.879,0.0,3276.800,608494.200,4388221.400,0.0,0.0,0.0,6545.200
4.585,10.262,83.406,0.437,0.0,1.310,0.0,22937.600,616018.600,4438232.600,0.0,0.0,0.0,6690.400
4.425,8.407,86.283,0.0,0.0,0.885,0.0,3276.800,611914.0,4435109.0,0.0,0.0,0.0,6503.600
5.411,10.606,83.117,0.0,0.0,0.866,0.0,1638.400,625506.600,4510698.200,0.0,0.0,0.0,6582.0
3.769,10.200,85.144,0.0,0.0,0.887,0.0,1638.400,599481.800,4322697.600,0.0,0.0,0.0,6474.600
4.204,8.628,86.283,0.0,0.0,0.885,0.0,819.200,606167.0,4391953.600,0.0,0.0,0.0,6665.200
3.803,9.172,85.682,0.0,0.0,1.342,0.0,1638.400,616055.400,4443128.800,0.0,0.0,0.0,6633.600
3.744,10.132,85.022,0.0,0.0,1.101,0.0,819.200,601649.800,4354360.400,0.0,0.0,0.0,6529.0
4.835,9.890,84.615,0.0,0.0,0.659,0.0,23756.800,609370.200,4397718.800,0.0,0.0,0.0,6621.800
4.018,9.375,85.714,0.0,0.0,0.893,0.0,3276.800,607043.800,4376101.200,0.0,0.0,0.0,6575.400
3.939,9.190,85.996,0.0,0.0,0.875,0.0,819.200,595423.0,4311558.800,0.0,0.0,0.0,6442.0
0.602,0.201,99.197,0.0,0.0,0.0,0.0,1638.400,6254.0,1871.200,0.0,0.0,0.0,71.200
