"Dstat 0.7.2 CSV output"
"Author:","Dag Wieers <dag@wieers.com>",,,,"URL:","http://dag.wieers.com/home-made/dstat/"
"Host:","Server3",,,,"User:","mstevan"
"Cmdline:","dstat --output /home/mstevan/logs/experiment_3.4/dstat/vs_512-vcpr_8-wtpm_32-rep_1.csv 5 16",,,,"Date:","28 Oct 2019 18:17:08 UTC"

"total cpu usage",,,,,,"dsk/total",,"net/total",,"paging",,"system",
"usr","sys","idl","wai","hiq","siq","read","writ","recv","send","in","out","int","csw"
2.159,4.174,92.809,0.208,0.0,0.650,6290.204,642990.461,0.0,0.0,0.0,0.0,0.056,1512.456
0.604,0.604,98.793,0.0,0.0,0.0,0.0,1638.400,22856.200,104246.200,0.0,0.0,0.0,277.400
5.882,17.157,75.490,0.0,0.0,1.471,0.0,24576.0,723599.400,5221823.600,0.0,0.0,0.0,5996.200
6.599,19.797,70.558,0.0,0.0,3.046,0.0,9830.400,764571.800,5541067.400,0.0,0.0,0.0,5763.600
8.543,18.090,70.854,0.0,0.0,2.513,0.0,3276.800,775234.200,5604785.200,0.0,0.0,0.0,5640.800
8.808,18.135,70.725,0.0,0.0,2.332,0.0,2457.600,771212.600,5591687.600,0.0,0.0,0.0,5658.400
7.444,18.362,71.464,0.0,0.0,2.730,0.0,1638.400,769316.0,5559807.800,0.0,0.0,0.0,5838.200
7.634,19.338,70.229,0.0,0.0,2.799,0.0,3276.800,775773.600,5603624.200,0.0,0.0,0.0,5644.0
7.342,19.747,70.380,0.0,0.0,2.532,0.0,819.200,769471.600,5578527.600,0.0,0.0,0.0,5679.800
8.750,18.500,69.0,0.250,0.0,3.500,0.0,15564.800,786772.400,5682089.800,0.0,0.0,0.0,5775.800
7.969,18.509,71.979,0.0,0.0,1.542,0.0,1638.400,774900.600,5600540.800,0.0,0.0,0.0,5676.200
6.753,19.740,71.688,0.0,0.0,1.818,0.0,819.200,775919.200,5631006.400,0.0,0.0,0.0,5556.200
8.081,19.697,69.192,0.0,0.0,3.030,0.0,1638.400,765416.200,5525477.600,0.0,0.0,0.0,5645.400
8.462,19.744,69.744,0.0,0.0,2.051,0.0,819.200,779023.600,5655528.400,0.0,0.0,0.0,5765.400
9.383,19.753,67.901,0.0,0.0,2.963,0.0,2457.600,782236.400,5648581.600,0.0,0.0,0.0,5667.600
8.616,18.538,69.191,0.783,0.0,2.872,0.0,16384.0,750333.800,5415430.600,0.0,0.0,0.0,5508.800
0.400,0.600,99.0,0.0,0.0,0.0,0.0,819.200,3167.0,1006.400,0.0,0.0,0.0,73.0
