"Dstat 0.7.2 CSV output"
"Author:","Dag Wieers <dag@wieers.com>",,,,"URL:","http://dag.wieers.com/home-made/dstat/"
"Host:","Server3",,,,"User:","mstevan"
"Cmdline:","dstat --output /home/mstevan/logs/experiment_3.4/dstat/vs_512-vcpr_32-wtpm_32-rep_4.csv 5 16",,,,"Date:","28 Oct 2019 18:55:33 UTC"

"total cpu usage",,,,,,"dsk/total",,"net/total",,"paging",,"system",
"usr","sys","idl","wai","hiq","siq","read","writ","recv","send","in","out","int","csw"
2.255,4.421,92.419,0.204,0.0,0.701,6086.665,622327.751,0.0,0.0,0.0,0.0,0.054,1581.897
0.402,0.602,98.996,0.0,0.0,0.0,0.0,819.200,16872.800,81996.800,0.0,0.0,0.0,208.600
6.888,21.429,68.367,0.0,0.0,3.316,0.0,1638.400,1114636.0,8070577.0,0.0,0.0,0.0,4081.200
9.207,21.995,64.450,0.0,0.0,4.348,0.0,2457.600,1177666.0,8531653.200,0.0,0.0,0.0,3775.0
7.125,22.646,67.430,0.0,0.0,2.799,0.0,1638.400,1150151.0,8351785.200,0.0,0.0,0.0,3891.0
9.824,22.166,64.987,0.252,0.0,2.771,0.0,18841.600,1170037.200,8476314.0,0.0,0.0,0.0,3934.600
8.0,18.500,69.500,0.0,0.0,4.0,0.0,819.200,1159205.200,8421057.800,0.0,0.0,0.0,3807.600
9.726,23.940,62.594,0.0,0.0,3.741,0.0,3276.800,1174402.600,8500143.600,0.0,0.0,0.0,3786.600
10.230,22.762,62.916,0.0,0.0,4.092,0.0,1638.400,1181824.200,8563193.0,0.0,0.0,0.0,3667.800
8.291,24.623,63.568,0.0,0.0,3.518,0.0,819.200,1183605.0,8588879.800,0.0,0.0,0.0,3624.400
10.050,22.362,63.819,0.0,0.0,3.769,0.0,1638.400,1164581.600,8443598.400,0.0,0.0,0.0,3914.600
10.553,21.608,64.070,0.251,0.0,3.518,0.0,16384.0,1174869.0,8501656.0,0.0,0.0,0.0,3780.800
9.645,21.827,63.198,0.0,0.0,5.330,0.0,4915.200,1188069.600,8635304.200,0.0,0.0,0.0,3685.200
7.921,20.050,69.059,0.0,0.0,2.970,0.0,2457.600,1161462.800,8410736.400,0.0,0.0,0.0,3791.400
7.960,21.642,66.915,0.0,0.0,3.483,0.0,2457.600,1188672.200,8632231.600,0.0,0.0,0.0,3715.200
7.772,21.503,66.580,0.0,0.0,4.145,0.0,1638.400,1157331.200,8389065.0,0.0,0.0,0.200,3476.800
0.811,1.014,97.769,0.0,0.0,0.406,0.0,1638.400,54229.200,340425.400,0.0,0.0,0.0,714.800
