"Dstat 0.7.2 CSV output"
"Author:","Dag Wieers <dag@wieers.com>",,,,"URL:","http://dag.wieers.com/home-made/dstat/"
"Host:","Server3",,,,"User:","mstevan"
"Cmdline:","dstat --output /home/mstevan/logs/experiment_3.4/dstat/vs_512-vcpr_32-wtpm_64-rep_4.csv 5 16",,,,"Date:","28 Oct 2019 19:01:14 UTC"

"total cpu usage",,,,,,"dsk/total",,"net/total",,"paging",,"system",
"usr","sys","idl","wai","hiq","siq","read","writ","recv","send","in","out","int","csw"
2.278,4.478,92.328,0.203,0.0,0.713,6057.631,619379.817,0.0,0.0,0.0,0.0,0.054,1590.264
0.803,0.402,98.594,0.0,0.0,0.201,0.0,1638.400,20982.400,67901.800,0.0,0.0,0.0,242.800
7.828,19.949,67.677,0.0,0.0,4.545,0.0,1638.400,1125034.600,8148535.400,0.0,0.0,0.0,4494.600
11.549,24.409,58.530,0.262,0.0,5.249,0.0,18841.600,1181689.600,8562464.600,0.0,0.0,0.0,4036.0
9.726,20.948,63.342,0.0,0.0,5.985,0.0,9011.200,1150566.600,8323233.200,0.0,0.0,0.0,4282.400
8.651,24.936,61.578,0.0,0.0,4.835,0.0,819.200,1157353.800,8407873.400,0.0,0.0,0.0,4240.600
9.845,23.834,61.658,0.0,0.0,4.663,0.0,1638.400,1150435.0,8328696.800,0.0,0.0,0.0,4217.400
8.673,22.704,62.755,0.0,0.0,5.867,0.0,2457.600,1144027.200,8309479.0,0.0,0.0,0.0,4229.200
10.104,22.280,61.658,0.0,0.0,5.959,0.0,1638.400,1152978.200,8347058.600,0.0,0.0,0.0,4168.200
9.763,26.121,59.894,0.0,0.0,4.222,0.0,1638.400,1174175.400,8494601.400,0.0,0.0,0.200,4248.400
8.122,23.604,62.183,0.508,0.0,5.584,0.0,14745.600,1164622.600,8459085.600,0.0,0.0,0.0,4188.200
9.474,25.789,59.737,0.0,0.0,5.0,0.0,1638.400,1172470.800,8495098.0,0.0,0.0,0.0,3988.400
10.152,23.350,62.183,0.0,0.0,4.315,0.0,1638.400,1169191.0,8470129.600,0.0,0.0,0.0,3898.0
9.737,25.789,59.474,0.0,0.0,5.0,0.0,819.200,1188857.200,8626990.600,0.0,0.0,0.0,3903.600
11.825,22.879,59.640,0.0,0.0,5.656,0.0,3276.800,1180536.0,8562466.800,0.0,0.0,0.0,4151.0
10.050,22.613,61.558,0.0,0.0,5.779,0.0,819.200,1147903.600,8320386.400,0.0,0.0,0.0,4087.600
0.602,0.402,97.992,1.004,0.0,0.0,0.0,14745.600,6254.0,1858.0,0.0,0.0,0.0,78.0
