"Dstat 0.7.2 CSV output"
"Author:","Dag Wieers <dag@wieers.com>",,,,"URL:","http://dag.wieers.com/home-made/dstat/"
"Host:","Server3",,,,"User:","mstevan"
"Cmdline:","dstat --output /home/mstevan/logs/experiment_3.4/dstat/vs_512-vcpr_8-wtpm_8-rep_4.csv 5 16",,,,"Date:","28 Oct 2019 18:15:43 UTC"

"total cpu usage",,,,,,"dsk/total",,"net/total",,"paging",,"system",
"usr","sys","idl","wai","hiq","siq","read","writ","recv","send","in","out","int","csw"
2.158,4.172,92.812,0.209,0.0,0.650,6298.006,643782.456,0.0,0.0,0.0,0.0,0.056,1511.552
1.006,0.402,98.189,0.402,0.0,0.0,0.0,18841.600,11438.800,34963.200,0.0,0.0,0.0,129.600
3.212,6.210,90.150,0.0,0.0,0.428,0.0,2457.600,633617.600,4569434.800,0.0,0.0,0.0,2717.400
3.354,6.918,89.099,0.0,0.0,0.629,0.0,819.200,627481.800,4545816.800,0.0,0.0,0.0,2413.0
3.397,6.369,89.384,0.0,0.0,0.849,0.0,2457.600,658984.0,4755544.800,0.0,0.0,0.0,2464.600
2.998,7.066,89.293,0.0,0.0,0.642,0.0,1638.400,695269.200,5017613.800,0.0,0.0,0.0,2696.0
3.426,5.353,90.578,0.0,0.0,0.642,0.0,819.200,679840.200,4927578.200,0.0,0.0,0.0,2638.600
2.146,6.652,90.129,0.215,0.0,0.858,0.0,17203.200,661677.800,4774912.200,0.0,0.0,0.0,2542.600
4.034,7.219,87.898,0.0,0.0,0.849,0.0,4096.0,676974.600,4905859.400,0.0,0.0,0.0,2731.600
3.632,6.838,88.034,0.0,0.0,1.496,0.0,1638.400,709709.600,5123876.600,0.0,0.0,0.0,2978.200
4.219,7.173,87.764,0.0,0.0,0.844,0.0,1638.400,686512.200,4950170.0,0.0,0.0,0.0,2701.200
2.778,7.051,89.530,0.0,0.0,0.641,0.0,819.200,697463.800,5057982.400,0.0,0.0,0.0,2703.800
2.972,7.431,88.747,0.0,0.0,0.849,0.0,1638.400,679964.800,4906640.0,0.0,0.0,0.0,2579.400
3.617,7.660,87.447,0.426,0.0,0.851,0.0,15564.800,679062.200,4903379.0,0.0,0.0,0.0,2941.800
2.954,8.017,88.186,0.0,0.0,0.844,0.0,2457.600,696979.600,5052108.0,0.0,0.0,0.0,2919.600
3.640,7.066,88.865,0.0,0.0,0.428,0.0,1638.400,673502.400,4861172.800,0.0,0.0,0.0,2938.800
0.802,0.401,98.798,0.0,0.0,0.0,0.0,1638.400,6335.200,1911.600,0.0,0.0,0.0,89.600
