"Dstat 0.7.2 CSV output"
"Author:","Dag Wieers <dag@wieers.com>",,,,"URL:","http://dag.wieers.com/home-made/dstat/"
"Host:","Server3",,,,"User:","mstevan"
"Cmdline:","dstat --output /home/mstevan/logs/experiment_3.4/dstat/vs_512-vcpr_8-wtpm_64-rep_3.csv 5 16",,,,"Date:","28 Oct 2019 18:25:40 UTC"

"total cpu usage",,,,,,"dsk/total",,"net/total",,"paging",,"system",
"usr","sys","idl","wai","hiq","siq","read","writ","recv","send","in","out","int","csw"
2.184,4.240,92.705,0.207,0.0,0.663,6243.808,638280.656,0.0,0.0,0.0,0.0,0.056,1537.017
0.806,0.605,98.387,0.0,0.0,0.202,0.0,1638.400,21929.0,75489.400,0.0,0.0,0.0,235.200
5.467,14.123,76.082,0.0,0.0,4.328,0.0,819.200,716849.200,5100409.600,0.0,0.0,0.0,6107.0
7.789,16.834,69.598,0.0,0.0,5.779,0.0,1638.400,753097.0,5392757.800,0.0,0.0,0.0,5733.0
8.029,18.248,67.883,0.0,0.0,5.839,0.0,2457.600,781971.600,5642752.600,0.0,0.0,0.0,5822.200
7.654,20.741,65.926,0.247,0.0,5.432,0.0,22118.400,774358.600,5562642.800,0.0,0.0,0.0,5703.200
8.142,19.084,68.193,0.0,0.0,4.580,0.0,1638.400,765971.800,5500673.200,0.0,0.0,0.0,5723.0
7.407,19.259,64.444,0.0,0.0,8.889,0.0,2457.600,769831.0,5551322.400,0.0,0.0,0.0,5690.600
7.371,18.182,67.568,0.0,0.0,6.880,0.0,1638.400,776142.600,5570631.600,0.0,0.0,0.0,5902.600
7.940,18.362,67.742,0.0,0.0,5.955,0.0,819.200,776458.400,5567339.200,0.0,0.0,0.0,5801.600
8.845,18.182,67.076,0.0,0.0,5.897,0.0,1638.400,779187.400,5612578.600,0.0,0.0,0.0,5740.600
9.489,19.465,64.720,0.730,0.0,5.596,0.0,16384.0,778429.200,5594399.400,0.0,0.0,0.0,5701.400
8.020,20.050,66.416,0.0,0.0,5.514,0.0,819.200,771987.0,5565592.400,0.0,0.0,0.0,5972.800
7.882,19.704,65.764,0.0,0.0,6.650,0.0,1638.400,768433.400,5505749.800,0.0,0.0,0.0,5819.200
8.929,19.898,64.031,0.0,0.0,7.143,0.0,2457.600,788575.600,5668112.800,0.0,0.0,0.0,5778.0
6.585,16.829,71.707,0.0,0.0,4.878,0.0,1638.400,750253.200,5406129.200,0.0,0.0,0.0,5850.0
0.602,0.402,98.996,0.0,0.0,0.0,0.0,1638.400,6254.0,1871.200,0.0,0.0,0.0,73.200
