"Dstat 0.7.2 CSV output"
"Author:","Dag Wieers <dag@wieers.com>",,,,"URL:","http://dag.wieers.com/home-made/dstat/"
"Host:","Server3",,,,"User:","mstevan"
"Cmdline:","dstat --output /home/mstevan/logs/experiment_3.4/dstat/vs_512-vcpr_4-wtpm_8-rep_4.csv 5 16",,,,"Date:","28 Oct 2019 17:58:39 UTC"

"total cpu usage",,,,,,"dsk/total",,"net/total",,"paging",,"system",
"usr","sys","idl","wai","hiq","siq","read","writ","recv","send","in","out","int","csw"
2.135,4.113,92.904,0.211,0.0,0.638,6393.131,653436.902,0.0,0.0,0.0,0.0,0.057,1462.652
0.803,0.602,98.594,0.0,0.0,0.0,0.0,1638.400,15551.600,64820.0,0.0,0.0,0.0,206.800
3.097,6.195,89.602,0.0,0.0,1.106,0.0,2457.600,499580.400,3594087.200,0.0,0.0,0.0,5506.400
3.896,8.442,87.229,0.0,0.0,0.433,0.0,819.200,541738.400,3922034.600,0.0,0.0,0.0,5890.400
4.130,9.348,85.0,0.435,0.0,1.087,0.0,19660.800,573614.400,4132349.400,0.0,0.0,0.0,6068.600
3.728,10.307,85.088,0.0,0.0,0.877,0.0,1638.400,580165.200,4181855.0,0.0,0.0,0.0,6314.600
3.268,8.932,86.710,0.0,0.0,1.089,0.0,819.200,572820.600,4148195.400,0.0,0.0,0.0,6031.400
3.753,10.375,85.430,0.0,0.0,0.442,0.0,3276.800,584543.400,4210744.800,0.0,0.0,0.0,6262.800
3.769,9.313,85.809,0.0,0.0,1.109,0.0,1638.400,586820.200,4229709.200,0.0,0.0,0.0,6437.200
4.585,9.389,84.498,0.0,0.0,1.528,0.0,819.200,576841.400,4176679.0,0.0,0.0,0.0,6278.400
4.506,10.515,84.335,0.0,0.0,0.644,0.0,15564.800,590756.600,4259164.800,0.0,0.0,0.0,6338.400
3.956,9.670,85.495,0.0,0.0,0.879,0.0,4096.0,581761.0,4213929.400,0.0,0.0,0.0,6428.0
4.185,8.811,85.903,0.0,0.0,1.101,0.0,1638.400,581515.400,4192058.800,0.0,0.0,0.0,6413.600
4.018,8.036,86.830,0.0,0.0,1.116,0.0,1638.400,582911.800,4200430.200,0.0,0.0,0.200,6346.800
3.753,8.830,86.313,0.0,0.0,1.104,0.0,2457.600,581096.400,4209276.800,0.0,0.0,0.0,6470.400
3.268,10.022,85.839,0.0,0.0,0.871,0.0,1638.400,560506.600,4038099.800,0.0,0.0,0.0,6135.600
1.0,0.400,97.600,1.0,0.0,0.0,0.0,15564.800,6338.400,2000.400,0.0,0.0,0.0,71.600
