"Dstat 0.7.2 CSV output"
"Author:","Dag Wieers <dag@wieers.com>",,,,"URL:","http://dag.wieers.com/home-made/dstat/"
"Host:","Server3",,,,"User:","mstevan"
"Cmdline:","dstat --output /home/mstevan/logs/experiment_3.4/dstat/vs_512-vcpr_8-wtpm_32-rep_3.csv 5 16",,,,"Date:","28 Oct 2019 18:19:59 UTC"

"total cpu usage",,,,,,"dsk/total",,"net/total",,"paging",,"system",
"usr","sys","idl","wai","hiq","siq","read","writ","recv","send","in","out","int","csw"
2.167,4.195,92.777,0.208,0.0,0.653,6274.663,641413.849,0.0,0.0,0.0,0.0,0.056,1520.598
0.402,0.803,98.795,0.0,0.0,0.0,0.0,819.200,19248.800,99349.200,0.0,0.0,0.0,266.400
6.326,16.302,75.426,0.0,0.0,1.946,0.0,1638.400,711003.400,5132875.800,0.0,0.0,0.0,5941.600
7.654,18.272,72.099,0.0,0.0,1.975,0.0,1638.400,745656.600,5385492.400,0.0,0.0,0.0,6012.400
8.040,17.839,71.608,0.0,0.0,2.513,0.0,2457.600,756542.600,5486234.600,0.0,0.0,0.0,5848.200
6.767,17.043,73.434,0.251,0.0,2.506,0.0,18841.600,765499.600,5526073.800,0.0,0.0,0.0,6202.0
7.160,17.531,73.333,0.0,0.0,1.975,0.0,4915.200,769075.800,5555423.400,0.0,0.0,0.200,6145.800
6.083,14.355,76.886,0.0,0.0,2.676,0.0,2457.600,764884.800,5549744.0,0.0,0.0,0.0,6347.800
6.634,19.410,70.762,0.0,0.0,3.194,0.0,1638.400,768154.800,5545218.600,0.0,0.0,0.0,5851.0
7.305,20.655,70.025,0.0,0.0,2.015,0.0,819.200,767557.200,5568774.0,0.0,0.0,0.0,5907.200
8.312,17.884,71.285,0.0,0.0,2.519,0.0,1638.400,768412.200,5548526.600,0.0,0.0,0.0,5728.800
9.184,16.837,71.173,0.255,0.0,2.551,0.0,15564.800,772950.600,5587152.200,0.0,0.0,0.0,5771.400
7.969,19.794,69.152,0.0,0.0,3.085,0.0,819.200,771001.800,5588451.400,0.0,0.0,0.0,5847.0
7.071,17.424,72.475,0.0,0.0,3.030,0.0,1638.400,757489.400,5473607.200,0.0,0.0,0.0,5767.200
8.271,21.053,67.669,0.0,0.0,3.008,0.0,3276.800,774365.400,5595357.200,0.0,0.0,0.0,5618.600
9.535,15.403,73.105,0.0,0.0,1.956,0.0,819.200,738504.0,5353130.800,0.0,0.0,0.0,5570.200
0.803,0.201,98.996,0.0,0.0,0.0,0.0,1638.400,6254.0,1871.200,0.0,0.0,0.0,69.600
