"Dstat 0.7.2 CSV output"
"Author:","Dag Wieers <dag@wieers.com>",,,,"URL:","http://dag.wieers.com/home-made/dstat/"
"Host:","Server3",,,,"User:","mstevan"
"Cmdline:","dstat --output /home/mstevan/logs/experiment_3.4/dstat/vs_512-vcpr_16-wtpm_64-rep_2.csv 5 16",,,,"Date:","28 Oct 2019 18:41:19 UTC"

"total cpu usage",,,,,,"dsk/total",,"net/total",,"paging",,"system",
"usr","sys","idl","wai","hiq","siq","read","writ","recv","send","in","out","int","csw"
2.221,4.333,92.557,0.206,0.0,0.683,6160.500,629823.374,0.0,0.0,0.0,0.0,0.055,1563.800
0.803,0.402,98.795,0.0,0.0,0.0,0.0,819.200,22823.800,94872.200,0.0,0.0,0.0,257.200
7.750,20.750,65.250,0.0,0.0,6.250,0.0,1638.400,921277.800,6638046.600,0.0,0.0,0.0,5154.800
7.532,20.519,67.273,0.0,0.0,4.675,0.0,819.200,963260.800,6976184.800,0.0,0.0,0.0,5202.400
9.500,23.500,62.250,0.0,0.0,4.750,0.0,3276.800,980808.0,7081819.800,0.0,0.0,0.0,5105.600
9.264,23.978,60.763,0.272,0.0,5.722,0.0,25395.200,980798.0,7095048.400,0.0,0.0,0.0,4888.800
10.078,23.773,61.757,0.0,0.0,4.393,0.0,819.200,974330.200,7059143.800,0.0,0.0,0.0,5021.600
9.596,22.222,62.121,0.0,0.0,6.061,0.0,3276.800,964340.600,6971356.0,0.0,0.0,0.0,5103.0
7.692,23.333,63.846,0.0,0.0,5.128,0.0,819.200,973834.400,7059828.0,0.0,0.0,0.0,5334.200
8.312,21.299,65.714,0.0,0.0,4.675,0.0,1638.400,944531.0,6822272.800,0.0,0.0,0.0,5079.400
9.463,20.205,64.194,0.0,0.0,6.138,0.0,1638.400,964828.200,6972888.400,0.0,0.0,0.0,5166.600
9.114,21.772,63.291,0.0,0.0,5.823,0.0,25395.200,974466.400,7057598.0,0.0,0.0,0.0,5056.800
10.156,21.615,64.844,0.0,0.0,3.385,0.0,1638.400,973062.400,7035759.600,0.0,0.0,0.0,5063.400
8.824,21.123,63.636,0.0,0.0,6.417,0.0,1638.400,989013.200,7146579.0,0.0,0.0,0.0,5353.0
10.0,23.684,61.579,0.0,0.0,4.737,0.0,2457.600,971474.400,7044215.200,0.0,0.0,0.0,5012.600
9.415,24.427,61.323,0.0,0.0,4.835,0.0,1638.400,962250.400,6939362.0,0.0,0.0,0.0,5018.600
0.399,0.599,99.002,0.0,0.0,0.0,0.0,819.200,3167.0,1006.400,0.0,0.0,0.0,65.600
