"Dstat 0.7.2 CSV output"
"Author:","Dag Wieers <dag@wieers.com>",,,,"URL:","http://dag.wieers.com/home-made/dstat/"
"Host:","Server3",,,,"User:","mstevan"
"Cmdline:","dstat --output /home/mstevan/logs/experiment_3.4/dstat/vs_512-vcpr_16-wtpm_32-rep_2.csv 5 16",,,,"Date:","28 Oct 2019 18:35:38 UTC"

"total cpu usage",,,,,,"dsk/total",,"net/total",,"paging",,"system",
"usr","sys","idl","wai","hiq","siq","read","writ","recv","send","in","out","int","csw"
2.200,4.281,92.640,0.206,0.0,0.673,6190.531,632872.464,0.0,0.0,0.0,0.0,0.055,1551.360
0.404,0.404,99.192,0.0,0.0,0.0,0.0,819.200,21828.800,117552.600,0.0,0.0,0.0,258.200
9.136,17.778,69.630,0.0,0.0,3.457,0.0,1638.400,943824.200,6828034.800,0.0,0.0,0.0,5251.200
8.549,20.207,68.135,0.0,0.0,3.109,0.0,1638.400,966744.800,7009539.0,0.0,0.0,0.0,5016.400
10.230,19.437,66.496,0.0,0.0,3.836,0.0,2457.600,991245.400,7180926.600,0.0,0.0,0.0,4971.400
9.284,19.629,68.435,0.0,0.0,2.653,0.0,1638.400,986186.800,7137699.400,0.0,0.0,0.200,5021.400
7.198,21.080,69.152,0.0,0.0,2.571,0.0,819.200,978436.400,7099045.200,0.0,0.0,0.0,5008.400
9.600,20.533,66.133,0.0,0.0,3.733,0.0,22937.600,1014542.600,7337896.600,0.0,0.0,0.0,4891.600
9.045,21.357,65.327,0.0,0.0,4.271,0.0,1638.400,993487.800,7190673.800,0.0,0.0,0.0,5032.400
8.189,21.588,66.998,0.0,0.0,3.226,0.0,819.200,995309.0,7233124.800,0.0,0.0,0.0,4951.400
8.377,23.298,65.183,0.0,0.0,3.141,0.0,1638.400,990168.0,7162862.200,0.0,0.0,0.0,4878.400
9.044,21.964,65.116,0.0,0.0,3.876,0.0,819.200,994512.400,7218352.600,0.0,0.0,0.0,5041.0
7.692,21.282,67.436,0.0,0.0,3.590,0.0,1638.400,991377.400,7169766.0,0.0,0.0,0.0,4979.0
10.080,24.403,61.804,0.265,0.0,3.448,0.0,15564.800,1002832.200,7255604.600,0.0,0.0,0.0,4739.200
8.179,20.844,67.810,0.0,0.0,3.166,0.0,2457.600,980284.600,7120192.400,0.0,0.0,0.0,4876.0
8.060,20.151,68.262,0.0,0.0,3.526,0.0,1638.400,970121.800,7013064.400,0.0,0.0,0.0,4993.200
0.402,0.402,99.195,0.0,0.0,0.0,0.0,1638.400,6254.0,1871.200,0.0,0.0,0.0,73.600
