"Dstat 0.7.2 CSV output"
"Author:","Dag Wieers <dag@wieers.com>",,,,"URL:","http://dag.wieers.com/home-made/dstat/"
"Host:","Server3",,,,"User:","mstevan"
"Cmdline:","dstat --output /home/mstevan/logs/experiment_3.4/dstat/vs_512-vcpr_4-wtpm_8-rep_3.csv 5 16",,,,"Date:","28 Oct 2019 17:57:13 UTC"

"total cpu usage",,,,,,"dsk/total",,"net/total",,"paging",,"system",
"usr","sys","idl","wai","hiq","siq","read","writ","recv","send","in","out","int","csw"
2.133,4.108,92.910,0.211,0.0,0.637,6401.191,654254.861,0.0,0.0,0.0,0.0,0.057,1457.709
0.402,0.201,99.396,0.0,0.0,0.0,0.0,819.200,13039.200,67581.600,0.0,0.0,0.0,185.800
4.148,10.044,84.498,0.0,0.0,1.310,0.0,1638.400,554242.0,3989130.400,0.0,0.0,0.0,6094.600
5.044,8.553,85.088,0.219,0.0,1.096,0.0,25395.200,602434.200,4342343.400,0.0,0.0,0.0,6553.0
4.615,9.670,84.396,0.0,0.0,1.319,0.0,1638.400,625720.600,4535709.400,0.0,0.0,0.0,6791.0
4.835,9.451,84.615,0.0,0.0,1.099,0.0,2457.600,627812.600,4527154.0,0.0,0.0,0.0,6661.0
3.786,9.577,85.969,0.0,0.0,0.668,0.0,819.200,619229.200,4484795.400,0.0,0.0,0.0,6719.600
5.286,9.471,84.361,0.0,0.0,0.881,0.0,3276.800,620115.600,4470963.800,0.0,0.0,0.0,6574.0
4.585,10.699,83.188,0.0,0.0,1.528,0.0,1638.400,624790.400,4506443.600,0.0,0.0,0.0,6637.200
5.263,8.772,84.430,0.219,0.0,1.316,0.0,14745.600,621165.800,4501583.0,0.0,0.0,0.0,6683.400
4.803,11.354,82.969,0.0,0.0,0.873,0.0,1638.400,617912.600,4455619.400,0.0,0.0,0.0,6552.0
5.263,10.088,83.333,0.0,0.0,1.316,0.0,1638.400,618386.800,4461926.400,0.0,0.0,0.0,6701.400
5.077,7.947,85.430,0.0,0.0,1.545,0.0,819.200,615706.200,4461537.200,0.0,0.0,0.0,6540.0
3.720,10.066,85.558,0.0,0.0,0.656,0.0,2457.600,617732.800,4455029.800,0.0,0.0,0.0,6415.200
5.011,9.804,84.096,0.0,0.0,1.089,0.0,1638.400,616690.600,4466487.0,0.0,0.0,0.0,6446.800
3.704,9.150,85.839,0.218,0.0,1.089,0.0,15564.800,597985.400,4309653.600,0.0,0.0,0.0,6208.400
0.604,0.201,99.195,0.0,0.0,0.0,0.0,1638.400,6254.0,1858.0,0.0,0.0,0.0,73.0
