"Dstat 0.7.2 CSV output"
"Author:","Dag Wieers <dag@wieers.com>",,,,"URL:","http://dag.wieers.com/home-made/dstat/"
"Host:","Server3",,,,"User:","mstevan"
"Cmdline:","dstat --output /home/mstevan/logs/experiment_3.4/dstat/vs_512-vcpr_32-wtpm_64-rep_2.csv 5 16",,,,"Date:","28 Oct 2019 18:58:23 UTC"

"total cpu usage",,,,,,"dsk/total",,"net/total",,"paging",,"system",
"usr","sys","idl","wai","hiq","siq","read","writ","recv","send","in","out","int","csw"
2.266,4.449,92.375,0.204,0.0,0.707,6072.113,620849.858,0.0,0.0,0.0,0.0,0.054,1585.914
0.808,0.808,97.778,0.606,0.0,0.0,0.0,18841.600,18239.0,48579.200,0.0,0.0,0.0,220.800
8.184,21.483,64.706,0.0,0.0,5.627,0.0,4096.0,1098867.200,7951743.800,0.0,0.0,0.0,4510.0
10.309,22.938,61.082,0.0,0.0,5.670,0.0,1638.400,1180992.0,8548749.400,0.0,0.0,0.0,4509.600
9.383,23.324,61.126,0.0,0.0,6.166,0.0,3276.800,1140339.200,8259678.200,0.0,0.0,0.0,4100.0
8.951,23.274,62.404,0.0,0.0,5.371,0.0,819.200,1151781.0,8364132.200,0.0,0.0,0.0,4213.600
10.705,23.238,61.619,0.0,0.0,4.439,0.0,1638.400,1157750.400,8382477.200,0.0,0.0,0.0,4000.600
7.958,25.464,61.538,0.0,0.0,5.040,0.0,2457.600,1187777.800,8625656.0,0.0,0.0,0.0,4129.200
10.966,25.326,57.963,0.261,0.0,5.483,0.0,14745.600,1180070.800,8543991.0,0.0,0.0,0.0,4013.400
8.696,25.064,60.870,0.0,0.0,5.371,0.0,1638.400,1177095.600,8523367.400,0.0,0.0,0.0,4122.600
11.869,22.980,59.848,0.0,0.0,5.303,0.0,819.200,1170106.0,8500131.600,0.0,0.0,0.0,4058.400
9.231,26.410,57.949,0.0,0.0,6.410,0.0,1638.400,1182114.200,8562640.600,0.0,0.0,0.0,4022.0
9.974,25.064,61.125,0.0,0.0,3.836,0.0,819.200,1175183.400,8533057.600,0.0,0.0,0.0,4192.0
10.567,22.165,61.598,0.0,0.0,5.670,0.0,1638.400,1178285.800,8534727.200,0.0,0.0,0.0,4136.400
12.145,22.739,59.432,0.258,0.0,5.426,0.0,17203.200,1192402.400,8630373.0,0.0,0.0,0.0,3925.200
8.205,24.615,63.846,0.0,0.0,3.333,0.0,819.200,1169054.600,8493110.200,0.0,0.0,0.0,4145.200
1.004,1.205,96.586,0.0,0.0,1.205,0.0,1638.400,72893.200,354112.200,0.0,0.0,0.0,715.400
