"Dstat 0.7.2 CSV output"
"Author:","Dag Wieers <dag@wieers.com>",,,,"URL:","http://dag.wieers.com/home-made/dstat/"
"Host:","Server3",,,,"User:","mstevan"
"Cmdline:","dstat --output /home/mstevan/logs/experiment_3.4/dstat/vs_512-vcpr_16-wtpm_8-rep_2.csv 5 16",,,,"Date:","28 Oct 2019 18:29:56 UTC"

"total cpu usage",,,,,,"dsk/total",,"net/total",,"paging",,"system",
"usr","sys","idl","wai","hiq","siq","read","writ","recv","send","in","out","int","csw"
2.193,4.262,92.667,0.207,0.0,0.671,6220.863,635950.747,0.0,0.0,0.0,0.0,0.055,1545.854
0.605,0.403,98.992,0.0,0.0,0.0,0.0,1638.400,18038.200,83351.400,0.0,0.0,0.0,178.600
2.371,7.328,89.224,0.216,0.0,0.862,0.0,18841.600,653110.400,4712118.800,0.0,0.0,0.0,2938.400
3.805,7.188,88.161,0.0,0.0,0.846,0.0,819.200,672847.200,4878240.400,0.0,0.0,0.0,3132.800
3.586,6.962,88.819,0.0,0.0,0.633,0.0,3276.800,649755.800,4685145.0,0.0,0.0,0.0,2643.0
2.754,7.627,88.983,0.0,0.0,0.636,0.0,819.200,672576.800,4874592.800,0.0,0.0,0.0,2741.800
3.774,8.595,86.583,0.0,0.0,1.048,0.0,1638.400,671004.800,4839713.200,0.0,0.0,0.0,2641.200
3.383,7.611,88.161,0.0,0.0,0.846,0.0,3276.800,680855.200,4912144.0,0.0,0.0,0.0,2756.400
3.564,7.547,88.260,0.0,0.0,0.629,0.0,819.200,678076.800,4914484.600,0.0,0.0,0.0,2791.400
2.521,7.983,88.235,0.420,0.0,0.840,0.0,18841.600,664536.400,4794469.0,0.0,0.0,0.0,2427.800
3.383,6.342,89.429,0.0,0.0,0.846,0.0,1638.400,648648.400,4679898.800,0.0,0.0,0.0,2537.0
3.586,5.907,89.873,0.0,0.0,0.633,0.0,819.200,630641.800,4569502.400,0.0,0.0,0.200,2341.0
2.998,6.638,89.936,0.0,0.0,0.428,0.0,1638.400,664380.600,4796716.200,0.0,0.0,0.0,2582.600
2.954,7.384,88.608,0.0,0.0,1.055,0.0,819.200,680299.400,4917789.0,0.0,0.0,0.0,2577.800
3.797,6.540,88.819,0.0,0.0,0.844,0.0,2457.600,656407.200,4748506.800,0.0,0.0,0.0,2501.600
2.748,8.034,88.372,0.423,0.0,0.423,0.0,16384.0,663236.400,4786735.0,0.0,0.0,0.0,2528.0
0.601,0.200,99.198,0.0,0.0,0.0,0.0,819.200,3167.0,1006.400,0.0,0.0,0.0,63.0
