"Dstat 0.7.2 CSV output"
"Author:","Dag Wieers <dag@wieers.com>",,,,"URL:","http://dag.wieers.com/home-made/dstat/"
"Host:","Server3",,,,"User:","mstevan"
"Cmdline:","dstat --output /home/mstevan/logs/experiment_3.4/dstat/vs_512-vcpr_8-wtpm_64-rep_4.csv 5 16",,,,"Date:","28 Oct 2019 18:27:06 UTC"

"total cpu usage",,,,,,"dsk/total",,"net/total",,"paging",,"system",
"usr","sys","idl","wai","hiq","siq","read","writ","recv","send","in","out","int","csw"
2.189,4.252,92.685,0.207,0.0,0.668,6236.143,637502.711,0.0,0.0,0.0,0.0,0.056,1541.011
0.405,0.0,99.595,0.0,0.0,0.0,0.0,819.200,13410.400,36461.800,0.0,0.0,0.0,197.200
5.656,12.670,76.923,0.0,0.0,4.751,0.0,1638.400,705990.600,4989821.200,0.0,0.0,0.0,6125.0
7.494,17.330,70.726,0.0,0.0,4.450,0.0,1638.400,739579.0,5312242.800,0.0,0.0,0.0,6124.600
7.177,16.986,71.531,0.0,0.0,4.306,0.0,1638.400,747837.800,5391207.200,0.0,0.0,0.0,6015.600
7.767,16.262,70.874,0.0,0.0,5.097,0.0,2457.600,750142.600,5383246.200,0.0,0.0,0.0,5954.200
6.522,17.874,71.256,0.483,0.0,3.865,0.0,18022.400,751967.200,5428077.400,0.0,0.0,0.0,5958.200
7.176,15.741,71.759,0.0,0.0,5.324,0.0,6553.600,757839.600,5442030.400,0.0,0.0,0.0,6156.400
8.076,13.302,73.634,0.0,0.0,4.988,0.0,1638.400,743557.200,5327541.0,0.0,0.0,0.0,5992.200
5.660,16.038,73.585,0.0,0.0,4.717,0.0,819.200,749885.200,5412250.400,0.0,0.0,0.0,6308.800
6.538,15.012,75.061,0.0,0.0,3.390,0.0,1638.400,750853.600,5385128.400,0.0,0.0,0.0,6262.800
6.235,16.547,72.422,0.0,0.0,4.796,0.0,1638.400,751942.0,5396365.400,0.0,0.0,0.0,6126.0
6.538,16.223,70.944,0.726,0.0,5.569,0.0,14745.600,755723.400,5443050.200,0.0,0.0,0.0,5953.0
6.220,16.746,70.813,0.0,0.0,6.220,0.0,1638.400,753599.800,5414974.600,0.0,0.0,0.0,6092.400
6.490,15.625,73.317,0.0,0.0,4.567,0.0,2457.600,752182.400,5421723.200,0.0,0.0,0.0,6096.400
7.506,15.981,71.913,0.0,0.0,4.600,0.0,1638.400,740944.800,5302086.0,0.0,0.0,0.0,5869.800
0.803,1.004,97.992,0.0,0.0,0.201,0.0,1638.400,6786.200,2382.400,0.0,0.0,0.0,94.200
