"Dstat 0.7.2 CSV output"
"Author:","Dag Wieers <dag@wieers.com>",,,,"URL:","http://dag.wieers.com/home-made/dstat/"
"Host:","Server3",,,,"User:","mstevan"
"Cmdline:","dstat --output /home/mstevan/logs/experiment_3.4/dstat/vs_64-vcpr_4-wtpm_8-rep_1.csv 5 16",,,,"Date:","28 Oct 2019 15:37:32 UTC"

"total cpu usage",,,,,,"dsk/total",,"net/total",,"paging",,"system",
"usr","sys","idl","wai","hiq","siq","read","writ","recv","send","in","out","int","csw"
1.743,3.157,94.432,0.229,0.0,0.439,7305.325,746004.942,0.0,0.0,0.0,0.0,0.065,1097.224
0.604,0.201,99.195,0.0,0.0,0.0,0.0,1638.400,12765.800,13553.400,0.0,0.0,0.0,167.200
3.516,9.670,85.714,0.0,0.0,1.099,0.0,819.200,576628.0,1107277.800,0.0,0.0,0.0,6485.800
4.405,10.132,81.938,2.423,0.0,1.101,0.0,189235.200,600451.200,1148314.800,0.0,0.0,0.0,6706.400
3.974,9.934,84.547,0.0,0.0,1.545,0.0,819.200,640788.200,1231573.200,0.0,0.0,0.0,6998.800
4.585,11.572,82.096,0.0,0.0,1.747,0.0,3276.800,619877.800,1186165.400,0.0,0.0,0.0,6712.200
4.646,10.619,83.186,0.0,0.0,1.549,0.0,1638.400,613185.200,1172088.0,0.0,0.0,0.0,6612.600
4.656,9.756,84.257,0.0,0.0,1.330,0.0,3276.800,627452.0,1205439.200,0.0,0.0,0.0,6694.200
4.251,9.620,85.011,0.0,0.0,1.119,0.0,1638.400,626978.600,1200009.0,0.0,0.0,0.0,6663.800
4.878,10.643,82.927,0.443,0.0,1.109,0.0,16384.0,629644.400,1204638.0,0.0,0.0,0.0,6873.400
3.753,9.934,84.768,0.221,0.0,1.325,0.0,157286.400,617780.600,1187124.0,0.0,0.0,0.0,6631.0
4.783,11.957,81.957,0.0,0.0,1.304,0.0,1638.400,635965.400,1216870.600,0.0,0.0,0.0,6717.600
4.636,9.492,84.989,0.0,0.0,0.883,0.0,819.200,622080.0,1195449.600,0.0,0.0,0.0,6709.800
4.846,9.912,83.700,0.0,0.0,1.542,0.0,1638.400,620439.200,1187176.600,0.0,0.0,0.0,6572.200
4.889,9.556,84.444,0.0,0.0,1.111,0.0,3276.800,631473.600,1208390.400,0.0,0.0,0.0,6805.400
4.241,8.482,86.384,0.0,0.0,0.893,0.0,819.200,596271.400,1145194.0,0.0,0.0,0.0,6477.400
0.401,0.401,98.196,0.802,0.0,0.200,0.0,16384.0,6254.0,1858.0,0.0,0.0,0.0,74.600
