"Dstat 0.7.2 CSV output"
"Author:","Dag Wieers <dag@wieers.com>",,,,"URL:","http://dag.wieers.com/home-made/dstat/"
"Host:","Server3",,,,"User:","mstevan"
"Cmdline:","dstat --output /home/mstevan/logs/experiment_3.4/dstat/vs_64-vcpr_8-wtpm_32-rep_1.csv 5 16",,,,"Date:","28 Oct 2019 16:00:18 UTC"

"total cpu usage",,,,,,"dsk/total",,"net/total",,"paging",,"system",
"usr","sys","idl","wai","hiq","siq","read","writ","recv","send","in","out","int","csw"
1.785,3.267,94.262,0.226,0.0,0.460,7140.983,729349.190,0.0,0.0,0.0,0.0,0.063,1180.398
0.201,0.602,98.996,0.0,0.0,0.201,0.0,819.200,16113.600,22033.400,0.0,0.0,0.0,223.400
6.573,14.789,76.056,0.0,0.0,2.582,0.0,1638.400,709636.600,1358747.800,0.0,0.0,0.200,6230.600
9.337,14.742,72.727,0.0,0.0,3.194,0.0,1638.400,750043.600,1437728.400,0.0,0.0,0.0,6120.200
8.040,18.090,70.352,1.508,0.0,2.010,0.0,18841.600,759499.200,1459931.200,0.0,0.0,0.0,5844.600
9.620,19.494,67.848,0.0,0.0,3.038,0.0,6553.600,766474.800,1467774.600,0.0,0.0,0.0,5650.0
7.772,18.135,71.762,0.0,0.0,2.332,0.0,819.200,760311.600,1463543.800,0.0,0.0,0.0,5726.800
7.305,18.388,72.040,0.0,0.0,2.267,0.0,3276.800,752457.400,1440374.400,0.0,0.0,0.0,5855.200
7.711,18.905,71.393,0.0,0.0,1.990,0.0,1638.400,761117.600,1459016.600,0.0,0.0,0.0,5793.0
6.616,20.102,70.229,0.0,0.0,3.053,0.0,819.200,764446.800,1469268.0,0.0,0.0,0.0,5629.400
8.142,16.794,72.010,0.254,0.0,2.799,0.0,15564.800,756700.400,1450579.200,0.0,0.0,0.0,5825.0
8.354,14.937,74.177,0.0,0.0,2.532,0.0,1638.400,754859.0,1445300.600,0.0,0.0,0.0,5818.0
6.468,16.169,74.627,0.0,0.0,2.736,0.0,819.200,754318.800,1450563.200,0.0,0.0,0.0,5908.800
7.809,15.617,73.300,0.0,0.0,3.275,0.0,1638.400,760877.600,1457785.200,0.0,0.0,0.0,5907.800
7.022,17.433,74.334,0.0,0.0,1.211,0.0,2457.600,758059.800,1459230.600,0.0,0.0,0.0,5994.0
7.654,18.025,71.605,0.0,0.0,2.716,0.0,1638.400,736444.800,1409365.600,0.0,0.0,0.0,5441.200
0.400,1.0,98.200,0.400,0.0,0.0,0.0,15564.800,6254.0,1871.200,0.0,0.0,0.0,79.400
