"Dstat 0.7.2 CSV output"
"Author:","Dag Wieers <dag@wieers.com>",,,,"URL:","http://dag.wieers.com/home-made/dstat/"
"Host:","Server3",,,,"User:","mstevan"
"Cmdline:","dstat --output /home/mstevan/logs/experiment_3.4/dstat/vs_64-vcpr_4-wtpm_64-rep_3.csv 5 16",,,,"Date:","28 Oct 2019 15:51:46 UTC"

"total cpu usage",,,,,,"dsk/total",,"net/total",,"paging",,"system",
"usr","sys","idl","wai","hiq","siq","read","writ","recv","send","in","out","int","csw"
1.773,3.235,94.313,0.227,0.0,0.452,7201.741,735517.356,0.0,0.0,0.0,0.0,0.064,1160.355
0.605,0.202,98.992,0.0,0.0,0.202,0.0,819.200,16680.400,18028.200,0.0,0.0,0.0,238.400
3.409,7.955,85.0,0.455,0.0,3.182,0.0,19660.800,578925.200,1048844.0,0.0,0.0,0.0,6230.200
3.956,11.429,81.978,0.0,0.0,2.637,0.0,1638.400,613093.800,1148135.0,0.0,0.0,0.0,6832.200
6.027,10.491,80.134,0.0,0.0,3.348,0.0,819.200,627908.600,1180530.200,0.0,0.0,0.0,6922.200
5.869,12.190,78.330,0.0,0.0,3.612,0.0,3276.800,622450.200,1165462.600,0.0,0.0,0.0,6689.200
4.045,11.461,81.124,0.0,0.0,3.371,0.0,1638.400,624904.600,1165995.400,0.0,0.0,0.0,6709.0
5.275,13.187,78.462,0.0,0.0,3.077,0.0,2457.600,633192.200,1192704.800,0.0,0.0,0.0,7042.200
5.987,11.308,79.379,0.0,0.0,3.326,0.0,1638.400,628910.600,1174876.200,0.0,0.0,0.0,6960.600
3.432,11.213,81.693,0.458,0.0,3.204,0.0,22118.400,626048.600,1176226.0,0.0,0.0,0.0,6882.600
4.677,11.581,79.510,0.0,0.0,4.232,0.0,1638.400,631750.200,1173373.0,0.0,0.0,0.0,6982.200
6.040,12.752,78.300,0.0,0.0,2.908,0.0,1638.400,629551.600,1177116.200,0.0,0.0,0.0,6752.400
4.857,12.141,80.353,0.0,0.0,2.649,0.0,819.200,633160.800,1182827.600,0.0,0.0,0.0,6828.0
5.310,12.168,80.088,0.0,0.0,2.434,0.0,1638.400,635669.600,1195404.0,0.0,0.0,0.0,6841.0
5.286,12.115,79.736,0.0,0.0,2.863,0.0,3276.800,631751.0,1181924.0,0.0,0.0,0.0,6860.400
4.955,11.261,79.730,1.126,0.0,2.928,0.0,14745.600,623102.600,1176058.600,0.0,0.0,0.0,6681.600
0.803,0.602,98.594,0.0,0.0,0.0,0.0,1638.400,6789.400,2484.400,0.0,0.0,0.0,93.600
