"Dstat 0.7.2 CSV output"
"Author:","Dag Wieers <dag@wieers.com>",,,,"URL:","http://dag.wieers.com/home-made/dstat/"
"Host:","Server3",,,,"User:","mstevan"
"Cmdline:","dstat --output /home/mstevan/logs/experiment_3.4/dstat/vs_64-vcpr_4-wtpm_8-rep_3.csv 5 16",,,,"Date:","28 Oct 2019 15:40:23 UTC"

"total cpu usage",,,,,,"dsk/total",,"net/total",,"paging",,"system",
"usr","sys","idl","wai","hiq","siq","read","writ","recv","send","in","out","int","csw"
1.748,3.171,94.411,0.229,0.0,0.440,7284.364,743904.784,0.0,0.0,0.0,0.0,0.064,1109.797
0.402,0.402,99.195,0.0,0.0,0.0,0.0,819.200,14145.400,21110.400,0.0,0.0,0.0,215.200
4.575,10.458,83.224,0.0,0.0,1.743,0.0,2457.600,583706.400,1115998.400,0.0,0.0,0.0,6627.400
3.982,10.398,84.292,0.0,0.0,1.327,0.0,819.200,625217.800,1201045.0,0.0,0.0,0.0,6718.400
4.933,10.090,83.632,0.0,0.0,1.345,0.0,2457.600,633573.200,1212898.600,0.0,0.0,0.0,6795.800
5.345,11.359,82.183,0.0,0.0,1.114,0.0,1638.400,649587.0,1243015.400,0.0,0.0,0.0,6869.800
3.812,11.435,82.960,0.673,0.0,1.121,0.0,22937.600,656823.400,1262161.600,0.0,0.0,0.0,6736.400
4.709,11.435,82.287,0.0,0.0,1.570,0.0,3276.800,646459.0,1237551.800,0.0,0.0,0.0,6723.0
4.857,12.141,81.457,0.0,0.0,1.545,0.0,1638.400,634460.800,1214603.400,0.0,0.0,0.0,6738.200
4.308,11.111,83.673,0.0,0.0,0.907,0.0,819.200,640031.0,1230421.400,0.0,0.0,0.0,7013.400
5.677,8.952,82.969,0.0,0.0,2.402,0.0,1638.400,630448.800,1205945.600,0.0,0.0,0.0,6645.200
4.784,10.478,83.827,0.0,0.0,0.911,0.0,819.200,650312.400,1250133.400,0.0,0.0,0.0,7163.400
5.0,10.909,82.500,0.227,0.0,1.364,0.0,22118.400,657786.600,1258940.0,0.0,0.0,0.0,7004.600
4.348,10.069,84.211,0.0,0.0,1.373,0.0,1638.400,645624.400,1235901.400,0.0,0.0,0.0,6994.0
3.872,10.934,84.510,0.0,0.0,0.683,0.0,2457.600,645980.0,1241228.0,0.0,0.0,0.0,6844.200
5.055,10.110,83.077,0.0,0.0,1.758,0.0,1638.400,631810.800,1208718.0,0.0,0.0,0.0,6654.0
0.802,0.200,98.998,0.0,0.0,0.0,0.0,1638.400,6254.0,1871.200,0.0,0.0,0.0,69.200
