"Dstat 0.7.2 CSV output"
"Author:","Dag Wieers <dag@wieers.com>",,,,"URL:","http://dag.wieers.com/home-made/dstat/"
"Host:","Server3",,,,"User:","mstevan"
"Cmdline:","dstat --output /home/mstevan/logs/experiment_3.4/dstat/vs_64-vcpr_32-wtpm_8-rep_1.csv 5 16",,,,"Date:","28 Oct 2019 16:28:45 UTC"

"total cpu usage",,,,,,"dsk/total",,"net/total",,"paging",,"system",
"usr","sys","idl","wai","hiq","siq","read","writ","recv","send","in","out","int","csw"
1.890,3.517,93.854,0.222,0.0,0.516,6945.672,709524.869,0.0,0.0,0.0,0.0,0.062,1259.135
0.0,0.604,99.396,0.0,0.0,0.0,0.0,819.200,16290.400,25349.400,0.0,0.0,0.0,176.800
3.838,5.330,90.405,0.0,0.0,0.426,0.0,1638.400,597256.800,1142322.800,0.0,0.0,0.0,2411.400
3.138,9.414,86.611,0.0,0.0,0.837,0.0,1638.400,668573.400,1280095.0,0.0,0.0,0.0,2916.800
3.805,6.554,87.315,1.480,0.0,0.846,0.0,18841.600,652773.800,1254065.400,0.0,0.0,0.0,2731.0
3.664,7.543,88.147,0.0,0.0,0.647,0.0,5734.400,690171.800,1321299.0,0.0,0.0,0.0,2815.600
2.592,7.127,89.633,0.0,0.0,0.648,0.0,819.200,686487.200,1318631.400,0.0,0.0,0.0,2975.800
3.151,9.034,86.555,0.0,0.0,1.261,0.0,3276.800,695981.400,1333353.0,0.0,0.0,0.0,2997.0
2.802,7.112,89.009,0.0,0.0,1.078,0.0,1638.400,700914.200,1342021.800,0.0,0.0,0.0,3099.0
2.564,7.692,89.316,0.0,0.0,0.427,0.0,819.200,692683.400,1331714.800,0.0,0.0,0.0,2998.600
3.426,5.996,89.079,0.428,0.0,1.071,0.0,15564.800,675782.400,1293667.600,0.0,0.0,0.0,2637.600
2.381,6.926,89.827,0.0,0.0,0.866,0.0,1638.400,693966.600,1328945.800,0.0,0.0,0.0,2768.400
2.979,7.660,88.511,0.0,0.0,0.851,0.0,819.200,690514.400,1327199.0,0.0,0.0,0.0,2871.0
2.784,6.852,89.507,0.0,0.0,0.857,0.0,2457.600,671973.0,1285328.800,0.0,0.0,0.0,2563.0
3.586,7.173,88.397,0.0,0.0,0.844,0.0,1638.400,687682.800,1322044.200,0.0,0.0,0.0,2653.200
3.185,6.794,89.172,0.0,0.0,0.849,0.0,1638.400,661315.400,1266165.800,0.0,0.0,0.0,2535.400
1.215,1.012,96.559,1.012,0.0,0.202,0.0,15564.800,64147.400,113444.800,0.0,0.0,0.0,650.200
