"Dstat 0.7.2 CSV output"
"Author:","Dag Wieers <dag@wieers.com>",,,,"URL:","http://dag.wieers.com/home-made/dstat/"
"Host:","Server3",,,,"User:","mstevan"
"Cmdline:","dstat --output /home/mstevan/logs/experiment_3.4/dstat/vs_64-vcpr_32-wtpm_64-rep_2.csv 5 16",,,,"Date:","28 Oct 2019 16:41:33 UTC"

"total cpu usage",,,,,,"dsk/total",,"net/total",,"paging",,"system",
"usr","sys","idl","wai","hiq","siq","read","writ","recv","send","in","out","int","csw"
1.930,3.613,93.703,0.221,0.0,0.533,6861.229,700951.671,0.0,0.0,0.0,0.0,0.061,1277.586
0.202,0.403,99.194,0.0,0.0,0.202,0.0,819.200,16151.200,18190.200,0.0,0.0,0.0,216.400
8.924,25.459,60.367,0.262,0.0,4.987,0.0,18841.600,1133694.200,2171459.800,0.0,0.0,0.0,4350.0
12.0,26.0,56.500,0.0,0.0,5.500,0.0,14745.600,1192008.0,2291376.800,0.0,0.0,0.0,4195.600
9.524,25.926,60.053,0.0,0.0,4.497,0.0,1638.400,1172159.200,2255148.600,0.0,0.0,0.0,4281.800
11.194,23.383,60.945,0.0,0.0,4.478,0.0,2457.600,1165762.200,2237578.0,0.0,0.0,0.200,4403.200
9.686,22.251,64.136,0.0,0.0,3.927,0.0,819.200,1171778.400,2254441.800,0.0,0.0,0.0,4263.200
10.390,23.377,60.519,0.0,0.0,5.714,0.0,3276.800,1165850.600,2240319.800,0.0,0.0,0.0,4136.400
10.705,26.371,58.486,0.0,0.0,4.439,0.0,1638.400,1185696.200,2274386.200,0.0,0.0,0.0,3916.600
8.533,23.200,61.067,0.533,0.0,6.667,0.0,15564.800,1186373.400,2282909.800,0.0,0.0,0.0,4053.200
12.113,24.227,59.021,0.0,0.0,4.639,0.0,1638.400,1202325.0,2309474.800,0.0,0.0,0.0,4028.200
9.574,27.128,58.777,0.0,0.0,4.521,0.0,1638.400,1216432.400,2336962.400,0.0,0.0,0.0,4003.800
11.233,26.027,57.260,0.0,0.0,5.479,0.0,819.200,1205445.600,2320409.200,0.0,0.0,0.0,4027.400
10.705,23.760,60.313,0.0,0.0,5.222,0.0,1638.400,1211410.400,2328600.600,0.0,0.0,0.0,3997.800
10.554,25.330,60.158,0.0,0.0,3.958,0.0,2457.600,1204656.0,2319147.200,0.0,0.0,0.0,4030.0
9.819,22.222,62.274,0.0,0.0,5.685,0.0,19660.800,1174011.800,2250822.400,0.0,0.0,0.0,3949.200
0.806,0.605,98.387,0.0,0.0,0.202,0.0,1638.400,34589.800,32607.0,0.0,0.0,0.0,354.200
