"Dstat 0.7.2 CSV output"
"Author:","Dag Wieers <dag@wieers.com>",,,,"URL:","http://dag.wieers.com/home-made/dstat/"
"Host:","Server3",,,,"User:","mstevan"
"Cmdline:","dstat --output /home/mstevan/logs/experiment_3.4/dstat/vs_64-vcpr_32-wtpm_32-rep_4.csv 5 16",,,,"Date:","28 Oct 2019 16:38:42 UTC"

"total cpu usage",,,,,,"dsk/total",,"net/total",,"paging",,"system",
"usr","sys","idl","wai","hiq","siq","read","writ","recv","send","in","out","int","csw"
1.916,3.579,93.758,0.221,0.0,0.526,6879.815,702839.104,0.0,0.0,0.0,0.0,0.061,1272.139
0.602,0.402,98.996,0.0,0.0,0.0,0.0,2457.600,19620.0,23487.400,0.0,0.0,0.0,227.200
9.360,20.197,66.502,0.0,0.0,3.941,0.0,2457.600,1105891.600,2123756.800,0.0,0.0,0.0,4027.400
10.526,19.799,66.416,0.0,0.0,3.258,0.0,819.200,1184572.0,2279690.0,0.0,0.0,0.0,3744.0
9.254,22.365,64.524,0.0,0.0,3.856,0.0,2457.600,1152033.0,2211186.800,0.0,0.0,0.0,3788.600
9.799,21.859,65.578,0.0,0.0,2.764,0.0,819.200,1170141.400,2253026.800,0.0,0.0,0.0,3979.200
10.309,23.711,62.113,0.0,0.0,3.866,0.0,1638.400,1176943.200,2261694.600,0.0,0.0,0.0,3598.400
10.076,20.907,64.232,0.252,0.0,4.534,0.0,19660.800,1184382.800,2274359.200,0.0,0.0,0.0,3888.800
11.168,24.365,60.152,0.0,0.0,4.315,0.0,819.200,1178094.800,2268531.0,0.0,0.0,0.0,3774.200
10.152,22.081,64.975,0.0,0.0,2.792,0.0,1638.400,1173790.800,2255399.0,0.0,0.0,0.0,3669.600
9.536,23.454,62.887,0.0,0.0,4.124,0.0,1638.400,1187916.0,2282001.200,0.0,0.0,0.0,3687.0
9.160,19.338,68.448,0.0,0.0,3.053,0.0,819.200,1188009.800,2285860.400,0.0,0.0,0.0,3756.800
10.380,23.544,61.013,0.0,0.0,5.063,0.0,1638.400,1190075.400,2286287.800,0.0,0.0,0.0,3689.800
8.971,24.011,63.588,0.264,0.0,3.166,0.0,17203.200,1195957.600,2302771.600,0.0,0.0,0.0,3722.200
8.929,22.449,63.776,0.0,0.0,4.847,0.0,3276.800,1181198.200,2270900.400,0.0,0.0,0.0,3666.600
12.339,21.337,61.954,0.0,0.0,4.370,0.0,1638.400,1171618.800,2250815.400,0.0,0.0,0.0,3492.200
1.220,1.423,97.154,0.0,0.0,0.203,0.0,819.200,89110.600,165393.800,0.0,0.0,0.0,1039.0
