"Dstat 0.7.2 CSV output"
"Author:","Dag Wieers <dag@wieers.com>",,,,"URL:","http://dag.wieers.com/home-made/dstat/"
"Host:","Server3",,,,"User:","mstevan"
"Cmdline:","dstat --output /home/mstevan/logs/experiment_3.4/dstat/vs_64-vcpr_8-wtpm_32-rep_3.csv 5 16",,,,"Date:","28 Oct 2019 16:03:09 UTC"

"total cpu usage",,,,,,"dsk/total",,"net/total",,"paging",,"system",
"usr","sys","idl","wai","hiq","siq","read","writ","recv","send","in","out","int","csw"
1.797,3.293,94.221,0.226,0.0,0.464,7120.960,727316.936,0.0,0.0,0.0,0.0,0.063,1190.457
0.805,0.604,98.592,0.0,0.0,0.0,0.0,1638.400,22782.400,30154.400,0.0,0.0,0.0,245.600
6.039,16.908,75.121,0.0,0.0,1.932,0.0,819.200,714576.800,1367439.0,0.0,0.0,0.0,6015.800
7.617,17.445,72.482,0.0,0.0,2.457,0.0,1638.400,759653.400,1461795.800,0.0,0.0,0.0,5977.200
8.564,18.640,70.277,0.0,0.0,2.519,0.0,3276.800,762153.800,1459815.200,0.0,0.0,0.0,5766.400
8.247,20.619,67.526,0.0,0.0,3.608,0.0,819.200,770688.400,1482308.800,0.0,0.0,0.0,5794.400
7.107,21.066,68.020,0.0,0.0,3.807,0.0,1638.400,772826.400,1481696.400,0.0,0.0,0.0,5742.600
8.911,18.317,69.059,0.495,0.0,3.218,0.0,22937.600,773969.200,1483106.200,0.0,0.0,0.0,5769.200
8.010,18.605,70.284,0.0,0.0,3.101,0.0,819.200,770475.0,1480906.200,0.0,0.0,0.0,5673.0
8.060,20.655,68.010,0.0,0.0,3.275,0.0,1638.400,764327.600,1464857.800,0.0,0.0,0.0,5663.0
9.068,17.632,70.781,0.0,0.0,2.519,0.0,819.200,768831.400,1475192.200,0.0,0.0,0.0,5628.800
8.142,20.102,68.957,0.0,0.0,2.799,0.0,1638.400,763364.800,1465877.0,0.0,0.0,0.0,5688.400
6.566,19.949,70.455,0.0,0.0,3.030,0.0,1638.400,774176.0,1482593.400,0.0,0.0,0.0,5802.800
7.828,16.919,72.475,0.253,0.0,2.525,0.0,14745.600,761512.200,1464638.0,0.0,0.0,0.0,5878.200
8.226,18.509,70.180,0.0,0.0,3.085,0.0,2457.600,770045.0,1476067.600,0.0,0.0,0.0,5629.600
7.940,19.107,70.471,0.0,0.0,2.481,0.0,2457.600,738889.0,1414507.400,0.0,0.0,0.0,5609.0
0.402,0.0,99.598,0.0,0.0,0.0,0.0,819.200,3167.0,1006.400,0.0,0.0,0.0,66.200
