"Dstat 0.7.2 CSV output"
"Author:","Dag Wieers <dag@wieers.com>",,,,"URL:","http://dag.wieers.com/home-made/dstat/"
"Host:","Server3",,,,"User:","mstevan"
"Cmdline:","dstat --output /home/mstevan/logs/experiment_3.4/dstat/vs_64-vcpr_16-wtpm_64-rep_1.csv 5 16",,,,"Date:","28 Oct 2019 16:23:04 UTC"

"total cpu usage",,,,,,"dsk/total",,"net/total",,"paging",,"system",
"usr","sys","idl","wai","hiq","siq","read","writ","recv","send","in","out","int","csw"
1.863,3.452,93.962,0.223,0.0,0.499,6983.875,713403.664,0.0,0.0,0.0,0.0,0.062,1242.796
0.808,1.212,97.980,0.0,0.0,0.0,0.0,1638.400,27642.800,33777.0,0.0,0.0,0.0,300.600
7.980,20.449,67.581,0.0,0.0,3.990,0.0,819.200,936507.600,1791188.600,0.0,0.0,0.0,5419.600
8.505,22.165,64.691,0.0,0.0,4.639,0.0,1638.400,966090.800,1848807.600,0.0,0.0,0.0,5210.200
10.859,23.485,61.111,0.0,0.0,4.545,0.0,2457.600,977601.0,1876634.400,0.0,0.0,0.0,5075.600
9.136,19.753,63.704,0.0,0.0,7.407,0.0,1638.400,960848.600,1838068.400,0.0,0.0,0.0,5212.0
8.505,23.454,62.887,0.0,0.0,5.155,0.0,18841.600,968743.800,1853565.400,0.0,0.0,0.0,5200.0
10.797,21.851,63.239,0.0,0.0,4.113,0.0,2457.600,971928.200,1864527.200,0.0,0.0,0.0,5222.0
8.661,21.785,64.042,0.0,0.0,5.512,0.0,1638.400,976642.400,1868942.200,0.0,0.0,0.0,5148.400
8.929,21.173,65.306,0.0,0.0,4.592,0.0,819.200,974973.200,1867237.600,0.0,0.0,0.0,5384.600
8.995,23.545,63.228,0.0,0.0,4.233,0.0,1638.400,984066.400,1887819.0,0.0,0.0,0.0,5076.600
9.669,22.901,61.323,0.0,0.0,6.107,0.0,1638.400,999177.800,1910449.0,0.0,0.0,0.0,5267.0
9.415,21.883,64.377,0.509,0.0,3.817,0.0,18022.400,982973.0,1888592.0,0.0,0.0,0.0,5219.600
10.336,25.323,59.948,0.0,0.0,4.393,0.0,1638.400,980377.200,1876684.600,0.0,0.0,0.0,4996.0
9.610,22.338,63.117,0.0,0.0,4.935,0.0,3276.800,987912.800,1893770.800,0.0,0.0,0.0,5226.400
8.291,18.844,68.090,0.0,0.0,4.774,0.0,819.200,956752.400,1833067.0,0.0,0.0,0.0,5005.600
0.402,0.402,99.197,0.0,0.0,0.0,0.0,1638.400,6254.0,1871.200,0.0,0.0,0.0,76.400
