"Dstat 0.7.2 CSV output"
"Author:","Dag Wieers <dag@wieers.com>",,,,"URL:","http://dag.wieers.com/home-made/dstat/"
"Host:","Server3",,,,"User:","mstevan"
"Cmdline:","dstat --output /home/mstevan/logs/experiment_3.4/dstat/vs_64-vcpr_4-wtpm_8-rep_2.csv 5 16",,,,"Date:","28 Oct 2019 15:38:58 UTC"

"total cpu usage",,,,,,"dsk/total",,"net/total",,"paging",,"system",
"usr","sys","idl","wai","hiq","siq","read","writ","recv","send","in","out","int","csw"
1.746,3.164,94.421,0.229,0.0,0.440,7294.828,744966.780,0.0,0.0,0.0,0.0,0.064,1103.557
0.402,0.805,98.793,0.0,0.0,0.0,0.0,819.200,12347.200,17306.400,0.0,0.0,0.0,195.200
4.605,9.211,85.307,0.0,0.0,0.877,0.0,1638.400,551613.600,1054214.0,0.0,0.0,0.0,6214.800
4.113,11.039,82.900,0.0,0.0,1.948,0.0,2457.600,598612.400,1144584.800,0.0,0.0,0.0,6569.600
4.615,9.451,83.956,0.440,0.0,1.538,0.0,18841.600,627881.200,1206266.200,0.0,0.0,0.0,6732.0
4.348,10.217,84.130,0.0,0.0,1.304,0.0,1638.400,600569.800,1148569.200,0.0,0.0,0.0,6753.800
3.579,10.067,85.235,0.0,0.0,1.119,0.0,1638.400,626367.200,1198376.0,0.0,0.0,0.0,6812.0
4.213,10.643,84.701,0.0,0.0,0.443,0.0,2457.600,617873.600,1187250.600,0.0,0.0,0.0,6638.0
4.677,9.354,85.078,0.0,0.0,0.891,0.0,1638.400,632520.800,1210601.800,0.0,0.0,0.0,6722.400
3.532,11.921,83.444,0.0,0.0,1.104,0.0,819.200,613244.200,1177901.0,0.0,0.0,0.200,6614.0
4.018,10.714,83.929,0.0,0.0,1.339,0.0,1638.400,609271.0,1165613.400,0.0,0.0,0.0,6629.400
4.525,8.597,86.199,0.452,0.0,0.226,0.0,21299.200,622051.200,1190073.0,0.0,0.0,0.0,6656.600
4.585,10.262,83.843,0.0,0.0,1.310,0.0,819.200,617698.400,1186901.800,0.0,0.0,0.0,6551.200
3.769,12.195,82.705,0.0,0.0,1.330,0.0,2457.600,615231.600,1176861.200,0.0,0.0,0.0,6563.0
4.922,8.725,85.235,0.0,0.0,1.119,0.0,2457.600,628985.0,1203288.800,0.0,0.0,0.0,6768.0
3.532,10.375,84.768,0.0,0.0,1.325,0.0,819.200,601621.200,1155854.600,0.0,0.0,0.0,6522.0
0.402,0.402,99.195,0.0,0.0,0.0,0.0,1638.400,6254.0,1871.200,0.0,0.0,0.0,71.0
