"Dstat 0.7.2 CSV output"
"Author:","Dag Wieers <dag@wieers.com>",,,,"URL:","http://dag.wieers.com/home-made/dstat/"
"Host:","Server3",,,,"User:","mstevan"
"Cmdline:","dstat --output /home/mstevan/logs/experiment_3.4/dstat/vs_64-vcpr_32-wtpm_8-rep_4.csv 5 16",,,,"Date:","28 Oct 2019 16:33:01 UTC"

"total cpu usage",,,,,,"dsk/total",,"net/total",,"paging",,"system",
"usr","sys","idl","wai","hiq","siq","read","writ","recv","send","in","out","int","csw"
1.894,3.527,93.840,0.222,0.0,0.517,6917.295,706643.190,0.0,0.0,0.0,0.0,0.061,1263.533
0.605,0.202,98.992,0.202,0.0,0.0,0.0,18841.600,15705.800,19255.800,0.0,0.0,0.0,159.800
3.412,7.889,87.846,0.0,0.0,0.853,0.0,819.200,670290.0,1287860.0,0.0,0.0,0.0,2951.0
3.404,7.234,88.511,0.0,0.0,0.851,0.0,1638.400,672459.600,1287211.800,0.0,0.0,0.0,2952.400
3.789,7.158,88.421,0.0,0.0,0.632,0.0,2457.600,679698.600,1301341.0,0.0,0.0,0.0,2623.800
3.354,8.176,87.631,0.0,0.0,0.839,0.0,1638.400,678834.0,1304485.200,0.0,0.0,0.0,2838.800
4.025,6.356,88.771,0.0,0.0,0.847,0.0,1638.400,669085.0,1280764.400,0.0,0.0,0.0,2734.0
3.404,7.660,88.511,0.0,0.0,0.426,0.0,3276.800,693055.600,1327276.200,0.0,0.0,0.0,2778.400
2.778,6.624,89.103,0.427,0.0,1.068,0.0,21299.200,695132.800,1336054.200,0.0,0.0,0.0,2774.0
2.592,6.479,90.065,0.0,0.0,0.864,0.0,1638.400,670148.200,1282894.0,0.0,0.0,0.0,2634.0
3.602,8.263,87.288,0.0,0.0,0.847,0.0,1638.400,694360.800,1330136.600,0.0,0.0,0.0,2803.600
2.542,7.627,88.559,0.0,0.0,1.271,0.0,819.200,709332.800,1363274.800,0.0,0.0,0.0,2826.600
3.656,6.882,88.817,0.0,0.0,0.645,0.0,1638.400,701352.0,1343697.800,0.0,0.0,0.0,2766.800
1.496,7.479,90.171,0.0,0.0,0.855,0.0,1638.400,674833.400,1295736.0,0.0,0.0,0.0,2523.600
3.004,7.511,87.983,0.429,0.0,1.073,0.0,15564.800,678902.800,1299601.400,0.0,0.0,0.0,2733.800
3.579,5.895,89.263,0.0,0.0,1.263,0.0,1638.400,631979.600,1209121.200,0.0,0.0,0.0,2372.0
0.405,0.405,99.190,0.0,0.0,0.0,0.0,819.200,18236.0,29888.600,0.0,0.0,0.0,287.400
