"Dstat 0.7.2 CSV output"
"Author:","Dag Wieers <dag@wieers.com>",,,,"URL:","http://dag.wieers.com/home-made/dstat/"
"Host:","Server3",,,,"User:","mstevan"
"Cmdline:","dstat --output /home/mstevan/logs/experiment_3.4/dstat/vs_64-vcpr_16-wtpm_64-rep_3.csv 5 16",,,,"Date:","28 Oct 2019 16:25:54 UTC"

"total cpu usage",,,,,,"dsk/total",,"net/total",,"paging",,"system",
"usr","sys","idl","wai","hiq","siq","read","writ","recv","send","in","out","int","csw"
1.876,3.485,93.909,0.223,0.0,0.507,6964.721,711458.232,0.0,0.0,0.0,0.0,0.062,1251.163
0.604,0.604,98.390,0.201,0.0,0.201,0.0,18841.600,19693.800,19880.400,0.0,0.0,0.0,247.800
8.654,21.635,64.904,0.0,0.0,4.808,0.0,8192.0,925483.0,1762642.200,0.0,0.0,0.0,5085.800
9.536,21.134,62.887,0.0,0.0,6.443,0.0,819.200,944938.400,1812397.400,0.0,0.0,0.0,5135.0
9.337,20.147,65.602,0.0,0.0,4.914,0.0,2457.600,969159.600,1853472.800,0.0,0.0,0.0,5266.0
7.980,22.195,64.589,0.0,0.0,5.237,0.0,1638.400,964470.600,1849351.200,0.0,0.0,0.0,5309.600
11.194,21.144,62.935,0.0,0.0,4.726,0.0,1638.400,966436.400,1848668.400,0.0,0.0,0.200,5157.200
11.568,20.566,61.954,0.0,0.0,5.913,0.0,3276.800,977857.800,1871378.200,0.0,0.0,0.0,5106.400
8.883,23.096,62.183,0.254,0.0,5.584,0.0,14745.600,967865.0,1856299.400,0.0,0.0,0.0,5230.200
9.227,22.943,62.843,0.0,0.0,4.988,0.0,1638.400,977701.400,1871827.800,0.0,0.0,0.0,5193.400
9.499,21.900,63.325,0.0,0.0,5.277,0.0,819.200,978442.600,1877495.600,0.0,0.0,0.0,5077.800
9.499,20.053,65.699,0.0,0.0,4.749,0.0,1638.400,976472.600,1870021.200,0.0,0.0,0.0,5048.200
9.409,23.656,61.559,0.0,0.0,5.376,0.0,1638.400,990880.400,1895508.800,0.0,0.0,0.0,4813.800
9.686,22.775,62.565,0.0,0.0,4.974,0.0,819.200,991802.0,1906021.800,0.0,0.0,0.0,5081.0
11.230,21.925,60.963,0.267,0.0,5.615,0.0,16384.0,984451.600,1885906.200,0.0,0.0,0.0,4916.200
10.966,21.410,63.185,0.0,0.0,4.439,0.0,1638.400,968167.400,1849424.200,0.0,0.0,0.0,5007.200
0.401,0.401,99.198,0.0,0.0,0.0,0.0,819.200,3167.0,1006.400,0.0,0.0,0.0,67.400
