"Dstat 0.7.2 CSV output"
"Author:","Dag Wieers <dag@wieers.com>",,,,"URL:","http://dag.wieers.com/home-made/dstat/"
"Host:","Server3",,,,"User:","mstevan"
"Cmdline:","dstat --output /home/mstevan/logs/experiment_3.4/dstat/vs_64-vcpr_32-wtpm_64-rep_4.csv 5 16",,,,"Date:","28 Oct 2019 16:44:24 UTC"

"total cpu usage",,,,,,"dsk/total",,"net/total",,"paging",,"system",
"usr","sys","idl","wai","hiq","siq","read","writ","recv","send","in","out","int","csw"
1.944,3.648,93.646,0.221,0.0,0.541,6842.741,699076.109,0.0,0.0,0.0,0.0,0.061,1283.436
0.604,0.604,98.793,0.0,0.0,0.0,0.0,1638.400,18212.200,17591.0,0.0,0.0,0.0,221.200
10.0,21.538,63.333,0.0,0.0,5.128,0.0,819.200,1103877.600,2114018.200,0.0,0.0,0.0,4338.0
11.141,23.873,59.151,0.0,0.0,5.836,0.0,1638.400,1195306.400,2296367.0,0.0,0.0,0.0,4048.0
10.499,25.459,57.480,0.0,0.0,6.562,0.0,2457.600,1154575.0,2214374.200,0.0,0.0,0.0,4030.400
10.995,23.822,59.948,0.0,0.0,5.236,0.0,1638.400,1173911.600,2259060.600,0.0,0.0,0.0,4102.0
11.290,23.656,59.140,0.0,0.0,5.914,0.0,18841.600,1173054.400,2253906.600,0.0,0.0,0.0,4039.400
8.586,26.515,59.343,0.0,0.0,5.556,0.0,2457.600,1181231.800,2272534.0,0.0,0.0,0.0,3984.600
10.283,23.907,59.897,0.0,0.0,5.913,0.0,1638.400,1179764.600,2267944.0,0.0,0.0,0.0,4074.0
10.444,25.326,59.008,0.0,0.0,5.222,0.0,1638.400,1174783.800,2256643.200,0.0,0.0,0.0,4026.200
9.091,26.471,59.893,0.0,0.0,4.545,0.0,819.200,1171022.600,2251419.800,0.0,0.0,0.0,3937.0
10.875,24.668,59.151,0.0,0.0,5.305,0.0,1638.400,1205161.200,2316986.800,0.0,0.0,0.0,3960.800
8.971,24.011,62.005,0.264,0.0,4.749,0.0,18022.400,1184218.800,2279554.0,0.0,0.0,0.0,3822.0
12.091,23.929,58.438,0.0,0.0,5.542,0.0,1638.400,1201941.200,2307258.800,0.0,0.0,0.0,4091.400
11.559,24.731,59.409,0.0,0.0,4.301,0.0,2457.600,1207246.200,2319847.0,0.0,0.0,0.0,3809.400
9.585,23.575,61.658,0.0,0.0,5.181,0.0,1638.400,1182848.400,2274899.200,0.0,0.0,0.0,4020.600
0.601,0.601,97.996,0.0,0.0,0.802,0.0,1638.400,20777.200,17575.200,0.0,0.0,0.0,231.800
