PING 10.0.0.7 (10.0.0.7) 56(84) bytes of data.
64 bytes from 10.0.0.7: icmp_seq=1 ttl=64 time=0.925 ms
PING 10.0.0.11 (10.0.0.11) 56(84) bytes of data.
64 bytes from 10.0.0.11: icmp_seq=1 ttl=64 time=0.837 ms
PING 10.0.0.6 (10.0.0.6) 56(84) bytes of data.
64 bytes from 10.0.0.6: icmp_seq=1 ttl=64 time=8.17 ms
64 bytes from 10.0.0.7: icmp_seq=2 ttl=64 time=23.8 ms
64 bytes from 10.0.0.11: icmp_seq=2 ttl=64 time=30.0 ms
64 bytes from 10.0.0.6: icmp_seq=2 ttl=64 time=28.6 ms
64 bytes from 10.0.0.7: icmp_seq=3 ttl=64 time=4.38 ms
64 bytes from 10.0.0.11: icmp_seq=3 ttl=64 time=7.94 ms
64 bytes from 10.0.0.6: icmp_seq=3 ttl=64 time=7.24 ms
64 bytes from 10.0.0.7: icmp_seq=4 ttl=64 time=14.2 ms
64 bytes from 10.0.0.11: icmp_seq=4 ttl=64 time=0.646 ms
64 bytes from 10.0.0.6: icmp_seq=4 ttl=64 time=17.1 ms
64 bytes from 10.0.0.7: icmp_seq=5 ttl=64 time=8.43 ms
64 bytes from 10.0.0.6: icmp_seq=5 ttl=64 time=15.2 ms
64 bytes from 10.0.0.11: icmp_seq=5 ttl=64 time=3.64 ms
64 bytes from 10.0.0.7: icmp_seq=6 ttl=64 time=2.60 ms
64 bytes from 10.0.0.6: icmp_seq=6 ttl=64 time=10.2 ms
64 bytes from 10.0.0.11: icmp_seq=6 ttl=64 time=15.0 ms
64 bytes from 10.0.0.7: icmp_seq=7 ttl=64 time=1.29 ms
64 bytes from 10.0.0.6: icmp_seq=7 ttl=64 time=52.9 ms
64 bytes from 10.0.0.11: icmp_seq=7 ttl=64 time=10.2 ms
64 bytes from 10.0.0.7: icmp_seq=8 ttl=64 time=12.1 ms
64 bytes from 10.0.0.6: icmp_seq=8 ttl=64 time=3.19 ms
64 bytes from 10.0.0.11: icmp_seq=8 ttl=64 time=0.566 ms
64 bytes from 10.0.0.7: icmp_seq=9 ttl=64 time=6.56 ms
64 bytes from 10.0.0.6: icmp_seq=9 ttl=64 time=14.8 ms
64 bytes from 10.0.0.11: icmp_seq=9 ttl=64 time=28.9 ms
64 bytes from 10.0.0.7: icmp_seq=10 ttl=64 time=15.7 ms
64 bytes from 10.0.0.6: icmp_seq=10 ttl=64 time=3.45 ms
64 bytes from 10.0.0.7: icmp_seq=11 ttl=64 time=25.9 ms
64 bytes from 10.0.0.11: icmp_seq=11 ttl=64 time=8.67 ms
64 bytes from 10.0.0.7: icmp_seq=12 ttl=64 time=5.18 ms
64 bytes from 10.0.0.6: icmp_seq=12 ttl=64 time=0.498 ms
64 bytes from 10.0.0.7: icmp_seq=13 ttl=64 time=14.6 ms
64 bytes from 10.0.0.11: icmp_seq=13 ttl=64 time=18.9 ms
64 bytes from 10.0.0.6: icmp_seq=14 ttl=64 time=4.34 ms
64 bytes from 10.0.0.11: icmp_seq=14 ttl=64 time=15.2 ms

--- 10.0.0.7 ping statistics ---
14 packets transmitted, 13 received, 7% packet loss, time 65069ms
rtt min/avg/max/mdev = 0.925/10.455/25.917/7.850 ms

--- 10.0.0.6 ping statistics ---
14 packets transmitted, 12 received, 14% packet loss, time 65477ms
rtt min/avg/max/mdev = 0.498/13.831/52.981/13.975 ms

--- 10.0.0.11 ping statistics ---
14 packets transmitted, 12 received, 14% packet loss, time 65894ms
rtt min/avg/max/mdev = 0.566/11.742/30.094/9.864 ms
