PING 10.0.0.7 (10.0.0.7) 56(84) bytes of data.
64 bytes from 10.0.0.7: icmp_seq=1 ttl=64 time=8.65 ms
PING 10.0.0.11 (10.0.0.11) 56(84) bytes of data.
64 bytes from 10.0.0.11: icmp_seq=1 ttl=64 time=0.563 ms
PING 10.0.0.6 (10.0.0.6) 56(84) bytes of data.
64 bytes from 10.0.0.6: icmp_seq=1 ttl=64 time=0.607 ms
64 bytes from 10.0.0.11: icmp_seq=2 ttl=64 time=1.34 ms
64 bytes from 10.0.0.7: icmp_seq=2 ttl=64 time=52.8 ms
64 bytes from 10.0.0.6: icmp_seq=2 ttl=64 time=10.1 ms
64 bytes from 10.0.0.7: icmp_seq=3 ttl=64 time=15.7 ms
64 bytes from 10.0.0.6: icmp_seq=3 ttl=64 time=21.6 ms
64 bytes from 10.0.0.11: icmp_seq=3 ttl=64 time=46.9 ms
64 bytes from 10.0.0.7: icmp_seq=4 ttl=64 time=25.0 ms
64 bytes from 10.0.0.11: icmp_seq=4 ttl=64 time=9.74 ms
64 bytes from 10.0.0.6: icmp_seq=4 ttl=64 time=0.581 ms
64 bytes from 10.0.0.7: icmp_seq=5 ttl=64 time=5.56 ms
64 bytes from 10.0.0.11: icmp_seq=5 ttl=64 time=3.79 ms
64 bytes from 10.0.0.6: icmp_seq=5 ttl=64 time=2.76 ms
64 bytes from 10.0.0.7: icmp_seq=6 ttl=64 time=14.6 ms
64 bytes from 10.0.0.11: icmp_seq=6 ttl=64 time=13.8 ms
64 bytes from 10.0.0.6: icmp_seq=6 ttl=64 time=15.8 ms
64 bytes from 10.0.0.7: icmp_seq=7 ttl=64 time=0.742 ms
64 bytes from 10.0.0.11: icmp_seq=7 ttl=64 time=38.5 ms
64 bytes from 10.0.0.6: icmp_seq=7 ttl=64 time=11.3 ms
64 bytes from 10.0.0.11: icmp_seq=8 ttl=64 time=0.868 ms
64 bytes from 10.0.0.6: icmp_seq=8 ttl=64 time=5.71 ms
64 bytes from 10.0.0.7: icmp_seq=8 ttl=64 time=8.92 ms
64 bytes from 10.0.0.11: icmp_seq=9 ttl=64 time=19.9 ms
64 bytes from 10.0.0.7: icmp_seq=9 ttl=64 time=0.490 ms
64 bytes from 10.0.0.11: icmp_seq=10 ttl=64 time=0.924 ms
64 bytes from 10.0.0.6: icmp_seq=10 ttl=64 time=9.35 ms
64 bytes from 10.0.0.6: icmp_seq=11 ttl=64 time=0.684 ms
64 bytes from 10.0.0.11: icmp_seq=11 ttl=64 time=14.4 ms
64 bytes from 10.0.0.7: icmp_seq=11 ttl=64 time=24.1 ms
64 bytes from 10.0.0.6: icmp_seq=12 ttl=64 time=19.1 ms
64 bytes from 10.0.0.7: icmp_seq=12 ttl=64 time=18.6 ms
64 bytes from 10.0.0.6: icmp_seq=13 ttl=64 time=14.1 ms
64 bytes from 10.0.0.11: icmp_seq=13 ttl=64 time=39.9 ms
64 bytes from 10.0.0.7: icmp_seq=13 ttl=64 time=28.7 ms
64 bytes from 10.0.0.7: icmp_seq=14 ttl=64 time=7.00 ms

--- 10.0.0.6 ping statistics ---
14 packets transmitted, 12 received, 14% packet loss, time 65389ms
rtt min/avg/max/mdev = 0.581/9.321/21.659/7.079 ms

--- 10.0.0.11 ping statistics ---
14 packets transmitted, 12 received, 14% packet loss, time 65535ms
rtt min/avg/max/mdev = 0.563/15.905/46.920/16.223 ms

--- 10.0.0.7 ping statistics ---
14 packets transmitted, 13 received, 7% packet loss, time 65614ms
rtt min/avg/max/mdev = 0.490/16.243/52.806/13.700 ms
