PING 10.0.0.11 (10.0.0.11) 56(84) bytes of data.
64 bytes from 10.0.0.11: icmp_seq=1 ttl=64 time=0.679 ms
PING 10.0.0.7 (10.0.0.7) 56(84) bytes of data.
64 bytes from 10.0.0.7: icmp_seq=1 ttl=64 time=9.54 ms
PING 10.0.0.6 (10.0.0.6) 56(84) bytes of data.
64 bytes from 10.0.0.6: icmp_seq=1 ttl=64 time=17.9 ms
64 bytes from 10.0.0.11: icmp_seq=2 ttl=64 time=0.503 ms
64 bytes from 10.0.0.6: icmp_seq=2 ttl=64 time=0.968 ms
64 bytes from 10.0.0.7: icmp_seq=2 ttl=64 time=1.28 ms
64 bytes from 10.0.0.6: icmp_seq=3 ttl=64 time=2.34 ms
64 bytes from 10.0.0.7: icmp_seq=3 ttl=64 time=9.82 ms
64 bytes from 10.0.0.11: icmp_seq=3 ttl=64 time=4.56 ms
64 bytes from 10.0.0.6: icmp_seq=4 ttl=64 time=0.598 ms
64 bytes from 10.0.0.7: icmp_seq=4 ttl=64 time=4.27 ms
64 bytes from 10.0.0.11: icmp_seq=4 ttl=64 time=0.541 ms
64 bytes from 10.0.0.7: icmp_seq=5 ttl=64 time=0.849 ms
64 bytes from 10.0.0.6: icmp_seq=5 ttl=64 time=0.461 ms
64 bytes from 10.0.0.11: icmp_seq=5 ttl=64 time=0.893 ms
64 bytes from 10.0.0.7: icmp_seq=6 ttl=64 time=10.3 ms
64 bytes from 10.0.0.6: icmp_seq=6 ttl=64 time=10.3 ms
64 bytes from 10.0.0.11: icmp_seq=6 ttl=64 time=9.80 ms
64 bytes from 10.0.0.6: icmp_seq=7 ttl=64 time=0.605 ms
64 bytes from 10.0.0.7: icmp_seq=7 ttl=64 time=0.643 ms
64 bytes from 10.0.0.11: icmp_seq=7 ttl=64 time=0.505 ms
64 bytes from 10.0.0.6: icmp_seq=8 ttl=64 time=4.64 ms
64 bytes from 10.0.0.7: icmp_seq=8 ttl=64 time=4.67 ms
64 bytes from 10.0.0.11: icmp_seq=8 ttl=64 time=5.05 ms
64 bytes from 10.0.0.6: icmp_seq=9 ttl=64 time=1.04 ms
64 bytes from 10.0.0.11: icmp_seq=9 ttl=64 time=1.06 ms
64 bytes from 10.0.0.7: icmp_seq=9 ttl=64 time=1.20 ms
64 bytes from 10.0.0.7: icmp_seq=10 ttl=64 time=0.768 ms
64 bytes from 10.0.0.11: icmp_seq=10 ttl=64 time=0.779 ms
64 bytes from 10.0.0.6: icmp_seq=10 ttl=64 time=0.795 ms
64 bytes from 10.0.0.7: icmp_seq=11 ttl=64 time=10.3 ms
64 bytes from 10.0.0.11: icmp_seq=11 ttl=64 time=10.3 ms
64 bytes from 10.0.0.6: icmp_seq=11 ttl=64 time=10.3 ms
64 bytes from 10.0.0.6: icmp_seq=12 ttl=64 time=4.88 ms
64 bytes from 10.0.0.11: icmp_seq=12 ttl=64 time=4.90 ms
64 bytes from 10.0.0.7: icmp_seq=12 ttl=64 time=4.94 ms
64 bytes from 10.0.0.11: icmp_seq=13 ttl=64 time=3.08 ms
64 bytes from 10.0.0.6: icmp_seq=13 ttl=64 time=3.06 ms
64 bytes from 10.0.0.7: icmp_seq=13 ttl=64 time=3.07 ms
64 bytes from 10.0.0.6: icmp_seq=14 ttl=64 time=12.9 ms

--- 10.0.0.6 ping statistics ---
14 packets transmitted, 14 received, 0% packet loss, time 65579ms
rtt min/avg/max/mdev = 0.461/5.075/17.989/5.407 ms
64 bytes from 10.0.0.7: icmp_seq=14 ttl=64 time=13.0 ms

--- 10.0.0.7 ping statistics ---
14 packets transmitted, 14 received, 0% packet loss, time 65571ms
rtt min/avg/max/mdev = 0.643/5.343/13.034/4.233 ms
64 bytes from 10.0.0.11: icmp_seq=14 ttl=64 time=13.0 ms

--- 10.0.0.11 ping statistics ---
14 packets transmitted, 14 received, 0% packet loss, time 65590ms
rtt min/avg/max/mdev = 0.503/3.985/13.076/4.101 ms
