PING 10.0.0.7 (10.0.0.7) 56(84) bytes of data.
64 bytes from 10.0.0.7: icmp_seq=1 ttl=64 time=0.944 ms
PING 10.0.0.6 (10.0.0.6) 56(84) bytes of data.
64 bytes from 10.0.0.6: icmp_seq=1 ttl=64 time=0.920 ms
PING 10.0.0.11 (10.0.0.11) 56(84) bytes of data.
64 bytes from 10.0.0.11: icmp_seq=1 ttl=64 time=7.16 ms
64 bytes from 10.0.0.6: icmp_seq=2 ttl=64 time=0.531 ms
64 bytes from 10.0.0.7: icmp_seq=2 ttl=64 time=1.24 ms
64 bytes from 10.0.0.11: icmp_seq=2 ttl=64 time=41.8 ms
64 bytes from 10.0.0.11: icmp_seq=3 ttl=64 time=7.46 ms
64 bytes from 10.0.0.7: icmp_seq=3 ttl=64 time=20.9 ms
64 bytes from 10.0.0.6: icmp_seq=3 ttl=64 time=23.2 ms
64 bytes from 10.0.0.7: icmp_seq=4 ttl=64 time=0.869 ms
64 bytes from 10.0.0.11: icmp_seq=4 ttl=64 time=0.556 ms
64 bytes from 10.0.0.11: icmp_seq=5 ttl=64 time=7.52 ms
64 bytes from 10.0.0.7: icmp_seq=5 ttl=64 time=7.50 ms
64 bytes from 10.0.0.6: icmp_seq=5 ttl=64 time=0.552 ms
64 bytes from 10.0.0.11: icmp_seq=6 ttl=64 time=17.3 ms
64 bytes from 10.0.0.7: icmp_seq=6 ttl=64 time=17.4 ms
64 bytes from 10.0.0.6: icmp_seq=6 ttl=64 time=6.94 ms
64 bytes from 10.0.0.7: icmp_seq=7 ttl=64 time=27.7 ms
64 bytes from 10.0.0.11: icmp_seq=7 ttl=64 time=27.8 ms
64 bytes from 10.0.0.6: icmp_seq=7 ttl=64 time=3.16 ms
64 bytes from 10.0.0.11: icmp_seq=8 ttl=64 time=0.556 ms
64 bytes from 10.0.0.7: icmp_seq=8 ttl=64 time=0.612 ms
64 bytes from 10.0.0.6: icmp_seq=8 ttl=64 time=15.5 ms
64 bytes from 10.0.0.11: icmp_seq=9 ttl=64 time=18.5 ms
64 bytes from 10.0.0.7: icmp_seq=9 ttl=64 time=18.6 ms
64 bytes from 10.0.0.7: icmp_seq=10 ttl=64 time=14.8 ms
64 bytes from 10.0.0.11: icmp_seq=10 ttl=64 time=14.8 ms
64 bytes from 10.0.0.6: icmp_seq=10 ttl=64 time=1.67 ms
64 bytes from 10.0.0.11: icmp_seq=11 ttl=64 time=9.82 ms
64 bytes from 10.0.0.7: icmp_seq=11 ttl=64 time=9.84 ms
64 bytes from 10.0.0.6: icmp_seq=11 ttl=64 time=12.2 ms
64 bytes from 10.0.0.7: icmp_seq=12 ttl=64 time=3.93 ms
64 bytes from 10.0.0.11: icmp_seq=12 ttl=64 time=3.78 ms
64 bytes from 10.0.0.6: icmp_seq=12 ttl=64 time=22.0 ms
64 bytes from 10.0.0.11: icmp_seq=13 ttl=64 time=0.566 ms
64 bytes from 10.0.0.7: icmp_seq=13 ttl=64 time=0.602 ms
64 bytes from 10.0.0.6: icmp_seq=13 ttl=64 time=6.33 ms
64 bytes from 10.0.0.11: icmp_seq=14 ttl=64 time=0.496 ms

--- 10.0.0.11 ping statistics ---
14 packets transmitted, 14 received, 0% packet loss, time 65455ms
rtt min/avg/max/mdev = 0.496/11.315/41.823/11.571 ms
64 bytes from 10.0.0.7: icmp_seq=14 ttl=64 time=0.546 ms

--- 10.0.0.7 ping statistics ---
14 packets transmitted, 14 received, 0% packet loss, time 65475ms
rtt min/avg/max/mdev = 0.546/8.980/27.736/8.961 ms
64 bytes from 10.0.0.6: icmp_seq=14 ttl=64 time=14.8 ms

--- 10.0.0.6 ping statistics ---
14 packets transmitted, 12 received, 14% packet loss, time 65781ms
rtt min/avg/max/mdev = 0.531/9.011/23.207/8.002 ms
