PING 10.0.0.7 (10.0.0.7) 56(84) bytes of data.
64 bytes from 10.0.0.7: icmp_seq=1 ttl=64 time=0.807 ms
PING 10.0.0.11 (10.0.0.11) 56(84) bytes of data.
64 bytes from 10.0.0.11: icmp_seq=1 ttl=64 time=0.937 ms
PING 10.0.0.6 (10.0.0.6) 56(84) bytes of data.
64 bytes from 10.0.0.6: icmp_seq=1 ttl=64 time=0.495 ms
64 bytes from 10.0.0.7: icmp_seq=2 ttl=64 time=0.922 ms
64 bytes from 10.0.0.11: icmp_seq=2 ttl=64 time=9.91 ms
64 bytes from 10.0.0.6: icmp_seq=2 ttl=64 time=0.515 ms
64 bytes from 10.0.0.7: icmp_seq=3 ttl=64 time=0.705 ms
64 bytes from 10.0.0.11: icmp_seq=3 ttl=64 time=4.77 ms
64 bytes from 10.0.0.6: icmp_seq=3 ttl=64 time=0.695 ms
64 bytes from 10.0.0.11: icmp_seq=4 ttl=64 time=0.423 ms
64 bytes from 10.0.0.7: icmp_seq=4 ttl=64 time=4.13 ms
64 bytes from 10.0.0.6: icmp_seq=4 ttl=64 time=4.15 ms
64 bytes from 10.0.0.11: icmp_seq=5 ttl=64 time=0.691 ms
64 bytes from 10.0.0.6: icmp_seq=5 ttl=64 time=0.668 ms
64 bytes from 10.0.0.7: icmp_seq=5 ttl=64 time=0.942 ms
64 bytes from 10.0.0.11: icmp_seq=6 ttl=64 time=5.18 ms
64 bytes from 10.0.0.7: icmp_seq=6 ttl=64 time=9.88 ms
64 bytes from 10.0.0.6: icmp_seq=6 ttl=64 time=0.387 ms
64 bytes from 10.0.0.11: icmp_seq=7 ttl=64 time=0.655 ms
64 bytes from 10.0.0.7: icmp_seq=7 ttl=64 time=3.72 ms
64 bytes from 10.0.0.6: icmp_seq=7 ttl=64 time=4.24 ms
64 bytes from 10.0.0.7: icmp_seq=8 ttl=64 time=1.18 ms
64 bytes from 10.0.0.11: icmp_seq=8 ttl=64 time=0.392 ms
64 bytes from 10.0.0.6: icmp_seq=8 ttl=64 time=1.09 ms
64 bytes from 10.0.0.7: icmp_seq=9 ttl=64 time=8.42 ms
64 bytes from 10.0.0.11: icmp_seq=9 ttl=64 time=4.34 ms
64 bytes from 10.0.0.6: icmp_seq=9 ttl=64 time=0.456 ms
64 bytes from 10.0.0.7: icmp_seq=10 ttl=64 time=3.46 ms
64 bytes from 10.0.0.11: icmp_seq=10 ttl=64 time=0.832 ms
64 bytes from 10.0.0.6: icmp_seq=10 ttl=64 time=9.70 ms
64 bytes from 10.0.0.7: icmp_seq=11 ttl=64 time=12.9 ms
64 bytes from 10.0.0.6: icmp_seq=11 ttl=64 time=3.93 ms
64 bytes from 10.0.0.11: icmp_seq=11 ttl=64 time=0.796 ms
64 bytes from 10.0.0.7: icmp_seq=12 ttl=64 time=7.82 ms
64 bytes from 10.0.0.6: icmp_seq=12 ttl=64 time=2.20 ms
64 bytes from 10.0.0.11: icmp_seq=12 ttl=64 time=4.33 ms
64 bytes from 10.0.0.7: icmp_seq=13 ttl=64 time=1.99 ms
64 bytes from 10.0.0.6: icmp_seq=13 ttl=64 time=12.0 ms
64 bytes from 10.0.0.11: icmp_seq=13 ttl=64 time=0.766 ms
64 bytes from 10.0.0.7: icmp_seq=14 ttl=64 time=1.24 ms

--- 10.0.0.7 ping statistics ---
14 packets transmitted, 14 received, 0% packet loss, time 65309ms
rtt min/avg/max/mdev = 0.705/4.156/12.936/3.857 ms
64 bytes from 10.0.0.6: icmp_seq=14 ttl=64 time=0.533 ms

--- 10.0.0.6 ping statistics ---
14 packets transmitted, 14 received, 0% packet loss, time 65703ms
rtt min/avg/max/mdev = 0.387/2.937/12.040/3.557 ms
64 bytes from 10.0.0.11: icmp_seq=14 ttl=64 time=0.625 ms

--- 10.0.0.11 ping statistics ---
14 packets transmitted, 14 received, 0% packet loss, time 66186ms
rtt min/avg/max/mdev = 0.392/2.475/9.911/2.727 ms
