PING 10.0.0.7 (10.0.0.7) 56(84) bytes of data.
64 bytes from 10.0.0.7: icmp_seq=1 ttl=64 time=7.18 ms
PING 10.0.0.6 (10.0.0.6) 56(84) bytes of data.
64 bytes from 10.0.0.6: icmp_seq=1 ttl=64 time=11.6 ms
PING 10.0.0.11 (10.0.0.11) 56(84) bytes of data.
64 bytes from 10.0.0.11: icmp_seq=1 ttl=64 time=12.0 ms
64 bytes from 10.0.0.7: icmp_seq=2 ttl=64 time=0.902 ms
64 bytes from 10.0.0.11: icmp_seq=2 ttl=64 time=0.656 ms
64 bytes from 10.0.0.6: icmp_seq=2 ttl=64 time=0.656 ms
64 bytes from 10.0.0.7: icmp_seq=3 ttl=64 time=1.48 ms
64 bytes from 10.0.0.11: icmp_seq=3 ttl=64 time=0.673 ms
64 bytes from 10.0.0.6: icmp_seq=3 ttl=64 time=0.698 ms
64 bytes from 10.0.0.7: icmp_seq=4 ttl=64 time=0.670 ms
64 bytes from 10.0.0.11: icmp_seq=4 ttl=64 time=0.725 ms
64 bytes from 10.0.0.6: icmp_seq=4 ttl=64 time=0.737 ms
64 bytes from 10.0.0.7: icmp_seq=5 ttl=64 time=0.600 ms
64 bytes from 10.0.0.11: icmp_seq=5 ttl=64 time=8.47 ms
64 bytes from 10.0.0.6: icmp_seq=5 ttl=64 time=8.48 ms
64 bytes from 10.0.0.7: icmp_seq=6 ttl=64 time=0.728 ms
64 bytes from 10.0.0.6: icmp_seq=6 ttl=64 time=0.547 ms
64 bytes from 10.0.0.11: icmp_seq=6 ttl=64 time=0.775 ms
64 bytes from 10.0.0.7: icmp_seq=7 ttl=64 time=0.806 ms
64 bytes from 10.0.0.6: icmp_seq=7 ttl=64 time=1.11 ms
64 bytes from 10.0.0.11: icmp_seq=7 ttl=64 time=1.15 ms
64 bytes from 10.0.0.7: icmp_seq=8 ttl=64 time=7.39 ms
64 bytes from 10.0.0.11: icmp_seq=8 ttl=64 time=10.5 ms
64 bytes from 10.0.0.6: icmp_seq=8 ttl=64 time=10.5 ms
64 bytes from 10.0.0.7: icmp_seq=9 ttl=64 time=1.40 ms
64 bytes from 10.0.0.6: icmp_seq=9 ttl=64 time=7.27 ms
64 bytes from 10.0.0.11: icmp_seq=9 ttl=64 time=7.32 ms
64 bytes from 10.0.0.7: icmp_seq=10 ttl=64 time=4.86 ms
64 bytes from 10.0.0.6: icmp_seq=10 ttl=64 time=0.542 ms
64 bytes from 10.0.0.11: icmp_seq=10 ttl=64 time=0.645 ms
64 bytes from 10.0.0.7: icmp_seq=11 ttl=64 time=0.613 ms
64 bytes from 10.0.0.11: icmp_seq=11 ttl=64 time=0.431 ms
64 bytes from 10.0.0.6: icmp_seq=11 ttl=64 time=0.477 ms
64 bytes from 10.0.0.7: icmp_seq=12 ttl=64 time=9.18 ms
64 bytes from 10.0.0.11: icmp_seq=12 ttl=64 time=0.631 ms
64 bytes from 10.0.0.6: icmp_seq=12 ttl=64 time=0.920 ms
64 bytes from 10.0.0.7: icmp_seq=13 ttl=64 time=1.09 ms
64 bytes from 10.0.0.6: icmp_seq=13 ttl=64 time=2.09 ms
64 bytes from 10.0.0.11: icmp_seq=13 ttl=64 time=0.686 ms
64 bytes from 10.0.0.7: icmp_seq=14 ttl=64 time=1.62 ms

--- 10.0.0.7 ping statistics ---
14 packets transmitted, 14 received, 0% packet loss, time 65861ms
rtt min/avg/max/mdev = 0.600/2.753/9.184/2.919 ms
64 bytes from 10.0.0.6: icmp_seq=14 ttl=64 time=0.544 ms

--- 10.0.0.6 ping statistics ---
14 packets transmitted, 14 received, 0% packet loss, time 66070ms
rtt min/avg/max/mdev = 0.477/3.304/11.613/4.031 ms
64 bytes from 10.0.0.11: icmp_seq=14 ttl=64 time=1.08 ms

--- 10.0.0.11 ping statistics ---
14 packets transmitted, 14 received, 0% packet loss, time 66302ms
rtt min/avg/max/mdev = 0.431/3.270/12.011/4.111 ms
