PING 10.0.0.11 (10.0.0.11) 56(84) bytes of data.
64 bytes from 10.0.0.11: icmp_seq=1 ttl=64 time=7.48 ms
PING 10.0.0.6 (10.0.0.6) 56(84) bytes of data.
64 bytes from 10.0.0.6: icmp_seq=1 ttl=64 time=0.535 ms
PING 10.0.0.7 (10.0.0.7) 56(84) bytes of data.
64 bytes from 10.0.0.7: icmp_seq=1 ttl=64 time=0.510 ms
64 bytes from 10.0.0.11: icmp_seq=2 ttl=64 time=0.474 ms
64 bytes from 10.0.0.6: icmp_seq=2 ttl=64 time=0.460 ms
64 bytes from 10.0.0.7: icmp_seq=2 ttl=64 time=0.928 ms
64 bytes from 10.0.0.7: icmp_seq=3 ttl=64 time=0.927 ms
64 bytes from 10.0.0.11: icmp_seq=3 ttl=64 time=2.74 ms
64 bytes from 10.0.0.6: icmp_seq=3 ttl=64 time=2.79 ms
64 bytes from 10.0.0.7: icmp_seq=4 ttl=64 time=0.645 ms
64 bytes from 10.0.0.6: icmp_seq=4 ttl=64 time=2.37 ms
64 bytes from 10.0.0.11: icmp_seq=4 ttl=64 time=2.41 ms
64 bytes from 10.0.0.7: icmp_seq=5 ttl=64 time=1.05 ms
64 bytes from 10.0.0.11: icmp_seq=5 ttl=64 time=0.436 ms
64 bytes from 10.0.0.6: icmp_seq=5 ttl=64 time=0.464 ms
64 bytes from 10.0.0.7: icmp_seq=6 ttl=64 time=0.853 ms
64 bytes from 10.0.0.6: icmp_seq=6 ttl=64 time=0.550 ms
64 bytes from 10.0.0.11: icmp_seq=6 ttl=64 time=0.786 ms
64 bytes from 10.0.0.7: icmp_seq=7 ttl=64 time=1.05 ms
64 bytes from 10.0.0.6: icmp_seq=7 ttl=64 time=1.08 ms
64 bytes from 10.0.0.11: icmp_seq=7 ttl=64 time=1.06 ms
64 bytes from 10.0.0.7: icmp_seq=8 ttl=64 time=1.00 ms
64 bytes from 10.0.0.11: icmp_seq=8 ttl=64 time=1.10 ms
64 bytes from 10.0.0.6: icmp_seq=8 ttl=64 time=1.10 ms
64 bytes from 10.0.0.7: icmp_seq=9 ttl=64 time=1.07 ms
64 bytes from 10.0.0.6: icmp_seq=9 ttl=64 time=0.518 ms
64 bytes from 10.0.0.11: icmp_seq=9 ttl=64 time=0.770 ms
64 bytes from 10.0.0.7: icmp_seq=10 ttl=64 time=0.931 ms
64 bytes from 10.0.0.6: icmp_seq=10 ttl=64 time=1.25 ms
64 bytes from 10.0.0.11: icmp_seq=10 ttl=64 time=1.26 ms
64 bytes from 10.0.0.7: icmp_seq=11 ttl=64 time=1.11 ms
64 bytes from 10.0.0.6: icmp_seq=11 ttl=64 time=8.31 ms
64 bytes from 10.0.0.11: icmp_seq=11 ttl=64 time=2.14 ms
64 bytes from 10.0.0.7: icmp_seq=12 ttl=64 time=1.75 ms
64 bytes from 10.0.0.6: icmp_seq=12 ttl=64 time=2.84 ms
64 bytes from 10.0.0.11: icmp_seq=12 ttl=64 time=2.26 ms
64 bytes from 10.0.0.7: icmp_seq=13 ttl=64 time=0.734 ms
64 bytes from 10.0.0.6: icmp_seq=13 ttl=64 time=1.41 ms
64 bytes from 10.0.0.11: icmp_seq=13 ttl=64 time=0.688 ms
64 bytes from 10.0.0.7: icmp_seq=14 ttl=64 time=7.57 ms

--- 10.0.0.7 ping statistics ---
14 packets transmitted, 14 received, 0% packet loss, time 65423ms
rtt min/avg/max/mdev = 0.510/1.440/7.572/1.722 ms
64 bytes from 10.0.0.6: icmp_seq=14 ttl=64 time=0.548 ms

--- 10.0.0.6 ping statistics ---
14 packets transmitted, 14 received, 0% packet loss, time 65501ms
rtt min/avg/max/mdev = 0.460/1.733/8.318/2.004 ms
64 bytes from 10.0.0.11: icmp_seq=14 ttl=64 time=1.96 ms

--- 10.0.0.11 ping statistics ---
14 packets transmitted, 14 received, 0% packet loss, time 65747ms
rtt min/avg/max/mdev = 0.436/1.829/7.483/1.735 ms
