PING 10.0.0.7 (10.0.0.7) 56(84) bytes of data.
64 bytes from 10.0.0.7: icmp_seq=1 ttl=64 time=0.867 ms
PING 10.0.0.11 (10.0.0.11) 56(84) bytes of data.
64 bytes from 10.0.0.11: icmp_seq=1 ttl=64 time=0.653 ms
PING 10.0.0.6 (10.0.0.6) 56(84) bytes of data.
64 bytes from 10.0.0.6: icmp_seq=1 ttl=64 time=0.884 ms
64 bytes from 10.0.0.7: icmp_seq=2 ttl=64 time=0.581 ms
64 bytes from 10.0.0.11: icmp_seq=2 ttl=64 time=1.15 ms
64 bytes from 10.0.0.6: icmp_seq=2 ttl=64 time=0.987 ms
64 bytes from 10.0.0.11: icmp_seq=3 ttl=64 time=0.846 ms
64 bytes from 10.0.0.6: icmp_seq=3 ttl=64 time=0.725 ms
64 bytes from 10.0.0.7: icmp_seq=3 ttl=64 time=7.45 ms
64 bytes from 10.0.0.6: icmp_seq=4 ttl=64 time=0.749 ms
64 bytes from 10.0.0.11: icmp_seq=4 ttl=64 time=0.790 ms
64 bytes from 10.0.0.7: icmp_seq=4 ttl=64 time=0.857 ms
64 bytes from 10.0.0.6: icmp_seq=5 ttl=64 time=0.846 ms
64 bytes from 10.0.0.11: icmp_seq=5 ttl=64 time=0.914 ms
64 bytes from 10.0.0.7: icmp_seq=5 ttl=64 time=0.547 ms
64 bytes from 10.0.0.11: icmp_seq=6 ttl=64 time=0.566 ms
64 bytes from 10.0.0.6: icmp_seq=6 ttl=64 time=0.573 ms
64 bytes from 10.0.0.7: icmp_seq=6 ttl=64 time=7.57 ms
64 bytes from 10.0.0.11: icmp_seq=7 ttl=64 time=0.598 ms
64 bytes from 10.0.0.6: icmp_seq=7 ttl=64 time=0.633 ms
64 bytes from 10.0.0.7: icmp_seq=7 ttl=64 time=0.586 ms
64 bytes from 10.0.0.11: icmp_seq=8 ttl=64 time=0.700 ms
64 bytes from 10.0.0.6: icmp_seq=8 ttl=64 time=0.762 ms
64 bytes from 10.0.0.7: icmp_seq=8 ttl=64 time=0.515 ms
64 bytes from 10.0.0.11: icmp_seq=9 ttl=64 time=0.490 ms
64 bytes from 10.0.0.6: icmp_seq=9 ttl=64 time=0.701 ms
64 bytes from 10.0.0.7: icmp_seq=9 ttl=64 time=0.552 ms
64 bytes from 10.0.0.6: icmp_seq=10 ttl=64 time=0.400 ms
64 bytes from 10.0.0.11: icmp_seq=10 ttl=64 time=0.831 ms
64 bytes from 10.0.0.7: icmp_seq=10 ttl=64 time=0.778 ms
64 bytes from 10.0.0.6: icmp_seq=11 ttl=64 time=0.642 ms
64 bytes from 10.0.0.11: icmp_seq=11 ttl=64 time=0.645 ms
64 bytes from 10.0.0.7: icmp_seq=11 ttl=64 time=0.637 ms
64 bytes from 10.0.0.11: icmp_seq=12 ttl=64 time=0.510 ms
64 bytes from 10.0.0.6: icmp_seq=12 ttl=64 time=0.738 ms
64 bytes from 10.0.0.7: icmp_seq=12 ttl=64 time=0.614 ms
64 bytes from 10.0.0.11: icmp_seq=13 ttl=64 time=0.660 ms
64 bytes from 10.0.0.6: icmp_seq=13 ttl=64 time=0.853 ms
64 bytes from 10.0.0.7: icmp_seq=13 ttl=64 time=0.593 ms
64 bytes from 10.0.0.11: icmp_seq=14 ttl=64 time=0.615 ms

--- 10.0.0.11 ping statistics ---
14 packets transmitted, 14 received, 0% packet loss, time 66245ms
rtt min/avg/max/mdev = 0.490/0.712/1.155/0.174 ms
64 bytes from 10.0.0.6: icmp_seq=14 ttl=64 time=0.661 ms

--- 10.0.0.6 ping statistics ---
14 packets transmitted, 14 received, 0% packet loss, time 66235ms
rtt min/avg/max/mdev = 0.400/0.725/0.987/0.141 ms
64 bytes from 10.0.0.7: icmp_seq=14 ttl=64 time=0.658 ms

--- 10.0.0.7 ping statistics ---
14 packets transmitted, 14 received, 0% packet loss, time 66552ms
rtt min/avg/max/mdev = 0.515/1.629/7.576/2.406 ms
