PING 10.0.0.11 (10.0.0.11) 56(84) bytes of data.
64 bytes from 10.0.0.11: icmp_seq=1 ttl=64 time=0.635 ms
PING 10.0.0.7 (10.0.0.7) 56(84) bytes of data.
64 bytes from 10.0.0.7: icmp_seq=1 ttl=64 time=0.699 ms
PING 10.0.0.6 (10.0.0.6) 56(84) bytes of data.
64 bytes from 10.0.0.6: icmp_seq=1 ttl=64 time=0.483 ms
64 bytes from 10.0.0.7: icmp_seq=2 ttl=64 time=0.805 ms
64 bytes from 10.0.0.11: icmp_seq=2 ttl=64 time=0.873 ms
64 bytes from 10.0.0.6: icmp_seq=2 ttl=64 time=0.611 ms
64 bytes from 10.0.0.7: icmp_seq=3 ttl=64 time=7.03 ms
64 bytes from 10.0.0.11: icmp_seq=3 ttl=64 time=7.03 ms
64 bytes from 10.0.0.6: icmp_seq=3 ttl=64 time=0.665 ms
64 bytes from 10.0.0.11: icmp_seq=4 ttl=64 time=1.18 ms
64 bytes from 10.0.0.7: icmp_seq=4 ttl=64 time=1.22 ms
64 bytes from 10.0.0.6: icmp_seq=4 ttl=64 time=0.536 ms
64 bytes from 10.0.0.7: icmp_seq=5 ttl=64 time=0.756 ms
64 bytes from 10.0.0.11: icmp_seq=5 ttl=64 time=0.793 ms
64 bytes from 10.0.0.6: icmp_seq=5 ttl=64 time=1.17 ms
64 bytes from 10.0.0.11: icmp_seq=6 ttl=64 time=0.563 ms
64 bytes from 10.0.0.7: icmp_seq=6 ttl=64 time=0.650 ms
64 bytes from 10.0.0.6: icmp_seq=6 ttl=64 time=0.532 ms
64 bytes from 10.0.0.11: icmp_seq=7 ttl=64 time=0.658 ms
64 bytes from 10.0.0.7: icmp_seq=7 ttl=64 time=0.685 ms
64 bytes from 10.0.0.6: icmp_seq=7 ttl=64 time=0.670 ms
64 bytes from 10.0.0.11: icmp_seq=8 ttl=64 time=0.924 ms
64 bytes from 10.0.0.7: icmp_seq=8 ttl=64 time=0.953 ms
64 bytes from 10.0.0.6: icmp_seq=8 ttl=64 time=0.651 ms
64 bytes from 10.0.0.7: icmp_seq=9 ttl=64 time=0.887 ms
64 bytes from 10.0.0.11: icmp_seq=9 ttl=64 time=1.40 ms
64 bytes from 10.0.0.6: icmp_seq=9 ttl=64 time=0.529 ms
64 bytes from 10.0.0.11: icmp_seq=10 ttl=64 time=1.11 ms
64 bytes from 10.0.0.7: icmp_seq=10 ttl=64 time=0.566 ms
64 bytes from 10.0.0.6: icmp_seq=10 ttl=64 time=0.462 ms
64 bytes from 10.0.0.11: icmp_seq=11 ttl=64 time=0.690 ms
64 bytes from 10.0.0.7: icmp_seq=11 ttl=64 time=1.26 ms
64 bytes from 10.0.0.6: icmp_seq=11 ttl=64 time=0.618 ms
64 bytes from 10.0.0.11: icmp_seq=12 ttl=64 time=0.623 ms
64 bytes from 10.0.0.7: icmp_seq=12 ttl=64 time=0.606 ms
64 bytes from 10.0.0.6: icmp_seq=12 ttl=64 time=0.810 ms
64 bytes from 10.0.0.11: icmp_seq=13 ttl=64 time=0.520 ms
64 bytes from 10.0.0.7: icmp_seq=13 ttl=64 time=0.985 ms
64 bytes from 10.0.0.6: icmp_seq=13 ttl=64 time=1.10 ms
64 bytes from 10.0.0.11: icmp_seq=14 ttl=64 time=9.78 ms

--- 10.0.0.11 ping statistics ---
14 packets transmitted, 14 received, 0% packet loss, time 65728ms
rtt min/avg/max/mdev = 0.520/1.914/9.788/2.713 ms
64 bytes from 10.0.0.7: icmp_seq=14 ttl=64 time=1.77 ms

--- 10.0.0.7 ping statistics ---
14 packets transmitted, 14 received, 0% packet loss, time 65874ms
rtt min/avg/max/mdev = 0.566/1.348/7.032/1.607 ms
64 bytes from 10.0.0.6: icmp_seq=14 ttl=64 time=1.05 ms

--- 10.0.0.6 ping statistics ---
14 packets transmitted, 14 received, 0% packet loss, time 66228ms
rtt min/avg/max/mdev = 0.462/0.706/1.171/0.229 ms
