PING 10.0.0.7 (10.0.0.7) 56(84) bytes of data.
64 bytes from 10.0.0.7: icmp_seq=1 ttl=64 time=1.11 ms
PING 10.0.0.11 (10.0.0.11) 56(84) bytes of data.
64 bytes from 10.0.0.11: icmp_seq=1 ttl=64 time=0.791 ms
PING 10.0.0.6 (10.0.0.6) 56(84) bytes of data.
64 bytes from 10.0.0.6: icmp_seq=1 ttl=64 time=1.15 ms
64 bytes from 10.0.0.7: icmp_seq=2 ttl=64 time=0.723 ms
64 bytes from 10.0.0.11: icmp_seq=2 ttl=64 time=0.543 ms
64 bytes from 10.0.0.6: icmp_seq=2 ttl=64 time=0.741 ms
64 bytes from 10.0.0.7: icmp_seq=3 ttl=64 time=7.11 ms
64 bytes from 10.0.0.6: icmp_seq=3 ttl=64 time=0.600 ms
64 bytes from 10.0.0.11: icmp_seq=3 ttl=64 time=0.780 ms
64 bytes from 10.0.0.7: icmp_seq=4 ttl=64 time=1.09 ms
64 bytes from 10.0.0.6: icmp_seq=4 ttl=64 time=0.792 ms
64 bytes from 10.0.0.11: icmp_seq=4 ttl=64 time=0.806 ms
64 bytes from 10.0.0.7: icmp_seq=5 ttl=64 time=0.735 ms
64 bytes from 10.0.0.6: icmp_seq=5 ttl=64 time=0.736 ms
64 bytes from 10.0.0.11: icmp_seq=5 ttl=64 time=0.752 ms
64 bytes from 10.0.0.7: icmp_seq=6 ttl=64 time=0.679 ms
64 bytes from 10.0.0.6: icmp_seq=6 ttl=64 time=1.00 ms
64 bytes from 10.0.0.11: icmp_seq=6 ttl=64 time=1.23 ms
64 bytes from 10.0.0.7: icmp_seq=7 ttl=64 time=7.75 ms
64 bytes from 10.0.0.6: icmp_seq=7 ttl=64 time=1.59 ms
64 bytes from 10.0.0.11: icmp_seq=7 ttl=64 time=0.481 ms
64 bytes from 10.0.0.7: icmp_seq=8 ttl=64 time=0.560 ms
64 bytes from 10.0.0.6: icmp_seq=8 ttl=64 time=0.696 ms
64 bytes from 10.0.0.11: icmp_seq=8 ttl=64 time=1.51 ms
64 bytes from 10.0.0.7: icmp_seq=9 ttl=64 time=7.40 ms
64 bytes from 10.0.0.6: icmp_seq=9 ttl=64 time=7.50 ms
64 bytes from 10.0.0.11: icmp_seq=9 ttl=64 time=1.48 ms
64 bytes from 10.0.0.6: icmp_seq=10 ttl=64 time=0.662 ms
64 bytes from 10.0.0.7: icmp_seq=10 ttl=64 time=0.846 ms
64 bytes from 10.0.0.11: icmp_seq=10 ttl=64 time=1.19 ms
64 bytes from 10.0.0.11: icmp_seq=11 ttl=64 time=7.54 ms
64 bytes from 10.0.0.6: icmp_seq=11 ttl=64 time=0.742 ms
64 bytes from 10.0.0.7: icmp_seq=11 ttl=64 time=0.758 ms
64 bytes from 10.0.0.11: icmp_seq=12 ttl=64 time=0.880 ms
64 bytes from 10.0.0.6: icmp_seq=12 ttl=64 time=0.708 ms
64 bytes from 10.0.0.7: icmp_seq=12 ttl=64 time=0.718 ms
64 bytes from 10.0.0.11: icmp_seq=13 ttl=64 time=0.864 ms
64 bytes from 10.0.0.6: icmp_seq=13 ttl=64 time=0.789 ms
64 bytes from 10.0.0.7: icmp_seq=13 ttl=64 time=1.04 ms
64 bytes from 10.0.0.11: icmp_seq=14 ttl=64 time=1.11 ms

--- 10.0.0.11 ping statistics ---
14 packets transmitted, 14 received, 0% packet loss, time 65895ms
rtt min/avg/max/mdev = 0.481/1.427/7.545/1.723 ms
64 bytes from 10.0.0.7: icmp_seq=14 ttl=64 time=1.52 ms

--- 10.0.0.7 ping statistics ---
14 packets transmitted, 14 received, 0% packet loss, time 66045ms
rtt min/avg/max/mdev = 0.560/2.291/7.757/2.694 ms
64 bytes from 10.0.0.6: icmp_seq=14 ttl=64 time=0.658 ms

--- 10.0.0.6 ping statistics ---
14 packets transmitted, 14 received, 0% packet loss, time 66089ms
rtt min/avg/max/mdev = 0.600/1.313/7.508/1.736 ms
