PING 10.0.0.7 (10.0.0.7) 56(84) bytes of data.
64 bytes from 10.0.0.7: icmp_seq=1 ttl=64 time=1.18 ms
PING 10.0.0.6 (10.0.0.6) 56(84) bytes of data.
64 bytes from 10.0.0.6: icmp_seq=1 ttl=64 time=0.684 ms
PING 10.0.0.11 (10.0.0.11) 56(84) bytes of data.
64 bytes from 10.0.0.11: icmp_seq=1 ttl=64 time=0.755 ms
64 bytes from 10.0.0.7: icmp_seq=2 ttl=64 time=1.27 ms
64 bytes from 10.0.0.6: icmp_seq=2 ttl=64 time=6.15 ms
64 bytes from 10.0.0.11: icmp_seq=2 ttl=64 time=6.11 ms
64 bytes from 10.0.0.7: icmp_seq=3 ttl=64 time=11.9 ms
64 bytes from 10.0.0.11: icmp_seq=3 ttl=64 time=1.42 ms
64 bytes from 10.0.0.6: icmp_seq=3 ttl=64 time=1.44 ms
64 bytes from 10.0.0.7: icmp_seq=4 ttl=64 time=6.05 ms
64 bytes from 10.0.0.6: icmp_seq=4 ttl=64 time=13.5 ms
64 bytes from 10.0.0.11: icmp_seq=4 ttl=64 time=13.5 ms
64 bytes from 10.0.0.7: icmp_seq=5 ttl=64 time=1.22 ms
64 bytes from 10.0.0.6: icmp_seq=5 ttl=64 time=0.950 ms
64 bytes from 10.0.0.11: icmp_seq=5 ttl=64 time=6.86 ms
64 bytes from 10.0.0.7: icmp_seq=6 ttl=64 time=1.18 ms
64 bytes from 10.0.0.11: icmp_seq=6 ttl=64 time=1.86 ms
64 bytes from 10.0.0.6: icmp_seq=6 ttl=64 time=0.556 ms
64 bytes from 10.0.0.7: icmp_seq=7 ttl=64 time=6.28 ms
64 bytes from 10.0.0.11: icmp_seq=7 ttl=64 time=3.86 ms
64 bytes from 10.0.0.6: icmp_seq=7 ttl=64 time=10.6 ms
64 bytes from 10.0.0.7: icmp_seq=8 ttl=64 time=1.07 ms
64 bytes from 10.0.0.11: icmp_seq=8 ttl=64 time=0.549 ms
64 bytes from 10.0.0.6: icmp_seq=8 ttl=64 time=0.468 ms
64 bytes from 10.0.0.7: icmp_seq=9 ttl=64 time=14.4 ms
64 bytes from 10.0.0.11: icmp_seq=9 ttl=64 time=5.80 ms
64 bytes from 10.0.0.6: icmp_seq=9 ttl=64 time=5.03 ms
64 bytes from 10.0.0.7: icmp_seq=10 ttl=64 time=8.68 ms
64 bytes from 10.0.0.11: icmp_seq=10 ttl=64 time=0.500 ms
64 bytes from 10.0.0.6: icmp_seq=10 ttl=64 time=0.807 ms
64 bytes from 10.0.0.7: icmp_seq=11 ttl=64 time=3.31 ms
64 bytes from 10.0.0.11: icmp_seq=11 ttl=64 time=6.11 ms
64 bytes from 10.0.0.6: icmp_seq=11 ttl=64 time=1.52 ms
64 bytes from 10.0.0.7: icmp_seq=12 ttl=64 time=13.1 ms
64 bytes from 10.0.0.11: icmp_seq=12 ttl=64 time=2.61 ms
64 bytes from 10.0.0.6: icmp_seq=12 ttl=64 time=9.41 ms
64 bytes from 10.0.0.7: icmp_seq=13 ttl=64 time=0.644 ms
64 bytes from 10.0.0.11: icmp_seq=13 ttl=64 time=13.6 ms
64 bytes from 10.0.0.6: icmp_seq=13 ttl=64 time=6.05 ms
64 bytes from 10.0.0.7: icmp_seq=14 ttl=64 time=0.686 ms

--- 10.0.0.7 ping statistics ---
14 packets transmitted, 14 received, 0% packet loss, time 65171ms
rtt min/avg/max/mdev = 0.644/5.081/14.484/4.880 ms
64 bytes from 10.0.0.11: icmp_seq=14 ttl=64 time=6.23 ms

--- 10.0.0.11 ping statistics ---
14 packets transmitted, 14 received, 0% packet loss, time 65531ms
rtt min/avg/max/mdev = 0.500/4.993/13.659/4.173 ms
64 bytes from 10.0.0.6: icmp_seq=14 ttl=64 time=2.41 ms

--- 10.0.0.6 ping statistics ---
14 packets transmitted, 14 received, 0% packet loss, time 65788ms
rtt min/avg/max/mdev = 0.468/4.259/13.518/4.164 ms
