PING 10.0.0.6 (10.0.0.6) 56(84) bytes of data.
64 bytes from 10.0.0.6: icmp_seq=1 ttl=64 time=7.06 ms
PING 10.0.0.11 (10.0.0.11) 56(84) bytes of data.
64 bytes from 10.0.0.11: icmp_seq=1 ttl=64 time=7.01 ms
PING 10.0.0.7 (10.0.0.7) 56(84) bytes of data.
64 bytes from 10.0.0.7: icmp_seq=1 ttl=64 time=0.788 ms
64 bytes from 10.0.0.11: icmp_seq=2 ttl=64 time=3.24 ms
64 bytes from 10.0.0.6: icmp_seq=2 ttl=64 time=3.24 ms
64 bytes from 10.0.0.7: icmp_seq=2 ttl=64 time=3.49 ms
64 bytes from 10.0.0.6: icmp_seq=3 ttl=64 time=0.578 ms
64 bytes from 10.0.0.11: icmp_seq=3 ttl=64 time=0.621 ms
64 bytes from 10.0.0.7: icmp_seq=3 ttl=64 time=1.75 ms
64 bytes from 10.0.0.7: icmp_seq=4 ttl=64 time=9.96 ms
64 bytes from 10.0.0.7: icmp_seq=5 ttl=64 time=4.84 ms
64 bytes from 10.0.0.11: icmp_seq=5 ttl=64 time=1.08 ms
64 bytes from 10.0.0.6: icmp_seq=5 ttl=64 time=1.12 ms
64 bytes from 10.0.0.7: icmp_seq=6 ttl=64 time=2.33 ms
64 bytes from 10.0.0.6: icmp_seq=6 ttl=64 time=0.494 ms
64 bytes from 10.0.0.11: icmp_seq=6 ttl=64 time=0.652 ms
64 bytes from 10.0.0.7: icmp_seq=7 ttl=64 time=0.819 ms
64 bytes from 10.0.0.11: icmp_seq=7 ttl=64 time=5.27 ms
64 bytes from 10.0.0.6: icmp_seq=7 ttl=64 time=6.52 ms
64 bytes from 10.0.0.7: icmp_seq=8 ttl=64 time=13.4 ms
64 bytes from 10.0.0.6: icmp_seq=8 ttl=64 time=1.65 ms
64 bytes from 10.0.0.11: icmp_seq=8 ttl=64 time=8.60 ms
64 bytes from 10.0.0.7: icmp_seq=9 ttl=64 time=10.0 ms
64 bytes from 10.0.0.11: icmp_seq=9 ttl=64 time=0.625 ms
64 bytes from 10.0.0.6: icmp_seq=9 ttl=64 time=5.89 ms
64 bytes from 10.0.0.7: icmp_seq=10 ttl=64 time=4.65 ms
64 bytes from 10.0.0.6: icmp_seq=10 ttl=64 time=1.40 ms
64 bytes from 10.0.0.7: icmp_seq=11 ttl=64 time=1.29 ms
64 bytes from 10.0.0.6: icmp_seq=11 ttl=64 time=0.589 ms
64 bytes from 10.0.0.7: icmp_seq=12 ttl=64 time=6.81 ms
64 bytes from 10.0.0.6: icmp_seq=12 ttl=64 time=2.69 ms
64 bytes from 10.0.0.11: icmp_seq=12 ttl=64 time=12.6 ms
64 bytes from 10.0.0.7: icmp_seq=13 ttl=64 time=0.526 ms
64 bytes from 10.0.0.6: icmp_seq=13 ttl=64 time=0.754 ms
64 bytes from 10.0.0.7: icmp_seq=14 ttl=64 time=0.910 ms

--- 10.0.0.7 ping statistics ---
14 packets transmitted, 14 received, 0% packet loss, time 65354ms
rtt min/avg/max/mdev = 0.526/4.407/13.427/4.012 ms
64 bytes from 10.0.0.6: icmp_seq=14 ttl=64 time=0.449 ms
64 bytes from 10.0.0.11: icmp_seq=14 ttl=64 time=7.53 ms

--- 10.0.0.6 ping statistics ---
14 packets transmitted, 13 received, 7% packet loss, time 65889ms
rtt min/avg/max/mdev = 0.449/2.497/7.067/2.347 ms

--- 10.0.0.11 ping statistics ---
14 packets transmitted, 10 received, 28% packet loss, time 66140ms
rtt min/avg/max/mdev = 0.621/4.725/12.602/3.953 ms
