PING 10.0.0.7 (10.0.0.7) 56(84) bytes of data.
64 bytes from 10.0.0.7: icmp_seq=1 ttl=64 time=0.574 ms
PING 10.0.0.6 (10.0.0.6) 56(84) bytes of data.
64 bytes from 10.0.0.6: icmp_seq=1 ttl=64 time=1.58 ms
PING 10.0.0.11 (10.0.0.11) 56(84) bytes of data.
64 bytes from 10.0.0.11: icmp_seq=1 ttl=64 time=0.420 ms
64 bytes from 10.0.0.7: icmp_seq=2 ttl=64 time=2.49 ms
64 bytes from 10.0.0.6: icmp_seq=2 ttl=64 time=7.63 ms
64 bytes from 10.0.0.11: icmp_seq=2 ttl=64 time=11.2 ms
64 bytes from 10.0.0.6: icmp_seq=3 ttl=64 time=1.85 ms
64 bytes from 10.0.0.7: icmp_seq=4 ttl=64 time=0.692 ms
64 bytes from 10.0.0.6: icmp_seq=4 ttl=64 time=12.6 ms
64 bytes from 10.0.0.11: icmp_seq=4 ttl=64 time=5.55 ms
64 bytes from 10.0.0.6: icmp_seq=5 ttl=64 time=7.25 ms
64 bytes from 10.0.0.7: icmp_seq=5 ttl=64 time=6.74 ms
64 bytes from 10.0.0.11: icmp_seq=5 ttl=64 time=2.43 ms
64 bytes from 10.0.0.7: icmp_seq=6 ttl=64 time=3.27 ms
64 bytes from 10.0.0.6: icmp_seq=7 ttl=64 time=6.70 ms
64 bytes from 10.0.0.7: icmp_seq=7 ttl=64 time=2.36 ms
64 bytes from 10.0.0.11: icmp_seq=7 ttl=64 time=1.99 ms
64 bytes from 10.0.0.6: icmp_seq=8 ttl=64 time=0.695 ms
64 bytes from 10.0.0.7: icmp_seq=8 ttl=64 time=5.59 ms
64 bytes from 10.0.0.11: icmp_seq=8 ttl=64 time=13.0 ms
64 bytes from 10.0.0.7: icmp_seq=9 ttl=64 time=14.3 ms
64 bytes from 10.0.0.6: icmp_seq=9 ttl=64 time=0.818 ms
64 bytes from 10.0.0.11: icmp_seq=9 ttl=64 time=0.705 ms
64 bytes from 10.0.0.7: icmp_seq=10 ttl=64 time=12.0 ms
64 bytes from 10.0.0.6: icmp_seq=10 ttl=64 time=7.80 ms
64 bytes from 10.0.0.11: icmp_seq=10 ttl=64 time=7.84 ms
64 bytes from 10.0.0.6: icmp_seq=11 ttl=64 time=2.73 ms
64 bytes from 10.0.0.11: icmp_seq=11 ttl=64 time=2.85 ms
64 bytes from 10.0.0.7: icmp_seq=12 ttl=64 time=0.783 ms
64 bytes from 10.0.0.11: icmp_seq=12 ttl=64 time=8.03 ms
64 bytes from 10.0.0.6: icmp_seq=12 ttl=64 time=9.36 ms
64 bytes from 10.0.0.7: icmp_seq=13 ttl=64 time=2.91 ms
64 bytes from 10.0.0.6: icmp_seq=13 ttl=64 time=0.632 ms
64 bytes from 10.0.0.11: icmp_seq=13 ttl=64 time=0.649 ms
64 bytes from 10.0.0.7: icmp_seq=14 ttl=64 time=10.1 ms
64 bytes from 10.0.0.6: icmp_seq=14 ttl=64 time=2.88 ms
64 bytes from 10.0.0.11: icmp_seq=14 ttl=64 time=2.89 ms

--- 10.0.0.7 ping statistics ---
14 packets transmitted, 12 received, 14% packet loss, time 65368ms
rtt min/avg/max/mdev = 0.574/5.163/14.398/4.504 ms

--- 10.0.0.11 ping statistics ---
14 packets transmitted, 12 received, 14% packet loss, time 65619ms
rtt min/avg/max/mdev = 0.420/4.814/13.091/4.136 ms

--- 10.0.0.6 ping statistics ---
14 packets transmitted, 13 received, 7% packet loss, time 65666ms
rtt min/avg/max/mdev = 0.632/4.814/12.627/3.781 ms
