PING 10.0.0.7 (10.0.0.7) 56(84) bytes of data.
64 bytes from 10.0.0.7: icmp_seq=1 ttl=64 time=0.640 ms
PING 10.0.0.6 (10.0.0.6) 56(84) bytes of data.
64 bytes from 10.0.0.6: icmp_seq=1 ttl=64 time=0.765 ms
PING 10.0.0.11 (10.0.0.11) 56(84) bytes of data.
64 bytes from 10.0.0.11: icmp_seq=1 ttl=64 time=0.682 ms
64 bytes from 10.0.0.7: icmp_seq=2 ttl=64 time=1.21 ms
64 bytes from 10.0.0.6: icmp_seq=2 ttl=64 time=0.888 ms
64 bytes from 10.0.0.11: icmp_seq=2 ttl=64 time=0.688 ms
64 bytes from 10.0.0.7: icmp_seq=3 ttl=64 time=0.926 ms
64 bytes from 10.0.0.6: icmp_seq=3 ttl=64 time=1.29 ms
64 bytes from 10.0.0.11: icmp_seq=3 ttl=64 time=1.31 ms
64 bytes from 10.0.0.7: icmp_seq=4 ttl=64 time=1.27 ms
64 bytes from 10.0.0.6: icmp_seq=4 ttl=64 time=1.09 ms
64 bytes from 10.0.0.11: icmp_seq=4 ttl=64 time=1.07 ms
64 bytes from 10.0.0.7: icmp_seq=5 ttl=64 time=1.41 ms
64 bytes from 10.0.0.6: icmp_seq=5 ttl=64 time=0.739 ms
64 bytes from 10.0.0.11: icmp_seq=5 ttl=64 time=1.24 ms
64 bytes from 10.0.0.7: icmp_seq=6 ttl=64 time=7.47 ms
64 bytes from 10.0.0.11: icmp_seq=6 ttl=64 time=1.41 ms
64 bytes from 10.0.0.6: icmp_seq=6 ttl=64 time=1.20 ms
64 bytes from 10.0.0.7: icmp_seq=7 ttl=64 time=0.799 ms
64 bytes from 10.0.0.11: icmp_seq=7 ttl=64 time=0.931 ms
64 bytes from 10.0.0.6: icmp_seq=7 ttl=64 time=0.590 ms
64 bytes from 10.0.0.7: icmp_seq=8 ttl=64 time=0.882 ms
64 bytes from 10.0.0.11: icmp_seq=8 ttl=64 time=0.881 ms
64 bytes from 10.0.0.6: icmp_seq=8 ttl=64 time=1.40 ms
64 bytes from 10.0.0.11: icmp_seq=9 ttl=64 time=0.540 ms
64 bytes from 10.0.0.7: icmp_seq=9 ttl=64 time=1.06 ms
64 bytes from 10.0.0.6: icmp_seq=9 ttl=64 time=1.35 ms
64 bytes from 10.0.0.7: icmp_seq=10 ttl=64 time=1.03 ms
64 bytes from 10.0.0.11: icmp_seq=10 ttl=64 time=0.821 ms
64 bytes from 10.0.0.6: icmp_seq=10 ttl=64 time=1.07 ms
64 bytes from 10.0.0.7: icmp_seq=11 ttl=64 time=1.69 ms
64 bytes from 10.0.0.6: icmp_seq=11 ttl=64 time=0.699 ms
64 bytes from 10.0.0.11: icmp_seq=11 ttl=64 time=1.57 ms
64 bytes from 10.0.0.7: icmp_seq=12 ttl=64 time=0.765 ms
64 bytes from 10.0.0.11: icmp_seq=12 ttl=64 time=1.05 ms
64 bytes from 10.0.0.6: icmp_seq=12 ttl=64 time=1.60 ms
64 bytes from 10.0.0.7: icmp_seq=13 ttl=64 time=0.551 ms
64 bytes from 10.0.0.11: icmp_seq=13 ttl=64 time=0.655 ms
64 bytes from 10.0.0.6: icmp_seq=13 ttl=64 time=1.23 ms
64 bytes from 10.0.0.7: icmp_seq=14 ttl=64 time=0.799 ms

--- 10.0.0.7 ping statistics ---
14 packets transmitted, 14 received, 0% packet loss, time 65787ms
rtt min/avg/max/mdev = 0.551/1.465/7.476/1.694 ms
64 bytes from 10.0.0.11: icmp_seq=14 ttl=64 time=0.822 ms

--- 10.0.0.11 ping statistics ---
14 packets transmitted, 14 received, 0% packet loss, time 65685ms
rtt min/avg/max/mdev = 0.540/0.979/1.579/0.303 ms
64 bytes from 10.0.0.6: icmp_seq=14 ttl=64 time=1.21 ms

--- 10.0.0.6 ping statistics ---
14 packets transmitted, 14 received, 0% packet loss, time 65790ms
rtt min/avg/max/mdev = 0.590/1.083/1.606/0.293 ms
