"Dstat 0.7.2 CSV output"
"Author:","Dag Wieers <dag@wieers.com>",,,,"URL:","http://dag.wieers.com/home-made/dstat/"
"Host:","Server3",,,,"User:","mstevan"
"Cmdline:","dstat --output /home/mstevan/logs/experiment_2.2/dstat/vs_1024-vcpr_8-rep_3.csv 5 14",,,,"Date:","28 Oct 2019 01:45:41 UTC"

"total cpu usage",,,,,,"dsk/total",,"net/total",,"paging",,"system",
"usr","sys","idl","wai","hiq","siq","read","writ","recv","send","in","out","int","csw"
3.911,8.360,85.731,0.738,0.0,1.260,19924.867,4646995.907,0.0,0.0,0.0,0.0,0.389,1581.819
3.617,8.511,86.170,0.0,0.0,1.702,0.0,1638.400,946085.400,12630545.0,0.0,0.0,0.0,2467.800
3.625,8.316,86.994,0.0,0.0,1.066,0.0,1638.400,940032.600,12508649.0,0.0,0.0,0.0,2413.200
4.622,8.403,86.345,0.0,0.0,0.630,0.0,819.200,936472.0,12505073.200,0.0,0.0,0.0,2324.400
4.025,9.534,85.593,0.0,0.0,0.847,0.0,1638.400,942384.600,12539081.600,0.0,0.0,0.0,2419.600
4.017,8.668,86.258,0.0,0.0,1.057,0.0,18022.400,938349.400,12488929.200,0.0,0.0,0.0,2432.200
3.534,9.563,85.863,0.0,0.0,1.040,0.0,1638.400,936956.0,12510752.800,0.0,0.0,0.0,2462.0
3.750,9.375,85.208,0.0,0.0,1.667,0.0,3276.800,939070.800,12500359.200,0.0,0.0,0.0,2435.600
3.158,9.684,85.895,0.0,0.0,1.263,0.0,819.200,936179.0,12499951.200,0.0,0.0,0.0,2478.200
3.830,8.298,87.021,0.0,0.0,0.851,0.0,1638.400,939478.200,12497633.800,0.0,0.0,0.0,2466.400
3.822,9.342,85.775,0.0,0.0,1.062,0.0,1638.400,940096.0,12505668.600,0.0,0.0,0.0,2508.600
3.838,8.742,86.354,0.0,0.0,1.066,0.0,819.200,939275.0,12534024.800,0.0,0.0,0.0,2439.600
3.433,7.725,87.339,0.0,0.0,1.502,0.0,22118.400,935978.200,12458893.800,0.0,0.0,0.0,2427.200
3.814,8.475,86.229,0.0,0.0,1.483,0.0,1638.400,942360.600,12542819.400,0.0,0.0,0.0,2414.400
3.004,6.438,89.485,0.0,0.0,1.073,0.0,2457.600,913832.800,12198479.600,0.0,0.0,0.0,2416.600
