"Dstat 0.7.2 CSV output"
"Author:","Dag Wieers <dag@wieers.com>",,,,"URL:","http://dag.wieers.com/home-made/dstat/"
"Host:","Server3",,,,"User:","mstevan"
"Cmdline:","dstat --output /home/mstevan/logs/experiment_2.2/dstat/vs_1024-vcpr_16-rep_1.csv 5 14",,,,"Date:","28 Oct 2019 01:48:03 UTC"

"total cpu usage",,,,,,"dsk/total",,"net/total",,"paging",,"system",
"usr","sys","idl","wai","hiq","siq","read","writ","recv","send","in","out","int","csw"
3.912,8.361,85.741,0.727,0.0,1.259,19628.154,4577858.707,0.0,0.0,0.0,0.0,0.384,1593.794
2.326,6.765,89.006,0.423,0.0,1.480,0.0,18022.400,939586.200,12542422.600,0.0,0.0,0.0,1256.600
3.158,7.579,88.0,0.0,0.0,1.263,0.0,1638.400,939291.600,12500042.200,0.0,0.0,0.0,1228.0
3.830,5.319,89.574,0.0,0.0,1.277,0.0,1638.400,939694.600,12510868.400,0.0,0.0,0.0,1234.200
3.534,7.692,87.734,0.0,0.0,1.040,0.0,819.200,936019.0,12489105.400,0.0,0.0,0.0,1230.200
2.954,8.228,87.553,0.0,0.0,1.266,0.0,2457.600,939086.800,12500040.400,0.0,0.0,0.0,1221.600
3.766,8.159,86.192,0.0,0.0,1.883,0.0,1638.400,939648.600,12500003.600,0.0,0.0,0.0,1244.800
3.975,6.695,88.285,0.0,0.0,1.046,0.0,2457.600,936817.0,12499961.600,0.0,0.0,0.0,1268.800
3.132,8.351,87.265,0.0,0.0,1.253,0.0,22118.400,939145.200,12499918.0,0.0,0.0,0.0,1242.800
3.151,7.143,88.655,0.0,0.0,1.050,0.0,819.200,936204.400,12500029.800,0.0,0.0,0.0,1218.600
5.198,6.861,86.694,0.0,0.0,1.247,0.0,1638.400,939301.0,12500030.0,0.0,0.0,0.0,1196.800
3.542,7.708,86.875,0.0,0.0,1.875,0.0,1638.400,939201.600,12499959.800,0.0,0.0,0.0,1215.400
2.714,7.724,88.100,0.0,0.0,1.461,0.0,819.200,936118.600,12499943.600,0.0,0.0,0.0,1216.400
3.347,7.741,87.657,0.0,0.0,1.255,0.0,2457.600,939196.200,12499966.600,0.0,0.0,0.0,1249.600
3.326,7.277,88.150,0.416,0.0,0.832,0.0,16384.0,893287.200,11879814.200,0.0,0.0,0.0,1221.600
