"Dstat 0.7.2 CSV output"
"Author:","Dag Wieers <dag@wieers.com>",,,,"URL:","http://dag.wieers.com/home-made/dstat/"
"Host:","Server3",,,,"User:","mstevan"
"Cmdline:","dstat --output /home/mstevan/logs/experiment_2.2/dstat/vs_1024-vcpr_16-rep_3.csv 5 14",,,,"Date:","28 Oct 2019 01:50:25 UTC"

"total cpu usage",,,,,,"dsk/total",,"net/total",,"paging",,"system",
"usr","sys","idl","wai","hiq","siq","read","writ","recv","send","in","out","int","csw"
3.904,8.349,85.770,0.717,0.0,1.260,19340.408,4510817.974,0.0,0.0,0.0,0.0,0.378,1588.154
3.125,7.917,87.500,0.0,0.0,1.458,0.0,1638.400,945415.0,12583965.800,0.0,0.0,0.0,1276.400
3.774,8.386,86.583,0.0,0.0,1.258,0.0,819.200,936434.400,12496726.0,0.0,0.0,0.0,1222.200
3.534,7.277,87.526,0.208,0.0,1.455,0.0,18022.400,936122.200,12452324.400,0.0,0.0,0.0,1246.0
2.537,7.188,88.372,0.0,0.0,1.903,0.0,4915.200,942681.0,12547743.200,0.0,0.0,0.0,1241.600
2.929,7.322,88.494,0.0,0.0,1.255,0.0,819.200,935242.200,12489500.800,0.0,0.0,0.0,1233.0
3.934,8.075,86.128,0.0,0.0,1.863,0.0,1638.400,940612.200,12517116.600,0.0,0.0,0.0,1247.400
2.306,7.547,89.099,0.0,0.0,1.048,0.0,3276.800,936429.800,12495552.200,0.0,0.0,0.0,1240.600
3.774,8.176,86.792,0.0,0.0,1.258,0.0,1638.400,938989.800,12498097.800,0.0,0.0,0.0,1193.0
3.397,7.431,87.261,0.212,0.0,1.699,0.0,15564.800,939221.800,12499994.200,0.0,0.0,0.0,1193.0
3.313,8.489,86.957,0.0,0.0,1.242,0.0,819.200,935283.200,12487875.600,0.0,0.0,0.0,1216.400
3.766,7.741,87.238,0.0,0.0,1.255,0.0,1638.400,943088.800,12551882.0,0.0,0.0,0.0,1257.0
3.727,8.075,86.542,0.0,0.0,1.656,0.0,1638.400,939025.0,12497911.400,0.0,0.0,0.0,1223.0
2.720,7.741,88.285,0.0,0.0,1.255,0.0,819.200,936218.600,12500875.600,0.0,0.0,0.0,1207.800
3.333,8.125,86.875,0.0,0.0,1.667,0.0,3276.800,894621.200,11897170.200,0.0,0.0,0.0,1211.0
