"Dstat 0.7.2 CSV output"
"Author:","Dag Wieers <dag@wieers.com>",,,,"URL:","http://dag.wieers.com/home-made/dstat/"
"Host:","Server3",,,,"User:","mstevan"
"Cmdline:","dstat --output /home/mstevan/logs/experiment_2.2/dstat/vs_256-vcpr_8-rep_3.csv 5 14",,,,"Date:","28 Oct 2019 01:07:50 UTC"

"total cpu usage",,,,,,"dsk/total",,"net/total",,"paging",,"system",
"usr","sys","idl","wai","hiq","siq","read","writ","recv","send","in","out","int","csw"
2.357,4.538,91.552,0.917,0.0,0.637,26246.805,6119966.529,0.0,0.0,0.0,0.0,0.512,959.338
8.933,21.340,67.246,0.0,0.0,2.481,0.0,819.200,1164346.800,4911993.0,0.0,0.0,0.0,4505.800
9.474,25.526,63.158,0.0,0.0,1.842,0.0,1638.400,1153449.400,4855255.800,0.0,0.0,0.200,4469.600
10.966,20.104,65.796,0.0,0.0,3.133,0.0,819.200,1159503.0,4879436.0,0.0,0.0,0.0,4367.200
8.947,24.474,62.895,0.526,0.0,3.158,0.0,18841.600,1162150.0,4903538.0,0.0,0.0,0.0,4225.0
9.950,21.144,65.423,0.0,0.0,3.483,0.0,1638.400,1132606.200,4766824.400,0.0,0.0,0.0,4344.400
9.045,19.347,69.095,0.0,0.0,2.513,0.0,819.200,1168483.400,4930932.800,0.0,0.0,0.0,4489.600
9.774,22.055,65.664,0.0,0.0,2.506,0.0,4096.0,1136970.800,4783002.800,0.0,0.0,0.0,4471.600
9.044,26.098,61.240,0.0,0.0,3.618,0.0,1638.400,1129655.200,4751028.600,0.0,0.0,0.0,4237.400
8.651,21.374,67.176,0.0,0.0,2.799,0.0,819.200,1157463.800,4883394.600,0.0,0.0,0.0,4406.200
8.861,18.987,69.367,0.0,0.0,2.785,0.0,1638.400,1165453.600,4907628.400,0.0,0.0,0.0,4596.600
8.651,24.427,62.850,0.254,0.0,3.817,0.0,18022.400,1203146.600,5076072.800,0.0,0.0,0.0,4531.0
8.290,21.244,68.135,0.0,0.0,2.332,0.0,1638.400,1160666.800,4885632.200,0.0,0.0,0.0,4533.400
8.043,23.592,64.343,0.0,0.0,4.021,0.0,1638.400,1140425.400,4800806.800,0.0,0.0,0.0,4434.600
8.479,20.449,68.329,0.0,0.0,2.743,0.0,2457.600,1131684.600,4772213.0,0.0,0.0,0.0,4663.600
