"Dstat 0.7.2 CSV output"
"Author:","Dag Wieers <dag@wieers.com>",,,,"URL:","http://dag.wieers.com/home-made/dstat/"
"Host:","Server3",,,,"User:","mstevan"
"Cmdline:","dstat --output /home/mstevan/logs/experiment_2.2/dstat/vs_256-vcpr_4-rep_2.csv 5 14",,,,"Date:","28 Oct 2019 01:01:59 UTC"

"total cpu usage",,,,,,"dsk/total",,"net/total",,"paging",,"system",
"usr","sys","idl","wai","hiq","siq","read","writ","recv","send","in","out","int","csw"
2.073,3.857,92.560,0.952,0.0,0.557,27601.174,6436079.382,0.0,0.0,0.0,0.0,0.538,753.488
7.335,16.626,73.594,0.244,0.0,2.200,0.0,18841.600,924204.200,3884574.800,0.0,0.0,0.0,5354.600
9.360,17.980,70.443,0.0,0.0,2.217,0.0,1638.400,929083.600,3905226.200,0.0,0.0,0.0,5355.200
6.553,17.961,74.029,0.0,0.0,1.456,0.0,819.200,917951.200,3871656.400,0.0,0.0,0.0,5358.600
6.636,16.476,75.515,0.0,0.0,1.373,0.0,1638.400,907548.0,3813862.200,0.0,0.0,0.0,5366.800
6.089,17.096,75.176,0.0,0.0,1.639,0.0,819.200,922024.400,3885915.200,0.0,0.0,0.0,5538.400
7.143,14.286,76.190,0.0,0.0,2.381,0.0,2457.600,918411.400,3859373.200,0.0,0.0,0.0,5631.600
7.335,18.826,71.638,0.244,0.0,1.956,0.0,18022.400,912328.800,3835118.0,0.0,0.0,0.0,5385.400
5.869,14.085,78.638,0.0,0.0,1.408,0.0,4096.0,928446.800,3915071.200,0.0,0.0,0.0,5708.200
6.636,16.705,74.371,0.0,0.0,2.288,0.0,1638.400,920008.200,3868418.200,0.0,0.0,0.0,5781.800
8.313,17.359,71.638,0.0,0.0,2.689,0.0,1638.400,924648.0,3886747.200,0.0,0.0,0.0,5805.400
8.845,17.445,72.236,0.0,0.0,1.474,0.0,819.200,922237.0,3889929.800,0.0,0.0,0.200,5594.200
7.090,19.804,71.394,0.0,0.0,1.711,0.0,1638.400,942548.600,3962701.800,0.0,0.0,0.0,5484.400
6.326,18.978,72.506,0.730,0.0,1.460,0.0,14745.600,931137.800,3925891.400,0.0,0.0,0.0,5522.400
8.571,12.381,76.905,0.0,0.0,2.143,0.0,3276.800,903404.0,3795629.800,0.0,0.0,0.0,5530.800
