"Dstat 0.7.2 CSV output"
"Author:","Dag Wieers <dag@wieers.com>",,,,"URL:","http://dag.wieers.com/home-made/dstat/"
"Host:","Server3",,,,"User:","mstevan"
"Cmdline:","dstat --output /home/mstevan/logs/experiment_2.2/dstat/vs_256-vcpr_8-rep_2.csv 5 14",,,,"Date:","28 Oct 2019 01:06:40 UTC"

"total cpu usage",,,,,,"dsk/total",,"net/total",,"paging",,"system",
"usr","sys","idl","wai","hiq","siq","read","writ","recv","send","in","out","int","csw"
2.293,4.388,91.779,0.924,0.0,0.616,26507.205,6180642.880,0.0,0.0,0.0,0.0,0.517,928.351
10.582,24.339,61.905,0.0,0.0,3.175,0.0,819.200,1213762.400,5121650.200,0.0,0.0,0.0,4105.200
10.554,23.747,63.061,0.0,0.0,2.639,0.0,1638.400,1216168.800,5121087.400,0.0,0.0,0.0,3988.600
9.946,24.731,61.559,0.0,0.0,3.763,0.0,1638.400,1177489.400,4954865.600,0.0,0.0,0.0,3936.0
9.974,26.087,60.358,0.0,0.0,3.581,0.0,819.200,1188537.400,5015295.400,0.0,0.0,0.0,4148.200
10.290,21.636,63.588,0.0,0.0,4.485,0.0,2457.600,1210638.600,5096352.200,0.0,0.0,0.0,4186.600
9.845,22.798,63.472,0.259,0.0,3.627,0.0,10649.600,1174682.0,4944551.400,0.0,0.0,0.0,4138.600
9.162,21.466,66.754,0.0,0.0,2.618,0.0,11468.800,1196069.200,5046330.200,0.0,0.0,0.0,4195.600
10.853,22.739,63.566,0.0,0.0,2.842,0.0,1638.400,1207375.400,5081119.200,0.0,0.0,0.0,4178.800
10.345,24.403,62.334,0.0,0.0,2.918,0.0,819.200,1180330.0,4978804.0,0.0,0.0,0.0,4069.600
10.417,25.0,61.198,0.0,0.0,3.385,0.0,1638.400,1200759.200,5056107.400,0.0,0.0,0.0,4105.600
10.997,24.041,62.404,0.0,0.0,2.558,0.0,1638.400,1183027.0,4979570.200,0.0,0.0,0.0,4117.800
10.914,20.051,65.990,0.0,0.0,3.046,0.0,819.200,1191695.600,5028574.800,0.0,0.0,0.0,4013.600
11.082,20.317,65.435,0.264,0.0,2.902,0.0,18841.600,1200160.200,5054257.600,0.0,0.0,0.0,4047.200
7.673,23.018,65.473,0.0,0.0,3.836,0.0,3276.800,1162154.800,4888297.200,0.0,0.0,0.0,4091.800
