"Dstat 0.7.2 CSV output"
"Author:","Dag Wieers <dag@wieers.com>",,,,"URL:","http://dag.wieers.com/home-made/dstat/"
"Host:","Server3",,,,"User:","mstevan"
"Cmdline:","dstat --output /home/mstevan/logs/experiment_2.2/dstat/vs_256-vcpr_8-rep_1.csv 5 14",,,,"Date:","28 Oct 2019 01:05:30 UTC"

"total cpu usage",,,,,,"dsk/total",,"net/total",,"paging",,"system",
"usr","sys","idl","wai","hiq","siq","read","writ","recv","send","in","out","int","csw"
2.230,4.237,92.007,0.931,0.0,0.596,26773.129,6242588.938,0.0,0.0,0.0,0.0,0.522,893.716
9.043,21.543,66.489,0.0,0.0,2.926,0.0,3276.800,1144477.600,4814991.800,0.0,0.0,0.0,4476.200
8.974,19.487,68.718,0.0,0.0,2.821,0.0,31129.600,1175029.400,4959228.400,0.0,0.0,0.0,4541.200
11.111,21.964,63.566,0.0,0.0,3.359,0.0,1638.400,1142221.800,4805757.400,0.0,0.0,0.0,4334.800
9.974,22.047,65.354,0.0,0.0,2.625,0.0,819.200,1174692.0,4956751.0,0.0,0.0,0.0,4294.0
12.045,25.490,58.263,0.0,0.0,4.202,0.0,1638.400,1192549.800,5021327.200,0.0,0.0,0.0,4503.200
10.456,24.129,62.735,0.0,0.0,2.681,0.0,3276.800,1161408.400,4887509.0,0.0,0.0,0.0,4516.800
10.875,22.016,63.926,0.0,0.0,3.183,0.0,1638.400,1144943.0,4831594.400,0.0,0.0,0.0,4329.600
9.819,25.323,61.240,0.775,0.0,2.842,0.0,15564.800,1158272.600,4871553.200,0.0,0.0,0.0,4407.400
12.634,24.462,58.602,0.0,0.0,4.301,0.0,1638.400,1170376.400,4926126.400,0.0,0.0,0.0,4362.800
7.989,25.344,64.738,0.0,0.0,1.928,0.0,819.200,1183774.0,4995785.0,0.0,0.0,0.0,4525.200
9.626,25.134,61.765,0.0,0.0,3.476,0.0,1638.400,1148870.600,4836836.0,0.0,0.0,0.0,4343.600
9.021,25.0,63.144,0.0,0.0,2.835,0.0,819.200,1188328.0,5011636.600,0.0,0.0,0.0,4323.800
9.375,22.656,64.062,0.0,0.0,3.906,0.0,2457.600,1158718.200,4877876.400,0.0,0.0,0.0,4285.400
10.714,22.704,63.265,0.255,0.0,3.061,0.0,16384.0,1135561.200,4776948.800,0.0,0.0,0.0,4325.600
