"Dstat 0.7.2 CSV output"
"Author:","Dag Wieers <dag@wieers.com>",,,,"URL:","http://dag.wieers.com/home-made/dstat/"
"Host:","Server3",,,,"User:","mstevan"
"Cmdline:","dstat --output /home/mstevan/logs/experiment_2.2/dstat/vs_512-vcpr_4-rep_2.csv 5 14",,,,"Date:","28 Oct 2019 01:20:53 UTC"

"total cpu usage",,,,,,"dsk/total",,"net/total",,"paging",,"system",
"usr","sys","idl","wai","hiq","siq","read","writ","recv","send","in","out","int","csw"
3.080,6.307,88.821,0.846,0.0,0.946,23658.976,5517031.675,0.0,0.0,0.0,0.0,0.462,1170.561
8.252,16.505,73.058,0.0,0.0,2.184,0.0,1638.400,934251.600,6759395.600,0.0,0.0,0.0,5404.600
7.940,17.866,71.960,0.0,0.0,2.233,0.0,819.200,947624.0,6876025.0,0.0,0.0,0.0,5493.400
6.667,19.753,71.358,0.0,0.0,2.222,0.0,1638.400,951208.200,6884252.400,0.0,0.0,0.0,5523.0
8.730,20.899,68.254,0.0,0.0,2.116,0.0,1638.400,939779.0,6798551.800,0.0,0.0,0.0,5529.200
8.142,20.356,69.211,0.254,0.0,2.036,0.0,18022.400,939811.600,6817985.0,0.0,0.0,0.0,5359.0
8.521,18.797,69.674,0.0,0.0,3.008,0.0,1638.400,951549.800,6885832.800,0.0,0.0,0.0,5380.400
7.731,18.454,70.574,0.0,0.0,3.242,0.0,4096.0,934987.800,6762449.800,0.0,0.0,0.0,5478.600
9.021,21.907,66.495,0.0,0.0,2.577,0.0,819.200,956733.0,6945391.800,0.0,0.0,0.0,5766.200
9.645,21.066,66.244,0.0,0.0,3.046,0.0,1638.400,970977.800,7026983.200,0.0,0.0,0.0,5394.600
7.828,19.444,70.202,0.0,0.0,2.525,0.0,819.200,953137.600,6921078.200,0.0,0.0,0.0,5399.600
8.608,17.975,71.646,0.0,0.0,1.772,0.0,1638.400,932675.200,6747774.400,0.0,0.0,0.0,5344.600
8.168,18.812,70.792,0.248,0.0,1.980,0.0,18841.600,952892.600,6894246.800,0.0,0.0,0.0,5510.200
7.282,19.175,71.602,0.0,0.0,1.942,0.0,819.200,931487.0,6762261.600,0.0,0.0,0.0,5527.200
6.905,18.926,71.611,0.0,0.0,2.558,0.0,3276.800,925736.800,6691440.0,0.0,0.0,0.0,5367.200
