"Dstat 0.7.2 CSV output"
"Author:","Dag Wieers <dag@wieers.com>",,,,"URL:","http://dag.wieers.com/home-made/dstat/"
"Host:","Server3",,,,"User:","mstevan"
"Cmdline:","dstat --output /home/mstevan/logs/experiment_2.2/dstat/vs_512-vcpr_4-rep_3.csv 5 14",,,,"Date:","28 Oct 2019 01:22:03 UTC"

"total cpu usage",,,,,,"dsk/total",,"net/total",,"paging",,"system",
"usr","sys","idl","wai","hiq","siq","read","writ","recv","send","in","out","int","csw"
3.119,6.405,88.679,0.840,0.0,0.957,23451.048,5468580.667,0.0,0.0,0.0,0.0,0.458,1208.114
5.514,17.544,74.185,0.0,0.0,2.757,0.0,1638.400,936073.600,6771810.600,0.0,0.0,0.0,5395.200
7.371,16.708,73.710,0.0,0.0,2.211,0.0,819.200,955695.600,6936364.600,0.0,0.0,0.0,5483.600
6.533,19.095,72.111,0.0,0.0,2.261,0.0,1638.400,924765.600,6690722.0,0.0,0.0,0.0,5264.0
7.444,16.377,73.449,0.248,0.0,2.481,0.0,18841.600,936908.800,6779002.600,0.0,0.0,0.0,5297.400
7.108,16.176,74.265,0.0,0.0,2.451,0.0,819.200,948897.200,6880930.200,0.0,0.0,0.0,5499.200
7.426,19.059,71.287,0.0,0.0,2.228,0.0,1638.400,935536.400,6769514.0,0.0,0.0,0.0,5398.800
6.398,13.981,77.962,0.0,0.0,1.659,0.0,3276.800,941030.600,6830984.600,0.0,0.0,0.0,5393.400
7.075,14.151,76.651,0.0,0.0,2.123,0.0,1638.400,952865.200,6894705.600,0.0,0.0,0.0,5307.400
7.005,17.391,73.430,0.0,0.0,2.174,0.0,1638.400,942729.0,6822690.0,0.0,0.0,0.0,5254.800
5.502,18.182,71.531,3.110,0.0,1.675,0.0,14745.600,935765.800,6792068.400,0.0,0.0,0.0,5424.600
8.029,16.058,73.723,0.0,0.0,2.190,0.0,4915.200,940414.200,6804978.200,0.0,0.0,0.0,5348.600
6.413,19.002,73.159,0.0,0.0,1.425,0.0,1638.400,955367.800,6913916.0,0.0,0.0,0.0,5459.200
6.220,16.268,75.359,0.0,0.0,2.153,0.0,1638.400,950788.800,6900408.600,0.0,0.0,0.0,5554.600
7.246,16.184,75.362,0.0,0.0,1.208,0.0,2457.600,904891.600,6541803.400,0.0,0.0,0.0,5265.200
