"Dstat 0.7.2 CSV output"
"Author:","Dag Wieers <dag@wieers.com>",,,,"URL:","http://dag.wieers.com/home-made/dstat/"
"Host:","Server3",,,,"User:","mstevan"
"Cmdline:","dstat --output /home/mstevan/logs/experiment_2.2/dstat/vs_64-vcpr_4-rep_3.csv 5 14",,,,"Date:","28 Oct 2019 00:44:15 UTC"

"total cpu usage",,,,,,"dsk/total",,"net/total",,"paging",,"system",
"usr","sys","idl","wai","hiq","siq","read","writ","recv","send","in","out","int","csw"
0.879,0.898,97.066,1.083,0.0,0.075,32718.682,7628561.008,0.0,0.0,0.0,0.0,0.638,222.271
6.173,18.765,73.333,0.0,0.0,1.728,0.0,819.200,934703.600,1798467.600,0.0,0.0,0.0,5452.0
7.635,17.980,72.660,0.0,0.0,1.724,0.0,1638.400,939819.200,1802911.400,0.0,0.0,0.0,5638.200
8.354,18.734,71.139,0.0,0.0,1.772,0.0,819.200,942812.600,1814268.400,0.0,0.0,0.0,5809.0
5.926,15.556,75.556,0.0,0.0,2.963,0.0,1638.400,923184.600,1771153.200,0.0,0.0,0.0,5419.400
6.326,16.788,73.966,0.0,0.0,2.920,0.0,1638.400,922184.200,1768848.400,0.0,0.0,0.0,5526.800
8.312,18.136,71.285,0.0,0.0,2.267,0.0,819.200,942544.0,1814049.800,0.0,0.0,0.0,5455.600
8.537,14.634,74.390,0.488,0.0,1.951,0.0,22937.600,943988.200,1810998.400,0.0,0.0,0.0,5632.600
6.569,18.491,72.749,0.0,0.0,2.190,0.0,1638.400,927734.0,1780457.0,0.0,0.0,0.0,5542.200
7.692,17.370,72.457,0.0,0.0,2.481,0.0,819.200,938467.600,1805735.400,0.0,0.0,0.0,5479.200
8.794,18.844,70.352,0.0,0.0,2.010,0.0,1638.400,954144.200,1830983.400,0.0,0.0,0.0,5490.0
5.852,19.593,72.265,0.0,0.0,2.290,0.0,819.200,932213.600,1793968.600,0.0,0.0,0.0,5589.600
6.311,17.718,74.029,0.0,0.0,1.942,0.0,1638.400,933521.0,1791193.200,0.0,0.0,0.0,5490.600
9.489,15.572,72.993,0.243,0.0,1.703,0.0,15564.800,933122.800,1790774.600,0.0,0.0,0.0,5526.600
7.073,16.098,74.634,0.0,0.0,2.195,0.0,2457.600,886479.400,1704320.200,0.0,0.0,0.0,5252.800
