PING 10.0.0.6 (10.0.0.6) 56(84) bytes of data.
64 bytes from 10.0.0.6: icmp_seq=1 ttl=64 time=0.426 ms
64 bytes from 10.0.0.6: icmp_seq=2 ttl=64 time=0.612 ms
64 bytes from 10.0.0.6: icmp_seq=3 ttl=64 time=0.566 ms
64 bytes from 10.0.0.6: icmp_seq=4 ttl=64 time=0.617 ms
64 bytes from 10.0.0.7: icmp_seq=5 ttl=64 time=0.596 ms
64 bytes from 10.0.0.7: icmp_seq=6 ttl=64 time=0.963 ms
64 bytes64 bytes from 10.0.0.11: icmp_seq=7 ttl=64 time=64 bytes 64 bytes from 10.0.0.11: icmp_seq=8 ttl=64 tim64 bytes from 10.0.0.6: icmp_seq=9 ttl=64 time=0.683 ms
64 bytes from 10.0.0.7: icmp_seq=10 ttl=64 time=6.43 ms
64 bytes fro64 bytes from 10.0.0.11: icmp_seq=11 ttl=64 64 bytes from 10.0.0.7: icmp_seq=12 ttl=64 time=0.656 ms
64 bytes from 10.0.0.7: icmp_seq=13 ttl=64 time=0.702 ms
64 bytes from 10.0.0.7: icmp_seq=14 ttl=64 time=1.21 ms

--- 10.0.0.7 ping statistics ---
14 packets transmitted, 14 received, 0% packet loss, time 66117ms
rtt min/avg/max/mdev = 0.392/1.955/11.593/3.071 ms
/11.612/3.066 ms
