PING 10.0.0.7 (10.0.0.7) 56(84) bytes of data.
64 bytes from 10.0.0.7: icmp_seq=1 ttl=64 time=0.993 ms
64 bytes from 10.0.0.7: icmp_seq=2 ttl=64 time=10.5 ms
664 bytes from 10.0.0.6: icmp_seq=3 ttl=64 time=10.3 ms
64 bytes from 10.0.0.7: icmp_seq=4 ttl=64 time=0.552 ms664 bytes from 10.0.0.7: icmp_seq=5 ttl=64 time=4.69 ms664 bytes from 10.0.0.7: icmp_seq=6 ttl=64 time=1.01 ms664 bytes from 10.0.0.7: icmp_seq=7 ttl=64 time=0.960 ms664 bytes from 10.0.0.7: icmp_seq=8 ttl=64 time=0.765 ms664 bytes from 10.0.0.7: icmp_seq=9 ttl=64 time=0.538 ms664 bytes from 10.0.0.7: icmp_seq=10 ttl=64 time=0.609 ms664 bytes from 10.0.0.7: icmp_seq=11 ttl=64 time=9.74 ms664 bytes from 10.0.0.7: icmp_seq=12 ttl=64 time=0.834 m6464 bytes from 10.0.0.7: icmp_seq=13 ttl=64 time=0.400 m6464 bytes from 10.0.0.7: icmp_seq=14 ttl=64 time=0.716 ms

--- 10.0.0.7 ping statistics ---
14 packets transmitted, 14 received, 0% packet loss, time 66095ms
rtt min/avg/max/mdev = 0.400/2.378/10.591/3.343 ms
.253/4.445 ms
