PING 10.0.0.11 (10.0.0.11) 56(84) bytes of data.
64 bytes from 10.0.0.11: icmp_seq=1 ttl=64 time=0.824 64 64 bytes from 10.0.0.11: icmp_seq=2 ttl=64 time=1.35664 64 bytes from 10.0.0.11: icmp_seq=3 ttl=64 time=0.66464 b64 bytes from 10.0.0.11: icmp_seq=4 ttl=64 time=0.6464 by64 bytes from 10.0.0.11: icmp_seq=5 ttl=64 time=64 bytes from 10.0.0.6: icmp_seq=6 ttl=64 time=1.21 ms
6464 byte64 bytes from 10.0.0.11: icmp_seq=7 ttl=64 tim6464 bytes from 10.0.0.7: icmp_seq=8 ttl=64 time=0.917 m6464 bytes from 10.0.0.7: icmp_seq=9 ttl=64 time=5.68 m64 bytes from 10.0.0.6: icmp_seq=10 ttl=64 time=1.43 ms
64 64 bytes fr64 bytes from 10.0.0.11: icmp_seq=11 ttl=6464 64 bytes fro64 bytes from 10.0.0.11: icmp_seq=12 ttl=664 64 bytes from64 bytes from 10.0.0.11: icmp_seq=13 ttl=6464 bytes from 10.0.0.7: icmp_seq=14 ttl=64 time=5.19 ms

--- 10.0.0.7 ping statistics ---
14 packets transmitted, 14 received, 0% packet loss, time 65968ms
rtt min/avg/max/mdev = 0.537/2.189/10.242/2.752 ms
10.354/2.732 ms
