PING 10.0.0.11 (10.0.0.11) 56(84) bytes of data.
64 bytes from 10.0.0.11: icmp_seq=1 ttl=64 time=8.27 66464 bytes from 10.0.0.11: icmp_seq=2 ttl=64 time=7.34 664 bytes from 10.0.0.6: icmp_seq=3 ttl=64 time=8.09 ms664 b64 bytes from 10.0.0.11: icmp_seq=4 ttl=64 time=0.664 byt64 bytes from 10.0.0.11: icmp_seq=5 ttl=64 time=0664 byte64 bytes from 10.0.0.11: icmp_seq=6 ttl=64 time=664 bytes64 bytes from 10.0.0.11: icmp_seq=7 ttl=64 tim64 bytes f64 bytes from 10.0.0.11: icmp_seq=8 ttl=64 tim64 bytes f64 bytes from 10.0.0.11: icmp_seq=9 ttl=64 tim664 bytes from 10.0.0.6: icmp_seq=10 ttl=64 time=0.519 ms664 bytes from 10.0.0.6: icmp_seq=11 ttl=64 time=7.69 ms64 bytes from64 bytes from 10.0.0.11: icmp_seq=12 ttl=64 664 bytes from 10.0.0.6: icmp_seq=13 ttl=64 time=0.599 ms664 bytes from 10.0.0.6: icmp_seq=14 ttl=64 time=7.18 ms

--- 10.0.0.6 ping statistics ---
14 packets transmitted, 14 received, 0% packet loss, time 66172ms
rtt min/avg/max/mdev = 0.361/2.396/8.096/2.862 ms
/8.275/3.452 ms
