PING 10.0.0.6 (10.0.0.6) 56(84) bytes of data.
64 bytes from 10.0.0.6: icmp_seq=1 ttl=64 time=1.09 ms
64 bytes from 10.0.0.6: icmp_seq=2 ttl=64 time=0.816 ms664 bytes from 10.0.0.6: icmp_seq=3 ttl=64 time=0.589 ms664 bytes from 10.0.0.6: icmp_seq=4 ttl=64 time=0.872 ms664 bytes from 10.0.0.6: icmp_seq=5 ttl=64 time=1.18 ms
64 bytes from 10.0.0.6: icmp_seq=6 ttl=64 time=0.738 ms664 bytes from 10.0.0.6: icmp_seq=7 ttl=64 time=9.16 ms664 bytes from 10.0.0.6: icmp_seq=8 ttl=64 time=0.665 ms664 bytes from 10.0.0.6: icmp_seq=9 ttl=64 time=13.0 ms664 bytes from 10.0.0.6: icmp_seq=10 ttl=64 time=0.557 ms664 bytes from 10.0.0.6: icmp_seq=11 ttl=64 time=0.455 ms664 bytes from 10.0.0.6: icmp_seq=12 ttl=64 time=2.37 ms664 bytes from 10.0.0.6: icmp_seq=13 ttl=64 time=0.605 ms664 bytes from 10.0.0.6: icmp_seq=14 ttl=64 time=0.474 ms

--- 10.0.0.6 ping statistics ---
14 packets transmitted, 14 received, 0% packet loss, time 66485ms
rtt min/avg/max/mdev = 0.455/2.331/13.046/3.685 ms
242/2.637 ms
