PING 10.0.0.11 (10.0.0.11) 56(84) bytes of data.
64 bytes from 10.0.0.11: icmp_seq=1 ttl=64 time=0.55064 b64 bytes from 10.0.0.11: icmp_seq=2 ttl=64 time=6.1664 b64 bytes from 10.0.0.11: icmp_seq=3 ttl=64 time=0.65664 bytes from 10.0.0.6: icmp_seq=4 ttl=64 time=4.26 ms664 bytes from 10.0.0.6: icmp_seq=5 ttl=64 time=0.888 ms664 byt64 bytes from 10.0.0.11: icmp_seq=6 ttl=64 time=164 bytes from 10.0.0.7: icmp_seq=7 ttl=64 time=0.542 ms
64 bytes from 10.0.0.7: icmp_seq=8 ttl=64 time=6.34 ms
664 bytes 64 bytes from 10.0.0.11: icmp_seq=9 ttl=64 tim64 bytes from 10.0.0.7: icmp_seq=10 ttl=64 time=5.62 ms
64 bytes fro64 bytes from 10.0.0.11: icmp_seq=11 ttl=64 664 bytes from 10.0.0.7: icmp_seq=12 ttl=64 time=0.626 ms664 bytes from 10.0.0.7: icmp_seq=13 ttl=64 time=5.02 ms
64 bytes from 10.0.0.7: icmp_seq=14 ttl=64 time=0.559 ms

--- 10.0.0.7 ping statistics ---
14 packets transmitted, 14 received, 0% packet loss, time 66224ms
rtt min/avg/max/mdev = 0.421/2.240/6.966/2.446 ms
9.487/3.196 ms
