PING 10.0.0.7 (10.0.0.7) 56(84) bytes of data.
64 bytes from 10.0.0.7: icmp_seq=1 ttl=64 time=0.827 ms
64 bytes from 10.0.0.7: icmp_seq=2 ttl=64 time=0.609 ms664 bytes from 10.0.0.7: icmp_seq=3 ttl=64 time=6.62 ms
64 bytes from 10.0.0.7: icmp_seq=4 ttl=64 time=0.447 ms664 bytes from 10.0.0.7: icmp_seq=5 ttl=64 time=6.72 ms
64 bytes from 10.0.0.7: icmp_seq=6 ttl=64 time=0.594 ms664 bytes from 10.0.0.7: icmp_seq=7 ttl=64 time=6.37 ms
64 bytes from 10.0.0.7: icmp_seq=8 ttl=64 time=0.374 ms
64 bytes from 10.0.0.7: icmp_seq=9 ttl=64 time=0.616 ms664 bytes from 10.0.0.7: icmp_seq=10 ttl=64 time=2.18 ms
64 bytes from 10.0.0.7: icmp_seq=11 ttl=64 time=1.80 ms
64 bytes from 10.0.0.7: icmp_seq=12 ttl=64 time=0.593 ms
64 bytes from 10.0.0.7: icmp_seq=13 ttl=64 time=2.57 ms
664 bytes from 10.0.0.6: icmp_seq=14 ttl=64 time=0.634 ms

--- 10.0.0.6 ping statistics ---
14 packets transmitted, 14 received, 0% packet loss, time 66293ms
rtt min/avg/max/mdev = 0.353/1.560/6.106/1.678 ms
/11.175/3.126 ms
