PING 10.0.0.6 (10.0.0.6) 56(84) bytes of data.
64 bytes from 10.0.0.6: icmp_seq=1 ttl=64 time=6.35 ms
64 bytes from 10.0.0.6: icmp_seq=2 ttl=64 time=0.397 ms
64 bytes from 10.0.0.6: icmp_seq=3 ttl=64 time=0.554 ms
64 bytes from 10.0.0.6: icmp_seq=4 ttl=64 time=0.911 ms
64 bytes from 10.0.0.6: icmp_seq=5 ttl=64 time=1.83 ms
664 bytes from 10.0.0.7: icmp_seq=6 ttl=64 time=7.33 ms
64 bytes from 10.0.0.6: icmp_seq=7 ttl=64 time=0.508 ms
64 bytes from 10.0.0.6: icmp_seq=8 ttl=64 time=1.24 ms
64 bytes from 10.0.0.7: icmp_seq=9 ttl=64 time=2.22 ms
664 bytes f64 bytes from 10.0.0.11: icmp_seq=10 ttl=64 ti664 bytes from 10.0.0.6: icmp_seq=11 ttl=64 time=3.47 ms664 bytes from64 bytes from 10.0.0.11: icmp_seq=12 ttl=6464 bytes from 64 bytes from 10.0.0.11: icmp_seq=13 ttl=664 bytes from 1064 bytes from 10.0.0.11: icmp_seq=14 ttl=64 time=3.09 ms

--- 10.0.0.11 ping statistics ---
14 packets transmitted, 14 received, 0% packet loss, time 66107ms
rtt min/avg/max/mdev = 0.481/1.854/7.641/2.311 ms
