PING 10.0.0.6 (10.0.0.6) 56(84) bytes of data.
64 bytes from 10.0.0.6: icmp_seq=1 ttl=64 time=0.548 ms
64 bytes from 10.0.0.6: icmp_seq=2 ttl=64 time=5.05 ms
64 bytes from 10.0.0.6: icmp_seq=3 ttl=64 time=0.708 ms
64 by64 bytes from 10.0.0.11: icmp_seq=4 ttl=64 time=2.764 bytes from 10.0.0.6: icmp_seq=5 ttl=64 time=2.36 ms
664 bytes from 10.0.0.7: icmp_seq=6 ttl=64 time=0.553 ms664 bytes from 10.0.0.7: icmp_seq=7 ttl=64 time=0.735 ms64 bytes from 10.0.0.6: icmp_seq=8 ttl=64 time=7.81 ms
6464 bytes from 10.0.0.7: icmp_seq=9 ttl=64 time=0.723 64 64 bytes from 10.0.0.7: icmp_seq=10 ttl=64 time=0.693 64 64 bytes from 10.0.0.7: icmp_seq=11 ttl=64 time=3.03 64 64 bytes from 10.0.0.7: icmp_seq=12 ttl=64 time=0.74464 b64 bytes from 10.0.0.7: icmp_seq=13 ttl=64 time=4.0464 b64 bytes from 10.0.0.7: icmp_seq=14 ttl=64 time=6.41 ms

--- 10.0.0.7 ping statistics ---
14 packets transmitted, 14 received, 0% packet loss, time 66122ms
rtt min/avg/max/mdev = 0.449/1.578/6.415/1.684 ms
0.334/3.069 ms
