PING 10.0.0.7 (10.0.0.7) 56(84) bytes of data.
64 bytes from 10.0.0.7: icmp_seq=1 ttl=64 time=6.42 ms
64 bytes from 10.0.0.7: icmp_seq=2 ttl=64 time=4.85 ms
6464 bytes from 10.0.0.6: icmp_seq=3 ttl=64 time=3.14 ms64 bytes from 10.0.0.7: icmp_seq=4 ttl=64 time=0.385 ms
64 bytes from 10.0.0.7: icmp_seq=5 ttl=64 time=1.60 ms
64 bytes f64 bytes from 10.0.0.11: icmp_seq=6 ttl=64 ti664 bytes fr64 bytes from 10.0.0.11: icmp_seq=7 ttl=64 t664 bytes from 10.0.0.7: icmp_seq=8 ttl=64 time=0.500 ms664 bytes from 10.0.0.7: icmp_seq=9 ttl=64 time=0.544 m6464 bytes from64 bytes from 10.0.0.11: icmp_seq=10 ttl=66464 bytes from 10.0.0.7: icmp_seq=11 ttl=64 time=0.433 m6464 bytes from 10.0.0.7: icmp_seq=12 ttl=64 time=0.979 m6464 bytes from 10.0.0.7: icmp_seq=13 ttl=64 time=0.672 64 64 bytes from 10.0.0.7: icmp_seq=14 ttl=64 time=0.624 ms

--- 10.0.0.7 ping statistics ---
14 packets transmitted, 14 received, 0% packet loss, time 66417ms
rtt min/avg/max/mdev = 0.385/1.416/6.422/1.773 ms
/7.413/2.269 ms
