PING 10.0.0.7 (10.0.0.7) 56(84) bytes of data.
64 bytes from 10.0.0.7: icmp_seq=1 ttl=64 time=6.54 ms
64 bytes from 10.0.0.7: icmp_seq=2 ttl=64 time=0.793 ms664 bytes from 10.0.0.7: icmp_seq=3 ttl=64 time=0.787 m6464 bytes from 10.0.0.7: icmp_seq=4 ttl=64 time=0.703 64 64 bytes from 10.0.0.7: icmp_seq=5 ttl=64 time=1.13 m6464 bytes from 10.0.0.7: icmp_seq=6 ttl=64 time=2.06 m6464 bytes from 10.0.0.7: icmp_seq=7 ttl=64 time=0.447 64 64 bytes from 10.0.0.7: icmp_seq=8 ttl=64 time=4.19 m6464 bytes from 10.0.0.7: icmp_seq=9 ttl=64 time=2.94 m6464 bytes from 10.0.0.7: icmp_seq=10 ttl=64 time=1.25 ms664 bytes from 10.0.0.7: icmp_seq=11 ttl=64 time=0.981 ms664 bytes from 10.0.0.7: icmp_seq=12 ttl=64 time=0.596 m6464 bytes from 10.0.0.7: icmp_seq=13 ttl=64 time=5.85 ms64 bytes from 10.0.0.6: icmp_seq=14 ttl=64 time=0.472 ms

--- 10.0.0.6 ping statistics ---
14 packets transmitted, 14 received, 0% packet loss, time 65573ms
rtt min/avg/max/mdev = 0.472/3.149/9.565/2.774 ms

823/3.797 ms
