PING 10.0.0.6 (10.0.0.6) 56(84) bytes of data.
64 bytes from 10.0.0.6: icmp_seq=1 ttl=64 time=0.701 ms
64 bytes from 10.0.0.6: icmp_seq=2 ttl=64 time=0.500 ms664 64 bytes from 10.0.0.11: icmp_seq=3 ttl=64 time=6.1364 b64 bytes from 10.0.0.11: icmp_seq=4 ttl=64 time=0.8464 bytes from 10.0.0.6: icmp_seq=5 ttl=64 time=0.841 ms664 byt64 bytes from 10.0.0.11: icmp_seq=6 ttl=64 time=2664 byt64 bytes from 10.0.0.11: icmp_seq=7 ttl=64 time=464 byte64 bytes from 10.0.0.11: icmp_seq=8 ttl=64 time=664 bytes from 10.0.0.7: icmp_seq=9 ttl=64 time=0.939 m6464 bytes from 10.0.0.7: icmp_seq=10 ttl=64 time=0.730 64 64 bytes from 10.0.0.7: icmp_seq=11 ttl=64 time=0.337 64 64 bytes from 10.0.0.7: icmp_seq=12 ttl=64 time=0.53164 b64 bytes from 10.0.0.7: icmp_seq=13 ttl=64 time=0.5764 by64 bytes from 10.0.0.7: icmp_seq=14 ttl=64 time=3.60 ms

--- 10.0.0.7 ping statistics ---
14 packets transmitted, 14 received, 0% packet loss, time 66238ms
rtt min/avg/max/mdev = 0.337/1.289/6.954/1.761 ms
026/3.275 ms
