PING 10.0.0.6 (10.0.0.6) 56(84) bytes of data.
64 bytes from 10.0.0.6: icmp_seq=1 ttl=64 time=0.530 ms
64 bytes from 10.0.0.6: icmp_seq=2 ttl=64 time=0.552 ms664 bytes from 10.0.0.6: icmp_seq=3 ttl=64 time=0.688 ms664 bytes from 10.0.0.6: icmp_seq=4 ttl=64 time=0.920 ms664 bytes from 10.0.0.6: icmp_seq=5 ttl=64 time=0.428 m6464 bytes from 10.0.0.6: icmp_seq=6 ttl=64 time=0.469 m6464 bytes from 10.0.0.6: icmp_seq=7 ttl=64 time=0.963 m6464 bytes 64 bytes from 10.0.0.11: icmp_seq=8 ttl=64 ti6464 bytes f64 bytes from 10.0.0.11: icmp_seq=9 ttl=64 64 64 bytes from 10.0.0.6: icmp_seq=10 ttl=64 time=6.27 m6464 bytes from64 bytes from 10.0.0.11: icmp_seq=11 ttl=66464 bytes from 10.0.0.6: icmp_seq=12 ttl=64 time=0.598 m6464 bytes from 10.0.0.6: icmp_seq=13 ttl=64 time=0.546 64 64 bytes from 10.0.0.6: icmp_seq=14 ttl=64 time=0.568 ms

--- 10.0.0.6 ping statistics ---
14 packets transmitted, 14 received, 0% packet loss, time 66439ms
rtt min/avg/max/mdev = 0.420/0.999/6.271/1.470 ms
/11.971/2.948 ms
