PING 10.0.0.6 (10.0.0.6) 56(84) bytes of data.
64 bytes from 10.0.0.6: icmp_seq=1 ttl=64 time=0.489 ms664 bytes from 10.0.0.6: icmp_seq=2 ttl=64 time=0.939 m6464 64 bytes from 10.0.0.11: icmp_seq=3 ttl=64 time=3.36464 bytes from 10.0.0.6: icmp_seq=4 ttl=64 time=0.420 64 64 bytes from 10.0.0.6: icmp_seq=5 ttl=64 time=0.552 64 64 bytes from 10.0.0.6: icmp_seq=6 ttl=64 time=0.744 64 64 bytes from 10.0.0.6: icmp_seq=7 ttl=64 time=0.956 64 64 bytes from 10.0.0.6: icmp_seq=8 ttl=64 time=0.453 64 64 bytes from 10.0.0.6: icmp_seq=9 ttl=64 time=0.55364 b64 bytes from 10.0.0.6: icmp_seq=10 ttl=64 time=0.60564 b64 bytes from 10.0.0.6: icmp_seq=11 ttl=64 time=3.8864 b64 bytes from 10.0.0.6: icmp_seq=12 ttl=64 time=0.5364 by64 bytes from 10.0.0.6: icmp_seq=13 ttl=64 time=0.9164 by64 bytes from 10.0.0.6: icmp_seq=14 ttl=64 time=0.662 ms

--- 10.0.0.6 ping statistics ---
14 packets transmitted, 14 received, 0% packet loss, time 66296ms
rtt min/avg/max/mdev = 0.420/0.900/3.881/0.847 ms
756/2.186 ms
