PING 10.0.0.6 (10.0.0.6) 56(84) bytes of data.
64 bytes from 10.0.0.6: icmp_seq=1 ttl=64 time=0.460 ms
64 bytes from 10.0.0.6: icmp_seq=2 ttl=64 time=3.83 ms
664 b64 bytes from 10.0.0.11: icmp_seq=3 ttl=64 time=4.464 bytes from 10.0.0.6: icmp_seq=4 ttl=64 time=0.423 ms
64 bytes from 10.0.0.6: icmp_seq=5 ttl=64 time=0.545 ms
64 bytes from 10.0.0.6: icmp_seq=6 ttl=64 time=1.75 ms
664 bytes64 bytes from 10.0.0.11: icmp_seq=7 ttl=64 time64 bytes from 10.0.0.6: icmp_seq=8 ttl=64 time=0.562 ms664 bytes from 10.0.0.6: icmp_seq=9 ttl=64 time=0.602 m6464 bytes from 10.0.0.6: icmp_seq=10 ttl=64 time=1.33 m6464 bytes from64 bytes from 10.0.0.11: icmp_seq=11 ttl=6664 bytes from 164 bytes from 10.0.0.11: icmp_seq=12 ttl=64 bytes from 1064 bytes from 10.0.0.11: icmp_seq=13 ttl64 bytes from 10.064 bytes from 10.0.0.11: icmp_seq=14 ttl=64 time=2.20 ms

--- 10.0.0.11 ping statistics ---
14 packets transmitted, 14 received, 0% packet loss, time 66401ms
rtt min/avg/max/mdev = 0.322/1.139/4.400/1.070 ms
