"Dstat 0.7.2 CSV output"
"Author:","Dag Wieers <dag@wieers.com>",,,,"URL:","http://dag.wieers.com/home-made/dstat/"
"Host:","Server1",,,,"User:","mstevan"
"Cmdline:","dstat --output /home/mstevan/logs/experiment_3.1/dstat/vs_1024-vcpr_32-wtpm_64-rep_1.csv 5 16",,,,"Date:","28 Oct 2019 06:24:53 UTC"

"total cpu usage",,,,,,"dsk/total",,"net/total",,"paging",,"system",
"usr","sys","idl","wai","hiq","siq","read","writ","recv","send","in","out","int","csw"
7.377,18.357,70.704,0.342,0.0,3.220,7251.996,1675973.544,0.0,0.0,0.0,0.0,0.141,3023.553
0.401,0.401,99.198,0.0,0.0,0.0,0.0,819.200,16403.400,143150.800,0.0,0.0,0.0,168.200
5.745,10.213,56.383,25.106,0.0,2.553,909312.0,267878.400,947686.800,12597949.800,0.0,0.0,0.0,1362.0
8.804,19.639,0.0,66.366,0.0,5.192,4775936.0,819.200,940038.0,12537707.200,0.0,0.0,0.0,5085.600
8.197,24.356,0.0,61.124,0.0,6.323,6099763.200,1638.400,941483.600,12542645.800,0.0,0.0,0.0,6494.200
8.726,26.179,0.0,57.311,0.0,7.783,7044300.800,1638.400,938937.200,12499072.0,0.0,0.0,0.0,7349.600
16.377,36.476,32.506,9.429,0.0,5.211,309657.600,601292.800,936054.600,12511763.600,0.0,0.0,0.0,5575.800
1.867,7.054,90.456,0.0,0.0,0.622,0.0,1638.400,939214.400,12499925.600,0.0,0.0,0.0,931.400
1.871,6.237,88.150,2.287,0.0,1.455,0.0,87654.400,939194.800,12499981.600,0.0,0.0,0.0,938.800
2.249,7.771,88.548,0.0,0.0,1.431,0.0,285081.600,936615.400,12497211.400,0.0,0.0,0.0,946.600
2.479,6.198,90.083,0.0,0.0,1.240,0.0,2457.600,941621.400,12502510.800,0.0,0.0,0.0,946.0
2.905,4.979,91.079,0.0,0.0,1.037,0.0,819.200,936085.400,12487957.0,0.0,0.0,0.0,908.800
2.464,6.776,89.938,0.0,0.0,0.821,0.0,1638.400,938942.600,12504414.0,0.0,0.0,0.0,910.0
2.905,6.017,89.627,0.0,0.0,1.452,0.0,5734.400,941954.800,12535753.200,0.0,0.0,0.0,899.800
2.231,7.911,88.844,0.0,0.0,1.014,0.0,819.200,936146.800,12508081.0,0.0,0.0,0.0,927.800
3.326,7.277,88.150,0.416,0.0,0.832,0.0,100761.600,939394.400,12492218.400,0.0,0.0,0.0,973.200
1.018,0.815,97.963,0.0,0.0,0.204,0.0,3276.800,179299.400,2315469.800,0.0,0.0,0.0,573.600
