"Dstat 0.7.2 CSV output"
"Author:","Dag Wieers <dag@wieers.com>",,,,"URL:","http://dag.wieers.com/home-made/dstat/"
"Host:","Server1",,,,"User:","mstevan"
"Cmdline:","dstat --output /home/mstevan/logs/experiment_3.1/dstat/vs_1024-vcpr_16-wtpm_8-rep_3.csv 5 16",,,,"Date:","28 Oct 2019 05:59:19 UTC"

"total cpu usage",,,,,,"dsk/total",,"net/total",,"paging",,"system",
"usr","sys","idl","wai","hiq","siq","read","writ","recv","send","in","out","int","csw"
7.678,19.199,69.380,0.354,0.0,3.389,7588.111,1779978.489,0.0,0.0,0.0,0.0,0.150,3059.984
0.402,0.201,99.398,0.0,0.0,0.0,0.0,819.200,13479.200,135534.600,0.0,0.0,0.0,143.800
4.130,12.391,81.957,0.0,0.0,1.522,0.0,2457.600,932100.400,12401840.400,0.0,0.0,0.0,5756.0
4.878,9.313,84.701,0.0,0.0,1.109,0.0,819.200,935934.600,12499954.200,0.0,0.0,0.0,5822.0
3.555,11.137,83.886,0.0,0.0,1.422,0.0,2457.600,939170.800,12499998.800,0.0,0.0,0.0,5764.400
4.376,12.035,82.713,0.219,0.0,0.656,0.0,22937.600,939261.0,12500004.600,0.0,0.0,0.0,5479.600
5.482,12.719,80.482,0.0,0.0,1.316,0.0,819.200,937091.600,12497621.200,0.0,0.0,0.0,5825.600
4.889,12.889,81.111,0.0,0.0,1.111,0.0,3276.800,939295.600,12502427.200,0.0,0.0,0.0,5682.800
6.103,12.911,79.343,0.0,0.0,1.643,0.0,1638.400,936129.400,12458835.400,0.0,0.0,0.0,5577.200
4.348,11.213,83.524,0.0,0.0,0.915,0.0,819.200,932314.400,12445249.600,0.0,0.0,0.0,5464.200
5.044,11.184,82.456,0.0,0.0,1.316,0.0,1638.400,946180.200,12595924.400,0.0,0.0,0.0,5537.600
3.017,8.621,87.500,0.216,0.0,0.647,0.0,14745.600,935913.600,12498298.800,0.0,0.0,0.0,5313.800
4.060,10.897,84.402,0.0,0.0,0.641,0.0,1638.400,939033.200,12501658.600,0.0,0.0,0.0,5334.800
4.605,9.868,84.649,0.0,0.0,0.877,0.0,1638.400,939254.600,12500024.600,0.0,0.0,0.0,5453.200
3.516,10.769,84.396,0.0,0.0,1.319,0.0,2457.600,937753.800,12499854.0,0.0,0.0,0.0,5646.600
4.889,10.0,84.667,0.0,0.0,0.444,0.0,1638.400,933237.400,12425468.0,0.0,0.0,0.0,5607.400
1.008,1.008,97.984,0.0,0.0,0.0,0.0,1638.400,52009.400,613340.200,0.0,0.0,0.0,520.0
