"Dstat 0.7.2 CSV output"
"Author:","Dag Wieers <dag@wieers.com>",,,,"URL:","http://dag.wieers.com/home-made/dstat/"
"Host:","Server1",,,,"User:","mstevan"
"Cmdline:","dstat --output /home/mstevan/logs/experiment_3.1/dstat/vs_1024-vcpr_16-wtpm_32-rep_4.csv 5 16",,,,"Date:","28 Oct 2019 06:06:25 UTC"

"total cpu usage",,,,,,"dsk/total",,"net/total",,"paging",,"system",
"usr","sys","idl","wai","hiq","siq","read","writ","recv","send","in","out","int","csw"
7.585,18.958,69.769,0.349,0.0,3.339,7459.182,1749810.105,0.0,0.0,0.0,0.0,0.147,3054.151
0.401,0.401,99.198,0.0,0.0,0.0,0.0,1638.400,14847.800,100654.200,0.0,0.0,0.0,139.400
2.532,6.751,90.084,0.0,0.0,0.633,0.0,1638.400,947502.800,12602792.0,0.0,0.0,0.0,1820.200
2.917,6.667,89.583,0.0,0.0,0.833,0.0,819.200,935949.200,12499981.800,0.0,0.0,0.0,1669.800
3.112,7.054,89.004,0.0,0.0,0.830,0.0,3276.800,939078.600,12499836.200,0.0,0.0,0.0,1564.400
2.273,7.025,89.256,0.0,0.0,1.446,0.0,819.200,936259.600,12499934.0,0.0,0.0,0.0,1593.400
2.495,7.069,89.397,0.416,0.0,0.624,0.0,22118.400,940394.800,12500064.800,0.0,0.0,0.0,1621.0
2.287,7.484,89.189,0.0,0.0,1.040,0.0,3276.800,944708.0,12577991.800,0.0,0.0,0.0,1681.600
2.917,6.875,89.375,0.0,0.0,0.833,0.0,819.200,936632.600,12500061.600,0.0,0.0,0.0,1646.200
2.923,7.724,88.309,0.0,0.0,1.044,0.0,1638.400,939199.600,12499992.800,0.0,0.0,0.0,1619.600
3.112,7.469,88.174,0.0,0.0,1.245,0.0,1638.400,938959.600,12499937.0,0.0,0.0,0.0,1572.400
2.947,5.053,90.737,0.0,0.0,1.263,0.0,819.200,936059.600,12500093.400,0.0,0.0,0.0,1596.200
2.703,6.861,88.981,0.208,0.0,1.247,0.0,15564.800,938820.0,12499931.800,0.0,0.0,0.0,1614.800
3.498,7.202,88.683,0.0,0.0,0.617,0.0,819.200,935772.600,12500000.600,0.0,0.0,0.0,1575.400
2.917,7.083,88.750,0.0,0.0,1.250,0.0,3276.800,940501.0,12499780.200,0.0,0.0,0.0,1643.0
3.926,6.612,88.636,0.0,0.0,0.826,0.0,1638.400,936572.200,12464855.0,0.0,0.0,0.0,1624.400
0.609,1.623,97.363,0.0,0.0,0.406,0.0,819.200,136972.400,1788373.800,0.0,0.0,0.0,913.200
