"Dstat 0.7.2 CSV output"
"Author:","Dag Wieers <dag@wieers.com>",,,,"URL:","http://dag.wieers.com/home-made/dstat/"
"Host:","Server1",,,,"User:","mstevan"
"Cmdline:","dstat --output /home/mstevan/logs/experiment_3.1/dstat/vs_1024-vcpr_32-wtpm_64-rep_4.csv 5 16",,,,"Date:","28 Oct 2019 06:29:09 UTC"

"total cpu usage",,,,,,"dsk/total",,"net/total",,"paging",,"system",
"usr","sys","idl","wai","hiq","siq","read","writ","recv","send","in","out","int","csw"
7.326,18.225,70.868,0.384,0.0,3.198,10801.538,1660055.094,0.0,0.0,0.0,0.0,0.140,3006.342
0.201,0.201,99.598,0.0,0.0,0.0,0.0,819.200,16767.0,138899.0,0.0,0.0,0.0,174.400
2.714,6.889,89.353,0.0,0.0,1.044,0.0,1638.400,948445.600,12616835.800,0.0,0.0,0.0,1216.600
2.648,7.332,89.002,0.0,0.0,1.018,0.0,1638.400,936238.200,12500120.400,0.0,0.0,0.0,984.800
3.491,6.571,88.706,0.0,0.0,1.232,0.0,2457.600,939000.400,12500045.800,0.0,0.0,0.0,956.200
2.282,7.054,89.834,0.0,0.0,0.830,0.0,1638.400,939068.200,12499936.400,0.0,0.0,0.0,951.200
2.287,6.029,90.437,0.208,0.0,1.040,0.0,18022.400,936027.800,12500060.800,0.0,0.0,0.200,1006.400
2.092,5.649,91.004,0.0,0.0,1.255,0.0,6553.600,939107.0,12499865.0,0.0,0.0,0.0,981.800
2.510,5.021,91.632,0.0,0.0,0.837,0.0,1638.400,942136.600,12539098.600,0.0,0.0,0.0,1011.200
1.871,6.237,90.852,0.0,0.0,1.040,0.0,819.200,939087.600,12539104.600,0.0,0.0,0.0,996.800
2.703,5.613,90.437,0.0,0.0,1.247,0.0,1638.400,941362.0,12500049.800,0.0,0.0,0.0,995.0
2.079,5.405,91.268,0.0,0.0,1.247,0.0,819.200,936402.200,12499899.0,0.0,0.0,0.0,950.0
3.299,6.804,88.866,0.206,0.0,0.825,0.0,15564.800,939348.400,12499915.600,0.0,0.0,0.0,958.600
2.505,5.219,91.232,0.0,0.0,1.044,0.0,1638.400,939033.800,12500011.800,0.0,0.0,0.0,945.600
2.474,5.773,90.515,0.0,0.0,1.237,0.0,2457.600,939087.200,12539104.200,0.0,0.0,0.0,937.600
2.505,6.681,89.770,0.0,0.0,1.044,0.0,1638.400,939357.800,12499976.800,0.0,0.0,0.0,963.0
1.006,1.408,97.384,0.0,0.0,0.201,0.0,1638.400,179124.0,2320874.0,0.0,0.0,0.0,499.400
