"Dstat 0.7.2 CSV output"
"Author:","Dag Wieers <dag@wieers.com>",,,,"URL:","http://dag.wieers.com/home-made/dstat/"
"Host:","Server1",,,,"User:","mstevan"
"Cmdline:","dstat --output /home/mstevan/logs/experiment_3.1/dstat/vs_1024-vcpr_4-wtpm_32-rep_3.csv 5 16",,,,"Date:","28 Oct 2019 05:30:55 UTC"

"total cpu usage",,,,,,"dsk/total",,"net/total",,"paging",,"system",
"usr","sys","idl","wai","hiq","siq","read","writ","recv","send","in","out","int","csw"
8.064,20.206,67.751,0.378,0.0,3.599,8151.744,1911865.963,0.0,0.0,0.0,0.0,0.161,3030.801
0.402,0.402,99.195,0.0,0.0,0.0,0.0,1638.400,18709.600,146408.200,0.0,0.0,0.0,168.800
4.615,10.989,82.857,0.0,0.0,1.538,0.0,1638.400,928659.0,12354041.200,0.0,0.0,0.0,5006.400
2.814,10.390,85.065,0.0,0.0,1.732,0.0,819.200,936470.400,12500187.400,0.0,0.0,0.0,4892.0
4.762,11.039,82.684,0.0,0.0,1.515,0.0,3276.800,939029.800,12499799.400,0.0,0.0,0.0,5048.400
3.478,9.565,86.087,0.0,0.0,0.870,0.0,819.200,936467.400,12500018.0,0.0,0.0,0.0,4744.0
4.846,11.233,82.819,0.0,0.0,1.101,0.0,1638.400,939168.400,12499937.400,0.0,0.0,0.0,4830.600
5.727,10.132,82.599,0.220,0.0,1.322,0.0,23756.800,939129.600,12500108.200,0.0,0.0,0.0,4740.200
4.113,10.823,83.550,0.0,0.0,1.515,0.0,819.200,936085.400,12499910.200,0.0,0.0,0.0,4873.800
4.536,11.231,82.721,0.0,0.0,1.512,0.0,1638.400,939081.800,12500059.800,0.0,0.0,0.0,4897.400
3.456,9.935,85.097,0.0,0.0,1.512,0.0,1638.400,942422.0,12538909.0,0.0,0.0,0.0,4659.0
3.057,9.170,86.900,0.0,0.0,0.873,0.0,819.200,936838.600,12500116.400,0.0,0.0,0.0,4665.200
4.814,11.379,82.276,0.0,0.0,1.532,0.0,1638.400,942011.800,12539170.800,0.0,0.0,0.0,4769.0
3.486,10.240,84.967,0.218,0.0,1.089,0.0,14745.600,935997.400,12499821.800,0.0,0.0,0.0,4715.0
5.195,10.173,83.550,0.0,0.0,1.082,0.0,2457.600,939536.600,12500176.600,0.0,0.0,0.0,4856.800
3.097,10.398,85.177,0.0,0.0,1.327,0.0,2457.600,921780.400,12267002.0,0.0,0.0,0.0,4830.600
0.400,0.200,99.400,0.0,0.0,0.0,0.0,819.200,3127.0,934.800,0.0,0.0,0.0,62.200
