"Dstat 0.7.2 CSV output"
"Author:","Dag Wieers <dag@wieers.com>",,,,"URL:","http://dag.wieers.com/home-made/dstat/"
"Host:","Server1",,,,"User:","mstevan"
"Cmdline:","dstat --output /home/mstevan/logs/experiment_3.1/dstat/vs_1024-vcpr_32-wtpm_64-rep_3.csv 5 16",,,,"Date:","28 Oct 2019 06:27:44 UTC"

"total cpu usage",,,,,,"dsk/total",,"net/total",,"paging",,"system",
"usr","sys","idl","wai","hiq","siq","read","writ","recv","send","in","out","int","csw"
7.345,18.275,70.788,0.385,0.0,3.207,10836.465,1665408.112,0.0,0.0,0.0,0.0,0.140,3013.354
0.602,0.402,98.795,0.0,0.0,0.201,0.0,1638.400,21672.400,175280.400,0.0,0.0,0.0,165.0
2.259,7.803,89.528,0.0,0.0,0.411,0.0,819.200,944121.0,12600204.600,0.0,0.0,0.0,1057.400
2.474,6.186,90.309,0.0,0.0,1.031,0.0,1638.400,939278.200,12489704.600,0.0,0.0,0.0,887.600
2.088,5.637,91.232,0.0,0.0,1.044,0.0,2457.600,936037.0,12500073.200,0.0,0.0,0.0,886.0
2.510,5.858,90.377,0.418,0.0,0.837,0.0,22937.600,939281.400,12504102.600,0.0,0.0,0.0,962.400
2.101,5.462,91.176,0.0,0.0,1.261,0.0,1638.400,939066.200,12495998.0,0.0,0.0,0.0,889.0
3.074,6.148,89.754,0.0,0.0,1.025,0.0,2457.600,939018.0,12539020.600,0.0,0.0,0.0,926.0
2.905,5.602,90.664,0.0,0.0,0.830,0.0,1638.400,942237.600,12548226.200,0.0,0.0,0.0,948.800
2.292,6.042,91.042,0.0,0.0,0.625,0.0,819.200,938738.800,12490799.800,0.0,0.0,0.0,902.600
3.252,6.911,88.618,0.0,0.0,1.220,0.0,1638.400,939097.200,12499835.800,0.0,0.0,0.0,924.600
2.686,6.405,89.669,0.413,0.0,0.826,0.0,16384.0,939192.800,12500091.800,0.0,0.0,0.0,906.400
1.848,6.776,89.733,0.0,0.0,1.643,0.0,819.200,935888.800,12499922.0,0.0,0.0,0.0,911.600
2.083,6.250,90.417,0.0,0.0,1.250,0.0,1638.400,941982.200,12539137.400,0.0,0.0,0.0,938.400
2.079,6.237,90.644,0.0,0.0,1.040,0.0,3276.800,942079.0,12538834.0,0.0,0.0,0.0,907.800
2.692,6.211,90.269,0.0,0.0,0.828,0.0,819.200,935545.600,12500092.0,0.0,0.0,0.0,975.0
1.224,2.449,96.122,0.0,0.0,0.204,0.0,1638.400,175548.400,2263952.200,0.0,0.0,0.0,983.0
