"Dstat 0.7.2 CSV output"
"Author:","Dag Wieers <dag@wieers.com>",,,,"URL:","http://dag.wieers.com/home-made/dstat/"
"Host:","Server1",,,,"User:","mstevan"
"Cmdline:","dstat --output /home/mstevan/logs/experiment_3.1/dstat/vs_1024-vcpr_8-wtpm_64-rep_1.csv 5 16",,,,"Date:","28 Oct 2019 05:50:48 UTC"

"total cpu usage",,,,,,"dsk/total",,"net/total",,"paging",,"system",
"usr","sys","idl","wai","hiq","siq","read","writ","recv","send","in","out","int","csw"
7.794,19.496,68.900,0.360,0.0,3.449,7748.854,1817591.282,0.0,0.0,0.0,0.0,0.153,3060.972
0.600,0.400,98.800,0.0,0.0,0.200,0.0,1638.400,17020.600,109173.0,0.0,0.0,0.0,156.0
2.141,8.565,88.437,0.0,0.0,0.857,0.0,819.200,947479.0,12633000.200,0.0,0.0,0.0,2828.800
3.132,8.351,87.683,0.0,0.0,0.835,0.0,1638.400,939197.600,12499957.200,0.0,0.0,0.0,2650.600
2.326,7.822,88.161,0.211,0.0,1.480,0.0,10649.600,940205.600,12512235.200,0.0,0.0,0.0,2472.0
1.663,9.148,87.526,0.0,0.0,1.663,0.0,10649.600,938863.0,12526684.600,0.0,0.0,0.0,2481.400
2.743,7.384,89.241,0.0,0.0,0.633,0.0,1638.400,939006.400,12499971.400,0.0,0.0,0.0,2417.600
2.725,6.499,89.308,0.0,0.0,1.468,0.0,2457.600,936192.600,12499994.200,0.0,0.0,0.0,2420.600
3.340,7.724,88.100,0.0,0.0,0.835,0.0,1638.400,939767.800,12499866.200,0.0,0.0,0.0,2442.600
4.348,8.489,86.128,0.0,0.0,1.035,0.0,1638.400,942065.200,12539228.800,0.0,0.0,0.0,2461.200
2.092,7.741,88.494,0.0,0.0,1.674,0.0,819.200,939141.400,12539117.200,0.0,0.0,0.0,2490.200
3.782,6.933,88.025,0.420,0.0,0.840,0.0,18841.600,939157.200,12499719.400,0.0,0.0,0.0,2405.0
2.947,7.158,88.632,0.0,0.0,1.263,0.0,819.200,936123.800,12486613.0,0.0,0.0,0.0,2451.200
2.917,8.542,87.083,0.0,0.0,1.458,0.0,1638.400,939123.200,12513423.200,0.0,0.0,0.0,2383.200
2.526,8.0,88.211,0.0,0.0,1.263,0.0,3276.800,939151.800,12500116.200,0.0,0.0,0.0,2435.400
3.112,8.091,87.967,0.0,0.0,0.830,0.0,819.200,921213.0,12300281.400,0.0,0.0,0.0,2447.0
0.604,0.402,98.994,0.0,0.0,0.0,0.0,1638.400,6665.0,2269.600,0.0,0.0,0.0,82.0
