"Dstat 0.7.2 CSV output"
"Author:","Dag Wieers <dag@wieers.com>",,,,"URL:","http://dag.wieers.com/home-made/dstat/"
"Host:","Server1",,,,"User:","mstevan"
"Cmdline:","dstat --output /home/mstevan/logs/experiment_3.1/dstat/vs_1024-vcpr_32-wtpm_8-rep_4.csv 5 16",,,,"Date:","28 Oct 2019 06:17:47 UTC"

"total cpu usage",,,,,,"dsk/total",,"net/total",,"paging",,"system",
"usr","sys","idl","wai","hiq","siq","read","writ","recv","send","in","out","int","csw"
7.442,18.586,70.368,0.340,0.0,3.264,7261.754,1703621.065,0.0,0.0,0.0,0.0,0.143,3039.532
0.602,0.201,98.795,0.402,0.0,0.0,0.0,18841.600,16817.600,138196.400,0.0,0.0,0.0,156.400
2.814,11.472,84.199,0.0,0.0,1.515,0.0,819.200,939017.0,12535481.200,0.0,0.0,0.0,5941.0
4.966,10.384,83.973,0.0,0.0,0.677,0.0,1638.400,936997.600,12470103.600,0.0,0.0,0.0,6171.400
4.904,9.808,84.222,0.0,0.0,1.066,0.0,1638.400,936270.800,12489794.400,0.0,0.0,0.0,5637.0
4.751,10.860,83.032,0.0,0.0,1.357,0.0,2457.600,939513.200,12515654.400,0.0,0.0,0.0,5709.800
4.608,11.290,83.180,0.0,0.0,0.922,0.0,1638.400,944815.0,12576056.400,0.0,0.0,0.0,5836.600
3.812,9.865,85.426,0.0,0.0,0.897,0.0,2457.600,935836.0,12496541.200,0.0,0.0,0.0,5707.800
5.044,10.746,82.237,0.439,0.0,1.535,0.0,18022.400,938104.800,12484925.200,0.0,0.0,0.0,5841.600
5.882,11.983,81.264,0.0,0.0,0.871,0.0,1638.400,937929.0,12482267.200,0.0,0.0,0.0,5758.600
5.263,9.382,84.668,0.0,0.0,0.686,0.0,819.200,941531.200,12534357.400,0.0,0.0,0.0,5820.0
3.965,12.115,83.260,0.0,0.0,0.661,0.0,1638.400,938231.0,12493590.200,0.0,0.0,0.0,5290.0
4.176,9.451,85.495,0.0,0.0,0.879,0.0,1638.400,935688.0,12456521.800,0.0,0.0,0.0,5403.600
4.565,8.261,85.870,0.0,0.0,1.304,0.0,1638.400,939102.200,12541407.200,0.0,0.0,0.0,5663.600
3.712,9.825,84.279,0.873,0.0,1.310,0.0,16384.0,939805.600,12508480.0,0.0,0.0,0.0,5660.0
4.310,9.483,85.345,0.0,0.0,0.862,0.0,819.200,935788.0,12494412.800,0.0,0.0,0.0,5650.800
1.826,2.840,95.132,0.0,0.0,0.203,0.0,1638.400,180155.0,2325110.200,0.0,0.0,0.0,1227.0
