"Dstat 0.7.2 CSV output"
"Author:","Dag Wieers <dag@wieers.com>",,,,"URL:","http://dag.wieers.com/home-made/dstat/"
"Host:","Server1",,,,"User:","mstevan"
"Cmdline:","dstat --output /home/mstevan/logs/experiment_3.1/dstat/vs_1024-vcpr_16-wtpm_8-rep_4.csv 5 16",,,,"Date:","28 Oct 2019 06:00:45 UTC"

"total cpu usage",,,,,,"dsk/total",,"net/total",,"paging",,"system",
"usr","sys","idl","wai","hiq","siq","read","writ","recv","send","in","out","int","csw"
7.663,19.159,69.446,0.353,0.0,3.379,7561.969,1773861.745,0.0,0.0,0.0,0.0,0.149,3065.414
0.402,0.201,99.398,0.0,0.0,0.0,0.0,1638.400,15737.600,124505.200,0.0,0.0,0.0,157.400
5.180,11.261,82.432,0.0,0.0,1.126,0.0,1638.400,928376.600,12351957.0,0.0,0.0,0.0,6061.0
6.132,13.679,78.538,0.0,0.0,1.651,0.0,819.200,938752.400,12537504.600,0.0,0.0,0.0,5998.200
5.977,11.724,80.920,0.0,0.0,1.379,0.0,3276.800,939488.600,12499862.600,0.0,0.0,0.0,5970.200
4.357,11.111,83.224,0.0,0.0,1.307,0.0,819.200,936216.200,12500041.0,0.0,0.0,0.0,5896.200
5.239,13.440,79.499,0.683,0.0,1.139,0.0,18841.600,939681.600,12491030.800,0.0,0.0,0.0,5930.400
4.646,11.062,82.965,0.0,0.0,1.327,0.0,3276.800,939030.0,12500632.400,0.0,0.0,0.0,5982.600
3.304,9.692,85.683,0.0,0.0,1.322,0.0,819.200,939338.0,12542266.600,0.0,0.0,0.0,5852.600
5.669,10.204,82.313,0.0,0.0,1.814,0.0,1638.400,939441.0,12505203.200,0.0,0.0,0.0,5969.400
4.587,13.303,79.817,0.0,0.0,2.294,0.0,1638.400,934573.600,12441055.400,0.0,0.0,0.0,5975.200
4.795,10.502,83.790,0.0,0.0,0.913,0.0,819.200,940458.400,12558987.400,0.0,0.0,0.0,5900.200
3.803,11.186,83.669,0.447,0.0,0.895,0.0,19660.800,938979.200,12500015.200,0.0,0.0,0.0,5789.600
4.783,11.304,82.609,0.0,0.0,1.304,0.0,819.200,933277.800,12436983.400,0.0,0.0,0.0,5732.0
2.808,8.423,88.337,0.0,0.0,0.432,0.0,3276.800,943786.400,12562910.200,0.0,0.0,0.0,5490.600
4.861,12.500,81.481,0.0,0.0,1.157,0.0,1638.400,932028.800,12409733.200,0.0,0.0,0.0,5746.600
0.406,1.217,98.174,0.0,0.0,0.203,0.0,819.200,70330.800,894228.800,0.0,0.0,0.0,569.600
