"Dstat 0.7.2 CSV output"
"Author:","Dag Wieers <dag@wieers.com>",,,,"URL:","http://dag.wieers.com/home-made/dstat/"
"Host:","Server1",,,,"User:","mstevan"
"Cmdline:","dstat --output /home/mstevan/logs/experiment_3.1/dstat/vs_1024-vcpr_32-wtpm_32-rep_4.csv 5 16",,,,"Date:","28 Oct 2019 06:23:28 UTC"

"total cpu usage",,,,,,"dsk/total",,"net/total",,"paging",,"system",
"usr","sys","idl","wai","hiq","siq","read","writ","recv","send","in","out","int","csw"
7.397,18.406,70.625,0.343,0.0,3.229,7275.672,1681430.175,0.0,0.0,0.0,0.0,0.142,3028.943
0.602,0.402,98.996,0.0,0.0,0.0,0.0,1638.400,26923.200,259131.0,0.0,0.0,0.0,176.800
2.692,7.867,88.613,0.0,0.0,0.828,0.0,819.200,943456.0,12591460.400,0.0,0.0,0.0,1730.400
2.686,7.645,88.430,0.0,0.0,1.240,0.0,1638.400,939554.800,12504051.600,0.0,0.0,0.0,1617.200
2.516,5.870,90.985,0.0,0.0,0.629,0.0,2457.600,938647.200,12535128.800,0.0,0.0,0.0,1636.200
1.677,7.547,89.727,0.0,0.0,1.048,0.0,1638.400,939270.200,12505901.800,0.0,0.0,0.0,1610.600
2.542,5.508,90.466,0.212,0.0,1.271,0.0,18841.600,938882.400,12497106.400,0.0,0.0,0.0,1629.200
2.887,7.216,88.660,0.0,0.0,1.237,0.0,2457.600,935546.400,12492715.200,0.0,0.0,0.0,1644.800
3.361,7.353,88.445,0.0,0.0,0.840,0.0,1638.400,940206.200,12507429.600,0.0,0.0,0.0,1616.800
2.731,6.513,89.916,0.0,0.0,0.840,0.0,1638.400,939304.200,12499911.800,0.0,0.0,0.0,1576.0
2.292,6.250,90.208,0.0,0.0,1.250,0.0,819.200,938551.0,12497740.0,0.0,0.0,0.0,1594.800
2.510,6.276,90.377,0.0,0.0,0.837,0.0,1638.400,939005.400,12499273.600,0.0,0.0,0.0,1607.800
2.479,6.818,89.256,0.413,0.0,1.033,0.0,18022.400,935605.200,12495668.200,0.0,0.0,0.200,1630.400
3.138,6.485,89.121,0.0,0.0,1.255,0.0,1638.400,941985.600,12539154.200,0.0,0.0,0.0,1597.800
2.737,6.526,89.684,0.0,0.0,1.053,0.0,3276.800,942177.600,12539945.0,0.0,0.0,0.0,1597.0
1.887,6.499,90.985,0.0,0.0,0.629,0.0,819.200,936176.200,12498948.600,0.0,0.0,0.0,1599.200
1.012,1.012,97.571,0.0,0.0,0.405,0.0,1638.400,180987.200,2344033.200,0.0,0.0,0.0,437.600
