"Dstat 0.7.2 CSV output"
"Author:","Dag Wieers <dag@wieers.com>",,,,"URL:","http://dag.wieers.com/home-made/dstat/"
"Host:","Server1",,,,"User:","mstevan"
"Cmdline:","dstat --output /home/mstevan/logs/experiment_3.1/dstat/vs_1024-vcpr_32-wtpm_32-rep_3.csv 5 16",,,,"Date:","28 Oct 2019 06:22:03 UTC"

"total cpu usage",,,,,,"dsk/total",,"net/total",,"paging",,"system",
"usr","sys","idl","wai","hiq","siq","read","writ","recv","send","in","out","int","csw"
7.416,18.455,70.546,0.344,0.0,3.239,7299.509,1686923.849,0.0,0.0,0.0,0.0,0.142,3034.252
0.800,0.600,98.600,0.0,0.0,0.0,0.0,1638.400,19529.400,157076.800,0.0,0.0,0.0,175.200
2.331,6.780,90.254,0.0,0.0,0.636,0.0,819.200,945519.0,12615652.800,0.0,0.0,0.0,1805.800
2.516,6.709,89.518,0.0,0.0,1.258,0.0,1638.400,941718.400,12533064.200,0.0,0.0,0.0,1661.800
3.376,5.063,90.717,0.0,0.0,0.844,0.0,2457.600,938874.0,12496484.400,0.0,0.0,0.0,1696.800
2.273,7.025,87.397,2.066,0.0,1.240,0.0,25395.200,935542.600,12496247.400,0.0,0.0,0.0,1556.0
2.737,6.105,90.316,0.0,0.0,0.842,0.0,1638.400,939762.200,12509268.200,0.0,0.0,0.0,1592.0
2.714,6.681,89.353,0.0,0.0,1.253,0.0,3276.800,941920.600,12537216.800,0.0,0.0,0.0,1617.200
2.510,6.067,90.795,0.0,0.0,0.628,0.0,819.200,935653.400,12492822.400,0.0,0.0,0.0,1599.600
2.899,7.039,88.820,0.0,0.0,1.242,0.0,1638.400,939845.200,12507894.800,0.0,0.0,0.0,1570.0
2.088,6.889,90.397,0.0,0.0,0.626,0.0,819.200,938560.400,12496457.0,0.0,0.0,0.0,1615.400
2.714,6.472,88.935,0.418,0.0,1.461,0.0,14745.600,938518.0,12495312.0,0.0,0.0,0.0,1569.400
3.119,7.069,89.189,0.0,0.0,0.624,0.0,1638.400,939136.400,12502160.600,0.0,0.0,0.0,1625.0
3.138,6.276,89.749,0.0,0.0,0.837,0.0,819.200,936725.0,12503898.400,0.0,0.0,0.0,1701.200
3.119,6.653,88.358,0.0,0.0,1.871,0.0,3276.800,938265.600,12488827.800,0.0,0.0,0.0,1610.0
2.929,6.695,89.749,0.0,0.0,0.628,0.0,1638.400,938637.400,12496447.0,0.0,0.0,0.0,1660.400
0.406,2.434,96.755,0.0,0.0,0.406,0.0,819.200,176035.800,2311238.0,0.0,0.0,0.0,864.200
