"Dstat 0.7.2 CSV output"
"Author:","Dag Wieers <dag@wieers.com>",,,,"URL:","http://dag.wieers.com/home-made/dstat/"
"Host:","Server1",,,,"User:","mstevan"
"Cmdline:","dstat --output /home/mstevan/logs/experiment_3.1/dstat/vs_1024-vcpr_32-wtpm_64-rep_2.csv 5 16",,,,"Date:","28 Oct 2019 06:26:18 UTC"

"total cpu usage",,,,,,"dsk/total",,"net/total",,"paging",,"system",
"usr","sys","idl","wai","hiq","siq","read","writ","recv","send","in","out","int","csw"
7.365,18.325,70.708,0.386,0.0,3.216,10871.622,1670796.496,0.0,0.0,0.0,0.0,0.141,3020.420
0.602,0.201,99.197,0.0,0.0,0.0,0.0,1638.400,16303.200,101099.600,0.0,0.0,0.0,155.200
1.883,6.067,90.795,0.0,0.0,1.255,0.0,819.200,947418.200,12632198.400,0.0,0.0,0.0,1066.400
2.479,6.198,90.083,0.207,0.0,1.033,0.0,19660.800,939225.0,12499994.600,0.0,0.0,0.0,1006.0
3.099,5.372,90.496,0.0,0.0,1.033,0.0,1638.400,941976.400,12539134.400,0.0,0.0,0.0,951.800
2.484,6.211,90.269,0.0,0.0,1.035,0.0,819.200,938774.0,12538984.600,0.0,0.0,0.0,948.800
2.532,5.274,91.772,0.0,0.0,0.422,0.0,2457.600,939062.400,12500041.200,0.0,0.0,0.0,956.0
3.265,7.347,88.776,0.0,0.0,0.612,0.0,3276.800,944924.400,12577870.0,0.0,0.0,0.0,970.200
2.911,5.613,90.644,0.0,0.0,0.832,0.0,819.200,939112.400,12538919.600,0.0,0.0,0.0,933.400
2.277,7.039,89.855,0.0,0.0,0.828,0.0,1638.400,942142.200,12539103.800,0.0,0.0,0.0,990.600
2.282,6.432,88.382,1.452,0.0,1.452,0.0,18841.600,938962.800,12500062.400,0.0,0.0,0.0,973.400
2.923,5.846,90.605,0.0,0.0,0.626,0.0,1638.400,939180.400,12499868.600,0.0,0.0,0.0,918.200
2.899,6.211,89.855,0.0,0.0,1.035,0.0,1638.400,939053.600,12500075.200,0.0,0.0,0.0,916.0
2.296,5.637,91.023,0.0,0.0,1.044,0.0,819.200,935603.0,12494435.800,0.0,0.0,0.0,945.600
2.479,6.612,89.876,0.0,0.0,1.033,0.0,3276.800,939655.400,12505376.200,0.0,0.0,0.0,917.200
2.500,5.0,91.042,0.0,0.0,1.458,0.0,1638.400,938749.0,12498707.400,0.0,0.0,0.0,947.200
0.810,1.619,97.368,0.202,0.0,0.0,0.0,15564.800,176395.600,2319100.400,0.0,0.0,0.0,555.600
