"Dstat 0.7.2 CSV output"
"Author:","Dag Wieers <dag@wieers.com>",,,,"URL:","http://dag.wieers.com/home-made/dstat/"
"Host:","Server1",,,,"User:","mstevan"
"Cmdline:","dstat --output /home/mstevan/logs/experiment_3.1/dstat/vs_1024-vcpr_4-wtpm_64-rep_3.csv 5 16",,,,"Date:","28 Oct 2019 05:36:36 UTC"

"total cpu usage",,,,,,"dsk/total",,"net/total",,"paging",,"system",
"usr","sys","idl","wai","hiq","siq","read","writ","recv","send","in","out","int","csw"
7.987,20.005,68.078,0.373,0.0,3.557,8032.416,1883942.294,0.0,0.0,0.0,0.0,0.158,3043.927
0.400,0.600,99.0,0.0,0.0,0.0,0.0,1638.400,19021.400,139088.600,0.0,0.0,0.0,185.0
3.712,9.607,85.371,0.0,0.0,1.310,0.0,1638.400,916426.400,12192625.200,0.0,0.0,0.0,4774.400
3.872,9.795,85.194,0.0,0.0,1.139,0.0,1638.400,939298.0,12534293.400,0.0,0.0,0.0,4797.800
3.030,12.121,83.333,0.0,0.0,1.515,0.0,2457.600,939102.0,12500026.600,0.0,0.0,0.0,4627.0
4.320,9.935,84.665,0.0,0.0,1.080,0.0,819.200,936456.400,12500006.200,0.0,0.0,0.0,4855.400
3.965,9.912,84.141,0.220,0.0,1.762,0.0,18841.600,942984.600,12544242.0,0.0,0.0,0.0,4901.0
5.195,9.307,84.416,0.0,0.0,1.082,0.0,3276.800,938797.200,12494633.400,0.0,0.0,0.0,4864.400
3.571,9.375,85.491,0.0,0.0,1.562,0.0,819.200,936084.200,12499909.200,0.0,0.0,0.0,4677.800
5.310,10.841,82.522,0.0,0.0,1.327,0.0,1638.400,939178.800,12500102.800,0.0,0.0,0.0,4914.400
3.050,8.497,87.146,0.0,0.0,1.307,0.0,1638.400,939577.200,12500049.0,0.0,0.0,0.0,4672.200
4.0,9.474,85.053,0.0,0.0,1.474,0.0,819.200,936408.200,12497873.400,0.0,0.0,0.0,4655.200
6.332,11.790,79.913,0.437,0.0,1.528,0.0,18841.600,939584.0,12502055.200,0.0,0.0,0.0,4943.600
5.128,10.470,82.906,0.0,0.0,1.496,0.0,819.200,936053.200,12500046.400,0.0,0.0,0.0,4790.400
4.889,9.556,84.222,0.0,0.0,1.333,0.0,3276.800,941969.0,12539111.800,0.0,0.0,0.200,4502.600
4.677,10.022,84.187,0.0,0.0,1.114,0.0,1638.400,920488.0,12244488.600,0.0,0.0,0.0,4602.600
0.402,0.201,99.398,0.0,0.0,0.0,0.0,819.200,3127.0,934.800,0.0,0.0,0.0,60.400
