"Dstat 0.7.2 CSV output"
"Author:","Dag Wieers <dag@wieers.com>",,,,"URL:","http://dag.wieers.com/home-made/dstat/"
"Host:","Server1",,,,"User:","mstevan"
"Cmdline:","dstat --output /home/mstevan/logs/experiment_3.1/dstat/vs_1024-vcpr_4-wtpm_32-rep_4.csv 5 16",,,,"Date:","28 Oct 2019 05:32:20 UTC"

"total cpu usage",,,,,,"dsk/total",,"net/total",,"paging",,"system",
"usr","sys","idl","wai","hiq","siq","read","writ","recv","send","in","out","int","csw"
8.045,20.156,67.833,0.377,0.0,3.589,8121.585,1904806.186,0.0,0.0,0.0,0.0,0.160,3034.318
0.402,0.201,99.396,0.0,0.0,0.0,0.0,1638.400,17852.800,141320.400,0.0,0.0,0.0,158.0
4.376,9.628,83.370,1.313,0.0,1.313,0.0,24576.0,939581.0,12546462.0,0.0,0.0,0.0,5137.400
3.974,10.375,84.768,0.0,0.0,0.883,0.0,1638.400,939395.800,12499890.600,0.0,0.0,0.200,4880.800
4.246,11.677,82.590,0.0,0.0,1.486,0.0,2457.600,939068.0,12499832.400,0.0,0.0,0.0,5003.800
4.741,9.698,84.698,0.0,0.0,0.862,0.0,1638.400,936417.400,12499972.800,0.0,0.0,0.0,4915.0
4.977,11.312,82.127,0.0,0.0,1.584,0.0,1638.400,945028.800,12578390.800,0.0,0.0,0.0,4999.800
4.474,9.396,84.564,0.0,0.0,1.566,0.0,2457.600,936090.800,12497218.600,0.0,0.0,0.0,5348.0
3.896,10.606,83.766,0.216,0.0,1.515,0.0,14745.600,939104.0,12502571.200,0.0,0.0,0.0,4921.600
5.669,11.565,81.179,0.0,0.0,1.587,0.0,1638.400,942485.800,12533715.0,0.0,0.0,0.0,4664.800
3.037,10.629,85.466,0.0,0.0,0.868,0.0,819.200,939469.600,12542119.200,0.0,0.0,0.0,4869.0
4.320,12.311,81.641,0.0,0.0,1.728,0.0,1638.400,942811.400,12541469.400,0.0,0.0,0.0,4691.200
4.158,11.597,82.932,0.0,0.0,1.313,0.0,1638.400,939072.200,12494647.400,0.0,0.0,0.0,4799.800
4.348,9.348,85.652,0.0,0.0,0.652,0.0,819.200,935996.200,12499820.400,0.0,0.0,0.0,4826.0
3.947,7.895,86.623,0.439,0.0,1.096,0.0,17203.200,939029.400,12500008.200,0.0,0.0,0.0,4574.200
3.524,11.013,84.581,0.0,0.0,0.881,0.0,819.200,916072.200,12231941.200,0.0,0.0,0.0,4576.0
0.402,0.201,99.398,0.0,0.0,0.0,0.0,1638.400,6214.0,1812.800,0.0,0.0,0.0,72.0
