"Dstat 0.7.2 CSV output"
"Author:","Dag Wieers <dag@wieers.com>",,,,"URL:","http://dag.wieers.com/home-made/dstat/"
"Host:","Server1",,,,"User:","mstevan"
"Cmdline:","dstat --output /home/mstevan/logs/experiment_3.1/dstat/vs_256-vcpr_8-wtpm_32-rep_3.csv 5 16",,,,"Date:","28 Oct 2019 03:31:29 UTC"

"total cpu usage",,,,,,"dsk/total",,"net/total",,"paging",,"system",
"usr","sys","idl","wai","hiq","siq","read","writ","recv","send","in","out","int","csw"
7.926,19.723,68.008,0.516,0.0,3.828,11854.346,2778228.524,0.0,0.0,0.0,0.0,0.232,2840.845
0.201,0.201,99.396,0.0,0.0,0.201,0.0,1638.400,23843.0,71698.0,0.0,0.0,0.0,180.200
10.983,34.393,51.156,0.0,0.0,3.468,0.0,819.200,1495697.200,6312851.600,0.0,0.0,0.0,3959.800
14.493,32.754,46.377,0.290,0.0,6.087,0.0,22118.400,1553690.800,6545845.600,0.0,0.0,0.0,3847.0
14.715,35.135,45.045,0.0,0.0,5.105,0.0,3276.800,1568047.800,6607852.800,0.0,0.0,0.0,3840.200
12.865,37.719,44.152,0.0,0.0,5.263,0.0,819.200,1587375.200,6700311.800,0.0,0.0,0.0,3822.0
15.123,35.494,44.444,0.0,0.0,4.938,0.0,1638.400,1558107.200,6566937.800,0.0,0.0,0.0,3689.200
13.110,35.671,44.207,0.0,0.0,7.012,0.0,3276.800,1569217.0,6613501.200,0.0,0.0,0.0,3888.400
16.374,39.474,37.719,0.0,0.0,6.433,0.0,819.200,1634599.200,6902097.200,0.0,0.0,0.0,3987.0
14.715,35.435,44.745,0.300,0.0,4.805,0.0,15564.800,1591234.800,6706833.200,0.0,0.0,0.0,3706.200
14.804,36.556,43.505,0.0,0.0,5.136,0.0,819.200,1614553.600,6818558.0,0.0,0.0,0.0,3813.0
14.939,33.537,44.817,0.0,0.0,6.707,0.0,1638.400,1593949.400,6717888.200,0.0,0.0,0.0,3692.0
15.294,34.412,45.588,0.0,0.0,4.706,0.0,1638.400,1619286.800,6822272.400,0.0,0.0,0.0,3836.200
12.464,36.522,45.797,0.0,0.0,5.217,0.0,819.200,1623948.400,6852845.400,0.0,0.0,0.0,3772.0
14.328,38.507,41.194,0.0,0.0,5.970,0.0,3276.800,1604224.800,6762375.400,0.0,0.0,0.0,3813.600
15.727,34.421,45.401,0.297,0.0,4.154,0.0,15564.800,1523267.200,6432708.0,0.0,0.0,0.0,3561.200
0.604,0.402,98.994,0.0,0.0,0.0,0.0,1638.400,6665.0,2269.600,0.0,0.0,0.0,81.600
