"Dstat 0.7.2 CSV output"
"Author:","Dag Wieers <dag@wieers.com>",,,,"URL:","http://dag.wieers.com/home-made/dstat/"
"Host:","Server1",,,,"User:","mstevan"
"Cmdline:","dstat --output /home/mstevan/logs/experiment_3.1/dstat/vs_256-vcpr_16-wtpm_8-rep_4.csv 5 16",,,,"Date:","28 Oct 2019 03:44:16 UTC"

"total cpu usage",,,,,,"dsk/total",,"net/total",,"paging",,"system",
"usr","sys","idl","wai","hiq","siq","read","writ","recv","send","in","out","int","csw"
7.983,19.855,67.856,0.497,0.0,3.809,11304.720,2649621.755,0.0,0.0,0.0,0.0,0.221,2882.030
0.200,0.401,99.399,0.0,0.0,0.0,0.0,819.200,12052.400,37528.400,0.0,0.0,0.0,147.800
8.399,17.060,71.916,0.0,0.0,2.625,0.0,1638.400,1010644.200,4249301.0,0.0,0.0,0.0,6544.400
8.511,17.819,71.543,0.532,0.0,1.596,0.0,25395.200,1030717.600,4336265.600,0.0,0.0,0.0,6223.0
8.564,19.144,70.529,0.0,0.0,1.763,0.0,1638.400,1053007.800,4442349.400,0.0,0.0,0.0,6236.600
7.853,18.586,71.204,0.0,0.0,2.356,0.0,2457.600,1038621.600,4365208.0,0.0,0.0,0.0,6210.800
6.716,19.900,71.891,0.0,0.0,1.493,0.0,1638.400,1036513.800,4360012.400,0.0,0.0,0.0,5998.800
8.730,18.519,70.899,0.0,0.0,1.852,0.0,2457.600,1000661.0,4219384.200,0.0,0.0,0.0,5931.200
8.333,20.052,69.792,0.0,0.0,1.823,0.0,1638.400,1044487.0,4394099.600,0.0,0.0,0.0,6206.400
8.060,18.892,71.033,0.252,0.0,1.763,0.0,14745.600,1036185.400,4359636.400,0.0,0.0,0.0,6214.600
8.052,19.740,69.870,0.0,0.0,2.338,0.0,1638.400,1036295.400,4371637.200,0.0,0.0,0.0,6272.200
7.733,20.267,70.133,0.0,0.0,1.867,0.0,1638.400,1022497.0,4301758.200,0.0,0.0,0.0,6182.600
8.205,20.769,69.487,0.0,0.0,1.538,0.0,819.200,1040649.0,4389699.800,0.0,0.0,0.0,6268.200
7.398,21.429,69.133,0.0,0.0,2.041,0.0,1638.400,1047908.200,4402855.200,0.0,0.0,0.0,6221.600
7.792,18.961,71.948,0.0,0.0,1.299,0.0,3276.800,1068179.0,4494284.800,0.0,0.0,0.0,6499.0
8.115,20.157,69.110,0.0,0.0,2.618,0.0,18841.600,1032774.600,4357194.200,0.0,0.0,0.0,6209.200
0.612,2.245,96.939,0.0,0.0,0.204,0.0,1638.400,141208.800,572472.800,0.0,0.0,0.0,1315.600
