"Dstat 0.7.2 CSV output"
"Author:","Dag Wieers <dag@wieers.com>",,,,"URL:","http://dag.wieers.com/home-made/dstat/"
"Host:","Server1",,,,"User:","mstevan"
"Cmdline:","dstat --output /home/mstevan/logs/experiment_3.1/dstat/vs_256-vcpr_4-wtpm_8-rep_1.csv 5 16",,,,"Date:","28 Oct 2019 03:05:55 UTC"

"total cpu usage",,,,,,"dsk/total",,"net/total",,"paging",,"system",
"usr","sys","idl","wai","hiq","siq","read","writ","recv","send","in","out","int","csw"
7.950,19.882,67.625,0.563,0.0,3.979,13130.241,3076896.221,0.0,0.0,0.0,0.0,0.257,2656.636
0.400,0.200,99.400,0.0,0.0,0.0,0.0,819.200,7598.800,18482.200,0.0,0.0,0.0,102.800
5.542,13.012,80.241,0.0,0.0,1.205,0.0,1638.400,1073419.600,4515277.0,0.0,0.0,0.0,6613.400
9.186,20.997,66.667,0.262,0.0,2.887,0.0,21299.200,1008575.800,4242069.400,0.0,0.0,0.0,6443.0
7.928,20.972,68.798,0.0,0.0,2.302,0.0,8192.0,1022400.400,4311964.200,0.0,0.0,0.0,6407.800
10.406,19.797,68.274,0.0,0.0,1.523,0.0,1638.400,1038034.0,4366383.800,0.0,0.0,0.0,6700.0
7.349,21.522,69.554,0.0,0.0,1.575,0.0,819.200,1020382.800,4304338.800,0.0,0.0,0.0,6695.0
9.326,19.430,67.617,0.0,0.0,3.627,0.0,6553.600,1018792.400,4285228.800,0.0,0.0,0.0,6589.600
10.0,22.895,65.0,0.0,0.0,2.105,0.0,1638.400,1006658.200,4233704.200,0.0,0.0,0.0,6377.800
9.972,20.499,65.928,0.554,0.0,3.047,0.0,18022.400,997789.0,4207385.400,0.0,0.0,0.0,6292.600
7.750,20.250,70.500,0.0,0.0,1.500,0.0,1638.400,1075156.0,4520350.400,0.0,0.0,0.0,6440.200
9.067,21.067,67.200,0.0,0.0,2.667,0.0,1638.400,1017963.200,4281358.600,0.0,0.0,0.0,6394.200
7.612,23.097,67.717,0.0,0.0,1.575,0.0,819.200,1005397.200,4241076.600,0.0,0.0,0.0,6167.200
9.677,22.043,66.398,0.0,0.0,1.882,0.0,2457.600,1004495.200,4225166.200,0.0,0.0,0.0,6159.400
7.572,18.799,71.802,0.0,0.0,1.828,0.0,1638.400,1055282.800,4441937.200,0.0,0.0,0.0,6310.600
9.737,20.0,67.368,0.263,0.0,2.632,0.0,15564.800,1011837.200,4266280.800,0.0,0.0,0.0,6222.800
0.401,0.200,99.399,0.0,0.0,0.0,0.0,4915.200,6232.0,1816.800,0.0,0.0,0.0,67.400
