"Dstat 0.7.2 CSV output"
"Author:","Dag Wieers <dag@wieers.com>",,,,"URL:","http://dag.wieers.com/home-made/dstat/"
"Host:","Server1",,,,"User:","mstevan"
"Cmdline:","dstat --output /home/mstevan/logs/experiment_3.1/dstat/vs_256-vcpr_32-wtpm_32-rep_3.csv 5 16",,,,"Date:","28 Oct 2019 04:05:34 UTC"

"total cpu usage",,,,,,"dsk/total",,"net/total",,"paging",,"system",
"usr","sys","idl","wai","hiq","siq","read","writ","recv","send","in","out","int","csw"
8.099,20.187,67.453,0.468,0.0,3.793,10494.007,2459920.249,0.0,0.0,0.0,0.0,0.206,2895.924
0.201,0.402,99.398,0.0,0.0,0.0,0.0,819.200,16514.0,50692.0,0.0,0.0,0.0,142.600
14.697,37.464,41.499,0.0,0.0,6.340,0.0,1638.400,1733139.800,7306019.600,0.0,0.0,0.0,2948.600
14.759,39.458,40.663,0.301,0.0,4.819,0.0,18841.600,1742120.0,7346236.200,0.0,0.0,0.0,2576.200
14.985,37.615,40.979,0.0,0.0,6.422,0.0,2457.600,1728286.600,7297897.600,0.0,0.0,0.0,2545.400
15.123,39.198,41.049,0.0,0.0,4.630,0.0,1638.400,1724560.800,7270048.800,0.0,0.0,0.0,2582.0
16.765,36.176,42.353,0.0,0.0,4.706,0.0,819.200,1715214.400,7233847.600,0.0,0.0,0.0,2475.200
15.727,37.685,41.840,0.0,0.0,4.748,0.0,3276.800,1695928.400,7150954.600,0.0,0.0,0.0,2537.200
14.502,39.879,40.181,0.0,0.0,5.438,0.0,1638.400,1725973.800,7277190.600,0.0,0.0,0.0,2574.200
12.773,40.187,41.745,0.0,0.0,5.296,0.0,819.200,1723957.800,7279674.400,0.0,0.0,0.0,2550.400
15.976,37.870,39.941,0.296,0.0,5.917,0.0,18841.600,1735222.200,7317170.0,0.0,0.0,0.0,2577.400
15.680,38.757,40.533,0.0,0.0,5.030,0.0,1638.400,1719173.800,7249523.800,0.0,0.0,0.0,2552.600
15.060,37.651,42.771,0.0,0.0,4.518,0.0,819.200,1713961.200,7238349.400,0.0,0.0,0.0,2524.400
15.596,37.615,41.284,0.0,0.0,5.505,0.0,1638.400,1708030.600,7202353.400,0.0,0.0,0.0,2551.600
13.166,38.558,43.574,0.0,0.0,4.702,0.0,2457.600,1701213.400,7183905.0,0.0,0.0,0.0,2467.800
15.217,35.404,43.789,0.0,0.0,5.590,0.0,1638.400,1744814.200,7346368.200,0.0,0.0,0.0,2626.600
2.391,4.783,92.174,0.0,0.0,0.652,0.0,15564.800,313612.600,1299571.600,0.0,0.0,0.0,675.0
