"Dstat 0.7.2 CSV output"
"Author:","Dag Wieers <dag@wieers.com>",,,,"URL:","http://dag.wieers.com/home-made/dstat/"
"Host:","Server1",,,,"User:","mstevan"
"Cmdline:","dstat --output /home/mstevan/logs/experiment_3.1/dstat/vs_256-vcpr_4-wtpm_64-rep_1.csv 5 16",,,,"Date:","28 Oct 2019 03:17:17 UTC"

"total cpu usage",,,,,,"dsk/total",,"net/total",,"paging",,"system",
"usr","sys","idl","wai","hiq","siq","read","writ","recv","send","in","out","int","csw"
7.930,19.767,67.866,0.541,0.0,3.896,12530.543,2936576.922,0.0,0.0,0.0,0.0,0.245,2751.040
0.402,0.201,98.996,0.402,0.0,0.0,0.0,22937.600,18495.0,54994.800,0.0,0.0,0.0,196.200
8.877,19.321,68.930,0.0,0.0,2.872,0.0,1638.400,1052365.800,4425603.200,0.0,0.0,0.0,5137.0
8.672,23.306,64.499,0.0,0.0,3.523,0.0,3276.800,1111406.200,4689567.0,0.0,0.0,0.0,5383.800
10.468,27.273,58.402,0.0,0.0,3.857,0.0,1638.400,1112638.0,4682854.800,0.0,0.0,0.0,4867.200
10.050,22.613,64.322,0.0,0.0,3.015,0.0,2457.600,1128619.0,4748393.800,0.0,0.0,0.200,4990.400
10.383,24.317,61.749,0.0,0.0,3.552,0.0,819.200,1104919.600,4659765.600,0.0,0.0,0.0,4942.600
7.494,21.705,67.183,0.0,0.0,3.618,0.0,3276.800,1139082.400,4793678.600,0.0,0.0,0.0,5076.400
9.635,21.875,64.844,0.521,0.0,3.125,0.0,27033.600,1156082.400,4866216.600,0.0,0.0,0.0,5133.800
9.615,23.352,62.912,0.0,0.0,4.121,0.0,819.200,1133135.600,4778346.400,0.0,0.0,0.0,5091.800
8.777,24.202,63.830,0.0,0.0,3.191,0.0,1638.400,1124925.400,4732810.400,0.0,0.0,0.0,5078.600
12.869,22.252,61.126,0.0,0.0,3.753,0.0,819.200,1134031.400,4784828.600,0.0,0.0,0.0,4978.0
9.449,23.097,64.304,0.0,0.0,3.150,0.0,1638.400,1109083.0,4667341.0,0.0,0.0,0.0,5165.200
9.259,25.132,62.169,0.0,0.0,3.439,0.0,2457.600,1125366.400,4736331.0,0.0,0.0,0.0,4984.200
10.511,25.568,59.943,0.284,0.0,3.693,0.0,15564.800,1107422.200,4673511.600,0.0,0.0,0.0,4889.200
10.714,24.725,60.714,0.0,0.0,3.846,0.0,1638.400,1082275.0,4551280.600,0.0,0.0,0.0,4828.800
0.402,0.0,99.598,0.0,0.0,0.0,0.0,1638.400,6214.0,1798.800,0.0,0.0,0.0,73.800
