"Dstat 0.7.2 CSV output"
"Author:","Dag Wieers <dag@wieers.com>",,,,"URL:","http://dag.wieers.com/home-made/dstat/"
"Host:","Server1",,,,"User:","mstevan"
"Cmdline:","dstat --output /home/mstevan/logs/experiment_3.1/dstat/vs_256-vcpr_32-wtpm_32-rep_1.csv 5 16",,,,"Date:","28 Oct 2019 04:02:44 UTC"

"total cpu usage",,,,,,"dsk/total",,"net/total",,"paging",,"system",
"usr","sys","idl","wai","hiq","siq","read","writ","recv","send","in","out","int","csw"
8.075,20.113,67.549,0.471,0.0,3.792,10595.307,2483624.816,0.0,0.0,0.0,0.0,0.208,2903.240
0.402,0.402,98.795,0.402,0.0,0.0,0.0,10649.600,20514.600,57597.0,0.0,0.0,0.0,151.0
15.680,35.799,44.379,0.0,0.0,4.142,0.0,1638.400,1653577.600,6965488.400,0.0,0.0,0.0,2688.200
14.759,36.747,43.072,0.0,0.0,5.422,0.0,819.200,1735501.600,7330242.400,0.0,0.0,0.0,2604.600
12.913,39.039,43.243,0.0,0.0,4.805,0.0,3276.800,1718444.400,7245595.600,0.0,0.0,0.0,2537.400
13.016,38.413,44.127,0.0,0.0,4.444,0.0,819.200,1733263.0,7319331.200,0.0,0.0,0.0,2576.0
14.907,37.578,41.615,0.0,0.0,5.901,0.0,1638.400,1722329.200,7251057.800,0.0,0.0,0.0,2597.400
13.889,39.198,42.284,0.0,0.0,4.630,0.0,22118.400,1725452.600,7277291.0,0.0,0.0,0.0,2548.400
13.554,36.747,43.976,0.0,0.0,5.723,0.0,819.200,1743442.0,7363063.600,0.0,0.0,0.0,2667.0
14.241,37.461,44.272,0.0,0.0,4.025,0.0,1638.400,1734927.200,7313268.800,0.0,0.0,0.0,2635.200
14.107,39.498,42.633,0.0,0.0,3.762,0.0,1638.400,1706255.800,7194816.600,0.0,0.0,0.0,2554.800
15.0,38.125,42.500,0.0,0.0,4.375,0.0,819.200,1709322.0,7220161.200,0.0,0.0,0.0,2616.600
13.761,37.309,44.037,0.0,0.0,4.893,0.0,1638.400,1712044.200,7219314.0,0.0,0.0,0.0,2655.400
15.964,34.940,43.373,0.301,0.0,5.422,0.0,15564.800,1746982.400,7378080.600,0.0,0.0,0.0,2637.800
13.433,37.612,42.985,0.0,0.0,5.970,0.0,2457.600,1711117.400,7212803.0,0.0,0.0,0.0,2611.800
13.393,37.500,42.857,0.0,0.0,6.250,0.0,1638.400,1695754.600,7137656.600,0.0,0.0,0.0,2576.200
0.401,0.401,99.198,0.0,0.0,0.0,0.0,819.200,3127.0,934.800,0.0,0.0,0.0,58.0
