"Dstat 0.7.2 CSV output"
"Author:","Dag Wieers <dag@wieers.com>",,,,"URL:","http://dag.wieers.com/home-made/dstat/"
"Host:","Server1",,,,"User:","mstevan"
"Cmdline:","dstat --output /home/mstevan/logs/experiment_3.1/dstat/vs_512-vcpr_4-wtpm_32-rep_4.csv 5 16",,,,"Date:","28 Oct 2019 04:24:06 UTC"

"total cpu usage",,,,,,"dsk/total",,"net/total",,"paging",,"system",
"usr","sys","idl","wai","hiq","siq","read","writ","recv","send","in","out","int","csw"
8.146,20.341,67.306,0.444,0.0,3.763,9877.767,2315734.521,0.0,0.0,0.0,0.0,0.194,2924.702
0.400,0.600,98.400,0.600,0.0,0.0,0.0,18841.600,18292.200,79746.400,0.0,0.0,0.0,181.600
6.701,16.237,75.258,0.0,0.0,1.804,0.0,819.200,1092063.600,7926538.200,0.0,0.0,0.0,5467.600
7.258,25.0,65.323,0.0,0.0,2.419,0.0,1638.400,1105053.600,8004306.400,0.0,0.0,0.0,5264.0
8.447,25.613,63.215,0.0,0.0,2.725,0.0,2457.600,1152715.0,8369329.600,0.0,0.0,0.0,5247.400
10.345,24.138,62.334,0.0,0.0,3.183,0.0,1638.400,1124358.800,8146806.0,0.0,0.0,0.0,5157.800
10.512,23.450,61.725,0.0,0.0,4.313,0.0,1638.400,1121648.600,8122160.400,0.0,0.0,0.0,5168.600
10.992,25.469,59.517,0.0,0.0,4.021,0.0,2457.600,1115470.600,8099591.0,0.0,0.0,0.0,4962.0
8.625,20.485,66.577,0.539,0.0,3.774,0.0,18841.600,1132546.400,8203918.400,0.0,0.0,0.0,5019.600
9.788,20.899,66.138,0.0,0.0,3.175,0.0,1638.400,1156242.600,8370211.600,0.0,0.0,0.0,5226.0
8.130,24.932,62.602,0.0,0.0,4.336,0.0,819.200,1125192.200,8167100.200,0.0,0.0,0.0,5102.400
9.041,23.562,63.562,0.0,0.0,3.836,0.0,1638.400,1141053.200,8266495.600,0.0,0.0,0.0,5070.400
9.409,21.237,66.398,0.0,0.0,2.957,0.0,819.200,1155706.200,8394919.0,0.0,0.0,0.200,5078.200
11.351,22.432,63.243,0.0,0.0,2.973,0.0,1638.400,1133332.800,8211144.800,0.0,0.0,0.0,4970.200
7.711,16.915,71.891,0.249,0.0,3.234,0.0,17203.200,1200935.600,8702882.600,0.0,0.0,0.0,5388.800
6.931,18.069,72.772,0.0,0.0,2.228,0.0,819.200,1179165.200,8562108.600,0.0,0.0,0.0,5410.400
0.602,0.201,99.197,0.0,0.0,0.0,0.0,1638.400,6298.400,1941.200,0.0,0.0,0.0,69.200
