"Dstat 0.7.2 CSV output"
"Author:","Dag Wieers <dag@wieers.com>",,,,"URL:","http://dag.wieers.com/home-made/dstat/"
"Host:","Server1",,,,"User:","mstevan"
"Cmdline:","dstat --output /home/mstevan/logs/experiment_3.1/dstat/vs_512-vcpr_16-wtpm_64-rep_2.csv 5 16",,,,"Date:","28 Oct 2019 05:01:02 UTC"

"total cpu usage",,,,,,"dsk/total",,"net/total",,"paging",,"system",
"usr","sys","idl","wai","hiq","siq","read","writ","recv","send","in","out","int","csw"
8.167,20.429,67.307,0.405,0.0,3.691,8843.048,2073615.372,0.0,0.0,0.0,0.0,0.174,3015.598
0.201,0.402,99.398,0.0,0.0,0.0,0.0,1638.400,15467.600,49485.600,0.0,0.0,0.0,149.800
8.602,29.570,58.333,0.0,0.0,3.495,0.0,819.200,1683294.400,12231612.600,0.0,0.0,0.0,2238.600
13.833,30.259,49.856,0.0,0.0,6.052,0.0,1638.400,1726917.0,12527738.0,0.0,0.0,0.0,1862.800
10.795,30.114,55.398,0.0,0.0,3.693,0.0,3276.800,1725770.800,12515176.800,0.0,0.0,0.0,1951.200
11.236,30.899,52.809,0.0,0.0,5.056,0.0,22118.400,1718250.800,12493495.800,0.0,0.0,0.200,1918.200
12.360,34.831,47.472,0.0,0.0,5.337,0.0,1638.400,1725923.400,12522088.600,0.0,0.0,0.0,1820.0
11.966,30.769,50.427,0.0,0.0,6.838,0.0,2457.600,1729858.600,12576037.400,0.0,0.0,0.0,1837.600
11.884,31.304,50.145,0.0,0.0,6.667,0.0,1638.400,1724073.0,12504312.800,0.0,0.0,0.0,1882.600
14.045,27.809,51.966,0.0,0.0,6.180,0.0,1638.400,1731082.800,12560176.600,0.0,0.0,0.0,1864.800
11.527,35.735,46.398,0.0,0.0,6.340,0.0,819.200,1718339.200,12489358.400,0.0,0.0,0.0,1821.400
12.821,31.054,50.712,0.0,0.0,5.413,0.0,15564.800,1720276.0,12482756.800,0.0,0.0,0.0,1788.600
12.778,31.944,48.333,0.0,0.0,6.944,0.0,1638.400,1720925.200,12486188.600,0.0,0.0,0.0,1808.800
12.169,30.423,53.175,0.0,0.0,4.233,0.0,819.200,1722755.0,12521161.400,0.0,0.0,0.0,1892.800
12.113,32.394,49.859,0.0,0.0,5.634,0.0,3276.800,1728606.200,12544436.0,0.0,0.0,0.0,1859.0
11.370,34.402,49.563,0.0,0.0,4.665,0.0,819.200,1698690.200,12354750.600,0.0,0.0,0.0,1837.600
0.611,1.018,98.371,0.0,0.0,0.0,0.0,1638.400,71064.0,465978.0,0.0,0.0,0.0,636.400
