"Dstat 0.7.2 CSV output"
"Author:","Dag Wieers <dag@wieers.com>",,,,"URL:","http://dag.wieers.com/home-made/dstat/"
"Host:","Server1",,,,"User:","mstevan"
"Cmdline:","dstat --output /home/mstevan/logs/experiment_3.1/dstat/vs_512-vcpr_4-wtpm_32-rep_3.csv 5 16",,,,"Date:","28 Oct 2019 04:22:41 UTC"

"total cpu usage",,,,,,"dsk/total",,"net/total",,"paging",,"system",
"usr","sys","idl","wai","hiq","siq","read","writ","recv","send","in","out","int","csw"
8.148,20.347,67.292,0.446,0.0,3.767,9922.420,2326186.203,0.0,0.0,0.0,0.0,0.195,2918.719
0.202,0.202,99.597,0.0,0.0,0.0,0.0,2457.600,16536.0,68149.600,0.0,0.0,0.0,165.800
8.914,21.727,66.295,0.0,0.0,3.064,0.0,819.200,1092706.800,7929841.600,0.0,0.0,0.0,5298.0
10.335,25.419,59.218,0.0,0.0,5.028,0.0,1638.400,1109949.800,8037276.600,0.0,0.0,0.0,5249.400
10.372,26.064,61.170,0.0,0.0,2.394,0.0,2457.600,1154723.400,8363204.600,0.0,0.0,0.0,5145.800
7.895,21.579,68.158,0.0,0.0,2.368,0.0,1638.400,1193321.400,8667402.600,0.0,0.0,0.0,5490.400
9.290,27.869,59.290,0.546,0.0,3.005,0.0,18841.600,1138916.400,8249918.600,0.0,0.0,0.0,5059.600
9.014,24.225,62.817,0.0,0.0,3.944,0.0,3276.800,1158080.800,8389644.600,0.0,0.0,0.0,5210.200
8.579,26.273,61.662,0.0,0.0,3.485,0.0,819.200,1171794.200,8511511.0,0.0,0.0,0.0,5372.800
9.574,22.606,64.362,0.0,0.0,3.457,0.0,1638.400,1168936.200,8460016.600,0.0,0.0,0.0,5137.400
9.043,20.479,66.489,0.0,0.0,3.989,0.0,819.200,1188295.400,8633360.800,0.0,0.0,0.0,5197.200
11.260,25.201,59.786,0.0,0.0,3.753,0.0,1638.400,1121690.600,8122768.600,0.0,0.0,0.0,5013.0
10.674,23.876,60.393,0.0,0.0,5.056,0.0,15564.800,1130789.600,8191637.400,0.0,0.0,0.0,5046.800
10.298,24.661,61.247,0.0,0.0,3.794,0.0,4096.0,1149900.400,8351540.0,0.0,0.0,0.0,4980.800
11.413,24.728,60.598,0.0,0.0,3.261,0.0,3276.800,1128960.600,8178093.400,0.0,0.0,0.0,4978.200
9.244,25.210,61.905,0.0,0.0,3.641,0.0,1638.400,1107362.400,8017683.800,0.0,0.0,0.0,4906.400
0.200,0.200,99.600,0.0,0.0,0.0,0.0,819.200,3127.0,934.800,0.0,0.0,0.0,60.800
