"Dstat 0.7.2 CSV output"
"Author:","Dag Wieers <dag@wieers.com>",,,,"URL:","http://dag.wieers.com/home-made/dstat/"
"Host:","Server1",,,,"User:","mstevan"
"Cmdline:","dstat --output /home/mstevan/logs/experiment_3.1/dstat/vs_512-vcpr_8-wtpm_64-rep_4.csv 5 16",,,,"Date:","28 Oct 2019 04:46:49 UTC"

"total cpu usage",,,,,,"dsk/total",,"net/total",,"paging",,"system",
"usr","sys","idl","wai","hiq","siq","read","writ","recv","send","in","out","int","csw"
8.150,20.370,67.347,0.419,0.0,3.714,9214.274,2160482.562,0.0,0.0,0.0,0.0,0.181,2996.126
0.803,0.201,98.996,0.0,0.0,0.0,0.0,1638.400,18262.200,70643.400,0.0,0.0,0.0,160.600
11.236,30.056,53.933,0.0,0.0,4.775,0.0,819.200,1475309.200,10714184.800,0.0,0.0,0.0,3905.800
13.174,34.431,46.707,0.0,0.0,5.689,0.0,1638.400,1555599.200,11279625.600,0.0,0.0,0.0,3690.600
13.411,36.443,44.023,0.292,0.0,5.831,0.0,23756.800,1563340.0,11361412.400,0.0,0.0,0.0,3541.800
11.310,34.524,50.298,0.0,0.0,3.869,0.0,1638.400,1549265.800,11233702.600,0.0,0.0,0.0,3453.0
13.110,33.841,47.561,0.0,0.0,5.488,0.0,1638.400,1558240.0,11303382.200,0.0,0.0,0.0,3508.0
11.940,35.522,46.567,0.0,0.0,5.970,0.0,2457.600,1595174.800,11593409.400,0.0,0.0,0.0,3605.0
12.281,36.257,45.614,0.0,0.0,5.848,0.0,1638.400,1587459.600,11516225.800,0.0,0.0,0.0,3683.0
13.134,33.134,46.866,0.0,0.0,6.866,0.0,1638.400,1584070.400,11491562.600,0.0,0.0,0.0,3457.800
15.385,34.024,45.562,0.296,0.0,4.734,0.0,14745.600,1575009.0,11447695.800,0.0,0.0,0.0,3327.0
12.573,35.965,47.076,0.0,0.0,4.386,0.0,1638.400,1581743.400,11476025.600,0.0,0.0,0.0,3424.600
14.373,36.391,43.731,0.0,0.0,5.505,0.0,819.200,1590681.800,11558472.800,0.0,0.0,0.0,3467.600
14.368,34.483,46.839,0.0,0.0,4.310,0.0,1638.400,1584710.600,11482544.0,0.0,0.0,0.0,3435.800
15.850,36.311,40.346,0.0,0.0,7.493,0.0,3276.800,1597273.400,11584684.600,0.0,0.0,0.0,3410.800
12.979,35.103,45.428,0.0,0.0,6.490,0.0,819.200,1560146.0,11340057.0,0.0,0.0,0.0,3379.400
0.201,0.201,99.195,0.402,0.0,0.0,0.0,15564.800,6295.200,1839.200,0.0,0.0,0.0,73.800
