"Dstat 0.7.2 CSV output"
"Author:","Dag Wieers <dag@wieers.com>",,,,"URL:","http://dag.wieers.com/home-made/dstat/"
"Host:","Server1",,,,"User:","mstevan"
"Cmdline:","dstat --output /home/mstevan/logs/experiment_3.1/dstat/vs_512-vcpr_4-wtpm_64-rep_4.csv 5 16",,,,"Date:","28 Oct 2019 04:29:47 UTC"

"total cpu usage",,,,,,"dsk/total",,"net/total",,"paging",,"system",
"usr","sys","idl","wai","hiq","siq","read","writ","recv","send","in","out","int","csw"
8.131,20.302,67.387,0.438,0.0,3.743,9703.093,2274865.009,0.0,0.0,0.0,0.0,0.190,2947.881
0.402,0.201,99.398,0.0,0.0,0.0,0.0,1638.400,15838.0,53128.400,0.0,0.0,0.0,161.400
9.651,21.448,64.879,0.0,0.0,4.021,0.0,819.200,1045865.800,7586681.0,0.0,0.0,0.0,5126.600
9.945,25.414,61.050,0.0,0.0,3.591,0.0,1638.400,1137211.800,8235072.0,0.0,0.0,0.0,4982.0
10.278,27.500,58.611,0.0,0.0,3.611,0.0,1638.400,1158053.0,8408402.400,0.0,0.0,0.0,5284.400
10.857,26.571,59.714,0.0,0.0,2.857,0.0,2457.600,1135753.0,8229034.600,0.0,0.0,0.0,5044.400
9.434,24.259,62.534,0.0,0.0,3.774,0.0,1638.400,1116697.0,8085700.600,0.0,0.0,0.200,4646.600
10.109,25.410,59.836,0.273,0.0,4.372,0.0,18841.600,1152044.600,8367284.400,0.0,0.0,0.0,5122.200
8.354,21.772,66.076,0.0,0.0,3.797,0.0,1638.400,1231051.400,8921223.0,0.0,0.0,0.0,5466.600
9.434,23.450,63.612,0.0,0.0,3.504,0.0,819.200,1159877.0,8394839.0,0.0,0.0,0.0,5116.400
10.084,25.210,60.504,0.0,0.0,4.202,0.0,1638.400,1100716.600,7994279.600,0.0,0.0,0.0,5095.800
9.687,25.926,60.969,0.0,0.0,3.419,0.0,1638.400,1130453.0,8189220.400,0.0,0.0,0.0,4962.800
9.524,25.490,61.345,0.0,0.0,3.641,0.0,819.200,1107587.400,8044407.0,0.0,0.0,0.0,4829.400
9.290,27.049,59.016,0.273,0.0,4.372,0.0,18022.400,1123511.600,8134047.600,0.0,0.0,0.0,5127.600
8.757,27.401,61.017,0.0,0.0,2.825,0.0,2457.600,1100419.200,7966992.200,0.0,0.0,0.0,5005.200
9.434,25.876,61.456,0.0,0.0,3.235,0.0,819.200,1111766.0,8071192.400,0.0,0.0,0.0,5079.800
0.602,0.201,99.197,0.0,0.0,0.0,0.0,1638.400,6214.0,1798.800,0.0,0.0,0.0,68.600
