"Dstat 0.7.2 CSV output"
"Author:","Dag Wieers <dag@wieers.com>",,,,"URL:","http://dag.wieers.com/home-made/dstat/"
"Host:","Server1",,,,"User:","mstevan"
"Cmdline:","dstat --output /home/mstevan/logs/experiment_3.1/dstat/vs_512-vcpr_32-wtpm_64-rep_1.csv 5 16",,,,"Date:","28 Oct 2019 05:16:39 UTC"

"total cpu usage",,,,,,"dsk/total",,"net/total",,"paging",,"system",
"usr","sys","idl","wai","hiq","siq","read","writ","recv","send","in","out","int","csw"
8.181,20.498,67.259,0.391,0.0,3.670,8467.767,1985810.241,0.0,0.0,0.0,0.0,0.167,3024.621
0.604,0.201,99.195,0.0,0.0,0.0,0.0,819.200,21002.400,112280.400,0.0,0.0,0.0,160.400
8.311,27.346,59.517,0.0,0.0,4.826,0.0,2457.600,1698671.0,12316859.600,0.0,0.0,0.0,1629.400
9.239,25.543,60.870,0.0,0.0,4.348,0.0,1638.400,1720713.800,12487031.400,0.0,0.0,0.0,1416.200
11.175,29.513,53.582,0.0,0.0,5.731,0.0,1638.400,1722113.600,12519174.800,0.0,0.0,0.200,1412.200
10.133,27.200,58.400,0.0,0.0,4.267,0.0,1638.400,1728320.0,12538249.200,0.0,0.0,0.0,1472.800
9.235,27.704,58.575,0.0,0.0,4.485,0.0,819.200,1721896.400,12499950.800,0.0,0.0,0.0,1433.400
8.579,28.954,57.373,0.268,0.0,4.826,0.0,31948.800,1720885.400,12488224.800,0.0,0.0,0.0,1414.800
9.434,27.763,57.682,0.0,0.0,5.121,0.0,1638.400,1720044.800,12481997.200,0.0,0.0,0.0,1419.0
8.906,25.445,61.578,0.0,0.0,4.071,0.0,819.200,1723887.200,12529802.800,0.0,0.0,0.0,1397.800
9.615,29.121,56.319,0.0,0.0,4.945,0.0,1638.400,1718414.800,12471831.600,0.0,0.0,0.0,1407.800
11.622,27.027,56.486,0.0,0.0,4.865,0.0,2457.600,1720645.200,12488657.200,0.0,0.0,0.0,1394.200
9.315,26.849,58.904,0.0,0.0,4.932,0.0,1638.400,1725003.0,12539403.200,0.0,0.0,0.0,1423.0
8.684,23.947,63.421,0.789,0.0,3.158,0.0,15564.800,1721424.600,12493448.400,0.0,0.0,0.0,1396.200
10.899,27.520,56.403,0.0,0.0,5.177,0.0,2457.600,1720636.0,12506519.400,0.0,0.0,0.0,1402.200
11.780,28.010,56.283,0.0,0.0,3.927,0.0,1638.400,1727302.200,12517818.200,0.0,0.0,0.0,1434.200
2.784,4.711,92.077,0.0,0.0,0.428,0.0,1638.400,315330.800,2252235.200,0.0,0.0,0.0,607.200
