"Dstat 0.7.2 CSV output"
"Author:","Dag Wieers <dag@wieers.com>",,,,"URL:","http://dag.wieers.com/home-made/dstat/"
"Host:","Server1",,,,"User:","mstevan"
"Cmdline:","dstat --output /home/mstevan/logs/experiment_3.1/dstat/vs_512-vcpr_8-wtpm_32-rep_4.csv 5 16",,,,"Date:","28 Oct 2019 04:41:09 UTC"

"total cpu usage",,,,,,"dsk/total",,"net/total",,"paging",,"system",
"usr","sys","idl","wai","hiq","siq","read","writ","recv","send","in","out","int","csw"
8.118,20.277,67.476,0.425,0.0,3.704,9371.640,2197306.917,0.0,0.0,0.0,0.0,0.184,2996.390
0.202,0.403,99.395,0.0,0.0,0.0,0.0,1638.400,18324.200,81333.400,0.0,0.0,0.0,166.800
11.798,32.022,51.685,0.0,0.0,4.494,0.0,1638.400,1520941.0,11049608.200,0.0,0.0,0.0,3986.600
14.368,34.195,46.552,0.0,0.0,4.885,0.0,1638.400,1571668.400,11398458.400,0.0,0.0,0.0,3963.400
13.514,36.036,45.345,0.300,0.0,4.805,0.0,819.200,1578804.400,11462126.800,0.0,0.0,0.0,3873.200
14.030,36.716,43.284,0.299,0.0,5.672,0.0,19660.800,1595699.400,11583512.400,0.0,0.0,0.0,3815.400
12.074,38.390,43.653,0.0,0.0,5.882,0.0,1638.400,1592667.200,11554634.400,0.0,0.0,0.0,3797.0
13.490,33.724,46.921,0.0,0.0,5.865,0.0,2457.600,1599671.0,11625941.400,0.0,0.0,0.0,3811.0
12.575,35.329,45.808,0.0,0.0,6.287,0.0,1638.400,1608650.400,11673211.0,0.0,0.0,0.0,3920.800
14.286,38.602,41.641,0.0,0.0,5.471,0.0,1638.400,1584645.600,11492666.800,0.0,0.0,0.0,3729.600
13.554,37.952,42.470,0.0,0.0,6.024,0.0,819.200,1569662.0,11405559.400,0.0,0.0,0.0,3875.0
14.454,38.643,41.003,0.0,0.0,5.900,0.0,18841.600,1595012.800,11571109.400,0.0,0.0,0.0,3851.200
15.741,36.111,43.827,0.0,0.0,4.321,0.0,819.200,1577689.200,11437360.800,0.0,0.0,0.0,3731.600
11.672,35.016,47.319,0.0,0.0,5.994,0.0,1638.400,1585267.200,11515752.200,0.0,0.0,0.0,3750.200
14.502,37.764,42.598,0.0,0.0,5.136,0.0,3276.800,1611939.600,11693899.600,0.0,0.0,0.0,3839.800
13.939,36.970,43.939,0.0,0.0,5.152,0.0,819.200,1621181.400,11785430.0,0.0,0.0,0.0,4076.0
0.599,0.200,99.002,0.0,0.0,0.200,0.0,1638.400,6214.0,1798.800,0.0,0.0,0.0,72.600
