"Dstat 0.7.2 CSV output"
"Author:","Dag Wieers <dag@wieers.com>",,,,"URL:","http://dag.wieers.com/home-made/dstat/"
"Host:","Server1",,,,"User:","mstevan"
"Cmdline:","dstat --output /home/mstevan/logs/experiment_3.1/dstat/vs_512-vcpr_32-wtpm_8-rep_1.csv 5 16",,,,"Date:","28 Oct 2019 05:05:17 UTC"

"total cpu usage",,,,,,"dsk/total",,"net/total",,"paging",,"system",
"usr","sys","idl","wai","hiq","siq","read","writ","recv","send","in","out","int","csw"
8.180,20.475,67.244,0.401,0.0,3.700,8737.440,2048902.597,0.0,0.0,0.0,0.0,0.172,2998.626
0.599,0.599,98.802,0.0,0.0,0.0,0.0,1638.400,14585.800,59302.0,0.0,0.0,0.0,148.0
5.974,20.0,72.208,0.0,0.0,1.818,0.0,819.200,1033317.800,7500740.600,0.0,0.0,0.0,6888.400
6.579,20.0,70.526,0.526,0.0,2.368,0.0,22937.600,1019284.200,7378373.0,0.0,0.0,0.0,6559.400
7.519,19.549,70.677,0.0,0.0,2.256,0.0,2457.600,1025713.200,7448202.0,0.0,0.0,0.0,6606.0
8.094,16.971,73.107,0.0,0.0,1.828,0.0,1638.400,1003629.400,7265668.800,0.0,0.0,0.0,6658.400
6.553,16.990,74.029,0.0,0.0,2.427,0.0,1638.400,1071828.200,7762356.400,0.0,0.0,0.0,6971.400
6.404,16.995,74.631,0.0,0.0,1.970,0.0,2457.600,1050686.600,7628374.800,0.0,0.0,0.0,6937.200
8.158,21.316,68.158,0.0,0.0,2.368,0.0,1638.400,1025702.400,7425255.0,0.0,0.0,0.0,6688.400
8.661,22.047,67.192,0.262,0.0,1.837,0.0,15564.800,997831.200,7206168.800,0.0,0.0,0.0,6516.0
7.143,21.958,68.783,0.0,0.0,2.116,0.0,819.200,991564.600,7193847.0,0.0,0.0,0.0,6684.0
6.771,21.354,69.271,0.0,0.0,2.604,0.0,1638.400,1003121.400,7263335.200,0.0,0.0,0.0,6365.200
7.292,22.396,68.490,0.0,0.0,1.823,0.0,819.200,1018338.0,7390733.0,0.0,0.0,0.0,6651.600
4.987,19.160,73.753,0.0,0.0,2.100,0.0,1638.400,1055872.800,7648478.600,0.0,0.0,0.0,6886.400
8.052,20.519,69.610,0.0,0.0,1.818,0.0,3276.800,1025769.0,7424641.800,0.0,0.0,0.0,6692.200
7.407,20.0,70.370,0.0,0.0,2.222,0.0,15564.800,1039834.200,7550909.800,0.0,0.0,0.0,6754.0
1.016,2.033,96.545,0.0,0.0,0.407,0.0,1638.400,143808.0,1003555.200,0.0,0.0,0.200,1037.0
