"Dstat 0.7.2 CSV output"
"Author:","Dag Wieers <dag@wieers.com>",,,,"URL:","http://dag.wieers.com/home-made/dstat/"
"Host:","Server1",,,,"User:","mstevan"
"Cmdline:","dstat --output /home/mstevan/logs/experiment_3.1/dstat/vs_512-vcpr_16-wtpm_64-rep_1.csv 5 16",,,,"Date:","28 Oct 2019 04:59:36 UTC"

"total cpu usage",,,,,,"dsk/total",,"net/total",,"paging",,"system",
"usr","sys","idl","wai","hiq","siq","read","writ","recv","send","in","out","int","csw"
8.163,20.414,67.327,0.407,0.0,3.689,8878.819,2081985.279,0.0,0.0,0.0,0.0,0.175,3021.345
0.401,0.401,99.198,0.0,0.0,0.0,0.0,1638.400,19683.400,77588.800,0.0,0.0,0.0,168.400
8.533,27.467,58.933,0.0,0.0,5.067,0.0,1638.400,1679850.800,12187873.600,0.0,0.0,0.0,2184.800
10.383,32.514,51.639,0.546,0.0,4.918,0.0,18022.400,1719610.0,12497190.600,0.0,0.0,0.0,1915.200
12.465,28.895,53.258,0.0,0.0,5.382,0.0,3276.800,1723816.800,12501101.800,0.0,0.0,0.0,1953.600
14.080,32.759,47.414,0.0,0.0,5.747,0.0,1638.400,1722363.600,12497252.400,0.0,0.0,0.0,1823.0
12.088,31.044,52.198,0.0,0.0,4.670,0.0,819.200,1721943.800,12517154.400,0.0,0.0,0.0,1905.200
11.798,31.180,50.562,0.0,0.0,6.461,0.0,3276.800,1722874.0,12506904.800,0.0,0.0,0.0,1928.0
10.644,32.773,50.700,0.0,0.0,5.882,0.0,819.200,1727531.200,12546782.800,0.0,0.0,0.0,1924.0
10.056,33.799,50.559,0.0,0.0,5.587,0.0,1638.400,1723110.400,12500979.200,0.0,0.0,0.0,1828.800
11.337,32.267,49.128,0.0,0.0,7.267,0.0,18841.600,1720686.600,12485973.0,0.0,0.0,0.0,1820.200
10.704,29.296,54.930,0.0,0.0,5.070,0.0,819.200,1720579.600,12508528.200,0.0,0.0,0.0,1855.0
12.722,29.882,51.183,0.0,0.0,6.213,0.0,1638.400,1722464.800,12496586.0,0.0,0.0,0.0,1804.400
11.475,30.874,51.366,0.0,0.0,6.284,0.0,819.200,1720971.200,12509811.0,0.0,0.0,0.0,1895.600
13.754,33.811,46.418,0.0,0.0,6.017,0.0,3276.800,1720126.0,12482712.0,0.0,0.0,0.0,1801.0
10.694,36.127,47.110,0.0,0.0,6.069,0.0,1638.400,1698056.200,12328739.0,0.0,0.0,0.0,1785.800
0.406,0.609,98.377,0.609,0.0,0.0,0.0,14745.600,52409.200,350974.600,0.0,0.0,0.0,483.800
