"Dstat 0.7.2 CSV output"
"Author:","Dag Wieers <dag@wieers.com>",,,,"URL:","http://dag.wieers.com/home-made/dstat/"
"Host:","Server1",,,,"User:","mstevan"
"Cmdline:","dstat --output /home/mstevan/logs/experiment_3.1/dstat/vs_512-vcpr_32-wtpm_8-rep_3.csv 5 16",,,,"Date:","28 Oct 2019 05:08:08 UTC"

"total cpu usage",,,,,,"dsk/total",,"net/total",,"paging",,"system",
"usr","sys","idl","wai","hiq","siq","read","writ","recv","send","in","out","int","csw"
8.160,20.430,67.330,0.399,0.0,3.681,8668.419,2032752.949,0.0,0.0,0.0,0.0,0.171,3018.387
0.601,0.200,99.198,0.0,0.0,0.0,0.0,1638.400,14863.600,61481.0,0.0,0.0,0.0,147.600
7.232,15.711,75.810,0.0,0.0,1.247,0.0,2457.600,1006760.200,7286068.200,0.0,0.0,0.0,6818.400
6.753,18.182,73.506,0.0,0.0,1.558,0.0,819.200,1050328.200,7625891.800,0.0,0.0,0.0,6756.800
8.763,19.845,69.845,0.0,0.0,1.546,0.0,2457.600,1043250.0,7554496.0,0.0,0.0,0.0,6502.600
7.532,23.896,65.714,0.260,0.0,2.597,0.0,19660.800,1010950.800,7318577.800,0.0,0.0,0.0,6415.400
9.375,22.135,66.927,0.0,0.0,1.562,0.0,4915.200,1017307.400,7386684.600,0.0,0.0,0.0,6455.600
6.959,18.557,72.938,0.0,0.0,1.546,0.0,3276.800,1013602.200,7337489.400,0.0,0.0,0.0,6225.800
8.205,20.256,69.744,0.0,0.0,1.795,0.0,819.200,1040488.600,7553765.200,0.0,0.0,0.0,6438.800
7.417,19.949,70.332,0.0,0.0,2.302,0.0,1638.400,1036133.200,7488468.600,0.0,0.0,0.0,6458.0
7.507,19.839,70.241,0.0,0.0,2.413,0.0,1638.400,1011701.200,7318303.0,0.0,0.0,0.0,6398.0
7.848,16.456,73.924,0.0,0.0,1.772,0.0,819.200,1034361.600,7509621.0,0.0,0.0,0.0,6293.600
8.564,18.388,71.285,0.252,0.0,1.511,0.0,15564.800,1040218.600,7532101.400,0.0,0.0,0.0,6414.0
8.929,21.173,68.112,0.0,0.0,1.786,0.0,1638.400,1035894.800,7499306.600,0.0,0.0,0.0,6563.0
6.341,17.805,74.390,0.0,0.0,1.463,0.0,2457.600,1104226.400,8017613.600,0.0,0.0,0.0,6684.800
8.094,18.538,71.540,0.0,0.0,1.828,0.0,4096.0,1066747.600,7699488.200,0.0,0.0,0.0,6571.600
1.237,3.093,95.670,0.0,0.0,0.0,0.0,819.200,201729.800,1447396.400,0.0,0.0,0.0,1276.200
