"Dstat 0.7.2 CSV output"
"Author:","Dag Wieers <dag@wieers.com>",,,,"URL:","http://dag.wieers.com/home-made/dstat/"
"Host:","Server1",,,,"User:","mstevan"
"Cmdline:","dstat --output /home/mstevan/logs/experiment_3.1/dstat/vs_512-vcpr_8-wtpm_64-rep_3.csv 5 16",,,,"Date:","28 Oct 2019 04:45:24 UTC"

"total cpu usage",,,,,,"dsk/total",,"net/total",,"paging",,"system",
"usr","sys","idl","wai","hiq","siq","read","writ","recv","send","in","out","int","csw"
8.141,20.348,67.379,0.420,0.0,3.711,9253.118,2169570.905,0.0,0.0,0.0,0.0,0.182,2996.521
0.202,0.202,99.395,0.0,0.0,0.202,0.0,1638.400,23680.600,110111.800,0.0,0.0,0.0,184.0
9.859,31.268,54.366,0.0,0.0,4.507,0.0,819.200,1498792.200,10885988.400,0.0,0.0,0.0,3768.800
13.663,34.012,45.349,0.291,0.0,6.686,0.0,19660.800,1565090.200,11349125.400,0.0,0.0,0.0,3593.800
13.411,32.070,48.688,0.0,0.0,5.831,0.0,3276.800,1588740.0,11525734.400,0.0,0.0,0.0,3459.800
13.231,37.538,44.0,0.0,0.0,5.231,0.0,819.200,1589941.200,11556979.400,0.0,0.0,0.0,3453.400
14.930,34.648,43.944,0.0,0.0,6.479,0.0,1638.400,1605582.400,11642704.800,0.0,0.0,0.200,3463.200
11.628,36.337,44.186,0.0,0.0,7.849,0.0,3276.800,1579029.0,11456456.0,0.0,0.0,0.0,3600.800
13.675,33.048,47.578,0.0,0.0,5.698,0.0,819.200,1603080.800,11646102.600,0.0,0.0,0.0,3565.800
13.636,31.818,49.432,0.568,0.0,4.545,0.0,20480.0,1586118.200,11505614.600,0.0,0.0,0.0,3490.200
13.450,36.257,44.737,0.0,0.0,5.556,0.0,819.200,1606368.800,11676169.0,0.0,0.0,0.0,3435.200
14.869,35.277,44.315,0.0,0.0,5.539,0.0,1638.400,1576824.600,11438006.600,0.0,0.0,0.0,3357.200
14.370,33.431,45.748,0.0,0.0,6.452,0.0,1638.400,1599350.200,11595075.0,0.0,0.0,0.0,3465.200
14.454,34.513,46.018,0.0,0.0,5.015,0.0,819.200,1608044.800,11680928.200,0.0,0.0,0.0,3637.0
12.865,33.333,48.538,0.0,0.0,5.263,0.0,3276.800,1591531.0,11546633.0,0.0,0.0,0.0,3492.400
12.463,34.125,47.181,0.0,0.0,6.231,0.0,15564.800,1541786.600,11184563.200,0.0,0.0,0.0,3352.200
0.402,0.201,99.398,0.0,0.0,0.0,0.0,819.200,3127.0,934.800,0.0,0.0,0.0,65.200
