"Dstat 0.7.2 CSV output"
"Author:","Dag Wieers <dag@wieers.com>",,,,"URL:","http://dag.wieers.com/home-made/dstat/"
"Host:","Server1",,,,"User:","mstevan"
"Cmdline:","dstat --output /home/mstevan/logs/experiment_3.1/dstat/vs_512-vcpr_32-wtpm_32-rep_1.csv 5 16",,,,"Date:","28 Oct 2019 05:10:58 UTC"

"total cpu usage",,,,,,"dsk/total",,"net/total",,"paging",,"system",
"usr","sys","idl","wai","hiq","siq","read","writ","recv","send","in","out","int","csw"
8.146,20.386,67.409,0.396,0.0,3.663,8600.484,2016862.083,0.0,0.0,0.0,0.0,0.169,3037.503
0.602,0.803,98.594,0.0,0.0,0.0,0.0,1638.400,22381.400,106714.0,0.0,0.0,0.0,213.0
12.798,36.012,43.452,0.298,0.0,7.440,0.0,27033.600,1678516.200,12196125.600,0.0,0.0,0.0,2775.0
13.554,38.253,43.976,0.0,0.0,4.217,0.0,1638.400,1711605.400,12422017.800,0.0,0.0,0.0,2531.600
13.174,37.725,42.216,0.0,0.0,6.886,0.0,1638.400,1702390.600,12372260.0,0.0,0.0,0.0,2529.200
13.783,35.191,47.507,0.0,0.0,3.519,0.0,1638.400,1727776.400,12540402.200,0.0,0.0,0.0,2547.400
13.595,34.441,45.921,0.0,0.0,6.042,0.0,1638.400,1722655.200,12481674.0,0.0,0.0,0.0,2669.400
13.110,38.415,42.378,0.0,0.0,6.098,0.0,2457.600,1721955.400,12519589.400,0.0,0.0,0.0,2556.800
12.538,37.920,43.425,0.306,0.0,5.810,0.0,14745.600,1711024.200,12416588.200,0.0,0.0,0.0,2517.200
14.035,37.719,42.690,0.0,0.0,5.556,0.0,1638.400,1712746.200,12425512.800,0.0,0.0,0.0,2483.600
14.502,36.556,45.015,0.0,0.0,3.927,0.0,819.200,1722777.800,12525530.800,0.0,0.0,0.200,2556.0
14.679,36.697,43.425,0.0,0.0,5.199,0.0,1638.400,1718489.200,12474028.400,0.0,0.0,0.0,2573.600
12.500,38.750,42.188,0.0,0.0,6.562,0.0,819.200,1715650.0,12470205.600,0.0,0.0,0.0,2497.600
13.415,38.720,42.073,0.0,0.0,5.793,0.0,1638.400,1712114.600,12425627.800,0.0,0.0,0.0,2555.400
13.095,38.393,41.964,0.298,0.0,6.250,0.0,16384.0,1712258.200,12424618.600,0.0,0.0,0.0,2521.200
11.875,39.375,42.188,0.0,0.0,6.562,0.0,1638.400,1723876.200,12512274.400,0.0,0.0,0.0,2551.800
2.132,4.478,92.751,0.0,0.0,0.640,0.0,1638.400,268263.0,1907255.800,0.0,0.0,0.0,865.400
