"Dstat 0.7.2 CSV output"
"Author:","Dag Wieers <dag@wieers.com>",,,,"URL:","http://dag.wieers.com/home-made/dstat/"
"Host:","Server1",,,,"User:","mstevan"
"Cmdline:","dstat --output /home/mstevan/logs/experiment_3.1/dstat/vs_64-vcpr_16-wtpm_8-rep_3.csv 5 16",,,,"Date:","28 Oct 2019 02:34:36 UTC"

"total cpu usage",,,,,,"dsk/total",,"net/total",,"paging",,"system",
"usr","sys","idl","wai","hiq","siq","read","writ","recv","send","in","out","int","csw"
7.614,18.961,68.846,0.631,0.0,3.949,15125.397,3543775.779,0.0,0.0,0.0,0.0,0.295,2626.776
0.402,0.604,98.994,0.0,0.0,0.0,0.0,1638.400,16159.0,19879.600,0.0,0.0,0.0,164.800
6.186,18.299,73.454,0.0,0.0,2.062,0.0,1638.400,985465.400,1891257.0,0.0,0.0,0.0,6362.800
8.800,21.333,67.200,0.0,0.0,2.667,0.0,1638.400,1009653.600,1943382.600,0.0,0.0,0.0,6410.400
9.067,23.200,64.0,0.0,0.0,3.733,0.0,1638.400,1012436.800,1943600.800,0.0,0.0,0.0,6266.400
9.463,19.182,69.309,0.512,0.0,1.535,0.0,19660.800,1028164.800,1973509.600,0.0,0.0,0.0,6227.0
6.186,20.361,71.907,0.0,0.0,1.546,0.0,819.200,1063243.0,2045594.600,0.0,0.0,0.0,6609.0
7.368,18.947,71.316,0.0,0.0,2.368,0.0,3276.800,1046335.400,2008995.600,0.0,0.0,0.0,6368.200
8.377,20.681,69.110,0.0,0.0,1.832,0.0,819.200,1043903.800,2009364.800,0.0,0.0,0.0,6432.800
7.071,19.697,70.455,0.0,0.0,2.778,0.0,1638.400,1060918.600,2037228.600,0.0,0.0,0.0,6367.800
11.376,21.693,63.757,0.0,0.0,3.175,0.0,1638.400,1040657.200,1998252.400,0.0,0.0,0.0,6539.200
6.860,23.483,66.755,0.0,0.0,2.902,0.0,819.200,1034144.200,1990614.800,0.0,0.0,0.0,6488.400
8.267,21.600,67.733,0.267,0.0,2.133,0.0,18841.600,1030998.800,1979244.400,0.0,0.0,0.0,6458.0
8.376,21.574,68.528,0.0,0.0,1.523,0.0,2457.600,1033013.600,1980954.600,0.0,0.0,0.0,6193.0
8.122,19.543,69.289,0.0,0.0,3.046,0.0,1638.400,1052546.0,2026192.200,0.0,0.0,0.0,6311.200
9.600,18.667,69.333,0.0,0.0,2.400,0.0,1638.400,1038513.800,1993873.0,0.0,0.0,0.0,6321.400
0.615,1.844,97.541,0.0,0.0,0.0,0.0,819.200,144621.0,274043.600,0.0,0.0,0.0,1136.600
