"Dstat 0.7.2 CSV output"
"Author:","Dag Wieers <dag@wieers.com>",,,,"URL:","http://dag.wieers.com/home-made/dstat/"
"Host:","Server1",,,,"User:","mstevan"
"Cmdline:","dstat --output /home/mstevan/logs/experiment_3.1/dstat/vs_64-vcpr_32-wtpm_32-rep_1.csv 5 16",,,,"Date:","28 Oct 2019 02:54:29 UTC"

"total cpu usage",,,,,,"dsk/total",,"net/total",,"paging",,"system",
"usr","sys","idl","wai","hiq","siq","read","writ","recv","send","in","out","int","csw"
7.780,19.374,68.332,0.586,0.0,3.929,13794.478,3232336.043,0.0,0.0,0.0,0.0,0.269,2699.520
0.602,0.201,98.996,0.0,0.0,0.201,0.0,1638.400,22925.600,31535.600,0.0,0.0,0.0,174.400
12.766,37.994,44.681,0.0,0.0,4.559,0.0,819.200,1716614.200,3307198.600,0.0,0.0,0.0,2821.200
13.293,41.994,39.577,0.0,0.0,5.136,0.0,2457.600,1736711.200,3340919.200,0.0,0.0,0.0,2525.200
13.522,39.937,40.566,0.0,0.0,5.975,0.0,1638.400,1760112.0,3386521.0,0.0,0.0,0.0,2578.0
15.605,39.172,39.809,0.318,0.0,5.096,0.0,18841.600,1743125.0,3358576.600,0.0,0.0,0.0,2493.400
16.770,36.646,40.683,0.0,0.0,5.901,0.0,4915.200,1757200.0,3377862.600,0.0,0.0,0.0,2518.400
12.991,41.994,38.671,0.0,0.0,6.344,0.0,3276.800,1788115.400,3440448.600,0.0,0.0,0.0,2654.200
14.881,38.690,41.369,0.0,0.0,5.060,0.0,819.200,1751587.400,3375040.600,0.0,0.0,0.0,2495.0
17.771,33.434,42.470,0.0,0.0,6.325,0.0,1638.400,1752639.0,3371593.600,0.0,0.0,0.0,2433.800
12.012,38.438,44.745,0.0,0.0,4.805,0.0,819.200,1773741.400,3418129.0,0.0,0.0,0.0,2507.400
15.170,38.080,42.415,0.0,0.0,4.334,0.0,15564.800,1774592.600,3414745.200,0.0,0.0,0.0,2586.0
13.120,41.108,40.816,0.0,0.0,4.956,0.0,1638.400,1774489.800,3414097.600,0.0,0.0,0.0,2624.400
13.783,41.349,37.537,0.0,0.0,7.331,0.0,819.200,1826782.0,3520481.0,0.0,0.0,0.0,2786.800
15.916,39.039,39.039,0.0,0.0,6.006,0.0,3276.800,1738955.800,3345227.200,0.0,0.0,0.0,2607.600
15.528,38.199,40.994,0.0,0.0,5.280,0.0,1638.400,1710752.200,3287698.0,0.0,0.0,0.0,2526.600
1.033,2.893,95.868,0.0,0.0,0.207,0.0,819.200,170461.200,323584.0,0.0,0.0,0.0,1060.600
