"Dstat 0.7.2 CSV output"
"Author:","Dag Wieers <dag@wieers.com>",,,,"URL:","http://dag.wieers.com/home-made/dstat/"
"Host:","Server1",,,,"User:","mstevan"
"Cmdline:","dstat --output /home/mstevan/logs/experiment_3.1/dstat/vs_64-vcpr_32-wtpm_8-rep_4.csv 5 16",,,,"Date:","28 Oct 2019 02:53:04 UTC"

"total cpu usage",,,,,,"dsk/total",,"net/total",,"paging",,"system",
"usr","sys","idl","wai","hiq","siq","read","writ","recv","send","in","out","int","csw"
7.786,19.398,68.285,0.589,0.0,3.942,13881.723,3252750.574,0.0,0.0,0.0,0.0,0.271,2682.427
0.602,0.0,99.398,0.0,0.0,0.0,0.0,1638.400,14988.200,18234.200,0.0,0.0,0.0,155.600
8.684,18.158,70.526,0.0,0.0,2.632,0.0,1638.400,1003814.800,1926362.0,0.0,0.0,0.0,6538.600
7.812,19.271,70.312,0.0,0.0,2.604,0.0,819.200,1011913.200,1947531.0,0.0,0.0,0.0,6327.600
9.701,17.413,69.900,0.498,0.0,2.488,0.0,21299.200,1030363.400,1978346.800,0.0,0.0,0.0,6475.0
8.947,18.947,70.0,0.0,0.0,2.105,0.0,1638.400,1015341.400,1949248.800,0.0,0.0,0.0,6433.400
7.828,17.929,71.212,0.0,0.0,3.030,0.0,819.200,1036274.0,1994810.200,0.0,0.0,0.0,6610.0
6.650,20.716,70.844,0.0,0.0,1.790,0.0,3276.800,1014911.800,1948226.600,0.0,0.0,0.0,6435.800
7.273,19.221,70.909,0.0,0.0,2.597,0.0,819.200,1010124.200,1943671.200,0.0,0.0,0.0,6366.600
9.023,19.048,70.677,0.0,0.0,1.253,0.0,1638.400,1028061.200,1972000.600,0.0,0.0,0.0,6399.200
7.368,19.737,70.0,0.526,0.0,2.368,0.0,19660.800,995478.600,1909336.0,0.0,0.0,0.0,6488.200
9.115,22.520,65.952,0.0,0.0,2.413,0.0,819.200,1020598.0,1964686.400,0.0,0.0,0.0,6606.600
7.368,21.053,68.947,0.0,0.0,2.632,0.0,1638.400,1016872.800,1952202.200,0.0,0.0,0.0,6413.600
8.527,22.481,66.408,0.0,0.0,2.584,0.0,1638.400,1004691.800,1928617.200,0.0,0.0,0.0,6378.800
8.629,20.305,69.036,0.0,0.0,2.030,0.0,2457.600,1002219.200,1928650.400,0.0,0.0,0.0,6316.800
7.711,18.408,71.891,0.0,0.0,1.990,0.0,1638.400,1069355.0,2053449.800,0.0,0.0,0.0,6647.400
1.674,2.301,95.607,0.418,0.0,0.0,0.0,15564.800,215356.800,405580.200,0.0,0.0,0.0,1393.200
