"Dstat 0.7.2 CSV output"
"Author:","Dag Wieers <dag@wieers.com>",,,,"URL:","http://dag.wieers.com/home-made/dstat/"
"Host:","Server1",,,,"User:","mstevan"
"Cmdline:","dstat --output /home/mstevan/logs/experiment_3.1/dstat/vs_64-vcpr_32-wtpm_8-rep_1.csv 5 16",,,,"Date:","28 Oct 2019 02:48:48 UTC"

"total cpu usage",,,,,,"dsk/total",,"net/total",,"paging",,"system",
"usr","sys","idl","wai","hiq","siq","read","writ","recv","send","in","out","int","csw"
7.800,19.449,68.174,0.599,0.0,3.979,14150.230,3315584.416,0.0,0.0,0.0,0.0,0.276,2627.463
0.201,0.402,99.398,0.0,0.0,0.0,0.0,1638.400,13070.800,14231.600,0.0,0.0,0.0,138.0
9.615,19.780,67.857,0.0,0.0,2.747,0.0,819.200,984351.200,1894441.0,0.0,0.0,0.0,6716.200
8.179,22.427,66.491,0.0,0.0,2.902,0.0,1638.400,1028777.400,1974736.200,0.0,0.0,0.0,6724.800
8.730,24.074,64.550,0.0,0.0,2.646,0.0,3276.800,990565.600,1901357.600,0.0,0.0,0.0,6402.600
8.267,21.333,68.0,0.0,0.0,2.400,0.0,819.200,1016824.200,1957311.600,0.0,0.0,0.0,6538.200
8.533,20.267,67.733,0.800,0.0,2.667,0.0,18841.600,1030358.600,1978243.400,0.0,0.0,0.0,6462.0
9.399,19.843,67.885,0.0,0.0,2.872,0.0,3276.800,1057514.800,2030424.400,0.0,0.0,0.0,6799.400
9.783,24.728,62.228,0.0,0.0,3.261,0.0,819.200,1021906.400,1966885.600,0.0,0.0,0.0,6852.200
7.652,22.955,67.282,0.0,0.0,2.111,0.0,1638.400,1021592.400,1959668.600,0.0,0.0,0.0,6579.800
8.791,24.176,65.110,0.0,0.0,1.923,0.0,819.200,991203.800,1905910.800,0.0,0.0,0.0,6426.200
10.052,19.330,67.784,0.0,0.0,2.835,0.0,1638.400,992779.600,1905570.200,0.0,0.0,0.0,6309.800
9.326,20.466,66.321,0.518,0.0,3.368,0.0,18841.600,1014162.400,1946964.400,0.0,0.0,0.0,6400.400
10.526,21.053,66.053,0.0,0.0,2.368,0.0,819.200,1012961.200,1949655.600,0.0,0.0,0.0,6306.800
8.511,23.936,64.096,0.0,0.0,3.457,0.0,3276.800,1008641.0,1936123.200,0.0,0.0,0.0,6357.800
7.323,16.414,74.747,0.0,0.0,1.515,0.0,1638.400,1112787.800,2137209.0,0.0,0.0,0.0,6812.600
1.220,2.236,96.545,0.0,0.0,0.0,0.0,819.200,207603.0,395511.200,0.0,0.0,0.0,1380.400
