"Dstat 0.7.2 CSV output"
"Author:","Dag Wieers <dag@wieers.com>",,,,"URL:","http://dag.wieers.com/home-made/dstat/"
"Host:","Server1",,,,"User:","mstevan"
"Cmdline:","dstat --output /home/mstevan/logs/experiment_3.1/dstat/vs_64-vcpr_8-wtpm_8-rep_2.csv 5 16",,,,"Date:","28 Oct 2019 02:16:08 UTC"

"total cpu usage",,,,,,"dsk/total",,"net/total",,"paging",,"system",
"usr","sys","idl","wai","hiq","siq","read","writ","recv","send","in","out","int","csw"
7.488,18.671,69.161,0.683,0.0,3.997,16613.829,3892067.439,0.0,0.0,0.0,0.0,0.324,2490.898
0.402,0.402,99.195,0.0,0.0,0.0,0.0,1638.400,16088.200,20067.0,0.0,0.0,0.0,166.200
5.366,17.073,75.122,0.244,0.0,2.195,0.0,18022.400,1054779.600,2030587.400,0.0,0.0,0.0,6980.800
6.618,17.892,72.304,0.0,0.0,3.186,0.0,1638.400,1084922.600,2082323.400,0.0,0.0,0.0,7034.600
7.812,18.229,72.396,0.0,0.0,1.562,0.0,2457.600,1088672.200,2090767.0,0.0,0.0,0.0,7076.800
8.376,18.020,71.574,0.0,0.0,2.030,0.0,1638.400,1079689.800,2078580.800,0.0,0.0,0.0,6775.800
7.557,19.395,71.285,0.0,0.0,1.763,0.0,1638.400,1070239.200,2054791.0,0.0,0.0,0.0,6773.600
5.340,17.476,74.272,0.0,0.0,2.913,0.0,2457.600,1126041.200,2166980.200,0.0,0.0,0.0,6943.0
6.650,18.966,72.167,0.493,0.0,1.724,0.0,18022.400,1118447.400,2148141.0,0.0,0.0,0.0,6855.400
7.232,18.204,72.319,0.0,0.0,2.244,0.0,1638.400,1090715.800,2094545.0,0.0,0.0,0.0,6600.800
8.101,19.747,70.633,0.0,0.0,1.519,0.0,819.200,1086635.800,2091752.400,0.0,0.0,0.0,6588.800
6.588,16.471,75.294,0.0,0.0,1.647,0.0,1638.400,1114001.200,2139623.400,0.0,0.0,0.0,6607.0
7.075,15.802,75.236,0.0,0.0,1.887,0.0,1638.400,1111762.0,2135167.400,0.0,0.0,0.0,6585.600
7.143,18.112,72.959,0.0,0.0,1.786,0.0,819.200,1083815.800,2086436.0,0.0,0.0,0.0,6530.800
5.610,15.366,76.098,0.732,0.0,2.195,0.0,22118.400,1139723.0,2189120.800,0.0,0.0,0.0,6762.600
7.305,16.877,74.811,0.0,0.0,1.008,0.0,819.200,1112540.200,2141958.200,0.0,0.0,0.0,6690.400
0.600,0.400,99.0,0.0,0.0,0.0,0.0,1638.400,6214.0,1798.800,0.0,0.0,0.0,73.600
