"Dstat 0.7.2 CSV output"
"Author:","Dag Wieers <dag@wieers.com>",,,,"URL:","http://dag.wieers.com/home-made/dstat/"
"Host:","Server1",,,,"User:","mstevan"
"Cmdline:","dstat --output /home/mstevan/logs/experiment_3.1/dstat/vs_64-vcpr_16-wtpm_32-rep_1.csv 5 16",,,,"Date:","28 Oct 2019 02:37:27 UTC"

"total cpu usage",,,,,,"dsk/total",,"net/total",,"paging",,"system",
"usr","sys","idl","wai","hiq","siq","read","writ","recv","send","in","out","int","csw"
7.600,18.920,68.936,0.623,0.0,3.920,14919.764,3495653.327,0.0,0.0,0.0,0.0,0.291,2664.391
0.400,0.800,98.400,0.400,0.0,0.0,0.0,18841.600,24789.800,34937.800,0.0,0.0,0.0,183.200
13.743,35.380,45.614,0.0,0.0,5.263,0.0,4096.0,1738744.800,3350216.600,0.0,0.0,0.0,2949.400
13.208,38.365,42.138,0.0,0.0,6.289,0.0,1638.400,1734230.400,3336026.600,0.0,0.0,0.0,2550.200
13.374,38.298,42.857,0.0,0.0,5.471,0.0,2457.600,1745746.400,3362229.0,0.0,0.0,0.0,2586.800
15.596,37.615,41.284,0.0,0.0,5.505,0.0,1638.400,1786535.200,3437809.800,0.0,0.0,0.0,2693.200
16.716,36.418,39.701,0.0,0.0,7.164,0.0,1638.400,1761111.0,3388109.400,0.0,0.0,0.0,2594.0
15.528,36.646,42.857,0.0,0.0,4.969,0.0,2457.600,1749724.800,3371748.0,0.0,0.0,0.0,2590.400
12.270,38.957,41.104,0.307,0.0,7.362,0.0,14745.600,1742942.200,3351332.200,0.0,0.0,0.0,2564.600
14.157,37.048,41.566,0.0,0.0,7.229,0.0,1638.400,1762954.400,3391852.200,0.0,0.0,0.0,2575.0
15.244,39.024,39.939,0.0,0.0,5.793,0.0,819.200,1745870.0,3364035.200,0.0,0.0,0.0,2538.800
13.913,35.942,45.507,0.0,0.0,4.638,0.0,1638.400,1800436.200,3464081.600,0.0,0.0,0.0,2656.800
15.224,39.104,41.194,0.0,0.0,4.478,0.0,819.200,1794039.200,3456774.0,0.0,0.0,0.0,2614.800
14.634,41.159,38.110,0.0,0.0,6.098,0.0,1638.400,1773023.0,3411412.600,0.0,0.0,0.0,2647.400
15.916,39.339,39.339,0.300,0.0,5.105,0.0,17203.200,1737601.600,3342935.0,0.0,0.0,0.0,2591.800
14.715,37.538,42.643,0.0,0.0,5.105,0.0,819.200,1740606.600,3354349.200,0.0,0.0,0.0,2610.400
1.022,1.431,97.342,0.0,0.0,0.204,0.0,1638.400,138051.400,255354.600,0.0,0.0,0.0,971.400
