"Dstat 0.7.2 CSV output"
"Author:","Dag Wieers <dag@wieers.com>",,,,"URL:","http://dag.wieers.com/home-made/dstat/"
"Host:","Server1",,,,"User:","mstevan"
"Cmdline:","dstat --output /home/mstevan/logs/experiment_3.1/dstat/vs_64-vcpr_4-wtpm_64-rep_4.csv 5 16",,,,"Date:","28 Oct 2019 02:13:18 UTC"

"total cpu usage",,,,,,"dsk/total",,"net/total",,"paging",,"system",
"usr","sys","idl","wai","hiq","siq","read","writ","recv","send","in","out","int","csw"
7.506,18.719,69.054,0.693,0.0,4.028,16869.210,3951830.347,0.0,0.0,0.0,0.0,0.329,2452.089
0.201,0.402,99.398,0.0,0.0,0.0,0.0,819.200,15284.600,20393.600,0.0,0.0,0.0,168.400
8.740,19.794,68.380,0.0,0.0,3.085,0.0,1638.400,1094604.600,2100728.800,0.0,0.0,0.0,5591.600
6.684,21.390,68.717,0.0,0.0,3.209,0.0,819.200,1179441.600,2269707.600,0.0,0.0,0.0,5560.400
9.596,21.465,65.909,0.0,0.0,3.030,0.0,3276.800,1195350.800,2296278.0,0.0,0.0,0.0,5392.800
9.399,21.671,65.274,0.261,0.0,3.394,0.0,18841.600,1156154.800,2219517.0,0.0,0.0,0.0,5390.800
7.407,23.810,64.815,0.0,0.0,3.968,0.0,4096.0,1161168.600,2235657.600,0.0,0.0,0.0,5456.400
9.642,25.069,61.983,0.0,0.0,3.306,0.0,3276.800,1147049.400,2203388.800,0.0,0.0,0.0,5243.0
10.326,23.370,62.772,0.0,0.0,3.533,0.0,1638.400,1165074.800,2237960.800,0.0,0.0,0.0,5221.200
10.383,24.317,60.929,0.0,0.0,4.372,0.0,819.200,1169354.600,2250286.600,0.0,0.0,0.0,5235.800
9.091,24.432,63.636,0.0,0.0,2.841,0.0,1638.400,1142595.800,2194731.200,0.0,0.0,0.0,5169.600
10.773,26.519,59.392,0.0,0.0,3.315,0.0,819.200,1166684.600,2246636.600,0.0,0.0,0.0,5235.600
10.298,23.035,62.602,0.542,0.0,3.523,0.0,15564.800,1175927.200,2258856.200,0.0,0.0,0.0,5292.200
10.0,23.333,62.500,0.0,0.0,4.167,0.0,1638.400,1176993.600,2260986.200,0.0,0.0,0.0,5377.800
7.796,22.581,65.591,0.0,0.0,4.032,0.0,2457.600,1201021.0,2313372.800,0.0,0.0,0.0,5585.200
10.026,24.011,63.325,0.0,0.0,2.639,0.0,1638.400,1151506.0,2210369.200,0.0,0.0,0.0,5180.600
0.802,0.601,98.597,0.0,0.0,0.0,0.0,1638.400,6665.0,2269.600,0.0,0.0,0.0,81.0
