"Dstat 0.7.2 CSV output"
"Author:","Dag Wieers <dag@wieers.com>",,,,"URL:","http://dag.wieers.com/home-made/dstat/"
"Host:","Server1",,,,"User:","mstevan"
"Cmdline:","dstat --output /home/mstevan/logs/experiment_3.1/dstat/vs_64-vcpr_4-wtpm_32-rep_1.csv 5 16",,,,"Date:","28 Oct 2019 02:03:22 UTC"

"total cpu usage",,,,,,"dsk/total",,"net/total",,"paging",,"system",
"usr","sys","idl","wai","hiq","siq","read","writ","recv","send","in","out","int","csw"
7.492,18.757,68.911,0.728,0.0,4.112,17828.386,4176265.002,0.0,0.0,0.0,0.0,0.347,2337.146
0.201,0.602,99.197,0.0,0.0,0.0,0.0,1638.400,18459.800,23212.200,0.0,0.0,0.0,170.600
8.639,23.560,64.660,0.262,0.0,2.880,0.0,18022.400,1099374.600,2110665.0,0.0,0.0,0.0,5404.400
9.890,26.099,60.989,0.0,0.0,3.022,0.0,1638.400,1129919.0,2175084.400,0.0,0.0,0.0,5466.800
11.444,23.978,59.673,0.0,0.0,4.905,0.0,1638.400,1180800.600,2268603.800,0.0,0.0,0.0,5658.0
9.867,25.600,61.867,0.0,0.0,2.667,0.0,1638.400,1172993.200,2258093.0,0.0,0.0,0.0,5273.400
10.773,23.757,62.155,0.0,0.0,3.315,0.0,1638.400,1159337.400,2226823.0,0.0,0.0,0.0,5373.200
11.050,25.414,61.050,0.0,0.0,2.486,0.0,3276.800,1179872.400,2266654.200,0.0,0.0,0.0,5366.600
9.814,24.934,62.069,0.0,0.0,3.183,0.0,819.200,1178665.600,2269156.800,0.0,0.0,0.0,5487.400
9.290,25.137,62.295,0.273,0.0,3.005,0.0,22118.400,1171018.200,2249147.200,0.0,0.0,0.0,5429.0
11.579,23.684,61.316,0.0,0.0,3.421,0.0,1638.400,1196383.400,2298288.400,0.0,0.0,0.0,5491.200
11.111,20.556,65.556,0.0,0.0,2.778,0.0,819.200,1213802.800,2336965.0,0.0,0.0,0.0,5442.400
11.559,23.656,61.290,0.0,0.0,3.495,0.0,1638.400,1186929.600,2280623.800,0.0,0.0,0.0,5408.800
11.019,24.518,61.433,0.0,0.0,3.030,0.0,1638.400,1175508.400,2263254.200,0.0,0.0,0.0,5347.200
11.475,24.044,61.749,0.0,0.0,2.732,0.0,2457.600,1197168.400,2299942.600,0.0,0.0,0.0,5512.0
9.777,24.581,60.615,0.279,0.0,4.749,0.0,15564.800,1130173.0,2170396.200,0.0,0.0,0.0,5083.400
0.0,0.201,99.799,0.0,0.0,0.0,0.0,819.200,3127.0,934.800,0.0,0.0,0.0,60.200
