PING 10.0.0.7 (10.0.0.7) 56(84) bytes of data.
64 bytes from 10.0.0.7: icmp_seq=1 ttl=64 time=0.936 ms
64 bytes from 10.0.0.7: icmp_seq=2 ttl=64 time=13.6 ms
64 bytes from 10.0.0.7: icmp_seq=3 ttl=64 time=7.98 ms
64 by64 bytes from 10.0.0.11: icmp_seq=4 ttl=64 time=1.664 bytes from 10.0.0.7: icmp_seq=5 ttl=64 time=10.9 ms664 byte64 bytes from 10.0.0.11: icmp_seq=6 ttl=64 time664 bytes 64 bytes from 10.0.0.11: icmp_seq=7 ttl=64 ti664 bytes f64 bytes from 10.0.0.11: icmp_seq=8 ttl=64 t664 bytes fro64 bytes from 10.0.0.11: icmp_seq=9 ttl=64664 bytes from64 bytes from 10.0.0.11: icmp_seq=10 ttl=6664 bytes from 64 bytes from 10.0.0.11: icmp_seq=11 ttl=664 bytes from 164 bytes from 10.0.0.11: icmp_seq=12 ttl=64 bytes from 1064 bytes from 10.0.0.11: icmp_seq=13 ttl64 bytes from 10.64 bytes from 10.0.0.11: icmp_seq=14 ttl=64 time=0.911 ms

--- 10.0.0.11 ping statistics ---
14 packets transmitted, 14 received, 0% packet loss, time 65445ms
rtt min/avg/max/mdev = 0.760/3.834/11.116/3.427 ms
