PING 10.0.0.6 (10.0.0.6) 56(84) bytes of data.
64 bytes from 10.0.0.6: icmp_seq=1 ttl=64 time=0.499 ms
64 bytes from 10.0.0.6: icmp_seq=2 ttl=64 time=0.524 ms
64 bytes from 10.0.0.6: icmp_seq=3 ttl=64 time=0.718 ms
64 bytes from 10.0.0.6: icmp_seq=4 ttl=64 time=3.42 ms
64 bytes from 10.0.0.6: icmp_seq=5 ttl=64 time=2.81 ms
664 bytes from 10.0.0.7: icmp_seq=6 ttl=64 time=1.55 ms664 bytes from 10.0.0.7: icmp_seq=7 ttl=64 time=6.91 ms
64 bytes from 10.0.0.7: icmp_seq=8 ttl=64 time=0.717 ms
64 bytes from 10.0.0.7: icmp_seq=9 ttl=64 time=0.504 ms
64 bytes from 10.0.0.7: icmp_seq=10 ttl=64 time=5.97 ms
64 bytes from 10.0.0.7: icmp_seq=11 ttl=64 time=0.499 ms
64 bytes from 10.0.0.7: icmp_seq=12 ttl=64 time=9.38 ms
64 bytes from 10.0.0.6: icmp_seq=13 ttl=64 time=5.71 ms
664 bytes from 10.0.0.7: icmp_seq=14 ttl=64 time=7.16 ms

--- 10.0.0.7 ping statistics ---
14 packets transmitted, 14 received, 0% packet loss, time 66209ms
rtt min/avg/max/mdev = 0.425/2.758/9.384/3.028 ms
/7.824/2.390 ms
