PING 10.0.0.7 (10.0.0.7) 56(84) bytes of data.
64 bytes from 10.0.0.7: icmp_seq=1 ttl=64 time=0.514 ms664 bytes from 10.0.0.7: icmp_seq=2 ttl=64 time=11.8 ms664 bytes from 10.0.0.7: icmp_seq=3 ttl=64 time=6.87 ms664 bytes from 10.0.0.7: icmp_seq=4 ttl=64 time=0.611 m6464 bytes from 10.0.0.7: icmp_seq=5 ttl=64 time=8.09 m6464 bytes from 10.0.0.7: icmp_seq=6 ttl=64 time=1.03 m6464 bytes from 10.0.0.7: icmp_seq=7 ttl=64 time=0.699 64 64 bytes from 10.0.0.7: icmp_seq=8 ttl=64 time=0.54964 b64 bytes from 10.0.0.7: icmp_seq=9 ttl=64 time=1.0164 b64 bytes from 10.0.0.7: icmp_seq=10 ttl=64 time=0.83464 b64 bytes from 10.0.0.7: icmp_seq=11 ttl=64 time=0.68964 b64 bytes from 10.0.0.7: icmp_seq=12 ttl=64 time=2.66 64 64 bytes from 10.0.0.7: icmp_seq=13 ttl=64 time=1.76 64 64 bytes from 10.0.0.7: icmp_seq=14 ttl=64 time=10.3 ms

--- 10.0.0.7 ping statistics ---
14 packets transmitted, 14 received, 0% packet loss, time 65752ms
rtt min/avg/max/mdev = 0.514/3.390/11.807/3.895 ms
2.284/3.634 ms
