PING 10.0.0.11 (10.0.0.11) 56(84) bytes of data.
64 bytes from 10.0.0.11: icmp_seq=1 ttl=64 time=8.26 64 64 bytes from 10.0.0.11: icmp_seq=2 ttl=64 time=0.51264 b64 bytes from 10.0.0.11: icmp_seq=3 ttl=64 time=1.564 bytes from 10.0.0.6: icmp_seq=4 ttl=64 time=5.76 ms
6464 by64 bytes from 10.0.0.11: icmp_seq=5 ttl=64 time=06464 bytes from 10.0.0.7: icmp_seq=6 ttl=64 time=1.18 m6464 bytes64 bytes from 10.0.0.11: icmp_seq=7 ttl=64 tim6464 bytes from 10.0.0.7: icmp_seq=8 ttl=64 time=0.612 64 64 bytes 64 bytes from 10.0.0.11: icmp_seq=9 ttl=64 64 b64 bytes f64 bytes from 10.0.0.11: icmp_seq=10 ttl=664 b64 bytes from 10.0.0.7: icmp_seq=11 ttl=64 time=0.6364 by64 bytes fro64 bytes from 10.0.0.11: icmp_seq=12 ttl64 by64 bytes from 10.0.0.7: icmp_seq=13 ttl=64 time=0.864 byt64 bytes from 10.0.0.7: icmp_seq=14 ttl=64 time=0.652 ms

--- 10.0.0.7 ping statistics ---
14 packets transmitted, 14 received, 0% packet loss, time 66538ms
rtt min/avg/max/mdev = 0.365/0.767/1.517/0.346 ms
419/2.760 ms
