PING 10.0.0.6 (10.0.0.6) 56(84) bytes of data.
64 bytes from 10.0.0.6: icmp_seq=1 ttl=64 time=0.440 ms664 bytes from 10.0.0.6: icmp_seq=2 ttl=64 time=0.507 ms664 bytes from 10.0.0.6: icmp_seq=3 ttl=64 time=2.39 ms
64 byt64 bytes from 10.0.0.11: icmp_seq=4 ttl=64 time=6664 bytes from 10.0.0.6: icmp_seq=5 ttl=64 time=0.631 ms64 bytes from 10.0.0.7: icmp_seq=6 ttl=64 time=8.18 ms
6464 bytes from 10.0.0.6: icmp_seq=7 ttl=64 time=0.563 m64 bytes from 10.0.0.7: icmp_seq=8 ttl=64 time=9.56 ms
64 64 bytes from 10.0.0.6: icmp_seq=9 ttl=64 time=0.53264 b64 bytes from 10.0.0.6: icmp_seq=10 ttl=64 time=1.37 64 64 bytes from 10.0.0.6: icmp_seq=11 ttl=64 time=0.908 64 64 bytes from 10.0.0.6: icmp_seq=12 ttl=64 time=0.42864 b64 bytes from 10.0.0.6: icmp_seq=13 ttl=64 time=4.2264 b64 bytes from 10.0.0.6: icmp_seq=14 ttl=64 time=0.487 ms

--- 10.0.0.6 ping statistics ---
14 packets transmitted, 14 received, 0% packet loss, time 66271ms
rtt min/avg/max/mdev = 0.418/1.002/4.224/1.031 ms
939/2.085 ms
