PING 10.0.0.7 (10.0.0.7) 56(84) bytes of data.
64 bytes from 10.0.0.7: icmp_seq=1 ttl=64 time=0.823 ms664 bytes from 10.0.0.7: icmp_seq=2 ttl=64 time=6.89 ms
64 bytes from 10.0.0.6: icmp_seq=3 ttl=64 time=1.95 ms
64 bytes from 10.0.0.6: icmp_seq=4 ttl=64 time=7.58 ms
64 bytes from 10.0.0.6: icmp_seq=5 ttl=64 time=0.583 ms
64 bytes from 10.0.0.6: icmp_seq=6 ttl=64 time=1.40 ms
64 bytes from 10.0.0.6: icmp_seq=7 ttl=64 time=0.683 ms
64 bytes from 10.0.0.6: icmp_seq=8 ttl=64 time=0.896 ms
64 bytes from 10.0.0.6: icmp_seq=9 ttl=64 time=5.40 ms
64 bytes from 10.0.0.6: icmp_seq=10 ttl=64 time=2.90 ms
64 bytes from 10.0.0.6: icmp_seq=11 ttl=64 time=1.42 ms
64 bytes from 10.0.0.6: icmp_seq=12 ttl=64 time=2.18 ms
64 bytes from 10.0.0.6: icmp_seq=13 ttl=64 time=0.497 ms
6464 bytes from 10.0.0.7: icmp_seq=14 ttl=64 time=0.645 ms

--- 10.0.0.7 ping statistics ---
14 packets transmitted, 14 received, 0% packet loss, time 65761ms
rtt min/avg/max/mdev = 0.417/3.414/10.919/3.666 ms
.552/1.865 ms
