PING 10.0.0.7 (10.0.0.7) 56(84) bytes of data.
64 bytes from 10.0.0.7: icmp_seq=1 ttl=64 time=9.33 ms
64 bytes from 10.0.0.7: icmp_seq=2 ttl=64 time=6.80 ms
64 bytes from 10.0.0.7: icmp_seq=3 ttl=64 time=4.30 ms
64 bytes from 10.0.0.7: icmp_seq=4 ttl=64 time=4.05 ms
64 bytes64 bytes from 10.0.0.11: icmp_seq=5 ttl=64 time64 bytes 64 bytes from 10.0.0.11: icmp_seq=6 ttl=64 tim6464 bytes64 bytes from 10.0.0.11: icmp_seq=7 ttl=64 ti64 64 bytes from 10.0.0.6: icmp_seq=8 ttl=64 time=3.07 64 64 bytes f64 bytes from 10.0.0.11: icmp_seq=9 ttl=6464 b64 bytes from 10.0.0.6: icmp_seq=10 ttl=64 time=3.4564 b64 bytes fro64 bytes from 10.0.0.11: icmp_seq=11 ttl64 b64 bytes from64 bytes from 10.0.0.11: icmp_seq=12 tt64 b64 bytes from 164 bytes from 10.0.0.11: icmp_seq=13 t64 b64 bytes from 1064 bytes from 10.0.0.11: icmp_seq=14 ttl=64 time=1.26 ms

--- 10.0.0.11 ping statistics ---
14 packets transmitted, 14 received, 0% packet loss, time 65938ms
rtt min/avg/max/mdev = 0.436/3.359/10.632/3.698 ms
