PING 10.0.0.11 (10.0.0.11) 56(84) bytes of data.
64 bytes from 10.0.0.11: icmp_seq=1 ttl=64 time=1.28 64 64 bytes from 10.0.0.11: icmp_seq=2 ttl=64 time=0.99664 bytes from 10.0.0.6: icmp_seq=3 ttl=64 time=0.475 m6464 bytes from 10.0.0.6: icmp_seq=4 ttl=64 time=4.03 m6464 bytes from 10.0.0.6: icmp_seq=5 ttl=64 time=1.74 m6464 bytes from 10.0.0.6: icmp_seq=6 ttl=64 time=3.77 m6464 bytes from 10.0.0.6: icmp_seq=7 ttl=64 time=0.639 m6464 bytes from 10.0.0.6: icmp_seq=8 ttl=64 time=1.96 m6464 bytes from 10.0.0.6: icmp_seq=9 ttl=64 time=0.819 m6464 bytes from 10.0.0.6: icmp_seq=10 ttl=64 time=0.561 m6464 bytes from 10.0.0.6: icmp_seq=11 ttl=64 time=5.46 m6464 bytes from 10.0.0.6: icmp_seq=12 ttl=64 time=1.94 ms664 bytes from 10.0.0.6: icmp_seq=13 ttl=64 time=0.508 m6464 bytes from 10.0.0.6: icmp_seq=14 ttl=64 time=0.972 ms

--- 10.0.0.6 ping statistics ---
14 packets transmitted, 14 received, 0% packet loss, time 65957ms
rtt min/avg/max/mdev = 0.475/2.171/6.851/1.986 ms
12.465/3.759 ms
