PING 10.0.0.6 (10.0.0.6) 56(84) bytes of data.
64 bytes from 10.0.0.6: icmp_seq=1 ttl=64 time=1.27 ms
64 bytes from 10.0.0.6: icmp_seq=2 ttl=64 time=2.41 ms
6464 bytes from 10.0.0.7: icmp_seq=3 ttl=64 time=0.496 m6464 bytes from 10.0.0.7: icmp_seq=4 ttl=64 time=4.75 ms664 bytes from 10.0.0.7: icmp_seq=5 ttl=64 time=5.19 ms664 bytes from 10.0.0.7: icmp_seq=6 ttl=64 time=0.536 m6464 bytes from 10.0.0.7: icmp_seq=7 ttl=64 time=5.19 m6464 bytes from 10.0.0.7: icmp_seq=8 ttl=64 time=9.78 ms664 bytes from 10.0.0.7: icmp_seq=9 ttl=64 time=0.431 ms64 bytes from 10.0.0.6: icmp_seq=10 ttl=64 time=3.42 ms
664 bytes from 10.0.0.7: icmp_seq=11 ttl=64 time=3.98 ms664 bytes from 10.0.0.7: icmp_seq=12 ttl=64 time=0.565 ms64 bytes from 10.0.0.6: icmp_seq=13 ttl=64 time=5.46 ms
64 bytes from 10.0.0.6: icmp_seq=14 ttl=64 time=6.37 ms

--- 10.0.0.6 ping statistics ---
14 packets transmitted, 14 received, 0% packet loss, time 65594ms
rtt min/avg/max/mdev = 0.489/2.204/6.376/1.809 ms

.189/2.691 ms
