PING 10.0.0.11 (10.0.0.11) 56(84) bytes of data.
64 bytes from 10.0.0.11: icmp_seq=1 ttl=64 time=7.43 m64 bytes from 10.0.0.7: icmp_seq=2 ttl=64 time=0.773 ms
64 bytes from 10.0.0.7: icmp_seq=3 ttl=64 time=0.742 ms
64 b64 bytes from 10.0.0.11: icmp_seq=4 ttl=64 time=2.364 by64 bytes from 10.0.0.11: icmp_seq=5 ttl=64 time=0.764 bytes from 10.0.0.7: icmp_seq=6 ttl=64 time=10.6 ms
64 bytes from 10.0.0.7: icmp_seq=7 ttl=64 time=5.60 ms
64 bytes64 bytes from 10.0.0.11: icmp_seq=8 ttl=64 time64 bytes 64 bytes from 10.0.0.11: icmp_seq=9 ttl=64 time64 bytes from 10.0.0.7: icmp_seq=10 ttl=64 time=7.00 ms
64 bytes fro64 bytes from 10.0.0.11: icmp_seq=11 ttl=64 64 bytes from64 bytes from 10.0.0.11: icmp_seq=12 ttl=6464 bytes from 164 bytes from 10.0.0.11: icmp_seq=13 ttl=664 bytes from 1064 bytes from 10.0.0.11: icmp_seq=14 ttl=64 time=1.53 ms

--- 10.0.0.11 ping statistics ---
14 packets transmitted, 14 received, 0% packet loss, time 66282ms
rtt min/avg/max/mdev = 0.427/1.823/7.436/1.788 ms
