PING 10.0.0.6 (10.0.0.6) 56(84) bytes of data.
64 bytes from 10.0.0.6: icmp_seq=1 ttl=64 time=1.12 ms
64 bytes from 10.0.0.6: icmp_seq=2 ttl=64 time=1.12 ms
64 by64 bytes from 10.0.0.11: icmp_seq=3 ttl=64 time=0.864 byt64 bytes from 10.0.0.11: icmp_seq=4 ttl=64 time=1664 bytes from 10.0.0.7: icmp_seq=5 ttl=64 time=0.490 ms64 bytes from 10.0.0.6: icmp_seq=6 ttl=64 time=1.24 ms
6464 bytes from 10.0.0.7: icmp_seq=7 ttl=64 time=0.901 m64 bytes fr64 bytes from 10.0.0.11: icmp_seq=8 ttl=64 t64 64 bytes from 10.0.0.7: icmp_seq=9 ttl=64 time=0.314 64 bytes from64 bytes from 10.0.0.11: icmp_seq=10 ttl=6464 b64 bytes from 10.0.0.7: icmp_seq=11 ttl=64 time=0.4564 by64 bytes from 10.0.0.7: icmp_seq=12 ttl=64 time=2.564 by64 bytes fro64 bytes from 10.0.0.11: icmp_seq=13 ttl64 by64 bytes from64 bytes from 10.0.0.11: icmp_seq=14 ttl=64 time=0.684 ms

--- 10.0.0.11 ping statistics ---
14 packets transmitted, 14 received, 0% packet loss, time 66425ms
rtt min/avg/max/mdev = 0.342/1.733/8.602/2.110 ms
