PING 10.0.0.7 (10.0.0.7) 56(84) bytes of data.
64 bytes from 10.0.0.7: icmp_seq=1 ttl=64 time=7.41 ms
64 bytes from 10.0.0.7: icmp_seq=2 ttl=64 time=0.534 ms
664 bytes from 10.0.0.6: icmp_seq=3 ttl=64 time=11.2 ms664 bytes from 10.0.0.6: icmp_seq=4 ttl=64 time=7.32 ms64 bytes from 10.0.0.7: icmp_seq=5 ttl=64 time=2.17 ms
664 bytes from 10.0.0.6: icmp_seq=6 ttl=64 time=5.91 ms
64 bytes from 10.0.0.7: icmp_seq=7 ttl=64 time=0.514 ms664 bytes from 10.0.0.7: icmp_seq=8 ttl=64 time=1.07 ms664 bytes from 10.0.0.7: icmp_seq=9 ttl=64 time=2.73 ms664 bytes from 10.0.0.7: icmp_seq=10 ttl=64 time=0.778 m6464 bytes from 10.0.0.7: icmp_seq=11 ttl=64 time=5.93 ms664 bytes from 10.0.0.7: icmp_seq=12 ttl=64 time=2.96 ms664 bytes from 10.0.0.7: icmp_seq=13 ttl=64 time=0.432 ms664 bytes from 10.0.0.7: icmp_seq=14 ttl=64 time=0.849 ms

--- 10.0.0.7 ping statistics ---
14 packets transmitted, 14 received, 0% packet loss, time 65719ms
rtt min/avg/max/mdev = 0.432/3.022/8.675/2.893 ms
882/3.808 ms
