PING 10.0.0.11 (10.0.0.11) 56(84) bytes of data.
64 bytes from 10.0.0.11: icmp_seq=1 ttl=64 time=0.440664 64 bytes from 10.0.0.11: icmp_seq=2 ttl=64 time=1.46464 bytes from 10.0.0.7: icmp_seq=3 ttl=64 time=2.81 ms664 bytes from 10.0.0.7: icmp_seq=4 ttl=64 time=0.600 ms664 bytes from 10.0.0.7: icmp_seq=5 ttl=64 time=6.88 ms664 bytes from 10.0.0.7: icmp_seq=6 ttl=64 time=1.54 ms
64 bytes from 10.0.0.7: icmp_seq=7 ttl=64 time=0.599 ms664 bytes from 10.0.0.7: icmp_seq=8 ttl=64 time=0.456 ms664 bytes from 10.0.0.7: icmp_seq=9 ttl=64 time=1.07 ms64 bytes from 10.0.0.6: icmp_seq=10 ttl=64 time=0.600 ms
664 bytes from 10.0.0.7: icmp_seq=11 ttl=64 time=7.12 ms
64 bytes from 10.0.0.6: icmp_seq=12 ttl=64 time=0.504 ms
64 bytes from 10.0.0.6: icmp_seq=13 ttl=64 time=1.77 ms
64 bytes from 10.0.0.7: icmp_seq=14 ttl=64 time=9.01 ms

--- 10.0.0.7 ping statistics ---
14 packets transmitted, 14 received, 0% packet loss, time 66108ms
rtt min/avg/max/mdev = 0.446/2.438/9.011/2.841 ms

/6.440/2.246 ms
