PING 10.0.0.11 (10.0.0.11) 56(84) bytes of data.
64 bytes from 10.0.0.11: icmp_seq=1 ttl=64 time=8.39 64 64 bytes from 10.0.0.11: icmp_seq=2 ttl=64 time=5.01 64 bytes from 10.0.0.6: icmp_seq=3 ttl=64 time=0.575 ms
64 bytes from 10.0.0.7: icmp_seq=4 ttl=64 time=0.602 ms
64 bytes from 10.0.0.7: icmp_seq=5 ttl=64 time=2.58 ms
64 bytes from 10.0.0.7: icmp_seq=6 ttl=64 time=6.08 ms
64 bytes from 10.0.0.6: icmp_seq=7 ttl=64 time=3.16 ms
664 bytes 64 bytes from 10.0.0.11: icmp_seq=8 ttl=64 tim664 bytes f64 bytes from 10.0.0.11: icmp_seq=9 ttl=64 ti64 bytes from 10.0.0.6: icmp_seq=10 ttl=64 time=0.790 ms664 bytes from 10.0.0.6: icmp_seq=11 ttl=64 time=0.662 m6464 bytes from64 bytes from 10.0.0.11: icmp_seq=12 ttl=66464 bytes from 64 bytes from 10.0.0.11: icmp_seq=13 ttl64 64 bytes from 164 bytes from 10.0.0.11: icmp_seq=14 ttl=64 time=0.788 ms

--- 10.0.0.11 ping statistics ---
14 packets transmitted, 14 received, 0% packet loss, time 66293ms
rtt min/avg/max/mdev = 0.387/1.960/8.397/2.621 ms
