PING 10.0.0.6 (10.0.0.6) 56(84) bytes of data.
64 bytes from 10.0.0.6: icmp_seq=1 ttl=64 time=1.04 ms
64 bytes from 10.0.0.6: icmp_seq=2 ttl=64 time=5.14 ms
64 by64 bytes from 10.0.0.11: icmp_seq=3 ttl=64 time=0.964 byt64 bytes from 10.0.0.11: icmp_seq=4 ttl=64 time=664 byte64 bytes from 10.0.0.11: icmp_seq=5 ttl=64 time=64 bytes 64 bytes from 10.0.0.11: icmp_seq=6 ttl=64 tim64 b64 byte64 bytes from 10.0.0.11: icmp_seq=7 ttl=64 ti64 bytes fro64 bytes from 10.0.0.11: icmp_seq=8 ttl=64 64 b64 bytes f64 bytes from 10.0.0.11: icmp_seq=9 ttl=664 b64 bytes fro64 bytes from 10.0.0.11: icmp_seq=10 ttl=64 64 bytes from 64 bytes from 10.0.0.11: icmp_seq=11 tt64 64 bytes from 164 bytes from 10.0.0.11: icmp_seq=12 t64 64 bytes from 1064 bytes from 10.0.0.11: icmp_seq=13 64 64 bytes from 10.64 bytes from 10.0.0.11: icmp_seq=14 ttl=64 time=1.85 ms

--- 10.0.0.11 ping statistics ---
14 packets transmitted, 14 received, 0% packet loss, time 65906ms
rtt min/avg/max/mdev = 0.309/1.312/6.287/1.439 ms
