------------Middleware started!------------
LOG: Waiting for connection in MyMiddleware.run()
LOG: Accepted client: /10.0.0.11:54964in MyMiddleware.run()
LOG: Accepted client: /10.0.0.11:54952in MyMiddleware.run()
LOG: Accepted client: /10.0.0.11:54946in MyMiddleware.run()
LOG: Accepted client: /10.0.0.11:54940in MyMiddleware.run()
LOG: Accepted client: /10.0.0.11:54934in MyMiddleware.run()
LOG: Accepted client: /10.0.0.11:54938in MyMiddleware.run()
LOG: Accepted client: /10.0.0.11:54936in MyMiddleware.run()
LOG: Accepted client: /10.0.0.11:54944in MyMiddleware.run()
LOG: Accepted client: /10.0.0.11:54960in MyMiddleware.run()
LOG: Accepted client: /10.0.0.11:54956in MyMiddleware.run()
LOG: Accepted client: /10.0.0.11:54958in MyMiddleware.run()
LOG: Accepted client: /10.0.0.11:54948in MyMiddleware.run()
LOG: Accepted client: /10.0.0.11:54950in MyMiddleware.run()
LOG: Accepted client: /10.0.0.7:56248in MyMiddleware.run()
LOG: Accepted client: /10.0.0.11:54962in MyMiddleware.run()
LOG: Accepted client: /10.0.0.11:54942in MyMiddleware.run()
LOG: Accepted client: /10.0.0.11:54954in MyMiddleware.run()
LOG: Accepted client: /10.0.0.7:56262in MyMiddleware.run()
LOG: Accepted client: /10.0.0.7:56256in MyMiddleware.run()
LOG: Accepted client: /10.0.0.7:56276in MyMiddleware.run()
LOG: Accepted client: /10.0.0.7:56274in MyMiddleware.run()
LOG: Accepted client: /10.0.0.7:56260in MyMiddleware.run()
LOG: Accepted client: /10.0.0.7:56254in MyMiddleware.run()
LOG: Accepted client: /10.0.0.7:56252in MyMiddleware.run()
LOG: Accepted client: /10.0.0.7:56266in MyMiddleware.run()
LOG: Accepted client: /10.0.0.7:56272in MyMiddleware.run()
LOG: Accepted client: /10.0.0.7:56278in MyMiddleware.run()
LOG: Accepted client: /10.0.0.7:56268in MyMiddleware.run()
LOG: Accepted client: /10.0.0.7:56250in MyMiddleware.run()
LOG: Accepted client: /10.0.0.7:56270in MyMiddleware.run()
LOG: Accepted client: /10.0.0.7:56258in MyMiddleware.run()
LOG: Accepted client: /10.0.0.7:56264in MyMiddleware.run()
LOG: Accepted client: /10.0.0.6:34522in MyMiddleware.run()
LOG: Accepted client: /10.0.0.6:34520in MyMiddleware.run()
LOG: Accepted client: /10.0.0.6:34514in MyMiddleware.run()
LOG: Accepted client: /10.0.0.6:34534in MyMiddleware.run()
LOG: Accepted client: /10.0.0.6:34536in MyMiddleware.run()
LOG: Accepted client: /10.0.0.6:34538in MyMiddleware.run()
LOG: Accepted client: /10.0.0.6:34518in MyMiddleware.run()
LOG: Accepted client: /10.0.0.6:34516in MyMiddleware.run()
LOG: Accepted client: /10.0.0.6:34532in MyMiddleware.run()
LOG: Accepted client: /10.0.0.6:34544in MyMiddleware.run()
LOG: Accepted client: /10.0.0.6:34540in MyMiddleware.run()
LOG: Accepted client: /10.0.0.6:34542in MyMiddleware.run()
LOG: Accepted client: /10.0.0.6:34524in MyMiddleware.run()
LOG: Accepted client: /10.0.0.6:34526in MyMiddleware.run()
LOG: Accepted client: /10.0.0.6:34530in MyMiddleware.run()
LOG: Accepted client: /10.0.0.6:34528in MyMiddleware.run()
LOG: Closed client: /10.0.0.6:34516in MyMiddleware.run()
LOG: Closed client: /10.0.0.6:34534in MyMiddleware.run()
LOG: Closed client: /10.0.0.6:34538in MyMiddleware.run()
LOG: Closed client: /10.0.0.6:34528in MyMiddleware.run()
LOG: Closed client: /10.0.0.6:34518in MyMiddleware.run()
LOG: Closed client: /10.0.0.6:34526in MyMiddleware.run()
LOG: Closed client: /10.0.0.6:34532in MyMiddleware.run()
LOG: Closed client: /10.0.0.6:34542in MyMiddleware.run()
LOG: Closed client: /10.0.0.6:34522in MyMiddleware.run()
LOG: Closed client: /10.0.0.6:34536in MyMiddleware.run()
LOG: Closed client: /10.0.0.6:34544in MyMiddleware.run()
LOG: Closed client: /10.0.0.6:34514in MyMiddleware.run()
LOG: Closed client: /10.0.0.6:34520in MyMiddleware.run()
LOG: Closed client: /10.0.0.6:34540in MyMiddleware.run()
LOG: Closed client: /10.0.0.6:34530in MyMiddleware.run()
LOG: Closed client: /10.0.0.6:34524in MyMiddleware.run()
LOG: Closed client: /10.0.0.11:54936in MyMiddleware.run()
LOG: Closed client: /10.0.0.11:54940in MyMiddleware.run()
LOG: Closed client: /10.0.0.11:54942in MyMiddleware.run()
LOG: Closed client: /10.0.0.11:54956in MyMiddleware.run()
LOG: Closed client: /10.0.0.11:54946in MyMiddleware.run()
LOG: Closed client: /10.0.0.11:54952in MyMiddleware.run()
LOG: Closed client: /10.0.0.11:54960in MyMiddleware.run()
LOG: Closed client: /10.0.0.11:54962in MyMiddleware.run()
LOG: Closed client: /10.0.0.11:54950in MyMiddleware.run()
LOG: Closed client: /10.0.0.11:54938in MyMiddleware.run()
LOG: Closed client: /10.0.0.11:54944in MyMiddleware.run()
LOG: Closed client: /10.0.0.11:54934in MyMiddleware.run()
LOG: Closed client: /10.0.0.11:54954in MyMiddleware.run()
LOG: Closed client: /10.0.0.11:54964in MyMiddleware.run()
LOG: Closed client: /10.0.0.11:54958in MyMiddleware.run()
LOG: Closed client: /10.0.0.11:54948in MyMiddleware.run()
LOG: Closed client: /10.0.0.7:56248in MyMiddleware.run()
LOG: Closed client: /10.0.0.7:56270in MyMiddleware.run()
LOG: Closed client: /10.0.0.7:56250in MyMiddleware.run()
LOG: Closed client: /10.0.0.7:56258in MyMiddleware.run()
LOG: Closed client: /10.0.0.7:56260in MyMiddleware.run()
LOG: Closed client: /10.0.0.7:56262in MyMiddleware.run()
LOG: Closed client: /10.0.0.7:56264in MyMiddleware.run()
LOG: Closed client: /10.0.0.7:56252in MyMiddleware.run()
LOG: Closed client: /10.0.0.7:56254in MyMiddleware.run()
LOG: Closed client: /10.0.0.7:56276in MyMiddleware.run()
LOG: Closed client: /10.0.0.7:56256in MyMiddleware.run()
LOG: Closed client: /10.0.0.7:56274in MyMiddleware.run()
LOG: Closed client: /10.0.0.7:56268in MyMiddleware.run()
LOG: Closed client: /10.0.0.7:56278in MyMiddleware.run()
LOG: Closed client: /10.0.0.7:56272in MyMiddleware.run()
LOG: Closed client: /10.0.0.7:56266in MyMiddleware.run()
