------------Middleware started!------------
LOG: Waiting for connection in MyMiddleware.run()
LOG: Accepted client: /10.0.0.6:43824in MyMiddleware.run()
LOG: Accepted client: /10.0.0.6:43826in MyMiddleware.run()
LOG: Accepted client: /10.0.0.6:43828in MyMiddleware.run()
LOG: Accepted client: /10.0.0.6:43822in MyMiddleware.run()
LOG: Accepted client: /10.0.0.11:36058in MyMiddleware.run()
LOG: Accepted client: /10.0.0.11:36056in MyMiddleware.run()
LOG: Accepted client: /10.0.0.11:36052in MyMiddleware.run()
LOG: Accepted client: /10.0.0.7:37370in MyMiddleware.run()
LOG: Accepted client: /10.0.0.7:37366in MyMiddleware.run()
LOG: Accepted client: /10.0.0.7:37368in MyMiddleware.run()
LOG: Accepted client: /10.0.0.11:36054in MyMiddleware.run()
LOG: Accepted client: /10.0.0.7:37364in MyMiddleware.run()
LOG: Closed client: /10.0.0.6:43826in MyMiddleware.run()
LOG: Closed client: /10.0.0.6:43822in MyMiddleware.run()
LOG: Closed client: /10.0.0.6:43828in MyMiddleware.run()
LOG: Closed client: /10.0.0.6:43824in MyMiddleware.run()
LOG: Closed client: /10.0.0.11:36054in MyMiddleware.run()
LOG: Closed client: /10.0.0.11:36052in MyMiddleware.run()
LOG: Closed client: /10.0.0.11:36056in MyMiddleware.run()
LOG: Closed client: /10.0.0.11:36058in MyMiddleware.run()
LOG: Closed client: /10.0.0.7:37368in MyMiddleware.run()
LOG: Closed client: /10.0.0.7:37370in MyMiddleware.run()
LOG: Closed client: /10.0.0.7:37366in MyMiddleware.run()
LOG: Closed client: /10.0.0.7:37364in MyMiddleware.run()
