------------Middleware started!------------
LOG: Waiting for connection in MyMiddleware.run()
LOG: Accepted client: /10.0.0.7:60524in MyMiddleware.run()
LOG: Accepted client: /10.0.0.7:60554in MyMiddleware.run()
LOG: Accepted client: /10.0.0.7:60528in MyMiddleware.run()
LOG: Accepted client: /10.0.0.7:60558in MyMiddleware.run()
LOG: Accepted client: /10.0.0.7:60534in MyMiddleware.run()
LOG: Accepted client: /10.0.0.7:60526in MyMiddleware.run()
LOG: Accepted client: /10.0.0.7:60556in MyMiddleware.run()
LOG: Accepted client: /10.0.0.7:60562in MyMiddleware.run()
LOG: Accepted client: /10.0.0.7:60520in MyMiddleware.run()
LOG: Accepted client: /10.0.0.7:60522in MyMiddleware.run()
LOG: Accepted client: /10.0.0.6:38858in MyMiddleware.run()
LOG: Accepted client: /10.0.0.6:38910in MyMiddleware.run()
LOG: Accepted client: /10.0.0.6:38906in MyMiddleware.run()
LOG: Accepted client: /10.0.0.6:38904in MyMiddleware.run()
LOG: Accepted client: /10.0.0.6:38872in MyMiddleware.run()
LOG: Accepted client: /10.0.0.6:38882in MyMiddleware.run()
LOG: Accepted client: /10.0.0.6:38880in MyMiddleware.run()
LOG: Accepted client: /10.0.0.6:38874in MyMiddleware.run()
LOG: Accepted client: /10.0.0.6:38884in MyMiddleware.run()
LOG: Accepted client: /10.0.0.6:38876in MyMiddleware.run()
LOG: Accepted client: /10.0.0.6:38886in MyMiddleware.run()
LOG: Accepted client: /10.0.0.6:38878in MyMiddleware.run()
LOG: Accepted client: /10.0.0.6:38908in MyMiddleware.run()
LOG: Accepted client: /10.0.0.7:60542in MyMiddleware.run()
LOG: Accepted client: /10.0.0.7:60540in MyMiddleware.run()
LOG: Accepted client: /10.0.0.7:60548in MyMiddleware.run()
LOG: Accepted client: /10.0.0.7:60514in MyMiddleware.run()
LOG: Accepted client: /10.0.0.7:60550in MyMiddleware.run()
LOG: Accepted client: /10.0.0.7:60538in MyMiddleware.run()
LOG: Accepted client: /10.0.0.7:60570in MyMiddleware.run()
LOG: Accepted client: /10.0.0.7:60546in MyMiddleware.run()
LOG: Accepted client: /10.0.0.7:60518in MyMiddleware.run()
LOG: Accepted client: /10.0.0.7:60568in MyMiddleware.run()
LOG: Accepted client: /10.0.0.7:60536in MyMiddleware.run()
LOG: Accepted client: /10.0.0.7:60544in MyMiddleware.run()
LOG: Accepted client: /10.0.0.7:60516in MyMiddleware.run()
LOG: Accepted client: /10.0.0.7:60576in MyMiddleware.run()
LOG: Accepted client: /10.0.0.7:60574in MyMiddleware.run()
LOG: Accepted client: /10.0.0.7:60572in MyMiddleware.run()
LOG: Accepted client: /10.0.0.6:38898in MyMiddleware.run()
LOG: Accepted client: /10.0.0.6:38870in MyMiddleware.run()
LOG: Accepted client: /10.0.0.6:38902in MyMiddleware.run()
LOG: Accepted client: /10.0.0.6:38900in MyMiddleware.run()
LOG: Accepted client: /10.0.0.6:38862in MyMiddleware.run()
LOG: Accepted client: /10.0.0.6:38888in MyMiddleware.run()
LOG: Accepted client: /10.0.0.6:38890in MyMiddleware.run()
LOG: Accepted client: /10.0.0.6:38914in MyMiddleware.run()
LOG: Accepted client: /10.0.0.6:38912in MyMiddleware.run()
LOG: Accepted client: /10.0.0.6:38868in MyMiddleware.run()
LOG: Accepted client: /10.0.0.6:38860in MyMiddleware.run()
LOG: Accepted client: /10.0.0.6:38896in MyMiddleware.run()
LOG: Accepted client: /10.0.0.6:38918in MyMiddleware.run()
LOG: Accepted client: /10.0.0.6:38864in MyMiddleware.run()
LOG: Accepted client: /10.0.0.6:38916in MyMiddleware.run()
LOG: Accepted client: /10.0.0.7:60530in MyMiddleware.run()
LOG: Accepted client: /10.0.0.7:60564in MyMiddleware.run()
LOG: Accepted client: /10.0.0.6:38866in MyMiddleware.run()
LOG: Accepted client: /10.0.0.7:60552in MyMiddleware.run()
LOG: Accepted client: /10.0.0.7:60532in MyMiddleware.run()
LOG: Accepted client: /10.0.0.7:60566in MyMiddleware.run()
LOG: Accepted client: /10.0.0.6:38856in MyMiddleware.run()
LOG: Accepted client: /10.0.0.7:60560in MyMiddleware.run()
LOG: Accepted client: /10.0.0.11:59322in MyMiddleware.run()
LOG: Accepted client: /10.0.0.11:59350in MyMiddleware.run()
LOG: Accepted client: /10.0.0.11:59340in MyMiddleware.run()
LOG: Accepted client: /10.0.0.11:59320in MyMiddleware.run()
LOG: Accepted client: /10.0.0.11:59360in MyMiddleware.run()
LOG: Accepted client: /10.0.0.11:59334in MyMiddleware.run()
LOG: Accepted client: /10.0.0.11:59314in MyMiddleware.run()
LOG: Accepted client: /10.0.0.11:59358in MyMiddleware.run()
LOG: Accepted client: /10.0.0.11:59346in MyMiddleware.run()
LOG: Accepted client: /10.0.0.11:59344in MyMiddleware.run()
LOG: Accepted client: /10.0.0.11:59356in MyMiddleware.run()
LOG: Accepted client: /10.0.0.11:59352in MyMiddleware.run()
LOG: Accepted client: /10.0.0.11:59342in MyMiddleware.run()
LOG: Accepted client: /10.0.0.11:59362in MyMiddleware.run()
LOG: Accepted client: /10.0.0.11:59312in MyMiddleware.run()
LOG: Accepted client: /10.0.0.11:59306in MyMiddleware.run()
LOG: Accepted client: /10.0.0.11:59366in MyMiddleware.run()
LOG: Accepted client: /10.0.0.11:59308in MyMiddleware.run()
LOG: Accepted client: /10.0.0.11:59368in MyMiddleware.run()
LOG: Accepted client: /10.0.0.11:59354in MyMiddleware.run()
LOG: Accepted client: /10.0.0.11:59332in MyMiddleware.run()
LOG: Accepted client: /10.0.0.11:59310in MyMiddleware.run()
LOG: Accepted client: /10.0.0.11:59348in MyMiddleware.run()
LOG: Accepted client: /10.0.0.11:59364in MyMiddleware.run()
LOG: Accepted client: /10.0.0.11:59336in MyMiddleware.run()
LOG: Accepted client: /10.0.0.11:59324in MyMiddleware.run()
LOG: Accepted client: /10.0.0.11:59338in MyMiddleware.run()
LOG: Accepted client: /10.0.0.11:59326in MyMiddleware.run()
LOG: Accepted client: /10.0.0.6:38894in MyMiddleware.run()
LOG: Accepted client: /10.0.0.6:38892in MyMiddleware.run()
LOG: Accepted client: /10.0.0.11:59318in MyMiddleware.run()
LOG: Accepted client: /10.0.0.11:59316in MyMiddleware.run()
LOG: Accepted client: /10.0.0.11:59330in MyMiddleware.run()
LOG: Accepted client: /10.0.0.11:59328in MyMiddleware.run()
LOG: Closed client: /10.0.0.6:38872in MyMiddleware.run()
LOG: Closed client: /10.0.0.6:38870in MyMiddleware.run()
LOG: Closed client: /10.0.0.6:38868in MyMiddleware.run()
LOG: Closed client: /10.0.0.6:38860in MyMiddleware.run()
LOG: Closed client: /10.0.0.6:38882in MyMiddleware.run()
LOG: Closed client: /10.0.0.6:38890in MyMiddleware.run()
LOG: Closed client: /10.0.0.6:38892in MyMiddleware.run()
LOG: Closed client: /10.0.0.6:38898in MyMiddleware.run()
LOG: Closed client: /10.0.0.6:38884in MyMiddleware.run()
LOG: Closed client: /10.0.0.6:38862in MyMiddleware.run()
LOG: Closed client: /10.0.0.6:38894in MyMiddleware.run()
LOG: Closed client: /10.0.0.6:38902in MyMiddleware.run()
LOG: Closed client: /10.0.0.6:38878in MyMiddleware.run()
LOG: Closed client: /10.0.0.6:38874in MyMiddleware.run()
LOG: Closed client: /10.0.0.6:38858in MyMiddleware.run()
LOG: Closed client: /10.0.0.6:38856in MyMiddleware.run()
LOG: Closed client: /10.0.0.6:38910in MyMiddleware.run()
LOG: Closed client: /10.0.0.6:38908in MyMiddleware.run()
LOG: Closed client: /10.0.0.6:38896in MyMiddleware.run()
LOG: Closed client: /10.0.0.6:38876in MyMiddleware.run()
LOG: Closed client: /10.0.0.6:38880in MyMiddleware.run()
LOG: Closed client: /10.0.0.6:38864in MyMiddleware.run()
LOG: Closed client: /10.0.0.6:38886in MyMiddleware.run()
LOG: Closed client: /10.0.0.6:38866in MyMiddleware.run()
LOG: Closed client: /10.0.0.6:38916in MyMiddleware.run()
LOG: Closed client: /10.0.0.6:38900in MyMiddleware.run()
LOG: Closed client: /10.0.0.6:38888in MyMiddleware.run()
LOG: Closed client: /10.0.0.6:38904in MyMiddleware.run()
LOG: Closed client: /10.0.0.6:38912in MyMiddleware.run()
LOG: Closed client: /10.0.0.6:38918in MyMiddleware.run()
LOG: Closed client: /10.0.0.6:38906in MyMiddleware.run()
LOG: Closed client: /10.0.0.6:38914in MyMiddleware.run()
LOG: Closed client: /10.0.0.7:60528in MyMiddleware.run()
LOG: Closed client: /10.0.0.7:60522in MyMiddleware.run()
LOG: Closed client: /10.0.0.7:60518in MyMiddleware.run()
LOG: Closed client: /10.0.0.7:60516in MyMiddleware.run()
LOG: Closed client: /10.0.0.7:60532in MyMiddleware.run()
LOG: Closed client: /10.0.0.7:60514in MyMiddleware.run()
LOG: Closed client: /10.0.0.7:60526in MyMiddleware.run()
LOG: Closed client: /10.0.0.7:60534in MyMiddleware.run()
LOG: Closed client: /10.0.0.7:60524in MyMiddleware.run()
LOG: Closed client: /10.0.0.7:60530in MyMiddleware.run()
LOG: Closed client: /10.0.0.7:60558in MyMiddleware.run()
LOG: Closed client: /10.0.0.7:60570in MyMiddleware.run()
LOG: Closed client: /10.0.0.7:60566in MyMiddleware.run()
LOG: Closed client: /10.0.0.7:60554in MyMiddleware.run()
LOG: Closed client: /10.0.0.7:60546in MyMiddleware.run()
LOG: Closed client: /10.0.0.7:60572in MyMiddleware.run()
LOG: Closed client: /10.0.0.7:60562in MyMiddleware.run()
LOG: Closed client: /10.0.0.7:60568in MyMiddleware.run()
LOG: Closed client: /10.0.0.7:60576in MyMiddleware.run()
LOG: Closed client: /10.0.0.7:60550in MyMiddleware.run()
LOG: Closed client: /10.0.0.7:60544in MyMiddleware.run()
LOG: Closed client: /10.0.0.7:60548in MyMiddleware.run()
LOG: Closed client: /10.0.0.7:60536in MyMiddleware.run()
LOG: Closed client: /10.0.0.7:60556in MyMiddleware.run()
LOG: Closed client: /10.0.0.7:60574in MyMiddleware.run()
LOG: Closed client: /10.0.0.7:60542in MyMiddleware.run()
LOG: Closed client: /10.0.0.7:60538in MyMiddleware.run()
LOG: Closed client: /10.0.0.7:60560in MyMiddleware.run()
LOG: Closed client: /10.0.0.7:60520in MyMiddleware.run()
LOG: Closed client: /10.0.0.7:60552in MyMiddleware.run()
LOG: Closed client: /10.0.0.7:60564in MyMiddleware.run()
LOG: Closed client: /10.0.0.7:60540in MyMiddleware.run()
LOG: Closed client: /10.0.0.11:59306in MyMiddleware.run()
LOG: Closed client: /10.0.0.11:59344in MyMiddleware.run()
LOG: Closed client: /10.0.0.11:59310in MyMiddleware.run()
LOG: Closed client: /10.0.0.11:59320in MyMiddleware.run()
LOG: Closed client: /10.0.0.11:59312in MyMiddleware.run()
LOG: Closed client: /10.0.0.11:59308in MyMiddleware.run()
LOG: Closed client: /10.0.0.11:59314in MyMiddleware.run()
LOG: Closed client: /10.0.0.11:59316in MyMiddleware.run()
LOG: Closed client: /10.0.0.11:59358in MyMiddleware.run()
LOG: Closed client: /10.0.0.11:59326in MyMiddleware.run()
LOG: Closed client: /10.0.0.11:59322in MyMiddleware.run()
LOG: Closed client: /10.0.0.11:59318in MyMiddleware.run()
LOG: Closed client: /10.0.0.11:59338in MyMiddleware.run()
LOG: Closed client: /10.0.0.11:59352in MyMiddleware.run()
LOG: Closed client: /10.0.0.11:59350in MyMiddleware.run()
LOG: Closed client: /10.0.0.11:59340in MyMiddleware.run()
LOG: Closed client: /10.0.0.11:59346in MyMiddleware.run()
LOG: Closed client: /10.0.0.11:59328in MyMiddleware.run()
LOG: Closed client: /10.0.0.11:59324in MyMiddleware.run()
LOG: Closed client: /10.0.0.11:59336in MyMiddleware.run()
LOG: Closed client: /10.0.0.11:59366in MyMiddleware.run()
LOG: Closed client: /10.0.0.11:59362in MyMiddleware.run()
LOG: Closed client: /10.0.0.11:59342in MyMiddleware.run()
LOG: Closed client: /10.0.0.11:59332in MyMiddleware.run()
LOG: Closed client: /10.0.0.11:59360in MyMiddleware.run()
LOG: Closed client: /10.0.0.11:59364in MyMiddleware.run()
LOG: Closed client: /10.0.0.11:59334in MyMiddleware.run()
LOG: Closed client: /10.0.0.11:59368in MyMiddleware.run()
LOG: Closed client: /10.0.0.11:59330in MyMiddleware.run()
LOG: Closed client: /10.0.0.11:59356in MyMiddleware.run()
LOG: Closed client: /10.0.0.11:59348in MyMiddleware.run()
LOG: Closed client: /10.0.0.11:59354in MyMiddleware.run()
