------------Middleware started!------------
LOG: Waiting for connection in MyMiddleware.run()
LOG: Accepted client: /10.0.0.11:33518in MyMiddleware.run()
LOG: Accepted client: /10.0.0.11:33524in MyMiddleware.run()
LOG: Accepted client: /10.0.0.11:33522in MyMiddleware.run()
LOG: Accepted client: /10.0.0.11:33520in MyMiddleware.run()
LOG: Accepted client: /10.0.0.7:34838in MyMiddleware.run()
LOG: Accepted client: /10.0.0.7:34836in MyMiddleware.run()
LOG: Accepted client: /10.0.0.7:34832in MyMiddleware.run()
LOG: Accepted client: /10.0.0.7:34834in MyMiddleware.run()
LOG: Accepted client: /10.0.0.6:41296in MyMiddleware.run()
LOG: Accepted client: /10.0.0.6:41300in MyMiddleware.run()
LOG: Accepted client: /10.0.0.6:41298in MyMiddleware.run()
LOG: Accepted client: /10.0.0.6:41302in MyMiddleware.run()
LOG: Closed client: /10.0.0.11:33518in MyMiddleware.run()
LOG: Closed client: /10.0.0.11:33520in MyMiddleware.run()
LOG: Closed client: /10.0.0.11:33522in MyMiddleware.run()
LOG: Closed client: /10.0.0.11:33524in MyMiddleware.run()
LOG: Closed client: /10.0.0.7:34832in MyMiddleware.run()
LOG: Closed client: /10.0.0.7:34838in MyMiddleware.run()
LOG: Closed client: /10.0.0.7:34836in MyMiddleware.run()
LOG: Closed client: /10.0.0.7:34834in MyMiddleware.run()
LOG: Closed client: /10.0.0.6:41298in MyMiddleware.run()
LOG: Closed client: /10.0.0.6:41302in MyMiddleware.run()
LOG: Closed client: /10.0.0.6:41296in MyMiddleware.run()
LOG: Closed client: /10.0.0.6:41300in MyMiddleware.run()
