------------Middleware started!------------
LOG: Waiting for connection in MyMiddleware.run()
LOG: Accepted client: /10.0.0.6:45966in MyMiddleware.run()
LOG: Accepted client: /10.0.0.6:45964in MyMiddleware.run()
LOG: Accepted client: /10.0.0.6:45962in MyMiddleware.run()
LOG: Accepted client: /10.0.0.6:45972in MyMiddleware.run()
LOG: Accepted client: /10.0.0.6:45968in MyMiddleware.run()
LOG: Accepted client: /10.0.0.6:45970in MyMiddleware.run()
LOG: Accepted client: /10.0.0.6:45958in MyMiddleware.run()
LOG: Accepted client: /10.0.0.6:45960in MyMiddleware.run()
LOG: Accepted client: /10.0.0.7:39496in MyMiddleware.run()
LOG: Accepted client: /10.0.0.7:39502in MyMiddleware.run()
LOG: Accepted client: /10.0.0.7:39504in MyMiddleware.run()
LOG: Accepted client: /10.0.0.7:39500in MyMiddleware.run()
LOG: Accepted client: /10.0.0.7:39498in MyMiddleware.run()
LOG: Accepted client: /10.0.0.11:38190in MyMiddleware.run()
LOG: Accepted client: /10.0.0.11:38196in MyMiddleware.run()
LOG: Accepted client: /10.0.0.11:38194in MyMiddleware.run()
LOG: Accepted client: /10.0.0.11:38192in MyMiddleware.run()
LOG: Accepted client: /10.0.0.11:38200in MyMiddleware.run()
LOG: Accepted client: /10.0.0.11:38188in MyMiddleware.run()
LOG: Accepted client: /10.0.0.7:39492in MyMiddleware.run()
LOG: Accepted client: /10.0.0.7:39490in MyMiddleware.run()
LOG: Accepted client: /10.0.0.7:39494in MyMiddleware.run()
LOG: Accepted client: /10.0.0.11:38186in MyMiddleware.run()
LOG: Accepted client: /10.0.0.11:38198in MyMiddleware.run()
LOG: Closed client: /10.0.0.11:38190in MyMiddleware.run()
LOG: Closed client: /10.0.0.11:38188in MyMiddleware.run()
LOG: Closed client: /10.0.0.11:38192in MyMiddleware.run()
LOG: Closed client: /10.0.0.11:38198in MyMiddleware.run()
LOG: Closed client: /10.0.0.11:38194in MyMiddleware.run()
LOG: Closed client: /10.0.0.11:38186in MyMiddleware.run()
LOG: Closed client: /10.0.0.11:38200in MyMiddleware.run()
LOG: Closed client: /10.0.0.11:38196in MyMiddleware.run()
LOG: Closed client: /10.0.0.6:45966in MyMiddleware.run()
LOG: Closed client: /10.0.0.6:45964in MyMiddleware.run()
LOG: Closed client: /10.0.0.6:45958in MyMiddleware.run()
LOG: Closed client: /10.0.0.6:45960in MyMiddleware.run()
LOG: Closed client: /10.0.0.6:45970in MyMiddleware.run()
LOG: Closed client: /10.0.0.6:45968in MyMiddleware.run()
LOG: Closed client: /10.0.0.6:45972in MyMiddleware.run()
LOG: Closed client: /10.0.0.6:45962in MyMiddleware.run()
LOG: Closed client: /10.0.0.7:39502in MyMiddleware.run()
LOG: Closed client: /10.0.0.7:39490in MyMiddleware.run()
LOG: Closed client: /10.0.0.7:39496in MyMiddleware.run()
LOG: Closed client: /10.0.0.7:39500in MyMiddleware.run()
LOG: Closed client: /10.0.0.7:39498in MyMiddleware.run()
LOG: Closed client: /10.0.0.7:39494in MyMiddleware.run()
LOG: Closed client: /10.0.0.7:39504in MyMiddleware.run()
LOG: Closed client: /10.0.0.7:39492in MyMiddleware.run()
