------------Middleware started!------------
LOG: Waiting for connection in MyMiddleware.run()
LOG: Accepted client: /10.0.0.7:34500in MyMiddleware.run()
LOG: Accepted client: /10.0.0.7:34498in MyMiddleware.run()
LOG: Accepted client: /10.0.0.7:34502in MyMiddleware.run()
LOG: Accepted client: /10.0.0.6:41002in MyMiddleware.run()
LOG: Accepted client: /10.0.0.6:41004in MyMiddleware.run()
LOG: Accepted client: /10.0.0.6:41000in MyMiddleware.run()
LOG: Accepted client: /10.0.0.11:33222in MyMiddleware.run()
LOG: Accepted client: /10.0.0.11:33220in MyMiddleware.run()
LOG: Accepted client: /10.0.0.11:33216in MyMiddleware.run()
LOG: Accepted client: /10.0.0.6:40998in MyMiddleware.run()
LOG: Accepted client: /10.0.0.11:33218in MyMiddleware.run()
LOG: Accepted client: /10.0.0.7:34504in MyMiddleware.run()
LOG: Closed client: /10.0.0.6:41004in MyMiddleware.run()
LOG: Closed client: /10.0.0.6:41002in MyMiddleware.run()
LOG: Closed client: /10.0.0.6:40998in MyMiddleware.run()
LOG: Closed client: /10.0.0.6:41000in MyMiddleware.run()
LOG: Closed client: /10.0.0.7:34502in MyMiddleware.run()
LOG: Closed client: /10.0.0.7:34504in MyMiddleware.run()
LOG: Closed client: /10.0.0.7:34500in MyMiddleware.run()
LOG: Closed client: /10.0.0.7:34498in MyMiddleware.run()
LOG: Closed client: /10.0.0.11:33222in MyMiddleware.run()
LOG: Closed client: /10.0.0.11:33220in MyMiddleware.run()
LOG: Closed client: /10.0.0.11:33218in MyMiddleware.run()
LOG: Closed client: /10.0.0.11:33216in MyMiddleware.run()
