------------Middleware started!------------
LOG: Waiting for connection in MyMiddleware.run()
LOG: Accepted client: /10.0.0.7:33752in MyMiddleware.run()
LOG: Accepted client: /10.0.0.7:33756in MyMiddleware.run()
LOG: Accepted client: /10.0.0.7:33790in MyMiddleware.run()
LOG: Accepted client: /10.0.0.7:33772in MyMiddleware.run()
LOG: Accepted client: /10.0.0.7:33750in MyMiddleware.run()
LOG: Accepted client: /10.0.0.7:33804in MyMiddleware.run()
LOG: Accepted client: /10.0.0.7:33758in MyMiddleware.run()
LOG: Accepted client: /10.0.0.7:33760in MyMiddleware.run()
LOG: Accepted client: /10.0.0.7:33808in MyMiddleware.run()
LOG: Accepted client: /10.0.0.7:33780in MyMiddleware.run()
LOG: Accepted client: /10.0.0.7:33800in MyMiddleware.run()
LOG: Accepted client: /10.0.0.7:33754in MyMiddleware.run()
LOG: Accepted client: /10.0.0.7:33782in MyMiddleware.run()
LOG: Accepted client: /10.0.0.7:33746in MyMiddleware.run()
LOG: Accepted client: /10.0.0.7:33786in MyMiddleware.run()
LOG: Accepted client: /10.0.0.7:33806in MyMiddleware.run()
LOG: Accepted client: /10.0.0.7:33802in MyMiddleware.run()
LOG: Accepted client: /10.0.0.7:33766in MyMiddleware.run()
LOG: Accepted client: /10.0.0.7:33776in MyMiddleware.run()
LOG: Accepted client: /10.0.0.7:33794in MyMiddleware.run()
LOG: Accepted client: /10.0.0.7:33788in MyMiddleware.run()
LOG: Accepted client: /10.0.0.7:33792in MyMiddleware.run()
LOG: Accepted client: /10.0.0.7:33784in MyMiddleware.run()
LOG: Accepted client: /10.0.0.7:33796in MyMiddleware.run()
LOG: Accepted client: /10.0.0.7:33748in MyMiddleware.run()
LOG: Accepted client: /10.0.0.7:33768in MyMiddleware.run()
LOG: Accepted client: /10.0.0.7:33770in MyMiddleware.run()
LOG: Accepted client: /10.0.0.7:33774in MyMiddleware.run()
LOG: Accepted client: /10.0.0.7:33778in MyMiddleware.run()
LOG: Accepted client: /10.0.0.7:33798in MyMiddleware.run()
LOG: Accepted client: /10.0.0.7:33764in MyMiddleware.run()
LOG: Accepted client: /10.0.0.7:33762in MyMiddleware.run()
LOG: Accepted client: /10.0.0.6:40340in MyMiddleware.run()
LOG: Accepted client: /10.0.0.6:40336in MyMiddleware.run()
LOG: Accepted client: /10.0.0.6:40382in MyMiddleware.run()
LOG: Accepted client: /10.0.0.6:40346in MyMiddleware.run()
LOG: Accepted client: /10.0.0.11:60772in MyMiddleware.run()
LOG: Accepted client: /10.0.0.11:60816in MyMiddleware.run()
LOG: Accepted client: /10.0.0.6:40348in MyMiddleware.run()
LOG: Accepted client: /10.0.0.11:60794in MyMiddleware.run()
LOG: Accepted client: /10.0.0.6:40380in MyMiddleware.run()
LOG: Accepted client: /10.0.0.11:60818in MyMiddleware.run()
LOG: Accepted client: /10.0.0.6:40370in MyMiddleware.run()
LOG: Accepted client: /10.0.0.6:40376in MyMiddleware.run()
LOG: Accepted client: /10.0.0.6:40344in MyMiddleware.run()
LOG: Accepted client: /10.0.0.11:60820in MyMiddleware.run()
LOG: Accepted client: /10.0.0.11:60788in MyMiddleware.run()
LOG: Accepted client: /10.0.0.11:60760in MyMiddleware.run()
LOG: Accepted client: /10.0.0.6:40374in MyMiddleware.run()
LOG: Accepted client: /10.0.0.6:40368in MyMiddleware.run()
LOG: Accepted client: /10.0.0.11:60786in MyMiddleware.run()
LOG: Accepted client: /10.0.0.11:60790in MyMiddleware.run()
LOG: Accepted client: /10.0.0.11:60766in MyMiddleware.run()
LOG: Accepted client: /10.0.0.11:60762in MyMiddleware.run()
LOG: Accepted client: /10.0.0.11:60784in MyMiddleware.run()
LOG: Accepted client: /10.0.0.6:40350in MyMiddleware.run()
LOG: Accepted client: /10.0.0.11:60796in MyMiddleware.run()
LOG: Accepted client: /10.0.0.11:60770in MyMiddleware.run()
LOG: Accepted client: /10.0.0.6:40330in MyMiddleware.run()
LOG: Accepted client: /10.0.0.6:40328in MyMiddleware.run()
LOG: Accepted client: /10.0.0.11:60768in MyMiddleware.run()
LOG: Accepted client: /10.0.0.11:60810in MyMiddleware.run()
LOG: Accepted client: /10.0.0.6:40356in MyMiddleware.run()
LOG: Accepted client: /10.0.0.6:40358in MyMiddleware.run()
LOG: Accepted client: /10.0.0.6:40334in MyMiddleware.run()
LOG: Accepted client: /10.0.0.11:60814in MyMiddleware.run()
LOG: Accepted client: /10.0.0.11:60812in MyMiddleware.run()
LOG: Accepted client: /10.0.0.11:60822in MyMiddleware.run()
LOG: Accepted client: /10.0.0.11:60798in MyMiddleware.run()
LOG: Accepted client: /10.0.0.6:40360in MyMiddleware.run()
LOG: Accepted client: /10.0.0.6:40354in MyMiddleware.run()
LOG: Accepted client: /10.0.0.6:40320in MyMiddleware.run()
LOG: Accepted client: /10.0.0.6:40362in MyMiddleware.run()
LOG: Accepted client: /10.0.0.6:40352in MyMiddleware.run()
LOG: Accepted client: /10.0.0.6:40326in MyMiddleware.run()
LOG: Accepted client: /10.0.0.6:40332in MyMiddleware.run()
LOG: Accepted client: /10.0.0.6:40372in MyMiddleware.run()
LOG: Accepted client: /10.0.0.6:40364in MyMiddleware.run()
LOG: Accepted client: /10.0.0.6:40324in MyMiddleware.run()
LOG: Accepted client: /10.0.0.6:40366in MyMiddleware.run()
LOG: Accepted client: /10.0.0.6:40322in MyMiddleware.run()
LOG: Accepted client: /10.0.0.11:60774in MyMiddleware.run()
LOG: Accepted client: /10.0.0.11:60808in MyMiddleware.run()
LOG: Accepted client: /10.0.0.11:60776in MyMiddleware.run()
LOG: Accepted client: /10.0.0.11:60804in MyMiddleware.run()
LOG: Accepted client: /10.0.0.11:60778in MyMiddleware.run()
LOG: Accepted client: /10.0.0.11:60764in MyMiddleware.run()
LOG: Accepted client: /10.0.0.11:60806in MyMiddleware.run()
LOG: Accepted client: /10.0.0.11:60802in MyMiddleware.run()
LOG: Accepted client: /10.0.0.11:60800in MyMiddleware.run()
LOG: Accepted client: /10.0.0.11:60782in MyMiddleware.run()
LOG: Accepted client: /10.0.0.11:60780in MyMiddleware.run()
LOG: Accepted client: /10.0.0.6:40378in MyMiddleware.run()
LOG: Accepted client: /10.0.0.6:40342in MyMiddleware.run()
LOG: Accepted client: /10.0.0.6:40338in MyMiddleware.run()
LOG: Accepted client: /10.0.0.11:60792in MyMiddleware.run()
LOG: Closed client: /10.0.0.7:33746in MyMiddleware.run()
LOG: Closed client: /10.0.0.7:33754in MyMiddleware.run()
LOG: Closed client: /10.0.0.7:33750in MyMiddleware.run()
LOG: Closed client: /10.0.0.7:33806in MyMiddleware.run()
LOG: Closed client: /10.0.0.7:33794in MyMiddleware.run()
LOG: Closed client: /10.0.0.7:33752in MyMiddleware.run()
LOG: Closed client: /10.0.0.7:33786in MyMiddleware.run()
LOG: Closed client: /10.0.0.7:33784in MyMiddleware.run()
LOG: Closed client: /10.0.0.7:33798in MyMiddleware.run()
LOG: Closed client: /10.0.0.7:33796in MyMiddleware.run()
LOG: Closed client: /10.0.0.7:33790in MyMiddleware.run()
LOG: Closed client: /10.0.0.7:33774in MyMiddleware.run()
LOG: Closed client: /10.0.0.7:33802in MyMiddleware.run()
LOG: Closed client: /10.0.0.7:33788in MyMiddleware.run()
LOG: Closed client: /10.0.0.7:33768in MyMiddleware.run()
LOG: Closed client: /10.0.0.7:33800in MyMiddleware.run()
LOG: Closed client: /10.0.0.7:33804in MyMiddleware.run()
LOG: Closed client: /10.0.0.7:33776in MyMiddleware.run()
LOG: Closed client: /10.0.0.7:33766in MyMiddleware.run()
LOG: Closed client: /10.0.0.7:33780in MyMiddleware.run()
LOG: Closed client: /10.0.0.7:33792in MyMiddleware.run()
LOG: Closed client: /10.0.0.7:33762in MyMiddleware.run()
LOG: Closed client: /10.0.0.7:33760in MyMiddleware.run()
LOG: Closed client: /10.0.0.7:33782in MyMiddleware.run()
LOG: Closed client: /10.0.0.7:33758in MyMiddleware.run()
LOG: Closed client: /10.0.0.7:33772in MyMiddleware.run()
LOG: Closed client: /10.0.0.7:33748in MyMiddleware.run()
LOG: Closed client: /10.0.0.7:33756in MyMiddleware.run()
LOG: Closed client: /10.0.0.7:33808in MyMiddleware.run()
LOG: Closed client: /10.0.0.7:33764in MyMiddleware.run()
LOG: Closed client: /10.0.0.7:33770in MyMiddleware.run()
LOG: Closed client: /10.0.0.7:33778in MyMiddleware.run()
LOG: Closed client: /10.0.0.6:40378in MyMiddleware.run()
LOG: Closed client: /10.0.0.6:40350in MyMiddleware.run()
LOG: Closed client: /10.0.0.6:40340in MyMiddleware.run()
LOG: Closed client: /10.0.0.6:40336in MyMiddleware.run()
LOG: Closed client: /10.0.0.6:40376in MyMiddleware.run()
LOG: Closed client: /10.0.0.6:40356in MyMiddleware.run()
LOG: Closed client: /10.0.0.6:40328in MyMiddleware.run()
LOG: Closed client: /10.0.0.6:40370in MyMiddleware.run()
LOG: Closed client: /10.0.0.6:40326in MyMiddleware.run()
LOG: Closed client: /10.0.0.6:40372in MyMiddleware.run()
LOG: Closed client: /10.0.0.6:40330in MyMiddleware.run()
LOG: Closed client: /10.0.0.6:40362in MyMiddleware.run()
LOG: Closed client: /10.0.0.6:40344in MyMiddleware.run()
LOG: Closed client: /10.0.0.6:40338in MyMiddleware.run()
LOG: Closed client: /10.0.0.6:40374in MyMiddleware.run()
LOG: Closed client: /10.0.0.6:40382in MyMiddleware.run()
LOG: Closed client: /10.0.0.6:40360in MyMiddleware.run()
LOG: Closed client: /10.0.0.6:40358in MyMiddleware.run()
LOG: Closed client: /10.0.0.6:40346in MyMiddleware.run()
LOG: Closed client: /10.0.0.6:40342in MyMiddleware.run()
LOG: Closed client: /10.0.0.6:40380in MyMiddleware.run()
LOG: Closed client: /10.0.0.6:40364in MyMiddleware.run()
LOG: Closed client: /10.0.0.6:40366in MyMiddleware.run()
LOG: Closed client: /10.0.0.6:40320in MyMiddleware.run()
LOG: Closed client: /10.0.0.6:40324in MyMiddleware.run()
LOG: Closed client: /10.0.0.6:40322in MyMiddleware.run()
LOG: Closed client: /10.0.0.6:40352in MyMiddleware.run()
LOG: Closed client: /10.0.0.6:40332in MyMiddleware.run()
LOG: Closed client: /10.0.0.6:40368in MyMiddleware.run()
LOG: Closed client: /10.0.0.6:40334in MyMiddleware.run()
LOG: Closed client: /10.0.0.6:40354in MyMiddleware.run()
LOG: Closed client: /10.0.0.6:40348in MyMiddleware.run()
LOG: Closed client: /10.0.0.11:60764in MyMiddleware.run()
LOG: Closed client: /10.0.0.11:60762in MyMiddleware.run()
LOG: Closed client: /10.0.0.11:60788in MyMiddleware.run()
LOG: Closed client: /10.0.0.11:60792in MyMiddleware.run()
LOG: Closed client: /10.0.0.11:60768in MyMiddleware.run()
LOG: Closed client: /10.0.0.11:60782in MyMiddleware.run()
LOG: Closed client: /10.0.0.11:60770in MyMiddleware.run()
LOG: Closed client: /10.0.0.11:60760in MyMiddleware.run()
LOG: Closed client: /10.0.0.11:60776in MyMiddleware.run()
LOG: Closed client: /10.0.0.11:60786in MyMiddleware.run()
LOG: Closed client: /10.0.0.11:60784in MyMiddleware.run()
LOG: Closed client: /10.0.0.11:60780in MyMiddleware.run()
LOG: Closed client: /10.0.0.11:60790in MyMiddleware.run()
LOG: Closed client: /10.0.0.11:60766in MyMiddleware.run()
LOG: Closed client: /10.0.0.11:60778in MyMiddleware.run()
LOG: Closed client: /10.0.0.11:60800in MyMiddleware.run()
LOG: Closed client: /10.0.0.11:60822in MyMiddleware.run()
LOG: Closed client: /10.0.0.11:60810in MyMiddleware.run()
LOG: Closed client: /10.0.0.11:60774in MyMiddleware.run()
LOG: Closed client: /10.0.0.11:60806in MyMiddleware.run()
LOG: Closed client: /10.0.0.11:60802in MyMiddleware.run()
LOG: Closed client: /10.0.0.11:60808in MyMiddleware.run()
LOG: Closed client: /10.0.0.11:60812in MyMiddleware.run()
LOG: Closed client: /10.0.0.11:60798in MyMiddleware.run()
LOG: Closed client: /10.0.0.11:60814in MyMiddleware.run()
LOG: Closed client: /10.0.0.11:60820in MyMiddleware.run()
LOG: Closed client: /10.0.0.11:60804in MyMiddleware.run()
LOG: Closed client: /10.0.0.11:60818in MyMiddleware.run()
LOG: Closed client: /10.0.0.11:60794in MyMiddleware.run()
LOG: Closed client: /10.0.0.11:60772in MyMiddleware.run()
LOG: Closed client: /10.0.0.11:60816in MyMiddleware.run()
LOG: Closed client: /10.0.0.11:60796in MyMiddleware.run()
