------------Middleware started!------------
LOG: Waiting for connection in MyMiddleware.run()
LOG: Accepted client: /10.0.0.11:40138in MyMiddleware.run()
LOG: Accepted client: /10.0.0.11:40122in MyMiddleware.run()
LOG: Accepted client: /10.0.0.11:40126in MyMiddleware.run()
LOG: Accepted client: /10.0.0.11:40132in MyMiddleware.run()
LOG: Accepted client: /10.0.0.11:40136in MyMiddleware.run()
LOG: Accepted client: /10.0.0.11:40124in MyMiddleware.run()
LOG: Accepted client: /10.0.0.11:40140in MyMiddleware.run()
LOG: Accepted client: /10.0.0.11:40142in MyMiddleware.run()
LOG: Accepted client: /10.0.0.11:40144in MyMiddleware.run()
LOG: Accepted client: /10.0.0.11:40118in MyMiddleware.run()
LOG: Accepted client: /10.0.0.11:40120in MyMiddleware.run()
LOG: Accepted client: /10.0.0.11:40130in MyMiddleware.run()
LOG: Accepted client: /10.0.0.11:40134in MyMiddleware.run()
LOG: Accepted client: /10.0.0.11:40128in MyMiddleware.run()
LOG: Accepted client: /10.0.0.11:40148in MyMiddleware.run()
LOG: Accepted client: /10.0.0.11:40146in MyMiddleware.run()
LOG: Accepted client: /10.0.0.7:41464in MyMiddleware.run()
LOG: Accepted client: /10.0.0.7:41446in MyMiddleware.run()
LOG: Accepted client: /10.0.0.7:41454in MyMiddleware.run()
LOG: Accepted client: /10.0.0.7:41458in MyMiddleware.run()
LOG: Accepted client: /10.0.0.7:41462in MyMiddleware.run()
LOG: Accepted client: /10.0.0.7:41460in MyMiddleware.run()
LOG: Accepted client: /10.0.0.7:41472in MyMiddleware.run()
LOG: Accepted client: /10.0.0.7:41476in MyMiddleware.run()
LOG: Accepted client: /10.0.0.7:41466in MyMiddleware.run()
LOG: Accepted client: /10.0.0.7:41470in MyMiddleware.run()
LOG: Accepted client: /10.0.0.7:41452in MyMiddleware.run()
LOG: Accepted client: /10.0.0.7:41468in MyMiddleware.run()
LOG: Accepted client: /10.0.0.7:41474in MyMiddleware.run()
LOG: Accepted client: /10.0.0.7:41456in MyMiddleware.run()
LOG: Accepted client: /10.0.0.6:47906in MyMiddleware.run()
LOG: Accepted client: /10.0.0.6:47922in MyMiddleware.run()
LOG: Accepted client: /10.0.0.6:47904in MyMiddleware.run()
LOG: Accepted client: /10.0.0.6:47898in MyMiddleware.run()
LOG: Accepted client: /10.0.0.6:47924in MyMiddleware.run()
LOG: Accepted client: /10.0.0.6:47912in MyMiddleware.run()
LOG: Accepted client: /10.0.0.6:47908in MyMiddleware.run()
LOG: Accepted client: /10.0.0.6:47918in MyMiddleware.run()
LOG: Accepted client: /10.0.0.7:41450in MyMiddleware.run()
LOG: Accepted client: /10.0.0.7:41448in MyMiddleware.run()
LOG: Accepted client: /10.0.0.6:47926in MyMiddleware.run()
LOG: Accepted client: /10.0.0.6:47914in MyMiddleware.run()
LOG: Accepted client: /10.0.0.6:47896in MyMiddleware.run()
LOG: Accepted client: /10.0.0.6:47916in MyMiddleware.run()
LOG: Accepted client: /10.0.0.6:47902in MyMiddleware.run()
LOG: Accepted client: /10.0.0.6:47920in MyMiddleware.run()
LOG: Accepted client: /10.0.0.6:47910in MyMiddleware.run()
LOG: Accepted client: /10.0.0.6:47900in MyMiddleware.run()
LOG: Closed client: /10.0.0.11:40118in MyMiddleware.run()
LOG: Closed client: /10.0.0.11:40132in MyMiddleware.run()
LOG: Closed client: /10.0.0.11:40146in MyMiddleware.run()
LOG: Closed client: /10.0.0.11:40138in MyMiddleware.run()
LOG: Closed client: /10.0.0.11:40148in MyMiddleware.run()
LOG: Closed client: /10.0.0.11:40142in MyMiddleware.run()
LOG: Closed client: /10.0.0.11:40134in MyMiddleware.run()
LOG: Closed client: /10.0.0.11:40126in MyMiddleware.run()
LOG: Closed client: /10.0.0.11:40140in MyMiddleware.run()
LOG: Closed client: /10.0.0.11:40130in MyMiddleware.run()
LOG: Closed client: /10.0.0.11:40124in MyMiddleware.run()
LOG: Closed client: /10.0.0.11:40120in MyMiddleware.run()
LOG: Closed client: /10.0.0.11:40144in MyMiddleware.run()
LOG: Closed client: /10.0.0.11:40128in MyMiddleware.run()
LOG: Closed client: /10.0.0.11:40136in MyMiddleware.run()
LOG: Closed client: /10.0.0.11:40122in MyMiddleware.run()
LOG: Closed client: /10.0.0.7:41468in MyMiddleware.run()
LOG: Closed client: /10.0.0.7:41462in MyMiddleware.run()
LOG: Closed client: /10.0.0.7:41458in MyMiddleware.run()
LOG: Closed client: /10.0.0.7:41474in MyMiddleware.run()
LOG: Closed client: /10.0.0.7:41448in MyMiddleware.run()
LOG: Closed client: /10.0.0.7:41450in MyMiddleware.run()
LOG: Closed client: /10.0.0.7:41470in MyMiddleware.run()
LOG: Closed client: /10.0.0.7:41456in MyMiddleware.run()
LOG: Closed client: /10.0.0.7:41472in MyMiddleware.run()
LOG: Closed client: /10.0.0.7:41476in MyMiddleware.run()
LOG: Closed client: /10.0.0.7:41460in MyMiddleware.run()
LOG: Closed client: /10.0.0.7:41454in MyMiddleware.run()
LOG: Closed client: /10.0.0.7:41452in MyMiddleware.run()
LOG: Closed client: /10.0.0.7:41466in MyMiddleware.run()
LOG: Closed client: /10.0.0.7:41446in MyMiddleware.run()
LOG: Closed client: /10.0.0.7:41464in MyMiddleware.run()
LOG: Closed client: /10.0.0.6:47896in MyMiddleware.run()
LOG: Closed client: /10.0.0.6:47898in MyMiddleware.run()
LOG: Closed client: /10.0.0.6:47916in MyMiddleware.run()
LOG: Closed client: /10.0.0.6:47914in MyMiddleware.run()
LOG: Closed client: /10.0.0.6:47912in MyMiddleware.run()
LOG: Closed client: /10.0.0.6:47906in MyMiddleware.run()
LOG: Closed client: /10.0.0.6:47904in MyMiddleware.run()
LOG: Closed client: /10.0.0.6:47918in MyMiddleware.run()
LOG: Closed client: /10.0.0.6:47908in MyMiddleware.run()
LOG: Closed client: /10.0.0.6:47926in MyMiddleware.run()
LOG: Closed client: /10.0.0.6:47924in MyMiddleware.run()
LOG: Closed client: /10.0.0.6:47910in MyMiddleware.run()
LOG: Closed client: /10.0.0.6:47900in MyMiddleware.run()
LOG: Closed client: /10.0.0.6:47902in MyMiddleware.run()
LOG: Closed client: /10.0.0.6:47922in MyMiddleware.run()
LOG: Closed client: /10.0.0.6:47920in MyMiddleware.run()
