------------Middleware started!------------
LOG: Waiting for connection in MyMiddleware.run()
LOG: Accepted client: /10.0.0.11:48218in MyMiddleware.run()
LOG: Accepted client: /10.0.0.11:48220in MyMiddleware.run()
LOG: Accepted client: /10.0.0.11:48216in MyMiddleware.run()
LOG: Accepted client: /10.0.0.11:48214in MyMiddleware.run()
LOG: Accepted client: /10.0.0.6:56030in MyMiddleware.run()
LOG: Accepted client: /10.0.0.6:56032in MyMiddleware.run()
LOG: Accepted client: /10.0.0.6:56034in MyMiddleware.run()
LOG: Accepted client: /10.0.0.6:56036in MyMiddleware.run()
LOG: Accepted client: /10.0.0.7:49530in MyMiddleware.run()
LOG: Accepted client: /10.0.0.7:49532in MyMiddleware.run()
LOG: Accepted client: /10.0.0.7:49528in MyMiddleware.run()
LOG: Accepted client: /10.0.0.7:49534in MyMiddleware.run()
LOG: Closed client: /10.0.0.11:48214in MyMiddleware.run()
LOG: Closed client: /10.0.0.11:48216in MyMiddleware.run()
LOG: Closed client: /10.0.0.11:48218in MyMiddleware.run()
LOG: Closed client: /10.0.0.11:48220in MyMiddleware.run()
LOG: Closed client: /10.0.0.7:49528in MyMiddleware.run()
LOG: Closed client: /10.0.0.7:49530in MyMiddleware.run()
LOG: Closed client: /10.0.0.7:49534in MyMiddleware.run()
LOG: Closed client: /10.0.0.7:49532in MyMiddleware.run()
LOG: Closed client: /10.0.0.6:56034in MyMiddleware.run()
LOG: Closed client: /10.0.0.6:56030in MyMiddleware.run()
LOG: Closed client: /10.0.0.6:56032in MyMiddleware.run()
LOG: Closed client: /10.0.0.6:56036in MyMiddleware.run()
