------------Middleware started!------------
LOG: Waiting for connection in MyMiddleware.run()
LOG: Accepted client: /10.0.0.6:58802in MyMiddleware.run()
LOG: Accepted client: /10.0.0.6:58800in MyMiddleware.run()
LOG: Accepted client: /10.0.0.6:58808in MyMiddleware.run()
LOG: Accepted client: /10.0.0.6:58804in MyMiddleware.run()
LOG: Accepted client: /10.0.0.6:58796in MyMiddleware.run()
LOG: Accepted client: /10.0.0.6:58798in MyMiddleware.run()
LOG: Accepted client: /10.0.0.6:58806in MyMiddleware.run()
LOG: Accepted client: /10.0.0.6:58794in MyMiddleware.run()
LOG: Accepted client: /10.0.0.11:51026in MyMiddleware.run()
LOG: Accepted client: /10.0.0.11:51022in MyMiddleware.run()
LOG: Accepted client: /10.0.0.11:51016in MyMiddleware.run()
LOG: Accepted client: /10.0.0.11:51020in MyMiddleware.run()
LOG: Accepted client: /10.0.0.11:51018in MyMiddleware.run()
LOG: Accepted client: /10.0.0.11:51024in MyMiddleware.run()
LOG: Accepted client: /10.0.0.11:51014in MyMiddleware.run()
LOG: Accepted client: /10.0.0.11:51012in MyMiddleware.run()
LOG: Accepted client: /10.0.0.7:52298in MyMiddleware.run()
LOG: Accepted client: /10.0.0.7:52294in MyMiddleware.run()
LOG: Accepted client: /10.0.0.7:52302in MyMiddleware.run()
LOG: Accepted client: /10.0.0.7:52296in MyMiddleware.run()
LOG: Accepted client: /10.0.0.7:52306in MyMiddleware.run()
LOG: Accepted client: /10.0.0.7:52304in MyMiddleware.run()
LOG: Accepted client: /10.0.0.7:52300in MyMiddleware.run()
LOG: Accepted client: /10.0.0.7:52308in MyMiddleware.run()
LOG: Closed client: /10.0.0.6:58808in MyMiddleware.run()
LOG: Closed client: /10.0.0.6:58802in MyMiddleware.run()
LOG: Closed client: /10.0.0.6:58794in MyMiddleware.run()
LOG: Closed client: /10.0.0.6:58798in MyMiddleware.run()
LOG: Closed client: /10.0.0.6:58796in MyMiddleware.run()
LOG: Closed client: /10.0.0.6:58800in MyMiddleware.run()
LOG: Closed client: /10.0.0.6:58804in MyMiddleware.run()
LOG: Closed client: /10.0.0.6:58806in MyMiddleware.run()
LOG: Closed client: /10.0.0.11:51020in MyMiddleware.run()
LOG: Closed client: /10.0.0.11:51018in MyMiddleware.run()
LOG: Closed client: /10.0.0.11:51016in MyMiddleware.run()
LOG: Closed client: /10.0.0.11:51012in MyMiddleware.run()
LOG: Closed client: /10.0.0.11:51014in MyMiddleware.run()
LOG: Closed client: /10.0.0.11:51026in MyMiddleware.run()
LOG: Closed client: /10.0.0.11:51024in MyMiddleware.run()
LOG: Closed client: /10.0.0.11:51022in MyMiddleware.run()
LOG: Closed client: /10.0.0.7:52294in MyMiddleware.run()
LOG: Closed client: /10.0.0.7:52302in MyMiddleware.run()
LOG: Closed client: /10.0.0.7:52298in MyMiddleware.run()
LOG: Closed client: /10.0.0.7:52300in MyMiddleware.run()
LOG: Closed client: /10.0.0.7:52304in MyMiddleware.run()
LOG: Closed client: /10.0.0.7:52296in MyMiddleware.run()
LOG: Closed client: /10.0.0.7:52306in MyMiddleware.run()
LOG: Closed client: /10.0.0.7:52308in MyMiddleware.run()
