------------Middleware started!------------
LOG: Waiting for connection in MyMiddleware.run()
LOG: Accepted client: /10.0.0.6:45916in MyMiddleware.run()
LOG: Accepted client: /10.0.0.6:45924in MyMiddleware.run()
LOG: Accepted client: /10.0.0.6:45918in MyMiddleware.run()
LOG: Accepted client: /10.0.0.6:45926in MyMiddleware.run()
LOG: Accepted client: /10.0.0.6:45920in MyMiddleware.run()
LOG: Accepted client: /10.0.0.6:45922in MyMiddleware.run()
LOG: Accepted client: /10.0.0.6:45930in MyMiddleware.run()
LOG: Accepted client: /10.0.0.11:38116in MyMiddleware.run()
LOG: Accepted client: /10.0.0.11:38118in MyMiddleware.run()
LOG: Accepted client: /10.0.0.6:45928in MyMiddleware.run()
LOG: Accepted client: /10.0.0.7:39430in MyMiddleware.run()
LOG: Accepted client: /10.0.0.7:39426in MyMiddleware.run()
LOG: Accepted client: /10.0.0.7:39428in MyMiddleware.run()
LOG: Accepted client: /10.0.0.7:39424in MyMiddleware.run()
LOG: Accepted client: /10.0.0.7:39422in MyMiddleware.run()
LOG: Accepted client: /10.0.0.7:39436in MyMiddleware.run()
LOG: Accepted client: /10.0.0.7:39432in MyMiddleware.run()
LOG: Accepted client: /10.0.0.7:39434in MyMiddleware.run()
LOG: Accepted client: /10.0.0.11:38120in MyMiddleware.run()
LOG: Accepted client: /10.0.0.11:38122in MyMiddleware.run()
LOG: Accepted client: /10.0.0.11:38128in MyMiddleware.run()
LOG: Accepted client: /10.0.0.11:38126in MyMiddleware.run()
LOG: Accepted client: /10.0.0.11:38130in MyMiddleware.run()
LOG: Accepted client: /10.0.0.11:38124in MyMiddleware.run()
LOG: Closed client: /10.0.0.7:39430in MyMiddleware.run()
LOG: Closed client: /10.0.0.7:39428in MyMiddleware.run()
LOG: Closed client: /10.0.0.6:45928in MyMiddleware.run()
LOG: Closed client: /10.0.0.6:45930in MyMiddleware.run()
LOG: Closed client: /10.0.0.6:45922in MyMiddleware.run()
LOG: Closed client: /10.0.0.6:45920in MyMiddleware.run()
LOG: Closed client: /10.0.0.6:45926in MyMiddleware.run()
LOG: Closed client: /10.0.0.7:39432in MyMiddleware.run()
LOG: Closed client: /10.0.0.6:45916in MyMiddleware.run()
LOG: Closed client: /10.0.0.6:45918in MyMiddleware.run()
LOG: Closed client: /10.0.0.6:45924in MyMiddleware.run()
LOG: Closed client: /10.0.0.7:39436in MyMiddleware.run()
LOG: Closed client: /10.0.0.7:39424in MyMiddleware.run()
LOG: Closed client: /10.0.0.7:39434in MyMiddleware.run()
LOG: Closed client: /10.0.0.7:39426in MyMiddleware.run()
LOG: Closed client: /10.0.0.7:39422in MyMiddleware.run()
LOG: Closed client: /10.0.0.11:38116in MyMiddleware.run()
LOG: Closed client: /10.0.0.11:38124in MyMiddleware.run()
LOG: Closed client: /10.0.0.11:38126in MyMiddleware.run()
LOG: Closed client: /10.0.0.11:38118in MyMiddleware.run()
LOG: Closed client: /10.0.0.11:38120in MyMiddleware.run()
LOG: Closed client: /10.0.0.11:38128in MyMiddleware.run()
LOG: Closed client: /10.0.0.11:38130in MyMiddleware.run()
LOG: Closed client: /10.0.0.11:38122in MyMiddleware.run()
