------------Middleware started!------------
LOG: Waiting for connection in MyMiddleware.run()
LOG: Accepted client: /10.0.0.7:49184in MyMiddleware.run()
LOG: Accepted client: /10.0.0.7:49186in MyMiddleware.run()
LOG: Accepted client: /10.0.0.7:49182in MyMiddleware.run()
LOG: Accepted client: /10.0.0.7:49188in MyMiddleware.run()
LOG: Accepted client: /10.0.0.6:55700in MyMiddleware.run()
LOG: Accepted client: /10.0.0.6:55706in MyMiddleware.run()
LOG: Accepted client: /10.0.0.6:55702in MyMiddleware.run()
LOG: Accepted client: /10.0.0.6:55704in MyMiddleware.run()
LOG: Accepted client: /10.0.0.11:47924in MyMiddleware.run()
LOG: Accepted client: /10.0.0.11:47926in MyMiddleware.run()
LOG: Accepted client: /10.0.0.11:47930in MyMiddleware.run()
LOG: Accepted client: /10.0.0.11:47928in MyMiddleware.run()
LOG: Closed client: /10.0.0.7:49188in MyMiddleware.run()
LOG: Closed client: /10.0.0.7:49184in MyMiddleware.run()
LOG: Closed client: /10.0.0.7:49186in MyMiddleware.run()
LOG: Closed client: /10.0.0.7:49182in MyMiddleware.run()
LOG: Closed client: /10.0.0.6:55702in MyMiddleware.run()
LOG: Closed client: /10.0.0.6:55700in MyMiddleware.run()
LOG: Closed client: /10.0.0.6:55706in MyMiddleware.run()
LOG: Closed client: /10.0.0.6:55704in MyMiddleware.run()
LOG: Closed client: /10.0.0.11:47930in MyMiddleware.run()
LOG: Closed client: /10.0.0.11:47924in MyMiddleware.run()
LOG: Closed client: /10.0.0.11:47926in MyMiddleware.run()
LOG: Closed client: /10.0.0.11:47928in MyMiddleware.run()
