------------Middleware started!------------
LOG: Waiting for connection in MyMiddleware.run()
LOG: Accepted client: /10.0.0.11:37110in MyMiddleware.run()
LOG: Accepted client: /10.0.0.11:37114in MyMiddleware.run()
LOG: Accepted client: /10.0.0.11:37124in MyMiddleware.run()
LOG: Accepted client: /10.0.0.11:37120in MyMiddleware.run()
LOG: Accepted client: /10.0.0.11:37112in MyMiddleware.run()
LOG: Accepted client: /10.0.0.11:37118in MyMiddleware.run()
LOG: Accepted client: /10.0.0.11:37116in MyMiddleware.run()
LOG: Accepted client: /10.0.0.11:37122in MyMiddleware.run()
LOG: Accepted client: /10.0.0.7:38436in MyMiddleware.run()
LOG: Accepted client: /10.0.0.7:38422in MyMiddleware.run()
LOG: Accepted client: /10.0.0.7:38434in MyMiddleware.run()
LOG: Accepted client: /10.0.0.7:38432in MyMiddleware.run()
LOG: Accepted client: /10.0.0.7:38426in MyMiddleware.run()
LOG: Accepted client: /10.0.0.7:38424in MyMiddleware.run()
LOG: Accepted client: /10.0.0.7:38428in MyMiddleware.run()
LOG: Accepted client: /10.0.0.7:38430in MyMiddleware.run()
LOG: Accepted client: /10.0.0.6:44900in MyMiddleware.run()
LOG: Accepted client: /10.0.0.6:44890in MyMiddleware.run()
LOG: Accepted client: /10.0.0.6:44902in MyMiddleware.run()
LOG: Accepted client: /10.0.0.6:44904in MyMiddleware.run()
LOG: Accepted client: /10.0.0.6:44896in MyMiddleware.run()
LOG: Accepted client: /10.0.0.6:44898in MyMiddleware.run()
LOG: Accepted client: /10.0.0.6:44892in MyMiddleware.run()
LOG: Accepted client: /10.0.0.6:44894in MyMiddleware.run()
LOG: Closed client: /10.0.0.11:37120in MyMiddleware.run()
LOG: Closed client: /10.0.0.11:37124in MyMiddleware.run()
LOG: Closed client: /10.0.0.11:37116in MyMiddleware.run()
LOG: Closed client: /10.0.0.11:37110in MyMiddleware.run()
LOG: Closed client: /10.0.0.11:37118in MyMiddleware.run()
LOG: Closed client: /10.0.0.11:37122in MyMiddleware.run()
LOG: Closed client: /10.0.0.11:37112in MyMiddleware.run()
LOG: Closed client: /10.0.0.11:37114in MyMiddleware.run()
LOG: Closed client: /10.0.0.7:38436in MyMiddleware.run()
LOG: Closed client: /10.0.0.7:38430in MyMiddleware.run()
LOG: Closed client: /10.0.0.7:38432in MyMiddleware.run()
LOG: Closed client: /10.0.0.7:38428in MyMiddleware.run()
LOG: Closed client: /10.0.0.7:38426in MyMiddleware.run()
LOG: Closed client: /10.0.0.7:38434in MyMiddleware.run()
LOG: Closed client: /10.0.0.7:38424in MyMiddleware.run()
LOG: Closed client: /10.0.0.7:38422in MyMiddleware.run()
LOG: Closed client: /10.0.0.6:44898in MyMiddleware.run()
LOG: Closed client: /10.0.0.6:44902in MyMiddleware.run()
LOG: Closed client: /10.0.0.6:44890in MyMiddleware.run()
LOG: Closed client: /10.0.0.6:44904in MyMiddleware.run()
LOG: Closed client: /10.0.0.6:44900in MyMiddleware.run()
LOG: Closed client: /10.0.0.6:44892in MyMiddleware.run()
LOG: Closed client: /10.0.0.6:44896in MyMiddleware.run()
LOG: Closed client: /10.0.0.6:44894in MyMiddleware.run()
