------------Middleware started!------------
LOG: Waiting for connection in MyMiddleware.run()
LOG: Accepted client: /10.0.0.11:33768in MyMiddleware.run()
LOG: Accepted client: /10.0.0.11:33770in MyMiddleware.run()
LOG: Accepted client: /10.0.0.11:33772in MyMiddleware.run()
LOG: Accepted client: /10.0.0.11:33774in MyMiddleware.run()
LOG: Accepted client: /10.0.0.7:35078in MyMiddleware.run()
LOG: Accepted client: /10.0.0.7:35076in MyMiddleware.run()
LOG: Accepted client: /10.0.0.7:35080in MyMiddleware.run()
LOG: Accepted client: /10.0.0.7:35074in MyMiddleware.run()
LOG: Accepted client: /10.0.0.6:41552in MyMiddleware.run()
LOG: Accepted client: /10.0.0.6:41554in MyMiddleware.run()
LOG: Accepted client: /10.0.0.6:41550in MyMiddleware.run()
LOG: Accepted client: /10.0.0.6:41548in MyMiddleware.run()
LOG: Closed client: /10.0.0.11:33774in MyMiddleware.run()
LOG: Closed client: /10.0.0.11:33772in MyMiddleware.run()
LOG: Closed client: /10.0.0.11:33768in MyMiddleware.run()
LOG: Closed client: /10.0.0.11:33770in MyMiddleware.run()
LOG: Closed client: /10.0.0.7:35074in MyMiddleware.run()
LOG: Closed client: /10.0.0.7:35080in MyMiddleware.run()
LOG: Closed client: /10.0.0.7:35076in MyMiddleware.run()
LOG: Closed client: /10.0.0.7:35078in MyMiddleware.run()
LOG: Closed client: /10.0.0.6:41550in MyMiddleware.run()
LOG: Closed client: /10.0.0.6:41552in MyMiddleware.run()
LOG: Closed client: /10.0.0.6:41548in MyMiddleware.run()
LOG: Closed client: /10.0.0.6:41554in MyMiddleware.run()
