------------Middleware started!------------
LOG: Waiting for connection in MyMiddleware.run()
LOG: Accepted client: /10.0.0.7:55022in MyMiddleware.run()
LOG: Accepted client: /10.0.0.7:55032in MyMiddleware.run()
LOG: Accepted client: /10.0.0.7:55020in MyMiddleware.run()
LOG: Accepted client: /10.0.0.7:55026in MyMiddleware.run()
LOG: Accepted client: /10.0.0.7:55038in MyMiddleware.run()
LOG: Accepted client: /10.0.0.7:55010in MyMiddleware.run()
LOG: Accepted client: /10.0.0.7:55036in MyMiddleware.run()
LOG: Accepted client: /10.0.0.7:55012in MyMiddleware.run()
LOG: Accepted client: /10.0.0.7:55024in MyMiddleware.run()
LOG: Accepted client: /10.0.0.7:55016in MyMiddleware.run()
LOG: Accepted client: /10.0.0.7:55018in MyMiddleware.run()
LOG: Accepted client: /10.0.0.7:55034in MyMiddleware.run()
LOG: Accepted client: /10.0.0.7:55008in MyMiddleware.run()
LOG: Accepted client: /10.0.0.7:55014in MyMiddleware.run()
LOG: Accepted client: /10.0.0.7:55028in MyMiddleware.run()
LOG: Accepted client: /10.0.0.6:33288in MyMiddleware.run()
LOG: Accepted client: /10.0.0.7:55030in MyMiddleware.run()
LOG: Accepted client: /10.0.0.6:33332in MyMiddleware.run()
LOG: Accepted client: /10.0.0.6:33320in MyMiddleware.run()
LOG: Accepted client: /10.0.0.6:33292in MyMiddleware.run()
LOG: Accepted client: /10.0.0.6:33296in MyMiddleware.run()
LOG: Accepted client: /10.0.0.6:33290in MyMiddleware.run()
LOG: Accepted client: /10.0.0.6:33324in MyMiddleware.run()
LOG: Accepted client: /10.0.0.6:33334in MyMiddleware.run()
LOG: Accepted client: /10.0.0.6:33302in MyMiddleware.run()
LOG: Accepted client: /10.0.0.6:33328in MyMiddleware.run()
LOG: Accepted client: /10.0.0.6:33298in MyMiddleware.run()
LOG: Accepted client: /10.0.0.6:33304in MyMiddleware.run()
LOG: Accepted client: /10.0.0.6:33308in MyMiddleware.run()
LOG: Accepted client: /10.0.0.6:33316in MyMiddleware.run()
LOG: Accepted client: /10.0.0.6:33312in MyMiddleware.run()
LOG: Accepted client: /10.0.0.6:33286in MyMiddleware.run()
LOG: Accepted client: /10.0.0.11:53738in MyMiddleware.run()
LOG: Accepted client: /10.0.0.11:53736in MyMiddleware.run()
LOG: Accepted client: /10.0.0.11:53742in MyMiddleware.run()
LOG: Accepted client: /10.0.0.11:53740in MyMiddleware.run()
LOG: Accepted client: /10.0.0.11:53746in MyMiddleware.run()
LOG: Accepted client: /10.0.0.11:53758in MyMiddleware.run()
LOG: Accepted client: /10.0.0.11:53744in MyMiddleware.run()
LOG: Accepted client: /10.0.0.11:53752in MyMiddleware.run()
LOG: Accepted client: /10.0.0.11:53766in MyMiddleware.run()
LOG: Accepted client: /10.0.0.11:53750in MyMiddleware.run()
LOG: Accepted client: /10.0.0.11:53748in MyMiddleware.run()
LOG: Accepted client: /10.0.0.11:53764in MyMiddleware.run()
LOG: Accepted client: /10.0.0.11:53754in MyMiddleware.run()
LOG: Accepted client: /10.0.0.11:53756in MyMiddleware.run()
LOG: Accepted client: /10.0.0.11:53762in MyMiddleware.run()
LOG: Accepted client: /10.0.0.11:53760in MyMiddleware.run()
LOG: Closed client: /10.0.0.6:33290in MyMiddleware.run()
LOG: Closed client: /10.0.0.6:33288in MyMiddleware.run()
LOG: Closed client: /10.0.0.6:33292in MyMiddleware.run()
LOG: Closed client: /10.0.0.6:33312in MyMiddleware.run()
LOG: Closed client: /10.0.0.6:33308in MyMiddleware.run()
LOG: Closed client: /10.0.0.6:33316in MyMiddleware.run()
LOG: Closed client: /10.0.0.6:33320in MyMiddleware.run()
LOG: Closed client: /10.0.0.6:33304in MyMiddleware.run()
LOG: Closed client: /10.0.0.6:33296in MyMiddleware.run()
LOG: Closed client: /10.0.0.6:33286in MyMiddleware.run()
LOG: Closed client: /10.0.0.6:33298in MyMiddleware.run()
LOG: Closed client: /10.0.0.6:33302in MyMiddleware.run()
LOG: Closed client: /10.0.0.6:33332in MyMiddleware.run()
LOG: Closed client: /10.0.0.6:33328in MyMiddleware.run()
LOG: Closed client: /10.0.0.6:33324in MyMiddleware.run()
LOG: Closed client: /10.0.0.6:33334in MyMiddleware.run()
LOG: Closed client: /10.0.0.11:53760in MyMiddleware.run()
LOG: Closed client: /10.0.0.11:53740in MyMiddleware.run()
LOG: Closed client: /10.0.0.11:53738in MyMiddleware.run()
LOG: Closed client: /10.0.0.11:53746in MyMiddleware.run()
LOG: Closed client: /10.0.0.11:53764in MyMiddleware.run()
LOG: Closed client: /10.0.0.11:53750in MyMiddleware.run()
LOG: Closed client: /10.0.0.11:53766in MyMiddleware.run()
LOG: Closed client: /10.0.0.11:53748in MyMiddleware.run()
LOG: Closed client: /10.0.0.11:53742in MyMiddleware.run()
LOG: Closed client: /10.0.0.11:53754in MyMiddleware.run()
LOG: Closed client: /10.0.0.11:53752in MyMiddleware.run()
LOG: Closed client: /10.0.0.11:53744in MyMiddleware.run()
LOG: Closed client: /10.0.0.11:53736in MyMiddleware.run()
LOG: Closed client: /10.0.0.11:53762in MyMiddleware.run()
LOG: Closed client: /10.0.0.11:53756in MyMiddleware.run()
LOG: Closed client: /10.0.0.11:53758in MyMiddleware.run()
LOG: Closed client: /10.0.0.7:55026in MyMiddleware.run()
LOG: Closed client: /10.0.0.7:55022in MyMiddleware.run()
LOG: Closed client: /10.0.0.7:55028in MyMiddleware.run()
LOG: Closed client: /10.0.0.7:55008in MyMiddleware.run()
LOG: Closed client: /10.0.0.7:55016in MyMiddleware.run()
LOG: Closed client: /10.0.0.7:55036in MyMiddleware.run()
LOG: Closed client: /10.0.0.7:55034in MyMiddleware.run()
LOG: Closed client: /10.0.0.7:55018in MyMiddleware.run()
LOG: Closed client: /10.0.0.7:55024in MyMiddleware.run()
LOG: Closed client: /10.0.0.7:55014in MyMiddleware.run()
LOG: Closed client: /10.0.0.7:55020in MyMiddleware.run()
LOG: Closed client: /10.0.0.7:55030in MyMiddleware.run()
LOG: Closed client: /10.0.0.7:55010in MyMiddleware.run()
LOG: Closed client: /10.0.0.7:55038in MyMiddleware.run()
LOG: Closed client: /10.0.0.7:55012in MyMiddleware.run()
LOG: Closed client: /10.0.0.7:55032in MyMiddleware.run()
