------------Middleware started!------------
LOG: Waiting for connection in MyMiddleware.run()
LOG: Accepted client: /10.0.0.11:51032in MyMiddleware.run()
LOG: Accepted client: /10.0.0.11:51044in MyMiddleware.run()
LOG: Accepted client: /10.0.0.11:51054in MyMiddleware.run()
LOG: Accepted client: /10.0.0.11:51060in MyMiddleware.run()
LOG: Accepted client: /10.0.0.11:51040in MyMiddleware.run()
LOG: Accepted client: /10.0.0.11:51036in MyMiddleware.run()
LOG: Accepted client: /10.0.0.11:51058in MyMiddleware.run()
LOG: Accepted client: /10.0.0.11:51048in MyMiddleware.run()
LOG: Accepted client: /10.0.0.7:52352in MyMiddleware.run()
LOG: Accepted client: /10.0.0.7:52354in MyMiddleware.run()
LOG: Accepted client: /10.0.0.7:52346in MyMiddleware.run()
LOG: Accepted client: /10.0.0.7:52344in MyMiddleware.run()
LOG: Accepted client: /10.0.0.6:58864in MyMiddleware.run()
LOG: Accepted client: /10.0.0.6:58862in MyMiddleware.run()
LOG: Accepted client: /10.0.0.6:58876in MyMiddleware.run()
LOG: Accepted client: /10.0.0.6:58874in MyMiddleware.run()
LOG: Accepted client: /10.0.0.6:58872in MyMiddleware.run()
LOG: Accepted client: /10.0.0.6:58866in MyMiddleware.run()
LOG: Accepted client: /10.0.0.7:52358in MyMiddleware.run()
LOG: Accepted client: /10.0.0.7:52356in MyMiddleware.run()
LOG: Accepted client: /10.0.0.6:58870in MyMiddleware.run()
LOG: Accepted client: /10.0.0.6:58868in MyMiddleware.run()
LOG: Accepted client: /10.0.0.7:52350in MyMiddleware.run()
LOG: Accepted client: /10.0.0.7:52348in MyMiddleware.run()
LOG: Closed client: /10.0.0.11:51054in MyMiddleware.run()
LOG: Closed client: /10.0.0.11:51048in MyMiddleware.run()
LOG: Closed client: /10.0.0.11:51040in MyMiddleware.run()
LOG: Closed client: /10.0.0.11:51044in MyMiddleware.run()
LOG: Closed client: /10.0.0.11:51060in MyMiddleware.run()
LOG: Closed client: /10.0.0.11:51058in MyMiddleware.run()
LOG: Closed client: /10.0.0.11:51032in MyMiddleware.run()
LOG: Closed client: /10.0.0.11:51036in MyMiddleware.run()
LOG: Closed client: /10.0.0.6:58862in MyMiddleware.run()
LOG: Closed client: /10.0.0.6:58868in MyMiddleware.run()
LOG: Closed client: /10.0.0.6:58866in MyMiddleware.run()
LOG: Closed client: /10.0.0.6:58872in MyMiddleware.run()
LOG: Closed client: /10.0.0.6:58874in MyMiddleware.run()
LOG: Closed client: /10.0.0.6:58876in MyMiddleware.run()
LOG: Closed client: /10.0.0.6:58864in MyMiddleware.run()
LOG: Closed client: /10.0.0.6:58870in MyMiddleware.run()
LOG: Closed client: /10.0.0.7:52344in MyMiddleware.run()
LOG: Closed client: /10.0.0.7:52358in MyMiddleware.run()
LOG: Closed client: /10.0.0.7:52356in MyMiddleware.run()
LOG: Closed client: /10.0.0.7:52346in MyMiddleware.run()
LOG: Closed client: /10.0.0.7:52352in MyMiddleware.run()
LOG: Closed client: /10.0.0.7:52350in MyMiddleware.run()
LOG: Closed client: /10.0.0.7:52354in MyMiddleware.run()
LOG: Closed client: /10.0.0.7:52348in MyMiddleware.run()
