------------Middleware started!------------
LOG: Waiting for connection in MyMiddleware.run()
LOG: Accepted client: /10.0.0.7:60852in MyMiddleware.run()
LOG: Accepted client: /10.0.0.7:60854in MyMiddleware.run()
LOG: Accepted client: /10.0.0.7:60848in MyMiddleware.run()
LOG: Accepted client: /10.0.0.7:60850in MyMiddleware.run()
LOG: Accepted client: /10.0.0.7:60846in MyMiddleware.run()
LOG: Accepted client: /10.0.0.6:39172in MyMiddleware.run()
LOG: Accepted client: /10.0.0.6:39166in MyMiddleware.run()
LOG: Accepted client: /10.0.0.6:39214in MyMiddleware.run()
LOG: Accepted client: /10.0.0.7:60856in MyMiddleware.run()
LOG: Accepted client: /10.0.0.7:60858in MyMiddleware.run()
LOG: Accepted client: /10.0.0.6:39180in MyMiddleware.run()
LOG: Accepted client: /10.0.0.6:39200in MyMiddleware.run()
LOG: Accepted client: /10.0.0.6:39154in MyMiddleware.run()
LOG: Accepted client: /10.0.0.6:39188in MyMiddleware.run()
LOG: Accepted client: /10.0.0.6:39190in MyMiddleware.run()
LOG: Accepted client: /10.0.0.6:39192in MyMiddleware.run()
LOG: Accepted client: /10.0.0.6:39162in MyMiddleware.run()
LOG: Accepted client: /10.0.0.6:39194in MyMiddleware.run()
LOG: Accepted client: /10.0.0.7:60860in MyMiddleware.run()
LOG: Accepted client: /10.0.0.6:39152in MyMiddleware.run()
LOG: Accepted client: /10.0.0.6:39156in MyMiddleware.run()
LOG: Accepted client: /10.0.0.6:39208in MyMiddleware.run()
LOG: Accepted client: /10.0.0.6:39178in MyMiddleware.run()
LOG: Accepted client: /10.0.0.6:39182in MyMiddleware.run()
LOG: Accepted client: /10.0.0.6:39174in MyMiddleware.run()
LOG: Accepted client: /10.0.0.6:39160in MyMiddleware.run()
LOG: Accepted client: /10.0.0.6:39210in MyMiddleware.run()
LOG: Accepted client: /10.0.0.6:39202in MyMiddleware.run()
LOG: Accepted client: /10.0.0.6:39164in MyMiddleware.run()
LOG: Accepted client: /10.0.0.6:39170in MyMiddleware.run()
LOG: Accepted client: /10.0.0.6:39212in MyMiddleware.run()
LOG: Accepted client: /10.0.0.6:39168in MyMiddleware.run()
LOG: Accepted client: /10.0.0.6:39198in MyMiddleware.run()
LOG: Accepted client: /10.0.0.6:39196in MyMiddleware.run()
LOG: Accepted client: /10.0.0.7:60940in MyMiddleware.run()
LOG: Accepted client: /10.0.0.6:39204in MyMiddleware.run()
LOG: Accepted client: /10.0.0.6:39176in MyMiddleware.run()
LOG: Accepted client: /10.0.0.6:39186in MyMiddleware.run()
LOG: Accepted client: /10.0.0.6:39184in MyMiddleware.run()
LOG: Accepted client: /10.0.0.6:39206in MyMiddleware.run()
LOG: Accepted client: /10.0.0.6:39158in MyMiddleware.run()
LOG: Accepted client: /10.0.0.7:60942in MyMiddleware.run()
LOG: Accepted client: /10.0.0.7:60946in MyMiddleware.run()
LOG: Accepted client: /10.0.0.7:60948in MyMiddleware.run()
LOG: Accepted client: /10.0.0.7:60944in MyMiddleware.run()
LOG: Accepted client: /10.0.0.7:60950in MyMiddleware.run()
LOG: Accepted client: /10.0.0.7:60968in MyMiddleware.run()
LOG: Accepted client: /10.0.0.7:60970in MyMiddleware.run()
LOG: Accepted client: /10.0.0.7:60936in MyMiddleware.run()
LOG: Accepted client: /10.0.0.7:60862in MyMiddleware.run()
LOG: Accepted client: /10.0.0.7:60954in MyMiddleware.run()
LOG: Accepted client: /10.0.0.7:60932in MyMiddleware.run()
LOG: Accepted client: /10.0.0.7:60964in MyMiddleware.run()
LOG: Accepted client: /10.0.0.7:60938in MyMiddleware.run()
LOG: Accepted client: /10.0.0.7:60956in MyMiddleware.run()
LOG: Accepted client: /10.0.0.7:60960in MyMiddleware.run()
LOG: Accepted client: /10.0.0.7:60952in MyMiddleware.run()
LOG: Accepted client: /10.0.0.7:60972in MyMiddleware.run()
LOG: Accepted client: /10.0.0.7:60966in MyMiddleware.run()
LOG: Accepted client: /10.0.0.7:60928in MyMiddleware.run()
LOG: Accepted client: /10.0.0.7:60930in MyMiddleware.run()
LOG: Accepted client: /10.0.0.7:60934in MyMiddleware.run()
LOG: Accepted client: /10.0.0.7:60962in MyMiddleware.run()
LOG: Accepted client: /10.0.0.7:60958in MyMiddleware.run()
LOG: Accepted client: /10.0.0.11:59660in MyMiddleware.run()
LOG: Accepted client: /10.0.0.11:59658in MyMiddleware.run()
LOG: Accepted client: /10.0.0.11:59608in MyMiddleware.run()
LOG: Accepted client: /10.0.0.11:59614in MyMiddleware.run()
LOG: Accepted client: /10.0.0.11:59636in MyMiddleware.run()
LOG: Accepted client: /10.0.0.11:59612in MyMiddleware.run()
LOG: Accepted client: /10.0.0.11:59664in MyMiddleware.run()
LOG: Accepted client: /10.0.0.11:59644in MyMiddleware.run()
LOG: Accepted client: /10.0.0.11:59610in MyMiddleware.run()
LOG: Accepted client: /10.0.0.11:59646in MyMiddleware.run()
LOG: Accepted client: /10.0.0.11:59662in MyMiddleware.run()
LOG: Accepted client: /10.0.0.11:59626in MyMiddleware.run()
LOG: Accepted client: /10.0.0.11:59650in MyMiddleware.run()
LOG: Accepted client: /10.0.0.11:59618in MyMiddleware.run()
LOG: Accepted client: /10.0.0.11:59640in MyMiddleware.run()
LOG: Accepted client: /10.0.0.11:59648in MyMiddleware.run()
LOG: Accepted client: /10.0.0.11:59616in MyMiddleware.run()
LOG: Accepted client: /10.0.0.11:59624in MyMiddleware.run()
LOG: Accepted client: /10.0.0.11:59604in MyMiddleware.run()
LOG: Accepted client: /10.0.0.11:59630in MyMiddleware.run()
LOG: Accepted client: /10.0.0.11:59666in MyMiddleware.run()
LOG: Accepted client: /10.0.0.11:59628in MyMiddleware.run()
LOG: Accepted client: /10.0.0.11:59654in MyMiddleware.run()
LOG: Accepted client: /10.0.0.11:59634in MyMiddleware.run()
LOG: Accepted client: /10.0.0.11:59622in MyMiddleware.run()
LOG: Accepted client: /10.0.0.11:59620in MyMiddleware.run()
LOG: Accepted client: /10.0.0.11:59656in MyMiddleware.run()
LOG: Accepted client: /10.0.0.11:59638in MyMiddleware.run()
LOG: Accepted client: /10.0.0.11:59632in MyMiddleware.run()
LOG: Accepted client: /10.0.0.11:59652in MyMiddleware.run()
LOG: Accepted client: /10.0.0.11:59606in MyMiddleware.run()
LOG: Accepted client: /10.0.0.11:59642in MyMiddleware.run()
LOG: Closed client: /10.0.0.7:60942in MyMiddleware.run()
LOG: Closed client: /10.0.0.7:60944in MyMiddleware.run()
LOG: Closed client: /10.0.0.7:60858in MyMiddleware.run()
LOG: Closed client: /10.0.0.7:60846in MyMiddleware.run()
LOG: Closed client: /10.0.0.7:60936in MyMiddleware.run()
LOG: Closed client: /10.0.0.7:60862in MyMiddleware.run()
LOG: Closed client: /10.0.0.7:60854in MyMiddleware.run()
LOG: Closed client: /10.0.0.7:60962in MyMiddleware.run()
LOG: Closed client: /10.0.0.7:60950in MyMiddleware.run()
LOG: Closed client: /10.0.0.7:60860in MyMiddleware.run()
LOG: Closed client: /10.0.0.7:60948in MyMiddleware.run()
LOG: Closed client: /10.0.0.7:60966in MyMiddleware.run()
LOG: Closed client: /10.0.0.7:60940in MyMiddleware.run()
LOG: Closed client: /10.0.0.7:60848in MyMiddleware.run()
LOG: Closed client: /10.0.0.7:60930in MyMiddleware.run()
LOG: Closed client: /10.0.0.7:60958in MyMiddleware.run()
LOG: Closed client: /10.0.0.7:60850in MyMiddleware.run()
LOG: Closed client: /10.0.0.7:60934in MyMiddleware.run()
LOG: Closed client: /10.0.0.7:60856in MyMiddleware.run()
LOG: Closed client: /10.0.0.7:60954in MyMiddleware.run()
LOG: Closed client: /10.0.0.7:60932in MyMiddleware.run()
LOG: Closed client: /10.0.0.7:60960in MyMiddleware.run()
LOG: Closed client: /10.0.0.7:60852in MyMiddleware.run()
LOG: Closed client: /10.0.0.7:60964in MyMiddleware.run()
LOG: Closed client: /10.0.0.7:60952in MyMiddleware.run()
LOG: Closed client: /10.0.0.7:60938in MyMiddleware.run()
LOG: Closed client: /10.0.0.7:60956in MyMiddleware.run()
LOG: Closed client: /10.0.0.7:60946in MyMiddleware.run()
LOG: Closed client: /10.0.0.7:60968in MyMiddleware.run()
LOG: Closed client: /10.0.0.7:60928in MyMiddleware.run()
LOG: Closed client: /10.0.0.7:60970in MyMiddleware.run()
LOG: Closed client: /10.0.0.7:60972in MyMiddleware.run()
LOG: Closed client: /10.0.0.6:39152in MyMiddleware.run()
LOG: Closed client: /10.0.0.6:39154in MyMiddleware.run()
LOG: Closed client: /10.0.0.6:39168in MyMiddleware.run()
LOG: Closed client: /10.0.0.6:39170in MyMiddleware.run()
LOG: Closed client: /10.0.0.6:39184in MyMiddleware.run()
LOG: Closed client: /10.0.0.6:39176in MyMiddleware.run()
LOG: Closed client: /10.0.0.6:39160in MyMiddleware.run()
LOG: Closed client: /10.0.0.6:39180in MyMiddleware.run()
LOG: Closed client: /10.0.0.6:39166in MyMiddleware.run()
LOG: Closed client: /10.0.0.6:39186in MyMiddleware.run()
LOG: Closed client: /10.0.0.6:39182in MyMiddleware.run()
LOG: Closed client: /10.0.0.6:39164in MyMiddleware.run()
LOG: Closed client: /10.0.0.6:39178in MyMiddleware.run()
LOG: Closed client: /10.0.0.6:39158in MyMiddleware.run()
LOG: Closed client: /10.0.0.6:39172in MyMiddleware.run()
LOG: Closed client: /10.0.0.6:39162in MyMiddleware.run()
LOG: Closed client: /10.0.0.6:39156in MyMiddleware.run()
LOG: Closed client: /10.0.0.6:39174in MyMiddleware.run()
LOG: Closed client: /10.0.0.6:39204in MyMiddleware.run()
LOG: Closed client: /10.0.0.6:39212in MyMiddleware.run()
LOG: Closed client: /10.0.0.6:39206in MyMiddleware.run()
LOG: Closed client: /10.0.0.6:39214in MyMiddleware.run()
LOG: Closed client: /10.0.0.6:39198in MyMiddleware.run()
LOG: Closed client: /10.0.0.6:39202in MyMiddleware.run()
LOG: Closed client: /10.0.0.6:39210in MyMiddleware.run()
LOG: Closed client: /10.0.0.6:39208in MyMiddleware.run()
LOG: Closed client: /10.0.0.6:39196in MyMiddleware.run()
LOG: Closed client: /10.0.0.6:39200in MyMiddleware.run()
LOG: Closed client: /10.0.0.6:39190in MyMiddleware.run()
LOG: Closed client: /10.0.0.6:39188in MyMiddleware.run()
LOG: Closed client: /10.0.0.6:39192in MyMiddleware.run()
LOG: Closed client: /10.0.0.6:39194in MyMiddleware.run()
LOG: Closed client: /10.0.0.11:59648in MyMiddleware.run()
LOG: Closed client: /10.0.0.11:59644in MyMiddleware.run()
LOG: Closed client: /10.0.0.11:59612in MyMiddleware.run()
LOG: Closed client: /10.0.0.11:59620in MyMiddleware.run()
LOG: Closed client: /10.0.0.11:59640in MyMiddleware.run()
LOG: Closed client: /10.0.0.11:59626in MyMiddleware.run()
LOG: Closed client: /10.0.0.11:59638in MyMiddleware.run()
LOG: Closed client: /10.0.0.11:59630in MyMiddleware.run()
LOG: Closed client: /10.0.0.11:59618in MyMiddleware.run()
LOG: Closed client: /10.0.0.11:59632in MyMiddleware.run()
LOG: Closed client: /10.0.0.11:59622in MyMiddleware.run()
LOG: Closed client: /10.0.0.11:59646in MyMiddleware.run()
LOG: Closed client: /10.0.0.11:59604in MyMiddleware.run()
LOG: Closed client: /10.0.0.11:59608in MyMiddleware.run()
LOG: Closed client: /10.0.0.11:59624in MyMiddleware.run()
LOG: Closed client: /10.0.0.11:59628in MyMiddleware.run()
LOG: Closed client: /10.0.0.11:59636in MyMiddleware.run()
LOG: Closed client: /10.0.0.11:59614in MyMiddleware.run()
LOG: Closed client: /10.0.0.11:59616in MyMiddleware.run()
LOG: Closed client: /10.0.0.11:59642in MyMiddleware.run()
LOG: Closed client: /10.0.0.11:59634in MyMiddleware.run()
LOG: Closed client: /10.0.0.11:59606in MyMiddleware.run()
LOG: Closed client: /10.0.0.11:59610in MyMiddleware.run()
LOG: Closed client: /10.0.0.11:59656in MyMiddleware.run()
LOG: Closed client: /10.0.0.11:59650in MyMiddleware.run()
LOG: Closed client: /10.0.0.11:59652in MyMiddleware.run()
LOG: Closed client: /10.0.0.11:59654in MyMiddleware.run()
LOG: Closed client: /10.0.0.11:59658in MyMiddleware.run()
LOG: Closed client: /10.0.0.11:59662in MyMiddleware.run()
LOG: Closed client: /10.0.0.11:59660in MyMiddleware.run()
LOG: Closed client: /10.0.0.11:59664in MyMiddleware.run()
LOG: Closed client: /10.0.0.11:59666in MyMiddleware.run()
