------------Middleware started!------------
LOG: Waiting for connection in MyMiddleware.run()
LOG: Accepted client: /10.0.0.11:57360in MyMiddleware.run()
LOG: Accepted client: /10.0.0.11:57350in MyMiddleware.run()
LOG: Accepted client: /10.0.0.11:57368in MyMiddleware.run()
LOG: Accepted client: /10.0.0.11:57352in MyMiddleware.run()
LOG: Accepted client: /10.0.0.11:57382in MyMiddleware.run()
LOG: Accepted client: /10.0.0.11:57354in MyMiddleware.run()
LOG: Accepted client: /10.0.0.11:57388in MyMiddleware.run()
LOG: Accepted client: /10.0.0.11:57400in MyMiddleware.run()
LOG: Accepted client: /10.0.0.11:57402in MyMiddleware.run()
LOG: Accepted client: /10.0.0.11:57374in MyMiddleware.run()
LOG: Accepted client: /10.0.0.11:57364in MyMiddleware.run()
LOG: Accepted client: /10.0.0.11:57394in MyMiddleware.run()
LOG: Accepted client: /10.0.0.11:57406in MyMiddleware.run()
LOG: Accepted client: /10.0.0.11:57404in MyMiddleware.run()
LOG: Accepted client: /10.0.0.11:57386in MyMiddleware.run()
LOG: Accepted client: /10.0.0.11:57380in MyMiddleware.run()
LOG: Accepted client: /10.0.0.11:57410in MyMiddleware.run()
LOG: Accepted client: /10.0.0.11:57378in MyMiddleware.run()
LOG: Accepted client: /10.0.0.11:57362in MyMiddleware.run()
LOG: Accepted client: /10.0.0.11:57408in MyMiddleware.run()
LOG: Accepted client: /10.0.0.11:57366in MyMiddleware.run()
LOG: Accepted client: /10.0.0.11:57396in MyMiddleware.run()
LOG: Accepted client: /10.0.0.11:57376in MyMiddleware.run()
LOG: Accepted client: /10.0.0.11:57358in MyMiddleware.run()
LOG: Accepted client: /10.0.0.11:57398in MyMiddleware.run()
LOG: Accepted client: /10.0.0.11:57370in MyMiddleware.run()
LOG: Accepted client: /10.0.0.11:57384in MyMiddleware.run()
LOG: Accepted client: /10.0.0.11:57348in MyMiddleware.run()
LOG: Accepted client: /10.0.0.11:57356in MyMiddleware.run()
LOG: Accepted client: /10.0.0.11:57390in MyMiddleware.run()
LOG: Accepted client: /10.0.0.11:57372in MyMiddleware.run()
LOG: Accepted client: /10.0.0.11:57392in MyMiddleware.run()
LOG: Accepted client: /10.0.0.7:58736in MyMiddleware.run()
LOG: Accepted client: /10.0.0.7:58738in MyMiddleware.run()
LOG: Accepted client: /10.0.0.7:58764in MyMiddleware.run()
LOG: Accepted client: /10.0.0.7:58726in MyMiddleware.run()
LOG: Accepted client: /10.0.0.7:58776in MyMiddleware.run()
LOG: Accepted client: /10.0.0.7:58770in MyMiddleware.run()
LOG: Accepted client: /10.0.0.7:58782in MyMiddleware.run()
LOG: Accepted client: /10.0.0.7:58754in MyMiddleware.run()
LOG: Accepted client: /10.0.0.7:58778in MyMiddleware.run()
LOG: Accepted client: /10.0.0.7:58780in MyMiddleware.run()
LOG: Accepted client: /10.0.0.7:58786in MyMiddleware.run()
LOG: Accepted client: /10.0.0.7:58752in MyMiddleware.run()
LOG: Accepted client: /10.0.0.7:58784in MyMiddleware.run()
LOG: Accepted client: /10.0.0.7:58750in MyMiddleware.run()
LOG: Accepted client: /10.0.0.7:58748in MyMiddleware.run()
LOG: Accepted client: /10.0.0.7:58746in MyMiddleware.run()
LOG: Accepted client: /10.0.0.7:58744in MyMiddleware.run()
LOG: Accepted client: /10.0.0.7:58758in MyMiddleware.run()
LOG: Accepted client: /10.0.0.7:58756in MyMiddleware.run()
LOG: Accepted client: /10.0.0.7:58788in MyMiddleware.run()
LOG: Accepted client: /10.0.0.7:58774in MyMiddleware.run()
LOG: Accepted client: /10.0.0.7:58760in MyMiddleware.run()
LOG: Accepted client: /10.0.0.7:58772in MyMiddleware.run()
LOG: Accepted client: /10.0.0.7:58740in MyMiddleware.run()
LOG: Accepted client: /10.0.0.7:58766in MyMiddleware.run()
LOG: Accepted client: /10.0.0.7:58742in MyMiddleware.run()
LOG: Accepted client: /10.0.0.7:58762in MyMiddleware.run()
LOG: Accepted client: /10.0.0.7:58730in MyMiddleware.run()
LOG: Accepted client: /10.0.0.7:58728in MyMiddleware.run()
LOG: Accepted client: /10.0.0.7:58768in MyMiddleware.run()
LOG: Accepted client: /10.0.0.7:58734in MyMiddleware.run()
LOG: Accepted client: /10.0.0.7:58732in MyMiddleware.run()
LOG: Accepted client: /10.0.0.6:36970in MyMiddleware.run()
LOG: Accepted client: /10.0.0.6:36984in MyMiddleware.run()
LOG: Accepted client: /10.0.0.6:36992in MyMiddleware.run()
LOG: Accepted client: /10.0.0.6:36998in MyMiddleware.run()
LOG: Accepted client: /10.0.0.6:37030in MyMiddleware.run()
LOG: Accepted client: /10.0.0.6:37024in MyMiddleware.run()
LOG: Accepted client: /10.0.0.6:37020in MyMiddleware.run()
LOG: Accepted client: /10.0.0.6:36994in MyMiddleware.run()
LOG: Accepted client: /10.0.0.6:37016in MyMiddleware.run()
LOG: Accepted client: /10.0.0.6:36988in MyMiddleware.run()
LOG: Accepted client: /10.0.0.6:36986in MyMiddleware.run()
LOG: Accepted client: /10.0.0.6:36976in MyMiddleware.run()
LOG: Accepted client: /10.0.0.6:37018in MyMiddleware.run()
LOG: Accepted client: /10.0.0.6:36978in MyMiddleware.run()
LOG: Accepted client: /10.0.0.6:37002in MyMiddleware.run()
LOG: Accepted client: /10.0.0.6:36996in MyMiddleware.run()
LOG: Accepted client: /10.0.0.6:36974in MyMiddleware.run()
LOG: Accepted client: /10.0.0.6:37012in MyMiddleware.run()
LOG: Accepted client: /10.0.0.6:36968in MyMiddleware.run()
LOG: Accepted client: /10.0.0.6:36990in MyMiddleware.run()
LOG: Accepted client: /10.0.0.6:37028in MyMiddleware.run()
LOG: Accepted client: /10.0.0.6:36972in MyMiddleware.run()
LOG: Accepted client: /10.0.0.6:37014in MyMiddleware.run()
LOG: Accepted client: /10.0.0.6:37000in MyMiddleware.run()
LOG: Accepted client: /10.0.0.6:37022in MyMiddleware.run()
LOG: Accepted client: /10.0.0.6:37010in MyMiddleware.run()
LOG: Accepted client: /10.0.0.6:37004in MyMiddleware.run()
LOG: Accepted client: /10.0.0.6:37026in MyMiddleware.run()
LOG: Accepted client: /10.0.0.6:37008in MyMiddleware.run()
LOG: Accepted client: /10.0.0.6:36982in MyMiddleware.run()
LOG: Accepted client: /10.0.0.6:37006in MyMiddleware.run()
LOG: Accepted client: /10.0.0.6:36980in MyMiddleware.run()
LOG: Closed client: /10.0.0.11:57348in MyMiddleware.run()
LOG: Closed client: /10.0.0.11:57396in MyMiddleware.run()
LOG: Closed client: /10.0.0.11:57352in MyMiddleware.run()
LOG: Closed client: /10.0.0.11:57380in MyMiddleware.run()
LOG: Closed client: /10.0.0.11:57406in MyMiddleware.run()
LOG: Closed client: /10.0.0.11:57374in MyMiddleware.run()
LOG: Closed client: /10.0.0.11:57384in MyMiddleware.run()
LOG: Closed client: /10.0.0.11:57408in MyMiddleware.run()
LOG: Closed client: /10.0.0.11:57368in MyMiddleware.run()
LOG: Closed client: /10.0.0.11:57372in MyMiddleware.run()
LOG: Closed client: /10.0.0.11:57388in MyMiddleware.run()
LOG: Closed client: /10.0.0.11:57370in MyMiddleware.run()
LOG: Closed client: /10.0.0.11:57364in MyMiddleware.run()
LOG: Closed client: /10.0.0.11:57390in MyMiddleware.run()
LOG: Closed client: /10.0.0.11:57402in MyMiddleware.run()
LOG: Closed client: /10.0.0.11:57404in MyMiddleware.run()
LOG: Closed client: /10.0.0.11:57376in MyMiddleware.run()
LOG: Closed client: /10.0.0.11:57358in MyMiddleware.run()
LOG: Closed client: /10.0.0.11:57362in MyMiddleware.run()
LOG: Closed client: /10.0.0.11:57360in MyMiddleware.run()
LOG: Closed client: /10.0.0.11:57386in MyMiddleware.run()
LOG: Closed client: /10.0.0.11:57400in MyMiddleware.run()
LOG: Closed client: /10.0.0.11:57366in MyMiddleware.run()
LOG: Closed client: /10.0.0.11:57392in MyMiddleware.run()
LOG: Closed client: /10.0.0.11:57398in MyMiddleware.run()
LOG: Closed client: /10.0.0.11:57378in MyMiddleware.run()
LOG: Closed client: /10.0.0.11:57410in MyMiddleware.run()
LOG: Closed client: /10.0.0.11:57356in MyMiddleware.run()
LOG: Closed client: /10.0.0.11:57394in MyMiddleware.run()
LOG: Closed client: /10.0.0.11:57354in MyMiddleware.run()
LOG: Closed client: /10.0.0.11:57382in MyMiddleware.run()
LOG: Closed client: /10.0.0.11:57350in MyMiddleware.run()
LOG: Closed client: /10.0.0.7:58728in MyMiddleware.run()
LOG: Closed client: /10.0.0.7:58746in MyMiddleware.run()
LOG: Closed client: /10.0.0.7:58744in MyMiddleware.run()
LOG: Closed client: /10.0.0.7:58738in MyMiddleware.run()
LOG: Closed client: /10.0.0.7:58726in MyMiddleware.run()
LOG: Closed client: /10.0.0.7:58736in MyMiddleware.run()
LOG: Closed client: /10.0.0.7:58752in MyMiddleware.run()
LOG: Closed client: /10.0.0.7:58780in MyMiddleware.run()
LOG: Closed client: /10.0.0.7:58768in MyMiddleware.run()
LOG: Closed client: /10.0.0.7:58786in MyMiddleware.run()
LOG: Closed client: /10.0.0.7:58742in MyMiddleware.run()
LOG: Closed client: /10.0.0.7:58788in MyMiddleware.run()
LOG: Closed client: /10.0.0.7:58740in MyMiddleware.run()
LOG: Closed client: /10.0.0.7:58784in MyMiddleware.run()
LOG: Closed client: /10.0.0.7:58782in MyMiddleware.run()
LOG: Closed client: /10.0.0.7:58760in MyMiddleware.run()
LOG: Closed client: /10.0.0.7:58748in MyMiddleware.run()
LOG: Closed client: /10.0.0.7:58770in MyMiddleware.run()
LOG: Closed client: /10.0.0.7:58750in MyMiddleware.run()
LOG: Closed client: /10.0.0.7:58758in MyMiddleware.run()
LOG: Closed client: /10.0.0.7:58778in MyMiddleware.run()
LOG: Closed client: /10.0.0.7:58764in MyMiddleware.run()
LOG: Closed client: /10.0.0.7:58734in MyMiddleware.run()
LOG: Closed client: /10.0.0.7:58774in MyMiddleware.run()
LOG: Closed client: /10.0.0.7:58776in MyMiddleware.run()
LOG: Closed client: /10.0.0.7:58762in MyMiddleware.run()
LOG: Closed client: /10.0.0.7:58772in MyMiddleware.run()
LOG: Closed client: /10.0.0.7:58766in MyMiddleware.run()
LOG: Closed client: /10.0.0.7:58756in MyMiddleware.run()
LOG: Closed client: /10.0.0.7:58754in MyMiddleware.run()
LOG: Closed client: /10.0.0.7:58730in MyMiddleware.run()
LOG: Closed client: /10.0.0.7:58732in MyMiddleware.run()
LOG: Closed client: /10.0.0.6:36980in MyMiddleware.run()
LOG: Closed client: /10.0.0.6:36982in MyMiddleware.run()
LOG: Closed client: /10.0.0.6:36990in MyMiddleware.run()
LOG: Closed client: /10.0.0.6:37012in MyMiddleware.run()
LOG: Closed client: /10.0.0.6:36994in MyMiddleware.run()
LOG: Closed client: /10.0.0.6:37004in MyMiddleware.run()
LOG: Closed client: /10.0.0.6:36986in MyMiddleware.run()
LOG: Closed client: /10.0.0.6:37000in MyMiddleware.run()
LOG: Closed client: /10.0.0.6:37010in MyMiddleware.run()
LOG: Closed client: /10.0.0.6:37020in MyMiddleware.run()
LOG: Closed client: /10.0.0.6:36978in MyMiddleware.run()
LOG: Closed client: /10.0.0.6:37022in MyMiddleware.run()
LOG: Closed client: /10.0.0.6:37014in MyMiddleware.run()
LOG: Closed client: /10.0.0.6:37016in MyMiddleware.run()
LOG: Closed client: /10.0.0.6:36972in MyMiddleware.run()
LOG: Closed client: /10.0.0.6:36976in MyMiddleware.run()
LOG: Closed client: /10.0.0.6:37006in MyMiddleware.run()
LOG: Closed client: /10.0.0.6:37002in MyMiddleware.run()
LOG: Closed client: /10.0.0.6:36988in MyMiddleware.run()
LOG: Closed client: /10.0.0.6:37018in MyMiddleware.run()
LOG: Closed client: /10.0.0.6:36968in MyMiddleware.run()
LOG: Closed client: /10.0.0.6:37024in MyMiddleware.run()
LOG: Closed client: /10.0.0.6:37026in MyMiddleware.run()
LOG: Closed client: /10.0.0.6:36998in MyMiddleware.run()
LOG: Closed client: /10.0.0.6:36974in MyMiddleware.run()
LOG: Closed client: /10.0.0.6:36996in MyMiddleware.run()
LOG: Closed client: /10.0.0.6:36970in MyMiddleware.run()
LOG: Closed client: /10.0.0.6:37030in MyMiddleware.run()
LOG: Closed client: /10.0.0.6:37008in MyMiddleware.run()
LOG: Closed client: /10.0.0.6:36984in MyMiddleware.run()
LOG: Closed client: /10.0.0.6:36992in MyMiddleware.run()
LOG: Closed client: /10.0.0.6:37028in MyMiddleware.run()
