------------Middleware started!------------
LOG: Waiting for connection in MyMiddleware.run()
LOG: Accepted client: /10.0.0.11:40658in MyMiddleware.run()
LOG: Accepted client: /10.0.0.11:40662in MyMiddleware.run()
LOG: Accepted client: /10.0.0.11:40682in MyMiddleware.run()
LOG: Accepted client: /10.0.0.11:40664in MyMiddleware.run()
LOG: Accepted client: /10.0.0.11:40666in MyMiddleware.run()
LOG: Accepted client: /10.0.0.11:40670in MyMiddleware.run()
LOG: Accepted client: /10.0.0.11:40672in MyMiddleware.run()
LOG: Accepted client: /10.0.0.11:40676in MyMiddleware.run()
LOG: Accepted client: /10.0.0.11:40668in MyMiddleware.run()
LOG: Accepted client: /10.0.0.11:40656in MyMiddleware.run()
LOG: Accepted client: /10.0.0.11:40674in MyMiddleware.run()
LOG: Accepted client: /10.0.0.11:40684in MyMiddleware.run()
LOG: Accepted client: /10.0.0.11:40678in MyMiddleware.run()
LOG: Accepted client: /10.0.0.11:40686in MyMiddleware.run()
LOG: Accepted client: /10.0.0.11:40680in MyMiddleware.run()
LOG: Accepted client: /10.0.0.11:40660in MyMiddleware.run()
LOG: Accepted client: /10.0.0.6:48512in MyMiddleware.run()
LOG: Accepted client: /10.0.0.7:42000in MyMiddleware.run()
LOG: Accepted client: /10.0.0.6:48506in MyMiddleware.run()
LOG: Accepted client: /10.0.0.7:42010in MyMiddleware.run()
LOG: Accepted client: /10.0.0.6:48522in MyMiddleware.run()
LOG: Accepted client: /10.0.0.7:42008in MyMiddleware.run()
LOG: Accepted client: /10.0.0.6:48520in MyMiddleware.run()
LOG: Accepted client: /10.0.0.7:42002in MyMiddleware.run()
LOG: Accepted client: /10.0.0.7:41988in MyMiddleware.run()
LOG: Accepted client: /10.0.0.7:41990in MyMiddleware.run()
LOG: Accepted client: /10.0.0.6:48498in MyMiddleware.run()
LOG: Accepted client: /10.0.0.6:48496in MyMiddleware.run()
LOG: Accepted client: /10.0.0.6:48524in MyMiddleware.run()
LOG: Accepted client: /10.0.0.7:42012in MyMiddleware.run()
LOG: Accepted client: /10.0.0.7:41992in MyMiddleware.run()
LOG: Accepted client: /10.0.0.7:41994in MyMiddleware.run()
LOG: Accepted client: /10.0.0.7:41986in MyMiddleware.run()
LOG: Accepted client: /10.0.0.7:42014in MyMiddleware.run()
LOG: Accepted client: /10.0.0.7:42006in MyMiddleware.run()
LOG: Accepted client: /10.0.0.7:42004in MyMiddleware.run()
LOG: Accepted client: /10.0.0.6:48494in MyMiddleware.run()
LOG: Accepted client: /10.0.0.6:48502in MyMiddleware.run()
LOG: Accepted client: /10.0.0.6:48500in MyMiddleware.run()
LOG: Accepted client: /10.0.0.7:42016in MyMiddleware.run()
LOG: Accepted client: /10.0.0.7:41998in MyMiddleware.run()
LOG: Accepted client: /10.0.0.7:41996in MyMiddleware.run()
LOG: Accepted client: /10.0.0.6:48514in MyMiddleware.run()
LOG: Accepted client: /10.0.0.6:48508in MyMiddleware.run()
LOG: Accepted client: /10.0.0.6:48504in MyMiddleware.run()
LOG: Accepted client: /10.0.0.6:48516in MyMiddleware.run()
LOG: Accepted client: /10.0.0.6:48518in MyMiddleware.run()
LOG: Accepted client: /10.0.0.6:48510in MyMiddleware.run()
LOG: Closed client: /10.0.0.11:40656in MyMiddleware.run()
LOG: Closed client: /10.0.0.11:40672in MyMiddleware.run()
LOG: Closed client: /10.0.0.11:40664in MyMiddleware.run()
LOG: Closed client: /10.0.0.11:40682in MyMiddleware.run()
LOG: Closed client: /10.0.0.11:40660in MyMiddleware.run()
LOG: Closed client: /10.0.0.11:40662in MyMiddleware.run()
LOG: Closed client: /10.0.0.11:40668in MyMiddleware.run()
LOG: Closed client: /10.0.0.11:40680in MyMiddleware.run()
LOG: Closed client: /10.0.0.11:40678in MyMiddleware.run()
LOG: Closed client: /10.0.0.11:40676in MyMiddleware.run()
LOG: Closed client: /10.0.0.11:40670in MyMiddleware.run()
LOG: Closed client: /10.0.0.11:40666in MyMiddleware.run()
LOG: Closed client: /10.0.0.11:40658in MyMiddleware.run()
LOG: Closed client: /10.0.0.11:40686in MyMiddleware.run()
LOG: Closed client: /10.0.0.11:40674in MyMiddleware.run()
LOG: Closed client: /10.0.0.11:40684in MyMiddleware.run()
LOG: Closed client: /10.0.0.7:42006in MyMiddleware.run()
LOG: Closed client: /10.0.0.7:42000in MyMiddleware.run()
LOG: Closed client: /10.0.0.7:41994in MyMiddleware.run()
LOG: Closed client: /10.0.0.7:42004in MyMiddleware.run()
LOG: Closed client: /10.0.0.7:42012in MyMiddleware.run()
LOG: Closed client: /10.0.0.7:41992in MyMiddleware.run()
LOG: Closed client: /10.0.0.7:42010in MyMiddleware.run()
LOG: Closed client: /10.0.0.7:41998in MyMiddleware.run()
LOG: Closed client: /10.0.0.7:42016in MyMiddleware.run()
LOG: Closed client: /10.0.0.7:41986in MyMiddleware.run()
LOG: Closed client: /10.0.0.7:41996in MyMiddleware.run()
LOG: Closed client: /10.0.0.7:42008in MyMiddleware.run()
LOG: Closed client: /10.0.0.7:42014in MyMiddleware.run()
LOG: Closed client: /10.0.0.7:41990in MyMiddleware.run()
LOG: Closed client: /10.0.0.7:41988in MyMiddleware.run()
LOG: Closed client: /10.0.0.7:42002in MyMiddleware.run()
LOG: Closed client: /10.0.0.6:48502in MyMiddleware.run()
LOG: Closed client: /10.0.0.6:48510in MyMiddleware.run()
LOG: Closed client: /10.0.0.6:48520in MyMiddleware.run()
LOG: Closed client: /10.0.0.6:48500in MyMiddleware.run()
LOG: Closed client: /10.0.0.6:48516in MyMiddleware.run()
LOG: Closed client: /10.0.0.6:48506in MyMiddleware.run()
LOG: Closed client: /10.0.0.6:48508in MyMiddleware.run()
LOG: Closed client: /10.0.0.6:48522in MyMiddleware.run()
LOG: Closed client: /10.0.0.6:48496in MyMiddleware.run()
LOG: Closed client: /10.0.0.6:48498in MyMiddleware.run()
LOG: Closed client: /10.0.0.6:48514in MyMiddleware.run()
LOG: Closed client: /10.0.0.6:48504in MyMiddleware.run()
LOG: Closed client: /10.0.0.6:48524in MyMiddleware.run()
LOG: Closed client: /10.0.0.6:48512in MyMiddleware.run()
LOG: Closed client: /10.0.0.6:48494in MyMiddleware.run()
LOG: Closed client: /10.0.0.6:48518in MyMiddleware.run()
