------------Middleware started!------------
LOG: Waiting for connection in MyMiddleware.run()
LOG: Accepted client: /10.0.0.7:55082in MyMiddleware.run()
LOG: Accepted client: /10.0.0.7:55076in MyMiddleware.run()
LOG: Accepted client: /10.0.0.7:55100in MyMiddleware.run()
LOG: Accepted client: /10.0.0.7:55078in MyMiddleware.run()
LOG: Accepted client: /10.0.0.7:55096in MyMiddleware.run()
LOG: Accepted client: /10.0.0.7:55088in MyMiddleware.run()
LOG: Accepted client: /10.0.0.7:55094in MyMiddleware.run()
LOG: Accepted client: /10.0.0.7:55106in MyMiddleware.run()
LOG: Accepted client: /10.0.0.7:55080in MyMiddleware.run()
LOG: Accepted client: /10.0.0.7:55102in MyMiddleware.run()
LOG: Accepted client: /10.0.0.7:55084in MyMiddleware.run()
LOG: Accepted client: /10.0.0.7:55090in MyMiddleware.run()
LOG: Accepted client: /10.0.0.7:55104in MyMiddleware.run()
LOG: Accepted client: /10.0.0.7:55092in MyMiddleware.run()
LOG: Accepted client: /10.0.0.7:55098in MyMiddleware.run()
LOG: Accepted client: /10.0.0.7:55086in MyMiddleware.run()
LOG: Accepted client: /10.0.0.11:53782in MyMiddleware.run()
LOG: Accepted client: /10.0.0.11:53762in MyMiddleware.run()
LOG: Accepted client: /10.0.0.11:53778in MyMiddleware.run()
LOG: Accepted client: /10.0.0.11:53776in MyMiddleware.run()
LOG: Accepted client: /10.0.0.11:53764in MyMiddleware.run()
LOG: Accepted client: /10.0.0.11:53790in MyMiddleware.run()
LOG: Accepted client: /10.0.0.11:53786in MyMiddleware.run()
LOG: Accepted client: /10.0.0.11:53784in MyMiddleware.run()
LOG: Accepted client: /10.0.0.11:53792in MyMiddleware.run()
LOG: Accepted client: /10.0.0.11:53766in MyMiddleware.run()
LOG: Accepted client: /10.0.0.6:33328in MyMiddleware.run()
LOG: Accepted client: /10.0.0.6:33324in MyMiddleware.run()
LOG: Accepted client: /10.0.0.6:33318in MyMiddleware.run()
LOG: Accepted client: /10.0.0.6:33330in MyMiddleware.run()
LOG: Accepted client: /10.0.0.6:33336in MyMiddleware.run()
LOG: Accepted client: /10.0.0.6:33338in MyMiddleware.run()
LOG: Accepted client: /10.0.0.6:33314in MyMiddleware.run()
LOG: Accepted client: /10.0.0.6:33340in MyMiddleware.run()
LOG: Accepted client: /10.0.0.6:33342in MyMiddleware.run()
LOG: Accepted client: /10.0.0.6:33334in MyMiddleware.run()
LOG: Accepted client: /10.0.0.6:33322in MyMiddleware.run()
LOG: Accepted client: /10.0.0.6:33332in MyMiddleware.run()
LOG: Accepted client: /10.0.0.6:33312in MyMiddleware.run()
LOG: Accepted client: /10.0.0.6:33316in MyMiddleware.run()
LOG: Accepted client: /10.0.0.6:33326in MyMiddleware.run()
LOG: Accepted client: /10.0.0.6:33320in MyMiddleware.run()
LOG: Accepted client: /10.0.0.11:53788in MyMiddleware.run()
LOG: Accepted client: /10.0.0.11:53768in MyMiddleware.run()
LOG: Accepted client: /10.0.0.11:53770in MyMiddleware.run()
LOG: Accepted client: /10.0.0.11:53780in MyMiddleware.run()
LOG: Accepted client: /10.0.0.11:53772in MyMiddleware.run()
LOG: Accepted client: /10.0.0.11:53774in MyMiddleware.run()
LOG: Closed client: /10.0.0.6:33316in MyMiddleware.run()
LOG: Closed client: /10.0.0.6:33312in MyMiddleware.run()
LOG: Closed client: /10.0.0.6:33330in MyMiddleware.run()
LOG: Closed client: /10.0.0.6:33326in MyMiddleware.run()
LOG: Closed client: /10.0.0.6:33334in MyMiddleware.run()
LOG: Closed client: /10.0.0.6:33324in MyMiddleware.run()
LOG: Closed client: /10.0.0.6:33342in MyMiddleware.run()
LOG: Closed client: /10.0.0.6:33338in MyMiddleware.run()
LOG: Closed client: /10.0.0.6:33328in MyMiddleware.run()
LOG: Closed client: /10.0.0.6:33318in MyMiddleware.run()
LOG: Closed client: /10.0.0.6:33336in MyMiddleware.run()
LOG: Closed client: /10.0.0.6:33314in MyMiddleware.run()
LOG: Closed client: /10.0.0.6:33340in MyMiddleware.run()
LOG: Closed client: /10.0.0.6:33332in MyMiddleware.run()
LOG: Closed client: /10.0.0.6:33320in MyMiddleware.run()
LOG: Closed client: /10.0.0.6:33322in MyMiddleware.run()
LOG: Closed client: /10.0.0.7:55086in MyMiddleware.run()
LOG: Closed client: /10.0.0.7:55082in MyMiddleware.run()
LOG: Closed client: /10.0.0.7:55098in MyMiddleware.run()
LOG: Closed client: /10.0.0.7:55104in MyMiddleware.run()
LOG: Closed client: /10.0.0.7:55102in MyMiddleware.run()
LOG: Closed client: /10.0.0.7:55084in MyMiddleware.run()
LOG: Closed client: /10.0.0.7:55092in MyMiddleware.run()
LOG: Closed client: /10.0.0.7:55078in MyMiddleware.run()
LOG: Closed client: /10.0.0.7:55106in MyMiddleware.run()
LOG: Closed client: /10.0.0.7:55100in MyMiddleware.run()
LOG: Closed client: /10.0.0.7:55094in MyMiddleware.run()
LOG: Closed client: /10.0.0.7:55090in MyMiddleware.run()
LOG: Closed client: /10.0.0.7:55088in MyMiddleware.run()
LOG: Closed client: /10.0.0.7:55096in MyMiddleware.run()
LOG: Closed client: /10.0.0.7:55076in MyMiddleware.run()
LOG: Closed client: /10.0.0.7:55080in MyMiddleware.run()
LOG: Closed client: /10.0.0.11:53774in MyMiddleware.run()
LOG: Closed client: /10.0.0.11:53764in MyMiddleware.run()
LOG: Closed client: /10.0.0.11:53790in MyMiddleware.run()
LOG: Closed client: /10.0.0.11:53768in MyMiddleware.run()
LOG: Closed client: /10.0.0.11:53778in MyMiddleware.run()
LOG: Closed client: /10.0.0.11:53788in MyMiddleware.run()
LOG: Closed client: /10.0.0.11:53792in MyMiddleware.run()
LOG: Closed client: /10.0.0.11:53762in MyMiddleware.run()
LOG: Closed client: /10.0.0.11:53776in MyMiddleware.run()
LOG: Closed client: /10.0.0.11:53770in MyMiddleware.run()
LOG: Closed client: /10.0.0.11:53766in MyMiddleware.run()
LOG: Closed client: /10.0.0.11:53772in MyMiddleware.run()
LOG: Closed client: /10.0.0.11:53786in MyMiddleware.run()
LOG: Closed client: /10.0.0.11:53784in MyMiddleware.run()
LOG: Closed client: /10.0.0.11:53782in MyMiddleware.run()
LOG: Closed client: /10.0.0.11:53780in MyMiddleware.run()
