------------Middleware started!------------
LOG: Waiting for connection in MyMiddleware.run()
LOG: Accepted client: /10.0.0.6:50286in MyMiddleware.run()
LOG: Accepted client: /10.0.0.6:50288in MyMiddleware.run()
LOG: Accepted client: /10.0.0.6:50290in MyMiddleware.run()
LOG: Accepted client: /10.0.0.6:50284in MyMiddleware.run()
LOG: Accepted client: /10.0.0.6:50308in MyMiddleware.run()
LOG: Accepted client: /10.0.0.6:50294in MyMiddleware.run()
LOG: Accepted client: /10.0.0.6:50292in MyMiddleware.run()
LOG: Accepted client: /10.0.0.6:50296in MyMiddleware.run()
LOG: Accepted client: /10.0.0.6:50300in MyMiddleware.run()
LOG: Accepted client: /10.0.0.6:50298in MyMiddleware.run()
LOG: Accepted client: /10.0.0.6:50282in MyMiddleware.run()
LOG: Accepted client: /10.0.0.6:50306in MyMiddleware.run()
LOG: Accepted client: /10.0.0.6:50310in MyMiddleware.run()
LOG: Accepted client: /10.0.0.6:50280in MyMiddleware.run()
LOG: Accepted client: /10.0.0.6:50304in MyMiddleware.run()
LOG: Accepted client: /10.0.0.6:50302in MyMiddleware.run()
LOG: Accepted client: /10.0.0.7:43802in MyMiddleware.run()
LOG: Accepted client: /10.0.0.7:43812in MyMiddleware.run()
LOG: Accepted client: /10.0.0.7:43820in MyMiddleware.run()
LOG: Accepted client: /10.0.0.7:43810in MyMiddleware.run()
LOG: Accepted client: /10.0.0.7:43828in MyMiddleware.run()
LOG: Accepted client: /10.0.0.7:43830in MyMiddleware.run()
LOG: Accepted client: /10.0.0.7:43832in MyMiddleware.run()
LOG: Accepted client: /10.0.0.7:43804in MyMiddleware.run()
LOG: Accepted client: /10.0.0.7:43826in MyMiddleware.run()
LOG: Accepted client: /10.0.0.7:43814in MyMiddleware.run()
LOG: Accepted client: /10.0.0.7:43806in MyMiddleware.run()
LOG: Accepted client: /10.0.0.7:43824in MyMiddleware.run()
LOG: Accepted client: /10.0.0.7:43808in MyMiddleware.run()
LOG: Accepted client: /10.0.0.7:43822in MyMiddleware.run()
LOG: Accepted client: /10.0.0.7:43816in MyMiddleware.run()
LOG: Accepted client: /10.0.0.7:43818in MyMiddleware.run()
LOG: Accepted client: /10.0.0.11:42500in MyMiddleware.run()
LOG: Accepted client: /10.0.0.11:42512in MyMiddleware.run()
LOG: Accepted client: /10.0.0.11:42520in MyMiddleware.run()
LOG: Accepted client: /10.0.0.11:42514in MyMiddleware.run()
LOG: Accepted client: /10.0.0.11:42508in MyMiddleware.run()
LOG: Accepted client: /10.0.0.11:42506in MyMiddleware.run()
LOG: Accepted client: /10.0.0.11:42510in MyMiddleware.run()
LOG: Accepted client: /10.0.0.11:42498in MyMiddleware.run()
LOG: Accepted client: /10.0.0.11:42496in MyMiddleware.run()
LOG: Accepted client: /10.0.0.11:42526in MyMiddleware.run()
LOG: Accepted client: /10.0.0.11:42524in MyMiddleware.run()
LOG: Accepted client: /10.0.0.11:42522in MyMiddleware.run()
LOG: Accepted client: /10.0.0.11:42502in MyMiddleware.run()
LOG: Accepted client: /10.0.0.11:42504in MyMiddleware.run()
LOG: Accepted client: /10.0.0.11:42518in MyMiddleware.run()
LOG: Accepted client: /10.0.0.11:42516in MyMiddleware.run()
LOG: Closed client: /10.0.0.6:50280in MyMiddleware.run()
LOG: Closed client: /10.0.0.6:50282in MyMiddleware.run()
LOG: Closed client: /10.0.0.6:50302in MyMiddleware.run()
LOG: Closed client: /10.0.0.6:50296in MyMiddleware.run()
LOG: Closed client: /10.0.0.6:50310in MyMiddleware.run()
LOG: Closed client: /10.0.0.6:50286in MyMiddleware.run()
LOG: Closed client: /10.0.0.6:50292in MyMiddleware.run()
LOG: Closed client: /10.0.0.6:50304in MyMiddleware.run()
LOG: Closed client: /10.0.0.6:50284in MyMiddleware.run()
LOG: Closed client: /10.0.0.6:50288in MyMiddleware.run()
LOG: Closed client: /10.0.0.6:50290in MyMiddleware.run()
LOG: Closed client: /10.0.0.6:50308in MyMiddleware.run()
LOG: Closed client: /10.0.0.6:50306in MyMiddleware.run()
LOG: Closed client: /10.0.0.6:50294in MyMiddleware.run()
LOG: Closed client: /10.0.0.6:50298in MyMiddleware.run()
LOG: Closed client: /10.0.0.6:50300in MyMiddleware.run()
LOG: Closed client: /10.0.0.11:42500in MyMiddleware.run()
LOG: Closed client: /10.0.0.11:42504in MyMiddleware.run()
LOG: Closed client: /10.0.0.11:42498in MyMiddleware.run()
LOG: Closed client: /10.0.0.11:42508in MyMiddleware.run()
LOG: Closed client: /10.0.0.11:42496in MyMiddleware.run()
LOG: Closed client: /10.0.0.11:42506in MyMiddleware.run()
LOG: Closed client: /10.0.0.11:42510in MyMiddleware.run()
LOG: Closed client: /10.0.0.11:42502in MyMiddleware.run()
LOG: Closed client: /10.0.0.11:42512in MyMiddleware.run()
LOG: Closed client: /10.0.0.11:42522in MyMiddleware.run()
LOG: Closed client: /10.0.0.11:42520in MyMiddleware.run()
LOG: Closed client: /10.0.0.11:42526in MyMiddleware.run()
LOG: Closed client: /10.0.0.11:42514in MyMiddleware.run()
LOG: Closed client: /10.0.0.11:42518in MyMiddleware.run()
LOG: Closed client: /10.0.0.11:42524in MyMiddleware.run()
LOG: Closed client: /10.0.0.11:42516in MyMiddleware.run()
LOG: Closed client: /10.0.0.7:43802in MyMiddleware.run()
LOG: Closed client: /10.0.0.7:43806in MyMiddleware.run()
LOG: Closed client: /10.0.0.7:43810in MyMiddleware.run()
LOG: Closed client: /10.0.0.7:43830in MyMiddleware.run()
LOG: Closed client: /10.0.0.7:43818in MyMiddleware.run()
LOG: Closed client: /10.0.0.7:43832in MyMiddleware.run()
LOG: Closed client: /10.0.0.7:43826in MyMiddleware.run()
LOG: Closed client: /10.0.0.7:43822in MyMiddleware.run()
LOG: Closed client: /10.0.0.7:43804in MyMiddleware.run()
LOG: Closed client: /10.0.0.7:43824in MyMiddleware.run()
LOG: Closed client: /10.0.0.7:43828in MyMiddleware.run()
LOG: Closed client: /10.0.0.7:43814in MyMiddleware.run()
LOG: Closed client: /10.0.0.7:43820in MyMiddleware.run()
LOG: Closed client: /10.0.0.7:43812in MyMiddleware.run()
LOG: Closed client: /10.0.0.7:43816in MyMiddleware.run()
LOG: Closed client: /10.0.0.7:43808in MyMiddleware.run()
