------------Middleware started!------------
LOG: Waiting for connection in MyMiddleware.run()
LOG: Accepted client: /10.0.0.6:51190in MyMiddleware.run()
LOG: Accepted client: /10.0.0.6:51224in MyMiddleware.run()
LOG: Accepted client: /10.0.0.6:51226in MyMiddleware.run()
LOG: Accepted client: /10.0.0.6:51220in MyMiddleware.run()
LOG: Accepted client: /10.0.0.6:51216in MyMiddleware.run()
LOG: Accepted client: /10.0.0.6:51208in MyMiddleware.run()
LOG: Accepted client: /10.0.0.6:51212in MyMiddleware.run()
LOG: Accepted client: /10.0.0.6:51228in MyMiddleware.run()
LOG: Accepted client: /10.0.0.6:51248in MyMiddleware.run()
LOG: Accepted client: /10.0.0.6:51222in MyMiddleware.run()
LOG: Accepted client: /10.0.0.6:51194in MyMiddleware.run()
LOG: Accepted client: /10.0.0.6:51246in MyMiddleware.run()
LOG: Accepted client: /10.0.0.6:51218in MyMiddleware.run()
LOG: Accepted client: /10.0.0.6:51240in MyMiddleware.run()
LOG: Accepted client: /10.0.0.6:51244in MyMiddleware.run()
LOG: Accepted client: /10.0.0.6:51196in MyMiddleware.run()
LOG: Accepted client: /10.0.0.6:51252in MyMiddleware.run()
LOG: Accepted client: /10.0.0.6:51192in MyMiddleware.run()
LOG: Accepted client: /10.0.0.6:51214in MyMiddleware.run()
LOG: Accepted client: /10.0.0.6:51198in MyMiddleware.run()
LOG: Accepted client: /10.0.0.6:51242in MyMiddleware.run()
LOG: Accepted client: /10.0.0.6:51210in MyMiddleware.run()
LOG: Accepted client: /10.0.0.6:51204in MyMiddleware.run()
LOG: Accepted client: /10.0.0.6:51238in MyMiddleware.run()
LOG: Accepted client: /10.0.0.6:51236in MyMiddleware.run()
LOG: Accepted client: /10.0.0.6:51206in MyMiddleware.run()
LOG: Accepted client: /10.0.0.6:51202in MyMiddleware.run()
LOG: Accepted client: /10.0.0.6:51200in MyMiddleware.run()
LOG: Accepted client: /10.0.0.6:51232in MyMiddleware.run()
LOG: Accepted client: /10.0.0.6:51234in MyMiddleware.run()
LOG: Accepted client: /10.0.0.6:51250in MyMiddleware.run()
LOG: Accepted client: /10.0.0.6:51230in MyMiddleware.run()
LOG: Accepted client: /10.0.0.11:43468in MyMiddleware.run()
LOG: Accepted client: /10.0.0.11:43488in MyMiddleware.run()
LOG: Accepted client: /10.0.0.11:43500in MyMiddleware.run()
LOG: Accepted client: /10.0.0.11:43498in MyMiddleware.run()
LOG: Accepted client: /10.0.0.11:43496in MyMiddleware.run()
LOG: Accepted client: /10.0.0.11:43470in MyMiddleware.run()
LOG: Accepted client: /10.0.0.11:43516in MyMiddleware.run()
LOG: Accepted client: /10.0.0.11:43520in MyMiddleware.run()
LOG: Accepted client: /10.0.0.11:43508in MyMiddleware.run()
LOG: Accepted client: /10.0.0.11:43480in MyMiddleware.run()
LOG: Accepted client: /10.0.0.11:43476in MyMiddleware.run()
LOG: Accepted client: /10.0.0.11:43494in MyMiddleware.run()
LOG: Accepted client: /10.0.0.11:43502in MyMiddleware.run()
LOG: Accepted client: /10.0.0.11:43492in MyMiddleware.run()
LOG: Accepted client: /10.0.0.11:43484in MyMiddleware.run()
LOG: Accepted client: /10.0.0.11:43512in MyMiddleware.run()
LOG: Accepted client: /10.0.0.11:43504in MyMiddleware.run()
LOG: Accepted client: /10.0.0.11:43486in MyMiddleware.run()
LOG: Accepted client: /10.0.0.11:43524in MyMiddleware.run()
LOG: Accepted client: /10.0.0.11:43526in MyMiddleware.run()
LOG: Accepted client: /10.0.0.11:43506in MyMiddleware.run()
LOG: Accepted client: /10.0.0.11:43482in MyMiddleware.run()
LOG: Accepted client: /10.0.0.11:43530in MyMiddleware.run()
LOG: Accepted client: /10.0.0.11:43490in MyMiddleware.run()
LOG: Accepted client: /10.0.0.11:43528in MyMiddleware.run()
LOG: Accepted client: /10.0.0.11:43514in MyMiddleware.run()
LOG: Accepted client: /10.0.0.11:43478in MyMiddleware.run()
LOG: Accepted client: /10.0.0.11:43510in MyMiddleware.run()
LOG: Accepted client: /10.0.0.11:43472in MyMiddleware.run()
LOG: Accepted client: /10.0.0.11:43474in MyMiddleware.run()
LOG: Accepted client: /10.0.0.11:43522in MyMiddleware.run()
LOG: Accepted client: /10.0.0.11:43518in MyMiddleware.run()
LOG: Accepted client: /10.0.0.7:44828in MyMiddleware.run()
LOG: Accepted client: /10.0.0.7:44804in MyMiddleware.run()
LOG: Accepted client: /10.0.0.7:44808in MyMiddleware.run()
LOG: Accepted client: /10.0.0.7:44810in MyMiddleware.run()
LOG: Accepted client: /10.0.0.7:44866in MyMiddleware.run()
LOG: Accepted client: /10.0.0.7:44826in MyMiddleware.run()
LOG: Accepted client: /10.0.0.7:44840in MyMiddleware.run()
LOG: Accepted client: /10.0.0.7:44806in MyMiddleware.run()
LOG: Accepted client: /10.0.0.7:44842in MyMiddleware.run()
LOG: Accepted client: /10.0.0.7:44822in MyMiddleware.run()
LOG: Accepted client: /10.0.0.7:44862in MyMiddleware.run()
LOG: Accepted client: /10.0.0.7:44860in MyMiddleware.run()
LOG: Accepted client: /10.0.0.7:44848in MyMiddleware.run()
LOG: Accepted client: /10.0.0.7:44854in MyMiddleware.run()
LOG: Accepted client: /10.0.0.7:44864in MyMiddleware.run()
LOG: Accepted client: /10.0.0.7:44824in MyMiddleware.run()
LOG: Accepted client: /10.0.0.7:44844in MyMiddleware.run()
LOG: Accepted client: /10.0.0.7:44850in MyMiddleware.run()
LOG: Accepted client: /10.0.0.7:44852in MyMiddleware.run()
LOG: Accepted client: /10.0.0.7:44836in MyMiddleware.run()
LOG: Accepted client: /10.0.0.7:44846in MyMiddleware.run()
LOG: Accepted client: /10.0.0.7:44858in MyMiddleware.run()
LOG: Accepted client: /10.0.0.7:44856in MyMiddleware.run()
LOG: Accepted client: /10.0.0.7:44838in MyMiddleware.run()
LOG: Accepted client: /10.0.0.7:44816in MyMiddleware.run()
LOG: Accepted client: /10.0.0.7:44818in MyMiddleware.run()
LOG: Accepted client: /10.0.0.7:44820in MyMiddleware.run()
LOG: Accepted client: /10.0.0.7:44830in MyMiddleware.run()
LOG: Accepted client: /10.0.0.7:44812in MyMiddleware.run()
LOG: Accepted client: /10.0.0.7:44832in MyMiddleware.run()
LOG: Accepted client: /10.0.0.7:44834in MyMiddleware.run()
LOG: Accepted client: /10.0.0.7:44814in MyMiddleware.run()
LOG: Closed client: /10.0.0.11:43494in MyMiddleware.run()
LOG: Closed client: /10.0.0.11:43472in MyMiddleware.run()
LOG: Closed client: /10.0.0.11:43474in MyMiddleware.run()
LOG: Closed client: /10.0.0.11:43476in MyMiddleware.run()
LOG: Closed client: /10.0.0.11:43524in MyMiddleware.run()
LOG: Closed client: /10.0.0.11:43526in MyMiddleware.run()
LOG: Closed client: /10.0.0.11:43502in MyMiddleware.run()
LOG: Closed client: /10.0.0.11:43482in MyMiddleware.run()
LOG: Closed client: /10.0.0.11:43488in MyMiddleware.run()
LOG: Closed client: /10.0.0.11:43492in MyMiddleware.run()
LOG: Closed client: /10.0.0.11:43510in MyMiddleware.run()
LOG: Closed client: /10.0.0.11:43508in MyMiddleware.run()
LOG: Closed client: /10.0.0.11:43498in MyMiddleware.run()
LOG: Closed client: /10.0.0.11:43468in MyMiddleware.run()
LOG: Closed client: /10.0.0.11:43496in MyMiddleware.run()
LOG: Closed client: /10.0.0.11:43512in MyMiddleware.run()
LOG: Closed client: /10.0.0.11:43480in MyMiddleware.run()
LOG: Closed client: /10.0.0.11:43514in MyMiddleware.run()
LOG: Closed client: /10.0.0.11:43490in MyMiddleware.run()
LOG: Closed client: /10.0.0.11:43504in MyMiddleware.run()
LOG: Closed client: /10.0.0.11:43520in MyMiddleware.run()
LOG: Closed client: /10.0.0.11:43516in MyMiddleware.run()
LOG: Closed client: /10.0.0.11:43484in MyMiddleware.run()
LOG: Closed client: /10.0.0.11:43470in MyMiddleware.run()
LOG: Closed client: /10.0.0.11:43486in MyMiddleware.run()
LOG: Closed client: /10.0.0.11:43500in MyMiddleware.run()
LOG: Closed client: /10.0.0.11:43522in MyMiddleware.run()
LOG: Closed client: /10.0.0.11:43518in MyMiddleware.run()
LOG: Closed client: /10.0.0.11:43506in MyMiddleware.run()
LOG: Closed client: /10.0.0.11:43530in MyMiddleware.run()
LOG: Closed client: /10.0.0.11:43478in MyMiddleware.run()
LOG: Closed client: /10.0.0.11:43528in MyMiddleware.run()
LOG: Closed client: /10.0.0.6:51226in MyMiddleware.run()
LOG: Closed client: /10.0.0.6:51230in MyMiddleware.run()
LOG: Closed client: /10.0.0.6:51224in MyMiddleware.run()
LOG: Closed client: /10.0.0.6:51210in MyMiddleware.run()
LOG: Closed client: /10.0.0.6:51220in MyMiddleware.run()
LOG: Closed client: /10.0.0.6:51196in MyMiddleware.run()
LOG: Closed client: /10.0.0.6:51218in MyMiddleware.run()
LOG: Closed client: /10.0.0.6:51200in MyMiddleware.run()
LOG: Closed client: /10.0.0.6:51202in MyMiddleware.run()
LOG: Closed client: /10.0.0.6:51222in MyMiddleware.run()
LOG: Closed client: /10.0.0.6:51198in MyMiddleware.run()
LOG: Closed client: /10.0.0.6:51250in MyMiddleware.run()
LOG: Closed client: /10.0.0.6:51212in MyMiddleware.run()
LOG: Closed client: /10.0.0.6:51206in MyMiddleware.run()
LOG: Closed client: /10.0.0.6:51194in MyMiddleware.run()
LOG: Closed client: /10.0.0.6:51234in MyMiddleware.run()
LOG: Closed client: /10.0.0.6:51248in MyMiddleware.run()
LOG: Closed client: /10.0.0.6:51240in MyMiddleware.run()
LOG: Closed client: /10.0.0.6:51204in MyMiddleware.run()
LOG: Closed client: /10.0.0.6:51238in MyMiddleware.run()
LOG: Closed client: /10.0.0.6:51214in MyMiddleware.run()
LOG: Closed client: /10.0.0.6:51190in MyMiddleware.run()
LOG: Closed client: /10.0.0.6:51244in MyMiddleware.run()
LOG: Closed client: /10.0.0.6:51228in MyMiddleware.run()
LOG: Closed client: /10.0.0.6:51242in MyMiddleware.run()
LOG: Closed client: /10.0.0.6:51236in MyMiddleware.run()
LOG: Closed client: /10.0.0.6:51192in MyMiddleware.run()
LOG: Closed client: /10.0.0.6:51252in MyMiddleware.run()
LOG: Closed client: /10.0.0.6:51232in MyMiddleware.run()
LOG: Closed client: /10.0.0.6:51246in MyMiddleware.run()
LOG: Closed client: /10.0.0.6:51208in MyMiddleware.run()
LOG: Closed client: /10.0.0.6:51216in MyMiddleware.run()
LOG: Closed client: /10.0.0.7:44836in MyMiddleware.run()
LOG: Closed client: /10.0.0.7:44850in MyMiddleware.run()
LOG: Closed client: /10.0.0.7:44806in MyMiddleware.run()
LOG: Closed client: /10.0.0.7:44820in MyMiddleware.run()
LOG: Closed client: /10.0.0.7:44838in MyMiddleware.run()
LOG: Closed client: /10.0.0.7:44814in MyMiddleware.run()
LOG: Closed client: /10.0.0.7:44818in MyMiddleware.run()
LOG: Closed client: /10.0.0.7:44840in MyMiddleware.run()
LOG: Closed client: /10.0.0.7:44816in MyMiddleware.run()
LOG: Closed client: /10.0.0.7:44856in MyMiddleware.run()
LOG: Closed client: /10.0.0.7:44842in MyMiddleware.run()
LOG: Closed client: /10.0.0.7:44858in MyMiddleware.run()
LOG: Closed client: /10.0.0.7:44834in MyMiddleware.run()
LOG: Closed client: /10.0.0.7:44832in MyMiddleware.run()
LOG: Closed client: /10.0.0.7:44822in MyMiddleware.run()
LOG: Closed client: /10.0.0.7:44848in MyMiddleware.run()
LOG: Closed client: /10.0.0.7:44826in MyMiddleware.run()
LOG: Closed client: /10.0.0.7:44830in MyMiddleware.run()
LOG: Closed client: /10.0.0.7:44810in MyMiddleware.run()
LOG: Closed client: /10.0.0.7:44844in MyMiddleware.run()
LOG: Closed client: /10.0.0.7:44824in MyMiddleware.run()
LOG: Closed client: /10.0.0.7:44828in MyMiddleware.run()
LOG: Closed client: /10.0.0.7:44812in MyMiddleware.run()
LOG: Closed client: /10.0.0.7:44804in MyMiddleware.run()
LOG: Closed client: /10.0.0.7:44808in MyMiddleware.run()
LOG: Closed client: /10.0.0.7:44846in MyMiddleware.run()
LOG: Closed client: /10.0.0.7:44862in MyMiddleware.run()
LOG: Closed client: /10.0.0.7:44854in MyMiddleware.run()
LOG: Closed client: /10.0.0.7:44860in MyMiddleware.run()
LOG: Closed client: /10.0.0.7:44864in MyMiddleware.run()
LOG: Closed client: /10.0.0.7:44852in MyMiddleware.run()
LOG: Closed client: /10.0.0.7:44866in MyMiddleware.run()
