------------Middleware started!------------
LOG: Waiting for connection in MyMiddleware.run()
LOG: Accepted client: /10.0.0.11:34990in MyMiddleware.run()
LOG: Accepted client: /10.0.0.11:34994in MyMiddleware.run()
LOG: Accepted client: /10.0.0.11:34988in MyMiddleware.run()
LOG: Accepted client: /10.0.0.11:34992in MyMiddleware.run()
LOG: Accepted client: /10.0.0.6:42782in MyMiddleware.run()
LOG: Accepted client: /10.0.0.6:42788in MyMiddleware.run()
LOG: Accepted client: /10.0.0.6:42786in MyMiddleware.run()
LOG: Accepted client: /10.0.0.6:42784in MyMiddleware.run()
LOG: Accepted client: /10.0.0.7:36278in MyMiddleware.run()
LOG: Accepted client: /10.0.0.7:36276in MyMiddleware.run()
LOG: Accepted client: /10.0.0.7:36282in MyMiddleware.run()
LOG: Accepted client: /10.0.0.7:36280in MyMiddleware.run()
LOG: Closed client: /10.0.0.11:34988in MyMiddleware.run()
LOG: Closed client: /10.0.0.11:34992in MyMiddleware.run()
LOG: Closed client: /10.0.0.11:34990in MyMiddleware.run()
LOG: Closed client: /10.0.0.11:34994in MyMiddleware.run()
LOG: Closed client: /10.0.0.6:42788in MyMiddleware.run()
LOG: Closed client: /10.0.0.6:42784in MyMiddleware.run()
LOG: Closed client: /10.0.0.6:42786in MyMiddleware.run()
LOG: Closed client: /10.0.0.6:42782in MyMiddleware.run()
LOG: Closed client: /10.0.0.7:36276in MyMiddleware.run()
LOG: Closed client: /10.0.0.7:36282in MyMiddleware.run()
LOG: Closed client: /10.0.0.7:36278in MyMiddleware.run()
LOG: Closed client: /10.0.0.7:36280in MyMiddleware.run()
