------------Middleware started!------------
LOG: Waiting for connection in MyMiddleware.run()
LOG: Accepted client: /10.0.0.7:36754in MyMiddleware.run()
LOG: Accepted client: /10.0.0.7:36758in MyMiddleware.run()
LOG: Accepted client: /10.0.0.7:36756in MyMiddleware.run()
LOG: Accepted client: /10.0.0.7:36760in MyMiddleware.run()
LOG: Accepted client: /10.0.0.6:43270in MyMiddleware.run()
LOG: Accepted client: /10.0.0.6:43264in MyMiddleware.run()
LOG: Accepted client: /10.0.0.6:43266in MyMiddleware.run()
LOG: Accepted client: /10.0.0.6:43268in MyMiddleware.run()
LOG: Accepted client: /10.0.0.11:35478in MyMiddleware.run()
LOG: Accepted client: /10.0.0.11:35476in MyMiddleware.run()
LOG: Accepted client: /10.0.0.11:35472in MyMiddleware.run()
LOG: Accepted client: /10.0.0.11:35474in MyMiddleware.run()
LOG: Closed client: /10.0.0.7:36754in MyMiddleware.run()
LOG: Closed client: /10.0.0.7:36758in MyMiddleware.run()
LOG: Closed client: /10.0.0.7:36756in MyMiddleware.run()
LOG: Closed client: /10.0.0.7:36760in MyMiddleware.run()
LOG: Closed client: /10.0.0.11:35472in MyMiddleware.run()
LOG: Closed client: /10.0.0.11:35474in MyMiddleware.run()
LOG: Closed client: /10.0.0.11:35476in MyMiddleware.run()
LOG: Closed client: /10.0.0.11:35478in MyMiddleware.run()
LOG: Closed client: /10.0.0.6:43268in MyMiddleware.run()
LOG: Closed client: /10.0.0.6:43266in MyMiddleware.run()
LOG: Closed client: /10.0.0.6:43264in MyMiddleware.run()
LOG: Closed client: /10.0.0.6:43270in MyMiddleware.run()
