------------Middleware started!------------
LOG: Waiting for connection in MyMiddleware.run()
LOG: Accepted client: /10.0.0.7:35846in MyMiddleware.run()
LOG: Accepted client: /10.0.0.7:35844in MyMiddleware.run()
LOG: Accepted client: /10.0.0.7:35840in MyMiddleware.run()
LOG: Accepted client: /10.0.0.7:35842in MyMiddleware.run()
LOG: Accepted client: /10.0.0.11:34538in MyMiddleware.run()
LOG: Accepted client: /10.0.0.11:34544in MyMiddleware.run()
LOG: Accepted client: /10.0.0.11:34542in MyMiddleware.run()
LOG: Accepted client: /10.0.0.11:34540in MyMiddleware.run()
LOG: Accepted client: /10.0.0.6:42322in MyMiddleware.run()
LOG: Accepted client: /10.0.0.6:42320in MyMiddleware.run()
LOG: Accepted client: /10.0.0.6:42316in MyMiddleware.run()
LOG: Accepted client: /10.0.0.6:42318in MyMiddleware.run()
LOG: Closed client: /10.0.0.11:34542in MyMiddleware.run()
LOG: Closed client: /10.0.0.11:34540in MyMiddleware.run()
LOG: Closed client: /10.0.0.11:34538in MyMiddleware.run()
LOG: Closed client: /10.0.0.11:34544in MyMiddleware.run()
LOG: Closed client: /10.0.0.6:42320in MyMiddleware.run()
LOG: Closed client: /10.0.0.6:42322in MyMiddleware.run()
LOG: Closed client: /10.0.0.6:42316in MyMiddleware.run()
LOG: Closed client: /10.0.0.6:42318in MyMiddleware.run()
LOG: Closed client: /10.0.0.7:35842in MyMiddleware.run()
LOG: Closed client: /10.0.0.7:35846in MyMiddleware.run()
LOG: Closed client: /10.0.0.7:35840in MyMiddleware.run()
LOG: Closed client: /10.0.0.7:35844in MyMiddleware.run()
