------------Middleware started!------------
LOG: Waiting for connection in MyMiddleware.run()
LOG: Accepted client: /10.0.0.6:44096in MyMiddleware.run()
LOG: Accepted client: /10.0.0.6:44094in MyMiddleware.run()
LOG: Accepted client: /10.0.0.6:44092in MyMiddleware.run()
LOG: Accepted client: /10.0.0.6:44090in MyMiddleware.run()
LOG: Accepted client: /10.0.0.7:37634in MyMiddleware.run()
LOG: Accepted client: /10.0.0.7:37630in MyMiddleware.run()
LOG: Accepted client: /10.0.0.7:37632in MyMiddleware.run()
LOG: Accepted client: /10.0.0.7:37636in MyMiddleware.run()
LOG: Accepted client: /10.0.0.11:36314in MyMiddleware.run()
LOG: Accepted client: /10.0.0.11:36316in MyMiddleware.run()
LOG: Accepted client: /10.0.0.11:36312in MyMiddleware.run()
LOG: Accepted client: /10.0.0.11:36310in MyMiddleware.run()
LOG: Closed client: /10.0.0.6:44094in MyMiddleware.run()
LOG: Closed client: /10.0.0.6:44092in MyMiddleware.run()
LOG: Closed client: /10.0.0.6:44090in MyMiddleware.run()
LOG: Closed client: /10.0.0.6:44096in MyMiddleware.run()
LOG: Closed client: /10.0.0.7:37630in MyMiddleware.run()
LOG: Closed client: /10.0.0.7:37632in MyMiddleware.run()
LOG: Closed client: /10.0.0.7:37634in MyMiddleware.run()
LOG: Closed client: /10.0.0.7:37636in MyMiddleware.run()
LOG: Closed client: /10.0.0.11:36312in MyMiddleware.run()
LOG: Closed client: /10.0.0.11:36314in MyMiddleware.run()
LOG: Closed client: /10.0.0.11:36316in MyMiddleware.run()
LOG: Closed client: /10.0.0.11:36310in MyMiddleware.run()
