------------Middleware started!------------
LOG: Waiting for connection in MyMiddleware.run()
LOG: Accepted client: /10.0.0.7:60140in MyMiddleware.run()
LOG: Accepted client: /10.0.0.7:60146in MyMiddleware.run()
LOG: Accepted client: /10.0.0.7:60136in MyMiddleware.run()
LOG: Accepted client: /10.0.0.7:60158in MyMiddleware.run()
LOG: Accepted client: /10.0.0.7:60142in MyMiddleware.run()
LOG: Accepted client: /10.0.0.7:60170in MyMiddleware.run()
LOG: Accepted client: /10.0.0.7:60128in MyMiddleware.run()
LOG: Accepted client: /10.0.0.7:60134in MyMiddleware.run()
LOG: Accepted client: /10.0.0.7:60168in MyMiddleware.run()
LOG: Accepted client: /10.0.0.7:60130in MyMiddleware.run()
LOG: Accepted client: /10.0.0.7:60186in MyMiddleware.run()
LOG: Accepted client: /10.0.0.7:60132in MyMiddleware.run()
LOG: Accepted client: /10.0.0.7:60184in MyMiddleware.run()
LOG: Accepted client: /10.0.0.7:60154in MyMiddleware.run()
LOG: Accepted client: /10.0.0.7:60156in MyMiddleware.run()
LOG: Accepted client: /10.0.0.7:60152in MyMiddleware.run()
LOG: Accepted client: /10.0.0.7:60166in MyMiddleware.run()
LOG: Accepted client: /10.0.0.7:60162in MyMiddleware.run()
LOG: Accepted client: /10.0.0.7:60164in MyMiddleware.run()
LOG: Accepted client: /10.0.0.7:60160in MyMiddleware.run()
LOG: Accepted client: /10.0.0.7:60188in MyMiddleware.run()
LOG: Accepted client: /10.0.0.7:60190in MyMiddleware.run()
LOG: Accepted client: /10.0.0.7:60144in MyMiddleware.run()
LOG: Accepted client: /10.0.0.7:60150in MyMiddleware.run()
LOG: Accepted client: /10.0.0.7:60148in MyMiddleware.run()
LOG: Accepted client: /10.0.0.7:60138in MyMiddleware.run()
LOG: Accepted client: /10.0.0.7:60172in MyMiddleware.run()
LOG: Accepted client: /10.0.0.7:60176in MyMiddleware.run()
LOG: Accepted client: /10.0.0.7:60180in MyMiddleware.run()
LOG: Accepted client: /10.0.0.7:60174in MyMiddleware.run()
LOG: Accepted client: /10.0.0.7:60178in MyMiddleware.run()
LOG: Accepted client: /10.0.0.7:60182in MyMiddleware.run()
LOG: Accepted client: /10.0.0.11:58906in MyMiddleware.run()
LOG: Accepted client: /10.0.0.11:58880in MyMiddleware.run()
LOG: Accepted client: /10.0.0.11:58942in MyMiddleware.run()
LOG: Accepted client: /10.0.0.11:58886in MyMiddleware.run()
LOG: Accepted client: /10.0.0.11:58892in MyMiddleware.run()
LOG: Accepted client: /10.0.0.11:58914in MyMiddleware.run()
LOG: Accepted client: /10.0.0.11:58940in MyMiddleware.run()
LOG: Accepted client: /10.0.0.11:58884in MyMiddleware.run()
LOG: Accepted client: /10.0.0.11:58896in MyMiddleware.run()
LOG: Accepted client: /10.0.0.11:58932in MyMiddleware.run()
LOG: Accepted client: /10.0.0.11:58904in MyMiddleware.run()
LOG: Accepted client: /10.0.0.11:58894in MyMiddleware.run()
LOG: Accepted client: /10.0.0.11:58920in MyMiddleware.run()
LOG: Accepted client: /10.0.0.11:58922in MyMiddleware.run()
LOG: Accepted client: /10.0.0.11:58934in MyMiddleware.run()
LOG: Accepted client: /10.0.0.11:58882in MyMiddleware.run()
LOG: Accepted client: /10.0.0.11:58888in MyMiddleware.run()
LOG: Accepted client: /10.0.0.11:58916in MyMiddleware.run()
LOG: Accepted client: /10.0.0.11:58908in MyMiddleware.run()
LOG: Accepted client: /10.0.0.11:58928in MyMiddleware.run()
LOG: Accepted client: /10.0.0.11:58926in MyMiddleware.run()
LOG: Accepted client: /10.0.0.11:58910in MyMiddleware.run()
LOG: Accepted client: /10.0.0.11:58930in MyMiddleware.run()
LOG: Accepted client: /10.0.0.11:58918in MyMiddleware.run()
LOG: Accepted client: /10.0.0.6:38452in MyMiddleware.run()
LOG: Accepted client: /10.0.0.11:58890in MyMiddleware.run()
LOG: Accepted client: /10.0.0.11:58924in MyMiddleware.run()
LOG: Accepted client: /10.0.0.11:58900in MyMiddleware.run()
LOG: Accepted client: /10.0.0.11:58936in MyMiddleware.run()
LOG: Accepted client: /10.0.0.11:58902in MyMiddleware.run()
LOG: Accepted client: /10.0.0.11:58938in MyMiddleware.run()
LOG: Accepted client: /10.0.0.6:38444in MyMiddleware.run()
LOG: Accepted client: /10.0.0.6:38466in MyMiddleware.run()
LOG: Accepted client: /10.0.0.6:38464in MyMiddleware.run()
LOG: Accepted client: /10.0.0.11:58898in MyMiddleware.run()
LOG: Accepted client: /10.0.0.6:38432in MyMiddleware.run()
LOG: Accepted client: /10.0.0.6:38440in MyMiddleware.run()
LOG: Accepted client: /10.0.0.6:38446in MyMiddleware.run()
LOG: Accepted client: /10.0.0.6:38456in MyMiddleware.run()
LOG: Accepted client: /10.0.0.6:38478in MyMiddleware.run()
LOG: Accepted client: /10.0.0.6:38488in MyMiddleware.run()
LOG: Accepted client: /10.0.0.6:38476in MyMiddleware.run()
LOG: Accepted client: /10.0.0.6:38442in MyMiddleware.run()
LOG: Accepted client: /10.0.0.6:38426in MyMiddleware.run()
LOG: Accepted client: /10.0.0.6:38458in MyMiddleware.run()
LOG: Accepted client: /10.0.0.6:38454in MyMiddleware.run()
LOG: Accepted client: /10.0.0.6:38438in MyMiddleware.run()
LOG: Accepted client: /10.0.0.6:38482in MyMiddleware.run()
LOG: Accepted client: /10.0.0.6:38480in MyMiddleware.run()
LOG: Accepted client: /10.0.0.6:38436in MyMiddleware.run()
LOG: Accepted client: /10.0.0.6:38448in MyMiddleware.run()
LOG: Accepted client: /10.0.0.6:38428in MyMiddleware.run()
LOG: Accepted client: /10.0.0.6:38430in MyMiddleware.run()
LOG: Accepted client: /10.0.0.6:38470in MyMiddleware.run()
LOG: Accepted client: /10.0.0.6:38450in MyMiddleware.run()
LOG: Accepted client: /10.0.0.6:38468in MyMiddleware.run()
LOG: Accepted client: /10.0.0.6:38434in MyMiddleware.run()
LOG: Accepted client: /10.0.0.11:58912in MyMiddleware.run()
LOG: Accepted client: /10.0.0.6:38472in MyMiddleware.run()
LOG: Accepted client: /10.0.0.6:38484in MyMiddleware.run()
LOG: Accepted client: /10.0.0.6:38460in MyMiddleware.run()
LOG: Accepted client: /10.0.0.6:38462in MyMiddleware.run()
LOG: Accepted client: /10.0.0.6:38474in MyMiddleware.run()
LOG: Accepted client: /10.0.0.6:38486in MyMiddleware.run()
LOG: Closed client: /10.0.0.11:58912in MyMiddleware.run()
LOG: Closed client: /10.0.0.11:58892in MyMiddleware.run()
LOG: Closed client: /10.0.0.11:58896in MyMiddleware.run()
LOG: Closed client: /10.0.0.11:58886in MyMiddleware.run()
LOG: Closed client: /10.0.0.11:58888in MyMiddleware.run()
LOG: Closed client: /10.0.0.11:58916in MyMiddleware.run()
LOG: Closed client: /10.0.0.11:58900in MyMiddleware.run()
LOG: Closed client: /10.0.0.11:58940in MyMiddleware.run()
LOG: Closed client: /10.0.0.11:58922in MyMiddleware.run()
LOG: Closed client: /10.0.0.11:58938in MyMiddleware.run()
LOG: Closed client: /10.0.0.11:58884in MyMiddleware.run()
LOG: Closed client: /10.0.0.11:58894in MyMiddleware.run()
LOG: Closed client: /10.0.0.11:58924in MyMiddleware.run()
LOG: Closed client: /10.0.0.11:58906in MyMiddleware.run()
LOG: Closed client: /10.0.0.11:58932in MyMiddleware.run()
LOG: Closed client: /10.0.0.11:58942in MyMiddleware.run()
LOG: Closed client: /10.0.0.11:58880in MyMiddleware.run()
LOG: Closed client: /10.0.0.11:58936in MyMiddleware.run()
LOG: Closed client: /10.0.0.11:58898in MyMiddleware.run()
LOG: Closed client: /10.0.0.11:58914in MyMiddleware.run()
LOG: Closed client: /10.0.0.11:58882in MyMiddleware.run()
LOG: Closed client: /10.0.0.11:58902in MyMiddleware.run()
LOG: Closed client: /10.0.0.11:58908in MyMiddleware.run()
LOG: Closed client: /10.0.0.11:58890in MyMiddleware.run()
LOG: Closed client: /10.0.0.11:58928in MyMiddleware.run()
LOG: Closed client: /10.0.0.11:58918in MyMiddleware.run()
LOG: Closed client: /10.0.0.11:58926in MyMiddleware.run()
LOG: Closed client: /10.0.0.11:58910in MyMiddleware.run()
LOG: Closed client: /10.0.0.11:58930in MyMiddleware.run()
LOG: Closed client: /10.0.0.11:58904in MyMiddleware.run()
LOG: Closed client: /10.0.0.11:58934in MyMiddleware.run()
LOG: Closed client: /10.0.0.11:58920in MyMiddleware.run()
LOG: Closed client: /10.0.0.7:60152in MyMiddleware.run()
LOG: Closed client: /10.0.0.7:60154in MyMiddleware.run()
LOG: Closed client: /10.0.0.7:60136in MyMiddleware.run()
LOG: Closed client: /10.0.0.7:60182in MyMiddleware.run()
LOG: Closed client: /10.0.0.7:60158in MyMiddleware.run()
LOG: Closed client: /10.0.0.7:60174in MyMiddleware.run()
LOG: Closed client: /10.0.0.7:60146in MyMiddleware.run()
LOG: Closed client: /10.0.0.7:60156in MyMiddleware.run()
LOG: Closed client: /10.0.0.7:60134in MyMiddleware.run()
LOG: Closed client: /10.0.0.7:60164in MyMiddleware.run()
LOG: Closed client: /10.0.0.7:60172in MyMiddleware.run()
LOG: Closed client: /10.0.0.7:60162in MyMiddleware.run()
LOG: Closed client: /10.0.0.7:60138in MyMiddleware.run()
LOG: Closed client: /10.0.0.7:60186in MyMiddleware.run()
LOG: Closed client: /10.0.0.7:60132in MyMiddleware.run()
LOG: Closed client: /10.0.0.7:60150in MyMiddleware.run()
LOG: Closed client: /10.0.0.7:60180in MyMiddleware.run()
LOG: Closed client: /10.0.0.7:60144in MyMiddleware.run()
LOG: Closed client: /10.0.0.7:60168in MyMiddleware.run()
LOG: Closed client: /10.0.0.7:60160in MyMiddleware.run()
LOG: Closed client: /10.0.0.7:60184in MyMiddleware.run()
LOG: Closed client: /10.0.0.7:60170in MyMiddleware.run()
LOG: Closed client: /10.0.0.7:60166in MyMiddleware.run()
LOG: Closed client: /10.0.0.7:60148in MyMiddleware.run()
LOG: Closed client: /10.0.0.7:60130in MyMiddleware.run()
LOG: Closed client: /10.0.0.7:60178in MyMiddleware.run()
LOG: Closed client: /10.0.0.7:60176in MyMiddleware.run()
LOG: Closed client: /10.0.0.7:60190in MyMiddleware.run()
LOG: Closed client: /10.0.0.7:60128in MyMiddleware.run()
LOG: Closed client: /10.0.0.7:60142in MyMiddleware.run()
LOG: Closed client: /10.0.0.7:60140in MyMiddleware.run()
LOG: Closed client: /10.0.0.7:60188in MyMiddleware.run()
LOG: Closed client: /10.0.0.6:38428in MyMiddleware.run()
LOG: Closed client: /10.0.0.6:38448in MyMiddleware.run()
LOG: Closed client: /10.0.0.6:38430in MyMiddleware.run()
LOG: Closed client: /10.0.0.6:38436in MyMiddleware.run()
LOG: Closed client: /10.0.0.6:38440in MyMiddleware.run()
LOG: Closed client: /10.0.0.6:38446in MyMiddleware.run()
LOG: Closed client: /10.0.0.6:38438in MyMiddleware.run()
LOG: Closed client: /10.0.0.6:38426in MyMiddleware.run()
LOG: Closed client: /10.0.0.6:38484in MyMiddleware.run()
LOG: Closed client: /10.0.0.6:38454in MyMiddleware.run()
LOG: Closed client: /10.0.0.6:38472in MyMiddleware.run()
LOG: Closed client: /10.0.0.6:38460in MyMiddleware.run()
LOG: Closed client: /10.0.0.6:38464in MyMiddleware.run()
LOG: Closed client: /10.0.0.6:38458in MyMiddleware.run()
LOG: Closed client: /10.0.0.6:38442in MyMiddleware.run()
LOG: Closed client: /10.0.0.6:38434in MyMiddleware.run()
LOG: Closed client: /10.0.0.6:38444in MyMiddleware.run()
LOG: Closed client: /10.0.0.6:38466in MyMiddleware.run()
LOG: Closed client: /10.0.0.6:38470in MyMiddleware.run()
LOG: Closed client: /10.0.0.6:38482in MyMiddleware.run()
LOG: Closed client: /10.0.0.6:38432in MyMiddleware.run()
LOG: Closed client: /10.0.0.6:38452in MyMiddleware.run()
LOG: Closed client: /10.0.0.6:38462in MyMiddleware.run()
LOG: Closed client: /10.0.0.6:38480in MyMiddleware.run()
LOG: Closed client: /10.0.0.6:38486in MyMiddleware.run()
LOG: Closed client: /10.0.0.6:38468in MyMiddleware.run()
LOG: Closed client: /10.0.0.6:38450in MyMiddleware.run()
LOG: Closed client: /10.0.0.6:38474in MyMiddleware.run()
LOG: Closed client: /10.0.0.6:38488in MyMiddleware.run()
LOG: Closed client: /10.0.0.6:38478in MyMiddleware.run()
LOG: Closed client: /10.0.0.6:38476in MyMiddleware.run()
LOG: Closed client: /10.0.0.6:38456in MyMiddleware.run()
