------------Middleware started!------------
LOG: Waiting for connection in MyMiddleware.run()
LOG: Accepted client: /10.0.0.11:59664in MyMiddleware.run()
LOG: Accepted client: /10.0.0.11:59666in MyMiddleware.run()
LOG: Accepted client: /10.0.0.11:59662in MyMiddleware.run()
LOG: Accepted client: /10.0.0.11:59660in MyMiddleware.run()
LOG: Accepted client: /10.0.0.11:59672in MyMiddleware.run()
LOG: Accepted client: /10.0.0.6:39252in MyMiddleware.run()
LOG: Accepted client: /10.0.0.11:59678in MyMiddleware.run()
LOG: Accepted client: /10.0.0.11:59668in MyMiddleware.run()
LOG: Accepted client: /10.0.0.6:39218in MyMiddleware.run()
LOG: Accepted client: /10.0.0.6:39256in MyMiddleware.run()
LOG: Accepted client: /10.0.0.11:59676in MyMiddleware.run()
LOG: Accepted client: /10.0.0.6:39214in MyMiddleware.run()
LOG: Accepted client: /10.0.0.6:39216in MyMiddleware.run()
LOG: Accepted client: /10.0.0.6:39212in MyMiddleware.run()
LOG: Accepted client: /10.0.0.6:39250in MyMiddleware.run()
LOG: Accepted client: /10.0.0.6:39210in MyMiddleware.run()
LOG: Accepted client: /10.0.0.6:39238in MyMiddleware.run()
LOG: Accepted client: /10.0.0.11:59718in MyMiddleware.run()
LOG: Accepted client: /10.0.0.11:59698in MyMiddleware.run()
LOG: Accepted client: /10.0.0.6:39254in MyMiddleware.run()
LOG: Accepted client: /10.0.0.11:59692in MyMiddleware.run()
LOG: Accepted client: /10.0.0.6:39230in MyMiddleware.run()
LOG: Accepted client: /10.0.0.11:59680in MyMiddleware.run()
LOG: Accepted client: /10.0.0.6:39242in MyMiddleware.run()
LOG: Accepted client: /10.0.0.11:59686in MyMiddleware.run()
LOG: Accepted client: /10.0.0.6:39260in MyMiddleware.run()
LOG: Accepted client: /10.0.0.11:59694in MyMiddleware.run()
LOG: Accepted client: /10.0.0.6:39224in MyMiddleware.run()
LOG: Accepted client: /10.0.0.6:39258in MyMiddleware.run()
LOG: Accepted client: /10.0.0.11:59688in MyMiddleware.run()
LOG: Accepted client: /10.0.0.11:59670in MyMiddleware.run()
LOG: Accepted client: /10.0.0.11:59690in MyMiddleware.run()
LOG: Accepted client: /10.0.0.6:39262in MyMiddleware.run()
LOG: Accepted client: /10.0.0.6:39264in MyMiddleware.run()
LOG: Accepted client: /10.0.0.6:39236in MyMiddleware.run()
LOG: Accepted client: /10.0.0.6:39244in MyMiddleware.run()
LOG: Accepted client: /10.0.0.11:59704in MyMiddleware.run()
LOG: Accepted client: /10.0.0.11:59716in MyMiddleware.run()
LOG: Accepted client: /10.0.0.6:39272in MyMiddleware.run()
LOG: Accepted client: /10.0.0.6:39226in MyMiddleware.run()
LOG: Accepted client: /10.0.0.6:39246in MyMiddleware.run()
LOG: Accepted client: /10.0.0.11:59674in MyMiddleware.run()
LOG: Accepted client: /10.0.0.11:59682in MyMiddleware.run()
LOG: Accepted client: /10.0.0.6:39240in MyMiddleware.run()
LOG: Accepted client: /10.0.0.6:39228in MyMiddleware.run()
LOG: Accepted client: /10.0.0.11:59722in MyMiddleware.run()
LOG: Accepted client: /10.0.0.6:39248in MyMiddleware.run()
LOG: Accepted client: /10.0.0.6:39220in MyMiddleware.run()
LOG: Accepted client: /10.0.0.11:59684in MyMiddleware.run()
LOG: Accepted client: /10.0.0.6:39232in MyMiddleware.run()
LOG: Accepted client: /10.0.0.6:39234in MyMiddleware.run()
LOG: Accepted client: /10.0.0.6:39222in MyMiddleware.run()
LOG: Accepted client: /10.0.0.11:59712in MyMiddleware.run()
LOG: Accepted client: /10.0.0.11:59700in MyMiddleware.run()
LOG: Accepted client: /10.0.0.11:59710in MyMiddleware.run()
LOG: Accepted client: /10.0.0.6:39266in MyMiddleware.run()
LOG: Accepted client: /10.0.0.7:60954in MyMiddleware.run()
LOG: Accepted client: /10.0.0.7:60932in MyMiddleware.run()
LOG: Accepted client: /10.0.0.7:60938in MyMiddleware.run()
LOG: Accepted client: /10.0.0.11:59706in MyMiddleware.run()
LOG: Accepted client: /10.0.0.11:59720in MyMiddleware.run()
LOG: Accepted client: /10.0.0.11:59708in MyMiddleware.run()
LOG: Accepted client: /10.0.0.11:59714in MyMiddleware.run()
LOG: Accepted client: /10.0.0.11:59696in MyMiddleware.run()
LOG: Accepted client: /10.0.0.11:59702in MyMiddleware.run()
LOG: Accepted client: /10.0.0.7:60974in MyMiddleware.run()
LOG: Accepted client: /10.0.0.7:60940in MyMiddleware.run()
LOG: Accepted client: /10.0.0.7:60952in MyMiddleware.run()
LOG: Accepted client: /10.0.0.7:60992in MyMiddleware.run()
LOG: Accepted client: /10.0.0.7:60950in MyMiddleware.run()
LOG: Accepted client: /10.0.0.7:60962in MyMiddleware.run()
LOG: Accepted client: /10.0.0.7:60990in MyMiddleware.run()
LOG: Accepted client: /10.0.0.7:60946in MyMiddleware.run()
LOG: Accepted client: /10.0.0.7:60942in MyMiddleware.run()
LOG: Accepted client: /10.0.0.7:60944in MyMiddleware.run()
LOG: Accepted client: /10.0.0.7:60960in MyMiddleware.run()
LOG: Accepted client: /10.0.0.7:60968in MyMiddleware.run()
LOG: Accepted client: /10.0.0.7:60980in MyMiddleware.run()
LOG: Accepted client: /10.0.0.7:60948in MyMiddleware.run()
LOG: Accepted client: /10.0.0.7:60934in MyMiddleware.run()
LOG: Accepted client: /10.0.0.7:60994in MyMiddleware.run()
LOG: Accepted client: /10.0.0.7:60982in MyMiddleware.run()
LOG: Accepted client: /10.0.0.7:60936in MyMiddleware.run()
LOG: Accepted client: /10.0.0.7:60986in MyMiddleware.run()
LOG: Accepted client: /10.0.0.7:60964in MyMiddleware.run()
LOG: Accepted client: /10.0.0.7:60984in MyMiddleware.run()
LOG: Accepted client: /10.0.0.7:60966in MyMiddleware.run()
LOG: Accepted client: /10.0.0.6:39270in MyMiddleware.run()
LOG: Accepted client: /10.0.0.6:39268in MyMiddleware.run()
LOG: Accepted client: /10.0.0.7:60978in MyMiddleware.run()
LOG: Accepted client: /10.0.0.7:60958in MyMiddleware.run()
LOG: Accepted client: /10.0.0.7:60972in MyMiddleware.run()
LOG: Accepted client: /10.0.0.7:60988in MyMiddleware.run()
LOG: Accepted client: /10.0.0.7:60970in MyMiddleware.run()
LOG: Accepted client: /10.0.0.7:60956in MyMiddleware.run()
LOG: Accepted client: /10.0.0.7:60976in MyMiddleware.run()
LOG: Closed client: /10.0.0.11:59662in MyMiddleware.run()
LOG: Closed client: /10.0.0.11:59692in MyMiddleware.run()
LOG: Closed client: /10.0.0.11:59690in MyMiddleware.run()
LOG: Closed client: /10.0.0.11:59684in MyMiddleware.run()
LOG: Closed client: /10.0.0.11:59688in MyMiddleware.run()
LOG: Closed client: /10.0.0.11:59706in MyMiddleware.run()
LOG: Closed client: /10.0.0.11:59666in MyMiddleware.run()
LOG: Closed client: /10.0.0.11:59670in MyMiddleware.run()
LOG: Closed client: /10.0.0.11:59714in MyMiddleware.run()
LOG: Closed client: /10.0.0.11:59722in MyMiddleware.run()
LOG: Closed client: /10.0.0.11:59668in MyMiddleware.run()
LOG: Closed client: /10.0.0.11:59698in MyMiddleware.run()
LOG: Closed client: /10.0.0.11:59704in MyMiddleware.run()
LOG: Closed client: /10.0.0.11:59674in MyMiddleware.run()
LOG: Closed client: /10.0.0.11:59694in MyMiddleware.run()
LOG: Closed client: /10.0.0.11:59718in MyMiddleware.run()
LOG: Closed client: /10.0.0.11:59676in MyMiddleware.run()
LOG: Closed client: /10.0.0.11:59720in MyMiddleware.run()
LOG: Closed client: /10.0.0.11:59696in MyMiddleware.run()
LOG: Closed client: /10.0.0.11:59678in MyMiddleware.run()
LOG: Closed client: /10.0.0.11:59716in MyMiddleware.run()
LOG: Closed client: /10.0.0.11:59660in MyMiddleware.run()
LOG: Closed client: /10.0.0.11:59680in MyMiddleware.run()
LOG: Closed client: /10.0.0.11:59708in MyMiddleware.run()
LOG: Closed client: /10.0.0.11:59702in MyMiddleware.run()
LOG: Closed client: /10.0.0.11:59672in MyMiddleware.run()
LOG: Closed client: /10.0.0.11:59664in MyMiddleware.run()
LOG: Closed client: /10.0.0.11:59712in MyMiddleware.run()
LOG: Closed client: /10.0.0.11:59700in MyMiddleware.run()
LOG: Closed client: /10.0.0.11:59710in MyMiddleware.run()
LOG: Closed client: /10.0.0.11:59686in MyMiddleware.run()
LOG: Closed client: /10.0.0.11:59682in MyMiddleware.run()
LOG: Closed client: /10.0.0.6:39272in MyMiddleware.run()
LOG: Closed client: /10.0.0.6:39226in MyMiddleware.run()
LOG: Closed client: /10.0.0.6:39224in MyMiddleware.run()
LOG: Closed client: /10.0.0.6:39236in MyMiddleware.run()
LOG: Closed client: /10.0.0.6:39260in MyMiddleware.run()
LOG: Closed client: /10.0.0.6:39216in MyMiddleware.run()
LOG: Closed client: /10.0.0.6:39244in MyMiddleware.run()
LOG: Closed client: /10.0.0.6:39232in MyMiddleware.run()
LOG: Closed client: /10.0.0.6:39210in MyMiddleware.run()
LOG: Closed client: /10.0.0.6:39250in MyMiddleware.run()
LOG: Closed client: /10.0.0.6:39240in MyMiddleware.run()
LOG: Closed client: /10.0.0.6:39262in MyMiddleware.run()
LOG: Closed client: /10.0.0.6:39230in MyMiddleware.run()
LOG: Closed client: /10.0.0.6:39268in MyMiddleware.run()
LOG: Closed client: /10.0.0.6:39264in MyMiddleware.run()
LOG: Closed client: /10.0.0.6:39220in MyMiddleware.run()
LOG: Closed client: /10.0.0.6:39242in MyMiddleware.run()
LOG: Closed client: /10.0.0.6:39234in MyMiddleware.run()
LOG: Closed client: /10.0.0.6:39218in MyMiddleware.run()
LOG: Closed client: /10.0.0.6:39222in MyMiddleware.run()
LOG: Closed client: /10.0.0.6:39246in MyMiddleware.run()
LOG: Closed client: /10.0.0.6:39266in MyMiddleware.run()
LOG: Closed client: /10.0.0.6:39238in MyMiddleware.run()
LOG: Closed client: /10.0.0.6:39270in MyMiddleware.run()
LOG: Closed client: /10.0.0.6:39248in MyMiddleware.run()
LOG: Closed client: /10.0.0.6:39228in MyMiddleware.run()
LOG: Closed client: /10.0.0.6:39254in MyMiddleware.run()
LOG: Closed client: /10.0.0.6:39252in MyMiddleware.run()
LOG: Closed client: /10.0.0.6:39212in MyMiddleware.run()
LOG: Closed client: /10.0.0.6:39214in MyMiddleware.run()
LOG: Closed client: /10.0.0.6:39258in MyMiddleware.run()
LOG: Closed client: /10.0.0.6:39256in MyMiddleware.run()
LOG: Closed client: /10.0.0.7:60978in MyMiddleware.run()
LOG: Closed client: /10.0.0.7:60958in MyMiddleware.run()
LOG: Closed client: /10.0.0.7:60982in MyMiddleware.run()
LOG: Closed client: /10.0.0.7:60954in MyMiddleware.run()
LOG: Closed client: /10.0.0.7:60994in MyMiddleware.run()
LOG: Closed client: /10.0.0.7:60976in MyMiddleware.run()
LOG: Closed client: /10.0.0.7:60956in MyMiddleware.run()
LOG: Closed client: /10.0.0.7:60990in MyMiddleware.run()
LOG: Closed client: /10.0.0.7:60950in MyMiddleware.run()
LOG: Closed client: /10.0.0.7:60948in MyMiddleware.run()
LOG: Closed client: /10.0.0.7:60960in MyMiddleware.run()
LOG: Closed client: /10.0.0.7:60972in MyMiddleware.run()
LOG: Closed client: /10.0.0.7:60986in MyMiddleware.run()
LOG: Closed client: /10.0.0.7:60980in MyMiddleware.run()
LOG: Closed client: /10.0.0.7:60938in MyMiddleware.run()
LOG: Closed client: /10.0.0.7:60988in MyMiddleware.run()
LOG: Closed client: /10.0.0.7:60974in MyMiddleware.run()
LOG: Closed client: /10.0.0.7:60968in MyMiddleware.run()
LOG: Closed client: /10.0.0.7:60944in MyMiddleware.run()
LOG: Closed client: /10.0.0.7:60942in MyMiddleware.run()
LOG: Closed client: /10.0.0.7:60936in MyMiddleware.run()
LOG: Closed client: /10.0.0.7:60940in MyMiddleware.run()
LOG: Closed client: /10.0.0.7:60964in MyMiddleware.run()
LOG: Closed client: /10.0.0.7:60962in MyMiddleware.run()
LOG: Closed client: /10.0.0.7:60932in MyMiddleware.run()
LOG: Closed client: /10.0.0.7:60934in MyMiddleware.run()
LOG: Closed client: /10.0.0.7:60984in MyMiddleware.run()
LOG: Closed client: /10.0.0.7:60952in MyMiddleware.run()
LOG: Closed client: /10.0.0.7:60992in MyMiddleware.run()
LOG: Closed client: /10.0.0.7:60970in MyMiddleware.run()
LOG: Closed client: /10.0.0.7:60966in MyMiddleware.run()
LOG: Closed client: /10.0.0.7:60946in MyMiddleware.run()
