------------Middleware started!------------
LOG: Waiting for connection in MyMiddleware.run()
LOG: Accepted client: /10.0.0.11:49694in MyMiddleware.run()
LOG: Accepted client: /10.0.0.11:49698in MyMiddleware.run()
LOG: Accepted client: /10.0.0.11:49696in MyMiddleware.run()
LOG: Accepted client: /10.0.0.11:49700in MyMiddleware.run()
LOG: Accepted client: /10.0.0.7:50980in MyMiddleware.run()
LOG: Accepted client: /10.0.0.6:57496in MyMiddleware.run()
LOG: Accepted client: /10.0.0.7:50974in MyMiddleware.run()
LOG: Accepted client: /10.0.0.7:50978in MyMiddleware.run()
LOG: Accepted client: /10.0.0.6:57492in MyMiddleware.run()
LOG: Accepted client: /10.0.0.6:57494in MyMiddleware.run()
LOG: Accepted client: /10.0.0.7:50976in MyMiddleware.run()
LOG: Accepted client: /10.0.0.6:57498in MyMiddleware.run()
LOG: Closed client: /10.0.0.11:49694in MyMiddleware.run()
LOG: Closed client: /10.0.0.11:49698in MyMiddleware.run()
LOG: Closed client: /10.0.0.11:49696in MyMiddleware.run()
LOG: Closed client: /10.0.0.11:49700in MyMiddleware.run()
LOG: Closed client: /10.0.0.7:50976in MyMiddleware.run()
LOG: Closed client: /10.0.0.7:50974in MyMiddleware.run()
LOG: Closed client: /10.0.0.7:50980in MyMiddleware.run()
LOG: Closed client: /10.0.0.7:50978in MyMiddleware.run()
LOG: Closed client: /10.0.0.6:57492in MyMiddleware.run()
LOG: Closed client: /10.0.0.6:57496in MyMiddleware.run()
LOG: Closed client: /10.0.0.6:57494in MyMiddleware.run()
LOG: Closed client: /10.0.0.6:57498in MyMiddleware.run()
