------------Middleware started!------------
LOG: Waiting for connection in MyMiddleware.run()
LOG: Accepted client: /10.0.0.6:55442in MyMiddleware.run()
LOG: Accepted client: /10.0.0.6:55444in MyMiddleware.run()
LOG: Accepted client: /10.0.0.6:55440in MyMiddleware.run()
LOG: Accepted client: /10.0.0.6:55446in MyMiddleware.run()
LOG: Accepted client: /10.0.0.11:47664in MyMiddleware.run()
LOG: Accepted client: /10.0.0.11:47660in MyMiddleware.run()
LOG: Accepted client: /10.0.0.11:47662in MyMiddleware.run()
LOG: Accepted client: /10.0.0.7:48936in MyMiddleware.run()
LOG: Accepted client: /10.0.0.7:48930in MyMiddleware.run()
LOG: Accepted client: /10.0.0.7:48934in MyMiddleware.run()
LOG: Accepted client: /10.0.0.7:48932in MyMiddleware.run()
LOG: Accepted client: /10.0.0.11:47658in MyMiddleware.run()
LOG: Closed client: /10.0.0.6:55440in MyMiddleware.run()
LOG: Closed client: /10.0.0.6:55442in MyMiddleware.run()
LOG: Closed client: /10.0.0.6:55446in MyMiddleware.run()
LOG: Closed client: /10.0.0.6:55444in MyMiddleware.run()
LOG: Closed client: /10.0.0.7:48932in MyMiddleware.run()
LOG: Closed client: /10.0.0.7:48930in MyMiddleware.run()
LOG: Closed client: /10.0.0.7:48934in MyMiddleware.run()
LOG: Closed client: /10.0.0.7:48936in MyMiddleware.run()
LOG: Closed client: /10.0.0.11:47662in MyMiddleware.run()
LOG: Closed client: /10.0.0.11:47664in MyMiddleware.run()
LOG: Closed client: /10.0.0.11:47660in MyMiddleware.run()
LOG: Closed client: /10.0.0.11:47658in MyMiddleware.run()
