------------Middleware started!------------
LOG: Waiting for connection in MyMiddleware.run()
LOG: Accepted client: /10.0.0.11:46332in MyMiddleware.run()
LOG: Accepted client: /10.0.0.11:46344in MyMiddleware.run()
LOG: Accepted client: /10.0.0.11:46356in MyMiddleware.run()
LOG: Accepted client: /10.0.0.11:46382in MyMiddleware.run()
LOG: Accepted client: /10.0.0.11:46362in MyMiddleware.run()
LOG: Accepted client: /10.0.0.11:46352in MyMiddleware.run()
LOG: Accepted client: /10.0.0.11:46338in MyMiddleware.run()
LOG: Accepted client: /10.0.0.11:46390in MyMiddleware.run()
LOG: Accepted client: /10.0.0.11:46376in MyMiddleware.run()
LOG: Accepted client: /10.0.0.11:46384in MyMiddleware.run()
LOG: Accepted client: /10.0.0.11:46392in MyMiddleware.run()
LOG: Accepted client: /10.0.0.11:46388in MyMiddleware.run()
LOG: Accepted client: /10.0.0.11:46358in MyMiddleware.run()
LOG: Accepted client: /10.0.0.11:46368in MyMiddleware.run()
LOG: Accepted client: /10.0.0.11:46348in MyMiddleware.run()
LOG: Accepted client: /10.0.0.11:46342in MyMiddleware.run()
LOG: Accepted client: /10.0.0.11:46380in MyMiddleware.run()
LOG: Accepted client: /10.0.0.11:46378in MyMiddleware.run()
LOG: Accepted client: /10.0.0.11:46336in MyMiddleware.run()
LOG: Accepted client: /10.0.0.11:46334in MyMiddleware.run()
LOG: Accepted client: /10.0.0.11:46360in MyMiddleware.run()
LOG: Accepted client: /10.0.0.11:46346in MyMiddleware.run()
LOG: Accepted client: /10.0.0.11:46330in MyMiddleware.run()
LOG: Accepted client: /10.0.0.11:46340in MyMiddleware.run()
LOG: Accepted client: /10.0.0.11:46374in MyMiddleware.run()
LOG: Accepted client: /10.0.0.11:46372in MyMiddleware.run()
LOG: Accepted client: /10.0.0.11:46350in MyMiddleware.run()
LOG: Accepted client: /10.0.0.11:46364in MyMiddleware.run()
LOG: Accepted client: /10.0.0.11:46386in MyMiddleware.run()
LOG: Accepted client: /10.0.0.11:46366in MyMiddleware.run()
LOG: Accepted client: /10.0.0.11:46370in MyMiddleware.run()
LOG: Accepted client: /10.0.0.11:46354in MyMiddleware.run()
LOG: Accepted client: /10.0.0.7:47700in MyMiddleware.run()
LOG: Accepted client: /10.0.0.7:47662in MyMiddleware.run()
LOG: Accepted client: /10.0.0.7:47658in MyMiddleware.run()
LOG: Accepted client: /10.0.0.7:47704in MyMiddleware.run()
LOG: Accepted client: /10.0.0.7:47680in MyMiddleware.run()
LOG: Accepted client: /10.0.0.7:47670in MyMiddleware.run()
LOG: Accepted client: /10.0.0.7:47698in MyMiddleware.run()
LOG: Accepted client: /10.0.0.7:47674in MyMiddleware.run()
LOG: Accepted client: /10.0.0.7:47672in MyMiddleware.run()
LOG: Accepted client: /10.0.0.7:47676in MyMiddleware.run()
LOG: Accepted client: /10.0.0.7:47690in MyMiddleware.run()
LOG: Accepted client: /10.0.0.7:47696in MyMiddleware.run()
LOG: Accepted client: /10.0.0.7:47668in MyMiddleware.run()
LOG: Accepted client: /10.0.0.7:47702in MyMiddleware.run()
LOG: Accepted client: /10.0.0.7:47686in MyMiddleware.run()
LOG: Accepted client: /10.0.0.7:47666in MyMiddleware.run()
LOG: Accepted client: /10.0.0.7:47682in MyMiddleware.run()
LOG: Accepted client: /10.0.0.7:47710in MyMiddleware.run()
LOG: Accepted client: /10.0.0.7:47660in MyMiddleware.run()
LOG: Accepted client: /10.0.0.7:47708in MyMiddleware.run()
LOG: Accepted client: /10.0.0.7:47706in MyMiddleware.run()
LOG: Accepted client: /10.0.0.7:47720in MyMiddleware.run()
LOG: Accepted client: /10.0.0.7:47684in MyMiddleware.run()
LOG: Accepted client: /10.0.0.7:47664in MyMiddleware.run()
LOG: Accepted client: /10.0.0.7:47688in MyMiddleware.run()
LOG: Accepted client: /10.0.0.7:47718in MyMiddleware.run()
LOG: Accepted client: /10.0.0.7:47678in MyMiddleware.run()
LOG: Accepted client: /10.0.0.7:47694in MyMiddleware.run()
LOG: Accepted client: /10.0.0.7:47716in MyMiddleware.run()
LOG: Accepted client: /10.0.0.7:47714in MyMiddleware.run()
LOG: Accepted client: /10.0.0.7:47692in MyMiddleware.run()
LOG: Accepted client: /10.0.0.7:47712in MyMiddleware.run()
LOG: Accepted client: /10.0.0.6:54188in MyMiddleware.run()
LOG: Accepted client: /10.0.0.6:54190in MyMiddleware.run()
LOG: Accepted client: /10.0.0.6:54186in MyMiddleware.run()
LOG: Accepted client: /10.0.0.6:54192in MyMiddleware.run()
LOG: Accepted client: /10.0.0.6:54184in MyMiddleware.run()
LOG: Accepted client: /10.0.0.6:54182in MyMiddleware.run()
LOG: Accepted client: /10.0.0.6:54180in MyMiddleware.run()
LOG: Accepted client: /10.0.0.6:54196in MyMiddleware.run()
LOG: Accepted client: /10.0.0.6:54206in MyMiddleware.run()
LOG: Accepted client: /10.0.0.6:54198in MyMiddleware.run()
LOG: Accepted client: /10.0.0.6:54220in MyMiddleware.run()
LOG: Accepted client: /10.0.0.6:54200in MyMiddleware.run()
LOG: Accepted client: /10.0.0.6:54194in MyMiddleware.run()
LOG: Accepted client: /10.0.0.6:54214in MyMiddleware.run()
LOG: Accepted client: /10.0.0.6:54212in MyMiddleware.run()
LOG: Accepted client: /10.0.0.6:54208in MyMiddleware.run()
LOG: Accepted client: /10.0.0.6:54240in MyMiddleware.run()
LOG: Accepted client: /10.0.0.6:54216in MyMiddleware.run()
LOG: Accepted client: /10.0.0.6:54238in MyMiddleware.run()
LOG: Accepted client: /10.0.0.6:54242in MyMiddleware.run()
LOG: Accepted client: /10.0.0.6:54222in MyMiddleware.run()
LOG: Accepted client: /10.0.0.6:54234in MyMiddleware.run()
LOG: Accepted client: /10.0.0.6:54204in MyMiddleware.run()
LOG: Accepted client: /10.0.0.6:54236in MyMiddleware.run()
LOG: Accepted client: /10.0.0.6:54232in MyMiddleware.run()
LOG: Accepted client: /10.0.0.6:54224in MyMiddleware.run()
LOG: Accepted client: /10.0.0.6:54210in MyMiddleware.run()
LOG: Accepted client: /10.0.0.6:54218in MyMiddleware.run()
LOG: Accepted client: /10.0.0.6:54202in MyMiddleware.run()
LOG: Accepted client: /10.0.0.6:54226in MyMiddleware.run()
LOG: Accepted client: /10.0.0.6:54228in MyMiddleware.run()
LOG: Accepted client: /10.0.0.6:54230in MyMiddleware.run()
LOG: Closed client: /10.0.0.7:47658in MyMiddleware.run()
LOG: Closed client: /10.0.0.7:47664in MyMiddleware.run()
LOG: Closed client: /10.0.0.7:47720in MyMiddleware.run()
LOG: Closed client: /10.0.0.7:47700in MyMiddleware.run()
LOG: Closed client: /10.0.0.7:47662in MyMiddleware.run()
LOG: Closed client: /10.0.0.7:47696in MyMiddleware.run()
LOG: Closed client: /10.0.0.7:47692in MyMiddleware.run()
LOG: Closed client: /10.0.0.7:47686in MyMiddleware.run()
LOG: Closed client: /10.0.0.7:47694in MyMiddleware.run()
LOG: Closed client: /10.0.0.7:47714in MyMiddleware.run()
LOG: Closed client: /10.0.0.7:47690in MyMiddleware.run()
LOG: Closed client: /10.0.0.7:47710in MyMiddleware.run()
LOG: Closed client: /10.0.0.7:47716in MyMiddleware.run()
LOG: Closed client: /10.0.0.7:47678in MyMiddleware.run()
LOG: Closed client: /10.0.0.7:47668in MyMiddleware.run()
LOG: Closed client: /10.0.0.7:47718in MyMiddleware.run()
LOG: Closed client: /10.0.0.7:47666in MyMiddleware.run()
LOG: Closed client: /10.0.0.7:47660in MyMiddleware.run()
LOG: Closed client: /10.0.0.7:47702in MyMiddleware.run()
LOG: Closed client: /10.0.0.7:47682in MyMiddleware.run()
LOG: Closed client: /10.0.0.7:47684in MyMiddleware.run()
LOG: Closed client: /10.0.0.7:47676in MyMiddleware.run()
LOG: Closed client: /10.0.0.7:47712in MyMiddleware.run()
LOG: Closed client: /10.0.0.7:47704in MyMiddleware.run()
LOG: Closed client: /10.0.0.7:47674in MyMiddleware.run()
LOG: Closed client: /10.0.0.7:47708in MyMiddleware.run()
LOG: Closed client: /10.0.0.7:47706in MyMiddleware.run()
LOG: Closed client: /10.0.0.7:47680in MyMiddleware.run()
LOG: Closed client: /10.0.0.7:47672in MyMiddleware.run()
LOG: Closed client: /10.0.0.7:47670in MyMiddleware.run()
LOG: Closed client: /10.0.0.7:47698in MyMiddleware.run()
LOG: Closed client: /10.0.0.7:47688in MyMiddleware.run()
LOG: Closed client: /10.0.0.11:46342in MyMiddleware.run()
LOG: Closed client: /10.0.0.11:46334in MyMiddleware.run()
LOG: Closed client: /10.0.0.11:46332in MyMiddleware.run()
LOG: Closed client: /10.0.0.11:46330in MyMiddleware.run()
LOG: Closed client: /10.0.0.11:46340in MyMiddleware.run()
LOG: Closed client: /10.0.0.11:46336in MyMiddleware.run()
LOG: Closed client: /10.0.0.11:46346in MyMiddleware.run()
LOG: Closed client: /10.0.0.11:46338in MyMiddleware.run()
LOG: Closed client: /10.0.0.11:46344in MyMiddleware.run()
LOG: Closed client: /10.0.0.11:46368in MyMiddleware.run()
LOG: Closed client: /10.0.0.11:46348in MyMiddleware.run()
LOG: Closed client: /10.0.0.11:46366in MyMiddleware.run()
LOG: Closed client: /10.0.0.11:46356in MyMiddleware.run()
LOG: Closed client: /10.0.0.11:46364in MyMiddleware.run()
LOG: Closed client: /10.0.0.11:46380in MyMiddleware.run()
LOG: Closed client: /10.0.0.11:46360in MyMiddleware.run()
LOG: Closed client: /10.0.0.11:46388in MyMiddleware.run()
LOG: Closed client: /10.0.0.11:46372in MyMiddleware.run()
LOG: Closed client: /10.0.0.11:46392in MyMiddleware.run()
LOG: Closed client: /10.0.0.11:46352in MyMiddleware.run()
LOG: Closed client: /10.0.0.11:46378in MyMiddleware.run()
LOG: Closed client: /10.0.0.11:46384in MyMiddleware.run()
LOG: Closed client: /10.0.0.11:46354in MyMiddleware.run()
LOG: Closed client: /10.0.0.11:46358in MyMiddleware.run()
LOG: Closed client: /10.0.0.11:46390in MyMiddleware.run()
LOG: Closed client: /10.0.0.11:46382in MyMiddleware.run()
LOG: Closed client: /10.0.0.11:46374in MyMiddleware.run()
LOG: Closed client: /10.0.0.11:46362in MyMiddleware.run()
LOG: Closed client: /10.0.0.11:46376in MyMiddleware.run()
LOG: Closed client: /10.0.0.11:46350in MyMiddleware.run()
LOG: Closed client: /10.0.0.11:46370in MyMiddleware.run()
LOG: Closed client: /10.0.0.11:46386in MyMiddleware.run()
LOG: Closed client: /10.0.0.6:54186in MyMiddleware.run()
LOG: Closed client: /10.0.0.6:54184in MyMiddleware.run()
LOG: Closed client: /10.0.0.6:54182in MyMiddleware.run()
LOG: Closed client: /10.0.0.6:54180in MyMiddleware.run()
LOG: Closed client: /10.0.0.6:54198in MyMiddleware.run()
LOG: Closed client: /10.0.0.6:54192in MyMiddleware.run()
LOG: Closed client: /10.0.0.6:54200in MyMiddleware.run()
LOG: Closed client: /10.0.0.6:54204in MyMiddleware.run()
LOG: Closed client: /10.0.0.6:54216in MyMiddleware.run()
LOG: Closed client: /10.0.0.6:54194in MyMiddleware.run()
LOG: Closed client: /10.0.0.6:54210in MyMiddleware.run()
LOG: Closed client: /10.0.0.6:54190in MyMiddleware.run()
LOG: Closed client: /10.0.0.6:54202in MyMiddleware.run()
LOG: Closed client: /10.0.0.6:54214in MyMiddleware.run()
LOG: Closed client: /10.0.0.6:54188in MyMiddleware.run()
LOG: Closed client: /10.0.0.6:54208in MyMiddleware.run()
LOG: Closed client: /10.0.0.6:54196in MyMiddleware.run()
LOG: Closed client: /10.0.0.6:54212in MyMiddleware.run()
LOG: Closed client: /10.0.0.6:54224in MyMiddleware.run()
LOG: Closed client: /10.0.0.6:54220in MyMiddleware.run()
LOG: Closed client: /10.0.0.6:54230in MyMiddleware.run()
LOG: Closed client: /10.0.0.6:54236in MyMiddleware.run()
LOG: Closed client: /10.0.0.6:54206in MyMiddleware.run()
LOG: Closed client: /10.0.0.6:54232in MyMiddleware.run()
LOG: Closed client: /10.0.0.6:54238in MyMiddleware.run()
LOG: Closed client: /10.0.0.6:54242in MyMiddleware.run()
LOG: Closed client: /10.0.0.6:54228in MyMiddleware.run()
LOG: Closed client: /10.0.0.6:54222in MyMiddleware.run()
LOG: Closed client: /10.0.0.6:54218in MyMiddleware.run()
LOG: Closed client: /10.0.0.6:54226in MyMiddleware.run()
LOG: Closed client: /10.0.0.6:54234in MyMiddleware.run()
LOG: Closed client: /10.0.0.6:54240in MyMiddleware.run()
