------------Middleware started!------------
LOG: Waiting for connection in MyMiddleware.run()
LOG: Accepted client: /10.0.0.7:53178in MyMiddleware.run()
LOG: Accepted client: /10.0.0.7:53176in MyMiddleware.run()
LOG: Accepted client: /10.0.0.7:53182in MyMiddleware.run()
LOG: Accepted client: /10.0.0.7:53180in MyMiddleware.run()
LOG: Accepted client: /10.0.0.7:53168in MyMiddleware.run()
LOG: Accepted client: /10.0.0.7:53170in MyMiddleware.run()
LOG: Accepted client: /10.0.0.7:53174in MyMiddleware.run()
LOG: Accepted client: /10.0.0.7:53172in MyMiddleware.run()
LOG: Accepted client: /10.0.0.6:59662in MyMiddleware.run()
LOG: Accepted client: /10.0.0.6:59672in MyMiddleware.run()
LOG: Accepted client: /10.0.0.6:59676in MyMiddleware.run()
LOG: Accepted client: /10.0.0.6:59670in MyMiddleware.run()
LOG: Accepted client: /10.0.0.6:59666in MyMiddleware.run()
LOG: Accepted client: /10.0.0.6:59668in MyMiddleware.run()
LOG: Accepted client: /10.0.0.6:59664in MyMiddleware.run()
LOG: Accepted client: /10.0.0.6:59674in MyMiddleware.run()
LOG: Accepted client: /10.0.0.11:51858in MyMiddleware.run()
LOG: Accepted client: /10.0.0.11:51856in MyMiddleware.run()
LOG: Accepted client: /10.0.0.11:51864in MyMiddleware.run()
LOG: Accepted client: /10.0.0.11:51866in MyMiddleware.run()
LOG: Accepted client: /10.0.0.11:51860in MyMiddleware.run()
LOG: Accepted client: /10.0.0.11:51862in MyMiddleware.run()
LOG: Accepted client: /10.0.0.11:51868in MyMiddleware.run()
LOG: Accepted client: /10.0.0.11:51870in MyMiddleware.run()
LOG: Closed client: /10.0.0.7:53172in MyMiddleware.run()
LOG: Closed client: /10.0.0.7:53174in MyMiddleware.run()
LOG: Closed client: /10.0.0.7:53170in MyMiddleware.run()
LOG: Closed client: /10.0.0.7:53178in MyMiddleware.run()
LOG: Closed client: /10.0.0.7:53168in MyMiddleware.run()
LOG: Closed client: /10.0.0.7:53180in MyMiddleware.run()
LOG: Closed client: /10.0.0.7:53182in MyMiddleware.run()
LOG: Closed client: /10.0.0.7:53176in MyMiddleware.run()
LOG: Closed client: /10.0.0.6:59676in MyMiddleware.run()
LOG: Closed client: /10.0.0.6:59662in MyMiddleware.run()
LOG: Closed client: /10.0.0.6:59670in MyMiddleware.run()
LOG: Closed client: /10.0.0.6:59672in MyMiddleware.run()
LOG: Closed client: /10.0.0.6:59674in MyMiddleware.run()
LOG: Closed client: /10.0.0.6:59668in MyMiddleware.run()
LOG: Closed client: /10.0.0.6:59664in MyMiddleware.run()
LOG: Closed client: /10.0.0.6:59666in MyMiddleware.run()
LOG: Closed client: /10.0.0.11:51858in MyMiddleware.run()
LOG: Closed client: /10.0.0.11:51862in MyMiddleware.run()
LOG: Closed client: /10.0.0.11:51856in MyMiddleware.run()
LOG: Closed client: /10.0.0.11:51866in MyMiddleware.run()
LOG: Closed client: /10.0.0.11:51864in MyMiddleware.run()
LOG: Closed client: /10.0.0.11:51860in MyMiddleware.run()
LOG: Closed client: /10.0.0.11:51870in MyMiddleware.run()
LOG: Closed client: /10.0.0.11:51868in MyMiddleware.run()
