------------Middleware started!------------
LOG: Waiting for connection in MyMiddleware.run()
LOG: Accepted client: /10.0.0.7:58060in MyMiddleware.run()
LOG: Accepted client: /10.0.0.7:58058in MyMiddleware.run()
LOG: Accepted client: /10.0.0.7:58062in MyMiddleware.run()
LOG: Accepted client: /10.0.0.7:58056in MyMiddleware.run()
LOG: Accepted client: /10.0.0.11:56792in MyMiddleware.run()
LOG: Accepted client: /10.0.0.11:56804in MyMiddleware.run()
LOG: Accepted client: /10.0.0.11:56794in MyMiddleware.run()
LOG: Accepted client: /10.0.0.11:56806in MyMiddleware.run()
LOG: Accepted client: /10.0.0.11:56800in MyMiddleware.run()
LOG: Accepted client: /10.0.0.11:56796in MyMiddleware.run()
LOG: Accepted client: /10.0.0.11:56798in MyMiddleware.run()
LOG: Accepted client: /10.0.0.11:56802in MyMiddleware.run()
LOG: Accepted client: /10.0.0.6:36332in MyMiddleware.run()
LOG: Accepted client: /10.0.0.7:58054in MyMiddleware.run()
LOG: Accepted client: /10.0.0.6:36334in MyMiddleware.run()
LOG: Accepted client: /10.0.0.6:36350in MyMiddleware.run()
LOG: Accepted client: /10.0.0.6:36348in MyMiddleware.run()
LOG: Accepted client: /10.0.0.6:36360in MyMiddleware.run()
LOG: Accepted client: /10.0.0.6:36362in MyMiddleware.run()
LOG: Accepted client: /10.0.0.6:36340in MyMiddleware.run()
LOG: Accepted client: /10.0.0.6:36342in MyMiddleware.run()
LOG: Accepted client: /10.0.0.6:36358in MyMiddleware.run()
LOG: Accepted client: /10.0.0.6:36344in MyMiddleware.run()
LOG: Accepted client: /10.0.0.6:36356in MyMiddleware.run()
LOG: Accepted client: /10.0.0.6:36346in MyMiddleware.run()
LOG: Accepted client: /10.0.0.6:36352in MyMiddleware.run()
LOG: Accepted client: /10.0.0.6:36354in MyMiddleware.run()
LOG: Accepted client: /10.0.0.7:58072in MyMiddleware.run()
LOG: Accepted client: /10.0.0.7:58082in MyMiddleware.run()
LOG: Accepted client: /10.0.0.6:36338in MyMiddleware.run()
LOG: Accepted client: /10.0.0.6:36336in MyMiddleware.run()
LOG: Accepted client: /10.0.0.7:58074in MyMiddleware.run()
LOG: Accepted client: /10.0.0.7:58078in MyMiddleware.run()
LOG: Accepted client: /10.0.0.7:58076in MyMiddleware.run()
LOG: Accepted client: /10.0.0.7:58084in MyMiddleware.run()
LOG: Accepted client: /10.0.0.7:58080in MyMiddleware.run()
LOG: Accepted client: /10.0.0.7:58064in MyMiddleware.run()
LOG: Accepted client: /10.0.0.7:58066in MyMiddleware.run()
LOG: Accepted client: /10.0.0.11:56782in MyMiddleware.run()
LOG: Accepted client: /10.0.0.11:56808in MyMiddleware.run()
LOG: Accepted client: /10.0.0.11:56784in MyMiddleware.run()
LOG: Accepted client: /10.0.0.11:56786in MyMiddleware.run()
LOG: Accepted client: /10.0.0.11:56810in MyMiddleware.run()
LOG: Accepted client: /10.0.0.11:56812in MyMiddleware.run()
LOG: Accepted client: /10.0.0.11:56790in MyMiddleware.run()
LOG: Accepted client: /10.0.0.11:56788in MyMiddleware.run()
LOG: Accepted client: /10.0.0.7:58068in MyMiddleware.run()
LOG: Accepted client: /10.0.0.7:58070in MyMiddleware.run()
LOG: Closed client: /10.0.0.6:36350in MyMiddleware.run()
LOG: Closed client: /10.0.0.6:36358in MyMiddleware.run()
LOG: Closed client: /10.0.0.6:36360in MyMiddleware.run()
LOG: Closed client: /10.0.0.6:36340in MyMiddleware.run()
LOG: Closed client: /10.0.0.6:36332in MyMiddleware.run()
LOG: Closed client: /10.0.0.6:36334in MyMiddleware.run()
LOG: Closed client: /10.0.0.6:36344in MyMiddleware.run()
LOG: Closed client: /10.0.0.6:36338in MyMiddleware.run()
LOG: Closed client: /10.0.0.6:36346in MyMiddleware.run()
LOG: Closed client: /10.0.0.6:36356in MyMiddleware.run()
LOG: Closed client: /10.0.0.6:36348in MyMiddleware.run()
LOG: Closed client: /10.0.0.6:36342in MyMiddleware.run()
LOG: Closed client: /10.0.0.6:36352in MyMiddleware.run()
LOG: Closed client: /10.0.0.6:36362in MyMiddleware.run()
LOG: Closed client: /10.0.0.6:36354in MyMiddleware.run()
LOG: Closed client: /10.0.0.6:36336in MyMiddleware.run()
LOG: Closed client: /10.0.0.11:56788in MyMiddleware.run()
LOG: Closed client: /10.0.0.11:56786in MyMiddleware.run()
LOG: Closed client: /10.0.0.11:56802in MyMiddleware.run()
LOG: Closed client: /10.0.0.11:56784in MyMiddleware.run()
LOG: Closed client: /10.0.0.11:56782in MyMiddleware.run()
LOG: Closed client: /10.0.0.11:56790in MyMiddleware.run()
LOG: Closed client: /10.0.0.11:56800in MyMiddleware.run()
LOG: Closed client: /10.0.0.11:56806in MyMiddleware.run()
LOG: Closed client: /10.0.0.11:56812in MyMiddleware.run()
LOG: Closed client: /10.0.0.11:56794in MyMiddleware.run()
LOG: Closed client: /10.0.0.11:56792in MyMiddleware.run()
LOG: Closed client: /10.0.0.11:56808in MyMiddleware.run()
LOG: Closed client: /10.0.0.11:56810in MyMiddleware.run()
LOG: Closed client: /10.0.0.11:56798in MyMiddleware.run()
LOG: Closed client: /10.0.0.11:56804in MyMiddleware.run()
LOG: Closed client: /10.0.0.11:56796in MyMiddleware.run()
LOG: Closed client: /10.0.0.7:58060in MyMiddleware.run()
LOG: Closed client: /10.0.0.7:58078in MyMiddleware.run()
LOG: Closed client: /10.0.0.7:58054in MyMiddleware.run()
LOG: Closed client: /10.0.0.7:58076in MyMiddleware.run()
LOG: Closed client: /10.0.0.7:58068in MyMiddleware.run()
LOG: Closed client: /10.0.0.7:58056in MyMiddleware.run()
LOG: Closed client: /10.0.0.7:58058in MyMiddleware.run()
LOG: Closed client: /10.0.0.7:58072in MyMiddleware.run()
LOG: Closed client: /10.0.0.7:58064in MyMiddleware.run()
LOG: Closed client: /10.0.0.7:58062in MyMiddleware.run()
LOG: Closed client: /10.0.0.7:58066in MyMiddleware.run()
LOG: Closed client: /10.0.0.7:58082in MyMiddleware.run()
LOG: Closed client: /10.0.0.7:58074in MyMiddleware.run()
LOG: Closed client: /10.0.0.7:58084in MyMiddleware.run()
LOG: Closed client: /10.0.0.7:58080in MyMiddleware.run()
LOG: Closed client: /10.0.0.7:58070in MyMiddleware.run()
