------------Middleware started!------------
LOG: Waiting for connection in MyMiddleware.run()
LOG: Accepted client: /10.0.0.6:57554in MyMiddleware.run()
LOG: Accepted client: /10.0.0.6:57552in MyMiddleware.run()
LOG: Accepted client: /10.0.0.6:57550in MyMiddleware.run()
LOG: Accepted client: /10.0.0.6:57556in MyMiddleware.run()
LOG: Accepted client: /10.0.0.7:51060in MyMiddleware.run()
LOG: Accepted client: /10.0.0.7:51062in MyMiddleware.run()
LOG: Accepted client: /10.0.0.7:51058in MyMiddleware.run()
LOG: Accepted client: /10.0.0.7:51056in MyMiddleware.run()
LOG: Accepted client: /10.0.0.11:49746in MyMiddleware.run()
LOG: Accepted client: /10.0.0.11:49742in MyMiddleware.run()
LOG: Accepted client: /10.0.0.11:49748in MyMiddleware.run()
LOG: Accepted client: /10.0.0.11:49744in MyMiddleware.run()
LOG: Closed client: /10.0.0.7:51062in MyMiddleware.run()
LOG: Closed client: /10.0.0.7:51060in MyMiddleware.run()
LOG: Closed client: /10.0.0.7:51058in MyMiddleware.run()
LOG: Closed client: /10.0.0.7:51056in MyMiddleware.run()
LOG: Closed client: /10.0.0.6:57550in MyMiddleware.run()
LOG: Closed client: /10.0.0.6:57556in MyMiddleware.run()
LOG: Closed client: /10.0.0.6:57552in MyMiddleware.run()
LOG: Closed client: /10.0.0.6:57554in MyMiddleware.run()
LOG: Closed client: /10.0.0.11:49744in MyMiddleware.run()
LOG: Closed client: /10.0.0.11:49748in MyMiddleware.run()
LOG: Closed client: /10.0.0.11:49742in MyMiddleware.run()
LOG: Closed client: /10.0.0.11:49746in MyMiddleware.run()
