------------Middleware started!------------
LOG: Waiting for connection in MyMiddleware.run()
LOG: Accepted client: /10.0.0.11:60638in MyMiddleware.run()
LOG: Accepted client: /10.0.0.11:60668in MyMiddleware.run()
LOG: Accepted client: /10.0.0.11:60666in MyMiddleware.run()
LOG: Accepted client: /10.0.0.11:60644in MyMiddleware.run()
LOG: Accepted client: /10.0.0.11:60642in MyMiddleware.run()
LOG: Accepted client: /10.0.0.11:60640in MyMiddleware.run()
LOG: Accepted client: /10.0.0.11:60670in MyMiddleware.run()
LOG: Accepted client: /10.0.0.11:60646in MyMiddleware.run()
LOG: Accepted client: /10.0.0.11:60688in MyMiddleware.run()
LOG: Accepted client: /10.0.0.11:60690in MyMiddleware.run()
LOG: Accepted client: /10.0.0.11:60682in MyMiddleware.run()
LOG: Accepted client: /10.0.0.11:60680in MyMiddleware.run()
LOG: Accepted client: /10.0.0.11:60684in MyMiddleware.run()
LOG: Accepted client: /10.0.0.11:60686in MyMiddleware.run()
LOG: Accepted client: /10.0.0.11:60692in MyMiddleware.run()
LOG: Accepted client: /10.0.0.11:60694in MyMiddleware.run()
LOG: Accepted client: /10.0.0.11:60664in MyMiddleware.run()
LOG: Accepted client: /10.0.0.11:60654in MyMiddleware.run()
LOG: Accepted client: /10.0.0.11:60672in MyMiddleware.run()
LOG: Accepted client: /10.0.0.11:60650in MyMiddleware.run()
LOG: Accepted client: /10.0.0.11:60648in MyMiddleware.run()
LOG: Accepted client: /10.0.0.11:60698in MyMiddleware.run()
LOG: Accepted client: /10.0.0.11:60652in MyMiddleware.run()
LOG: Accepted client: /10.0.0.11:60696in MyMiddleware.run()
LOG: Accepted client: /10.0.0.11:60700in MyMiddleware.run()
LOG: Accepted client: /10.0.0.11:60678in MyMiddleware.run()
LOG: Accepted client: /10.0.0.11:60676in MyMiddleware.run()
LOG: Accepted client: /10.0.0.11:60658in MyMiddleware.run()
LOG: Accepted client: /10.0.0.11:60656in MyMiddleware.run()
LOG: Accepted client: /10.0.0.11:60674in MyMiddleware.run()
LOG: Accepted client: /10.0.0.6:40206in MyMiddleware.run()
LOG: Accepted client: /10.0.0.6:40188in MyMiddleware.run()
LOG: Accepted client: /10.0.0.6:40184in MyMiddleware.run()
LOG: Accepted client: /10.0.0.6:40216in MyMiddleware.run()
LOG: Accepted client: /10.0.0.6:40220in MyMiddleware.run()
LOG: Accepted client: /10.0.0.6:40198in MyMiddleware.run()
LOG: Accepted client: /10.0.0.6:40242in MyMiddleware.run()
LOG: Accepted client: /10.0.0.6:40240in MyMiddleware.run()
LOG: Accepted client: /10.0.0.6:40186in MyMiddleware.run()
LOG: Accepted client: /10.0.0.6:40212in MyMiddleware.run()
LOG: Accepted client: /10.0.0.6:40214in MyMiddleware.run()
LOG: Accepted client: /10.0.0.6:40218in MyMiddleware.run()
LOG: Accepted client: /10.0.0.6:40236in MyMiddleware.run()
LOG: Accepted client: /10.0.0.6:40204in MyMiddleware.run()
LOG: Accepted client: /10.0.0.6:40238in MyMiddleware.run()
LOG: Accepted client: /10.0.0.6:40190in MyMiddleware.run()
LOG: Accepted client: /10.0.0.6:40246in MyMiddleware.run()
LOG: Accepted client: /10.0.0.6:40226in MyMiddleware.run()
LOG: Accepted client: /10.0.0.6:40234in MyMiddleware.run()
LOG: Accepted client: /10.0.0.6:40232in MyMiddleware.run()
LOG: Accepted client: /10.0.0.6:40244in MyMiddleware.run()
LOG: Accepted client: /10.0.0.6:40192in MyMiddleware.run()
LOG: Accepted client: /10.0.0.6:40194in MyMiddleware.run()
LOG: Accepted client: /10.0.0.6:40222in MyMiddleware.run()
LOG: Accepted client: /10.0.0.6:40224in MyMiddleware.run()
LOG: Accepted client: /10.0.0.11:60662in MyMiddleware.run()
LOG: Accepted client: /10.0.0.11:60660in MyMiddleware.run()
LOG: Accepted client: /10.0.0.6:40196in MyMiddleware.run()
LOG: Accepted client: /10.0.0.7:33746in MyMiddleware.run()
LOG: Accepted client: /10.0.0.7:33742in MyMiddleware.run()
LOG: Accepted client: /10.0.0.7:33776in MyMiddleware.run()
LOG: Accepted client: /10.0.0.7:33756in MyMiddleware.run()
LOG: Accepted client: /10.0.0.7:33744in MyMiddleware.run()
LOG: Accepted client: /10.0.0.7:33750in MyMiddleware.run()
LOG: Accepted client: /10.0.0.7:33740in MyMiddleware.run()
LOG: Accepted client: /10.0.0.7:33720in MyMiddleware.run()
LOG: Accepted client: /10.0.0.7:33778in MyMiddleware.run()
LOG: Accepted client: /10.0.0.7:33748in MyMiddleware.run()
LOG: Accepted client: /10.0.0.7:33738in MyMiddleware.run()
LOG: Accepted client: /10.0.0.7:33762in MyMiddleware.run()
LOG: Accepted client: /10.0.0.7:33764in MyMiddleware.run()
LOG: Accepted client: /10.0.0.7:33726in MyMiddleware.run()
LOG: Accepted client: /10.0.0.7:33760in MyMiddleware.run()
LOG: Accepted client: /10.0.0.7:33766in MyMiddleware.run()
LOG: Accepted client: /10.0.0.7:33724in MyMiddleware.run()
LOG: Accepted client: /10.0.0.7:33768in MyMiddleware.run()
LOG: Accepted client: /10.0.0.7:33770in MyMiddleware.run()
LOG: Accepted client: /10.0.0.7:33734in MyMiddleware.run()
LOG: Accepted client: /10.0.0.7:33732in MyMiddleware.run()
LOG: Accepted client: /10.0.0.7:33736in MyMiddleware.run()
LOG: Accepted client: /10.0.0.7:33758in MyMiddleware.run()
LOG: Accepted client: /10.0.0.7:33722in MyMiddleware.run()
LOG: Accepted client: /10.0.0.7:33780in MyMiddleware.run()
LOG: Accepted client: /10.0.0.7:33754in MyMiddleware.run()
LOG: Accepted client: /10.0.0.7:33752in MyMiddleware.run()
LOG: Accepted client: /10.0.0.7:33774in MyMiddleware.run()
LOG: Accepted client: /10.0.0.7:33772in MyMiddleware.run()
LOG: Accepted client: /10.0.0.7:33728in MyMiddleware.run()
LOG: Accepted client: /10.0.0.7:33718in MyMiddleware.run()
LOG: Accepted client: /10.0.0.7:33730in MyMiddleware.run()
LOG: Accepted client: /10.0.0.6:40210in MyMiddleware.run()
LOG: Accepted client: /10.0.0.6:40208in MyMiddleware.run()
LOG: Accepted client: /10.0.0.6:40230in MyMiddleware.run()
LOG: Accepted client: /10.0.0.6:40202in MyMiddleware.run()
LOG: Accepted client: /10.0.0.6:40228in MyMiddleware.run()
LOG: Accepted client: /10.0.0.6:40200in MyMiddleware.run()
LOG: Closed client: /10.0.0.11:60686in MyMiddleware.run()
LOG: Closed client: /10.0.0.11:60638in MyMiddleware.run()
LOG: Closed client: /10.0.0.11:60658in MyMiddleware.run()
LOG: Closed client: /10.0.0.11:60684in MyMiddleware.run()
LOG: Closed client: /10.0.0.11:60656in MyMiddleware.run()
LOG: Closed client: /10.0.0.11:60662in MyMiddleware.run()
LOG: Closed client: /10.0.0.11:60694in MyMiddleware.run()
LOG: Closed client: /10.0.0.11:60650in MyMiddleware.run()
LOG: Closed client: /10.0.0.11:60692in MyMiddleware.run()
LOG: Closed client: /10.0.0.11:60652in MyMiddleware.run()
LOG: Closed client: /10.0.0.11:60674in MyMiddleware.run()
LOG: Closed client: /10.0.0.11:60696in MyMiddleware.run()
LOG: Closed client: /10.0.0.11:60666in MyMiddleware.run()
LOG: Closed client: /10.0.0.11:60664in MyMiddleware.run()
LOG: Closed client: /10.0.0.11:60648in MyMiddleware.run()
LOG: Closed client: /10.0.0.11:60680in MyMiddleware.run()
LOG: Closed client: /10.0.0.11:60678in MyMiddleware.run()
LOG: Closed client: /10.0.0.11:60682in MyMiddleware.run()
LOG: Closed client: /10.0.0.11:60640in MyMiddleware.run()
LOG: Closed client: /10.0.0.11:60672in MyMiddleware.run()
LOG: Closed client: /10.0.0.11:60654in MyMiddleware.run()
LOG: Closed client: /10.0.0.11:60690in MyMiddleware.run()
LOG: Closed client: /10.0.0.11:60698in MyMiddleware.run()
LOG: Closed client: /10.0.0.11:60646in MyMiddleware.run()
LOG: Closed client: /10.0.0.11:60670in MyMiddleware.run()
LOG: Closed client: /10.0.0.11:60644in MyMiddleware.run()
LOG: Closed client: /10.0.0.11:60700in MyMiddleware.run()
LOG: Closed client: /10.0.0.11:60668in MyMiddleware.run()
LOG: Closed client: /10.0.0.11:60642in MyMiddleware.run()
LOG: Closed client: /10.0.0.11:60688in MyMiddleware.run()
LOG: Closed client: /10.0.0.11:60676in MyMiddleware.run()
LOG: Closed client: /10.0.0.11:60660in MyMiddleware.run()
LOG: Closed client: /10.0.0.7:33766in MyMiddleware.run()
LOG: Closed client: /10.0.0.7:33744in MyMiddleware.run()
LOG: Closed client: /10.0.0.7:33730in MyMiddleware.run()
LOG: Closed client: /10.0.0.7:33742in MyMiddleware.run()
LOG: Closed client: /10.0.0.7:33748in MyMiddleware.run()
LOG: Closed client: /10.0.0.7:33768in MyMiddleware.run()
LOG: Closed client: /10.0.0.7:33756in MyMiddleware.run()
LOG: Closed client: /10.0.0.7:33724in MyMiddleware.run()
LOG: Closed client: /10.0.0.7:33722in MyMiddleware.run()
LOG: Closed client: /10.0.0.7:33770in MyMiddleware.run()
LOG: Closed client: /10.0.0.7:33728in MyMiddleware.run()
LOG: Closed client: /10.0.0.7:33776in MyMiddleware.run()
LOG: Closed client: /10.0.0.7:33746in MyMiddleware.run()
LOG: Closed client: /10.0.0.7:33760in MyMiddleware.run()
LOG: Closed client: /10.0.0.7:33718in MyMiddleware.run()
LOG: Closed client: /10.0.0.7:33780in MyMiddleware.run()
LOG: Closed client: /10.0.0.7:33754in MyMiddleware.run()
LOG: Closed client: /10.0.0.7:33778in MyMiddleware.run()
LOG: Closed client: /10.0.0.7:33738in MyMiddleware.run()
LOG: Closed client: /10.0.0.7:33720in MyMiddleware.run()
LOG: Closed client: /10.0.0.7:33752in MyMiddleware.run()
LOG: Closed client: /10.0.0.7:33762in MyMiddleware.run()
LOG: Closed client: /10.0.0.7:33750in MyMiddleware.run()
LOG: Closed client: /10.0.0.7:33734in MyMiddleware.run()
LOG: Closed client: /10.0.0.7:33740in MyMiddleware.run()
LOG: Closed client: /10.0.0.7:33736in MyMiddleware.run()
LOG: Closed client: /10.0.0.7:33726in MyMiddleware.run()
LOG: Closed client: /10.0.0.7:33764in MyMiddleware.run()
LOG: Closed client: /10.0.0.7:33732in MyMiddleware.run()
LOG: Closed client: /10.0.0.7:33758in MyMiddleware.run()
LOG: Closed client: /10.0.0.7:33774in MyMiddleware.run()
LOG: Closed client: /10.0.0.7:33772in MyMiddleware.run()
LOG: Closed client: /10.0.0.6:40190in MyMiddleware.run()
LOG: Closed client: /10.0.0.6:40192in MyMiddleware.run()
LOG: Closed client: /10.0.0.6:40204in MyMiddleware.run()
LOG: Closed client: /10.0.0.6:40188in MyMiddleware.run()
LOG: Closed client: /10.0.0.6:40208in MyMiddleware.run()
LOG: Closed client: /10.0.0.6:40194in MyMiddleware.run()
LOG: Closed client: /10.0.0.6:40202in MyMiddleware.run()
LOG: Closed client: /10.0.0.6:40184in MyMiddleware.run()
LOG: Closed client: /10.0.0.6:40210in MyMiddleware.run()
LOG: Closed client: /10.0.0.6:40196in MyMiddleware.run()
LOG: Closed client: /10.0.0.6:40198in MyMiddleware.run()
LOG: Closed client: /10.0.0.6:40212in MyMiddleware.run()
LOG: Closed client: /10.0.0.6:40186in MyMiddleware.run()
LOG: Closed client: /10.0.0.6:40222in MyMiddleware.run()
LOG: Closed client: /10.0.0.6:40216in MyMiddleware.run()
LOG: Closed client: /10.0.0.6:40236in MyMiddleware.run()
LOG: Closed client: /10.0.0.6:40226in MyMiddleware.run()
LOG: Closed client: /10.0.0.6:40234in MyMiddleware.run()
LOG: Closed client: /10.0.0.6:40224in MyMiddleware.run()
LOG: Closed client: /10.0.0.6:40220in MyMiddleware.run()
LOG: Closed client: /10.0.0.6:40218in MyMiddleware.run()
LOG: Closed client: /10.0.0.6:40242in MyMiddleware.run()
LOG: Closed client: /10.0.0.6:40214in MyMiddleware.run()
LOG: Closed client: /10.0.0.6:40240in MyMiddleware.run()
LOG: Closed client: /10.0.0.6:40206in MyMiddleware.run()
LOG: Closed client: /10.0.0.6:40246in MyMiddleware.run()
LOG: Closed client: /10.0.0.6:40200in MyMiddleware.run()
LOG: Closed client: /10.0.0.6:40232in MyMiddleware.run()
LOG: Closed client: /10.0.0.6:40238in MyMiddleware.run()
LOG: Closed client: /10.0.0.6:40244in MyMiddleware.run()
LOG: Closed client: /10.0.0.6:40228in MyMiddleware.run()
LOG: Closed client: /10.0.0.6:40230in MyMiddleware.run()
