Second,Ops/sec,Hits/sec,Misses/sec,Latency,KB/sec,Request_Creation_Time,Request_Buffer_Time,MW_Writes_To_Memcached_Time,Memcached_Process_Time,MW_Writes_To_Memtier_Time,Queue_Size
4,3266.00,3266.00,0.00,3.485,1795,0.023,0.661,0.054,2.693,0.053,5.4
5,8276.00,8276.00,0.00,7.372,4549,0.006,1.386,0.014,5.952,0.015,6.1
6,10089.00,10089.00,0.00,8.807,5545,0.005,2.764,0.013,6.009,0.014,12.9
7,9797.00,9797.00,0.00,9.045,5384,0.005,2.885,0.013,6.128,0.014,12.9
8,9690.00,9690.00,0.00,9.212,5326,0.005,2.918,0.012,6.263,0.014,13.2
9,9902.00,9902.00,0.00,9.001,5442,0.005,2.842,0.012,6.128,0.014,13.2
10,9684.00,9684.00,0.00,9.214,5322,0.004,2.915,0.013,6.266,0.015,13.3
11,9912.00,9912.00,0.00,9.026,5448,0.004,2.873,0.013,6.121,0.014,13.2
12,9830.00,9830.00,0.00,8.987,5402,0.004,2.846,0.013,6.108,0.015,13.1
13,9775.00,9775.00,0.00,9.035,5372,0.005,2.778,0.012,6.225,0.015,11.6
14,9815.00,9815.00,0.00,9.092,5394,0.004,2.869,0.013,6.191,0.014,13.1
15,9852.00,9852.00,0.00,9.078,5414,0.004,2.902,0.012,6.144,0.015,13.3
16,9589.00,9589.00,0.00,9.298,5270,0.004,2.947,0.013,6.319,0.015,12.9
17,9721.00,9721.00,0.00,9.150,5342,0.004,2.931,0.012,6.187,0.015,12.9
18,9987.00,9987.00,0.00,8.878,5489,0.004,2.786,0.012,6.060,0.016,12.3
19,9786.00,9786.00,0.00,9.066,5378,0.004,2.838,0.012,6.196,0.016,13.7
20,9583.00,9583.00,0.00,9.169,5267,0.004,2.876,0.012,6.264,0.014,13.8
21,9892.00,9892.00,0.00,8.986,5437,0.004,2.843,0.012,6.113,0.015,13.3
22,9817.00,9817.00,0.00,9.086,5396,0.004,2.898,0.012,6.159,0.014,13.3
23,9669.00,9669.00,0.00,9.230,5314,0.004,2.933,0.011,6.268,0.014,13.3
24,10068.00,10068.00,0.00,8.847,5534,0.003,2.736,0.012,6.081,0.015,12.5
25,9945.00,9945.00,0.00,8.923,5466,0.004,2.806,0.011,6.089,0.013,13.0
26,9705.00,9705.00,0.00,9.170,5334,0.004,2.928,0.013,6.211,0.015,13.9
27,9828.00,9813.00,15.00,8.906,5393,0.005,2.762,0.014,6.107,0.018,12.5
28,9781.00,9763.00,18.00,9.137,5366,0.004,2.877,0.014,6.226,0.017,13.4
29,9786.00,9766.00,20.00,9.082,5367,0.004,2.864,0.013,6.186,0.015,13.5
30,9795.00,9772.00,23.00,9.072,5370,0.005,2.859,0.014,6.179,0.016,13.1
31,9768.00,9752.00,16.00,9.156,5359,0.004,2.906,0.014,6.217,0.016,13.5
32,9832.00,9830.00,2.00,9.010,5402,0.004,2.841,0.015,6.132,0.018,13.6
33,9841.00,9839.00,2.00,9.023,5407,0.004,2.855,0.014,6.133,0.017,12.8
34,9843.00,9843.00,0.00,9.093,5409,0.004,2.879,0.016,6.178,0.017,14.2
35,9697.00,9697.00,0.00,9.236,5329,0.004,2.943,0.014,6.258,0.016,13.6
36,9922.00,9922.00,0.00,8.921,5453,0.004,2.821,0.014,6.066,0.016,12.3
37,9673.00,9673.00,0.00,9.246,5316,0.004,2.951,0.013,6.262,0.016,14.5
38,9723.00,9723.00,0.00,9.109,5344,0.004,2.906,0.015,6.166,0.017,13.7
39,9749.00,9749.00,0.00,9.126,5358,0.004,2.884,0.014,6.205,0.018,13.3
40,9886.00,9886.00,0.00,8.930,5433,0.004,2.808,0.014,6.086,0.017,13.3
41,9523.00,9523.00,0.00,9.301,5234,0.005,3.072,0.015,6.192,0.018,15.0
42,9688.00,9688.00,0.00,9.255,5325,0.004,3.026,0.014,6.194,0.017,15.5
43,9554.00,9554.00,0.00,9.335,5251,0.004,3.013,0.014,6.288,0.016,15.0
44,9662.00,9662.00,0.00,9.208,5310,0.004,2.933,0.013,6.243,0.015,13.9
45,9765.00,9765.00,0.00,9.104,5367,0.004,2.896,0.014,6.174,0.015,14.5
46,9787.00,9787.00,0.00,9.071,5379,0.004,2.907,0.014,6.129,0.017,13.8
47,9860.00,9860.00,0.00,9.031,5419,0.005,2.809,0.012,6.189,0.016,12.9
48,9790.00,9790.00,0.00,8.967,5380,0.005,2.778,0.012,6.158,0.015,12.7
49,10085.00,10085.00,0.00,8.756,5542,0.004,2.731,0.013,5.992,0.016,11.6
50,9791.00,9791.00,0.00,9.106,5381,0.004,2.847,0.013,6.226,0.016,12.8
51,9741.00,9741.00,0.00,9.076,5353,0.004,2.845,0.012,6.199,0.017,13.0
52,9961.00,9961.00,0.00,8.899,5474,0.004,2.799,0.014,6.066,0.016,12.1
53,9887.00,9887.00,0.00,8.990,5434,0.004,2.834,0.013,6.124,0.016,12.2
54,9796.00,9796.00,0.00,9.007,5384,0.004,2.820,0.012,6.156,0.015,13.4
55,9830.00,9830.00,0.00,9.005,5402,0.004,2.800,0.012,6.173,0.016,12.9
56,9846.00,9846.00,0.00,8.967,5411,0.004,2.802,0.012,6.132,0.017,12.8
57,9639.00,9639.00,0.00,9.179,5297,0.004,2.923,0.014,6.220,0.019,13.8
58,9810.00,9810.00,0.00,9.060,5391,0.004,2.896,0.012,6.133,0.015,13.5
59,9819.00,9819.00,0.00,9.056,5396,0.004,2.854,0.012,6.170,0.016,13.3
60,9916.00,9916.00,0.00,8.952,5450,0.004,2.812,0.012,6.109,0.015,12.9
61,9776.00,9776.00,0.00,9.046,5373,0.004,2.847,0.011,6.169,0.014,13.1
62,9772.00,9772.00,0.00,9.075,5370,0.005,2.859,0.013,6.184,0.016,12.3
63,9715.00,9715.00,0.00,9.176,5339,0.004,2.877,0.011,6.270,0.014,13.5
64,9905.00,9905.00,0.00,9.057,5444,0.004,2.851,0.012,6.176,0.014,13.1
65,9822.00,9822.00,0.00,8.984,5398,0.004,2.841,0.012,6.112,0.016,12.6
66,9745.00,9745.00,0.00,8.993,5356,0.004,2.895,0.011,6.066,0.016,13.2
67,9831.00,9831.00,0.00,9.014,5403,0.004,2.872,0.013,6.110,0.015,12.9
68,9976.00,9976.00,0.00,8.837,5483,0.005,2.768,0.012,6.037,0.015,12.5
69,9844.00,9844.00,0.00,9.018,5410,0.004,2.865,0.012,6.122,0.015,13.8
70,9787.00,9785.00,2.00,9.129,5378,0.004,2.895,0.012,6.203,0.015,13.5
71,9825.00,9817.00,8.00,9.073,5396,0.004,2.859,0.011,6.184,0.014,13.2
72,9734.00,9726.00,8.00,9.149,5346,0.004,2.875,0.013,6.242,0.014,13.2
73,9755.00,9743.00,12.00,9.138,5355,0.004,2.888,0.012,6.220,0.015,13.5
74,11324.00,11314.00,10.00,5.571,6218,0.005,1.705,0.014,3.832,0.016,8.9
75,8287.00,8282.00,5.00,1.221,4552,0.004,0.262,0.016,0.924,0.015,3.4
