Second,Ops/sec,Hits/sec,Misses/sec,Latency,KB/sec,Request_Creation_Time,Request_Buffer_Time,MW_Writes_To_Memcached_Time,Memcached_Process_Time,MW_Writes_To_Memtier_Time,Queue_Size
4,1283.00,1283.00,0.00,1.297,705,0.027,0.330,0.028,0.878,0.034,0.9
5,5567.00,5567.00,0.00,1.459,3060,0.006,0.356,0.015,1.066,0.016,0.8
6,6630.00,6630.00,0.00,1.360,3644,0.005,0.360,0.012,0.970,0.014,1.0
7,6706.00,6706.00,0.00,1.333,3686,0.005,0.354,0.012,0.948,0.014,1.0
8,6730.00,6730.00,0.00,1.313,3699,0.005,0.345,0.012,0.937,0.014,0.9
9,6723.00,6711.00,12.00,1.278,3688,0.007,0.328,0.013,0.916,0.014,1.0
10,6674.00,6674.00,0.00,1.323,3668,0.005,0.376,0.012,0.916,0.014,1.0
11,6870.00,6870.00,0.00,1.277,3776,0.005,0.329,0.012,0.918,0.014,0.9
12,6330.00,6330.00,0.00,1.419,3479,0.005,0.382,0.012,1.007,0.013,0.9
13,6527.00,6527.00,0.00,1.398,3587,0.005,0.378,0.012,0.989,0.014,1.0
14,6576.00,6576.00,0.00,1.321,3614,0.004,0.357,0.012,0.934,0.013,0.9
15,6189.00,6189.00,0.00,1.404,3401,0.005,0.353,0.012,1.020,0.014,0.8
16,6705.00,6705.00,0.00,1.360,3685,0.004,0.364,0.011,0.967,0.014,0.9
17,6628.00,6626.00,2.00,1.370,3642,0.004,0.365,0.011,0.976,0.013,0.9
18,6689.00,6679.00,10.00,1.324,3671,0.004,0.347,0.012,0.948,0.013,0.9
19,6614.00,6614.00,0.00,1.344,3635,0.004,0.365,0.011,0.950,0.014,0.9
20,6806.00,6806.00,0.00,1.310,3741,0.004,0.348,0.012,0.933,0.014,0.9
21,6541.00,6541.00,0.00,1.405,3595,0.004,0.386,0.012,0.990,0.013,0.9
22,6627.00,6627.00,0.00,1.377,3642,0.004,0.363,0.011,0.986,0.013,0.9
23,6717.00,6717.00,0.00,1.327,3692,0.004,0.363,0.012,0.935,0.014,0.9
24,6664.00,6664.00,0.00,1.339,3662,0.004,0.352,0.012,0.957,0.014,0.9
25,6333.00,6333.00,0.00,1.424,3481,0.004,0.383,0.012,1.011,0.014,0.9
26,6512.00,6512.00,0.00,1.404,3579,0.004,0.388,0.012,0.987,0.013,1.0
27,6827.00,6827.00,0.00,1.311,3752,0.004,0.352,0.012,0.929,0.014,0.9
28,6495.00,6495.00,0.00,1.405,3570,0.004,0.375,0.011,1.000,0.014,0.9
29,7142.00,7142.00,0.00,1.201,3925,0.004,0.308,0.012,0.864,0.013,0.9
30,7073.00,7073.00,0.00,1.231,3887,0.005,0.324,0.011,0.877,0.013,1.0
31,6300.00,6300.00,0.00,1.464,3462,0.004,0.402,0.011,1.034,0.013,0.9
32,6447.00,6447.00,0.00,1.417,3543,0.004,0.386,0.011,1.002,0.014,1.0
33,6754.00,6754.00,0.00,1.311,3712,0.004,0.345,0.011,0.938,0.013,0.9
34,6440.00,6440.00,0.00,1.392,3539,0.004,0.381,0.012,0.982,0.013,0.9
35,6739.00,6739.00,0.00,1.337,3704,0.004,0.359,0.012,0.949,0.013,0.9
36,6587.00,6587.00,0.00,1.356,3620,0.004,0.368,0.011,0.960,0.013,0.9
37,6193.00,6193.00,0.00,1.474,3404,0.004,0.402,0.012,1.043,0.013,0.9
38,6662.00,6662.00,0.00,1.343,3661,0.004,0.361,0.011,0.954,0.014,0.9
39,6307.00,6307.00,0.00,1.445,3466,0.004,0.399,0.012,1.016,0.015,1.0
40,6522.00,6518.00,4.00,1.390,3582,0.004,0.373,0.011,0.987,0.013,0.9
41,6810.00,6807.00,3.00,1.310,3741,0.004,0.349,0.011,0.932,0.013,0.9
42,6988.00,6982.00,6.00,1.286,3837,0.004,0.343,0.011,0.914,0.014,0.9
43,6499.00,6495.00,4.00,1.391,3570,0.004,0.376,0.011,0.986,0.013,0.9
44,6712.00,6706.00,6.00,1.336,3686,0.004,0.355,0.011,0.953,0.013,0.9
45,6574.00,6567.00,7.00,1.369,3609,0.004,0.368,0.012,0.971,0.014,0.9
46,6437.00,6432.00,5.00,1.429,3535,0.004,0.387,0.011,1.013,0.013,0.9
47,6349.00,6348.00,1.00,1.418,3489,0.004,0.396,0.011,0.993,0.013,1.0
48,6546.00,6546.00,0.00,1.393,3598,0.004,0.376,0.011,0.988,0.013,0.9
49,6406.00,6406.00,0.00,1.430,3521,0.004,0.384,0.011,1.017,0.013,0.9
50,6950.00,6950.00,0.00,1.290,3819,0.004,0.339,0.011,0.923,0.013,0.9
51,6699.00,6699.00,0.00,1.338,3682,0.004,0.354,0.011,0.956,0.013,0.9
52,6449.00,6449.00,0.00,1.430,3544,0.004,0.389,0.011,1.011,0.014,0.9
53,6942.00,6942.00,0.00,1.259,3815,0.005,0.337,0.012,0.891,0.014,0.9
54,6376.00,6376.00,0.00,1.406,3504,0.004,0.372,0.012,1.005,0.013,0.9
55,6359.00,6359.00,0.00,1.428,3495,0.004,0.389,0.011,1.010,0.013,1.0
56,6043.00,6043.00,0.00,1.433,3321,0.004,0.408,0.011,0.997,0.013,1.1
57,6486.00,6486.00,0.00,1.375,3565,0.004,0.366,0.011,0.980,0.014,0.9
58,6665.00,6665.00,0.00,1.311,3663,0.004,0.349,0.014,0.930,0.014,0.9
59,6586.00,6586.00,0.00,1.365,3620,0.004,0.359,0.011,0.977,0.014,0.9
60,6712.00,6712.00,0.00,1.360,3689,0.004,0.367,0.011,0.965,0.013,0.9
61,6375.00,6375.00,0.00,1.379,3504,0.004,0.376,0.012,0.974,0.013,0.9
62,6511.00,6511.00,0.00,1.416,3578,0.004,0.380,0.011,1.008,0.014,0.9
63,6520.00,6520.00,0.00,1.393,3583,0.004,0.371,0.011,0.993,0.013,0.9
64,6797.00,6797.00,0.00,1.305,3736,0.005,0.345,0.011,0.930,0.015,0.9
65,6557.00,6557.00,0.00,1.377,3604,0.004,0.369,0.011,0.979,0.014,0.9
66,6622.00,6622.00,0.00,1.364,3639,0.004,0.363,0.011,0.973,0.013,0.9
67,6517.00,6517.00,0.00,1.393,3582,0.004,0.380,0.012,0.984,0.014,0.9
68,6245.00,6245.00,0.00,1.469,3432,0.004,0.405,0.011,1.035,0.013,1.0
69,6766.00,6766.00,0.00,1.335,3718,0.004,0.366,0.012,0.940,0.014,0.9
70,6435.00,6435.00,0.00,1.400,3537,0.004,0.387,0.011,0.984,0.014,0.9
71,6719.00,6719.00,0.00,1.338,3693,0.004,0.373,0.011,0.935,0.013,0.8
72,6959.00,6959.00,0.00,1.290,3825,0.004,0.349,0.011,0.913,0.013,0.9
73,6515.00,6515.00,0.00,1.387,3581,0.004,0.373,0.011,0.985,0.013,0.9
74,4635.00,4635.00,0.00,1.470,2547,0.004,0.405,0.013,1.034,0.014,0.9
