Second,Ops/sec,Hits/sec,Misses/sec,Latency,KB/sec,Request_Creation_Time,Request_Buffer_Time,MW_Writes_To_Memcached_Time,Memcached_Process_Time,MW_Writes_To_Memtier_Time,Queue_Size
4,2506.00,2506.00,0.00,2.592,279,0.022,0.279,0.077,2.137,0.078,1.5
5,7631.00,7631.00,0.00,2.340,848,0.006,0.207,0.015,2.097,0.015,1.2
6,9123.00,9123.00,0.00,2.121,1014,0.005,0.180,0.014,1.907,0.014,1.4
7,9357.00,9357.00,0.00,2.073,1039,0.005,0.169,0.015,1.870,0.013,1.4
8,8812.00,8812.00,0.00,2.191,979,0.005,0.211,0.014,1.947,0.014,1.6
9,8946.00,8946.00,0.00,2.157,994,0.005,0.171,0.013,1.953,0.014,1.3
10,9550.00,9550.00,0.00,2.066,1061,0.004,0.217,0.013,1.817,0.014,1.5
11,9048.00,9025.00,23.00,2.124,1003,0.005,0.234,0.017,1.853,0.015,1.4
12,7945.00,7944.00,1.00,2.333,882,0.005,0.168,0.013,2.132,0.015,1.3
13,8852.00,8852.00,0.00,2.236,983,0.004,0.227,0.014,1.977,0.014,1.6
14,9151.00,9151.00,0.00,2.118,1017,0.004,0.169,0.013,1.917,0.015,1.3
15,9042.00,9042.00,0.00,2.134,1005,0.004,0.181,0.013,1.922,0.014,1.4
16,9243.00,9243.00,0.00,2.086,1027,0.004,0.185,0.014,1.869,0.014,1.6
17,9098.00,9098.00,0.00,2.123,1011,0.004,0.165,0.015,1.924,0.014,1.3
18,9000.00,9000.00,0.00,2.150,1000,0.004,0.169,0.014,1.947,0.015,1.4
19,9238.00,9238.00,0.00,2.086,1026,0.004,0.163,0.013,1.890,0.015,1.4
20,9012.00,9012.00,0.00,2.144,1001,0.004,0.171,0.013,1.941,0.014,1.5
21,8837.00,8837.00,0.00,2.203,982,0.004,0.181,0.014,1.990,0.015,1.4
22,9277.00,9277.00,0.00,2.042,1031,0.004,0.173,0.014,1.834,0.015,1.6
23,9256.00,9248.00,8.00,2.127,1028,0.004,0.166,0.013,1.930,0.014,1.4
24,9076.00,9065.00,11.00,2.125,1007,0.004,0.199,0.014,1.893,0.015,1.5
25,9214.00,9209.00,5.00,2.102,1023,0.004,0.169,0.014,1.901,0.014,1.6
26,9127.00,9127.00,0.00,2.130,1014,0.004,0.168,0.013,1.931,0.014,1.4
27,9164.00,9164.00,0.00,2.160,1018,0.004,0.176,0.013,1.952,0.015,1.4
28,9387.00,9387.00,0.00,2.049,1043,0.004,0.172,0.013,1.847,0.014,1.5
29,8978.00,8978.00,0.00,2.118,998,0.005,0.189,0.014,1.896,0.014,1.6
30,8915.00,8915.00,0.00,2.176,991,0.005,0.184,0.013,1.960,0.014,1.3
31,9111.00,9111.00,0.00,2.145,1013,0.004,0.183,0.014,1.931,0.014,1.3
32,8897.00,8897.00,0.00,2.206,989,0.004,0.183,0.013,1.992,0.014,1.5
33,9148.00,9148.00,0.00,2.135,1017,0.004,0.190,0.014,1.914,0.014,1.5
34,9297.00,9297.00,0.00,2.070,1033,0.004,0.185,0.013,1.853,0.015,1.5
35,9254.00,9254.00,0.00,2.113,1028,0.004,0.158,0.014,1.924,0.014,1.4
36,8797.00,8797.00,0.00,2.209,978,0.005,0.206,0.013,1.971,0.015,1.5
37,9043.00,9043.00,0.00,2.110,1005,0.005,0.201,0.014,1.875,0.014,1.5
38,9079.00,9079.00,0.00,2.130,1009,0.004,0.207,0.014,1.890,0.015,1.5
39,8932.00,8932.00,0.00,2.183,992,0.004,0.202,0.013,1.951,0.014,1.4
40,8764.00,8764.00,0.00,2.189,974,0.004,0.193,0.013,1.965,0.014,1.4
41,8832.00,8832.00,0.00,2.178,981,0.004,0.197,0.013,1.950,0.014,1.4
42,8342.00,8342.00,0.00,2.271,927,0.005,0.254,0.014,1.982,0.016,1.8
43,9020.00,9020.00,0.00,2.119,1002,0.004,0.199,0.014,1.888,0.015,1.5
44,9077.00,9077.00,0.00,2.141,1009,0.004,0.183,0.013,1.927,0.014,1.5
45,9186.00,9186.00,0.00,2.114,1021,0.004,0.175,0.013,1.907,0.015,1.4
46,9085.00,9085.00,0.00,2.168,1009,0.004,0.165,0.012,1.973,0.013,1.4
47,8827.00,8827.00,0.00,2.201,981,0.004,0.218,0.012,1.954,0.013,1.5
48,9523.00,9523.00,0.00,2.054,1058,0.004,0.161,0.013,1.861,0.016,1.4
49,8693.00,8693.00,0.00,2.238,966,0.004,0.208,0.014,1.997,0.014,1.4
50,8974.00,8974.00,0.00,2.174,997,0.004,0.194,0.015,1.945,0.016,1.7
51,8841.00,8841.00,0.00,2.207,982,0.004,0.229,0.015,1.945,0.014,1.7
52,8892.00,8892.00,0.00,2.179,988,0.004,0.180,0.014,1.968,0.013,1.4
53,9191.00,9191.00,0.00,2.114,1021,0.004,0.194,0.013,1.889,0.014,1.5
54,9293.00,9293.00,0.00,2.094,1033,0.004,0.165,0.014,1.898,0.014,1.4
55,9203.00,9201.00,2.00,2.129,1022,0.004,0.138,0.013,1.961,0.013,1.2
56,9246.00,9244.00,2.00,2.102,1027,0.005,0.191,0.013,1.878,0.014,1.3
57,8935.00,8931.00,4.00,2.172,993,0.004,0.179,0.017,1.957,0.016,1.4
58,8908.00,8903.00,5.00,2.165,990,0.003,0.211,0.014,1.924,0.014,1.4
59,9171.00,9163.00,8.00,2.144,1018,0.004,0.168,0.014,1.944,0.014,1.4
60,8993.00,8987.00,6.00,2.127,999,0.005,0.183,0.013,1.912,0.014,1.4
61,9241.00,9234.00,7.00,2.064,1026,0.004,0.190,0.014,1.842,0.014,1.5
62,8838.00,8830.00,8.00,2.193,981,0.004,0.177,0.013,1.983,0.016,1.4
63,9358.00,9350.00,8.00,2.072,1039,0.005,0.177,0.013,1.863,0.015,1.5
64,9090.00,9080.00,10.00,2.083,1009,0.005,0.172,0.014,1.877,0.015,1.6
65,9613.00,9606.00,7.00,2.016,1067,0.004,0.167,0.013,1.818,0.015,1.3
66,9304.00,9302.00,2.00,2.075,1033,0.004,0.184,0.013,1.861,0.013,1.3
67,9144.00,9141.00,3.00,2.151,1016,0.004,0.161,0.013,1.960,0.013,1.3
68,9249.00,9249.00,0.00,2.062,1028,0.004,0.172,0.013,1.858,0.015,1.3
69,9434.00,9434.00,0.00,2.069,1048,0.004,0.153,0.013,1.885,0.014,1.4
70,9223.00,9223.00,0.00,2.098,1025,0.004,0.176,0.013,1.890,0.014,1.4
71,9344.00,9344.00,0.00,2.114,1038,0.004,0.175,0.013,1.909,0.014,1.5
72,9113.00,9113.00,0.00,2.129,1012,0.004,0.183,0.013,1.914,0.017,1.4
73,9162.00,9162.00,0.00,2.097,1018,0.004,0.192,0.013,1.873,0.014,1.4
74,5586.00,5586.00,0.00,2.183,621,0.004,0.206,0.014,1.945,0.015,1.5
