Second,Ops/sec,Hits/sec,Misses/sec,Latency,KB/sec,Request_Creation_Time,Request_Buffer_Time,MW_Writes_To_Memcached_Time,Memcached_Process_Time,MW_Writes_To_Memtier_Time,Queue_Size
4,1735.00,1735.00,0.00,2.577,954,0.013,1.423,0.024,1.065,0.052,7.1
5,7859.00,7859.00,0.00,2.383,4319,0.006,1.370,0.009,0.983,0.015,8.4
6,7497.00,7497.00,0.00,2.709,4120,0.006,1.642,0.007,1.040,0.014,9.4
7,8271.00,8271.00,0.00,2.435,4545,0.005,1.470,0.007,0.939,0.014,9.3
8,8394.00,8394.00,0.00,2.408,4613,0.005,1.457,0.008,0.924,0.014,9.5
9,8075.00,8075.00,0.00,2.496,4438,0.005,1.499,0.007,0.970,0.014,9.1
10,8522.00,8522.00,0.00,2.345,4684,0.004,1.405,0.008,0.913,0.014,9.3
11,8506.00,8504.00,2.00,2.355,4674,0.006,1.412,0.008,0.914,0.014,9.6
12,7458.00,7436.00,22.00,2.611,4087,0.005,1.541,0.008,1.040,0.017,8.8
13,8068.00,8068.00,0.00,2.480,4434,0.004,1.494,0.007,0.960,0.015,9.3
14,8139.00,8139.00,0.00,2.466,4473,0.004,1.492,0.007,0.950,0.014,9.4
15,8262.00,8262.00,0.00,2.463,4541,0.004,1.493,0.006,0.946,0.014,9.5
16,8333.00,8333.00,0.00,2.418,4580,0.004,1.458,0.007,0.935,0.015,9.3
17,8676.00,8676.00,0.00,2.320,4768,0.004,1.397,0.006,0.899,0.014,9.5
18,7998.00,7998.00,0.00,2.519,4396,0.004,1.518,0.007,0.976,0.015,9.6
19,8478.00,8478.00,0.00,2.306,4659,0.004,1.373,0.007,0.907,0.015,9.1
20,8334.00,8334.00,0.00,2.424,4580,0.004,1.465,0.007,0.935,0.014,9.5
21,7868.00,7868.00,0.00,2.507,4324,0.004,1.506,0.007,0.976,0.015,9.2
22,8064.00,8064.00,0.00,2.447,4432,0.004,1.462,0.007,0.960,0.014,9.3
23,8470.00,8470.00,0.00,2.378,4655,0.004,1.431,0.006,0.922,0.014,9.4
24,8072.00,8072.00,0.00,2.493,4436,0.004,1.506,0.007,0.962,0.014,9.4
25,8305.00,8299.00,6.00,2.469,4561,0.004,1.500,0.007,0.944,0.014,9.5
26,8537.00,8523.00,14.00,2.307,4684,0.005,1.380,0.007,0.900,0.014,9.2
27,7906.00,7902.00,4.00,2.568,4343,0.004,1.559,0.007,0.985,0.014,9.5
28,8308.00,8308.00,0.00,2.449,4566,0.004,1.481,0.007,0.943,0.014,9.4
29,8505.00,8505.00,0.00,2.358,4674,0.004,1.418,0.007,0.916,0.014,9.3
30,8145.00,8145.00,0.00,2.495,4476,0.004,1.509,0.007,0.961,0.014,9.3
31,8396.00,8396.00,0.00,2.359,4614,0.004,1.409,0.006,0.927,0.014,9.1
32,8389.00,8389.00,0.00,2.393,4611,0.004,1.447,0.007,0.922,0.014,9.3
33,8078.00,8078.00,0.00,2.503,4440,0.004,1.512,0.007,0.966,0.014,9.1
34,8328.00,8328.00,0.00,2.403,4577,0.004,1.448,0.006,0.931,0.014,9.0
35,8221.00,8221.00,0.00,2.474,4518,0.004,1.496,0.007,0.954,0.014,9.3
36,8270.00,8270.00,0.00,2.435,4545,0.004,1.472,0.007,0.939,0.014,9.3
37,8254.00,8254.00,0.00,2.466,4537,0.004,1.495,0.007,0.946,0.014,9.6
38,8228.00,8228.00,0.00,2.430,4522,0.004,1.459,0.006,0.946,0.014,9.2
39,8255.00,8255.00,0.00,2.421,4537,0.004,1.458,0.007,0.938,0.014,9.4
40,7701.00,7701.00,0.00,2.669,4232,0.004,1.629,0.006,1.016,0.014,9.6
41,8767.00,8767.00,0.00,2.285,4818,0.004,1.371,0.006,0.889,0.014,9.3
42,8287.00,8287.00,0.00,2.451,4554,0.004,1.487,0.006,0.940,0.014,9.7
43,8035.00,8035.00,0.00,2.536,4416,0.004,1.539,0.007,0.972,0.014,9.2
44,8149.00,8149.00,0.00,2.437,4479,0.004,1.464,0.006,0.948,0.014,9.2
45,8014.00,8014.00,0.00,2.564,4404,0.004,1.558,0.006,0.982,0.014,9.6
46,8050.00,8050.00,0.00,2.527,4424,0.004,1.532,0.006,0.971,0.014,9.5
47,8284.00,8284.00,0.00,2.471,4553,0.004,1.502,0.006,0.944,0.015,9.6
48,8171.00,8171.00,0.00,2.470,4491,0.004,1.494,0.006,0.952,0.014,9.4
49,7684.00,7684.00,0.00,2.654,4223,0.004,1.607,0.006,1.022,0.015,9.3
50,8159.00,8159.00,0.00,2.488,4484,0.004,1.508,0.006,0.955,0.015,9.5
51,8156.00,8156.00,0.00,2.483,4482,0.004,1.500,0.006,0.960,0.014,9.5
52,7565.00,7565.00,0.00,2.639,4158,0.004,1.591,0.007,1.023,0.014,9.4
53,8352.00,8352.00,0.00,2.357,4590,0.004,1.407,0.006,0.926,0.014,9.1
54,8389.00,8389.00,0.00,2.406,4611,0.004,1.449,0.007,0.931,0.016,9.5
55,8329.00,8329.00,0.00,2.422,4577,0.004,1.461,0.006,0.937,0.014,9.4
56,8428.00,8428.00,0.00,2.357,4632,0.004,1.417,0.007,0.916,0.014,9.5
57,8688.00,8688.00,0.00,2.309,4775,0.004,1.384,0.006,0.901,0.014,9.4
58,8302.00,8302.00,0.00,2.424,4563,0.004,1.463,0.006,0.936,0.014,9.4
59,8560.00,8560.00,0.00,2.324,4704,0.004,1.388,0.006,0.911,0.014,9.4
60,8340.00,8340.00,0.00,2.392,4584,0.004,1.441,0.006,0.926,0.015,9.5
61,8461.00,8460.00,1.00,2.382,4650,0.004,1.431,0.007,0.926,0.014,9.4
62,8514.00,8508.00,6.00,2.358,4676,0.004,1.418,0.006,0.916,0.014,9.6
63,8685.00,8676.00,9.00,2.289,4768,0.004,1.370,0.007,0.894,0.015,9.3
64,8224.00,8220.00,4.00,2.468,4518,0.004,1.490,0.007,0.954,0.014,9.1
65,8155.00,8154.00,1.00,2.485,4481,0.004,1.503,0.006,0.958,0.014,9.5
66,7886.00,7880.00,6.00,2.563,4331,0.004,1.550,0.007,0.988,0.015,9.4
67,8223.00,8216.00,7.00,2.450,4515,0.004,1.475,0.007,0.949,0.015,9.1
68,8451.00,8439.00,12.00,2.380,4638,0.004,1.434,0.007,0.922,0.014,9.6
69,8451.00,8444.00,7.00,2.402,4641,0.004,1.452,0.007,0.925,0.014,9.4
70,7763.00,7753.00,10.00,2.586,4261,0.004,1.563,0.007,0.997,0.015,9.3
71,8367.00,8362.00,5.00,2.390,4596,0.004,1.433,0.007,0.933,0.014,9.3
72,8350.00,8348.00,2.00,2.438,4588,0.004,1.481,0.007,0.932,0.014,9.7
73,8015.00,8013.00,2.00,2.542,4404,0.004,1.547,0.006,0.971,0.014,9.6
74,5937.00,5937.00,0.00,2.476,3263,0.004,1.495,0.007,0.957,0.014,9.4
