Second,Ops/sec,Hits/sec,Misses/sec,Latency,KB/sec,Request_Creation_Time,Request_Buffer_Time,MW_Writes_To_Memcached_Time,Memcached_Process_Time,MW_Writes_To_Memtier_Time,Queue_Size
4,1519.00,1519.00,0.00,7.809,1596,0.026,6.561,0.025,1.144,0.053,42.9
5,5937.00,5937.00,0.00,12.935,6238,0.006,11.583,0.009,1.319,0.017,63.6
6,5442.00,5442.00,0.00,17.103,5717,0.005,15.630,0.007,1.446,0.014,81.2
7,5515.00,5515.00,0.00,16.886,5794,0.005,15.433,0.007,1.426,0.015,81.1
8,5469.00,5469.00,0.00,17.024,5746,0.005,15.558,0.007,1.439,0.015,81.2
9,5469.00,5469.00,0.00,17.075,5746,0.005,15.609,0.008,1.438,0.015,81.8
10,5451.00,5451.00,0.00,17.129,5726,0.005,15.659,0.007,1.443,0.014,81.8
11,5399.00,5399.00,0.00,17.133,5672,0.007,15.647,0.007,1.457,0.015,81.1
12,5437.00,5437.00,0.00,17.110,5712,0.004,15.636,0.007,1.447,0.015,81.4
13,5410.00,5410.00,0.00,17.236,5684,0.004,15.756,0.007,1.455,0.015,81.4
14,5434.00,5434.00,0.00,17.116,5709,0.004,15.643,0.007,1.448,0.014,81.3
15,5414.00,5414.00,0.00,17.237,5687,0.004,15.758,0.007,1.454,0.014,81.3
16,5478.00,5478.00,0.00,16.848,5755,0.004,15.385,0.007,1.437,0.014,80.1
17,5269.00,5269.00,0.00,17.677,5535,0.004,16.160,0.007,1.491,0.014,81.4
18,5297.00,5297.00,0.00,17.643,5565,0.004,16.124,0.006,1.495,0.014,81.3
19,5419.00,5419.00,0.00,17.143,5693,0.004,15.665,0.006,1.454,0.014,81.1
20,5452.00,5452.00,0.00,17.123,5727,0.003,15.653,0.006,1.446,0.014,81.6
21,5448.00,5448.00,0.00,17.088,5723,0.003,15.616,0.006,1.448,0.014,81.4
22,5441.00,5441.00,0.00,17.156,5716,0.004,15.681,0.006,1.451,0.014,81.5
23,5433.00,5433.00,0.00,17.114,5707,0.004,15.640,0.006,1.450,0.014,81.5
24,5495.00,5495.00,0.00,16.768,5773,0.003,15.310,0.007,1.434,0.014,80.7
25,5545.00,5545.00,0.00,16.883,5826,0.004,15.438,0.007,1.421,0.014,81.4
26,5528.00,5528.00,0.00,16.879,5807,0.003,15.428,0.007,1.426,0.014,81.7
27,5548.00,5548.00,0.00,16.779,5828,0.004,15.335,0.007,1.419,0.014,81.2
28,5536.00,5536.00,0.00,16.810,5816,0.004,15.363,0.007,1.423,0.014,81.2
29,5515.00,5515.00,0.00,16.764,5794,0.003,15.310,0.006,1.430,0.014,80.8
30,5551.00,5551.00,0.00,16.824,5831,0.004,15.381,0.007,1.418,0.014,81.4
31,5494.00,5494.00,0.00,16.932,5772,0.004,15.474,0.006,1.434,0.015,81.0
32,5436.00,5436.00,0.00,17.129,5711,0.004,15.654,0.007,1.450,0.015,81.0
33,5509.00,5509.00,0.00,16.950,5788,0.004,15.494,0.007,1.431,0.014,81.3
34,5502.00,5502.00,0.00,16.993,5780,0.003,15.535,0.007,1.433,0.014,81.1
35,5421.00,5421.00,0.00,17.154,5695,0.004,15.678,0.006,1.452,0.014,81.8
36,5578.00,5578.00,0.00,16.705,5860,0.004,15.267,0.006,1.415,0.014,81.6
37,5457.00,5457.00,0.00,17.128,5733,0.004,15.658,0.007,1.444,0.015,81.6
38,5317.00,5317.00,0.00,17.556,5586,0.004,16.048,0.007,1.482,0.015,81.5
39,5495.00,5495.00,0.00,16.969,5773,0.003,15.510,0.006,1.435,0.014,81.1
40,5447.00,5447.00,0.00,17.079,5723,0.003,15.608,0.006,1.447,0.014,81.5
41,5512.00,5512.00,0.00,16.886,5791,0.004,15.431,0.007,1.430,0.014,81.4
42,5465.00,5465.00,0.00,17.060,5741,0.003,15.594,0.007,1.441,0.014,81.3
43,5364.00,5364.00,0.00,17.385,5635,0.004,15.890,0.007,1.469,0.016,81.4
44,5475.00,5475.00,0.00,17.050,5752,0.003,15.588,0.007,1.439,0.014,81.6
45,5392.00,5392.00,0.00,17.307,5665,0.003,15.820,0.007,1.462,0.014,81.6
46,5432.00,5432.00,0.00,17.176,5706,0.004,15.700,0.008,1.450,0.015,81.5
47,5665.00,5664.00,1.00,16.406,5950,0.003,14.992,0.007,1.390,0.014,81.7
48,5324.00,5277.00,47.00,17.365,5544,0.004,15.856,0.008,1.480,0.017,80.9
49,5511.00,5477.00,34.00,16.930,5754,0.004,15.475,0.007,1.430,0.015,81.3
50,5431.00,5417.00,14.00,17.155,5691,0.004,15.679,0.007,1.450,0.015,81.4
51,5671.00,5671.00,0.00,16.455,5957,0.004,15.043,0.007,1.386,0.015,81.2
52,5415.00,5415.00,0.00,17.172,5689,0.003,15.695,0.007,1.452,0.015,81.8
53,5473.00,5473.00,0.00,17.153,5750,0.003,15.688,0.007,1.441,0.014,81.6
54,5528.00,5528.00,0.00,16.886,5807,0.004,15.437,0.008,1.423,0.015,81.6
55,5393.00,5393.00,0.00,17.041,5665,0.004,15.559,0.007,1.457,0.014,81.0
56,5466.00,5466.00,0.00,17.273,5742,0.004,15.803,0.007,1.445,0.015,81.4
57,5458.00,5458.00,0.00,16.951,5734,0.004,15.485,0.007,1.441,0.015,81.2
58,5402.00,5402.00,0.00,17.234,5675,0.003,15.751,0.007,1.458,0.015,81.2
59,5495.00,5495.00,0.00,16.952,5773,0.003,15.495,0.007,1.433,0.014,81.4
60,5441.00,5441.00,0.00,17.194,5716,0.003,15.721,0.007,1.448,0.015,81.5
61,5409.00,5409.00,0.00,17.173,5682,0.003,15.692,0.007,1.456,0.014,81.0
62,5414.00,5414.00,0.00,17.145,5688,0.003,15.666,0.007,1.455,0.014,81.5
63,5499.00,5499.00,0.00,16.978,5777,0.003,15.520,0.006,1.433,0.015,81.6
64,5552.00,5552.00,0.00,16.737,5833,0.003,15.294,0.006,1.419,0.014,81.6
65,5572.00,5572.00,0.00,16.756,5854,0.004,15.317,0.006,1.414,0.015,81.7
66,5486.00,5486.00,0.00,17.000,5763,0.003,15.539,0.006,1.437,0.015,81.2
67,5524.00,5524.00,0.00,16.931,5803,0.003,15.481,0.006,1.426,0.015,81.8
68,5487.00,5487.00,0.00,16.949,5765,0.003,15.488,0.007,1.436,0.014,81.1
69,5482.00,5482.00,0.00,17.102,5759,0.003,15.639,0.006,1.439,0.014,81.7
70,5433.00,5433.00,0.00,17.070,5708,0.003,15.596,0.006,1.450,0.014,81.5
71,5298.00,5298.00,0.00,17.522,5566,0.004,16.011,0.007,1.485,0.015,80.9
72,5478.00,5478.00,0.00,16.980,5756,0.003,15.518,0.007,1.437,0.015,81.6
73,5538.00,5538.00,0.00,16.885,5818,0.004,15.437,0.007,1.424,0.014,81.8
74,6557.00,6557.00,0.00,11.085,6888,0.003,9.892,0.007,1.168,0.014,50.8
75,7602.00,7602.00,0.00,1.307,7986,0.004,0.585,0.009,0.694,0.015,3.8
