Second,Ops/sec,Hits/sec,Misses/sec,Latency,KB/sec,Request_Creation_Time,Request_Buffer_Time,MW_Writes_To_Memcached_Time,Memcached_Process_Time,MW_Writes_To_Memtier_Time,Queue_Size
4,2139.00,2139.00,0.00,3.667,238,0.019,1.042,0.035,2.502,0.069,5.8
5,10900.00,10900.00,0.00,3.564,1212,0.006,0.926,0.014,2.602,0.018,4.9
6,11794.00,11794.00,0.00,3.531,1311,0.005,1.056,0.013,2.439,0.017,5.7
7,11550.00,11550.00,0.00,3.615,1283,0.006,1.065,0.012,2.516,0.015,5.4
8,11898.00,11898.00,0.00,3.494,1322,0.005,1.058,0.012,2.404,0.015,5.5
9,12062.00,12062.00,0.00,3.419,1340,0.004,0.997,0.012,2.391,0.015,5.4
10,12191.00,12191.00,0.00,3.414,1354,0.005,1.009,0.012,2.373,0.015,5.8
11,11465.00,11465.00,0.00,3.446,1274,0.004,0.918,0.012,2.497,0.015,4.7
12,11649.00,11649.00,0.00,3.544,1295,0.005,1.036,0.015,2.473,0.015,5.6
13,12358.00,12358.00,0.00,3.341,1373,0.004,0.973,0.011,2.337,0.015,5.3
14,11367.00,11353.00,14.00,3.580,1261,0.004,1.046,0.015,2.498,0.016,5.5
15,12172.00,12141.00,31.00,3.438,1349,0.004,1.006,0.014,2.398,0.016,5.6
16,12113.00,12110.00,3.00,3.417,1345,0.004,1.000,0.014,2.384,0.016,5.5
17,11669.00,11669.00,0.00,3.563,1296,0.004,1.061,0.012,2.472,0.014,5.2
18,11688.00,11688.00,0.00,3.566,1299,0.004,1.052,0.011,2.484,0.015,5.4
19,12075.00,12075.00,0.00,3.438,1342,0.004,1.009,0.012,2.398,0.015,5.3
20,11803.00,11803.00,0.00,3.507,1312,0.004,1.025,0.011,2.452,0.016,5.4
21,12156.00,12156.00,0.00,3.405,1351,0.004,1.000,0.012,2.373,0.015,5.3
22,12182.00,12182.00,0.00,3.425,1353,0.004,1.002,0.012,2.391,0.016,5.5
23,11862.00,11862.00,0.00,3.494,1318,0.004,1.021,0.011,2.442,0.016,5.3
24,11705.00,11705.00,0.00,3.442,1300,0.004,1.006,0.012,2.405,0.015,5.5
25,12201.00,12201.00,0.00,3.403,1355,0.004,0.986,0.011,2.387,0.015,5.1
26,11915.00,11915.00,0.00,3.434,1324,0.004,1.017,0.012,2.386,0.015,5.4
27,12393.00,12393.00,0.00,3.352,1377,0.004,0.985,0.012,2.337,0.015,5.5
28,11967.00,11967.00,0.00,3.466,1330,0.004,1.004,0.011,2.433,0.014,5.1
29,11891.00,11891.00,0.00,3.437,1321,0.004,0.994,0.012,2.412,0.015,5.4
30,11996.00,11996.00,0.00,3.484,1333,0.004,1.019,0.011,2.435,0.015,5.4
31,12109.00,12108.00,1.00,3.408,1346,0.004,1.014,0.011,2.365,0.015,5.4
32,12076.00,12074.00,2.00,3.450,1342,0.004,1.000,0.011,2.419,0.016,5.3
33,11922.00,11904.00,18.00,3.484,1323,0.004,1.047,0.012,2.407,0.014,5.4
34,12238.00,12225.00,13.00,3.405,1358,0.004,0.985,0.011,2.389,0.015,5.3
35,11638.00,11630.00,8.00,3.605,1292,0.004,1.073,0.011,2.503,0.015,5.3
36,12184.00,12181.00,3.00,3.420,1353,0.003,1.016,0.011,2.374,0.015,5.5
37,12048.00,12045.00,3.00,3.475,1338,0.004,1.053,0.011,2.393,0.014,5.6
38,11471.00,11471.00,0.00,3.681,1275,0.004,1.103,0.011,2.549,0.015,5.5
39,11850.00,11850.00,0.00,3.422,1317,0.004,0.997,0.012,2.394,0.016,5.2
40,12200.00,12200.00,0.00,3.386,1356,0.004,0.994,0.011,2.362,0.015,5.4
41,11880.00,11880.00,0.00,3.527,1320,0.004,1.034,0.011,2.463,0.015,5.5
42,12177.00,12177.00,0.00,3.362,1353,0.004,0.977,0.011,2.356,0.014,5.6
43,11782.00,11782.00,0.00,3.543,1309,0.004,1.048,0.011,2.464,0.015,5.5
44,11610.00,11610.00,0.00,3.492,1290,0.005,1.018,0.011,2.443,0.015,5.4
45,11551.00,11551.00,0.00,3.659,1284,0.004,1.085,0.011,2.544,0.015,5.6
46,12152.00,12152.00,0.00,3.381,1350,0.004,0.983,0.011,2.367,0.015,5.2
47,11997.00,11997.00,0.00,3.492,1333,0.004,1.022,0.012,2.439,0.016,5.4
48,11451.00,11451.00,0.00,3.683,1273,0.004,1.107,0.011,2.546,0.015,5.6
49,12157.00,12157.00,0.00,3.361,1351,0.004,0.964,0.011,2.366,0.015,5.3
50,12071.00,12071.00,0.00,3.417,1341,0.005,1.003,0.011,2.383,0.015,5.5
51,11691.00,11691.00,0.00,3.555,1299,0.004,1.048,0.011,2.475,0.018,5.6
52,12159.00,12159.00,0.00,3.393,1351,0.004,1.010,0.011,2.353,0.016,5.8
53,11640.00,11640.00,0.00,3.556,1293,0.004,1.062,0.012,2.461,0.018,5.5
54,11647.00,11647.00,0.00,3.577,1294,0.004,1.067,0.012,2.479,0.015,5.5
55,12339.00,12339.00,0.00,3.347,1371,0.004,0.964,0.011,2.353,0.015,5.5
56,12361.00,12361.00,0.00,3.346,1374,0.004,0.984,0.011,2.331,0.016,5.4
57,11704.00,11704.00,0.00,3.599,1301,0.004,1.060,0.011,2.509,0.015,5.4
58,11609.00,11609.00,0.00,3.559,1290,0.004,1.052,0.011,2.477,0.014,5.5
59,12179.00,12179.00,0.00,3.417,1353,0.004,1.005,0.013,2.381,0.015,5.5
60,11947.00,11947.00,0.00,3.468,1328,0.004,1.014,0.011,2.423,0.015,5.4
61,11843.00,11843.00,0.00,3.448,1316,0.005,1.051,0.012,2.366,0.015,5.9
62,12110.00,12110.00,0.00,3.417,1346,0.004,1.003,0.012,2.383,0.015,5.4
63,11792.00,11792.00,0.00,3.590,1310,0.004,1.092,0.011,2.468,0.015,5.7
64,12209.00,12209.00,0.00,3.378,1357,0.004,0.985,0.011,2.363,0.015,5.3
65,12007.00,12007.00,0.00,3.469,1334,0.004,1.028,0.011,2.411,0.015,5.5
66,11720.00,11720.00,0.00,3.531,1302,0.004,1.032,0.011,2.469,0.015,5.5
67,11884.00,11884.00,0.00,3.501,1320,0.004,1.060,0.013,2.409,0.015,5.6
68,12080.00,12080.00,0.00,3.442,1342,0.004,1.010,0.012,2.401,0.015,5.6
69,11654.00,11654.00,0.00,3.614,1295,0.004,1.065,0.011,2.519,0.015,5.5
70,12397.00,12397.00,0.00,3.339,1377,0.004,0.981,0.011,2.329,0.015,5.5
71,11944.00,11944.00,0.00,3.488,1327,0.004,1.047,0.011,2.412,0.014,5.7
72,12044.00,12044.00,0.00,3.470,1338,0.004,1.015,0.011,2.425,0.015,5.6
73,11664.00,11664.00,0.00,3.580,1296,0.004,1.067,0.012,2.482,0.016,5.6
74,8884.00,8884.00,0.00,3.468,987,0.004,1.028,0.011,2.409,0.015,5.5
