Second,Ops/sec,Hits/sec,Misses/sec,Latency,KB/sec,Request_Creation_Time,Request_Buffer_Time,MW_Writes_To_Memcached_Time,Memcached_Process_Time,MW_Writes_To_Memtier_Time,Queue_Size
4,1218.00,1218.00,0.00,6.371,1280,0.044,5.291,0.024,0.955,0.057,37.9
5,5777.00,5777.00,0.00,10.994,6070,0.005,9.628,0.011,1.333,0.016,52.1
6,5448.00,5448.00,0.00,16.970,5724,0.005,15.499,0.007,1.446,0.014,80.7
7,5347.00,5347.00,0.00,17.352,5618,0.005,15.856,0.007,1.469,0.015,80.9
8,5609.00,5609.00,0.00,16.583,5893,0.004,15.154,0.007,1.403,0.015,81.1
9,5565.00,5565.00,0.00,16.710,5846,0.004,15.269,0.007,1.415,0.015,81.1
10,5595.00,5595.00,0.00,16.596,5878,0.005,15.164,0.007,1.405,0.015,81.4
11,5536.00,5536.00,0.00,16.873,5816,0.005,15.413,0.007,1.434,0.015,81.3
12,5609.00,5609.00,0.00,16.450,5893,0.004,15.038,0.007,1.387,0.014,81.5
13,5601.00,5601.00,0.00,16.697,5885,0.004,15.265,0.007,1.406,0.014,81.5
14,5544.00,5544.00,0.00,16.725,5825,0.004,15.279,0.007,1.421,0.014,80.7
15,5573.00,5573.00,0.00,16.758,5854,0.004,15.322,0.007,1.410,0.015,81.3
16,5587.00,5587.00,0.00,16.534,5870,0.004,15.100,0.007,1.409,0.014,80.6
17,5721.00,5721.00,0.00,16.183,6011,0.005,14.781,0.007,1.376,0.014,80.0
18,5676.00,5676.00,0.00,16.385,5963,0.004,14.973,0.007,1.386,0.015,81.2
19,5635.00,5635.00,0.00,16.551,5919,0.004,15.127,0.007,1.398,0.014,81.3
20,5601.00,5601.00,0.00,16.637,5884,0.003,15.207,0.007,1.405,0.014,81.6
21,5609.00,5609.00,0.00,16.627,5892,0.003,15.199,0.007,1.404,0.014,81.5
22,5598.00,5598.00,0.00,16.640,5881,0.004,15.205,0.007,1.411,0.015,81.4
23,5526.00,5526.00,0.00,16.904,5805,0.003,15.457,0.006,1.422,0.014,81.3
24,5572.00,5572.00,0.00,16.728,5854,0.003,15.290,0.006,1.414,0.014,81.0
25,5677.00,5677.00,0.00,16.483,5964,0.004,15.071,0.007,1.388,0.014,81.8
26,5663.00,5663.00,0.00,16.419,5949,0.004,15.004,0.006,1.390,0.014,81.0
27,5479.00,5479.00,0.00,16.938,5756,0.003,15.475,0.007,1.437,0.015,80.9
28,5678.00,5678.00,0.00,16.395,5965,0.003,14.984,0.006,1.387,0.014,81.2
29,5587.00,5587.00,0.00,16.657,5869,0.004,15.224,0.006,1.409,0.014,81.0
30,5592.00,5592.00,0.00,16.693,5875,0.004,15.259,0.007,1.409,0.014,81.3
31,5589.00,5589.00,0.00,16.672,5872,0.004,15.237,0.007,1.411,0.014,81.0
32,5701.00,5701.00,0.00,16.358,5989,0.003,14.952,0.006,1.381,0.014,81.4
33,5604.00,5604.00,0.00,16.664,5888,0.004,15.234,0.007,1.405,0.014,81.4
34,5656.00,5656.00,0.00,16.514,5942,0.004,15.098,0.007,1.392,0.014,81.6
35,5595.00,5595.00,0.00,16.696,5878,0.004,15.263,0.007,1.408,0.015,81.4
36,5620.00,5620.00,0.00,16.573,5905,0.004,15.148,0.006,1.401,0.014,81.4
37,5686.00,5686.00,0.00,16.348,5973,0.004,14.936,0.006,1.387,0.014,80.8
38,5579.00,5579.00,0.00,16.703,5861,0.004,15.268,0.007,1.410,0.014,81.4
39,5612.00,5612.00,0.00,16.601,5896,0.004,15.173,0.006,1.403,0.015,81.0
40,5624.00,5624.00,0.00,16.607,5909,0.003,15.182,0.006,1.401,0.015,81.2
41,5619.00,5619.00,0.00,16.576,5903,0.004,15.149,0.006,1.403,0.014,81.2
42,5599.00,5599.00,0.00,16.662,5882,0.003,15.229,0.007,1.409,0.014,81.2
43,5567.00,5567.00,0.00,16.744,5849,0.003,15.306,0.006,1.413,0.014,81.4
44,5591.00,5591.00,0.00,16.680,5874,0.004,15.247,0.006,1.408,0.015,81.4
45,5650.00,5650.00,0.00,16.492,5935,0.004,15.072,0.006,1.395,0.014,81.0
46,5575.00,5574.00,1.00,16.684,5856,0.003,15.245,0.007,1.415,0.015,80.6
47,5590.00,5536.00,54.00,16.673,5816,0.004,15.243,0.009,1.402,0.015,81.0
48,5806.00,5791.00,15.00,15.938,6084,0.004,14.557,0.007,1.356,0.014,80.7
49,5688.00,5662.00,26.00,16.387,5948,0.003,14.980,0.007,1.382,0.014,81.3
50,5596.00,5596.00,0.00,16.643,5879,0.003,15.211,0.007,1.407,0.014,80.9
51,5629.00,5629.00,0.00,16.631,5913,0.004,15.199,0.007,1.408,0.014,81.1
52,5606.00,5606.00,0.00,16.478,5889,0.004,15.060,0.007,1.393,0.015,81.0
53,5570.00,5570.00,0.00,16.858,5851,0.003,15.408,0.007,1.426,0.015,81.5
54,5502.00,5502.00,0.00,16.735,5779,0.003,15.286,0.006,1.424,0.014,81.3
55,5654.00,5654.00,0.00,16.576,5940,0.003,15.162,0.007,1.390,0.015,81.4
56,5641.00,5641.00,0.00,16.462,5926,0.003,15.043,0.007,1.394,0.015,80.9
57,5574.00,5574.00,0.00,16.750,5856,0.003,15.312,0.007,1.413,0.015,81.6
58,5564.00,5564.00,0.00,16.722,5845,0.003,15.281,0.007,1.417,0.014,81.2
59,5470.00,5470.00,0.00,17.043,5746,0.003,15.582,0.007,1.437,0.014,80.9
60,5586.00,5586.00,0.00,16.739,5868,0.004,15.305,0.007,1.409,0.015,81.2
61,5529.00,5529.00,0.00,16.872,5809,0.003,15.423,0.007,1.424,0.015,80.8
62,5506.00,5506.00,0.00,16.987,5784,0.003,15.531,0.007,1.431,0.014,81.5
63,5609.00,5609.00,0.00,16.688,5893,0.003,15.258,0.007,1.405,0.014,81.9
64,5608.00,5608.00,0.00,16.604,5891,0.004,15.175,0.006,1.405,0.014,81.1
65,5692.00,5692.00,0.00,16.393,5980,0.004,14.987,0.007,1.382,0.015,81.3
66,5647.00,5647.00,0.00,16.484,5933,0.003,15.064,0.006,1.396,0.014,81.0
67,5557.00,5557.00,0.00,16.809,5838,0.004,15.367,0.006,1.418,0.015,81.3
68,5648.00,5648.00,0.00,16.463,5934,0.003,15.045,0.006,1.395,0.014,81.1
69,5584.00,5584.00,0.00,16.706,5867,0.003,15.271,0.006,1.411,0.014,81.2
70,5531.00,5531.00,0.00,16.881,5811,0.004,15.429,0.006,1.428,0.014,81.6
71,5613.00,5613.00,0.00,16.548,5897,0.003,15.125,0.006,1.400,0.014,81.1
72,5570.00,5570.00,0.00,16.776,5852,0.004,15.337,0.006,1.416,0.014,81.5
73,5578.00,5578.00,0.00,16.778,5860,0.003,15.333,0.006,1.420,0.015,81.4
74,6357.00,6357.00,0.00,12.124,6678,0.004,10.948,0.007,1.152,0.014,61.2
75,7036.00,7036.00,0.00,1.639,7392,0.004,1.068,0.007,0.547,0.014,13.9
