Second,Ops/sec,Hits/sec,Misses/sec,Latency,KB/sec,Request_Creation_Time,Request_Buffer_Time,MW_Writes_To_Memcached_Time,Memcached_Process_Time,MW_Writes_To_Memtier_Time,Queue_Size
4,1932.00,1932.00,0.00,2.161,215,0.020,0.311,0.067,1.673,0.090,1.7
5,8183.00,8183.00,0.00,2.175,909,0.006,0.197,0.017,1.939,0.016,1.2
6,9204.00,9204.00,0.00,2.087,1023,0.005,0.154,0.015,1.899,0.013,1.3
7,9203.00,9203.00,0.00,2.093,1022,0.005,0.162,0.016,1.897,0.013,1.2
8,8995.00,8995.00,0.00,2.132,999,0.005,0.158,0.015,1.939,0.014,1.3
9,9295.00,9295.00,0.00,2.106,1033,0.004,0.193,0.014,1.881,0.014,1.4
10,9235.00,9234.00,1.00,2.102,1026,0.004,0.181,0.014,1.890,0.013,1.4
11,8999.00,8979.00,20.00,2.157,997,0.004,0.184,0.014,1.940,0.015,1.3
12,9475.00,9472.00,3.00,2.026,1052,0.005,0.175,0.014,1.817,0.015,1.3
13,9235.00,9235.00,0.00,2.033,1026,0.005,0.178,0.013,1.823,0.014,1.4
14,8947.00,8947.00,0.00,2.179,994,0.004,0.165,0.013,1.982,0.014,1.3
15,8787.00,8787.00,0.00,2.192,977,0.004,0.174,0.013,1.986,0.015,1.4
16,8685.00,8685.00,0.00,2.199,965,0.004,0.226,0.013,1.942,0.014,1.8
17,9352.00,9352.00,0.00,2.064,1039,0.004,0.164,0.013,1.869,0.014,1.3
18,9134.00,9134.00,0.00,2.140,1015,0.004,0.192,0.013,1.917,0.013,1.4
19,9106.00,9106.00,0.00,2.131,1012,0.004,0.171,0.013,1.929,0.014,1.3
20,9060.00,9060.00,0.00,2.130,1007,0.004,0.181,0.013,1.919,0.014,1.4
21,9074.00,9074.00,0.00,2.154,1008,0.005,0.170,0.013,1.952,0.014,1.4
22,9418.00,9416.00,2.00,2.056,1046,0.005,0.142,0.013,1.883,0.014,1.3
23,9203.00,9195.00,8.00,2.067,1022,0.004,0.144,0.013,1.891,0.015,1.3
24,8695.00,8685.00,10.00,2.186,965,0.004,0.181,0.014,1.974,0.013,1.4
25,8598.00,8594.00,4.00,2.189,955,0.004,0.228,0.014,1.930,0.014,1.6
26,9118.00,9118.00,0.00,2.145,1013,0.004,0.170,0.013,1.943,0.015,1.4
27,9263.00,9263.00,0.00,2.069,1029,0.004,0.149,0.013,1.888,0.015,1.3
28,9396.00,9396.00,0.00,2.085,1044,0.004,0.161,0.013,1.892,0.014,1.3
29,9016.00,9016.00,0.00,2.125,1002,0.004,0.158,0.013,1.936,0.014,1.3
30,9442.00,9442.00,0.00,2.077,1049,0.005,0.160,0.014,1.885,0.014,1.4
31,8821.00,8821.00,0.00,2.224,980,0.004,0.214,0.013,1.978,0.014,1.5
32,9175.00,9175.00,0.00,2.150,1020,0.004,0.143,0.015,1.974,0.013,1.2
33,9647.00,9647.00,0.00,1.998,1072,0.004,0.153,0.013,1.815,0.014,1.2
34,9038.00,9038.00,0.00,2.143,1004,0.004,0.155,0.013,1.956,0.014,1.3
35,9178.00,9178.00,0.00,2.145,1020,0.004,0.159,0.013,1.955,0.014,1.3
36,8863.00,8863.00,0.00,2.173,985,0.004,0.165,0.013,1.977,0.014,1.2
37,9112.00,9112.00,0.00,2.127,1012,0.004,0.178,0.013,1.919,0.014,1.4
38,9152.00,9152.00,0.00,2.135,1017,0.004,0.157,0.014,1.947,0.013,1.4
39,8741.00,8741.00,0.00,2.182,971,0.004,0.209,0.014,1.940,0.014,1.5
40,9379.00,9379.00,0.00,2.048,1042,0.004,0.164,0.013,1.851,0.015,1.3
41,9059.00,9059.00,0.00,2.140,1007,0.004,0.158,0.014,1.950,0.015,1.3
42,8987.00,8987.00,0.00,2.162,999,0.006,0.145,0.014,1.983,0.014,1.3
43,9246.00,9246.00,0.00,2.086,1027,0.004,0.172,0.014,1.882,0.014,1.4
44,9417.00,9417.00,0.00,2.042,1046,0.004,0.134,0.013,1.877,0.013,1.3
45,9137.00,9137.00,0.00,2.125,1015,0.003,0.148,0.014,1.946,0.014,1.3
46,9005.00,9005.00,0.00,2.197,1001,0.004,0.165,0.013,2.002,0.014,1.4
47,9437.00,9437.00,0.00,2.037,1049,0.004,0.184,0.014,1.822,0.014,1.3
48,8955.00,8955.00,0.00,2.164,995,0.004,0.199,0.013,1.934,0.014,1.3
49,9250.00,9250.00,0.00,2.129,1028,0.004,0.144,0.014,1.953,0.014,1.3
50,9388.00,9388.00,0.00,2.020,1043,0.004,0.171,0.013,1.818,0.014,1.4
51,8653.00,8653.00,0.00,2.259,961,0.004,0.173,0.013,2.055,0.014,1.4
52,9140.00,9140.00,0.00,2.111,1016,0.004,0.228,0.015,1.851,0.013,1.5
53,9534.00,9534.00,0.00,2.006,1059,0.004,0.160,0.013,1.815,0.014,1.3
54,9068.00,9066.00,2.00,2.086,1007,0.004,0.166,0.013,1.887,0.015,1.3
55,9398.00,9397.00,1.00,2.076,1044,0.004,0.157,0.013,1.889,0.014,1.4
56,9563.00,9560.00,3.00,2.014,1063,0.004,0.201,0.014,1.782,0.013,1.5
57,8787.00,8780.00,7.00,2.228,976,0.004,0.187,0.013,2.011,0.014,1.4
58,9115.00,9109.00,6.00,2.117,1012,0.004,0.206,0.013,1.879,0.015,1.6
59,9060.00,9053.00,7.00,2.130,1006,0.005,0.173,0.014,1.923,0.015,1.4
60,9258.00,9254.00,4.00,2.095,1028,0.003,0.151,0.013,1.913,0.014,1.2
61,9256.00,9250.00,6.00,2.068,1028,0.005,0.147,0.013,1.890,0.014,1.3
62,9513.00,9501.00,12.00,2.007,1056,0.004,0.160,0.013,1.815,0.015,1.4
63,9163.00,9154.00,9.00,2.106,1017,0.004,0.150,0.015,1.920,0.018,1.3
64,9133.00,9127.00,6.00,2.093,1014,0.004,0.138,0.014,1.923,0.014,1.3
65,9060.00,9057.00,3.00,2.149,1006,0.004,0.155,0.014,1.963,0.014,1.3
66,9061.00,9058.00,3.00,2.140,1006,0.004,0.171,0.015,1.935,0.015,1.3
67,9191.00,9191.00,0.00,2.166,1021,0.004,0.147,0.014,1.987,0.014,1.4
68,9189.00,9186.00,3.00,2.114,1021,0.004,0.188,0.014,1.894,0.014,1.5
69,9053.00,9053.00,0.00,2.152,1006,0.004,0.160,0.013,1.962,0.014,1.3
70,9274.00,9274.00,0.00,2.074,1030,0.004,0.173,0.014,1.870,0.014,1.2
71,9092.00,9092.00,0.00,2.156,1010,0.004,0.231,0.013,1.894,0.015,1.5
72,8836.00,8836.00,0.00,2.212,982,0.003,0.191,0.014,1.989,0.014,1.4
73,8925.00,8925.00,0.00,2.189,991,0.004,0.173,0.013,1.985,0.014,1.5
74,6629.00,6629.00,0.00,2.086,737,0.004,0.153,0.013,1.903,0.014,1.3
