Second,Ops/sec,Hits/sec,Misses/sec,Latency,KB/sec,Request_Creation_Time,Request_Buffer_Time,MW_Writes_To_Memcached_Time,Memcached_Process_Time,MW_Writes_To_Memtier_Time,Queue_Size
4,1771.00,1771.00,0.00,1.287,197,0.016,0.128,0.037,1.052,0.055,0.6
5,6230.00,6230.00,0.00,1.276,692,0.006,0.082,0.015,1.155,0.017,0.4
6,6566.00,6566.00,0.00,1.359,729,0.006,0.093,0.015,1.232,0.013,0.4
7,6618.00,6618.00,0.00,1.356,735,0.005,0.090,0.014,1.234,0.013,0.4
8,6306.00,6306.00,0.00,1.407,701,0.005,0.102,0.014,1.272,0.013,0.4
9,6435.00,6423.00,12.00,1.368,713,0.006,0.088,0.015,1.247,0.014,0.4
10,6584.00,6584.00,0.00,1.368,731,0.005,0.091,0.015,1.243,0.014,0.4
11,6282.00,6282.00,0.00,1.450,698,0.006,0.091,0.014,1.326,0.013,0.4
12,6653.00,6653.00,0.00,1.339,739,0.004,0.090,0.014,1.218,0.013,0.4
13,6787.00,6787.00,0.00,1.343,754,0.004,0.107,0.014,1.205,0.013,0.5
14,6321.00,6321.00,0.00,1.426,702,0.004,0.110,0.014,1.285,0.013,0.4
15,7000.00,7000.00,0.00,1.263,778,0.005,0.109,0.014,1.124,0.013,0.4
16,6908.00,6908.00,0.00,1.292,768,0.004,0.090,0.014,1.171,0.013,0.4
17,6570.00,6564.00,6.00,1.384,730,0.004,0.082,0.014,1.270,0.013,0.4
18,6854.00,6848.00,6.00,1.295,761,0.004,0.105,0.014,1.160,0.013,0.5
19,6827.00,6827.00,0.00,1.316,758,0.004,0.088,0.015,1.197,0.013,0.4
20,6694.00,6694.00,0.00,1.328,744,0.004,0.088,0.014,1.209,0.013,0.4
21,6912.00,6912.00,0.00,1.291,768,0.004,0.088,0.014,1.172,0.013,0.4
22,6776.00,6776.00,0.00,1.321,753,0.004,0.085,0.014,1.205,0.013,0.4
23,6808.00,6808.00,0.00,1.278,757,0.004,0.089,0.014,1.158,0.013,0.4
24,6710.00,6710.00,0.00,1.347,746,0.004,0.095,0.014,1.221,0.013,0.4
25,6519.00,6519.00,0.00,1.351,725,0.004,0.109,0.016,1.210,0.013,0.5
26,6568.00,6568.00,0.00,1.349,730,0.004,0.102,0.015,1.216,0.013,0.4
27,6648.00,6648.00,0.00,1.326,739,0.004,0.109,0.014,1.187,0.013,0.5
28,6743.00,6743.00,0.00,1.328,749,0.004,0.095,0.014,1.203,0.013,0.4
29,6569.00,6569.00,0.00,1.360,730,0.004,0.122,0.013,1.208,0.013,0.6
30,6864.00,6864.00,0.00,1.286,763,0.004,0.091,0.016,1.162,0.013,0.4
31,6905.00,6905.00,0.00,1.284,767,0.004,0.104,0.015,1.147,0.013,0.4
32,6433.00,6433.00,0.00,1.395,715,0.004,0.111,0.014,1.253,0.013,0.5
33,6601.00,6601.00,0.00,1.363,733,0.004,0.099,0.014,1.234,0.013,0.5
34,6445.00,6445.00,0.00,1.381,716,0.004,0.113,0.015,1.236,0.013,0.5
35,6663.00,6663.00,0.00,1.343,740,0.004,0.096,0.014,1.216,0.013,0.4
36,6437.00,6437.00,0.00,1.391,715,0.004,0.084,0.015,1.275,0.013,0.4
37,6853.00,6853.00,0.00,1.311,761,0.004,0.096,0.013,1.185,0.013,0.5
38,6760.00,6760.00,0.00,1.297,751,0.004,0.110,0.014,1.157,0.013,0.5
39,6923.00,6922.00,1.00,1.261,769,0.004,0.087,0.014,1.143,0.013,0.4
40,6617.00,6614.00,3.00,1.326,735,0.004,0.092,0.014,1.203,0.013,0.5
41,6857.00,6852.00,5.00,1.296,761,0.004,0.082,0.014,1.182,0.013,0.4
42,6611.00,6606.00,5.00,1.353,734,0.004,0.094,0.015,1.227,0.013,0.5
43,6524.00,6517.00,7.00,1.388,724,0.004,0.085,0.014,1.272,0.013,0.4
44,6464.00,6460.00,4.00,1.387,718,0.004,0.097,0.013,1.260,0.013,0.4
45,6394.00,6386.00,8.00,1.385,710,0.004,0.122,0.014,1.232,0.013,0.5
46,6852.00,6849.00,3.00,1.320,761,0.004,0.096,0.013,1.194,0.013,0.4
47,6289.00,6289.00,0.00,1.427,699,0.004,0.088,0.014,1.309,0.013,0.4
48,6402.00,6402.00,0.00,1.391,711,0.004,0.083,0.014,1.278,0.013,0.4
49,6532.00,6532.00,0.00,1.367,726,0.004,0.095,0.014,1.243,0.013,0.4
50,6680.00,6680.00,0.00,1.310,742,0.004,0.108,0.014,1.171,0.013,0.5
51,6099.00,6099.00,0.00,1.455,678,0.004,0.181,0.015,1.243,0.013,0.7
52,6861.00,6861.00,0.00,1.282,762,0.004,0.108,0.013,1.144,0.013,0.4
53,6780.00,6780.00,0.00,1.317,753,0.004,0.090,0.014,1.196,0.013,0.4
54,6461.00,6461.00,0.00,1.356,718,0.004,0.118,0.014,1.207,0.013,0.5
55,7050.00,7050.00,0.00,1.213,783,0.004,0.085,0.013,1.099,0.013,0.4
56,6693.00,6693.00,0.00,1.301,744,0.004,0.084,0.014,1.186,0.013,0.3
57,6505.00,6505.00,0.00,1.327,723,0.004,0.095,0.014,1.201,0.013,0.4
58,6778.00,6778.00,0.00,1.319,753,0.004,0.086,0.014,1.202,0.013,0.4
59,6617.00,6617.00,0.00,1.364,735,0.004,0.092,0.013,1.242,0.014,0.4
60,6480.00,6480.00,0.00,1.397,720,0.004,0.113,0.013,1.254,0.013,0.5
61,6580.00,6580.00,0.00,1.380,731,0.004,0.107,0.013,1.244,0.013,0.4
62,6698.00,6698.00,0.00,1.345,744,0.004,0.085,0.014,1.230,0.013,0.4
63,6696.00,6696.00,0.00,1.345,744,0.004,0.085,0.014,1.229,0.014,0.4
64,6490.00,6490.00,0.00,1.400,721,0.004,0.096,0.015,1.273,0.013,0.4
65,6929.00,6929.00,0.00,1.302,770,0.004,0.086,0.014,1.186,0.013,0.4
66,6590.00,6590.00,0.00,1.291,732,0.004,0.090,0.013,1.170,0.013,0.4
67,6999.00,6999.00,0.00,1.265,778,0.004,0.103,0.013,1.131,0.013,0.4
68,6662.00,6662.00,0.00,1.341,740,0.004,0.080,0.014,1.231,0.013,0.4
69,6473.00,6473.00,0.00,1.418,719,0.004,0.083,0.013,1.304,0.013,0.4
70,6404.00,6404.00,0.00,1.388,712,0.005,0.106,0.013,1.250,0.013,0.4
71,6859.00,6859.00,0.00,1.275,762,0.005,0.088,0.013,1.156,0.013,0.4
72,6431.00,6431.00,0.00,1.378,715,0.004,0.111,0.014,1.236,0.014,0.4
73,6659.00,6659.00,0.00,1.351,740,0.004,0.096,0.013,1.225,0.013,0.4
74,4275.00,4275.00,0.00,1.425,475,0.004,0.155,0.013,1.240,0.014,0.6
