Second,Ops/sec,Hits/sec,Misses/sec,Latency,KB/sec,Request_Creation_Time,Request_Buffer_Time,MW_Writes_To_Memcached_Time,Memcached_Process_Time,MW_Writes_To_Memtier_Time,Queue_Size
4,1731.00,1731.00,0.00,2.407,952,0.036,1.277,0.026,1.018,0.049,7.2
5,7413.00,7413.00,0.00,2.535,4074,0.007,1.491,0.009,1.012,0.017,8.3
6,8453.00,8453.00,0.00,2.392,4646,0.005,1.438,0.007,0.927,0.014,9.2
7,8071.00,8071.00,0.00,2.484,4435,0.005,1.493,0.007,0.964,0.014,9.2
8,8127.00,8127.00,0.00,2.458,4467,0.005,1.479,0.007,0.952,0.014,9.1
9,8221.00,8221.00,0.00,2.434,4518,0.005,1.461,0.007,0.946,0.014,9.3
10,8145.00,8145.00,0.00,2.485,4477,0.005,1.505,0.008,0.954,0.014,9.5
11,8404.00,8403.00,1.00,2.365,4618,0.004,1.414,0.008,0.924,0.014,9.5
12,8191.00,8168.00,23.00,2.425,4489,0.004,1.454,0.009,0.943,0.014,9.5
13,8040.00,8040.00,0.00,2.450,4418,0.004,1.463,0.007,0.963,0.014,9.2
14,8408.00,8408.00,0.00,2.422,4621,0.004,1.462,0.007,0.935,0.014,9.6
15,8239.00,8239.00,0.00,2.444,4528,0.004,1.473,0.007,0.947,0.014,9.4
16,7672.00,7672.00,0.00,2.642,4217,0.004,1.606,0.007,1.011,0.014,9.6
17,8512.00,8512.00,0.00,2.362,4678,0.004,1.421,0.007,0.916,0.014,9.2
18,8378.00,8378.00,0.00,2.384,4604,0.004,1.431,0.007,0.928,0.015,9.2
19,8137.00,8137.00,0.00,2.461,4472,0.004,1.479,0.007,0.957,0.014,9.3
20,7802.00,7802.00,0.00,2.610,4288,0.004,1.583,0.007,1.001,0.015,9.2
21,8606.00,8606.00,0.00,2.314,4730,0.004,1.386,0.007,0.904,0.014,9.2
22,8121.00,8121.00,0.00,2.514,4463,0.004,1.524,0.007,0.965,0.014,9.6
23,7956.00,7956.00,0.00,2.531,4372,0.004,1.532,0.007,0.974,0.014,9.4
24,8128.00,8128.00,0.00,2.474,4467,0.004,1.493,0.007,0.956,0.014,9.1
25,8131.00,8125.00,6.00,2.502,4466,0.004,1.517,0.007,0.961,0.014,9.5
26,8007.00,7993.00,14.00,2.536,4393,0.003,1.542,0.007,0.970,0.014,9.4
27,8101.00,8097.00,4.00,2.497,4450,0.004,1.513,0.007,0.960,0.014,9.5
28,8095.00,8095.00,0.00,2.502,4449,0.004,1.511,0.007,0.967,0.014,9.3
29,7994.00,7994.00,0.00,2.477,4394,0.004,1.483,0.007,0.969,0.014,8.9
30,8306.00,8306.00,0.00,2.466,4565,0.003,1.497,0.007,0.944,0.015,9.7
31,8391.00,8391.00,0.00,2.395,4612,0.004,1.441,0.007,0.929,0.014,9.2
32,8027.00,8027.00,0.00,2.506,4412,0.004,1.508,0.007,0.973,0.015,9.3
33,8333.00,8333.00,0.00,2.378,4580,0.004,1.425,0.007,0.928,0.014,9.3
34,8025.00,8025.00,0.00,2.519,4411,0.004,1.518,0.007,0.977,0.014,9.3
35,7802.00,7802.00,0.00,2.590,4288,0.004,1.568,0.007,0.998,0.014,9.2
36,8546.00,8546.00,0.00,2.343,4697,0.004,1.404,0.007,0.915,0.014,9.3
37,8094.00,8094.00,0.00,2.484,4448,0.004,1.502,0.007,0.958,0.014,9.4
38,8100.00,8100.00,0.00,2.476,4452,0.004,1.488,0.007,0.963,0.014,9.0
39,8288.00,8288.00,0.00,2.387,4555,0.003,1.428,0.007,0.935,0.014,9.3
40,8190.00,8190.00,0.00,2.423,4501,0.004,1.452,0.007,0.946,0.014,8.8
41,7990.00,7990.00,0.00,2.501,4391,0.004,1.506,0.007,0.971,0.014,9.2
42,8471.00,8471.00,0.00,2.396,4655,0.003,1.446,0.006,0.926,0.014,9.6
43,8780.00,8780.00,0.00,2.212,4825,0.004,1.308,0.007,0.878,0.015,9.4
44,7887.00,7887.00,0.00,2.512,4335,0.004,1.509,0.007,0.978,0.014,9.5
45,7820.00,7820.00,0.00,2.574,4298,0.004,1.551,0.007,0.998,0.014,9.5
46,8123.00,8123.00,0.00,2.493,4464,0.004,1.508,0.007,0.960,0.015,9.5
47,8068.00,8068.00,0.00,2.505,4434,0.003,1.521,0.007,0.960,0.014,9.6
48,8175.00,8175.00,0.00,2.491,4493,0.003,1.510,0.007,0.957,0.014,9.5
49,8122.00,8122.00,0.00,2.456,4464,0.003,1.472,0.007,0.960,0.014,9.2
50,7889.00,7889.00,0.00,2.550,4336,0.004,1.543,0.007,0.983,0.014,9.1
51,8287.00,8287.00,0.00,2.407,4554,0.004,1.443,0.007,0.938,0.014,9.1
52,8195.00,8195.00,0.00,2.463,4504,0.004,1.490,0.007,0.948,0.015,9.4
53,8209.00,8209.00,0.00,2.470,4512,0.003,1.494,0.007,0.951,0.015,9.4
54,8204.00,8204.00,0.00,2.466,4509,0.003,1.490,0.007,0.951,0.015,9.6
55,7963.00,7963.00,0.00,2.529,4376,0.004,1.532,0.007,0.972,0.014,9.1
56,8089.00,8089.00,0.00,2.505,4446,0.004,1.517,0.007,0.964,0.014,9.2
57,8244.00,8244.00,0.00,2.438,4531,0.004,1.466,0.007,0.948,0.014,9.3
58,7894.00,7894.00,0.00,2.530,4338,0.004,1.524,0.007,0.981,0.014,9.3
59,8241.00,8241.00,0.00,2.433,4529,0.004,1.469,0.007,0.939,0.014,9.2
60,7985.00,7985.00,0.00,2.521,4388,0.004,1.523,0.007,0.973,0.014,9.4
61,8238.00,8238.00,0.00,2.457,4528,0.004,1.481,0.007,0.951,0.015,9.3
62,8514.00,8510.00,4.00,2.328,4677,0.003,1.394,0.007,0.909,0.014,9.5
63,8271.00,8265.00,6.00,2.451,4543,0.004,1.480,0.007,0.946,0.014,9.1
64,8287.00,8281.00,6.00,2.360,4551,0.005,1.402,0.007,0.932,0.014,9.0
65,7926.00,7921.00,5.00,2.541,4353,0.004,1.544,0.007,0.973,0.014,9.4
66,8286.00,8281.00,5.00,2.400,4551,0.004,1.439,0.007,0.934,0.016,9.2
67,8103.00,8097.00,6.00,2.487,4450,0.004,1.503,0.007,0.959,0.014,9.4
68,8152.00,8148.00,4.00,2.491,4478,0.004,1.513,0.007,0.953,0.014,9.5
69,7953.00,7937.00,16.00,2.566,4362,0.004,1.557,0.007,0.985,0.014,9.4
70,8085.00,8081.00,4.00,2.521,4441,0.004,1.531,0.008,0.964,0.015,9.3
71,8351.00,8339.00,12.00,2.381,4583,0.004,1.430,0.007,0.927,0.014,9.3
72,8097.00,8095.00,2.00,2.524,4449,0.004,1.531,0.007,0.969,0.014,9.3
73,8185.00,8183.00,2.00,2.472,4497,0.004,1.498,0.007,0.949,0.015,9.4
74,5803.00,5803.00,0.00,2.501,3189,0.004,1.508,0.007,0.968,0.014,9.2
