Second,Ops/sec,Hits/sec,Misses/sec,Latency,KB/sec,Request_Creation_Time,Request_Buffer_Time,MW_Writes_To_Memcached_Time,Memcached_Process_Time,MW_Writes_To_Memtier_Time,Queue_Size
4,2125.00,2125.00,0.00,2.394,236,0.020,0.289,0.070,1.971,0.044,1.2
5,7275.00,7275.00,0.00,2.492,808,0.006,0.187,0.017,2.266,0.016,1.2
6,9417.00,9417.00,0.00,2.074,1047,0.005,0.159,0.014,1.882,0.014,1.4
7,9510.00,9510.00,0.00,2.027,1056,0.005,0.155,0.013,1.842,0.013,1.4
8,9193.00,9193.00,0.00,2.107,1021,0.005,0.147,0.013,1.928,0.014,1.2
9,9351.00,9351.00,0.00,2.032,1039,0.004,0.160,0.014,1.841,0.013,1.2
10,9285.00,9285.00,0.00,2.068,1032,0.004,0.178,0.013,1.859,0.014,1.4
11,8805.00,8781.00,24.00,2.150,975,0.005,0.170,0.015,1.945,0.015,1.3
12,9257.00,9257.00,0.00,2.064,1028,0.004,0.150,0.013,1.881,0.016,1.1
13,9186.00,9186.00,0.00,2.072,1021,0.004,0.179,0.014,1.862,0.013,1.4
14,9354.00,9354.00,0.00,2.101,1040,0.004,0.162,0.013,1.908,0.014,1.3
15,9347.00,9347.00,0.00,2.088,1039,0.004,0.158,0.013,1.901,0.013,1.4
16,9397.00,9397.00,0.00,2.037,1044,0.004,0.158,0.014,1.848,0.013,1.3
17,9181.00,9181.00,0.00,2.131,1020,0.003,0.182,0.012,1.920,0.013,1.5
18,9483.00,9483.00,0.00,2.039,1053,0.004,0.171,0.013,1.838,0.013,1.4
19,9404.00,9404.00,0.00,2.082,1045,0.004,0.176,0.013,1.875,0.014,1.4
20,9204.00,9204.00,0.00,2.056,1022,0.004,0.179,0.013,1.846,0.014,1.4
21,9124.00,9124.00,0.00,2.148,1014,0.004,0.156,0.012,1.963,0.013,1.4
22,9521.00,9520.00,1.00,2.054,1058,0.003,0.162,0.013,1.863,0.013,1.4
23,9541.00,9528.00,13.00,2.028,1059,0.004,0.156,0.012,1.842,0.014,1.4
24,9347.00,9337.00,10.00,2.096,1037,0.004,0.153,0.013,1.912,0.014,1.3
25,9074.00,9074.00,0.00,2.120,1008,0.004,0.178,0.013,1.911,0.014,1.4
26,9351.00,9351.00,0.00,2.054,1039,0.003,0.142,0.013,1.882,0.013,1.2
27,9150.00,9150.00,0.00,2.088,1017,0.004,0.157,0.013,1.900,0.014,1.3
28,9617.00,9617.00,0.00,1.985,1069,0.003,0.152,0.013,1.802,0.015,1.3
29,9435.00,9435.00,0.00,2.027,1048,0.003,0.183,0.013,1.815,0.013,1.5
30,8989.00,8989.00,0.00,2.211,999,0.004,0.163,0.012,2.020,0.013,1.3
31,9256.00,9256.00,0.00,2.088,1029,0.004,0.186,0.013,1.872,0.013,1.4
32,9070.00,9070.00,0.00,2.107,1008,0.004,0.203,0.012,1.874,0.014,1.6
33,9306.00,9306.00,0.00,2.060,1034,0.004,0.172,0.012,1.859,0.013,1.4
34,9520.00,9520.00,0.00,2.027,1058,0.003,0.184,0.012,1.814,0.014,1.5
35,9214.00,9214.00,0.00,2.104,1024,0.004,0.158,0.012,1.917,0.013,1.4
36,9066.00,9066.00,0.00,2.139,1007,0.003,0.171,0.013,1.939,0.013,1.4
37,9620.00,9620.00,0.00,1.984,1069,0.004,0.196,0.013,1.758,0.013,1.5
38,9535.00,9535.00,0.00,2.036,1059,0.004,0.198,0.013,1.808,0.014,1.5
39,9583.00,9583.00,0.00,2.008,1065,0.003,0.148,0.012,1.829,0.015,1.4
40,9779.00,9779.00,0.00,1.983,1087,0.003,0.160,0.012,1.794,0.013,1.4
41,9097.00,9097.00,0.00,2.129,1011,0.006,0.197,0.012,1.901,0.013,1.4
42,9525.00,9525.00,0.00,2.022,1058,0.004,0.156,0.013,1.834,0.015,1.3
43,9461.00,9461.00,0.00,2.044,1051,0.004,0.154,0.013,1.861,0.013,1.3
44,9649.00,9649.00,0.00,1.982,1072,0.003,0.151,0.013,1.802,0.013,1.3
45,9147.00,9147.00,0.00,2.123,1016,0.004,0.166,0.013,1.928,0.013,1.5
46,9326.00,9326.00,0.00,2.047,1036,0.003,0.180,0.013,1.837,0.013,1.4
47,9492.00,9492.00,0.00,2.008,1055,0.004,0.161,0.014,1.816,0.014,1.3
48,9124.00,9124.00,0.00,2.160,1014,0.003,0.158,0.012,1.973,0.013,1.3
49,9458.00,9458.00,0.00,2.028,1051,0.004,0.171,0.012,1.827,0.013,1.3
50,9750.00,9750.00,0.00,1.986,1083,0.004,0.156,0.012,1.801,0.013,1.3
51,8984.00,8984.00,0.00,2.140,998,0.004,0.136,0.014,1.972,0.013,1.3
52,9209.00,9209.00,0.00,2.107,1023,0.003,0.211,0.013,1.867,0.013,1.5
53,9264.00,9264.00,0.00,2.085,1029,0.004,0.166,0.012,1.889,0.013,1.4
54,8986.00,8984.00,2.00,2.150,998,0.004,0.151,0.012,1.969,0.014,1.3
55,9222.00,9218.00,4.00,2.114,1024,0.004,0.181,0.012,1.904,0.013,1.3
56,9199.00,9194.00,5.00,2.142,1022,0.003,0.167,0.013,1.945,0.014,1.4
57,9264.00,9259.00,5.00,2.074,1029,0.004,0.183,0.014,1.861,0.013,1.4
58,9384.00,9379.00,5.00,2.086,1042,0.003,0.165,0.013,1.891,0.013,1.4
59,9059.00,9049.00,10.00,2.123,1005,0.003,0.181,0.012,1.913,0.013,1.5
60,9589.00,9579.00,10.00,2.009,1064,0.004,0.159,0.014,1.818,0.014,1.3
61,9222.00,9217.00,5.00,2.134,1024,0.003,0.163,0.013,1.941,0.013,1.4
62,9251.00,9243.00,8.00,2.085,1027,0.004,0.172,0.013,1.883,0.014,1.5
63,9581.00,9569.00,12.00,2.040,1063,0.004,0.148,0.013,1.863,0.013,1.3
64,9103.00,9102.00,1.00,2.153,1011,0.003,0.161,0.013,1.962,0.013,1.5
65,9339.00,9334.00,5.00,2.028,1037,0.004,0.162,0.013,1.836,0.013,1.4
66,9058.00,9058.00,0.00,2.155,1006,0.004,0.156,0.013,1.969,0.013,1.4
67,9315.00,9315.00,0.00,2.082,1035,0.004,0.170,0.013,1.881,0.013,1.3
68,9545.00,9545.00,0.00,1.982,1060,0.004,0.146,0.013,1.806,0.014,1.3
69,9684.00,9684.00,0.00,1.979,1076,0.004,0.169,0.013,1.780,0.014,1.4
70,9006.00,9006.00,0.00,2.149,1000,0.004,0.167,0.013,1.951,0.014,1.5
71,9449.00,9449.00,0.00,2.050,1050,0.003,0.154,0.012,1.867,0.013,1.4
72,9186.00,9186.00,0.00,2.116,1021,0.004,0.196,0.014,1.889,0.013,1.7
73,9190.00,9190.00,0.00,2.122,1021,0.003,0.177,0.013,1.916,0.013,1.5
74,6597.00,6597.00,0.00,1.988,733,0.004,0.160,0.012,1.798,0.014,1.4
