Second,Ops/sec,Hits/sec,Misses/sec,Latency,KB/sec,Request_Creation_Time,Request_Buffer_Time,MW_Writes_To_Memcached_Time,Memcached_Process_Time,MW_Writes_To_Memtier_Time,Queue_Size
4,1460.00,1460.00,0.00,8.950,1534,0.023,1.246,0.055,7.541,0.086,5.7
5,5467.00,5467.00,0.00,14.441,5744,0.005,3.467,0.014,10.940,0.015,8.2
6,5821.00,5821.00,0.00,15.711,6116,0.004,5.100,0.011,10.583,0.013,13.1
7,5775.00,5775.00,0.00,15.759,6067,0.006,5.183,0.012,10.544,0.014,12.9
8,5702.00,5702.00,0.00,16.085,5990,0.004,5.253,0.011,10.805,0.013,13.2
9,5689.00,5689.00,0.00,16.070,5977,0.005,5.312,0.011,10.729,0.013,13.8
10,5810.00,5810.00,0.00,15.728,6104,0.006,5.083,0.013,10.614,0.013,13.1
11,5739.00,5739.00,0.00,15.896,6029,0.004,5.176,0.011,10.692,0.013,12.9
12,5691.00,5691.00,0.00,16.108,5979,0.004,5.337,0.015,10.736,0.015,13.4
13,5745.00,5745.00,0.00,15.975,6036,0.004,5.236,0.012,10.711,0.012,13.8
14,5771.00,5771.00,0.00,15.849,6063,0.004,5.177,0.012,10.643,0.013,13.7
15,5769.00,5769.00,0.00,15.886,6060,0.004,5.274,0.013,10.581,0.013,13.8
16,5714.00,5714.00,0.00,15.938,6003,0.005,5.151,0.011,10.758,0.012,13.0
17,5742.00,5742.00,0.00,15.982,6033,0.004,5.249,0.012,10.704,0.014,13.3
18,5667.00,5667.00,0.00,16.106,5954,0.004,5.157,0.011,10.920,0.014,13.1
19,5705.00,5705.00,0.00,16.041,5993,0.004,5.176,0.012,10.836,0.014,13.9
20,5596.00,5596.00,0.00,16.358,5879,0.005,5.302,0.012,11.026,0.014,13.5
21,5611.00,5611.00,0.00,16.348,5895,0.004,5.374,0.012,10.946,0.012,13.1
22,5776.00,5776.00,0.00,15.854,6068,0.004,5.211,0.012,10.614,0.012,13.0
23,5684.00,5684.00,0.00,16.095,5971,0.003,5.260,0.011,10.808,0.013,13.1
24,5699.00,5699.00,0.00,16.086,5987,0.005,5.267,0.011,10.791,0.012,13.9
25,5600.00,5600.00,0.00,16.415,5883,0.004,5.379,0.012,11.008,0.013,13.6
26,5764.00,5764.00,0.00,15.833,6055,0.003,5.118,0.013,10.685,0.014,13.1
27,5746.00,5746.00,0.00,15.942,6036,0.004,5.211,0.011,10.703,0.013,13.7
28,5834.00,5834.00,0.00,15.754,6129,0.004,5.232,0.012,10.495,0.012,13.8
29,5656.00,5656.00,0.00,16.264,5942,0.004,5.366,0.011,10.871,0.013,13.7
30,5708.00,5708.00,0.00,16.060,5997,0.004,5.291,0.011,10.743,0.012,13.8
31,5637.00,5637.00,0.00,16.260,5922,0.004,5.374,0.013,10.856,0.013,12.9
32,5660.00,5660.00,0.00,16.176,5946,0.004,5.273,0.013,10.873,0.013,12.9
33,5757.00,5757.00,0.00,15.941,6048,0.004,5.256,0.011,10.657,0.013,13.3
34,5706.00,5706.00,0.00,16.076,5995,0.004,5.303,0.013,10.744,0.012,13.7
35,5705.00,5705.00,0.00,15.953,5994,0.004,5.161,0.011,10.764,0.013,12.9
36,5764.00,5764.00,0.00,15.895,6056,0.004,5.200,0.011,10.667,0.013,13.4
37,5621.00,5621.00,0.00,16.338,5905,0.004,5.389,0.011,10.922,0.013,13.4
38,5635.00,5635.00,0.00,16.291,5920,0.003,5.327,0.011,10.937,0.012,13.5
39,5668.00,5668.00,0.00,16.107,5955,0.005,5.309,0.011,10.770,0.012,13.1
40,5682.00,5682.00,0.00,16.135,5969,0.003,5.282,0.011,10.825,0.013,13.5
41,5819.00,5819.00,0.00,15.728,6113,0.004,5.184,0.012,10.515,0.013,13.5
42,5730.00,5730.00,0.00,15.925,6020,0.004,5.208,0.011,10.689,0.013,13.4
43,5767.00,5767.00,0.00,15.939,6059,0.004,5.255,0.011,10.657,0.012,13.6
44,5644.00,5644.00,0.00,16.202,5929,0.004,5.287,0.011,10.887,0.013,13.3
45,5598.00,5582.00,16.00,16.278,5864,0.005,5.256,0.014,10.988,0.015,13.4
46,5691.00,5674.00,17.00,16.167,5961,0.004,5.321,0.012,10.815,0.014,13.2
47,5703.00,5670.00,33.00,16.003,5957,0.004,5.234,0.011,10.742,0.013,14.2
48,5687.00,5669.00,18.00,16.057,5955,0.003,5.260,0.011,10.768,0.015,13.5
49,5738.00,5728.00,10.00,16.045,6017,0.004,5.304,0.011,10.714,0.013,13.2
50,5718.00,5717.00,1.00,16.034,6006,0.003,5.234,0.012,10.772,0.013,13.7
51,5631.00,5630.00,1.00,16.237,5914,0.004,5.316,0.011,10.893,0.013,12.6
52,5702.00,5702.00,0.00,16.121,5990,0.005,5.304,0.012,10.787,0.013,13.3
53,5598.00,5598.00,0.00,16.330,5881,0.004,5.398,0.012,10.904,0.013,12.9
54,5712.00,5712.00,0.00,16.106,6000,0.004,5.314,0.011,10.764,0.013,13.3
55,5725.00,5725.00,0.00,15.909,6014,0.004,5.318,0.012,10.561,0.013,13.5
56,5580.00,5580.00,0.00,16.377,5862,0.004,5.466,0.011,10.881,0.014,13.5
57,5807.00,5807.00,0.00,15.755,6100,0.004,5.182,0.015,10.539,0.016,14.1
58,5775.00,5775.00,0.00,15.935,6067,0.003,5.258,0.013,10.646,0.015,13.9
59,5544.00,5544.00,0.00,16.562,5824,0.003,5.445,0.012,11.090,0.013,13.3
60,5732.00,5732.00,0.00,15.982,6022,0.003,5.253,0.012,10.702,0.013,13.1
61,5695.00,5695.00,0.00,16.067,5983,0.004,5.252,0.012,10.787,0.013,13.1
62,5606.00,5606.00,0.00,16.349,5889,0.005,5.350,0.011,10.971,0.013,13.5
63,5600.00,5600.00,0.00,16.417,5883,0.004,5.395,0.011,10.994,0.013,13.7
64,5778.00,5778.00,0.00,15.917,6070,0.004,5.258,0.011,10.632,0.012,13.8
65,5616.00,5616.00,0.00,16.338,5900,0.004,5.353,0.011,10.957,0.013,12.9
66,5637.00,5637.00,0.00,16.276,5922,0.003,5.328,0.011,10.919,0.015,13.4
67,5612.00,5612.00,0.00,16.354,5896,0.003,5.389,0.011,10.938,0.012,13.7
68,5670.00,5670.00,0.00,16.169,5957,0.004,5.296,0.011,10.845,0.013,13.2
69,5596.00,5596.00,0.00,16.307,5879,0.003,5.366,0.011,10.915,0.012,13.6
70,5707.00,5707.00,0.00,16.084,5996,0.004,5.286,0.011,10.769,0.014,13.7
71,5763.00,5763.00,0.00,15.951,6055,0.004,5.237,0.012,10.685,0.013,13.7
72,5633.00,5633.00,0.00,16.273,5918,0.004,5.310,0.011,10.935,0.013,13.5
73,5767.00,5767.00,0.00,15.929,6059,0.004,5.228,0.011,10.674,0.013,13.2
74,6116.00,6116.00,0.00,11.288,6425,0.004,3.570,0.012,7.688,0.014,9.3
75,5334.00,5334.00,0.00,1.267,5603,0.004,0.137,0.014,1.100,0.013,0.7
