Second,Ops/sec,Hits/sec,Misses/sec,Latency,KB/sec,Request_Creation_Time,Request_Buffer_Time,MW_Writes_To_Memcached_Time,Memcached_Process_Time,MW_Writes_To_Memtier_Time,Queue_Size
4,1484.00,1484.00,0.00,2.427,445,0.018,1.345,0.020,1.008,0.037,8.4
5,7872.00,7872.00,0.00,2.242,2359,0.009,1.260,0.010,0.949,0.014,8.1
6,8234.00,8234.00,0.00,2.455,2467,0.005,1.483,0.007,0.946,0.014,9.5
7,8259.00,8259.00,0.00,2.392,2474,0.005,1.430,0.008,0.936,0.014,9.3
8,8065.00,8065.00,0.00,2.510,2416,0.005,1.517,0.007,0.966,0.014,9.6
9,7790.00,7790.00,0.00,2.620,2334,0.004,1.596,0.007,0.998,0.014,9.4
10,8070.00,8070.00,0.00,2.503,2418,0.004,1.517,0.008,0.962,0.013,9.4
11,8014.00,8013.00,1.00,2.524,2401,0.004,1.531,0.007,0.968,0.014,9.5
12,7680.00,7657.00,23.00,2.642,2294,0.004,1.602,0.008,1.014,0.014,9.6
13,7790.00,7790.00,0.00,2.621,2333,0.004,1.592,0.007,1.003,0.014,9.8
14,8276.00,8276.00,0.00,2.416,2479,0.003,1.449,0.007,0.944,0.014,9.3
15,7690.00,7690.00,0.00,2.659,2304,0.004,1.619,0.006,1.017,0.014,9.7
16,7728.00,7728.00,0.00,2.623,2316,0.003,1.594,0.006,1.004,0.015,9.6
17,8075.00,8075.00,0.00,2.495,2419,0.004,1.507,0.007,0.964,0.014,9.2
18,8313.00,8313.00,0.00,2.437,2490,0.004,1.471,0.006,0.942,0.013,9.4
19,7808.00,7808.00,0.00,2.606,2339,0.003,1.583,0.007,0.999,0.014,9.8
20,7921.00,7921.00,0.00,2.520,2373,0.004,1.520,0.007,0.976,0.014,9.5
21,7907.00,7907.00,0.00,2.570,2369,0.003,1.562,0.007,0.984,0.014,9.5
22,8243.00,8243.00,0.00,2.448,2469,0.004,1.471,0.006,0.953,0.014,9.2
23,8260.00,8260.00,0.00,2.450,2474,0.004,1.481,0.007,0.945,0.014,9.3
24,7893.00,7893.00,0.00,2.586,2365,0.004,1.573,0.007,0.990,0.013,9.3
25,8127.00,8125.00,2.00,2.480,2435,0.004,1.497,0.007,0.960,0.014,9.4
26,8230.00,8218.00,12.00,2.447,2462,0.004,1.477,0.006,0.947,0.013,9.5
27,8005.00,7996.00,9.00,2.538,2395,0.004,1.540,0.006,0.975,0.014,9.2
28,8083.00,8082.00,1.00,2.498,2421,0.003,1.508,0.006,0.967,0.014,9.5
29,8177.00,8177.00,0.00,2.437,2450,0.004,1.461,0.007,0.952,0.014,9.0
30,8236.00,8236.00,0.00,2.461,2468,0.004,1.489,0.007,0.949,0.013,9.3
31,8088.00,8088.00,0.00,2.482,2423,0.004,1.497,0.008,0.959,0.014,9.4
32,7994.00,7994.00,0.00,2.492,2395,0.004,1.493,0.007,0.975,0.014,9.3
33,8192.00,8192.00,0.00,2.455,2454,0.004,1.490,0.006,0.942,0.013,9.6
34,7891.00,7891.00,0.00,2.552,2364,0.003,1.543,0.006,0.985,0.015,9.3
35,7930.00,7930.00,0.00,2.556,2376,0.003,1.542,0.006,0.989,0.014,9.2
36,8020.00,8020.00,0.00,2.514,2403,0.003,1.517,0.007,0.973,0.014,9.6
37,8017.00,8017.00,0.00,2.556,2402,0.003,1.557,0.006,0.976,0.014,9.5
38,7952.00,7952.00,0.00,2.547,2382,0.004,1.546,0.006,0.977,0.014,9.6
39,7978.00,7978.00,0.00,2.564,2390,0.003,1.563,0.006,0.978,0.014,9.5
40,7811.00,7811.00,0.00,2.558,2340,0.003,1.546,0.007,0.989,0.013,9.4
41,8076.00,8076.00,0.00,2.475,2420,0.003,1.487,0.007,0.964,0.014,9.1
42,7800.00,7800.00,0.00,2.559,2337,0.004,1.537,0.006,0.998,0.014,9.0
43,7835.00,7835.00,0.00,2.603,2347,0.004,1.582,0.006,0.997,0.013,9.5
44,7951.00,7951.00,0.00,2.526,2382,0.003,1.518,0.006,0.983,0.014,9.2
45,7743.00,7743.00,0.00,2.561,2320,0.003,1.539,0.007,0.999,0.013,9.4
46,7753.00,7753.00,0.00,2.613,2323,0.003,1.586,0.006,1.004,0.014,9.3
47,8153.00,8153.00,0.00,2.456,2443,0.003,1.478,0.006,0.954,0.014,9.1
48,8323.00,8323.00,0.00,2.426,2494,0.003,1.464,0.006,0.939,0.014,9.3
49,7829.00,7829.00,0.00,2.604,2346,0.003,1.575,0.006,1.006,0.013,9.4
50,8158.00,8158.00,0.00,2.505,2444,0.004,1.526,0.006,0.956,0.014,9.4
51,7422.00,7422.00,0.00,2.716,2223,0.003,1.649,0.007,1.042,0.015,9.6
52,7496.00,7496.00,0.00,2.644,2246,0.004,1.590,0.006,1.030,0.014,9.3
53,8422.00,8422.00,0.00,2.416,2523,0.003,1.460,0.008,0.929,0.016,9.5
54,8014.00,8014.00,0.00,2.550,2401,0.003,1.552,0.006,0.974,0.014,9.6
55,7805.00,7805.00,0.00,2.603,2338,0.003,1.583,0.006,0.996,0.013,9.2
56,8007.00,8007.00,0.00,2.525,2399,0.003,1.528,0.006,0.973,0.014,9.3
57,8177.00,8177.00,0.00,2.492,2450,0.003,1.511,0.006,0.957,0.014,9.5
58,7814.00,7814.00,0.00,2.641,2341,0.004,1.614,0.006,1.004,0.014,9.5
59,8078.00,8078.00,0.00,2.517,2420,0.003,1.525,0.006,0.969,0.014,9.5
60,8295.00,8295.00,0.00,2.432,2485,0.003,1.467,0.006,0.942,0.014,9.5
61,7745.00,7745.00,0.00,2.604,2320,0.003,1.576,0.006,1.004,0.014,9.2
62,7967.00,7967.00,0.00,2.505,2387,0.004,1.511,0.006,0.971,0.014,9.3
63,8126.00,8123.00,3.00,2.482,2434,0.004,1.496,0.006,0.962,0.014,9.3
64,7723.00,7718.00,5.00,2.661,2313,0.004,1.622,0.006,1.015,0.013,9.4
65,7884.00,7879.00,5.00,2.574,2361,0.003,1.561,0.007,0.990,0.013,9.5
66,7836.00,7830.00,6.00,2.584,2346,0.004,1.566,0.007,0.993,0.014,9.4
67,7781.00,7775.00,6.00,2.615,2329,0.003,1.586,0.007,1.005,0.014,9.5
68,7998.00,7995.00,3.00,2.511,2395,0.003,1.515,0.006,0.972,0.014,9.2
69,7760.00,7754.00,6.00,2.597,2323,0.004,1.565,0.007,1.007,0.014,9.2
70,8070.00,8060.00,10.00,2.488,2415,0.004,1.498,0.007,0.966,0.014,9.2
71,8063.00,8054.00,9.00,2.534,2413,0.003,1.538,0.007,0.972,0.014,9.7
72,8095.00,8085.00,10.00,2.486,2422,0.003,1.499,0.006,0.963,0.013,9.1
73,8088.00,8082.00,6.00,2.521,2421,0.003,1.529,0.006,0.967,0.015,9.6
74,5988.00,5986.00,2.00,2.539,1793,0.003,1.524,0.006,0.991,0.014,9.0
