Second,Ops/sec,Hits/sec,Misses/sec,Latency,KB/sec,Request_Creation_Time,Request_Buffer_Time,MW_Writes_To_Memcached_Time,Memcached_Process_Time,MW_Writes_To_Memtier_Time,Queue_Size
4,1496.00,1496.00,0.00,1.093,822,0.014,0.257,0.042,0.724,0.057,0.8
5,6096.00,6096.00,0.00,1.284,3350,0.007,0.290,0.015,0.957,0.014,0.8
6,6472.00,6472.00,0.00,1.349,3557,0.006,0.364,0.012,0.955,0.013,0.9
7,6152.00,6152.00,0.00,1.477,3381,0.006,0.403,0.012,1.044,0.013,0.9
8,6569.00,6569.00,0.00,1.317,3610,0.006,0.357,0.012,0.928,0.013,0.9
9,6579.00,6567.00,12.00,1.330,3609,0.006,0.344,0.012,0.953,0.014,0.8
10,6412.00,6412.00,0.00,1.384,3524,0.005,0.383,0.012,0.972,0.013,0.9
11,6853.00,6853.00,0.00,1.300,3766,0.005,0.359,0.012,0.911,0.014,0.9
12,6458.00,6458.00,0.00,1.388,3549,0.004,0.375,0.012,0.984,0.013,0.9
13,6496.00,6496.00,0.00,1.379,3570,0.006,0.374,0.012,0.975,0.013,0.9
14,6098.00,6098.00,0.00,1.420,3351,0.005,0.387,0.012,1.004,0.013,0.9
15,6458.00,6458.00,0.00,1.325,3549,0.005,0.330,0.012,0.965,0.013,0.8
16,6690.00,6690.00,0.00,1.334,3677,0.004,0.358,0.011,0.946,0.014,0.9
17,6913.00,6911.00,2.00,1.290,3798,0.004,0.346,0.011,0.916,0.013,0.9
18,6287.00,6278.00,9.00,1.412,3450,0.004,0.375,0.012,1.008,0.013,0.9
19,6485.00,6484.00,1.00,1.369,3563,0.004,0.368,0.012,0.973,0.013,0.9
20,6701.00,6701.00,0.00,1.329,3683,0.004,0.360,0.011,0.942,0.013,0.9
21,6928.00,6928.00,0.00,1.284,3808,0.004,0.346,0.012,0.909,0.013,0.9
22,6559.00,6559.00,0.00,1.377,3605,0.004,0.374,0.011,0.975,0.013,0.9
23,6792.00,6792.00,0.00,1.327,3733,0.004,0.365,0.011,0.934,0.013,0.9
24,6153.00,6153.00,0.00,1.474,3382,0.004,0.404,0.012,1.041,0.013,0.9
25,6551.00,6551.00,0.00,1.404,3600,0.004,0.384,0.011,0.993,0.013,0.9
26,6583.00,6583.00,0.00,1.332,3618,0.004,0.359,0.011,0.945,0.013,0.9
27,6680.00,6680.00,0.00,1.362,3671,0.004,0.367,0.012,0.967,0.013,0.9
28,6378.00,6378.00,0.00,1.405,3505,0.005,0.391,0.012,0.985,0.013,0.9
29,6505.00,6505.00,0.00,1.350,3575,0.004,0.361,0.012,0.959,0.014,0.9
30,6310.00,6310.00,0.00,1.397,3468,0.004,0.402,0.011,0.967,0.013,1.0
31,6356.00,6356.00,0.00,1.391,3493,0.005,0.388,0.012,0.973,0.013,1.0
32,6602.00,6602.00,0.00,1.358,3628,0.004,0.369,0.011,0.960,0.013,0.9
33,6470.00,6470.00,0.00,1.402,3556,0.004,0.388,0.011,0.986,0.013,0.9
34,6500.00,6500.00,0.00,1.366,3572,0.004,0.384,0.011,0.953,0.013,1.0
35,6377.00,6377.00,0.00,1.442,3505,0.004,0.400,0.012,1.014,0.013,0.9
36,6475.00,6475.00,0.00,1.381,3559,0.004,0.377,0.013,0.974,0.013,0.9
37,6879.00,6879.00,0.00,1.293,3781,0.004,0.348,0.011,0.916,0.014,1.0
38,6240.00,6240.00,0.00,1.452,3429,0.004,0.410,0.011,1.013,0.014,0.9
39,6733.00,6733.00,0.00,1.338,3700,0.004,0.358,0.011,0.952,0.013,0.9
40,6592.00,6589.00,3.00,1.361,3621,0.004,0.370,0.011,0.963,0.013,0.9
41,6269.00,6267.00,2.00,1.431,3444,0.004,0.391,0.011,1.013,0.013,0.9
42,6696.00,6692.00,4.00,1.329,3678,0.004,0.362,0.011,0.939,0.013,0.9
43,6286.00,6279.00,7.00,1.422,3451,0.004,0.391,0.012,1.002,0.013,1.0
44,6281.00,6277.00,4.00,1.444,3450,0.005,0.397,0.012,1.018,0.013,0.9
45,6685.00,6680.00,5.00,1.339,3671,0.004,0.371,0.011,0.941,0.013,0.9
46,6820.00,6815.00,5.00,1.322,3745,0.004,0.353,0.011,0.942,0.013,0.9
47,6676.00,6671.00,5.00,1.334,3666,0.004,0.354,0.012,0.952,0.013,0.9
48,6258.00,6258.00,0.00,1.453,3439,0.004,0.401,0.011,1.024,0.013,1.0
49,6603.00,6602.00,1.00,1.334,3628,0.004,0.358,0.011,0.947,0.013,0.9
50,6487.00,6487.00,0.00,1.401,3565,0.004,0.384,0.011,0.988,0.013,0.9
51,6661.00,6661.00,0.00,1.344,3661,0.004,0.362,0.011,0.954,0.013,0.9
52,6514.00,6514.00,0.00,1.373,3580,0.004,0.371,0.011,0.974,0.013,0.9
53,6341.00,6341.00,0.00,1.439,3485,0.004,0.399,0.011,1.012,0.013,1.0
54,6228.00,6228.00,0.00,1.450,3423,0.004,0.403,0.011,1.019,0.013,0.9
55,6445.00,6445.00,0.00,1.401,3542,0.004,0.387,0.011,0.985,0.013,0.9
56,6300.00,6300.00,0.00,1.431,3462,0.004,0.391,0.011,1.012,0.013,0.9
57,6697.00,6697.00,0.00,1.322,3681,0.004,0.358,0.011,0.936,0.013,0.9
58,6644.00,6644.00,0.00,1.337,3651,0.004,0.368,0.011,0.941,0.013,1.0
59,6528.00,6528.00,0.00,1.365,3588,0.004,0.364,0.011,0.973,0.013,0.9
60,6596.00,6596.00,0.00,1.374,3625,0.004,0.373,0.011,0.973,0.013,0.9
61,6564.00,6564.00,0.00,1.367,3607,0.004,0.372,0.011,0.968,0.013,0.9
62,6382.00,6382.00,0.00,1.409,3508,0.004,0.388,0.012,0.993,0.013,1.0
63,6292.00,6292.00,0.00,1.440,3458,0.005,0.403,0.012,1.005,0.015,0.9
64,6527.00,6527.00,0.00,1.330,3587,0.004,0.358,0.012,0.943,0.013,0.9
65,6307.00,6307.00,0.00,1.444,3466,0.004,0.402,0.011,1.015,0.013,0.9
66,6674.00,6674.00,0.00,1.332,3668,0.004,0.365,0.012,0.937,0.015,0.9
67,6731.00,6731.00,0.00,1.299,3699,0.005,0.348,0.012,0.920,0.014,0.9
68,6210.00,6210.00,0.00,1.447,3413,0.005,0.399,0.012,1.018,0.014,0.9
69,6598.00,6598.00,0.00,1.326,3626,0.004,0.351,0.011,0.947,0.013,0.9
70,6833.00,6833.00,0.00,1.302,3755,0.004,0.351,0.011,0.922,0.014,0.9
71,6696.00,6696.00,0.00,1.347,3680,0.004,0.363,0.011,0.955,0.013,0.9
72,6488.00,6488.00,0.00,1.399,3566,0.004,0.388,0.012,0.981,0.014,1.0
73,6562.00,6562.00,0.00,1.383,3606,0.004,0.372,0.011,0.983,0.013,0.9
74,4577.00,4577.00,0.00,1.440,2515,0.004,0.388,0.011,1.022,0.014,0.9
