Second,Ops/sec,Hits/sec,Misses/sec,Latency,KB/sec,Request_Creation_Time,Request_Buffer_Time,MW_Writes_To_Memcached_Time,Memcached_Process_Time,MW_Writes_To_Memtier_Time,Queue_Size
4,1798.00,1798.00,0.00,1.751,200,0.031,0.341,0.057,1.272,0.050,1.8
5,7824.00,7824.00,0.00,2.356,869,0.007,0.220,0.018,2.096,0.015,1.3
6,9260.00,9260.00,0.00,2.042,1029,0.006,0.192,0.015,1.815,0.014,1.4
7,9565.00,9565.00,0.00,2.018,1062,0.005,0.151,0.013,1.834,0.014,1.3
8,9228.00,9228.00,0.00,2.050,1025,0.005,0.179,0.013,1.838,0.014,1.3
9,9177.00,9177.00,0.00,2.126,1020,0.005,0.169,0.014,1.925,0.013,1.3
10,9579.00,9579.00,0.00,2.021,1065,0.004,0.208,0.014,1.781,0.013,1.5
11,9219.00,9195.00,24.00,2.057,1021,0.005,0.177,0.015,1.846,0.014,1.3
12,8544.00,8544.00,0.00,2.195,949,0.005,0.149,0.016,2.011,0.014,1.2
13,9758.00,9758.00,0.00,1.980,1084,0.004,0.168,0.014,1.779,0.015,1.4
14,9452.00,9452.00,0.00,2.041,1050,0.004,0.170,0.013,1.840,0.014,1.4
15,9218.00,9218.00,0.00,2.128,1024,0.004,0.182,0.014,1.913,0.015,1.4
16,9109.00,9109.00,0.00,2.143,1012,0.004,0.180,0.013,1.933,0.013,1.3
17,9349.00,9349.00,0.00,2.091,1039,0.004,0.163,0.015,1.896,0.013,1.4
18,9189.00,9189.00,0.00,2.109,1021,0.004,0.165,0.014,1.913,0.014,1.4
19,9350.00,9350.00,0.00,2.039,1039,0.005,0.185,0.015,1.820,0.015,1.5
20,9181.00,9181.00,0.00,2.148,1020,0.005,0.161,0.014,1.955,0.014,1.5
21,9064.00,9064.00,0.00,2.131,1007,0.004,0.180,0.013,1.921,0.013,1.4
22,9528.00,9528.00,0.00,2.031,1059,0.004,0.176,0.013,1.823,0.015,1.4
23,9812.00,9797.00,15.00,1.958,1089,0.005,0.176,0.014,1.749,0.014,1.3
24,9091.00,9082.00,9.00,2.122,1009,0.005,0.189,0.013,1.901,0.014,1.5
25,9396.00,9396.00,0.00,2.033,1044,0.005,0.161,0.014,1.839,0.014,1.4
26,9394.00,9394.00,0.00,2.079,1044,0.004,0.160,0.014,1.886,0.014,1.3
27,9225.00,9225.00,0.00,2.094,1025,0.004,0.162,0.013,1.901,0.014,1.3
28,9449.00,9449.00,0.00,2.019,1050,0.005,0.190,0.013,1.798,0.014,1.6
29,9513.00,9513.00,0.00,2.039,1057,0.005,0.189,0.014,1.818,0.014,1.3
30,9012.00,9012.00,0.00,2.136,1001,0.004,0.202,0.014,1.903,0.014,1.4
31,9150.00,9150.00,0.00,2.125,1017,0.004,0.215,0.014,1.878,0.014,1.5
32,9559.00,9559.00,0.00,1.993,1062,0.004,0.194,0.014,1.768,0.013,1.5
33,9389.00,9389.00,0.00,2.098,1043,0.004,0.184,0.013,1.883,0.014,1.4
34,9804.00,9804.00,0.00,1.975,1090,0.004,0.159,0.013,1.785,0.013,1.5
35,9057.00,9057.00,0.00,2.099,1007,0.005,0.217,0.015,1.848,0.015,1.7
36,8861.00,8861.00,0.00,2.188,985,0.004,0.241,0.015,1.915,0.014,1.8
37,9469.00,9469.00,0.00,2.051,1052,0.004,0.163,0.014,1.856,0.014,1.3
38,9419.00,9419.00,0.00,2.016,1046,0.004,0.158,0.015,1.824,0.016,1.3
39,9443.00,9443.00,0.00,2.054,1049,0.005,0.166,0.014,1.855,0.014,1.3
40,9255.00,9255.00,0.00,2.103,1028,0.004,0.169,0.013,1.904,0.014,1.4
41,9499.00,9499.00,0.00,2.076,1056,0.004,0.182,0.013,1.863,0.014,1.5
42,9173.00,9173.00,0.00,2.128,1019,0.004,0.146,0.013,1.951,0.013,1.2
43,9741.00,9741.00,0.00,2.003,1082,0.004,0.179,0.013,1.794,0.013,1.5
44,9418.00,9418.00,0.00,2.042,1046,0.004,0.173,0.014,1.837,0.014,1.3
45,9215.00,9215.00,0.00,2.125,1024,0.004,0.166,0.015,1.924,0.016,1.4
46,8744.00,8744.00,0.00,2.259,971,0.004,0.149,0.013,2.078,0.015,1.3
47,9506.00,9506.00,0.00,2.020,1056,0.004,0.180,0.014,1.808,0.014,1.3
48,9237.00,9237.00,0.00,2.073,1026,0.004,0.209,0.013,1.833,0.014,1.5
49,9435.00,9435.00,0.00,2.013,1048,0.004,0.173,0.015,1.807,0.014,1.2
50,9309.00,9309.00,0.00,2.068,1034,0.005,0.166,0.013,1.870,0.014,1.4
51,8890.00,8890.00,0.00,2.133,988,0.004,0.222,0.014,1.877,0.015,1.6
52,9319.00,9319.00,0.00,2.094,1035,0.004,0.187,0.013,1.876,0.014,1.5
53,9501.00,9501.00,0.00,2.016,1056,0.004,0.179,0.013,1.804,0.015,1.5
54,9363.00,9360.00,3.00,2.079,1040,0.004,0.185,0.013,1.862,0.014,1.5
55,9283.00,9280.00,3.00,2.099,1031,0.004,0.189,0.013,1.880,0.013,1.4
56,9550.00,9546.00,4.00,2.009,1061,0.004,0.181,0.014,1.796,0.014,1.4
57,9651.00,9643.00,8.00,1.961,1072,0.004,0.165,0.014,1.760,0.018,1.4
58,9275.00,9271.00,4.00,2.094,1030,0.004,0.176,0.013,1.887,0.014,1.5
59,9564.00,9552.00,12.00,2.003,1061,0.004,0.166,0.013,1.805,0.015,1.3
60,9379.00,9370.00,9.00,2.117,1041,0.004,0.187,0.013,1.899,0.013,1.4
61,9264.00,9257.00,7.00,2.096,1029,0.004,0.185,0.014,1.879,0.014,1.4
62,9610.00,9604.00,6.00,1.985,1067,0.004,0.166,0.014,1.788,0.014,1.4
63,9377.00,9367.00,10.00,2.067,1041,0.004,0.168,0.014,1.868,0.014,1.4
64,9336.00,9336.00,0.00,2.068,1037,0.004,0.158,0.013,1.880,0.014,1.4
65,9356.00,9350.00,6.00,2.054,1039,0.004,0.183,0.013,1.840,0.014,1.3
66,9286.00,9286.00,0.00,2.033,1032,0.004,0.211,0.013,1.790,0.014,1.4
67,8987.00,8987.00,0.00,2.206,998,0.004,0.190,0.014,1.984,0.015,1.4
68,9519.00,9519.00,0.00,2.020,1058,0.004,0.201,0.014,1.788,0.014,1.6
69,9146.00,9146.00,0.00,2.071,1016,0.004,0.193,0.013,1.846,0.014,1.3
70,9206.00,9206.00,0.00,2.106,1023,0.005,0.166,0.014,1.908,0.014,1.3
71,9194.00,9194.00,0.00,2.148,1021,0.004,0.186,0.013,1.931,0.014,1.4
72,9386.00,9386.00,0.00,2.060,1043,0.004,0.173,0.016,1.852,0.015,1.3
73,9364.00,9364.00,0.00,2.089,1040,0.004,0.168,0.013,1.890,0.014,1.3
74,6976.00,6976.00,0.00,2.061,775,0.004,0.185,0.012,1.845,0.014,1.4
