Second,Ops/sec,Hits/sec,Misses/sec,Latency,KB/sec,Request_Creation_Time,Request_Buffer_Time,MW_Writes_To_Memcached_Time,Memcached_Process_Time,MW_Writes_To_Memtier_Time,Queue_Size
4,1173.00,1173.00,0.00,1.343,645,0.015,0.337,0.028,0.894,0.068,0.9
5,5744.00,5744.00,0.00,1.366,3157,0.006,0.327,0.015,1.001,0.017,1.0
6,6737.00,6737.00,0.00,1.303,3702,0.005,0.350,0.012,0.922,0.014,0.9
7,6562.00,6562.00,0.00,1.369,3606,0.005,0.379,0.012,0.960,0.013,0.9
8,6291.00,6291.00,0.00,1.427,3458,0.005,0.389,0.013,1.005,0.015,0.9
9,6462.00,6451.00,11.00,1.321,3545,0.006,0.345,0.013,0.944,0.014,0.9
10,6569.00,6568.00,1.00,1.379,3609,0.006,0.371,0.012,0.977,0.013,0.9
11,6290.00,6290.00,0.00,1.447,3457,0.005,0.413,0.012,1.003,0.014,0.9
12,6618.00,6618.00,0.00,1.364,3637,0.005,0.359,0.012,0.975,0.013,0.9
13,6464.00,6464.00,0.00,1.412,3552,0.005,0.397,0.012,0.984,0.014,1.0
14,6141.00,6141.00,0.00,1.436,3375,0.005,0.367,0.012,1.037,0.015,0.9
15,6679.00,6679.00,0.00,1.350,3671,0.005,0.368,0.011,0.953,0.013,0.9
16,6686.00,6686.00,0.00,1.350,3674,0.004,0.364,0.011,0.957,0.014,0.9
17,6353.00,6352.00,1.00,1.443,3491,0.004,0.393,0.011,1.022,0.013,1.0
18,6141.00,6132.00,9.00,1.470,3370,0.004,0.404,0.011,1.037,0.013,0.9
19,6533.00,6531.00,2.00,1.377,3589,0.005,0.373,0.011,0.975,0.013,0.9
20,6355.00,6355.00,0.00,1.456,3493,0.004,0.398,0.011,1.030,0.013,1.0
21,7022.00,7022.00,0.00,1.254,3859,0.005,0.331,0.011,0.894,0.013,0.9
22,6483.00,6483.00,0.00,1.400,3563,0.004,0.381,0.012,0.989,0.014,1.0
23,6295.00,6295.00,0.00,1.451,3460,0.004,0.396,0.012,1.026,0.013,0.9
24,6803.00,6803.00,0.00,1.304,3739,0.004,0.339,0.012,0.936,0.013,0.9
25,6459.00,6459.00,0.00,1.392,3550,0.004,0.383,0.011,0.980,0.014,0.9
26,6248.00,6248.00,0.00,1.435,3434,0.005,0.408,0.011,0.998,0.013,1.0
27,6725.00,6725.00,0.00,1.327,3696,0.004,0.355,0.011,0.943,0.013,0.9
28,6403.00,6403.00,0.00,1.408,3519,0.004,0.417,0.012,0.961,0.013,1.0
29,6435.00,6435.00,0.00,1.397,3537,0.005,0.369,0.011,0.998,0.013,0.9
30,6585.00,6585.00,0.00,1.355,3619,0.004,0.375,0.011,0.952,0.013,1.0
31,6618.00,6618.00,0.00,1.363,3637,0.004,0.365,0.011,0.970,0.013,0.9
32,6568.00,6568.00,0.00,1.368,3610,0.004,0.374,0.011,0.966,0.013,1.0
33,6195.00,6195.00,0.00,1.440,3405,0.004,0.390,0.011,1.020,0.014,0.9
34,6696.00,6696.00,0.00,1.311,3680,0.004,0.343,0.012,0.940,0.013,0.9
35,6464.00,6464.00,0.00,1.400,3553,0.004,0.393,0.011,0.980,0.013,1.0
36,6489.00,6489.00,0.00,1.374,3566,0.004,0.382,0.011,0.965,0.013,1.0
37,6386.00,6386.00,0.00,1.388,3510,0.005,0.381,0.011,0.978,0.013,0.9
38,6164.00,6164.00,0.00,1.492,3388,0.005,0.413,0.011,1.049,0.014,1.0
39,6631.00,6631.00,0.00,1.329,3644,0.004,0.350,0.011,0.950,0.013,0.9
40,6498.00,6496.00,2.00,1.369,3570,0.004,0.363,0.012,0.977,0.014,0.9
41,6455.00,6453.00,2.00,1.395,3547,0.004,0.380,0.011,0.985,0.014,0.9
42,6237.00,6232.00,5.00,1.430,3425,0.005,0.397,0.011,1.004,0.014,1.0
43,6331.00,6327.00,4.00,1.431,3477,0.004,0.389,0.011,1.013,0.013,0.9
44,6467.00,6463.00,4.00,1.412,3552,0.004,0.389,0.011,0.995,0.013,0.9
45,6596.00,6589.00,7.00,1.361,3621,0.004,0.370,0.012,0.962,0.013,1.0
46,6581.00,6575.00,6.00,1.371,3614,0.004,0.376,0.012,0.965,0.013,0.9
47,6576.00,6573.00,3.00,1.339,3612,0.004,0.360,0.011,0.950,0.014,1.0
48,6457.00,6456.00,1.00,1.390,3548,0.004,0.379,0.011,0.983,0.014,0.9
49,6523.00,6522.00,1.00,1.355,3584,0.004,0.368,0.012,0.957,0.013,0.9
50,6375.00,6374.00,1.00,1.396,3503,0.004,0.395,0.011,0.973,0.014,1.0
51,6648.00,6648.00,0.00,1.352,3654,0.004,0.371,0.011,0.952,0.014,0.9
52,6695.00,6695.00,0.00,1.359,3679,0.004,0.370,0.011,0.961,0.014,1.0
53,6485.00,6485.00,0.00,1.395,3564,0.004,0.376,0.011,0.991,0.014,0.9
54,6785.00,6785.00,0.00,1.322,3729,0.004,0.360,0.011,0.934,0.013,0.9
55,6888.00,6888.00,0.00,1.281,3786,0.004,0.326,0.011,0.926,0.013,0.9
56,6949.00,6949.00,0.00,1.284,3819,0.004,0.343,0.011,0.913,0.014,1.0
57,6782.00,6782.00,0.00,1.329,3727,0.004,0.351,0.011,0.948,0.014,0.9
58,6481.00,6481.00,0.00,1.387,3562,0.004,0.377,0.011,0.982,0.013,1.0
59,6588.00,6588.00,0.00,1.365,3621,0.004,0.369,0.011,0.968,0.013,1.0
60,6787.00,6787.00,0.00,1.316,3730,0.004,0.351,0.012,0.935,0.013,0.9
61,6973.00,6973.00,0.00,1.279,3832,0.004,0.334,0.011,0.918,0.013,0.9
62,6842.00,6842.00,0.00,1.318,3760,0.004,0.366,0.011,0.924,0.013,0.9
63,6588.00,6588.00,0.00,1.359,3621,0.004,0.357,0.011,0.972,0.015,0.9
64,6487.00,6487.00,0.00,1.379,3565,0.005,0.369,0.011,0.980,0.013,0.9
65,6383.00,6383.00,0.00,1.376,3508,0.004,0.405,0.011,0.943,0.014,1.0
66,6624.00,6624.00,0.00,1.358,3640,0.004,0.369,0.011,0.961,0.013,1.0
67,6673.00,6673.00,0.00,1.348,3667,0.004,0.369,0.012,0.950,0.013,0.9
68,6495.00,6495.00,0.00,1.384,3570,0.006,0.381,0.012,0.972,0.013,1.0
69,6437.00,6437.00,0.00,1.398,3538,0.005,0.392,0.011,0.977,0.013,1.0
70,6644.00,6644.00,0.00,1.379,3651,0.004,0.367,0.011,0.983,0.014,0.9
71,6650.00,6650.00,0.00,1.364,3655,0.004,0.374,0.011,0.963,0.013,0.9
72,6660.00,6660.00,0.00,1.379,3660,0.004,0.369,0.011,0.981,0.014,0.9
73,6441.00,6441.00,0.00,1.430,3540,0.004,0.392,0.011,1.009,0.013,0.9
74,5204.00,5204.00,0.00,1.330,2860,0.004,0.366,0.011,0.936,0.013,1.0
