Second,Ops/sec,Hits/sec,Misses/sec,Latency,KB/sec,Request_Creation_Time,Request_Buffer_Time,MW_Writes_To_Memcached_Time,Memcached_Process_Time,MW_Writes_To_Memtier_Time,Queue_Size
4,2047.00,2047.00,0.00,2.568,2151,0.015,0.420,0.056,2.019,0.058,1.7
5,5502.00,5502.00,0.00,3.606,5780,0.006,0.255,0.014,3.313,0.017,1.2
6,5351.00,5351.00,0.00,3.964,5622,0.004,0.169,0.014,3.763,0.013,1.1
7,5274.00,5274.00,0.00,4.041,5541,0.004,0.234,0.014,3.776,0.013,1.3
8,5378.00,5378.00,0.00,3.941,5650,0.004,0.151,0.014,3.759,0.013,1.1
9,5241.00,5241.00,0.00,4.058,5506,0.005,0.191,0.014,3.836,0.013,1.3
10,5232.00,5232.00,0.00,4.011,5497,0.007,0.179,0.014,3.799,0.013,1.2
11,5436.00,5436.00,0.00,3.882,5711,0.004,0.151,0.014,3.701,0.013,1.0
12,5247.00,5247.00,0.00,4.038,5512,0.004,0.189,0.014,3.817,0.013,1.2
13,5428.00,5428.00,0.00,3.916,5703,0.004,0.161,0.014,3.724,0.013,1.2
14,5313.00,5313.00,0.00,4.011,5582,0.004,0.242,0.014,3.737,0.014,1.3
15,5292.00,5281.00,11.00,3.972,5548,0.005,0.224,0.015,3.714,0.014,1.2
16,5303.00,5291.00,12.00,3.998,5558,0.004,0.146,0.014,3.821,0.013,1.2
17,5266.00,5265.00,1.00,4.023,5531,0.004,0.162,0.014,3.830,0.013,1.0
18,5343.00,5343.00,0.00,3.969,5613,0.004,0.150,0.014,3.787,0.013,1.0
19,5292.00,5292.00,0.00,4.021,5560,0.003,0.176,0.013,3.815,0.013,1.2
20,5220.00,5220.00,0.00,4.096,5484,0.003,0.169,0.014,3.896,0.013,1.2
21,5147.00,5147.00,0.00,4.106,5407,0.003,0.247,0.015,3.828,0.013,1.2
22,5080.00,5080.00,0.00,4.137,5337,0.003,0.312,0.014,3.794,0.014,1.5
23,5325.00,5325.00,0.00,3.983,5594,0.003,0.198,0.014,3.755,0.013,1.1
24,5287.00,5287.00,0.00,4.026,5554,0.004,0.192,0.013,3.805,0.013,1.3
25,5216.00,5216.00,0.00,4.051,5480,0.003,0.236,0.014,3.785,0.013,1.2
26,5271.00,5271.00,0.00,4.015,5537,0.003,0.165,0.013,3.821,0.013,1.2
27,5347.00,5347.00,0.00,3.940,5617,0.003,0.157,0.015,3.752,0.013,1.1
28,5381.00,5381.00,0.00,3.958,5653,0.003,0.198,0.013,3.731,0.013,1.2
29,5136.00,5136.00,0.00,4.148,5396,0.004,0.226,0.014,3.892,0.013,1.4
30,5237.00,5237.00,0.00,4.029,5502,0.004,0.264,0.013,3.735,0.014,1.3
31,5249.00,5249.00,0.00,4.057,5514,0.004,0.181,0.015,3.845,0.013,1.1
32,5382.00,5382.00,0.00,3.964,5654,0.004,0.148,0.013,3.786,0.013,1.2
33,5341.00,5341.00,0.00,3.965,5611,0.004,0.162,0.013,3.773,0.013,1.1
34,5207.00,5207.00,0.00,4.063,5470,0.003,0.173,0.014,3.858,0.013,1.2
35,5315.00,5314.00,1.00,4.026,5583,0.004,0.187,0.014,3.809,0.013,1.1
36,5157.00,5152.00,5.00,4.103,5413,0.003,0.230,0.014,3.843,0.013,1.5
37,5459.00,5453.00,6.00,3.881,5729,0.004,0.161,0.014,3.688,0.013,1.1
38,5375.00,5369.00,6.00,3.958,5641,0.004,0.173,0.013,3.755,0.013,1.1
39,5102.00,5097.00,5.00,4.139,5355,0.004,0.213,0.015,3.894,0.013,1.4
40,5298.00,5298.00,0.00,4.026,5566,0.004,0.175,0.013,3.821,0.013,1.1
41,5337.00,5336.00,1.00,4.000,5606,0.004,0.178,0.014,3.790,0.013,1.2
42,5257.00,5257.00,0.00,4.071,5523,0.004,0.164,0.014,3.876,0.013,1.1
43,5286.00,5286.00,0.00,4.009,5553,0.004,0.181,0.013,3.797,0.014,1.2
44,5281.00,5281.00,0.00,4.013,5548,0.004,0.165,0.013,3.818,0.013,1.2
45,5307.00,5307.00,0.00,4.045,5575,0.003,0.164,0.014,3.850,0.013,1.2
46,5349.00,5349.00,0.00,3.996,5619,0.004,0.160,0.013,3.806,0.013,1.3
47,5327.00,5327.00,0.00,3.984,5596,0.003,0.175,0.014,3.778,0.014,1.2
48,5340.00,5340.00,0.00,3.976,5610,0.004,0.182,0.014,3.763,0.013,1.2
49,5303.00,5303.00,0.00,4.033,5571,0.004,0.203,0.014,3.799,0.014,1.4
50,5330.00,5330.00,0.00,3.996,5600,0.004,0.218,0.014,3.747,0.013,1.1
51,5339.00,5339.00,0.00,3.997,5609,0.004,0.161,0.013,3.806,0.012,1.1
52,5261.00,5261.00,0.00,4.019,5527,0.003,0.205,0.014,3.783,0.014,1.0
53,5315.00,5315.00,0.00,4.001,5584,0.004,0.200,0.013,3.771,0.013,1.2
54,5253.00,5253.00,0.00,3.960,5519,0.003,0.219,0.013,3.712,0.013,1.3
55,5239.00,5239.00,0.00,4.037,5504,0.003,0.185,0.013,3.823,0.012,1.3
56,4954.00,4954.00,0.00,4.260,5205,0.003,0.471,0.013,3.759,0.013,1.7
57,5306.00,5306.00,0.00,3.972,5574,0.003,0.302,0.013,3.642,0.013,1.3
58,5218.00,5218.00,0.00,4.021,5482,0.003,0.225,0.013,3.767,0.013,1.4
59,5214.00,5214.00,0.00,4.090,5478,0.004,0.216,0.013,3.844,0.013,1.2
60,5291.00,5291.00,0.00,4.047,5559,0.004,0.170,0.013,3.847,0.013,1.0
61,5241.00,5241.00,0.00,4.034,5506,0.004,0.181,0.014,3.822,0.013,1.2
62,5088.00,5088.00,0.00,4.118,5345,0.004,0.294,0.013,3.794,0.013,1.2
63,5394.00,5394.00,0.00,3.931,5667,0.004,0.154,0.013,3.747,0.013,1.1
64,5395.00,5395.00,0.00,3.939,5668,0.003,0.179,0.013,3.731,0.012,1.2
65,5426.00,5426.00,0.00,3.926,5700,0.003,0.161,0.013,3.735,0.013,1.1
66,5428.00,5428.00,0.00,3.918,5703,0.004,0.146,0.013,3.742,0.013,1.2
67,5235.00,5235.00,0.00,4.077,5500,0.003,0.199,0.013,3.847,0.014,1.4
68,5271.00,5271.00,0.00,4.056,5538,0.004,0.160,0.013,3.866,0.013,1.1
69,5366.00,5366.00,0.00,3.957,5637,0.005,0.156,0.013,3.769,0.013,1.3
70,5403.00,5403.00,0.00,3.928,5676,0.004,0.186,0.014,3.712,0.013,1.2
71,5246.00,5246.00,0.00,4.037,5511,0.003,0.185,0.014,3.821,0.013,1.1
72,5307.00,5307.00,0.00,3.998,5575,0.003,0.176,0.013,3.792,0.013,1.1
73,5285.00,5285.00,0.00,4.055,5552,0.003,0.185,0.013,3.841,0.012,1.1
74,3351.00,3351.00,0.00,4.232,3520,0.003,0.301,0.014,3.900,0.013,1.5
