Second,Ops/sec,Hits/sec,Misses/sec,Latency,KB/sec,Request_Creation_Time,Request_Buffer_Time,MW_Writes_To_Memcached_Time,Memcached_Process_Time,MW_Writes_To_Memtier_Time,Queue_Size
4,1086.00,1086.00,0.00,5.612,1141,0.017,4.306,0.036,1.211,0.043,26.5
5,6083.00,6083.00,0.00,6.988,6391,0.006,5.669,0.010,1.284,0.019,30.5
6,5803.00,5803.00,0.00,7.704,6097,0.006,6.325,0.007,1.354,0.014,32.5
7,5617.00,5617.00,0.00,8.049,5901,0.005,6.621,0.007,1.402,0.014,32.9
8,5698.00,5698.00,0.00,7.957,5986,0.005,6.550,0.007,1.380,0.015,33.2
9,5655.00,5655.00,0.00,7.987,5941,0.004,6.571,0.007,1.390,0.015,33.1
10,5754.00,5754.00,0.00,7.875,6045,0.004,6.483,0.007,1.366,0.014,33.1
11,5688.00,5688.00,0.00,7.921,5976,0.004,6.519,0.007,1.378,0.014,33.2
12,5715.00,5715.00,0.00,7.885,6003,0.003,6.483,0.007,1.377,0.014,33.2
13,5704.00,5704.00,0.00,7.901,5992,0.004,6.498,0.007,1.379,0.014,32.8
14,5791.00,5791.00,0.00,7.827,6084,0.004,6.445,0.007,1.357,0.014,33.4
15,5735.00,5735.00,0.00,7.821,6025,0.003,6.431,0.007,1.366,0.014,32.8
16,5756.00,5756.00,0.00,7.840,6047,0.004,6.447,0.007,1.368,0.014,32.9
17,5626.00,5626.00,0.00,7.858,5910,0.004,6.434,0.007,1.400,0.014,31.6
18,5774.00,5774.00,0.00,7.832,6066,0.003,6.443,0.007,1.364,0.014,33.0
19,5748.00,5748.00,0.00,7.858,6039,0.003,6.463,0.006,1.371,0.014,32.8
20,5839.00,5839.00,0.00,7.736,6134,0.003,6.364,0.007,1.348,0.015,32.9
21,5780.00,5780.00,0.00,7.807,6072,0.003,6.420,0.007,1.363,0.014,32.8
22,5736.00,5736.00,0.00,7.881,6026,0.003,6.485,0.007,1.371,0.015,33.0
23,5735.00,5735.00,0.00,7.874,6025,0.003,6.475,0.006,1.376,0.014,32.7
24,5639.00,5639.00,0.00,8.006,5924,0.003,6.587,0.007,1.396,0.014,33.1
25,5506.00,5484.00,22.00,8.154,5761,0.004,6.696,0.008,1.430,0.016,33.1
26,5820.00,5794.00,26.00,7.734,6087,0.003,6.359,0.009,1.348,0.015,33.2
27,5818.00,5818.00,0.00,7.788,6112,0.003,6.413,0.008,1.349,0.015,33.6
28,5705.00,5705.00,0.00,7.937,5993,0.003,6.534,0.006,1.379,0.014,33.5
29,5650.00,5650.00,0.00,8.036,5935,0.003,6.616,0.007,1.395,0.015,33.5
30,5680.00,5680.00,0.00,7.935,5967,0.004,6.526,0.007,1.385,0.014,33.3
31,5697.00,5697.00,0.00,7.934,5985,0.003,6.533,0.007,1.377,0.014,33.4
32,5656.00,5656.00,0.00,8.015,5942,0.003,6.598,0.006,1.394,0.015,33.1
33,5679.00,5679.00,0.00,7.965,5966,0.003,6.556,0.006,1.385,0.015,33.5
34,5837.00,5837.00,0.00,7.746,6132,0.003,6.373,0.007,1.349,0.014,33.2
35,5781.00,5781.00,0.00,7.853,6074,0.003,6.468,0.006,1.361,0.014,33.3
36,5650.00,5650.00,0.00,7.950,5936,0.003,6.530,0.006,1.395,0.015,33.3
37,5645.00,5645.00,0.00,7.967,5931,0.003,6.549,0.006,1.394,0.014,32.9
38,5667.00,5667.00,0.00,7.992,5953,0.003,6.576,0.007,1.392,0.014,33.2
39,5671.00,5671.00,0.00,7.932,5958,0.004,6.520,0.006,1.388,0.014,32.7
40,5605.00,5605.00,0.00,8.077,5889,0.003,6.647,0.006,1.406,0.014,33.1
41,5660.00,5660.00,0.00,7.994,5946,0.003,6.579,0.006,1.389,0.016,33.5
42,5705.00,5705.00,0.00,7.910,5993,0.003,6.515,0.007,1.371,0.014,32.9
43,5635.00,5635.00,0.00,8.003,5920,0.003,6.580,0.007,1.398,0.014,32.9
44,5682.00,5682.00,0.00,7.965,5969,0.003,6.553,0.007,1.388,0.014,33.2
45,5670.00,5670.00,0.00,7.934,5957,0.003,6.527,0.006,1.383,0.014,32.9
46,5770.00,5770.00,0.00,7.754,6062,0.003,6.367,0.006,1.363,0.014,32.7
47,5653.00,5653.00,0.00,8.000,5939,0.003,6.580,0.006,1.396,0.014,33.0
48,5717.00,5717.00,0.00,7.879,6006,0.003,6.477,0.007,1.376,0.015,33.0
49,5726.00,5726.00,0.00,7.878,6015,0.003,6.480,0.007,1.374,0.015,33.0
50,5658.00,5658.00,0.00,8.013,5944,0.003,6.596,0.006,1.393,0.014,33.3
51,5749.00,5749.00,0.00,7.856,6040,0.003,6.464,0.006,1.369,0.014,32.8
52,5735.00,5735.00,0.00,7.877,6025,0.003,6.480,0.007,1.373,0.014,33.2
53,5751.00,5751.00,0.00,7.873,6042,0.003,6.479,0.007,1.370,0.014,33.2
54,5743.00,5743.00,0.00,7.905,6033,0.003,6.510,0.008,1.370,0.014,33.5
55,5604.00,5604.00,0.00,8.074,5887,0.003,6.644,0.006,1.406,0.015,33.2
56,5708.00,5708.00,0.00,7.951,5996,0.003,6.547,0.006,1.380,0.014,33.4
57,5828.00,5828.00,0.00,7.774,6122,0.003,6.398,0.006,1.350,0.016,33.2
58,5699.00,5699.00,0.00,7.917,5987,0.003,6.511,0.007,1.381,0.015,32.7
59,5743.00,5743.00,0.00,7.785,6033,0.003,6.390,0.006,1.371,0.015,32.5
60,5763.00,5763.00,0.00,7.798,6054,0.003,6.405,0.007,1.368,0.014,32.9
61,5768.00,5768.00,0.00,7.845,6060,0.003,6.458,0.006,1.363,0.015,33.5
62,5715.00,5715.00,0.00,7.924,6004,0.003,6.521,0.007,1.378,0.015,33.1
63,5694.00,5694.00,0.00,7.947,5982,0.003,6.539,0.007,1.383,0.015,33.0
64,5757.00,5756.00,1.00,7.815,6047,0.003,6.423,0.007,1.368,0.015,32.9
65,5586.00,5573.00,13.00,8.010,5855,0.003,6.577,0.007,1.408,0.015,33.1
66,5793.00,5773.00,20.00,7.788,6065,0.003,6.405,0.007,1.358,0.015,32.9
67,5721.00,5707.00,14.00,7.908,5995,0.003,6.507,0.007,1.376,0.015,33.3
68,5610.00,5610.00,0.00,8.041,5893,0.003,6.614,0.007,1.403,0.015,33.4
69,5758.00,5758.00,0.00,7.859,6049,0.003,6.469,0.007,1.365,0.014,33.1
70,5841.00,5841.00,0.00,7.669,6136,0.003,6.304,0.007,1.340,0.015,32.9
71,5646.00,5646.00,0.00,8.044,5931,0.003,6.626,0.007,1.394,0.015,33.7
72,5712.00,5712.00,0.00,7.929,6001,0.003,6.528,0.006,1.377,0.015,33.5
73,5594.00,5594.00,0.00,8.034,5877,0.003,6.604,0.007,1.407,0.014,33.2
74,4514.00,4514.00,0.00,8.021,4742,0.003,6.588,0.006,1.409,0.014,32.4
