Second,Ops/sec,Hits/sec,Misses/sec,Latency,KB/sec,Request_Creation_Time,Request_Buffer_Time,MW_Writes_To_Memcached_Time,Memcached_Process_Time,MW_Writes_To_Memtier_Time,Queue_Size
4,2196.00,2196.00,0.00,2.238,658,0.014,0.348,0.038,1.759,0.079,1.8
5,7876.00,7876.00,0.00,2.252,2360,0.006,0.186,0.014,2.030,0.015,1.2
6,8920.00,8920.00,0.00,2.176,2673,0.005,0.211,0.015,1.929,0.015,1.3
7,8793.00,8793.00,0.00,2.200,2634,0.006,0.193,0.014,1.973,0.014,1.4
8,8895.00,8895.00,0.00,2.153,2665,0.005,0.195,0.014,1.925,0.015,1.4
9,8999.00,8999.00,0.00,2.165,2696,0.005,0.153,0.014,1.979,0.014,1.2
10,8725.00,8725.00,0.00,2.281,2614,0.004,0.217,0.014,2.032,0.014,1.5
11,8988.00,8966.00,22.00,2.096,2686,0.004,0.168,0.016,1.891,0.015,1.3
12,9287.00,9285.00,2.00,2.111,2781,0.004,0.166,0.014,1.913,0.014,1.3
13,8627.00,8627.00,0.00,2.243,2584,0.004,0.172,0.014,2.038,0.015,1.1
14,9257.00,9257.00,0.00,2.059,2773,0.005,0.151,0.014,1.877,0.014,1.2
15,9194.00,9194.00,0.00,2.112,2755,0.004,0.176,0.014,1.904,0.014,1.4
16,9109.00,9109.00,0.00,2.152,2729,0.004,0.192,0.014,1.928,0.014,1.5
17,9167.00,9167.00,0.00,2.150,2746,0.004,0.159,0.014,1.958,0.014,1.2
18,8951.00,8951.00,0.00,2.210,2681,0.004,0.181,0.013,1.998,0.014,1.4
19,9116.00,9116.00,0.00,2.162,2731,0.004,0.140,0.013,1.991,0.014,1.2
20,9178.00,9178.00,0.00,2.140,2750,0.004,0.157,0.013,1.952,0.014,1.3
21,9036.00,9036.00,0.00,2.148,2707,0.004,0.181,0.015,1.935,0.014,1.4
22,8938.00,8938.00,0.00,2.194,2678,0.005,0.184,0.013,1.978,0.013,1.4
23,9242.00,9237.00,5.00,2.104,2768,0.004,0.196,0.013,1.877,0.014,1.6
24,9017.00,9002.00,15.00,2.182,2697,0.004,0.156,0.013,1.994,0.014,1.1
25,8887.00,8883.00,4.00,2.171,2661,0.004,0.178,0.013,1.961,0.015,1.3
26,9006.00,9006.00,0.00,2.167,2698,0.004,0.189,0.013,1.945,0.015,1.4
27,9300.00,9300.00,0.00,2.091,2786,0.004,0.136,0.013,1.923,0.015,1.2
28,9264.00,9264.00,0.00,2.111,2775,0.004,0.155,0.013,1.925,0.015,1.3
29,8944.00,8944.00,0.00,2.201,2680,0.004,0.163,0.014,2.006,0.014,1.3
30,8937.00,8937.00,0.00,2.218,2678,0.004,0.156,0.014,2.030,0.014,1.2
31,9396.00,9396.00,0.00,2.074,2815,0.004,0.166,0.013,1.877,0.014,1.3
32,8632.00,8632.00,0.00,2.282,2586,0.004,0.210,0.014,2.041,0.014,1.4
33,9229.00,9229.00,0.00,2.127,2765,0.004,0.180,0.013,1.916,0.014,1.3
34,9030.00,9030.00,0.00,2.147,2705,0.004,0.168,0.013,1.948,0.014,1.3
35,9112.00,9112.00,0.00,2.153,2730,0.004,0.141,0.013,1.980,0.016,1.3
36,9161.00,9161.00,0.00,2.136,2745,0.004,0.148,0.014,1.957,0.014,1.4
37,9100.00,9100.00,0.00,2.137,2726,0.004,0.160,0.013,1.946,0.015,1.3
38,8697.00,8697.00,0.00,2.235,2605,0.004,0.176,0.014,2.028,0.014,1.2
39,8897.00,8897.00,0.00,2.238,2665,0.004,0.164,0.014,2.042,0.014,1.2
40,8873.00,8873.00,0.00,2.186,2658,0.004,0.198,0.013,1.957,0.014,1.4
41,8924.00,8924.00,0.00,2.185,2674,0.004,0.203,0.014,1.950,0.015,1.6
42,9182.00,9182.00,0.00,2.158,2751,0.004,0.171,0.013,1.956,0.014,1.3
43,8913.00,8913.00,0.00,2.212,2670,0.004,0.184,0.013,1.997,0.014,1.4
44,8886.00,8886.00,0.00,2.206,2662,0.004,0.163,0.013,2.012,0.014,1.3
45,8930.00,8930.00,0.00,2.244,2675,0.004,0.156,0.013,2.057,0.014,1.4
46,9029.00,9029.00,0.00,2.133,2705,0.004,0.210,0.013,1.892,0.014,1.4
47,8933.00,8933.00,0.00,2.226,2676,0.004,0.154,0.013,2.041,0.014,1.2
48,8528.00,8528.00,0.00,2.254,2555,0.004,0.251,0.013,1.972,0.015,1.5
49,8998.00,8998.00,0.00,2.177,2696,0.004,0.174,0.015,1.967,0.016,1.4
50,8703.00,8703.00,0.00,2.286,2607,0.004,0.187,0.013,2.068,0.014,1.4
51,9397.00,9397.00,0.00,2.098,2815,0.004,0.150,0.013,1.917,0.015,1.3
52,9088.00,9088.00,0.00,2.109,2723,0.004,0.155,0.014,1.921,0.014,1.3
53,8967.00,8967.00,0.00,2.183,2686,0.004,0.178,0.013,1.974,0.014,1.5
54,9254.00,9254.00,0.00,2.130,2772,0.004,0.161,0.013,1.937,0.016,1.2
55,9090.00,9088.00,2.00,2.157,2723,0.004,0.150,0.013,1.975,0.014,1.3
56,9049.00,9047.00,2.00,2.175,2711,0.004,0.188,0.014,1.954,0.014,1.4
57,9124.00,9120.00,4.00,2.148,2732,0.004,0.150,0.013,1.967,0.014,1.3
58,8915.00,8911.00,4.00,2.190,2670,0.004,0.191,0.013,1.968,0.015,1.4
59,8845.00,8838.00,7.00,2.187,2648,0.004,0.169,0.013,1.986,0.015,1.5
60,8691.00,8685.00,6.00,2.216,2602,0.004,0.213,0.013,1.971,0.014,1.5
61,9158.00,9150.00,8.00,2.091,2741,0.004,0.189,0.015,1.868,0.015,1.3
62,8988.00,8981.00,7.00,2.182,2691,0.004,0.146,0.013,2.005,0.014,1.2
63,9165.00,9157.00,8.00,2.137,2743,0.004,0.157,0.013,1.949,0.014,1.2
64,9036.00,9027.00,9.00,2.134,2704,0.004,0.171,0.013,1.932,0.014,1.4
65,9087.00,9081.00,6.00,2.157,2721,0.004,0.164,0.013,1.962,0.013,1.3
66,9025.00,9020.00,5.00,2.167,2702,0.005,0.157,0.013,1.978,0.014,1.3
67,9184.00,9181.00,3.00,2.128,2751,0.004,0.174,0.013,1.923,0.014,1.4
68,9155.00,9154.00,1.00,2.073,2742,0.005,0.188,0.013,1.852,0.014,1.3
69,8543.00,8543.00,0.00,2.270,2559,0.006,0.184,0.014,2.052,0.014,1.4
70,8917.00,8917.00,0.00,2.117,2671,0.005,0.185,0.014,1.898,0.015,1.3
71,9162.00,9162.00,0.00,2.185,2745,0.004,0.160,0.013,1.993,0.015,1.3
72,8774.00,8774.00,0.00,2.230,2628,0.004,0.179,0.013,2.021,0.014,1.4
73,9268.00,9268.00,0.00,2.117,2776,0.004,0.164,0.014,1.921,0.015,1.4
74,5842.00,5842.00,0.00,2.226,1750,0.003,0.148,0.013,2.048,0.014,1.2
