Second,Ops/sec,Hits/sec,Misses/sec,Latency,KB/sec,Request_Creation_Time,Request_Buffer_Time,MW_Writes_To_Memcached_Time,Memcached_Process_Time,MW_Writes_To_Memtier_Time,Queue_Size
4,1864.00,1864.00,0.00,5.672,1958,0.023,1.726,0.056,3.801,0.068,5.3
5,5278.00,5278.00,0.00,8.223,5545,0.005,2.436,0.013,5.753,0.016,5.2
6,5314.00,5314.00,0.00,8.441,5583,0.005,2.713,0.011,5.698,0.014,5.9
7,5333.00,5333.00,0.00,8.372,5603,0.005,2.697,0.014,5.637,0.019,6.0
8,5294.00,5294.00,0.00,8.469,5562,0.005,2.678,0.011,5.762,0.013,5.9
9,5228.00,5228.00,0.00,8.562,5493,0.005,2.740,0.011,5.792,0.014,6.0
10,5247.00,5247.00,0.00,8.535,5512,0.005,2.725,0.011,5.781,0.014,6.1
11,5265.00,5265.00,0.00,8.530,5531,0.005,2.701,0.011,5.800,0.013,5.7
12,5255.00,5255.00,0.00,8.479,5520,0.005,2.672,0.011,5.775,0.016,5.8
13,5251.00,5251.00,0.00,8.503,5516,0.004,2.704,0.011,5.771,0.013,5.9
14,5194.00,5194.00,0.00,8.649,5457,0.004,2.862,0.013,5.757,0.013,5.9
15,5258.00,5258.00,0.00,8.468,5524,0.004,2.677,0.011,5.761,0.014,5.9
16,5304.00,5304.00,0.00,8.486,5572,0.004,2.693,0.011,5.764,0.014,5.9
17,5404.00,5404.00,0.00,8.328,5677,0.005,2.646,0.012,5.652,0.014,6.1
18,5239.00,5239.00,0.00,8.511,5504,0.004,2.665,0.011,5.818,0.013,5.5
19,5258.00,5258.00,0.00,8.500,5524,0.004,2.660,0.011,5.812,0.013,5.5
20,5316.00,5316.00,0.00,8.465,5585,0.004,2.678,0.011,5.759,0.013,5.8
21,5293.00,5293.00,0.00,8.507,5561,0.004,2.732,0.012,5.746,0.014,6.8
22,5325.00,5325.00,0.00,8.373,5594,0.004,2.612,0.011,5.730,0.016,5.7
23,5299.00,5299.00,0.00,8.503,5567,0.004,2.752,0.011,5.724,0.013,6.1
24,5375.00,5375.00,0.00,8.247,5647,0.005,2.637,0.012,5.581,0.013,6.2
25,5381.00,5376.00,5.00,8.344,5648,0.004,2.641,0.012,5.672,0.015,5.7
26,5286.00,5278.00,8.00,8.496,5545,0.004,2.676,0.014,5.787,0.015,5.7
27,5286.00,5272.00,14.00,8.523,5538,0.004,2.722,0.013,5.770,0.015,6.2
28,5318.00,5302.00,16.00,8.477,5570,0.004,2.695,0.013,5.751,0.014,6.0
29,5283.00,5279.00,4.00,8.518,5546,0.004,2.732,0.013,5.755,0.015,5.9
30,5320.00,5319.00,1.00,8.407,5588,0.003,2.655,0.013,5.721,0.015,6.1
31,5227.00,5227.00,0.00,8.605,5491,0.004,2.753,0.015,5.819,0.015,6.1
32,5364.00,5364.00,0.00,8.371,5635,0.004,2.658,0.014,5.682,0.014,6.0
33,5168.00,5168.00,0.00,8.598,5429,0.004,2.690,0.014,5.875,0.016,6.0
34,5351.00,5351.00,0.00,8.315,5621,0.004,2.601,0.013,5.681,0.017,5.6
35,5282.00,5282.00,0.00,8.451,5549,0.003,2.665,0.012,5.756,0.015,6.0
36,5241.00,5241.00,0.00,8.567,5506,0.004,2.719,0.012,5.816,0.016,6.2
37,5343.00,5343.00,0.00,8.425,5613,0.004,2.673,0.012,5.721,0.016,6.3
38,5309.00,5309.00,0.00,8.433,5578,0.004,2.673,0.012,5.730,0.014,5.7
39,5293.00,5293.00,0.00,8.516,5561,0.003,2.721,0.011,5.767,0.014,5.9
40,5274.00,5274.00,0.00,8.544,5541,0.004,2.746,0.011,5.771,0.013,6.1
41,5268.00,5268.00,0.00,8.513,5535,0.004,2.706,0.010,5.779,0.013,5.8
42,5326.00,5326.00,0.00,8.460,5595,0.004,2.707,0.011,5.726,0.014,5.8
43,5337.00,5337.00,0.00,8.369,5607,0.004,2.651,0.011,5.691,0.013,6.1
44,5465.00,5465.00,0.00,8.185,5741,0.004,2.584,0.011,5.572,0.014,5.8
45,5196.00,5196.00,0.00,8.567,5459,0.003,2.795,0.011,5.745,0.014,6.1
46,5276.00,5276.00,0.00,8.524,5543,0.004,2.704,0.011,5.792,0.013,5.8
47,5372.00,5372.00,0.00,8.358,5644,0.004,2.672,0.011,5.658,0.013,5.9
48,5269.00,5269.00,0.00,8.504,5535,0.004,2.737,0.011,5.738,0.014,6.2
49,5315.00,5315.00,0.00,8.478,5584,0.004,2.705,0.011,5.745,0.014,5.8
50,5328.00,5328.00,0.00,8.403,5597,0.004,2.649,0.011,5.726,0.014,5.8
51,5283.00,5283.00,0.00,8.516,5550,0.004,2.726,0.011,5.761,0.014,6.2
52,5242.00,5242.00,0.00,8.536,5507,0.004,2.731,0.011,5.777,0.013,5.7
53,5188.00,5188.00,0.00,8.656,5450,0.004,2.775,0.011,5.853,0.014,6.0
54,5231.00,5231.00,0.00,8.593,5495,0.003,2.729,0.010,5.837,0.014,6.1
55,5282.00,5282.00,0.00,8.497,5549,0.004,2.701,0.011,5.768,0.013,5.9
56,5270.00,5270.00,0.00,8.522,5536,0.005,2.690,0.010,5.803,0.013,6.0
57,5101.00,5101.00,0.00,8.744,5359,0.004,2.798,0.011,5.918,0.013,5.9
58,5248.00,5248.00,0.00,8.597,5513,0.004,2.736,0.011,5.832,0.014,5.9
59,5327.00,5327.00,0.00,8.417,5596,0.003,2.660,0.011,5.729,0.014,5.9
60,5255.00,5255.00,0.00,8.578,5521,0.004,2.731,0.013,5.817,0.013,6.0
61,5179.00,5179.00,0.00,8.610,5441,0.004,2.755,0.012,5.824,0.015,6.0
62,5310.00,5310.00,0.00,8.472,5578,0.004,2.690,0.011,5.753,0.014,5.9
63,5371.00,5371.00,0.00,8.378,5643,0.004,2.680,0.011,5.670,0.014,6.0
64,5378.00,5378.00,0.00,8.348,5650,0.003,2.645,0.010,5.677,0.013,5.7
65,5360.00,5356.00,4.00,8.372,5627,0.004,2.638,0.011,5.706,0.013,5.9
66,5379.00,5378.00,1.00,8.359,5650,0.003,2.649,0.011,5.682,0.014,5.6
67,5364.00,5361.00,3.00,8.390,5632,0.004,2.664,0.011,5.699,0.013,5.7
68,5315.00,5311.00,4.00,8.445,5580,0.003,2.671,0.010,5.745,0.015,5.9
69,5368.00,5363.00,5.00,8.388,5634,0.003,2.658,0.011,5.702,0.013,5.9
70,5292.00,5286.00,6.00,8.450,5553,0.004,2.684,0.011,5.737,0.014,6.0
71,5361.00,5359.00,2.00,8.334,5630,0.004,2.617,0.011,5.689,0.014,5.7
72,5260.00,5255.00,5.00,8.543,5521,0.004,2.755,0.011,5.759,0.014,6.2
73,5335.00,5329.00,6.00,8.450,5598,0.004,2.697,0.011,5.725,0.013,6.1
74,3759.00,3755.00,4.00,8.370,3945,0.004,2.631,0.011,5.710,0.014,5.9
