Second,Ops/sec,Hits/sec,Misses/sec,Latency,KB/sec,Request_Creation_Time,Request_Buffer_Time,MW_Writes_To_Memcached_Time,Memcached_Process_Time,MW_Writes_To_Memtier_Time,Queue_Size
4,1416.00,1416.00,0.00,1.584,778,0.021,0.162,0.037,1.315,0.049,0.4
5,6000.00,6000.00,0.00,1.377,3298,0.006,0.132,0.015,1.210,0.014,0.4
6,6621.00,6621.00,0.00,1.346,3639,0.005,0.102,0.014,1.212,0.013,0.4
7,6361.00,6361.00,0.00,1.427,3496,0.005,0.106,0.014,1.289,0.013,0.5
8,6175.00,6175.00,0.00,1.475,3394,0.006,0.093,0.014,1.349,0.013,0.4
9,6603.00,6591.00,12.00,1.303,3622,0.005,0.089,0.015,1.179,0.014,0.3
10,6326.00,6326.00,0.00,1.391,3476,0.005,0.115,0.014,1.244,0.013,0.4
11,6812.00,6812.00,0.00,1.251,3744,0.005,0.108,0.014,1.111,0.013,0.5
12,6670.00,6670.00,0.00,1.329,3666,0.005,0.086,0.014,1.212,0.013,0.4
13,6545.00,6545.00,0.00,1.381,3597,0.004,0.092,0.014,1.258,0.013,0.4
14,6114.00,6114.00,0.00,1.433,3360,0.004,0.120,0.014,1.281,0.013,0.5
15,6174.00,6174.00,0.00,1.403,3393,0.005,0.097,0.014,1.274,0.013,0.4
16,6391.00,6391.00,0.00,1.400,3512,0.004,0.113,0.014,1.257,0.013,0.5
17,6370.00,6370.00,0.00,1.428,3501,0.004,0.140,0.014,1.258,0.013,0.5
18,6952.00,6940.00,12.00,1.294,3814,0.004,0.092,0.013,1.171,0.013,0.4
19,6590.00,6590.00,0.00,1.324,3622,0.004,0.104,0.014,1.189,0.013,0.4
20,6434.00,6434.00,0.00,1.420,3536,0.004,0.093,0.014,1.297,0.013,0.4
21,6655.00,6655.00,0.00,1.360,3657,0.004,0.099,0.014,1.230,0.013,0.4
22,6707.00,6707.00,0.00,1.329,3686,0.004,0.098,0.014,1.201,0.013,0.4
23,6694.00,6694.00,0.00,1.341,3679,0.004,0.087,0.013,1.224,0.013,0.4
24,6593.00,6593.00,0.00,1.363,3623,0.004,0.095,0.013,1.237,0.014,0.4
25,6841.00,6841.00,0.00,1.301,3760,0.004,0.087,0.013,1.184,0.013,0.4
26,7112.00,7112.00,0.00,1.216,3909,0.004,0.099,0.014,1.086,0.013,0.4
27,6611.00,6611.00,0.00,1.345,3633,0.004,0.119,0.014,1.196,0.013,0.4
28,6817.00,6817.00,0.00,1.312,3746,0.004,0.091,0.013,1.191,0.013,0.4
29,6427.00,6427.00,0.00,1.383,3532,0.004,0.094,0.014,1.258,0.013,0.4
30,6605.00,6605.00,0.00,1.375,3630,0.004,0.111,0.014,1.234,0.013,0.4
31,6506.00,6506.00,0.00,1.388,3576,0.004,0.105,0.014,1.253,0.013,0.4
32,6741.00,6741.00,0.00,1.272,3705,0.004,0.112,0.013,1.129,0.013,0.5
33,6680.00,6680.00,0.00,1.363,3671,0.004,0.085,0.014,1.248,0.013,0.4
34,6391.00,6391.00,0.00,1.395,3512,0.004,0.108,0.013,1.257,0.013,0.5
35,7306.00,7306.00,0.00,1.166,4015,0.004,0.100,0.014,1.036,0.013,0.4
36,6991.00,6991.00,0.00,1.262,3842,0.004,0.094,0.013,1.137,0.013,0.4
37,7118.00,7118.00,0.00,1.223,3912,0.004,0.091,0.013,1.102,0.013,0.4
38,6726.00,6726.00,0.00,1.291,3696,0.004,0.103,0.014,1.157,0.013,0.5
39,6227.00,6227.00,0.00,1.459,3422,0.004,0.089,0.013,1.340,0.013,0.4
40,6766.00,6766.00,0.00,1.336,3719,0.005,0.080,0.014,1.224,0.013,0.4
41,6746.00,6734.00,12.00,1.301,3701,0.004,0.097,0.014,1.173,0.013,0.5
42,6547.00,6547.00,0.00,1.389,3598,0.004,0.092,0.014,1.266,0.013,0.5
43,6696.00,6694.00,2.00,1.339,3679,0.004,0.092,0.013,1.217,0.013,0.4
44,6560.00,6550.00,10.00,1.382,3600,0.004,0.094,0.013,1.258,0.013,0.4
45,6715.00,6703.00,12.00,1.339,3684,0.004,0.076,0.014,1.233,0.013,0.4
46,7019.00,7019.00,0.00,1.242,3857,0.004,0.096,0.014,1.115,0.013,0.4
47,6796.00,6796.00,0.00,1.300,3735,0.004,0.098,0.014,1.172,0.013,0.4
48,6589.00,6589.00,0.00,1.381,3621,0.004,0.088,0.015,1.262,0.013,0.4
49,6379.00,6379.00,0.00,1.420,3506,0.004,0.089,0.013,1.300,0.013,0.4
50,6709.00,6709.00,0.00,1.349,3687,0.004,0.084,0.013,1.235,0.013,0.5
51,6601.00,6601.00,0.00,1.368,3627,0.004,0.087,0.013,1.251,0.013,0.4
52,6823.00,6823.00,0.00,1.309,3750,0.004,0.094,0.013,1.185,0.013,0.4
53,6640.00,6640.00,0.00,1.345,3649,0.004,0.082,0.013,1.233,0.013,0.4
54,6348.00,6348.00,0.00,1.435,3489,0.004,0.096,0.013,1.309,0.013,0.4
55,6851.00,6851.00,0.00,1.309,3765,0.004,0.081,0.013,1.198,0.013,0.4
56,6651.00,6651.00,0.00,1.354,3655,0.004,0.095,0.013,1.230,0.013,0.4
57,6534.00,6534.00,0.00,1.375,3591,0.004,0.084,0.013,1.260,0.013,0.4
58,6423.00,6423.00,0.00,1.404,3530,0.004,0.124,0.014,1.249,0.013,0.5
59,5897.00,5897.00,0.00,1.506,3241,0.004,0.217,0.013,1.259,0.013,0.8
60,6806.00,6806.00,0.00,1.292,3741,0.004,0.106,0.014,1.154,0.013,0.4
61,6744.00,6744.00,0.00,1.300,3706,0.004,0.098,0.013,1.172,0.013,0.5
62,6495.00,6495.00,0.00,1.399,3569,0.004,0.090,0.013,1.279,0.013,0.4
63,6642.00,6642.00,0.00,1.351,3650,0.004,0.095,0.013,1.226,0.013,0.5
64,6108.00,6108.00,0.00,1.472,3357,0.004,0.122,0.013,1.319,0.013,0.4
65,6582.00,6582.00,0.00,1.377,3617,0.004,0.103,0.013,1.244,0.013,0.4
66,6539.00,6539.00,0.00,1.352,3594,0.004,0.087,0.013,1.235,0.013,0.4
67,7041.00,7041.00,0.00,1.246,3870,0.004,0.106,0.013,1.109,0.013,0.4
68,6753.00,6753.00,0.00,1.329,3711,0.004,0.094,0.013,1.205,0.013,0.4
69,6340.00,6340.00,0.00,1.419,3484,0.004,0.085,0.013,1.303,0.013,0.4
70,6475.00,6475.00,0.00,1.379,3558,0.004,0.140,0.013,1.208,0.014,0.5
71,6903.00,6903.00,0.00,1.297,3794,0.004,0.095,0.013,1.172,0.013,0.5
72,6387.00,6387.00,0.00,1.378,3510,0.004,0.100,0.013,1.248,0.013,0.4
73,6407.00,6407.00,0.00,1.418,3521,0.004,0.087,0.014,1.300,0.013,0.4
74,4813.00,4813.00,0.00,1.306,2645,0.004,0.104,0.013,1.170,0.015,0.4
