Second,Ops/sec,Hits/sec,Misses/sec,Latency,KB/sec,Request_Creation_Time,Request_Buffer_Time,MW_Writes_To_Memcached_Time,Memcached_Process_Time,MW_Writes_To_Memtier_Time,Queue_Size
4,2558.00,2558.00,0.00,3.688,285,0.020,0.651,0.058,2.897,0.061,4.8
5,9708.00,9708.00,0.00,4.010,1079,0.006,0.425,0.019,3.540,0.019,3.8
6,11882.00,11882.00,0.00,3.487,1320,0.005,0.291,0.014,3.162,0.015,3.6
7,11755.00,11755.00,0.00,3.495,1306,0.007,0.317,0.014,3.142,0.016,3.8
8,11477.00,11477.00,0.00,3.587,1275,0.005,0.306,0.014,3.246,0.016,3.6
9,11581.00,11581.00,0.00,3.579,1287,0.004,0.290,0.015,3.254,0.016,3.7
10,12150.00,12150.00,0.00,3.359,1350,0.004,0.379,0.014,2.944,0.016,4.3
11,11192.00,11192.00,0.00,3.671,1244,0.004,0.279,0.014,3.359,0.015,3.2
12,11218.00,11218.00,0.00,3.615,1247,0.004,0.431,0.015,3.149,0.016,4.4
13,11620.00,11620.00,0.00,3.542,1291,0.004,0.310,0.013,3.198,0.017,4.1
14,11085.00,11074.00,11.00,3.671,1230,0.004,0.343,0.015,3.290,0.018,3.8
15,11945.00,11916.00,29.00,3.451,1324,0.004,0.345,0.018,3.064,0.019,4.0
16,11432.00,11424.00,8.00,3.607,1269,0.004,0.365,0.017,3.204,0.017,4.0
17,11745.00,11745.00,0.00,3.535,1305,0.004,0.329,0.015,3.170,0.017,3.7
18,11487.00,11487.00,0.00,3.562,1276,0.003,0.315,0.015,3.213,0.016,4.1
19,11299.00,11299.00,0.00,3.633,1256,0.004,0.330,0.016,3.267,0.016,3.9
20,11332.00,11332.00,0.00,3.591,1259,0.004,0.369,0.015,3.184,0.018,3.9
21,11335.00,11335.00,0.00,3.624,1260,0.004,0.303,0.015,3.285,0.017,3.9
22,11545.00,11545.00,0.00,3.494,1283,0.005,0.336,0.016,3.118,0.019,4.1
23,11816.00,11816.00,0.00,3.549,1313,0.004,0.316,0.015,3.198,0.018,4.1
24,11057.00,11057.00,0.00,3.732,1228,0.004,0.313,0.015,3.384,0.017,3.9
25,11059.00,11059.00,0.00,3.676,1229,0.004,0.436,0.015,3.204,0.018,4.0
26,11352.00,11352.00,0.00,3.661,1261,0.004,0.361,0.014,3.266,0.017,4.4
27,11066.00,11066.00,0.00,3.732,1229,0.004,0.349,0.015,3.346,0.018,4.6
28,11269.00,11269.00,0.00,3.617,1252,0.005,0.339,0.015,3.242,0.017,4.1
29,10838.00,10838.00,0.00,3.744,1204,0.004,0.398,0.016,3.308,0.018,4.5
30,10730.00,10730.00,0.00,3.896,1192,0.004,0.416,0.015,3.442,0.018,4.1
31,11586.00,11586.00,0.00,3.512,1287,0.005,0.346,0.014,3.130,0.018,4.3
32,11181.00,11181.00,0.00,3.719,1242,0.004,0.348,0.014,3.336,0.017,4.2
33,11250.00,11245.00,5.00,3.683,1250,0.004,0.325,0.014,3.322,0.018,3.9
34,11079.00,11068.00,11.00,3.754,1230,0.004,0.359,0.015,3.359,0.017,4.2
35,11155.00,11146.00,9.00,3.670,1238,0.004,0.367,0.016,3.267,0.016,4.3
36,11305.00,11295.00,10.00,3.656,1255,0.004,0.326,0.015,3.295,0.017,4.1
37,11158.00,11152.00,6.00,3.699,1239,0.004,0.360,0.016,3.303,0.017,4.3
38,11729.00,11724.00,5.00,3.505,1303,0.004,0.339,0.015,3.131,0.016,4.1
39,10972.00,10970.00,2.00,3.723,1219,0.004,0.402,0.016,3.285,0.016,4.7
40,11263.00,11263.00,0.00,3.615,1251,0.004,0.400,0.015,3.180,0.017,4.3
41,11506.00,11506.00,0.00,3.609,1279,0.004,0.331,0.014,3.243,0.017,4.2
42,11143.00,11143.00,0.00,3.683,1238,0.004,0.342,0.015,3.306,0.017,4.2
43,11246.00,11246.00,0.00,3.662,1250,0.004,0.410,0.014,3.218,0.017,4.4
44,11438.00,11438.00,0.00,3.601,1271,0.004,0.341,0.014,3.226,0.017,4.4
45,11068.00,11068.00,0.00,3.764,1230,0.004,0.368,0.014,3.362,0.017,4.1
46,11285.00,11285.00,0.00,3.663,1254,0.004,0.343,0.014,3.287,0.017,3.9
47,11432.00,11432.00,0.00,3.600,1270,0.004,0.354,0.014,3.212,0.016,4.1
48,11659.00,11659.00,0.00,3.540,1296,0.004,0.352,0.015,3.153,0.016,4.1
49,10956.00,10956.00,0.00,3.786,1218,0.004,0.314,0.014,3.437,0.017,3.9
50,11433.00,11433.00,0.00,3.651,1270,0.004,0.340,0.014,3.277,0.017,4.2
51,11218.00,11218.00,0.00,3.573,1247,0.004,0.347,0.015,3.190,0.018,4.2
52,11195.00,11195.00,0.00,3.693,1244,0.004,0.348,0.015,3.311,0.017,4.0
53,11350.00,11350.00,0.00,3.625,1261,0.004,0.384,0.014,3.206,0.017,4.1
54,11381.00,11381.00,0.00,3.642,1265,0.004,0.354,0.014,3.254,0.017,4.5
55,11211.00,11211.00,0.00,3.689,1246,0.004,0.319,0.014,3.335,0.016,4.2
56,11491.00,11491.00,0.00,3.536,1277,0.005,0.378,0.014,3.122,0.017,4.5
57,11493.00,11493.00,0.00,3.587,1277,0.004,0.399,0.015,3.150,0.018,4.4
58,11525.00,11525.00,0.00,3.521,1281,0.004,0.329,0.014,3.157,0.016,4.0
59,11608.00,11608.00,0.00,3.611,1290,0.004,0.341,0.013,3.237,0.016,4.1
60,11038.00,11038.00,0.00,3.709,1226,0.004,0.358,0.014,3.316,0.017,4.2
61,10848.00,10848.00,0.00,3.822,1205,0.004,0.441,0.014,3.346,0.017,4.4
62,11108.00,11108.00,0.00,3.665,1234,0.004,0.416,0.016,3.212,0.017,4.1
63,11623.00,11623.00,0.00,3.554,1292,0.004,0.364,0.014,3.155,0.016,4.1
64,10687.00,10687.00,0.00,3.860,1188,0.004,0.381,0.015,3.443,0.017,4.1
65,10927.00,10927.00,0.00,3.813,1214,0.004,0.380,0.014,3.399,0.016,4.3
66,11321.00,11321.00,0.00,3.638,1258,0.003,0.350,0.014,3.254,0.016,4.0
67,11158.00,11158.00,0.00,3.764,1240,0.004,0.317,0.015,3.412,0.017,3.9
68,11439.00,11439.00,0.00,3.519,1271,0.004,0.359,0.014,3.125,0.017,4.4
69,11322.00,11322.00,0.00,3.625,1258,0.004,0.341,0.014,3.249,0.017,4.0
70,11026.00,11026.00,0.00,3.748,1225,0.004,0.313,0.013,3.401,0.017,3.8
71,11178.00,11178.00,0.00,3.689,1242,0.004,0.370,0.013,3.286,0.016,3.9
72,11235.00,11235.00,0.00,3.652,1248,0.004,0.421,0.015,3.195,0.017,4.6
73,10758.00,10758.00,0.00,3.876,1195,0.004,0.379,0.014,3.463,0.016,4.1
74,7228.00,7228.00,0.00,3.816,803,0.004,0.538,0.016,3.241,0.017,4.6
