Second,Ops/sec,Hits/sec,Misses/sec,Latency,KB/sec,Request_Creation_Time,Request_Buffer_Time,MW_Writes_To_Memcached_Time,Memcached_Process_Time,MW_Writes_To_Memtier_Time,Queue_Size
4,2260.00,2260.00,0.00,1.886,677,0.022,0.286,0.039,1.494,0.045,1.7
5,7912.00,7912.00,0.00,2.248,2370,0.007,0.249,0.016,1.959,0.017,1.5
6,9315.00,9315.00,0.00,2.012,2791,0.005,0.161,0.014,1.818,0.014,1.3
7,9092.00,9092.00,0.00,2.079,2723,0.006,0.185,0.015,1.858,0.015,1.3
8,9195.00,9195.00,0.00,2.144,2755,0.005,0.163,0.015,1.948,0.014,1.4
9,9406.00,9406.00,0.00,2.014,2818,0.006,0.186,0.015,1.793,0.014,1.3
10,9005.00,9003.00,2.00,2.120,2697,0.004,0.180,0.014,1.906,0.015,1.5
11,8641.00,8621.00,20.00,2.170,2582,0.006,0.188,0.014,1.948,0.014,1.4
12,9105.00,9103.00,2.00,2.143,2727,0.005,0.164,0.015,1.945,0.015,1.4
13,8322.00,8322.00,0.00,2.205,2493,0.005,0.167,0.015,2.003,0.015,1.3
14,8956.00,8956.00,0.00,2.134,2683,0.004,0.160,0.015,1.942,0.014,1.4
15,8911.00,8911.00,0.00,2.225,2670,0.004,0.189,0.014,2.003,0.015,1.4
16,9270.00,9270.00,0.00,2.088,2777,0.004,0.166,0.014,1.889,0.015,1.4
17,9047.00,9047.00,0.00,2.142,2710,0.004,0.170,0.014,1.940,0.015,1.4
18,9025.00,9025.00,0.00,2.177,2704,0.004,0.147,0.015,1.997,0.015,1.3
19,9093.00,9093.00,0.00,2.110,2724,0.004,0.205,0.014,1.874,0.014,1.4
20,9255.00,9255.00,0.00,2.096,2773,0.003,0.197,0.015,1.867,0.015,1.4
21,9053.00,9053.00,0.00,2.152,2712,0.004,0.168,0.014,1.952,0.014,1.4
22,9713.00,9711.00,2.00,1.968,2909,0.004,0.155,0.015,1.782,0.014,1.3
23,9129.00,9122.00,7.00,2.160,2733,0.004,0.157,0.014,1.972,0.014,1.3
24,9080.00,9070.00,10.00,2.160,2717,0.004,0.153,0.014,1.975,0.014,1.3
25,9464.00,9459.00,5.00,2.052,2834,0.004,0.186,0.013,1.835,0.014,1.4
26,9307.00,9307.00,0.00,2.047,2788,0.004,0.177,0.013,1.838,0.015,1.4
27,8980.00,8980.00,0.00,2.142,2690,0.004,0.161,0.015,1.948,0.014,1.3
28,9044.00,9044.00,0.00,2.132,2710,0.004,0.160,0.014,1.941,0.014,1.3
29,8758.00,8758.00,0.00,2.195,2624,0.004,0.222,0.014,1.940,0.015,1.5
30,9192.00,9192.00,0.00,2.095,2754,0.004,0.178,0.013,1.886,0.014,1.4
31,9469.00,9469.00,0.00,2.016,2837,0.003,0.164,0.013,1.821,0.015,1.4
32,9526.00,9526.00,0.00,1.987,2854,0.005,0.159,0.014,1.796,0.015,1.3
33,8785.00,8785.00,0.00,2.216,2632,0.004,0.174,0.013,2.010,0.015,1.3
34,9144.00,9144.00,0.00,2.135,2740,0.004,0.139,0.013,1.965,0.014,1.2
35,9100.00,9100.00,0.00,2.153,2726,0.004,0.165,0.013,1.957,0.014,1.4
36,8863.00,8863.00,0.00,2.177,2655,0.004,0.178,0.014,1.967,0.015,1.4
37,9071.00,9071.00,0.00,2.129,2718,0.005,0.200,0.014,1.894,0.016,1.6
38,9105.00,9105.00,0.00,2.154,2728,0.004,0.159,0.015,1.963,0.014,1.3
39,8903.00,8903.00,0.00,2.169,2667,0.004,0.183,0.014,1.955,0.014,1.3
40,9244.00,9244.00,0.00,2.128,2769,0.004,0.193,0.016,1.901,0.014,1.4
41,9402.00,9402.00,0.00,2.051,2817,0.004,0.148,0.013,1.873,0.014,1.4
42,9122.00,9122.00,0.00,2.147,2733,0.004,0.161,0.015,1.954,0.014,1.3
43,9056.00,9056.00,0.00,2.187,2713,0.004,0.160,0.013,1.996,0.015,1.4
44,9377.00,9377.00,0.00,2.054,2809,0.003,0.182,0.015,1.839,0.014,1.4
45,8765.00,8765.00,0.00,2.218,2626,0.004,0.203,0.014,1.983,0.016,1.6
46,9565.00,9565.00,0.00,2.048,2866,0.004,0.146,0.013,1.870,0.014,1.3
47,9674.00,9674.00,0.00,1.954,2898,0.004,0.180,0.013,1.741,0.016,1.4
48,9120.00,9120.00,0.00,2.100,2732,0.004,0.149,0.013,1.919,0.015,1.3
49,9222.00,9222.00,0.00,2.143,2763,0.004,0.148,0.013,1.964,0.015,1.4
50,9248.00,9248.00,0.00,2.088,2771,0.004,0.139,0.013,1.918,0.014,1.4
51,9467.00,9467.00,0.00,2.046,2836,0.004,0.159,0.013,1.855,0.015,1.5
52,8979.00,8979.00,0.00,2.145,2690,0.004,0.160,0.014,1.953,0.015,1.5
53,9297.00,9297.00,0.00,2.095,2785,0.004,0.168,0.013,1.896,0.015,1.4
54,9090.00,9088.00,2.00,2.108,2723,0.004,0.178,0.014,1.897,0.015,1.4
55,9167.00,9164.00,3.00,2.186,2745,0.004,0.158,0.013,1.998,0.014,1.5
56,9348.00,9345.00,3.00,2.069,2800,0.004,0.159,0.013,1.878,0.015,1.4
57,9359.00,9354.00,5.00,2.066,2802,0.004,0.145,0.014,1.888,0.014,1.3
58,8730.00,8727.00,3.00,2.242,2615,0.004,0.180,0.014,2.031,0.014,1.2
59,9113.00,9102.00,11.00,2.125,2727,0.005,0.192,0.014,1.900,0.014,1.4
60,9150.00,9145.00,5.00,2.114,2740,0.004,0.158,0.013,1.925,0.014,1.3
61,9290.00,9283.00,7.00,2.138,2781,0.004,0.170,0.014,1.936,0.014,1.4
62,9389.00,9381.00,8.00,2.075,2810,0.004,0.157,0.013,1.887,0.014,1.4
63,9033.00,9025.00,8.00,2.162,2704,0.004,0.178,0.013,1.954,0.014,1.4
64,8752.00,8748.00,4.00,2.243,2621,0.004,0.204,0.014,2.007,0.015,1.4
65,9217.00,9209.00,8.00,2.101,2759,0.004,0.188,0.015,1.880,0.014,1.5
66,9464.00,9462.00,2.00,1.994,2835,0.004,0.173,0.013,1.790,0.014,1.4
67,8979.00,8977.00,2.00,2.156,2689,0.004,0.179,0.013,1.943,0.016,1.4
68,9296.00,9295.00,1.00,2.079,2785,0.003,0.146,0.013,1.903,0.014,1.4
69,9301.00,9301.00,0.00,2.045,2786,0.003,0.145,0.013,1.868,0.015,1.3
70,9006.00,9006.00,0.00,2.196,2698,0.003,0.176,0.015,1.987,0.015,1.4
71,9466.00,9466.00,0.00,2.036,2836,0.004,0.160,0.013,1.845,0.014,1.4
72,8877.00,8877.00,0.00,2.132,2659,0.005,0.196,0.014,1.904,0.014,1.5
73,8988.00,8988.00,0.00,2.202,2693,0.004,0.161,0.013,2.010,0.014,1.3
74,6381.00,6381.00,0.00,2.048,1912,0.004,0.187,0.014,1.828,0.015,1.4
