Second,Ops/sec,Hits/sec,Misses/sec,Latency,KB/sec,Request_Creation_Time,Request_Buffer_Time,MW_Writes_To_Memcached_Time,Memcached_Process_Time,MW_Writes_To_Memtier_Time,Queue_Size
4,1320.00,1320.00,0.00,5.572,396,0.022,4.401,0.031,1.059,0.058,28.7
5,7471.00,7471.00,0.00,5.595,2239,0.008,4.522,0.010,1.037,0.017,31.4
6,8028.00,8028.00,0.00,5.444,2405,0.005,4.449,0.008,0.967,0.015,33.1
7,7642.00,7642.00,0.00,5.757,2290,0.005,4.707,0.008,1.022,0.015,32.9
8,8188.00,8188.00,0.00,5.394,2453,0.004,4.415,0.008,0.952,0.015,33.2
9,7837.00,7837.00,0.00,5.603,2348,0.004,4.581,0.008,0.995,0.015,32.9
10,7440.00,7440.00,0.00,5.935,2228,0.004,4.856,0.008,1.052,0.014,33.0
11,7954.00,7954.00,0.00,5.565,2383,0.004,4.559,0.008,0.981,0.014,33.3
12,7961.00,7961.00,0.00,5.524,2385,0.004,4.521,0.008,0.977,0.015,33.4
13,7793.00,7793.00,0.00,5.591,2334,0.004,4.564,0.007,1.002,0.014,32.8
14,8016.00,8016.00,0.00,5.458,2402,0.003,4.455,0.007,0.978,0.015,33.0
15,7997.00,7997.00,0.00,5.496,2396,0.004,4.499,0.007,0.970,0.015,33.0
16,8113.00,8113.00,0.00,5.377,2431,0.003,4.392,0.007,0.961,0.015,32.9
17,8083.00,8083.00,0.00,5.468,2422,0.003,4.470,0.007,0.974,0.015,32.9
18,8151.00,8151.00,0.00,5.378,2442,0.003,4.399,0.007,0.953,0.015,32.9
19,7952.00,7945.00,7.00,5.558,2380,0.003,4.547,0.008,0.984,0.015,33.5
20,7463.00,7422.00,41.00,5.831,2223,0.004,4.764,0.010,1.036,0.017,32.8
21,7799.00,7799.00,0.00,5.704,2336,0.003,4.676,0.009,1.000,0.016,33.7
22,7884.00,7884.00,0.00,5.496,2361,0.003,4.490,0.010,0.974,0.019,33.4
23,7846.00,7846.00,0.00,5.616,2351,0.003,4.594,0.009,0.993,0.016,33.5
24,7790.00,7790.00,0.00,5.621,2334,0.003,4.590,0.009,1.003,0.015,33.3
25,7592.00,7592.00,0.00,5.848,2274,0.003,4.795,0.009,1.024,0.016,33.7
26,7775.00,7775.00,0.00,5.594,2329,0.003,4.569,0.009,0.998,0.015,33.2
27,7805.00,7805.00,0.00,5.645,2339,0.003,4.622,0.009,0.994,0.016,33.6
28,7976.00,7976.00,0.00,5.564,2390,0.003,4.563,0.009,0.973,0.016,33.4
29,7769.00,7769.00,0.00,5.662,2328,0.004,4.630,0.009,1.004,0.016,33.4
30,7815.00,7815.00,0.00,5.660,2342,0.003,4.633,0.007,1.002,0.014,33.4
31,7892.00,7892.00,0.00,5.635,2364,0.003,4.618,0.007,0.992,0.015,33.4
32,7674.00,7674.00,0.00,5.674,2299,0.003,4.639,0.007,1.009,0.015,32.9
33,8158.00,8158.00,0.00,5.404,2444,0.003,4.417,0.007,0.962,0.015,33.2
34,7984.00,7984.00,0.00,5.515,2392,0.003,4.513,0.008,0.977,0.014,33.2
35,7630.00,7630.00,0.00,5.769,2286,0.003,4.717,0.007,1.028,0.014,33.2
36,8050.00,8050.00,0.00,5.469,2411,0.003,4.473,0.007,0.971,0.014,32.9
37,7877.00,7877.00,0.00,5.577,2360,0.003,4.565,0.007,0.987,0.015,33.2
38,7803.00,7803.00,0.00,5.614,2338,0.003,4.591,0.007,0.998,0.015,33.1
39,7837.00,7837.00,0.00,5.637,2348,0.003,4.613,0.007,0.999,0.015,33.0
40,7310.00,7310.00,0.00,6.062,2190,0.004,4.960,0.007,1.078,0.014,33.6
41,7602.00,7602.00,0.00,5.787,2277,0.003,4.736,0.007,1.027,0.014,32.9
42,7858.00,7858.00,0.00,5.596,2354,0.003,4.571,0.008,0.999,0.015,33.2
43,8126.00,8126.00,0.00,5.395,2434,0.003,4.408,0.007,0.963,0.014,33.4
44,7753.00,7753.00,0.00,5.678,2323,0.003,4.648,0.007,1.004,0.015,33.4
45,7803.00,7803.00,0.00,5.669,2338,0.004,4.638,0.007,1.005,0.015,33.2
46,7947.00,7947.00,0.00,5.558,2381,0.003,4.551,0.007,0.983,0.014,33.1
47,7698.00,7698.00,0.00,5.705,2307,0.003,4.662,0.007,1.018,0.015,33.0
48,8144.00,8139.00,5.00,5.385,2439,0.003,4.399,0.007,0.961,0.015,33.2
49,7781.00,7754.00,27.00,5.635,2323,0.003,4.610,0.007,0.996,0.019,33.5
50,7654.00,7638.00,16.00,5.758,2288,0.003,4.705,0.007,1.028,0.014,33.1
51,8050.00,8050.00,0.00,5.507,2411,0.003,4.508,0.007,0.974,0.015,33.3
52,8075.00,8075.00,0.00,5.443,2419,0.003,4.450,0.007,0.967,0.015,33.2
53,8049.00,8049.00,0.00,5.486,2411,0.003,4.489,0.007,0.972,0.015,33.4
54,7733.00,7733.00,0.00,5.700,2316,0.003,4.670,0.007,1.006,0.015,33.7
55,7937.00,7937.00,0.00,5.567,2378,0.003,4.552,0.007,0.990,0.015,33.3
56,7895.00,7895.00,0.00,5.573,2366,0.003,4.562,0.007,0.986,0.015,33.3
57,8038.00,8038.00,0.00,5.499,2408,0.003,4.500,0.007,0.974,0.015,33.2
58,7808.00,7808.00,0.00,5.675,2339,0.003,4.645,0.007,1.004,0.015,33.1
59,7990.00,7990.00,0.00,5.426,2394,0.003,4.431,0.007,0.971,0.014,33.1
60,7736.00,7736.00,0.00,5.770,2318,0.003,4.729,0.007,1.015,0.015,33.3
61,7872.00,7872.00,0.00,5.629,2358,0.003,4.611,0.007,0.993,0.015,33.7
62,7904.00,7904.00,0.00,5.578,2368,0.003,4.563,0.007,0.991,0.014,33.2
63,7718.00,7718.00,0.00,5.724,2312,0.004,4.688,0.007,1.010,0.015,33.4
64,8023.00,8023.00,0.00,5.530,2404,0.003,4.527,0.008,0.978,0.015,33.6
65,7937.00,7937.00,0.00,5.559,2378,0.003,4.548,0.007,0.986,0.014,32.9
66,7569.00,7569.00,0.00,5.819,2268,0.003,4.761,0.007,1.033,0.015,33.6
67,8309.00,8309.00,0.00,5.316,2490,0.003,4.354,0.007,0.937,0.015,33.3
68,8354.00,8354.00,0.00,5.255,2503,0.004,4.297,0.007,0.932,0.015,33.1
69,7782.00,7782.00,0.00,5.649,2331,0.003,4.622,0.007,1.001,0.015,33.0
70,7684.00,7684.00,0.00,5.765,2302,0.003,4.718,0.007,1.022,0.015,33.0
71,8064.00,8064.00,0.00,5.442,2416,0.003,4.447,0.007,0.970,0.014,33.1
72,8085.00,8085.00,0.00,5.470,2422,0.003,4.478,0.007,0.968,0.015,33.2
73,7884.00,7884.00,0.00,5.537,2362,0.003,4.527,0.008,0.984,0.015,33.0
74,6308.00,6308.00,0.00,5.422,1890,0.003,4.431,0.007,0.967,0.015,32.5
