Second,Ops/sec,Hits/sec,Misses/sec,Latency,KB/sec,Request_Creation_Time,Request_Buffer_Time,MW_Writes_To_Memcached_Time,Memcached_Process_Time,MW_Writes_To_Memtier_Time,Queue_Size
4,2110.00,2110.00,0.00,5.334,2217,0.028,0.741,0.066,4.454,0.044,5.3
5,5328.00,5328.00,0.00,8.171,5598,0.006,0.337,0.014,7.798,0.015,3.1
6,5035.00,5035.00,0.00,8.877,5290,0.005,0.365,0.014,8.481,0.013,3.9
7,4888.00,4888.00,0.00,9.183,5135,0.005,0.413,0.014,8.739,0.013,4.3
8,4937.00,4937.00,0.00,9.091,5187,0.004,0.376,0.014,8.685,0.012,4.3
9,5007.00,5007.00,0.00,8.933,5261,0.005,0.387,0.014,8.515,0.013,4.3
10,4936.00,4936.00,0.00,9.077,5186,0.004,0.598,0.014,8.448,0.013,4.1
11,5052.00,5052.00,0.00,8.811,5308,0.004,0.408,0.014,8.372,0.013,3.9
12,4890.00,4890.00,0.00,9.183,5137,0.004,0.433,0.014,8.718,0.013,4.2
13,4954.00,4954.00,0.00,8.965,5204,0.004,0.374,0.014,8.560,0.013,4.2
14,5058.00,5058.00,0.00,8.887,5314,0.004,0.389,0.014,8.467,0.013,4.1
15,5125.00,5125.00,0.00,8.726,5384,0.004,0.407,0.014,8.289,0.012,4.1
16,4987.00,4987.00,0.00,8.993,5239,0.004,0.444,0.014,8.519,0.013,4.1
17,4868.00,4868.00,0.00,9.199,5114,0.004,0.542,0.014,8.625,0.014,4.6
18,5055.00,5055.00,0.00,8.869,5311,0.004,0.444,0.014,8.395,0.013,4.0
19,4901.00,4901.00,0.00,9.151,5149,0.004,0.542,0.014,8.578,0.013,4.2
20,5048.00,5048.00,0.00,8.865,5303,0.004,0.413,0.014,8.421,0.013,3.7
21,4895.00,4895.00,0.00,9.148,5143,0.003,0.619,0.015,8.496,0.014,4.5
22,4869.00,4869.00,0.00,9.167,5115,0.004,0.556,0.014,8.580,0.014,4.0
23,4960.00,4960.00,0.00,8.993,5211,0.004,0.536,0.013,8.427,0.013,4.2
24,4889.00,4889.00,0.00,9.191,5136,0.003,0.407,0.014,8.753,0.013,4.4
25,4889.00,4888.00,1.00,9.147,5135,0.004,0.471,0.015,8.642,0.015,4.0
26,4927.00,4921.00,6.00,9.046,5170,0.004,0.434,0.014,8.581,0.014,4.1
27,4876.00,4869.00,7.00,9.214,5115,0.004,0.456,0.013,8.727,0.013,4.7
28,5089.00,5075.00,14.00,8.784,5332,0.003,0.447,0.013,8.308,0.013,4.3
29,5036.00,5031.00,5.00,8.893,5285,0.003,0.396,0.013,8.468,0.014,4.8
30,5004.00,5000.00,4.00,8.984,5253,0.003,0.432,0.014,8.522,0.013,4.2
31,5058.00,5054.00,4.00,8.867,5309,0.004,0.368,0.014,8.468,0.013,4.0
32,5028.00,5025.00,3.00,8.905,5279,0.004,0.513,0.013,8.363,0.013,4.4
33,4937.00,4933.00,4.00,9.099,5182,0.003,0.363,0.014,8.706,0.013,4.3
34,4870.00,4870.00,0.00,9.241,5116,0.004,0.481,0.014,8.728,0.014,4.4
35,4945.00,4945.00,0.00,9.079,5195,0.003,0.429,0.014,8.620,0.013,4.1
36,4946.00,4946.00,0.00,9.067,5196,0.004,0.368,0.014,8.668,0.013,4.1
37,4936.00,4936.00,0.00,9.082,5186,0.004,0.453,0.013,8.598,0.013,4.2
38,4973.00,4973.00,0.00,9.040,5225,0.004,0.417,0.014,8.593,0.013,4.0
39,4933.00,4933.00,0.00,9.094,5183,0.003,0.450,0.015,8.614,0.013,4.4
40,4952.00,4952.00,0.00,9.038,5203,0.004,0.374,0.014,8.633,0.014,4.6
41,4962.00,4962.00,0.00,9.028,5213,0.003,0.408,0.014,8.590,0.013,4.5
42,5002.00,5002.00,0.00,8.973,5255,0.004,0.495,0.014,8.447,0.013,4.3
43,4929.00,4929.00,0.00,9.096,5178,0.004,0.395,0.013,8.672,0.012,4.4
44,4971.00,4971.00,0.00,9.011,5222,0.003,0.439,0.014,8.541,0.013,4.3
45,4957.00,4957.00,0.00,9.090,5208,0.003,0.397,0.013,8.665,0.012,4.1
46,4873.00,4873.00,0.00,9.244,5119,0.003,0.408,0.014,8.806,0.012,4.2
47,4985.00,4985.00,0.00,8.987,5237,0.003,0.418,0.014,8.540,0.012,4.3
48,4893.00,4893.00,0.00,9.197,5140,0.003,0.412,0.014,8.756,0.013,4.2
49,4920.00,4920.00,0.00,9.113,5169,0.004,0.582,0.013,8.501,0.013,5.0
50,4857.00,4857.00,0.00,9.246,5102,0.003,0.529,0.015,8.687,0.013,4.1
51,4866.00,4866.00,0.00,9.225,5112,0.003,0.490,0.013,8.706,0.013,4.5
52,4820.00,4820.00,0.00,9.249,5064,0.004,0.804,0.014,8.414,0.013,4.9
53,4975.00,4975.00,0.00,9.005,5226,0.004,0.473,0.015,8.501,0.013,4.4
54,5025.00,5025.00,0.00,8.938,5279,0.003,0.484,0.013,8.424,0.013,4.0
55,4971.00,4971.00,0.00,9.023,5222,0.003,0.443,0.013,8.550,0.013,4.6
56,4896.00,4896.00,0.00,9.179,5144,0.003,0.427,0.013,8.723,0.012,4.6
57,5000.00,5000.00,0.00,8.973,5253,0.004,0.407,0.013,8.537,0.012,4.0
58,4981.00,4981.00,0.00,8.896,5233,0.004,0.410,0.013,8.456,0.013,3.7
59,4997.00,4997.00,0.00,8.983,5250,0.003,0.389,0.013,8.564,0.013,4.0
60,4962.00,4962.00,0.00,9.048,5213,0.003,0.460,0.013,8.558,0.013,3.7
61,4914.00,4914.00,0.00,9.114,5162,0.004,0.490,0.013,8.595,0.013,4.8
62,5008.00,5008.00,0.00,8.972,5261,0.004,0.365,0.013,8.578,0.012,4.3
63,4969.00,4969.00,0.00,8.987,5220,0.005,0.452,0.013,8.505,0.013,4.6
64,4930.00,4930.00,0.00,9.088,5179,0.004,0.391,0.014,8.666,0.013,4.4
65,4938.00,4937.00,1.00,9.115,5187,0.004,0.415,0.013,8.671,0.012,4.2
66,4975.00,4975.00,0.00,8.988,5227,0.004,0.394,0.013,8.564,0.013,4.2
67,4925.00,4924.00,1.00,9.118,5173,0.003,0.422,0.014,8.666,0.013,4.6
68,4874.00,4870.00,4.00,9.214,5116,0.004,0.454,0.013,8.731,0.013,4.6
69,4987.00,4985.00,2.00,8.985,5237,0.004,0.439,0.013,8.517,0.013,4.6
70,5008.00,5007.00,1.00,8.891,5260,0.004,0.437,0.014,8.424,0.012,4.2
71,4924.00,4920.00,4.00,9.122,5169,0.003,0.402,0.013,8.690,0.013,4.2
72,4990.00,4985.00,5.00,8.907,5237,0.003,0.411,0.013,8.467,0.012,4.0
73,4876.00,4872.00,4.00,9.134,5118,0.005,0.479,0.014,8.624,0.013,4.7
74,3211.00,3207.00,4.00,9.220,3369,0.004,0.505,0.013,8.685,0.013,4.4
