Second,Ops/sec,Hits/sec,Misses/sec,Latency,KB/sec,Request_Creation_Time,Request_Buffer_Time,MW_Writes_To_Memcached_Time,Memcached_Process_Time,MW_Writes_To_Memtier_Time,Queue_Size
4,3920.00,3920.00,0.00,5.330,436,0.014,1.508,0.050,3.690,0.067,10.3
5,12426.00,12426.00,0.00,5.987,1382,0.007,1.500,0.016,4.444,0.020,8.9
6,14003.00,14003.00,0.00,6.143,1556,0.005,1.907,0.013,4.201,0.016,12.0
7,13910.00,13910.00,0.00,6.211,1546,0.006,1.937,0.013,4.238,0.018,13.0
8,13552.00,13552.00,0.00,6.472,1506,0.004,2.009,0.013,4.428,0.018,12.5
9,14425.00,14425.00,0.00,5.960,1603,0.005,1.774,0.014,4.150,0.018,11.9
10,14240.00,14240.00,0.00,6.024,1582,0.005,1.758,0.013,4.231,0.018,11.5
11,13751.00,13751.00,0.00,6.140,1527,0.005,1.838,0.015,4.264,0.018,11.7
12,14073.00,14073.00,0.00,6.109,1564,0.004,1.877,0.013,4.196,0.019,12.5
13,13960.00,13960.00,0.00,6.270,1551,0.004,1.916,0.013,4.319,0.017,11.9
14,14091.00,14091.00,0.00,6.135,1565,0.004,1.871,0.013,4.227,0.019,12.4
15,14131.00,14131.00,0.00,6.174,1570,0.004,1.865,0.013,4.275,0.017,12.0
16,14204.00,14204.00,0.00,6.084,1579,0.004,1.852,0.012,4.199,0.017,12.5
17,14405.00,14405.00,0.00,5.972,1601,0.004,1.799,0.014,4.137,0.018,12.4
18,13650.00,13650.00,0.00,6.335,1517,0.005,1.876,0.014,4.421,0.019,11.6
19,14098.00,14098.00,0.00,6.115,1567,0.005,1.884,0.012,4.195,0.018,12.6
20,14121.00,14107.00,14.00,6.187,1568,0.004,1.895,0.013,4.256,0.019,12.2
21,13596.00,13575.00,21.00,6.279,1508,0.004,1.917,0.017,4.319,0.022,11.9
22,13792.00,13752.00,40.00,6.319,1528,0.005,2.010,0.016,4.269,0.019,13.3
23,13608.00,13588.00,20.00,6.338,1509,0.004,1.999,0.015,4.300,0.019,12.3
24,13743.00,13742.00,1.00,6.241,1526,0.004,1.914,0.017,4.287,0.020,12.3
25,13922.00,13922.00,0.00,6.259,1546,0.004,1.925,0.016,4.295,0.019,12.4
26,14076.00,14076.00,0.00,6.132,1564,0.005,1.905,0.016,4.186,0.021,13.5
27,13470.00,13470.00,0.00,6.462,1496,0.005,1.953,0.016,4.466,0.022,12.2
28,13732.00,13732.00,0.00,6.363,1526,0.004,2.011,0.016,4.312,0.021,13.0
29,13854.00,13854.00,0.00,6.280,1540,0.004,1.969,0.014,4.273,0.020,12.8
30,13753.00,13753.00,0.00,6.360,1528,0.004,1.942,0.015,4.380,0.019,12.6
31,13906.00,13906.00,0.00,6.289,1546,0.004,1.938,0.015,4.312,0.020,13.2
32,14141.00,14141.00,0.00,6.184,1572,0.004,1.917,0.015,4.226,0.021,12.9
33,13414.00,13414.00,0.00,6.479,1491,0.004,1.971,0.016,4.468,0.019,12.2
34,13543.00,13543.00,0.00,6.406,1505,0.004,1.988,0.014,4.378,0.021,12.9
35,13933.00,13933.00,0.00,6.233,1548,0.004,1.925,0.015,4.270,0.020,12.6
36,13690.00,13690.00,0.00,6.323,1521,0.004,1.902,0.016,4.383,0.019,12.4
37,13830.00,13830.00,0.00,6.215,1536,0.004,1.908,0.015,4.269,0.019,12.8
38,13904.00,13904.00,0.00,6.275,1545,0.004,1.974,0.014,4.264,0.019,12.7
39,13333.00,13333.00,0.00,6.430,1481,0.004,1.921,0.019,4.465,0.022,12.2
40,13491.00,13491.00,0.00,6.549,1499,0.004,2.033,0.014,4.479,0.019,12.5
41,14306.00,14306.00,0.00,6.125,1589,0.004,1.854,0.014,4.234,0.019,12.3
42,14005.00,14005.00,0.00,6.187,1556,0.004,1.860,0.014,4.290,0.019,12.3
43,13589.00,13589.00,0.00,6.415,1510,0.005,1.969,0.016,4.404,0.020,12.0
44,13946.00,13946.00,0.00,6.219,1549,0.004,1.911,0.015,4.270,0.019,13.1
45,14303.00,14303.00,0.00,6.066,1589,0.004,1.829,0.014,4.200,0.019,12.4
46,13636.00,13636.00,0.00,6.365,1515,0.004,1.945,0.014,4.383,0.019,12.1
47,14252.00,14252.00,0.00,6.149,1583,0.004,1.921,0.014,4.190,0.020,13.1
48,13844.00,13844.00,0.00,6.257,1538,0.004,1.911,0.014,4.308,0.020,12.8
49,13763.00,13763.00,0.00,6.299,1529,0.005,1.938,0.014,4.323,0.019,12.6
50,14213.00,14213.00,0.00,6.164,1579,0.004,1.906,0.014,4.221,0.019,12.4
51,13905.00,13896.00,9.00,6.183,1544,0.005,1.865,0.014,4.280,0.019,11.6
52,13649.00,13642.00,7.00,6.367,1516,0.004,1.965,0.016,4.361,0.020,12.0
53,13868.00,13854.00,14.00,6.316,1540,0.004,1.939,0.014,4.341,0.018,12.8
54,14213.00,14206.00,7.00,6.077,1579,0.004,1.868,0.014,4.170,0.020,12.5
55,13487.00,13472.00,15.00,6.447,1497,0.005,1.968,0.014,4.441,0.019,12.3
56,14272.00,14254.00,18.00,6.099,1584,0.005,1.818,0.014,4.242,0.020,11.7
57,13784.00,13776.00,8.00,6.254,1531,0.004,1.887,0.014,4.328,0.021,12.8
58,12901.00,12894.00,7.00,6.590,1433,0.004,2.092,0.014,4.460,0.020,12.7
59,13750.00,13744.00,6.00,6.354,1527,0.004,2.003,0.015,4.313,0.020,13.2
60,14033.00,14029.00,4.00,6.158,1559,0.005,1.941,0.015,4.177,0.020,13.5
61,13327.00,13326.00,1.00,6.460,1480,0.004,2.003,0.014,4.420,0.019,13.2
62,13976.00,13976.00,0.00,6.176,1553,0.005,1.930,0.014,4.209,0.019,12.7
63,13854.00,13854.00,0.00,6.215,1539,0.004,1.971,0.015,4.206,0.019,13.3
64,13569.00,13569.00,0.00,6.394,1508,0.004,1.957,0.013,4.400,0.020,12.6
65,14177.00,14177.00,0.00,6.164,1575,0.004,1.917,0.015,4.210,0.019,13.2
66,13990.00,13990.00,0.00,6.238,1555,0.004,1.967,0.014,4.234,0.018,13.1
67,13526.00,13526.00,0.00,6.414,1503,0.004,1.996,0.013,4.381,0.019,12.8
68,13380.00,13380.00,0.00,6.560,1487,0.004,2.034,0.015,4.487,0.020,12.6
69,13998.00,13998.00,0.00,6.214,1555,0.004,1.946,0.014,4.230,0.019,13.0
70,13832.00,13832.00,0.00,6.243,1537,0.004,1.894,0.014,4.311,0.020,12.5
71,13653.00,13653.00,0.00,6.390,1517,0.004,1.991,0.014,4.364,0.018,12.8
72,13926.00,13926.00,0.00,6.135,1548,0.004,1.885,0.015,4.209,0.021,12.9
73,13903.00,13903.00,0.00,6.161,1545,0.004,1.824,0.013,4.302,0.018,12.5
74,10913.00,10913.00,0.00,5.098,1213,0.004,1.512,0.014,3.551,0.017,9.8
75,4192.00,4192.00,0.00,0.678,466,0.005,0.136,0.014,0.509,0.013,0.5
