Second,Ops/sec,Hits/sec,Misses/sec,Latency,KB/sec,Request_Creation_Time,Request_Buffer_Time,MW_Writes_To_Memcached_Time,Memcached_Process_Time,MW_Writes_To_Memtier_Time,Queue_Size
4,1165.00,1165.00,0.00,1.295,640,0.042,0.127,0.041,1.047,0.038,0.5
5,5824.00,5824.00,0.00,1.343,3201,0.007,0.109,0.016,1.196,0.015,0.4
6,6578.00,6578.00,0.00,1.347,3615,0.005,0.106,0.015,1.207,0.014,0.5
7,6840.00,6840.00,0.00,1.290,3759,0.005,0.099,0.015,1.158,0.013,0.4
8,6328.00,6328.00,0.00,1.424,3478,0.006,0.104,0.015,1.287,0.013,0.4
9,6703.00,6691.00,12.00,1.308,3677,0.006,0.102,0.015,1.170,0.015,0.5
10,6791.00,6791.00,0.00,1.292,3732,0.005,0.108,0.014,1.152,0.013,0.4
11,6496.00,6496.00,0.00,1.380,3570,0.004,0.095,0.015,1.253,0.013,0.5
12,6485.00,6485.00,0.00,1.393,3564,0.004,0.102,0.015,1.257,0.014,0.5
13,6452.00,6452.00,0.00,1.398,3546,0.004,0.091,0.015,1.275,0.013,0.4
14,6073.00,6073.00,0.00,1.481,3337,0.005,0.136,0.014,1.314,0.013,0.6
15,6444.00,6444.00,0.00,1.391,3542,0.004,0.126,0.014,1.234,0.013,0.5
16,6497.00,6497.00,0.00,1.390,3571,0.004,0.107,0.014,1.251,0.013,0.4
17,6350.00,6349.00,1.00,1.446,3490,0.004,0.112,0.014,1.304,0.013,0.5
18,6276.00,6267.00,9.00,1.451,3444,0.004,0.127,0.014,1.291,0.015,0.5
19,6640.00,6638.00,2.00,1.342,3648,0.004,0.118,0.014,1.193,0.013,0.5
20,6748.00,6748.00,0.00,1.312,3709,0.003,0.118,0.014,1.163,0.013,0.5
21,6520.00,6520.00,0.00,1.393,3583,0.004,0.109,0.014,1.254,0.013,0.5
22,6902.00,6902.00,0.00,1.277,3793,0.004,0.120,0.014,1.126,0.013,0.4
23,6151.00,6151.00,0.00,1.491,3381,0.004,0.110,0.014,1.350,0.013,0.5
24,5919.00,5919.00,0.00,1.500,3253,0.004,0.183,0.013,1.286,0.014,0.6
25,6937.00,6937.00,0.00,1.259,3813,0.003,0.095,0.015,1.132,0.013,0.4
26,6068.00,6068.00,0.00,1.489,3335,0.004,0.127,0.014,1.330,0.014,0.5
27,6389.00,6389.00,0.00,1.419,3511,0.004,0.100,0.014,1.286,0.014,0.4
28,6614.00,6614.00,0.00,1.372,3635,0.004,0.105,0.014,1.237,0.013,0.5
29,6175.00,6175.00,0.00,1.464,3394,0.003,0.120,0.014,1.313,0.014,0.5
30,6562.00,6562.00,0.00,1.385,3606,0.003,0.092,0.014,1.262,0.014,0.4
31,6553.00,6553.00,0.00,1.365,3602,0.004,0.095,0.014,1.238,0.015,0.4
32,6349.00,6349.00,0.00,1.425,3489,0.004,0.117,0.014,1.277,0.013,0.4
33,6573.00,6573.00,0.00,1.392,3612,0.004,0.099,0.015,1.261,0.014,0.5
34,6487.00,6487.00,0.00,1.374,3565,0.004,0.107,0.013,1.235,0.013,0.5
35,6429.00,6429.00,0.00,1.407,3533,0.004,0.081,0.014,1.296,0.013,0.4
36,6997.00,6997.00,0.00,1.273,3845,0.004,0.090,0.015,1.152,0.013,0.4
37,6966.00,6966.00,0.00,1.249,3828,0.003,0.093,0.015,1.124,0.013,0.4
38,6173.00,6173.00,0.00,1.488,3393,0.004,0.107,0.013,1.352,0.013,0.4
39,6566.00,6566.00,0.00,1.363,3609,0.003,0.092,0.014,1.241,0.013,0.4
40,6580.00,6579.00,1.00,1.358,3616,0.004,0.106,0.014,1.221,0.013,0.4
41,6186.00,6183.00,3.00,1.451,3398,0.004,0.096,0.014,1.325,0.013,0.4
42,6790.00,6785.00,5.00,1.322,3729,0.004,0.103,0.013,1.188,0.013,0.5
43,6899.00,6894.00,5.00,1.295,3789,0.004,0.090,0.014,1.174,0.013,0.5
44,6470.00,6466.00,4.00,1.416,3554,0.004,0.097,0.013,1.289,0.013,0.4
45,6844.00,6835.00,9.00,1.303,3756,0.004,0.098,0.014,1.175,0.014,0.4
46,7052.00,7046.00,6.00,1.263,3872,0.003,0.082,0.013,1.151,0.013,0.4
47,7021.00,7018.00,3.00,1.218,3857,0.004,0.088,0.014,1.100,0.013,0.4
48,6631.00,6631.00,0.00,1.370,3644,0.004,0.140,0.014,1.200,0.014,0.6
49,7144.00,7144.00,0.00,1.234,3926,0.004,0.088,0.014,1.115,0.013,0.4
50,6780.00,6780.00,0.00,1.308,3726,0.003,0.102,0.014,1.176,0.013,0.4
51,7200.00,7200.00,0.00,1.212,3957,0.004,0.082,0.013,1.100,0.013,0.4
52,6702.00,6702.00,0.00,1.354,3683,0.004,0.101,0.013,1.223,0.013,0.4
53,6604.00,6604.00,0.00,1.368,3629,0.003,0.102,0.013,1.235,0.014,0.4
54,6862.00,6862.00,0.00,1.291,3771,0.004,0.114,0.014,1.146,0.013,0.4
55,7200.00,7200.00,0.00,1.226,3957,0.003,0.079,0.014,1.116,0.013,0.4
56,6318.00,6318.00,0.00,1.451,3472,0.004,0.102,0.014,1.319,0.013,0.4
57,6874.00,6874.00,0.00,1.307,3778,0.003,0.109,0.014,1.168,0.013,0.4
58,7065.00,7065.00,0.00,1.246,3883,0.004,0.099,0.013,1.117,0.013,0.4
59,6526.00,6526.00,0.00,1.387,3587,0.003,0.102,0.013,1.256,0.013,0.5
60,6391.00,6391.00,0.00,1.434,3512,0.004,0.093,0.014,1.310,0.013,0.5
61,6899.00,6899.00,0.00,1.302,3792,0.004,0.077,0.014,1.195,0.013,0.4
62,6786.00,6786.00,0.00,1.308,3730,0.003,0.097,0.014,1.180,0.013,0.4
63,6497.00,6497.00,0.00,1.409,3571,0.004,0.092,0.014,1.287,0.013,0.4
64,6610.00,6610.00,0.00,1.378,3633,0.004,0.097,0.013,1.250,0.013,0.4
65,6514.00,6514.00,0.00,1.376,3580,0.003,0.100,0.014,1.246,0.013,0.4
66,6384.00,6384.00,0.00,1.419,3509,0.004,0.107,0.014,1.280,0.014,0.4
67,6785.00,6785.00,0.00,1.309,3729,0.004,0.108,0.014,1.169,0.014,0.6
68,6447.00,6447.00,0.00,1.372,3543,0.004,0.158,0.013,1.183,0.014,0.7
69,6135.00,6135.00,0.00,1.502,3372,0.004,0.111,0.014,1.361,0.013,0.4
70,7239.00,7239.00,0.00,1.237,3978,0.003,0.089,0.013,1.118,0.013,0.4
71,6625.00,6625.00,0.00,1.338,3641,0.003,0.094,0.013,1.214,0.013,0.4
72,6339.00,6339.00,0.00,1.410,3484,0.005,0.096,0.014,1.283,0.013,0.4
73,6927.00,6927.00,0.00,1.293,3807,0.004,0.084,0.013,1.179,0.013,0.4
74,4931.00,4931.00,0.00,1.432,2710,0.004,0.078,0.014,1.324,0.013,0.4
