Second,Ops/sec,Hits/sec,Misses/sec,Latency,KB/sec,Request_Creation_Time,Request_Buffer_Time,MW_Writes_To_Memcached_Time,Memcached_Process_Time,MW_Writes_To_Memtier_Time,Queue_Size
4,2829.00,2829.00,0.00,3.651,848,0.021,1.210,0.032,2.288,0.099,5.8
5,10390.00,10390.00,0.00,3.747,3113,0.005,0.959,0.019,2.748,0.016,4.6
6,11802.00,11802.00,0.00,3.517,3536,0.005,1.033,0.013,2.451,0.016,5.4
7,11699.00,11699.00,0.00,3.530,3505,0.005,1.051,0.012,2.447,0.015,5.5
8,11092.00,11092.00,0.00,3.715,3323,0.005,1.080,0.013,2.601,0.015,5.3
9,11454.00,11454.00,0.00,3.642,3431,0.004,1.067,0.012,2.544,0.015,5.5
10,11635.00,11635.00,0.00,3.526,3486,0.005,1.036,0.012,2.457,0.015,5.4
11,11349.00,11349.00,0.00,3.629,3400,0.004,1.026,0.011,2.573,0.015,5.3
12,12087.00,12087.00,0.00,3.382,3621,0.004,0.972,0.012,2.380,0.014,5.3
13,11837.00,11837.00,0.00,3.458,3547,0.005,0.986,0.012,2.440,0.016,5.3
14,11215.00,11204.00,11.00,3.685,3357,0.004,1.059,0.013,2.593,0.016,5.2
15,11629.00,11597.00,32.00,3.573,3474,0.003,1.071,0.013,2.468,0.017,5.7
16,11711.00,11706.00,5.00,3.456,3506,0.004,1.026,0.013,2.395,0.017,5.9
17,11478.00,11478.00,0.00,3.567,3438,0.004,1.041,0.014,2.493,0.016,5.4
18,11814.00,11814.00,0.00,3.467,3539,0.004,1.022,0.014,2.410,0.017,5.7
19,11974.00,11974.00,0.00,3.469,3587,0.003,1.021,0.014,2.414,0.016,5.6
20,11573.00,11573.00,0.00,3.545,3468,0.004,1.036,0.016,2.472,0.018,5.3
21,11530.00,11530.00,0.00,3.568,3455,0.004,1.061,0.014,2.473,0.017,5.7
22,11908.00,11908.00,0.00,3.488,3567,0.004,1.017,0.014,2.437,0.017,5.9
23,11433.00,11433.00,0.00,3.610,3425,0.003,1.047,0.014,2.528,0.017,5.5
24,11665.00,11665.00,0.00,3.510,3494,0.004,1.027,0.013,2.449,0.017,5.6
25,11575.00,11575.00,0.00,3.617,3467,0.005,1.065,0.014,2.517,0.017,5.5
26,11202.00,11202.00,0.00,3.711,3356,0.005,1.087,0.015,2.585,0.018,5.5
27,11755.00,11755.00,0.00,3.545,3522,0.004,1.039,0.014,2.471,0.018,5.4
28,11498.00,11498.00,0.00,3.621,3445,0.004,1.058,0.013,2.527,0.019,5.6
29,11568.00,11568.00,0.00,3.519,3465,0.004,1.027,0.013,2.457,0.017,5.5
30,11677.00,11677.00,0.00,3.516,3498,0.004,1.030,0.013,2.451,0.017,5.5
31,11535.00,11535.00,0.00,3.565,3456,0.004,1.044,0.012,2.488,0.017,5.7
32,11523.00,11523.00,0.00,3.506,3452,0.005,1.006,0.013,2.465,0.017,5.2
33,11627.00,11619.00,8.00,3.525,3481,0.004,1.032,0.013,2.458,0.017,5.7
34,11646.00,11634.00,12.00,3.581,3486,0.004,1.050,0.013,2.497,0.017,5.6
35,11736.00,11720.00,16.00,3.581,3511,0.004,1.060,0.014,2.486,0.017,5.6
36,11084.00,11078.00,6.00,3.753,3319,0.003,1.126,0.012,2.594,0.016,5.4
37,11871.00,11865.00,6.00,3.482,3554,0.004,1.012,0.013,2.436,0.016,5.5
38,11564.00,11564.00,0.00,3.573,3464,0.004,1.072,0.014,2.465,0.017,5.8
39,10961.00,10961.00,0.00,3.658,3284,0.004,1.091,0.013,2.532,0.018,5.6
40,11822.00,11822.00,0.00,3.516,3542,0.004,1.030,0.013,2.453,0.016,5.4
41,11774.00,11774.00,0.00,3.515,3527,0.004,1.024,0.012,2.458,0.016,5.5
42,11956.00,11956.00,0.00,3.381,3582,0.004,0.977,0.013,2.371,0.016,5.4
43,11904.00,11904.00,0.00,3.460,3566,0.004,1.029,0.013,2.395,0.019,5.7
44,11978.00,11978.00,0.00,3.515,3589,0.004,1.034,0.012,2.449,0.016,5.6
45,11513.00,11513.00,0.00,3.615,3449,0.004,1.061,0.014,2.520,0.017,5.7
46,11819.00,11819.00,0.00,3.542,3541,0.004,1.041,0.013,2.466,0.018,5.4
47,11789.00,11789.00,0.00,3.503,3532,0.004,1.028,0.012,2.443,0.016,5.3
48,11358.00,11358.00,0.00,3.691,3403,0.004,1.087,0.013,2.571,0.016,5.5
49,11891.00,11891.00,0.00,3.471,3562,0.004,1.019,0.013,2.420,0.016,5.5
50,11911.00,11911.00,0.00,3.491,3569,0.004,1.038,0.012,2.422,0.016,5.5
51,11581.00,11581.00,0.00,3.631,3470,0.004,1.063,0.012,2.536,0.016,5.5
52,12016.00,12016.00,0.00,3.488,3600,0.004,1.023,0.012,2.433,0.016,5.5
53,11483.00,11483.00,0.00,3.640,3440,0.004,1.088,0.012,2.522,0.016,5.5
54,11383.00,11383.00,0.00,3.662,3410,0.004,1.073,0.013,2.556,0.016,5.5
55,11043.00,11043.00,0.00,3.776,3308,0.004,1.124,0.013,2.617,0.018,5.7
56,11357.00,11357.00,0.00,3.657,3402,0.004,1.093,0.012,2.532,0.016,5.4
57,11707.00,11707.00,0.00,3.596,3507,0.004,1.064,0.012,2.499,0.016,5.5
58,11499.00,11499.00,0.00,3.625,3445,0.004,1.097,0.013,2.496,0.015,5.8
59,11432.00,11432.00,0.00,3.640,3425,0.004,1.067,0.012,2.541,0.017,5.6
60,10986.00,10986.00,0.00,3.702,3291,0.004,1.116,0.013,2.551,0.018,6.1
61,11502.00,11502.00,0.00,3.667,3446,0.004,1.085,0.012,2.550,0.015,5.8
62,11727.00,11727.00,0.00,3.598,3513,0.004,1.068,0.011,2.500,0.016,5.7
63,12015.00,12015.00,0.00,3.478,3600,0.004,1.035,0.011,2.413,0.015,5.6
64,11342.00,11342.00,0.00,3.694,3398,0.004,1.098,0.012,2.564,0.016,5.6
65,11660.00,11660.00,0.00,3.614,3493,0.004,1.078,0.013,2.505,0.015,5.6
66,11450.00,11450.00,0.00,3.615,3430,0.004,1.060,0.011,2.525,0.016,5.4
67,11530.00,11530.00,0.00,3.662,3454,0.004,1.094,0.012,2.538,0.015,5.6
68,11842.00,11842.00,0.00,3.487,3548,0.004,1.026,0.012,2.430,0.015,5.4
69,11399.00,11399.00,0.00,3.673,3415,0.004,1.073,0.012,2.569,0.016,5.3
70,11565.00,11565.00,0.00,3.657,3465,0.004,1.103,0.012,2.523,0.015,5.7
71,11724.00,11724.00,0.00,3.586,3512,0.004,1.072,0.011,2.484,0.015,5.3
72,11549.00,11549.00,0.00,3.553,3460,0.004,1.053,0.012,2.468,0.016,5.6
73,11417.00,11417.00,0.00,3.706,3420,0.004,1.113,0.013,2.561,0.015,5.6
74,8037.00,8037.00,0.00,3.509,2408,0.003,1.034,0.011,2.445,0.015,5.3
