Second,Ops/sec,Hits/sec,Misses/sec,Latency,KB/sec,Request_Creation_Time,Request_Buffer_Time,MW_Writes_To_Memcached_Time,Memcached_Process_Time,MW_Writes_To_Memtier_Time,Queue_Size
4,3226.00,3226.00,0.00,4.059,967,0.016,0.668,0.051,3.277,0.047,4.2
5,10372.00,10372.00,0.00,3.674,3108,0.006,0.333,0.018,3.300,0.018,2.8
6,11804.00,11804.00,0.00,3.497,3537,0.006,0.351,0.014,3.111,0.016,3.9
7,11055.00,11055.00,0.00,3.726,3312,0.005,0.304,0.015,3.385,0.016,3.7
8,11389.00,11389.00,0.00,3.592,3412,0.005,0.350,0.014,3.206,0.016,4.0
9,11577.00,11577.00,0.00,3.649,3468,0.004,0.282,0.013,3.334,0.016,4.0
10,11519.00,11519.00,0.00,3.588,3451,0.004,0.279,0.013,3.276,0.015,3.5
11,11185.00,11185.00,0.00,3.660,3351,0.004,0.304,0.014,3.323,0.016,3.3
12,11473.00,11473.00,0.00,3.599,3437,0.004,0.315,0.014,3.250,0.016,3.7
13,11642.00,11642.00,0.00,3.525,3488,0.004,0.326,0.014,3.165,0.016,3.9
14,10809.00,10802.00,7.00,3.728,3236,0.005,0.364,0.014,3.328,0.018,3.8
15,11817.00,11785.00,32.00,3.504,3530,0.004,0.277,0.016,3.190,0.017,3.8
16,11730.00,11721.00,9.00,3.481,3511,0.005,0.271,0.013,3.178,0.015,3.8
17,10949.00,10949.00,0.00,3.800,3280,0.004,0.283,0.013,3.484,0.016,3.8
18,11553.00,11553.00,0.00,3.604,3461,0.003,0.290,0.013,3.282,0.016,3.8
19,11315.00,11315.00,0.00,3.637,3390,0.005,0.326,0.013,3.277,0.016,3.6
20,11392.00,11392.00,0.00,3.583,3413,0.004,0.333,0.014,3.216,0.016,3.6
21,11728.00,11728.00,0.00,3.460,3514,0.004,0.311,0.013,3.116,0.016,4.0
22,11392.00,11392.00,0.00,3.607,3413,0.004,0.384,0.013,3.191,0.016,3.7
23,11200.00,11200.00,0.00,3.706,3355,0.004,0.343,0.013,3.328,0.019,3.9
24,11848.00,11848.00,0.00,3.436,3549,0.004,0.273,0.012,3.129,0.018,3.7
25,11030.00,11030.00,0.00,3.670,3304,0.004,0.397,0.014,3.236,0.018,4.0
26,11287.00,11287.00,0.00,3.753,3381,0.004,0.289,0.013,3.431,0.017,3.7
27,11489.00,11489.00,0.00,3.625,3442,0.004,0.314,0.013,3.277,0.016,3.8
28,11466.00,11466.00,0.00,3.557,3435,0.004,0.368,0.013,3.155,0.017,3.9
29,11117.00,11117.00,0.00,3.778,3330,0.004,0.331,0.013,3.412,0.017,3.8
30,11373.00,11373.00,0.00,3.669,3407,0.004,0.331,0.013,3.306,0.016,4.0
31,11661.00,11661.00,0.00,3.604,3493,0.004,0.301,0.014,3.270,0.016,3.8
32,11184.00,11183.00,1.00,3.751,3350,0.004,0.286,0.013,3.432,0.017,3.6
33,11307.00,11303.00,4.00,3.602,3387,0.004,0.357,0.014,3.211,0.016,4.0
34,11426.00,11417.00,9.00,3.638,3421,0.004,0.324,0.013,3.281,0.017,3.4
35,11213.00,11200.00,13.00,3.697,3356,0.004,0.331,0.017,3.329,0.016,3.8
36,11647.00,11635.00,12.00,3.522,3486,0.004,0.299,0.013,3.190,0.016,3.7
37,10834.00,10829.00,5.00,3.789,3244,0.004,0.357,0.014,3.397,0.017,4.1
38,11185.00,11181.00,4.00,3.694,3350,0.004,0.339,0.013,3.323,0.016,3.7
39,11051.00,11051.00,0.00,3.744,3311,0.004,0.374,0.013,3.337,0.016,4.2
40,11515.00,11515.00,0.00,3.572,3450,0.004,0.354,0.015,3.184,0.016,4.1
41,10887.00,10887.00,0.00,3.877,3262,0.004,0.359,0.014,3.484,0.016,4.2
42,11109.00,11109.00,0.00,3.769,3328,0.004,0.334,0.014,3.401,0.016,4.3
43,11367.00,11367.00,0.00,3.683,3405,0.003,0.323,0.012,3.329,0.016,4.0
44,10777.00,10777.00,0.00,3.863,3229,0.004,0.359,0.013,3.472,0.016,4.0
45,11636.00,11636.00,0.00,3.557,3486,0.004,0.326,0.014,3.198,0.016,3.9
46,11311.00,11311.00,0.00,3.611,3389,0.004,0.344,0.015,3.230,0.018,4.1
47,10886.00,10886.00,0.00,3.817,3261,0.004,0.342,0.014,3.440,0.016,4.2
48,11115.00,11115.00,0.00,3.725,3330,0.004,0.366,0.013,3.325,0.016,4.0
49,11331.00,11331.00,0.00,3.647,3395,0.004,0.329,0.017,3.281,0.016,3.9
50,11013.00,11013.00,0.00,3.753,3300,0.004,0.324,0.014,3.395,0.016,3.9
51,11065.00,11065.00,0.00,3.743,3315,0.004,0.356,0.014,3.354,0.016,3.9
52,11236.00,11236.00,0.00,3.749,3366,0.004,0.307,0.014,3.407,0.017,4.0
53,11429.00,11429.00,0.00,3.614,3424,0.004,0.357,0.013,3.225,0.016,4.0
54,10517.00,10517.00,0.00,3.909,3151,0.004,0.470,0.014,3.406,0.016,4.2
55,11037.00,11037.00,0.00,3.621,3307,0.004,0.359,0.013,3.229,0.016,3.9
56,11480.00,11480.00,0.00,3.591,3439,0.004,0.333,0.013,3.224,0.016,4.0
57,10872.00,10872.00,0.00,3.813,3257,0.004,0.343,0.014,3.435,0.017,4.1
58,11152.00,11152.00,0.00,3.745,3341,0.004,0.344,0.014,3.367,0.015,4.1
59,10966.00,10966.00,0.00,3.768,3285,0.004,0.369,0.013,3.366,0.016,3.6
60,10568.00,10568.00,0.00,3.855,3166,0.004,0.400,0.014,3.421,0.016,4.1
61,11569.00,11569.00,0.00,3.578,3466,0.004,0.297,0.013,3.247,0.016,3.9
62,11318.00,11318.00,0.00,3.629,3391,0.004,0.336,0.014,3.260,0.016,3.7
63,10919.00,10919.00,0.00,3.821,3271,0.005,0.281,0.013,3.507,0.015,3.6
64,11189.00,11189.00,0.00,3.718,3352,0.004,0.313,0.014,3.372,0.016,3.7
65,10952.00,10952.00,0.00,3.759,3281,0.003,0.387,0.013,3.339,0.016,4.1
66,11382.00,11382.00,0.00,3.716,3410,0.004,0.281,0.014,3.401,0.017,3.6
67,11293.00,11293.00,0.00,3.640,3383,0.004,0.330,0.014,3.276,0.017,3.9
68,11249.00,11249.00,0.00,3.676,3370,0.004,0.323,0.013,3.320,0.016,3.7
69,11059.00,11059.00,0.00,3.805,3313,0.004,0.315,0.013,3.457,0.016,3.7
70,11224.00,11224.00,0.00,3.651,3363,0.004,0.341,0.013,3.276,0.017,3.8
71,11275.00,11275.00,0.00,3.671,3378,0.004,0.374,0.013,3.265,0.016,4.0
72,11027.00,11027.00,0.00,3.795,3304,0.004,0.308,0.013,3.455,0.015,3.8
73,11349.00,11349.00,0.00,3.676,3400,0.004,0.313,0.013,3.330,0.016,3.8
74,6942.00,6942.00,0.00,3.558,2080,0.004,0.334,0.013,3.192,0.015,3.7
