Second,Ops/sec,Hits/sec,Misses/sec,Latency,KB/sec,Request_Creation_Time,Request_Buffer_Time,MW_Writes_To_Memcached_Time,Memcached_Process_Time,MW_Writes_To_Memtier_Time,Queue_Size
4,1222.00,1222.00,0.00,5.083,366,0.022,3.938,0.022,1.048,0.053,27.5
5,7712.00,7712.00,0.00,5.519,2311,0.006,4.479,0.008,1.012,0.014,31.6
6,7893.00,7893.00,0.00,5.611,2365,0.005,4.593,0.007,0.992,0.014,32.9
7,8248.00,8248.00,0.00,5.293,2471,0.005,4.321,0.007,0.947,0.014,32.9
8,8160.00,8160.00,0.00,5.381,2445,0.005,4.401,0.007,0.954,0.014,32.9
9,8062.00,8062.00,0.00,5.445,2416,0.004,4.447,0.007,0.973,0.014,33.1
10,7605.00,7605.00,0.00,5.783,2278,0.004,4.733,0.008,1.025,0.014,33.3
11,8123.00,8123.00,0.00,5.446,2433,0.004,4.457,0.007,0.964,0.014,32.9
12,7885.00,7885.00,0.00,5.577,2362,0.004,4.564,0.007,0.987,0.014,32.9
13,8119.00,8119.00,0.00,5.275,2432,0.004,4.284,0.007,0.967,0.014,32.1
14,8395.00,8395.00,0.00,5.127,2515,0.004,4.171,0.007,0.931,0.014,32.2
15,7781.00,7781.00,0.00,5.659,2331,0.003,4.633,0.007,1.003,0.014,33.0
16,8244.00,8244.00,0.00,5.341,2470,0.003,4.366,0.007,0.950,0.015,33.0
17,8405.00,8405.00,0.00,5.164,2518,0.003,4.211,0.007,0.929,0.014,32.3
18,8063.00,8063.00,0.00,5.472,2416,0.003,4.477,0.007,0.970,0.015,33.2
19,7993.00,7967.00,26.00,5.409,2387,0.004,4.415,0.008,0.967,0.015,32.6
20,8260.00,8238.00,22.00,5.321,2468,0.003,4.356,0.008,0.938,0.015,32.9
21,8162.00,8162.00,0.00,5.389,2445,0.003,4.410,0.009,0.951,0.016,33.3
22,8064.00,8064.00,0.00,5.433,2415,0.003,4.445,0.008,0.960,0.016,33.0
23,7884.00,7884.00,0.00,5.578,2362,0.003,4.561,0.008,0.991,0.015,33.0
24,8072.00,8072.00,0.00,5.454,2418,0.003,4.469,0.009,0.958,0.015,33.4
25,7637.00,7637.00,0.00,5.801,2288,0.004,4.753,0.009,1.020,0.015,33.5
26,7804.00,7804.00,0.00,5.547,2338,0.003,4.522,0.008,0.998,0.015,32.9
27,8126.00,8126.00,0.00,5.415,2435,0.004,4.430,0.008,0.958,0.015,33.3
28,8242.00,8242.00,0.00,5.366,2469,0.003,4.393,0.008,0.946,0.015,33.4
29,8369.00,8369.00,0.00,5.209,2508,0.004,4.257,0.007,0.926,0.015,32.7
30,8397.00,8397.00,0.00,5.221,2515,0.003,4.262,0.007,0.935,0.014,32.7
31,8298.00,8298.00,0.00,5.321,2485,0.003,4.359,0.007,0.938,0.014,32.6
32,8355.00,8355.00,0.00,5.258,2503,0.004,4.299,0.007,0.934,0.014,32.8
33,8475.00,8475.00,0.00,5.226,2539,0.003,4.277,0.007,0.925,0.014,33.1
34,8022.00,8022.00,0.00,5.456,2403,0.003,4.463,0.007,0.969,0.014,32.4
35,8230.00,8230.00,0.00,5.373,2465,0.004,4.392,0.007,0.957,0.014,32.8
36,8178.00,8178.00,0.00,5.365,2450,0.003,4.385,0.007,0.955,0.015,32.8
37,8004.00,8004.00,0.00,5.486,2398,0.003,4.483,0.007,0.978,0.014,32.9
38,8140.00,8140.00,0.00,5.385,2439,0.003,4.400,0.007,0.960,0.015,32.8
39,8099.00,8099.00,0.00,5.325,2426,0.003,4.342,0.007,0.960,0.014,32.6
40,7588.00,7588.00,0.00,5.832,2273,0.003,4.775,0.007,1.033,0.014,33.1
41,8219.00,8219.00,0.00,5.326,2462,0.003,4.345,0.007,0.957,0.014,32.6
42,8204.00,8204.00,0.00,5.297,2458,0.003,4.321,0.007,0.952,0.014,32.5
43,7880.00,7880.00,0.00,5.546,2361,0.004,4.534,0.007,0.987,0.014,32.6
44,8047.00,8047.00,0.00,5.491,2411,0.003,4.489,0.007,0.977,0.014,33.0
45,7905.00,7905.00,0.00,5.563,2369,0.003,4.550,0.007,0.990,0.014,33.3
46,7857.00,7856.00,1.00,5.617,2354,0.003,4.597,0.006,0.996,0.014,33.2
47,8203.00,8190.00,13.00,5.398,2454,0.003,4.422,0.007,0.951,0.014,33.1
48,8186.00,8165.00,21.00,5.317,2446,0.003,4.338,0.006,0.956,0.014,32.6
49,7577.00,7564.00,13.00,5.802,2266,0.003,4.744,0.007,1.034,0.014,32.7
50,8057.00,8057.00,0.00,5.479,2413,0.003,4.488,0.006,0.966,0.015,33.6
51,7605.00,7605.00,0.00,5.709,2278,0.003,4.651,0.006,1.033,0.015,32.6
52,8110.00,8110.00,0.00,5.414,2430,0.003,4.423,0.008,0.965,0.014,32.7
53,8717.00,8717.00,0.00,4.939,2611,0.004,4.022,0.007,0.892,0.014,32.3
54,8181.00,8181.00,0.00,5.305,2451,0.003,4.325,0.006,0.956,0.014,32.2
55,7701.00,7701.00,0.00,5.747,2307,0.003,4.706,0.007,1.017,0.014,33.3
56,8025.00,8025.00,0.00,5.488,2404,0.003,4.489,0.006,0.976,0.015,33.3
57,8244.00,8244.00,0.00,5.331,2470,0.003,4.359,0.006,0.949,0.014,33.0
58,7750.00,7750.00,0.00,5.686,2322,0.003,4.651,0.007,1.011,0.014,33.3
59,7945.00,7945.00,0.00,5.534,2380,0.003,4.527,0.006,0.984,0.014,33.0
60,7808.00,7808.00,0.00,5.660,2339,0.004,4.630,0.007,1.005,0.014,33.1
61,8148.00,8148.00,0.00,5.423,2441,0.003,4.441,0.007,0.957,0.014,33.2
62,7857.00,7857.00,0.00,5.626,2354,0.003,4.606,0.006,0.997,0.014,33.3
63,8214.00,8214.00,0.00,5.345,2461,0.004,4.372,0.007,0.948,0.014,32.7
64,7926.00,7926.00,0.00,5.607,2375,0.004,4.588,0.006,0.994,0.014,33.1
65,7728.00,7728.00,0.00,5.675,2316,0.003,4.642,0.007,1.009,0.014,32.9
66,8111.00,8111.00,0.00,5.391,2430,0.003,4.402,0.006,0.965,0.014,32.6
67,8155.00,8155.00,0.00,5.401,2443,0.003,4.414,0.007,0.963,0.014,32.8
68,7989.00,7989.00,0.00,5.530,2393,0.003,4.527,0.006,0.980,0.014,32.9
69,8433.00,8433.00,0.00,5.075,2526,0.003,4.128,0.007,0.923,0.015,32.1
70,7950.00,7950.00,0.00,5.480,2382,0.003,4.471,0.006,0.984,0.015,32.4
71,8017.00,8017.00,0.00,5.516,2402,0.003,4.512,0.006,0.981,0.014,32.6
72,8267.00,8267.00,0.00,5.317,2477,0.003,4.346,0.006,0.947,0.014,32.7
73,8147.00,8147.00,0.00,5.412,2441,0.003,4.427,0.007,0.961,0.014,33.0
74,6284.00,6284.00,0.00,5.536,1883,0.003,4.534,0.007,0.978,0.014,32.9
