Second,Ops/sec,Hits/sec,Misses/sec,Latency,KB/sec,Request_Creation_Time,Request_Buffer_Time,MW_Writes_To_Memcached_Time,Memcached_Process_Time,MW_Writes_To_Memtier_Time,Queue_Size
4,1758.00,1758.00,0.00,1.642,195,0.011,0.172,0.064,1.357,0.038,0.5
5,5831.00,5831.00,0.00,1.407,648,0.006,0.112,0.016,1.258,0.015,0.4
6,6697.00,6697.00,0.00,1.341,744,0.005,0.097,0.014,1.212,0.013,0.4
7,6352.00,6352.00,0.00,1.423,706,0.006,0.094,0.014,1.295,0.013,0.4
8,6459.00,6459.00,0.00,1.403,718,0.005,0.088,0.014,1.282,0.013,0.4
9,5939.00,5927.00,12.00,1.465,658,0.007,0.160,0.017,1.267,0.014,0.5
10,6857.00,6857.00,0.00,1.259,762,0.005,0.099,0.016,1.126,0.013,0.4
11,6435.00,6435.00,0.00,1.401,715,0.005,0.087,0.015,1.282,0.013,0.5
12,6462.00,6462.00,0.00,1.403,718,0.004,0.102,0.014,1.269,0.013,0.4
13,6320.00,6320.00,0.00,1.437,702,0.004,0.083,0.014,1.322,0.013,0.4
14,6565.00,6565.00,0.00,1.364,729,0.005,0.095,0.014,1.237,0.013,0.4
15,6278.00,6278.00,0.00,1.356,698,0.004,0.084,0.014,1.240,0.014,0.4
16,6110.00,6110.00,0.00,1.493,679,0.004,0.094,0.014,1.367,0.014,0.4
17,6749.00,6749.00,0.00,1.338,750,0.004,0.106,0.014,1.202,0.013,0.4
18,6440.00,6428.00,12.00,1.418,714,0.004,0.080,0.014,1.307,0.013,0.4
19,5985.00,5985.00,0.00,1.515,665,0.004,0.120,0.014,1.364,0.013,0.5
20,6425.00,6425.00,0.00,1.380,714,0.004,0.126,0.014,1.224,0.013,0.5
21,6747.00,6747.00,0.00,1.331,750,0.004,0.086,0.014,1.215,0.013,0.4
22,6456.00,6456.00,0.00,1.396,717,0.004,0.080,0.014,1.284,0.014,0.4
23,6486.00,6486.00,0.00,1.413,721,0.004,0.089,0.014,1.293,0.013,0.5
24,6225.00,6225.00,0.00,1.422,692,0.004,0.135,0.015,1.255,0.014,0.5
25,6459.00,6459.00,0.00,1.387,718,0.004,0.093,0.014,1.264,0.013,0.4
26,6551.00,6551.00,0.00,1.356,728,0.004,0.129,0.014,1.196,0.013,0.4
27,6420.00,6420.00,0.00,1.406,713,0.004,0.084,0.014,1.292,0.013,0.4
28,6305.00,6305.00,0.00,1.458,700,0.004,0.086,0.014,1.341,0.013,0.4
29,6276.00,6276.00,0.00,1.449,697,0.004,0.104,0.013,1.315,0.013,0.4
30,6667.00,6667.00,0.00,1.328,741,0.004,0.126,0.014,1.171,0.013,0.5
31,6338.00,6338.00,0.00,1.446,704,0.004,0.090,0.014,1.325,0.013,0.4
32,6623.00,6623.00,0.00,1.352,736,0.004,0.090,0.014,1.232,0.013,0.4
33,6642.00,6642.00,0.00,1.364,738,0.004,0.084,0.014,1.249,0.013,0.4
34,6053.00,6053.00,0.00,1.506,672,0.004,0.101,0.015,1.373,0.014,0.4
35,6303.00,6303.00,0.00,1.427,700,0.004,0.118,0.013,1.279,0.013,0.5
36,6696.00,6696.00,0.00,1.330,744,0.004,0.115,0.014,1.185,0.013,0.4
37,6484.00,6484.00,0.00,1.392,720,0.004,0.097,0.013,1.266,0.013,0.5
38,6429.00,6429.00,0.00,1.405,714,0.004,0.086,0.014,1.288,0.013,0.4
39,6442.00,6442.00,0.00,1.393,716,0.004,0.104,0.014,1.258,0.013,0.4
40,6390.00,6390.00,0.00,1.402,710,0.004,0.114,0.015,1.256,0.013,0.5
41,6431.00,6428.00,3.00,1.424,714,0.004,0.102,0.014,1.291,0.013,0.4
42,6731.00,6726.00,5.00,1.320,748,0.004,0.106,0.014,1.183,0.013,0.4
43,6374.00,6370.00,4.00,1.408,708,0.004,0.091,0.014,1.286,0.013,0.5
44,6061.00,6058.00,3.00,1.516,673,0.004,0.094,0.014,1.389,0.014,0.5
45,6846.00,6838.00,8.00,1.337,760,0.004,0.091,0.014,1.215,0.013,0.5
46,6752.00,6744.00,8.00,1.325,749,0.005,0.100,0.014,1.193,0.013,0.5
47,6481.00,6476.00,5.00,1.404,720,0.004,0.098,0.014,1.275,0.013,0.5
48,6497.00,6497.00,0.00,1.369,722,0.004,0.092,0.014,1.246,0.013,0.4
49,6378.00,6378.00,0.00,1.390,709,0.004,0.100,0.014,1.259,0.013,0.5
50,6494.00,6494.00,0.00,1.389,721,0.004,0.116,0.015,1.240,0.013,0.5
51,6595.00,6595.00,0.00,1.327,733,0.004,0.126,0.014,1.170,0.014,0.6
52,6311.00,6311.00,0.00,1.418,701,0.004,0.107,0.014,1.281,0.013,0.5
53,6651.00,6651.00,0.00,1.367,739,0.004,0.118,0.014,1.219,0.013,0.5
54,6317.00,6317.00,0.00,1.425,702,0.004,0.117,0.013,1.277,0.013,0.5
55,6473.00,6473.00,0.00,1.373,719,0.004,0.109,0.014,1.234,0.013,0.5
56,5930.00,5930.00,0.00,1.517,659,0.004,0.157,0.014,1.328,0.013,0.6
57,6524.00,6524.00,0.00,1.370,725,0.004,0.121,0.014,1.217,0.014,0.5
58,6660.00,6660.00,0.00,1.370,740,0.004,0.101,0.015,1.236,0.014,0.5
59,6482.00,6482.00,0.00,1.384,720,0.004,0.103,0.014,1.251,0.013,0.5
60,6568.00,6568.00,0.00,1.343,730,0.004,0.115,0.014,1.195,0.015,0.5
61,6519.00,6519.00,0.00,1.375,724,0.004,0.121,0.014,1.223,0.013,0.4
62,6352.00,6352.00,0.00,1.430,706,0.004,0.123,0.014,1.277,0.013,0.5
63,6669.00,6669.00,0.00,1.313,741,0.004,0.106,0.014,1.176,0.013,0.4
64,6471.00,6471.00,0.00,1.398,719,0.004,0.105,0.014,1.262,0.014,0.4
65,6637.00,6637.00,0.00,1.324,737,0.004,0.103,0.014,1.190,0.013,0.4
66,6747.00,6747.00,0.00,1.339,750,0.004,0.110,0.013,1.200,0.013,0.4
67,6512.00,6512.00,0.00,1.371,724,0.004,0.119,0.014,1.221,0.014,0.5
68,6734.00,6734.00,0.00,1.341,748,0.004,0.086,0.014,1.224,0.013,0.4
69,6409.00,6409.00,0.00,1.403,712,0.004,0.093,0.013,1.280,0.013,0.4
70,6827.00,6827.00,0.00,1.311,758,0.004,0.089,0.013,1.192,0.013,0.5
71,6564.00,6564.00,0.00,1.399,729,0.004,0.080,0.014,1.289,0.013,0.4
72,6630.00,6630.00,0.00,1.362,737,0.004,0.108,0.014,1.222,0.013,0.5
73,6804.00,6804.00,0.00,1.313,756,0.004,0.101,0.013,1.182,0.013,0.4
74,4335.00,4335.00,0.00,1.357,482,0.004,0.088,0.014,1.238,0.013,0.3
