Second,Ops/sec,Hits/sec,Misses/sec,Latency,KB/sec,Request_Creation_Time,Request_Buffer_Time,MW_Writes_To_Memcached_Time,Memcached_Process_Time,MW_Writes_To_Memtier_Time,Queue_Size
4,1817.00,1817.00,0.00,1.444,545,0.024,0.147,0.061,1.177,0.035,0.4
5,5747.00,5747.00,0.00,1.505,1722,0.007,0.111,0.015,1.356,0.017,0.6
6,5874.00,5874.00,0.00,1.569,1760,0.005,0.092,0.014,1.445,0.013,0.4
7,6225.00,6225.00,0.00,1.440,1865,0.005,0.128,0.014,1.279,0.014,0.5
8,6169.00,6169.00,0.00,1.472,1848,0.005,0.101,0.015,1.337,0.014,0.5
9,5438.00,5430.00,8.00,1.639,1627,0.007,0.160,0.016,1.441,0.015,0.6
10,5990.00,5986.00,4.00,1.501,1793,0.006,0.087,0.016,1.378,0.014,0.4
11,6287.00,6287.00,0.00,1.442,1883,0.004,0.099,0.015,1.310,0.014,0.5
12,6159.00,6159.00,0.00,1.467,1845,0.005,0.104,0.015,1.329,0.014,0.5
13,6196.00,6196.00,0.00,1.485,1856,0.005,0.107,0.015,1.342,0.015,0.5
14,6503.00,6503.00,0.00,1.349,1948,0.005,0.125,0.015,1.190,0.014,0.6
15,5957.00,5957.00,0.00,1.448,1785,0.005,0.105,0.015,1.309,0.014,0.5
16,6000.00,6000.00,0.00,1.462,1797,0.005,0.096,0.015,1.333,0.014,0.4
17,6525.00,6525.00,0.00,1.381,1955,0.004,0.096,0.014,1.254,0.013,0.5
18,6318.00,6314.00,4.00,1.433,1892,0.004,0.084,0.014,1.317,0.014,0.4
19,6463.00,6455.00,8.00,1.375,1934,0.004,0.097,0.015,1.245,0.015,0.5
20,6587.00,6587.00,0.00,1.391,1973,0.004,0.098,0.014,1.261,0.014,0.5
21,6079.00,6079.00,0.00,1.509,1821,0.004,0.091,0.015,1.386,0.013,0.4
22,6506.00,6506.00,0.00,1.383,1949,0.005,0.086,0.014,1.265,0.013,0.4
23,6103.00,6103.00,0.00,1.466,1829,0.004,0.126,0.014,1.309,0.013,0.5
24,5970.00,5970.00,0.00,1.500,1789,0.004,0.118,0.014,1.349,0.015,0.5
25,5665.00,5665.00,0.00,1.561,1697,0.004,0.157,0.013,1.374,0.013,0.7
26,5683.00,5683.00,0.00,1.536,1703,0.004,0.294,0.014,1.210,0.013,0.9
27,6485.00,6485.00,0.00,1.339,1943,0.004,0.096,0.015,1.211,0.014,0.5
28,6454.00,6454.00,0.00,1.416,1934,0.004,0.105,0.014,1.278,0.014,0.4
29,6057.00,6057.00,0.00,1.458,1815,0.004,0.159,0.015,1.267,0.014,0.7
30,6655.00,6655.00,0.00,1.327,1994,0.004,0.096,0.014,1.199,0.014,0.5
31,5793.00,5793.00,0.00,1.590,1736,0.004,0.102,0.015,1.454,0.014,0.4
32,6711.00,6711.00,0.00,1.300,2011,0.005,0.107,0.014,1.162,0.013,0.5
33,6554.00,6554.00,0.00,1.350,1964,0.004,0.095,0.014,1.224,0.014,0.4
34,6372.00,6372.00,0.00,1.436,1909,0.004,0.103,0.014,1.302,0.013,0.5
35,6209.00,6209.00,0.00,1.480,1860,0.004,0.135,0.014,1.313,0.014,0.5
36,6115.00,6115.00,0.00,1.476,1832,0.004,0.132,0.015,1.310,0.015,0.5
37,6121.00,6121.00,0.00,1.474,1834,0.004,0.136,0.015,1.306,0.013,0.5
38,6334.00,6334.00,0.00,1.398,1898,0.004,0.096,0.015,1.269,0.013,0.5
39,6674.00,6674.00,0.00,1.322,1999,0.004,0.092,0.014,1.199,0.013,0.4
40,6826.00,6826.00,0.00,1.302,2045,0.004,0.098,0.014,1.172,0.013,0.4
41,6669.00,6669.00,0.00,1.293,1998,0.005,0.144,0.014,1.116,0.014,0.6
42,6544.00,6541.00,3.00,1.364,1960,0.005,0.106,0.014,1.226,0.013,0.5
43,6443.00,6439.00,4.00,1.399,1929,0.004,0.097,0.014,1.270,0.013,0.5
44,6578.00,6572.00,6.00,1.348,1969,0.005,0.084,0.014,1.231,0.014,0.4
45,6188.00,6185.00,3.00,1.466,1853,0.005,0.114,0.014,1.319,0.013,0.5
46,6244.00,6238.00,6.00,1.471,1869,0.004,0.090,0.014,1.350,0.013,0.4
47,6688.00,6681.00,7.00,1.324,2002,0.004,0.089,0.014,1.203,0.014,0.4
48,6772.00,6767.00,5.00,1.325,2027,0.004,0.087,0.014,1.207,0.013,0.4
49,6274.00,6272.00,2.00,1.425,1879,0.004,0.087,0.014,1.308,0.013,0.4
50,6598.00,6598.00,0.00,1.363,1977,0.004,0.080,0.015,1.251,0.013,0.4
51,6152.00,6152.00,0.00,1.464,1843,0.004,0.107,0.014,1.326,0.013,0.4
52,6275.00,6275.00,0.00,1.478,1880,0.004,0.092,0.014,1.355,0.013,0.4
53,6481.00,6481.00,0.00,1.389,1941,0.004,0.106,0.014,1.252,0.013,0.5
54,6531.00,6531.00,0.00,1.394,1956,0.004,0.086,0.014,1.277,0.013,0.4
55,6117.00,6117.00,0.00,1.484,1833,0.004,0.100,0.014,1.352,0.013,0.5
56,6418.00,6418.00,0.00,1.431,1923,0.004,0.104,0.014,1.297,0.014,0.5
57,6430.00,6430.00,0.00,1.416,1926,0.004,0.085,0.014,1.300,0.013,0.4
58,6382.00,6382.00,0.00,1.399,1912,0.004,0.089,0.014,1.279,0.013,0.4
59,6238.00,6238.00,0.00,1.459,1869,0.004,0.120,0.014,1.308,0.013,0.6
60,6288.00,6288.00,0.00,1.420,1884,0.004,0.101,0.013,1.290,0.013,0.5
61,6325.00,6325.00,0.00,1.445,1895,0.004,0.081,0.015,1.331,0.013,0.4
62,6351.00,6351.00,0.00,1.447,1903,0.004,0.107,0.013,1.310,0.013,0.5
63,6393.00,6393.00,0.00,1.400,1915,0.004,0.096,0.015,1.272,0.013,0.4
64,6376.00,6376.00,0.00,1.393,1910,0.005,0.109,0.014,1.251,0.014,0.5
65,6385.00,6385.00,0.00,1.419,1913,0.004,0.088,0.014,1.299,0.014,0.4
66,6300.00,6300.00,0.00,1.439,1887,0.004,0.092,0.015,1.316,0.013,0.4
67,6359.00,6359.00,0.00,1.432,1905,0.004,0.091,0.014,1.310,0.014,0.4
68,6505.00,6505.00,0.00,1.389,1949,0.004,0.094,0.014,1.264,0.014,0.4
69,6396.00,6396.00,0.00,1.421,1916,0.004,0.102,0.014,1.288,0.013,0.5
70,6221.00,6221.00,0.00,1.421,1864,0.004,0.103,0.015,1.285,0.014,0.4
71,6125.00,6125.00,0.00,1.483,1835,0.004,0.093,0.013,1.358,0.015,0.5
72,6688.00,6688.00,0.00,1.314,2004,0.005,0.088,0.014,1.194,0.013,0.4
73,6304.00,6304.00,0.00,1.431,1889,0.004,0.109,0.013,1.291,0.013,0.5
74,4157.00,4157.00,0.00,1.396,1245,0.005,0.101,0.014,1.264,0.013,0.4
