Second,Ops/sec,Hits/sec,Misses/sec,Latency,KB/sec,Request_Creation_Time,Request_Buffer_Time,MW_Writes_To_Memcached_Time,Memcached_Process_Time,MW_Writes_To_Memtier_Time,Queue_Size
4,3835.00,3835.00,0.00,5.754,2108,0.017,3.211,0.034,2.440,0.052,31.9
5,9993.00,9993.00,0.00,8.723,5493,0.005,5.519,0.010,3.173,0.016,44.0
6,10095.00,10095.00,0.00,8.953,5549,0.005,5.783,0.010,3.139,0.016,46.0
7,9865.00,9865.00,0.00,9.103,5422,0.005,5.870,0.010,3.204,0.015,46.9
8,10299.00,10299.00,0.00,8.746,5660,0.005,5.625,0.009,3.093,0.014,45.8
9,9975.00,9975.00,0.00,8.979,5483,0.004,5.769,0.009,3.181,0.016,46.2
10,9912.00,9912.00,0.00,9.019,5447,0.004,5.792,0.010,3.198,0.015,46.0
11,10129.00,10129.00,0.00,8.831,5567,0.004,5.667,0.009,3.136,0.015,46.0
12,9904.00,9904.00,0.00,8.907,5443,0.005,5.678,0.010,3.198,0.016,45.2
13,9800.00,9800.00,0.00,9.142,5385,0.004,5.875,0.009,3.239,0.015,46.6
14,9979.00,9979.00,0.00,8.920,5484,0.003,5.727,0.009,3.167,0.015,46.1
15,10086.00,10086.00,0.00,8.901,5543,0.003,5.719,0.008,3.155,0.015,45.9
16,9882.00,9882.00,0.00,9.083,5431,0.003,5.858,0.008,3.198,0.015,47.2
17,9888.00,9888.00,0.00,8.863,5434,0.003,5.683,0.009,3.153,0.016,46.2
18,10095.00,10095.00,0.00,9.039,5548,0.003,5.829,0.009,3.182,0.015,46.7
19,10189.00,10189.00,0.00,8.859,5600,0.003,5.711,0.009,3.122,0.014,46.0
20,9952.00,9952.00,0.00,8.951,5470,0.003,5.745,0.008,3.180,0.014,46.1
21,10019.00,10019.00,0.00,8.924,5506,0.003,5.732,0.009,3.164,0.016,46.3
22,10086.00,10086.00,0.00,8.957,5543,0.003,5.779,0.009,3.151,0.016,47.3
23,10044.00,10044.00,0.00,8.902,5520,0.004,5.707,0.008,3.169,0.015,45.4
24,10014.00,10014.00,0.00,8.981,5504,0.003,5.783,0.008,3.171,0.016,45.8
25,9919.00,9919.00,0.00,9.008,5452,0.003,5.794,0.008,3.188,0.015,46.0
26,10078.00,10078.00,0.00,8.857,5539,0.003,5.678,0.009,3.151,0.015,46.4
27,10060.00,10051.00,9.00,8.941,5524,0.004,5.763,0.011,3.146,0.017,47.2
28,10016.00,9974.00,42.00,8.949,5481,0.003,5.766,0.011,3.152,0.017,47.0
29,10151.00,10114.00,37.00,8.860,5558,0.004,5.704,0.012,3.125,0.016,46.1
30,9883.00,9875.00,8.00,9.024,5427,0.003,5.803,0.010,3.193,0.016,46.4
31,10037.00,10037.00,0.00,8.946,5515,0.004,5.757,0.011,3.158,0.017,46.1
32,10140.00,10140.00,0.00,8.735,5572,0.003,5.590,0.010,3.115,0.016,44.7
33,10086.00,10086.00,0.00,8.898,5543,0.004,5.731,0.011,3.137,0.016,46.6
34,10049.00,10049.00,0.00,8.978,5523,0.004,5.789,0.010,3.158,0.016,46.6
35,9943.00,9943.00,0.00,9.036,5464,0.004,5.818,0.010,3.188,0.016,46.9
36,9989.00,9989.00,0.00,8.977,5490,0.003,5.777,0.009,3.174,0.015,46.0
37,9888.00,9888.00,0.00,8.965,5434,0.004,5.746,0.009,3.190,0.016,46.6
38,10159.00,10159.00,0.00,8.796,5583,0.004,5.636,0.009,3.132,0.015,45.9
39,10038.00,10038.00,0.00,8.961,5517,0.003,5.770,0.009,3.162,0.016,46.3
40,9978.00,9978.00,0.00,9.020,5484,0.003,5.818,0.009,3.174,0.015,47.1
41,10178.00,10178.00,0.00,8.818,5594,0.004,5.667,0.009,3.124,0.015,45.7
42,10236.00,10236.00,0.00,8.763,5626,0.003,5.637,0.009,3.099,0.015,46.3
43,10157.00,10157.00,0.00,8.843,5583,0.003,5.693,0.008,3.123,0.015,46.5
44,10139.00,10139.00,0.00,8.817,5573,0.004,5.661,0.009,3.127,0.016,45.5
45,9960.00,9960.00,0.00,8.997,5474,0.004,5.786,0.008,3.184,0.015,46.0
46,10149.00,10149.00,0.00,8.832,5577,0.003,5.677,0.008,3.129,0.015,46.4
47,9971.00,9971.00,0.00,8.986,5480,0.003,5.783,0.008,3.176,0.014,46.4
48,10096.00,10096.00,0.00,8.803,5548,0.003,5.638,0.009,3.138,0.015,46.3
49,10108.00,10108.00,0.00,8.977,5555,0.003,5.797,0.008,3.154,0.015,47.1
50,10043.00,10043.00,0.00,8.965,5519,0.003,5.790,0.008,3.150,0.015,47.2
51,10116.00,10116.00,0.00,8.828,5559,0.003,5.671,0.008,3.130,0.015,45.6
52,9920.00,9920.00,0.00,9.066,5452,0.003,5.847,0.008,3.192,0.015,47.1
53,9903.00,9903.00,0.00,9.102,5442,0.003,5.878,0.009,3.196,0.015,46.7
54,10059.00,10059.00,0.00,8.973,5528,0.004,5.785,0.008,3.161,0.015,47.4
55,10007.00,10007.00,0.00,8.990,5499,0.003,5.799,0.008,3.166,0.015,47.4
56,10166.00,10166.00,0.00,8.906,5587,0.003,5.747,0.008,3.132,0.015,46.8
57,9933.00,9933.00,0.00,9.045,5459,0.003,5.824,0.008,3.196,0.014,46.9
58,10263.00,10263.00,0.00,8.795,5640,0.003,5.673,0.008,3.096,0.015,46.7
59,10105.00,10105.00,0.00,8.928,5554,0.003,5.764,0.008,3.138,0.015,46.8
60,10065.00,10065.00,0.00,8.945,5532,0.004,5.763,0.008,3.154,0.015,46.4
61,10032.00,10032.00,0.00,8.855,5513,0.004,5.686,0.008,3.142,0.016,46.0
62,10080.00,10080.00,0.00,8.887,5540,0.003,5.712,0.009,3.147,0.015,45.4
63,10239.00,10239.00,0.00,8.776,5627,0.004,5.658,0.008,3.091,0.014,46.1
64,10018.00,10018.00,0.00,9.017,5505,0.003,5.825,0.009,3.165,0.015,46.9
65,10012.00,10012.00,0.00,8.908,5502,0.003,5.706,0.009,3.175,0.015,46.2
66,10156.00,10156.00,0.00,8.796,5582,0.003,5.647,0.008,3.123,0.015,45.8
67,10106.00,10106.00,0.00,8.929,5554,0.003,5.761,0.009,3.140,0.015,46.6
68,10109.00,10109.00,0.00,8.887,5556,0.003,5.721,0.008,3.140,0.014,46.5
69,10012.00,10012.00,0.00,8.905,5503,0.003,5.707,0.008,3.171,0.016,45.2
70,10032.00,10031.00,1.00,8.867,5513,0.003,5.694,0.008,3.147,0.015,45.5
71,10096.00,10089.00,7.00,8.911,5545,0.004,5.733,0.008,3.150,0.016,46.2
72,10011.00,10002.00,9.00,9.013,5497,0.003,5.809,0.008,3.178,0.015,46.0
73,10189.00,10172.00,17.00,8.773,5591,0.004,5.648,0.008,3.098,0.015,45.1
74,6562.00,6554.00,8.00,9.005,3602,0.004,5.759,0.008,3.219,0.016,44.8
