Second,Ops/sec,Hits/sec,Misses/sec,Latency,KB/sec,Request_Creation_Time,Request_Buffer_Time,MW_Writes_To_Memcached_Time,Memcached_Process_Time,MW_Writes_To_Memtier_Time,Queue_Size
4,1409.00,1409.00,0.00,2.636,157,0.020,1.494,0.020,1.072,0.029,7.8
5,7356.00,7356.00,0.00,2.642,818,0.007,1.557,0.009,1.052,0.017,8.6
6,8300.00,8300.00,0.00,2.404,922,0.006,1.445,0.007,0.931,0.014,9.4
7,8204.00,8204.00,0.00,2.470,911,0.005,1.500,0.008,0.942,0.014,9.6
8,7952.00,7952.00,0.00,2.586,884,0.005,1.581,0.007,0.979,0.013,9.8
9,7921.00,7921.00,0.00,2.596,880,0.005,1.582,0.007,0.988,0.014,9.9
10,8206.00,8206.00,0.00,2.447,912,0.005,1.476,0.007,0.944,0.014,9.5
11,8024.00,8024.00,0.00,2.517,892,0.005,1.521,0.008,0.969,0.014,9.5
12,7795.00,7771.00,24.00,2.619,863,0.005,1.592,0.008,0.999,0.016,9.7
13,8273.00,8273.00,0.00,2.403,919,0.004,1.445,0.007,0.933,0.014,9.4
14,7667.00,7667.00,0.00,2.573,852,0.004,1.537,0.007,1.011,0.014,9.3
15,8181.00,8181.00,0.00,2.513,909,0.004,1.529,0.006,0.959,0.015,9.7
16,8040.00,8040.00,0.00,2.518,894,0.004,1.527,0.007,0.967,0.014,9.8
17,8161.00,8161.00,0.00,2.499,907,0.004,1.513,0.007,0.963,0.014,9.5
18,7721.00,7721.00,0.00,2.659,858,0.004,1.622,0.006,1.013,0.014,9.8
19,7950.00,7950.00,0.00,2.536,883,0.003,1.536,0.006,0.976,0.014,9.7
20,8023.00,8023.00,0.00,2.591,891,0.004,1.586,0.006,0.981,0.014,10.0
21,7978.00,7978.00,0.00,2.526,887,0.004,1.528,0.007,0.974,0.014,9.3
22,8171.00,8171.00,0.00,2.479,908,0.004,1.495,0.007,0.959,0.014,9.4
23,8372.00,8372.00,0.00,2.431,930,0.004,1.480,0.006,0.928,0.014,9.7
24,7989.00,7989.00,0.00,2.535,888,0.004,1.538,0.007,0.973,0.014,9.6
25,8075.00,8075.00,0.00,2.503,898,0.004,1.521,0.006,0.958,0.014,9.7
26,7955.00,7940.00,15.00,2.560,882,0.004,1.554,0.007,0.981,0.014,9.4
27,7826.00,7817.00,9.00,2.615,868,0.004,1.593,0.007,0.998,0.014,9.6
28,8407.00,8407.00,0.00,2.369,934,0.004,1.422,0.006,0.923,0.014,9.3
29,7735.00,7735.00,0.00,2.546,859,0.004,1.523,0.007,0.999,0.014,9.5
30,8003.00,8003.00,0.00,2.569,889,0.004,1.564,0.006,0.981,0.014,9.7
31,8358.00,8358.00,0.00,2.410,929,0.004,1.455,0.007,0.931,0.014,9.6
32,8271.00,8271.00,0.00,2.454,919,0.004,1.494,0.007,0.936,0.014,9.7
33,7961.00,7961.00,0.00,2.588,885,0.004,1.576,0.006,0.988,0.014,9.7
34,7943.00,7943.00,0.00,2.572,883,0.003,1.568,0.006,0.980,0.014,9.9
35,7972.00,7972.00,0.00,2.558,886,0.004,1.553,0.006,0.980,0.014,9.7
36,8024.00,8024.00,0.00,2.531,892,0.004,1.534,0.006,0.973,0.014,9.8
37,8292.00,8292.00,0.00,2.445,921,0.004,1.486,0.007,0.936,0.014,9.7
38,8176.00,8176.00,0.00,2.492,909,0.004,1.512,0.006,0.957,0.014,9.3
39,7900.00,7900.00,0.00,2.563,878,0.004,1.549,0.006,0.989,0.015,9.4
40,8142.00,8142.00,0.00,2.506,905,0.004,1.519,0.006,0.963,0.014,9.5
41,8132.00,8132.00,0.00,2.520,904,0.003,1.535,0.006,0.961,0.014,9.7
42,7913.00,7913.00,0.00,2.576,879,0.004,1.565,0.006,0.987,0.014,9.5
43,8085.00,8085.00,0.00,2.481,898,0.004,1.496,0.007,0.960,0.014,9.6
44,8080.00,8080.00,0.00,2.509,898,0.004,1.519,0.006,0.966,0.014,9.4
45,8407.00,8407.00,0.00,2.343,934,0.004,1.403,0.007,0.915,0.015,9.2
46,8103.00,8103.00,0.00,2.540,900,0.003,1.552,0.007,0.964,0.014,9.7
47,7992.00,7992.00,0.00,2.538,888,0.004,1.538,0.007,0.975,0.015,9.4
48,8064.00,8064.00,0.00,2.546,896,0.004,1.548,0.006,0.974,0.014,9.6
49,7770.00,7770.00,0.00,2.634,863,0.004,1.603,0.007,1.006,0.014,9.4
50,8039.00,8039.00,0.00,2.511,893,0.004,1.518,0.006,0.968,0.015,9.8
51,7963.00,7963.00,0.00,2.530,885,0.004,1.532,0.006,0.974,0.014,9.7
52,7829.00,7829.00,0.00,2.639,870,0.004,1.615,0.006,1.001,0.014,10.0
53,8173.00,8173.00,0.00,2.474,908,0.004,1.500,0.007,0.949,0.014,9.6
54,8181.00,8181.00,0.00,2.477,909,0.004,1.499,0.006,0.954,0.014,9.6
55,8040.00,8040.00,0.00,2.553,893,0.004,1.549,0.006,0.979,0.014,9.6
56,7906.00,7906.00,0.00,2.559,878,0.004,1.556,0.006,0.979,0.014,9.5
57,8070.00,8070.00,0.00,2.505,897,0.004,1.518,0.006,0.963,0.014,9.7
58,8029.00,8029.00,0.00,2.538,892,0.003,1.544,0.006,0.970,0.015,9.7
59,8003.00,8003.00,0.00,2.533,889,0.004,1.527,0.006,0.982,0.014,9.5
60,8301.00,8301.00,0.00,2.471,922,0.004,1.505,0.006,0.940,0.015,9.6
61,8030.00,8030.00,0.00,2.562,892,0.004,1.565,0.006,0.973,0.014,9.8
62,8041.00,8041.00,0.00,2.500,894,0.003,1.506,0.006,0.971,0.014,9.7
63,8133.00,8128.00,5.00,2.543,903,0.004,1.555,0.006,0.964,0.014,9.8
64,7817.00,7812.00,5.00,2.636,868,0.004,1.612,0.006,1.001,0.014,9.7
65,7805.00,7799.00,6.00,2.608,867,0.003,1.587,0.007,0.998,0.014,9.9
66,8165.00,8159.00,6.00,2.491,907,0.004,1.505,0.006,0.962,0.014,9.4
67,8087.00,8085.00,2.00,2.512,898,0.005,1.525,0.007,0.962,0.014,9.7
68,8159.00,8153.00,6.00,2.506,906,0.003,1.532,0.006,0.950,0.014,9.8
69,8034.00,8028.00,6.00,2.527,892,0.004,1.533,0.007,0.970,0.014,9.5
70,7946.00,7930.00,16.00,2.593,881,0.004,1.584,0.006,0.985,0.014,9.7
71,8109.00,8103.00,6.00,2.512,900,0.004,1.525,0.008,0.962,0.014,9.7
72,8217.00,8207.00,10.00,2.475,912,0.004,1.501,0.007,0.950,0.014,9.6
73,7965.00,7963.00,2.00,2.578,885,0.004,1.572,0.006,0.982,0.014,9.7
74,6274.00,6273.00,1.00,2.491,697,0.003,1.514,0.006,0.953,0.014,9.8
