Second,Ops/sec,Hits/sec,Misses/sec,Latency,KB/sec,Request_Creation_Time,Request_Buffer_Time,MW_Writes_To_Memcached_Time,Memcached_Process_Time,MW_Writes_To_Memtier_Time,Queue_Size
4,1785.00,1785.00,0.00,1.496,535,0.020,0.132,0.061,1.236,0.046,0.6
5,4379.00,4379.00,0.00,1.915,1312,0.006,0.109,0.016,1.767,0.017,0.4
6,6221.00,6221.00,0.00,1.416,1864,0.006,0.095,0.015,1.286,0.014,0.4
7,6211.00,6211.00,0.00,1.447,1861,0.006,0.101,0.014,1.311,0.014,0.4
8,6388.00,6388.00,0.00,1.410,1914,0.005,0.121,0.014,1.257,0.013,0.5
9,6303.00,6293.00,10.00,1.391,1885,0.005,0.105,0.016,1.251,0.014,0.4
10,5992.00,5990.00,2.00,1.503,1794,0.008,0.096,0.014,1.371,0.014,0.4
11,6146.00,6146.00,0.00,1.481,1841,0.005,0.105,0.014,1.343,0.014,0.4
12,6819.00,6819.00,0.00,1.276,2043,0.005,0.095,0.015,1.149,0.013,0.3
13,6663.00,6663.00,0.00,1.315,1996,0.004,0.085,0.014,1.198,0.014,0.4
14,6731.00,6731.00,0.00,1.271,2016,0.005,0.119,0.015,1.119,0.013,0.4
15,6528.00,6528.00,0.00,1.365,1956,0.004,0.113,0.014,1.219,0.013,0.4
16,6280.00,6280.00,0.00,1.433,1881,0.005,0.089,0.014,1.312,0.013,0.4
17,6538.00,6538.00,0.00,1.383,1959,0.004,0.094,0.015,1.257,0.013,0.4
18,6307.00,6298.00,9.00,1.442,1887,0.004,0.089,0.014,1.322,0.014,0.4
19,6368.00,6365.00,3.00,1.391,1907,0.004,0.096,0.014,1.263,0.013,0.4
20,6332.00,6332.00,0.00,1.480,1897,0.003,0.086,0.014,1.363,0.014,0.4
21,6455.00,6455.00,0.00,1.388,1934,0.004,0.116,0.014,1.241,0.013,0.5
22,6433.00,6433.00,0.00,1.424,1927,0.004,0.085,0.014,1.308,0.013,0.4
23,6300.00,6300.00,0.00,1.457,1888,0.003,0.105,0.014,1.321,0.014,0.4
24,6277.00,6277.00,0.00,1.445,1881,0.003,0.096,0.014,1.318,0.013,0.4
25,6557.00,6557.00,0.00,1.369,1964,0.003,0.091,0.014,1.247,0.013,0.4
26,6281.00,6281.00,0.00,1.466,1882,0.004,0.091,0.014,1.344,0.014,0.4
27,6386.00,6386.00,0.00,1.435,1913,0.004,0.084,0.014,1.319,0.014,0.4
28,6886.00,6886.00,0.00,1.308,2063,0.004,0.087,0.014,1.191,0.013,0.4
29,6469.00,6469.00,0.00,1.379,1938,0.003,0.085,0.014,1.262,0.014,0.3
30,6368.00,6368.00,0.00,1.438,1908,0.004,0.113,0.014,1.294,0.013,0.5
31,6245.00,6245.00,0.00,1.415,1871,0.005,0.105,0.014,1.277,0.013,0.4
32,6424.00,6424.00,0.00,1.415,1925,0.004,0.081,0.014,1.303,0.014,0.4
33,6507.00,6507.00,0.00,1.398,1949,0.004,0.095,0.014,1.271,0.014,0.4
34,6243.00,6243.00,0.00,1.456,1870,0.004,0.102,0.014,1.324,0.014,0.4
35,5943.00,5943.00,0.00,1.510,1780,0.004,0.122,0.014,1.356,0.013,0.5
36,6368.00,6368.00,0.00,1.374,1908,0.004,0.151,0.014,1.191,0.014,0.5
37,6603.00,6603.00,0.00,1.371,1978,0.003,0.082,0.014,1.260,0.013,0.4
38,6211.00,6211.00,0.00,1.468,1861,0.003,0.118,0.015,1.318,0.013,0.4
39,6717.00,6717.00,0.00,1.330,2012,0.003,0.084,0.014,1.215,0.013,0.4
40,6386.00,6386.00,0.00,1.400,1913,0.004,0.105,0.014,1.262,0.016,0.5
41,6323.00,6322.00,1.00,1.455,1894,0.003,0.117,0.014,1.308,0.013,0.4
42,6536.00,6529.00,7.00,1.376,1956,0.004,0.091,0.014,1.254,0.013,0.4
43,6399.00,6397.00,2.00,1.408,1917,0.003,0.106,0.014,1.271,0.013,0.5
44,6206.00,6203.00,3.00,1.447,1858,0.004,0.114,0.014,1.303,0.013,0.5
45,5183.00,5178.00,5.00,1.777,1551,0.004,0.138,0.014,1.609,0.013,0.7
46,6315.00,6306.00,9.00,1.446,1889,0.003,0.097,0.014,1.318,0.014,0.4
47,6589.00,6584.00,5.00,1.375,1972,0.004,0.112,0.013,1.233,0.013,0.4
48,6623.00,6620.00,3.00,1.368,1983,0.004,0.091,0.014,1.247,0.013,0.4
49,6613.00,6612.00,1.00,1.354,1981,0.004,0.092,0.014,1.231,0.014,0.4
50,6261.00,6261.00,0.00,1.448,1876,0.004,0.110,0.014,1.306,0.014,0.5
51,6363.00,6363.00,0.00,1.399,1906,0.005,0.107,0.014,1.259,0.014,0.5
52,6569.00,6569.00,0.00,1.365,1968,0.004,0.091,0.014,1.243,0.013,0.5
53,6735.00,6735.00,0.00,1.327,2017,0.003,0.089,0.014,1.208,0.013,0.4
54,6252.00,6252.00,0.00,1.473,1873,0.004,0.111,0.014,1.331,0.013,0.4
55,6417.00,6417.00,0.00,1.410,1923,0.004,0.102,0.014,1.276,0.014,0.5
56,6424.00,6424.00,0.00,1.402,1925,0.003,0.099,0.014,1.272,0.013,0.4
57,6274.00,6274.00,0.00,1.438,1880,0.006,0.107,0.014,1.298,0.014,0.5
58,6533.00,6533.00,0.00,1.385,1957,0.004,0.098,0.014,1.256,0.014,0.4
59,6628.00,6628.00,0.00,1.369,1985,0.003,0.112,0.014,1.225,0.014,0.4
60,6179.00,6179.00,0.00,1.501,1851,0.004,0.106,0.014,1.364,0.013,0.4
61,6044.00,6044.00,0.00,1.485,1811,0.004,0.147,0.014,1.307,0.013,0.5
62,6262.00,6262.00,0.00,1.441,1876,0.003,0.104,0.014,1.306,0.014,0.5
63,6370.00,6370.00,0.00,1.428,1908,0.004,0.105,0.014,1.291,0.013,0.5
64,6545.00,6545.00,0.00,1.377,1961,0.004,0.094,0.014,1.252,0.014,0.4
65,6476.00,6476.00,0.00,1.382,1940,0.004,0.110,0.014,1.241,0.013,0.5
66,6440.00,6440.00,0.00,1.403,1929,0.004,0.105,0.014,1.267,0.013,0.4
67,6184.00,6184.00,0.00,1.450,1853,0.004,0.136,0.014,1.283,0.014,0.6
68,6546.00,6546.00,0.00,1.359,1961,0.005,0.104,0.015,1.222,0.014,0.5
69,6009.00,6009.00,0.00,1.530,1800,0.004,0.137,0.013,1.363,0.013,0.5
70,6287.00,6287.00,0.00,1.429,1884,0.004,0.110,0.015,1.287,0.013,0.5
71,6449.00,6449.00,0.00,1.391,1932,0.004,0.105,0.013,1.256,0.013,0.5
72,6355.00,6355.00,0.00,1.427,1904,0.004,0.086,0.014,1.310,0.013,0.4
73,6585.00,6585.00,0.00,1.332,1973,0.004,0.096,0.014,1.205,0.014,0.5
74,3899.00,3899.00,0.00,1.406,1168,0.004,0.116,0.015,1.257,0.014,0.5
