Second,Ops/sec,Hits/sec,Misses/sec,Latency,KB/sec,Request_Creation_Time,Request_Buffer_Time,MW_Writes_To_Memcached_Time,Memcached_Process_Time,MW_Writes_To_Memtier_Time,Queue_Size
4,2463.00,2463.00,0.00,3.280,274,0.022,0.911,0.045,2.250,0.051,5.8
5,10632.00,10632.00,0.00,3.551,1182,0.008,1.006,0.016,2.502,0.019,5.0
6,11943.00,11943.00,0.00,3.421,1327,0.006,0.996,0.013,2.391,0.016,5.4
7,11963.00,11963.00,0.00,3.478,1329,0.006,1.026,0.012,2.419,0.015,5.2
8,11699.00,11699.00,0.00,3.553,1299,0.005,1.036,0.012,2.484,0.017,5.4
9,11582.00,11582.00,0.00,3.606,1287,0.005,1.074,0.012,2.499,0.016,5.6
10,12040.00,12040.00,0.00,3.449,1338,0.006,1.027,0.013,2.387,0.016,5.7
11,11902.00,11902.00,0.00,3.418,1323,0.006,0.989,0.012,2.395,0.015,5.4
12,11634.00,11634.00,0.00,3.607,1293,0.004,1.090,0.011,2.487,0.015,5.7
13,12100.00,12100.00,0.00,3.446,1345,0.004,1.010,0.011,2.404,0.016,5.5
14,11666.00,11648.00,18.00,3.491,1294,0.004,0.993,0.015,2.461,0.017,5.4
15,11584.00,11556.00,28.00,3.614,1284,0.004,1.105,0.014,2.472,0.018,6.0
16,12037.00,12035.00,2.00,3.398,1336,0.005,0.994,0.015,2.365,0.020,5.9
17,12063.00,12063.00,0.00,3.452,1340,0.004,1.029,0.015,2.387,0.017,5.4
18,11379.00,11379.00,0.00,3.610,1264,0.004,1.081,0.016,2.492,0.017,5.9
19,11395.00,11395.00,0.00,3.543,1266,0.004,1.068,0.016,2.438,0.017,6.1
20,12044.00,12044.00,0.00,3.454,1339,0.004,1.029,0.014,2.391,0.017,5.9
21,11922.00,11922.00,0.00,3.467,1325,0.004,1.049,0.014,2.383,0.017,6.1
22,12030.00,12030.00,0.00,3.476,1336,0.004,1.032,0.013,2.410,0.017,6.0
23,11785.00,11785.00,0.00,3.472,1309,0.004,1.023,0.014,2.414,0.017,5.8
24,11696.00,11696.00,0.00,3.572,1299,0.004,1.064,0.013,2.475,0.016,5.7
25,11965.00,11965.00,0.00,3.466,1329,0.004,1.036,0.014,2.393,0.018,6.1
26,12202.00,12202.00,0.00,3.395,1356,0.004,1.012,0.013,2.350,0.016,5.9
27,11757.00,11757.00,0.00,3.561,1306,0.004,1.069,0.013,2.459,0.016,5.9
28,11636.00,11636.00,0.00,3.586,1293,0.004,1.084,0.013,2.469,0.016,5.9
29,12193.00,12193.00,0.00,3.389,1355,0.005,0.984,0.012,2.373,0.016,5.4
30,11562.00,11562.00,0.00,3.618,1284,0.004,1.088,0.014,2.496,0.016,5.6
31,12407.00,12407.00,0.00,3.356,1379,0.004,0.982,0.012,2.343,0.016,5.6
32,11955.00,11951.00,4.00,3.518,1328,0.004,1.044,0.011,2.443,0.016,5.6
33,11635.00,11623.00,12.00,3.539,1292,0.004,1.032,0.012,2.475,0.016,5.5
34,12142.00,12130.00,12.00,3.458,1348,0.004,1.015,0.011,2.412,0.015,5.4
35,12294.00,12282.00,12.00,3.381,1365,0.004,0.991,0.012,2.358,0.016,5.4
36,11943.00,11935.00,8.00,3.501,1326,0.004,1.040,0.013,2.429,0.016,5.4
37,12031.00,12031.00,0.00,3.452,1337,0.005,1.016,0.014,2.401,0.016,5.6
38,11767.00,11767.00,0.00,3.516,1307,0.004,1.043,0.013,2.442,0.015,5.6
39,11674.00,11674.00,0.00,3.610,1297,0.004,1.084,0.012,2.494,0.016,5.4
40,11905.00,11905.00,0.00,3.474,1323,0.004,1.041,0.012,2.401,0.016,5.6
41,11932.00,11932.00,0.00,3.504,1326,0.004,1.031,0.012,2.440,0.017,5.6
42,11851.00,11851.00,0.00,3.482,1317,0.004,1.052,0.012,2.397,0.017,5.5
43,11573.00,11573.00,0.00,3.663,1286,0.004,1.102,0.014,2.525,0.017,5.5
44,11866.00,11866.00,0.00,3.498,1319,0.004,1.042,0.012,2.423,0.017,5.5
45,12216.00,12216.00,0.00,3.338,1358,0.004,0.973,0.012,2.332,0.016,5.4
46,11730.00,11730.00,0.00,3.569,1304,0.004,1.053,0.011,2.485,0.016,5.4
47,11872.00,11872.00,0.00,3.477,1319,0.004,1.012,0.011,2.434,0.016,5.2
48,11979.00,11979.00,0.00,3.428,1331,0.004,0.986,0.012,2.410,0.016,5.4
49,11626.00,11626.00,0.00,3.578,1292,0.004,1.075,0.012,2.470,0.016,5.7
50,11982.00,11982.00,0.00,3.497,1332,0.004,1.052,0.012,2.413,0.016,5.6
51,12404.00,12404.00,0.00,3.258,1379,0.004,0.948,0.012,2.278,0.016,5.5
52,12015.00,12015.00,0.00,3.489,1335,0.004,1.038,0.011,2.421,0.016,5.7
53,11981.00,11981.00,0.00,3.484,1331,0.004,1.031,0.011,2.422,0.016,5.3
54,11987.00,11987.00,0.00,3.369,1332,0.004,0.964,0.012,2.372,0.016,5.3
55,11582.00,11582.00,0.00,3.606,1287,0.004,1.059,0.012,2.516,0.016,5.6
56,12152.00,12152.00,0.00,3.387,1350,0.004,0.980,0.012,2.375,0.017,5.3
57,12266.00,12266.00,0.00,3.368,1363,0.004,1.006,0.012,2.329,0.016,5.7
58,11500.00,11500.00,0.00,3.611,1278,0.004,1.089,0.013,2.488,0.016,5.6
59,11943.00,11943.00,0.00,3.450,1327,0.004,1.015,0.012,2.404,0.015,5.5
60,12320.00,12320.00,0.00,3.406,1369,0.004,0.998,0.012,2.378,0.015,5.5
61,11677.00,11677.00,0.00,3.546,1298,0.004,1.036,0.012,2.478,0.016,5.6
62,12243.00,12243.00,0.00,3.370,1361,0.004,0.968,0.012,2.371,0.015,5.3
63,11772.00,11772.00,0.00,3.561,1308,0.004,1.079,0.011,2.452,0.015,5.6
64,11801.00,11801.00,0.00,3.555,1311,0.004,1.042,0.012,2.482,0.015,5.6
65,12271.00,12271.00,0.00,3.398,1364,0.004,1.008,0.012,2.358,0.016,5.6
66,12147.00,12147.00,0.00,3.378,1350,0.004,0.988,0.011,2.358,0.017,5.4
67,11840.00,11840.00,0.00,3.491,1316,0.004,1.038,0.012,2.421,0.017,5.8
68,11667.00,11667.00,0.00,3.583,1296,0.004,1.079,0.012,2.473,0.016,5.6
69,12256.00,12256.00,0.00,3.343,1362,0.004,0.968,0.012,2.343,0.015,5.7
70,11819.00,11819.00,0.00,3.564,1313,0.004,1.057,0.012,2.475,0.016,5.6
71,11583.00,11583.00,0.00,3.474,1287,0.004,1.012,0.012,2.431,0.016,5.5
72,11729.00,11729.00,0.00,3.519,1303,0.004,1.051,0.011,2.437,0.016,5.6
73,12105.00,12105.00,0.00,3.408,1345,0.005,0.987,0.012,2.388,0.016,5.6
74,8275.00,8275.00,0.00,3.604,920,0.004,1.092,0.012,2.481,0.016,5.5
