Second,Ops/sec,Hits/sec,Misses/sec,Latency,KB/sec,Request_Creation_Time,Request_Buffer_Time,MW_Writes_To_Memcached_Time,Memcached_Process_Time,MW_Writes_To_Memtier_Time,Queue_Size
4,1761.00,1761.00,0.00,1.970,968,0.027,0.413,0.086,1.376,0.069,1.8
5,8081.00,8081.00,0.00,2.237,4441,0.007,0.180,0.016,2.018,0.016,1.2
6,9271.00,9271.00,0.00,2.125,5096,0.005,0.168,0.015,1.923,0.014,1.4
7,9434.00,9434.00,0.00,2.062,5184,0.005,0.162,0.014,1.867,0.014,1.4
8,9246.00,9246.00,0.00,2.073,5081,0.005,0.193,0.014,1.845,0.015,1.4
9,9256.00,9256.00,0.00,2.098,5087,0.005,0.187,0.015,1.877,0.015,1.5
10,9278.00,9278.00,0.00,2.076,5099,0.004,0.165,0.014,1.878,0.015,1.4
11,8812.00,8789.00,23.00,2.169,4830,0.005,0.250,0.015,1.883,0.016,1.7
12,9130.00,9129.00,1.00,2.130,5017,0.005,0.183,0.014,1.916,0.013,1.5
13,9275.00,9275.00,0.00,2.055,5097,0.004,0.168,0.017,1.848,0.018,1.4
14,9101.00,9101.00,0.00,2.086,5002,0.004,0.163,0.013,1.890,0.015,1.3
15,9236.00,9236.00,0.00,2.126,5076,0.004,0.165,0.014,1.926,0.016,1.4
16,9080.00,9080.00,0.00,2.094,4990,0.004,0.173,0.013,1.888,0.016,1.5
17,9519.00,9519.00,0.00,2.029,5231,0.004,0.178,0.013,1.820,0.013,1.4
18,9278.00,9278.00,0.00,2.108,5099,0.004,0.163,0.014,1.914,0.013,1.4
19,9259.00,9259.00,0.00,2.048,5089,0.004,0.169,0.014,1.845,0.015,1.4
20,9175.00,9175.00,0.00,2.119,5042,0.004,0.161,0.013,1.928,0.013,1.4
21,9208.00,9208.00,0.00,2.118,5060,0.004,0.149,0.014,1.937,0.014,1.4
22,9126.00,9123.00,3.00,2.123,5014,0.004,0.176,0.013,1.916,0.015,1.4
23,9201.00,9196.00,5.00,2.101,5054,0.004,0.179,0.013,1.892,0.014,1.5
24,9083.00,9069.00,14.00,2.141,4984,0.004,0.174,0.014,1.935,0.015,1.4
25,9187.00,9185.00,2.00,2.105,5048,0.004,0.167,0.015,1.904,0.014,1.3
26,9017.00,9017.00,0.00,2.118,4956,0.004,0.173,0.014,1.913,0.014,1.4
27,9385.00,9385.00,0.00,2.086,5158,0.004,0.158,0.013,1.897,0.015,1.4
28,9458.00,9458.00,0.00,2.045,5198,0.004,0.176,0.014,1.835,0.017,1.5
29,9148.00,9148.00,0.00,2.076,5028,0.004,0.198,0.014,1.845,0.015,1.5
30,8966.00,8966.00,0.00,2.172,4928,0.004,0.212,0.013,1.929,0.014,1.6
31,8500.00,8500.00,0.00,2.246,4672,0.005,0.241,0.014,1.970,0.015,1.9
32,9140.00,9140.00,0.00,2.084,5023,0.004,0.208,0.013,1.845,0.014,1.6
33,8813.00,8813.00,0.00,2.209,4844,0.004,0.204,0.013,1.975,0.014,1.6
34,9139.00,9139.00,0.00,2.087,5023,0.004,0.185,0.014,1.870,0.015,1.5
35,9105.00,9105.00,0.00,2.165,5004,0.004,0.168,0.014,1.965,0.014,1.4
36,9142.00,9142.00,0.00,2.121,5024,0.004,0.177,0.013,1.914,0.013,1.4
37,9378.00,9378.00,0.00,2.066,5154,0.004,0.162,0.014,1.871,0.015,1.4
38,9255.00,9255.00,0.00,2.062,5086,0.004,0.198,0.013,1.833,0.014,1.6
39,9000.00,9000.00,0.00,2.108,4946,0.004,0.224,0.013,1.854,0.014,1.5
40,8822.00,8822.00,0.00,2.221,4849,0.004,0.214,0.013,1.976,0.014,1.8
41,9074.00,9074.00,0.00,2.160,4987,0.004,0.170,0.014,1.959,0.014,1.4
42,9389.00,9389.00,0.00,2.049,5160,0.004,0.157,0.013,1.861,0.014,1.3
43,9485.00,9485.00,0.00,2.041,5213,0.004,0.150,0.013,1.860,0.014,1.5
44,8991.00,8991.00,0.00,2.154,4941,0.004,0.208,0.013,1.915,0.014,1.6
45,9390.00,9390.00,0.00,2.080,5161,0.004,0.162,0.013,1.887,0.014,1.5
46,8789.00,8789.00,0.00,2.247,4830,0.003,0.206,0.013,2.010,0.015,1.5
47,9175.00,9175.00,0.00,2.100,5042,0.004,0.184,0.013,1.884,0.015,1.5
48,9563.00,9563.00,0.00,2.034,5256,0.004,0.157,0.014,1.846,0.014,1.4
49,9232.00,9232.00,0.00,2.066,5074,0.004,0.169,0.014,1.864,0.015,1.4
50,9473.00,9473.00,0.00,2.053,5206,0.004,0.163,0.013,1.860,0.014,1.4
51,9224.00,9224.00,0.00,2.099,5069,0.003,0.158,0.013,1.910,0.014,1.3
52,9359.00,9359.00,0.00,2.090,5144,0.004,0.168,0.013,1.892,0.014,1.3
53,9450.00,9450.00,0.00,2.058,5194,0.004,0.188,0.013,1.839,0.014,1.5
54,8937.00,8934.00,3.00,2.134,4910,0.004,0.217,0.013,1.886,0.016,1.5
55,8952.00,8948.00,4.00,2.194,4918,0.004,0.185,0.014,1.976,0.014,1.5
56,9356.00,9355.00,1.00,2.073,5142,0.004,0.178,0.013,1.864,0.014,1.5
57,9379.00,9375.00,4.00,2.060,5153,0.004,0.175,0.014,1.853,0.014,1.4
58,9267.00,9263.00,4.00,2.101,5091,0.004,0.165,0.014,1.904,0.013,1.5
59,9115.00,9104.00,11.00,2.106,5004,0.004,0.173,0.014,1.901,0.015,1.4
60,9274.00,9266.00,8.00,2.068,5093,0.004,0.196,0.013,1.842,0.014,1.5
61,8689.00,8682.00,7.00,2.251,4771,0.004,0.164,0.014,2.055,0.014,1.4
62,9359.00,9356.00,3.00,2.102,5142,0.004,0.185,0.013,1.886,0.014,1.4
63,9134.00,9124.00,10.00,2.120,5015,0.004,0.166,0.013,1.924,0.014,1.3
64,9189.00,9182.00,7.00,2.076,5046,0.004,0.136,0.014,1.906,0.016,1.3
65,9361.00,9356.00,5.00,2.053,5142,0.004,0.186,0.013,1.837,0.014,1.4
66,9185.00,9182.00,3.00,2.111,5046,0.004,0.167,0.013,1.913,0.015,1.4
67,9131.00,9129.00,2.00,2.153,5017,0.004,0.179,0.015,1.941,0.014,1.5
68,9159.00,9159.00,0.00,2.125,5033,0.004,0.176,0.014,1.915,0.016,1.5
69,9697.00,9697.00,0.00,1.962,5329,0.004,0.149,0.015,1.780,0.015,1.3
70,9107.00,9107.00,0.00,2.108,5005,0.005,0.183,0.013,1.894,0.013,1.4
71,8289.00,8289.00,0.00,2.330,4556,0.004,0.273,0.012,2.027,0.014,1.8
72,9537.00,9537.00,0.00,2.027,5241,0.004,0.155,0.014,1.840,0.015,1.5
73,9324.00,9324.00,0.00,2.104,5124,0.004,0.174,0.013,1.899,0.013,1.4
74,6968.00,6968.00,0.00,2.113,3829,0.004,0.178,0.014,1.902,0.015,1.5
