Second,Ops/sec,Hits/sec,Misses/sec,Latency,KB/sec,Request_Creation_Time,Request_Buffer_Time,MW_Writes_To_Memcached_Time,Memcached_Process_Time,MW_Writes_To_Memtier_Time,Queue_Size
4,2077.00,2077.00,0.00,2.579,2182,0.018,0.336,0.046,2.119,0.059,1.3
5,5379.00,5379.00,0.00,3.680,5651,0.005,0.158,0.017,3.484,0.016,1.0
6,5246.00,5246.00,0.00,4.052,5511,0.005,0.178,0.014,3.842,0.013,1.2
7,5210.00,5210.00,0.00,4.072,5473,0.005,0.204,0.014,3.837,0.013,1.3
8,5338.00,5338.00,0.00,3.937,5608,0.005,0.206,0.015,3.697,0.014,1.3
9,5341.00,5341.00,0.00,4.001,5611,0.005,0.151,0.014,3.818,0.013,1.1
10,5356.00,5356.00,0.00,3.956,5627,0.005,0.154,0.013,3.772,0.013,1.0
11,5389.00,5389.00,0.00,3.920,5661,0.005,0.201,0.013,3.688,0.013,1.2
12,5245.00,5245.00,0.00,4.051,5510,0.004,0.216,0.015,3.803,0.013,1.2
13,5478.00,5478.00,0.00,3.836,5755,0.004,0.185,0.014,3.619,0.014,1.3
14,5262.00,5262.00,0.00,4.018,5528,0.004,0.210,0.015,3.777,0.012,1.3
15,5423.00,5413.00,10.00,3.858,5687,0.005,0.182,0.015,3.642,0.014,1.2
16,5368.00,5354.00,14.00,3.930,5625,0.004,0.204,0.014,3.694,0.014,1.2
17,5352.00,5352.00,0.00,3.908,5622,0.004,0.155,0.014,3.722,0.014,1.0
18,5212.00,5212.00,0.00,4.041,5475,0.004,0.138,0.014,3.873,0.013,1.1
19,5121.00,5121.00,0.00,4.132,5380,0.005,0.316,0.013,3.785,0.013,1.3
20,5331.00,5331.00,0.00,3.974,5601,0.004,0.168,0.014,3.776,0.013,1.2
21,5362.00,5362.00,0.00,3.941,5633,0.003,0.165,0.013,3.747,0.013,1.1
22,5306.00,5306.00,0.00,4.008,5575,0.003,0.201,0.013,3.778,0.013,1.1
23,5368.00,5368.00,0.00,3.952,5640,0.003,0.165,0.015,3.757,0.013,1.2
24,5299.00,5299.00,0.00,4.032,5567,0.004,0.225,0.013,3.777,0.013,1.3
25,5383.00,5383.00,0.00,3.916,5655,0.004,0.157,0.013,3.729,0.013,1.1
26,5400.00,5400.00,0.00,3.910,5673,0.003,0.183,0.014,3.696,0.013,1.0
27,5316.00,5316.00,0.00,3.988,5585,0.003,0.189,0.014,3.769,0.013,1.4
28,5106.00,5106.00,0.00,4.090,5364,0.003,0.247,0.013,3.814,0.013,1.5
29,5419.00,5419.00,0.00,3.943,5693,0.003,0.191,0.013,3.722,0.013,1.4
30,5171.00,5171.00,0.00,4.105,5432,0.004,0.208,0.013,3.867,0.013,1.5
31,5237.00,5237.00,0.00,3.956,5502,0.003,0.237,0.013,3.689,0.014,1.4
32,5360.00,5360.00,0.00,3.951,5631,0.004,0.162,0.013,3.760,0.013,1.1
33,5393.00,5393.00,0.00,3.939,5666,0.003,0.155,0.014,3.754,0.013,1.2
34,5302.00,5302.00,0.00,4.004,5570,0.004,0.244,0.013,3.731,0.013,1.3
35,5298.00,5294.00,4.00,3.963,5562,0.003,0.229,0.013,3.705,0.013,1.1
36,5436.00,5434.00,2.00,3.858,5709,0.004,0.156,0.013,3.673,0.013,1.1
37,5369.00,5364.00,5.00,3.972,5635,0.003,0.148,0.013,3.795,0.013,1.1
38,5370.00,5359.00,11.00,3.945,5630,0.004,0.164,0.013,3.751,0.013,1.1
39,5404.00,5402.00,2.00,3.905,5675,0.003,0.168,0.013,3.708,0.012,1.1
40,5471.00,5471.00,0.00,3.883,5748,0.003,0.262,0.013,3.592,0.012,1.3
41,5328.00,5328.00,0.00,3.945,5597,0.003,0.216,0.013,3.699,0.013,1.2
42,5507.00,5507.00,0.00,3.867,5785,0.004,0.167,0.013,3.671,0.013,1.2
43,5322.00,5322.00,0.00,3.971,5591,0.003,0.195,0.013,3.747,0.013,1.3
44,5336.00,5336.00,0.00,3.979,5606,0.003,0.175,0.013,3.775,0.013,1.2
45,5452.00,5452.00,0.00,3.892,5728,0.004,0.169,0.013,3.694,0.013,1.1
46,5256.00,5256.00,0.00,4.005,5522,0.004,0.231,0.013,3.745,0.013,1.4
47,5321.00,5321.00,0.00,3.964,5590,0.003,0.239,0.014,3.695,0.013,1.1
48,5309.00,5309.00,0.00,4.010,5578,0.004,0.205,0.013,3.775,0.014,1.3
49,5381.00,5381.00,0.00,3.902,5653,0.003,0.177,0.013,3.695,0.014,1.3
50,5112.00,5112.00,0.00,4.136,5371,0.004,0.360,0.014,3.745,0.013,1.7
51,5223.00,5223.00,0.00,4.052,5487,0.004,0.278,0.013,3.744,0.013,1.4
52,5255.00,5255.00,0.00,4.013,5521,0.003,0.219,0.013,3.766,0.013,1.3
53,5065.00,5065.00,0.00,4.141,5321,0.004,0.307,0.013,3.804,0.014,1.6
54,5294.00,5294.00,0.00,4.001,5562,0.004,0.253,0.013,3.719,0.013,1.4
55,5319.00,5319.00,0.00,3.997,5588,0.003,0.151,0.013,3.817,0.012,1.1
56,5257.00,5257.00,0.00,4.024,5523,0.004,0.197,0.013,3.797,0.013,1.4
57,5418.00,5418.00,0.00,3.878,5692,0.004,0.164,0.013,3.684,0.013,1.1
58,5228.00,5228.00,0.00,4.061,5492,0.004,0.190,0.013,3.841,0.013,1.2
59,5316.00,5316.00,0.00,4.001,5585,0.003,0.206,0.013,3.766,0.013,1.3
60,5328.00,5328.00,0.00,3.965,5598,0.003,0.193,0.013,3.742,0.013,1.2
61,5104.00,5104.00,0.00,4.136,5362,0.003,0.274,0.014,3.833,0.013,1.7
62,5252.00,5252.00,0.00,3.995,5517,0.003,0.205,0.013,3.761,0.013,1.4
63,5217.00,5217.00,0.00,4.004,5481,0.003,0.243,0.013,3.731,0.014,1.4
64,5273.00,5273.00,0.00,4.024,5540,0.004,0.201,0.013,3.792,0.013,1.3
65,5248.00,5248.00,0.00,4.016,5513,0.004,0.216,0.014,3.769,0.013,1.2
66,5343.00,5343.00,0.00,3.985,5613,0.003,0.178,0.013,3.777,0.013,1.2
67,5404.00,5404.00,0.00,3.948,5677,0.003,0.181,0.013,3.738,0.013,1.1
68,5245.00,5245.00,0.00,4.047,5510,0.004,0.218,0.014,3.799,0.012,1.2
69,5306.00,5306.00,0.00,4.012,5574,0.004,0.185,0.013,3.798,0.013,1.3
70,5378.00,5378.00,0.00,3.954,5650,0.003,0.165,0.013,3.760,0.013,1.3
71,5383.00,5383.00,0.00,3.920,5655,0.003,0.160,0.013,3.730,0.013,1.2
72,5260.00,5260.00,0.00,4.062,5526,0.004,0.187,0.013,3.845,0.013,1.3
73,5420.00,5420.00,0.00,3.917,5694,0.004,0.169,0.013,3.718,0.013,1.2
74,3542.00,3542.00,0.00,3.996,3721,0.003,0.153,0.013,3.815,0.013,1.1
