Second,Ops/sec,Hits/sec,Misses/sec,Latency,KB/sec,Request_Creation_Time,Request_Buffer_Time,MW_Writes_To_Memcached_Time,Memcached_Process_Time,MW_Writes_To_Memtier_Time,Queue_Size
4,1689.00,1689.00,0.00,4.497,188,0.017,3.512,0.027,0.889,0.052,25.5
5,7971.00,7971.00,0.00,5.265,886,0.006,4.264,0.009,0.972,0.015,31.1
6,8303.00,8303.00,0.00,5.266,923,0.005,4.302,0.007,0.939,0.014,32.5
7,8217.00,8217.00,0.00,5.335,913,0.006,4.357,0.007,0.952,0.014,32.8
8,8189.00,8189.00,0.00,5.350,910,0.006,4.372,0.007,0.952,0.014,32.7
9,8132.00,8132.00,0.00,5.380,904,0.005,4.391,0.007,0.964,0.014,32.7
10,8244.00,8244.00,0.00,5.296,915,0.004,4.325,0.007,0.947,0.014,32.6
11,8412.00,8412.00,0.00,5.194,935,0.004,4.244,0.007,0.925,0.015,32.8
12,8309.00,8309.00,0.00,5.238,923,0.004,4.273,0.007,0.940,0.014,32.5
13,7799.00,7799.00,0.00,5.371,866,0.004,4.346,0.007,1.001,0.014,31.7
14,8245.00,8245.00,0.00,5.334,916,0.003,4.359,0.007,0.952,0.014,33.0
15,8333.00,8333.00,0.00,5.273,926,0.003,4.312,0.007,0.937,0.014,33.2
16,8278.00,8278.00,0.00,5.247,920,0.003,4.284,0.007,0.940,0.014,32.5
17,8438.00,8438.00,0.00,5.164,938,0.003,4.215,0.007,0.926,0.014,32.9
18,8445.00,8445.00,0.00,5.219,938,0.003,4.264,0.007,0.931,0.014,32.8
19,8003.00,7956.00,47.00,5.324,884,0.003,4.329,0.008,0.967,0.017,32.2
20,8410.00,8409.00,1.00,5.182,934,0.003,4.238,0.009,0.916,0.016,33.2
21,8618.00,8618.00,0.00,5.109,956,0.003,4.177,0.008,0.905,0.016,33.2
22,8190.00,8190.00,0.00,5.332,910,0.003,4.360,0.008,0.946,0.015,33.1
23,8107.00,8107.00,0.00,5.396,901,0.003,4.414,0.008,0.956,0.015,33.5
24,8156.00,8156.00,0.00,5.426,906,0.003,4.440,0.009,0.958,0.015,33.2
25,8667.00,8667.00,0.00,5.059,963,0.003,4.141,0.008,0.893,0.015,33.6
26,8204.00,8204.00,0.00,5.329,912,0.003,4.354,0.008,0.950,0.014,33.1
27,8096.00,8096.00,0.00,5.457,900,0.003,4.467,0.008,0.965,0.014,33.2
28,8109.00,8109.00,0.00,5.422,901,0.003,4.443,0.007,0.953,0.015,33.3
29,8495.00,8495.00,0.00,5.192,944,0.003,4.250,0.007,0.917,0.014,33.1
30,8532.00,8532.00,0.00,5.084,947,0.003,4.157,0.007,0.902,0.015,32.9
31,8053.00,8053.00,0.00,5.472,895,0.003,4.474,0.007,0.974,0.014,33.3
32,8122.00,8122.00,0.00,5.359,902,0.003,4.371,0.007,0.963,0.014,32.5
33,8142.00,8142.00,0.00,5.343,904,0.003,4.362,0.007,0.957,0.014,33.0
34,7901.00,7901.00,0.00,5.589,878,0.003,4.572,0.006,0.993,0.015,33.0
35,7859.00,7859.00,0.00,5.523,873,0.003,4.509,0.006,0.990,0.015,33.1
36,8454.00,8454.00,0.00,5.229,939,0.003,4.278,0.006,0.928,0.014,33.0
37,8481.00,8481.00,0.00,5.161,942,0.003,4.215,0.007,0.922,0.014,32.7
38,8292.00,8292.00,0.00,5.286,921,0.003,4.321,0.006,0.941,0.015,33.0
39,8338.00,8338.00,0.00,5.225,926,0.003,4.264,0.006,0.936,0.016,32.8
40,8185.00,8185.00,0.00,5.385,909,0.003,4.411,0.006,0.951,0.014,33.2
41,8180.00,8180.00,0.00,5.418,908,0.003,4.433,0.006,0.961,0.014,33.1
42,8395.00,8395.00,0.00,5.227,933,0.003,4.271,0.006,0.933,0.014,33.2
43,8042.00,8042.00,0.00,5.500,894,0.003,4.504,0.007,0.973,0.014,33.0
44,8209.00,8209.00,0.00,5.320,912,0.003,4.347,0.007,0.949,0.014,32.9
45,8341.00,8341.00,0.00,5.289,927,0.003,4.328,0.006,0.937,0.014,33.2
46,8086.00,8081.00,5.00,5.429,898,0.003,4.438,0.006,0.968,0.014,33.2
47,8116.00,8082.00,34.00,5.410,898,0.003,4.419,0.007,0.967,0.014,32.5
48,8152.00,8143.00,9.00,5.377,904,0.003,4.396,0.006,0.958,0.014,33.2
49,8162.00,8162.00,0.00,5.414,906,0.003,4.429,0.007,0.961,0.014,32.8
50,8242.00,8242.00,0.00,5.312,916,0.003,4.343,0.006,0.946,0.014,32.9
51,8371.00,8371.00,0.00,5.211,930,0.003,4.253,0.007,0.935,0.014,32.5
52,7946.00,7946.00,0.00,5.555,883,0.003,4.545,0.006,0.986,0.014,33.1
53,8163.00,8163.00,0.00,5.311,907,0.003,4.338,0.007,0.950,0.014,32.2
54,8340.00,8340.00,0.00,5.115,927,0.003,4.167,0.007,0.925,0.014,32.0
55,8024.00,8024.00,0.00,5.548,892,0.003,4.544,0.006,0.981,0.014,33.3
56,8203.00,8203.00,0.00,5.329,911,0.003,4.356,0.007,0.949,0.014,32.9
57,8318.00,8318.00,0.00,5.312,924,0.003,4.345,0.006,0.943,0.014,33.2
58,8045.00,8045.00,0.00,5.485,894,0.003,4.489,0.007,0.972,0.014,33.0
59,8359.00,8359.00,0.00,5.202,929,0.004,4.244,0.007,0.932,0.015,32.7
60,8509.00,8509.00,0.00,5.169,946,0.003,4.226,0.006,0.919,0.014,32.8
61,8221.00,8221.00,0.00,5.322,914,0.003,4.355,0.006,0.945,0.014,32.9
62,8202.00,8202.00,0.00,5.310,911,0.003,4.334,0.007,0.951,0.014,32.9
63,8616.00,8616.00,0.00,5.137,958,0.003,4.204,0.006,0.910,0.014,33.1
64,8040.00,8040.00,0.00,5.441,894,0.003,4.445,0.007,0.971,0.015,32.6
65,8558.00,8558.00,0.00,5.107,951,0.003,4.164,0.006,0.919,0.014,32.7
66,8428.00,8428.00,0.00,5.254,936,0.003,4.302,0.007,0.925,0.017,33.5
67,8291.00,8291.00,0.00,5.304,921,0.003,4.340,0.006,0.941,0.014,33.2
68,8256.00,8256.00,0.00,5.355,917,0.003,4.383,0.006,0.949,0.014,33.1
69,8221.00,8221.00,0.00,5.275,914,0.003,4.305,0.006,0.947,0.014,32.6
70,8463.00,8463.00,0.00,5.245,941,0.003,4.293,0.006,0.929,0.014,33.1
71,8015.00,8015.00,0.00,5.451,891,0.003,4.464,0.007,0.963,0.014,33.1
72,8281.00,8281.00,0.00,5.356,920,0.003,4.384,0.006,0.949,0.014,33.3
73,8323.00,8323.00,0.00,5.292,925,0.003,4.330,0.007,0.937,0.014,32.7
74,6385.00,6385.00,0.00,5.214,710,0.003,4.251,0.006,0.940,0.014,32.1
