Second,Ops/sec,Hits/sec,Misses/sec,Latency,KB/sec,Request_Creation_Time,Request_Buffer_Time,MW_Writes_To_Memcached_Time,Memcached_Process_Time,MW_Writes_To_Memtier_Time,Queue_Size
4,2783.00,2783.00,0.00,4.852,1530,0.013,2.346,0.042,2.383,0.068,20.9
5,10212.00,10212.00,0.00,8.115,5613,0.005,4.985,0.012,3.095,0.017,40.6
6,10166.00,10166.00,0.00,8.830,5588,0.005,5.681,0.009,3.120,0.015,46.8
7,9964.00,9964.00,0.00,9.009,5476,0.004,5.801,0.009,3.181,0.014,46.4
8,10112.00,10112.00,0.00,8.875,5557,0.004,5.705,0.009,3.141,0.015,46.2
9,9982.00,9982.00,0.00,8.979,5487,0.004,5.780,0.010,3.171,0.014,46.1
10,9941.00,9941.00,0.00,8.977,5463,0.004,5.761,0.010,3.188,0.015,45.8
11,10378.00,10378.00,0.00,8.591,5704,0.004,5.515,0.009,3.048,0.015,45.5
12,9828.00,9828.00,0.00,8.990,5401,0.004,5.734,0.009,3.228,0.015,44.8
13,10034.00,10034.00,0.00,8.958,5514,0.004,5.765,0.010,3.165,0.015,45.8
14,9801.00,9801.00,0.00,9.075,5386,0.003,5.824,0.009,3.224,0.015,46.8
15,9908.00,9908.00,0.00,9.047,5445,0.003,5.816,0.009,3.202,0.016,45.9
16,10004.00,10004.00,0.00,8.973,5498,0.003,5.776,0.008,3.172,0.014,45.7
17,10096.00,10096.00,0.00,8.938,5549,0.003,5.760,0.009,3.150,0.016,45.9
18,9057.00,9057.00,0.00,9.457,4977,0.004,5.961,0.011,3.462,0.020,44.7
19,10170.00,10170.00,0.00,8.853,5589,0.003,5.698,0.008,3.129,0.015,46.4
20,10056.00,10056.00,0.00,8.946,5527,0.003,5.764,0.010,3.154,0.015,45.9
21,9172.00,9172.00,0.00,9.323,5041,0.004,5.888,0.012,3.397,0.020,44.8
22,10275.00,10275.00,0.00,8.782,5647,0.003,5.663,0.008,3.092,0.015,47.3
23,10044.00,10044.00,0.00,8.993,5520,0.003,5.799,0.008,3.167,0.015,47.0
24,9586.00,9586.00,0.00,9.212,5269,0.004,5.894,0.009,3.289,0.016,46.1
25,10055.00,10055.00,0.00,8.937,5526,0.004,5.756,0.008,3.155,0.015,45.7
26,10179.00,10179.00,0.00,8.743,5595,0.003,5.604,0.009,3.112,0.015,46.3
27,9787.00,9781.00,6.00,8.938,5375,0.004,5.663,0.011,3.239,0.021,45.6
28,10173.00,10132.00,41.00,8.797,5568,0.003,5.651,0.012,3.114,0.017,45.3
29,10063.00,10032.00,31.00,8.949,5513,0.003,5.772,0.010,3.148,0.016,46.3
30,9126.00,9113.00,13.00,9.417,5008,0.005,5.932,0.013,3.450,0.018,44.5
31,9978.00,9974.00,4.00,8.918,5481,0.004,5.733,0.010,3.154,0.016,46.1
32,10205.00,10204.00,1.00,8.899,5607,0.003,5.749,0.009,3.122,0.016,46.5
33,9314.00,9314.00,0.00,9.372,5119,0.003,5.988,0.015,3.349,0.018,45.7
34,10018.00,10018.00,0.00,8.925,5505,0.003,5.726,0.010,3.169,0.017,46.1
35,9880.00,9880.00,0.00,9.087,5430,0.003,5.859,0.010,3.199,0.016,46.8
36,9480.00,9480.00,0.00,9.388,5210,0.004,6.006,0.010,3.348,0.020,46.2
37,9982.00,9982.00,0.00,8.967,5486,0.003,5.755,0.009,3.185,0.015,46.0
38,10075.00,10075.00,0.00,8.935,5537,0.003,5.759,0.008,3.148,0.015,46.7
39,9303.00,9303.00,0.00,9.436,5113,0.005,6.023,0.009,3.382,0.018,46.0
40,10046.00,10046.00,0.00,8.924,5522,0.003,5.738,0.009,3.158,0.015,45.9
41,9933.00,9933.00,0.00,8.923,5459,0.004,5.721,0.009,3.173,0.015,46.0
42,9389.00,9389.00,0.00,9.284,5160,0.005,5.894,0.010,3.356,0.019,45.5
43,9894.00,9894.00,0.00,9.048,5438,0.004,5.815,0.009,3.204,0.016,45.9
44,9852.00,9852.00,0.00,9.097,5415,0.003,5.863,0.009,3.207,0.015,46.3
45,10128.00,10128.00,0.00,8.941,5566,0.003,5.767,0.008,3.148,0.015,46.4
46,9858.00,9858.00,0.00,9.074,5417,0.003,5.839,0.009,3.206,0.016,47.0
47,10098.00,10098.00,0.00,8.896,5549,0.003,5.724,0.009,3.145,0.016,45.1
48,10002.00,10002.00,0.00,9.015,5497,0.003,5.809,0.009,3.176,0.018,46.9
49,9999.00,9999.00,0.00,8.979,5495,0.003,5.775,0.009,3.176,0.016,46.3
50,9890.00,9890.00,0.00,8.868,5435,0.003,5.630,0.008,3.210,0.015,43.6
51,9676.00,9676.00,0.00,9.151,5318,0.003,5.845,0.009,3.275,0.020,46.0
52,10158.00,10158.00,0.00,8.771,5583,0.004,5.625,0.008,3.118,0.015,45.2
53,10068.00,10068.00,0.00,8.826,5533,0.003,5.647,0.008,3.154,0.014,44.6
54,9812.00,9812.00,0.00,9.056,5392,0.003,5.841,0.008,3.189,0.014,45.8
55,10068.00,10068.00,0.00,9.117,5533,0.003,5.896,0.008,3.194,0.015,47.6
56,9832.00,9832.00,0.00,9.011,5403,0.003,5.786,0.009,3.196,0.016,46.9
57,10083.00,10083.00,0.00,9.011,5542,0.003,5.806,0.008,3.178,0.015,46.1
58,9941.00,9941.00,0.00,9.004,5463,0.004,5.784,0.009,3.192,0.015,46.3
59,9960.00,9960.00,0.00,9.007,5474,0.003,5.801,0.009,3.180,0.015,46.4
60,10132.00,10132.00,0.00,8.892,5569,0.004,5.724,0.008,3.141,0.015,46.3
61,9989.00,9989.00,0.00,9.000,5490,0.003,5.794,0.008,3.180,0.015,46.4
62,10052.00,10052.00,0.00,8.920,5524,0.003,5.736,0.009,3.155,0.017,46.1
63,9911.00,9911.00,0.00,9.073,5447,0.003,5.852,0.008,3.195,0.015,46.7
64,10039.00,10039.00,0.00,8.938,5517,0.003,5.742,0.008,3.169,0.015,45.7
65,9891.00,9891.00,0.00,9.064,5436,0.004,5.829,0.008,3.208,0.015,45.7
66,9977.00,9977.00,0.00,9.073,5483,0.004,5.858,0.009,3.186,0.016,47.3
67,9789.00,9789.00,0.00,9.104,5380,0.003,5.857,0.009,3.219,0.016,46.7
68,10098.00,10098.00,0.00,8.934,5550,0.003,5.760,0.009,3.147,0.016,46.4
69,10079.00,10079.00,0.00,8.958,5540,0.004,5.775,0.008,3.156,0.016,45.6
70,10095.00,10095.00,0.00,8.928,5548,0.003,5.759,0.008,3.143,0.014,46.7
71,9988.00,9986.00,2.00,8.992,5489,0.003,5.789,0.008,3.177,0.015,46.6
72,10133.00,10126.00,7.00,8.915,5566,0.003,5.751,0.009,3.136,0.015,46.1
73,10050.00,10037.00,13.00,8.937,5517,0.003,5.750,0.009,3.160,0.015,46.0
74,8118.00,8106.00,12.00,7.952,4455,0.004,5.064,0.009,2.860,0.015,40.3
75,2716.00,2713.00,3.00,0.779,1491,0.004,0.078,0.016,0.666,0.014,0.1
