Second,Ops/sec,Hits/sec,Misses/sec,Latency,KB/sec,Request_Creation_Time,Request_Buffer_Time,MW_Writes_To_Memcached_Time,Memcached_Process_Time,MW_Writes_To_Memtier_Time,Queue_Size
4,3360.00,3360.00,0.00,5.062,374,0.022,2.531,0.028,2.440,0.040,23.3
5,12117.00,12117.00,0.00,6.736,1347,0.006,4.124,0.011,2.579,0.017,40.3
6,12484.00,12484.00,0.00,7.112,1387,0.005,4.531,0.010,2.549,0.016,45.8
7,12816.00,12816.00,0.00,6.870,1424,0.005,4.378,0.010,2.462,0.016,45.8
8,12520.00,12520.00,0.00,7.018,1392,0.005,4.464,0.009,2.523,0.016,46.0
9,12518.00,12518.00,0.00,7.055,1391,0.005,4.500,0.010,2.521,0.020,46.3
10,12525.00,12525.00,0.00,6.949,1392,0.005,4.399,0.011,2.516,0.019,45.5
11,11610.00,11610.00,0.00,7.476,1289,0.005,4.737,0.010,2.709,0.016,45.2
12,12796.00,12796.00,0.00,6.845,1421,0.004,4.333,0.009,2.482,0.016,45.4
13,12780.00,12780.00,0.00,6.890,1420,0.004,4.404,0.009,2.458,0.016,46.2
14,12545.00,12545.00,0.00,7.052,1394,0.004,4.500,0.009,2.523,0.016,46.3
15,12604.00,12604.00,0.00,7.007,1400,0.003,4.467,0.009,2.512,0.016,45.6
16,12776.00,12776.00,0.00,6.867,1419,0.003,4.363,0.010,2.475,0.016,45.9
17,12449.00,12449.00,0.00,7.124,1384,0.003,4.543,0.009,2.553,0.016,46.5
18,13058.00,13058.00,0.00,6.765,1451,0.003,4.327,0.009,2.411,0.015,46.5
19,13034.00,13034.00,0.00,6.688,1449,0.003,4.231,0.010,2.427,0.016,44.5
20,12316.00,12316.00,0.00,7.162,1369,0.003,4.571,0.009,2.563,0.016,46.2
21,12734.00,12734.00,0.00,6.880,1415,0.004,4.374,0.009,2.478,0.016,46.0
22,12947.00,12947.00,0.00,6.839,1439,0.003,4.351,0.009,2.460,0.016,45.5
23,12678.00,12633.00,45.00,6.891,1403,0.004,4.376,0.014,2.478,0.019,46.1
24,12652.00,12606.00,46.00,6.875,1400,0.004,4.354,0.011,2.488,0.018,45.7
25,12776.00,12771.00,5.00,6.872,1418,0.004,4.364,0.013,2.474,0.017,45.6
26,11953.00,11953.00,0.00,7.469,1327,0.004,4.795,0.011,2.644,0.017,46.7
27,12654.00,12654.00,0.00,6.951,1405,0.004,4.431,0.011,2.487,0.018,46.4
28,12737.00,12737.00,0.00,6.903,1415,0.003,4.407,0.012,2.463,0.017,46.9
29,12114.00,12114.00,0.00,7.278,1346,0.003,4.634,0.012,2.611,0.017,46.4
30,12711.00,12711.00,0.00,6.948,1412,0.003,4.433,0.011,2.484,0.017,45.9
31,12848.00,12848.00,0.00,6.843,1427,0.003,4.369,0.010,2.444,0.016,45.4
32,12537.00,12537.00,0.00,7.094,1393,0.003,4.534,0.010,2.530,0.017,46.3
33,12484.00,12484.00,0.00,7.140,1388,0.003,4.575,0.011,2.534,0.017,46.8
34,12362.00,12362.00,0.00,7.147,1374,0.004,4.570,0.011,2.546,0.017,46.4
35,12559.00,12559.00,0.00,7.025,1396,0.003,4.472,0.010,2.524,0.016,46.2
36,12259.00,12259.00,0.00,7.272,1362,0.004,4.655,0.010,2.586,0.017,46.1
37,12765.00,12765.00,0.00,6.862,1418,0.004,4.353,0.011,2.478,0.017,45.8
38,12283.00,12283.00,0.00,7.148,1364,0.004,4.558,0.010,2.559,0.017,46.6
39,12160.00,12160.00,0.00,7.271,1351,0.004,4.636,0.009,2.605,0.018,46.3
40,12690.00,12690.00,0.00,6.795,1410,0.003,4.282,0.009,2.485,0.016,44.7
41,12609.00,12609.00,0.00,6.986,1401,0.003,4.454,0.009,2.506,0.015,46.0
42,12464.00,12464.00,0.00,7.035,1385,0.003,4.475,0.009,2.532,0.016,45.6
43,12710.00,12710.00,0.00,7.011,1412,0.003,4.481,0.009,2.502,0.017,46.8
44,12694.00,12694.00,0.00,6.990,1410,0.003,4.466,0.009,2.495,0.017,46.6
45,12577.00,12577.00,0.00,7.039,1397,0.003,4.497,0.009,2.515,0.015,45.2
46,12470.00,12470.00,0.00,7.073,1386,0.003,4.517,0.009,2.529,0.015,45.8
47,12618.00,12618.00,0.00,7.011,1402,0.003,4.474,0.009,2.509,0.016,46.4
48,12246.00,12246.00,0.00,7.252,1361,0.003,4.635,0.009,2.589,0.016,46.0
49,12790.00,12790.00,0.00,6.872,1421,0.003,4.381,0.009,2.463,0.016,46.1
50,12518.00,12518.00,0.00,7.089,1391,0.003,4.532,0.009,2.529,0.016,46.2
51,11825.00,11825.00,0.00,7.499,1314,0.003,4.787,0.009,2.685,0.015,46.8
52,12758.00,12758.00,0.00,6.922,1417,0.003,4.428,0.009,2.466,0.015,46.5
53,12576.00,12576.00,0.00,7.061,1397,0.003,4.518,0.008,2.516,0.015,46.7
54,12087.00,12087.00,0.00,7.307,1343,0.003,4.661,0.009,2.617,0.016,46.3
55,13137.00,13137.00,0.00,6.698,1460,0.003,4.270,0.009,2.400,0.016,45.7
56,12330.00,12330.00,0.00,7.216,1370,0.003,4.617,0.008,2.572,0.015,46.1
57,12281.00,12281.00,0.00,7.186,1365,0.004,4.580,0.009,2.578,0.016,45.7
58,12901.00,12891.00,10.00,6.854,1433,0.004,4.385,0.010,2.440,0.016,46.4
59,12830.00,12812.00,18.00,6.900,1424,0.003,4.395,0.009,2.477,0.016,45.8
60,12543.00,12518.00,25.00,7.032,1391,0.003,4.496,0.009,2.507,0.016,45.9
61,12647.00,12627.00,20.00,6.850,1403,0.004,4.317,0.009,2.505,0.015,45.4
62,12338.00,12327.00,11.00,7.240,1369,0.003,4.646,0.009,2.566,0.016,46.9
63,12503.00,12491.00,12.00,7.126,1387,0.004,4.565,0.008,2.533,0.016,46.8
64,12435.00,12435.00,0.00,7.051,1381,0.004,4.496,0.009,2.528,0.015,45.8
65,12718.00,12718.00,0.00,6.963,1413,0.004,4.428,0.009,2.505,0.017,45.8
66,12172.00,12172.00,0.00,7.292,1352,0.003,4.663,0.008,2.602,0.015,46.6
67,12794.00,12794.00,0.00,6.880,1422,0.004,4.378,0.009,2.474,0.016,45.0
68,12471.00,12471.00,0.00,7.085,1386,0.003,4.534,0.009,2.524,0.015,46.4
69,12695.00,12695.00,0.00,6.992,1411,0.003,4.461,0.009,2.503,0.016,46.1
70,12671.00,12671.00,0.00,6.868,1408,0.003,4.355,0.009,2.484,0.016,45.0
71,12474.00,12474.00,0.00,7.147,1386,0.003,4.575,0.009,2.543,0.017,46.5
72,12549.00,12549.00,0.00,7.084,1394,0.003,4.535,0.009,2.521,0.016,47.0
73,12642.00,12642.00,0.00,6.938,1405,0.003,4.419,0.009,2.490,0.016,46.4
74,10194.00,10194.00,0.00,5.837,1133,0.004,3.631,0.010,2.174,0.017,37.8
75,3266.00,3266.00,0.00,0.751,363,0.004,0.103,0.016,0.615,0.014,0.1
