Second,Ops/sec,Hits/sec,Misses/sec,Latency,KB/sec,Request_Creation_Time,Request_Buffer_Time,MW_Writes_To_Memcached_Time,Memcached_Process_Time,MW_Writes_To_Memtier_Time,Queue_Size
4,1998.00,1998.00,0.00,6.007,2099,0.019,1.687,0.058,4.208,0.035,6.0
5,5312.00,5312.00,0.00,8.275,5581,0.006,2.541,0.014,5.700,0.015,5.4
6,5239.00,5239.00,0.00,8.571,5504,0.005,2.739,0.011,5.803,0.013,6.0
7,5333.00,5333.00,0.00,8.410,5603,0.005,2.670,0.011,5.712,0.013,5.9
8,5300.00,5300.00,0.00,8.471,5568,0.005,2.703,0.011,5.739,0.013,5.9
9,5427.00,5427.00,0.00,8.199,5702,0.005,2.590,0.011,5.579,0.013,5.8
10,5317.00,5317.00,0.00,8.446,5586,0.005,2.695,0.011,5.721,0.013,5.9
11,5339.00,5339.00,0.00,8.429,5609,0.005,2.731,0.012,5.669,0.013,6.2
12,5311.00,5311.00,0.00,8.393,5579,0.005,2.637,0.011,5.726,0.014,5.5
13,5312.00,5312.00,0.00,8.455,5580,0.004,2.708,0.012,5.718,0.013,6.3
14,5346.00,5346.00,0.00,8.390,5616,0.004,2.686,0.011,5.676,0.013,5.9
15,5213.00,5213.00,0.00,8.599,5477,0.004,2.738,0.012,5.831,0.014,6.0
16,5369.00,5369.00,0.00,8.369,5640,0.004,2.658,0.011,5.681,0.014,6.0
17,5260.00,5260.00,0.00,8.545,5526,0.005,2.745,0.011,5.772,0.013,6.0
18,5313.00,5313.00,0.00,8.425,5582,0.004,2.630,0.011,5.767,0.013,5.9
19,5177.00,5177.00,0.00,8.543,5439,0.004,2.650,0.011,5.863,0.014,5.8
20,5311.00,5311.00,0.00,8.435,5580,0.004,2.678,0.011,5.729,0.013,6.0
21,5412.00,5412.00,0.00,8.284,5686,0.003,2.622,0.011,5.635,0.014,5.8
22,5260.00,5260.00,0.00,8.550,5526,0.004,2.725,0.010,5.798,0.013,6.2
23,5307.00,5307.00,0.00,8.495,5575,0.003,2.717,0.011,5.751,0.013,6.0
24,5393.00,5393.00,0.00,8.262,5666,0.005,2.652,0.013,5.579,0.013,5.6
25,5461.00,5459.00,2.00,8.204,5735,0.004,2.601,0.013,5.573,0.014,6.1
26,5382.00,5370.00,12.00,8.329,5641,0.004,2.637,0.013,5.660,0.015,5.9
27,5229.00,5212.00,17.00,8.505,5475,0.004,2.695,0.013,5.778,0.014,6.2
28,5420.00,5407.00,13.00,8.271,5680,0.004,2.631,0.013,5.608,0.015,6.0
29,5324.00,5320.00,4.00,8.410,5589,0.004,2.659,0.013,5.720,0.014,6.0
30,5212.00,5212.00,0.00,8.611,5475,0.004,2.756,0.012,5.826,0.014,6.6
31,5332.00,5332.00,0.00,8.394,5601,0.003,2.659,0.014,5.704,0.014,6.0
32,5355.00,5355.00,0.00,8.411,5626,0.004,2.675,0.013,5.705,0.014,6.2
33,5304.00,5304.00,0.00,8.479,5572,0.003,2.699,0.012,5.750,0.014,6.1
34,5294.00,5294.00,0.00,8.420,5562,0.003,2.652,0.014,5.737,0.014,6.3
35,5448.00,5448.00,0.00,8.252,5723,0.004,2.615,0.012,5.608,0.014,5.9
36,5524.00,5524.00,0.00,8.107,5803,0.004,2.562,0.014,5.512,0.016,6.2
37,5326.00,5326.00,0.00,8.399,5595,0.003,2.668,0.013,5.701,0.014,6.3
38,5389.00,5389.00,0.00,8.341,5662,0.004,2.677,0.012,5.634,0.014,6.1
39,5400.00,5400.00,0.00,8.273,5673,0.004,2.631,0.012,5.611,0.015,6.3
40,5371.00,5371.00,0.00,8.347,5643,0.004,2.645,0.012,5.672,0.014,6.0
41,5417.00,5417.00,0.00,8.282,5691,0.004,2.631,0.010,5.624,0.013,5.8
42,5343.00,5343.00,0.00,8.440,5613,0.004,2.695,0.011,5.717,0.013,6.0
43,5379.00,5379.00,0.00,8.343,5651,0.004,2.674,0.010,5.642,0.013,6.0
44,5257.00,5257.00,0.00,8.531,5523,0.003,2.812,0.010,5.692,0.013,6.1
45,5370.00,5370.00,0.00,8.396,5641,0.003,2.685,0.011,5.684,0.013,5.6
46,5344.00,5344.00,0.00,8.413,5614,0.004,2.676,0.010,5.710,0.013,5.8
47,5333.00,5333.00,0.00,8.416,5603,0.003,2.701,0.011,5.686,0.013,6.0
48,5489.00,5489.00,0.00,8.188,5766,0.003,2.588,0.010,5.574,0.013,5.9
49,5347.00,5347.00,0.00,8.323,5617,0.004,2.707,0.011,5.587,0.013,6.4
50,5314.00,5314.00,0.00,8.438,5583,0.003,2.694,0.012,5.714,0.014,6.3
51,5282.00,5282.00,0.00,8.470,5549,0.003,2.713,0.011,5.730,0.013,6.2
52,5279.00,5279.00,0.00,8.459,5546,0.004,2.730,0.011,5.702,0.013,6.5
53,5286.00,5286.00,0.00,8.444,5553,0.003,2.697,0.011,5.720,0.013,6.5
54,5370.00,5370.00,0.00,8.377,5642,0.004,2.695,0.011,5.655,0.013,6.3
55,5374.00,5374.00,0.00,8.348,5646,0.003,2.670,0.011,5.651,0.013,6.3
56,5353.00,5353.00,0.00,8.350,5624,0.004,2.675,0.012,5.644,0.015,6.4
57,5366.00,5366.00,0.00,8.300,5637,0.005,2.670,0.011,5.602,0.013,6.4
58,5312.00,5312.00,0.00,8.382,5581,0.004,2.643,0.013,5.709,0.013,6.3
59,5308.00,5308.00,0.00,8.464,5576,0.003,2.707,0.011,5.729,0.014,6.0
60,5324.00,5324.00,0.00,8.439,5593,0.004,2.710,0.011,5.701,0.013,6.0
61,5232.00,5232.00,0.00,8.573,5496,0.003,2.735,0.011,5.811,0.013,6.3
62,5239.00,5239.00,0.00,8.522,5504,0.004,2.703,0.011,5.791,0.013,6.1
63,5354.00,5354.00,0.00,8.397,5625,0.004,2.712,0.011,5.658,0.013,6.5
64,5288.00,5288.00,0.00,8.510,5555,0.004,2.739,0.011,5.744,0.013,6.5
65,5338.00,5335.00,3.00,8.399,5605,0.003,2.697,0.010,5.675,0.013,6.3
66,5342.00,5341.00,1.00,8.347,5611,0.004,2.640,0.012,5.679,0.013,6.2
67,5399.00,5394.00,5.00,8.321,5667,0.004,2.672,0.010,5.621,0.014,6.1
68,5307.00,5303.00,4.00,8.457,5571,0.003,2.716,0.010,5.715,0.012,5.9
69,5383.00,5376.00,7.00,8.346,5648,0.003,2.671,0.011,5.648,0.013,6.4
70,5238.00,5233.00,5.00,8.599,5498,0.004,2.767,0.011,5.803,0.015,6.2
71,5378.00,5374.00,4.00,8.263,5646,0.003,2.609,0.011,5.626,0.014,6.0
72,5259.00,5252.00,7.00,8.525,5518,0.004,2.782,0.011,5.716,0.013,6.5
73,5183.00,5178.00,5.00,8.569,5440,0.004,2.691,0.012,5.849,0.013,6.4
74,3662.00,3659.00,3.00,8.246,3844,0.003,2.589,0.012,5.628,0.014,6.1
