Second,Ops/sec,Hits/sec,Misses/sec,Latency,KB/sec,Request_Creation_Time,Request_Buffer_Time,MW_Writes_To_Memcached_Time,Memcached_Process_Time,MW_Writes_To_Memtier_Time,Queue_Size
4,2385.00,2385.00,0.00,10.529,2506,0.016,2.983,0.052,7.393,0.085,10.7
5,5790.00,5790.00,0.00,15.522,6084,0.005,4.777,0.018,10.708,0.014,12.6
6,5663.00,5663.00,0.00,16.156,5949,0.005,5.277,0.012,10.850,0.013,12.8
7,5818.00,5818.00,0.00,15.773,6113,0.004,5.175,0.012,10.569,0.013,12.9
8,5753.00,5753.00,0.00,15.932,6044,0.005,5.209,0.012,10.695,0.012,13.2
9,5626.00,5626.00,0.00,16.327,5911,0.004,5.361,0.012,10.938,0.012,13.3
10,5698.00,5698.00,0.00,15.932,5986,0.006,5.178,0.013,10.722,0.013,13.5
11,5611.00,5611.00,0.00,16.290,5895,0.004,5.346,0.012,10.914,0.013,13.2
12,5791.00,5791.00,0.00,15.808,6084,0.005,5.174,0.012,10.604,0.013,13.6
13,5850.00,5850.00,0.00,15.636,6147,0.004,5.124,0.012,10.482,0.013,13.2
14,5510.00,5510.00,0.00,16.604,5789,0.004,5.455,0.012,11.121,0.012,12.9
15,5683.00,5683.00,0.00,16.136,5970,0.004,5.277,0.012,10.829,0.013,14.2
16,5686.00,5686.00,0.00,16.130,5974,0.004,5.285,0.013,10.814,0.014,13.5
17,5620.00,5620.00,0.00,16.327,5905,0.004,5.338,0.012,10.961,0.013,13.1
18,5705.00,5705.00,0.00,15.949,5993,0.004,5.063,0.013,10.855,0.014,13.1
19,5665.00,5665.00,0.00,16.080,5951,0.004,5.216,0.011,10.834,0.015,13.7
20,5717.00,5717.00,0.00,15.998,6006,0.005,5.252,0.012,10.715,0.013,13.8
21,5690.00,5690.00,0.00,16.040,5977,0.003,5.299,0.012,10.714,0.012,13.4
22,5766.00,5766.00,0.00,15.930,6057,0.004,5.264,0.012,10.637,0.013,13.5
23,5594.00,5594.00,0.00,16.364,5877,0.004,5.377,0.013,10.959,0.012,13.9
24,5625.00,5625.00,0.00,16.403,5910,0.003,5.426,0.011,10.950,0.013,13.7
25,5760.00,5760.00,0.00,15.949,6051,0.004,5.287,0.012,10.633,0.013,13.9
26,5699.00,5699.00,0.00,16.072,5987,0.004,5.222,0.012,10.821,0.013,13.5
27,5659.00,5659.00,0.00,16.239,5945,0.003,5.435,0.011,10.776,0.013,14.0
28,5863.00,5863.00,0.00,15.607,6159,0.004,5.214,0.012,10.364,0.014,13.8
29,5695.00,5695.00,0.00,16.143,5983,0.003,5.288,0.012,10.826,0.014,13.5
30,5967.00,5967.00,0.00,15.373,6269,0.004,5.030,0.011,10.314,0.014,13.4
31,5933.00,5933.00,0.00,15.491,6233,0.004,5.072,0.012,10.388,0.014,14.1
32,5624.00,5624.00,0.00,16.234,5909,0.003,5.223,0.013,10.981,0.013,13.5
33,5712.00,5712.00,0.00,16.055,6001,0.005,5.252,0.012,10.773,0.013,13.4
34,5767.00,5767.00,0.00,15.843,6059,0.004,5.205,0.012,10.607,0.014,13.0
35,5707.00,5707.00,0.00,16.089,5996,0.003,5.268,0.012,10.792,0.013,13.8
36,5752.00,5752.00,0.00,15.987,6043,0.003,5.279,0.013,10.678,0.013,14.2
37,5739.00,5739.00,0.00,15.954,6029,0.003,5.186,0.012,10.740,0.013,13.6
38,5630.00,5630.00,0.00,16.366,5915,0.003,5.392,0.011,10.948,0.013,13.9
39,5727.00,5727.00,0.00,16.064,6017,0.003,5.260,0.011,10.777,0.013,13.4
40,5750.00,5750.00,0.00,15.962,6041,0.004,5.196,0.012,10.737,0.013,13.5
41,5755.00,5755.00,0.00,15.987,6046,0.003,5.260,0.012,10.699,0.012,14.0
42,5686.00,5686.00,0.00,16.238,5974,0.004,5.321,0.011,10.889,0.013,13.1
43,5710.00,5710.00,0.00,16.086,5999,0.004,5.243,0.011,10.816,0.013,13.6
44,5611.00,5610.00,1.00,16.438,5894,0.003,5.400,0.012,11.009,0.013,13.6
45,5793.00,5776.00,17.00,15.711,6068,0.004,5.029,0.014,10.646,0.019,12.9
46,5742.00,5716.00,26.00,16.061,6005,0.004,5.274,0.014,10.755,0.014,13.7
47,5617.00,5590.00,27.00,16.371,5873,0.003,5.370,0.011,10.973,0.013,13.7
48,5617.00,5600.00,17.00,16.336,5883,0.004,5.356,0.012,10.951,0.013,13.0
49,5749.00,5744.00,5.00,15.835,6034,0.003,5.258,0.011,10.548,0.015,13.5
50,5708.00,5705.00,3.00,16.091,5993,0.003,5.266,0.011,10.796,0.013,13.0
51,5577.00,5577.00,0.00,16.366,5859,0.004,5.338,0.012,10.999,0.013,13.6
52,5608.00,5608.00,0.00,16.408,5891,0.004,5.377,0.011,11.004,0.012,12.9
53,5679.00,5679.00,0.00,16.193,5966,0.004,5.297,0.012,10.868,0.014,13.7
54,5633.00,5633.00,0.00,16.285,5918,0.004,5.316,0.012,10.940,0.013,13.0
55,5692.00,5692.00,0.00,16.183,5980,0.004,5.319,0.011,10.837,0.013,13.6
56,5554.00,5554.00,0.00,16.542,5835,0.003,5.411,0.011,11.104,0.013,13.1
57,5549.00,5549.00,0.00,16.468,5830,0.004,5.355,0.012,11.083,0.015,13.0
58,5687.00,5687.00,0.00,16.098,5974,0.003,5.246,0.011,10.824,0.013,13.2
59,5687.00,5687.00,0.00,16.170,5975,0.003,5.320,0.011,10.822,0.013,13.5
60,5750.00,5750.00,0.00,15.909,6041,0.003,5.180,0.011,10.700,0.014,13.9
61,5667.00,5667.00,0.00,16.226,5953,0.003,5.326,0.011,10.872,0.013,13.5
62,5662.00,5662.00,0.00,16.212,5948,0.004,5.300,0.012,10.882,0.014,13.4
63,5840.00,5840.00,0.00,15.720,6135,0.004,5.150,0.011,10.542,0.014,13.4
64,5744.00,5744.00,0.00,15.948,6034,0.004,5.244,0.012,10.674,0.014,12.8
65,5755.00,5755.00,0.00,15.941,6046,0.004,5.210,0.013,10.698,0.015,13.4
66,5690.00,5690.00,0.00,16.102,5978,0.004,5.267,0.011,10.807,0.013,13.6
67,5702.00,5702.00,0.00,16.084,5991,0.003,5.244,0.011,10.811,0.014,14.3
68,5662.00,5662.00,0.00,16.256,5949,0.003,5.344,0.011,10.883,0.014,13.4
69,5679.00,5679.00,0.00,16.152,5966,0.004,5.296,0.012,10.828,0.013,13.1
70,5797.00,5797.00,0.00,15.769,6090,0.004,5.126,0.012,10.614,0.013,13.5
71,5665.00,5665.00,0.00,16.259,5952,0.004,5.354,0.012,10.875,0.014,13.3
72,5690.00,5690.00,0.00,16.131,5978,0.003,5.287,0.012,10.815,0.014,13.6
73,5573.00,5573.00,0.00,16.463,5855,0.004,5.426,0.012,11.008,0.013,13.0
74,3499.00,3499.00,0.00,16.257,3676,0.004,5.264,0.011,10.966,0.012,13.0
