Second,Ops/sec,Hits/sec,Misses/sec,Latency,KB/sec,Request_Creation_Time,Request_Buffer_Time,MW_Writes_To_Memcached_Time,Memcached_Process_Time,MW_Writes_To_Memtier_Time,Queue_Size
4,1305.00,1305.00,0.00,1.156,1371,0.024,0.244,0.024,0.831,0.032,0.8
5,5689.00,5689.00,0.00,1.467,5977,0.008,0.351,0.014,1.077,0.016,0.8
6,5710.00,5710.00,0.00,1.651,5999,0.005,0.455,0.012,1.165,0.014,0.9
7,5547.00,5547.00,0.00,1.670,5827,0.006,0.468,0.012,1.171,0.013,0.9
8,5619.00,5619.00,0.00,1.671,5903,0.005,0.461,0.013,1.179,0.013,0.9
9,5545.00,5542.00,3.00,1.706,5822,0.005,0.481,0.012,1.194,0.014,0.9
10,5594.00,5585.00,9.00,1.701,5867,0.006,0.470,0.012,1.199,0.014,0.9
11,5680.00,5680.00,0.00,1.694,5967,0.005,0.473,0.012,1.190,0.013,1.0
12,5592.00,5592.00,0.00,1.676,5875,0.005,0.470,0.012,1.176,0.013,1.0
13,5552.00,5552.00,0.00,1.723,5833,0.005,0.478,0.012,1.216,0.014,0.9
14,5528.00,5528.00,0.00,1.751,5807,0.005,0.493,0.011,1.229,0.013,1.0
15,5511.00,5511.00,0.00,1.701,5790,0.005,0.459,0.012,1.213,0.013,0.9
16,5599.00,5599.00,0.00,1.649,5882,0.005,0.444,0.012,1.175,0.013,0.9
17,5871.00,5871.00,0.00,1.582,6168,0.004,0.440,0.013,1.113,0.013,0.9
18,5594.00,5594.00,0.00,1.683,5877,0.004,0.474,0.011,1.182,0.013,0.9
19,5605.00,5602.00,3.00,1.713,5885,0.004,0.479,0.011,1.206,0.013,1.0
20,5616.00,5610.00,6.00,1.692,5894,0.004,0.474,0.011,1.189,0.013,0.9
21,5584.00,5581.00,3.00,1.697,5863,0.004,0.483,0.011,1.186,0.013,0.9
22,5681.00,5681.00,0.00,1.672,5968,0.004,0.464,0.011,1.181,0.013,0.9
23,5529.00,5529.00,0.00,1.738,5809,0.004,0.500,0.011,1.210,0.013,0.9
24,5664.00,5664.00,0.00,1.695,5950,0.004,0.475,0.011,1.192,0.013,0.9
25,5523.00,5523.00,0.00,1.751,5802,0.004,0.501,0.011,1.221,0.013,0.9
26,5575.00,5575.00,0.00,1.700,5857,0.004,0.477,0.011,1.195,0.013,0.9
27,5781.00,5781.00,0.00,1.633,6073,0.004,0.452,0.012,1.152,0.014,0.9
28,5572.00,5572.00,0.00,1.716,5854,0.004,0.479,0.011,1.209,0.013,0.9
29,5459.00,5459.00,0.00,1.728,5735,0.004,0.503,0.011,1.197,0.013,1.0
30,5466.00,5466.00,0.00,1.730,5742,0.004,0.484,0.012,1.218,0.013,1.0
31,5465.00,5465.00,0.00,1.726,5741,0.004,0.493,0.011,1.205,0.013,1.0
32,5632.00,5632.00,0.00,1.678,5917,0.004,0.477,0.011,1.172,0.013,1.0
33,5599.00,5599.00,0.00,1.676,5882,0.004,0.462,0.011,1.185,0.013,0.9
34,5545.00,5545.00,0.00,1.726,5825,0.004,0.487,0.011,1.210,0.013,1.0
35,5671.00,5671.00,0.00,1.667,5958,0.004,0.469,0.011,1.170,0.013,0.9
36,5706.00,5706.00,0.00,1.666,5995,0.004,0.462,0.011,1.176,0.013,0.9
37,5695.00,5695.00,0.00,1.694,5983,0.004,0.476,0.011,1.189,0.014,1.0
38,5784.00,5784.00,0.00,1.624,6076,0.004,0.452,0.011,1.145,0.013,0.9
39,5764.00,5764.00,0.00,1.641,6055,0.006,0.455,0.011,1.155,0.013,0.9
40,5607.00,5607.00,0.00,1.725,5891,0.004,0.484,0.011,1.213,0.013,1.0
41,5513.00,5513.00,0.00,1.695,5792,0.004,0.479,0.011,1.187,0.013,1.0
42,5532.00,5532.00,0.00,1.745,5812,0.004,0.499,0.011,1.218,0.013,1.0
43,5650.00,5650.00,0.00,1.673,5936,0.004,0.460,0.011,1.185,0.013,1.0
44,5578.00,5578.00,0.00,1.710,5860,0.005,0.474,0.011,1.207,0.013,1.0
45,5592.00,5591.00,1.00,1.704,5874,0.004,0.486,0.011,1.190,0.013,1.0
46,5598.00,5596.00,2.00,1.686,5879,0.004,0.467,0.012,1.190,0.013,0.9
47,5396.00,5393.00,3.00,1.733,5666,0.004,0.494,0.012,1.209,0.014,1.1
48,5664.00,5661.00,3.00,1.666,5947,0.004,0.462,0.011,1.176,0.013,0.9
49,5537.00,5532.00,5.00,1.697,5812,0.004,0.475,0.011,1.194,0.013,0.9
50,5607.00,5601.00,6.00,1.677,5884,0.004,0.477,0.011,1.173,0.013,1.0
51,5497.00,5495.00,2.00,1.701,5773,0.004,0.481,0.011,1.191,0.014,1.0
52,5550.00,5544.00,6.00,1.678,5824,0.004,0.472,0.012,1.177,0.013,0.9
53,5750.00,5746.00,4.00,1.643,6037,0.004,0.475,0.011,1.140,0.013,1.0
54,5470.00,5467.00,3.00,1.719,5743,0.006,0.482,0.011,1.207,0.013,1.0
55,5396.00,5395.00,1.00,1.745,5668,0.004,0.505,0.011,1.210,0.015,1.0
56,5628.00,5628.00,0.00,1.703,5913,0.004,0.476,0.011,1.200,0.013,0.9
57,5577.00,5577.00,0.00,1.702,5859,0.004,0.480,0.011,1.194,0.013,0.9
58,5621.00,5621.00,0.00,1.655,5905,0.004,0.455,0.011,1.172,0.013,0.9
59,5561.00,5561.00,0.00,1.693,5842,0.004,0.462,0.011,1.202,0.014,0.9
60,5570.00,5570.00,0.00,1.703,5852,0.004,0.477,0.011,1.198,0.013,1.0
61,5468.00,5468.00,0.00,1.687,5744,0.004,0.476,0.011,1.183,0.013,0.9
62,5510.00,5510.00,0.00,1.707,5789,0.004,0.488,0.011,1.191,0.013,1.0
63,5461.00,5461.00,0.00,1.723,5737,0.004,0.476,0.011,1.219,0.013,0.9
64,5598.00,5598.00,0.00,1.709,5881,0.004,0.477,0.011,1.203,0.013,0.9
65,5676.00,5676.00,0.00,1.676,5963,0.004,0.463,0.011,1.185,0.013,0.9
66,5707.00,5707.00,0.00,1.655,5996,0.004,0.464,0.011,1.163,0.013,0.9
67,5681.00,5681.00,0.00,1.662,5968,0.004,0.459,0.011,1.175,0.013,1.0
68,5695.00,5695.00,0.00,1.680,5983,0.004,0.468,0.011,1.184,0.013,1.0
69,5564.00,5564.00,0.00,1.720,5845,0.004,0.488,0.011,1.203,0.014,0.9
70,5577.00,5577.00,0.00,1.696,5859,0.004,0.477,0.011,1.191,0.013,0.9
71,5383.00,5383.00,0.00,1.726,5655,0.005,0.525,0.011,1.170,0.015,1.0
72,5640.00,5640.00,0.00,1.669,5925,0.004,0.466,0.011,1.175,0.013,0.9
73,5666.00,5666.00,0.00,1.688,5953,0.004,0.473,0.011,1.188,0.013,0.9
74,4085.00,4085.00,0.00,1.754,4292,0.004,0.504,0.011,1.221,0.013,1.0
