Second,Ops/sec,Hits/sec,Misses/sec,Latency,KB/sec,Request_Creation_Time,Request_Buffer_Time,MW_Writes_To_Memcached_Time,Memcached_Process_Time,MW_Writes_To_Memtier_Time,Queue_Size
4,1490.00,1490.00,0.00,1.570,166,0.026,0.193,0.086,1.227,0.039,0.5
5,5947.00,5947.00,0.00,1.361,661,0.007,0.086,0.019,1.236,0.013,0.3
6,6646.00,6646.00,0.00,1.373,738,0.005,0.095,0.014,1.248,0.013,0.4
7,6416.00,6416.00,0.00,1.419,713,0.005,0.110,0.014,1.278,0.013,0.4
8,6327.00,6327.00,0.00,1.438,703,0.005,0.121,0.015,1.285,0.013,0.5
9,6092.00,6080.00,12.00,1.444,675,0.005,0.088,0.015,1.323,0.014,0.4
10,6680.00,6680.00,0.00,1.346,742,0.006,0.101,0.015,1.212,0.013,0.4
11,6371.00,6371.00,0.00,1.446,708,0.004,0.092,0.014,1.323,0.013,0.4
12,6591.00,6591.00,0.00,1.379,732,0.004,0.090,0.014,1.258,0.013,0.4
13,6407.00,6407.00,0.00,1.445,712,0.004,0.096,0.014,1.318,0.013,0.4
14,6030.00,6030.00,0.00,1.509,670,0.004,0.127,0.014,1.352,0.013,0.4
15,6249.00,6249.00,0.00,1.447,694,0.004,0.098,0.016,1.317,0.012,0.4
16,6583.00,6583.00,0.00,1.353,731,0.004,0.085,0.014,1.238,0.012,0.4
17,6309.00,6309.00,0.00,1.459,701,0.003,0.101,0.014,1.328,0.013,0.4
18,6493.00,6483.00,10.00,1.403,720,0.004,0.099,0.013,1.274,0.013,0.5
19,6109.00,6107.00,2.00,1.447,678,0.004,0.148,0.013,1.268,0.013,0.5
20,6465.00,6465.00,0.00,1.399,718,0.004,0.102,0.015,1.266,0.013,0.5
21,7033.00,7033.00,0.00,1.274,781,0.003,0.087,0.014,1.157,0.013,0.4
22,6700.00,6700.00,0.00,1.364,745,0.004,0.091,0.014,1.243,0.013,0.4
23,6558.00,6558.00,0.00,1.377,729,0.003,0.093,0.013,1.254,0.013,0.4
24,6425.00,6425.00,0.00,1.417,714,0.003,0.109,0.014,1.277,0.013,0.4
25,7066.00,7066.00,0.00,1.235,785,0.003,0.092,0.014,1.113,0.013,0.4
26,6455.00,6455.00,0.00,1.411,717,0.003,0.095,0.013,1.286,0.013,0.4
27,6121.00,6121.00,0.00,1.455,680,0.004,0.152,0.014,1.271,0.014,0.6
28,6504.00,6504.00,0.00,1.389,723,0.003,0.091,0.014,1.267,0.013,0.4
29,6241.00,6241.00,0.00,1.466,693,0.004,0.102,0.014,1.333,0.013,0.4
30,6380.00,6380.00,0.00,1.414,709,0.003,0.106,0.014,1.277,0.014,0.5
31,6468.00,6468.00,0.00,1.400,719,0.003,0.105,0.014,1.265,0.013,0.5
32,6767.00,6767.00,0.00,1.332,752,0.003,0.099,0.014,1.203,0.013,0.4
33,6797.00,6797.00,0.00,1.316,755,0.003,0.098,0.014,1.188,0.013,0.5
34,6310.00,6310.00,0.00,1.447,701,0.003,0.126,0.014,1.291,0.013,0.5
35,6354.00,6354.00,0.00,1.414,706,0.004,0.107,0.014,1.276,0.013,0.5
36,6706.00,6706.00,0.00,1.333,745,0.003,0.086,0.014,1.215,0.014,0.4
37,6979.00,6979.00,0.00,1.273,775,0.004,0.102,0.014,1.140,0.013,0.5
38,6269.00,6269.00,0.00,1.413,697,0.005,0.118,0.014,1.263,0.013,0.5
39,6510.00,6510.00,0.00,1.396,723,0.004,0.096,0.014,1.269,0.013,0.4
40,6789.00,6786.00,3.00,1.294,754,0.003,0.088,0.013,1.175,0.014,0.4
41,6632.00,6632.00,0.00,1.369,737,0.004,0.088,0.014,1.250,0.014,0.4
42,6616.00,6611.00,5.00,1.358,735,0.003,0.093,0.014,1.235,0.013,0.4
43,6567.00,6560.00,7.00,1.394,729,0.004,0.092,0.014,1.272,0.013,0.4
44,6198.00,6193.00,5.00,1.487,688,0.003,0.104,0.014,1.349,0.016,0.4
45,6692.00,6689.00,3.00,1.323,743,0.004,0.095,0.014,1.197,0.014,0.4
46,6968.00,6959.00,9.00,1.261,773,0.003,0.091,0.014,1.138,0.013,0.4
47,6610.00,6606.00,4.00,1.365,734,0.003,0.098,0.013,1.236,0.014,0.5
48,6007.00,6007.00,0.00,1.573,667,0.003,0.093,0.015,1.449,0.013,0.4
49,6395.00,6395.00,0.00,1.410,711,0.004,0.105,0.014,1.273,0.014,0.5
50,6667.00,6667.00,0.00,1.352,741,0.004,0.108,0.015,1.212,0.013,0.4
51,6396.00,6396.00,0.00,1.430,711,0.004,0.106,0.014,1.293,0.013,0.4
52,6575.00,6575.00,0.00,1.345,730,0.005,0.100,0.014,1.214,0.013,0.4
53,6777.00,6777.00,0.00,1.336,753,0.003,0.088,0.014,1.218,0.013,0.4
54,5827.00,5827.00,0.00,1.553,647,0.004,0.150,0.014,1.373,0.014,0.6
55,6447.00,6447.00,0.00,1.394,716,0.004,0.114,0.014,1.249,0.013,0.5
56,6585.00,6585.00,0.00,1.372,732,0.004,0.106,0.014,1.235,0.013,0.4
57,6232.00,6232.00,0.00,1.428,692,0.003,0.105,0.014,1.293,0.013,0.5
58,6386.00,6386.00,0.00,1.416,709,0.004,0.131,0.014,1.254,0.013,0.5
59,6445.00,6445.00,0.00,1.388,716,0.004,0.136,0.014,1.222,0.014,0.6
60,6379.00,6379.00,0.00,1.445,709,0.004,0.091,0.014,1.322,0.013,0.4
61,6592.00,6592.00,0.00,1.385,732,0.003,0.102,0.014,1.254,0.013,0.4
62,6468.00,6468.00,0.00,1.389,719,0.004,0.135,0.014,1.222,0.014,0.6
63,6209.00,6209.00,0.00,1.482,690,0.003,0.097,0.014,1.354,0.013,0.4
64,6550.00,6550.00,0.00,1.390,728,0.004,0.092,0.014,1.267,0.013,0.5
65,6373.00,6373.00,0.00,1.414,708,0.004,0.097,0.015,1.284,0.014,0.4
66,6036.00,6036.00,0.00,1.514,671,0.004,0.105,0.014,1.379,0.013,0.5
67,6569.00,6569.00,0.00,1.371,730,0.004,0.138,0.014,1.203,0.013,0.5
68,6511.00,6511.00,0.00,1.350,723,0.004,0.092,0.014,1.227,0.013,0.4
69,6114.00,6114.00,0.00,1.508,679,0.003,0.108,0.014,1.370,0.013,0.4
70,6713.00,6713.00,0.00,1.366,746,0.003,0.090,0.014,1.245,0.013,0.5
71,6460.00,6460.00,0.00,1.413,718,0.003,0.100,0.014,1.283,0.013,0.4
72,6446.00,6446.00,0.00,1.387,716,0.004,0.100,0.014,1.256,0.013,0.4
73,6329.00,6329.00,0.00,1.438,703,0.004,0.105,0.013,1.303,0.013,0.5
74,4280.00,4280.00,0.00,1.464,476,0.004,0.104,0.014,1.329,0.013,0.5
