"Dstat 0.7.2 CSV output"
"Author:","Dag Wieers <dag@wieers.com>",,,,"URL:","http://dag.wieers.com/home-made/dstat/"
"Host:","Server1",,,,"User:","mstevan"
"Cmdline:","dstat --output /home/mstevan/logs/experiment_3.2/dstat/vs_1024-vcpr_8-wtpm_32-rep_3.csv 5 16",,,,"Date:","28 Oct 2019 10:21:23 UTC"

"total cpu usage",,,,,,"dsk/total",,"net/total",,"paging",,"system",
"usr","sys","idl","wai","hiq","siq","read","writ","recv","send","in","out","int","csw"
5.412,13.101,79.037,0.271,0.0,2.180,7081.037,1088682.308,0.0,0.0,0.0,0.0,0.093,3027.387
0.401,0.401,99.198,0.0,0.0,0.0,0.0,1638.400,14281.0,92559.800,0.0,0.0,0.0,162.0
3.145,7.128,88.889,0.0,0.0,0.839,0.0,819.200,552367.800,7354359.600,0.0,0.0,0.0,5020.800
3.004,6.009,90.343,0.0,0.0,0.644,0.0,1638.400,580539.400,7690643.600,0.0,0.0,0.0,4760.800
2.553,5.957,90.638,0.0,0.0,0.851,0.0,1638.400,594995.200,7933035.400,0.0,0.0,0.0,4834.600
3.383,5.920,89.641,0.423,0.0,0.634,0.0,22118.400,597037.600,7913292.400,0.0,0.0,0.0,4896.400
3.165,6.751,89.451,0.0,0.0,0.633,0.0,1638.400,605564.600,8028597.200,0.0,0.0,0.0,4746.600
2.737,6.737,89.684,0.0,0.0,0.842,0.0,2457.600,612975.200,8173381.600,0.0,0.0,0.0,4936.400
2.784,7.066,89.507,0.0,0.0,0.642,0.0,1638.400,622773.800,8261895.0,0.0,0.0,0.0,5037.800
3.191,6.383,89.574,0.0,0.0,0.851,0.0,1638.400,623087.200,8265918.800,0.0,0.0,0.0,4767.600
2.542,6.992,89.831,0.0,0.0,0.636,0.0,819.200,628341.800,8373481.0,0.0,0.0,0.0,5029.600
1.961,6.318,89.325,1.743,0.0,0.654,0.0,15564.800,609629.600,8083671.400,0.0,0.0,0.0,4854.200
3.185,5.732,90.234,0.0,0.0,0.849,0.0,819.200,622828.200,8293414.400,0.0,0.0,0.0,5031.600
3.426,5.996,90.150,0.0,0.0,0.428,0.0,1638.400,623292.600,8274863.400,0.0,0.0,0.0,4938.400
3.390,6.992,88.771,0.0,0.0,0.847,0.0,3276.800,629267.600,8343232.200,0.0,0.0,0.0,4981.0
3.419,6.624,89.530,0.0,0.0,0.427,0.0,819.200,598727.200,7976478.200,0.0,0.0,0.0,4896.400
0.599,0.399,99.002,0.0,0.0,0.0,0.0,1638.400,6227.200,1812.0,0.0,0.0,0.0,65.400
