"Dstat 0.7.2 CSV output"
"Author:","Dag Wieers <dag@wieers.com>",,,,"URL:","http://dag.wieers.com/home-made/dstat/"
"Host:","Server1",,,,"User:","mstevan"
"Cmdline:","dstat --output /home/mstevan/logs/experiment_3.2/dstat/vs_1024-vcpr_16-wtpm_32-rep_2.csv 5 16",,,,"Date:","28 Oct 2019 10:37:01 UTC"

"total cpu usage",,,,,,"dsk/total",,"net/total",,"paging",,"system",
"usr","sys","idl","wai","hiq","siq","read","writ","recv","send","in","out","int","csw"
5.332,12.889,79.374,0.266,0.0,2.139,6920.282,1064065.986,0.0,0.0,0.0,0.0,0.091,3029.481
0.402,0.0,99.598,0.0,0.0,0.0,0.0,1638.400,9438.0,26247.600,0.0,0.0,0.0,108.200
2.548,6.794,89.809,0.0,0.0,0.849,0.0,819.200,694487.800,9262213.800,0.0,0.0,0.0,4145.200
3.397,7.643,88.110,0.0,0.0,0.849,0.0,1638.400,741019.800,9839309.400,0.0,0.0,0.0,4064.0
2.820,5.640,90.889,0.0,0.0,0.651,0.0,3276.800,735407.200,9772830.200,0.0,0.0,0.0,4212.400
2.766,7.234,89.149,0.0,0.0,0.851,0.0,819.200,750247.800,10011945.600,0.0,0.0,0.0,4265.0
2.985,6.823,81.663,7.249,0.0,1.279,0.0,18841.600,750927.800,9972806.0,0.0,0.0,0.0,4023.800
3.617,8.085,87.447,0.0,0.0,0.851,0.0,2457.600,757754.600,10102772.800,0.0,0.0,0.0,4207.200
3.397,7.219,88.323,0.0,0.0,1.062,0.0,1638.400,754988.200,10035682.200,0.0,0.0,0.0,4094.0
2.620,5.895,90.611,0.0,0.0,0.873,0.0,1638.400,766549.800,10187415.800,0.0,0.0,0.0,3900.0
3.158,8.211,87.789,0.0,0.0,0.842,0.0,819.200,770219.200,10277132.200,0.0,0.0,0.0,4188.400
3.632,7.479,88.034,0.0,0.0,0.855,0.0,1638.400,753970.0,10012699.600,0.0,0.0,0.0,4021.0
3.586,7.806,87.131,0.211,0.0,1.266,0.0,18841.600,771145.400,10253465.800,0.0,0.0,0.0,4032.0
3.602,8.051,87.712,0.0,0.0,0.636,0.0,819.200,766087.600,10223308.600,0.0,0.0,0.0,4136.400
3.185,7.643,87.898,0.0,0.0,1.274,0.0,3276.800,758529.400,10083484.200,0.0,0.0,0.0,4015.0
3.426,6.210,89.722,0.0,0.0,0.642,0.0,819.200,738218.400,9841582.600,0.0,0.0,0.0,3822.0
0.201,0.201,99.598,0.0,0.0,0.0,0.0,1638.400,6214.0,1798.800,0.0,0.0,0.0,68.0
