"Dstat 0.7.2 CSV output"
"Author:","Dag Wieers <dag@wieers.com>",,,,"URL:","http://dag.wieers.com/home-made/dstat/"
"Host:","Server1",,,,"User:","mstevan"
"Cmdline:","dstat --output /home/mstevan/logs/experiment_3.2/dstat/vs_1024-vcpr_32-wtpm_64-rep_1.csv 5 16",,,,"Date:","28 Oct 2019 10:58:20 UTC"

"total cpu usage",,,,,,"dsk/total",,"net/total",,"paging",,"system",
"usr","sys","idl","wai","hiq","siq","read","writ","recv","send","in","out","int","csw"
5.242,12.642,79.766,0.261,0.0,2.089,6712.480,1032247.306,0.0,0.0,0.0,0.0,0.088,3032.045
0.602,0.201,99.197,0.0,0.0,0.0,0.0,1638.400,13838.600,66480.600,0.0,0.0,0.0,152.600
2.361,7.082,89.700,0.0,0.0,0.858,0.0,819.200,813986.800,10839155.800,0.0,0.0,0.0,4275.0
3.704,6.972,88.453,0.0,0.0,0.871,0.0,1638.400,907456.200,12081213.200,0.0,0.0,0.0,4249.600
3.640,8.994,85.225,0.214,0.0,1.927,0.0,20480.0,895021.800,11908106.200,0.0,0.0,0.0,4320.0
2.592,7.775,88.985,0.0,0.0,0.648,0.0,819.200,865119.200,11533952.400,0.0,0.0,0.0,4207.0
3.219,8.584,86.695,0.0,0.0,1.502,0.0,1638.400,869692.800,11575145.400,0.0,0.0,0.0,4240.400
3.441,6.452,88.387,0.0,0.0,1.720,0.0,2457.600,871951.600,11640287.600,0.0,0.0,0.0,4265.200
3.240,7.991,87.257,0.0,0.0,1.512,0.0,1638.400,895841.800,11913498.200,0.0,0.0,0.0,4297.400
3.888,7.775,87.041,0.0,0.0,1.296,0.0,1638.400,913386.0,12159521.0,0.0,0.0,0.0,4193.400
3.178,8.263,87.076,0.212,0.0,1.271,0.0,18841.600,900127.0,12010590.800,0.0,0.0,0.0,4248.400
2.575,7.940,87.768,0.0,0.0,1.717,0.0,1638.400,893711.200,11875978.400,0.0,0.0,0.0,4191.0
4.069,7.923,86.938,0.0,0.0,1.071,0.0,1638.400,918642.200,12234244.600,0.0,0.0,0.0,4119.200
3.412,8.102,87.420,0.0,0.0,1.066,0.0,819.200,897492.800,11981148.200,0.0,0.0,0.200,4311.800
3.814,8.686,86.229,0.0,0.0,1.271,0.0,3276.800,893567.600,11885824.800,0.0,0.0,0.0,4408.600
3.789,8.211,86.316,0.0,0.0,1.684,0.0,819.200,865610.800,11555917.400,0.0,0.0,0.0,4329.400
1.020,1.429,95.102,2.041,0.0,0.408,0.0,15564.800,104509.0,1301043.600,0.0,0.0,0.0,919.200
