"Dstat 0.7.2 CSV output"
"Author:","Dag Wieers <dag@wieers.com>",,,,"URL:","http://dag.wieers.com/home-made/dstat/"
"Host:","Server1",,,,"User:","mstevan"
"Cmdline:","dstat --output /home/mstevan/logs/experiment_3.2/dstat/vs_1024-vcpr_8-wtpm_32-rep_4.csv 5 16",,,,"Date:","28 Oct 2019 10:22:48 UTC"

"total cpu usage",,,,,,"dsk/total",,"net/total",,"paging",,"system",
"usr","sys","idl","wai","hiq","siq","read","writ","recv","send","in","out","int","csw"
5.405,13.083,79.066,0.271,0.0,2.176,7066.116,1086397.669,0.0,0.0,0.0,0.0,0.092,3029.541
0.600,0.200,99.0,0.0,0.0,0.200,0.0,819.200,9817.800,71912.400,0.0,0.0,0.0,138.800
3.383,5.497,90.063,0.0,0.0,1.057,0.0,1638.400,542599.200,7187284.800,0.0,0.0,0.0,4616.0
4.008,5.274,89.873,0.0,0.0,0.844,0.0,1638.400,560776.200,7423438.600,0.0,0.0,0.0,4692.800
2.947,6.947,89.474,0.0,0.0,0.632,0.0,2457.600,573712.0,7645984.800,0.0,0.0,0.200,5009.200
2.581,5.161,91.398,0.0,0.0,0.860,0.0,1638.400,575687.600,7627250.0,0.0,0.0,0.0,4925.400
2.160,5.400,91.793,0.216,0.0,0.432,0.0,18841.600,570647.200,7597280.600,0.0,0.0,0.0,4807.400
2.754,6.144,90.254,0.0,0.0,0.847,0.0,3276.800,586128.0,7775116.800,0.0,0.0,0.0,4834.600
2.947,6.947,89.263,0.0,0.0,0.842,0.0,1638.400,577120.600,7648970.600,0.0,0.0,0.0,4982.200
2.766,6.170,90.426,0.0,0.0,0.638,0.0,1638.400,569514.0,7578622.0,0.0,0.0,0.0,4913.0
2.559,6.397,90.192,0.0,0.0,0.853,0.0,1638.400,596043.600,7910339.0,0.0,0.0,0.0,5025.200
2.592,4.752,92.009,0.0,0.0,0.648,0.0,1638.400,579773.800,7682482.600,0.0,0.0,0.0,4770.0
2.521,7.143,88.655,0.420,0.0,1.261,0.0,20480.0,579001.800,7712351.200,0.0,0.0,0.0,4863.400
3.158,6.947,89.474,0.0,0.0,0.421,0.0,1638.400,590280.200,7824768.800,0.0,0.0,0.0,4734.400
2.754,6.144,90.890,0.0,0.0,0.212,0.0,2457.600,586723.600,7781258.200,0.0,0.0,0.0,4628.600
2.941,6.092,90.336,0.0,0.0,0.630,0.0,1638.400,563545.800,7503940.400,0.0,0.0,0.0,4710.200
0.601,0.200,99.198,0.0,0.0,0.0,0.0,1638.400,6214.0,1798.800,0.0,0.0,0.0,69.600
