"Dstat 0.7.2 CSV output"
"Author:","Dag Wieers <dag@wieers.com>",,,,"URL:","http://dag.wieers.com/home-made/dstat/"
"Host:","Server1",,,,"User:","mstevan"
"Cmdline:","dstat --output /home/mstevan/logs/experiment_3.2/dstat/vs_1024-vcpr_4-wtpm_8-rep_3.csv 5 16",,,,"Date:","28 Oct 2019 09:58:39 UTC"

"total cpu usage",,,,,,"dsk/total",,"net/total",,"paging",,"system",
"usr","sys","idl","wai","hiq","siq","read","writ","recv","send","in","out","int","csw"
5.538,13.443,78.494,0.278,0.0,2.247,7328.645,1126588.091,0.0,0.0,0.0,0.0,0.096,3024.023
0.401,0.200,99.399,0.0,0.0,0.0,0.0,819.200,7802.800,57897.800,0.0,0.0,0.0,107.800
2.532,4.219,93.038,0.0,0.0,0.211,0.0,1638.400,355320.400,4669984.0,0.0,0.0,0.0,2150.800
2.105,3.579,94.105,0.0,0.0,0.211,0.0,1638.400,338778.600,4455775.0,0.0,0.0,0.0,2192.400
1.455,4.158,93.971,0.0,0.0,0.416,0.0,4096.0,373483.600,4959373.400,0.0,0.0,0.0,2259.800
1.863,4.969,92.961,0.0,0.0,0.207,0.0,2457.600,374692.600,4939224.600,0.0,0.0,0.0,2046.400
1.895,3.579,93.263,0.632,0.0,0.632,0.0,21299.200,365005.600,4839022.400,0.0,0.0,0.0,2172.600
1.879,3.549,94.154,0.0,0.0,0.418,0.0,3276.800,359121.400,4729747.400,0.0,0.0,0.0,2192.200
1.887,2.725,95.178,0.0,0.0,0.210,0.0,1638.400,365927.200,4821209.0,0.0,0.0,0.0,2111.800
1.458,3.542,94.375,0.0,0.0,0.625,0.0,819.200,373220.600,4957378.0,0.0,0.0,0.0,2208.0
1.875,3.958,93.958,0.0,0.0,0.208,0.0,1638.400,368889.800,4858320.200,0.0,0.0,0.0,2184.800
1.863,4.348,93.168,0.0,0.0,0.621,0.0,1638.400,362067.600,4763655.200,0.0,0.0,0.0,2232.800
1.667,3.750,94.375,0.208,0.0,0.0,0.0,26214.400,359193.600,4772911.200,0.0,0.0,0.0,2260.400
1.656,4.141,93.789,0.0,0.0,0.414,0.0,3276.800,370149.600,4876436.400,0.0,0.0,0.0,2310.400
1.681,3.361,94.748,0.0,0.0,0.210,0.0,3276.800,365334.800,4813128.800,0.0,0.0,0.0,2231.800
1.879,2.923,94.990,0.0,0.0,0.209,0.0,819.200,348720.800,4628863.400,0.0,0.0,0.0,2082.400
0.601,0.0,99.399,0.0,0.0,0.0,0.0,1638.400,6227.200,1798.800,0.0,0.0,0.0,71.800
