"Dstat 0.7.2 CSV output"
"Author:","Dag Wieers <dag@wieers.com>",,,,"URL:","http://dag.wieers.com/home-made/dstat/"
"Host:","Server1",,,,"User:","mstevan"
"Cmdline:","dstat --output /home/mstevan/logs/experiment_3.2/dstat/vs_1024-vcpr_16-wtpm_64-rep_2.csv 5 16",,,,"Date:","28 Oct 2019 10:42:42 UTC"

"total cpu usage",,,,,,"dsk/total",,"net/total",,"paging",,"system",
"usr","sys","idl","wai","hiq","siq","read","writ","recv","send","in","out","int","csw"
5.310,12.828,79.471,0.265,0.0,2.126,6863.618,1055390.230,0.0,0.0,0.0,0.0,0.090,3033.138
0.402,0.402,99.197,0.0,0.0,0.0,0.0,1638.400,12393.600,47846.0,0.0,0.0,0.0,150.400
2.743,7.595,88.819,0.0,0.0,0.844,0.0,819.200,709196.0,9444510.400,0.0,0.0,0.0,4324.400
3.609,6.369,88.747,0.0,0.0,1.274,0.0,1638.400,731632.400,9715829.200,0.0,0.0,0.0,4558.400
2.570,7.281,88.865,0.428,0.0,0.857,0.0,28672.0,719460.0,9563367.400,0.0,0.0,0.0,4336.800
2.760,7.219,89.172,0.0,0.0,0.849,0.0,819.200,744002.400,9920499.400,0.0,0.0,0.0,4344.0
3.433,7.082,88.627,0.0,0.0,0.858,0.0,1638.400,779981.400,10366761.800,0.0,0.0,0.0,4428.200
3.198,6.397,89.339,0.0,0.0,1.066,0.0,3276.800,732197.600,9720431.600,0.0,0.0,0.0,4391.200
3.734,6.846,88.174,0.0,0.0,1.245,0.0,819.200,741133.0,9884413.600,0.0,0.0,0.0,4277.200
2.985,6.823,89.126,0.0,0.0,1.066,0.0,1638.400,737677.400,9787968.600,0.0,0.0,0.0,4314.0
2.998,7.281,88.437,0.428,0.0,0.857,0.0,14745.600,753955.200,10020268.400,0.0,0.0,0.0,4277.0
4.255,7.447,87.447,0.0,0.0,0.851,0.0,1638.400,765147.600,10210455.400,0.0,0.0,0.0,4323.600
3.632,7.265,88.462,0.0,0.0,0.641,0.0,1638.400,764812.800,10163675.400,0.0,0.0,0.0,4495.200
2.597,6.061,90.476,0.0,0.0,0.866,0.0,819.200,755479.600,10073432.200,0.0,0.0,0.0,4361.0
3.983,7.757,87.002,0.0,0.0,1.258,0.0,3276.800,745156.0,9890197.800,0.0,0.0,0.200,4383.200
3.433,6.867,88.841,0.0,0.0,0.858,0.0,1638.400,756091.400,10056417.600,0.0,0.0,0.0,4419.600
0.806,0.403,98.185,0.403,0.0,0.202,0.0,14745.600,42991.800,487582.0,0.0,0.0,0.0,535.400
