"Dstat 0.7.2 CSV output"
"Author:","Dag Wieers <dag@wieers.com>",,,,"URL:","http://dag.wieers.com/home-made/dstat/"
"Host:","Server1",,,,"User:","mstevan"
"Cmdline:","dstat --output /home/mstevan/logs/experiment_3.2/dstat/vs_1024-vcpr_8-wtpm_32-rep_1.csv 5 16",,,,"Date:","28 Oct 2019 10:18:32 UTC"

"total cpu usage",,,,,,"dsk/total",,"net/total",,"paging",,"system",
"usr","sys","idl","wai","hiq","siq","read","writ","recv","send","in","out","int","csw"
5.424,13.137,78.980,0.272,0.0,2.187,7111.070,1093281.028,0.0,0.0,0.0,0.0,0.093,3023.419
0.402,0.604,98.994,0.0,0.0,0.0,0.0,1638.400,14238.0,85612.600,0.0,0.0,0.0,179.800
2.929,6.485,89.331,0.418,0.0,0.837,0.0,18022.400,538460.600,7133056.200,0.0,0.0,0.0,4310.800
2.123,6.157,91.083,0.0,0.0,0.637,0.0,4096.0,588942.400,7845447.400,0.0,0.0,0.0,4614.0
2.526,7.158,89.895,0.0,0.0,0.421,0.0,3276.800,567714.600,7520741.200,0.0,0.0,0.0,4642.800
3.390,5.932,90.254,0.0,0.0,0.424,0.0,819.200,575430.800,7666496.400,0.0,0.0,0.0,4796.800
3.185,5.096,91.295,0.0,0.0,0.425,0.0,1638.400,596843.0,7914412.800,0.0,0.0,0.0,4580.400
3.390,5.932,89.831,0.0,0.0,0.847,0.0,3276.800,601622.600,7980204.800,0.0,0.0,0.0,4752.0
2.350,5.769,91.453,0.0,0.0,0.427,0.0,819.200,605513.0,8070198.200,0.0,0.0,0.0,4769.600
3.125,7.708,88.125,0.417,0.0,0.625,0.0,15564.800,614624.800,8153120.600,0.0,0.0,0.0,4839.0
3.185,5.945,90.234,0.0,0.0,0.637,0.0,1638.400,615613.400,8162858.800,0.0,0.0,0.0,4712.200
2.748,5.920,90.698,0.0,0.0,0.634,0.0,819.200,615927.400,8207033.0,0.0,0.0,0.0,4842.800
3.185,6.794,89.597,0.0,0.0,0.425,0.0,1638.400,616413.400,8174816.600,0.0,0.0,0.0,5108.200
3.478,6.739,88.696,0.0,0.0,1.087,0.0,1638.400,604375.600,8003378.200,0.0,0.0,0.0,4961.400
2.119,7.415,89.619,0.0,0.0,0.847,0.0,2457.600,625237.200,8343055.0,0.0,0.0,0.0,4922.0
3.368,6.737,89.053,0.421,0.0,0.421,0.0,15564.800,594513.0,7878172.600,0.0,0.0,0.0,4809.400
0.0,0.201,99.799,0.0,0.0,0.0,0.0,819.200,3127.0,934.800,0.0,0.0,0.0,59.200
