"Dstat 0.7.2 CSV output"
"Author:","Dag Wieers <dag@wieers.com>",,,,"URL:","http://dag.wieers.com/home-made/dstat/"
"Host:","Server1",,,,"User:","mstevan"
"Cmdline:","dstat --output /home/mstevan/logs/experiment_3.2/dstat/vs_256-vcpr_32-wtpm_64-rep_3.csv 5 16",,,,"Date:","28 Oct 2019 08:44:29 UTC"

"total cpu usage",,,,,,"dsk/total",,"net/total",,"paging",,"system",
"usr","sys","idl","wai","hiq","siq","read","writ","recv","send","in","out","int","csw"
5.997,14.681,76.522,0.305,0.0,2.494,8263.639,1271060.413,0.0,0.0,0.0,0.0,0.108,3013.834
0.201,0.201,99.598,0.0,0.0,0.0,0.0,819.200,11577.800,26173.0,0.0,0.0,0.200,153.400
3.390,7.627,88.136,0.0,0.0,0.847,0.0,1638.400,782239.0,3273794.200,0.0,0.0,0.0,4274.400
4.863,7.611,86.258,0.211,0.0,1.057,0.0,18841.600,892864.200,3754240.200,0.0,0.0,0.0,4219.200
3.226,7.742,88.172,0.0,0.0,0.860,0.0,6553.600,863198.400,3637465.200,0.0,0.0,0.0,4181.600
3.412,7.463,88.060,0.0,0.0,1.066,0.0,1638.400,826706.600,3470579.800,0.0,0.0,0.0,4305.0
2.784,7.281,88.651,0.0,0.0,1.285,0.0,819.200,856117.200,3609018.800,0.0,0.0,0.0,4433.400
3.564,8.386,86.583,0.0,0.0,1.468,0.0,3276.800,853683.400,3585561.0,0.0,0.0,0.0,4304.600
3.178,8.686,87.076,0.0,0.0,1.059,0.0,1638.400,872012.800,3665207.400,0.0,0.0,0.0,4309.200
2.991,8.333,87.821,0.0,0.0,0.855,0.0,1638.400,923458.400,3893677.600,0.0,0.0,0.0,4227.0
4.403,9.434,83.857,0.419,0.0,1.887,0.0,15564.800,910126.400,3823017.800,0.0,0.0,0.0,4237.400
4.246,8.917,86.200,0.0,0.0,0.637,0.0,1638.400,903277.600,3794581.800,0.0,0.0,0.0,4401.200
3.696,6.739,88.696,0.0,0.0,0.870,0.0,819.200,906791.800,3823262.200,0.0,0.0,0.0,4419.0
4.264,8.316,86.567,0.0,0.0,0.853,0.0,1638.400,896826.800,3767961.200,0.0,0.0,0.0,4214.400
4.139,7.190,88.017,0.0,0.0,0.654,0.0,2457.600,927097.800,3909222.800,0.0,0.0,0.0,4331.400
3.205,8.333,87.821,0.0,0.0,0.641,0.0,819.200,902133.0,3802909.800,0.0,0.0,0.0,4233.800
1.840,2.454,94.479,0.613,0.0,0.613,0.0,16384.0,245091.600,999689.800,0.0,0.0,0.0,1963.200
