"Dstat 0.7.2 CSV output"
"Author:","Dag Wieers <dag@wieers.com>",,,,"URL:","http://dag.wieers.com/home-made/dstat/"
"Host:","Server1",,,,"User:","mstevan"
"Cmdline:","dstat --output /home/mstevan/logs/experiment_3.2/dstat/vs_256-vcpr_32-wtpm_64-rep_2.csv 5 16",,,,"Date:","28 Oct 2019 08:43:03 UTC"

"total cpu usage",,,,,,"dsk/total",,"net/total",,"paging",,"system",
"usr","sys","idl","wai","hiq","siq","read","writ","recv","send","in","out","int","csw"
6.006,14.703,76.486,0.306,0.0,2.499,8284.077,1274192.607,0.0,0.0,0.0,0.0,0.108,3012.432
0.604,0.0,99.396,0.0,0.0,0.0,0.0,1638.400,12450.0,18235.800,0.0,0.0,0.0,149.400
2.128,7.660,88.936,0.0,0.0,1.277,0.0,1638.400,833112.200,3510019.600,0.0,0.0,0.0,4103.200
3.625,7.676,87.207,0.426,0.0,1.066,0.0,18841.600,912057.600,3833414.0,0.0,0.0,0.0,4283.0
3.579,8.0,87.158,0.0,0.0,1.263,0.0,2457.600,872127.600,3674741.200,0.0,0.0,0.0,4197.200
3.797,8.439,86.920,0.0,0.0,0.844,0.0,1638.400,891434.800,3744954.0,0.0,0.0,0.0,4298.400
3.185,8.068,87.473,0.0,0.0,1.274,0.0,1638.400,895098.800,3761897.800,0.0,0.0,0.0,4434.600
3.797,8.439,86.709,0.0,0.0,1.055,0.0,2457.600,875925.400,3689379.600,0.0,0.0,0.0,4442.800
3.212,7.281,88.651,0.0,0.0,0.857,0.0,1638.400,895552.600,3764141.600,0.0,0.0,0.0,4357.0
3.838,7.249,87.207,0.640,0.0,1.066,0.0,20480.0,900587.600,3785543.600,0.0,0.0,0.0,4048.600
3.383,8.245,87.526,0.0,0.0,0.846,0.0,819.200,925913.0,3902104.400,0.0,0.0,0.0,4314.800
3.376,8.861,87.131,0.0,0.0,0.633,0.0,1638.400,911532.0,3830299.600,0.0,0.0,0.0,4068.800
2.128,8.511,88.298,0.0,0.0,1.064,0.0,819.200,914332.400,3855497.400,0.0,0.0,0.0,4127.400
3.383,8.245,87.104,0.0,0.0,1.268,0.0,1638.400,895639.200,3763346.0,0.0,0.0,0.0,4248.800
3.838,7.676,87.207,0.0,0.0,1.279,0.0,3276.800,923973.200,3883269.400,0.0,0.0,0.0,4382.800
2.808,6.695,89.417,0.216,0.0,0.864,0.0,15564.800,919596.400,3878291.200,0.0,0.0,0.0,4510.200
0.811,1.420,97.363,0.0,0.0,0.406,0.0,1638.400,109454.200,433086.600,0.0,0.0,0.0,993.400
