"Dstat 0.7.2 CSV output"
"Author:","Dag Wieers <dag@wieers.com>",,,,"URL:","http://dag.wieers.com/home-made/dstat/"
"Host:","Server1",,,,"User:","mstevan"
"Cmdline:","dstat --output /home/mstevan/logs/experiment_3.2/dstat/vs_256-vcpr_16-wtpm_8-rep_3.csv 5 16",,,,"Date:","28 Oct 2019 08:16:04 UTC"

"total cpu usage",,,,,,"dsk/total",,"net/total",,"paging",,"system",
"usr","sys","idl","wai","hiq","siq","read","writ","recv","send","in","out","int","csw"
6.202,15.228,75.648,0.318,0.0,2.604,8692.541,1336794.584,0.0,0.0,0.0,0.0,0.113,3010.963
0.401,0.200,99.399,0.0,0.0,0.0,0.0,819.200,7715.600,18765.200,0.0,0.0,0.0,97.200
2.105,4.0,93.895,0.0,0.0,0.0,0.0,1638.400,356818.600,1484952.600,0.0,0.0,0.0,2231.200
1.883,4.603,93.096,0.0,0.0,0.418,0.0,1638.400,364162.800,1516040.600,0.0,0.0,0.0,2314.200
2.714,4.802,92.067,0.0,0.0,0.418,0.0,1638.400,384212.800,1611715.600,0.0,0.0,0.0,2381.800
2.088,4.802,92.693,0.0,0.0,0.418,0.0,2457.600,372948.600,1550861.200,0.0,0.0,0.0,2465.200
1.887,3.774,93.291,0.839,0.0,0.210,0.0,23756.800,376587.400,1581624.0,0.0,0.0,0.0,2311.200
2.277,3.934,93.168,0.0,0.0,0.621,0.0,3276.800,371861.800,1547761.200,0.0,0.0,0.0,2317.600
2.708,3.750,93.333,0.0,0.0,0.208,0.0,1638.400,367112.200,1528927.0,0.0,0.0,0.0,2299.0
2.292,3.750,93.542,0.0,0.0,0.417,0.0,819.200,370777.200,1555996.0,0.0,0.0,0.0,2252.0
2.101,4.412,93.487,0.0,0.0,0.0,0.0,1638.400,372822.200,1552755.0,0.0,0.0,0.0,2067.400
1.871,3.950,93.971,0.0,0.0,0.208,0.0,1638.400,361721.800,1505881.800,0.0,0.0,0.0,2157.0
1.684,3.368,94.316,0.421,0.0,0.211,0.0,14745.600,343600.0,1439731.600,0.0,0.0,0.0,2085.0
2.277,4.762,92.340,0.0,0.0,0.621,0.0,2457.600,370863.600,1544455.800,0.0,0.0,0.0,2299.600
2.292,3.958,93.125,0.0,0.0,0.625,0.0,2457.600,372815.200,1553136.0,0.0,0.0,0.0,2132.800
2.301,4.184,93.305,0.0,0.0,0.209,0.0,819.200,374984.800,1573523.600,0.0,0.0,0.0,2322.0
0.808,1.212,97.980,0.0,0.0,0.0,0.0,1638.400,51537.400,192210.0,0.0,0.0,0.0,691.800
