"Dstat 0.7.2 CSV output"
"Author:","Dag Wieers <dag@wieers.com>",,,,"URL:","http://dag.wieers.com/home-made/dstat/"
"Host:","Server1",,,,"User:","mstevan"
"Cmdline:","dstat --output /home/mstevan/logs/experiment_3.2/dstat/vs_256-vcpr_32-wtpm_8-rep_2.csv 5 16",,,,"Date:","28 Oct 2019 08:31:41 UTC"

"total cpu usage",,,,,,"dsk/total",,"net/total",,"paging",,"system",
"usr","sys","idl","wai","hiq","siq","read","writ","recv","send","in","out","int","csw"
6.086,14.920,76.142,0.311,0.0,2.542,8451.293,1299818.786,0.0,0.0,0.0,0.0,0.110,3013.389
0.602,0.201,99.197,0.0,0.0,0.0,0.0,4096.0,9881.400,15885.800,0.0,0.0,0.0,120.600
2.277,3.934,93.582,0.0,0.0,0.207,0.0,819.200,342685.200,1436806.800,0.0,0.0,0.0,2034.200
1.903,3.594,94.292,0.0,0.0,0.211,0.0,2457.600,357354.0,1486993.0,0.0,0.0,0.0,2076.800
1.461,4.802,93.319,0.0,0.0,0.418,0.0,1638.400,356814.0,1485543.600,0.0,0.0,0.0,2131.0
1.461,3.967,94.154,0.0,0.0,0.418,0.0,1638.400,354505.0,1486834.600,0.0,0.0,0.0,2122.400
1.891,3.992,93.697,0.0,0.0,0.420,0.0,1638.400,358586.800,1491388.400,0.0,0.0,0.0,2078.200
2.092,4.184,92.887,0.209,0.0,0.628,0.0,21299.200,367804.200,1531422.200,0.0,0.0,0.0,2239.400
1.660,4.564,93.568,0.0,0.0,0.207,0.0,819.200,364698.600,1530393.800,0.0,0.0,0.0,2219.800
1.691,3.594,94.292,0.0,0.0,0.423,0.0,1638.400,361280.600,1499094.600,0.0,0.0,0.0,2130.0
1.663,4.990,92.931,0.0,0.0,0.416,0.0,819.200,371013.600,1558026.200,0.0,0.0,0.0,2319.0
1.883,3.766,93.933,0.0,0.0,0.418,0.0,1638.400,345790.400,1438744.800,0.0,0.0,0.0,2085.600
1.452,5.187,93.154,0.0,0.0,0.207,0.0,1638.400,363241.600,1511908.400,0.0,0.0,0.0,2128.200
1.674,3.975,93.096,0.628,0.0,0.628,0.0,23756.800,375759.200,1577560.800,0.0,0.0,0.0,2203.0
2.714,3.758,93.319,0.0,0.0,0.209,0.0,2457.600,366611.200,1525705.200,0.0,0.0,0.0,2066.600
2.708,4.167,92.917,0.0,0.0,0.208,0.0,1638.400,367976.0,1532356.400,0.0,0.0,0.0,2128.800
0.806,1.008,98.185,0.0,0.0,0.0,0.0,819.200,70473.200,285977.0,0.0,0.0,0.0,463.400
