"Dstat 0.7.2 CSV output"
"Author:","Dag Wieers <dag@wieers.com>",,,,"URL:","http://dag.wieers.com/home-made/dstat/"
"Host:","Server1",,,,"User:","mstevan"
"Cmdline:","dstat --output /home/mstevan/logs/experiment_3.2/dstat/vs_256-vcpr_8-wtpm_32-rep_4.csv 5 16",,,,"Date:","28 Oct 2019 08:06:07 UTC"

"total cpu usage",,,,,,"dsk/total",,"net/total",,"paging",,"system",
"usr","sys","idl","wai","hiq","siq","read","writ","recv","send","in","out","int","csw"
6.283,15.447,75.301,0.322,0.0,2.647,8853.376,1361441.795,0.0,0.0,0.0,0.0,0.115,3003.240
0.201,0.201,99.598,0.0,0.0,0.0,0.0,1638.400,11470.400,18972.0,0.0,0.0,0.0,139.200
3.138,5.858,89.958,0.209,0.0,0.837,0.0,1638.400,553713.200,2317938.400,0.0,0.0,0.0,4772.200
2.935,6.918,86.583,2.516,0.0,1.048,0.0,21299.200,590827.400,2483628.200,0.0,0.0,0.0,5004.200
2.947,6.737,89.474,0.0,0.0,0.842,0.0,3276.800,608258.600,2548870.600,0.0,0.0,0.0,4964.800
2.935,6.289,90.566,0.0,0.0,0.210,0.0,819.200,613339.800,2574835.800,0.0,0.0,0.0,4990.600
2.954,7.173,89.030,0.0,0.0,0.844,0.0,1638.400,608775.800,2557894.200,0.0,0.0,0.0,5158.200
3.426,5.996,90.150,0.0,0.0,0.428,0.0,3276.800,619340.200,2593624.800,0.0,0.0,0.0,5054.0
2.960,6.342,89.852,0.0,0.0,0.846,0.0,819.200,624946.400,2633471.600,0.0,0.0,0.0,5119.0
2.985,6.823,88.913,0.426,0.0,0.853,0.0,14745.600,636787.0,2667230.800,0.0,0.0,0.0,5324.0
3.397,6.794,88.323,0.0,0.0,1.486,0.0,1638.400,638182.0,2676763.600,0.0,0.0,0.0,5296.600
3.383,6.554,89.429,0.0,0.0,0.634,0.0,819.200,624776.600,2628937.800,0.0,0.0,0.0,5288.200
3.564,7.338,88.260,0.0,0.0,0.839,0.0,1638.400,620139.600,2597199.0,0.0,0.0,0.0,5098.600
3.609,6.582,88.960,0.0,0.0,0.849,0.0,1638.400,635308.200,2665207.600,0.0,0.0,0.0,5201.600
1.915,7.447,89.787,0.0,0.0,0.851,0.0,2457.600,627938.0,2644231.400,0.0,0.0,0.0,5100.0
3.404,8.085,87.872,0.213,0.0,0.426,0.0,15564.800,635382.600,2660056.800,0.0,0.0,0.0,5123.0
0.400,0.0,99.600,0.0,0.0,0.0,0.0,819.200,3127.0,934.800,0.0,0.0,0.0,61.200
