"Dstat 0.7.2 CSV output"
"Author:","Dag Wieers <dag@wieers.com>",,,,"URL:","http://dag.wieers.com/home-made/dstat/"
"Host:","Server1",,,,"User:","mstevan"
"Cmdline:","dstat --output /home/mstevan/logs/experiment_3.2/dstat/vs_256-vcpr_16-wtpm_32-rep_3.csv 5 16",,,,"Date:","28 Oct 2019 08:21:45 UTC"

"total cpu usage",,,,,,"dsk/total",,"net/total",,"paging",,"system",
"usr","sys","idl","wai","hiq","siq","read","writ","recv","send","in","out","int","csw"
6.156,15.107,75.843,0.315,0.0,2.579,8603.236,1323106.693,0.0,0.0,0.0,0.0,0.112,3007.091
0.401,0.200,99.399,0.0,0.0,0.0,0.0,819.200,12633.600,36404.200,0.0,0.0,0.0,166.800
3.178,7.203,88.559,0.0,0.0,1.059,0.0,1638.400,699961.400,2936461.400,0.0,0.0,0.0,3965.600
2.548,7.643,88.960,0.0,0.0,0.849,0.0,819.200,735257.400,3096734.800,0.0,0.0,0.0,4092.600
4.393,6.485,87.448,0.418,0.0,1.255,0.0,20480.0,728144.600,3055913.400,0.0,0.0,0.0,4131.600
3.390,7.839,87.712,0.0,0.0,1.059,0.0,4915.200,748881.400,3143815.200,0.0,0.0,0.0,4241.800
2.581,7.097,89.677,0.0,0.0,0.645,0.0,819.200,753632.400,3174569.400,0.0,0.0,0.0,4358.0
2.998,7.281,88.223,0.0,0.0,1.499,0.0,3276.800,771983.600,3238948.200,0.0,0.0,0.0,4240.400
3.789,7.368,87.789,0.0,0.0,1.053,0.0,1638.400,758040.0,3182609.0,0.0,0.0,0.0,4152.200
2.947,7.368,89.263,0.0,0.0,0.421,0.0,819.200,763354.800,3216879.600,0.0,0.0,0.0,4078.600
3.390,6.780,88.136,0.424,0.0,1.271,0.0,15564.800,781392.0,3279954.800,0.0,0.0,0.0,3941.0
2.966,7.415,88.771,0.0,0.0,0.847,0.0,819.200,769870.400,3245564.400,0.0,0.0,0.0,4103.0
3.219,7.082,88.841,0.0,0.0,0.858,0.0,1638.400,790620.400,3318784.0,0.0,0.0,0.0,3988.200
3.950,8.108,86.694,0.0,0.0,1.247,0.0,1638.400,777594.800,3264091.600,0.0,0.0,0.0,3930.0
4.086,5.806,89.247,0.0,0.0,0.860,0.0,2457.600,775449.0,3269289.200,0.0,0.0,0.0,4207.800
3.586,8.228,87.553,0.0,0.0,0.633,0.0,1638.400,738678.800,3100829.400,0.0,0.0,0.0,3872.600
0.609,0.203,98.783,0.406,0.0,0.0,0.0,15564.800,34465.400,117492.600,0.0,0.0,0.0,430.0
