"Dstat 0.7.2 CSV output"
"Author:","Dag Wieers <dag@wieers.com>",,,,"URL:","http://dag.wieers.com/home-made/dstat/"
"Host:","Server1",,,,"User:","mstevan"
"Cmdline:","dstat --output /home/mstevan/logs/experiment_3.2/dstat/vs_256-vcpr_16-wtpm_64-rep_2.csv 5 16",,,,"Date:","28 Oct 2019 08:26:00 UTC"

"total cpu usage",,,,,,"dsk/total",,"net/total",,"paging",,"system",
"usr","sys","idl","wai","hiq","siq","read","writ","recv","send","in","out","int","csw"
6.127,15.029,75.967,0.313,0.0,2.564,8537.448,1313021.785,0.0,0.0,0.0,0.0,0.111,3010.886
0.800,0.400,98.800,0.0,0.0,0.0,0.0,1638.400,15558.600,30870.800,0.0,0.0,0.0,180.400
2.110,7.595,88.608,0.422,0.0,1.266,0.0,25395.200,723062.800,3045289.0,0.0,0.0,0.0,4517.0
2.966,6.992,89.195,0.0,0.0,0.847,0.0,1638.400,761810.800,3196207.200,0.0,0.0,0.0,4395.200
2.725,7.547,89.099,0.0,0.0,0.629,0.0,2457.600,748114.200,3151085.600,0.0,0.0,0.0,4433.200
3.448,6.897,89.009,0.0,0.0,0.647,0.0,1638.400,750749.800,3147899.0,0.0,0.0,0.0,4274.400
2.929,8.159,87.448,0.0,0.0,1.464,0.0,1638.400,761692.600,3197078.200,0.0,0.0,0.0,4516.200
2.991,6.624,89.530,0.0,0.0,0.855,0.0,2457.600,740293.400,3117632.600,0.0,0.0,0.0,4434.400
2.972,7.643,87.898,0.425,0.0,1.062,0.0,15564.800,772446.600,3243650.600,0.0,0.0,0.0,4579.200
3.191,7.447,88.298,0.0,0.0,1.064,0.0,1638.400,793284.200,3329981.800,0.0,0.0,0.0,4511.200
2.760,7.431,88.747,0.0,0.0,1.062,0.0,819.200,783517.0,3303112.400,0.0,0.0,0.0,4658.0
3.185,7.643,88.110,0.0,0.0,1.062,0.0,1638.400,807502.800,3391540.400,0.0,0.0,0.0,4597.0
3.419,7.479,88.034,0.0,0.0,1.068,0.0,819.200,789164.0,3315926.200,0.0,0.0,0.0,4600.800
3.361,7.563,88.025,0.0,0.0,1.050,0.0,1638.400,786278.200,3307997.600,0.0,0.0,0.0,4503.600
3.368,8.211,86.316,0.632,0.0,1.474,0.0,17203.200,799850.400,3361896.200,0.0,0.0,0.0,4671.600
3.782,7.563,87.815,0.0,0.0,0.840,0.0,819.200,779485.800,3280327.0,0.0,0.0,0.0,4646.800
0.400,0.400,99.200,0.0,0.0,0.0,0.0,1638.400,6250.0,1810.400,0.0,0.0,0.0,67.800
