"Dstat 0.7.2 CSV output"
"Author:","Dag Wieers <dag@wieers.com>",,,,"URL:","http://dag.wieers.com/home-made/dstat/"
"Host:","Server1",,,,"User:","mstevan"
"Cmdline:","dstat --output /home/mstevan/logs/experiment_3.2/dstat/vs_256-vcpr_8-wtpm_64-rep_4.csv 5 16",,,,"Date:","28 Oct 2019 08:11:48 UTC"

"total cpu usage",,,,,,"dsk/total",,"net/total",,"paging",,"system",
"usr","sys","idl","wai","hiq","siq","read","writ","recv","send","in","out","int","csw"
6.240,15.328,75.489,0.320,0.0,2.623,8760.753,1347248.954,0.0,0.0,0.0,0.0,0.114,3014.420
0.399,0.399,99.002,0.0,0.0,0.200,0.0,819.200,11558.0,26651.400,0.0,0.0,0.0,160.400
2.581,4.946,91.398,0.215,0.0,0.860,0.0,18841.600,544234.200,2270735.400,0.0,0.0,0.0,4641.600
2.350,5.556,91.453,0.0,0.0,0.641,0.0,819.200,567939.0,2388692.800,0.0,0.0,0.0,4951.800
2.766,5.532,91.064,0.0,0.0,0.638,0.0,2457.600,563814.0,2356515.0,0.0,0.0,0.0,4758.400
2.581,6.237,90.753,0.0,0.0,0.430,0.0,2457.600,584667.200,2446195.600,0.0,0.0,0.0,4829.600
2.766,6.170,89.787,0.0,0.0,1.277,0.0,819.200,591887.200,2490940.400,0.0,0.0,0.0,4913.800
2.564,6.197,89.530,0.0,0.0,1.709,0.0,3276.800,587116.800,2455760.0,0.0,0.0,0.0,4954.200
3.354,7.547,88.260,0.210,0.0,0.629,0.0,22118.400,592224.800,2476971.400,0.0,0.0,0.0,5018.400
3.171,6.554,89.218,0.0,0.0,1.057,0.0,819.200,604685.200,2543597.600,0.0,0.0,0.0,5111.200
3.888,4.968,90.497,0.0,0.0,0.648,0.0,1638.400,594700.600,2488472.800,0.0,0.0,0.0,4983.600
2.725,6.499,89.937,0.0,0.0,0.839,0.0,819.200,597817.600,2512918.400,0.0,0.0,0.0,4873.800
4.008,5.907,89.451,0.0,0.0,0.633,0.0,1638.400,597637.600,2500242.0,0.0,0.0,0.0,4946.200
3.354,7.128,88.470,0.0,0.0,1.048,0.0,2457.600,604754.400,2531073.600,0.0,0.0,0.0,5094.200
1.915,7.234,88.723,1.277,0.0,0.851,0.0,15564.800,600598.800,2526382.600,0.0,0.0,0.0,5080.400
3.368,7.158,89.053,0.0,0.0,0.421,0.0,1638.400,578957.200,2419499.600,0.0,0.0,0.0,4757.600
0.600,0.200,99.200,0.0,0.0,0.0,0.0,1638.400,6214.0,1798.800,0.0,0.0,0.0,69.600
