"Dstat 0.7.2 CSV output"
"Author:","Dag Wieers <dag@wieers.com>",,,,"URL:","http://dag.wieers.com/home-made/dstat/"
"Host:","Server1",,,,"User:","mstevan"
"Cmdline:","dstat --output /home/mstevan/logs/experiment_3.2/dstat/vs_256-vcpr_4-wtpm_32-rep_2.csv 5 16",,,,"Date:","28 Oct 2019 07:46:13 UTC"

"total cpu usage",,,,,,"dsk/total",,"net/total",,"paging",,"system",
"usr","sys","idl","wai","hiq","siq","read","writ","recv","send","in","out","int","csw"
6.464,15.928,74.532,0.332,0.0,2.744,9193.563,1413588.189,0.0,0.0,0.0,0.0,0.119,2991.872
0.601,0.601,98.798,0.0,0.0,0.0,0.0,1638.400,8788.600,18791.600,0.0,0.0,0.0,144.0
2.141,4.925,92.077,0.0,0.0,0.857,0.0,1638.400,422396.800,1761855.400,0.0,0.0,0.0,4725.600
2.972,6.582,90.021,0.0,0.0,0.425,0.0,1638.400,464074.400,1938578.0,0.0,0.0,0.0,5057.600
2.123,6.794,90.021,0.0,0.0,1.062,0.0,2457.600,464828.800,1953909.400,0.0,0.0,0.0,5238.0
2.917,6.667,90.0,0.0,0.0,0.417,0.0,1638.400,441544.800,1843372.0,0.0,0.0,0.0,4797.0
2.454,4.090,92.843,0.0,0.0,0.613,0.0,819.200,328905.600,1378073.200,0.0,0.0,0.0,2786.0
1.486,4.671,92.781,0.425,0.0,0.637,0.0,18841.600,418173.200,1742901.800,0.0,0.0,0.0,4131.200
2.917,5.208,91.458,0.0,0.0,0.417,0.0,1638.400,401637.0,1673032.0,0.0,0.0,0.0,3861.400
2.316,5.895,91.368,0.0,0.0,0.421,0.0,819.200,435937.0,1831082.800,0.0,0.0,0.0,4407.800
2.083,3.542,93.958,0.0,0.0,0.417,0.0,1638.400,329033.0,1367966.400,0.0,0.0,0.0,2701.400
1.452,2.905,95.228,0.0,0.0,0.415,0.0,1638.400,290410.600,1203855.0,0.0,0.0,0.0,2008.0
1.452,2.905,95.643,0.0,0.0,0.0,0.0,819.200,287240.200,1202948.400,0.0,0.0,0.0,2032.600
1.856,3.299,93.402,1.031,0.0,0.412,0.0,18022.400,292411.200,1209335.400,0.0,0.0,0.0,2031.800
3.347,5.858,90.586,0.0,0.0,0.209,0.0,2457.600,423616.0,1769639.800,0.0,0.0,0.0,4308.600
2.537,5.920,91.332,0.0,0.0,0.211,0.0,1638.400,458191.800,1923826.400,0.0,0.0,0.200,4913.600
0.201,0.402,99.398,0.0,0.0,0.0,0.0,1638.400,6214.0,1798.800,0.0,0.0,0.0,66.0
