"Dstat 0.7.2 CSV output"
"Author:","Dag Wieers <dag@wieers.com>",,,,"URL:","http://dag.wieers.com/home-made/dstat/"
"Host:","Server1",,,,"User:","mstevan"
"Cmdline:","dstat --output /home/mstevan/logs/experiment_3.2/dstat/vs_256-vcpr_32-wtpm_8-rep_4.csv 5 16",,,,"Date:","28 Oct 2019 08:34:32 UTC"

"total cpu usage",,,,,,"dsk/total",,"net/total",,"paging",,"system",
"usr","sys","idl","wai","hiq","siq","read","writ","recv","send","in","out","int","csw"
6.061,14.854,76.246,0.309,0.0,2.529,8408.861,1293315.056,0.0,0.0,0.0,0.0,0.110,3007.601
0.401,0.200,99.399,0.0,0.0,0.0,0.0,2457.600,8152.800,8858.600,0.0,0.0,0.0,85.200
1.879,3.132,94.572,0.0,0.0,0.418,0.0,819.200,336339.800,1409815.0,0.0,0.0,0.0,2178.200
1.883,3.766,91.213,2.929,0.0,0.209,0.0,22937.600,318602.0,1323268.400,0.0,0.0,0.0,2100.800
1.255,3.766,94.561,0.0,0.0,0.418,0.0,2457.600,365337.800,1533368.0,0.0,0.0,0.0,2066.600
1.486,3.822,94.480,0.0,0.0,0.212,0.0,1638.400,368357.200,1532791.0,0.0,0.0,0.0,2122.400
2.311,3.361,94.118,0.0,0.0,0.210,0.0,1638.400,356790.200,1484714.600,0.0,0.0,0.0,2142.800
1.887,3.774,94.130,0.0,0.0,0.210,0.0,2457.600,360465.200,1512969.200,0.0,0.0,0.0,2120.400
1.907,3.390,94.280,0.0,0.0,0.424,0.0,1638.400,367584.400,1529848.0,0.0,0.0,0.0,2136.400
1.887,3.774,93.501,0.419,0.0,0.419,0.0,16384.0,361040.200,1499657.400,0.0,0.0,0.0,2169.0
1.895,3.579,94.105,0.0,0.0,0.421,0.0,819.200,365350.800,1532029.600,0.0,0.0,0.0,2151.600
1.474,4.0,94.105,0.0,0.0,0.421,0.0,2457.600,368902.400,1536419.200,0.0,0.0,0.0,2266.200
1.255,4.812,93.515,0.0,0.0,0.418,0.0,819.200,359796.400,1510132.600,0.0,0.0,0.0,2051.600
1.887,4.612,93.291,0.0,0.0,0.210,0.0,1638.400,360095.400,1498598.400,0.0,0.0,0.0,2153.0
1.477,3.376,95.148,0.0,0.0,0.0,0.0,3276.800,353909.200,1472274.200,0.0,0.0,0.0,2123.200
1.899,3.586,94.304,0.211,0.0,0.0,0.0,15564.800,362225.200,1520570.0,0.0,0.0,0.0,2175.800
0.607,0.810,98.381,0.0,0.0,0.202,0.0,1638.400,61272.0,234540.200,0.0,0.0,0.0,526.800
