"Dstat 0.7.2 CSV output"
"Author:","Dag Wieers <dag@wieers.com>",,,,"URL:","http://dag.wieers.com/home-made/dstat/"
"Host:","Server1",,,,"User:","mstevan"
"Cmdline:","dstat --output /home/mstevan/logs/experiment_3.2/dstat/vs_256-vcpr_8-wtpm_8-rep_4.csv 5 16",,,,"Date:","28 Oct 2019 08:00:26 UTC"

"total cpu usage",,,,,,"dsk/total",,"net/total",,"paging",,"system",
"usr","sys","idl","wai","hiq","siq","read","writ","recv","send","in","out","int","csw"
6.330,15.573,75.099,0.325,0.0,2.673,8947.973,1375942.607,0.0,0.0,0.0,0.0,0.116,2996.952
0.601,0.200,99.198,0.0,0.0,0.0,0.0,1638.400,9428.600,14111.800,0.0,0.0,0.0,105.600
2.110,3.376,94.093,0.0,0.0,0.422,0.0,819.200,353630.200,1483969.200,0.0,0.0,0.0,2385.0
1.887,3.354,94.340,0.0,0.0,0.419,0.0,1638.400,365623.400,1520693.600,0.0,0.0,0.0,2100.0
1.271,2.966,95.551,0.0,0.0,0.212,0.0,2457.600,360526.400,1501071.600,0.0,0.0,0.0,2088.200
2.079,4.782,92.723,0.208,0.0,0.208,0.0,18841.600,383243.600,1608891.800,0.0,0.0,0.0,2233.0
2.479,4.959,92.149,0.0,0.0,0.413,0.0,1638.400,378401.200,1576882.800,0.0,0.0,0.0,2195.800
2.911,4.158,92.723,0.0,0.0,0.208,0.0,3276.800,373109.0,1552613.800,0.0,0.0,0.0,2114.400
1.883,3.766,94.142,0.0,0.0,0.209,0.0,819.200,356787.200,1496975.200,0.0,0.0,0.0,2149.800
1.867,5.187,92.531,0.0,0.0,0.415,0.0,1638.400,368296.200,1533431.800,0.0,0.0,0.0,2137.800
1.656,4.348,93.582,0.0,0.0,0.414,0.0,819.200,364500.800,1529515.600,0.0,0.0,0.0,2021.600
2.454,5.112,91.820,0.409,0.0,0.204,0.0,19660.800,364057.200,1514094.800,0.0,0.0,0.0,2068.400
2.505,4.175,93.111,0.0,0.0,0.209,0.0,1638.400,371414.600,1546996.200,0.0,0.0,0.0,2096.800
2.092,3.556,93.933,0.0,0.0,0.418,0.0,819.200,367890.0,1544083.400,0.0,0.0,0.0,2070.800
1.903,3.171,94.503,0.0,0.0,0.423,0.0,3276.800,364674.200,1518319.600,0.0,0.0,0.0,2159.200
1.677,3.983,93.920,0.0,0.0,0.419,0.0,1638.400,370739.0,1543574.0,0.0,0.0,0.0,2069.200
0.600,0.200,99.200,0.0,0.0,0.0,0.0,819.200,3127.0,934.800,0.0,0.0,0.0,62.200
