"Dstat 0.7.2 CSV output"
"Author:","Dag Wieers <dag@wieers.com>",,,,"URL:","http://dag.wieers.com/home-made/dstat/"
"Host:","Server1",,,,"User:","mstevan"
"Cmdline:","dstat --output /home/mstevan/logs/experiment_3.2/dstat/vs_256-vcpr_4-wtpm_32-rep_3.csv 5 16",,,,"Date:","28 Oct 2019 07:47:38 UTC"

"total cpu usage",,,,,,"dsk/total",,"net/total",,"paging",,"system",
"usr","sys","idl","wai","hiq","siq","read","writ","recv","send","in","out","int","csw"
6.450,15.891,74.592,0.331,0.0,2.736,9168.400,1409728.787,0.0,0.0,0.0,0.0,0.119,2992.237
0.805,0.201,98.592,0.402,0.0,0.0,0.0,18841.600,12012.400,21101.600,0.0,0.0,0.0,152.400
2.114,5.074,92.389,0.0,0.0,0.423,0.0,1638.400,391857.0,1631766.600,0.0,0.0,0.0,4347.400
1.502,4.936,93.133,0.0,0.0,0.429,0.0,819.200,434112.0,1824852.0,0.0,0.0,0.0,4693.800
2.335,5.945,90.870,0.0,0.0,0.849,0.0,2457.600,453145.400,1891281.400,0.0,0.0,0.0,4941.400
2.361,5.794,91.631,0.0,0.0,0.215,0.0,2457.600,442556.0,1847848.0,0.0,0.0,0.0,4762.400
1.483,6.356,91.525,0.0,0.0,0.636,0.0,819.200,439046.400,1844878.0,0.0,0.0,0.0,4811.0
1.735,5.206,92.191,0.0,0.0,0.868,0.0,3276.800,449900.200,1878881.600,0.0,0.0,0.0,4782.400
3.846,4.915,90.171,0.427,0.0,0.641,0.0,22118.400,444013.600,1851240.0,0.0,0.0,0.0,4786.800
2.321,5.696,91.350,0.0,0.0,0.633,0.0,819.200,434386.0,1825187.400,0.0,0.0,0.0,4702.400
2.743,6.118,90.717,0.0,0.0,0.422,0.0,1638.400,454179.200,1897177.800,0.0,0.0,0.0,4793.600
2.123,5.945,91.720,0.0,0.0,0.212,0.0,819.200,454809.200,1911370.400,0.0,0.0,0.0,4971.800
2.141,5.996,91.649,0.0,0.0,0.214,0.0,1638.400,453709.0,1895436.200,0.0,0.0,0.0,4982.400
2.954,5.696,90.928,0.0,0.0,0.422,0.0,1638.400,444910.400,1857669.600,0.0,0.0,0.0,4721.400
1.919,5.544,91.684,0.426,0.0,0.426,0.0,16384.0,450345.800,1892292.800,0.0,0.0,0.0,4840.800
2.609,4.130,92.826,0.0,0.0,0.435,0.0,1638.400,444274.200,1854139.600,0.0,0.0,0.0,4872.0
0.604,0.201,99.195,0.0,0.0,0.0,0.0,1638.400,6298.400,1941.200,0.0,0.0,0.0,69.800
