"Dstat 0.7.2 CSV output"
"Author:","Dag Wieers <dag@wieers.com>",,,,"URL:","http://dag.wieers.com/home-made/dstat/"
"Host:","Server1",,,,"User:","mstevan"
"Cmdline:","dstat --output /home/mstevan/logs/experiment_3.2/dstat/vs_256-vcpr_32-wtpm_8-rep_1.csv 5 16",,,,"Date:","28 Oct 2019 08:30:16 UTC"

"total cpu usage",,,,,,"dsk/total",,"net/total",,"paging",,"system",
"usr","sys","idl","wai","hiq","siq","read","writ","recv","send","in","out","int","csw"
6.098,14.953,76.089,0.311,0.0,2.548,8472.667,1303093.897,0.0,0.0,0.0,0.0,0.110,3016.318
0.401,0.401,99.198,0.0,0.0,0.0,0.0,1638.400,10334.600,18086.400,0.0,0.0,0.0,110.800
1.474,4.0,94.105,0.0,0.0,0.421,0.0,819.200,339592.200,1421832.800,0.0,0.0,0.0,2108.200
2.296,3.967,93.528,0.0,0.0,0.209,0.0,1638.400,345168.200,1435670.800,0.0,0.0,0.0,2283.800
1.903,3.594,94.080,0.0,0.0,0.423,0.0,3276.800,366718.200,1527706.200,0.0,0.0,0.0,2166.600
2.088,3.549,93.946,0.0,0.0,0.418,0.0,819.200,364141.0,1527950.600,0.0,0.0,0.0,2224.200
2.469,4.938,91.770,0.206,0.0,0.617,0.0,23756.800,367778.0,1531788.600,0.0,0.0,0.0,2091.200
1.681,3.782,94.118,0.0,0.0,0.420,0.0,3276.800,359644.600,1496441.400,0.0,0.0,0.0,2098.600
2.521,3.151,94.118,0.0,0.0,0.210,0.0,819.200,372394.0,1563109.200,0.0,0.0,0.0,2116.0
1.468,3.983,94.130,0.0,0.0,0.419,0.0,2457.600,357176.0,1482128.400,0.0,0.0,0.0,2182.400
2.101,3.782,93.908,0.0,0.0,0.210,0.0,1638.400,366438.400,1526021.800,0.0,0.0,0.0,2200.800
1.871,4.366,93.347,0.0,0.0,0.416,0.0,819.200,378444.400,1588729.600,0.0,0.0,0.0,2383.200
1.860,5.579,91.736,0.413,0.0,0.413,0.0,15564.800,370174.400,1539806.0,0.0,0.0,0.0,2138.600
1.046,3.556,94.561,0.0,0.0,0.837,0.0,819.200,371757.800,1560714.200,0.0,0.0,0.0,2238.400
1.883,5.230,92.469,0.0,0.0,0.418,0.0,3276.800,401131.400,1671001.400,0.0,0.0,0.0,2455.600
2.110,3.586,93.882,0.0,0.0,0.422,0.0,1638.400,381429.600,1589329.200,0.0,0.0,0.0,2270.200
0.811,0.406,98.783,0.0,0.0,0.0,0.0,819.200,75992.200,308759.800,0.0,0.0,0.0,477.0
