"Dstat 0.7.2 CSV output"
"Author:","Dag Wieers <dag@wieers.com>",,,,"URL:","http://dag.wieers.com/home-made/dstat/"
"Host:","Server1",,,,"User:","mstevan"
"Cmdline:","dstat --output /home/mstevan/logs/experiment_3.2/dstat/vs_256-vcpr_8-wtpm_64-rep_2.csv 5 16",,,,"Date:","28 Oct 2019 08:08:57 UTC"

"total cpu usage",,,,,,"dsk/total",,"net/total",,"paging",,"system",
"usr","sys","idl","wai","hiq","siq","read","writ","recv","send","in","out","int","csw"
6.261,15.388,75.394,0.321,0.0,2.635,8806.829,1354307.353,0.0,0.0,0.0,0.0,0.115,3009.157
0.401,0.601,98.998,0.0,0.0,0.0,0.0,1638.400,12844.800,19511.400,0.0,0.0,0.0,159.800
2.731,6.303,90.546,0.0,0.0,0.420,0.0,1638.400,538351.600,2260180.800,0.0,0.0,0.0,4623.600
2.564,6.838,89.957,0.0,0.0,0.641,0.0,1638.400,576697.0,2408938.600,0.0,0.0,0.0,4978.0
3.586,5.696,90.084,0.0,0.0,0.633,0.0,1638.400,582732.800,2443886.600,0.0,0.0,0.0,4858.400
2.311,8.193,87.815,0.420,0.0,1.261,0.0,18841.600,587950.200,2465714.400,0.0,0.0,0.0,4899.400
3.151,7.143,88.445,0.0,0.0,1.261,0.0,7372.800,586447.800,2438671.200,0.0,0.0,0.0,4874.600
3.004,5.579,90.558,0.0,0.0,0.858,0.0,2457.600,588917.0,2477906.600,0.0,0.0,0.0,5170.400
3.419,5.769,90.385,0.0,0.0,0.427,0.0,1638.400,575138.200,2405836.400,0.0,0.0,0.0,5022.800
3.185,6.157,89.809,0.0,0.0,0.849,0.0,1638.400,590011.400,2469792.0,0.0,0.0,0.0,4909.600
2.929,6.904,89.331,0.0,0.0,0.837,0.0,819.200,568415.800,2389370.600,0.0,0.0,0.0,4671.200
3.158,6.737,89.053,0.421,0.0,0.632,0.0,26214.400,582243.600,2436169.600,0.0,0.0,0.0,4838.600
2.760,6.369,90.234,0.0,0.0,0.637,0.0,1638.400,586936.600,2454726.400,0.0,0.0,0.0,4960.200
2.559,6.183,90.832,0.0,0.0,0.426,0.0,1638.400,576350.800,2423592.0,0.0,0.0,0.0,4935.0
2.581,6.022,90.968,0.0,0.0,0.430,0.0,4915.200,583798.800,2441230.0,0.0,0.0,0.0,4825.400
2.725,7.128,89.727,0.0,0.0,0.419,0.0,819.200,568738.0,2390097.400,0.0,0.0,0.0,4777.0
0.402,0.201,99.398,0.0,0.0,0.0,0.0,1638.400,6214.0,1798.800,0.0,0.0,0.0,67.0
