"Dstat 0.7.2 CSV output"
"Author:","Dag Wieers <dag@wieers.com>",,,,"URL:","http://dag.wieers.com/home-made/dstat/"
"Host:","Server1",,,,"User:","mstevan"
"Cmdline:","dstat --output /home/mstevan/logs/experiment_3.2/dstat/vs_512-vcpr_4-wtpm_32-rep_3.csv 5 16",,,,"Date:","28 Oct 2019 08:55:59 UTC"

"total cpu usage",,,,,,"dsk/total",,"net/total",,"paging",,"system",
"usr","sys","idl","wai","hiq","siq","read","writ","recv","send","in","out","int","csw"
5.915,14.460,76.874,0.301,0.0,2.450,8101.755,1246252.576,0.0,0.0,0.0,0.0,0.106,3009.492
0.402,0.201,99.398,0.0,0.0,0.0,0.0,1638.400,11504.200,31826.400,0.0,0.0,0.0,135.600
2.737,4.632,92.0,0.0,0.0,0.632,0.0,819.200,390512.400,2820698.800,0.0,0.0,0.0,4326.0
1.911,5.732,91.720,0.0,0.0,0.637,0.0,1638.400,427916.600,3072544.0,0.0,0.0,0.0,4651.600
2.960,6.342,89.852,0.0,0.0,0.846,0.0,3276.800,448492.200,3219965.0,0.0,0.0,0.0,4812.0
1.499,5.353,92.505,0.0,0.0,0.642,0.0,819.200,431537.200,3117666.400,0.0,0.0,0.0,4728.200
3.132,6.472,89.353,0.626,0.0,0.418,0.0,19660.800,443495.400,3185607.400,0.0,0.0,0.0,4882.800
2.316,5.895,91.368,0.0,0.0,0.421,0.0,2457.600,441485.0,3191914.600,0.0,0.0,0.0,4890.800
2.725,6.709,89.937,0.0,0.0,0.629,0.0,1638.400,443715.0,3185660.200,0.0,0.0,0.0,4935.400
3.165,5.907,90.717,0.0,0.0,0.211,0.0,1638.400,451927.200,3247385.200,0.0,0.0,0.0,4924.0
3.542,5.833,90.0,0.0,0.0,0.625,0.0,1638.400,446105.0,3226969.0,0.0,0.0,0.0,4861.200
3.185,5.732,90.658,0.0,0.0,0.425,0.0,1638.400,446213.200,3204996.800,0.0,0.0,0.0,4933.0
3.368,6.316,89.263,0.632,0.0,0.421,0.0,19660.800,448395.400,3221888.800,0.0,0.0,0.0,4954.0
2.935,5.870,90.776,0.0,0.0,0.419,0.0,819.200,437156.600,3161492.800,0.0,0.0,0.0,4778.600
2.559,5.757,91.471,0.0,0.0,0.213,0.0,3276.800,422956.200,3037108.200,0.0,0.0,0.0,4600.400
2.526,5.684,91.368,0.0,0.0,0.421,0.0,819.200,414087.800,2991402.200,0.0,0.0,0.0,4608.200
0.802,0.401,98.798,0.0,0.0,0.0,0.0,1638.400,6639.400,2352.600,0.0,0.0,0.0,89.0
