"Dstat 0.7.2 CSV output"
"Author:","Dag Wieers <dag@wieers.com>",,,,"URL:","http://dag.wieers.com/home-made/dstat/"
"Host:","Server1",,,,"User:","mstevan"
"Cmdline:","dstat --output /home/mstevan/logs/experiment_3.2/dstat/vs_512-vcpr_8-wtpm_64-rep_1.csv 5 16",,,,"Date:","28 Oct 2019 09:15:53 UTC"

"total cpu usage",,,,,,"dsk/total",,"net/total",,"paging",,"system",
"usr","sys","idl","wai","hiq","siq","read","writ","recv","send","in","out","int","csw"
5.780,14.096,77.453,0.293,0.0,2.377,7844.730,1205593.497,0.0,0.0,0.0,0.0,0.102,3020.887
0.402,0.201,99.398,0.0,0.0,0.0,0.0,1638.400,11988.800,24184.200,0.0,0.0,0.0,136.800
2.766,5.532,90.638,0.0,0.0,1.064,0.0,1638.400,527329.0,3790420.400,0.0,0.0,0.0,4646.200
2.335,5.732,90.446,0.637,0.0,0.849,0.0,18841.600,572794.800,4139126.400,0.0,0.0,0.0,4885.400
3.145,6.289,89.518,0.0,0.0,1.048,0.0,3276.800,589223.400,4248596.200,0.0,0.0,0.0,4847.600
3.549,8.142,87.265,0.0,0.0,1.044,0.0,1638.400,581524.400,4184551.0,0.0,0.0,0.0,4794.400
2.923,6.889,89.353,0.0,0.0,0.835,0.0,819.200,587655.400,4254669.200,0.0,0.0,0.0,4942.600
2.790,6.438,89.485,0.0,0.0,1.288,0.0,3276.800,592329.400,4261629.800,0.0,0.0,0.0,4938.600
2.979,6.170,90.426,0.0,0.0,0.426,0.0,819.200,587725.0,4257448.800,0.0,0.0,0.0,5091.600
2.766,6.809,88.936,0.0,0.0,1.489,0.0,19660.800,592298.600,4266213.0,0.0,0.0,0.0,4995.600
2.542,6.568,90.254,0.0,0.0,0.636,0.0,1638.400,577467.800,4155226.800,0.0,0.0,0.0,4850.0
1.911,7.643,90.234,0.0,0.0,0.212,0.0,1638.400,586173.600,4245919.800,0.0,0.0,0.0,4936.0
2.766,6.809,89.362,0.0,0.0,1.064,0.0,1638.400,598881.400,4309933.0,0.0,0.0,0.0,5001.0
3.212,5.782,90.578,0.0,0.0,0.428,0.0,1638.400,601148.0,4333611.0,0.0,0.0,0.0,5004.600
3.011,6.237,90.323,0.0,0.0,0.430,0.0,2457.600,597156.600,4322086.0,0.0,0.0,0.0,5023.400
3.205,5.128,90.598,0.641,0.0,0.427,0.0,20480.0,575418.800,4135597.800,0.0,0.0,0.0,4760.400
0.200,0.200,99.599,0.0,0.0,0.0,0.0,819.200,3127.0,934.800,0.0,0.0,0.0,60.0
