"Dstat 0.7.2 CSV output"
"Author:","Dag Wieers <dag@wieers.com>",,,,"URL:","http://dag.wieers.com/home-made/dstat/"
"Host:","Server1",,,,"User:","mstevan"
"Cmdline:","dstat --output /home/mstevan/logs/experiment_3.2/dstat/vs_512-vcpr_16-wtpm_32-rep_3.csv 5 16",,,,"Date:","28 Oct 2019 09:30:05 UTC"

"total cpu usage",,,,,,"dsk/total",,"net/total",,"paging",,"system",
"usr","sys","idl","wai","hiq","siq","read","writ","recv","send","in","out","int","csw"
5.689,13.857,77.836,0.288,0.0,2.330,7665.369,1178136.258,0.0,0.0,0.0,0.0,0.100,3022.143
0.201,0.201,99.598,0.0,0.0,0.0,0.0,1638.400,11495.0,30992.400,0.0,0.0,0.0,136.600
2.748,6.765,89.641,0.0,0.0,0.846,0.0,819.200,716197.400,5193246.800,0.0,0.0,0.0,4021.0
3.233,6.466,89.440,0.216,0.0,0.647,0.0,18841.600,746620.400,5390267.800,0.0,0.0,0.0,4157.200
3.205,6.624,89.316,0.0,0.0,0.855,0.0,2457.600,753704.0,5442211.800,0.0,0.0,0.0,4341.0
3.814,8.051,87.712,0.0,0.0,0.424,0.0,1638.400,749501.400,5436959.800,0.0,0.0,0.0,4289.200
2.778,8.333,88.034,0.0,0.0,0.855,0.0,2457.600,755947.400,5458788.600,0.0,0.0,0.0,4198.600
2.361,6.652,90.129,0.0,0.0,0.858,0.0,819.200,764516.600,5542854.200,0.0,0.0,0.0,4282.600
3.171,7.822,88.161,0.0,0.0,0.846,0.0,1638.400,759618.200,5509549.0,0.0,0.0,0.0,4254.600
3.549,8.351,86.221,0.418,0.0,1.461,0.0,16384.0,765079.400,5527664.600,0.0,0.0,0.0,4171.0
3.456,7.559,88.337,0.0,0.0,0.648,0.0,6553.600,762896.0,5510696.200,0.0,0.0,0.0,4297.800
3.151,7.773,88.655,0.0,0.0,0.420,0.0,819.200,761696.600,5525429.400,0.0,0.0,0.0,4301.0
3.185,7.431,88.323,0.0,0.0,1.062,0.0,1638.400,768631.800,5554139.200,0.0,0.0,0.0,4134.200
3.390,7.203,88.771,0.0,0.0,0.636,0.0,3276.800,762409.400,5517299.0,0.0,0.0,0.0,4022.600
2.553,8.085,89.149,0.0,0.0,0.213,0.0,1638.400,769595.800,5569447.600,0.0,0.0,0.200,4087.200
2.748,8.245,87.526,0.423,0.0,1.057,0.0,16384.0,758728.0,5479555.800,0.0,0.0,0.0,4095.800
0.201,0.201,99.398,0.0,0.0,0.201,0.0,819.200,9440.600,26346.800,0.0,0.0,0.0,143.600
