"Dstat 0.7.2 CSV output"
"Author:","Dag Wieers <dag@wieers.com>",,,,"URL:","http://dag.wieers.com/home-made/dstat/"
"Host:","Server1",,,,"User:","mstevan"
"Cmdline:","dstat --output /home/mstevan/logs/experiment_3.2/dstat/vs_512-vcpr_32-wtpm_64-rep_2.csv 5 16",,,,"Date:","28 Oct 2019 09:51:24 UTC"

"total cpu usage",,,,,,"dsk/total",,"net/total",,"paging",,"system",
"usr","sys","idl","wai","hiq","siq","read","writ","recv","send","in","out","int","csw"
5.573,13.544,78.335,0.280,0.0,2.267,7411.251,1139232.683,0.0,0.0,0.0,0.0,0.097,3025.902
0.402,0.0,98.996,0.602,0.0,0.0,0.0,18022.400,8413.400,21537.400,0.0,0.0,0.0,129.800
3.433,7.296,88.197,0.0,0.0,1.073,0.0,1638.400,802438.400,5793344.600,0.0,0.0,0.0,4163.600
3.822,8.068,86.837,0.0,0.0,1.274,0.0,1638.400,896522.400,6484515.200,0.0,0.0,0.0,4316.200
3.412,7.249,87.846,0.0,0.0,1.493,0.0,1638.400,899023.400,6521551.200,0.0,0.0,0.0,4201.600
3.656,7.312,87.957,0.0,0.0,1.075,0.0,2457.600,847058.400,6121870.400,0.0,0.0,0.0,4214.200
3.822,7.643,87.261,0.0,0.0,1.274,0.0,819.200,878286.400,6369557.0,0.0,0.0,0.0,4300.800
4.025,9.110,86.229,0.0,0.0,0.636,0.0,3276.800,890156.400,6442803.0,0.0,0.0,0.200,4192.200
3.404,8.723,86.170,0.426,0.0,1.277,0.0,18841.600,883856.400,6393659.400,0.0,0.0,0.0,4231.0
2.972,9.130,86.837,0.0,0.0,1.062,0.0,819.200,887003.0,6437444.0,0.0,0.0,0.0,4283.400
3.838,9.168,85.928,0.0,0.0,1.066,0.0,1638.400,899554.600,6500935.0,0.0,0.0,0.0,4128.800
2.581,9.032,87.097,0.0,0.0,1.290,0.0,1638.400,897966.400,6492367.600,0.0,0.0,0.0,4383.200
2.998,7.495,88.651,0.0,0.0,0.857,0.0,819.200,901978.0,6547561.400,0.0,0.0,0.0,4269.600
3.625,7.036,88.486,0.0,0.0,0.853,0.0,1638.400,908802.800,6570590.600,0.0,0.0,0.0,4082.200
4.497,8.994,85.011,0.428,0.0,1.071,0.0,17203.200,923810.400,6680802.800,0.0,0.0,0.0,4045.0
4.228,8.245,86.469,0.0,0.0,1.057,0.0,819.200,901223.0,6541759.0,0.0,0.0,0.0,4213.600
0.203,1.014,98.783,0.0,0.0,0.0,0.0,1638.400,69180.0,452196.200,0.0,0.0,0.0,683.800
