"Dstat 0.7.2 CSV output"
"Author:","Dag Wieers <dag@wieers.com>",,,,"URL:","http://dag.wieers.com/home-made/dstat/"
"Host:","Server1",,,,"User:","mstevan"
"Cmdline:","dstat --output /home/mstevan/logs/experiment_3.2/dstat/vs_512-vcpr_8-wtpm_32-rep_3.csv 5 16",,,,"Date:","28 Oct 2019 09:13:02 UTC"

"total cpu usage",,,,,,"dsk/total",,"net/total",,"paging",,"system",
"usr","sys","idl","wai","hiq","siq","read","writ","recv","send","in","out","int","csw"
5.797,14.142,77.380,0.295,0.0,2.387,7881.606,1211240.920,0.0,0.0,0.0,0.0,0.103,3015.848
0.402,0.402,98.996,0.0,0.0,0.201,0.0,2457.600,10332.600,42007.400,0.0,0.0,0.0,158.800
2.366,5.806,90.968,0.0,0.0,0.860,0.0,1638.400,573927.200,4134121.200,0.0,0.0,0.0,4836.200
2.340,6.809,89.787,0.0,0.0,1.064,0.0,1638.400,608133.0,4382028.800,0.0,0.0,0.0,5027.600
2.510,6.904,90.167,0.0,0.0,0.418,0.0,2457.600,611310.200,4428423.600,0.0,0.0,0.0,4859.200
3.542,7.917,87.500,0.0,0.0,1.042,0.0,1638.400,606586.800,4370714.200,0.0,0.0,0.0,4856.200
2.766,7.447,89.149,0.0,0.0,0.638,0.0,1638.400,617538.600,4452225.0,0.0,0.0,0.0,5089.800
2.972,6.369,89.597,0.637,0.0,0.425,0.0,19660.800,605970.800,4394051.800,0.0,0.0,0.0,4891.400
3.376,6.329,89.241,0.0,0.0,1.055,0.0,2457.600,614514.600,4430734.600,0.0,0.0,0.0,4920.800
2.972,6.369,90.021,0.0,0.0,0.637,0.0,819.200,610178.800,4406156.400,0.0,0.0,0.0,4974.800
2.355,6.638,90.150,0.0,0.0,0.857,0.0,1638.400,615120.400,4450079.800,0.0,0.0,0.0,4919.0
3.556,7.741,88.075,0.0,0.0,0.628,0.0,1638.400,607985.0,4379443.600,0.0,0.0,0.0,4976.800
3.191,5.745,90.426,0.0,0.0,0.638,0.0,819.200,621857.200,4506357.200,0.0,0.0,0.0,5039.200
2.542,6.992,88.136,1.271,0.0,1.059,0.0,18022.400,607085.600,4377612.400,0.0,0.0,0.0,4965.600
2.350,7.479,89.530,0.0,0.0,0.641,0.0,1638.400,615548.0,4437076.400,0.0,0.0,0.0,5198.0
2.985,6.183,89.979,0.0,0.0,0.853,0.0,2457.600,606776.200,4393998.600,0.0,0.0,0.0,5189.0
0.402,0.201,99.398,0.0,0.0,0.0,0.0,1638.400,6214.0,1798.800,0.0,0.0,0.0,73.0
