"Dstat 0.7.2 CSV output"
"Author:","Dag Wieers <dag@wieers.com>",,,,"URL:","http://dag.wieers.com/home-made/dstat/"
"Host:","Server1",,,,"User:","mstevan"
"Cmdline:","dstat --output /home/mstevan/logs/experiment_3.2/dstat/vs_512-vcpr_16-wtpm_32-rep_1.csv 5 16",,,,"Date:","28 Oct 2019 09:27:15 UTC"

"total cpu usage",,,,,,"dsk/total",,"net/total",,"paging",,"system",
"usr","sys","idl","wai","hiq","siq","read","writ","recv","send","in","out","int","csw"
5.704,13.897,77.772,0.289,0.0,2.338,7700.588,1183529.982,0.0,0.0,0.0,0.0,0.100,3019.946
0.601,0.0,99.399,0.0,0.0,0.0,0.0,819.200,9980.800,41368.600,0.0,0.0,0.0,148.200
3.011,5.376,91.183,0.0,0.0,0.430,0.0,1638.400,693277.400,5005328.0,0.0,0.0,0.0,4236.600
3.814,8.475,86.441,0.0,0.0,1.271,0.0,1638.400,742082.0,5352474.400,0.0,0.0,0.0,4084.600
2.340,7.447,89.787,0.0,0.0,0.426,0.0,2457.600,722711.600,5239198.200,0.0,0.0,0.0,4299.800
2.979,6.170,90.0,0.0,0.0,0.851,0.0,1638.400,744737.600,5381171.0,0.0,0.0,0.0,4135.0
2.911,8.108,88.150,0.0,0.0,0.832,0.0,819.200,753739.0,5467548.600,0.0,0.0,0.0,3953.0
3.132,8.351,84.551,2.505,0.0,1.461,0.0,23756.800,770268.600,5562168.0,0.0,0.0,0.0,4195.400
3.011,6.882,89.032,0.0,0.0,1.075,0.0,1638.400,778247.400,5623046.400,0.0,0.0,0.0,4391.800
3.050,5.664,90.632,0.0,0.0,0.654,0.0,1638.400,759594.200,5508108.400,0.0,0.0,0.0,4200.600
4.113,5.844,88.528,0.0,0.0,1.515,0.0,1638.400,767940.600,5547363.800,0.0,0.0,0.0,4137.200
2.564,8.761,88.034,0.0,0.0,0.641,0.0,1638.400,774674.200,5600206.400,0.0,0.0,0.0,4249.400
2.553,7.021,89.149,0.0,0.0,1.277,0.0,819.200,768798.800,5575292.400,0.0,0.0,0.0,4002.800
2.784,7.066,88.651,0.428,0.0,1.071,0.0,15564.800,783620.600,5663200.200,0.0,0.0,0.0,4271.600
3.376,6.751,89.451,0.0,0.0,0.422,0.0,2457.600,769321.400,5581116.200,0.0,0.0,0.0,4119.800
4.104,6.479,88.121,0.0,0.0,1.296,0.0,1638.400,757198.200,5462981.800,0.0,0.0,0.0,4162.800
1.212,0.808,97.980,0.0,0.0,0.0,0.0,1638.400,65599.800,432129.0,0.0,0.0,0.0,673.600
