"Dstat 0.7.2 CSV output"
"Author:","Dag Wieers <dag@wieers.com>",,,,"URL:","http://dag.wieers.com/home-made/dstat/"
"Host:","Server1",,,,"User:","mstevan"
"Cmdline:","dstat --output /home/mstevan/logs/experiment_3.2/dstat/vs_512-vcpr_4-wtpm_64-rep_1.csv 5 16",,,,"Date:","28 Oct 2019 08:58:50 UTC"

"total cpu usage",,,,,,"dsk/total",,"net/total",,"paging",,"system",
"usr","sys","idl","wai","hiq","siq","read","writ","recv","send","in","out","int","csw"
5.896,14.408,76.958,0.300,0.0,2.439,8062.750,1240273.372,0.0,0.0,0.0,0.0,0.105,3014.099
0.200,0.600,98.600,0.600,0.0,0.0,0.0,18841.600,9046.600,24792.200,0.0,0.0,0.0,138.200
1.911,4.459,92.994,0.0,0.0,0.637,0.0,6553.600,384332.400,2730318.800,0.0,0.0,0.0,4266.800
2.088,6.472,91.023,0.0,0.0,0.418,0.0,819.200,411944.200,2969507.800,0.0,0.0,0.0,4450.0
2.766,4.468,91.915,0.0,0.0,0.851,0.0,1638.400,421286.200,3012356.0,0.0,0.0,0.0,4509.0
2.532,5.485,90.717,0.0,0.0,1.266,0.0,3276.800,425657.800,3050440.200,0.0,0.0,0.0,4512.200
1.268,5.285,92.389,0.0,0.0,1.057,0.0,819.200,414279.200,2987902.200,0.0,0.0,0.0,4547.0
2.123,5.945,90.870,0.0,0.0,1.062,0.0,3276.800,424712.0,3036863.600,0.0,0.0,0.0,4581.0
3.219,4.506,91.631,0.0,0.0,0.644,0.0,16384.0,428224.800,3069033.200,0.0,0.0,0.0,4649.400
1.277,5.532,92.128,0.0,0.0,1.064,0.0,819.200,428989.0,3099688.0,0.0,0.0,0.0,4684.0
2.132,5.117,91.684,0.0,0.0,1.066,0.0,1638.400,428513.400,3072333.200,0.0,0.0,0.0,4580.800
2.105,4.632,92.421,0.0,0.0,0.842,0.0,819.200,413955.600,2986036.0,0.0,0.0,0.0,4188.400
1.684,5.053,92.421,0.0,0.0,0.842,0.0,2457.600,420424.0,3014045.600,0.0,0.0,0.0,4175.0
2.548,5.945,91.083,0.0,0.0,0.425,0.0,1638.400,422031.200,3023214.600,0.0,0.0,0.0,4438.600
2.321,5.063,91.350,0.422,0.0,0.844,0.0,17203.200,425987.800,3070470.0,0.0,0.0,0.0,4605.600
1.496,5.556,91.880,0.0,0.0,1.068,0.0,1638.400,413191.200,2951569.200,0.0,0.0,0.200,4376.0
0.800,0.200,99.0,0.0,0.0,0.0,0.0,1638.400,6214.0,1798.800,0.0,0.0,0.0,65.800
