"Dstat 0.7.2 CSV output"
"Author:","Dag Wieers <dag@wieers.com>",,,,"URL:","http://dag.wieers.com/home-made/dstat/"
"Host:","Server1",,,,"User:","mstevan"
"Cmdline:","dstat --output /home/mstevan/logs/experiment_3.2/dstat/vs_512-vcpr_16-wtpm_32-rep_4.csv 5 16",,,,"Date:","28 Oct 2019 09:31:31 UTC"

"total cpu usage",,,,,,"dsk/total",,"net/total",,"paging",,"system",
"usr","sys","idl","wai","hiq","siq","read","writ","recv","send","in","out","int","csw"
5.681,13.837,77.868,0.288,0.0,2.326,7647.888,1175460.257,0.0,0.0,0.0,0.0,0.100,3023.149
0.404,0.202,99.394,0.0,0.0,0.0,0.0,1638.400,14343.800,49487.600,0.0,0.0,0.0,185.200
2.796,5.376,90.753,0.0,0.0,1.075,0.0,1638.400,708253.400,5133354.800,0.0,0.0,0.0,4070.800
2.570,6.638,90.364,0.0,0.0,0.428,0.0,1638.400,738274.200,5332240.600,0.0,0.0,0.0,4036.200
3.632,6.197,89.103,0.427,0.0,0.641,0.0,20480.0,735684.600,5313228.400,0.0,0.0,0.0,4098.600
2.537,7.822,88.584,0.0,0.0,1.057,0.0,5734.400,742277.0,5384466.800,0.0,0.0,0.0,4033.0
3.609,7.431,87.898,0.0,0.0,1.062,0.0,1638.400,752390.800,5434246.0,0.0,0.0,0.0,4219.800
3.390,7.415,87.500,0.0,0.0,1.695,0.0,3276.800,749582.400,5413531.0,0.0,0.0,0.0,4180.200
1.927,7.495,89.722,0.0,0.0,0.857,0.0,1638.400,768808.0,5574684.400,0.0,0.0,0.0,4213.400
4.211,7.789,87.158,0.0,0.0,0.842,0.0,1638.400,774421.200,5596480.600,0.0,0.0,0.0,4203.600
3.198,7.249,88.486,0.0,0.0,1.066,0.0,819.200,771906.0,5597843.800,0.0,0.0,0.0,4278.600
2.790,7.296,88.412,0.429,0.0,1.073,0.0,16384.0,768175.800,5547538.200,0.0,0.0,0.0,4190.400
2.947,8.211,88.0,0.0,0.0,0.842,0.0,1638.400,780369.0,5639291.200,0.0,0.0,0.0,4309.200
3.419,7.051,88.675,0.0,0.0,0.855,0.0,819.200,770377.800,5582762.800,0.0,0.0,0.0,4586.400
3.191,7.021,88.511,0.0,0.0,1.277,0.0,3276.800,776881.600,5617776.0,0.0,0.0,0.0,4461.0
3.412,7.036,88.486,0.0,0.0,1.066,0.0,1638.400,774887.0,5596288.200,0.0,0.0,0.0,4373.400
0.402,0.402,98.795,0.0,0.0,0.402,0.0,819.200,19833.200,110057.600,0.0,0.0,0.0,323.400
