"Dstat 0.7.2 CSV output"
"Author:","Dag Wieers <dag@wieers.com>",,,,"URL:","http://dag.wieers.com/home-made/dstat/"
"Host:","Server1",,,,"User:","mstevan"
"Cmdline:","dstat --output /home/mstevan/logs/experiment_3.2/dstat/vs_512-vcpr_8-wtpm_8-rep_3.csv 5 16",,,,"Date:","28 Oct 2019 09:07:21 UTC"

"total cpu usage",,,,,,"dsk/total",,"net/total",,"paging",,"system",
"usr","sys","idl","wai","hiq","siq","read","writ","recv","send","in","out","int","csw"
5.834,14.245,77.216,0.296,0.0,2.408,7956.411,1222684.588,0.0,0.0,0.0,0.0,0.104,3016.540
0.202,0.605,99.194,0.0,0.0,0.0,0.0,1638.400,11235.0,33335.800,0.0,0.0,0.0,132.400
2.079,4.574,92.723,0.416,0.0,0.208,0.0,20480.0,352751.600,2524504.200,0.0,0.0,0.0,2184.0
2.083,3.958,93.542,0.0,0.0,0.417,0.0,819.200,357988.0,2582808.0,0.0,0.0,0.0,2268.0
2.101,3.992,93.697,0.0,0.0,0.210,0.0,3276.800,366143.400,2623071.400,0.0,0.0,0.0,2058.800
1.660,4.979,93.154,0.0,0.0,0.207,0.0,1638.400,361407.0,2588211.800,0.0,0.0,0.0,2103.600
1.879,3.758,93.946,0.0,0.0,0.418,0.0,819.200,363383.800,2624669.0,0.0,0.0,0.0,2096.200
2.096,4.193,93.291,0.0,0.0,0.419,0.0,3276.800,363935.0,2603731.200,0.0,0.0,0.0,2193.200
2.282,4.357,92.116,0.415,0.0,0.830,0.0,20480.0,368760.800,2642880.800,0.0,0.0,0.0,1968.400
2.066,4.545,92.975,0.0,0.0,0.413,0.0,819.200,378160.800,2731455.200,0.0,0.0,0.0,2099.600
2.521,3.782,93.697,0.0,0.0,0.0,0.0,1638.400,369041.0,2640789.600,0.0,0.0,0.0,2053.0
2.277,4.555,92.961,0.0,0.0,0.207,0.0,819.200,364825.600,2635009.800,0.0,0.0,0.0,1987.400
2.306,3.774,93.711,0.0,0.0,0.210,0.0,1638.400,370965.400,2658037.400,0.0,0.0,0.0,1992.600
2.714,4.593,92.484,0.0,0.0,0.209,0.0,1638.400,365403.0,2614992.800,0.0,0.0,0.0,2033.800
1.681,3.361,92.227,2.101,0.0,0.630,0.0,17203.200,371545.200,2683661.800,0.0,0.0,0.0,2003.0
1.856,4.948,92.990,0.0,0.0,0.206,0.0,1638.400,359896.600,2577488.600,0.0,0.0,0.0,2046.800
0.604,0.0,99.396,0.0,0.0,0.0,0.0,2457.600,6298.400,1941.200,0.0,0.0,0.0,74.0
