"Dstat 0.7.2 CSV output"
"Author:","Dag Wieers <dag@wieers.com>",,,,"URL:","http://dag.wieers.com/home-made/dstat/"
"Host:","Server1",,,,"User:","mstevan"
"Cmdline:","dstat --output /home/mstevan/logs/experiment_3.2/dstat/vs_512-vcpr_16-wtpm_64-rep_1.csv 5 16",,,,"Date:","28 Oct 2019 09:32:56 UTC"

"total cpu usage",,,,,,"dsk/total",,"net/total",,"paging",,"system",
"usr","sys","idl","wai","hiq","siq","read","writ","recv","send","in","out","int","csw"
5.674,13.817,77.899,0.287,0.0,2.322,7630.480,1172795.727,0.0,0.0,0.0,0.0,0.100,3024.256
0.403,0.0,99.597,0.0,0.0,0.0,0.0,1638.400,14326.0,41906.400,0.0,0.0,0.0,151.0
3.151,7.773,88.445,0.0,0.0,0.630,0.0,819.200,703702.400,5090992.400,0.0,0.0,0.0,4472.400
2.784,6.210,89.722,0.0,0.0,1.285,0.0,2457.600,775421.800,5602154.600,0.0,0.0,0.0,4608.400
3.579,7.579,88.0,0.0,0.0,0.842,0.0,2457.600,765456.0,5539468.600,0.0,0.0,0.0,4467.0
3.766,7.741,87.238,0.0,0.0,1.255,0.0,1638.400,762694.0,5526225.800,0.0,0.0,0.0,4519.0
2.748,7.822,87.949,0.423,0.0,1.057,0.0,18841.600,785455.800,5675529.0,0.0,0.0,0.0,4537.0
2.796,7.527,88.387,0.0,0.0,1.290,0.0,2457.600,779265.800,5639228.400,0.0,0.0,0.0,4656.600
3.830,6.809,88.085,0.0,0.0,1.277,0.0,1638.400,783992.0,5671692.0,0.0,0.0,0.0,4666.600
3.838,8.316,86.780,0.0,0.0,1.066,0.0,1638.400,808765.200,5841138.400,0.0,0.0,0.0,4741.600
2.137,7.051,89.530,0.0,0.0,1.282,0.0,819.200,812337.600,5889299.800,0.0,0.0,0.0,4578.400
3.571,7.773,86.975,0.0,0.0,1.681,0.0,1638.400,818333.800,5921656.800,0.0,0.0,0.0,4472.0
3.433,7.082,87.983,0.215,0.0,1.288,0.0,20480.0,807132.600,5833678.800,0.0,0.0,0.0,4570.0
3.594,7.400,88.584,0.0,0.0,0.423,0.0,819.200,800465.400,5799440.200,0.0,0.0,0.0,4651.600
2.985,7.676,88.699,0.0,0.0,0.640,0.0,3276.800,799520.200,5784956.600,0.0,0.0,0.0,4553.200
2.766,8.085,88.511,0.0,0.0,0.638,0.0,1638.400,799136.600,5789194.0,0.0,0.0,0.0,4570.600
0.201,0.201,99.598,0.0,0.0,0.0,0.0,1638.400,6298.400,1941.200,0.0,0.0,0.0,71.0
