"Dstat 0.7.2 CSV output"
"Author:","Dag Wieers <dag@wieers.com>",,,,"URL:","http://dag.wieers.com/home-made/dstat/"
"Host:","Server1",,,,"User:","mstevan"
"Cmdline:","dstat --output /home/mstevan/logs/experiment_3.2/dstat/vs_512-vcpr_4-wtpm_32-rep_1.csv 5 16",,,,"Date:","28 Oct 2019 08:53:09 UTC"

"total cpu usage",,,,,,"dsk/total",,"net/total",,"paging",,"system",
"usr","sys","idl","wai","hiq","siq","read","writ","recv","send","in","out","int","csw"
5.935,14.513,76.790,0.302,0.0,2.461,8141.138,1252286.286,0.0,0.0,0.0,0.0,0.106,3004.881
0.201,0.201,99.598,0.0,0.0,0.0,0.0,819.200,7538.0,24120.800,0.0,0.0,0.0,116.200
2.972,5.096,91.507,0.0,0.0,0.425,0.0,1638.400,406044.0,2909867.800,0.0,0.0,0.0,4508.400
1.486,7.219,90.446,0.425,0.0,0.425,0.0,20480.0,460535.600,3309472.800,0.0,0.0,0.0,5099.800
2.979,5.745,90.851,0.0,0.0,0.426,0.0,2457.600,452088.800,3267181.0,0.0,0.0,0.0,5039.400
2.748,6.765,89.852,0.0,0.0,0.634,0.0,1638.400,460789.800,3311483.600,0.0,0.0,0.0,5004.400
2.754,6.144,90.890,0.0,0.0,0.212,0.0,1638.400,456563.200,3281267.600,0.0,0.0,0.0,4945.200
2.316,5.263,90.737,0.0,0.0,1.684,0.0,2457.600,453495.600,3280630.200,0.0,0.0,0.0,4695.400
2.326,6.554,90.486,0.0,0.0,0.634,0.0,3276.800,464650.0,3335835.800,0.0,0.0,0.0,4994.400
2.361,4.936,92.060,0.215,0.0,0.429,0.0,20480.0,459724.0,3327758.400,0.0,0.0,0.0,5034.200
2.985,5.117,90.618,0.0,0.0,1.279,0.0,1638.400,459266.600,3300914.0,0.0,0.0,0.0,5007.0
2.564,5.342,91.453,0.0,0.0,0.641,0.0,1638.400,452676.400,3252805.800,0.0,0.0,0.0,4900.600
2.947,6.737,89.895,0.0,0.0,0.421,0.0,819.200,456347.400,3301033.600,0.0,0.0,0.0,5064.400
2.760,6.369,90.234,0.0,0.0,0.637,0.0,1638.400,464234.400,3336947.0,0.0,0.0,0.0,5058.800
3.426,5.782,90.150,0.0,0.0,0.642,0.0,1638.400,457076.400,3283106.0,0.0,0.0,0.0,5000.0
2.725,6.709,89.937,0.210,0.0,0.419,0.0,17203.200,447220.200,3232222.800,0.0,0.0,0.0,4909.600
0.402,0.602,98.996,0.0,0.0,0.0,0.0,1638.400,6665.0,2269.600,0.0,0.0,0.0,86.400
