"Dstat 0.7.2 CSV output"
"Author:","Dag Wieers <dag@wieers.com>",,,,"URL:","http://dag.wieers.com/home-made/dstat/"
"Host:","Server1",,,,"User:","mstevan"
"Cmdline:","dstat --output /home/mstevan/logs/experiment_3.2/dstat/vs_512-vcpr_16-wtpm_64-rep_4.csv 5 16",,,,"Date:","28 Oct 2019 09:37:12 UTC"

"total cpu usage",,,,,,"dsk/total",,"net/total",,"paging",,"system",
"usr","sys","idl","wai","hiq","siq","read","writ","recv","send","in","out","int","csw"
5.652,13.758,77.994,0.286,0.0,2.310,7578.756,1164876.236,0.0,0.0,0.0,0.0,0.099,3028.840
0.402,0.402,99.197,0.0,0.0,0.0,0.0,1638.400,13226.400,33618.600,0.0,0.0,0.0,160.600
2.979,6.596,89.149,0.426,0.0,0.851,0.0,19660.800,691519.0,4979172.800,0.0,0.0,0.0,4445.400
2.553,6.596,90.213,0.0,0.0,0.638,0.0,819.200,742876.0,5389075.0,0.0,0.0,0.0,4536.0
2.998,7.066,88.651,0.0,0.0,1.285,0.0,3276.800,742974.600,5362004.800,0.0,0.0,0.0,4368.600
2.350,7.692,89.316,0.0,0.0,0.641,0.0,1638.400,736683.200,5321797.600,0.0,0.0,0.0,4552.800
3.602,6.568,88.983,0.0,0.0,0.847,0.0,819.200,745140.200,5404073.600,0.0,0.0,0.0,4383.800
2.966,6.992,89.407,0.0,0.0,0.636,0.0,3276.800,751270.200,5421014.800,0.0,0.0,0.0,4543.800
4.202,7.773,86.555,0.0,0.0,1.471,0.0,819.200,769418.200,5579642.800,0.0,0.0,0.0,4539.600
3.383,7.611,87.104,0.423,0.0,1.480,0.0,19660.800,779495.800,5633115.600,0.0,0.0,0.0,4763.0
3.672,7.559,88.553,0.0,0.0,0.216,0.0,1638.400,787236.600,5688095.600,0.0,0.0,0.0,4623.200
2.581,6.667,89.892,0.0,0.0,0.860,0.0,819.200,765120.600,5543247.400,0.0,0.0,0.0,4632.0
2.542,7.839,88.983,0.0,0.0,0.636,0.0,1638.400,783719.800,5669100.600,0.0,0.0,0.0,4546.0
3.397,7.643,88.110,0.0,0.0,0.849,0.0,1638.400,790273.800,5711122.400,0.0,0.0,0.0,4567.600
4.255,5.957,88.936,0.0,0.0,0.851,0.0,3276.800,766787.0,5561940.800,0.0,0.0,0.0,4531.400
4.034,7.643,86.200,0.637,0.0,1.486,0.0,15564.800,757968.200,5472756.0,0.0,0.0,0.0,4490.600
1.010,0.606,98.182,0.0,0.0,0.202,0.0,819.200,58618.0,372493.400,0.0,0.0,0.0,605.400
