"Dstat 0.7.2 CSV output"
"Author:","Dag Wieers <dag@wieers.com>",,,,"URL:","http://dag.wieers.com/home-made/dstat/"
"Host:","Server1",,,,"User:","mstevan"
"Cmdline:","dstat --output /home/mstevan/logs/experiment_3.2/dstat/vs_512-vcpr_4-wtpm_8-rep_2.csv 5 16",,,,"Date:","28 Oct 2019 08:48:53 UTC"

"total cpu usage",,,,,,"dsk/total",,"net/total",,"paging",,"system",
"usr","sys","idl","wai","hiq","siq","read","writ","recv","send","in","out","int","csw"
5.970,14.604,76.644,0.304,0.0,2.479,8200.919,1261449.055,0.0,0.0,0.0,0.0,0.107,3013.618
0.399,0.798,98.802,0.0,0.0,0.0,0.0,1638.400,11321.400,36897.400,0.0,0.0,0.0,111.800
2.301,3.975,93.515,0.0,0.0,0.209,0.0,3276.800,343593.200,2458094.800,0.0,0.0,0.0,2127.600
1.883,4.603,93.096,0.0,0.0,0.418,0.0,819.200,346570.0,2501346.0,0.0,0.0,0.0,2242.800
1.688,3.797,94.304,0.0,0.0,0.211,0.0,3276.800,384977.800,2760370.400,0.0,0.0,0.0,2299.400
1.461,3.549,94.572,0.0,0.0,0.418,0.0,819.200,366912.600,2649608.800,0.0,0.0,0.0,2192.600
2.869,5.123,91.598,0.205,0.0,0.205,0.0,21299.200,379710.800,2720596.600,0.0,0.0,0.0,2332.800
2.311,5.042,92.017,0.0,0.0,0.630,0.0,3276.800,384586.400,2751329.800,0.0,0.0,0.0,2566.800
2.092,4.393,92.887,0.0,0.0,0.628,0.0,819.200,385616.800,2786408.0,0.0,0.0,0.0,2337.600
1.468,4.612,93.920,0.0,0.0,0.0,0.0,1638.400,382032.600,2737254.400,0.0,0.0,0.0,2483.600
1.867,4.772,92.531,0.0,0.0,0.830,0.0,1638.400,385859.200,2765099.800,0.0,0.0,0.200,2390.800
1.674,4.393,93.515,0.0,0.0,0.418,0.0,819.200,387298.200,2799224.0,0.0,0.0,0.0,2350.800
1.867,5.187,91.909,0.830,0.0,0.207,0.0,21299.200,375871.800,2702851.600,0.0,0.0,0.0,2248.200
2.105,3.368,94.316,0.0,0.0,0.211,0.0,819.200,368808.800,2686111.800,0.0,0.0,0.0,2182.200
1.480,3.805,94.715,0.0,0.0,0.0,0.0,1638.400,368901.400,2686364.800,0.0,0.0,0.0,2301.800
1.891,4.622,93.277,0.0,0.0,0.210,0.0,1638.400,372397.800,2671337.200,0.0,0.0,0.0,2334.0
0.201,0.201,99.598,0.0,0.0,0.0,0.0,1638.400,6214.0,1798.800,0.0,0.0,0.0,75.200
