"Dstat 0.7.2 CSV output"
"Author:","Dag Wieers <dag@wieers.com>",,,,"URL:","http://dag.wieers.com/home-made/dstat/"
"Host:","Server1",,,,"User:","mstevan"
"Cmdline:","dstat --output /home/mstevan/logs/experiment_3.2/dstat/vs_512-vcpr_8-wtpm_8-rep_2.csv 5 16",,,,"Date:","28 Oct 2019 09:05:56 UTC"

"total cpu usage",,,,,,"dsk/total",,"net/total",,"paging",,"system",
"usr","sys","idl","wai","hiq","siq","read","writ","recv","send","in","out","int","csw"
5.846,14.275,77.169,0.297,0.0,2.414,7975.334,1225583.727,0.0,0.0,0.0,0.0,0.104,3019.633
0.400,0.200,99.400,0.0,0.0,0.0,0.0,2457.600,7060.0,27236.800,0.0,0.0,0.0,102.600
1.677,4.193,93.711,0.0,0.0,0.419,0.0,1638.400,345925.0,2475390.400,0.0,0.0,0.0,2122.0
2.092,4.184,93.305,0.0,0.0,0.418,0.0,1638.400,362089.200,2589212.200,0.0,0.0,0.0,2127.600
2.101,3.361,94.328,0.0,0.0,0.210,0.0,1638.400,366774.0,2648211.0,0.0,0.0,0.0,2063.0
1.471,3.571,94.748,0.0,0.0,0.210,0.0,2457.600,372986.600,2672887.200,0.0,0.0,0.0,2073.800
1.474,3.579,94.316,0.0,0.0,0.632,0.0,819.200,365152.200,2634530.200,0.0,0.0,0.0,1957.400
2.692,4.141,91.718,0.414,0.0,1.035,0.0,19660.800,381011.400,2730055.600,0.0,0.0,0.0,2112.200
1.480,3.805,94.292,0.0,0.0,0.423,0.0,1638.400,366081.800,2622954.800,0.0,0.0,0.0,2122.0
2.296,3.758,93.737,0.0,0.0,0.209,0.0,819.200,365082.400,2635468.200,0.0,0.0,0.0,2016.600
1.674,3.556,94.561,0.0,0.0,0.209,0.0,2457.600,366294.0,2624115.200,0.0,0.0,0.0,2060.400
1.670,4.384,93.737,0.0,0.0,0.209,0.0,1638.400,370188.0,2652177.0,0.0,0.0,0.0,2031.0
1.261,3.782,94.748,0.0,0.0,0.210,0.0,819.200,366851.0,2648861.800,0.0,0.0,0.0,2110.400
1.670,3.758,93.946,0.209,0.0,0.418,0.0,19660.800,362800.200,2599258.600,0.0,0.0,0.0,1980.600
2.296,4.384,93.111,0.0,0.0,0.209,0.0,1638.400,370853.200,2676247.0,0.0,0.0,0.0,2116.0
2.484,4.141,92.961,0.0,0.0,0.414,0.0,1638.400,368324.0,2638341.400,0.0,0.0,0.0,2109.400
0.401,0.200,99.399,0.0,0.0,0.0,0.0,1638.400,6214.0,1798.800,0.0,0.0,0.0,74.600
