"Dstat 0.7.2 CSV output"
"Author:","Dag Wieers <dag@wieers.com>",,,,"URL:","http://dag.wieers.com/home-made/dstat/"
"Host:","Server1",,,,"User:","mstevan"
"Cmdline:","dstat --output /home/mstevan/logs/experiment_3.2/dstat/vs_512-vcpr_16-wtpm_8-rep_4.csv 5 16",,,,"Date:","28 Oct 2019 09:25:50 UTC"

"total cpu usage",,,,,,"dsk/total",,"net/total",,"paging",,"system",
"usr","sys","idl","wai","hiq","siq","read","writ","recv","send","in","out","int","csw"
5.715,13.924,77.729,0.290,0.0,2.343,7718.311,1186242.263,0.0,0.0,0.0,0.0,0.101,3022.563
0.402,0.201,99.398,0.0,0.0,0.0,0.0,1638.400,7651.400,31656.0,0.0,0.0,0.0,122.400
1.261,3.782,94.748,0.0,0.0,0.210,0.0,1638.400,347915.800,2489452.200,0.0,0.0,0.0,2183.600
2.070,3.727,93.996,0.0,0.0,0.207,0.0,1638.400,333373.200,2384457.600,0.0,0.0,0.200,2013.400
1.474,3.789,94.737,0.0,0.0,0.0,0.0,2457.600,371596.800,2684396.200,0.0,0.0,0.0,2177.600
1.887,3.564,94.130,0.0,0.0,0.419,0.0,1638.400,374372.600,2678186.0,0.0,0.0,0.0,2197.600
1.871,4.782,92.516,0.208,0.0,0.624,0.0,18841.600,381782.200,2737725.200,0.0,0.0,0.0,2338.400
1.461,4.384,93.946,0.0,0.0,0.209,0.0,2457.600,375706.600,2711492.800,0.0,0.0,0.0,2293.800
2.474,5.773,91.340,0.0,0.0,0.412,0.0,1638.400,400843.0,2872161.800,0.0,0.0,0.0,2373.0
2.287,3.950,93.555,0.0,0.0,0.208,0.0,819.200,381174.800,2755207.0,0.0,0.0,0.0,2229.0
2.101,3.361,94.118,0.0,0.0,0.420,0.0,1638.400,373919.400,2679525.200,0.0,0.0,0.0,2333.400
2.092,3.347,94.142,0.0,0.0,0.418,0.0,1638.400,385521.600,2764275.0,0.0,0.0,0.0,2290.400
1.455,5.405,91.684,1.040,0.0,0.416,0.0,22937.600,370580.0,2670998.200,0.0,0.0,0.0,2264.200
2.110,2.954,94.515,0.0,0.0,0.422,0.0,1638.400,370900.800,2658533.400,0.0,0.0,0.0,2212.600
2.110,4.008,93.460,0.0,0.0,0.422,0.0,3276.800,384488.600,2756896.600,0.0,0.0,0.0,2223.800
1.455,5.198,93.139,0.0,0.0,0.208,0.0,1638.400,368531.800,2661346.400,0.0,0.0,0.0,2226.0
0.606,0.606,98.586,0.0,0.0,0.202,0.0,1638.400,41023.600,254470.0,0.0,0.0,0.0,531.0
