"Dstat 0.7.2 CSV output"
"Author:","Dag Wieers <dag@wieers.com>",,,,"URL:","http://dag.wieers.com/home-made/dstat/"
"Host:","Server1",,,,"User:","mstevan"
"Cmdline:","dstat --output /home/mstevan/logs/experiment_3.2/dstat/vs_512-vcpr_8-wtpm_8-rep_1.csv 5 16",,,,"Date:","28 Oct 2019 09:04:31 UTC"

"total cpu usage",,,,,,"dsk/total",,"net/total",,"paging",,"system",
"usr","sys","idl","wai","hiq","siq","read","writ","recv","send","in","out","int","csw"
5.856,14.304,77.122,0.298,0.0,2.420,7994.347,1228494.054,0.0,0.0,0.0,0.0,0.104,3022.607
0.200,0.401,99.399,0.0,0.0,0.0,0.0,819.200,8905.0,28253.400,0.0,0.0,0.0,99.200
1.255,3.975,94.561,0.0,0.0,0.209,0.0,1638.400,350319.400,2518745.800,0.0,0.0,0.0,2208.0
1.883,4.184,93.933,0.0,0.0,0.0,0.0,2457.600,352115.400,2519482.200,0.0,0.0,0.0,2181.800
2.490,3.942,93.154,0.0,0.0,0.415,0.0,2457.600,359296.200,2594817.800,0.0,0.0,0.0,2043.400
2.692,3.934,93.375,0.0,0.0,0.0,0.0,1638.400,366689.400,2627184.0,0.0,0.0,0.0,2063.800
2.292,2.917,93.750,0.625,0.0,0.417,0.0,22937.600,362631.600,2596431.0,0.0,0.0,0.0,1996.200
2.686,3.512,93.388,0.0,0.0,0.413,0.0,2457.600,375590.600,2712496.800,0.0,0.0,0.0,2141.600
2.083,4.167,93.333,0.0,0.0,0.417,0.0,1638.400,368121.800,2634755.800,0.0,0.0,0.0,2080.800
2.316,3.579,94.105,0.0,0.0,0.0,0.0,1638.400,375451.200,2689341.400,0.0,0.0,0.200,2144.800
2.321,3.165,94.515,0.0,0.0,0.0,0.0,819.200,374124.200,2703150.600,0.0,0.0,0.0,2107.0
2.521,3.992,93.277,0.0,0.0,0.210,0.0,1638.400,383617.400,2747440.600,0.0,0.0,0.0,2251.800
1.684,4.211,93.684,0.421,0.0,0.0,0.0,15564.800,385572.400,2784859.400,0.0,0.0,0.0,2255.400
2.066,5.372,92.149,0.0,0.0,0.413,0.0,1638.400,379903.200,2724114.400,0.0,0.0,0.0,2204.400
2.088,4.175,93.319,0.0,0.0,0.418,0.0,3276.800,380237.0,2725109.600,0.0,0.0,0.0,2053.200
1.856,5.361,92.577,0.0,0.0,0.206,0.0,1638.400,373751.800,2699287.600,0.0,0.0,0.0,2219.800
0.601,0.0,99.399,0.0,0.0,0.0,0.0,1638.400,6295.200,1839.200,0.0,0.0,0.0,70.200
