"Dstat 0.7.2 CSV output"
"Author:","Dag Wieers <dag@wieers.com>",,,,"URL:","http://dag.wieers.com/home-made/dstat/"
"Host:","Server1",,,,"User:","mstevan"
"Cmdline:","dstat --output /home/mstevan/logs/experiment_3.2/dstat/vs_64-vcpr_32-wtpm_64-rep_1.csv 5 16",,,,"Date:","28 Oct 2019 07:33:17 UTC"

"total cpu usage",,,,,,"dsk/total",,"net/total",,"paging",,"system",
"usr","sys","idl","wai","hiq","siq","read","writ","recv","send","in","out","int","csw"
6.584,16.248,74.023,0.339,0.0,2.806,9429.069,1449682.634,0.0,0.0,0.0,0.0,0.122,2997.780
0.602,0.201,99.197,0.0,0.0,0.0,0.0,1638.400,14317.800,13465.0,0.0,0.0,0.0,169.600
3.185,7.431,88.323,0.0,0.0,1.062,0.0,1638.400,794481.200,1519139.600,0.0,0.0,0.0,4253.0
3.376,9.283,86.498,0.0,0.0,0.844,0.0,819.200,916225.200,1763051.600,0.0,0.0,0.0,4328.0
3.617,8.511,87.021,0.0,0.0,0.851,0.0,3276.800,909508.400,1744985.800,0.0,0.0,0.0,4438.600
3.205,7.479,88.034,0.427,0.0,0.855,0.0,18022.400,881065.0,1693655.400,0.0,0.0,0.0,4284.600
3.478,7.826,87.609,0.0,0.0,1.087,0.0,1638.400,920102.600,1765958.400,0.0,0.0,0.0,4310.600
3.390,10.381,84.534,0.0,0.0,1.695,0.0,3276.800,942416.800,1808351.200,0.0,0.0,0.0,4495.200
4.0,9.053,86.105,0.0,0.0,0.842,0.0,819.200,912059.800,1754663.600,0.0,0.0,0.0,4398.200
3.426,8.351,87.366,0.0,0.0,0.857,0.0,1638.400,935017.800,1794462.200,0.0,0.0,0.0,4508.0
3.625,8.316,86.354,0.0,0.0,1.706,0.0,1638.400,930661.200,1782967.400,0.0,0.0,0.0,4429.200
3.205,7.265,87.607,0.641,0.0,1.282,0.0,21299.200,912587.600,1757126.0,0.0,0.0,0.0,4196.600
3.282,8.096,86.871,0.0,0.0,1.751,0.0,1638.400,920828.200,1766775.200,0.0,0.0,0.0,4313.400
4.255,8.085,86.596,0.0,0.0,1.064,0.0,1638.400,907272.200,1738114.200,0.0,0.0,0.0,4263.200
3.412,7.889,87.846,0.0,0.0,0.853,0.0,2457.600,922303.0,1776670.800,0.0,0.0,0.0,4289.200
3.617,8.298,87.660,0.0,0.0,0.426,0.0,1638.400,911653.800,1748644.400,0.0,0.0,0.0,4224.0
0.610,0.813,98.577,0.0,0.0,0.0,0.0,819.200,94263.800,174841.400,0.0,0.0,0.0,884.200
