"Dstat 0.7.2 CSV output"
"Author:","Dag Wieers <dag@wieers.com>",,,,"URL:","http://dag.wieers.com/home-made/dstat/"
"Host:","Server1",,,,"User:","mstevan"
"Cmdline:","dstat --output /home/mstevan/logs/experiment_3.2/dstat/vs_64-vcpr_16-wtpm_64-rep_2.csv 5 16",,,,"Date:","28 Oct 2019 07:17:40 UTC"

"total cpu usage",,,,,,"dsk/total",,"net/total",,"paging",,"system",
"usr","sys","idl","wai","hiq","siq","read","writ","recv","send","in","out","int","csw"
6.737,16.657,73.370,0.349,0.0,2.888,9730.370,1495866.708,0.0,0.0,0.0,0.0,0.126,3001.204
0.402,0.201,99.396,0.0,0.0,0.0,0.0,1638.400,10819.800,7071.0,0.0,0.0,0.0,129.400
2.754,6.356,89.619,0.0,0.0,1.271,0.0,819.200,697094.800,1335145.0,0.0,0.0,0.0,4253.800
3.340,7.933,87.683,0.0,0.0,1.044,0.0,1638.400,753905.200,1443354.400,0.0,0.0,0.0,4619.600
3.151,7.143,87.605,0.630,0.0,1.471,0.0,19660.800,758220.600,1453153.800,0.0,0.0,0.0,4399.800
2.966,5.932,90.042,0.0,0.0,1.059,0.0,1638.400,722825.800,1388891.200,0.0,0.0,0.0,4346.600
3.354,7.757,88.050,0.0,0.0,0.839,0.0,1638.400,745426.800,1427444.800,0.0,0.0,0.0,4625.600
3.822,6.582,88.535,0.0,0.0,1.062,0.0,2457.600,755060.800,1452062.0,0.0,0.0,0.0,4428.400
2.941,7.563,88.445,0.0,0.0,1.050,0.0,1638.400,754442.800,1443167.0,0.0,0.0,0.0,4258.200
2.559,7.036,89.765,0.0,0.0,0.640,0.0,1638.400,779553.600,1494467.600,0.0,0.0,0.0,4413.600
3.805,7.188,87.738,0.0,0.0,1.268,0.0,819.200,800546.0,1540480.0,0.0,0.0,0.0,4827.800
2.972,7.643,87.898,0.425,0.0,1.062,0.0,19660.800,764152.600,1463314.200,0.0,0.0,0.0,4443.400
4.051,6.610,88.486,0.0,0.0,0.853,0.0,1638.400,775028.400,1486172.600,0.0,0.0,0.0,4564.400
2.941,7.983,88.235,0.0,0.0,0.840,0.0,819.200,773089.600,1486709.600,0.0,0.0,0.0,4628.0
4.357,8.091,86.515,0.0,0.0,1.037,0.0,3276.800,794711.400,1521714.400,0.0,0.0,0.0,4287.400
3.975,8.577,86.402,0.0,0.0,1.046,0.0,1638.400,780197.600,1496493.400,0.0,0.0,0.0,4394.800
0.803,1.205,97.791,0.0,0.0,0.201,0.0,819.200,66571.600,120692.600,0.0,0.0,0.0,852.0
