"Dstat 0.7.2 CSV output"
"Author:","Dag Wieers <dag@wieers.com>",,,,"URL:","http://dag.wieers.com/home-made/dstat/"
"Host:","Server1",,,,"User:","mstevan"
"Cmdline:","dstat --output /home/mstevan/logs/experiment_3.2/dstat/vs_64-vcpr_8-wtpm_64-rep_2.csv 5 16",,,,"Date:","28 Oct 2019 07:00:37 UTC"

"total cpu usage",,,,,,"dsk/total",,"net/total",,"paging",,"system",
"usr","sys","idl","wai","hiq","siq","read","writ","recv","send","in","out","int","csw"
6.921,17.149,72.584,0.360,0.0,2.985,10081.808,1549723.368,0.0,0.0,0.0,0.0,0.131,3001.108
0.201,0.201,99.598,0.0,0.0,0.0,0.0,1638.400,14131.0,13223.800,0.0,0.0,0.0,163.200
2.521,6.303,89.916,0.0,0.0,1.261,0.0,1638.400,539530.600,1023841.200,0.0,0.0,0.200,4534.0
2.326,6.554,89.852,0.211,0.0,1.057,0.0,26214.400,581285.600,1114963.400,0.0,0.0,0.0,4980.600
3.191,5.957,90.0,0.0,0.0,0.851,0.0,1638.400,590121.600,1126427.800,0.0,0.0,0.0,4881.400
2.766,6.809,89.787,0.0,0.0,0.638,0.0,2457.600,582643.600,1113150.0,0.0,0.0,0.0,4854.800
2.326,6.131,90.486,0.0,0.0,1.057,0.0,819.200,581843.800,1116536.800,0.0,0.0,0.0,4816.800
2.966,7.627,88.136,0.0,0.0,1.271,0.0,3276.800,591056.400,1129089.0,0.0,0.0,0.0,4879.0
3.347,6.485,89.749,0.0,0.0,0.418,0.0,819.200,593572.400,1139833.600,0.0,0.0,0.0,4679.800
3.958,5.625,89.583,0.0,0.0,0.833,0.0,1638.400,587293.200,1122662.200,0.0,0.0,0.0,4671.600
2.778,6.410,90.171,0.427,0.0,0.214,0.0,15564.800,585618.200,1118341.0,0.0,0.0,0.0,4845.400
3.151,6.933,89.286,0.0,0.0,0.630,0.0,819.200,594555.800,1141378.200,0.0,0.0,0.0,5043.200
2.966,6.356,89.831,0.0,0.0,0.847,0.0,1638.400,599659.200,1146031.0,0.0,0.0,0.0,4998.800
2.537,6.765,89.641,0.0,0.0,1.057,0.0,1638.400,592012.600,1131046.600,0.0,0.0,0.0,4809.400
3.151,6.933,89.076,0.0,0.0,0.840,0.0,2457.600,600881.600,1154014.200,0.0,0.0,0.0,5075.200
3.376,7.384,88.608,0.0,0.0,0.633,0.0,1638.400,593007.0,1132141.400,0.0,0.0,0.0,4985.400
0.400,0.200,98.600,0.800,0.0,0.0,0.0,18022.400,3127.0,934.800,0.0,0.0,0.0,64.800
