"Dstat 0.7.2 CSV output"
"Author:","Dag Wieers <dag@wieers.com>",,,,"URL:","http://dag.wieers.com/home-made/dstat/"
"Host:","Server1",,,,"User:","mstevan"
"Cmdline:","dstat --output /home/mstevan/logs/experiment_3.2/dstat/vs_64-vcpr_8-wtpm_64-rep_4.csv 5 16",,,,"Date:","28 Oct 2019 07:03:27 UTC"

"total cpu usage",,,,,,"dsk/total",,"net/total",,"paging",,"system",
"usr","sys","idl","wai","hiq","siq","read","writ","recv","send","in","out","int","csw"
6.891,17.067,72.715,0.358,0.0,2.969,10021.489,1540479.253,0.0,0.0,0.0,0.0,0.130,3006.897
0.402,0.201,99.398,0.0,0.0,0.0,0.0,1638.400,12077.400,9227.400,0.0,0.0,0.0,144.200
2.985,4.691,91.258,0.0,0.0,1.066,0.0,819.200,533734.0,1020671.800,0.0,0.0,0.0,4713.200
2.748,6.554,90.063,0.0,0.0,0.634,0.0,1638.400,582613.800,1111607.0,0.0,0.0,0.0,4928.200
2.985,5.970,90.618,0.0,0.0,0.426,0.0,2457.600,594757.800,1141746.0,0.0,0.0,0.0,4944.200
3.185,5.945,90.234,0.0,0.0,0.637,0.0,1638.400,597914.200,1141791.0,0.0,0.0,0.0,5021.400
4.034,5.308,88.960,0.425,0.0,1.274,0.0,22118.400,602677.800,1151878.200,0.0,0.0,0.0,5091.600
2.954,5.907,90.506,0.0,0.0,0.633,0.0,2457.600,583303.200,1119543.0,0.0,0.0,0.0,4813.200
3.151,7.353,88.655,0.0,0.0,0.840,0.0,1638.400,590835.600,1129033.600,0.0,0.0,0.0,4933.800
3.165,7.595,87.764,0.0,0.0,1.477,0.0,1638.400,608755.800,1162909.400,0.0,0.0,0.0,5151.200
2.743,6.540,89.662,0.0,0.0,1.055,0.0,819.200,603453.0,1157778.0,0.0,0.0,0.0,5102.200
2.361,5.579,91.202,0.0,0.0,0.858,0.0,1638.400,586422.0,1119642.0,0.0,0.0,0.0,4882.600
3.534,6.861,88.150,0.624,0.0,0.832,0.0,14745.600,578043.0,1109065.400,0.0,0.0,0.0,4923.800
3.191,6.383,89.787,0.0,0.0,0.638,0.0,1638.400,588032.800,1123060.800,0.0,0.0,0.0,4923.800
4.237,5.085,89.831,0.0,0.0,0.847,0.0,3276.800,584614.400,1116403.400,0.0,0.0,0.0,4765.200
2.526,6.526,90.316,0.0,0.0,0.632,0.0,819.200,578695.0,1109514.600,0.0,0.0,0.0,4730.0
0.401,0.200,99.399,0.0,0.0,0.0,0.0,1638.400,6214.0,1798.800,0.0,0.0,0.0,66.0
