"Dstat 0.7.2 CSV output"
"Author:","Dag Wieers <dag@wieers.com>",,,,"URL:","http://dag.wieers.com/home-made/dstat/"
"Host:","Server1",,,,"User:","mstevan"
"Cmdline:","dstat --output /home/mstevan/logs/experiment_3.2/dstat/vs_64-vcpr_8-wtpm_64-rep_3.csv 5 16",,,,"Date:","28 Oct 2019 07:02:02 UTC"

"total cpu usage",,,,,,"dsk/total",,"net/total",,"paging",,"system",
"usr","sys","idl","wai","hiq","siq","read","writ","recv","send","in","out","int","csw"
6.906,17.109,72.648,0.359,0.0,2.977,10051.563,1545088.979,0.0,0.0,0.0,0.0,0.130,3004.139
0.402,0.201,99.398,0.0,0.0,0.0,0.0,1638.400,10337.600,6406.400,0.0,0.0,0.0,128.600
2.326,6.131,90.698,0.0,0.0,0.846,0.0,819.200,517779.200,988510.800,0.0,0.0,0.0,4357.600
2.979,6.170,90.426,0.0,0.0,0.426,0.0,1638.400,578841.400,1105402.200,0.0,0.0,0.0,4807.400
3.390,6.568,89.407,0.0,0.0,0.636,0.0,3276.800,599285.200,1145798.800,0.0,0.0,0.0,4971.0
2.917,7.083,88.958,0.417,0.0,0.625,0.0,18022.400,586522.600,1126416.400,0.0,0.0,0.0,4885.600
2.796,6.882,89.677,0.0,0.0,0.645,0.0,1638.400,602481.0,1151132.0,0.0,0.0,0.0,4883.400
3.145,6.709,89.099,0.0,0.0,1.048,0.0,3276.800,586957.200,1120423.200,0.0,0.0,0.0,4906.0
2.371,4.741,92.026,0.0,0.0,0.862,0.0,819.200,596354.800,1146710.0,0.0,0.0,0.0,4893.0
2.132,6.610,90.618,0.0,0.0,0.640,0.0,1638.400,592658.0,1133310.800,0.0,0.0,0.0,4659.0
2.350,5.769,91.453,0.0,0.0,0.427,0.0,819.200,587169.800,1127326.200,0.0,0.0,0.0,5045.600
1.684,6.316,90.737,0.421,0.0,0.842,0.0,18022.400,591810.400,1130313.200,0.0,0.0,0.0,4506.800
3.165,5.485,90.717,0.0,0.0,0.633,0.0,1638.400,583310.600,1114722.800,0.0,0.0,0.0,4574.400
3.412,5.117,91.045,0.0,0.0,0.426,0.0,819.200,585637.400,1124470.400,0.0,0.0,0.0,4804.800
3.625,6.610,88.913,0.0,0.0,0.853,0.0,3276.800,594612.200,1136481.200,0.0,0.0,0.0,4779.200
3.185,5.520,90.870,0.0,0.0,0.425,0.0,1638.400,581373.0,1109823.0,0.0,0.0,0.0,4581.0
0.201,0.0,99.799,0.0,0.0,0.0,0.0,819.200,3127.0,934.800,0.0,0.0,0.0,61.600
