"Dstat 0.7.2 CSV output"
"Author:","Dag Wieers <dag@wieers.com>",,,,"URL:","http://dag.wieers.com/home-made/dstat/"
"Host:","Server1",,,,"User:","mstevan"
"Cmdline:","dstat --output /home/mstevan/logs/experiment_3.2/dstat/vs_64-vcpr_32-wtpm_8-rep_2.csv 5 16",,,,"Date:","28 Oct 2019 07:23:21 UTC"

"total cpu usage",,,,,,"dsk/total",,"net/total",,"paging",,"system",
"usr","sys","idl","wai","hiq","siq","read","writ","recv","send","in","out","int","csw"
6.681,16.507,73.607,0.345,0.0,2.859,9618.604,1478733.991,0.0,0.0,0.0,0.0,0.125,3003.578
0.402,0.201,99.396,0.0,0.0,0.0,0.0,1638.400,7846.800,4239.600,0.0,0.0,0.0,83.0
1.860,4.339,93.388,0.0,0.0,0.413,0.0,1638.400,338334.0,642576.800,0.0,0.0,0.0,2035.400
1.263,4.211,94.316,0.211,0.0,0.0,0.0,18022.400,345721.200,662293.400,0.0,0.0,0.0,2246.200
2.066,4.132,93.388,0.0,0.0,0.413,0.0,2457.600,351587.600,667967.600,0.0,0.0,0.0,1977.200
1.660,4.564,93.361,0.0,0.0,0.415,0.0,2457.600,343668.200,652987.400,0.0,0.0,0.0,1949.0
1.660,4.979,93.361,0.0,0.0,0.0,0.0,819.200,359975.800,689611.800,0.0,0.0,0.0,2175.600
1.670,4.175,93.737,0.0,0.0,0.418,0.0,3276.800,357279.800,679216.800,0.0,0.0,0.0,2145.0
1.883,4.184,93.724,0.0,0.0,0.209,0.0,819.200,358491.400,686676.400,0.0,0.0,0.0,2200.200
1.471,3.361,94.538,0.420,0.0,0.210,0.0,15564.800,346605.600,657545.600,0.0,0.0,0.0,2144.0
1.660,3.734,94.398,0.0,0.0,0.207,0.0,4915.200,342813.400,651495.0,0.0,0.0,0.0,2025.800
1.681,3.992,94.118,0.0,0.0,0.210,0.0,819.200,363026.600,695115.800,0.0,0.0,0.0,2140.0
1.471,3.782,94.328,0.0,0.0,0.420,0.0,1638.400,365402.400,694806.0,0.0,0.0,0.0,2051.0
1.656,4.348,93.582,0.0,0.0,0.414,0.0,1638.400,350857.0,666819.400,0.0,0.0,0.0,1959.400
2.092,3.347,94.142,0.0,0.0,0.418,0.0,2457.600,358031.600,685616.0,0.0,0.0,0.0,2037.600
1.903,3.171,94.292,0.423,0.0,0.211,0.0,15564.800,361881.200,688392.800,0.0,0.0,0.0,2059.400
0.607,0.607,98.583,0.0,0.0,0.202,0.0,1638.400,63265.0,111733.600,0.0,0.0,0.0,525.0
