"Dstat 0.7.2 CSV output"
"Author:","Dag Wieers <dag@wieers.com>",,,,"URL:","http://dag.wieers.com/home-made/dstat/"
"Host:","Server1",,,,"User:","mstevan"
"Cmdline:","dstat --output /home/mstevan/logs/experiment_3.2/dstat/vs_64-vcpr_32-wtpm_32-rep_1.csv 5 16",,,,"Date:","28 Oct 2019 07:27:36 UTC"

"total cpu usage",,,,,,"dsk/total",,"net/total",,"paging",,"system",
"usr","sys","idl","wai","hiq","siq","read","writ","recv","send","in","out","int","csw"
6.632,16.376,73.816,0.343,0.0,2.833,9536.449,1466142.241,0.0,0.0,0.0,0.0,0.124,2992.516
0.201,0.0,99.799,0.0,0.0,0.0,0.0,1638.400,12921.200,12930.800,0.0,0.0,0.0,139.0
2.548,7.643,88.960,0.0,0.0,0.849,0.0,819.200,730319.0,1403554.800,0.0,0.0,0.0,4255.800
2.985,7.676,88.273,0.0,0.0,1.066,0.0,1638.400,801297.600,1536780.800,0.0,0.0,0.0,4139.600
3.571,7.563,87.815,0.0,0.0,1.050,0.0,3276.800,780592.600,1496149.0,0.0,0.0,0.0,4015.600
3.448,5.819,89.871,0.0,0.0,0.862,0.0,819.200,760234.600,1461092.800,0.0,0.0,0.0,4093.800
3.632,7.051,88.675,0.0,0.0,0.641,0.0,1638.400,773692.0,1482605.400,0.0,0.0,0.0,4104.0
3.185,7.431,88.110,0.212,0.0,1.062,0.0,23756.800,807165.600,1547726.200,0.0,0.0,0.0,4104.400
3.397,7.856,87.686,0.0,0.0,1.062,0.0,819.200,812429.0,1561552.0,0.0,0.0,0.0,3953.400
3.758,7.516,87.891,0.0,0.0,0.835,0.0,1638.400,800564.400,1535637.400,0.0,0.0,0.0,4016.400
2.570,6.638,90.150,0.0,0.0,0.642,0.0,819.200,800237.200,1539232.600,0.0,0.0,0.0,4177.600
3.011,7.097,88.817,0.0,0.0,1.075,0.0,1638.400,811175.400,1553602.800,0.0,0.0,0.0,4341.600
3.814,8.686,86.864,0.0,0.0,0.636,0.0,1638.400,821141.200,1574785.800,0.0,0.0,0.0,4451.600
3.602,8.263,87.288,0.212,0.0,0.636,0.0,15564.800,815241.800,1567144.400,0.0,0.0,0.0,4463.400
4.060,7.906,87.393,0.0,0.0,0.641,0.0,3276.800,812728.0,1558426.600,0.0,0.0,0.0,4573.400
3.191,8.298,87.660,0.0,0.0,0.851,0.0,1638.400,795413.200,1524989.0,0.0,0.0,0.0,4386.0
1.008,1.210,97.581,0.0,0.0,0.202,0.0,819.200,100635.800,188639.200,0.0,0.0,0.0,926.0
