"Dstat 0.7.2 CSV output"
"Author:","Dag Wieers <dag@wieers.com>",,,,"URL:","http://dag.wieers.com/home-made/dstat/"
"Host:","Server1",,,,"User:","mstevan"
"Cmdline:","dstat --output /home/mstevan/logs/experiment_3.2/dstat/vs_64-vcpr_16-wtpm_8-rep_2.csv 5 16",,,,"Date:","28 Oct 2019 07:06:18 UTC"

"total cpu usage",,,,,,"dsk/total",,"net/total",,"paging",,"system",
"usr","sys","idl","wai","hiq","siq","read","writ","recv","send","in","out","int","csw"
6.858,16.979,72.854,0.356,0.0,2.952,9961.869,1531338.995,0.0,0.0,0.0,0.0,0.129,3006.377
0.201,0.201,99.195,0.402,0.0,0.0,0.0,19660.800,9716.400,13125.0,0.0,0.0,0.0,130.200
1.681,3.571,94.328,0.0,0.0,0.420,0.0,6553.600,359808.800,684020.0,0.0,0.0,0.0,2135.400
1.471,3.571,94.748,0.0,0.0,0.210,0.0,1638.400,340588.800,652207.800,0.0,0.0,0.0,2072.400
1.895,3.579,94.316,0.0,0.0,0.211,0.0,2457.600,361240.200,687035.400,0.0,0.0,0.0,2115.400
2.105,2.947,94.316,0.0,0.0,0.632,0.0,1638.400,355745.400,675626.200,0.0,0.0,0.0,1896.800
1.255,3.766,94.770,0.0,0.0,0.209,0.0,819.200,356684.800,683314.600,0.0,0.0,0.0,1994.0
2.092,3.556,93.515,0.0,0.0,0.837,0.0,3276.800,367322.400,698506.800,0.0,0.0,0.0,2008.800
1.674,3.766,93.305,0.418,0.0,0.837,0.0,15564.800,364321.600,693132.400,0.0,0.0,0.0,2041.0
1.848,4.723,93.018,0.0,0.0,0.411,0.0,819.200,350954.200,671924.800,0.0,0.0,0.0,1889.200
1.899,4.219,93.882,0.0,0.0,0.0,0.0,1638.400,367685.600,699580.800,0.0,0.0,0.0,2112.200
1.674,4.184,93.933,0.0,0.0,0.209,0.0,819.200,363672.800,693425.200,0.0,0.0,0.0,1909.0
1.677,3.774,94.340,0.0,0.0,0.210,0.0,1638.400,365754.200,697976.600,0.0,0.0,0.0,1987.200
1.891,4.202,93.487,0.0,0.0,0.420,0.0,1638.400,367368.200,698370.600,0.0,0.0,0.0,2025.600
1.461,4.802,93.528,0.209,0.0,0.0,0.0,17203.200,368794.0,706687.0,0.0,0.0,0.0,2079.800
1.242,4.762,93.168,0.0,0.0,0.828,0.0,1638.400,362399.200,689156.800,0.0,0.0,0.0,1975.0
0.806,0.605,98.589,0.0,0.0,0.0,0.0,1638.400,40917.600,68564.0,0.0,0.0,0.0,467.400
