"Dstat 0.7.2 CSV output"
"Author:","Dag Wieers <dag@wieers.com>",,,,"URL:","http://dag.wieers.com/home-made/dstat/"
"Host:","Server1",,,,"User:","mstevan"
"Cmdline:","dstat --output /home/mstevan/logs/experiment_2.2/dstat/vs_1024-vcpr_32-rep_3.csv 5 14",,,,"Date:","28 Oct 2019 01:55:10 UTC"

"total cpu usage",,,,,,"dsk/total",,"net/total",,"paging",,"system",
"usr","sys","idl","wai","hiq","siq","read","writ","recv","send","in","out","int","csw"
7.665,19.236,68.077,0.757,0.0,4.264,18676.794,4381286.104,0.0,0.0,0.0,0.0,0.364,2298.832
2.658,6.953,89.366,0.0,0.0,1.022,0.0,1638.400,940316.600,12512913.600,0.0,0.0,0.0,764.0
1.674,5.439,91.632,0.0,0.0,1.255,0.0,1638.400,941898.600,12539068.400,0.0,0.0,0.0,789.800
1.879,5.428,91.441,0.418,0.0,0.835,0.0,18841.600,939012.200,12539013.800,0.0,0.0,0.0,772.0
2.648,6.517,89.613,0.0,0.0,1.222,0.0,2457.600,939301.200,12500064.0,0.0,0.0,0.0,764.600
2.675,6.584,89.095,0.0,0.0,1.646,0.0,819.200,937775.800,12499693.400,0.0,0.0,0.0,772.400
2.479,5.785,90.909,0.0,0.0,0.826,0.0,1638.400,939016.600,12499994.200,0.0,0.0,0.0,807.0
2.490,5.602,90.456,0.0,0.0,1.452,0.0,4096.0,939111.200,12500075.400,0.0,0.0,0.0,780.800
2.469,6.379,90.123,0.0,0.0,1.029,0.0,819.200,936350.400,12499998.400,0.0,0.0,0.0,711.800
2.697,5.394,90.664,0.0,0.0,1.245,0.0,1638.400,939032.200,12499997.400,0.0,0.0,0.0,733.0
2.669,5.955,89.733,0.411,0.0,1.232,0.0,22118.400,935186.0,12499883.800,0.0,0.0,0.0,749.600
2.490,6.017,90.456,0.0,0.0,1.037,0.0,1638.400,939946.600,12500035.400,0.0,0.0,0.0,801.400
1.663,6.029,91.268,0.0,0.0,1.040,0.0,1638.400,939575.800,12500055.800,0.0,0.0,0.0,772.800
2.070,6.004,90.890,0.0,0.0,1.035,0.0,1638.400,936955.200,12500050.200,0.0,0.0,0.0,777.400
2.911,5.405,90.644,0.0,0.0,1.040,0.0,2457.600,908934.600,12089159.0,0.0,0.0,0.0,790.400
