"Dstat 0.7.2 CSV output"
"Author:","Dag Wieers <dag@wieers.com>",,,,"URL:","http://dag.wieers.com/home-made/dstat/"
"Host:","Server1",,,,"User:","mstevan"
"Cmdline:","dstat --output /home/mstevan/logs/experiment_2.2/dstat/vs_1024-vcpr_32-rep_1.csv 5 14",,,,"Date:","28 Oct 2019 01:52:48 UTC"

"total cpu usage",,,,,,"dsk/total",,"net/total",,"paging",,"system",
"usr","sys","idl","wai","hiq","siq","read","writ","recv","send","in","out","int","csw"
7.752,19.456,67.710,0.766,0.0,4.316,18946.608,4444511.570,0.0,0.0,0.0,0.0,0.369,2321.053
2.881,6.173,89.506,0.617,0.0,0.823,0.0,18022.400,940376.600,12523041.600,0.0,0.0,0.0,778.400
2.058,6.790,89.918,0.0,0.0,1.235,0.0,4096.0,942586.200,12578922.400,0.0,0.0,0.0,794.600
1.261,5.882,91.807,0.0,0.0,1.050,0.0,1638.400,938610.200,12499899.200,0.0,0.0,0.0,755.400
2.479,5.579,90.496,0.0,0.0,1.446,0.0,1638.400,938854.600,12486810.200,0.0,0.0,0.0,769.600
2.479,5.785,90.909,0.0,0.0,0.826,0.0,819.200,938304.600,12513310.600,0.0,0.0,0.0,741.600
2.893,6.198,89.256,0.0,0.0,1.653,0.0,2457.600,938428.400,12497299.600,0.0,0.0,0.0,785.600
2.474,5.773,89.897,0.206,0.0,1.649,0.0,17203.200,939865.800,12502495.200,0.0,0.0,0.0,778.0
2.459,6.352,89.959,0.0,0.0,1.230,0.0,819.200,935952.400,12500107.200,0.0,0.0,0.0,764.800
2.692,5.797,90.683,0.0,0.0,0.828,0.0,1638.400,939172.200,12499975.800,0.0,0.0,0.0,763.400
2.083,5.833,90.417,0.0,0.0,1.667,0.0,819.200,942156.200,12576303.400,0.0,0.0,0.0,818.0
2.259,7.187,89.528,0.0,0.0,1.027,0.0,1638.400,937754.600,12496267.400,0.0,0.0,0.0,796.800
2.911,5.405,90.021,0.0,0.0,1.663,0.0,1638.400,941105.600,12505531.0,0.0,0.0,0.0,789.200
2.075,5.187,91.494,0.0,0.0,1.245,0.0,819.200,936983.0,12500028.200,0.0,0.0,0.0,738.400
2.484,6.418,89.441,0.621,0.0,1.035,0.0,20480.0,910772.200,12113085.600,0.0,0.0,0.0,747.400
