"Dstat 0.7.2 CSV output"
"Author:","Dag Wieers <dag@wieers.com>",,,,"URL:","http://dag.wieers.com/home-made/dstat/"
"Host:","Server1",,,,"User:","mstevan"
"Cmdline:","dstat --output /home/mstevan/logs/experiment_2.2/dstat/vs_1024-vcpr_4-rep_3.csv 5 14",,,,"Date:","28 Oct 2019 01:40:58 UTC"

"total cpu usage",,,,,,"dsk/total",,"net/total",,"paging",,"system",
"usr","sys","idl","wai","hiq","siq","read","writ","recv","send","in","out","int","csw"
8.140,20.498,65.929,0.830,0.0,4.603,20417.539,4789223.074,0.0,0.0,0.0,0.0,0.398,2285.128
6.013,12.918,79.733,0.0,0.0,1.336,0.0,1638.400,946984.600,12602985.0,0.0,0.0,0.0,6067.0
3.974,10.375,84.547,0.221,0.0,0.883,0.0,9830.400,936273.200,12499857.0,0.0,0.0,0.0,6179.800
4.911,9.152,84.598,0.223,0.0,1.116,0.0,10649.600,939142.200,12500127.0,0.0,0.0,0.0,6138.0
5.669,12.245,80.499,0.0,0.0,1.587,0.0,1638.400,936702.400,12467127.200,0.0,0.0,0.0,6146.600
4.036,10.987,83.857,0.0,0.0,1.121,0.0,819.200,939003.0,12532887.0,0.0,0.0,0.0,6323.400
6.109,9.729,83.032,0.0,0.0,1.131,0.0,1638.400,939393.200,12499916.400,0.0,0.0,0.0,6444.600
4.270,11.910,82.022,0.0,0.0,1.798,0.0,4096.0,932288.400,12403209.0,0.0,0.0,0.0,6289.800
5.046,10.780,83.028,0.0,0.0,1.147,0.0,819.200,938425.800,12531149.400,0.0,0.0,0.0,6371.200
5.817,11.857,80.761,0.224,0.0,1.342,0.0,19660.800,941664.200,12534258.400,0.0,0.0,0.0,5967.400
4.082,11.111,84.354,0.0,0.0,0.454,0.0,819.200,939888.0,12551760.800,0.0,0.0,0.0,6247.0
4.357,9.150,85.403,0.0,0.0,1.089,0.0,1638.400,938682.400,12494452.600,0.0,0.0,0.0,5623.200
4.795,11.416,82.877,0.0,0.0,0.913,0.0,1638.400,941491.600,12531811.200,0.0,0.0,0.0,6245.600
3.091,11.038,85.210,0.0,0.0,0.662,0.0,819.200,936106.400,12499955.600,0.0,0.0,0.0,5973.200
4.158,8.972,85.777,0.0,0.0,1.094,0.0,3276.800,914268.0,12161345.200,0.0,0.0,0.0,6056.800
