"Dstat 0.7.2 CSV output"
"Author:","Dag Wieers <dag@wieers.com>",,,,"URL:","http://dag.wieers.com/home-made/dstat/"
"Host:","Server1",,,,"User:","mstevan"
"Cmdline:","dstat --output /home/mstevan/logs/experiment_2.2/dstat/vs_256-vcpr_4-rep_3.csv 5 14",,,,"Date:","28 Oct 2019 01:03:09 UTC"

"total cpu usage",,,,,,"dsk/total",,"net/total",,"paging",,"system",
"usr","sys","idl","wai","hiq","siq","read","writ","recv","send","in","out","int","csw"
8.385,21.231,64.011,1.081,0.0,5.291,27149.953,6367433.829,0.0,0.0,0.0,0.0,0.528,1643.074
5.995,13.909,78.657,0.0,0.0,1.439,0.0,1638.400,1098821.800,4623926.400,0.0,0.0,0.0,6082.0
5.467,12.528,81.093,0.0,0.0,0.911,0.0,819.200,1089214.0,4594673.0,0.0,0.0,0.0,6249.800
4.651,13.488,80.0,0.0,0.0,1.860,0.0,1638.400,1091685.600,4593112.800,0.0,0.0,0.0,6224.400
6.760,13.054,77.855,0.233,0.0,2.098,0.0,18841.600,1078302.200,4534107.200,0.0,0.0,0.0,6284.400
4.730,13.739,80.856,0.0,0.0,0.676,0.0,1638.400,1074370.400,4532146.200,0.0,0.0,0.0,6117.800
6.444,14.558,77.566,0.0,0.0,1.432,0.0,1638.400,1071048.400,4506655.800,0.0,0.0,0.0,5963.800
5.924,14.218,78.436,0.0,0.0,1.422,0.0,4096.0,1068817.800,4496523.800,0.0,0.0,0.0,6014.0
4.965,13.002,80.615,0.0,0.0,1.418,0.0,819.200,1081365.800,4562631.400,0.0,0.0,0.0,6300.800
6.452,13.896,78.412,0.0,0.0,1.241,0.0,1638.400,1082226.800,4553340.600,0.0,0.0,0.0,6216.0
4.388,13.395,81.293,0.0,0.0,0.924,0.0,819.200,1086787.200,4584916.600,0.0,0.0,0.0,6187.600
6.278,13.677,77.354,0.224,0.0,2.466,0.0,20480.0,1114355.600,4689117.200,0.0,0.0,0.0,6491.0
5.674,13.712,79.669,0.0,0.0,0.946,0.0,1638.400,1094735.600,4606563.400,0.0,0.0,0.0,6168.200
3.846,13.575,81.448,0.0,0.0,1.131,0.0,819.200,1114843.800,4702724.400,0.0,0.0,0.0,6373.800
4.450,11.241,83.138,0.0,0.0,1.171,0.0,3276.800,1031288.800,4336231.800,0.0,0.0,0.0,5828.400
