"Dstat 0.7.2 CSV output"
"Author:","Dag Wieers <dag@wieers.com>",,,,"URL:","http://dag.wieers.com/home-made/dstat/"
"Host:","Server1",,,,"User:","mstevan"
"Cmdline:","dstat --output /home/mstevan/logs/experiment_2.2/dstat/vs_256-vcpr_32-rep_1.csv 5 14",,,,"Date:","28 Oct 2019 01:14:53 UTC"

"total cpu usage",,,,,,"dsk/total",,"net/total",,"paging",,"system",
"usr","sys","idl","wai","hiq","siq","read","writ","recv","send","in","out","int","csw"
8.274,20.920,64.815,0.987,0.0,5.005,24632.267,5776900.701,0.0,0.0,0.0,0.0,0.479,1929.561
8.511,27.394,59.574,0.0,0.0,4.521,0.0,819.200,1760662.600,7440323.800,0.0,0.0,0.0,2443.200
11.892,22.162,61.081,0.0,0.0,4.865,0.0,1638.400,1751723.400,7382508.800,0.0,0.0,0.0,2493.200
9.867,27.467,58.400,0.0,0.0,4.267,0.0,819.200,1721725.400,7266608.400,0.0,0.0,0.0,2343.0
9.946,27.688,59.140,0.538,0.0,2.688,0.0,19660.800,1696644.0,7155787.200,0.0,0.0,0.0,2361.0
10.622,25.648,58.808,0.0,0.0,4.922,0.0,1638.400,1726557.600,7276685.800,0.0,0.0,0.0,2403.400
10.026,25.594,60.158,0.0,0.0,4.222,0.0,819.200,1754553.200,7415791.200,0.0,0.0,0.0,2414.0
9.794,27.320,59.021,0.0,0.0,3.866,0.0,4096.0,1750715.400,7374992.0,0.0,0.0,0.0,2350.600
11.436,26.064,58.245,0.0,0.0,4.255,0.0,819.200,1738659.400,7336242.400,0.0,0.0,0.0,2352.600
9.067,26.933,59.733,0.0,0.0,4.267,0.0,1638.400,1753693.200,7399695.600,0.0,0.0,0.0,2319.600
8.794,25.879,61.307,0.0,0.0,4.020,0.0,1638.400,1752968.200,7387127.600,0.0,0.0,0.0,2355.600
9.268,24.390,62.439,0.244,0.0,3.659,0.0,22937.600,1832181.600,7738719.200,0.0,0.0,0.0,2418.400
10.156,25.521,59.896,0.0,0.0,4.427,0.0,1638.400,1749262.400,7374481.200,0.0,0.0,0.0,2339.800
12.113,22.938,60.567,0.0,0.0,4.381,0.0,2457.600,1763345.400,7433787.200,0.0,0.0,0.0,2344.800
8.763,25.258,61.598,0.0,0.0,4.381,0.0,1638.400,1719049.400,7250376.800,0.0,0.0,0.0,2309.400
