"Dstat 0.7.2 CSV output"
"Author:","Dag Wieers <dag@wieers.com>",,,,"URL:","http://dag.wieers.com/home-made/dstat/"
"Host:","Server1",,,,"User:","mstevan"
"Cmdline:","dstat --output /home/mstevan/logs/experiment_2.2/dstat/vs_512-vcpr_32-rep_4.csv 5 14",,,,"Date:","28 Oct 2019 01:37:18 UTC"

"total cpu usage",,,,,,"dsk/total",,"net/total",,"paging",,"system",
"usr","sys","idl","wai","hiq","siq","read","writ","recv","send","in","out","int","csw"
8.200,20.672,65.605,0.850,0.0,4.672,20919.301,4906794.586,0.0,0.0,0.0,0.0,0.408,2235.461
8.483,25.964,60.925,0.0,0.0,4.627,0.0,819.200,1724515.600,12513843.200,0.0,0.0,0.0,2338.800
7.928,24.552,63.171,0.0,0.0,4.348,0.0,1638.400,1726645.200,12553724.200,0.0,0.0,0.0,2386.200
11.842,23.421,59.474,0.0,0.0,5.263,0.0,18841.600,1707121.200,12379411.600,0.0,0.0,0.0,2321.200
8.413,19.471,68.750,0.0,0.0,3.365,0.0,7372.800,1730733.0,12586358.400,0.0,0.0,0.0,2434.0
7.809,22.670,65.491,0.0,0.0,4.030,0.0,1638.400,1722490.200,12493138.800,0.0,0.0,0.0,2287.800
10.104,21.762,63.990,0.0,0.0,4.145,0.0,1638.400,1707937.0,12400620.600,0.0,0.0,0.0,2264.600
8.974,25.641,61.026,0.0,0.0,4.359,0.0,3276.800,1710514.0,12419606.200,0.0,0.0,0.0,2325.600
9.635,27.083,59.635,0.0,0.0,3.646,0.0,1638.400,1716255.800,12459740.400,0.0,0.0,0.0,2219.800
9.415,23.919,62.087,0.0,0.0,4.580,0.0,819.200,1695334.0,12299449.400,0.0,0.0,0.0,2266.600
11.139,24.557,61.013,0.253,0.0,3.038,0.0,14745.600,1727583.600,12552499.200,0.0,0.0,0.0,2305.400
7.425,18.561,70.302,0.0,0.0,3.712,0.0,1638.400,1722607.200,12500049.800,0.0,0.0,0.0,2429.600
5.991,17.281,75.115,0.0,0.0,1.613,0.0,819.200,1725710.800,12548339.600,0.0,0.0,0.0,2606.400
7.398,23.980,63.776,0.0,0.0,4.847,0.0,1638.400,1708784.600,12393601.400,0.0,0.0,0.0,2313.0
8.505,22.423,64.948,0.0,0.0,4.124,0.0,3276.800,1660359.200,12027435.400,0.0,0.0,0.0,2231.200
