"Dstat 0.7.2 CSV output"
"Author:","Dag Wieers <dag@wieers.com>",,,,"URL:","http://dag.wieers.com/home-made/dstat/"
"Host:","Server1",,,,"User:","mstevan"
"Cmdline:","dstat --output /home/mstevan/logs/experiment_2.2/dstat/vs_64-vcpr_4-rep_1.csv 5 14",,,,"Date:","28 Oct 2019 00:41:52 UTC"

"total cpu usage",,,,,,"dsk/total",,"net/total",,"paging",,"system",
"usr","sys","idl","wai","hiq","siq","read","writ","recv","send","in","out","int","csw"
8.517,21.808,62.468,1.309,0.0,5.898,33337.671,7817564.316,0.0,0.0,0.0,0.0,0.648,954.562
7.178,17.327,74.505,0.0,0.0,0.990,0.0,819.200,1042301.800,2006090.400,0.0,0.0,0.0,7009.600
6.801,17.380,74.055,0.0,0.0,1.763,0.0,1638.400,1052452.800,2020766.400,0.0,0.0,0.200,6789.400
8.440,16.624,73.402,0.0,0.0,1.535,0.0,2457.600,1066952.400,2048480.600,0.0,0.0,0.0,6697.600
5.882,15.441,76.961,0.245,0.0,1.471,0.0,46694.400,1031805.600,1985913.600,0.0,0.0,0.0,6945.800
7.407,17.037,74.321,0.0,0.0,1.235,0.0,3276.800,1027895.0,1972869.200,0.0,0.0,0.0,6822.800
7.126,16.152,75.297,0.0,0.0,1.425,0.0,2457.600,1032349.0,1982030.0,0.0,0.0,0.0,7048.200
6.699,17.225,73.923,0.0,0.0,2.153,0.0,2457.600,1020857.200,1964513.400,0.0,0.0,0.0,6867.600
5.301,15.181,75.663,0.0,0.0,3.855,0.0,1638.400,1023319.0,1964576.800,0.0,0.0,0.0,7057.600
7.481,17.207,73.566,0.0,0.0,1.746,0.0,819.200,1022122.200,1967670.400,0.0,0.0,0.0,6867.0
6.634,14.251,77.150,0.246,0.0,1.720,0.0,30310.400,1000981.600,1921514.800,0.0,0.0,0.0,6679.200
7.177,16.507,74.402,0.0,0.0,1.914,0.0,1638.400,1026467.200,1970350.200,0.0,0.0,0.0,7054.200
7.614,15.482,74.365,0.0,0.0,2.538,0.0,819.200,1015067.800,1953569.800,0.0,0.0,0.0,6934.0
7.444,16.873,73.449,0.0,0.0,2.233,0.0,1638.400,1016032.200,1950227.800,0.0,0.0,0.0,7028.800
7.674,14.868,76.259,0.0,0.0,1.199,0.0,3276.800,1004381.200,1927402.400,0.0,0.0,0.0,6715.800
