"Dstat 0.7.2 CSV output"
"Author:","Dag Wieers <dag@wieers.com>",,,,"URL:","http://dag.wieers.com/home-made/dstat/"
"Host:","Server1",,,,"User:","mstevan"
"Cmdline:","dstat --output /home/mstevan/logs/experiment_2.2/dstat/vs_64-vcpr_4-rep_2.csv 5 14",,,,"Date:","28 Oct 2019 00:43:04 UTC"

"total cpu usage",,,,,,"dsk/total",,"net/total",,"paging",,"system",
"usr","sys","idl","wai","hiq","siq","read","writ","recv","send","in","out","int","csw"
8.497,21.733,62.631,1.292,0.0,5.847,32916.078,7718790.439,0.0,0.0,0.0,0.0,0.640,1027.640
5.543,13.626,79.677,0.0,0.0,1.155,0.0,1638.400,1019284.800,1956804.600,0.0,0.0,0.0,6882.600
5.774,13.857,78.753,0.231,0.0,1.386,0.0,18022.400,1007027.0,1937782.0,0.0,0.0,0.0,6934.800
5.621,12.646,79.859,0.0,0.0,1.874,0.0,5734.400,1024239.400,1966503.400,0.0,0.0,0.0,6741.200
5.991,10.829,82.488,0.0,0.0,0.691,0.0,1638.400,1007648.800,1934078.200,0.0,0.0,0.0,6477.200
6.294,14.918,77.156,0.0,0.0,1.632,0.0,819.200,992967.600,1910406.400,0.0,0.0,0.0,6713.600
3.982,9.513,85.398,0.0,0.0,1.106,0.0,1638.400,1001252.0,1921896.800,0.0,0.0,0.0,6257.0
5.275,8.791,85.055,0.0,0.0,0.879,0.0,4096.0,979932.600,1880817.200,0.0,0.0,0.0,6162.200
4.857,11.921,80.574,0.662,0.0,1.987,0.0,14745.600,995187.800,1915392.600,0.0,0.0,0.0,6773.400
5.263,13.397,80.383,0.0,0.0,0.957,0.0,1638.400,998712.200,1916887.600,0.0,0.0,0.0,6595.800
5.769,15.625,77.404,0.0,0.0,1.202,0.0,819.200,1008414.0,1941000.400,0.0,0.0,0.0,6829.400
7.583,16.588,74.171,0.0,0.0,1.659,0.0,1638.400,1000972.800,1921350.600,0.0,0.0,0.0,6672.200
6.280,17.150,75.121,0.0,0.0,1.449,0.0,1638.400,1003220.800,1925724.200,0.0,0.0,0.0,6649.0
4.566,14.155,80.137,0.0,0.0,1.142,0.0,819.200,1036714.800,1995371.400,0.0,0.0,0.0,6834.600
4.895,14.918,78.322,0.466,0.0,1.399,0.0,17203.200,975139.800,1870771.800,0.0,0.0,0.0,6671.400
