"Dstat 0.7.2 CSV output"
"Author:","Dag Wieers <dag@wieers.com>",,,,"URL:","http://dag.wieers.com/home-made/dstat/"
"Host:","Server1",,,,"User:","mstevan"
"Cmdline:","dstat --output /home/mstevan/logs/experiment_2.2/dstat/vs_64-vcpr_16-rep_2.csv 5 14",,,,"Date:","28 Oct 2019 00:52:27 UTC"

"total cpu usage",,,,,,"dsk/total",,"net/total",,"paging",,"system",
"usr","sys","idl","wai","hiq","siq","read","writ","recv","send","in","out","int","csw"
8.370,21.287,63.671,1.182,0.0,5.491,29945.196,7022533.864,0.0,0.0,0.0,0.0,0.582,1429.593
7.381,18.333,70.952,0.0,0.0,3.333,0.0,1638.400,1578098.0,3036370.400,0.0,0.0,0.0,3616.600
7.178,21.535,69.554,0.0,0.0,1.733,0.0,819.200,1535016.400,2956653.400,0.0,0.0,0.0,3661.600
9.975,18.953,67.830,0.0,0.0,3.242,0.0,1638.400,1516793.600,2915401.800,0.0,0.0,0.0,3412.400
7.022,21.550,67.554,0.0,0.0,3.874,0.0,819.200,1554303.0,2993454.0,0.0,0.0,0.0,3512.600
8.088,19.853,68.873,0.0,0.0,3.186,0.0,1638.400,1569593.800,3019252.600,0.0,0.0,0.0,3628.200
7.888,21.120,67.430,0.254,0.0,3.308,0.0,22937.600,1544564.0,2971330.600,0.0,0.0,0.0,3465.800
9.873,23.544,62.278,0.0,0.0,4.304,0.0,3276.800,1477220.600,2844499.400,0.0,0.0,0.0,3267.600
7.179,22.308,67.179,0.0,0.0,3.333,0.0,1638.400,1505257.0,2894590.800,0.0,0.0,0.0,3468.200
9.343,20.707,67.677,0.0,0.0,2.273,0.0,1638.400,1515108.800,2913677.800,0.0,0.0,0.0,3446.800
8.437,22.084,66.501,0.0,0.0,2.978,0.0,819.200,1522413.800,2932797.800,0.0,0.0,0.0,3397.200
8.189,22.581,65.757,0.0,0.0,3.474,0.0,1638.400,1507398.800,2898479.200,0.0,0.0,0.0,3479.400
8.229,21.696,66.584,0.249,0.0,3.242,0.0,15564.800,1518232.600,2922337.400,0.0,0.0,0.0,3633.800
9.824,21.914,65.239,0.0,0.0,3.023,0.0,1638.400,1525626.200,2934095.0,0.0,0.0,0.0,3661.200
8.250,22.250,66.250,0.0,0.0,3.250,0.0,3276.800,1503539.0,2889673.400,0.0,0.0,0.0,3399.600
