------------Middleware started!------------
LOG: Waiting for connection in MyMiddleware.run()
LOG: Accepted client: /10.0.0.7:48616in MyMiddleware.run()
LOG: Accepted client: /10.0.0.7:48602in MyMiddleware.run()
LOG: Accepted client: /10.0.0.7:48642in MyMiddleware.run()
LOG: Accepted client: /10.0.0.7:48612in MyMiddleware.run()
LOG: Accepted client: /10.0.0.7:48604in MyMiddleware.run()
LOG: Accepted client: /10.0.0.7:48696in MyMiddleware.run()
LOG: Accepted client: /10.0.0.7:48646in MyMiddleware.run()
LOG: Accepted client: /10.0.0.7:48628in MyMiddleware.run()
LOG: Accepted client: /10.0.0.7:48606in MyMiddleware.run()
LOG: Accepted client: /10.0.0.7:48680in MyMiddleware.run()
LOG: Accepted client: /10.0.0.7:48716in MyMiddleware.run()
LOG: Accepted client: /10.0.0.7:48618in MyMiddleware.run()
LOG: Accepted client: /10.0.0.7:48660in MyMiddleware.run()
LOG: Accepted client: /10.0.0.7:48684in MyMiddleware.run()
LOG: Accepted client: /10.0.0.7:48636in MyMiddleware.run()
LOG: Accepted client: /10.0.0.7:48714in MyMiddleware.run()
LOG: Accepted client: /10.0.0.7:48658in MyMiddleware.run()
LOG: Accepted client: /10.0.0.7:48728in MyMiddleware.run()
LOG: Accepted client: /10.0.0.7:48626in MyMiddleware.run()
LOG: Accepted client: /10.0.0.7:48620in MyMiddleware.run()
LOG: Accepted client: /10.0.0.7:48638in MyMiddleware.run()
LOG: Accepted client: /10.0.0.7:48632in MyMiddleware.run()
LOG: Accepted client: /10.0.0.7:48702in MyMiddleware.run()
LOG: Accepted client: /10.0.0.7:48634in MyMiddleware.run()
LOG: Accepted client: /10.0.0.7:48698in MyMiddleware.run()
LOG: Accepted client: /10.0.0.7:48656in MyMiddleware.run()
LOG: Accepted client: /10.0.0.7:48712in MyMiddleware.run()
LOG: Accepted client: /10.0.0.7:48622in MyMiddleware.run()
LOG: Accepted client: /10.0.0.7:48704in MyMiddleware.run()
LOG: Accepted client: /10.0.0.7:48662in MyMiddleware.run()
LOG: Accepted client: /10.0.0.7:48614in MyMiddleware.run()
LOG: Accepted client: /10.0.0.7:48718in MyMiddleware.run()
LOG: Accepted client: /10.0.0.7:48666in MyMiddleware.run()
LOG: Accepted client: /10.0.0.7:48724in MyMiddleware.run()
LOG: Accepted client: /10.0.0.7:48648in MyMiddleware.run()
LOG: Accepted client: /10.0.0.7:48700in MyMiddleware.run()
LOG: Accepted client: /10.0.0.7:48720in MyMiddleware.run()
LOG: Accepted client: /10.0.0.7:48726in MyMiddleware.run()
LOG: Accepted client: /10.0.0.7:48676in MyMiddleware.run()
LOG: Accepted client: /10.0.0.7:48630in MyMiddleware.run()
LOG: Accepted client: /10.0.0.7:48706in MyMiddleware.run()
LOG: Accepted client: /10.0.0.7:48644in MyMiddleware.run()
LOG: Accepted client: /10.0.0.7:48664in MyMiddleware.run()
LOG: Accepted client: /10.0.0.7:48682in MyMiddleware.run()
LOG: Accepted client: /10.0.0.7:48650in MyMiddleware.run()
LOG: Accepted client: /10.0.0.7:48686in MyMiddleware.run()
LOG: Accepted client: /10.0.0.7:48722in MyMiddleware.run()
LOG: Accepted client: /10.0.0.7:48692in MyMiddleware.run()
LOG: Accepted client: /10.0.0.7:48654in MyMiddleware.run()
LOG: Accepted client: /10.0.0.7:48678in MyMiddleware.run()
LOG: Accepted client: /10.0.0.7:48694in MyMiddleware.run()
LOG: Accepted client: /10.0.0.7:48674in MyMiddleware.run()
LOG: Accepted client: /10.0.0.11:47936in MyMiddleware.run()
LOG: Accepted client: /10.0.0.11:47972in MyMiddleware.run()
LOG: Accepted client: /10.0.0.11:47940in MyMiddleware.run()
LOG: Accepted client: /10.0.0.11:47882in MyMiddleware.run()
LOG: Accepted client: /10.0.0.11:47888in MyMiddleware.run()
LOG: Accepted client: /10.0.0.11:47894in MyMiddleware.run()
LOG: Accepted client: /10.0.0.11:47970in MyMiddleware.run()
LOG: Accepted client: /10.0.0.11:47968in MyMiddleware.run()
LOG: Accepted client: /10.0.0.11:47920in MyMiddleware.run()
LOG: Accepted client: /10.0.0.11:47884in MyMiddleware.run()
LOG: Accepted client: /10.0.0.11:47864in MyMiddleware.run()
LOG: Accepted client: /10.0.0.11:47918in MyMiddleware.run()
LOG: Accepted client: /10.0.0.11:47922in MyMiddleware.run()
LOG: Accepted client: /10.0.0.11:47912in MyMiddleware.run()
LOG: Accepted client: /10.0.0.11:47916in MyMiddleware.run()
LOG: Accepted client: /10.0.0.11:47886in MyMiddleware.run()
LOG: Accepted client: /10.0.0.11:47866in MyMiddleware.run()
LOG: Accepted client: /10.0.0.11:47868in MyMiddleware.run()
LOG: Accepted client: /10.0.0.11:47890in MyMiddleware.run()
LOG: Accepted client: /10.0.0.11:47870in MyMiddleware.run()
LOG: Accepted client: /10.0.0.11:47880in MyMiddleware.run()
LOG: Accepted client: /10.0.0.11:47892in MyMiddleware.run()
LOG: Accepted client: /10.0.0.7:48624in MyMiddleware.run()
LOG: Accepted client: /10.0.0.7:48640in MyMiddleware.run()
LOG: Accepted client: /10.0.0.7:48652in MyMiddleware.run()
LOG: Accepted client: /10.0.0.7:48708in MyMiddleware.run()
LOG: Accepted client: /10.0.0.7:48672in MyMiddleware.run()
LOG: Accepted client: /10.0.0.7:48710in MyMiddleware.run()
LOG: Accepted client: /10.0.0.7:48668in MyMiddleware.run()
LOG: Accepted client: /10.0.0.7:48610in MyMiddleware.run()
LOG: Accepted client: /10.0.0.7:48688in MyMiddleware.run()
LOG: Accepted client: /10.0.0.7:48670in MyMiddleware.run()
LOG: Accepted client: /10.0.0.7:48690in MyMiddleware.run()
LOG: Accepted client: /10.0.0.11:47974in MyMiddleware.run()
LOG: Accepted client: /10.0.0.11:47942in MyMiddleware.run()
LOG: Accepted client: /10.0.0.7:48608in MyMiddleware.run()
LOG: Accepted client: /10.0.0.11:47926in MyMiddleware.run()
LOG: Accepted client: /10.0.0.11:47938in MyMiddleware.run()
LOG: Accepted client: /10.0.0.11:47924in MyMiddleware.run()
LOG: Accepted client: /10.0.0.11:47960in MyMiddleware.run()
LOG: Accepted client: /10.0.0.11:47962in MyMiddleware.run()
LOG: Accepted client: /10.0.0.11:47878in MyMiddleware.run()
LOG: Accepted client: /10.0.0.11:47964in MyMiddleware.run()
LOG: Accepted client: /10.0.0.11:47984in MyMiddleware.run()
LOG: Accepted client: /10.0.0.11:47934in MyMiddleware.run()
LOG: Accepted client: /10.0.0.11:47906in MyMiddleware.run()
LOG: Accepted client: /10.0.0.11:47872in MyMiddleware.run()
LOG: Accepted client: /10.0.0.11:47954in MyMiddleware.run()
LOG: Accepted client: /10.0.0.11:47874in MyMiddleware.run()
LOG: Accepted client: /10.0.0.11:47944in MyMiddleware.run()
LOG: Accepted client: /10.0.0.11:47876in MyMiddleware.run()
LOG: Accepted client: /10.0.0.11:47904in MyMiddleware.run()
LOG: Accepted client: /10.0.0.11:47952in MyMiddleware.run()
LOG: Accepted client: /10.0.0.11:47956in MyMiddleware.run()
LOG: Accepted client: /10.0.0.11:47946in MyMiddleware.run()
LOG: Accepted client: /10.0.0.11:47862in MyMiddleware.run()
LOG: Accepted client: /10.0.0.11:47902in MyMiddleware.run()
LOG: Accepted client: /10.0.0.11:47958in MyMiddleware.run()
LOG: Accepted client: /10.0.0.11:47932in MyMiddleware.run()
LOG: Accepted client: /10.0.0.11:47908in MyMiddleware.run()
LOG: Accepted client: /10.0.0.11:47910in MyMiddleware.run()
LOG: Accepted client: /10.0.0.11:47860in MyMiddleware.run()
LOG: Accepted client: /10.0.0.11:47900in MyMiddleware.run()
LOG: Accepted client: /10.0.0.11:47976in MyMiddleware.run()
LOG: Accepted client: /10.0.0.11:47982in MyMiddleware.run()
LOG: Accepted client: /10.0.0.11:47980in MyMiddleware.run()
LOG: Accepted client: /10.0.0.11:47896in MyMiddleware.run()
LOG: Accepted client: /10.0.0.11:47898in MyMiddleware.run()
LOG: Accepted client: /10.0.0.11:47928in MyMiddleware.run()
LOG: Accepted client: /10.0.0.11:47948in MyMiddleware.run()
LOG: Accepted client: /10.0.0.11:47950in MyMiddleware.run()
LOG: Accepted client: /10.0.0.11:47930in MyMiddleware.run()
LOG: Accepted client: /10.0.0.6:58892in MyMiddleware.run()
LOG: Accepted client: /10.0.0.6:58936in MyMiddleware.run()
LOG: Accepted client: /10.0.0.6:58932in MyMiddleware.run()
LOG: Accepted client: /10.0.0.6:58858in MyMiddleware.run()
LOG: Accepted client: /10.0.0.6:58816in MyMiddleware.run()
LOG: Accepted client: /10.0.0.6:58860in MyMiddleware.run()
LOG: Accepted client: /10.0.0.6:58938in MyMiddleware.run()
LOG: Accepted client: /10.0.0.6:58820in MyMiddleware.run()
LOG: Accepted client: /10.0.0.6:58914in MyMiddleware.run()
LOG: Accepted client: /10.0.0.6:58940in MyMiddleware.run()
LOG: Accepted client: /10.0.0.6:58902in MyMiddleware.run()
LOG: Accepted client: /10.0.0.6:58886in MyMiddleware.run()
LOG: Accepted client: /10.0.0.6:58856in MyMiddleware.run()
LOG: Accepted client: /10.0.0.6:58836in MyMiddleware.run()
LOG: Accepted client: /10.0.0.6:58830in MyMiddleware.run()
LOG: Accepted client: /10.0.0.6:58850in MyMiddleware.run()
LOG: Accepted client: /10.0.0.6:58854in MyMiddleware.run()
LOG: Accepted client: /10.0.0.6:58924in MyMiddleware.run()
LOG: Accepted client: /10.0.0.6:58934in MyMiddleware.run()
LOG: Accepted client: /10.0.0.6:58906in MyMiddleware.run()
LOG: Accepted client: /10.0.0.6:58824in MyMiddleware.run()
LOG: Accepted client: /10.0.0.6:58942in MyMiddleware.run()
LOG: Accepted client: /10.0.0.6:58864in MyMiddleware.run()
LOG: Accepted client: /10.0.0.6:58900in MyMiddleware.run()
LOG: Accepted client: /10.0.0.6:58898in MyMiddleware.run()
LOG: Accepted client: /10.0.0.6:58862in MyMiddleware.run()
LOG: Accepted client: /10.0.0.6:58904in MyMiddleware.run()
LOG: Accepted client: /10.0.0.6:58888in MyMiddleware.run()
LOG: Accepted client: /10.0.0.6:58842in MyMiddleware.run()
LOG: Accepted client: /10.0.0.6:58916in MyMiddleware.run()
LOG: Accepted client: /10.0.0.6:58870in MyMiddleware.run()
LOG: Accepted client: /10.0.0.6:58828in MyMiddleware.run()
LOG: Accepted client: /10.0.0.6:58838in MyMiddleware.run()
LOG: Accepted client: /10.0.0.6:58926in MyMiddleware.run()
LOG: Accepted client: /10.0.0.6:58880in MyMiddleware.run()
LOG: Accepted client: /10.0.0.6:58912in MyMiddleware.run()
LOG: Accepted client: /10.0.0.6:58822in MyMiddleware.run()
LOG: Accepted client: /10.0.0.6:58846in MyMiddleware.run()
LOG: Accepted client: /10.0.0.6:58866in MyMiddleware.run()
LOG: Accepted client: /10.0.0.6:58922in MyMiddleware.run()
LOG: Accepted client: /10.0.0.6:58894in MyMiddleware.run()
LOG: Accepted client: /10.0.0.6:58818in MyMiddleware.run()
LOG: Accepted client: /10.0.0.6:58872in MyMiddleware.run()
LOG: Accepted client: /10.0.0.6:58896in MyMiddleware.run()
LOG: Accepted client: /10.0.0.6:58844in MyMiddleware.run()
LOG: Accepted client: /10.0.0.6:58878in MyMiddleware.run()
LOG: Accepted client: /10.0.0.6:58834in MyMiddleware.run()
LOG: Accepted client: /10.0.0.6:58852in MyMiddleware.run()
LOG: Accepted client: /10.0.0.6:58908in MyMiddleware.run()
LOG: Accepted client: /10.0.0.6:58920in MyMiddleware.run()
LOG: Accepted client: /10.0.0.6:58890in MyMiddleware.run()
LOG: Accepted client: /10.0.0.6:58868in MyMiddleware.run()
LOG: Accepted client: /10.0.0.6:58884in MyMiddleware.run()
LOG: Accepted client: /10.0.0.6:58848in MyMiddleware.run()
LOG: Accepted client: /10.0.0.6:58832in MyMiddleware.run()
LOG: Accepted client: /10.0.0.6:58874in MyMiddleware.run()
LOG: Accepted client: /10.0.0.6:58910in MyMiddleware.run()
LOG: Accepted client: /10.0.0.6:58882in MyMiddleware.run()
LOG: Accepted client: /10.0.0.6:58876in MyMiddleware.run()
LOG: Accepted client: /10.0.0.6:58840in MyMiddleware.run()
LOG: Accepted client: /10.0.0.6:58928in MyMiddleware.run()
LOG: Accepted client: /10.0.0.6:58918in MyMiddleware.run()
LOG: Accepted client: /10.0.0.6:58930in MyMiddleware.run()
LOG: Accepted client: /10.0.0.6:58826in MyMiddleware.run()
LOG: Accepted client: /10.0.0.11:47986in MyMiddleware.run()
LOG: Accepted client: /10.0.0.11:47914in MyMiddleware.run()
LOG: Accepted client: /10.0.0.11:47966in MyMiddleware.run()
LOG: Accepted client: /10.0.0.11:47978in MyMiddleware.run()
LOG: Closed client: /10.0.0.7:48610in MyMiddleware.run()
LOG: Closed client: /10.0.0.7:48608in MyMiddleware.run()
LOG: Closed client: /10.0.0.7:48684in MyMiddleware.run()
LOG: Closed client: /10.0.0.7:48674in MyMiddleware.run()
LOG: Closed client: /10.0.0.7:48618in MyMiddleware.run()
LOG: Closed client: /10.0.0.7:48642in MyMiddleware.run()
LOG: Closed client: /10.0.0.7:48624in MyMiddleware.run()
LOG: Closed client: /10.0.0.7:48690in MyMiddleware.run()
LOG: Closed client: /10.0.0.7:48672in MyMiddleware.run()
LOG: Closed client: /10.0.0.7:48666in MyMiddleware.run()
LOG: Closed client: /10.0.0.7:48626in MyMiddleware.run()
LOG: Closed client: /10.0.0.7:48640in MyMiddleware.run()
LOG: Closed client: /10.0.0.7:48700in MyMiddleware.run()
LOG: Closed client: /10.0.0.7:48688in MyMiddleware.run()
LOG: Closed client: /10.0.0.7:48652in MyMiddleware.run()
LOG: Closed client: /10.0.0.7:48654in MyMiddleware.run()
LOG: Closed client: /10.0.0.7:48702in MyMiddleware.run()
LOG: Closed client: /10.0.0.7:48636in MyMiddleware.run()
LOG: Closed client: /10.0.0.7:48660in MyMiddleware.run()
LOG: Closed client: /10.0.0.7:48706in MyMiddleware.run()
LOG: Closed client: /10.0.0.7:48616in MyMiddleware.run()
LOG: Closed client: /10.0.0.7:48612in MyMiddleware.run()
LOG: Closed client: /10.0.0.7:48658in MyMiddleware.run()
LOG: Closed client: /10.0.0.7:48622in MyMiddleware.run()
LOG: Closed client: /10.0.0.7:48668in MyMiddleware.run()
LOG: Closed client: /10.0.0.7:48614in MyMiddleware.run()
LOG: Closed client: /10.0.0.7:48686in MyMiddleware.run()
LOG: Closed client: /10.0.0.7:48670in MyMiddleware.run()
LOG: Closed client: /10.0.0.7:48604in MyMiddleware.run()
LOG: Closed client: /10.0.0.7:48664in MyMiddleware.run()
LOG: Closed client: /10.0.0.7:48704in MyMiddleware.run()
LOG: Closed client: /10.0.0.7:48694in MyMiddleware.run()
LOG: Closed client: /10.0.0.7:48696in MyMiddleware.run()
LOG: Closed client: /10.0.0.7:48662in MyMiddleware.run()
LOG: Closed client: /10.0.0.7:48656in MyMiddleware.run()
LOG: Closed client: /10.0.0.7:48692in MyMiddleware.run()
LOG: Closed client: /10.0.0.7:48620in MyMiddleware.run()
LOG: Closed client: /10.0.0.7:48606in MyMiddleware.run()
LOG: Closed client: /10.0.0.7:48708in MyMiddleware.run()
LOG: Closed client: /10.0.0.7:48638in MyMiddleware.run()
LOG: Closed client: /10.0.0.7:48698in MyMiddleware.run()
LOG: Closed client: /10.0.0.7:48726in MyMiddleware.run()
LOG: Closed client: /10.0.0.7:48728in MyMiddleware.run()
LOG: Closed client: /10.0.0.7:48722in MyMiddleware.run()
LOG: Closed client: /10.0.0.7:48646in MyMiddleware.run()
LOG: Closed client: /10.0.0.7:48712in MyMiddleware.run()
LOG: Closed client: /10.0.0.7:48710in MyMiddleware.run()
LOG: Closed client: /10.0.0.7:48602in MyMiddleware.run()
LOG: Closed client: /10.0.0.7:48724in MyMiddleware.run()
LOG: Closed client: /10.0.0.7:48648in MyMiddleware.run()
LOG: Closed client: /10.0.0.7:48634in MyMiddleware.run()
LOG: Closed client: /10.0.0.7:48720in MyMiddleware.run()
LOG: Closed client: /10.0.0.7:48630in MyMiddleware.run()
LOG: Closed client: /10.0.0.7:48682in MyMiddleware.run()
LOG: Closed client: /10.0.0.7:48628in MyMiddleware.run()
LOG: Closed client: /10.0.0.7:48680in MyMiddleware.run()
LOG: Closed client: /10.0.0.7:48650in MyMiddleware.run()
LOG: Closed client: /10.0.0.7:48644in MyMiddleware.run()
LOG: Closed client: /10.0.0.7:48718in MyMiddleware.run()
LOG: Closed client: /10.0.0.7:48678in MyMiddleware.run()
LOG: Closed client: /10.0.0.7:48714in MyMiddleware.run()
LOG: Closed client: /10.0.0.7:48676in MyMiddleware.run()
LOG: Closed client: /10.0.0.7:48632in MyMiddleware.run()
LOG: Closed client: /10.0.0.7:48716in MyMiddleware.run()
LOG: Closed client: /10.0.0.6:58822in MyMiddleware.run()
LOG: Closed client: /10.0.0.6:58816in MyMiddleware.run()
LOG: Closed client: /10.0.0.6:58818in MyMiddleware.run()
LOG: Closed client: /10.0.0.6:58832in MyMiddleware.run()
LOG: Closed client: /10.0.0.6:58872in MyMiddleware.run()
LOG: Closed client: /10.0.0.6:58828in MyMiddleware.run()
LOG: Closed client: /10.0.0.6:58858in MyMiddleware.run()
LOG: Closed client: /10.0.0.6:58844in MyMiddleware.run()
LOG: Closed client: /10.0.0.6:58880in MyMiddleware.run()
LOG: Closed client: /10.0.0.6:58848in MyMiddleware.run()
LOG: Closed client: /10.0.0.6:58820in MyMiddleware.run()
LOG: Closed client: /10.0.0.6:58860in MyMiddleware.run()
LOG: Closed client: /10.0.0.6:58868in MyMiddleware.run()
LOG: Closed client: /10.0.0.6:58838in MyMiddleware.run()
LOG: Closed client: /10.0.0.6:58856in MyMiddleware.run()
LOG: Closed client: /10.0.0.6:58874in MyMiddleware.run()
LOG: Closed client: /10.0.0.6:58864in MyMiddleware.run()
LOG: Closed client: /10.0.0.6:58836in MyMiddleware.run()
LOG: Closed client: /10.0.0.6:58834in MyMiddleware.run()
LOG: Closed client: /10.0.0.6:58870in MyMiddleware.run()
LOG: Closed client: /10.0.0.6:58878in MyMiddleware.run()
LOG: Closed client: /10.0.0.6:58846in MyMiddleware.run()
LOG: Closed client: /10.0.0.6:58840in MyMiddleware.run()
LOG: Closed client: /10.0.0.6:58850in MyMiddleware.run()
LOG: Closed client: /10.0.0.6:58826in MyMiddleware.run()
LOG: Closed client: /10.0.0.6:58824in MyMiddleware.run()
LOG: Closed client: /10.0.0.6:58854in MyMiddleware.run()
LOG: Closed client: /10.0.0.6:58862in MyMiddleware.run()
LOG: Closed client: /10.0.0.6:58882in MyMiddleware.run()
LOG: Closed client: /10.0.0.6:58876in MyMiddleware.run()
LOG: Closed client: /10.0.0.6:58852in MyMiddleware.run()
LOG: Closed client: /10.0.0.6:58866in MyMiddleware.run()
LOG: Closed client: /10.0.0.6:58842in MyMiddleware.run()
LOG: Closed client: /10.0.0.6:58830in MyMiddleware.run()
LOG: Closed client: /10.0.0.6:58912in MyMiddleware.run()
LOG: Closed client: /10.0.0.6:58902in MyMiddleware.run()
LOG: Closed client: /10.0.0.6:58884in MyMiddleware.run()
LOG: Closed client: /10.0.0.6:58894in MyMiddleware.run()
LOG: Closed client: /10.0.0.6:58898in MyMiddleware.run()
LOG: Closed client: /10.0.0.6:58890in MyMiddleware.run()
LOG: Closed client: /10.0.0.6:58904in MyMiddleware.run()
LOG: Closed client: /10.0.0.6:58888in MyMiddleware.run()
LOG: Closed client: /10.0.0.6:58886in MyMiddleware.run()
LOG: Closed client: /10.0.0.6:58908in MyMiddleware.run()
LOG: Closed client: /10.0.0.6:58918in MyMiddleware.run()
LOG: Closed client: /10.0.0.6:58906in MyMiddleware.run()
LOG: Closed client: /10.0.0.6:58892in MyMiddleware.run()
LOG: Closed client: /10.0.0.6:58896in MyMiddleware.run()
LOG: Closed client: /10.0.0.6:58916in MyMiddleware.run()
LOG: Closed client: /10.0.0.6:58910in MyMiddleware.run()
LOG: Closed client: /10.0.0.6:58900in MyMiddleware.run()
LOG: Closed client: /10.0.0.6:58914in MyMiddleware.run()
LOG: Closed client: /10.0.0.6:58924in MyMiddleware.run()
LOG: Closed client: /10.0.0.6:58940in MyMiddleware.run()
LOG: Closed client: /10.0.0.6:58942in MyMiddleware.run()
LOG: Closed client: /10.0.0.6:58922in MyMiddleware.run()
LOG: Closed client: /10.0.0.6:58934in MyMiddleware.run()
LOG: Closed client: /10.0.0.6:58936in MyMiddleware.run()
LOG: Closed client: /10.0.0.6:58932in MyMiddleware.run()
LOG: Closed client: /10.0.0.6:58926in MyMiddleware.run()
LOG: Closed client: /10.0.0.6:58938in MyMiddleware.run()
LOG: Closed client: /10.0.0.6:58920in MyMiddleware.run()
LOG: Closed client: /10.0.0.6:58928in MyMiddleware.run()
LOG: Closed client: /10.0.0.6:58930in MyMiddleware.run()
LOG: Closed client: /10.0.0.11:47872in MyMiddleware.run()
LOG: Closed client: /10.0.0.11:47916in MyMiddleware.run()
LOG: Closed client: /10.0.0.11:47878in MyMiddleware.run()
LOG: Closed client: /10.0.0.11:47904in MyMiddleware.run()
LOG: Closed client: /10.0.0.11:47884in MyMiddleware.run()
LOG: Closed client: /10.0.0.11:47864in MyMiddleware.run()
LOG: Closed client: /10.0.0.11:47874in MyMiddleware.run()
LOG: Closed client: /10.0.0.11:47896in MyMiddleware.run()
LOG: Closed client: /10.0.0.11:47876in MyMiddleware.run()
LOG: Closed client: /10.0.0.11:47906in MyMiddleware.run()
LOG: Closed client: /10.0.0.11:47918in MyMiddleware.run()
LOG: Closed client: /10.0.0.11:47922in MyMiddleware.run()
LOG: Closed client: /10.0.0.11:47894in MyMiddleware.run()
LOG: Closed client: /10.0.0.11:47870in MyMiddleware.run()
LOG: Closed client: /10.0.0.11:47888in MyMiddleware.run()
LOG: Closed client: /10.0.0.11:47860in MyMiddleware.run()
LOG: Closed client: /10.0.0.11:47934in MyMiddleware.run()
LOG: Closed client: /10.0.0.11:47942in MyMiddleware.run()
LOG: Closed client: /10.0.0.11:47928in MyMiddleware.run()
LOG: Closed client: /10.0.0.11:47892in MyMiddleware.run()
LOG: Closed client: /10.0.0.11:47890in MyMiddleware.run()
LOG: Closed client: /10.0.0.11:47900in MyMiddleware.run()
LOG: Closed client: /10.0.0.11:47886in MyMiddleware.run()
LOG: Closed client: /10.0.0.11:47936in MyMiddleware.run()
LOG: Closed client: /10.0.0.11:47866in MyMiddleware.run()
LOG: Closed client: /10.0.0.11:47902in MyMiddleware.run()
LOG: Closed client: /10.0.0.11:47946in MyMiddleware.run()
LOG: Closed client: /10.0.0.11:47940in MyMiddleware.run()
LOG: Closed client: /10.0.0.11:47868in MyMiddleware.run()
LOG: Closed client: /10.0.0.11:47930in MyMiddleware.run()
LOG: Closed client: /10.0.0.11:47954in MyMiddleware.run()
LOG: Closed client: /10.0.0.11:47980in MyMiddleware.run()
LOG: Closed client: /10.0.0.11:47948in MyMiddleware.run()
LOG: Closed client: /10.0.0.11:47978in MyMiddleware.run()
LOG: Closed client: /10.0.0.11:47974in MyMiddleware.run()
LOG: Closed client: /10.0.0.11:47964in MyMiddleware.run()
LOG: Closed client: /10.0.0.11:47908in MyMiddleware.run()
LOG: Closed client: /10.0.0.11:47944in MyMiddleware.run()
LOG: Closed client: /10.0.0.11:47862in MyMiddleware.run()
LOG: Closed client: /10.0.0.11:47932in MyMiddleware.run()
LOG: Closed client: /10.0.0.11:47968in MyMiddleware.run()
LOG: Closed client: /10.0.0.11:47950in MyMiddleware.run()
LOG: Closed client: /10.0.0.11:47924in MyMiddleware.run()
LOG: Closed client: /10.0.0.11:47912in MyMiddleware.run()
LOG: Closed client: /10.0.0.11:47898in MyMiddleware.run()
LOG: Closed client: /10.0.0.11:47880in MyMiddleware.run()
LOG: Closed client: /10.0.0.11:47962in MyMiddleware.run()
LOG: Closed client: /10.0.0.11:47882in MyMiddleware.run()
LOG: Closed client: /10.0.0.11:47970in MyMiddleware.run()
LOG: Closed client: /10.0.0.11:47910in MyMiddleware.run()
LOG: Closed client: /10.0.0.11:47952in MyMiddleware.run()
LOG: Closed client: /10.0.0.11:47914in MyMiddleware.run()
LOG: Closed client: /10.0.0.11:47966in MyMiddleware.run()
LOG: Closed client: /10.0.0.11:47926in MyMiddleware.run()
LOG: Closed client: /10.0.0.11:47976in MyMiddleware.run()
LOG: Closed client: /10.0.0.11:47982in MyMiddleware.run()
LOG: Closed client: /10.0.0.11:47986in MyMiddleware.run()
LOG: Closed client: /10.0.0.11:47938in MyMiddleware.run()
LOG: Closed client: /10.0.0.11:47984in MyMiddleware.run()
LOG: Closed client: /10.0.0.11:47920in MyMiddleware.run()
LOG: Closed client: /10.0.0.11:47956in MyMiddleware.run()
LOG: Closed client: /10.0.0.11:47960in MyMiddleware.run()
LOG: Closed client: /10.0.0.11:47972in MyMiddleware.run()
LOG: Closed client: /10.0.0.11:47958in MyMiddleware.run()
