------------Middleware started!------------
LOG: Waiting for connection in MyMiddleware.run()
LOG: Accepted client: /10.0.0.7:42406in MyMiddleware.run()
LOG: Accepted client: /10.0.0.7:42402in MyMiddleware.run()
LOG: Accepted client: /10.0.0.7:42386in MyMiddleware.run()
LOG: Accepted client: /10.0.0.7:42412in MyMiddleware.run()
LOG: Accepted client: /10.0.0.7:42400in MyMiddleware.run()
LOG: Accepted client: /10.0.0.7:42410in MyMiddleware.run()
LOG: Accepted client: /10.0.0.7:42404in MyMiddleware.run()
LOG: Accepted client: /10.0.0.7:42390in MyMiddleware.run()
LOG: Accepted client: /10.0.0.7:42396in MyMiddleware.run()
LOG: Accepted client: /10.0.0.7:42388in MyMiddleware.run()
LOG: Accepted client: /10.0.0.7:42414in MyMiddleware.run()
LOG: Accepted client: /10.0.0.7:42392in MyMiddleware.run()
LOG: Accepted client: /10.0.0.7:42398in MyMiddleware.run()
LOG: Accepted client: /10.0.0.7:42394in MyMiddleware.run()
LOG: Accepted client: /10.0.0.7:42416in MyMiddleware.run()
LOG: Accepted client: /10.0.0.7:42408in MyMiddleware.run()
LOG: Accepted client: /10.0.0.11:41660in MyMiddleware.run()
LOG: Accepted client: /10.0.0.11:41672in MyMiddleware.run()
LOG: Accepted client: /10.0.0.11:41662in MyMiddleware.run()
LOG: Accepted client: /10.0.0.11:41674in MyMiddleware.run()
LOG: Accepted client: /10.0.0.11:41664in MyMiddleware.run()
LOG: Accepted client: /10.0.0.11:41666in MyMiddleware.run()
LOG: Accepted client: /10.0.0.11:41658in MyMiddleware.run()
LOG: Accepted client: /10.0.0.11:41654in MyMiddleware.run()
LOG: Accepted client: /10.0.0.11:41676in MyMiddleware.run()
LOG: Accepted client: /10.0.0.11:41670in MyMiddleware.run()
LOG: Accepted client: /10.0.0.11:41656in MyMiddleware.run()
LOG: Accepted client: /10.0.0.11:41668in MyMiddleware.run()
LOG: Accepted client: /10.0.0.11:41678in MyMiddleware.run()
LOG: Accepted client: /10.0.0.11:41680in MyMiddleware.run()
LOG: Accepted client: /10.0.0.11:41682in MyMiddleware.run()
LOG: Accepted client: /10.0.0.11:41684in MyMiddleware.run()
LOG: Accepted client: /10.0.0.6:52602in MyMiddleware.run()
LOG: Accepted client: /10.0.0.6:52600in MyMiddleware.run()
LOG: Accepted client: /10.0.0.6:52614in MyMiddleware.run()
LOG: Accepted client: /10.0.0.6:52606in MyMiddleware.run()
LOG: Accepted client: /10.0.0.6:52604in MyMiddleware.run()
LOG: Accepted client: /10.0.0.6:52624in MyMiddleware.run()
LOG: Accepted client: /10.0.0.6:52618in MyMiddleware.run()
LOG: Accepted client: /10.0.0.6:52620in MyMiddleware.run()
LOG: Accepted client: /10.0.0.6:52622in MyMiddleware.run()
LOG: Accepted client: /10.0.0.6:52612in MyMiddleware.run()
LOG: Accepted client: /10.0.0.6:52630in MyMiddleware.run()
LOG: Accepted client: /10.0.0.6:52628in MyMiddleware.run()
LOG: Accepted client: /10.0.0.6:52616in MyMiddleware.run()
LOG: Accepted client: /10.0.0.6:52626in MyMiddleware.run()
LOG: Accepted client: /10.0.0.6:52608in MyMiddleware.run()
LOG: Accepted client: /10.0.0.6:52610in MyMiddleware.run()
LOG: Closed client: /10.0.0.7:42386in MyMiddleware.run()
LOG: Closed client: /10.0.0.7:42406in MyMiddleware.run()
LOG: Closed client: /10.0.0.7:42410in MyMiddleware.run()
LOG: Closed client: /10.0.0.7:42412in MyMiddleware.run()
LOG: Closed client: /10.0.0.7:42402in MyMiddleware.run()
LOG: Closed client: /10.0.0.7:42400in MyMiddleware.run()
LOG: Closed client: /10.0.0.7:42388in MyMiddleware.run()
LOG: Closed client: /10.0.0.7:42392in MyMiddleware.run()
LOG: Closed client: /10.0.0.7:42414in MyMiddleware.run()
LOG: Closed client: /10.0.0.7:42398in MyMiddleware.run()
LOG: Closed client: /10.0.0.7:42394in MyMiddleware.run()
LOG: Closed client: /10.0.0.7:42408in MyMiddleware.run()
LOG: Closed client: /10.0.0.7:42396in MyMiddleware.run()
LOG: Closed client: /10.0.0.7:42404in MyMiddleware.run()
LOG: Closed client: /10.0.0.7:42416in MyMiddleware.run()
LOG: Closed client: /10.0.0.7:42390in MyMiddleware.run()
LOG: Closed client: /10.0.0.11:41654in MyMiddleware.run()
LOG: Closed client: /10.0.0.11:41664in MyMiddleware.run()
LOG: Closed client: /10.0.0.11:41658in MyMiddleware.run()
LOG: Closed client: /10.0.0.11:41656in MyMiddleware.run()
LOG: Closed client: /10.0.0.11:41660in MyMiddleware.run()
LOG: Closed client: /10.0.0.11:41666in MyMiddleware.run()
LOG: Closed client: /10.0.0.11:41662in MyMiddleware.run()
LOG: Closed client: /10.0.0.11:41668in MyMiddleware.run()
LOG: Closed client: /10.0.0.11:41670in MyMiddleware.run()
LOG: Closed client: /10.0.0.11:41674in MyMiddleware.run()
LOG: Closed client: /10.0.0.11:41680in MyMiddleware.run()
LOG: Closed client: /10.0.0.11:41672in MyMiddleware.run()
LOG: Closed client: /10.0.0.11:41678in MyMiddleware.run()
LOG: Closed client: /10.0.0.11:41676in MyMiddleware.run()
LOG: Closed client: /10.0.0.11:41682in MyMiddleware.run()
LOG: Closed client: /10.0.0.11:41684in MyMiddleware.run()
LOG: Closed client: /10.0.0.6:52612in MyMiddleware.run()
LOG: Closed client: /10.0.0.6:52614in MyMiddleware.run()
LOG: Closed client: /10.0.0.6:52606in MyMiddleware.run()
LOG: Closed client: /10.0.0.6:52610in MyMiddleware.run()
LOG: Closed client: /10.0.0.6:52608in MyMiddleware.run()
LOG: Closed client: /10.0.0.6:52604in MyMiddleware.run()
LOG: Closed client: /10.0.0.6:52628in MyMiddleware.run()
LOG: Closed client: /10.0.0.6:52602in MyMiddleware.run()
LOG: Closed client: /10.0.0.6:52626in MyMiddleware.run()
LOG: Closed client: /10.0.0.6:52618in MyMiddleware.run()
LOG: Closed client: /10.0.0.6:52622in MyMiddleware.run()
LOG: Closed client: /10.0.0.6:52630in MyMiddleware.run()
LOG: Closed client: /10.0.0.6:52600in MyMiddleware.run()
LOG: Closed client: /10.0.0.6:52616in MyMiddleware.run()
LOG: Closed client: /10.0.0.6:52624in MyMiddleware.run()
LOG: Closed client: /10.0.0.6:52620in MyMiddleware.run()
