------------Middleware started!------------
LOG: Waiting for connection in MyMiddleware.run()
LOG: Accepted client: /10.0.0.11:50008in MyMiddleware.run()
LOG: Accepted client: /10.0.0.11:50038in MyMiddleware.run()
LOG: Accepted client: /10.0.0.7:50718in MyMiddleware.run()
LOG: Accepted client: /10.0.0.7:50828in MyMiddleware.run()
LOG: Accepted client: /10.0.0.7:50728in MyMiddleware.run()
LOG: Accepted client: /10.0.0.7:50740in MyMiddleware.run()
LOG: Accepted client: /10.0.0.7:50788in MyMiddleware.run()
LOG: Accepted client: /10.0.0.7:50780in MyMiddleware.run()
LOG: Accepted client: /10.0.0.7:50732in MyMiddleware.run()
LOG: Accepted client: /10.0.0.7:50820in MyMiddleware.run()
LOG: Accepted client: /10.0.0.7:50730in MyMiddleware.run()
LOG: Accepted client: /10.0.0.7:50840in MyMiddleware.run()
LOG: Accepted client: /10.0.0.7:50758in MyMiddleware.run()
LOG: Accepted client: /10.0.0.7:50734in MyMiddleware.run()
LOG: Accepted client: /10.0.0.7:50784in MyMiddleware.run()
LOG: Accepted client: /10.0.0.7:50786in MyMiddleware.run()
LOG: Accepted client: /10.0.0.7:50818in MyMiddleware.run()
LOG: Accepted client: /10.0.0.7:50756in MyMiddleware.run()
LOG: Accepted client: /10.0.0.7:50776in MyMiddleware.run()
LOG: Accepted client: /10.0.0.7:50736in MyMiddleware.run()
LOG: Accepted client: /10.0.0.7:50790in MyMiddleware.run()
LOG: Accepted client: /10.0.0.7:50810in MyMiddleware.run()
LOG: Accepted client: /10.0.0.7:50778in MyMiddleware.run()
LOG: Accepted client: /10.0.0.7:50742in MyMiddleware.run()
LOG: Accepted client: /10.0.0.7:50814in MyMiddleware.run()
LOG: Accepted client: /10.0.0.7:50844in MyMiddleware.run()
LOG: Accepted client: /10.0.0.7:50782in MyMiddleware.run()
LOG: Accepted client: /10.0.0.7:50812in MyMiddleware.run()
LOG: Accepted client: /10.0.0.7:50842in MyMiddleware.run()
LOG: Accepted client: /10.0.0.7:50822in MyMiddleware.run()
LOG: Accepted client: /10.0.0.7:50816in MyMiddleware.run()
LOG: Accepted client: /10.0.0.7:50752in MyMiddleware.run()
LOG: Accepted client: /10.0.0.7:50754in MyMiddleware.run()
LOG: Accepted client: /10.0.0.7:50738in MyMiddleware.run()
LOG: Accepted client: /10.0.0.7:50808in MyMiddleware.run()
LOG: Accepted client: /10.0.0.11:50034in MyMiddleware.run()
LOG: Accepted client: /10.0.0.11:50102in MyMiddleware.run()
LOG: Accepted client: /10.0.0.11:50074in MyMiddleware.run()
LOG: Accepted client: /10.0.0.11:50014in MyMiddleware.run()
LOG: Accepted client: /10.0.0.11:50012in MyMiddleware.run()
LOG: Accepted client: /10.0.0.11:50032in MyMiddleware.run()
LOG: Accepted client: /10.0.0.11:50000in MyMiddleware.run()
LOG: Accepted client: /10.0.0.11:50068in MyMiddleware.run()
LOG: Accepted client: /10.0.0.11:50044in MyMiddleware.run()
LOG: Accepted client: /10.0.0.6:60950in MyMiddleware.run()
LOG: Accepted client: /10.0.0.11:49986in MyMiddleware.run()
LOG: Accepted client: /10.0.0.11:50054in MyMiddleware.run()
LOG: Accepted client: /10.0.0.11:50092in MyMiddleware.run()
LOG: Accepted client: /10.0.0.11:50072in MyMiddleware.run()
LOG: Accepted client: /10.0.0.11:49984in MyMiddleware.run()
LOG: Accepted client: /10.0.0.11:50100in MyMiddleware.run()
LOG: Accepted client: /10.0.0.11:50104in MyMiddleware.run()
LOG: Accepted client: /10.0.0.11:50052in MyMiddleware.run()
LOG: Accepted client: /10.0.0.11:50028in MyMiddleware.run()
LOG: Accepted client: /10.0.0.11:50088in MyMiddleware.run()
LOG: Accepted client: /10.0.0.6:60984in MyMiddleware.run()
LOG: Accepted client: /10.0.0.11:50046in MyMiddleware.run()
LOG: Accepted client: /10.0.0.11:50070in MyMiddleware.run()
LOG: Accepted client: /10.0.0.6:60980in MyMiddleware.run()
LOG: Accepted client: /10.0.0.6:60948in MyMiddleware.run()
LOG: Accepted client: /10.0.0.6:32806in MyMiddleware.run()
LOG: Accepted client: /10.0.0.6:60986in MyMiddleware.run()
LOG: Accepted client: /10.0.0.11:50090in MyMiddleware.run()
LOG: Accepted client: /10.0.0.6:32778in MyMiddleware.run()
LOG: Accepted client: /10.0.0.11:49988in MyMiddleware.run()
LOG: Accepted client: /10.0.0.11:50030in MyMiddleware.run()
LOG: Accepted client: /10.0.0.11:50024in MyMiddleware.run()
LOG: Accepted client: /10.0.0.11:50048in MyMiddleware.run()
LOG: Accepted client: /10.0.0.6:60938in MyMiddleware.run()
LOG: Accepted client: /10.0.0.11:50002in MyMiddleware.run()
LOG: Accepted client: /10.0.0.11:50106in MyMiddleware.run()
LOG: Accepted client: /10.0.0.11:50026in MyMiddleware.run()
LOG: Accepted client: /10.0.0.11:50060in MyMiddleware.run()
LOG: Accepted client: /10.0.0.11:49990in MyMiddleware.run()
LOG: Accepted client: /10.0.0.11:50050in MyMiddleware.run()
LOG: Accepted client: /10.0.0.11:50020in MyMiddleware.run()
LOG: Accepted client: /10.0.0.11:50058in MyMiddleware.run()
LOG: Accepted client: /10.0.0.11:50094in MyMiddleware.run()
LOG: Accepted client: /10.0.0.6:60954in MyMiddleware.run()
LOG: Accepted client: /10.0.0.11:49992in MyMiddleware.run()
LOG: Accepted client: /10.0.0.11:50018in MyMiddleware.run()
LOG: Accepted client: /10.0.0.11:50080in MyMiddleware.run()
LOG: Accepted client: /10.0.0.11:49998in MyMiddleware.run()
LOG: Accepted client: /10.0.0.11:50086in MyMiddleware.run()
LOG: Accepted client: /10.0.0.6:60962in MyMiddleware.run()
LOG: Accepted client: /10.0.0.6:60942in MyMiddleware.run()
LOG: Accepted client: /10.0.0.6:32784in MyMiddleware.run()
LOG: Accepted client: /10.0.0.11:50062in MyMiddleware.run()
LOG: Accepted client: /10.0.0.11:50022in MyMiddleware.run()
LOG: Accepted client: /10.0.0.11:49994in MyMiddleware.run()
LOG: Accepted client: /10.0.0.6:60972in MyMiddleware.run()
LOG: Accepted client: /10.0.0.11:50016in MyMiddleware.run()
LOG: Accepted client: /10.0.0.6:60946in MyMiddleware.run()
LOG: Accepted client: /10.0.0.6:60934in MyMiddleware.run()
LOG: Accepted client: /10.0.0.6:60960in MyMiddleware.run()
LOG: Accepted client: /10.0.0.6:60970in MyMiddleware.run()
LOG: Accepted client: /10.0.0.6:60940in MyMiddleware.run()
LOG: Accepted client: /10.0.0.6:60988in MyMiddleware.run()
LOG: Accepted client: /10.0.0.6:32794in MyMiddleware.run()
LOG: Accepted client: /10.0.0.6:32786in MyMiddleware.run()
LOG: Accepted client: /10.0.0.6:32776in MyMiddleware.run()
LOG: Accepted client: /10.0.0.6:60944in MyMiddleware.run()
LOG: Accepted client: /10.0.0.6:32804in MyMiddleware.run()
LOG: Accepted client: /10.0.0.6:32770in MyMiddleware.run()
LOG: Accepted client: /10.0.0.6:60958in MyMiddleware.run()
LOG: Accepted client: /10.0.0.6:60922in MyMiddleware.run()
LOG: Accepted client: /10.0.0.6:60932in MyMiddleware.run()
LOG: Accepted client: /10.0.0.6:32774in MyMiddleware.run()
LOG: Accepted client: /10.0.0.6:60994in MyMiddleware.run()
LOG: Accepted client: /10.0.0.6:32810in MyMiddleware.run()
LOG: Accepted client: /10.0.0.6:60952in MyMiddleware.run()
LOG: Accepted client: /10.0.0.6:32808in MyMiddleware.run()
LOG: Accepted client: /10.0.0.6:60992in MyMiddleware.run()
LOG: Accepted client: /10.0.0.6:32772in MyMiddleware.run()
LOG: Accepted client: /10.0.0.6:60982in MyMiddleware.run()
LOG: Accepted client: /10.0.0.6:60930in MyMiddleware.run()
LOG: Accepted client: /10.0.0.6:60924in MyMiddleware.run()
LOG: Accepted client: /10.0.0.6:60974in MyMiddleware.run()
LOG: Accepted client: /10.0.0.6:32796in MyMiddleware.run()
LOG: Accepted client: /10.0.0.6:32816in MyMiddleware.run()
LOG: Accepted client: /10.0.0.6:60928in MyMiddleware.run()
LOG: Accepted client: /10.0.0.6:60926in MyMiddleware.run()
LOG: Accepted client: /10.0.0.11:50036in MyMiddleware.run()
LOG: Accepted client: /10.0.0.11:50010in MyMiddleware.run()
LOG: Accepted client: /10.0.0.11:50042in MyMiddleware.run()
LOG: Accepted client: /10.0.0.11:50040in MyMiddleware.run()
LOG: Accepted client: /10.0.0.11:50004in MyMiddleware.run()
LOG: Accepted client: /10.0.0.11:50006in MyMiddleware.run()
LOG: Accepted client: /10.0.0.6:60964in MyMiddleware.run()
LOG: Accepted client: /10.0.0.6:60966in MyMiddleware.run()
LOG: Accepted client: /10.0.0.6:32788in MyMiddleware.run()
LOG: Accepted client: /10.0.0.6:60936in MyMiddleware.run()
LOG: Accepted client: /10.0.0.6:32790in MyMiddleware.run()
LOG: Accepted client: /10.0.0.11:50082in MyMiddleware.run()
LOG: Accepted client: /10.0.0.7:50806in MyMiddleware.run()
LOG: Accepted client: /10.0.0.7:50798in MyMiddleware.run()
LOG: Accepted client: /10.0.0.7:50804in MyMiddleware.run()
LOG: Accepted client: /10.0.0.7:50774in MyMiddleware.run()
LOG: Accepted client: /10.0.0.7:50764in MyMiddleware.run()
LOG: Accepted client: /10.0.0.7:50724in MyMiddleware.run()
LOG: Accepted client: /10.0.0.7:50796in MyMiddleware.run()
LOG: Accepted client: /10.0.0.7:50824in MyMiddleware.run()
LOG: Accepted client: /10.0.0.7:50834in MyMiddleware.run()
LOG: Accepted client: /10.0.0.7:50768in MyMiddleware.run()
LOG: Accepted client: /10.0.0.7:50744in MyMiddleware.run()
LOG: Accepted client: /10.0.0.7:50722in MyMiddleware.run()
LOG: Accepted client: /10.0.0.7:50836in MyMiddleware.run()
LOG: Accepted client: /10.0.0.7:50826in MyMiddleware.run()
LOG: Accepted client: /10.0.0.7:50772in MyMiddleware.run()
LOG: Accepted client: /10.0.0.7:50770in MyMiddleware.run()
LOG: Accepted client: /10.0.0.7:50766in MyMiddleware.run()
LOG: Accepted client: /10.0.0.7:50726in MyMiddleware.run()
LOG: Accepted client: /10.0.0.7:50832in MyMiddleware.run()
LOG: Accepted client: /10.0.0.7:50838in MyMiddleware.run()
LOG: Accepted client: /10.0.0.7:50746in MyMiddleware.run()
LOG: Accepted client: /10.0.0.7:50720in MyMiddleware.run()
LOG: Accepted client: /10.0.0.11:49996in MyMiddleware.run()
LOG: Accepted client: /10.0.0.11:50084in MyMiddleware.run()
LOG: Accepted client: /10.0.0.7:50800in MyMiddleware.run()
LOG: Accepted client: /10.0.0.7:50802in MyMiddleware.run()
LOG: Accepted client: /10.0.0.7:50794in MyMiddleware.run()
LOG: Accepted client: /10.0.0.7:50792in MyMiddleware.run()
LOG: Accepted client: /10.0.0.11:50064in MyMiddleware.run()
LOG: Accepted client: /10.0.0.11:50108in MyMiddleware.run()
LOG: Accepted client: /10.0.0.11:50110in MyMiddleware.run()
LOG: Accepted client: /10.0.0.11:50066in MyMiddleware.run()
LOG: Accepted client: /10.0.0.7:50830in MyMiddleware.run()
LOG: Accepted client: /10.0.0.11:50098in MyMiddleware.run()
LOG: Accepted client: /10.0.0.11:50078in MyMiddleware.run()
LOG: Accepted client: /10.0.0.11:50096in MyMiddleware.run()
LOG: Accepted client: /10.0.0.11:50076in MyMiddleware.run()
LOG: Accepted client: /10.0.0.7:50762in MyMiddleware.run()
LOG: Accepted client: /10.0.0.7:50760in MyMiddleware.run()
LOG: Accepted client: /10.0.0.7:50750in MyMiddleware.run()
LOG: Accepted client: /10.0.0.7:50748in MyMiddleware.run()
LOG: Accepted client: /10.0.0.11:50056in MyMiddleware.run()
LOG: Accepted client: /10.0.0.6:60990in MyMiddleware.run()
LOG: Accepted client: /10.0.0.6:60978in MyMiddleware.run()
LOG: Accepted client: /10.0.0.6:32792in MyMiddleware.run()
LOG: Accepted client: /10.0.0.6:60968in MyMiddleware.run()
LOG: Accepted client: /10.0.0.6:32780in MyMiddleware.run()
LOG: Accepted client: /10.0.0.6:32812in MyMiddleware.run()
LOG: Accepted client: /10.0.0.6:60956in MyMiddleware.run()
LOG: Accepted client: /10.0.0.6:60998in MyMiddleware.run()
LOG: Accepted client: /10.0.0.6:32814in MyMiddleware.run()
LOG: Accepted client: /10.0.0.6:32782in MyMiddleware.run()
LOG: Accepted client: /10.0.0.6:32800in MyMiddleware.run()
LOG: Accepted client: /10.0.0.6:60976in MyMiddleware.run()
LOG: Accepted client: /10.0.0.6:32768in MyMiddleware.run()
LOG: Accepted client: /10.0.0.6:32798in MyMiddleware.run()
LOG: Accepted client: /10.0.0.6:60996in MyMiddleware.run()
LOG: Accepted client: /10.0.0.6:32802in MyMiddleware.run()
LOG: Closed client: /10.0.0.11:49992in MyMiddleware.run()
LOG: Closed client: /10.0.0.11:49988in MyMiddleware.run()
LOG: Closed client: /10.0.0.11:50004in MyMiddleware.run()
LOG: Closed client: /10.0.0.11:50028in MyMiddleware.run()
LOG: Closed client: /10.0.0.11:49984in MyMiddleware.run()
LOG: Closed client: /10.0.0.11:50026in MyMiddleware.run()
LOG: Closed client: /10.0.0.11:50100in MyMiddleware.run()
LOG: Closed client: /10.0.0.11:50096in MyMiddleware.run()
LOG: Closed client: /10.0.0.11:49996in MyMiddleware.run()
LOG: Closed client: /10.0.0.11:50020in MyMiddleware.run()
LOG: Closed client: /10.0.0.11:50098in MyMiddleware.run()
LOG: Closed client: /10.0.0.11:50104in MyMiddleware.run()
LOG: Closed client: /10.0.0.11:50002in MyMiddleware.run()
LOG: Closed client: /10.0.0.11:49990in MyMiddleware.run()
LOG: Closed client: /10.0.0.11:50030in MyMiddleware.run()
LOG: Closed client: /10.0.0.11:50086in MyMiddleware.run()
LOG: Closed client: /10.0.0.11:50080in MyMiddleware.run()
LOG: Closed client: /10.0.0.11:50102in MyMiddleware.run()
LOG: Closed client: /10.0.0.11:50072in MyMiddleware.run()
LOG: Closed client: /10.0.0.11:50078in MyMiddleware.run()
LOG: Closed client: /10.0.0.11:50006in MyMiddleware.run()
LOG: Closed client: /10.0.0.11:49986in MyMiddleware.run()
LOG: Closed client: /10.0.0.11:50046in MyMiddleware.run()
LOG: Closed client: /10.0.0.11:50022in MyMiddleware.run()
LOG: Closed client: /10.0.0.11:50018in MyMiddleware.run()
LOG: Closed client: /10.0.0.11:50014in MyMiddleware.run()
LOG: Closed client: /10.0.0.11:50032in MyMiddleware.run()
LOG: Closed client: /10.0.0.11:50074in MyMiddleware.run()
LOG: Closed client: /10.0.0.11:50048in MyMiddleware.run()
LOG: Closed client: /10.0.0.11:50038in MyMiddleware.run()
LOG: Closed client: /10.0.0.11:49994in MyMiddleware.run()
LOG: Closed client: /10.0.0.11:50054in MyMiddleware.run()
LOG: Closed client: /10.0.0.11:50060in MyMiddleware.run()
LOG: Closed client: /10.0.0.11:50110in MyMiddleware.run()
LOG: Closed client: /10.0.0.11:50052in MyMiddleware.run()
LOG: Closed client: /10.0.0.11:50094in MyMiddleware.run()
LOG: Closed client: /10.0.0.11:50106in MyMiddleware.run()
LOG: Closed client: /10.0.0.11:50036in MyMiddleware.run()
LOG: Closed client: /10.0.0.11:50088in MyMiddleware.run()
LOG: Closed client: /10.0.0.11:50000in MyMiddleware.run()
LOG: Closed client: /10.0.0.11:50062in MyMiddleware.run()
LOG: Closed client: /10.0.0.11:50076in MyMiddleware.run()
LOG: Closed client: /10.0.0.11:50090in MyMiddleware.run()
LOG: Closed client: /10.0.0.11:50050in MyMiddleware.run()
LOG: Closed client: /10.0.0.11:50016in MyMiddleware.run()
LOG: Closed client: /10.0.0.11:50068in MyMiddleware.run()
LOG: Closed client: /10.0.0.11:50034in MyMiddleware.run()
LOG: Closed client: /10.0.0.11:50092in MyMiddleware.run()
LOG: Closed client: /10.0.0.11:50012in MyMiddleware.run()
LOG: Closed client: /10.0.0.11:50024in MyMiddleware.run()
LOG: Closed client: /10.0.0.11:50042in MyMiddleware.run()
LOG: Closed client: /10.0.0.11:50070in MyMiddleware.run()
LOG: Closed client: /10.0.0.11:50066in MyMiddleware.run()
LOG: Closed client: /10.0.0.11:50058in MyMiddleware.run()
LOG: Closed client: /10.0.0.11:50044in MyMiddleware.run()
LOG: Closed client: /10.0.0.11:50056in MyMiddleware.run()
LOG: Closed client: /10.0.0.11:49998in MyMiddleware.run()
LOG: Closed client: /10.0.0.11:50040in MyMiddleware.run()
LOG: Closed client: /10.0.0.11:50008in MyMiddleware.run()
LOG: Closed client: /10.0.0.11:50082in MyMiddleware.run()
LOG: Closed client: /10.0.0.11:50010in MyMiddleware.run()
LOG: Closed client: /10.0.0.11:50064in MyMiddleware.run()
LOG: Closed client: /10.0.0.11:50108in MyMiddleware.run()
LOG: Closed client: /10.0.0.11:50084in MyMiddleware.run()
LOG: Closed client: /10.0.0.7:50718in MyMiddleware.run()
LOG: Closed client: /10.0.0.7:50736in MyMiddleware.run()
LOG: Closed client: /10.0.0.7:50722in MyMiddleware.run()
LOG: Closed client: /10.0.0.7:50760in MyMiddleware.run()
LOG: Closed client: /10.0.0.7:50752in MyMiddleware.run()
LOG: Closed client: /10.0.0.7:50750in MyMiddleware.run()
LOG: Closed client: /10.0.0.7:50742in MyMiddleware.run()
LOG: Closed client: /10.0.0.7:50766in MyMiddleware.run()
LOG: Closed client: /10.0.0.7:50738in MyMiddleware.run()
LOG: Closed client: /10.0.0.7:50734in MyMiddleware.run()
LOG: Closed client: /10.0.0.7:50754in MyMiddleware.run()
LOG: Closed client: /10.0.0.7:50778in MyMiddleware.run()
LOG: Closed client: /10.0.0.7:50756in MyMiddleware.run()
LOG: Closed client: /10.0.0.7:50758in MyMiddleware.run()
LOG: Closed client: /10.0.0.7:50770in MyMiddleware.run()
LOG: Closed client: /10.0.0.7:50728in MyMiddleware.run()
LOG: Closed client: /10.0.0.7:50744in MyMiddleware.run()
LOG: Closed client: /10.0.0.7:50748in MyMiddleware.run()
LOG: Closed client: /10.0.0.7:50740in MyMiddleware.run()
LOG: Closed client: /10.0.0.7:50746in MyMiddleware.run()
LOG: Closed client: /10.0.0.7:50780in MyMiddleware.run()
LOG: Closed client: /10.0.0.7:50764in MyMiddleware.run()
LOG: Closed client: /10.0.0.7:50726in MyMiddleware.run()
LOG: Closed client: /10.0.0.7:50720in MyMiddleware.run()
LOG: Closed client: /10.0.0.7:50808in MyMiddleware.run()
LOG: Closed client: /10.0.0.7:50768in MyMiddleware.run()
LOG: Closed client: /10.0.0.7:50784in MyMiddleware.run()
LOG: Closed client: /10.0.0.7:50798in MyMiddleware.run()
LOG: Closed client: /10.0.0.7:50794in MyMiddleware.run()
LOG: Closed client: /10.0.0.7:50724in MyMiddleware.run()
LOG: Closed client: /10.0.0.7:50774in MyMiddleware.run()
LOG: Closed client: /10.0.0.7:50800in MyMiddleware.run()
LOG: Closed client: /10.0.0.7:50790in MyMiddleware.run()
LOG: Closed client: /10.0.0.7:50762in MyMiddleware.run()
LOG: Closed client: /10.0.0.7:50806in MyMiddleware.run()
LOG: Closed client: /10.0.0.7:50792in MyMiddleware.run()
LOG: Closed client: /10.0.0.7:50786in MyMiddleware.run()
LOG: Closed client: /10.0.0.7:50788in MyMiddleware.run()
LOG: Closed client: /10.0.0.7:50772in MyMiddleware.run()
LOG: Closed client: /10.0.0.7:50820in MyMiddleware.run()
LOG: Closed client: /10.0.0.7:50828in MyMiddleware.run()
LOG: Closed client: /10.0.0.7:50730in MyMiddleware.run()
LOG: Closed client: /10.0.0.7:50732in MyMiddleware.run()
LOG: Closed client: /10.0.0.7:50782in MyMiddleware.run()
LOG: Closed client: /10.0.0.7:50776in MyMiddleware.run()
LOG: Closed client: /10.0.0.7:50816in MyMiddleware.run()
LOG: Closed client: /10.0.0.7:50812in MyMiddleware.run()
LOG: Closed client: /10.0.0.7:50824in MyMiddleware.run()
LOG: Closed client: /10.0.0.7:50834in MyMiddleware.run()
LOG: Closed client: /10.0.0.7:50842in MyMiddleware.run()
LOG: Closed client: /10.0.0.7:50830in MyMiddleware.run()
LOG: Closed client: /10.0.0.7:50796in MyMiddleware.run()
LOG: Closed client: /10.0.0.7:50802in MyMiddleware.run()
LOG: Closed client: /10.0.0.7:50836in MyMiddleware.run()
LOG: Closed client: /10.0.0.7:50844in MyMiddleware.run()
LOG: Closed client: /10.0.0.7:50840in MyMiddleware.run()
LOG: Closed client: /10.0.0.7:50832in MyMiddleware.run()
LOG: Closed client: /10.0.0.7:50814in MyMiddleware.run()
LOG: Closed client: /10.0.0.7:50838in MyMiddleware.run()
LOG: Closed client: /10.0.0.7:50826in MyMiddleware.run()
LOG: Closed client: /10.0.0.7:50804in MyMiddleware.run()
LOG: Closed client: /10.0.0.7:50822in MyMiddleware.run()
LOG: Closed client: /10.0.0.7:50810in MyMiddleware.run()
LOG: Closed client: /10.0.0.7:50818in MyMiddleware.run()
LOG: Closed client: /10.0.0.6:60932in MyMiddleware.run()
LOG: Closed client: /10.0.0.6:60922in MyMiddleware.run()
LOG: Closed client: /10.0.0.6:60928in MyMiddleware.run()
LOG: Closed client: /10.0.0.6:60942in MyMiddleware.run()
LOG: Closed client: /10.0.0.6:60936in MyMiddleware.run()
LOG: Closed client: /10.0.0.6:60938in MyMiddleware.run()
LOG: Closed client: /10.0.0.6:60926in MyMiddleware.run()
LOG: Closed client: /10.0.0.6:60948in MyMiddleware.run()
LOG: Closed client: /10.0.0.6:60946in MyMiddleware.run()
LOG: Closed client: /10.0.0.6:60968in MyMiddleware.run()
LOG: Closed client: /10.0.0.6:60950in MyMiddleware.run()
LOG: Closed client: /10.0.0.6:60958in MyMiddleware.run()
LOG: Closed client: /10.0.0.6:60944in MyMiddleware.run()
LOG: Closed client: /10.0.0.6:60964in MyMiddleware.run()
LOG: Closed client: /10.0.0.6:60924in MyMiddleware.run()
LOG: Closed client: /10.0.0.6:60934in MyMiddleware.run()
LOG: Closed client: /10.0.0.6:60956in MyMiddleware.run()
LOG: Closed client: /10.0.0.6:60966in MyMiddleware.run()
LOG: Closed client: /10.0.0.6:60930in MyMiddleware.run()
LOG: Closed client: /10.0.0.6:60978in MyMiddleware.run()
LOG: Closed client: /10.0.0.6:60970in MyMiddleware.run()
LOG: Closed client: /10.0.0.6:60972in MyMiddleware.run()
LOG: Closed client: /10.0.0.6:60962in MyMiddleware.run()
LOG: Closed client: /10.0.0.6:60952in MyMiddleware.run()
LOG: Closed client: /10.0.0.6:60960in MyMiddleware.run()
LOG: Closed client: /10.0.0.6:60954in MyMiddleware.run()
LOG: Closed client: /10.0.0.6:60974in MyMiddleware.run()
LOG: Closed client: /10.0.0.6:60940in MyMiddleware.run()
LOG: Closed client: /10.0.0.6:60980in MyMiddleware.run()
LOG: Closed client: /10.0.0.6:32776in MyMiddleware.run()
LOG: Closed client: /10.0.0.6:60988in MyMiddleware.run()
LOG: Closed client: /10.0.0.6:60984in MyMiddleware.run()
LOG: Closed client: /10.0.0.6:32778in MyMiddleware.run()
LOG: Closed client: /10.0.0.6:60986in MyMiddleware.run()
LOG: Closed client: /10.0.0.6:60976in MyMiddleware.run()
LOG: Closed client: /10.0.0.6:60982in MyMiddleware.run()
LOG: Closed client: /10.0.0.6:32774in MyMiddleware.run()
LOG: Closed client: /10.0.0.6:32780in MyMiddleware.run()
LOG: Closed client: /10.0.0.6:60994in MyMiddleware.run()
LOG: Closed client: /10.0.0.6:32800in MyMiddleware.run()
LOG: Closed client: /10.0.0.6:32768in MyMiddleware.run()
LOG: Closed client: /10.0.0.6:60996in MyMiddleware.run()
LOG: Closed client: /10.0.0.6:32786in MyMiddleware.run()
LOG: Closed client: /10.0.0.6:32808in MyMiddleware.run()
LOG: Closed client: /10.0.0.6:32784in MyMiddleware.run()
LOG: Closed client: /10.0.0.6:60992in MyMiddleware.run()
LOG: Closed client: /10.0.0.6:60990in MyMiddleware.run()
LOG: Closed client: /10.0.0.6:32798in MyMiddleware.run()
LOG: Closed client: /10.0.0.6:32772in MyMiddleware.run()
LOG: Closed client: /10.0.0.6:32810in MyMiddleware.run()
LOG: Closed client: /10.0.0.6:32782in MyMiddleware.run()
LOG: Closed client: /10.0.0.6:32802in MyMiddleware.run()
LOG: Closed client: /10.0.0.6:32812in MyMiddleware.run()
LOG: Closed client: /10.0.0.6:32806in MyMiddleware.run()
LOG: Closed client: /10.0.0.6:32790in MyMiddleware.run()
LOG: Closed client: /10.0.0.6:32792in MyMiddleware.run()
LOG: Closed client: /10.0.0.6:32796in MyMiddleware.run()
LOG: Closed client: /10.0.0.6:32794in MyMiddleware.run()
LOG: Closed client: /10.0.0.6:32816in MyMiddleware.run()
LOG: Closed client: /10.0.0.6:32788in MyMiddleware.run()
LOG: Closed client: /10.0.0.6:32804in MyMiddleware.run()
LOG: Closed client: /10.0.0.6:60998in MyMiddleware.run()
LOG: Closed client: /10.0.0.6:32770in MyMiddleware.run()
LOG: Closed client: /10.0.0.6:32814in MyMiddleware.run()
