------------Middleware started!------------
LOG: Waiting for connection in MyMiddleware.run()
LOG: Accepted client: /10.0.0.11:36086in MyMiddleware.run()
LOG: Accepted client: /10.0.0.11:36084in MyMiddleware.run()
LOG: Accepted client: /10.0.0.11:36080in MyMiddleware.run()
LOG: Accepted client: /10.0.0.11:36122in MyMiddleware.run()
LOG: Accepted client: /10.0.0.11:36094in MyMiddleware.run()
LOG: Accepted client: /10.0.0.11:36078in MyMiddleware.run()
LOG: Accepted client: /10.0.0.11:36106in MyMiddleware.run()
LOG: Accepted client: /10.0.0.11:36118in MyMiddleware.run()
LOG: Accepted client: /10.0.0.11:36130in MyMiddleware.run()
LOG: Accepted client: /10.0.0.11:36100in MyMiddleware.run()
LOG: Accepted client: /10.0.0.11:36114in MyMiddleware.run()
LOG: Accepted client: /10.0.0.11:36104in MyMiddleware.run()
LOG: Accepted client: /10.0.0.6:47040in MyMiddleware.run()
LOG: Accepted client: /10.0.0.6:47028in MyMiddleware.run()
LOG: Accepted client: /10.0.0.6:47046in MyMiddleware.run()
LOG: Accepted client: /10.0.0.6:47122in MyMiddleware.run()
LOG: Accepted client: /10.0.0.11:36184in MyMiddleware.run()
LOG: Accepted client: /10.0.0.11:36134in MyMiddleware.run()
LOG: Accepted client: /10.0.0.11:36146in MyMiddleware.run()
LOG: Accepted client: /10.0.0.11:36124in MyMiddleware.run()
LOG: Accepted client: /10.0.0.11:36116in MyMiddleware.run()
LOG: Accepted client: /10.0.0.11:36112in MyMiddleware.run()
LOG: Accepted client: /10.0.0.11:36168in MyMiddleware.run()
LOG: Accepted client: /10.0.0.11:36096in MyMiddleware.run()
LOG: Accepted client: /10.0.0.11:36140in MyMiddleware.run()
LOG: Accepted client: /10.0.0.11:36178in MyMiddleware.run()
LOG: Accepted client: /10.0.0.6:47030in MyMiddleware.run()
LOG: Accepted client: /10.0.0.6:47042in MyMiddleware.run()
LOG: Accepted client: /10.0.0.6:47126in MyMiddleware.run()
LOG: Accepted client: /10.0.0.11:36162in MyMiddleware.run()
LOG: Accepted client: /10.0.0.6:47124in MyMiddleware.run()
LOG: Accepted client: /10.0.0.7:36808in MyMiddleware.run()
LOG: Accepted client: /10.0.0.11:36156in MyMiddleware.run()
LOG: Accepted client: /10.0.0.7:36810in MyMiddleware.run()
LOG: Accepted client: /10.0.0.6:47020in MyMiddleware.run()
LOG: Accepted client: /10.0.0.11:36126in MyMiddleware.run()
LOG: Accepted client: /10.0.0.11:36150in MyMiddleware.run()
LOG: Accepted client: /10.0.0.11:36120in MyMiddleware.run()
LOG: Accepted client: /10.0.0.11:36164in MyMiddleware.run()
LOG: Accepted client: /10.0.0.11:36144in MyMiddleware.run()
LOG: Accepted client: /10.0.0.6:47096in MyMiddleware.run()
LOG: Accepted client: /10.0.0.7:36854in MyMiddleware.run()
LOG: Accepted client: /10.0.0.7:36920in MyMiddleware.run()
LOG: Accepted client: /10.0.0.6:47068in MyMiddleware.run()
LOG: Accepted client: /10.0.0.7:36882in MyMiddleware.run()
LOG: Accepted client: /10.0.0.11:36158in MyMiddleware.run()
LOG: Accepted client: /10.0.0.11:36200in MyMiddleware.run()
LOG: Accepted client: /10.0.0.11:36170in MyMiddleware.run()
LOG: Accepted client: /10.0.0.6:47112in MyMiddleware.run()
LOG: Accepted client: /10.0.0.7:36820in MyMiddleware.run()
LOG: Accepted client: /10.0.0.11:36108in MyMiddleware.run()
LOG: Accepted client: /10.0.0.11:36082in MyMiddleware.run()
LOG: Accepted client: /10.0.0.11:36202in MyMiddleware.run()
LOG: Accepted client: /10.0.0.11:36160in MyMiddleware.run()
LOG: Accepted client: /10.0.0.6:47100in MyMiddleware.run()
LOG: Accepted client: /10.0.0.11:36166in MyMiddleware.run()
LOG: Accepted client: /10.0.0.6:47098in MyMiddleware.run()
LOG: Accepted client: /10.0.0.6:47070in MyMiddleware.run()
LOG: Accepted client: /10.0.0.11:36132in MyMiddleware.run()
LOG: Accepted client: /10.0.0.7:36814in MyMiddleware.run()
LOG: Accepted client: /10.0.0.7:36900in MyMiddleware.run()
LOG: Accepted client: /10.0.0.7:36838in MyMiddleware.run()
LOG: Accepted client: /10.0.0.11:36176in MyMiddleware.run()
LOG: Accepted client: /10.0.0.7:36858in MyMiddleware.run()
LOG: Accepted client: /10.0.0.7:36892in MyMiddleware.run()
LOG: Accepted client: /10.0.0.7:36848in MyMiddleware.run()
LOG: Accepted client: /10.0.0.7:36822in MyMiddleware.run()
LOG: Accepted client: /10.0.0.7:36864in MyMiddleware.run()
LOG: Accepted client: /10.0.0.7:36866in MyMiddleware.run()
LOG: Accepted client: /10.0.0.7:36884in MyMiddleware.run()
LOG: Accepted client: /10.0.0.7:36872in MyMiddleware.run()
LOG: Accepted client: /10.0.0.7:36870in MyMiddleware.run()
LOG: Accepted client: /10.0.0.7:36922in MyMiddleware.run()
LOG: Accepted client: /10.0.0.7:36868in MyMiddleware.run()
LOG: Accepted client: /10.0.0.7:36886in MyMiddleware.run()
LOG: Accepted client: /10.0.0.11:36092in MyMiddleware.run()
LOG: Accepted client: /10.0.0.11:36174in MyMiddleware.run()
LOG: Accepted client: /10.0.0.11:36194in MyMiddleware.run()
LOG: Accepted client: /10.0.0.11:36090in MyMiddleware.run()
LOG: Accepted client: /10.0.0.11:36088in MyMiddleware.run()
LOG: Accepted client: /10.0.0.11:36136in MyMiddleware.run()
LOG: Accepted client: /10.0.0.11:36190in MyMiddleware.run()
LOG: Accepted client: /10.0.0.7:36912in MyMiddleware.run()
LOG: Accepted client: /10.0.0.7:36856in MyMiddleware.run()
LOG: Accepted client: /10.0.0.7:36828in MyMiddleware.run()
LOG: Accepted client: /10.0.0.7:36844in MyMiddleware.run()
LOG: Accepted client: /10.0.0.7:36910in MyMiddleware.run()
LOG: Accepted client: /10.0.0.7:36902in MyMiddleware.run()
LOG: Accepted client: /10.0.0.7:36924in MyMiddleware.run()
LOG: Accepted client: /10.0.0.7:36832in MyMiddleware.run()
LOG: Accepted client: /10.0.0.7:36836in MyMiddleware.run()
LOG: Accepted client: /10.0.0.7:36834in MyMiddleware.run()
LOG: Accepted client: /10.0.0.7:36908in MyMiddleware.run()
LOG: Accepted client: /10.0.0.7:36926in MyMiddleware.run()
LOG: Accepted client: /10.0.0.7:36850in MyMiddleware.run()
LOG: Accepted client: /10.0.0.7:36880in MyMiddleware.run()
LOG: Accepted client: /10.0.0.7:36830in MyMiddleware.run()
LOG: Accepted client: /10.0.0.7:36812in MyMiddleware.run()
LOG: Accepted client: /10.0.0.7:36874in MyMiddleware.run()
LOG: Accepted client: /10.0.0.7:36816in MyMiddleware.run()
LOG: Accepted client: /10.0.0.7:36898in MyMiddleware.run()
LOG: Accepted client: /10.0.0.7:36818in MyMiddleware.run()
LOG: Accepted client: /10.0.0.7:36862in MyMiddleware.run()
LOG: Accepted client: /10.0.0.7:36876in MyMiddleware.run()
LOG: Accepted client: /10.0.0.7:36878in MyMiddleware.run()
LOG: Accepted client: /10.0.0.7:36860in MyMiddleware.run()
LOG: Accepted client: /10.0.0.7:36896in MyMiddleware.run()
LOG: Accepted client: /10.0.0.11:36188in MyMiddleware.run()
LOG: Accepted client: /10.0.0.6:47142in MyMiddleware.run()
LOG: Accepted client: /10.0.0.6:47140in MyMiddleware.run()
LOG: Accepted client: /10.0.0.6:47088in MyMiddleware.run()
LOG: Accepted client: /10.0.0.6:47090in MyMiddleware.run()
LOG: Accepted client: /10.0.0.6:47104in MyMiddleware.run()
LOG: Accepted client: /10.0.0.6:47130in MyMiddleware.run()
LOG: Accepted client: /10.0.0.6:47106in MyMiddleware.run()
LOG: Accepted client: /10.0.0.6:47128in MyMiddleware.run()
LOG: Accepted client: /10.0.0.7:36906in MyMiddleware.run()
LOG: Accepted client: /10.0.0.7:36826in MyMiddleware.run()
LOG: Accepted client: /10.0.0.7:36904in MyMiddleware.run()
LOG: Accepted client: /10.0.0.7:36824in MyMiddleware.run()
LOG: Accepted client: /10.0.0.7:36852in MyMiddleware.run()
LOG: Accepted client: /10.0.0.6:47110in MyMiddleware.run()
LOG: Accepted client: /10.0.0.6:47108in MyMiddleware.run()
LOG: Accepted client: /10.0.0.11:36192in MyMiddleware.run()
LOG: Accepted client: /10.0.0.11:36204in MyMiddleware.run()
LOG: Accepted client: /10.0.0.11:36172in MyMiddleware.run()
LOG: Accepted client: /10.0.0.11:36148in MyMiddleware.run()
LOG: Accepted client: /10.0.0.11:36152in MyMiddleware.run()
LOG: Accepted client: /10.0.0.11:36154in MyMiddleware.run()
LOG: Accepted client: /10.0.0.11:36102in MyMiddleware.run()
LOG: Accepted client: /10.0.0.11:36138in MyMiddleware.run()
LOG: Accepted client: /10.0.0.6:47138in MyMiddleware.run()
LOG: Accepted client: /10.0.0.6:47094in MyMiddleware.run()
LOG: Accepted client: /10.0.0.6:47136in MyMiddleware.run()
LOG: Accepted client: /10.0.0.6:47092in MyMiddleware.run()
LOG: Accepted client: /10.0.0.11:36198in MyMiddleware.run()
LOG: Accepted client: /10.0.0.11:36196in MyMiddleware.run()
LOG: Accepted client: /10.0.0.6:47018in MyMiddleware.run()
LOG: Accepted client: /10.0.0.6:47074in MyMiddleware.run()
LOG: Accepted client: /10.0.0.6:47072in MyMiddleware.run()
LOG: Accepted client: /10.0.0.6:47134in MyMiddleware.run()
LOG: Accepted client: /10.0.0.6:47132in MyMiddleware.run()
LOG: Accepted client: /10.0.0.11:36186in MyMiddleware.run()
LOG: Accepted client: /10.0.0.11:36098in MyMiddleware.run()
LOG: Accepted client: /10.0.0.11:36142in MyMiddleware.run()
LOG: Accepted client: /10.0.0.6:47080in MyMiddleware.run()
LOG: Accepted client: /10.0.0.6:47082in MyMiddleware.run()
LOG: Accepted client: /10.0.0.6:47084in MyMiddleware.run()
LOG: Accepted client: /10.0.0.6:47086in MyMiddleware.run()
LOG: Accepted client: /10.0.0.11:36180in MyMiddleware.run()
LOG: Accepted client: /10.0.0.11:36128in MyMiddleware.run()
LOG: Accepted client: /10.0.0.11:36182in MyMiddleware.run()
LOG: Accepted client: /10.0.0.11:36110in MyMiddleware.run()
LOG: Accepted client: /10.0.0.6:47058in MyMiddleware.run()
LOG: Accepted client: /10.0.0.6:47048in MyMiddleware.run()
LOG: Accepted client: /10.0.0.6:47056in MyMiddleware.run()
LOG: Accepted client: /10.0.0.6:47052in MyMiddleware.run()
LOG: Accepted client: /10.0.0.6:47060in MyMiddleware.run()
LOG: Accepted client: /10.0.0.6:47062in MyMiddleware.run()
LOG: Accepted client: /10.0.0.6:47034in MyMiddleware.run()
LOG: Accepted client: /10.0.0.6:47054in MyMiddleware.run()
LOG: Accepted client: /10.0.0.6:47032in MyMiddleware.run()
LOG: Accepted client: /10.0.0.6:47114in MyMiddleware.run()
LOG: Accepted client: /10.0.0.6:47102in MyMiddleware.run()
LOG: Accepted client: /10.0.0.6:47050in MyMiddleware.run()
LOG: Accepted client: /10.0.0.6:47116in MyMiddleware.run()
LOG: Accepted client: /10.0.0.6:47038in MyMiddleware.run()
LOG: Accepted client: /10.0.0.6:47118in MyMiddleware.run()
LOG: Accepted client: /10.0.0.6:47036in MyMiddleware.run()
LOG: Accepted client: /10.0.0.6:47120in MyMiddleware.run()
LOG: Accepted client: /10.0.0.6:47022in MyMiddleware.run()
LOG: Accepted client: /10.0.0.6:47076in MyMiddleware.run()
LOG: Accepted client: /10.0.0.6:47016in MyMiddleware.run()
LOG: Accepted client: /10.0.0.6:47066in MyMiddleware.run()
LOG: Accepted client: /10.0.0.6:47026in MyMiddleware.run()
LOG: Accepted client: /10.0.0.6:47024in MyMiddleware.run()
LOG: Accepted client: /10.0.0.6:47044in MyMiddleware.run()
LOG: Accepted client: /10.0.0.6:47064in MyMiddleware.run()
LOG: Accepted client: /10.0.0.6:47078in MyMiddleware.run()
LOG: Accepted client: /10.0.0.7:36914in MyMiddleware.run()
LOG: Accepted client: /10.0.0.7:36840in MyMiddleware.run()
LOG: Accepted client: /10.0.0.7:36918in MyMiddleware.run()
LOG: Accepted client: /10.0.0.7:36804in MyMiddleware.run()
LOG: Accepted client: /10.0.0.7:36890in MyMiddleware.run()
LOG: Accepted client: /10.0.0.7:36888in MyMiddleware.run()
LOG: Accepted client: /10.0.0.7:36846in MyMiddleware.run()
LOG: Accepted client: /10.0.0.7:36894in MyMiddleware.run()
LOG: Accepted client: /10.0.0.7:36928in MyMiddleware.run()
LOG: Accepted client: /10.0.0.7:36916in MyMiddleware.run()
LOG: Accepted client: /10.0.0.7:36842in MyMiddleware.run()
LOG: Accepted client: /10.0.0.7:36802in MyMiddleware.run()
LOG: Accepted client: /10.0.0.7:36806in MyMiddleware.run()
LOG: Closed client: /10.0.0.11:36108in MyMiddleware.run()
LOG: Closed client: /10.0.0.11:36154in MyMiddleware.run()
LOG: Closed client: /10.0.0.11:36100in MyMiddleware.run()
LOG: Closed client: /10.0.0.11:36138in MyMiddleware.run()
LOG: Closed client: /10.0.0.11:36182in MyMiddleware.run()
LOG: Closed client: /10.0.0.11:36092in MyMiddleware.run()
LOG: Closed client: /10.0.0.11:36122in MyMiddleware.run()
LOG: Closed client: /10.0.0.11:36082in MyMiddleware.run()
LOG: Closed client: /10.0.0.11:36188in MyMiddleware.run()
LOG: Closed client: /10.0.0.11:36114in MyMiddleware.run()
LOG: Closed client: /10.0.0.11:36096in MyMiddleware.run()
LOG: Closed client: /10.0.0.11:36088in MyMiddleware.run()
LOG: Closed client: /10.0.0.11:36130in MyMiddleware.run()
LOG: Closed client: /10.0.0.11:36146in MyMiddleware.run()
LOG: Closed client: /10.0.0.11:36102in MyMiddleware.run()
LOG: Closed client: /10.0.0.11:36150in MyMiddleware.run()
LOG: Closed client: /10.0.0.11:36190in MyMiddleware.run()
LOG: Closed client: /10.0.0.11:36148in MyMiddleware.run()
LOG: Closed client: /10.0.0.11:36152in MyMiddleware.run()
LOG: Closed client: /10.0.0.11:36158in MyMiddleware.run()
LOG: Closed client: /10.0.0.11:36128in MyMiddleware.run()
LOG: Closed client: /10.0.0.11:36136in MyMiddleware.run()
LOG: Closed client: /10.0.0.11:36186in MyMiddleware.run()
LOG: Closed client: /10.0.0.11:36164in MyMiddleware.run()
LOG: Closed client: /10.0.0.11:36166in MyMiddleware.run()
LOG: Closed client: /10.0.0.11:36120in MyMiddleware.run()
LOG: Closed client: /10.0.0.11:36098in MyMiddleware.run()
LOG: Closed client: /10.0.0.11:36084in MyMiddleware.run()
LOG: Closed client: /10.0.0.11:36200in MyMiddleware.run()
LOG: Closed client: /10.0.0.11:36202in MyMiddleware.run()
LOG: Closed client: /10.0.0.11:36194in MyMiddleware.run()
LOG: Closed client: /10.0.0.11:36160in MyMiddleware.run()
LOG: Closed client: /10.0.0.11:36156in MyMiddleware.run()
LOG: Closed client: /10.0.0.11:36090in MyMiddleware.run()
LOG: Closed client: /10.0.0.11:36176in MyMiddleware.run()
LOG: Closed client: /10.0.0.11:36178in MyMiddleware.run()
LOG: Closed client: /10.0.0.11:36198in MyMiddleware.run()
LOG: Closed client: /10.0.0.11:36104in MyMiddleware.run()
LOG: Closed client: /10.0.0.11:36168in MyMiddleware.run()
LOG: Closed client: /10.0.0.11:36126in MyMiddleware.run()
LOG: Closed client: /10.0.0.11:36134in MyMiddleware.run()
LOG: Closed client: /10.0.0.11:36170in MyMiddleware.run()
LOG: Closed client: /10.0.0.11:36110in MyMiddleware.run()
LOG: Closed client: /10.0.0.11:36144in MyMiddleware.run()
LOG: Closed client: /10.0.0.11:36204in MyMiddleware.run()
LOG: Closed client: /10.0.0.11:36180in MyMiddleware.run()
LOG: Closed client: /10.0.0.11:36140in MyMiddleware.run()
LOG: Closed client: /10.0.0.11:36124in MyMiddleware.run()
LOG: Closed client: /10.0.0.11:36080in MyMiddleware.run()
LOG: Closed client: /10.0.0.11:36174in MyMiddleware.run()
LOG: Closed client: /10.0.0.11:36094in MyMiddleware.run()
LOG: Closed client: /10.0.0.11:36142in MyMiddleware.run()
LOG: Closed client: /10.0.0.11:36172in MyMiddleware.run()
LOG: Closed client: /10.0.0.11:36196in MyMiddleware.run()
LOG: Closed client: /10.0.0.11:36116in MyMiddleware.run()
LOG: Closed client: /10.0.0.11:36078in MyMiddleware.run()
LOG: Closed client: /10.0.0.11:36086in MyMiddleware.run()
LOG: Closed client: /10.0.0.11:36192in MyMiddleware.run()
LOG: Closed client: /10.0.0.11:36162in MyMiddleware.run()
LOG: Closed client: /10.0.0.11:36132in MyMiddleware.run()
LOG: Closed client: /10.0.0.11:36118in MyMiddleware.run()
LOG: Closed client: /10.0.0.11:36106in MyMiddleware.run()
LOG: Closed client: /10.0.0.11:36112in MyMiddleware.run()
LOG: Closed client: /10.0.0.11:36184in MyMiddleware.run()
LOG: Closed client: /10.0.0.6:47056in MyMiddleware.run()
LOG: Closed client: /10.0.0.6:47018in MyMiddleware.run()
LOG: Closed client: /10.0.0.6:47016in MyMiddleware.run()
LOG: Closed client: /10.0.0.6:47078in MyMiddleware.run()
LOG: Closed client: /10.0.0.6:47052in MyMiddleware.run()
LOG: Closed client: /10.0.0.6:47066in MyMiddleware.run()
LOG: Closed client: /10.0.0.6:47044in MyMiddleware.run()
LOG: Closed client: /10.0.0.6:47030in MyMiddleware.run()
LOG: Closed client: /10.0.0.6:47036in MyMiddleware.run()
LOG: Closed client: /10.0.0.6:47042in MyMiddleware.run()
LOG: Closed client: /10.0.0.6:47020in MyMiddleware.run()
LOG: Closed client: /10.0.0.6:47028in MyMiddleware.run()
LOG: Closed client: /10.0.0.6:47038in MyMiddleware.run()
LOG: Closed client: /10.0.0.6:47050in MyMiddleware.run()
LOG: Closed client: /10.0.0.6:47046in MyMiddleware.run()
LOG: Closed client: /10.0.0.6:47034in MyMiddleware.run()
LOG: Closed client: /10.0.0.6:47022in MyMiddleware.run()
LOG: Closed client: /10.0.0.6:47054in MyMiddleware.run()
LOG: Closed client: /10.0.0.6:47040in MyMiddleware.run()
LOG: Closed client: /10.0.0.6:47070in MyMiddleware.run()
LOG: Closed client: /10.0.0.6:47058in MyMiddleware.run()
LOG: Closed client: /10.0.0.6:47062in MyMiddleware.run()
LOG: Closed client: /10.0.0.6:47068in MyMiddleware.run()
LOG: Closed client: /10.0.0.6:47024in MyMiddleware.run()
LOG: Closed client: /10.0.0.6:47026in MyMiddleware.run()
LOG: Closed client: /10.0.0.6:47048in MyMiddleware.run()
LOG: Closed client: /10.0.0.6:47076in MyMiddleware.run()
LOG: Closed client: /10.0.0.6:47032in MyMiddleware.run()
LOG: Closed client: /10.0.0.6:47074in MyMiddleware.run()
LOG: Closed client: /10.0.0.6:47060in MyMiddleware.run()
LOG: Closed client: /10.0.0.6:47090in MyMiddleware.run()
LOG: Closed client: /10.0.0.6:47080in MyMiddleware.run()
LOG: Closed client: /10.0.0.6:47120in MyMiddleware.run()
LOG: Closed client: /10.0.0.6:47118in MyMiddleware.run()
LOG: Closed client: /10.0.0.6:47104in MyMiddleware.run()
LOG: Closed client: /10.0.0.6:47088in MyMiddleware.run()
LOG: Closed client: /10.0.0.6:47112in MyMiddleware.run()
LOG: Closed client: /10.0.0.6:47124in MyMiddleware.run()
LOG: Closed client: /10.0.0.6:47098in MyMiddleware.run()
LOG: Closed client: /10.0.0.6:47132in MyMiddleware.run()
LOG: Closed client: /10.0.0.6:47128in MyMiddleware.run()
LOG: Closed client: /10.0.0.6:47096in MyMiddleware.run()
LOG: Closed client: /10.0.0.6:47064in MyMiddleware.run()
LOG: Closed client: /10.0.0.6:47126in MyMiddleware.run()
LOG: Closed client: /10.0.0.6:47134in MyMiddleware.run()
LOG: Closed client: /10.0.0.6:47108in MyMiddleware.run()
LOG: Closed client: /10.0.0.6:47110in MyMiddleware.run()
LOG: Closed client: /10.0.0.6:47082in MyMiddleware.run()
LOG: Closed client: /10.0.0.6:47100in MyMiddleware.run()
LOG: Closed client: /10.0.0.6:47130in MyMiddleware.run()
LOG: Closed client: /10.0.0.6:47072in MyMiddleware.run()
LOG: Closed client: /10.0.0.6:47116in MyMiddleware.run()
LOG: Closed client: /10.0.0.6:47084in MyMiddleware.run()
LOG: Closed client: /10.0.0.6:47136in MyMiddleware.run()
LOG: Closed client: /10.0.0.6:47092in MyMiddleware.run()
LOG: Closed client: /10.0.0.6:47106in MyMiddleware.run()
LOG: Closed client: /10.0.0.6:47114in MyMiddleware.run()
LOG: Closed client: /10.0.0.6:47094in MyMiddleware.run()
LOG: Closed client: /10.0.0.6:47102in MyMiddleware.run()
LOG: Closed client: /10.0.0.6:47122in MyMiddleware.run()
LOG: Closed client: /10.0.0.6:47086in MyMiddleware.run()
LOG: Closed client: /10.0.0.6:47142in MyMiddleware.run()
LOG: Closed client: /10.0.0.6:47138in MyMiddleware.run()
LOG: Closed client: /10.0.0.6:47140in MyMiddleware.run()
LOG: Closed client: /10.0.0.7:36804in MyMiddleware.run()
LOG: Closed client: /10.0.0.7:36808in MyMiddleware.run()
LOG: Closed client: /10.0.0.7:36812in MyMiddleware.run()
LOG: Closed client: /10.0.0.7:36810in MyMiddleware.run()
LOG: Closed client: /10.0.0.7:36814in MyMiddleware.run()
LOG: Closed client: /10.0.0.7:36802in MyMiddleware.run()
LOG: Closed client: /10.0.0.7:36806in MyMiddleware.run()
LOG: Closed client: /10.0.0.7:36816in MyMiddleware.run()
LOG: Closed client: /10.0.0.7:36848in MyMiddleware.run()
LOG: Closed client: /10.0.0.7:36852in MyMiddleware.run()
LOG: Closed client: /10.0.0.7:36856in MyMiddleware.run()
LOG: Closed client: /10.0.0.7:36844in MyMiddleware.run()
LOG: Closed client: /10.0.0.7:36840in MyMiddleware.run()
LOG: Closed client: /10.0.0.7:36842in MyMiddleware.run()
LOG: Closed client: /10.0.0.7:36862in MyMiddleware.run()
LOG: Closed client: /10.0.0.7:36850in MyMiddleware.run()
LOG: Closed client: /10.0.0.7:36832in MyMiddleware.run()
LOG: Closed client: /10.0.0.7:36858in MyMiddleware.run()
LOG: Closed client: /10.0.0.7:36838in MyMiddleware.run()
LOG: Closed client: /10.0.0.7:36820in MyMiddleware.run()
LOG: Closed client: /10.0.0.7:36854in MyMiddleware.run()
LOG: Closed client: /10.0.0.7:36826in MyMiddleware.run()
LOG: Closed client: /10.0.0.7:36834in MyMiddleware.run()
LOG: Closed client: /10.0.0.7:36830in MyMiddleware.run()
LOG: Closed client: /10.0.0.7:36846in MyMiddleware.run()
LOG: Closed client: /10.0.0.7:36822in MyMiddleware.run()
LOG: Closed client: /10.0.0.7:36818in MyMiddleware.run()
LOG: Closed client: /10.0.0.7:36824in MyMiddleware.run()
LOG: Closed client: /10.0.0.7:36860in MyMiddleware.run()
LOG: Closed client: /10.0.0.7:36836in MyMiddleware.run()
LOG: Closed client: /10.0.0.7:36828in MyMiddleware.run()
LOG: Closed client: /10.0.0.7:36868in MyMiddleware.run()
LOG: Closed client: /10.0.0.7:36874in MyMiddleware.run()
LOG: Closed client: /10.0.0.7:36864in MyMiddleware.run()
LOG: Closed client: /10.0.0.7:36866in MyMiddleware.run()
LOG: Closed client: /10.0.0.7:36872in MyMiddleware.run()
LOG: Closed client: /10.0.0.7:36870in MyMiddleware.run()
LOG: Closed client: /10.0.0.7:36880in MyMiddleware.run()
LOG: Closed client: /10.0.0.7:36888in MyMiddleware.run()
LOG: Closed client: /10.0.0.7:36884in MyMiddleware.run()
LOG: Closed client: /10.0.0.7:36898in MyMiddleware.run()
LOG: Closed client: /10.0.0.7:36886in MyMiddleware.run()
LOG: Closed client: /10.0.0.7:36900in MyMiddleware.run()
LOG: Closed client: /10.0.0.7:36882in MyMiddleware.run()
LOG: Closed client: /10.0.0.7:36878in MyMiddleware.run()
LOG: Closed client: /10.0.0.7:36892in MyMiddleware.run()
LOG: Closed client: /10.0.0.7:36894in MyMiddleware.run()
LOG: Closed client: /10.0.0.7:36922in MyMiddleware.run()
LOG: Closed client: /10.0.0.7:36904in MyMiddleware.run()
LOG: Closed client: /10.0.0.7:36926in MyMiddleware.run()
LOG: Closed client: /10.0.0.7:36896in MyMiddleware.run()
LOG: Closed client: /10.0.0.7:36876in MyMiddleware.run()
LOG: Closed client: /10.0.0.7:36920in MyMiddleware.run()
LOG: Closed client: /10.0.0.7:36908in MyMiddleware.run()
LOG: Closed client: /10.0.0.7:36910in MyMiddleware.run()
LOG: Closed client: /10.0.0.7:36906in MyMiddleware.run()
LOG: Closed client: /10.0.0.7:36924in MyMiddleware.run()
LOG: Closed client: /10.0.0.7:36890in MyMiddleware.run()
LOG: Closed client: /10.0.0.7:36918in MyMiddleware.run()
LOG: Closed client: /10.0.0.7:36912in MyMiddleware.run()
LOG: Closed client: /10.0.0.7:36916in MyMiddleware.run()
LOG: Closed client: /10.0.0.7:36928in MyMiddleware.run()
LOG: Closed client: /10.0.0.7:36902in MyMiddleware.run()
LOG: Closed client: /10.0.0.7:36914in MyMiddleware.run()
