------------Middleware started!------------
LOG: Waiting for connection in MyMiddleware.run()
LOG: Accepted client: /10.0.0.7:58366in MyMiddleware.run()
LOG: Accepted client: /10.0.0.7:58352in MyMiddleware.run()
LOG: Accepted client: /10.0.0.7:58360in MyMiddleware.run()
LOG: Accepted client: /10.0.0.7:58362in MyMiddleware.run()
LOG: Accepted client: /10.0.0.7:58380in MyMiddleware.run()
LOG: Accepted client: /10.0.0.7:58346in MyMiddleware.run()
LOG: Accepted client: /10.0.0.11:57620in MyMiddleware.run()
LOG: Accepted client: /10.0.0.11:57622in MyMiddleware.run()
LOG: Accepted client: /10.0.0.11:57658in MyMiddleware.run()
LOG: Accepted client: /10.0.0.7:58372in MyMiddleware.run()
LOG: Accepted client: /10.0.0.11:57608in MyMiddleware.run()
LOG: Accepted client: /10.0.0.7:58344in MyMiddleware.run()
LOG: Accepted client: /10.0.0.7:58350in MyMiddleware.run()
LOG: Accepted client: /10.0.0.11:57614in MyMiddleware.run()
LOG: Accepted client: /10.0.0.11:57638in MyMiddleware.run()
LOG: Accepted client: /10.0.0.7:58374in MyMiddleware.run()
LOG: Accepted client: /10.0.0.7:58392in MyMiddleware.run()
LOG: Accepted client: /10.0.0.11:57604in MyMiddleware.run()
LOG: Accepted client: /10.0.0.7:58348in MyMiddleware.run()
LOG: Accepted client: /10.0.0.7:58354in MyMiddleware.run()
LOG: Accepted client: /10.0.0.11:57636in MyMiddleware.run()
LOG: Accepted client: /10.0.0.11:57606in MyMiddleware.run()
LOG: Accepted client: /10.0.0.11:57644in MyMiddleware.run()
LOG: Accepted client: /10.0.0.7:58388in MyMiddleware.run()
LOG: Accepted client: /10.0.0.11:57602in MyMiddleware.run()
LOG: Accepted client: /10.0.0.7:58406in MyMiddleware.run()
LOG: Accepted client: /10.0.0.7:58370in MyMiddleware.run()
LOG: Accepted client: /10.0.0.11:57646in MyMiddleware.run()
LOG: Accepted client: /10.0.0.11:57618in MyMiddleware.run()
LOG: Accepted client: /10.0.0.7:58384in MyMiddleware.run()
LOG: Accepted client: /10.0.0.7:58364in MyMiddleware.run()
LOG: Accepted client: /10.0.0.7:58368in MyMiddleware.run()
LOG: Accepted client: /10.0.0.11:57616in MyMiddleware.run()
LOG: Accepted client: /10.0.0.11:57610in MyMiddleware.run()
LOG: Accepted client: /10.0.0.11:57656in MyMiddleware.run()
LOG: Accepted client: /10.0.0.7:58386in MyMiddleware.run()
LOG: Accepted client: /10.0.0.7:58356in MyMiddleware.run()
LOG: Accepted client: /10.0.0.11:57628in MyMiddleware.run()
LOG: Accepted client: /10.0.0.7:58398in MyMiddleware.run()
LOG: Accepted client: /10.0.0.7:58390in MyMiddleware.run()
LOG: Accepted client: /10.0.0.7:58394in MyMiddleware.run()
LOG: Accepted client: /10.0.0.7:58358in MyMiddleware.run()
LOG: Accepted client: /10.0.0.7:58400in MyMiddleware.run()
LOG: Accepted client: /10.0.0.11:57642in MyMiddleware.run()
LOG: Accepted client: /10.0.0.7:58378in MyMiddleware.run()
LOG: Accepted client: /10.0.0.11:57640in MyMiddleware.run()
LOG: Accepted client: /10.0.0.11:57648in MyMiddleware.run()
LOG: Accepted client: /10.0.0.11:57654in MyMiddleware.run()
LOG: Accepted client: /10.0.0.11:57662in MyMiddleware.run()
LOG: Accepted client: /10.0.0.11:57626in MyMiddleware.run()
LOG: Accepted client: /10.0.0.11:57634in MyMiddleware.run()
LOG: Accepted client: /10.0.0.7:58382in MyMiddleware.run()
LOG: Accepted client: /10.0.0.6:40334in MyMiddleware.run()
LOG: Accepted client: /10.0.0.6:40346in MyMiddleware.run()
LOG: Accepted client: /10.0.0.6:40354in MyMiddleware.run()
LOG: Accepted client: /10.0.0.6:40344in MyMiddleware.run()
LOG: Accepted client: /10.0.0.6:40374in MyMiddleware.run()
LOG: Accepted client: /10.0.0.6:40336in MyMiddleware.run()
LOG: Accepted client: /10.0.0.6:40338in MyMiddleware.run()
LOG: Accepted client: /10.0.0.6:40382in MyMiddleware.run()
LOG: Accepted client: /10.0.0.6:40352in MyMiddleware.run()
LOG: Accepted client: /10.0.0.6:40372in MyMiddleware.run()
LOG: Accepted client: /10.0.0.7:58376in MyMiddleware.run()
LOG: Accepted client: /10.0.0.7:58396in MyMiddleware.run()
LOG: Accepted client: /10.0.0.7:58404in MyMiddleware.run()
LOG: Accepted client: /10.0.0.11:57612in MyMiddleware.run()
LOG: Accepted client: /10.0.0.11:57624in MyMiddleware.run()
LOG: Accepted client: /10.0.0.11:57632in MyMiddleware.run()
LOG: Accepted client: /10.0.0.11:57652in MyMiddleware.run()
LOG: Accepted client: /10.0.0.11:57664in MyMiddleware.run()
LOG: Accepted client: /10.0.0.6:40392in MyMiddleware.run()
LOG: Accepted client: /10.0.0.6:40394in MyMiddleware.run()
LOG: Accepted client: /10.0.0.6:40380in MyMiddleware.run()
LOG: Accepted client: /10.0.0.6:40384in MyMiddleware.run()
LOG: Accepted client: /10.0.0.6:40386in MyMiddleware.run()
LOG: Accepted client: /10.0.0.7:58402in MyMiddleware.run()
LOG: Accepted client: /10.0.0.11:57650in MyMiddleware.run()
LOG: Accepted client: /10.0.0.11:57630in MyMiddleware.run()
LOG: Accepted client: /10.0.0.11:57660in MyMiddleware.run()
LOG: Accepted client: /10.0.0.6:40364in MyMiddleware.run()
LOG: Accepted client: /10.0.0.6:40340in MyMiddleware.run()
LOG: Accepted client: /10.0.0.6:40342in MyMiddleware.run()
LOG: Accepted client: /10.0.0.6:40350in MyMiddleware.run()
LOG: Accepted client: /10.0.0.6:40348in MyMiddleware.run()
LOG: Accepted client: /10.0.0.6:40360in MyMiddleware.run()
LOG: Accepted client: /10.0.0.6:40362in MyMiddleware.run()
LOG: Accepted client: /10.0.0.6:40358in MyMiddleware.run()
LOG: Accepted client: /10.0.0.6:40356in MyMiddleware.run()
LOG: Accepted client: /10.0.0.6:40376in MyMiddleware.run()
LOG: Accepted client: /10.0.0.6:40388in MyMiddleware.run()
LOG: Accepted client: /10.0.0.6:40370in MyMiddleware.run()
LOG: Accepted client: /10.0.0.6:40366in MyMiddleware.run()
LOG: Accepted client: /10.0.0.6:40390in MyMiddleware.run()
LOG: Accepted client: /10.0.0.6:40368in MyMiddleware.run()
LOG: Accepted client: /10.0.0.6:40396in MyMiddleware.run()
LOG: Accepted client: /10.0.0.6:40378in MyMiddleware.run()
LOG: Closed client: /10.0.0.11:57602in MyMiddleware.run()
LOG: Closed client: /10.0.0.11:57606in MyMiddleware.run()
LOG: Closed client: /10.0.0.11:57628in MyMiddleware.run()
LOG: Closed client: /10.0.0.11:57604in MyMiddleware.run()
LOG: Closed client: /10.0.0.11:57646in MyMiddleware.run()
LOG: Closed client: /10.0.0.11:57620in MyMiddleware.run()
LOG: Closed client: /10.0.0.11:57648in MyMiddleware.run()
LOG: Closed client: /10.0.0.11:57614in MyMiddleware.run()
LOG: Closed client: /10.0.0.11:57642in MyMiddleware.run()
LOG: Closed client: /10.0.0.11:57622in MyMiddleware.run()
LOG: Closed client: /10.0.0.11:57640in MyMiddleware.run()
LOG: Closed client: /10.0.0.11:57612in MyMiddleware.run()
LOG: Closed client: /10.0.0.11:57610in MyMiddleware.run()
LOG: Closed client: /10.0.0.11:57618in MyMiddleware.run()
LOG: Closed client: /10.0.0.11:57624in MyMiddleware.run()
LOG: Closed client: /10.0.0.11:57632in MyMiddleware.run()
LOG: Closed client: /10.0.0.11:57634in MyMiddleware.run()
LOG: Closed client: /10.0.0.11:57656in MyMiddleware.run()
LOG: Closed client: /10.0.0.11:57626in MyMiddleware.run()
LOG: Closed client: /10.0.0.11:57660in MyMiddleware.run()
LOG: Closed client: /10.0.0.11:57616in MyMiddleware.run()
LOG: Closed client: /10.0.0.11:57652in MyMiddleware.run()
LOG: Closed client: /10.0.0.11:57654in MyMiddleware.run()
LOG: Closed client: /10.0.0.11:57658in MyMiddleware.run()
LOG: Closed client: /10.0.0.11:57630in MyMiddleware.run()
LOG: Closed client: /10.0.0.11:57636in MyMiddleware.run()
LOG: Closed client: /10.0.0.11:57650in MyMiddleware.run()
LOG: Closed client: /10.0.0.11:57662in MyMiddleware.run()
LOG: Closed client: /10.0.0.11:57644in MyMiddleware.run()
LOG: Closed client: /10.0.0.11:57664in MyMiddleware.run()
LOG: Closed client: /10.0.0.11:57608in MyMiddleware.run()
LOG: Closed client: /10.0.0.11:57638in MyMiddleware.run()
LOG: Closed client: /10.0.0.7:58354in MyMiddleware.run()
LOG: Closed client: /10.0.0.7:58366in MyMiddleware.run()
LOG: Closed client: /10.0.0.7:58362in MyMiddleware.run()
LOG: Closed client: /10.0.0.7:58364in MyMiddleware.run()
LOG: Closed client: /10.0.0.7:58370in MyMiddleware.run()
LOG: Closed client: /10.0.0.7:58352in MyMiddleware.run()
LOG: Closed client: /10.0.0.7:58372in MyMiddleware.run()
LOG: Closed client: /10.0.0.7:58360in MyMiddleware.run()
LOG: Closed client: /10.0.0.7:58358in MyMiddleware.run()
LOG: Closed client: /10.0.0.7:58368in MyMiddleware.run()
LOG: Closed client: /10.0.0.7:58374in MyMiddleware.run()
LOG: Closed client: /10.0.0.7:58348in MyMiddleware.run()
LOG: Closed client: /10.0.0.7:58356in MyMiddleware.run()
LOG: Closed client: /10.0.0.7:58350in MyMiddleware.run()
LOG: Closed client: /10.0.0.7:58392in MyMiddleware.run()
LOG: Closed client: /10.0.0.7:58382in MyMiddleware.run()
LOG: Closed client: /10.0.0.7:58380in MyMiddleware.run()
LOG: Closed client: /10.0.0.7:58378in MyMiddleware.run()
LOG: Closed client: /10.0.0.7:58400in MyMiddleware.run()
LOG: Closed client: /10.0.0.7:58384in MyMiddleware.run()
LOG: Closed client: /10.0.0.7:58398in MyMiddleware.run()
LOG: Closed client: /10.0.0.7:58402in MyMiddleware.run()
LOG: Closed client: /10.0.0.7:58406in MyMiddleware.run()
LOG: Closed client: /10.0.0.7:58386in MyMiddleware.run()
LOG: Closed client: /10.0.0.7:58396in MyMiddleware.run()
LOG: Closed client: /10.0.0.7:58376in MyMiddleware.run()
LOG: Closed client: /10.0.0.7:58404in MyMiddleware.run()
LOG: Closed client: /10.0.0.7:58394in MyMiddleware.run()
LOG: Closed client: /10.0.0.7:58390in MyMiddleware.run()
LOG: Closed client: /10.0.0.7:58344in MyMiddleware.run()
LOG: Closed client: /10.0.0.7:58346in MyMiddleware.run()
LOG: Closed client: /10.0.0.7:58388in MyMiddleware.run()
LOG: Closed client: /10.0.0.6:40340in MyMiddleware.run()
LOG: Closed client: /10.0.0.6:40352in MyMiddleware.run()
LOG: Closed client: /10.0.0.6:40334in MyMiddleware.run()
LOG: Closed client: /10.0.0.6:40346in MyMiddleware.run()
LOG: Closed client: /10.0.0.6:40344in MyMiddleware.run()
LOG: Closed client: /10.0.0.6:40336in MyMiddleware.run()
LOG: Closed client: /10.0.0.6:40338in MyMiddleware.run()
LOG: Closed client: /10.0.0.6:40348in MyMiddleware.run()
LOG: Closed client: /10.0.0.6:40364in MyMiddleware.run()
LOG: Closed client: /10.0.0.6:40356in MyMiddleware.run()
LOG: Closed client: /10.0.0.6:40360in MyMiddleware.run()
LOG: Closed client: /10.0.0.6:40358in MyMiddleware.run()
LOG: Closed client: /10.0.0.6:40350in MyMiddleware.run()
LOG: Closed client: /10.0.0.6:40342in MyMiddleware.run()
LOG: Closed client: /10.0.0.6:40362in MyMiddleware.run()
LOG: Closed client: /10.0.0.6:40354in MyMiddleware.run()
LOG: Closed client: /10.0.0.6:40370in MyMiddleware.run()
LOG: Closed client: /10.0.0.6:40378in MyMiddleware.run()
LOG: Closed client: /10.0.0.6:40374in MyMiddleware.run()
LOG: Closed client: /10.0.0.6:40366in MyMiddleware.run()
LOG: Closed client: /10.0.0.6:40368in MyMiddleware.run()
LOG: Closed client: /10.0.0.6:40376in MyMiddleware.run()
LOG: Closed client: /10.0.0.6:40372in MyMiddleware.run()
LOG: Closed client: /10.0.0.6:40380in MyMiddleware.run()
LOG: Closed client: /10.0.0.6:40386in MyMiddleware.run()
LOG: Closed client: /10.0.0.6:40388in MyMiddleware.run()
LOG: Closed client: /10.0.0.6:40384in MyMiddleware.run()
LOG: Closed client: /10.0.0.6:40382in MyMiddleware.run()
LOG: Closed client: /10.0.0.6:40390in MyMiddleware.run()
LOG: Closed client: /10.0.0.6:40392in MyMiddleware.run()
LOG: Closed client: /10.0.0.6:40394in MyMiddleware.run()
LOG: Closed client: /10.0.0.6:40396in MyMiddleware.run()
