------------Middleware started!------------
LOG: Waiting for connection in MyMiddleware.run()
LOG: Accepted client: /10.0.0.7:40244in MyMiddleware.run()
LOG: Accepted client: /10.0.0.7:40252in MyMiddleware.run()
LOG: Accepted client: /10.0.0.7:40258in MyMiddleware.run()
LOG: Accepted client: /10.0.0.7:40254in MyMiddleware.run()
LOG: Accepted client: /10.0.0.7:40240in MyMiddleware.run()
LOG: Accepted client: /10.0.0.7:40256in MyMiddleware.run()
LOG: Accepted client: /10.0.0.7:40230in MyMiddleware.run()
LOG: Accepted client: /10.0.0.7:40260in MyMiddleware.run()
LOG: Accepted client: /10.0.0.7:40250in MyMiddleware.run()
LOG: Accepted client: /10.0.0.7:40242in MyMiddleware.run()
LOG: Accepted client: /10.0.0.7:40246in MyMiddleware.run()
LOG: Accepted client: /10.0.0.7:40248in MyMiddleware.run()
LOG: Accepted client: /10.0.0.7:40232in MyMiddleware.run()
LOG: Accepted client: /10.0.0.7:40236in MyMiddleware.run()
LOG: Accepted client: /10.0.0.7:40234in MyMiddleware.run()
LOG: Accepted client: /10.0.0.7:40238in MyMiddleware.run()
LOG: Accepted client: /10.0.0.6:50468in MyMiddleware.run()
LOG: Accepted client: /10.0.0.6:50462in MyMiddleware.run()
LOG: Accepted client: /10.0.0.6:50458in MyMiddleware.run()
LOG: Accepted client: /10.0.0.6:50472in MyMiddleware.run()
LOG: Accepted client: /10.0.0.6:50478in MyMiddleware.run()
LOG: Accepted client: /10.0.0.6:50470in MyMiddleware.run()
LOG: Accepted client: /10.0.0.6:50482in MyMiddleware.run()
LOG: Accepted client: /10.0.0.6:50456in MyMiddleware.run()
LOG: Accepted client: /10.0.0.6:50474in MyMiddleware.run()
LOG: Accepted client: /10.0.0.6:50476in MyMiddleware.run()
LOG: Accepted client: /10.0.0.6:50460in MyMiddleware.run()
LOG: Accepted client: /10.0.0.6:50480in MyMiddleware.run()
LOG: Accepted client: /10.0.0.6:50452in MyMiddleware.run()
LOG: Accepted client: /10.0.0.6:50466in MyMiddleware.run()
LOG: Accepted client: /10.0.0.6:50454in MyMiddleware.run()
LOG: Accepted client: /10.0.0.6:50464in MyMiddleware.run()
LOG: Accepted client: /10.0.0.11:39494in MyMiddleware.run()
LOG: Accepted client: /10.0.0.11:39490in MyMiddleware.run()
LOG: Accepted client: /10.0.0.11:39492in MyMiddleware.run()
LOG: Accepted client: /10.0.0.11:39496in MyMiddleware.run()
LOG: Accepted client: /10.0.0.11:39500in MyMiddleware.run()
LOG: Accepted client: /10.0.0.11:39488in MyMiddleware.run()
LOG: Accepted client: /10.0.0.11:39510in MyMiddleware.run()
LOG: Accepted client: /10.0.0.11:39516in MyMiddleware.run()
LOG: Accepted client: /10.0.0.11:39508in MyMiddleware.run()
LOG: Accepted client: /10.0.0.11:39518in MyMiddleware.run()
LOG: Accepted client: /10.0.0.11:39498in MyMiddleware.run()
LOG: Accepted client: /10.0.0.11:39502in MyMiddleware.run()
LOG: Accepted client: /10.0.0.11:39512in MyMiddleware.run()
LOG: Accepted client: /10.0.0.11:39514in MyMiddleware.run()
LOG: Accepted client: /10.0.0.11:39504in MyMiddleware.run()
LOG: Accepted client: /10.0.0.11:39506in MyMiddleware.run()
LOG: Closed client: /10.0.0.7:40236in MyMiddleware.run()
LOG: Closed client: /10.0.0.7:40240in MyMiddleware.run()
LOG: Closed client: /10.0.0.7:40242in MyMiddleware.run()
LOG: Closed client: /10.0.0.7:40238in MyMiddleware.run()
LOG: Closed client: /10.0.0.7:40246in MyMiddleware.run()
LOG: Closed client: /10.0.0.7:40260in MyMiddleware.run()
LOG: Closed client: /10.0.0.7:40230in MyMiddleware.run()
LOG: Closed client: /10.0.0.7:40244in MyMiddleware.run()
LOG: Closed client: /10.0.0.7:40232in MyMiddleware.run()
LOG: Closed client: /10.0.0.7:40248in MyMiddleware.run()
LOG: Closed client: /10.0.0.7:40250in MyMiddleware.run()
LOG: Closed client: /10.0.0.7:40254in MyMiddleware.run()
LOG: Closed client: /10.0.0.7:40258in MyMiddleware.run()
LOG: Closed client: /10.0.0.7:40252in MyMiddleware.run()
LOG: Closed client: /10.0.0.7:40256in MyMiddleware.run()
LOG: Closed client: /10.0.0.7:40234in MyMiddleware.run()
LOG: Closed client: /10.0.0.6:50480in MyMiddleware.run()
LOG: Closed client: /10.0.0.6:50460in MyMiddleware.run()
LOG: Closed client: /10.0.0.6:50456in MyMiddleware.run()
LOG: Closed client: /10.0.0.6:50458in MyMiddleware.run()
LOG: Closed client: /10.0.0.6:50468in MyMiddleware.run()
LOG: Closed client: /10.0.0.6:50482in MyMiddleware.run()
LOG: Closed client: /10.0.0.6:50478in MyMiddleware.run()
LOG: Closed client: /10.0.0.6:50464in MyMiddleware.run()
LOG: Closed client: /10.0.0.6:50454in MyMiddleware.run()
LOG: Closed client: /10.0.0.6:50462in MyMiddleware.run()
LOG: Closed client: /10.0.0.6:50476in MyMiddleware.run()
LOG: Closed client: /10.0.0.6:50470in MyMiddleware.run()
LOG: Closed client: /10.0.0.6:50466in MyMiddleware.run()
LOG: Closed client: /10.0.0.6:50452in MyMiddleware.run()
LOG: Closed client: /10.0.0.6:50472in MyMiddleware.run()
LOG: Closed client: /10.0.0.6:50474in MyMiddleware.run()
LOG: Closed client: /10.0.0.11:39490in MyMiddleware.run()
LOG: Closed client: /10.0.0.11:39492in MyMiddleware.run()
LOG: Closed client: /10.0.0.11:39488in MyMiddleware.run()
LOG: Closed client: /10.0.0.11:39494in MyMiddleware.run()
LOG: Closed client: /10.0.0.11:39500in MyMiddleware.run()
LOG: Closed client: /10.0.0.11:39496in MyMiddleware.run()
LOG: Closed client: /10.0.0.11:39498in MyMiddleware.run()
LOG: Closed client: /10.0.0.11:39502in MyMiddleware.run()
LOG: Closed client: /10.0.0.11:39506in MyMiddleware.run()
LOG: Closed client: /10.0.0.11:39508in MyMiddleware.run()
LOG: Closed client: /10.0.0.11:39510in MyMiddleware.run()
LOG: Closed client: /10.0.0.11:39504in MyMiddleware.run()
LOG: Closed client: /10.0.0.11:39512in MyMiddleware.run()
LOG: Closed client: /10.0.0.11:39514in MyMiddleware.run()
LOG: Closed client: /10.0.0.11:39516in MyMiddleware.run()
LOG: Closed client: /10.0.0.11:39518in MyMiddleware.run()
