------------Middleware started!------------
LOG: Waiting for connection in MyMiddleware.run()
LOG: Accepted client: /10.0.0.6:40032in MyMiddleware.run()
LOG: Accepted client: /10.0.0.6:40058in MyMiddleware.run()
LOG: Accepted client: /10.0.0.6:40072in MyMiddleware.run()
LOG: Accepted client: /10.0.0.6:40046in MyMiddleware.run()
LOG: Accepted client: /10.0.0.6:40086in MyMiddleware.run()
LOG: Accepted client: /10.0.0.6:40050in MyMiddleware.run()
LOG: Accepted client: /10.0.0.6:40040in MyMiddleware.run()
LOG: Accepted client: /10.0.0.6:40084in MyMiddleware.run()
LOG: Accepted client: /10.0.0.6:40080in MyMiddleware.run()
LOG: Accepted client: /10.0.0.6:40074in MyMiddleware.run()
LOG: Accepted client: /10.0.0.6:40082in MyMiddleware.run()
LOG: Accepted client: /10.0.0.6:40052in MyMiddleware.run()
LOG: Accepted client: /10.0.0.6:40054in MyMiddleware.run()
LOG: Accepted client: /10.0.0.6:40076in MyMiddleware.run()
LOG: Accepted client: /10.0.0.6:40078in MyMiddleware.run()
LOG: Accepted client: /10.0.0.6:40048in MyMiddleware.run()
LOG: Accepted client: /10.0.0.6:40064in MyMiddleware.run()
LOG: Accepted client: /10.0.0.6:40088in MyMiddleware.run()
LOG: Accepted client: /10.0.0.6:40070in MyMiddleware.run()
LOG: Accepted client: /10.0.0.6:40034in MyMiddleware.run()
LOG: Accepted client: /10.0.0.6:40044in MyMiddleware.run()
LOG: Accepted client: /10.0.0.6:40060in MyMiddleware.run()
LOG: Accepted client: /10.0.0.6:40062in MyMiddleware.run()
LOG: Accepted client: /10.0.0.6:40038in MyMiddleware.run()
LOG: Accepted client: /10.0.0.6:40036in MyMiddleware.run()
LOG: Accepted client: /10.0.0.6:40042in MyMiddleware.run()
LOG: Accepted client: /10.0.0.6:40090in MyMiddleware.run()
LOG: Accepted client: /10.0.0.7:58038in MyMiddleware.run()
LOG: Accepted client: /10.0.0.7:58040in MyMiddleware.run()
LOG: Accepted client: /10.0.0.6:40068in MyMiddleware.run()
LOG: Accepted client: /10.0.0.6:40066in MyMiddleware.run()
LOG: Accepted client: /10.0.0.7:58050in MyMiddleware.run()
LOG: Accepted client: /10.0.0.7:58060in MyMiddleware.run()
LOG: Accepted client: /10.0.0.7:58096in MyMiddleware.run()
LOG: Accepted client: /10.0.0.7:58066in MyMiddleware.run()
LOG: Accepted client: /10.0.0.7:58064in MyMiddleware.run()
LOG: Accepted client: /10.0.0.7:58094in MyMiddleware.run()
LOG: Accepted client: /10.0.0.7:58072in MyMiddleware.run()
LOG: Accepted client: /10.0.0.7:58078in MyMiddleware.run()
LOG: Accepted client: /10.0.0.7:58098in MyMiddleware.run()
LOG: Accepted client: /10.0.0.7:58068in MyMiddleware.run()
LOG: Accepted client: /10.0.0.7:58082in MyMiddleware.run()
LOG: Accepted client: /10.0.0.7:58074in MyMiddleware.run()
LOG: Accepted client: /10.0.0.7:58048in MyMiddleware.run()
LOG: Accepted client: /10.0.0.7:58100in MyMiddleware.run()
LOG: Accepted client: /10.0.0.7:58092in MyMiddleware.run()
LOG: Accepted client: /10.0.0.7:58042in MyMiddleware.run()
LOG: Accepted client: /10.0.0.7:58070in MyMiddleware.run()
LOG: Accepted client: /10.0.0.7:58062in MyMiddleware.run()
LOG: Accepted client: /10.0.0.6:40056in MyMiddleware.run()
LOG: Accepted client: /10.0.0.7:58076in MyMiddleware.run()
LOG: Accepted client: /10.0.0.6:40094in MyMiddleware.run()
LOG: Accepted client: /10.0.0.6:40092in MyMiddleware.run()
LOG: Accepted client: /10.0.0.7:58052in MyMiddleware.run()
LOG: Accepted client: /10.0.0.7:58054in MyMiddleware.run()
LOG: Accepted client: /10.0.0.7:58090in MyMiddleware.run()
LOG: Accepted client: /10.0.0.7:58044in MyMiddleware.run()
LOG: Accepted client: /10.0.0.7:58056in MyMiddleware.run()
LOG: Accepted client: /10.0.0.7:58058in MyMiddleware.run()
LOG: Accepted client: /10.0.0.11:57316in MyMiddleware.run()
LOG: Accepted client: /10.0.0.11:57322in MyMiddleware.run()
LOG: Accepted client: /10.0.0.11:57328in MyMiddleware.run()
LOG: Accepted client: /10.0.0.11:57304in MyMiddleware.run()
LOG: Accepted client: /10.0.0.11:57358in MyMiddleware.run()
LOG: Accepted client: /10.0.0.11:57320in MyMiddleware.run()
LOG: Accepted client: /10.0.0.11:57356in MyMiddleware.run()
LOG: Accepted client: /10.0.0.11:57310in MyMiddleware.run()
LOG: Accepted client: /10.0.0.11:57306in MyMiddleware.run()
LOG: Accepted client: /10.0.0.11:57350in MyMiddleware.run()
LOG: Accepted client: /10.0.0.11:57308in MyMiddleware.run()
LOG: Accepted client: /10.0.0.7:58084in MyMiddleware.run()
LOG: Accepted client: /10.0.0.7:58080in MyMiddleware.run()
LOG: Accepted client: /10.0.0.7:58046in MyMiddleware.run()
LOG: Accepted client: /10.0.0.7:58086in MyMiddleware.run()
LOG: Accepted client: /10.0.0.7:58088in MyMiddleware.run()
LOG: Accepted client: /10.0.0.11:57330in MyMiddleware.run()
LOG: Accepted client: /10.0.0.11:57332in MyMiddleware.run()
LOG: Accepted client: /10.0.0.11:57364in MyMiddleware.run()
LOG: Accepted client: /10.0.0.11:57354in MyMiddleware.run()
LOG: Accepted client: /10.0.0.11:57336in MyMiddleware.run()
LOG: Accepted client: /10.0.0.11:57360in MyMiddleware.run()
LOG: Accepted client: /10.0.0.11:57334in MyMiddleware.run()
LOG: Accepted client: /10.0.0.11:57352in MyMiddleware.run()
LOG: Accepted client: /10.0.0.11:57362in MyMiddleware.run()
LOG: Accepted client: /10.0.0.11:57338in MyMiddleware.run()
LOG: Accepted client: /10.0.0.11:57318in MyMiddleware.run()
LOG: Accepted client: /10.0.0.11:57302in MyMiddleware.run()
LOG: Accepted client: /10.0.0.11:57348in MyMiddleware.run()
LOG: Accepted client: /10.0.0.11:57326in MyMiddleware.run()
LOG: Accepted client: /10.0.0.11:57346in MyMiddleware.run()
LOG: Accepted client: /10.0.0.11:57324in MyMiddleware.run()
LOG: Accepted client: /10.0.0.11:57312in MyMiddleware.run()
LOG: Accepted client: /10.0.0.11:57344in MyMiddleware.run()
LOG: Accepted client: /10.0.0.11:57314in MyMiddleware.run()
LOG: Accepted client: /10.0.0.11:57342in MyMiddleware.run()
LOG: Accepted client: /10.0.0.11:57340in MyMiddleware.run()
LOG: Closed client: /10.0.0.7:58048in MyMiddleware.run()
LOG: Closed client: /10.0.0.7:58070in MyMiddleware.run()
LOG: Closed client: /10.0.0.7:58078in MyMiddleware.run()
LOG: Closed client: /10.0.0.7:58046in MyMiddleware.run()
LOG: Closed client: /10.0.0.7:58040in MyMiddleware.run()
LOG: Closed client: /10.0.0.7:58064in MyMiddleware.run()
LOG: Closed client: /10.0.0.7:58098in MyMiddleware.run()
LOG: Closed client: /10.0.0.7:58086in MyMiddleware.run()
LOG: Closed client: /10.0.0.7:58096in MyMiddleware.run()
LOG: Closed client: /10.0.0.7:58052in MyMiddleware.run()
LOG: Closed client: /10.0.0.7:58066in MyMiddleware.run()
LOG: Closed client: /10.0.0.7:58074in MyMiddleware.run()
LOG: Closed client: /10.0.0.7:58094in MyMiddleware.run()
LOG: Closed client: /10.0.0.7:58068in MyMiddleware.run()
LOG: Closed client: /10.0.0.7:58050in MyMiddleware.run()
LOG: Closed client: /10.0.0.7:58092in MyMiddleware.run()
LOG: Closed client: /10.0.0.7:58072in MyMiddleware.run()
LOG: Closed client: /10.0.0.7:58084in MyMiddleware.run()
LOG: Closed client: /10.0.0.7:58082in MyMiddleware.run()
LOG: Closed client: /10.0.0.7:58060in MyMiddleware.run()
LOG: Closed client: /10.0.0.7:58038in MyMiddleware.run()
LOG: Closed client: /10.0.0.7:58088in MyMiddleware.run()
LOG: Closed client: /10.0.0.7:58054in MyMiddleware.run()
LOG: Closed client: /10.0.0.7:58090in MyMiddleware.run()
LOG: Closed client: /10.0.0.7:58100in MyMiddleware.run()
LOG: Closed client: /10.0.0.7:58080in MyMiddleware.run()
LOG: Closed client: /10.0.0.7:58044in MyMiddleware.run()
LOG: Closed client: /10.0.0.7:58056in MyMiddleware.run()
LOG: Closed client: /10.0.0.7:58058in MyMiddleware.run()
LOG: Closed client: /10.0.0.7:58076in MyMiddleware.run()
LOG: Closed client: /10.0.0.7:58042in MyMiddleware.run()
LOG: Closed client: /10.0.0.7:58062in MyMiddleware.run()
LOG: Closed client: /10.0.0.6:40032in MyMiddleware.run()
LOG: Closed client: /10.0.0.6:40034in MyMiddleware.run()
LOG: Closed client: /10.0.0.6:40056in MyMiddleware.run()
LOG: Closed client: /10.0.0.6:40052in MyMiddleware.run()
LOG: Closed client: /10.0.0.6:40060in MyMiddleware.run()
LOG: Closed client: /10.0.0.6:40058in MyMiddleware.run()
LOG: Closed client: /10.0.0.6:40050in MyMiddleware.run()
LOG: Closed client: /10.0.0.6:40048in MyMiddleware.run()
LOG: Closed client: /10.0.0.6:40040in MyMiddleware.run()
LOG: Closed client: /10.0.0.6:40054in MyMiddleware.run()
LOG: Closed client: /10.0.0.6:40038in MyMiddleware.run()
LOG: Closed client: /10.0.0.6:40064in MyMiddleware.run()
LOG: Closed client: /10.0.0.6:40044in MyMiddleware.run()
LOG: Closed client: /10.0.0.6:40046in MyMiddleware.run()
LOG: Closed client: /10.0.0.6:40036in MyMiddleware.run()
LOG: Closed client: /10.0.0.6:40076in MyMiddleware.run()
LOG: Closed client: /10.0.0.6:40084in MyMiddleware.run()
LOG: Closed client: /10.0.0.6:40092in MyMiddleware.run()
LOG: Closed client: /10.0.0.6:40086in MyMiddleware.run()
LOG: Closed client: /10.0.0.6:40070in MyMiddleware.run()
LOG: Closed client: /10.0.0.6:40062in MyMiddleware.run()
LOG: Closed client: /10.0.0.6:40066in MyMiddleware.run()
LOG: Closed client: /10.0.0.6:40088in MyMiddleware.run()
LOG: Closed client: /10.0.0.6:40042in MyMiddleware.run()
LOG: Closed client: /10.0.0.6:40072in MyMiddleware.run()
LOG: Closed client: /10.0.0.6:40068in MyMiddleware.run()
LOG: Closed client: /10.0.0.6:40078in MyMiddleware.run()
LOG: Closed client: /10.0.0.6:40082in MyMiddleware.run()
LOG: Closed client: /10.0.0.6:40094in MyMiddleware.run()
LOG: Closed client: /10.0.0.6:40090in MyMiddleware.run()
LOG: Closed client: /10.0.0.6:40074in MyMiddleware.run()
LOG: Closed client: /10.0.0.6:40080in MyMiddleware.run()
LOG: Closed client: /10.0.0.11:57304in MyMiddleware.run()
LOG: Closed client: /10.0.0.11:57306in MyMiddleware.run()
LOG: Closed client: /10.0.0.11:57308in MyMiddleware.run()
LOG: Closed client: /10.0.0.11:57328in MyMiddleware.run()
LOG: Closed client: /10.0.0.11:57330in MyMiddleware.run()
LOG: Closed client: /10.0.0.11:57314in MyMiddleware.run()
LOG: Closed client: /10.0.0.11:57310in MyMiddleware.run()
LOG: Closed client: /10.0.0.11:57334in MyMiddleware.run()
LOG: Closed client: /10.0.0.11:57320in MyMiddleware.run()
LOG: Closed client: /10.0.0.11:57302in MyMiddleware.run()
LOG: Closed client: /10.0.0.11:57318in MyMiddleware.run()
LOG: Closed client: /10.0.0.11:57316in MyMiddleware.run()
LOG: Closed client: /10.0.0.11:57312in MyMiddleware.run()
LOG: Closed client: /10.0.0.11:57332in MyMiddleware.run()
LOG: Closed client: /10.0.0.11:57358in MyMiddleware.run()
LOG: Closed client: /10.0.0.11:57352in MyMiddleware.run()
LOG: Closed client: /10.0.0.11:57336in MyMiddleware.run()
LOG: Closed client: /10.0.0.11:57348in MyMiddleware.run()
LOG: Closed client: /10.0.0.11:57340in MyMiddleware.run()
LOG: Closed client: /10.0.0.11:57342in MyMiddleware.run()
LOG: Closed client: /10.0.0.11:57360in MyMiddleware.run()
LOG: Closed client: /10.0.0.11:57344in MyMiddleware.run()
LOG: Closed client: /10.0.0.11:57354in MyMiddleware.run()
LOG: Closed client: /10.0.0.11:57364in MyMiddleware.run()
LOG: Closed client: /10.0.0.11:57326in MyMiddleware.run()
LOG: Closed client: /10.0.0.11:57356in MyMiddleware.run()
LOG: Closed client: /10.0.0.11:57350in MyMiddleware.run()
LOG: Closed client: /10.0.0.11:57346in MyMiddleware.run()
LOG: Closed client: /10.0.0.11:57362in MyMiddleware.run()
LOG: Closed client: /10.0.0.11:57322in MyMiddleware.run()
LOG: Closed client: /10.0.0.11:57338in MyMiddleware.run()
LOG: Closed client: /10.0.0.11:57324in MyMiddleware.run()
