------------Middleware started!------------
LOG: Waiting for connection in MyMiddleware.run()
LOG: Accepted client: /10.0.0.7:46790in MyMiddleware.run()
LOG: Accepted client: /10.0.0.7:46788in MyMiddleware.run()
LOG: Accepted client: /10.0.0.7:46848in MyMiddleware.run()
LOG: Accepted client: /10.0.0.7:46794in MyMiddleware.run()
LOG: Accepted client: /10.0.0.7:46800in MyMiddleware.run()
LOG: Accepted client: /10.0.0.7:46798in MyMiddleware.run()
LOG: Accepted client: /10.0.0.7:46806in MyMiddleware.run()
LOG: Accepted client: /10.0.0.7:46804in MyMiddleware.run()
LOG: Accepted client: /10.0.0.7:46818in MyMiddleware.run()
LOG: Accepted client: /10.0.0.7:46792in MyMiddleware.run()
LOG: Accepted client: /10.0.0.7:46836in MyMiddleware.run()
LOG: Accepted client: /10.0.0.7:46876in MyMiddleware.run()
LOG: Accepted client: /10.0.0.7:46780in MyMiddleware.run()
LOG: Accepted client: /10.0.0.7:46846in MyMiddleware.run()
LOG: Accepted client: /10.0.0.7:46870in MyMiddleware.run()
LOG: Accepted client: /10.0.0.7:46866in MyMiddleware.run()
LOG: Accepted client: /10.0.0.7:46828in MyMiddleware.run()
LOG: Accepted client: /10.0.0.7:46786in MyMiddleware.run()
LOG: Accepted client: /10.0.0.7:46896in MyMiddleware.run()
LOG: Accepted client: /10.0.0.7:46850in MyMiddleware.run()
LOG: Accepted client: /10.0.0.7:46874in MyMiddleware.run()
LOG: Accepted client: /10.0.0.7:46854in MyMiddleware.run()
LOG: Accepted client: /10.0.0.7:46858in MyMiddleware.run()
LOG: Accepted client: /10.0.0.7:46824in MyMiddleware.run()
LOG: Accepted client: /10.0.0.7:46826in MyMiddleware.run()
LOG: Accepted client: /10.0.0.7:46902in MyMiddleware.run()
LOG: Accepted client: /10.0.0.7:46888in MyMiddleware.run()
LOG: Accepted client: /10.0.0.7:46840in MyMiddleware.run()
LOG: Accepted client: /10.0.0.7:46890in MyMiddleware.run()
LOG: Accepted client: /10.0.0.7:46834in MyMiddleware.run()
LOG: Accepted client: /10.0.0.7:46856in MyMiddleware.run()
LOG: Accepted client: /10.0.0.7:46880in MyMiddleware.run()
LOG: Accepted client: /10.0.0.7:46838in MyMiddleware.run()
LOG: Accepted client: /10.0.0.7:46812in MyMiddleware.run()
LOG: Accepted client: /10.0.0.7:46814in MyMiddleware.run()
LOG: Accepted client: /10.0.0.7:46802in MyMiddleware.run()
LOG: Accepted client: /10.0.0.7:46892in MyMiddleware.run()
LOG: Accepted client: /10.0.0.7:46820in MyMiddleware.run()
LOG: Accepted client: /10.0.0.7:46784in MyMiddleware.run()
LOG: Accepted client: /10.0.0.7:46868in MyMiddleware.run()
LOG: Accepted client: /10.0.0.7:46830in MyMiddleware.run()
LOG: Accepted client: /10.0.0.7:46852in MyMiddleware.run()
LOG: Accepted client: /10.0.0.7:46884in MyMiddleware.run()
LOG: Accepted client: /10.0.0.7:46844in MyMiddleware.run()
LOG: Accepted client: /10.0.0.7:46842in MyMiddleware.run()
LOG: Accepted client: /10.0.0.7:46882in MyMiddleware.run()
LOG: Accepted client: /10.0.0.7:46894in MyMiddleware.run()
LOG: Accepted client: /10.0.0.7:46904in MyMiddleware.run()
LOG: Accepted client: /10.0.0.7:46808in MyMiddleware.run()
LOG: Accepted client: /10.0.0.7:46782in MyMiddleware.run()
LOG: Accepted client: /10.0.0.7:46900in MyMiddleware.run()
LOG: Accepted client: /10.0.0.7:46796in MyMiddleware.run()
LOG: Accepted client: /10.0.0.7:46872in MyMiddleware.run()
LOG: Accepted client: /10.0.0.11:46058in MyMiddleware.run()
LOG: Accepted client: /10.0.0.11:46046in MyMiddleware.run()
LOG: Accepted client: /10.0.0.11:46076in MyMiddleware.run()
LOG: Accepted client: /10.0.0.11:46094in MyMiddleware.run()
LOG: Accepted client: /10.0.0.11:46104in MyMiddleware.run()
LOG: Accepted client: /10.0.0.7:46822in MyMiddleware.run()
LOG: Accepted client: /10.0.0.7:46898in MyMiddleware.run()
LOG: Accepted client: /10.0.0.7:46878in MyMiddleware.run()
LOG: Accepted client: /10.0.0.7:46816in MyMiddleware.run()
LOG: Accepted client: /10.0.0.11:46040in MyMiddleware.run()
LOG: Accepted client: /10.0.0.11:46102in MyMiddleware.run()
LOG: Accepted client: /10.0.0.11:46100in MyMiddleware.run()
LOG: Accepted client: /10.0.0.11:46136in MyMiddleware.run()
LOG: Accepted client: /10.0.0.11:46138in MyMiddleware.run()
LOG: Accepted client: /10.0.0.11:46088in MyMiddleware.run()
LOG: Accepted client: /10.0.0.11:46156in MyMiddleware.run()
LOG: Accepted client: /10.0.0.11:46158in MyMiddleware.run()
LOG: Accepted client: /10.0.0.11:46068in MyMiddleware.run()
LOG: Accepted client: /10.0.0.11:46108in MyMiddleware.run()
LOG: Accepted client: /10.0.0.11:46086in MyMiddleware.run()
LOG: Accepted client: /10.0.0.11:46074in MyMiddleware.run()
LOG: Accepted client: /10.0.0.11:46062in MyMiddleware.run()
LOG: Accepted client: /10.0.0.11:46106in MyMiddleware.run()
LOG: Accepted client: /10.0.0.11:46080in MyMiddleware.run()
LOG: Accepted client: /10.0.0.11:46048in MyMiddleware.run()
LOG: Accepted client: /10.0.0.11:46050in MyMiddleware.run()
LOG: Accepted client: /10.0.0.11:46124in MyMiddleware.run()
LOG: Accepted client: /10.0.0.11:46154in MyMiddleware.run()
LOG: Accepted client: /10.0.0.11:46054in MyMiddleware.run()
LOG: Accepted client: /10.0.0.11:46110in MyMiddleware.run()
LOG: Accepted client: /10.0.0.11:46096in MyMiddleware.run()
LOG: Accepted client: /10.0.0.11:46134in MyMiddleware.run()
LOG: Accepted client: /10.0.0.11:46130in MyMiddleware.run()
LOG: Accepted client: /10.0.0.11:46132in MyMiddleware.run()
LOG: Accepted client: /10.0.0.11:46140in MyMiddleware.run()
LOG: Accepted client: /10.0.0.11:46128in MyMiddleware.run()
LOG: Accepted client: /10.0.0.11:46052in MyMiddleware.run()
LOG: Accepted client: /10.0.0.11:46098in MyMiddleware.run()
LOG: Accepted client: /10.0.0.11:46150in MyMiddleware.run()
LOG: Accepted client: /10.0.0.11:46144in MyMiddleware.run()
LOG: Accepted client: /10.0.0.11:46142in MyMiddleware.run()
LOG: Accepted client: /10.0.0.11:46152in MyMiddleware.run()
LOG: Accepted client: /10.0.0.11:46060in MyMiddleware.run()
LOG: Accepted client: /10.0.0.11:46066in MyMiddleware.run()
LOG: Accepted client: /10.0.0.11:46044in MyMiddleware.run()
LOG: Accepted client: /10.0.0.11:46064in MyMiddleware.run()
LOG: Accepted client: /10.0.0.11:46092in MyMiddleware.run()
LOG: Accepted client: /10.0.0.11:46112in MyMiddleware.run()
LOG: Accepted client: /10.0.0.11:46164in MyMiddleware.run()
LOG: Accepted client: /10.0.0.11:46114in MyMiddleware.run()
LOG: Accepted client: /10.0.0.7:46886in MyMiddleware.run()
LOG: Accepted client: /10.0.0.7:46864in MyMiddleware.run()
LOG: Accepted client: /10.0.0.7:46832in MyMiddleware.run()
LOG: Accepted client: /10.0.0.7:46810in MyMiddleware.run()
LOG: Accepted client: /10.0.0.7:46860in MyMiddleware.run()
LOG: Accepted client: /10.0.0.7:46862in MyMiddleware.run()
LOG: Accepted client: /10.0.0.7:46906in MyMiddleware.run()
LOG: Accepted client: /10.0.0.6:57078in MyMiddleware.run()
LOG: Accepted client: /10.0.0.6:57082in MyMiddleware.run()
LOG: Accepted client: /10.0.0.6:57018in MyMiddleware.run()
LOG: Accepted client: /10.0.0.6:57038in MyMiddleware.run()
LOG: Accepted client: /10.0.0.6:57120in MyMiddleware.run()
LOG: Accepted client: /10.0.0.6:57076in MyMiddleware.run()
LOG: Accepted client: /10.0.0.6:57002in MyMiddleware.run()
LOG: Accepted client: /10.0.0.6:57060in MyMiddleware.run()
LOG: Accepted client: /10.0.0.6:57084in MyMiddleware.run()
LOG: Accepted client: /10.0.0.6:57062in MyMiddleware.run()
LOG: Accepted client: /10.0.0.6:57080in MyMiddleware.run()
LOG: Accepted client: /10.0.0.6:57110in MyMiddleware.run()
LOG: Accepted client: /10.0.0.6:57086in MyMiddleware.run()
LOG: Accepted client: /10.0.0.6:57056in MyMiddleware.run()
LOG: Accepted client: /10.0.0.6:57004in MyMiddleware.run()
LOG: Accepted client: /10.0.0.6:57008in MyMiddleware.run()
LOG: Accepted client: /10.0.0.6:57098in MyMiddleware.run()
LOG: Accepted client: /10.0.0.6:57108in MyMiddleware.run()
LOG: Accepted client: /10.0.0.6:57050in MyMiddleware.run()
LOG: Accepted client: /10.0.0.6:57010in MyMiddleware.run()
LOG: Accepted client: /10.0.0.6:57096in MyMiddleware.run()
LOG: Accepted client: /10.0.0.6:57006in MyMiddleware.run()
LOG: Accepted client: /10.0.0.6:57054in MyMiddleware.run()
LOG: Accepted client: /10.0.0.6:57042in MyMiddleware.run()
LOG: Accepted client: /10.0.0.6:56994in MyMiddleware.run()
LOG: Accepted client: /10.0.0.6:57064in MyMiddleware.run()
LOG: Accepted client: /10.0.0.6:57012in MyMiddleware.run()
LOG: Accepted client: /10.0.0.6:57022in MyMiddleware.run()
LOG: Accepted client: /10.0.0.6:57102in MyMiddleware.run()
LOG: Accepted client: /10.0.0.6:56996in MyMiddleware.run()
LOG: Accepted client: /10.0.0.6:57094in MyMiddleware.run()
LOG: Accepted client: /10.0.0.6:57034in MyMiddleware.run()
LOG: Accepted client: /10.0.0.6:57024in MyMiddleware.run()
LOG: Accepted client: /10.0.0.6:57070in MyMiddleware.run()
LOG: Accepted client: /10.0.0.6:57052in MyMiddleware.run()
LOG: Accepted client: /10.0.0.6:57118in MyMiddleware.run()
LOG: Accepted client: /10.0.0.6:57072in MyMiddleware.run()
LOG: Accepted client: /10.0.0.6:57036in MyMiddleware.run()
LOG: Accepted client: /10.0.0.6:57116in MyMiddleware.run()
LOG: Accepted client: /10.0.0.6:57114in MyMiddleware.run()
LOG: Accepted client: /10.0.0.6:57040in MyMiddleware.run()
LOG: Accepted client: /10.0.0.6:57032in MyMiddleware.run()
LOG: Accepted client: /10.0.0.6:57090in MyMiddleware.run()
LOG: Accepted client: /10.0.0.6:57016in MyMiddleware.run()
LOG: Accepted client: /10.0.0.6:57088in MyMiddleware.run()
LOG: Accepted client: /10.0.0.6:57044in MyMiddleware.run()
LOG: Accepted client: /10.0.0.6:56998in MyMiddleware.run()
LOG: Accepted client: /10.0.0.6:57068in MyMiddleware.run()
LOG: Accepted client: /10.0.0.6:57066in MyMiddleware.run()
LOG: Accepted client: /10.0.0.6:57046in MyMiddleware.run()
LOG: Accepted client: /10.0.0.6:57112in MyMiddleware.run()
LOG: Accepted client: /10.0.0.6:57020in MyMiddleware.run()
LOG: Accepted client: /10.0.0.6:57092in MyMiddleware.run()
LOG: Accepted client: /10.0.0.6:57074in MyMiddleware.run()
LOG: Accepted client: /10.0.0.6:57000in MyMiddleware.run()
LOG: Accepted client: /10.0.0.6:57048in MyMiddleware.run()
LOG: Accepted client: /10.0.0.6:57100in MyMiddleware.run()
LOG: Accepted client: /10.0.0.6:57030in MyMiddleware.run()
LOG: Accepted client: /10.0.0.6:57058in MyMiddleware.run()
LOG: Accepted client: /10.0.0.6:57106in MyMiddleware.run()
LOG: Accepted client: /10.0.0.6:57026in MyMiddleware.run()
LOG: Accepted client: /10.0.0.6:57014in MyMiddleware.run()
LOG: Accepted client: /10.0.0.6:57104in MyMiddleware.run()
LOG: Accepted client: /10.0.0.6:57028in MyMiddleware.run()
LOG: Accepted client: /10.0.0.11:46162in MyMiddleware.run()
LOG: Accepted client: /10.0.0.11:46084in MyMiddleware.run()
LOG: Accepted client: /10.0.0.11:46160in MyMiddleware.run()
LOG: Accepted client: /10.0.0.11:46116in MyMiddleware.run()
LOG: Accepted client: /10.0.0.11:46038in MyMiddleware.run()
LOG: Accepted client: /10.0.0.11:46072in MyMiddleware.run()
LOG: Accepted client: /10.0.0.11:46146in MyMiddleware.run()
LOG: Accepted client: /10.0.0.11:46122in MyMiddleware.run()
LOG: Accepted client: /10.0.0.11:46120in MyMiddleware.run()
LOG: Accepted client: /10.0.0.11:46070in MyMiddleware.run()
LOG: Accepted client: /10.0.0.11:46148in MyMiddleware.run()
LOG: Accepted client: /10.0.0.11:46126in MyMiddleware.run()
LOG: Accepted client: /10.0.0.11:46042in MyMiddleware.run()
LOG: Accepted client: /10.0.0.11:46082in MyMiddleware.run()
LOG: Accepted client: /10.0.0.11:46078in MyMiddleware.run()
LOG: Accepted client: /10.0.0.11:46090in MyMiddleware.run()
LOG: Accepted client: /10.0.0.11:46118in MyMiddleware.run()
LOG: Accepted client: /10.0.0.11:46056in MyMiddleware.run()
LOG: Closed client: /10.0.0.7:46814in MyMiddleware.run()
LOG: Closed client: /10.0.0.7:46782in MyMiddleware.run()
LOG: Closed client: /10.0.0.7:46786in MyMiddleware.run()
LOG: Closed client: /10.0.0.7:46820in MyMiddleware.run()
LOG: Closed client: /10.0.0.7:46806in MyMiddleware.run()
LOG: Closed client: /10.0.0.7:46818in MyMiddleware.run()
LOG: Closed client: /10.0.0.7:46794in MyMiddleware.run()
LOG: Closed client: /10.0.0.7:46822in MyMiddleware.run()
LOG: Closed client: /10.0.0.7:46802in MyMiddleware.run()
LOG: Closed client: /10.0.0.7:46800in MyMiddleware.run()
LOG: Closed client: /10.0.0.7:46788in MyMiddleware.run()
LOG: Closed client: /10.0.0.7:46798in MyMiddleware.run()
LOG: Closed client: /10.0.0.7:46796in MyMiddleware.run()
LOG: Closed client: /10.0.0.7:46790in MyMiddleware.run()
LOG: Closed client: /10.0.0.7:46780in MyMiddleware.run()
LOG: Closed client: /10.0.0.7:46812in MyMiddleware.run()
LOG: Closed client: /10.0.0.7:46850in MyMiddleware.run()
LOG: Closed client: /10.0.0.7:46884in MyMiddleware.run()
LOG: Closed client: /10.0.0.7:46904in MyMiddleware.run()
LOG: Closed client: /10.0.0.7:46892in MyMiddleware.run()
LOG: Closed client: /10.0.0.7:46880in MyMiddleware.run()
LOG: Closed client: /10.0.0.7:46860in MyMiddleware.run()
LOG: Closed client: /10.0.0.7:46784in MyMiddleware.run()
LOG: Closed client: /10.0.0.7:46854in MyMiddleware.run()
LOG: Closed client: /10.0.0.7:46870in MyMiddleware.run()
LOG: Closed client: /10.0.0.7:46898in MyMiddleware.run()
LOG: Closed client: /10.0.0.7:46792in MyMiddleware.run()
LOG: Closed client: /10.0.0.7:46826in MyMiddleware.run()
LOG: Closed client: /10.0.0.7:46900in MyMiddleware.run()
LOG: Closed client: /10.0.0.7:46808in MyMiddleware.run()
LOG: Closed client: /10.0.0.7:46846in MyMiddleware.run()
LOG: Closed client: /10.0.0.7:46868in MyMiddleware.run()
LOG: Closed client: /10.0.0.7:46804in MyMiddleware.run()
LOG: Closed client: /10.0.0.7:46872in MyMiddleware.run()
LOG: Closed client: /10.0.0.7:46896in MyMiddleware.run()
LOG: Closed client: /10.0.0.7:46906in MyMiddleware.run()
LOG: Closed client: /10.0.0.7:46810in MyMiddleware.run()
LOG: Closed client: /10.0.0.7:46844in MyMiddleware.run()
LOG: Closed client: /10.0.0.7:46876in MyMiddleware.run()
LOG: Closed client: /10.0.0.7:46858in MyMiddleware.run()
LOG: Closed client: /10.0.0.7:46830in MyMiddleware.run()
LOG: Closed client: /10.0.0.7:46856in MyMiddleware.run()
LOG: Closed client: /10.0.0.7:46882in MyMiddleware.run()
LOG: Closed client: /10.0.0.7:46902in MyMiddleware.run()
LOG: Closed client: /10.0.0.7:46848in MyMiddleware.run()
LOG: Closed client: /10.0.0.7:46834in MyMiddleware.run()
LOG: Closed client: /10.0.0.7:46862in MyMiddleware.run()
LOG: Closed client: /10.0.0.7:46866in MyMiddleware.run()
LOG: Closed client: /10.0.0.7:46886in MyMiddleware.run()
LOG: Closed client: /10.0.0.7:46836in MyMiddleware.run()
LOG: Closed client: /10.0.0.7:46852in MyMiddleware.run()
LOG: Closed client: /10.0.0.7:46838in MyMiddleware.run()
LOG: Closed client: /10.0.0.7:46840in MyMiddleware.run()
LOG: Closed client: /10.0.0.7:46888in MyMiddleware.run()
LOG: Closed client: /10.0.0.7:46864in MyMiddleware.run()
LOG: Closed client: /10.0.0.7:46816in MyMiddleware.run()
LOG: Closed client: /10.0.0.7:46824in MyMiddleware.run()
LOG: Closed client: /10.0.0.7:46842in MyMiddleware.run()
LOG: Closed client: /10.0.0.7:46828in MyMiddleware.run()
LOG: Closed client: /10.0.0.7:46874in MyMiddleware.run()
LOG: Closed client: /10.0.0.7:46878in MyMiddleware.run()
LOG: Closed client: /10.0.0.7:46890in MyMiddleware.run()
LOG: Closed client: /10.0.0.7:46832in MyMiddleware.run()
LOG: Closed client: /10.0.0.7:46894in MyMiddleware.run()
LOG: Closed client: /10.0.0.11:46040in MyMiddleware.run()
LOG: Closed client: /10.0.0.11:46068in MyMiddleware.run()
LOG: Closed client: /10.0.0.11:46042in MyMiddleware.run()
LOG: Closed client: /10.0.0.11:46038in MyMiddleware.run()
LOG: Closed client: /10.0.0.11:46054in MyMiddleware.run()
LOG: Closed client: /10.0.0.11:46052in MyMiddleware.run()
LOG: Closed client: /10.0.0.11:46074in MyMiddleware.run()
LOG: Closed client: /10.0.0.11:46058in MyMiddleware.run()
LOG: Closed client: /10.0.0.11:46110in MyMiddleware.run()
LOG: Closed client: /10.0.0.11:46056in MyMiddleware.run()
LOG: Closed client: /10.0.0.11:46114in MyMiddleware.run()
LOG: Closed client: /10.0.0.11:46046in MyMiddleware.run()
LOG: Closed client: /10.0.0.11:46086in MyMiddleware.run()
LOG: Closed client: /10.0.0.11:46108in MyMiddleware.run()
LOG: Closed client: /10.0.0.11:46044in MyMiddleware.run()
LOG: Closed client: /10.0.0.11:46064in MyMiddleware.run()
LOG: Closed client: /10.0.0.11:46080in MyMiddleware.run()
LOG: Closed client: /10.0.0.11:46106in MyMiddleware.run()
LOG: Closed client: /10.0.0.11:46118in MyMiddleware.run()
LOG: Closed client: /10.0.0.11:46102in MyMiddleware.run()
LOG: Closed client: /10.0.0.11:46082in MyMiddleware.run()
LOG: Closed client: /10.0.0.11:46060in MyMiddleware.run()
LOG: Closed client: /10.0.0.11:46084in MyMiddleware.run()
LOG: Closed client: /10.0.0.11:46066in MyMiddleware.run()
LOG: Closed client: /10.0.0.11:46050in MyMiddleware.run()
LOG: Closed client: /10.0.0.11:46100in MyMiddleware.run()
LOG: Closed client: /10.0.0.11:46048in MyMiddleware.run()
LOG: Closed client: /10.0.0.11:46088in MyMiddleware.run()
LOG: Closed client: /10.0.0.11:46072in MyMiddleware.run()
LOG: Closed client: /10.0.0.11:46062in MyMiddleware.run()
LOG: Closed client: /10.0.0.11:46096in MyMiddleware.run()
LOG: Closed client: /10.0.0.11:46076in MyMiddleware.run()
LOG: Closed client: /10.0.0.11:46090in MyMiddleware.run()
LOG: Closed client: /10.0.0.11:46094in MyMiddleware.run()
LOG: Closed client: /10.0.0.11:46078in MyMiddleware.run()
LOG: Closed client: /10.0.0.11:46092in MyMiddleware.run()
LOG: Closed client: /10.0.0.11:46070in MyMiddleware.run()
LOG: Closed client: /10.0.0.11:46098in MyMiddleware.run()
LOG: Closed client: /10.0.0.11:46104in MyMiddleware.run()
LOG: Closed client: /10.0.0.11:46112in MyMiddleware.run()
LOG: Closed client: /10.0.0.11:46142in MyMiddleware.run()
LOG: Closed client: /10.0.0.11:46140in MyMiddleware.run()
LOG: Closed client: /10.0.0.11:46116in MyMiddleware.run()
LOG: Closed client: /10.0.0.11:46148in MyMiddleware.run()
LOG: Closed client: /10.0.0.11:46152in MyMiddleware.run()
LOG: Closed client: /10.0.0.11:46158in MyMiddleware.run()
LOG: Closed client: /10.0.0.11:46144in MyMiddleware.run()
LOG: Closed client: /10.0.0.11:46156in MyMiddleware.run()
LOG: Closed client: /10.0.0.11:46122in MyMiddleware.run()
LOG: Closed client: /10.0.0.11:46120in MyMiddleware.run()
LOG: Closed client: /10.0.0.11:46134in MyMiddleware.run()
LOG: Closed client: /10.0.0.11:46138in MyMiddleware.run()
LOG: Closed client: /10.0.0.11:46124in MyMiddleware.run()
LOG: Closed client: /10.0.0.11:46164in MyMiddleware.run()
LOG: Closed client: /10.0.0.11:46146in MyMiddleware.run()
LOG: Closed client: /10.0.0.11:46154in MyMiddleware.run()
LOG: Closed client: /10.0.0.11:46160in MyMiddleware.run()
LOG: Closed client: /10.0.0.11:46132in MyMiddleware.run()
LOG: Closed client: /10.0.0.11:46126in MyMiddleware.run()
LOG: Closed client: /10.0.0.11:46128in MyMiddleware.run()
LOG: Closed client: /10.0.0.11:46130in MyMiddleware.run()
LOG: Closed client: /10.0.0.11:46136in MyMiddleware.run()
LOG: Closed client: /10.0.0.11:46150in MyMiddleware.run()
LOG: Closed client: /10.0.0.11:46162in MyMiddleware.run()
LOG: Closed client: /10.0.0.6:56994in MyMiddleware.run()
LOG: Closed client: /10.0.0.6:57026in MyMiddleware.run()
LOG: Closed client: /10.0.0.6:57018in MyMiddleware.run()
LOG: Closed client: /10.0.0.6:57028in MyMiddleware.run()
LOG: Closed client: /10.0.0.6:57012in MyMiddleware.run()
LOG: Closed client: /10.0.0.6:57014in MyMiddleware.run()
LOG: Closed client: /10.0.0.6:57038in MyMiddleware.run()
LOG: Closed client: /10.0.0.6:57024in MyMiddleware.run()
LOG: Closed client: /10.0.0.6:57046in MyMiddleware.run()
LOG: Closed client: /10.0.0.6:57016in MyMiddleware.run()
LOG: Closed client: /10.0.0.6:57030in MyMiddleware.run()
LOG: Closed client: /10.0.0.6:57048in MyMiddleware.run()
LOG: Closed client: /10.0.0.6:57054in MyMiddleware.run()
LOG: Closed client: /10.0.0.6:57010in MyMiddleware.run()
LOG: Closed client: /10.0.0.6:57000in MyMiddleware.run()
LOG: Closed client: /10.0.0.6:56996in MyMiddleware.run()
LOG: Closed client: /10.0.0.6:57004in MyMiddleware.run()
LOG: Closed client: /10.0.0.6:57032in MyMiddleware.run()
LOG: Closed client: /10.0.0.6:57036in MyMiddleware.run()
LOG: Closed client: /10.0.0.6:56998in MyMiddleware.run()
LOG: Closed client: /10.0.0.6:57020in MyMiddleware.run()
LOG: Closed client: /10.0.0.6:57022in MyMiddleware.run()
LOG: Closed client: /10.0.0.6:57042in MyMiddleware.run()
LOG: Closed client: /10.0.0.6:57008in MyMiddleware.run()
LOG: Closed client: /10.0.0.6:57002in MyMiddleware.run()
LOG: Closed client: /10.0.0.6:57006in MyMiddleware.run()
LOG: Closed client: /10.0.0.6:57056in MyMiddleware.run()
LOG: Closed client: /10.0.0.6:57044in MyMiddleware.run()
LOG: Closed client: /10.0.0.6:57040in MyMiddleware.run()
LOG: Closed client: /10.0.0.6:57034in MyMiddleware.run()
LOG: Closed client: /10.0.0.6:57052in MyMiddleware.run()
LOG: Closed client: /10.0.0.6:57050in MyMiddleware.run()
LOG: Closed client: /10.0.0.6:57064in MyMiddleware.run()
LOG: Closed client: /10.0.0.6:57060in MyMiddleware.run()
LOG: Closed client: /10.0.0.6:57066in MyMiddleware.run()
LOG: Closed client: /10.0.0.6:57062in MyMiddleware.run()
LOG: Closed client: /10.0.0.6:57058in MyMiddleware.run()
LOG: Closed client: /10.0.0.6:57074in MyMiddleware.run()
LOG: Closed client: /10.0.0.6:57070in MyMiddleware.run()
LOG: Closed client: /10.0.0.6:57072in MyMiddleware.run()
LOG: Closed client: /10.0.0.6:57076in MyMiddleware.run()
LOG: Closed client: /10.0.0.6:57068in MyMiddleware.run()
LOG: Closed client: /10.0.0.6:57078in MyMiddleware.run()
LOG: Closed client: /10.0.0.6:57084in MyMiddleware.run()
LOG: Closed client: /10.0.0.6:57080in MyMiddleware.run()
LOG: Closed client: /10.0.0.6:57082in MyMiddleware.run()
LOG: Closed client: /10.0.0.6:57086in MyMiddleware.run()
LOG: Closed client: /10.0.0.6:57090in MyMiddleware.run()
LOG: Closed client: /10.0.0.6:57088in MyMiddleware.run()
LOG: Closed client: /10.0.0.6:57094in MyMiddleware.run()
LOG: Closed client: /10.0.0.6:57092in MyMiddleware.run()
LOG: Closed client: /10.0.0.6:57096in MyMiddleware.run()
LOG: Closed client: /10.0.0.6:57098in MyMiddleware.run()
LOG: Closed client: /10.0.0.6:57100in MyMiddleware.run()
LOG: Closed client: /10.0.0.6:57102in MyMiddleware.run()
LOG: Closed client: /10.0.0.6:57106in MyMiddleware.run()
LOG: Closed client: /10.0.0.6:57104in MyMiddleware.run()
LOG: Closed client: /10.0.0.6:57110in MyMiddleware.run()
LOG: Closed client: /10.0.0.6:57108in MyMiddleware.run()
LOG: Closed client: /10.0.0.6:57114in MyMiddleware.run()
LOG: Closed client: /10.0.0.6:57116in MyMiddleware.run()
LOG: Closed client: /10.0.0.6:57118in MyMiddleware.run()
LOG: Closed client: /10.0.0.6:57112in MyMiddleware.run()
LOG: Closed client: /10.0.0.6:57120in MyMiddleware.run()
