------------Middleware started!------------
LOG: Waiting for connection in MyMiddleware.run()
LOG: Accepted client: /10.0.0.7:45576in MyMiddleware.run()
LOG: Accepted client: /10.0.0.7:45618in MyMiddleware.run()
LOG: Accepted client: /10.0.0.7:45586in MyMiddleware.run()
LOG: Accepted client: /10.0.0.7:45612in MyMiddleware.run()
LOG: Accepted client: /10.0.0.7:45638in MyMiddleware.run()
LOG: Accepted client: /10.0.0.7:45630in MyMiddleware.run()
LOG: Accepted client: /10.0.0.7:45584in MyMiddleware.run()
LOG: Accepted client: /10.0.0.7:45596in MyMiddleware.run()
LOG: Accepted client: /10.0.0.7:45622in MyMiddleware.run()
LOG: Accepted client: /10.0.0.7:45614in MyMiddleware.run()
LOG: Accepted client: /10.0.0.7:45588in MyMiddleware.run()
LOG: Accepted client: /10.0.0.7:45592in MyMiddleware.run()
LOG: Accepted client: /10.0.0.7:45604in MyMiddleware.run()
LOG: Accepted client: /10.0.0.11:44834in MyMiddleware.run()
LOG: Accepted client: /10.0.0.11:44828in MyMiddleware.run()
LOG: Accepted client: /10.0.0.11:44848in MyMiddleware.run()
LOG: Accepted client: /10.0.0.7:45628in MyMiddleware.run()
LOG: Accepted client: /10.0.0.7:45626in MyMiddleware.run()
LOG: Accepted client: /10.0.0.7:45634in MyMiddleware.run()
LOG: Accepted client: /10.0.0.7:45590in MyMiddleware.run()
LOG: Accepted client: /10.0.0.7:45636in MyMiddleware.run()
LOG: Accepted client: /10.0.0.7:45616in MyMiddleware.run()
LOG: Accepted client: /10.0.0.7:45602in MyMiddleware.run()
LOG: Accepted client: /10.0.0.11:44854in MyMiddleware.run()
LOG: Accepted client: /10.0.0.11:44866in MyMiddleware.run()
LOG: Accepted client: /10.0.0.7:45582in MyMiddleware.run()
LOG: Accepted client: /10.0.0.11:44868in MyMiddleware.run()
LOG: Accepted client: /10.0.0.7:45594in MyMiddleware.run()
LOG: Accepted client: /10.0.0.11:44864in MyMiddleware.run()
LOG: Accepted client: /10.0.0.11:44852in MyMiddleware.run()
LOG: Accepted client: /10.0.0.6:55798in MyMiddleware.run()
LOG: Accepted client: /10.0.0.11:44832in MyMiddleware.run()
LOG: Accepted client: /10.0.0.11:44888in MyMiddleware.run()
LOG: Accepted client: /10.0.0.7:45606in MyMiddleware.run()
LOG: Accepted client: /10.0.0.7:45600in MyMiddleware.run()
LOG: Accepted client: /10.0.0.7:45580in MyMiddleware.run()
LOG: Accepted client: /10.0.0.6:55792in MyMiddleware.run()
LOG: Accepted client: /10.0.0.11:44842in MyMiddleware.run()
LOG: Accepted client: /10.0.0.11:44830in MyMiddleware.run()
LOG: Accepted client: /10.0.0.11:44850in MyMiddleware.run()
LOG: Accepted client: /10.0.0.11:44870in MyMiddleware.run()
LOG: Accepted client: /10.0.0.11:44884in MyMiddleware.run()
LOG: Accepted client: /10.0.0.11:44838in MyMiddleware.run()
LOG: Accepted client: /10.0.0.11:44862in MyMiddleware.run()
LOG: Accepted client: /10.0.0.6:55814in MyMiddleware.run()
LOG: Accepted client: /10.0.0.11:44840in MyMiddleware.run()
LOG: Accepted client: /10.0.0.6:55800in MyMiddleware.run()
LOG: Accepted client: /10.0.0.6:55788in MyMiddleware.run()
LOG: Accepted client: /10.0.0.11:44882in MyMiddleware.run()
LOG: Accepted client: /10.0.0.6:55782in MyMiddleware.run()
LOG: Accepted client: /10.0.0.6:55816in MyMiddleware.run()
LOG: Accepted client: /10.0.0.7:45598in MyMiddleware.run()
LOG: Accepted client: /10.0.0.6:55796in MyMiddleware.run()
LOG: Accepted client: /10.0.0.6:55784in MyMiddleware.run()
LOG: Accepted client: /10.0.0.11:44846in MyMiddleware.run()
LOG: Accepted client: /10.0.0.11:44890in MyMiddleware.run()
LOG: Accepted client: /10.0.0.6:55828in MyMiddleware.run()
LOG: Accepted client: /10.0.0.6:55786in MyMiddleware.run()
LOG: Accepted client: /10.0.0.11:44844in MyMiddleware.run()
LOG: Accepted client: /10.0.0.6:55806in MyMiddleware.run()
LOG: Accepted client: /10.0.0.11:44856in MyMiddleware.run()
LOG: Accepted client: /10.0.0.11:44876in MyMiddleware.run()
LOG: Accepted client: /10.0.0.7:45620in MyMiddleware.run()
LOG: Accepted client: /10.0.0.7:45578in MyMiddleware.run()
LOG: Accepted client: /10.0.0.7:45608in MyMiddleware.run()
LOG: Accepted client: /10.0.0.7:45632in MyMiddleware.run()
LOG: Accepted client: /10.0.0.7:45610in MyMiddleware.run()
LOG: Accepted client: /10.0.0.7:45624in MyMiddleware.run()
LOG: Accepted client: /10.0.0.11:44836in MyMiddleware.run()
LOG: Accepted client: /10.0.0.11:44880in MyMiddleware.run()
LOG: Accepted client: /10.0.0.11:44860in MyMiddleware.run()
LOG: Accepted client: /10.0.0.11:44878in MyMiddleware.run()
LOG: Accepted client: /10.0.0.11:44886in MyMiddleware.run()
LOG: Accepted client: /10.0.0.11:44874in MyMiddleware.run()
LOG: Accepted client: /10.0.0.11:44858in MyMiddleware.run()
LOG: Accepted client: /10.0.0.11:44872in MyMiddleware.run()
LOG: Accepted client: /10.0.0.6:55826in MyMiddleware.run()
LOG: Accepted client: /10.0.0.6:55820in MyMiddleware.run()
LOG: Accepted client: /10.0.0.6:55824in MyMiddleware.run()
LOG: Accepted client: /10.0.0.6:55822in MyMiddleware.run()
LOG: Accepted client: /10.0.0.6:55838in MyMiddleware.run()
LOG: Accepted client: /10.0.0.6:55790in MyMiddleware.run()
LOG: Accepted client: /10.0.0.6:55840in MyMiddleware.run()
LOG: Accepted client: /10.0.0.6:55794in MyMiddleware.run()
LOG: Accepted client: /10.0.0.6:55842in MyMiddleware.run()
LOG: Accepted client: /10.0.0.6:55810in MyMiddleware.run()
LOG: Accepted client: /10.0.0.6:55804in MyMiddleware.run()
LOG: Accepted client: /10.0.0.6:55808in MyMiddleware.run()
LOG: Accepted client: /10.0.0.6:55812in MyMiddleware.run()
LOG: Accepted client: /10.0.0.6:55830in MyMiddleware.run()
LOG: Accepted client: /10.0.0.6:55802in MyMiddleware.run()
LOG: Accepted client: /10.0.0.6:55818in MyMiddleware.run()
LOG: Accepted client: /10.0.0.6:55844in MyMiddleware.run()
LOG: Accepted client: /10.0.0.6:55832in MyMiddleware.run()
LOG: Accepted client: /10.0.0.6:55834in MyMiddleware.run()
LOG: Accepted client: /10.0.0.6:55836in MyMiddleware.run()
LOG: Closed client: /10.0.0.11:44868in MyMiddleware.run()
LOG: Closed client: /10.0.0.11:44840in MyMiddleware.run()
LOG: Closed client: /10.0.0.11:44830in MyMiddleware.run()
LOG: Closed client: /10.0.0.11:44842in MyMiddleware.run()
LOG: Closed client: /10.0.0.11:44846in MyMiddleware.run()
LOG: Closed client: /10.0.0.11:44884in MyMiddleware.run()
LOG: Closed client: /10.0.0.11:44888in MyMiddleware.run()
LOG: Closed client: /10.0.0.11:44872in MyMiddleware.run()
LOG: Closed client: /10.0.0.11:44858in MyMiddleware.run()
LOG: Closed client: /10.0.0.11:44880in MyMiddleware.run()
LOG: Closed client: /10.0.0.11:44838in MyMiddleware.run()
LOG: Closed client: /10.0.0.11:44832in MyMiddleware.run()
LOG: Closed client: /10.0.0.11:44850in MyMiddleware.run()
LOG: Closed client: /10.0.0.11:44874in MyMiddleware.run()
LOG: Closed client: /10.0.0.11:44854in MyMiddleware.run()
LOG: Closed client: /10.0.0.11:44878in MyMiddleware.run()
LOG: Closed client: /10.0.0.11:44866in MyMiddleware.run()
LOG: Closed client: /10.0.0.11:44862in MyMiddleware.run()
LOG: Closed client: /10.0.0.11:44882in MyMiddleware.run()
LOG: Closed client: /10.0.0.11:44856in MyMiddleware.run()
LOG: Closed client: /10.0.0.11:44890in MyMiddleware.run()
LOG: Closed client: /10.0.0.11:44870in MyMiddleware.run()
LOG: Closed client: /10.0.0.11:44852in MyMiddleware.run()
LOG: Closed client: /10.0.0.11:44844in MyMiddleware.run()
LOG: Closed client: /10.0.0.11:44864in MyMiddleware.run()
LOG: Closed client: /10.0.0.11:44834in MyMiddleware.run()
LOG: Closed client: /10.0.0.11:44836in MyMiddleware.run()
LOG: Closed client: /10.0.0.11:44848in MyMiddleware.run()
LOG: Closed client: /10.0.0.11:44886in MyMiddleware.run()
LOG: Closed client: /10.0.0.11:44828in MyMiddleware.run()
LOG: Closed client: /10.0.0.11:44876in MyMiddleware.run()
LOG: Closed client: /10.0.0.11:44860in MyMiddleware.run()
LOG: Closed client: /10.0.0.7:45600in MyMiddleware.run()
LOG: Closed client: /10.0.0.7:45614in MyMiddleware.run()
LOG: Closed client: /10.0.0.7:45620in MyMiddleware.run()
LOG: Closed client: /10.0.0.7:45582in MyMiddleware.run()
LOG: Closed client: /10.0.0.7:45592in MyMiddleware.run()
LOG: Closed client: /10.0.0.7:45612in MyMiddleware.run()
LOG: Closed client: /10.0.0.7:45602in MyMiddleware.run()
LOG: Closed client: /10.0.0.7:45598in MyMiddleware.run()
LOG: Closed client: /10.0.0.7:45580in MyMiddleware.run()
LOG: Closed client: /10.0.0.7:45588in MyMiddleware.run()
LOG: Closed client: /10.0.0.7:45626in MyMiddleware.run()
LOG: Closed client: /10.0.0.7:45604in MyMiddleware.run()
LOG: Closed client: /10.0.0.7:45622in MyMiddleware.run()
LOG: Closed client: /10.0.0.7:45610in MyMiddleware.run()
LOG: Closed client: /10.0.0.7:45586in MyMiddleware.run()
LOG: Closed client: /10.0.0.7:45590in MyMiddleware.run()
LOG: Closed client: /10.0.0.7:45608in MyMiddleware.run()
LOG: Closed client: /10.0.0.7:45594in MyMiddleware.run()
LOG: Closed client: /10.0.0.7:45576in MyMiddleware.run()
LOG: Closed client: /10.0.0.7:45630in MyMiddleware.run()
LOG: Closed client: /10.0.0.7:45606in MyMiddleware.run()
LOG: Closed client: /10.0.0.7:45624in MyMiddleware.run()
LOG: Closed client: /10.0.0.7:45618in MyMiddleware.run()
LOG: Closed client: /10.0.0.7:45578in MyMiddleware.run()
LOG: Closed client: /10.0.0.7:45596in MyMiddleware.run()
LOG: Closed client: /10.0.0.7:45584in MyMiddleware.run()
LOG: Closed client: /10.0.0.7:45616in MyMiddleware.run()
LOG: Closed client: /10.0.0.7:45628in MyMiddleware.run()
LOG: Closed client: /10.0.0.7:45632in MyMiddleware.run()
LOG: Closed client: /10.0.0.7:45634in MyMiddleware.run()
LOG: Closed client: /10.0.0.7:45638in MyMiddleware.run()
LOG: Closed client: /10.0.0.7:45636in MyMiddleware.run()
LOG: Closed client: /10.0.0.6:55784in MyMiddleware.run()
LOG: Closed client: /10.0.0.6:55804in MyMiddleware.run()
LOG: Closed client: /10.0.0.6:55782in MyMiddleware.run()
LOG: Closed client: /10.0.0.6:55806in MyMiddleware.run()
LOG: Closed client: /10.0.0.6:55808in MyMiddleware.run()
LOG: Closed client: /10.0.0.6:55788in MyMiddleware.run()
LOG: Closed client: /10.0.0.6:55786in MyMiddleware.run()
LOG: Closed client: /10.0.0.6:55794in MyMiddleware.run()
LOG: Closed client: /10.0.0.6:55792in MyMiddleware.run()
LOG: Closed client: /10.0.0.6:55790in MyMiddleware.run()
LOG: Closed client: /10.0.0.6:55810in MyMiddleware.run()
LOG: Closed client: /10.0.0.6:55798in MyMiddleware.run()
LOG: Closed client: /10.0.0.6:55812in MyMiddleware.run()
LOG: Closed client: /10.0.0.6:55800in MyMiddleware.run()
LOG: Closed client: /10.0.0.6:55802in MyMiddleware.run()
LOG: Closed client: /10.0.0.6:55796in MyMiddleware.run()
LOG: Closed client: /10.0.0.6:55816in MyMiddleware.run()
LOG: Closed client: /10.0.0.6:55824in MyMiddleware.run()
LOG: Closed client: /10.0.0.6:55818in MyMiddleware.run()
LOG: Closed client: /10.0.0.6:55822in MyMiddleware.run()
LOG: Closed client: /10.0.0.6:55826in MyMiddleware.run()
LOG: Closed client: /10.0.0.6:55814in MyMiddleware.run()
LOG: Closed client: /10.0.0.6:55820in MyMiddleware.run()
LOG: Closed client: /10.0.0.6:55832in MyMiddleware.run()
LOG: Closed client: /10.0.0.6:55828in MyMiddleware.run()
LOG: Closed client: /10.0.0.6:55834in MyMiddleware.run()
LOG: Closed client: /10.0.0.6:55830in MyMiddleware.run()
LOG: Closed client: /10.0.0.6:55836in MyMiddleware.run()
LOG: Closed client: /10.0.0.6:55838in MyMiddleware.run()
LOG: Closed client: /10.0.0.6:55844in MyMiddleware.run()
LOG: Closed client: /10.0.0.6:55840in MyMiddleware.run()
LOG: Closed client: /10.0.0.6:55842in MyMiddleware.run()
