------------Middleware started!------------
LOG: Waiting for connection in MyMiddleware.run()
LOG: Accepted client: /10.0.0.6:34164in MyMiddleware.run()
LOG: Accepted client: /10.0.0.6:34168in MyMiddleware.run()
LOG: Accepted client: /10.0.0.6:34172in MyMiddleware.run()
LOG: Accepted client: /10.0.0.6:34162in MyMiddleware.run()
LOG: Accepted client: /10.0.0.6:34174in MyMiddleware.run()
LOG: Accepted client: /10.0.0.6:34160in MyMiddleware.run()
LOG: Accepted client: /10.0.0.6:34170in MyMiddleware.run()
LOG: Accepted client: /10.0.0.6:34166in MyMiddleware.run()
LOG: Accepted client: /10.0.0.11:51452in MyMiddleware.run()
LOG: Accepted client: /10.0.0.11:51438in MyMiddleware.run()
LOG: Accepted client: /10.0.0.11:51442in MyMiddleware.run()
LOG: Accepted client: /10.0.0.11:51440in MyMiddleware.run()
LOG: Accepted client: /10.0.0.11:51446in MyMiddleware.run()
LOG: Accepted client: /10.0.0.11:51450in MyMiddleware.run()
LOG: Accepted client: /10.0.0.11:51448in MyMiddleware.run()
LOG: Accepted client: /10.0.0.11:51444in MyMiddleware.run()
LOG: Accepted client: /10.0.0.7:52180in MyMiddleware.run()
LOG: Accepted client: /10.0.0.7:52192in MyMiddleware.run()
LOG: Accepted client: /10.0.0.7:52178in MyMiddleware.run()
LOG: Accepted client: /10.0.0.7:52182in MyMiddleware.run()
LOG: Accepted client: /10.0.0.7:52184in MyMiddleware.run()
LOG: Accepted client: /10.0.0.7:52186in MyMiddleware.run()
LOG: Accepted client: /10.0.0.7:52188in MyMiddleware.run()
LOG: Accepted client: /10.0.0.7:52190in MyMiddleware.run()
LOG: Closed client: /10.0.0.6:34166in MyMiddleware.run()
LOG: Closed client: /10.0.0.6:34160in MyMiddleware.run()
LOG: Closed client: /10.0.0.6:34164in MyMiddleware.run()
LOG: Closed client: /10.0.0.6:34162in MyMiddleware.run()
LOG: Closed client: /10.0.0.6:34168in MyMiddleware.run()
LOG: Closed client: /10.0.0.6:34174in MyMiddleware.run()
LOG: Closed client: /10.0.0.6:34172in MyMiddleware.run()
LOG: Closed client: /10.0.0.6:34170in MyMiddleware.run()
LOG: Closed client: /10.0.0.11:51440in MyMiddleware.run()
LOG: Closed client: /10.0.0.11:51438in MyMiddleware.run()
LOG: Closed client: /10.0.0.11:51442in MyMiddleware.run()
LOG: Closed client: /10.0.0.11:51444in MyMiddleware.run()
LOG: Closed client: /10.0.0.11:51448in MyMiddleware.run()
LOG: Closed client: /10.0.0.11:51446in MyMiddleware.run()
LOG: Closed client: /10.0.0.11:51450in MyMiddleware.run()
LOG: Closed client: /10.0.0.11:51452in MyMiddleware.run()
LOG: Closed client: /10.0.0.7:52178in MyMiddleware.run()
LOG: Closed client: /10.0.0.7:52182in MyMiddleware.run()
LOG: Closed client: /10.0.0.7:52180in MyMiddleware.run()
LOG: Closed client: /10.0.0.7:52184in MyMiddleware.run()
LOG: Closed client: /10.0.0.7:52186in MyMiddleware.run()
LOG: Closed client: /10.0.0.7:52188in MyMiddleware.run()
LOG: Closed client: /10.0.0.7:52190in MyMiddleware.run()
LOG: Closed client: /10.0.0.7:52192in MyMiddleware.run()
