------------Middleware started!------------
LOG: Waiting for connection in MyMiddleware.run()
LOG: Accepted client: /10.0.0.6:33910in MyMiddleware.run()
LOG: Accepted client: /10.0.0.6:33902in MyMiddleware.run()
LOG: Accepted client: /10.0.0.6:33908in MyMiddleware.run()
LOG: Accepted client: /10.0.0.6:33904in MyMiddleware.run()
LOG: Accepted client: /10.0.0.6:33912in MyMiddleware.run()
LOG: Accepted client: /10.0.0.6:33906in MyMiddleware.run()
LOG: Accepted client: /10.0.0.6:33914in MyMiddleware.run()
LOG: Accepted client: /10.0.0.6:33916in MyMiddleware.run()
LOG: Accepted client: /10.0.0.7:51926in MyMiddleware.run()
LOG: Accepted client: /10.0.0.7:51928in MyMiddleware.run()
LOG: Accepted client: /10.0.0.7:51924in MyMiddleware.run()
LOG: Accepted client: /10.0.0.7:51930in MyMiddleware.run()
LOG: Accepted client: /10.0.0.11:51196in MyMiddleware.run()
LOG: Accepted client: /10.0.0.11:51198in MyMiddleware.run()
LOG: Accepted client: /10.0.0.11:51188in MyMiddleware.run()
LOG: Accepted client: /10.0.0.11:51190in MyMiddleware.run()
LOG: Accepted client: /10.0.0.11:51186in MyMiddleware.run()
LOG: Accepted client: /10.0.0.11:51192in MyMiddleware.run()
LOG: Accepted client: /10.0.0.11:51200in MyMiddleware.run()
LOG: Accepted client: /10.0.0.11:51194in MyMiddleware.run()
LOG: Accepted client: /10.0.0.7:51934in MyMiddleware.run()
LOG: Accepted client: /10.0.0.7:51932in MyMiddleware.run()
LOG: Accepted client: /10.0.0.7:51922in MyMiddleware.run()
LOG: Accepted client: /10.0.0.7:51920in MyMiddleware.run()
LOG: Closed client: /10.0.0.6:33908in MyMiddleware.run()
LOG: Closed client: /10.0.0.6:33902in MyMiddleware.run()
LOG: Closed client: /10.0.0.6:33916in MyMiddleware.run()
LOG: Closed client: /10.0.0.6:33904in MyMiddleware.run()
LOG: Closed client: /10.0.0.6:33914in MyMiddleware.run()
LOG: Closed client: /10.0.0.6:33910in MyMiddleware.run()
LOG: Closed client: /10.0.0.6:33912in MyMiddleware.run()
LOG: Closed client: /10.0.0.6:33906in MyMiddleware.run()
LOG: Closed client: /10.0.0.11:51194in MyMiddleware.run()
LOG: Closed client: /10.0.0.11:51196in MyMiddleware.run()
LOG: Closed client: /10.0.0.11:51188in MyMiddleware.run()
LOG: Closed client: /10.0.0.11:51186in MyMiddleware.run()
LOG: Closed client: /10.0.0.11:51198in MyMiddleware.run()
LOG: Closed client: /10.0.0.11:51192in MyMiddleware.run()
LOG: Closed client: /10.0.0.11:51190in MyMiddleware.run()
LOG: Closed client: /10.0.0.11:51200in MyMiddleware.run()
LOG: Closed client: /10.0.0.7:51926in MyMiddleware.run()
LOG: Closed client: /10.0.0.7:51930in MyMiddleware.run()
LOG: Closed client: /10.0.0.7:51928in MyMiddleware.run()
LOG: Closed client: /10.0.0.7:51924in MyMiddleware.run()
LOG: Closed client: /10.0.0.7:51934in MyMiddleware.run()
LOG: Closed client: /10.0.0.7:51922in MyMiddleware.run()
LOG: Closed client: /10.0.0.7:51932in MyMiddleware.run()
LOG: Closed client: /10.0.0.7:51920in MyMiddleware.run()
