------------Middleware started!------------
LOG: Waiting for connection in MyMiddleware.run()
LOG: Accepted client: /10.0.0.11:50390in MyMiddleware.run()
LOG: Accepted client: /10.0.0.6:33074in MyMiddleware.run()
LOG: Accepted client: /10.0.0.11:50382in MyMiddleware.run()
LOG: Accepted client: /10.0.0.11:50384in MyMiddleware.run()
LOG: Accepted client: /10.0.0.11:50434in MyMiddleware.run()
LOG: Accepted client: /10.0.0.6:33152in MyMiddleware.run()
LOG: Accepted client: /10.0.0.11:50472in MyMiddleware.run()
LOG: Accepted client: /10.0.0.11:50358in MyMiddleware.run()
LOG: Accepted client: /10.0.0.11:50352in MyMiddleware.run()
LOG: Accepted client: /10.0.0.6:33086in MyMiddleware.run()
LOG: Accepted client: /10.0.0.11:50348in MyMiddleware.run()
LOG: Accepted client: /10.0.0.6:33134in MyMiddleware.run()
LOG: Accepted client: /10.0.0.11:50402in MyMiddleware.run()
LOG: Accepted client: /10.0.0.6:33062in MyMiddleware.run()
LOG: Accepted client: /10.0.0.11:50372in MyMiddleware.run()
LOG: Accepted client: /10.0.0.6:33110in MyMiddleware.run()
LOG: Accepted client: /10.0.0.6:33068in MyMiddleware.run()
LOG: Accepted client: /10.0.0.6:33066in MyMiddleware.run()
LOG: Accepted client: /10.0.0.11:50360in MyMiddleware.run()
LOG: Accepted client: /10.0.0.11:50406in MyMiddleware.run()
LOG: Accepted client: /10.0.0.6:33076in MyMiddleware.run()
LOG: Accepted client: /10.0.0.6:33106in MyMiddleware.run()
LOG: Accepted client: /10.0.0.11:50380in MyMiddleware.run()
LOG: Accepted client: /10.0.0.11:50356in MyMiddleware.run()
LOG: Accepted client: /10.0.0.6:33170in MyMiddleware.run()
LOG: Accepted client: /10.0.0.11:50410in MyMiddleware.run()
LOG: Accepted client: /10.0.0.11:50424in MyMiddleware.run()
LOG: Accepted client: /10.0.0.11:50456in MyMiddleware.run()
LOG: Accepted client: /10.0.0.11:50370in MyMiddleware.run()
LOG: Accepted client: /10.0.0.6:33174in MyMiddleware.run()
LOG: Accepted client: /10.0.0.6:33098in MyMiddleware.run()
LOG: Accepted client: /10.0.0.11:50420in MyMiddleware.run()
LOG: Accepted client: /10.0.0.11:50416in MyMiddleware.run()
LOG: Accepted client: /10.0.0.11:50436in MyMiddleware.run()
LOG: Accepted client: /10.0.0.11:50432in MyMiddleware.run()
LOG: Accepted client: /10.0.0.6:33168in MyMiddleware.run()
LOG: Accepted client: /10.0.0.6:33096in MyMiddleware.run()
LOG: Accepted client: /10.0.0.6:33162in MyMiddleware.run()
LOG: Accepted client: /10.0.0.6:33102in MyMiddleware.run()
LOG: Accepted client: /10.0.0.6:33132in MyMiddleware.run()
LOG: Accepted client: /10.0.0.11:50386in MyMiddleware.run()
LOG: Accepted client: /10.0.0.6:33164in MyMiddleware.run()
LOG: Accepted client: /10.0.0.6:33140in MyMiddleware.run()
LOG: Accepted client: /10.0.0.6:33128in MyMiddleware.run()
LOG: Accepted client: /10.0.0.11:50438in MyMiddleware.run()
LOG: Accepted client: /10.0.0.11:50378in MyMiddleware.run()
LOG: Accepted client: /10.0.0.11:50412in MyMiddleware.run()
LOG: Accepted client: /10.0.0.11:50388in MyMiddleware.run()
LOG: Accepted client: /10.0.0.11:50466in MyMiddleware.run()
LOG: Accepted client: /10.0.0.6:33172in MyMiddleware.run()
LOG: Accepted client: /10.0.0.6:33130in MyMiddleware.run()
LOG: Accepted client: /10.0.0.6:33070in MyMiddleware.run()
LOG: Accepted client: /10.0.0.6:33104in MyMiddleware.run()
LOG: Accepted client: /10.0.0.11:50458in MyMiddleware.run()
LOG: Accepted client: /10.0.0.6:33142in MyMiddleware.run()
LOG: Accepted client: /10.0.0.11:50414in MyMiddleware.run()
LOG: Accepted client: /10.0.0.11:50468in MyMiddleware.run()
LOG: Accepted client: /10.0.0.7:51098in MyMiddleware.run()
LOG: Accepted client: /10.0.0.7:51138in MyMiddleware.run()
LOG: Accepted client: /10.0.0.7:51090in MyMiddleware.run()
LOG: Accepted client: /10.0.0.7:51182in MyMiddleware.run()
LOG: Accepted client: /10.0.0.7:51096in MyMiddleware.run()
LOG: Accepted client: /10.0.0.7:51088in MyMiddleware.run()
LOG: Accepted client: /10.0.0.7:51214in MyMiddleware.run()
LOG: Accepted client: /10.0.0.6:33100in MyMiddleware.run()
LOG: Accepted client: /10.0.0.6:33080in MyMiddleware.run()
LOG: Accepted client: /10.0.0.6:33082in MyMiddleware.run()
LOG: Accepted client: /10.0.0.6:33108in MyMiddleware.run()
LOG: Accepted client: /10.0.0.6:33084in MyMiddleware.run()
LOG: Accepted client: /10.0.0.11:50422in MyMiddleware.run()
LOG: Accepted client: /10.0.0.11:50460in MyMiddleware.run()
LOG: Accepted client: /10.0.0.11:50346in MyMiddleware.run()
LOG: Accepted client: /10.0.0.11:50470in MyMiddleware.run()
LOG: Accepted client: /10.0.0.11:50462in MyMiddleware.run()
LOG: Accepted client: /10.0.0.7:51124in MyMiddleware.run()
LOG: Accepted client: /10.0.0.7:51154in MyMiddleware.run()
LOG: Accepted client: /10.0.0.7:51110in MyMiddleware.run()
LOG: Accepted client: /10.0.0.7:51104in MyMiddleware.run()
LOG: Accepted client: /10.0.0.7:51106in MyMiddleware.run()
LOG: Accepted client: /10.0.0.7:51108in MyMiddleware.run()
LOG: Accepted client: /10.0.0.7:51132in MyMiddleware.run()
LOG: Accepted client: /10.0.0.7:51144in MyMiddleware.run()
LOG: Accepted client: /10.0.0.7:51134in MyMiddleware.run()
LOG: Accepted client: /10.0.0.7:51146in MyMiddleware.run()
LOG: Accepted client: /10.0.0.6:33166in MyMiddleware.run()
LOG: Accepted client: /10.0.0.6:33136in MyMiddleware.run()
LOG: Accepted client: /10.0.0.6:33154in MyMiddleware.run()
LOG: Accepted client: /10.0.0.6:33138in MyMiddleware.run()
LOG: Accepted client: /10.0.0.11:50376in MyMiddleware.run()
LOG: Accepted client: /10.0.0.11:50364in MyMiddleware.run()
LOG: Accepted client: /10.0.0.11:50366in MyMiddleware.run()
LOG: Accepted client: /10.0.0.11:50362in MyMiddleware.run()
LOG: Accepted client: /10.0.0.11:50408in MyMiddleware.run()
LOG: Accepted client: /10.0.0.7:51150in MyMiddleware.run()
LOG: Accepted client: /10.0.0.7:51128in MyMiddleware.run()
LOG: Accepted client: /10.0.0.7:51092in MyMiddleware.run()
LOG: Accepted client: /10.0.0.7:51148in MyMiddleware.run()
LOG: Accepted client: /10.0.0.7:51130in MyMiddleware.run()
LOG: Accepted client: /10.0.0.7:51094in MyMiddleware.run()
LOG: Accepted client: /10.0.0.7:51164in MyMiddleware.run()
LOG: Accepted client: /10.0.0.7:51190in MyMiddleware.run()
LOG: Accepted client: /10.0.0.7:51158in MyMiddleware.run()
LOG: Accepted client: /10.0.0.7:51184in MyMiddleware.run()
LOG: Accepted client: /10.0.0.7:51206in MyMiddleware.run()
LOG: Accepted client: /10.0.0.7:51188in MyMiddleware.run()
LOG: Accepted client: /10.0.0.7:51186in MyMiddleware.run()
LOG: Accepted client: /10.0.0.7:51202in MyMiddleware.run()
LOG: Accepted client: /10.0.0.7:51156in MyMiddleware.run()
LOG: Accepted client: /10.0.0.6:33094in MyMiddleware.run()
LOG: Accepted client: /10.0.0.6:33124in MyMiddleware.run()
LOG: Accepted client: /10.0.0.6:33112in MyMiddleware.run()
LOG: Accepted client: /10.0.0.6:33116in MyMiddleware.run()
LOG: Accepted client: /10.0.0.6:33072in MyMiddleware.run()
LOG: Accepted client: /10.0.0.6:33126in MyMiddleware.run()
LOG: Accepted client: /10.0.0.6:33064in MyMiddleware.run()
LOG: Accepted client: /10.0.0.6:33092in MyMiddleware.run()
LOG: Accepted client: /10.0.0.6:33186in MyMiddleware.run()
LOG: Accepted client: /10.0.0.6:33178in MyMiddleware.run()
LOG: Accepted client: /10.0.0.6:33146in MyMiddleware.run()
LOG: Accepted client: /10.0.0.6:33180in MyMiddleware.run()
LOG: Accepted client: /10.0.0.6:33118in MyMiddleware.run()
LOG: Accepted client: /10.0.0.6:33176in MyMiddleware.run()
LOG: Accepted client: /10.0.0.6:33144in MyMiddleware.run()
LOG: Accepted client: /10.0.0.6:33114in MyMiddleware.run()
LOG: Accepted client: /10.0.0.6:33182in MyMiddleware.run()
LOG: Accepted client: /10.0.0.6:33184in MyMiddleware.run()
LOG: Accepted client: /10.0.0.11:50452in MyMiddleware.run()
LOG: Accepted client: /10.0.0.11:50442in MyMiddleware.run()
LOG: Accepted client: /10.0.0.11:50454in MyMiddleware.run()
LOG: Accepted client: /10.0.0.11:50440in MyMiddleware.run()
LOG: Accepted client: /10.0.0.11:50426in MyMiddleware.run()
LOG: Accepted client: /10.0.0.6:33122in MyMiddleware.run()
LOG: Accepted client: /10.0.0.11:50446in MyMiddleware.run()
LOG: Accepted client: /10.0.0.7:51180in MyMiddleware.run()
LOG: Accepted client: /10.0.0.6:33090in MyMiddleware.run()
LOG: Accepted client: /10.0.0.6:33158in MyMiddleware.run()
LOG: Accepted client: /10.0.0.6:33078in MyMiddleware.run()
LOG: Accepted client: /10.0.0.6:33156in MyMiddleware.run()
LOG: Accepted client: /10.0.0.6:33088in MyMiddleware.run()
LOG: Accepted client: /10.0.0.11:50430in MyMiddleware.run()
LOG: Accepted client: /10.0.0.11:50428in MyMiddleware.run()
LOG: Accepted client: /10.0.0.11:50350in MyMiddleware.run()
LOG: Accepted client: /10.0.0.11:50374in MyMiddleware.run()
LOG: Accepted client: /10.0.0.11:50354in MyMiddleware.run()
LOG: Accepted client: /10.0.0.11:50396in MyMiddleware.run()
LOG: Accepted client: /10.0.0.11:50392in MyMiddleware.run()
LOG: Accepted client: /10.0.0.11:50394in MyMiddleware.run()
LOG: Accepted client: /10.0.0.11:50398in MyMiddleware.run()
LOG: Accepted client: /10.0.0.11:50404in MyMiddleware.run()
LOG: Accepted client: /10.0.0.7:51162in MyMiddleware.run()
LOG: Accepted client: /10.0.0.7:51212in MyMiddleware.run()
LOG: Accepted client: /10.0.0.6:33150in MyMiddleware.run()
LOG: Accepted client: /10.0.0.7:51160in MyMiddleware.run()
LOG: Accepted client: /10.0.0.6:33148in MyMiddleware.run()
LOG: Accepted client: /10.0.0.11:50448in MyMiddleware.run()
LOG: Accepted client: /10.0.0.7:51116in MyMiddleware.run()
LOG: Accepted client: /10.0.0.7:51114in MyMiddleware.run()
LOG: Accepted client: /10.0.0.7:51118in MyMiddleware.run()
LOG: Accepted client: /10.0.0.11:50450in MyMiddleware.run()
LOG: Accepted client: /10.0.0.7:51200in MyMiddleware.run()
LOG: Accepted client: /10.0.0.7:51174in MyMiddleware.run()
LOG: Accepted client: /10.0.0.7:51172in MyMiddleware.run()
LOG: Accepted client: /10.0.0.7:51198in MyMiddleware.run()
LOG: Accepted client: /10.0.0.7:51194in MyMiddleware.run()
LOG: Accepted client: /10.0.0.7:51192in MyMiddleware.run()
LOG: Accepted client: /10.0.0.11:50368in MyMiddleware.run()
LOG: Accepted client: /10.0.0.7:51166in MyMiddleware.run()
LOG: Accepted client: /10.0.0.7:51210in MyMiddleware.run()
LOG: Accepted client: /10.0.0.7:51208in MyMiddleware.run()
LOG: Accepted client: /10.0.0.11:50400in MyMiddleware.run()
LOG: Accepted client: /10.0.0.7:51112in MyMiddleware.run()
LOG: Accepted client: /10.0.0.7:51170in MyMiddleware.run()
LOG: Accepted client: /10.0.0.7:51168in MyMiddleware.run()
LOG: Accepted client: /10.0.0.7:51126in MyMiddleware.run()
LOG: Accepted client: /10.0.0.7:51136in MyMiddleware.run()
LOG: Accepted client: /10.0.0.7:51178in MyMiddleware.run()
LOG: Accepted client: /10.0.0.7:51152in MyMiddleware.run()
LOG: Accepted client: /10.0.0.7:51204in MyMiddleware.run()
LOG: Accepted client: /10.0.0.7:51140in MyMiddleware.run()
LOG: Accepted client: /10.0.0.7:51102in MyMiddleware.run()
LOG: Accepted client: /10.0.0.7:51100in MyMiddleware.run()
LOG: Accepted client: /10.0.0.7:51120in MyMiddleware.run()
LOG: Accepted client: /10.0.0.7:51176in MyMiddleware.run()
LOG: Accepted client: /10.0.0.7:51142in MyMiddleware.run()
LOG: Accepted client: /10.0.0.7:51122in MyMiddleware.run()
LOG: Accepted client: /10.0.0.7:51196in MyMiddleware.run()
LOG: Accepted client: /10.0.0.6:33188in MyMiddleware.run()
LOG: Accepted client: /10.0.0.6:33160in MyMiddleware.run()
LOG: Accepted client: /10.0.0.6:33120in MyMiddleware.run()
LOG: Accepted client: /10.0.0.11:50464in MyMiddleware.run()
LOG: Accepted client: /10.0.0.11:50444in MyMiddleware.run()
LOG: Accepted client: /10.0.0.11:50418in MyMiddleware.run()
LOG: Closed client: /10.0.0.6:33070in MyMiddleware.run()
LOG: Closed client: /10.0.0.6:33072in MyMiddleware.run()
LOG: Closed client: /10.0.0.6:33068in MyMiddleware.run()
LOG: Closed client: /10.0.0.6:33116in MyMiddleware.run()
LOG: Closed client: /10.0.0.6:33086in MyMiddleware.run()
LOG: Closed client: /10.0.0.6:33080in MyMiddleware.run()
LOG: Closed client: /10.0.0.6:33112in MyMiddleware.run()
LOG: Closed client: /10.0.0.6:33100in MyMiddleware.run()
LOG: Closed client: /10.0.0.6:33096in MyMiddleware.run()
LOG: Closed client: /10.0.0.6:33098in MyMiddleware.run()
LOG: Closed client: /10.0.0.6:33094in MyMiddleware.run()
LOG: Closed client: /10.0.0.6:33092in MyMiddleware.run()
LOG: Closed client: /10.0.0.6:33102in MyMiddleware.run()
LOG: Closed client: /10.0.0.6:33062in MyMiddleware.run()
LOG: Closed client: /10.0.0.6:33108in MyMiddleware.run()
LOG: Closed client: /10.0.0.6:33074in MyMiddleware.run()
LOG: Closed client: /10.0.0.6:33084in MyMiddleware.run()
LOG: Closed client: /10.0.0.6:33104in MyMiddleware.run()
LOG: Closed client: /10.0.0.6:33066in MyMiddleware.run()
LOG: Closed client: /10.0.0.6:33082in MyMiddleware.run()
LOG: Closed client: /10.0.0.6:33078in MyMiddleware.run()
LOG: Closed client: /10.0.0.6:33076in MyMiddleware.run()
LOG: Closed client: /10.0.0.6:33090in MyMiddleware.run()
LOG: Closed client: /10.0.0.6:33064in MyMiddleware.run()
LOG: Closed client: /10.0.0.6:33114in MyMiddleware.run()
LOG: Closed client: /10.0.0.6:33110in MyMiddleware.run()
LOG: Closed client: /10.0.0.6:33088in MyMiddleware.run()
LOG: Closed client: /10.0.0.6:33106in MyMiddleware.run()
LOG: Closed client: /10.0.0.6:33130in MyMiddleware.run()
LOG: Closed client: /10.0.0.6:33150in MyMiddleware.run()
LOG: Closed client: /10.0.0.6:33146in MyMiddleware.run()
LOG: Closed client: /10.0.0.6:33118in MyMiddleware.run()
LOG: Closed client: /10.0.0.6:33136in MyMiddleware.run()
LOG: Closed client: /10.0.0.6:33122in MyMiddleware.run()
LOG: Closed client: /10.0.0.6:33144in MyMiddleware.run()
LOG: Closed client: /10.0.0.6:33120in MyMiddleware.run()
LOG: Closed client: /10.0.0.6:33142in MyMiddleware.run()
LOG: Closed client: /10.0.0.6:33126in MyMiddleware.run()
LOG: Closed client: /10.0.0.6:33138in MyMiddleware.run()
LOG: Closed client: /10.0.0.6:33134in MyMiddleware.run()
LOG: Closed client: /10.0.0.6:33124in MyMiddleware.run()
LOG: Closed client: /10.0.0.6:33140in MyMiddleware.run()
LOG: Closed client: /10.0.0.6:33132in MyMiddleware.run()
LOG: Closed client: /10.0.0.6:33148in MyMiddleware.run()
LOG: Closed client: /10.0.0.6:33128in MyMiddleware.run()
LOG: Closed client: /10.0.0.6:33154in MyMiddleware.run()
LOG: Closed client: /10.0.0.6:33162in MyMiddleware.run()
LOG: Closed client: /10.0.0.6:33172in MyMiddleware.run()
LOG: Closed client: /10.0.0.6:33164in MyMiddleware.run()
LOG: Closed client: /10.0.0.6:33160in MyMiddleware.run()
LOG: Closed client: /10.0.0.6:33158in MyMiddleware.run()
LOG: Closed client: /10.0.0.6:33168in MyMiddleware.run()
LOG: Closed client: /10.0.0.6:33170in MyMiddleware.run()
LOG: Closed client: /10.0.0.6:33156in MyMiddleware.run()
LOG: Closed client: /10.0.0.6:33152in MyMiddleware.run()
LOG: Closed client: /10.0.0.6:33174in MyMiddleware.run()
LOG: Closed client: /10.0.0.6:33166in MyMiddleware.run()
LOG: Closed client: /10.0.0.6:33186in MyMiddleware.run()
LOG: Closed client: /10.0.0.6:33188in MyMiddleware.run()
LOG: Closed client: /10.0.0.6:33176in MyMiddleware.run()
LOG: Closed client: /10.0.0.6:33178in MyMiddleware.run()
LOG: Closed client: /10.0.0.6:33182in MyMiddleware.run()
LOG: Closed client: /10.0.0.6:33184in MyMiddleware.run()
LOG: Closed client: /10.0.0.6:33180in MyMiddleware.run()
LOG: Closed client: /10.0.0.7:51108in MyMiddleware.run()
LOG: Closed client: /10.0.0.7:51152in MyMiddleware.run()
LOG: Closed client: /10.0.0.7:51116in MyMiddleware.run()
LOG: Closed client: /10.0.0.7:51104in MyMiddleware.run()
LOG: Closed client: /10.0.0.7:51106in MyMiddleware.run()
LOG: Closed client: /10.0.0.7:51162in MyMiddleware.run()
LOG: Closed client: /10.0.0.7:51158in MyMiddleware.run()
LOG: Closed client: /10.0.0.7:51110in MyMiddleware.run()
LOG: Closed client: /10.0.0.7:51118in MyMiddleware.run()
LOG: Closed client: /10.0.0.7:51168in MyMiddleware.run()
LOG: Closed client: /10.0.0.7:51140in MyMiddleware.run()
LOG: Closed client: /10.0.0.7:51114in MyMiddleware.run()
LOG: Closed client: /10.0.0.7:51154in MyMiddleware.run()
LOG: Closed client: /10.0.0.7:51210in MyMiddleware.run()
LOG: Closed client: /10.0.0.7:51150in MyMiddleware.run()
LOG: Closed client: /10.0.0.7:51176in MyMiddleware.run()
LOG: Closed client: /10.0.0.7:51156in MyMiddleware.run()
LOG: Closed client: /10.0.0.7:51190in MyMiddleware.run()
LOG: Closed client: /10.0.0.7:51126in MyMiddleware.run()
LOG: Closed client: /10.0.0.7:51146in MyMiddleware.run()
LOG: Closed client: /10.0.0.7:51144in MyMiddleware.run()
LOG: Closed client: /10.0.0.7:51208in MyMiddleware.run()
LOG: Closed client: /10.0.0.7:51100in MyMiddleware.run()
LOG: Closed client: /10.0.0.7:51212in MyMiddleware.run()
LOG: Closed client: /10.0.0.7:51132in MyMiddleware.run()
LOG: Closed client: /10.0.0.7:51130in MyMiddleware.run()
LOG: Closed client: /10.0.0.7:51184in MyMiddleware.run()
LOG: Closed client: /10.0.0.7:51204in MyMiddleware.run()
LOG: Closed client: /10.0.0.7:51128in MyMiddleware.run()
LOG: Closed client: /10.0.0.7:51094in MyMiddleware.run()
LOG: Closed client: /10.0.0.7:51166in MyMiddleware.run()
LOG: Closed client: /10.0.0.7:51214in MyMiddleware.run()
LOG: Closed client: /10.0.0.7:51192in MyMiddleware.run()
LOG: Closed client: /10.0.0.7:51096in MyMiddleware.run()
LOG: Closed client: /10.0.0.7:51202in MyMiddleware.run()
LOG: Closed client: /10.0.0.7:51200in MyMiddleware.run()
LOG: Closed client: /10.0.0.7:51142in MyMiddleware.run()
LOG: Closed client: /10.0.0.7:51090in MyMiddleware.run()
LOG: Closed client: /10.0.0.7:51206in MyMiddleware.run()
LOG: Closed client: /10.0.0.7:51112in MyMiddleware.run()
LOG: Closed client: /10.0.0.7:51088in MyMiddleware.run()
LOG: Closed client: /10.0.0.7:51124in MyMiddleware.run()
LOG: Closed client: /10.0.0.7:51174in MyMiddleware.run()
LOG: Closed client: /10.0.0.7:51160in MyMiddleware.run()
LOG: Closed client: /10.0.0.7:51148in MyMiddleware.run()
LOG: Closed client: /10.0.0.7:51196in MyMiddleware.run()
LOG: Closed client: /10.0.0.7:51102in MyMiddleware.run()
LOG: Closed client: /10.0.0.7:51098in MyMiddleware.run()
LOG: Closed client: /10.0.0.7:51092in MyMiddleware.run()
LOG: Closed client: /10.0.0.7:51178in MyMiddleware.run()
LOG: Closed client: /10.0.0.7:51120in MyMiddleware.run()
LOG: Closed client: /10.0.0.7:51134in MyMiddleware.run()
LOG: Closed client: /10.0.0.7:51136in MyMiddleware.run()
LOG: Closed client: /10.0.0.7:51182in MyMiddleware.run()
LOG: Closed client: /10.0.0.7:51186in MyMiddleware.run()
LOG: Closed client: /10.0.0.7:51180in MyMiddleware.run()
LOG: Closed client: /10.0.0.7:51170in MyMiddleware.run()
LOG: Closed client: /10.0.0.7:51122in MyMiddleware.run()
LOG: Closed client: /10.0.0.7:51138in MyMiddleware.run()
LOG: Closed client: /10.0.0.7:51198in MyMiddleware.run()
LOG: Closed client: /10.0.0.7:51172in MyMiddleware.run()
LOG: Closed client: /10.0.0.7:51194in MyMiddleware.run()
LOG: Closed client: /10.0.0.7:51188in MyMiddleware.run()
LOG: Closed client: /10.0.0.7:51164in MyMiddleware.run()
LOG: Closed client: /10.0.0.11:50366in MyMiddleware.run()
LOG: Closed client: /10.0.0.11:50350in MyMiddleware.run()
LOG: Closed client: /10.0.0.11:50364in MyMiddleware.run()
LOG: Closed client: /10.0.0.11:50380in MyMiddleware.run()
LOG: Closed client: /10.0.0.11:50362in MyMiddleware.run()
LOG: Closed client: /10.0.0.11:50348in MyMiddleware.run()
LOG: Closed client: /10.0.0.11:50378in MyMiddleware.run()
LOG: Closed client: /10.0.0.11:50376in MyMiddleware.run()
LOG: Closed client: /10.0.0.11:50394in MyMiddleware.run()
LOG: Closed client: /10.0.0.11:50384in MyMiddleware.run()
LOG: Closed client: /10.0.0.11:50356in MyMiddleware.run()
LOG: Closed client: /10.0.0.11:50360in MyMiddleware.run()
LOG: Closed client: /10.0.0.11:50386in MyMiddleware.run()
LOG: Closed client: /10.0.0.11:50370in MyMiddleware.run()
LOG: Closed client: /10.0.0.11:50354in MyMiddleware.run()
LOG: Closed client: /10.0.0.11:50388in MyMiddleware.run()
LOG: Closed client: /10.0.0.11:50346in MyMiddleware.run()
LOG: Closed client: /10.0.0.11:50382in MyMiddleware.run()
LOG: Closed client: /10.0.0.11:50368in MyMiddleware.run()
LOG: Closed client: /10.0.0.11:50398in MyMiddleware.run()
LOG: Closed client: /10.0.0.11:50390in MyMiddleware.run()
LOG: Closed client: /10.0.0.11:50358in MyMiddleware.run()
LOG: Closed client: /10.0.0.11:50392in MyMiddleware.run()
LOG: Closed client: /10.0.0.11:50400in MyMiddleware.run()
LOG: Closed client: /10.0.0.11:50352in MyMiddleware.run()
LOG: Closed client: /10.0.0.11:50374in MyMiddleware.run()
LOG: Closed client: /10.0.0.11:50414in MyMiddleware.run()
LOG: Closed client: /10.0.0.11:50412in MyMiddleware.run()
LOG: Closed client: /10.0.0.11:50372in MyMiddleware.run()
LOG: Closed client: /10.0.0.11:50410in MyMiddleware.run()
LOG: Closed client: /10.0.0.11:50402in MyMiddleware.run()
LOG: Closed client: /10.0.0.11:50408in MyMiddleware.run()
LOG: Closed client: /10.0.0.11:50406in MyMiddleware.run()
LOG: Closed client: /10.0.0.11:50418in MyMiddleware.run()
LOG: Closed client: /10.0.0.11:50396in MyMiddleware.run()
LOG: Closed client: /10.0.0.11:50404in MyMiddleware.run()
LOG: Closed client: /10.0.0.11:50426in MyMiddleware.run()
LOG: Closed client: /10.0.0.11:50420in MyMiddleware.run()
LOG: Closed client: /10.0.0.11:50424in MyMiddleware.run()
LOG: Closed client: /10.0.0.11:50432in MyMiddleware.run()
LOG: Closed client: /10.0.0.11:50428in MyMiddleware.run()
LOG: Closed client: /10.0.0.11:50430in MyMiddleware.run()
LOG: Closed client: /10.0.0.11:50434in MyMiddleware.run()
LOG: Closed client: /10.0.0.11:50454in MyMiddleware.run()
LOG: Closed client: /10.0.0.11:50442in MyMiddleware.run()
LOG: Closed client: /10.0.0.11:50464in MyMiddleware.run()
LOG: Closed client: /10.0.0.11:50436in MyMiddleware.run()
LOG: Closed client: /10.0.0.11:50458in MyMiddleware.run()
LOG: Closed client: /10.0.0.11:50450in MyMiddleware.run()
LOG: Closed client: /10.0.0.11:50444in MyMiddleware.run()
LOG: Closed client: /10.0.0.11:50448in MyMiddleware.run()
LOG: Closed client: /10.0.0.11:50438in MyMiddleware.run()
LOG: Closed client: /10.0.0.11:50422in MyMiddleware.run()
LOG: Closed client: /10.0.0.11:50462in MyMiddleware.run()
LOG: Closed client: /10.0.0.11:50440in MyMiddleware.run()
LOG: Closed client: /10.0.0.11:50452in MyMiddleware.run()
LOG: Closed client: /10.0.0.11:50468in MyMiddleware.run()
LOG: Closed client: /10.0.0.11:50456in MyMiddleware.run()
LOG: Closed client: /10.0.0.11:50472in MyMiddleware.run()
LOG: Closed client: /10.0.0.11:50416in MyMiddleware.run()
LOG: Closed client: /10.0.0.11:50466in MyMiddleware.run()
LOG: Closed client: /10.0.0.11:50460in MyMiddleware.run()
LOG: Closed client: /10.0.0.11:50446in MyMiddleware.run()
LOG: Closed client: /10.0.0.11:50470in MyMiddleware.run()
