------------Middleware started!------------
LOG: Waiting for connection in MyMiddleware.run()
LOG: Accepted client: /10.0.0.11:51402in MyMiddleware.run()
LOG: Accepted client: /10.0.0.11:51416in MyMiddleware.run()
LOG: Accepted client: /10.0.0.11:51412in MyMiddleware.run()
LOG: Accepted client: /10.0.0.11:51414in MyMiddleware.run()
LOG: Accepted client: /10.0.0.11:51404in MyMiddleware.run()
LOG: Accepted client: /10.0.0.11:51406in MyMiddleware.run()
LOG: Accepted client: /10.0.0.11:51410in MyMiddleware.run()
LOG: Accepted client: /10.0.0.11:51408in MyMiddleware.run()
LOG: Accepted client: /10.0.0.6:34126in MyMiddleware.run()
LOG: Accepted client: /10.0.0.6:34130in MyMiddleware.run()
LOG: Accepted client: /10.0.0.6:34122in MyMiddleware.run()
LOG: Accepted client: /10.0.0.6:34124in MyMiddleware.run()
LOG: Accepted client: /10.0.0.6:34128in MyMiddleware.run()
LOG: Accepted client: /10.0.0.6:34118in MyMiddleware.run()
LOG: Accepted client: /10.0.0.6:34132in MyMiddleware.run()
LOG: Accepted client: /10.0.0.6:34120in MyMiddleware.run()
LOG: Accepted client: /10.0.0.7:52136in MyMiddleware.run()
LOG: Accepted client: /10.0.0.7:52140in MyMiddleware.run()
LOG: Accepted client: /10.0.0.7:52150in MyMiddleware.run()
LOG: Accepted client: /10.0.0.7:52144in MyMiddleware.run()
LOG: Accepted client: /10.0.0.7:52148in MyMiddleware.run()
LOG: Accepted client: /10.0.0.7:52146in MyMiddleware.run()
LOG: Accepted client: /10.0.0.7:52138in MyMiddleware.run()
LOG: Accepted client: /10.0.0.7:52142in MyMiddleware.run()
LOG: Closed client: /10.0.0.6:34124in MyMiddleware.run()
LOG: Closed client: /10.0.0.6:34130in MyMiddleware.run()
LOG: Closed client: /10.0.0.6:34132in MyMiddleware.run()
LOG: Closed client: /10.0.0.6:34126in MyMiddleware.run()
LOG: Closed client: /10.0.0.6:34128in MyMiddleware.run()
LOG: Closed client: /10.0.0.6:34120in MyMiddleware.run()
LOG: Closed client: /10.0.0.6:34122in MyMiddleware.run()
LOG: Closed client: /10.0.0.6:34118in MyMiddleware.run()
LOG: Closed client: /10.0.0.11:51402in MyMiddleware.run()
LOG: Closed client: /10.0.0.11:51408in MyMiddleware.run()
LOG: Closed client: /10.0.0.11:51414in MyMiddleware.run()
LOG: Closed client: /10.0.0.11:51406in MyMiddleware.run()
LOG: Closed client: /10.0.0.11:51404in MyMiddleware.run()
LOG: Closed client: /10.0.0.11:51412in MyMiddleware.run()
LOG: Closed client: /10.0.0.11:51410in MyMiddleware.run()
LOG: Closed client: /10.0.0.11:51416in MyMiddleware.run()
LOG: Closed client: /10.0.0.7:52136in MyMiddleware.run()
LOG: Closed client: /10.0.0.7:52140in MyMiddleware.run()
LOG: Closed client: /10.0.0.7:52146in MyMiddleware.run()
LOG: Closed client: /10.0.0.7:52138in MyMiddleware.run()
LOG: Closed client: /10.0.0.7:52142in MyMiddleware.run()
LOG: Closed client: /10.0.0.7:52148in MyMiddleware.run()
LOG: Closed client: /10.0.0.7:52150in MyMiddleware.run()
LOG: Closed client: /10.0.0.7:52144in MyMiddleware.run()
