------------Middleware started!------------
LOG: Waiting for connection in MyMiddleware.run()
LOG: Accepted client: /10.0.0.11:59086in MyMiddleware.run()
LOG: Accepted client: /10.0.0.11:59144in MyMiddleware.run()
LOG: Accepted client: /10.0.0.11:59104in MyMiddleware.run()
LOG: Accepted client: /10.0.0.6:41828in MyMiddleware.run()
LOG: Accepted client: /10.0.0.6:41796in MyMiddleware.run()
LOG: Accepted client: /10.0.0.11:59124in MyMiddleware.run()
LOG: Accepted client: /10.0.0.11:59130in MyMiddleware.run()
LOG: Accepted client: /10.0.0.6:41822in MyMiddleware.run()
LOG: Accepted client: /10.0.0.6:41826in MyMiddleware.run()
LOG: Accepted client: /10.0.0.11:59088in MyMiddleware.run()
LOG: Accepted client: /10.0.0.11:59140in MyMiddleware.run()
LOG: Accepted client: /10.0.0.6:41816in MyMiddleware.run()
LOG: Accepted client: /10.0.0.11:59120in MyMiddleware.run()
LOG: Accepted client: /10.0.0.11:59106in MyMiddleware.run()
LOG: Accepted client: /10.0.0.6:41818in MyMiddleware.run()
LOG: Accepted client: /10.0.0.11:59100in MyMiddleware.run()
LOG: Accepted client: /10.0.0.6:41820in MyMiddleware.run()
LOG: Accepted client: /10.0.0.6:41852in MyMiddleware.run()
LOG: Accepted client: /10.0.0.11:59118in MyMiddleware.run()
LOG: Accepted client: /10.0.0.6:41824in MyMiddleware.run()
LOG: Accepted client: /10.0.0.11:59116in MyMiddleware.run()
LOG: Accepted client: /10.0.0.6:41854in MyMiddleware.run()
LOG: Accepted client: /10.0.0.11:59132in MyMiddleware.run()
LOG: Accepted client: /10.0.0.11:59138in MyMiddleware.run()
LOG: Accepted client: /10.0.0.11:59084in MyMiddleware.run()
LOG: Accepted client: /10.0.0.11:59082in MyMiddleware.run()
LOG: Accepted client: /10.0.0.11:59094in MyMiddleware.run()
LOG: Accepted client: /10.0.0.11:59122in MyMiddleware.run()
LOG: Accepted client: /10.0.0.11:59102in MyMiddleware.run()
LOG: Accepted client: /10.0.0.11:59108in MyMiddleware.run()
LOG: Accepted client: /10.0.0.11:59126in MyMiddleware.run()
LOG: Accepted client: /10.0.0.6:41830in MyMiddleware.run()
LOG: Accepted client: /10.0.0.11:59110in MyMiddleware.run()
LOG: Accepted client: /10.0.0.11:59136in MyMiddleware.run()
LOG: Accepted client: /10.0.0.11:59142in MyMiddleware.run()
LOG: Accepted client: /10.0.0.11:59092in MyMiddleware.run()
LOG: Accepted client: /10.0.0.11:59134in MyMiddleware.run()
LOG: Accepted client: /10.0.0.11:59128in MyMiddleware.run()
LOG: Accepted client: /10.0.0.6:41856in MyMiddleware.run()
LOG: Accepted client: /10.0.0.6:41858in MyMiddleware.run()
LOG: Accepted client: /10.0.0.6:41798in MyMiddleware.run()
LOG: Accepted client: /10.0.0.11:59096in MyMiddleware.run()
LOG: Accepted client: /10.0.0.11:59090in MyMiddleware.run()
LOG: Accepted client: /10.0.0.11:59098in MyMiddleware.run()
LOG: Accepted client: /10.0.0.6:41850in MyMiddleware.run()
LOG: Accepted client: /10.0.0.11:59112in MyMiddleware.run()
LOG: Accepted client: /10.0.0.6:41848in MyMiddleware.run()
LOG: Accepted client: /10.0.0.11:59114in MyMiddleware.run()
LOG: Accepted client: /10.0.0.6:41836in MyMiddleware.run()
LOG: Accepted client: /10.0.0.6:41844in MyMiddleware.run()
LOG: Accepted client: /10.0.0.6:41838in MyMiddleware.run()
LOG: Accepted client: /10.0.0.6:41810in MyMiddleware.run()
LOG: Accepted client: /10.0.0.6:41804in MyMiddleware.run()
LOG: Accepted client: /10.0.0.6:41808in MyMiddleware.run()
LOG: Accepted client: /10.0.0.6:41846in MyMiddleware.run()
LOG: Accepted client: /10.0.0.6:41814in MyMiddleware.run()
LOG: Accepted client: /10.0.0.6:41800in MyMiddleware.run()
LOG: Accepted client: /10.0.0.6:41840in MyMiddleware.run()
LOG: Accepted client: /10.0.0.6:41802in MyMiddleware.run()
LOG: Accepted client: /10.0.0.6:41834in MyMiddleware.run()
LOG: Accepted client: /10.0.0.6:41842in MyMiddleware.run()
LOG: Accepted client: /10.0.0.6:41832in MyMiddleware.run()
LOG: Accepted client: /10.0.0.6:41806in MyMiddleware.run()
LOG: Accepted client: /10.0.0.6:41812in MyMiddleware.run()
LOG: Accepted client: /10.0.0.7:59834in MyMiddleware.run()
LOG: Accepted client: /10.0.0.7:59828in MyMiddleware.run()
LOG: Accepted client: /10.0.0.7:59830in MyMiddleware.run()
LOG: Accepted client: /10.0.0.7:59868in MyMiddleware.run()
LOG: Accepted client: /10.0.0.7:59856in MyMiddleware.run()
LOG: Accepted client: /10.0.0.7:59860in MyMiddleware.run()
LOG: Accepted client: /10.0.0.7:59882in MyMiddleware.run()
LOG: Accepted client: /10.0.0.7:59884in MyMiddleware.run()
LOG: Accepted client: /10.0.0.7:59878in MyMiddleware.run()
LOG: Accepted client: /10.0.0.7:59880in MyMiddleware.run()
LOG: Accepted client: /10.0.0.7:59862in MyMiddleware.run()
LOG: Accepted client: /10.0.0.7:59876in MyMiddleware.run()
LOG: Accepted client: /10.0.0.7:59872in MyMiddleware.run()
LOG: Accepted client: /10.0.0.7:59858in MyMiddleware.run()
LOG: Accepted client: /10.0.0.7:59866in MyMiddleware.run()
LOG: Accepted client: /10.0.0.7:59874in MyMiddleware.run()
LOG: Accepted client: /10.0.0.7:59854in MyMiddleware.run()
LOG: Accepted client: /10.0.0.7:59864in MyMiddleware.run()
LOG: Accepted client: /10.0.0.7:59842in MyMiddleware.run()
LOG: Accepted client: /10.0.0.7:59852in MyMiddleware.run()
LOG: Accepted client: /10.0.0.7:59832in MyMiddleware.run()
LOG: Accepted client: /10.0.0.7:59838in MyMiddleware.run()
LOG: Accepted client: /10.0.0.7:59850in MyMiddleware.run()
LOG: Accepted client: /10.0.0.7:59840in MyMiddleware.run()
LOG: Accepted client: /10.0.0.7:59848in MyMiddleware.run()
LOG: Accepted client: /10.0.0.7:59836in MyMiddleware.run()
LOG: Accepted client: /10.0.0.7:59870in MyMiddleware.run()
LOG: Accepted client: /10.0.0.7:59822in MyMiddleware.run()
LOG: Accepted client: /10.0.0.7:59844in MyMiddleware.run()
LOG: Accepted client: /10.0.0.7:59826in MyMiddleware.run()
LOG: Accepted client: /10.0.0.7:59846in MyMiddleware.run()
LOG: Accepted client: /10.0.0.7:59824in MyMiddleware.run()
LOG: Closed client: /10.0.0.7:59822in MyMiddleware.run()
LOG: Closed client: /10.0.0.7:59824in MyMiddleware.run()
LOG: Closed client: /10.0.0.7:59850in MyMiddleware.run()
LOG: Closed client: /10.0.0.7:59866in MyMiddleware.run()
LOG: Closed client: /10.0.0.7:59840in MyMiddleware.run()
LOG: Closed client: /10.0.0.7:59876in MyMiddleware.run()
LOG: Closed client: /10.0.0.7:59826in MyMiddleware.run()
LOG: Closed client: /10.0.0.7:59862in MyMiddleware.run()
LOG: Closed client: /10.0.0.7:59860in MyMiddleware.run()
LOG: Closed client: /10.0.0.7:59880in MyMiddleware.run()
LOG: Closed client: /10.0.0.7:59874in MyMiddleware.run()
LOG: Closed client: /10.0.0.7:59844in MyMiddleware.run()
LOG: Closed client: /10.0.0.7:59828in MyMiddleware.run()
LOG: Closed client: /10.0.0.7:59830in MyMiddleware.run()
LOG: Closed client: /10.0.0.7:59884in MyMiddleware.run()
LOG: Closed client: /10.0.0.7:59834in MyMiddleware.run()
LOG: Closed client: /10.0.0.7:59852in MyMiddleware.run()
LOG: Closed client: /10.0.0.7:59872in MyMiddleware.run()
LOG: Closed client: /10.0.0.7:59864in MyMiddleware.run()
LOG: Closed client: /10.0.0.7:59838in MyMiddleware.run()
LOG: Closed client: /10.0.0.7:59842in MyMiddleware.run()
LOG: Closed client: /10.0.0.7:59848in MyMiddleware.run()
LOG: Closed client: /10.0.0.7:59854in MyMiddleware.run()
LOG: Closed client: /10.0.0.7:59846in MyMiddleware.run()
LOG: Closed client: /10.0.0.7:59868in MyMiddleware.run()
LOG: Closed client: /10.0.0.7:59836in MyMiddleware.run()
LOG: Closed client: /10.0.0.7:59856in MyMiddleware.run()
LOG: Closed client: /10.0.0.7:59878in MyMiddleware.run()
LOG: Closed client: /10.0.0.7:59870in MyMiddleware.run()
LOG: Closed client: /10.0.0.7:59832in MyMiddleware.run()
LOG: Closed client: /10.0.0.7:59858in MyMiddleware.run()
LOG: Closed client: /10.0.0.7:59882in MyMiddleware.run()
LOG: Closed client: /10.0.0.11:59082in MyMiddleware.run()
LOG: Closed client: /10.0.0.11:59088in MyMiddleware.run()
LOG: Closed client: /10.0.0.11:59096in MyMiddleware.run()
LOG: Closed client: /10.0.0.11:59084in MyMiddleware.run()
LOG: Closed client: /10.0.0.11:59094in MyMiddleware.run()
LOG: Closed client: /10.0.0.11:59086in MyMiddleware.run()
LOG: Closed client: /10.0.0.11:59110in MyMiddleware.run()
LOG: Closed client: /10.0.0.11:59090in MyMiddleware.run()
LOG: Closed client: /10.0.0.11:59092in MyMiddleware.run()
LOG: Closed client: /10.0.0.11:59114in MyMiddleware.run()
LOG: Closed client: /10.0.0.11:59120in MyMiddleware.run()
LOG: Closed client: /10.0.0.11:59104in MyMiddleware.run()
LOG: Closed client: /10.0.0.11:59098in MyMiddleware.run()
LOG: Closed client: /10.0.0.11:59112in MyMiddleware.run()
LOG: Closed client: /10.0.0.11:59116in MyMiddleware.run()
LOG: Closed client: /10.0.0.11:59108in MyMiddleware.run()
LOG: Closed client: /10.0.0.11:59102in MyMiddleware.run()
LOG: Closed client: /10.0.0.11:59106in MyMiddleware.run()
LOG: Closed client: /10.0.0.11:59100in MyMiddleware.run()
LOG: Closed client: /10.0.0.11:59132in MyMiddleware.run()
LOG: Closed client: /10.0.0.11:59140in MyMiddleware.run()
LOG: Closed client: /10.0.0.11:59138in MyMiddleware.run()
LOG: Closed client: /10.0.0.11:59118in MyMiddleware.run()
LOG: Closed client: /10.0.0.11:59134in MyMiddleware.run()
LOG: Closed client: /10.0.0.11:59126in MyMiddleware.run()
LOG: Closed client: /10.0.0.11:59122in MyMiddleware.run()
LOG: Closed client: /10.0.0.11:59124in MyMiddleware.run()
LOG: Closed client: /10.0.0.11:59142in MyMiddleware.run()
LOG: Closed client: /10.0.0.11:59136in MyMiddleware.run()
LOG: Closed client: /10.0.0.11:59128in MyMiddleware.run()
LOG: Closed client: /10.0.0.11:59144in MyMiddleware.run()
LOG: Closed client: /10.0.0.11:59130in MyMiddleware.run()
LOG: Closed client: /10.0.0.6:41808in MyMiddleware.run()
LOG: Closed client: /10.0.0.6:41844in MyMiddleware.run()
LOG: Closed client: /10.0.0.6:41834in MyMiddleware.run()
LOG: Closed client: /10.0.0.6:41806in MyMiddleware.run()
LOG: Closed client: /10.0.0.6:41816in MyMiddleware.run()
LOG: Closed client: /10.0.0.6:41828in MyMiddleware.run()
LOG: Closed client: /10.0.0.6:41810in MyMiddleware.run()
LOG: Closed client: /10.0.0.6:41830in MyMiddleware.run()
LOG: Closed client: /10.0.0.6:41826in MyMiddleware.run()
LOG: Closed client: /10.0.0.6:41840in MyMiddleware.run()
LOG: Closed client: /10.0.0.6:41824in MyMiddleware.run()
LOG: Closed client: /10.0.0.6:41800in MyMiddleware.run()
LOG: Closed client: /10.0.0.6:41814in MyMiddleware.run()
LOG: Closed client: /10.0.0.6:41798in MyMiddleware.run()
LOG: Closed client: /10.0.0.6:41802in MyMiddleware.run()
LOG: Closed client: /10.0.0.6:41812in MyMiddleware.run()
LOG: Closed client: /10.0.0.6:41818in MyMiddleware.run()
LOG: Closed client: /10.0.0.6:41804in MyMiddleware.run()
LOG: Closed client: /10.0.0.6:41820in MyMiddleware.run()
LOG: Closed client: /10.0.0.6:41832in MyMiddleware.run()
LOG: Closed client: /10.0.0.6:41838in MyMiddleware.run()
LOG: Closed client: /10.0.0.6:41846in MyMiddleware.run()
LOG: Closed client: /10.0.0.6:41852in MyMiddleware.run()
LOG: Closed client: /10.0.0.6:41858in MyMiddleware.run()
LOG: Closed client: /10.0.0.6:41796in MyMiddleware.run()
LOG: Closed client: /10.0.0.6:41836in MyMiddleware.run()
LOG: Closed client: /10.0.0.6:41842in MyMiddleware.run()
LOG: Closed client: /10.0.0.6:41856in MyMiddleware.run()
LOG: Closed client: /10.0.0.6:41850in MyMiddleware.run()
LOG: Closed client: /10.0.0.6:41848in MyMiddleware.run()
LOG: Closed client: /10.0.0.6:41822in MyMiddleware.run()
LOG: Closed client: /10.0.0.6:41854in MyMiddleware.run()
