------------Middleware started!------------
LOG: Waiting for connection in MyMiddleware.run()
LOG: Accepted client: /10.0.0.11:55634in MyMiddleware.run()
LOG: Accepted client: /10.0.0.11:55636in MyMiddleware.run()
LOG: Accepted client: /10.0.0.11:55628in MyMiddleware.run()
LOG: Accepted client: /10.0.0.11:55618in MyMiddleware.run()
LOG: Accepted client: /10.0.0.11:55620in MyMiddleware.run()
LOG: Accepted client: /10.0.0.11:55638in MyMiddleware.run()
LOG: Accepted client: /10.0.0.11:55630in MyMiddleware.run()
LOG: Accepted client: /10.0.0.11:55610in MyMiddleware.run()
LOG: Accepted client: /10.0.0.11:55622in MyMiddleware.run()
LOG: Accepted client: /10.0.0.11:55616in MyMiddleware.run()
LOG: Accepted client: /10.0.0.11:55608in MyMiddleware.run()
LOG: Accepted client: /10.0.0.11:55632in MyMiddleware.run()
LOG: Accepted client: /10.0.0.11:55612in MyMiddleware.run()
LOG: Accepted client: /10.0.0.11:55624in MyMiddleware.run()
LOG: Accepted client: /10.0.0.11:55626in MyMiddleware.run()
LOG: Accepted client: /10.0.0.11:55614in MyMiddleware.run()
LOG: Accepted client: /10.0.0.6:38344in MyMiddleware.run()
LOG: Accepted client: /10.0.0.6:38340in MyMiddleware.run()
LOG: Accepted client: /10.0.0.6:38364in MyMiddleware.run()
LOG: Accepted client: /10.0.0.6:38338in MyMiddleware.run()
LOG: Accepted client: /10.0.0.6:38346in MyMiddleware.run()
LOG: Accepted client: /10.0.0.6:38348in MyMiddleware.run()
LOG: Accepted client: /10.0.0.6:38342in MyMiddleware.run()
LOG: Accepted client: /10.0.0.6:38350in MyMiddleware.run()
LOG: Accepted client: /10.0.0.6:38358in MyMiddleware.run()
LOG: Accepted client: /10.0.0.6:38366in MyMiddleware.run()
LOG: Accepted client: /10.0.0.6:38354in MyMiddleware.run()
LOG: Accepted client: /10.0.0.6:38356in MyMiddleware.run()
LOG: Accepted client: /10.0.0.6:38352in MyMiddleware.run()
LOG: Accepted client: /10.0.0.6:38362in MyMiddleware.run()
LOG: Accepted client: /10.0.0.6:38360in MyMiddleware.run()
LOG: Accepted client: /10.0.0.6:38368in MyMiddleware.run()
LOG: Accepted client: /10.0.0.7:56378in MyMiddleware.run()
LOG: Accepted client: /10.0.0.7:56364in MyMiddleware.run()
LOG: Accepted client: /10.0.0.7:56370in MyMiddleware.run()
LOG: Accepted client: /10.0.0.7:56354in MyMiddleware.run()
LOG: Accepted client: /10.0.0.7:56368in MyMiddleware.run()
LOG: Accepted client: /10.0.0.7:56348in MyMiddleware.run()
LOG: Accepted client: /10.0.0.7:56350in MyMiddleware.run()
LOG: Accepted client: /10.0.0.7:56376in MyMiddleware.run()
LOG: Accepted client: /10.0.0.7:56366in MyMiddleware.run()
LOG: Accepted client: /10.0.0.7:56362in MyMiddleware.run()
LOG: Accepted client: /10.0.0.7:56352in MyMiddleware.run()
LOG: Accepted client: /10.0.0.7:56360in MyMiddleware.run()
LOG: Accepted client: /10.0.0.7:56374in MyMiddleware.run()
LOG: Accepted client: /10.0.0.7:56356in MyMiddleware.run()
LOG: Accepted client: /10.0.0.7:56372in MyMiddleware.run()
LOG: Accepted client: /10.0.0.7:56358in MyMiddleware.run()
LOG: Closed client: /10.0.0.11:55620in MyMiddleware.run()
LOG: Closed client: /10.0.0.11:55608in MyMiddleware.run()
LOG: Closed client: /10.0.0.11:55614in MyMiddleware.run()
LOG: Closed client: /10.0.0.11:55622in MyMiddleware.run()
LOG: Closed client: /10.0.0.11:55628in MyMiddleware.run()
LOG: Closed client: /10.0.0.11:55616in MyMiddleware.run()
LOG: Closed client: /10.0.0.11:55634in MyMiddleware.run()
LOG: Closed client: /10.0.0.11:55638in MyMiddleware.run()
LOG: Closed client: /10.0.0.11:55618in MyMiddleware.run()
LOG: Closed client: /10.0.0.11:55632in MyMiddleware.run()
LOG: Closed client: /10.0.0.11:55612in MyMiddleware.run()
LOG: Closed client: /10.0.0.11:55624in MyMiddleware.run()
LOG: Closed client: /10.0.0.11:55636in MyMiddleware.run()
LOG: Closed client: /10.0.0.11:55610in MyMiddleware.run()
LOG: Closed client: /10.0.0.11:55630in MyMiddleware.run()
LOG: Closed client: /10.0.0.11:55626in MyMiddleware.run()
LOG: Closed client: /10.0.0.7:56348in MyMiddleware.run()
LOG: Closed client: /10.0.0.7:56360in MyMiddleware.run()
LOG: Closed client: /10.0.0.7:56362in MyMiddleware.run()
LOG: Closed client: /10.0.0.7:56356in MyMiddleware.run()
LOG: Closed client: /10.0.0.7:56350in MyMiddleware.run()
LOG: Closed client: /10.0.0.7:56352in MyMiddleware.run()
LOG: Closed client: /10.0.0.7:56370in MyMiddleware.run()
LOG: Closed client: /10.0.0.7:56354in MyMiddleware.run()
LOG: Closed client: /10.0.0.7:56358in MyMiddleware.run()
LOG: Closed client: /10.0.0.7:56368in MyMiddleware.run()
LOG: Closed client: /10.0.0.7:56378in MyMiddleware.run()
LOG: Closed client: /10.0.0.7:56374in MyMiddleware.run()
LOG: Closed client: /10.0.0.7:56372in MyMiddleware.run()
LOG: Closed client: /10.0.0.7:56376in MyMiddleware.run()
LOG: Closed client: /10.0.0.6:38366in MyMiddleware.run()
LOG: Closed client: /10.0.0.6:38364in MyMiddleware.run()
LOG: Closed client: /10.0.0.6:38338in MyMiddleware.run()
LOG: Closed client: /10.0.0.6:38360in MyMiddleware.run()
LOG: Closed client: /10.0.0.6:38356in MyMiddleware.run()
LOG: Closed client: /10.0.0.6:38342in MyMiddleware.run()
LOG: Closed client: /10.0.0.6:38362in MyMiddleware.run()
LOG: Closed client: /10.0.0.6:38368in MyMiddleware.run()
LOG: Closed client: /10.0.0.6:38340in MyMiddleware.run()
LOG: Closed client: /10.0.0.6:38352in MyMiddleware.run()
LOG: Closed client: /10.0.0.6:38350in MyMiddleware.run()
LOG: Closed client: /10.0.0.6:38354in MyMiddleware.run()
LOG: Closed client: /10.0.0.6:38358in MyMiddleware.run()
LOG: Closed client: /10.0.0.6:38348in MyMiddleware.run()
LOG: Closed client: /10.0.0.6:38346in MyMiddleware.run()
LOG: Closed client: /10.0.0.7:56366in MyMiddleware.run()
LOG: Closed client: /10.0.0.7:56364in MyMiddleware.run()
LOG: Closed client: /10.0.0.6:38344in MyMiddleware.run()
