------------Middleware started!------------
LOG: Waiting for connection in MyMiddleware.run()
LOG: Accepted client: /10.0.0.7:44676in MyMiddleware.run()
LOG: Accepted client: /10.0.0.7:44672in MyMiddleware.run()
LOG: Accepted client: /10.0.0.7:44702in MyMiddleware.run()
LOG: Accepted client: /10.0.0.7:44678in MyMiddleware.run()
LOG: Accepted client: /10.0.0.7:44690in MyMiddleware.run()
LOG: Accepted client: /10.0.0.7:44688in MyMiddleware.run()
LOG: Accepted client: /10.0.0.7:44694in MyMiddleware.run()
LOG: Accepted client: /10.0.0.7:44726in MyMiddleware.run()
LOG: Accepted client: /10.0.0.7:44704in MyMiddleware.run()
LOG: Accepted client: /10.0.0.7:44716in MyMiddleware.run()
LOG: Accepted client: /10.0.0.7:44684in MyMiddleware.run()
LOG: Accepted client: /10.0.0.7:44686in MyMiddleware.run()
LOG: Accepted client: /10.0.0.7:44720in MyMiddleware.run()
LOG: Accepted client: /10.0.0.7:44706in MyMiddleware.run()
LOG: Accepted client: /10.0.0.7:44712in MyMiddleware.run()
LOG: Accepted client: /10.0.0.7:44722in MyMiddleware.run()
LOG: Accepted client: /10.0.0.7:44728in MyMiddleware.run()
LOG: Accepted client: /10.0.0.7:44696in MyMiddleware.run()
LOG: Accepted client: /10.0.0.7:44708in MyMiddleware.run()
LOG: Accepted client: /10.0.0.7:44724in MyMiddleware.run()
LOG: Accepted client: /10.0.0.7:44698in MyMiddleware.run()
LOG: Accepted client: /10.0.0.7:44710in MyMiddleware.run()
LOG: Accepted client: /10.0.0.7:44730in MyMiddleware.run()
LOG: Accepted client: /10.0.0.7:44700in MyMiddleware.run()
LOG: Accepted client: /10.0.0.7:44674in MyMiddleware.run()
LOG: Accepted client: /10.0.0.7:44718in MyMiddleware.run()
LOG: Accepted client: /10.0.0.7:44732in MyMiddleware.run()
LOG: Accepted client: /10.0.0.7:44734in MyMiddleware.run()
LOG: Accepted client: /10.0.0.7:44714in MyMiddleware.run()
LOG: Accepted client: /10.0.0.7:44682in MyMiddleware.run()
LOG: Accepted client: /10.0.0.7:44680in MyMiddleware.run()
LOG: Accepted client: /10.0.0.7:44692in MyMiddleware.run()
LOG: Accepted client: /10.0.0.11:43936in MyMiddleware.run()
LOG: Accepted client: /10.0.0.11:43960in MyMiddleware.run()
LOG: Accepted client: /10.0.0.11:43932in MyMiddleware.run()
LOG: Accepted client: /10.0.0.11:43952in MyMiddleware.run()
LOG: Accepted client: /10.0.0.11:43938in MyMiddleware.run()
LOG: Accepted client: /10.0.0.11:43988in MyMiddleware.run()
LOG: Accepted client: /10.0.0.11:43934in MyMiddleware.run()
LOG: Accepted client: /10.0.0.11:43980in MyMiddleware.run()
LOG: Accepted client: /10.0.0.11:43962in MyMiddleware.run()
LOG: Accepted client: /10.0.0.11:43982in MyMiddleware.run()
LOG: Accepted client: /10.0.0.11:43990in MyMiddleware.run()
LOG: Accepted client: /10.0.0.11:43946in MyMiddleware.run()
LOG: Accepted client: /10.0.0.11:43944in MyMiddleware.run()
LOG: Accepted client: /10.0.0.11:43950in MyMiddleware.run()
LOG: Accepted client: /10.0.0.11:43954in MyMiddleware.run()
LOG: Accepted client: /10.0.0.11:43974in MyMiddleware.run()
LOG: Accepted client: /10.0.0.11:43948in MyMiddleware.run()
LOG: Accepted client: /10.0.0.11:43994in MyMiddleware.run()
LOG: Accepted client: /10.0.0.11:43970in MyMiddleware.run()
LOG: Accepted client: /10.0.0.11:43956in MyMiddleware.run()
LOG: Accepted client: /10.0.0.11:43968in MyMiddleware.run()
LOG: Accepted client: /10.0.0.11:43972in MyMiddleware.run()
LOG: Accepted client: /10.0.0.11:43958in MyMiddleware.run()
LOG: Accepted client: /10.0.0.11:43992in MyMiddleware.run()
LOG: Accepted client: /10.0.0.6:54908in MyMiddleware.run()
LOG: Accepted client: /10.0.0.6:54924in MyMiddleware.run()
LOG: Accepted client: /10.0.0.6:54928in MyMiddleware.run()
LOG: Accepted client: /10.0.0.6:54886in MyMiddleware.run()
LOG: Accepted client: /10.0.0.6:54892in MyMiddleware.run()
LOG: Accepted client: /10.0.0.11:43966in MyMiddleware.run()
LOG: Accepted client: /10.0.0.11:43978in MyMiddleware.run()
LOG: Accepted client: /10.0.0.11:43964in MyMiddleware.run()
LOG: Accepted client: /10.0.0.11:43976in MyMiddleware.run()
LOG: Accepted client: /10.0.0.6:54894in MyMiddleware.run()
LOG: Accepted client: /10.0.0.6:54916in MyMiddleware.run()
LOG: Accepted client: /10.0.0.6:54902in MyMiddleware.run()
LOG: Accepted client: /10.0.0.6:54900in MyMiddleware.run()
LOG: Accepted client: /10.0.0.6:54906in MyMiddleware.run()
LOG: Accepted client: /10.0.0.6:54904in MyMiddleware.run()
LOG: Accepted client: /10.0.0.6:54910in MyMiddleware.run()
LOG: Accepted client: /10.0.0.6:54944in MyMiddleware.run()
LOG: Accepted client: /10.0.0.6:54948in MyMiddleware.run()
LOG: Accepted client: /10.0.0.6:54926in MyMiddleware.run()
LOG: Accepted client: /10.0.0.6:54920in MyMiddleware.run()
LOG: Accepted client: /10.0.0.6:54932in MyMiddleware.run()
LOG: Accepted client: /10.0.0.6:54934in MyMiddleware.run()
LOG: Accepted client: /10.0.0.6:54946in MyMiddleware.run()
LOG: Accepted client: /10.0.0.6:54922in MyMiddleware.run()
LOG: Accepted client: /10.0.0.6:54942in MyMiddleware.run()
LOG: Accepted client: /10.0.0.6:54940in MyMiddleware.run()
LOG: Accepted client: /10.0.0.6:54930in MyMiddleware.run()
LOG: Accepted client: /10.0.0.6:54918in MyMiddleware.run()
LOG: Accepted client: /10.0.0.6:54936in MyMiddleware.run()
LOG: Accepted client: /10.0.0.6:54898in MyMiddleware.run()
LOG: Accepted client: /10.0.0.6:54938in MyMiddleware.run()
LOG: Accepted client: /10.0.0.6:54888in MyMiddleware.run()
LOG: Accepted client: /10.0.0.6:54890in MyMiddleware.run()
LOG: Accepted client: /10.0.0.6:54896in MyMiddleware.run()
LOG: Accepted client: /10.0.0.6:54914in MyMiddleware.run()
LOG: Accepted client: /10.0.0.6:54912in MyMiddleware.run()
LOG: Accepted client: /10.0.0.11:43940in MyMiddleware.run()
LOG: Accepted client: /10.0.0.11:43984in MyMiddleware.run()
LOG: Accepted client: /10.0.0.11:43986in MyMiddleware.run()
LOG: Accepted client: /10.0.0.11:43942in MyMiddleware.run()
LOG: Closed client: /10.0.0.7:44672in MyMiddleware.run()
LOG: Closed client: /10.0.0.7:44676in MyMiddleware.run()
LOG: Closed client: /10.0.0.7:44678in MyMiddleware.run()
LOG: Closed client: /10.0.0.7:44696in MyMiddleware.run()
LOG: Closed client: /10.0.0.7:44694in MyMiddleware.run()
LOG: Closed client: /10.0.0.7:44680in MyMiddleware.run()
LOG: Closed client: /10.0.0.7:44686in MyMiddleware.run()
LOG: Closed client: /10.0.0.7:44690in MyMiddleware.run()
LOG: Closed client: /10.0.0.7:44702in MyMiddleware.run()
LOG: Closed client: /10.0.0.7:44692in MyMiddleware.run()
LOG: Closed client: /10.0.0.7:44688in MyMiddleware.run()
LOG: Closed client: /10.0.0.7:44682in MyMiddleware.run()
LOG: Closed client: /10.0.0.7:44700in MyMiddleware.run()
LOG: Closed client: /10.0.0.7:44698in MyMiddleware.run()
LOG: Closed client: /10.0.0.7:44674in MyMiddleware.run()
LOG: Closed client: /10.0.0.7:44684in MyMiddleware.run()
LOG: Closed client: /10.0.0.7:44728in MyMiddleware.run()
LOG: Closed client: /10.0.0.7:44734in MyMiddleware.run()
LOG: Closed client: /10.0.0.7:44706in MyMiddleware.run()
LOG: Closed client: /10.0.0.7:44726in MyMiddleware.run()
LOG: Closed client: /10.0.0.7:44732in MyMiddleware.run()
LOG: Closed client: /10.0.0.7:44716in MyMiddleware.run()
LOG: Closed client: /10.0.0.7:44714in MyMiddleware.run()
LOG: Closed client: /10.0.0.7:44722in MyMiddleware.run()
LOG: Closed client: /10.0.0.7:44708in MyMiddleware.run()
LOG: Closed client: /10.0.0.7:44718in MyMiddleware.run()
LOG: Closed client: /10.0.0.7:44724in MyMiddleware.run()
LOG: Closed client: /10.0.0.7:44704in MyMiddleware.run()
LOG: Closed client: /10.0.0.7:44710in MyMiddleware.run()
LOG: Closed client: /10.0.0.7:44730in MyMiddleware.run()
LOG: Closed client: /10.0.0.7:44712in MyMiddleware.run()
LOG: Closed client: /10.0.0.7:44720in MyMiddleware.run()
LOG: Closed client: /10.0.0.6:54896in MyMiddleware.run()
LOG: Closed client: /10.0.0.6:54886in MyMiddleware.run()
LOG: Closed client: /10.0.0.6:54904in MyMiddleware.run()
LOG: Closed client: /10.0.0.6:54914in MyMiddleware.run()
LOG: Closed client: /10.0.0.6:54894in MyMiddleware.run()
LOG: Closed client: /10.0.0.6:54892in MyMiddleware.run()
LOG: Closed client: /10.0.0.6:54888in MyMiddleware.run()
LOG: Closed client: /10.0.0.6:54910in MyMiddleware.run()
LOG: Closed client: /10.0.0.6:54908in MyMiddleware.run()
LOG: Closed client: /10.0.0.6:54916in MyMiddleware.run()
LOG: Closed client: /10.0.0.6:54902in MyMiddleware.run()
LOG: Closed client: /10.0.0.6:54912in MyMiddleware.run()
LOG: Closed client: /10.0.0.6:54900in MyMiddleware.run()
LOG: Closed client: /10.0.0.6:54890in MyMiddleware.run()
LOG: Closed client: /10.0.0.6:54898in MyMiddleware.run()
LOG: Closed client: /10.0.0.6:54906in MyMiddleware.run()
LOG: Closed client: /10.0.0.6:54924in MyMiddleware.run()
LOG: Closed client: /10.0.0.6:54918in MyMiddleware.run()
LOG: Closed client: /10.0.0.6:54922in MyMiddleware.run()
LOG: Closed client: /10.0.0.6:54928in MyMiddleware.run()
LOG: Closed client: /10.0.0.6:54926in MyMiddleware.run()
LOG: Closed client: /10.0.0.6:54920in MyMiddleware.run()
LOG: Closed client: /10.0.0.6:54938in MyMiddleware.run()
LOG: Closed client: /10.0.0.6:54930in MyMiddleware.run()
LOG: Closed client: /10.0.0.6:54942in MyMiddleware.run()
LOG: Closed client: /10.0.0.6:54948in MyMiddleware.run()
LOG: Closed client: /10.0.0.6:54936in MyMiddleware.run()
LOG: Closed client: /10.0.0.6:54946in MyMiddleware.run()
LOG: Closed client: /10.0.0.6:54934in MyMiddleware.run()
LOG: Closed client: /10.0.0.6:54932in MyMiddleware.run()
LOG: Closed client: /10.0.0.6:54940in MyMiddleware.run()
LOG: Closed client: /10.0.0.6:54944in MyMiddleware.run()
LOG: Closed client: /10.0.0.11:43940in MyMiddleware.run()
LOG: Closed client: /10.0.0.11:43954in MyMiddleware.run()
LOG: Closed client: /10.0.0.11:43932in MyMiddleware.run()
LOG: Closed client: /10.0.0.11:43972in MyMiddleware.run()
LOG: Closed client: /10.0.0.11:43948in MyMiddleware.run()
LOG: Closed client: /10.0.0.11:43956in MyMiddleware.run()
LOG: Closed client: /10.0.0.11:43942in MyMiddleware.run()
LOG: Closed client: /10.0.0.11:43968in MyMiddleware.run()
LOG: Closed client: /10.0.0.11:43936in MyMiddleware.run()
LOG: Closed client: /10.0.0.11:43934in MyMiddleware.run()
LOG: Closed client: /10.0.0.11:43938in MyMiddleware.run()
LOG: Closed client: /10.0.0.11:43958in MyMiddleware.run()
LOG: Closed client: /10.0.0.11:43950in MyMiddleware.run()
LOG: Closed client: /10.0.0.11:43970in MyMiddleware.run()
LOG: Closed client: /10.0.0.11:43952in MyMiddleware.run()
LOG: Closed client: /10.0.0.11:43992in MyMiddleware.run()
LOG: Closed client: /10.0.0.11:43946in MyMiddleware.run()
LOG: Closed client: /10.0.0.11:43960in MyMiddleware.run()
LOG: Closed client: /10.0.0.11:43944in MyMiddleware.run()
LOG: Closed client: /10.0.0.11:43982in MyMiddleware.run()
LOG: Closed client: /10.0.0.11:43994in MyMiddleware.run()
LOG: Closed client: /10.0.0.11:43984in MyMiddleware.run()
LOG: Closed client: /10.0.0.11:43974in MyMiddleware.run()
LOG: Closed client: /10.0.0.11:43986in MyMiddleware.run()
LOG: Closed client: /10.0.0.11:43964in MyMiddleware.run()
LOG: Closed client: /10.0.0.11:43976in MyMiddleware.run()
LOG: Closed client: /10.0.0.11:43962in MyMiddleware.run()
LOG: Closed client: /10.0.0.11:43980in MyMiddleware.run()
LOG: Closed client: /10.0.0.11:43988in MyMiddleware.run()
LOG: Closed client: /10.0.0.11:43990in MyMiddleware.run()
LOG: Closed client: /10.0.0.11:43966in MyMiddleware.run()
LOG: Closed client: /10.0.0.11:43978in MyMiddleware.run()
