------------Middleware started!------------
LOG: Waiting for connection in MyMiddleware.run()
LOG: Accepted client: /10.0.0.11:56438in MyMiddleware.run()
LOG: Accepted client: /10.0.0.11:56434in MyMiddleware.run()
LOG: Accepted client: /10.0.0.11:56430in MyMiddleware.run()
LOG: Accepted client: /10.0.0.11:56426in MyMiddleware.run()
LOG: Accepted client: /10.0.0.11:56450in MyMiddleware.run()
LOG: Accepted client: /10.0.0.11:56448in MyMiddleware.run()
LOG: Accepted client: /10.0.0.11:56440in MyMiddleware.run()
LOG: Accepted client: /10.0.0.11:56454in MyMiddleware.run()
LOG: Accepted client: /10.0.0.11:56436in MyMiddleware.run()
LOG: Accepted client: /10.0.0.11:56424in MyMiddleware.run()
LOG: Accepted client: /10.0.0.11:56452in MyMiddleware.run()
LOG: Accepted client: /10.0.0.11:56446in MyMiddleware.run()
LOG: Accepted client: /10.0.0.11:56444in MyMiddleware.run()
LOG: Accepted client: /10.0.0.11:56428in MyMiddleware.run()
LOG: Accepted client: /10.0.0.11:56442in MyMiddleware.run()
LOG: Accepted client: /10.0.0.11:56432in MyMiddleware.run()
LOG: Accepted client: /10.0.0.6:39150in MyMiddleware.run()
LOG: Accepted client: /10.0.0.6:39162in MyMiddleware.run()
LOG: Accepted client: /10.0.0.6:39148in MyMiddleware.run()
LOG: Accepted client: /10.0.0.6:39156in MyMiddleware.run()
LOG: Accepted client: /10.0.0.6:39152in MyMiddleware.run()
LOG: Accepted client: /10.0.0.6:39158in MyMiddleware.run()
LOG: Accepted client: /10.0.0.6:39174in MyMiddleware.run()
LOG: Accepted client: /10.0.0.6:39154in MyMiddleware.run()
LOG: Accepted client: /10.0.0.6:39160in MyMiddleware.run()
LOG: Accepted client: /10.0.0.6:39172in MyMiddleware.run()
LOG: Accepted client: /10.0.0.6:39166in MyMiddleware.run()
LOG: Accepted client: /10.0.0.6:39168in MyMiddleware.run()
LOG: Accepted client: /10.0.0.6:39170in MyMiddleware.run()
LOG: Accepted client: /10.0.0.6:39164in MyMiddleware.run()
LOG: Accepted client: /10.0.0.6:39178in MyMiddleware.run()
LOG: Accepted client: /10.0.0.6:39176in MyMiddleware.run()
LOG: Accepted client: /10.0.0.7:57180in MyMiddleware.run()
LOG: Accepted client: /10.0.0.7:57182in MyMiddleware.run()
LOG: Accepted client: /10.0.0.7:57172in MyMiddleware.run()
LOG: Accepted client: /10.0.0.7:57184in MyMiddleware.run()
LOG: Accepted client: /10.0.0.7:57174in MyMiddleware.run()
LOG: Accepted client: /10.0.0.7:57168in MyMiddleware.run()
LOG: Accepted client: /10.0.0.7:57164in MyMiddleware.run()
LOG: Accepted client: /10.0.0.7:57178in MyMiddleware.run()
LOG: Accepted client: /10.0.0.7:57176in MyMiddleware.run()
LOG: Accepted client: /10.0.0.7:57166in MyMiddleware.run()
LOG: Accepted client: /10.0.0.7:57170in MyMiddleware.run()
LOG: Accepted client: /10.0.0.7:57186in MyMiddleware.run()
LOG: Accepted client: /10.0.0.7:57158in MyMiddleware.run()
LOG: Accepted client: /10.0.0.7:57162in MyMiddleware.run()
LOG: Accepted client: /10.0.0.7:57188in MyMiddleware.run()
LOG: Accepted client: /10.0.0.7:57160in MyMiddleware.run()
LOG: Closed client: /10.0.0.7:57166in MyMiddleware.run()
LOG: Closed client: /10.0.0.7:57164in MyMiddleware.run()
LOG: Closed client: /10.0.0.7:57174in MyMiddleware.run()
LOG: Closed client: /10.0.0.7:57186in MyMiddleware.run()
LOG: Closed client: /10.0.0.7:57180in MyMiddleware.run()
LOG: Closed client: /10.0.0.7:57162in MyMiddleware.run()
LOG: Closed client: /10.0.0.7:57176in MyMiddleware.run()
LOG: Closed client: /10.0.0.7:57172in MyMiddleware.run()
LOG: Closed client: /10.0.0.7:57170in MyMiddleware.run()
LOG: Closed client: /10.0.0.7:57184in MyMiddleware.run()
LOG: Closed client: /10.0.0.7:57182in MyMiddleware.run()
LOG: Closed client: /10.0.0.7:57158in MyMiddleware.run()
LOG: Closed client: /10.0.0.7:57168in MyMiddleware.run()
LOG: Closed client: /10.0.0.7:57160in MyMiddleware.run()
LOG: Closed client: /10.0.0.7:57178in MyMiddleware.run()
LOG: Closed client: /10.0.0.7:57188in MyMiddleware.run()
LOG: Closed client: /10.0.0.6:39156in MyMiddleware.run()
LOG: Closed client: /10.0.0.6:39152in MyMiddleware.run()
LOG: Closed client: /10.0.0.6:39162in MyMiddleware.run()
LOG: Closed client: /10.0.0.6:39154in MyMiddleware.run()
LOG: Closed client: /10.0.0.6:39160in MyMiddleware.run()
LOG: Closed client: /10.0.0.6:39150in MyMiddleware.run()
LOG: Closed client: /10.0.0.6:39158in MyMiddleware.run()
LOG: Closed client: /10.0.0.6:39148in MyMiddleware.run()
LOG: Closed client: /10.0.0.6:39178in MyMiddleware.run()
LOG: Closed client: /10.0.0.6:39168in MyMiddleware.run()
LOG: Closed client: /10.0.0.6:39172in MyMiddleware.run()
LOG: Closed client: /10.0.0.6:39174in MyMiddleware.run()
LOG: Closed client: /10.0.0.6:39164in MyMiddleware.run()
LOG: Closed client: /10.0.0.6:39176in MyMiddleware.run()
LOG: Closed client: /10.0.0.6:39170in MyMiddleware.run()
LOG: Closed client: /10.0.0.6:39166in MyMiddleware.run()
LOG: Closed client: /10.0.0.11:56430in MyMiddleware.run()
LOG: Closed client: /10.0.0.11:56424in MyMiddleware.run()
LOG: Closed client: /10.0.0.11:56438in MyMiddleware.run()
LOG: Closed client: /10.0.0.11:56448in MyMiddleware.run()
LOG: Closed client: /10.0.0.11:56452in MyMiddleware.run()
LOG: Closed client: /10.0.0.11:56434in MyMiddleware.run()
LOG: Closed client: /10.0.0.11:56432in MyMiddleware.run()
LOG: Closed client: /10.0.0.11:56454in MyMiddleware.run()
LOG: Closed client: /10.0.0.11:56436in MyMiddleware.run()
LOG: Closed client: /10.0.0.11:56450in MyMiddleware.run()
LOG: Closed client: /10.0.0.11:56426in MyMiddleware.run()
LOG: Closed client: /10.0.0.11:56446in MyMiddleware.run()
LOG: Closed client: /10.0.0.11:56444in MyMiddleware.run()
LOG: Closed client: /10.0.0.11:56428in MyMiddleware.run()
LOG: Closed client: /10.0.0.11:56440in MyMiddleware.run()
LOG: Closed client: /10.0.0.11:56442in MyMiddleware.run()
