------------Middleware started!------------
LOG: Waiting for connection in MyMiddleware.run()
LOG: Accepted client: /10.0.0.11:57006in MyMiddleware.run()
LOG: Accepted client: /10.0.0.11:57050in MyMiddleware.run()
LOG: Accepted client: /10.0.0.11:57052in MyMiddleware.run()
LOG: Accepted client: /10.0.0.11:57008in MyMiddleware.run()
LOG: Accepted client: /10.0.0.11:57044in MyMiddleware.run()
LOG: Accepted client: /10.0.0.11:57024in MyMiddleware.run()
LOG: Accepted client: /10.0.0.11:57030in MyMiddleware.run()
LOG: Accepted client: /10.0.0.11:57040in MyMiddleware.run()
LOG: Accepted client: /10.0.0.11:57000in MyMiddleware.run()
LOG: Accepted client: /10.0.0.11:57028in MyMiddleware.run()
LOG: Accepted client: /10.0.0.11:57014in MyMiddleware.run()
LOG: Accepted client: /10.0.0.11:57032in MyMiddleware.run()
LOG: Accepted client: /10.0.0.11:57060in MyMiddleware.run()
LOG: Accepted client: /10.0.0.11:57012in MyMiddleware.run()
LOG: Accepted client: /10.0.0.6:39738in MyMiddleware.run()
LOG: Accepted client: /10.0.0.11:57016in MyMiddleware.run()
LOG: Accepted client: /10.0.0.6:39778in MyMiddleware.run()
LOG: Accepted client: /10.0.0.6:39752in MyMiddleware.run()
LOG: Accepted client: /10.0.0.6:39740in MyMiddleware.run()
LOG: Accepted client: /10.0.0.11:57004in MyMiddleware.run()
LOG: Accepted client: /10.0.0.11:57020in MyMiddleware.run()
LOG: Accepted client: /10.0.0.6:39780in MyMiddleware.run()
LOG: Accepted client: /10.0.0.11:57036in MyMiddleware.run()
LOG: Accepted client: /10.0.0.11:57022in MyMiddleware.run()
LOG: Accepted client: /10.0.0.11:57048in MyMiddleware.run()
LOG: Accepted client: /10.0.0.11:57010in MyMiddleware.run()
LOG: Accepted client: /10.0.0.11:57056in MyMiddleware.run()
LOG: Accepted client: /10.0.0.6:39750in MyMiddleware.run()
LOG: Accepted client: /10.0.0.11:57002in MyMiddleware.run()
LOG: Accepted client: /10.0.0.6:39730in MyMiddleware.run()
LOG: Accepted client: /10.0.0.6:39762in MyMiddleware.run()
LOG: Accepted client: /10.0.0.11:57046in MyMiddleware.run()
LOG: Accepted client: /10.0.0.6:39746in MyMiddleware.run()
LOG: Accepted client: /10.0.0.6:39766in MyMiddleware.run()
LOG: Accepted client: /10.0.0.11:57042in MyMiddleware.run()
LOG: Accepted client: /10.0.0.6:39764in MyMiddleware.run()
LOG: Accepted client: /10.0.0.6:39758in MyMiddleware.run()
LOG: Accepted client: /10.0.0.11:57054in MyMiddleware.run()
LOG: Accepted client: /10.0.0.11:57026in MyMiddleware.run()
LOG: Accepted client: /10.0.0.11:57038in MyMiddleware.run()
LOG: Accepted client: /10.0.0.6:39726in MyMiddleware.run()
LOG: Accepted client: /10.0.0.6:39760in MyMiddleware.run()
LOG: Accepted client: /10.0.0.11:57058in MyMiddleware.run()
LOG: Accepted client: /10.0.0.6:39772in MyMiddleware.run()
LOG: Accepted client: /10.0.0.6:39734in MyMiddleware.run()
LOG: Accepted client: /10.0.0.6:39728in MyMiddleware.run()
LOG: Accepted client: /10.0.0.6:39784in MyMiddleware.run()
LOG: Accepted client: /10.0.0.6:39748in MyMiddleware.run()
LOG: Accepted client: /10.0.0.6:39782in MyMiddleware.run()
LOG: Accepted client: /10.0.0.6:39776in MyMiddleware.run()
LOG: Accepted client: /10.0.0.11:57018in MyMiddleware.run()
LOG: Accepted client: /10.0.0.11:57062in MyMiddleware.run()
LOG: Accepted client: /10.0.0.6:39742in MyMiddleware.run()
LOG: Accepted client: /10.0.0.7:57758in MyMiddleware.run()
LOG: Accepted client: /10.0.0.7:57762in MyMiddleware.run()
LOG: Accepted client: /10.0.0.7:57742in MyMiddleware.run()
LOG: Accepted client: /10.0.0.7:57784in MyMiddleware.run()
LOG: Accepted client: /10.0.0.7:57766in MyMiddleware.run()
LOG: Accepted client: /10.0.0.7:57746in MyMiddleware.run()
LOG: Accepted client: /10.0.0.7:57778in MyMiddleware.run()
LOG: Accepted client: /10.0.0.7:57760in MyMiddleware.run()
LOG: Accepted client: /10.0.0.7:57752in MyMiddleware.run()
LOG: Accepted client: /10.0.0.7:57780in MyMiddleware.run()
LOG: Accepted client: /10.0.0.7:57748in MyMiddleware.run()
LOG: Accepted client: /10.0.0.7:57792in MyMiddleware.run()
LOG: Accepted client: /10.0.0.7:57740in MyMiddleware.run()
LOG: Accepted client: /10.0.0.7:57738in MyMiddleware.run()
LOG: Accepted client: /10.0.0.7:57736in MyMiddleware.run()
LOG: Accepted client: /10.0.0.7:57764in MyMiddleware.run()
LOG: Accepted client: /10.0.0.7:57774in MyMiddleware.run()
LOG: Accepted client: /10.0.0.7:57790in MyMiddleware.run()
LOG: Accepted client: /10.0.0.11:57034in MyMiddleware.run()
LOG: Accepted client: /10.0.0.6:39736in MyMiddleware.run()
LOG: Accepted client: /10.0.0.6:39722in MyMiddleware.run()
LOG: Accepted client: /10.0.0.6:39744in MyMiddleware.run()
LOG: Accepted client: /10.0.0.6:39724in MyMiddleware.run()
LOG: Accepted client: /10.0.0.6:39732in MyMiddleware.run()
LOG: Accepted client: /10.0.0.7:57756in MyMiddleware.run()
LOG: Accepted client: /10.0.0.7:57754in MyMiddleware.run()
LOG: Accepted client: /10.0.0.7:57750in MyMiddleware.run()
LOG: Accepted client: /10.0.0.6:39770in MyMiddleware.run()
LOG: Accepted client: /10.0.0.6:39768in MyMiddleware.run()
LOG: Accepted client: /10.0.0.6:39774in MyMiddleware.run()
LOG: Accepted client: /10.0.0.6:39754in MyMiddleware.run()
LOG: Accepted client: /10.0.0.7:57794in MyMiddleware.run()
LOG: Accepted client: /10.0.0.7:57782in MyMiddleware.run()
LOG: Accepted client: /10.0.0.7:57776in MyMiddleware.run()
LOG: Accepted client: /10.0.0.7:57744in MyMiddleware.run()
LOG: Accepted client: /10.0.0.7:57788in MyMiddleware.run()
LOG: Accepted client: /10.0.0.7:57734in MyMiddleware.run()
LOG: Accepted client: /10.0.0.7:57732in MyMiddleware.run()
LOG: Accepted client: /10.0.0.7:57768in MyMiddleware.run()
LOG: Accepted client: /10.0.0.6:39756in MyMiddleware.run()
LOG: Accepted client: /10.0.0.7:57786in MyMiddleware.run()
LOG: Accepted client: /10.0.0.7:57772in MyMiddleware.run()
LOG: Accepted client: /10.0.0.7:57770in MyMiddleware.run()
LOG: Closed client: /10.0.0.11:57008in MyMiddleware.run()
LOG: Closed client: /10.0.0.11:57012in MyMiddleware.run()
LOG: Closed client: /10.0.0.11:57038in MyMiddleware.run()
LOG: Closed client: /10.0.0.11:57040in MyMiddleware.run()
LOG: Closed client: /10.0.0.11:57004in MyMiddleware.run()
LOG: Closed client: /10.0.0.11:57044in MyMiddleware.run()
LOG: Closed client: /10.0.0.11:57042in MyMiddleware.run()
LOG: Closed client: /10.0.0.11:57058in MyMiddleware.run()
LOG: Closed client: /10.0.0.11:57032in MyMiddleware.run()
LOG: Closed client: /10.0.0.11:57036in MyMiddleware.run()
LOG: Closed client: /10.0.0.11:57046in MyMiddleware.run()
LOG: Closed client: /10.0.0.11:57010in MyMiddleware.run()
LOG: Closed client: /10.0.0.11:57052in MyMiddleware.run()
LOG: Closed client: /10.0.0.11:57026in MyMiddleware.run()
LOG: Closed client: /10.0.0.11:57050in MyMiddleware.run()
LOG: Closed client: /10.0.0.11:57054in MyMiddleware.run()
LOG: Closed client: /10.0.0.11:57024in MyMiddleware.run()
LOG: Closed client: /10.0.0.11:57016in MyMiddleware.run()
LOG: Closed client: /10.0.0.11:57014in MyMiddleware.run()
LOG: Closed client: /10.0.0.11:57030in MyMiddleware.run()
LOG: Closed client: /10.0.0.11:57062in MyMiddleware.run()
LOG: Closed client: /10.0.0.11:57006in MyMiddleware.run()
LOG: Closed client: /10.0.0.11:57056in MyMiddleware.run()
LOG: Closed client: /10.0.0.11:57060in MyMiddleware.run()
LOG: Closed client: /10.0.0.11:57022in MyMiddleware.run()
LOG: Closed client: /10.0.0.11:57034in MyMiddleware.run()
LOG: Closed client: /10.0.0.11:57028in MyMiddleware.run()
LOG: Closed client: /10.0.0.11:57000in MyMiddleware.run()
LOG: Closed client: /10.0.0.11:57020in MyMiddleware.run()
LOG: Closed client: /10.0.0.11:57048in MyMiddleware.run()
LOG: Closed client: /10.0.0.11:57002in MyMiddleware.run()
LOG: Closed client: /10.0.0.11:57018in MyMiddleware.run()
LOG: Closed client: /10.0.0.6:39724in MyMiddleware.run()
LOG: Closed client: /10.0.0.6:39764in MyMiddleware.run()
LOG: Closed client: /10.0.0.6:39722in MyMiddleware.run()
LOG: Closed client: /10.0.0.6:39742in MyMiddleware.run()
LOG: Closed client: /10.0.0.6:39766in MyMiddleware.run()
LOG: Closed client: /10.0.0.6:39774in MyMiddleware.run()
LOG: Closed client: /10.0.0.6:39740in MyMiddleware.run()
LOG: Closed client: /10.0.0.6:39776in MyMiddleware.run()
LOG: Closed client: /10.0.0.6:39772in MyMiddleware.run()
LOG: Closed client: /10.0.0.6:39768in MyMiddleware.run()
LOG: Closed client: /10.0.0.6:39748in MyMiddleware.run()
LOG: Closed client: /10.0.0.6:39758in MyMiddleware.run()
LOG: Closed client: /10.0.0.6:39726in MyMiddleware.run()
LOG: Closed client: /10.0.0.6:39762in MyMiddleware.run()
LOG: Closed client: /10.0.0.6:39728in MyMiddleware.run()
LOG: Closed client: /10.0.0.6:39752in MyMiddleware.run()
LOG: Closed client: /10.0.0.6:39770in MyMiddleware.run()
LOG: Closed client: /10.0.0.6:39780in MyMiddleware.run()
LOG: Closed client: /10.0.0.6:39756in MyMiddleware.run()
LOG: Closed client: /10.0.0.6:39730in MyMiddleware.run()
LOG: Closed client: /10.0.0.6:39738in MyMiddleware.run()
LOG: Closed client: /10.0.0.6:39760in MyMiddleware.run()
LOG: Closed client: /10.0.0.6:39746in MyMiddleware.run()
LOG: Closed client: /10.0.0.6:39750in MyMiddleware.run()
LOG: Closed client: /10.0.0.6:39744in MyMiddleware.run()
LOG: Closed client: /10.0.0.6:39754in MyMiddleware.run()
LOG: Closed client: /10.0.0.6:39734in MyMiddleware.run()
LOG: Closed client: /10.0.0.6:39778in MyMiddleware.run()
LOG: Closed client: /10.0.0.6:39736in MyMiddleware.run()
LOG: Closed client: /10.0.0.6:39784in MyMiddleware.run()
LOG: Closed client: /10.0.0.6:39732in MyMiddleware.run()
LOG: Closed client: /10.0.0.6:39782in MyMiddleware.run()
LOG: Closed client: /10.0.0.7:57734in MyMiddleware.run()
LOG: Closed client: /10.0.0.7:57732in MyMiddleware.run()
LOG: Closed client: /10.0.0.7:57786in MyMiddleware.run()
LOG: Closed client: /10.0.0.7:57758in MyMiddleware.run()
LOG: Closed client: /10.0.0.7:57748in MyMiddleware.run()
LOG: Closed client: /10.0.0.7:57738in MyMiddleware.run()
LOG: Closed client: /10.0.0.7:57750in MyMiddleware.run()
LOG: Closed client: /10.0.0.7:57744in MyMiddleware.run()
LOG: Closed client: /10.0.0.7:57770in MyMiddleware.run()
LOG: Closed client: /10.0.0.7:57780in MyMiddleware.run()
LOG: Closed client: /10.0.0.7:57774in MyMiddleware.run()
LOG: Closed client: /10.0.0.7:57736in MyMiddleware.run()
LOG: Closed client: /10.0.0.7:57740in MyMiddleware.run()
LOG: Closed client: /10.0.0.7:57764in MyMiddleware.run()
LOG: Closed client: /10.0.0.7:57762in MyMiddleware.run()
LOG: Closed client: /10.0.0.7:57752in MyMiddleware.run()
LOG: Closed client: /10.0.0.7:57742in MyMiddleware.run()
LOG: Closed client: /10.0.0.7:57778in MyMiddleware.run()
LOG: Closed client: /10.0.0.7:57760in MyMiddleware.run()
LOG: Closed client: /10.0.0.7:57768in MyMiddleware.run()
LOG: Closed client: /10.0.0.7:57766in MyMiddleware.run()
LOG: Closed client: /10.0.0.7:57746in MyMiddleware.run()
LOG: Closed client: /10.0.0.7:57772in MyMiddleware.run()
LOG: Closed client: /10.0.0.7:57754in MyMiddleware.run()
LOG: Closed client: /10.0.0.7:57792in MyMiddleware.run()
LOG: Closed client: /10.0.0.7:57756in MyMiddleware.run()
LOG: Closed client: /10.0.0.7:57776in MyMiddleware.run()
LOG: Closed client: /10.0.0.7:57790in MyMiddleware.run()
LOG: Closed client: /10.0.0.7:57788in MyMiddleware.run()
LOG: Closed client: /10.0.0.7:57782in MyMiddleware.run()
LOG: Closed client: /10.0.0.7:57784in MyMiddleware.run()
LOG: Closed client: /10.0.0.7:57794in MyMiddleware.run()
