------------Middleware started!------------
LOG: Waiting for connection in MyMiddleware.run()
LOG: Accepted client: /10.0.0.7:60420in MyMiddleware.run()
LOG: Accepted client: /10.0.0.7:60422in MyMiddleware.run()
LOG: Accepted client: /10.0.0.7:60436in MyMiddleware.run()
LOG: Accepted client: /10.0.0.7:60458in MyMiddleware.run()
LOG: Accepted client: /10.0.0.7:60424in MyMiddleware.run()
LOG: Accepted client: /10.0.0.7:60430in MyMiddleware.run()
LOG: Accepted client: /10.0.0.7:60460in MyMiddleware.run()
LOG: Accepted client: /10.0.0.7:60450in MyMiddleware.run()
LOG: Accepted client: /10.0.0.7:60434in MyMiddleware.run()
LOG: Accepted client: /10.0.0.7:60452in MyMiddleware.run()
LOG: Accepted client: /10.0.0.7:60472in MyMiddleware.run()
LOG: Accepted client: /10.0.0.7:60440in MyMiddleware.run()
LOG: Accepted client: /10.0.0.7:60468in MyMiddleware.run()
LOG: Accepted client: /10.0.0.7:60456in MyMiddleware.run()
LOG: Accepted client: /10.0.0.7:60446in MyMiddleware.run()
LOG: Accepted client: /10.0.0.7:60466in MyMiddleware.run()
LOG: Accepted client: /10.0.0.7:60480in MyMiddleware.run()
LOG: Accepted client: /10.0.0.11:59698in MyMiddleware.run()
LOG: Accepted client: /10.0.0.7:60464in MyMiddleware.run()
LOG: Accepted client: /10.0.0.7:60432in MyMiddleware.run()
LOG: Accepted client: /10.0.0.7:60470in MyMiddleware.run()
LOG: Accepted client: /10.0.0.7:60462in MyMiddleware.run()
LOG: Accepted client: /10.0.0.11:59688in MyMiddleware.run()
LOG: Accepted client: /10.0.0.7:60426in MyMiddleware.run()
LOG: Accepted client: /10.0.0.7:60428in MyMiddleware.run()
LOG: Accepted client: /10.0.0.7:60454in MyMiddleware.run()
LOG: Accepted client: /10.0.0.7:60448in MyMiddleware.run()
LOG: Accepted client: /10.0.0.11:59700in MyMiddleware.run()
LOG: Accepted client: /10.0.0.11:59712in MyMiddleware.run()
LOG: Accepted client: /10.0.0.7:60478in MyMiddleware.run()
LOG: Accepted client: /10.0.0.7:60482in MyMiddleware.run()
LOG: Accepted client: /10.0.0.7:60444in MyMiddleware.run()
LOG: Accepted client: /10.0.0.7:60442in MyMiddleware.run()
LOG: Accepted client: /10.0.0.11:59738in MyMiddleware.run()
LOG: Accepted client: /10.0.0.11:59694in MyMiddleware.run()
LOG: Accepted client: /10.0.0.11:59718in MyMiddleware.run()
LOG: Accepted client: /10.0.0.11:59716in MyMiddleware.run()
LOG: Accepted client: /10.0.0.6:42414in MyMiddleware.run()
LOG: Accepted client: /10.0.0.11:59696in MyMiddleware.run()
LOG: Accepted client: /10.0.0.11:59714in MyMiddleware.run()
LOG: Accepted client: /10.0.0.11:59702in MyMiddleware.run()
LOG: Accepted client: /10.0.0.11:59692in MyMiddleware.run()
LOG: Accepted client: /10.0.0.7:60476in MyMiddleware.run()
LOG: Accepted client: /10.0.0.11:59690in MyMiddleware.run()
LOG: Accepted client: /10.0.0.7:60474in MyMiddleware.run()
LOG: Accepted client: /10.0.0.7:60438in MyMiddleware.run()
LOG: Accepted client: /10.0.0.11:59736in MyMiddleware.run()
LOG: Accepted client: /10.0.0.6:42426in MyMiddleware.run()
LOG: Accepted client: /10.0.0.6:42436in MyMiddleware.run()
LOG: Accepted client: /10.0.0.6:42418in MyMiddleware.run()
LOG: Accepted client: /10.0.0.6:42428in MyMiddleware.run()
LOG: Accepted client: /10.0.0.6:42458in MyMiddleware.run()
LOG: Accepted client: /10.0.0.6:42460in MyMiddleware.run()
LOG: Accepted client: /10.0.0.6:42402in MyMiddleware.run()
LOG: Accepted client: /10.0.0.6:42408in MyMiddleware.run()
LOG: Accepted client: /10.0.0.6:42454in MyMiddleware.run()
LOG: Accepted client: /10.0.0.6:42452in MyMiddleware.run()
LOG: Accepted client: /10.0.0.6:42462in MyMiddleware.run()
LOG: Accepted client: /10.0.0.6:42430in MyMiddleware.run()
LOG: Accepted client: /10.0.0.6:42450in MyMiddleware.run()
LOG: Accepted client: /10.0.0.6:42406in MyMiddleware.run()
LOG: Accepted client: /10.0.0.6:42404in MyMiddleware.run()
LOG: Accepted client: /10.0.0.6:42448in MyMiddleware.run()
LOG: Accepted client: /10.0.0.6:42420in MyMiddleware.run()
LOG: Accepted client: /10.0.0.6:42432in MyMiddleware.run()
LOG: Accepted client: /10.0.0.6:42434in MyMiddleware.run()
LOG: Accepted client: /10.0.0.6:42422in MyMiddleware.run()
LOG: Accepted client: /10.0.0.6:42424in MyMiddleware.run()
LOG: Accepted client: /10.0.0.6:42444in MyMiddleware.run()
LOG: Accepted client: /10.0.0.6:42464in MyMiddleware.run()
LOG: Accepted client: /10.0.0.6:42446in MyMiddleware.run()
LOG: Accepted client: /10.0.0.6:42412in MyMiddleware.run()
LOG: Accepted client: /10.0.0.6:42456in MyMiddleware.run()
LOG: Accepted client: /10.0.0.6:42442in MyMiddleware.run()
LOG: Accepted client: /10.0.0.6:42440in MyMiddleware.run()
LOG: Accepted client: /10.0.0.6:42416in MyMiddleware.run()
LOG: Accepted client: /10.0.0.6:42438in MyMiddleware.run()
LOG: Accepted client: /10.0.0.11:59728in MyMiddleware.run()
LOG: Accepted client: /10.0.0.11:59734in MyMiddleware.run()
LOG: Accepted client: /10.0.0.11:59732in MyMiddleware.run()
LOG: Accepted client: /10.0.0.11:59730in MyMiddleware.run()
LOG: Accepted client: /10.0.0.11:59686in MyMiddleware.run()
LOG: Accepted client: /10.0.0.11:59704in MyMiddleware.run()
LOG: Accepted client: /10.0.0.11:59724in MyMiddleware.run()
LOG: Accepted client: /10.0.0.11:59706in MyMiddleware.run()
LOG: Accepted client: /10.0.0.11:59726in MyMiddleware.run()
LOG: Accepted client: /10.0.0.11:59710in MyMiddleware.run()
LOG: Accepted client: /10.0.0.11:59722in MyMiddleware.run()
LOG: Accepted client: /10.0.0.11:59708in MyMiddleware.run()
LOG: Accepted client: /10.0.0.11:59720in MyMiddleware.run()
LOG: Accepted client: /10.0.0.6:42410in MyMiddleware.run()
LOG: Accepted client: /10.0.0.11:59742in MyMiddleware.run()
LOG: Accepted client: /10.0.0.11:59740in MyMiddleware.run()
LOG: Accepted client: /10.0.0.11:59748in MyMiddleware.run()
LOG: Accepted client: /10.0.0.11:59744in MyMiddleware.run()
LOG: Accepted client: /10.0.0.11:59746in MyMiddleware.run()
LOG: Closed client: /10.0.0.6:42428in MyMiddleware.run()
LOG: Closed client: /10.0.0.6:42402in MyMiddleware.run()
LOG: Closed client: /10.0.0.6:42408in MyMiddleware.run()
LOG: Closed client: /10.0.0.6:42450in MyMiddleware.run()
LOG: Closed client: /10.0.0.6:42448in MyMiddleware.run()
LOG: Closed client: /10.0.0.6:42440in MyMiddleware.run()
LOG: Closed client: /10.0.0.6:42458in MyMiddleware.run()
LOG: Closed client: /10.0.0.6:42464in MyMiddleware.run()
LOG: Closed client: /10.0.0.6:42426in MyMiddleware.run()
LOG: Closed client: /10.0.0.6:42442in MyMiddleware.run()
LOG: Closed client: /10.0.0.6:42412in MyMiddleware.run()
LOG: Closed client: /10.0.0.6:42422in MyMiddleware.run()
LOG: Closed client: /10.0.0.6:42434in MyMiddleware.run()
LOG: Closed client: /10.0.0.6:42462in MyMiddleware.run()
LOG: Closed client: /10.0.0.6:42432in MyMiddleware.run()
LOG: Closed client: /10.0.0.6:42452in MyMiddleware.run()
LOG: Closed client: /10.0.0.6:42406in MyMiddleware.run()
LOG: Closed client: /10.0.0.6:42454in MyMiddleware.run()
LOG: Closed client: /10.0.0.6:42430in MyMiddleware.run()
LOG: Closed client: /10.0.0.6:42414in MyMiddleware.run()
LOG: Closed client: /10.0.0.6:42424in MyMiddleware.run()
LOG: Closed client: /10.0.0.6:42444in MyMiddleware.run()
LOG: Closed client: /10.0.0.6:42420in MyMiddleware.run()
LOG: Closed client: /10.0.0.6:42456in MyMiddleware.run()
LOG: Closed client: /10.0.0.6:42410in MyMiddleware.run()
LOG: Closed client: /10.0.0.6:42460in MyMiddleware.run()
LOG: Closed client: /10.0.0.6:42404in MyMiddleware.run()
LOG: Closed client: /10.0.0.6:42446in MyMiddleware.run()
LOG: Closed client: /10.0.0.6:42418in MyMiddleware.run()
LOG: Closed client: /10.0.0.6:42416in MyMiddleware.run()
LOG: Closed client: /10.0.0.6:42438in MyMiddleware.run()
LOG: Closed client: /10.0.0.6:42436in MyMiddleware.run()
LOG: Closed client: /10.0.0.7:60420in MyMiddleware.run()
LOG: Closed client: /10.0.0.7:60422in MyMiddleware.run()
LOG: Closed client: /10.0.0.7:60440in MyMiddleware.run()
LOG: Closed client: /10.0.0.7:60426in MyMiddleware.run()
LOG: Closed client: /10.0.0.7:60434in MyMiddleware.run()
LOG: Closed client: /10.0.0.7:60428in MyMiddleware.run()
LOG: Closed client: /10.0.0.7:60432in MyMiddleware.run()
LOG: Closed client: /10.0.0.7:60436in MyMiddleware.run()
LOG: Closed client: /10.0.0.7:60424in MyMiddleware.run()
LOG: Closed client: /10.0.0.7:60438in MyMiddleware.run()
LOG: Closed client: /10.0.0.7:60430in MyMiddleware.run()
LOG: Closed client: /10.0.0.7:60442in MyMiddleware.run()
LOG: Closed client: /10.0.0.7:60444in MyMiddleware.run()
LOG: Closed client: /10.0.0.7:60464in MyMiddleware.run()
LOG: Closed client: /10.0.0.7:60460in MyMiddleware.run()
LOG: Closed client: /10.0.0.7:60462in MyMiddleware.run()
LOG: Closed client: /10.0.0.7:60452in MyMiddleware.run()
LOG: Closed client: /10.0.0.7:60476in MyMiddleware.run()
LOG: Closed client: /10.0.0.7:60472in MyMiddleware.run()
LOG: Closed client: /10.0.0.7:60468in MyMiddleware.run()
LOG: Closed client: /10.0.0.7:60448in MyMiddleware.run()
LOG: Closed client: /10.0.0.7:60480in MyMiddleware.run()
LOG: Closed client: /10.0.0.7:60454in MyMiddleware.run()
LOG: Closed client: /10.0.0.7:60458in MyMiddleware.run()
LOG: Closed client: /10.0.0.7:60482in MyMiddleware.run()
LOG: Closed client: /10.0.0.7:60470in MyMiddleware.run()
LOG: Closed client: /10.0.0.7:60478in MyMiddleware.run()
LOG: Closed client: /10.0.0.7:60474in MyMiddleware.run()
LOG: Closed client: /10.0.0.7:60456in MyMiddleware.run()
LOG: Closed client: /10.0.0.7:60466in MyMiddleware.run()
LOG: Closed client: /10.0.0.7:60450in MyMiddleware.run()
LOG: Closed client: /10.0.0.7:60446in MyMiddleware.run()
LOG: Closed client: /10.0.0.11:59688in MyMiddleware.run()
LOG: Closed client: /10.0.0.11:59698in MyMiddleware.run()
LOG: Closed client: /10.0.0.11:59686in MyMiddleware.run()
LOG: Closed client: /10.0.0.11:59694in MyMiddleware.run()
LOG: Closed client: /10.0.0.11:59710in MyMiddleware.run()
LOG: Closed client: /10.0.0.11:59692in MyMiddleware.run()
LOG: Closed client: /10.0.0.11:59690in MyMiddleware.run()
LOG: Closed client: /10.0.0.11:59704in MyMiddleware.run()
LOG: Closed client: /10.0.0.11:59708in MyMiddleware.run()
LOG: Closed client: /10.0.0.11:59700in MyMiddleware.run()
LOG: Closed client: /10.0.0.11:59696in MyMiddleware.run()
LOG: Closed client: /10.0.0.11:59702in MyMiddleware.run()
LOG: Closed client: /10.0.0.11:59706in MyMiddleware.run()
LOG: Closed client: /10.0.0.11:59734in MyMiddleware.run()
LOG: Closed client: /10.0.0.11:59722in MyMiddleware.run()
LOG: Closed client: /10.0.0.11:59742in MyMiddleware.run()
LOG: Closed client: /10.0.0.11:59718in MyMiddleware.run()
LOG: Closed client: /10.0.0.11:59714in MyMiddleware.run()
LOG: Closed client: /10.0.0.11:59724in MyMiddleware.run()
LOG: Closed client: /10.0.0.11:59716in MyMiddleware.run()
LOG: Closed client: /10.0.0.11:59726in MyMiddleware.run()
LOG: Closed client: /10.0.0.11:59712in MyMiddleware.run()
LOG: Closed client: /10.0.0.11:59736in MyMiddleware.run()
LOG: Closed client: /10.0.0.11:59720in MyMiddleware.run()
LOG: Closed client: /10.0.0.11:59748in MyMiddleware.run()
LOG: Closed client: /10.0.0.11:59732in MyMiddleware.run()
LOG: Closed client: /10.0.0.11:59740in MyMiddleware.run()
LOG: Closed client: /10.0.0.11:59746in MyMiddleware.run()
LOG: Closed client: /10.0.0.11:59730in MyMiddleware.run()
LOG: Closed client: /10.0.0.11:59744in MyMiddleware.run()
LOG: Closed client: /10.0.0.11:59738in MyMiddleware.run()
LOG: Closed client: /10.0.0.11:59728in MyMiddleware.run()
