------------Middleware started!------------
LOG: Waiting for connection in MyMiddleware.run()
LOG: Accepted client: /10.0.0.11:34252in MyMiddleware.run()
LOG: Accepted client: /10.0.0.11:34260in MyMiddleware.run()
LOG: Accepted client: /10.0.0.11:34258in MyMiddleware.run()
LOG: Accepted client: /10.0.0.11:34262in MyMiddleware.run()
LOG: Accepted client: /10.0.0.11:34254in MyMiddleware.run()
LOG: Accepted client: /10.0.0.11:34280in MyMiddleware.run()
LOG: Accepted client: /10.0.0.11:34284in MyMiddleware.run()
LOG: Accepted client: /10.0.0.11:34292in MyMiddleware.run()
LOG: Accepted client: /10.0.0.11:34256in MyMiddleware.run()
LOG: Accepted client: /10.0.0.11:34294in MyMiddleware.run()
LOG: Accepted client: /10.0.0.11:34288in MyMiddleware.run()
LOG: Accepted client: /10.0.0.11:34290in MyMiddleware.run()
LOG: Accepted client: /10.0.0.11:34286in MyMiddleware.run()
LOG: Accepted client: /10.0.0.11:34282in MyMiddleware.run()
LOG: Accepted client: /10.0.0.11:34248in MyMiddleware.run()
LOG: Accepted client: /10.0.0.11:34250in MyMiddleware.run()
LOG: Accepted client: /10.0.0.7:34994in MyMiddleware.run()
LOG: Accepted client: /10.0.0.11:34276in MyMiddleware.run()
LOG: Accepted client: /10.0.0.11:34300in MyMiddleware.run()
LOG: Accepted client: /10.0.0.11:34274in MyMiddleware.run()
LOG: Accepted client: /10.0.0.11:34306in MyMiddleware.run()
LOG: Accepted client: /10.0.0.7:35016in MyMiddleware.run()
LOG: Accepted client: /10.0.0.7:35004in MyMiddleware.run()
LOG: Accepted client: /10.0.0.11:34268in MyMiddleware.run()
LOG: Accepted client: /10.0.0.11:34266in MyMiddleware.run()
LOG: Accepted client: /10.0.0.7:35106in MyMiddleware.run()
LOG: Accepted client: /10.0.0.7:35062in MyMiddleware.run()
LOG: Accepted client: /10.0.0.11:34302in MyMiddleware.run()
LOG: Accepted client: /10.0.0.11:34304in MyMiddleware.run()
LOG: Accepted client: /10.0.0.11:34310in MyMiddleware.run()
LOG: Accepted client: /10.0.0.11:34296in MyMiddleware.run()
LOG: Accepted client: /10.0.0.7:35048in MyMiddleware.run()
LOG: Accepted client: /10.0.0.11:34270in MyMiddleware.run()
LOG: Accepted client: /10.0.0.7:35100in MyMiddleware.run()
LOG: Accepted client: /10.0.0.7:35024in MyMiddleware.run()
LOG: Accepted client: /10.0.0.11:34264in MyMiddleware.run()
LOG: Accepted client: /10.0.0.11:34332in MyMiddleware.run()
LOG: Accepted client: /10.0.0.7:35056in MyMiddleware.run()
LOG: Accepted client: /10.0.0.11:34330in MyMiddleware.run()
LOG: Accepted client: /10.0.0.7:35108in MyMiddleware.run()
LOG: Accepted client: /10.0.0.7:35030in MyMiddleware.run()
LOG: Accepted client: /10.0.0.7:35076in MyMiddleware.run()
LOG: Accepted client: /10.0.0.7:35000in MyMiddleware.run()
LOG: Accepted client: /10.0.0.7:35098in MyMiddleware.run()
LOG: Accepted client: /10.0.0.7:35050in MyMiddleware.run()
LOG: Accepted client: /10.0.0.7:35052in MyMiddleware.run()
LOG: Accepted client: /10.0.0.7:35006in MyMiddleware.run()
LOG: Accepted client: /10.0.0.7:35026in MyMiddleware.run()
LOG: Accepted client: /10.0.0.11:34308in MyMiddleware.run()
LOG: Accepted client: /10.0.0.11:34298in MyMiddleware.run()
LOG: Accepted client: /10.0.0.7:35054in MyMiddleware.run()
LOG: Accepted client: /10.0.0.7:35074in MyMiddleware.run()
LOG: Accepted client: /10.0.0.11:34320in MyMiddleware.run()
LOG: Accepted client: /10.0.0.11:34318in MyMiddleware.run()
LOG: Accepted client: /10.0.0.11:34372in MyMiddleware.run()
LOG: Accepted client: /10.0.0.7:35022in MyMiddleware.run()
LOG: Accepted client: /10.0.0.7:35002in MyMiddleware.run()
LOG: Accepted client: /10.0.0.11:34340in MyMiddleware.run()
LOG: Accepted client: /10.0.0.11:34312in MyMiddleware.run()
LOG: Accepted client: /10.0.0.11:34272in MyMiddleware.run()
LOG: Accepted client: /10.0.0.11:34362in MyMiddleware.run()
LOG: Accepted client: /10.0.0.11:34338in MyMiddleware.run()
LOG: Accepted client: /10.0.0.11:34326in MyMiddleware.run()
LOG: Accepted client: /10.0.0.6:45196in MyMiddleware.run()
LOG: Accepted client: /10.0.0.11:34324in MyMiddleware.run()
LOG: Accepted client: /10.0.0.6:45216in MyMiddleware.run()
LOG: Accepted client: /10.0.0.6:45214in MyMiddleware.run()
LOG: Accepted client: /10.0.0.6:45248in MyMiddleware.run()
LOG: Accepted client: /10.0.0.11:34278in MyMiddleware.run()
LOG: Accepted client: /10.0.0.11:34358in MyMiddleware.run()
LOG: Accepted client: /10.0.0.11:34370in MyMiddleware.run()
LOG: Accepted client: /10.0.0.6:45234in MyMiddleware.run()
LOG: Accepted client: /10.0.0.6:45254in MyMiddleware.run()
LOG: Accepted client: /10.0.0.11:34360in MyMiddleware.run()
LOG: Accepted client: /10.0.0.7:35072in MyMiddleware.run()
LOG: Accepted client: /10.0.0.6:45202in MyMiddleware.run()
LOG: Accepted client: /10.0.0.11:34344in MyMiddleware.run()
LOG: Accepted client: /10.0.0.7:35058in MyMiddleware.run()
LOG: Accepted client: /10.0.0.6:45230in MyMiddleware.run()
LOG: Accepted client: /10.0.0.6:45236in MyMiddleware.run()
LOG: Accepted client: /10.0.0.7:35104in MyMiddleware.run()
LOG: Accepted client: /10.0.0.7:35078in MyMiddleware.run()
LOG: Accepted client: /10.0.0.11:34364in MyMiddleware.run()
LOG: Accepted client: /10.0.0.11:34366in MyMiddleware.run()
LOG: Accepted client: /10.0.0.11:34322in MyMiddleware.run()
LOG: Accepted client: /10.0.0.7:35060in MyMiddleware.run()
LOG: Accepted client: /10.0.0.7:35110in MyMiddleware.run()
LOG: Accepted client: /10.0.0.11:34354in MyMiddleware.run()
LOG: Accepted client: /10.0.0.6:45318in MyMiddleware.run()
LOG: Accepted client: /10.0.0.6:45194in MyMiddleware.run()
LOG: Accepted client: /10.0.0.6:45268in MyMiddleware.run()
LOG: Accepted client: /10.0.0.6:45304in MyMiddleware.run()
LOG: Accepted client: /10.0.0.6:45218in MyMiddleware.run()
LOG: Accepted client: /10.0.0.6:45284in MyMiddleware.run()
LOG: Accepted client: /10.0.0.6:45198in MyMiddleware.run()
LOG: Accepted client: /10.0.0.6:45256in MyMiddleware.run()
LOG: Accepted client: /10.0.0.6:45200in MyMiddleware.run()
LOG: Accepted client: /10.0.0.6:45246in MyMiddleware.run()
LOG: Accepted client: /10.0.0.6:45244in MyMiddleware.run()
LOG: Accepted client: /10.0.0.6:45286in MyMiddleware.run()
LOG: Accepted client: /10.0.0.6:45258in MyMiddleware.run()
LOG: Accepted client: /10.0.0.6:45300in MyMiddleware.run()
LOG: Accepted client: /10.0.0.6:45228in MyMiddleware.run()
LOG: Accepted client: /10.0.0.6:45272in MyMiddleware.run()
LOG: Accepted client: /10.0.0.6:45320in MyMiddleware.run()
LOG: Accepted client: /10.0.0.6:45302in MyMiddleware.run()
LOG: Accepted client: /10.0.0.6:45274in MyMiddleware.run()
LOG: Accepted client: /10.0.0.11:34374in MyMiddleware.run()
LOG: Accepted client: /10.0.0.11:34334in MyMiddleware.run()
LOG: Accepted client: /10.0.0.11:34352in MyMiddleware.run()
LOG: Accepted client: /10.0.0.11:34346in MyMiddleware.run()
LOG: Accepted client: /10.0.0.7:35096in MyMiddleware.run()
LOG: Accepted client: /10.0.0.11:34336in MyMiddleware.run()
LOG: Accepted client: /10.0.0.6:45292in MyMiddleware.run()
LOG: Accepted client: /10.0.0.6:45208in MyMiddleware.run()
LOG: Accepted client: /10.0.0.11:34316in MyMiddleware.run()
LOG: Accepted client: /10.0.0.11:34350in MyMiddleware.run()
LOG: Accepted client: /10.0.0.11:34348in MyMiddleware.run()
LOG: Accepted client: /10.0.0.7:35102in MyMiddleware.run()
LOG: Accepted client: /10.0.0.11:34314in MyMiddleware.run()
LOG: Accepted client: /10.0.0.11:34342in MyMiddleware.run()
LOG: Accepted client: /10.0.0.6:45290in MyMiddleware.run()
LOG: Accepted client: /10.0.0.7:35020in MyMiddleware.run()
LOG: Accepted client: /10.0.0.7:35018in MyMiddleware.run()
LOG: Accepted client: /10.0.0.7:35008in MyMiddleware.run()
LOG: Accepted client: /10.0.0.11:34328in MyMiddleware.run()
LOG: Accepted client: /10.0.0.11:34356in MyMiddleware.run()
LOG: Accepted client: /10.0.0.11:34368in MyMiddleware.run()
LOG: Accepted client: /10.0.0.7:35090in MyMiddleware.run()
LOG: Accepted client: /10.0.0.7:35084in MyMiddleware.run()
LOG: Accepted client: /10.0.0.7:35092in MyMiddleware.run()
LOG: Accepted client: /10.0.0.7:35088in MyMiddleware.run()
LOG: Accepted client: /10.0.0.7:35094in MyMiddleware.run()
LOG: Accepted client: /10.0.0.7:35086in MyMiddleware.run()
LOG: Accepted client: /10.0.0.7:35070in MyMiddleware.run()
LOG: Accepted client: /10.0.0.7:35068in MyMiddleware.run()
LOG: Accepted client: /10.0.0.7:35028in MyMiddleware.run()
LOG: Accepted client: /10.0.0.7:35066in MyMiddleware.run()
LOG: Accepted client: /10.0.0.7:35112in MyMiddleware.run()
LOG: Accepted client: /10.0.0.7:35064in MyMiddleware.run()
LOG: Accepted client: /10.0.0.7:35114in MyMiddleware.run()
LOG: Accepted client: /10.0.0.7:35082in MyMiddleware.run()
LOG: Accepted client: /10.0.0.7:35080in MyMiddleware.run()
LOG: Accepted client: /10.0.0.7:35034in MyMiddleware.run()
LOG: Accepted client: /10.0.0.7:34990in MyMiddleware.run()
LOG: Accepted client: /10.0.0.7:35032in MyMiddleware.run()
LOG: Accepted client: /10.0.0.7:34988in MyMiddleware.run()
LOG: Accepted client: /10.0.0.7:35012in MyMiddleware.run()
LOG: Accepted client: /10.0.0.7:34992in MyMiddleware.run()
LOG: Accepted client: /10.0.0.7:35014in MyMiddleware.run()
LOG: Accepted client: /10.0.0.7:35044in MyMiddleware.run()
LOG: Accepted client: /10.0.0.7:35046in MyMiddleware.run()
LOG: Accepted client: /10.0.0.7:35042in MyMiddleware.run()
LOG: Accepted client: /10.0.0.7:35040in MyMiddleware.run()
LOG: Accepted client: /10.0.0.7:34998in MyMiddleware.run()
LOG: Accepted client: /10.0.0.7:35010in MyMiddleware.run()
LOG: Accepted client: /10.0.0.7:34996in MyMiddleware.run()
LOG: Accepted client: /10.0.0.7:35036in MyMiddleware.run()
LOG: Accepted client: /10.0.0.7:35038in MyMiddleware.run()
LOG: Accepted client: /10.0.0.6:45296in MyMiddleware.run()
LOG: Accepted client: /10.0.0.6:45204in MyMiddleware.run()
LOG: Accepted client: /10.0.0.6:45240in MyMiddleware.run()
LOG: Accepted client: /10.0.0.6:45316in MyMiddleware.run()
LOG: Accepted client: /10.0.0.6:45226in MyMiddleware.run()
LOG: Accepted client: /10.0.0.6:45310in MyMiddleware.run()
LOG: Accepted client: /10.0.0.6:45308in MyMiddleware.run()
LOG: Accepted client: /10.0.0.6:45206in MyMiddleware.run()
LOG: Accepted client: /10.0.0.6:45210in MyMiddleware.run()
LOG: Accepted client: /10.0.0.6:45232in MyMiddleware.run()
LOG: Accepted client: /10.0.0.6:45250in MyMiddleware.run()
LOG: Accepted client: /10.0.0.6:45306in MyMiddleware.run()
LOG: Accepted client: /10.0.0.6:45280in MyMiddleware.run()
LOG: Accepted client: /10.0.0.6:45270in MyMiddleware.run()
LOG: Accepted client: /10.0.0.6:45314in MyMiddleware.run()
LOG: Accepted client: /10.0.0.6:45294in MyMiddleware.run()
LOG: Accepted client: /10.0.0.6:45264in MyMiddleware.run()
LOG: Accepted client: /10.0.0.6:45238in MyMiddleware.run()
LOG: Accepted client: /10.0.0.6:45278in MyMiddleware.run()
LOG: Accepted client: /10.0.0.6:45282in MyMiddleware.run()
LOG: Accepted client: /10.0.0.6:45252in MyMiddleware.run()
LOG: Accepted client: /10.0.0.6:45276in MyMiddleware.run()
LOG: Accepted client: /10.0.0.6:45224in MyMiddleware.run()
LOG: Accepted client: /10.0.0.6:45262in MyMiddleware.run()
LOG: Accepted client: /10.0.0.6:45288in MyMiddleware.run()
LOG: Accepted client: /10.0.0.6:45312in MyMiddleware.run()
LOG: Accepted client: /10.0.0.6:45220in MyMiddleware.run()
LOG: Accepted client: /10.0.0.6:45260in MyMiddleware.run()
LOG: Accepted client: /10.0.0.6:45242in MyMiddleware.run()
LOG: Accepted client: /10.0.0.6:45212in MyMiddleware.run()
LOG: Accepted client: /10.0.0.6:45298in MyMiddleware.run()
LOG: Accepted client: /10.0.0.6:45266in MyMiddleware.run()
LOG: Accepted client: /10.0.0.6:45222in MyMiddleware.run()
LOG: Closed client: /10.0.0.11:34292in MyMiddleware.run()
LOG: Closed client: /10.0.0.11:34268in MyMiddleware.run()
LOG: Closed client: /10.0.0.11:34250in MyMiddleware.run()
LOG: Closed client: /10.0.0.11:34256in MyMiddleware.run()
LOG: Closed client: /10.0.0.11:34294in MyMiddleware.run()
LOG: Closed client: /10.0.0.11:34340in MyMiddleware.run()
LOG: Closed client: /10.0.0.11:34300in MyMiddleware.run()
LOG: Closed client: /10.0.0.11:34248in MyMiddleware.run()
LOG: Closed client: /10.0.0.11:34348in MyMiddleware.run()
LOG: Closed client: /10.0.0.11:34286in MyMiddleware.run()
LOG: Closed client: /10.0.0.11:34260in MyMiddleware.run()
LOG: Closed client: /10.0.0.11:34312in MyMiddleware.run()
LOG: Closed client: /10.0.0.11:34368in MyMiddleware.run()
LOG: Closed client: /10.0.0.11:34262in MyMiddleware.run()
LOG: Closed client: /10.0.0.11:34258in MyMiddleware.run()
LOG: Closed client: /10.0.0.11:34336in MyMiddleware.run()
LOG: Closed client: /10.0.0.11:34322in MyMiddleware.run()
LOG: Closed client: /10.0.0.11:34270in MyMiddleware.run()
LOG: Closed client: /10.0.0.11:34274in MyMiddleware.run()
LOG: Closed client: /10.0.0.11:34264in MyMiddleware.run()
LOG: Closed client: /10.0.0.11:34332in MyMiddleware.run()
LOG: Closed client: /10.0.0.11:34364in MyMiddleware.run()
LOG: Closed client: /10.0.0.11:34344in MyMiddleware.run()
LOG: Closed client: /10.0.0.11:34338in MyMiddleware.run()
LOG: Closed client: /10.0.0.11:34316in MyMiddleware.run()
LOG: Closed client: /10.0.0.11:34308in MyMiddleware.run()
LOG: Closed client: /10.0.0.11:34350in MyMiddleware.run()
LOG: Closed client: /10.0.0.11:34342in MyMiddleware.run()
LOG: Closed client: /10.0.0.11:34326in MyMiddleware.run()
LOG: Closed client: /10.0.0.11:34328in MyMiddleware.run()
LOG: Closed client: /10.0.0.11:34282in MyMiddleware.run()
LOG: Closed client: /10.0.0.11:34352in MyMiddleware.run()
LOG: Closed client: /10.0.0.11:34252in MyMiddleware.run()
LOG: Closed client: /10.0.0.11:34254in MyMiddleware.run()
LOG: Closed client: /10.0.0.11:34276in MyMiddleware.run()
LOG: Closed client: /10.0.0.11:34302in MyMiddleware.run()
LOG: Closed client: /10.0.0.11:34374in MyMiddleware.run()
LOG: Closed client: /10.0.0.11:34356in MyMiddleware.run()
LOG: Closed client: /10.0.0.11:34346in MyMiddleware.run()
LOG: Closed client: /10.0.0.11:34360in MyMiddleware.run()
LOG: Closed client: /10.0.0.11:34296in MyMiddleware.run()
LOG: Closed client: /10.0.0.11:34272in MyMiddleware.run()
LOG: Closed client: /10.0.0.11:34370in MyMiddleware.run()
LOG: Closed client: /10.0.0.11:34366in MyMiddleware.run()
LOG: Closed client: /10.0.0.11:34280in MyMiddleware.run()
LOG: Closed client: /10.0.0.11:34362in MyMiddleware.run()
LOG: Closed client: /10.0.0.11:34288in MyMiddleware.run()
LOG: Closed client: /10.0.0.11:34354in MyMiddleware.run()
LOG: Closed client: /10.0.0.11:34314in MyMiddleware.run()
LOG: Closed client: /10.0.0.11:34304in MyMiddleware.run()
LOG: Closed client: /10.0.0.11:34320in MyMiddleware.run()
LOG: Closed client: /10.0.0.11:34284in MyMiddleware.run()
LOG: Closed client: /10.0.0.11:34298in MyMiddleware.run()
LOG: Closed client: /10.0.0.11:34310in MyMiddleware.run()
LOG: Closed client: /10.0.0.11:34330in MyMiddleware.run()
LOG: Closed client: /10.0.0.11:34278in MyMiddleware.run()
LOG: Closed client: /10.0.0.11:34334in MyMiddleware.run()
LOG: Closed client: /10.0.0.11:34318in MyMiddleware.run()
LOG: Closed client: /10.0.0.11:34306in MyMiddleware.run()
LOG: Closed client: /10.0.0.11:34266in MyMiddleware.run()
LOG: Closed client: /10.0.0.11:34372in MyMiddleware.run()
LOG: Closed client: /10.0.0.11:34324in MyMiddleware.run()
LOG: Closed client: /10.0.0.11:34358in MyMiddleware.run()
LOG: Closed client: /10.0.0.11:34290in MyMiddleware.run()
LOG: Closed client: /10.0.0.7:34990in MyMiddleware.run()
LOG: Closed client: /10.0.0.7:35006in MyMiddleware.run()
LOG: Closed client: /10.0.0.7:35010in MyMiddleware.run()
LOG: Closed client: /10.0.0.7:34992in MyMiddleware.run()
LOG: Closed client: /10.0.0.7:35002in MyMiddleware.run()
LOG: Closed client: /10.0.0.7:34996in MyMiddleware.run()
LOG: Closed client: /10.0.0.7:34988in MyMiddleware.run()
LOG: Closed client: /10.0.0.7:35004in MyMiddleware.run()
LOG: Closed client: /10.0.0.7:34998in MyMiddleware.run()
LOG: Closed client: /10.0.0.7:35000in MyMiddleware.run()
LOG: Closed client: /10.0.0.7:35014in MyMiddleware.run()
LOG: Closed client: /10.0.0.7:35008in MyMiddleware.run()
LOG: Closed client: /10.0.0.7:34994in MyMiddleware.run()
LOG: Closed client: /10.0.0.7:35012in MyMiddleware.run()
LOG: Closed client: /10.0.0.7:35056in MyMiddleware.run()
LOG: Closed client: /10.0.0.7:35018in MyMiddleware.run()
LOG: Closed client: /10.0.0.7:35038in MyMiddleware.run()
LOG: Closed client: /10.0.0.7:35024in MyMiddleware.run()
LOG: Closed client: /10.0.0.7:35028in MyMiddleware.run()
LOG: Closed client: /10.0.0.7:35032in MyMiddleware.run()
LOG: Closed client: /10.0.0.7:35044in MyMiddleware.run()
LOG: Closed client: /10.0.0.7:35060in MyMiddleware.run()
LOG: Closed client: /10.0.0.7:35030in MyMiddleware.run()
LOG: Closed client: /10.0.0.7:35046in MyMiddleware.run()
LOG: Closed client: /10.0.0.7:35036in MyMiddleware.run()
LOG: Closed client: /10.0.0.7:35020in MyMiddleware.run()
LOG: Closed client: /10.0.0.7:35050in MyMiddleware.run()
LOG: Closed client: /10.0.0.7:35048in MyMiddleware.run()
LOG: Closed client: /10.0.0.7:35034in MyMiddleware.run()
LOG: Closed client: /10.0.0.7:35026in MyMiddleware.run()
LOG: Closed client: /10.0.0.7:35040in MyMiddleware.run()
LOG: Closed client: /10.0.0.7:35058in MyMiddleware.run()
LOG: Closed client: /10.0.0.7:35042in MyMiddleware.run()
LOG: Closed client: /10.0.0.7:35022in MyMiddleware.run()
LOG: Closed client: /10.0.0.7:35016in MyMiddleware.run()
LOG: Closed client: /10.0.0.7:35070in MyMiddleware.run()
LOG: Closed client: /10.0.0.7:35074in MyMiddleware.run()
LOG: Closed client: /10.0.0.7:35082in MyMiddleware.run()
LOG: Closed client: /10.0.0.7:35062in MyMiddleware.run()
LOG: Closed client: /10.0.0.7:35100in MyMiddleware.run()
LOG: Closed client: /10.0.0.7:35072in MyMiddleware.run()
LOG: Closed client: /10.0.0.7:35088in MyMiddleware.run()
LOG: Closed client: /10.0.0.7:35084in MyMiddleware.run()
LOG: Closed client: /10.0.0.7:35086in MyMiddleware.run()
LOG: Closed client: /10.0.0.7:35090in MyMiddleware.run()
LOG: Closed client: /10.0.0.7:35110in MyMiddleware.run()
LOG: Closed client: /10.0.0.7:35080in MyMiddleware.run()
LOG: Closed client: /10.0.0.7:35078in MyMiddleware.run()
LOG: Closed client: /10.0.0.7:35066in MyMiddleware.run()
LOG: Closed client: /10.0.0.7:35096in MyMiddleware.run()
LOG: Closed client: /10.0.0.7:35102in MyMiddleware.run()
LOG: Closed client: /10.0.0.7:35108in MyMiddleware.run()
LOG: Closed client: /10.0.0.7:35104in MyMiddleware.run()
LOG: Closed client: /10.0.0.7:35068in MyMiddleware.run()
LOG: Closed client: /10.0.0.7:35098in MyMiddleware.run()
LOG: Closed client: /10.0.0.7:35052in MyMiddleware.run()
LOG: Closed client: /10.0.0.7:35064in MyMiddleware.run()
LOG: Closed client: /10.0.0.7:35114in MyMiddleware.run()
LOG: Closed client: /10.0.0.7:35076in MyMiddleware.run()
LOG: Closed client: /10.0.0.7:35054in MyMiddleware.run()
LOG: Closed client: /10.0.0.7:35092in MyMiddleware.run()
LOG: Closed client: /10.0.0.7:35106in MyMiddleware.run()
LOG: Closed client: /10.0.0.7:35112in MyMiddleware.run()
LOG: Closed client: /10.0.0.7:35094in MyMiddleware.run()
LOG: Closed client: /10.0.0.6:45194in MyMiddleware.run()
LOG: Closed client: /10.0.0.6:45206in MyMiddleware.run()
LOG: Closed client: /10.0.0.6:45204in MyMiddleware.run()
LOG: Closed client: /10.0.0.6:45232in MyMiddleware.run()
LOG: Closed client: /10.0.0.6:45214in MyMiddleware.run()
LOG: Closed client: /10.0.0.6:45200in MyMiddleware.run()
LOG: Closed client: /10.0.0.6:45202in MyMiddleware.run()
LOG: Closed client: /10.0.0.6:45226in MyMiddleware.run()
LOG: Closed client: /10.0.0.6:45222in MyMiddleware.run()
LOG: Closed client: /10.0.0.6:45198in MyMiddleware.run()
LOG: Closed client: /10.0.0.6:45212in MyMiddleware.run()
LOG: Closed client: /10.0.0.6:45216in MyMiddleware.run()
LOG: Closed client: /10.0.0.6:45208in MyMiddleware.run()
LOG: Closed client: /10.0.0.6:45220in MyMiddleware.run()
LOG: Closed client: /10.0.0.6:45210in MyMiddleware.run()
LOG: Closed client: /10.0.0.6:45224in MyMiddleware.run()
LOG: Closed client: /10.0.0.6:45218in MyMiddleware.run()
LOG: Closed client: /10.0.0.6:45196in MyMiddleware.run()
LOG: Closed client: /10.0.0.6:45244in MyMiddleware.run()
LOG: Closed client: /10.0.0.6:45238in MyMiddleware.run()
LOG: Closed client: /10.0.0.6:45236in MyMiddleware.run()
LOG: Closed client: /10.0.0.6:45234in MyMiddleware.run()
LOG: Closed client: /10.0.0.6:45230in MyMiddleware.run()
LOG: Closed client: /10.0.0.6:45252in MyMiddleware.run()
LOG: Closed client: /10.0.0.6:45250in MyMiddleware.run()
LOG: Closed client: /10.0.0.6:45228in MyMiddleware.run()
LOG: Closed client: /10.0.0.6:45246in MyMiddleware.run()
LOG: Closed client: /10.0.0.6:45240in MyMiddleware.run()
LOG: Closed client: /10.0.0.6:45242in MyMiddleware.run()
LOG: Closed client: /10.0.0.6:45256in MyMiddleware.run()
LOG: Closed client: /10.0.0.6:45254in MyMiddleware.run()
LOG: Closed client: /10.0.0.6:45248in MyMiddleware.run()
LOG: Closed client: /10.0.0.6:45258in MyMiddleware.run()
LOG: Closed client: /10.0.0.6:45262in MyMiddleware.run()
LOG: Closed client: /10.0.0.6:45260in MyMiddleware.run()
LOG: Closed client: /10.0.0.6:45264in MyMiddleware.run()
LOG: Closed client: /10.0.0.6:45266in MyMiddleware.run()
LOG: Closed client: /10.0.0.6:45272in MyMiddleware.run()
LOG: Closed client: /10.0.0.6:45268in MyMiddleware.run()
LOG: Closed client: /10.0.0.6:45270in MyMiddleware.run()
LOG: Closed client: /10.0.0.6:45274in MyMiddleware.run()
LOG: Closed client: /10.0.0.6:45284in MyMiddleware.run()
LOG: Closed client: /10.0.0.6:45282in MyMiddleware.run()
LOG: Closed client: /10.0.0.6:45292in MyMiddleware.run()
LOG: Closed client: /10.0.0.6:45278in MyMiddleware.run()
LOG: Closed client: /10.0.0.6:45280in MyMiddleware.run()
LOG: Closed client: /10.0.0.6:45276in MyMiddleware.run()
LOG: Closed client: /10.0.0.6:45296in MyMiddleware.run()
LOG: Closed client: /10.0.0.6:45310in MyMiddleware.run()
LOG: Closed client: /10.0.0.6:45286in MyMiddleware.run()
LOG: Closed client: /10.0.0.6:45290in MyMiddleware.run()
LOG: Closed client: /10.0.0.6:45298in MyMiddleware.run()
LOG: Closed client: /10.0.0.6:45300in MyMiddleware.run()
LOG: Closed client: /10.0.0.6:45288in MyMiddleware.run()
LOG: Closed client: /10.0.0.6:45308in MyMiddleware.run()
LOG: Closed client: /10.0.0.6:45294in MyMiddleware.run()
LOG: Closed client: /10.0.0.6:45318in MyMiddleware.run()
LOG: Closed client: /10.0.0.6:45306in MyMiddleware.run()
LOG: Closed client: /10.0.0.6:45302in MyMiddleware.run()
LOG: Closed client: /10.0.0.6:45304in MyMiddleware.run()
LOG: Closed client: /10.0.0.6:45314in MyMiddleware.run()
LOG: Closed client: /10.0.0.6:45312in MyMiddleware.run()
LOG: Closed client: /10.0.0.6:45316in MyMiddleware.run()
LOG: Closed client: /10.0.0.6:45320in MyMiddleware.run()
