------------Middleware started!------------
LOG: Waiting for connection in MyMiddleware.run()
LOG: Accepted client: /10.0.0.11:37484in MyMiddleware.run()
LOG: Accepted client: /10.0.0.11:37480in MyMiddleware.run()
LOG: Accepted client: /10.0.0.11:37486in MyMiddleware.run()
LOG: Accepted client: /10.0.0.11:37490in MyMiddleware.run()
LOG: Accepted client: /10.0.0.11:37488in MyMiddleware.run()
LOG: Accepted client: /10.0.0.11:37482in MyMiddleware.run()
LOG: Accepted client: /10.0.0.11:37476in MyMiddleware.run()
LOG: Accepted client: /10.0.0.11:37478in MyMiddleware.run()
LOG: Accepted client: /10.0.0.7:38214in MyMiddleware.run()
LOG: Accepted client: /10.0.0.7:38216in MyMiddleware.run()
LOG: Accepted client: /10.0.0.7:38208in MyMiddleware.run()
LOG: Accepted client: /10.0.0.7:38222in MyMiddleware.run()
LOG: Accepted client: /10.0.0.7:38212in MyMiddleware.run()
LOG: Accepted client: /10.0.0.7:38218in MyMiddleware.run()
LOG: Accepted client: /10.0.0.7:38210in MyMiddleware.run()
LOG: Accepted client: /10.0.0.7:38220in MyMiddleware.run()
LOG: Accepted client: /10.0.0.6:48426in MyMiddleware.run()
LOG: Accepted client: /10.0.0.6:48432in MyMiddleware.run()
LOG: Accepted client: /10.0.0.6:48422in MyMiddleware.run()
LOG: Accepted client: /10.0.0.6:48428in MyMiddleware.run()
LOG: Accepted client: /10.0.0.6:48418in MyMiddleware.run()
LOG: Accepted client: /10.0.0.6:48420in MyMiddleware.run()
LOG: Accepted client: /10.0.0.6:48430in MyMiddleware.run()
LOG: Accepted client: /10.0.0.6:48424in MyMiddleware.run()
LOG: Closed client: /10.0.0.7:38222in MyMiddleware.run()
LOG: Closed client: /10.0.0.7:38220in MyMiddleware.run()
LOG: Closed client: /10.0.0.7:38216in MyMiddleware.run()
LOG: Closed client: /10.0.0.7:38210in MyMiddleware.run()
LOG: Closed client: /10.0.0.7:38208in MyMiddleware.run()
LOG: Closed client: /10.0.0.7:38212in MyMiddleware.run()
LOG: Closed client: /10.0.0.7:38218in MyMiddleware.run()
LOG: Closed client: /10.0.0.7:38214in MyMiddleware.run()
LOG: Closed client: /10.0.0.11:37482in MyMiddleware.run()
LOG: Closed client: /10.0.0.11:37480in MyMiddleware.run()
LOG: Closed client: /10.0.0.11:37484in MyMiddleware.run()
LOG: Closed client: /10.0.0.11:37478in MyMiddleware.run()
LOG: Closed client: /10.0.0.11:37490in MyMiddleware.run()
LOG: Closed client: /10.0.0.11:37488in MyMiddleware.run()
LOG: Closed client: /10.0.0.11:37486in MyMiddleware.run()
LOG: Closed client: /10.0.0.11:37476in MyMiddleware.run()
LOG: Closed client: /10.0.0.6:48432in MyMiddleware.run()
LOG: Closed client: /10.0.0.6:48426in MyMiddleware.run()
LOG: Closed client: /10.0.0.6:48418in MyMiddleware.run()
LOG: Closed client: /10.0.0.6:48420in MyMiddleware.run()
LOG: Closed client: /10.0.0.6:48430in MyMiddleware.run()
LOG: Closed client: /10.0.0.6:48422in MyMiddleware.run()
LOG: Closed client: /10.0.0.6:48428in MyMiddleware.run()
LOG: Closed client: /10.0.0.6:48424in MyMiddleware.run()
