------------Middleware started!------------
LOG: Waiting for connection in MyMiddleware.run()
LOG: Accepted client: /10.0.0.7:34272in MyMiddleware.run()
LOG: Accepted client: /10.0.0.7:34276in MyMiddleware.run()
LOG: Accepted client: /10.0.0.7:34260in MyMiddleware.run()
LOG: Accepted client: /10.0.0.7:34310in MyMiddleware.run()
LOG: Accepted client: /10.0.0.7:34314in MyMiddleware.run()
LOG: Accepted client: /10.0.0.7:34356in MyMiddleware.run()
LOG: Accepted client: /10.0.0.7:34328in MyMiddleware.run()
LOG: Accepted client: /10.0.0.7:34262in MyMiddleware.run()
LOG: Accepted client: /10.0.0.7:34266in MyMiddleware.run()
LOG: Accepted client: /10.0.0.7:34280in MyMiddleware.run()
LOG: Accepted client: /10.0.0.7:34352in MyMiddleware.run()
LOG: Accepted client: /10.0.0.7:34354in MyMiddleware.run()
LOG: Accepted client: /10.0.0.7:34254in MyMiddleware.run()
LOG: Accepted client: /10.0.0.7:34292in MyMiddleware.run()
LOG: Accepted client: /10.0.0.7:34264in MyMiddleware.run()
LOG: Accepted client: /10.0.0.7:34372in MyMiddleware.run()
LOG: Accepted client: /10.0.0.7:34362in MyMiddleware.run()
LOG: Accepted client: /10.0.0.7:34346in MyMiddleware.run()
LOG: Accepted client: /10.0.0.7:34288in MyMiddleware.run()
LOG: Accepted client: /10.0.0.7:34336in MyMiddleware.run()
LOG: Accepted client: /10.0.0.7:34302in MyMiddleware.run()
LOG: Accepted client: /10.0.0.7:34300in MyMiddleware.run()
LOG: Accepted client: /10.0.0.7:34284in MyMiddleware.run()
LOG: Accepted client: /10.0.0.7:34308in MyMiddleware.run()
LOG: Accepted client: /10.0.0.7:34290in MyMiddleware.run()
LOG: Accepted client: /10.0.0.7:34376in MyMiddleware.run()
LOG: Accepted client: /10.0.0.7:34312in MyMiddleware.run()
LOG: Accepted client: /10.0.0.7:34306in MyMiddleware.run()
LOG: Accepted client: /10.0.0.7:34298in MyMiddleware.run()
LOG: Accepted client: /10.0.0.7:34338in MyMiddleware.run()
LOG: Accepted client: /10.0.0.7:34286in MyMiddleware.run()
LOG: Accepted client: /10.0.0.7:34274in MyMiddleware.run()
LOG: Accepted client: /10.0.0.7:34304in MyMiddleware.run()
LOG: Accepted client: /10.0.0.7:34344in MyMiddleware.run()
LOG: Accepted client: /10.0.0.7:34378in MyMiddleware.run()
LOG: Accepted client: /10.0.0.7:34342in MyMiddleware.run()
LOG: Accepted client: /10.0.0.7:34270in MyMiddleware.run()
LOG: Accepted client: /10.0.0.7:34334in MyMiddleware.run()
LOG: Accepted client: /10.0.0.7:34296in MyMiddleware.run()
LOG: Accepted client: /10.0.0.7:34256in MyMiddleware.run()
LOG: Accepted client: /10.0.0.7:34258in MyMiddleware.run()
LOG: Accepted client: /10.0.0.7:34374in MyMiddleware.run()
LOG: Accepted client: /10.0.0.7:34350in MyMiddleware.run()
LOG: Accepted client: /10.0.0.7:34282in MyMiddleware.run()
LOG: Accepted client: /10.0.0.7:34326in MyMiddleware.run()
LOG: Accepted client: /10.0.0.7:34330in MyMiddleware.run()
LOG: Accepted client: /10.0.0.7:34278in MyMiddleware.run()
LOG: Accepted client: /10.0.0.7:34368in MyMiddleware.run()
LOG: Accepted client: /10.0.0.7:34320in MyMiddleware.run()
LOG: Accepted client: /10.0.0.7:34324in MyMiddleware.run()
LOG: Accepted client: /10.0.0.7:34316in MyMiddleware.run()
LOG: Accepted client: /10.0.0.7:34332in MyMiddleware.run()
LOG: Accepted client: /10.0.0.7:34360in MyMiddleware.run()
LOG: Accepted client: /10.0.0.7:34268in MyMiddleware.run()
LOG: Accepted client: /10.0.0.11:33578in MyMiddleware.run()
LOG: Accepted client: /10.0.0.11:33530in MyMiddleware.run()
LOG: Accepted client: /10.0.0.11:33580in MyMiddleware.run()
LOG: Accepted client: /10.0.0.11:33584in MyMiddleware.run()
LOG: Accepted client: /10.0.0.11:33558in MyMiddleware.run()
LOG: Accepted client: /10.0.0.11:33556in MyMiddleware.run()
LOG: Accepted client: /10.0.0.11:33582in MyMiddleware.run()
LOG: Accepted client: /10.0.0.11:33586in MyMiddleware.run()
LOG: Accepted client: /10.0.0.7:34366in MyMiddleware.run()
LOG: Accepted client: /10.0.0.7:34294in MyMiddleware.run()
LOG: Accepted client: /10.0.0.7:34380in MyMiddleware.run()
LOG: Accepted client: /10.0.0.7:34370in MyMiddleware.run()
LOG: Accepted client: /10.0.0.7:34318in MyMiddleware.run()
LOG: Accepted client: /10.0.0.7:34340in MyMiddleware.run()
LOG: Accepted client: /10.0.0.7:34358in MyMiddleware.run()
LOG: Accepted client: /10.0.0.11:33576in MyMiddleware.run()
LOG: Accepted client: /10.0.0.7:34348in MyMiddleware.run()
LOG: Accepted client: /10.0.0.11:33554in MyMiddleware.run()
LOG: Accepted client: /10.0.0.7:34322in MyMiddleware.run()
LOG: Accepted client: /10.0.0.7:34364in MyMiddleware.run()
LOG: Accepted client: /10.0.0.11:33538in MyMiddleware.run()
LOG: Accepted client: /10.0.0.11:33568in MyMiddleware.run()
LOG: Accepted client: /10.0.0.11:33560in MyMiddleware.run()
LOG: Accepted client: /10.0.0.11:33540in MyMiddleware.run()
LOG: Accepted client: /10.0.0.11:33630in MyMiddleware.run()
LOG: Accepted client: /10.0.0.11:33616in MyMiddleware.run()
LOG: Accepted client: /10.0.0.11:33644in MyMiddleware.run()
LOG: Accepted client: /10.0.0.11:33648in MyMiddleware.run()
LOG: Accepted client: /10.0.0.11:33638in MyMiddleware.run()
LOG: Accepted client: /10.0.0.11:33544in MyMiddleware.run()
LOG: Accepted client: /10.0.0.11:33624in MyMiddleware.run()
LOG: Accepted client: /10.0.0.11:33606in MyMiddleware.run()
LOG: Accepted client: /10.0.0.11:33552in MyMiddleware.run()
LOG: Accepted client: /10.0.0.11:33528in MyMiddleware.run()
LOG: Accepted client: /10.0.0.11:33604in MyMiddleware.run()
LOG: Accepted client: /10.0.0.11:33640in MyMiddleware.run()
LOG: Accepted client: /10.0.0.11:33610in MyMiddleware.run()
LOG: Accepted client: /10.0.0.11:33642in MyMiddleware.run()
LOG: Accepted client: /10.0.0.11:33598in MyMiddleware.run()
LOG: Accepted client: /10.0.0.11:33590in MyMiddleware.run()
LOG: Accepted client: /10.0.0.11:33526in MyMiddleware.run()
LOG: Accepted client: /10.0.0.11:33594in MyMiddleware.run()
LOG: Accepted client: /10.0.0.11:33572in MyMiddleware.run()
LOG: Accepted client: /10.0.0.11:33542in MyMiddleware.run()
LOG: Accepted client: /10.0.0.11:33614in MyMiddleware.run()
LOG: Accepted client: /10.0.0.11:33562in MyMiddleware.run()
LOG: Accepted client: /10.0.0.11:33646in MyMiddleware.run()
LOG: Accepted client: /10.0.0.11:33636in MyMiddleware.run()
LOG: Accepted client: /10.0.0.11:33566in MyMiddleware.run()
LOG: Accepted client: /10.0.0.11:33612in MyMiddleware.run()
LOG: Accepted client: /10.0.0.11:33574in MyMiddleware.run()
LOG: Accepted client: /10.0.0.11:33596in MyMiddleware.run()
LOG: Accepted client: /10.0.0.11:33634in MyMiddleware.run()
LOG: Accepted client: /10.0.0.11:33546in MyMiddleware.run()
LOG: Accepted client: /10.0.0.11:33608in MyMiddleware.run()
LOG: Accepted client: /10.0.0.11:33592in MyMiddleware.run()
LOG: Accepted client: /10.0.0.11:33632in MyMiddleware.run()
LOG: Accepted client: /10.0.0.11:33564in MyMiddleware.run()
LOG: Accepted client: /10.0.0.11:33618in MyMiddleware.run()
LOG: Accepted client: /10.0.0.11:33588in MyMiddleware.run()
LOG: Accepted client: /10.0.0.11:33524in MyMiddleware.run()
LOG: Accepted client: /10.0.0.11:33600in MyMiddleware.run()
LOG: Accepted client: /10.0.0.11:33628in MyMiddleware.run()
LOG: Accepted client: /10.0.0.11:33626in MyMiddleware.run()
LOG: Accepted client: /10.0.0.11:33532in MyMiddleware.run()
LOG: Accepted client: /10.0.0.11:33536in MyMiddleware.run()
LOG: Accepted client: /10.0.0.11:33534in MyMiddleware.run()
LOG: Accepted client: /10.0.0.11:33602in MyMiddleware.run()
LOG: Accepted client: /10.0.0.11:33622in MyMiddleware.run()
LOG: Accepted client: /10.0.0.11:33570in MyMiddleware.run()
LOG: Accepted client: /10.0.0.11:33550in MyMiddleware.run()
LOG: Accepted client: /10.0.0.11:33620in MyMiddleware.run()
LOG: Accepted client: /10.0.0.11:33548in MyMiddleware.run()
LOG: Accepted client: /10.0.0.11:33522in MyMiddleware.run()
LOG: Accepted client: /10.0.0.6:44594in MyMiddleware.run()
LOG: Accepted client: /10.0.0.6:44544in MyMiddleware.run()
LOG: Accepted client: /10.0.0.6:44470in MyMiddleware.run()
LOG: Accepted client: /10.0.0.6:44560in MyMiddleware.run()
LOG: Accepted client: /10.0.0.6:44536in MyMiddleware.run()
LOG: Accepted client: /10.0.0.6:44550in MyMiddleware.run()
LOG: Accepted client: /10.0.0.6:44514in MyMiddleware.run()
LOG: Accepted client: /10.0.0.6:44474in MyMiddleware.run()
LOG: Accepted client: /10.0.0.6:44586in MyMiddleware.run()
LOG: Accepted client: /10.0.0.6:44592in MyMiddleware.run()
LOG: Accepted client: /10.0.0.6:44482in MyMiddleware.run()
LOG: Accepted client: /10.0.0.6:44500in MyMiddleware.run()
LOG: Accepted client: /10.0.0.6:44572in MyMiddleware.run()
LOG: Accepted client: /10.0.0.6:44492in MyMiddleware.run()
LOG: Accepted client: /10.0.0.6:44526in MyMiddleware.run()
LOG: Accepted client: /10.0.0.6:44588in MyMiddleware.run()
LOG: Accepted client: /10.0.0.6:44542in MyMiddleware.run()
LOG: Accepted client: /10.0.0.6:44498in MyMiddleware.run()
LOG: Accepted client: /10.0.0.6:44528in MyMiddleware.run()
LOG: Accepted client: /10.0.0.6:44548in MyMiddleware.run()
LOG: Accepted client: /10.0.0.6:44538in MyMiddleware.run()
LOG: Accepted client: /10.0.0.6:44494in MyMiddleware.run()
LOG: Accepted client: /10.0.0.6:44508in MyMiddleware.run()
LOG: Accepted client: /10.0.0.6:44578in MyMiddleware.run()
LOG: Accepted client: /10.0.0.6:44468in MyMiddleware.run()
LOG: Accepted client: /10.0.0.6:44524in MyMiddleware.run()
LOG: Accepted client: /10.0.0.6:44562in MyMiddleware.run()
LOG: Accepted client: /10.0.0.6:44558in MyMiddleware.run()
LOG: Accepted client: /10.0.0.6:44496in MyMiddleware.run()
LOG: Accepted client: /10.0.0.6:44530in MyMiddleware.run()
LOG: Accepted client: /10.0.0.6:44556in MyMiddleware.run()
LOG: Accepted client: /10.0.0.6:44576in MyMiddleware.run()
LOG: Accepted client: /10.0.0.6:44480in MyMiddleware.run()
LOG: Accepted client: /10.0.0.6:44584in MyMiddleware.run()
LOG: Accepted client: /10.0.0.6:44510in MyMiddleware.run()
LOG: Accepted client: /10.0.0.6:44502in MyMiddleware.run()
LOG: Accepted client: /10.0.0.6:44590in MyMiddleware.run()
LOG: Accepted client: /10.0.0.6:44546in MyMiddleware.run()
LOG: Accepted client: /10.0.0.6:44574in MyMiddleware.run()
LOG: Accepted client: /10.0.0.6:44472in MyMiddleware.run()
LOG: Accepted client: /10.0.0.6:44512in MyMiddleware.run()
LOG: Accepted client: /10.0.0.6:44540in MyMiddleware.run()
LOG: Accepted client: /10.0.0.6:44522in MyMiddleware.run()
LOG: Accepted client: /10.0.0.6:44486in MyMiddleware.run()
LOG: Accepted client: /10.0.0.6:44566in MyMiddleware.run()
LOG: Accepted client: /10.0.0.6:44564in MyMiddleware.run()
LOG: Accepted client: /10.0.0.6:44484in MyMiddleware.run()
LOG: Accepted client: /10.0.0.6:44488in MyMiddleware.run()
LOG: Accepted client: /10.0.0.6:44476in MyMiddleware.run()
LOG: Accepted client: /10.0.0.6:44570in MyMiddleware.run()
LOG: Accepted client: /10.0.0.6:44516in MyMiddleware.run()
LOG: Accepted client: /10.0.0.6:44520in MyMiddleware.run()
LOG: Accepted client: /10.0.0.6:44532in MyMiddleware.run()
LOG: Accepted client: /10.0.0.6:44504in MyMiddleware.run()
LOG: Accepted client: /10.0.0.6:44552in MyMiddleware.run()
LOG: Accepted client: /10.0.0.6:44554in MyMiddleware.run()
LOG: Accepted client: /10.0.0.6:44582in MyMiddleware.run()
LOG: Accepted client: /10.0.0.6:44580in MyMiddleware.run()
LOG: Accepted client: /10.0.0.6:44506in MyMiddleware.run()
LOG: Accepted client: /10.0.0.6:44534in MyMiddleware.run()
LOG: Accepted client: /10.0.0.6:44518in MyMiddleware.run()
LOG: Accepted client: /10.0.0.6:44490in MyMiddleware.run()
LOG: Accepted client: /10.0.0.6:44478in MyMiddleware.run()
LOG: Accepted client: /10.0.0.6:44568in MyMiddleware.run()
LOG: Closed client: /10.0.0.7:34258in MyMiddleware.run()
LOG: Closed client: /10.0.0.7:34278in MyMiddleware.run()
LOG: Closed client: /10.0.0.7:34328in MyMiddleware.run()
LOG: Closed client: /10.0.0.7:34292in MyMiddleware.run()
LOG: Closed client: /10.0.0.7:34312in MyMiddleware.run()
LOG: Closed client: /10.0.0.7:34276in MyMiddleware.run()
LOG: Closed client: /10.0.0.7:34260in MyMiddleware.run()
LOG: Closed client: /10.0.0.7:34318in MyMiddleware.run()
LOG: Closed client: /10.0.0.7:34304in MyMiddleware.run()
LOG: Closed client: /10.0.0.7:34288in MyMiddleware.run()
LOG: Closed client: /10.0.0.7:34308in MyMiddleware.run()
LOG: Closed client: /10.0.0.7:34270in MyMiddleware.run()
LOG: Closed client: /10.0.0.7:34342in MyMiddleware.run()
LOG: Closed client: /10.0.0.7:34284in MyMiddleware.run()
LOG: Closed client: /10.0.0.7:34264in MyMiddleware.run()
LOG: Closed client: /10.0.0.7:34254in MyMiddleware.run()
LOG: Closed client: /10.0.0.7:34256in MyMiddleware.run()
LOG: Closed client: /10.0.0.7:34272in MyMiddleware.run()
LOG: Closed client: /10.0.0.7:34310in MyMiddleware.run()
LOG: Closed client: /10.0.0.7:34306in MyMiddleware.run()
LOG: Closed client: /10.0.0.7:34286in MyMiddleware.run()
LOG: Closed client: /10.0.0.7:34282in MyMiddleware.run()
LOG: Closed client: /10.0.0.7:34262in MyMiddleware.run()
LOG: Closed client: /10.0.0.7:34314in MyMiddleware.run()
LOG: Closed client: /10.0.0.7:34280in MyMiddleware.run()
LOG: Closed client: /10.0.0.7:34350in MyMiddleware.run()
LOG: Closed client: /10.0.0.7:34298in MyMiddleware.run()
LOG: Closed client: /10.0.0.7:34322in MyMiddleware.run()
LOG: Closed client: /10.0.0.7:34274in MyMiddleware.run()
LOG: Closed client: /10.0.0.7:34316in MyMiddleware.run()
LOG: Closed client: /10.0.0.7:34356in MyMiddleware.run()
LOG: Closed client: /10.0.0.7:34296in MyMiddleware.run()
LOG: Closed client: /10.0.0.7:34268in MyMiddleware.run()
LOG: Closed client: /10.0.0.7:34266in MyMiddleware.run()
LOG: Closed client: /10.0.0.7:34302in MyMiddleware.run()
LOG: Closed client: /10.0.0.7:34290in MyMiddleware.run()
LOG: Closed client: /10.0.0.7:34294in MyMiddleware.run()
LOG: Closed client: /10.0.0.7:34300in MyMiddleware.run()
LOG: Closed client: /10.0.0.7:34334in MyMiddleware.run()
LOG: Closed client: /10.0.0.7:34346in MyMiddleware.run()
LOG: Closed client: /10.0.0.7:34332in MyMiddleware.run()
LOG: Closed client: /10.0.0.7:34354in MyMiddleware.run()
LOG: Closed client: /10.0.0.7:34344in MyMiddleware.run()
LOG: Closed client: /10.0.0.7:34378in MyMiddleware.run()
LOG: Closed client: /10.0.0.7:34320in MyMiddleware.run()
LOG: Closed client: /10.0.0.7:34366in MyMiddleware.run()
LOG: Closed client: /10.0.0.7:34362in MyMiddleware.run()
LOG: Closed client: /10.0.0.7:34364in MyMiddleware.run()
LOG: Closed client: /10.0.0.7:34348in MyMiddleware.run()
LOG: Closed client: /10.0.0.7:34330in MyMiddleware.run()
LOG: Closed client: /10.0.0.7:34370in MyMiddleware.run()
LOG: Closed client: /10.0.0.7:34326in MyMiddleware.run()
LOG: Closed client: /10.0.0.7:34374in MyMiddleware.run()
LOG: Closed client: /10.0.0.7:34340in MyMiddleware.run()
LOG: Closed client: /10.0.0.7:34360in MyMiddleware.run()
LOG: Closed client: /10.0.0.7:34324in MyMiddleware.run()
LOG: Closed client: /10.0.0.7:34372in MyMiddleware.run()
LOG: Closed client: /10.0.0.7:34338in MyMiddleware.run()
LOG: Closed client: /10.0.0.7:34358in MyMiddleware.run()
LOG: Closed client: /10.0.0.7:34376in MyMiddleware.run()
LOG: Closed client: /10.0.0.7:34368in MyMiddleware.run()
LOG: Closed client: /10.0.0.7:34336in MyMiddleware.run()
LOG: Closed client: /10.0.0.7:34380in MyMiddleware.run()
LOG: Closed client: /10.0.0.7:34352in MyMiddleware.run()
LOG: Closed client: /10.0.0.6:44480in MyMiddleware.run()
LOG: Closed client: /10.0.0.6:44474in MyMiddleware.run()
LOG: Closed client: /10.0.0.6:44470in MyMiddleware.run()
LOG: Closed client: /10.0.0.6:44472in MyMiddleware.run()
LOG: Closed client: /10.0.0.6:44468in MyMiddleware.run()
LOG: Closed client: /10.0.0.6:44482in MyMiddleware.run()
LOG: Closed client: /10.0.0.6:44514in MyMiddleware.run()
LOG: Closed client: /10.0.0.6:44476in MyMiddleware.run()
LOG: Closed client: /10.0.0.6:44516in MyMiddleware.run()
LOG: Closed client: /10.0.0.6:44492in MyMiddleware.run()
LOG: Closed client: /10.0.0.6:44512in MyMiddleware.run()
LOG: Closed client: /10.0.0.6:44484in MyMiddleware.run()
LOG: Closed client: /10.0.0.6:44488in MyMiddleware.run()
LOG: Closed client: /10.0.0.6:44496in MyMiddleware.run()
LOG: Closed client: /10.0.0.6:44520in MyMiddleware.run()
LOG: Closed client: /10.0.0.6:44498in MyMiddleware.run()
LOG: Closed client: /10.0.0.6:44490in MyMiddleware.run()
LOG: Closed client: /10.0.0.6:44478in MyMiddleware.run()
LOG: Closed client: /10.0.0.6:44502in MyMiddleware.run()
LOG: Closed client: /10.0.0.6:44508in MyMiddleware.run()
LOG: Closed client: /10.0.0.6:44526in MyMiddleware.run()
LOG: Closed client: /10.0.0.6:44528in MyMiddleware.run()
LOG: Closed client: /10.0.0.6:44518in MyMiddleware.run()
LOG: Closed client: /10.0.0.6:44522in MyMiddleware.run()
LOG: Closed client: /10.0.0.6:44530in MyMiddleware.run()
LOG: Closed client: /10.0.0.6:44500in MyMiddleware.run()
LOG: Closed client: /10.0.0.6:44494in MyMiddleware.run()
LOG: Closed client: /10.0.0.6:44524in MyMiddleware.run()
LOG: Closed client: /10.0.0.6:44504in MyMiddleware.run()
LOG: Closed client: /10.0.0.6:44486in MyMiddleware.run()
LOG: Closed client: /10.0.0.6:44510in MyMiddleware.run()
LOG: Closed client: /10.0.0.6:44506in MyMiddleware.run()
LOG: Closed client: /10.0.0.6:44558in MyMiddleware.run()
LOG: Closed client: /10.0.0.6:44538in MyMiddleware.run()
LOG: Closed client: /10.0.0.6:44556in MyMiddleware.run()
LOG: Closed client: /10.0.0.6:44560in MyMiddleware.run()
LOG: Closed client: /10.0.0.6:44544in MyMiddleware.run()
LOG: Closed client: /10.0.0.6:44550in MyMiddleware.run()
LOG: Closed client: /10.0.0.6:44562in MyMiddleware.run()
LOG: Closed client: /10.0.0.6:44540in MyMiddleware.run()
LOG: Closed client: /10.0.0.6:44554in MyMiddleware.run()
LOG: Closed client: /10.0.0.6:44546in MyMiddleware.run()
LOG: Closed client: /10.0.0.6:44534in MyMiddleware.run()
LOG: Closed client: /10.0.0.6:44542in MyMiddleware.run()
LOG: Closed client: /10.0.0.6:44564in MyMiddleware.run()
LOG: Closed client: /10.0.0.6:44552in MyMiddleware.run()
LOG: Closed client: /10.0.0.6:44532in MyMiddleware.run()
LOG: Closed client: /10.0.0.6:44548in MyMiddleware.run()
LOG: Closed client: /10.0.0.6:44536in MyMiddleware.run()
LOG: Closed client: /10.0.0.6:44576in MyMiddleware.run()
LOG: Closed client: /10.0.0.6:44590in MyMiddleware.run()
LOG: Closed client: /10.0.0.6:44574in MyMiddleware.run()
LOG: Closed client: /10.0.0.6:44570in MyMiddleware.run()
LOG: Closed client: /10.0.0.6:44586in MyMiddleware.run()
LOG: Closed client: /10.0.0.6:44568in MyMiddleware.run()
LOG: Closed client: /10.0.0.6:44592in MyMiddleware.run()
LOG: Closed client: /10.0.0.6:44584in MyMiddleware.run()
LOG: Closed client: /10.0.0.6:44578in MyMiddleware.run()
LOG: Closed client: /10.0.0.6:44572in MyMiddleware.run()
LOG: Closed client: /10.0.0.6:44566in MyMiddleware.run()
LOG: Closed client: /10.0.0.6:44580in MyMiddleware.run()
LOG: Closed client: /10.0.0.6:44588in MyMiddleware.run()
LOG: Closed client: /10.0.0.6:44582in MyMiddleware.run()
LOG: Closed client: /10.0.0.6:44594in MyMiddleware.run()
LOG: Closed client: /10.0.0.11:33526in MyMiddleware.run()
LOG: Closed client: /10.0.0.11:33522in MyMiddleware.run()
LOG: Closed client: /10.0.0.11:33538in MyMiddleware.run()
LOG: Closed client: /10.0.0.11:33534in MyMiddleware.run()
LOG: Closed client: /10.0.0.11:33532in MyMiddleware.run()
LOG: Closed client: /10.0.0.11:33542in MyMiddleware.run()
LOG: Closed client: /10.0.0.11:33546in MyMiddleware.run()
LOG: Closed client: /10.0.0.11:33544in MyMiddleware.run()
LOG: Closed client: /10.0.0.11:33528in MyMiddleware.run()
LOG: Closed client: /10.0.0.11:33524in MyMiddleware.run()
LOG: Closed client: /10.0.0.11:33536in MyMiddleware.run()
LOG: Closed client: /10.0.0.11:33540in MyMiddleware.run()
LOG: Closed client: /10.0.0.11:33530in MyMiddleware.run()
LOG: Closed client: /10.0.0.11:33570in MyMiddleware.run()
LOG: Closed client: /10.0.0.11:33562in MyMiddleware.run()
LOG: Closed client: /10.0.0.11:33558in MyMiddleware.run()
LOG: Closed client: /10.0.0.11:33554in MyMiddleware.run()
LOG: Closed client: /10.0.0.11:33572in MyMiddleware.run()
LOG: Closed client: /10.0.0.11:33568in MyMiddleware.run()
LOG: Closed client: /10.0.0.11:33552in MyMiddleware.run()
LOG: Closed client: /10.0.0.11:33560in MyMiddleware.run()
LOG: Closed client: /10.0.0.11:33564in MyMiddleware.run()
LOG: Closed client: /10.0.0.11:33548in MyMiddleware.run()
LOG: Closed client: /10.0.0.11:33556in MyMiddleware.run()
LOG: Closed client: /10.0.0.11:33550in MyMiddleware.run()
LOG: Closed client: /10.0.0.11:33576in MyMiddleware.run()
LOG: Closed client: /10.0.0.11:33584in MyMiddleware.run()
LOG: Closed client: /10.0.0.11:33580in MyMiddleware.run()
LOG: Closed client: /10.0.0.11:33588in MyMiddleware.run()
LOG: Closed client: /10.0.0.11:33590in MyMiddleware.run()
LOG: Closed client: /10.0.0.11:33574in MyMiddleware.run()
LOG: Closed client: /10.0.0.11:33586in MyMiddleware.run()
LOG: Closed client: /10.0.0.11:33592in MyMiddleware.run()
LOG: Closed client: /10.0.0.11:33566in MyMiddleware.run()
LOG: Closed client: /10.0.0.11:33582in MyMiddleware.run()
LOG: Closed client: /10.0.0.11:33594in MyMiddleware.run()
LOG: Closed client: /10.0.0.11:33596in MyMiddleware.run()
LOG: Closed client: /10.0.0.11:33598in MyMiddleware.run()
LOG: Closed client: /10.0.0.11:33578in MyMiddleware.run()
LOG: Closed client: /10.0.0.11:33614in MyMiddleware.run()
LOG: Closed client: /10.0.0.11:33626in MyMiddleware.run()
LOG: Closed client: /10.0.0.11:33616in MyMiddleware.run()
LOG: Closed client: /10.0.0.11:33602in MyMiddleware.run()
LOG: Closed client: /10.0.0.11:33618in MyMiddleware.run()
LOG: Closed client: /10.0.0.11:33624in MyMiddleware.run()
LOG: Closed client: /10.0.0.11:33612in MyMiddleware.run()
LOG: Closed client: /10.0.0.11:33604in MyMiddleware.run()
LOG: Closed client: /10.0.0.11:33606in MyMiddleware.run()
LOG: Closed client: /10.0.0.11:33600in MyMiddleware.run()
LOG: Closed client: /10.0.0.11:33628in MyMiddleware.run()
LOG: Closed client: /10.0.0.11:33620in MyMiddleware.run()
LOG: Closed client: /10.0.0.11:33632in MyMiddleware.run()
LOG: Closed client: /10.0.0.11:33622in MyMiddleware.run()
LOG: Closed client: /10.0.0.11:33610in MyMiddleware.run()
LOG: Closed client: /10.0.0.11:33608in MyMiddleware.run()
LOG: Closed client: /10.0.0.11:33630in MyMiddleware.run()
LOG: Closed client: /10.0.0.11:33638in MyMiddleware.run()
LOG: Closed client: /10.0.0.11:33648in MyMiddleware.run()
LOG: Closed client: /10.0.0.11:33646in MyMiddleware.run()
LOG: Closed client: /10.0.0.11:33636in MyMiddleware.run()
LOG: Closed client: /10.0.0.11:33640in MyMiddleware.run()
LOG: Closed client: /10.0.0.11:33644in MyMiddleware.run()
LOG: Closed client: /10.0.0.11:33642in MyMiddleware.run()
LOG: Closed client: /10.0.0.11:33634in MyMiddleware.run()
