------------Middleware started!------------
LOG: Waiting for connection in MyMiddleware.run()
LOG: Accepted client: /10.0.0.11:47154in MyMiddleware.run()
LOG: Accepted client: /10.0.0.11:47074in MyMiddleware.run()
LOG: Accepted client: /10.0.0.11:47146in MyMiddleware.run()
LOG: Accepted client: /10.0.0.11:47132in MyMiddleware.run()
LOG: Accepted client: /10.0.0.11:47118in MyMiddleware.run()
LOG: Accepted client: /10.0.0.11:47070in MyMiddleware.run()
LOG: Accepted client: /10.0.0.11:47094in MyMiddleware.run()
LOG: Accepted client: /10.0.0.11:47148in MyMiddleware.run()
LOG: Accepted client: /10.0.0.11:47138in MyMiddleware.run()
LOG: Accepted client: /10.0.0.11:47150in MyMiddleware.run()
LOG: Accepted client: /10.0.0.11:47110in MyMiddleware.run()
LOG: Accepted client: /10.0.0.11:47114in MyMiddleware.run()
LOG: Accepted client: /10.0.0.11:47112in MyMiddleware.run()
LOG: Accepted client: /10.0.0.11:47084in MyMiddleware.run()
LOG: Accepted client: /10.0.0.11:47086in MyMiddleware.run()
LOG: Accepted client: /10.0.0.11:47072in MyMiddleware.run()
LOG: Accepted client: /10.0.0.11:47080in MyMiddleware.run()
LOG: Accepted client: /10.0.0.11:47128in MyMiddleware.run()
LOG: Accepted client: /10.0.0.11:47136in MyMiddleware.run()
LOG: Accepted client: /10.0.0.11:47186in MyMiddleware.run()
LOG: Accepted client: /10.0.0.11:47090in MyMiddleware.run()
LOG: Accepted client: /10.0.0.11:47140in MyMiddleware.run()
LOG: Accepted client: /10.0.0.11:47102in MyMiddleware.run()
LOG: Accepted client: /10.0.0.11:47192in MyMiddleware.run()
LOG: Accepted client: /10.0.0.11:47174in MyMiddleware.run()
LOG: Accepted client: /10.0.0.11:47068in MyMiddleware.run()
LOG: Accepted client: /10.0.0.11:47104in MyMiddleware.run()
LOG: Accepted client: /10.0.0.11:47098in MyMiddleware.run()
LOG: Accepted client: /10.0.0.11:47106in MyMiddleware.run()
LOG: Accepted client: /10.0.0.11:47134in MyMiddleware.run()
LOG: Accepted client: /10.0.0.11:47170in MyMiddleware.run()
LOG: Accepted client: /10.0.0.11:47184in MyMiddleware.run()
LOG: Accepted client: /10.0.0.11:47172in MyMiddleware.run()
LOG: Accepted client: /10.0.0.11:47142in MyMiddleware.run()
LOG: Accepted client: /10.0.0.11:47096in MyMiddleware.run()
LOG: Accepted client: /10.0.0.11:47152in MyMiddleware.run()
LOG: Accepted client: /10.0.0.11:47108in MyMiddleware.run()
LOG: Accepted client: /10.0.0.11:47100in MyMiddleware.run()
LOG: Accepted client: /10.0.0.11:47168in MyMiddleware.run()
LOG: Accepted client: /10.0.0.11:47156in MyMiddleware.run()
LOG: Accepted client: /10.0.0.11:47116in MyMiddleware.run()
LOG: Accepted client: /10.0.0.11:47130in MyMiddleware.run()
LOG: Accepted client: /10.0.0.11:47144in MyMiddleware.run()
LOG: Accepted client: /10.0.0.11:47158in MyMiddleware.run()
LOG: Accepted client: /10.0.0.11:47088in MyMiddleware.run()
LOG: Accepted client: /10.0.0.11:47188in MyMiddleware.run()
LOG: Accepted client: /10.0.0.11:47078in MyMiddleware.run()
LOG: Accepted client: /10.0.0.11:47180in MyMiddleware.run()
LOG: Accepted client: /10.0.0.11:47076in MyMiddleware.run()
LOG: Accepted client: /10.0.0.11:47182in MyMiddleware.run()
LOG: Accepted client: /10.0.0.11:47162in MyMiddleware.run()
LOG: Accepted client: /10.0.0.11:47164in MyMiddleware.run()
LOG: Accepted client: /10.0.0.11:47092in MyMiddleware.run()
LOG: Accepted client: /10.0.0.7:47814in MyMiddleware.run()
LOG: Accepted client: /10.0.0.7:47828in MyMiddleware.run()
LOG: Accepted client: /10.0.0.7:47842in MyMiddleware.run()
LOG: Accepted client: /10.0.0.7:47826in MyMiddleware.run()
LOG: Accepted client: /10.0.0.7:47810in MyMiddleware.run()
LOG: Accepted client: /10.0.0.7:47854in MyMiddleware.run()
LOG: Accepted client: /10.0.0.7:47848in MyMiddleware.run()
LOG: Accepted client: /10.0.0.7:47812in MyMiddleware.run()
LOG: Accepted client: /10.0.0.7:47858in MyMiddleware.run()
LOG: Accepted client: /10.0.0.7:47872in MyMiddleware.run()
LOG: Accepted client: /10.0.0.7:47820in MyMiddleware.run()
LOG: Accepted client: /10.0.0.7:47864in MyMiddleware.run()
LOG: Accepted client: /10.0.0.7:47920in MyMiddleware.run()
LOG: Accepted client: /10.0.0.7:47834in MyMiddleware.run()
LOG: Accepted client: /10.0.0.7:47908in MyMiddleware.run()
LOG: Accepted client: /10.0.0.7:47888in MyMiddleware.run()
LOG: Accepted client: /10.0.0.7:47832in MyMiddleware.run()
LOG: Accepted client: /10.0.0.7:47850in MyMiddleware.run()
LOG: Accepted client: /10.0.0.6:58116in MyMiddleware.run()
LOG: Accepted client: /10.0.0.6:58102in MyMiddleware.run()
LOG: Accepted client: /10.0.0.6:58118in MyMiddleware.run()
LOG: Accepted client: /10.0.0.6:58130in MyMiddleware.run()
LOG: Accepted client: /10.0.0.6:58070in MyMiddleware.run()
LOG: Accepted client: /10.0.0.6:58120in MyMiddleware.run()
LOG: Accepted client: /10.0.0.11:47176in MyMiddleware.run()
LOG: Accepted client: /10.0.0.11:47190in MyMiddleware.run()
LOG: Accepted client: /10.0.0.11:47120in MyMiddleware.run()
LOG: Accepted client: /10.0.0.11:47166in MyMiddleware.run()
LOG: Accepted client: /10.0.0.11:47178in MyMiddleware.run()
LOG: Accepted client: /10.0.0.11:47122in MyMiddleware.run()
LOG: Accepted client: /10.0.0.11:47082in MyMiddleware.run()
LOG: Accepted client: /10.0.0.11:47126in MyMiddleware.run()
LOG: Accepted client: /10.0.0.11:47124in MyMiddleware.run()
LOG: Accepted client: /10.0.0.11:47160in MyMiddleware.run()
LOG: Accepted client: /10.0.0.7:47856in MyMiddleware.run()
LOG: Accepted client: /10.0.0.7:47818in MyMiddleware.run()
LOG: Accepted client: /10.0.0.7:47930in MyMiddleware.run()
LOG: Accepted client: /10.0.0.7:47830in MyMiddleware.run()
LOG: Accepted client: /10.0.0.7:47840in MyMiddleware.run()
LOG: Accepted client: /10.0.0.7:47884in MyMiddleware.run()
LOG: Accepted client: /10.0.0.7:47816in MyMiddleware.run()
LOG: Accepted client: /10.0.0.7:47868in MyMiddleware.run()
LOG: Accepted client: /10.0.0.7:47844in MyMiddleware.run()
LOG: Accepted client: /10.0.0.7:47836in MyMiddleware.run()
LOG: Accepted client: /10.0.0.7:47824in MyMiddleware.run()
LOG: Accepted client: /10.0.0.7:47874in MyMiddleware.run()
LOG: Accepted client: /10.0.0.11:47066in MyMiddleware.run()
LOG: Accepted client: /10.0.0.7:47878in MyMiddleware.run()
LOG: Accepted client: /10.0.0.7:47882in MyMiddleware.run()
LOG: Accepted client: /10.0.0.7:47894in MyMiddleware.run()
LOG: Accepted client: /10.0.0.7:47916in MyMiddleware.run()
LOG: Accepted client: /10.0.0.7:47838in MyMiddleware.run()
LOG: Accepted client: /10.0.0.7:47896in MyMiddleware.run()
LOG: Accepted client: /10.0.0.7:47806in MyMiddleware.run()
LOG: Accepted client: /10.0.0.7:47904in MyMiddleware.run()
LOG: Accepted client: /10.0.0.7:47860in MyMiddleware.run()
LOG: Accepted client: /10.0.0.7:47924in MyMiddleware.run()
LOG: Accepted client: /10.0.0.7:47870in MyMiddleware.run()
LOG: Accepted client: /10.0.0.7:47846in MyMiddleware.run()
LOG: Accepted client: /10.0.0.7:47906in MyMiddleware.run()
LOG: Accepted client: /10.0.0.7:47910in MyMiddleware.run()
LOG: Accepted client: /10.0.0.6:58128in MyMiddleware.run()
LOG: Accepted client: /10.0.0.7:47922in MyMiddleware.run()
LOG: Accepted client: /10.0.0.7:47886in MyMiddleware.run()
LOG: Accepted client: /10.0.0.6:58122in MyMiddleware.run()
LOG: Accepted client: /10.0.0.6:58136in MyMiddleware.run()
LOG: Accepted client: /10.0.0.7:47862in MyMiddleware.run()
LOG: Accepted client: /10.0.0.7:47902in MyMiddleware.run()
LOG: Accepted client: /10.0.0.7:47822in MyMiddleware.run()
LOG: Accepted client: /10.0.0.7:47900in MyMiddleware.run()
LOG: Accepted client: /10.0.0.6:58124in MyMiddleware.run()
LOG: Accepted client: /10.0.0.6:58126in MyMiddleware.run()
LOG: Accepted client: /10.0.0.7:47932in MyMiddleware.run()
LOG: Accepted client: /10.0.0.7:47808in MyMiddleware.run()
LOG: Accepted client: /10.0.0.7:47890in MyMiddleware.run()
LOG: Accepted client: /10.0.0.7:47852in MyMiddleware.run()
LOG: Accepted client: /10.0.0.6:58114in MyMiddleware.run()
LOG: Accepted client: /10.0.0.6:58110in MyMiddleware.run()
LOG: Accepted client: /10.0.0.6:58112in MyMiddleware.run()
LOG: Accepted client: /10.0.0.7:47876in MyMiddleware.run()
LOG: Accepted client: /10.0.0.7:47866in MyMiddleware.run()
LOG: Accepted client: /10.0.0.7:47914in MyMiddleware.run()
LOG: Accepted client: /10.0.0.6:58132in MyMiddleware.run()
LOG: Accepted client: /10.0.0.6:58134in MyMiddleware.run()
LOG: Accepted client: /10.0.0.7:47928in MyMiddleware.run()
LOG: Accepted client: /10.0.0.7:47892in MyMiddleware.run()
LOG: Accepted client: /10.0.0.6:58106in MyMiddleware.run()
LOG: Accepted client: /10.0.0.6:58104in MyMiddleware.run()
LOG: Accepted client: /10.0.0.7:47880in MyMiddleware.run()
LOG: Accepted client: /10.0.0.6:58138in MyMiddleware.run()
LOG: Accepted client: /10.0.0.6:58076in MyMiddleware.run()
LOG: Accepted client: /10.0.0.6:58016in MyMiddleware.run()
LOG: Accepted client: /10.0.0.6:58020in MyMiddleware.run()
LOG: Accepted client: /10.0.0.6:58068in MyMiddleware.run()
LOG: Accepted client: /10.0.0.6:58100in MyMiddleware.run()
LOG: Accepted client: /10.0.0.6:58066in MyMiddleware.run()
LOG: Accepted client: /10.0.0.6:58036in MyMiddleware.run()
LOG: Accepted client: /10.0.0.6:58074in MyMiddleware.run()
LOG: Accepted client: /10.0.0.6:58086in MyMiddleware.run()
LOG: Accepted client: /10.0.0.6:58080in MyMiddleware.run()
LOG: Accepted client: /10.0.0.6:58060in MyMiddleware.run()
LOG: Accepted client: /10.0.0.6:58022in MyMiddleware.run()
LOG: Accepted client: /10.0.0.6:58090in MyMiddleware.run()
LOG: Accepted client: /10.0.0.6:58058in MyMiddleware.run()
LOG: Accepted client: /10.0.0.6:58096in MyMiddleware.run()
LOG: Accepted client: /10.0.0.6:58098in MyMiddleware.run()
LOG: Accepted client: /10.0.0.6:58094in MyMiddleware.run()
LOG: Accepted client: /10.0.0.6:58092in MyMiddleware.run()
LOG: Accepted client: /10.0.0.6:58040in MyMiddleware.run()
LOG: Accepted client: /10.0.0.6:58014in MyMiddleware.run()
LOG: Accepted client: /10.0.0.6:58108in MyMiddleware.run()
LOG: Accepted client: /10.0.0.6:58082in MyMiddleware.run()
LOG: Accepted client: /10.0.0.6:58054in MyMiddleware.run()
LOG: Accepted client: /10.0.0.6:58072in MyMiddleware.run()
LOG: Accepted client: /10.0.0.6:58034in MyMiddleware.run()
LOG: Accepted client: /10.0.0.6:58078in MyMiddleware.run()
LOG: Accepted client: /10.0.0.6:58012in MyMiddleware.run()
LOG: Accepted client: /10.0.0.6:58050in MyMiddleware.run()
LOG: Accepted client: /10.0.0.6:58030in MyMiddleware.run()
LOG: Accepted client: /10.0.0.6:58052in MyMiddleware.run()
LOG: Accepted client: /10.0.0.6:58046in MyMiddleware.run()
LOG: Accepted client: /10.0.0.6:58024in MyMiddleware.run()
LOG: Accepted client: /10.0.0.6:58062in MyMiddleware.run()
LOG: Accepted client: /10.0.0.6:58044in MyMiddleware.run()
LOG: Accepted client: /10.0.0.6:58026in MyMiddleware.run()
LOG: Accepted client: /10.0.0.6:58042in MyMiddleware.run()
LOG: Accepted client: /10.0.0.6:58018in MyMiddleware.run()
LOG: Accepted client: /10.0.0.6:58038in MyMiddleware.run()
LOG: Accepted client: /10.0.0.6:58028in MyMiddleware.run()
LOG: Accepted client: /10.0.0.6:58056in MyMiddleware.run()
LOG: Accepted client: /10.0.0.6:58084in MyMiddleware.run()
LOG: Accepted client: /10.0.0.6:58064in MyMiddleware.run()
LOG: Accepted client: /10.0.0.6:58088in MyMiddleware.run()
LOG: Accepted client: /10.0.0.6:58032in MyMiddleware.run()
LOG: Accepted client: /10.0.0.6:58048in MyMiddleware.run()
LOG: Accepted client: /10.0.0.7:47918in MyMiddleware.run()
LOG: Accepted client: /10.0.0.7:47898in MyMiddleware.run()
LOG: Accepted client: /10.0.0.7:47912in MyMiddleware.run()
LOG: Accepted client: /10.0.0.7:47926in MyMiddleware.run()
LOG: Closed client: /10.0.0.11:47086in MyMiddleware.run()
LOG: Closed client: /10.0.0.11:47084in MyMiddleware.run()
LOG: Closed client: /10.0.0.11:47070in MyMiddleware.run()
LOG: Closed client: /10.0.0.11:47142in MyMiddleware.run()
LOG: Closed client: /10.0.0.11:47096in MyMiddleware.run()
LOG: Closed client: /10.0.0.11:47122in MyMiddleware.run()
LOG: Closed client: /10.0.0.11:47144in MyMiddleware.run()
LOG: Closed client: /10.0.0.11:47108in MyMiddleware.run()
LOG: Closed client: /10.0.0.11:47128in MyMiddleware.run()
LOG: Closed client: /10.0.0.11:47140in MyMiddleware.run()
LOG: Closed client: /10.0.0.11:47100in MyMiddleware.run()
LOG: Closed client: /10.0.0.11:47094in MyMiddleware.run()
LOG: Closed client: /10.0.0.11:47150in MyMiddleware.run()
LOG: Closed client: /10.0.0.11:47138in MyMiddleware.run()
LOG: Closed client: /10.0.0.11:47132in MyMiddleware.run()
LOG: Closed client: /10.0.0.11:47126in MyMiddleware.run()
LOG: Closed client: /10.0.0.11:47162in MyMiddleware.run()
LOG: Closed client: /10.0.0.11:47076in MyMiddleware.run()
LOG: Closed client: /10.0.0.11:47152in MyMiddleware.run()
LOG: Closed client: /10.0.0.11:47148in MyMiddleware.run()
LOG: Closed client: /10.0.0.11:47092in MyMiddleware.run()
LOG: Closed client: /10.0.0.11:47118in MyMiddleware.run()
LOG: Closed client: /10.0.0.11:47136in MyMiddleware.run()
LOG: Closed client: /10.0.0.11:47120in MyMiddleware.run()
LOG: Closed client: /10.0.0.11:47114in MyMiddleware.run()
LOG: Closed client: /10.0.0.11:47102in MyMiddleware.run()
LOG: Closed client: /10.0.0.11:47116in MyMiddleware.run()
LOG: Closed client: /10.0.0.11:47068in MyMiddleware.run()
LOG: Closed client: /10.0.0.11:47146in MyMiddleware.run()
LOG: Closed client: /10.0.0.11:47166in MyMiddleware.run()
LOG: Closed client: /10.0.0.11:47074in MyMiddleware.run()
LOG: Closed client: /10.0.0.11:47134in MyMiddleware.run()
LOG: Closed client: /10.0.0.11:47072in MyMiddleware.run()
LOG: Closed client: /10.0.0.11:47160in MyMiddleware.run()
LOG: Closed client: /10.0.0.11:47110in MyMiddleware.run()
LOG: Closed client: /10.0.0.11:47130in MyMiddleware.run()
LOG: Closed client: /10.0.0.11:47124in MyMiddleware.run()
LOG: Closed client: /10.0.0.11:47164in MyMiddleware.run()
LOG: Closed client: /10.0.0.11:47098in MyMiddleware.run()
LOG: Closed client: /10.0.0.11:47154in MyMiddleware.run()
LOG: Closed client: /10.0.0.11:47104in MyMiddleware.run()
LOG: Closed client: /10.0.0.11:47112in MyMiddleware.run()
LOG: Closed client: /10.0.0.11:47082in MyMiddleware.run()
LOG: Closed client: /10.0.0.11:47088in MyMiddleware.run()
LOG: Closed client: /10.0.0.11:47080in MyMiddleware.run()
LOG: Closed client: /10.0.0.11:47090in MyMiddleware.run()
LOG: Closed client: /10.0.0.11:47066in MyMiddleware.run()
LOG: Closed client: /10.0.0.11:47106in MyMiddleware.run()
LOG: Closed client: /10.0.0.11:47078in MyMiddleware.run()
LOG: Closed client: /10.0.0.11:47186in MyMiddleware.run()
LOG: Closed client: /10.0.0.11:47182in MyMiddleware.run()
LOG: Closed client: /10.0.0.11:47180in MyMiddleware.run()
LOG: Closed client: /10.0.0.11:47184in MyMiddleware.run()
LOG: Closed client: /10.0.0.11:47168in MyMiddleware.run()
LOG: Closed client: /10.0.0.11:47174in MyMiddleware.run()
LOG: Closed client: /10.0.0.11:47156in MyMiddleware.run()
LOG: Closed client: /10.0.0.11:47158in MyMiddleware.run()
LOG: Closed client: /10.0.0.11:47178in MyMiddleware.run()
LOG: Closed client: /10.0.0.11:47188in MyMiddleware.run()
LOG: Closed client: /10.0.0.11:47170in MyMiddleware.run()
LOG: Closed client: /10.0.0.11:47190in MyMiddleware.run()
LOG: Closed client: /10.0.0.11:47176in MyMiddleware.run()
LOG: Closed client: /10.0.0.11:47172in MyMiddleware.run()
LOG: Closed client: /10.0.0.11:47192in MyMiddleware.run()
LOG: Closed client: /10.0.0.7:47814in MyMiddleware.run()
LOG: Closed client: /10.0.0.7:47856in MyMiddleware.run()
LOG: Closed client: /10.0.0.7:47832in MyMiddleware.run()
LOG: Closed client: /10.0.0.7:47848in MyMiddleware.run()
LOG: Closed client: /10.0.0.7:47820in MyMiddleware.run()
LOG: Closed client: /10.0.0.7:47834in MyMiddleware.run()
LOG: Closed client: /10.0.0.7:47806in MyMiddleware.run()
LOG: Closed client: /10.0.0.7:47808in MyMiddleware.run()
LOG: Closed client: /10.0.0.7:47862in MyMiddleware.run()
LOG: Closed client: /10.0.0.7:47818in MyMiddleware.run()
LOG: Closed client: /10.0.0.7:47838in MyMiddleware.run()
LOG: Closed client: /10.0.0.7:47842in MyMiddleware.run()
LOG: Closed client: /10.0.0.7:47812in MyMiddleware.run()
LOG: Closed client: /10.0.0.7:47810in MyMiddleware.run()
LOG: Closed client: /10.0.0.7:47914in MyMiddleware.run()
LOG: Closed client: /10.0.0.7:47816in MyMiddleware.run()
LOG: Closed client: /10.0.0.7:47872in MyMiddleware.run()
LOG: Closed client: /10.0.0.7:47926in MyMiddleware.run()
LOG: Closed client: /10.0.0.7:47868in MyMiddleware.run()
LOG: Closed client: /10.0.0.7:47922in MyMiddleware.run()
LOG: Closed client: /10.0.0.7:47904in MyMiddleware.run()
LOG: Closed client: /10.0.0.7:47884in MyMiddleware.run()
LOG: Closed client: /10.0.0.7:47870in MyMiddleware.run()
LOG: Closed client: /10.0.0.7:47894in MyMiddleware.run()
LOG: Closed client: /10.0.0.7:47850in MyMiddleware.run()
LOG: Closed client: /10.0.0.7:47902in MyMiddleware.run()
LOG: Closed client: /10.0.0.7:47876in MyMiddleware.run()
LOG: Closed client: /10.0.0.7:47888in MyMiddleware.run()
LOG: Closed client: /10.0.0.7:47828in MyMiddleware.run()
LOG: Closed client: /10.0.0.7:47846in MyMiddleware.run()
LOG: Closed client: /10.0.0.7:47900in MyMiddleware.run()
LOG: Closed client: /10.0.0.7:47906in MyMiddleware.run()
LOG: Closed client: /10.0.0.7:47822in MyMiddleware.run()
LOG: Closed client: /10.0.0.7:47824in MyMiddleware.run()
LOG: Closed client: /10.0.0.7:47874in MyMiddleware.run()
LOG: Closed client: /10.0.0.7:47854in MyMiddleware.run()
LOG: Closed client: /10.0.0.7:47912in MyMiddleware.run()
LOG: Closed client: /10.0.0.7:47928in MyMiddleware.run()
LOG: Closed client: /10.0.0.7:47892in MyMiddleware.run()
LOG: Closed client: /10.0.0.7:47866in MyMiddleware.run()
LOG: Closed client: /10.0.0.7:47932in MyMiddleware.run()
LOG: Closed client: /10.0.0.7:47886in MyMiddleware.run()
LOG: Closed client: /10.0.0.7:47924in MyMiddleware.run()
LOG: Closed client: /10.0.0.7:47844in MyMiddleware.run()
LOG: Closed client: /10.0.0.7:47882in MyMiddleware.run()
LOG: Closed client: /10.0.0.7:47836in MyMiddleware.run()
LOG: Closed client: /10.0.0.7:47864in MyMiddleware.run()
LOG: Closed client: /10.0.0.7:47860in MyMiddleware.run()
LOG: Closed client: /10.0.0.7:47908in MyMiddleware.run()
LOG: Closed client: /10.0.0.7:47880in MyMiddleware.run()
LOG: Closed client: /10.0.0.7:47916in MyMiddleware.run()
LOG: Closed client: /10.0.0.7:47890in MyMiddleware.run()
LOG: Closed client: /10.0.0.7:47920in MyMiddleware.run()
LOG: Closed client: /10.0.0.7:47858in MyMiddleware.run()
LOG: Closed client: /10.0.0.7:47930in MyMiddleware.run()
LOG: Closed client: /10.0.0.7:47898in MyMiddleware.run()
LOG: Closed client: /10.0.0.7:47910in MyMiddleware.run()
LOG: Closed client: /10.0.0.7:47826in MyMiddleware.run()
LOG: Closed client: /10.0.0.7:47852in MyMiddleware.run()
LOG: Closed client: /10.0.0.7:47918in MyMiddleware.run()
LOG: Closed client: /10.0.0.7:47840in MyMiddleware.run()
LOG: Closed client: /10.0.0.7:47830in MyMiddleware.run()
LOG: Closed client: /10.0.0.7:47878in MyMiddleware.run()
LOG: Closed client: /10.0.0.7:47896in MyMiddleware.run()
LOG: Closed client: /10.0.0.6:58018in MyMiddleware.run()
LOG: Closed client: /10.0.0.6:58016in MyMiddleware.run()
LOG: Closed client: /10.0.0.6:58026in MyMiddleware.run()
LOG: Closed client: /10.0.0.6:58036in MyMiddleware.run()
LOG: Closed client: /10.0.0.6:58034in MyMiddleware.run()
LOG: Closed client: /10.0.0.6:58012in MyMiddleware.run()
LOG: Closed client: /10.0.0.6:58028in MyMiddleware.run()
LOG: Closed client: /10.0.0.6:58032in MyMiddleware.run()
LOG: Closed client: /10.0.0.6:58042in MyMiddleware.run()
LOG: Closed client: /10.0.0.6:58040in MyMiddleware.run()
LOG: Closed client: /10.0.0.6:58020in MyMiddleware.run()
LOG: Closed client: /10.0.0.6:58022in MyMiddleware.run()
LOG: Closed client: /10.0.0.6:58014in MyMiddleware.run()
LOG: Closed client: /10.0.0.6:58048in MyMiddleware.run()
LOG: Closed client: /10.0.0.6:58030in MyMiddleware.run()
LOG: Closed client: /10.0.0.6:58038in MyMiddleware.run()
LOG: Closed client: /10.0.0.6:58024in MyMiddleware.run()
LOG: Closed client: /10.0.0.6:58050in MyMiddleware.run()
LOG: Closed client: /10.0.0.6:58060in MyMiddleware.run()
LOG: Closed client: /10.0.0.6:58064in MyMiddleware.run()
LOG: Closed client: /10.0.0.6:58066in MyMiddleware.run()
LOG: Closed client: /10.0.0.6:58054in MyMiddleware.run()
LOG: Closed client: /10.0.0.6:58052in MyMiddleware.run()
LOG: Closed client: /10.0.0.6:58056in MyMiddleware.run()
LOG: Closed client: /10.0.0.6:58046in MyMiddleware.run()
LOG: Closed client: /10.0.0.6:58080in MyMiddleware.run()
LOG: Closed client: /10.0.0.6:58058in MyMiddleware.run()
LOG: Closed client: /10.0.0.6:58070in MyMiddleware.run()
LOG: Closed client: /10.0.0.6:58076in MyMiddleware.run()
LOG: Closed client: /10.0.0.6:58068in MyMiddleware.run()
LOG: Closed client: /10.0.0.6:58062in MyMiddleware.run()
LOG: Closed client: /10.0.0.6:58044in MyMiddleware.run()
LOG: Closed client: /10.0.0.6:58074in MyMiddleware.run()
LOG: Closed client: /10.0.0.6:58072in MyMiddleware.run()
LOG: Closed client: /10.0.0.6:58078in MyMiddleware.run()
LOG: Closed client: /10.0.0.6:58118in MyMiddleware.run()
LOG: Closed client: /10.0.0.6:58094in MyMiddleware.run()
LOG: Closed client: /10.0.0.6:58132in MyMiddleware.run()
LOG: Closed client: /10.0.0.6:58096in MyMiddleware.run()
LOG: Closed client: /10.0.0.6:58108in MyMiddleware.run()
LOG: Closed client: /10.0.0.6:58128in MyMiddleware.run()
LOG: Closed client: /10.0.0.6:58114in MyMiddleware.run()
LOG: Closed client: /10.0.0.6:58104in MyMiddleware.run()
LOG: Closed client: /10.0.0.6:58082in MyMiddleware.run()
LOG: Closed client: /10.0.0.6:58102in MyMiddleware.run()
LOG: Closed client: /10.0.0.6:58106in MyMiddleware.run()
LOG: Closed client: /10.0.0.6:58116in MyMiddleware.run()
LOG: Closed client: /10.0.0.6:58126in MyMiddleware.run()
LOG: Closed client: /10.0.0.6:58136in MyMiddleware.run()
LOG: Closed client: /10.0.0.6:58122in MyMiddleware.run()
LOG: Closed client: /10.0.0.6:58086in MyMiddleware.run()
LOG: Closed client: /10.0.0.6:58110in MyMiddleware.run()
LOG: Closed client: /10.0.0.6:58100in MyMiddleware.run()
LOG: Closed client: /10.0.0.6:58134in MyMiddleware.run()
LOG: Closed client: /10.0.0.6:58120in MyMiddleware.run()
LOG: Closed client: /10.0.0.6:58098in MyMiddleware.run()
LOG: Closed client: /10.0.0.6:58112in MyMiddleware.run()
LOG: Closed client: /10.0.0.6:58124in MyMiddleware.run()
LOG: Closed client: /10.0.0.6:58090in MyMiddleware.run()
LOG: Closed client: /10.0.0.6:58088in MyMiddleware.run()
LOG: Closed client: /10.0.0.6:58092in MyMiddleware.run()
LOG: Closed client: /10.0.0.6:58130in MyMiddleware.run()
LOG: Closed client: /10.0.0.6:58138in MyMiddleware.run()
LOG: Closed client: /10.0.0.6:58084in MyMiddleware.run()
