------------Middleware started!------------
LOG: Waiting for connection in MyMiddleware.run()
LOG: Accepted client: /10.0.0.11:49616in MyMiddleware.run()
LOG: Accepted client: /10.0.0.6:60652in MyMiddleware.run()
LOG: Accepted client: /10.0.0.11:49628in MyMiddleware.run()
LOG: Accepted client: /10.0.0.11:49630in MyMiddleware.run()
LOG: Accepted client: /10.0.0.6:60582in MyMiddleware.run()
LOG: Accepted client: /10.0.0.6:60672in MyMiddleware.run()
LOG: Accepted client: /10.0.0.11:49626in MyMiddleware.run()
LOG: Accepted client: /10.0.0.11:49688in MyMiddleware.run()
LOG: Accepted client: /10.0.0.11:49684in MyMiddleware.run()
LOG: Accepted client: /10.0.0.6:60618in MyMiddleware.run()
LOG: Accepted client: /10.0.0.11:49654in MyMiddleware.run()
LOG: Accepted client: /10.0.0.6:60606in MyMiddleware.run()
LOG: Accepted client: /10.0.0.11:49676in MyMiddleware.run()
LOG: Accepted client: /10.0.0.11:49692in MyMiddleware.run()
LOG: Accepted client: /10.0.0.11:49726in MyMiddleware.run()
LOG: Accepted client: /10.0.0.6:60604in MyMiddleware.run()
LOG: Accepted client: /10.0.0.6:60602in MyMiddleware.run()
LOG: Accepted client: /10.0.0.6:60580in MyMiddleware.run()
LOG: Accepted client: /10.0.0.6:60620in MyMiddleware.run()
LOG: Accepted client: /10.0.0.11:49656in MyMiddleware.run()
LOG: Accepted client: /10.0.0.11:49618in MyMiddleware.run()
LOG: Accepted client: /10.0.0.11:49706in MyMiddleware.run()
LOG: Accepted client: /10.0.0.6:60570in MyMiddleware.run()
LOG: Accepted client: /10.0.0.11:49696in MyMiddleware.run()
LOG: Accepted client: /10.0.0.11:49708in MyMiddleware.run()
LOG: Accepted client: /10.0.0.11:49634in MyMiddleware.run()
LOG: Accepted client: /10.0.0.11:49670in MyMiddleware.run()
LOG: Accepted client: /10.0.0.11:49714in MyMiddleware.run()
LOG: Accepted client: /10.0.0.6:60658in MyMiddleware.run()
LOG: Accepted client: /10.0.0.11:49614in MyMiddleware.run()
LOG: Accepted client: /10.0.0.11:49732in MyMiddleware.run()
LOG: Accepted client: /10.0.0.6:60600in MyMiddleware.run()
LOG: Accepted client: /10.0.0.6:60660in MyMiddleware.run()
LOG: Accepted client: /10.0.0.11:49690in MyMiddleware.run()
LOG: Accepted client: /10.0.0.6:60628in MyMiddleware.run()
LOG: Accepted client: /10.0.0.6:60568in MyMiddleware.run()
LOG: Accepted client: /10.0.0.11:49642in MyMiddleware.run()
LOG: Accepted client: /10.0.0.11:49730in MyMiddleware.run()
LOG: Accepted client: /10.0.0.11:49728in MyMiddleware.run()
LOG: Accepted client: /10.0.0.11:49682in MyMiddleware.run()
LOG: Accepted client: /10.0.0.6:60654in MyMiddleware.run()
LOG: Accepted client: /10.0.0.6:60674in MyMiddleware.run()
LOG: Accepted client: /10.0.0.11:49652in MyMiddleware.run()
LOG: Accepted client: /10.0.0.6:60662in MyMiddleware.run()
LOG: Accepted client: /10.0.0.6:60630in MyMiddleware.run()
LOG: Accepted client: /10.0.0.6:60678in MyMiddleware.run()
LOG: Accepted client: /10.0.0.11:49718in MyMiddleware.run()
LOG: Accepted client: /10.0.0.6:60616in MyMiddleware.run()
LOG: Accepted client: /10.0.0.11:49716in MyMiddleware.run()
LOG: Accepted client: /10.0.0.6:60572in MyMiddleware.run()
LOG: Accepted client: /10.0.0.6:60576in MyMiddleware.run()
LOG: Accepted client: /10.0.0.11:49686in MyMiddleware.run()
LOG: Accepted client: /10.0.0.6:60626in MyMiddleware.run()
LOG: Accepted client: /10.0.0.6:60646in MyMiddleware.run()
LOG: Accepted client: /10.0.0.6:60596in MyMiddleware.run()
LOG: Accepted client: /10.0.0.6:60584in MyMiddleware.run()
LOG: Accepted client: /10.0.0.6:60598in MyMiddleware.run()
LOG: Accepted client: /10.0.0.6:60594in MyMiddleware.run()
LOG: Accepted client: /10.0.0.6:60610in MyMiddleware.run()
LOG: Accepted client: /10.0.0.6:60612in MyMiddleware.run()
LOG: Accepted client: /10.0.0.6:60592in MyMiddleware.run()
LOG: Accepted client: /10.0.0.6:60642in MyMiddleware.run()
LOG: Accepted client: /10.0.0.6:60682in MyMiddleware.run()
LOG: Accepted client: /10.0.0.6:60668in MyMiddleware.run()
LOG: Accepted client: /10.0.0.6:60590in MyMiddleware.run()
LOG: Accepted client: /10.0.0.6:60670in MyMiddleware.run()
LOG: Accepted client: /10.0.0.6:60640in MyMiddleware.run()
LOG: Accepted client: /10.0.0.6:60634in MyMiddleware.run()
LOG: Accepted client: /10.0.0.7:50372in MyMiddleware.run()
LOG: Accepted client: /10.0.0.7:50386in MyMiddleware.run()
LOG: Accepted client: /10.0.0.7:50430in MyMiddleware.run()
LOG: Accepted client: /10.0.0.7:50442in MyMiddleware.run()
LOG: Accepted client: /10.0.0.7:50362in MyMiddleware.run()
LOG: Accepted client: /10.0.0.7:50436in MyMiddleware.run()
LOG: Accepted client: /10.0.0.7:50448in MyMiddleware.run()
LOG: Accepted client: /10.0.0.7:50446in MyMiddleware.run()
LOG: Accepted client: /10.0.0.7:50440in MyMiddleware.run()
LOG: Accepted client: /10.0.0.7:50476in MyMiddleware.run()
LOG: Accepted client: /10.0.0.7:50454in MyMiddleware.run()
LOG: Accepted client: /10.0.0.7:50488in MyMiddleware.run()
LOG: Accepted client: /10.0.0.7:50452in MyMiddleware.run()
LOG: Accepted client: /10.0.0.7:50474in MyMiddleware.run()
LOG: Accepted client: /10.0.0.11:49620in MyMiddleware.run()
LOG: Accepted client: /10.0.0.11:49622in MyMiddleware.run()
LOG: Accepted client: /10.0.0.11:49672in MyMiddleware.run()
LOG: Accepted client: /10.0.0.11:49646in MyMiddleware.run()
LOG: Accepted client: /10.0.0.11:49674in MyMiddleware.run()
LOG: Accepted client: /10.0.0.11:49644in MyMiddleware.run()
LOG: Accepted client: /10.0.0.11:49640in MyMiddleware.run()
LOG: Accepted client: /10.0.0.11:49648in MyMiddleware.run()
LOG: Accepted client: /10.0.0.11:49650in MyMiddleware.run()
LOG: Accepted client: /10.0.0.6:60622in MyMiddleware.run()
LOG: Accepted client: /10.0.0.6:60694in MyMiddleware.run()
LOG: Accepted client: /10.0.0.6:60648in MyMiddleware.run()
LOG: Accepted client: /10.0.0.6:60688in MyMiddleware.run()
LOG: Accepted client: /10.0.0.6:60574in MyMiddleware.run()
LOG: Accepted client: /10.0.0.6:60690in MyMiddleware.run()
LOG: Accepted client: /10.0.0.6:60650in MyMiddleware.run()
LOG: Accepted client: /10.0.0.6:60656in MyMiddleware.run()
LOG: Accepted client: /10.0.0.11:49704in MyMiddleware.run()
LOG: Accepted client: /10.0.0.11:49678in MyMiddleware.run()
LOG: Accepted client: /10.0.0.11:49712in MyMiddleware.run()
LOG: Accepted client: /10.0.0.11:49734in MyMiddleware.run()
LOG: Accepted client: /10.0.0.11:49710in MyMiddleware.run()
LOG: Accepted client: /10.0.0.6:60624in MyMiddleware.run()
LOG: Accepted client: /10.0.0.11:49680in MyMiddleware.run()
LOG: Accepted client: /10.0.0.7:50478in MyMiddleware.run()
LOG: Accepted client: /10.0.0.7:50468in MyMiddleware.run()
LOG: Accepted client: /10.0.0.7:50444in MyMiddleware.run()
LOG: Accepted client: /10.0.0.7:50470in MyMiddleware.run()
LOG: Accepted client: /10.0.0.7:50466in MyMiddleware.run()
LOG: Accepted client: /10.0.0.7:50464in MyMiddleware.run()
LOG: Accepted client: /10.0.0.6:60578in MyMiddleware.run()
LOG: Accepted client: /10.0.0.6:60676in MyMiddleware.run()
LOG: Accepted client: /10.0.0.7:50450in MyMiddleware.run()
LOG: Accepted client: /10.0.0.7:50472in MyMiddleware.run()
LOG: Accepted client: /10.0.0.7:50438in MyMiddleware.run()
LOG: Accepted client: /10.0.0.6:60686in MyMiddleware.run()
LOG: Accepted client: /10.0.0.6:60664in MyMiddleware.run()
LOG: Accepted client: /10.0.0.6:60644in MyMiddleware.run()
LOG: Accepted client: /10.0.0.6:60632in MyMiddleware.run()
LOG: Accepted client: /10.0.0.6:60680in MyMiddleware.run()
LOG: Accepted client: /10.0.0.6:60636in MyMiddleware.run()
LOG: Accepted client: /10.0.0.6:60684in MyMiddleware.run()
LOG: Accepted client: /10.0.0.6:60638in MyMiddleware.run()
LOG: Accepted client: /10.0.0.6:60666in MyMiddleware.run()
LOG: Accepted client: /10.0.0.6:60608in MyMiddleware.run()
LOG: Accepted client: /10.0.0.6:60588in MyMiddleware.run()
LOG: Accepted client: /10.0.0.6:60586in MyMiddleware.run()
LOG: Accepted client: /10.0.0.11:49722in MyMiddleware.run()
LOG: Accepted client: /10.0.0.11:49720in MyMiddleware.run()
LOG: Accepted client: /10.0.0.11:49740in MyMiddleware.run()
LOG: Accepted client: /10.0.0.11:49700in MyMiddleware.run()
LOG: Accepted client: /10.0.0.11:49702in MyMiddleware.run()
LOG: Accepted client: /10.0.0.11:49694in MyMiddleware.run()
LOG: Accepted client: /10.0.0.6:60614in MyMiddleware.run()
LOG: Accepted client: /10.0.0.7:50482in MyMiddleware.run()
LOG: Accepted client: /10.0.0.7:50462in MyMiddleware.run()
LOG: Accepted client: /10.0.0.7:50460in MyMiddleware.run()
LOG: Accepted client: /10.0.0.7:50480in MyMiddleware.run()
LOG: Accepted client: /10.0.0.11:49698in MyMiddleware.run()
LOG: Accepted client: /10.0.0.7:50364in MyMiddleware.run()
LOG: Accepted client: /10.0.0.7:50376in MyMiddleware.run()
LOG: Accepted client: /10.0.0.7:50366in MyMiddleware.run()
LOG: Accepted client: /10.0.0.7:50378in MyMiddleware.run()
LOG: Accepted client: /10.0.0.11:49658in MyMiddleware.run()
LOG: Accepted client: /10.0.0.11:49668in MyMiddleware.run()
LOG: Accepted client: /10.0.0.11:49638in MyMiddleware.run()
LOG: Accepted client: /10.0.0.11:49632in MyMiddleware.run()
LOG: Accepted client: /10.0.0.11:49636in MyMiddleware.run()
LOG: Accepted client: /10.0.0.11:49662in MyMiddleware.run()
LOG: Accepted client: /10.0.0.11:49624in MyMiddleware.run()
LOG: Accepted client: /10.0.0.11:49664in MyMiddleware.run()
LOG: Accepted client: /10.0.0.11:49660in MyMiddleware.run()
LOG: Accepted client: /10.0.0.11:49666in MyMiddleware.run()
LOG: Accepted client: /10.0.0.11:49736in MyMiddleware.run()
LOG: Accepted client: /10.0.0.11:49724in MyMiddleware.run()
LOG: Accepted client: /10.0.0.11:49738in MyMiddleware.run()
LOG: Accepted client: /10.0.0.6:60692in MyMiddleware.run()
LOG: Accepted client: /10.0.0.7:50484in MyMiddleware.run()
LOG: Accepted client: /10.0.0.7:50456in MyMiddleware.run()
LOG: Accepted client: /10.0.0.7:50374in MyMiddleware.run()
LOG: Accepted client: /10.0.0.7:50420in MyMiddleware.run()
LOG: Accepted client: /10.0.0.7:50398in MyMiddleware.run()
LOG: Accepted client: /10.0.0.7:50410in MyMiddleware.run()
LOG: Accepted client: /10.0.0.7:50406in MyMiddleware.run()
LOG: Accepted client: /10.0.0.7:50416in MyMiddleware.run()
LOG: Accepted client: /10.0.0.7:50424in MyMiddleware.run()
LOG: Accepted client: /10.0.0.7:50458in MyMiddleware.run()
LOG: Accepted client: /10.0.0.7:50426in MyMiddleware.run()
LOG: Accepted client: /10.0.0.7:50368in MyMiddleware.run()
LOG: Accepted client: /10.0.0.7:50396in MyMiddleware.run()
LOG: Accepted client: /10.0.0.7:50388in MyMiddleware.run()
LOG: Accepted client: /10.0.0.7:50432in MyMiddleware.run()
LOG: Accepted client: /10.0.0.7:50412in MyMiddleware.run()
LOG: Accepted client: /10.0.0.7:50486in MyMiddleware.run()
LOG: Accepted client: /10.0.0.7:50418in MyMiddleware.run()
LOG: Accepted client: /10.0.0.7:50404in MyMiddleware.run()
LOG: Accepted client: /10.0.0.7:50392in MyMiddleware.run()
LOG: Accepted client: /10.0.0.7:50408in MyMiddleware.run()
LOG: Accepted client: /10.0.0.7:50370in MyMiddleware.run()
LOG: Accepted client: /10.0.0.7:50414in MyMiddleware.run()
LOG: Accepted client: /10.0.0.7:50390in MyMiddleware.run()
LOG: Accepted client: /10.0.0.7:50394in MyMiddleware.run()
LOG: Accepted client: /10.0.0.7:50428in MyMiddleware.run()
LOG: Accepted client: /10.0.0.7:50422in MyMiddleware.run()
LOG: Accepted client: /10.0.0.7:50384in MyMiddleware.run()
LOG: Accepted client: /10.0.0.7:50434in MyMiddleware.run()
LOG: Accepted client: /10.0.0.7:50402in MyMiddleware.run()
LOG: Accepted client: /10.0.0.7:50400in MyMiddleware.run()
LOG: Accepted client: /10.0.0.7:50380in MyMiddleware.run()
LOG: Accepted client: /10.0.0.7:50382in MyMiddleware.run()
LOG: Closed client: /10.0.0.11:49630in MyMiddleware.run()
LOG: Closed client: /10.0.0.11:49634in MyMiddleware.run()
LOG: Closed client: /10.0.0.11:49632in MyMiddleware.run()
LOG: Closed client: /10.0.0.11:49658in MyMiddleware.run()
LOG: Closed client: /10.0.0.11:49720in MyMiddleware.run()
LOG: Closed client: /10.0.0.11:49686in MyMiddleware.run()
LOG: Closed client: /10.0.0.11:49678in MyMiddleware.run()
LOG: Closed client: /10.0.0.11:49696in MyMiddleware.run()
LOG: Closed client: /10.0.0.11:49684in MyMiddleware.run()
LOG: Closed client: /10.0.0.11:49670in MyMiddleware.run()
LOG: Closed client: /10.0.0.11:49622in MyMiddleware.run()
LOG: Closed client: /10.0.0.11:49722in MyMiddleware.run()
LOG: Closed client: /10.0.0.11:49642in MyMiddleware.run()
LOG: Closed client: /10.0.0.11:49716in MyMiddleware.run()
LOG: Closed client: /10.0.0.11:49640in MyMiddleware.run()
LOG: Closed client: /10.0.0.11:49662in MyMiddleware.run()
LOG: Closed client: /10.0.0.11:49714in MyMiddleware.run()
LOG: Closed client: /10.0.0.11:49728in MyMiddleware.run()
LOG: Closed client: /10.0.0.11:49690in MyMiddleware.run()
LOG: Closed client: /10.0.0.11:49730in MyMiddleware.run()
LOG: Closed client: /10.0.0.11:49692in MyMiddleware.run()
LOG: Closed client: /10.0.0.11:49648in MyMiddleware.run()
LOG: Closed client: /10.0.0.11:49718in MyMiddleware.run()
LOG: Closed client: /10.0.0.11:49698in MyMiddleware.run()
LOG: Closed client: /10.0.0.11:49668in MyMiddleware.run()
LOG: Closed client: /10.0.0.11:49710in MyMiddleware.run()
LOG: Closed client: /10.0.0.11:49664in MyMiddleware.run()
LOG: Closed client: /10.0.0.11:49676in MyMiddleware.run()
LOG: Closed client: /10.0.0.11:49636in MyMiddleware.run()
LOG: Closed client: /10.0.0.11:49708in MyMiddleware.run()
LOG: Closed client: /10.0.0.11:49660in MyMiddleware.run()
LOG: Closed client: /10.0.0.11:49656in MyMiddleware.run()
LOG: Closed client: /10.0.0.11:49628in MyMiddleware.run()
LOG: Closed client: /10.0.0.11:49712in MyMiddleware.run()
LOG: Closed client: /10.0.0.11:49620in MyMiddleware.run()
LOG: Closed client: /10.0.0.11:49638in MyMiddleware.run()
LOG: Closed client: /10.0.0.11:49618in MyMiddleware.run()
LOG: Closed client: /10.0.0.11:49616in MyMiddleware.run()
LOG: Closed client: /10.0.0.11:49666in MyMiddleware.run()
LOG: Closed client: /10.0.0.11:49694in MyMiddleware.run()
LOG: Closed client: /10.0.0.11:49614in MyMiddleware.run()
LOG: Closed client: /10.0.0.11:49688in MyMiddleware.run()
LOG: Closed client: /10.0.0.11:49650in MyMiddleware.run()
LOG: Closed client: /10.0.0.11:49704in MyMiddleware.run()
LOG: Closed client: /10.0.0.11:49706in MyMiddleware.run()
LOG: Closed client: /10.0.0.11:49724in MyMiddleware.run()
LOG: Closed client: /10.0.0.11:49646in MyMiddleware.run()
LOG: Closed client: /10.0.0.11:49736in MyMiddleware.run()
LOG: Closed client: /10.0.0.11:49732in MyMiddleware.run()
LOG: Closed client: /10.0.0.11:49740in MyMiddleware.run()
LOG: Closed client: /10.0.0.11:49734in MyMiddleware.run()
LOG: Closed client: /10.0.0.11:49726in MyMiddleware.run()
LOG: Closed client: /10.0.0.11:49644in MyMiddleware.run()
LOG: Closed client: /10.0.0.11:49682in MyMiddleware.run()
LOG: Closed client: /10.0.0.11:49680in MyMiddleware.run()
LOG: Closed client: /10.0.0.11:49738in MyMiddleware.run()
LOG: Closed client: /10.0.0.11:49674in MyMiddleware.run()
LOG: Closed client: /10.0.0.11:49624in MyMiddleware.run()
LOG: Closed client: /10.0.0.11:49654in MyMiddleware.run()
LOG: Closed client: /10.0.0.11:49652in MyMiddleware.run()
LOG: Closed client: /10.0.0.11:49702in MyMiddleware.run()
LOG: Closed client: /10.0.0.11:49700in MyMiddleware.run()
LOG: Closed client: /10.0.0.11:49626in MyMiddleware.run()
LOG: Closed client: /10.0.0.11:49672in MyMiddleware.run()
LOG: Closed client: /10.0.0.7:50388in MyMiddleware.run()
LOG: Closed client: /10.0.0.7:50424in MyMiddleware.run()
LOG: Closed client: /10.0.0.7:50390in MyMiddleware.run()
LOG: Closed client: /10.0.0.7:50386in MyMiddleware.run()
LOG: Closed client: /10.0.0.7:50370in MyMiddleware.run()
LOG: Closed client: /10.0.0.7:50400in MyMiddleware.run()
LOG: Closed client: /10.0.0.7:50364in MyMiddleware.run()
LOG: Closed client: /10.0.0.7:50376in MyMiddleware.run()
LOG: Closed client: /10.0.0.7:50404in MyMiddleware.run()
LOG: Closed client: /10.0.0.7:50384in MyMiddleware.run()
LOG: Closed client: /10.0.0.7:50366in MyMiddleware.run()
LOG: Closed client: /10.0.0.7:50372in MyMiddleware.run()
LOG: Closed client: /10.0.0.7:50416in MyMiddleware.run()
LOG: Closed client: /10.0.0.7:50362in MyMiddleware.run()
LOG: Closed client: /10.0.0.7:50402in MyMiddleware.run()
LOG: Closed client: /10.0.0.7:50394in MyMiddleware.run()
LOG: Closed client: /10.0.0.7:50368in MyMiddleware.run()
LOG: Closed client: /10.0.0.7:50422in MyMiddleware.run()
LOG: Closed client: /10.0.0.7:50408in MyMiddleware.run()
LOG: Closed client: /10.0.0.7:50406in MyMiddleware.run()
LOG: Closed client: /10.0.0.7:50380in MyMiddleware.run()
LOG: Closed client: /10.0.0.7:50382in MyMiddleware.run()
LOG: Closed client: /10.0.0.7:50414in MyMiddleware.run()
LOG: Closed client: /10.0.0.7:50378in MyMiddleware.run()
LOG: Closed client: /10.0.0.7:50412in MyMiddleware.run()
LOG: Closed client: /10.0.0.7:50396in MyMiddleware.run()
LOG: Closed client: /10.0.0.7:50464in MyMiddleware.run()
LOG: Closed client: /10.0.0.6:60576in MyMiddleware.run()
LOG: Closed client: /10.0.0.7:50438in MyMiddleware.run()
LOG: Closed client: /10.0.0.6:60586in MyMiddleware.run()
LOG: Closed client: /10.0.0.6:60618in MyMiddleware.run()
LOG: Closed client: /10.0.0.7:50426in MyMiddleware.run()
LOG: Closed client: /10.0.0.7:50392in MyMiddleware.run()
LOG: Closed client: /10.0.0.6:60664in MyMiddleware.run()
LOG: Closed client: /10.0.0.7:50446in MyMiddleware.run()
LOG: Closed client: /10.0.0.6:60648in MyMiddleware.run()
LOG: Closed client: /10.0.0.7:50468in MyMiddleware.run()
LOG: Closed client: /10.0.0.6:60600in MyMiddleware.run()
LOG: Closed client: /10.0.0.7:50432in MyMiddleware.run()
LOG: Closed client: /10.0.0.6:60578in MyMiddleware.run()
LOG: Closed client: /10.0.0.7:50436in MyMiddleware.run()
LOG: Closed client: /10.0.0.7:50488in MyMiddleware.run()
LOG: Closed client: /10.0.0.6:60670in MyMiddleware.run()
LOG: Closed client: /10.0.0.7:50418in MyMiddleware.run()
LOG: Closed client: /10.0.0.6:60632in MyMiddleware.run()
LOG: Closed client: /10.0.0.7:50466in MyMiddleware.run()
LOG: Closed client: /10.0.0.6:60620in MyMiddleware.run()
LOG: Closed client: /10.0.0.6:60590in MyMiddleware.run()
LOG: Closed client: /10.0.0.7:50474in MyMiddleware.run()
LOG: Closed client: /10.0.0.6:60608in MyMiddleware.run()
LOG: Closed client: /10.0.0.7:50458in MyMiddleware.run()
LOG: Closed client: /10.0.0.6:60588in MyMiddleware.run()
LOG: Closed client: /10.0.0.6:60678in MyMiddleware.run()
LOG: Closed client: /10.0.0.7:50444in MyMiddleware.run()
LOG: Closed client: /10.0.0.6:60598in MyMiddleware.run()
LOG: Closed client: /10.0.0.7:50452in MyMiddleware.run()
LOG: Closed client: /10.0.0.6:60650in MyMiddleware.run()
LOG: Closed client: /10.0.0.7:50472in MyMiddleware.run()
LOG: Closed client: /10.0.0.6:60584in MyMiddleware.run()
LOG: Closed client: /10.0.0.6:60654in MyMiddleware.run()
LOG: Closed client: /10.0.0.6:60628in MyMiddleware.run()
LOG: Closed client: /10.0.0.6:60688in MyMiddleware.run()
LOG: Closed client: /10.0.0.6:60656in MyMiddleware.run()
LOG: Closed client: /10.0.0.6:60658in MyMiddleware.run()
LOG: Closed client: /10.0.0.6:60634in MyMiddleware.run()
LOG: Closed client: /10.0.0.6:60652in MyMiddleware.run()
LOG: Closed client: /10.0.0.6:60668in MyMiddleware.run()
LOG: Closed client: /10.0.0.7:50410in MyMiddleware.run()
LOG: Closed client: /10.0.0.6:60626in MyMiddleware.run()
LOG: Closed client: /10.0.0.7:50476in MyMiddleware.run()
LOG: Closed client: /10.0.0.6:60642in MyMiddleware.run()
LOG: Closed client: /10.0.0.7:50430in MyMiddleware.run()
LOG: Closed client: /10.0.0.6:60636in MyMiddleware.run()
LOG: Closed client: /10.0.0.7:50478in MyMiddleware.run()
LOG: Closed client: /10.0.0.6:60646in MyMiddleware.run()
LOG: Closed client: /10.0.0.6:60680in MyMiddleware.run()
LOG: Closed client: /10.0.0.7:50484in MyMiddleware.run()
LOG: Closed client: /10.0.0.6:60596in MyMiddleware.run()
LOG: Closed client: /10.0.0.6:60572in MyMiddleware.run()
LOG: Closed client: /10.0.0.7:50434in MyMiddleware.run()
LOG: Closed client: /10.0.0.6:60674in MyMiddleware.run()
LOG: Closed client: /10.0.0.6:60676in MyMiddleware.run()
LOG: Closed client: /10.0.0.6:60660in MyMiddleware.run()
LOG: Closed client: /10.0.0.6:60612in MyMiddleware.run()
LOG: Closed client: /10.0.0.7:50454in MyMiddleware.run()
LOG: Closed client: /10.0.0.6:60682in MyMiddleware.run()
LOG: Closed client: /10.0.0.6:60614in MyMiddleware.run()
LOG: Closed client: /10.0.0.6:60606in MyMiddleware.run()
LOG: Closed client: /10.0.0.6:60570in MyMiddleware.run()
LOG: Closed client: /10.0.0.7:50470in MyMiddleware.run()
LOG: Closed client: /10.0.0.7:50456in MyMiddleware.run()
LOG: Closed client: /10.0.0.7:50448in MyMiddleware.run()
LOG: Closed client: /10.0.0.6:60686in MyMiddleware.run()
LOG: Closed client: /10.0.0.6:60622in MyMiddleware.run()
LOG: Closed client: /10.0.0.7:50480in MyMiddleware.run()
LOG: Closed client: /10.0.0.6:60568in MyMiddleware.run()
LOG: Closed client: /10.0.0.6:60580in MyMiddleware.run()
LOG: Closed client: /10.0.0.6:60616in MyMiddleware.run()
LOG: Closed client: /10.0.0.6:60690in MyMiddleware.run()
LOG: Closed client: /10.0.0.6:60694in MyMiddleware.run()
LOG: Closed client: /10.0.0.6:60640in MyMiddleware.run()
LOG: Closed client: /10.0.0.7:50442in MyMiddleware.run()
LOG: Closed client: /10.0.0.6:60638in MyMiddleware.run()
LOG: Closed client: /10.0.0.7:50462in MyMiddleware.run()
LOG: Closed client: /10.0.0.6:60594in MyMiddleware.run()
LOG: Closed client: /10.0.0.6:60574in MyMiddleware.run()
LOG: Closed client: /10.0.0.7:50440in MyMiddleware.run()
LOG: Closed client: /10.0.0.6:60692in MyMiddleware.run()
LOG: Closed client: /10.0.0.6:60582in MyMiddleware.run()
LOG: Closed client: /10.0.0.6:60662in MyMiddleware.run()
LOG: Closed client: /10.0.0.7:50486in MyMiddleware.run()
LOG: Closed client: /10.0.0.6:60666in MyMiddleware.run()
LOG: Closed client: /10.0.0.6:60644in MyMiddleware.run()
LOG: Closed client: /10.0.0.7:50482in MyMiddleware.run()
LOG: Closed client: /10.0.0.6:60592in MyMiddleware.run()
LOG: Closed client: /10.0.0.6:60672in MyMiddleware.run()
LOG: Closed client: /10.0.0.7:50450in MyMiddleware.run()
LOG: Closed client: /10.0.0.6:60684in MyMiddleware.run()
LOG: Closed client: /10.0.0.7:50428in MyMiddleware.run()
LOG: Closed client: /10.0.0.6:60610in MyMiddleware.run()
LOG: Closed client: /10.0.0.7:50420in MyMiddleware.run()
LOG: Closed client: /10.0.0.7:50374in MyMiddleware.run()
LOG: Closed client: /10.0.0.6:60630in MyMiddleware.run()
LOG: Closed client: /10.0.0.7:50398in MyMiddleware.run()
LOG: Closed client: /10.0.0.6:60624in MyMiddleware.run()
LOG: Closed client: /10.0.0.6:60604in MyMiddleware.run()
LOG: Closed client: /10.0.0.7:50460in MyMiddleware.run()
LOG: Closed client: /10.0.0.6:60602in MyMiddleware.run()
