------------Middleware started!------------
LOG: Waiting for connection in MyMiddleware.run()
LOG: Accepted client: /10.0.0.11:37454in MyMiddleware.run()
LOG: Accepted client: /10.0.0.11:37452in MyMiddleware.run()
LOG: Accepted client: /10.0.0.11:37462in MyMiddleware.run()
LOG: Accepted client: /10.0.0.11:37460in MyMiddleware.run()
LOG: Accepted client: /10.0.0.11:37458in MyMiddleware.run()
LOG: Accepted client: /10.0.0.11:37456in MyMiddleware.run()
LOG: Accepted client: /10.0.0.11:37464in MyMiddleware.run()
LOG: Accepted client: /10.0.0.11:37450in MyMiddleware.run()
LOG: Accepted client: /10.0.0.7:38210in MyMiddleware.run()
LOG: Accepted client: /10.0.0.7:38204in MyMiddleware.run()
LOG: Accepted client: /10.0.0.7:38208in MyMiddleware.run()
LOG: Accepted client: /10.0.0.7:38206in MyMiddleware.run()
LOG: Accepted client: /10.0.0.7:38200in MyMiddleware.run()
LOG: Accepted client: /10.0.0.7:38202in MyMiddleware.run()
LOG: Accepted client: /10.0.0.6:48416in MyMiddleware.run()
LOG: Accepted client: /10.0.0.6:48418in MyMiddleware.run()
LOG: Accepted client: /10.0.0.6:48428in MyMiddleware.run()
LOG: Accepted client: /10.0.0.7:38212in MyMiddleware.run()
LOG: Accepted client: /10.0.0.7:38214in MyMiddleware.run()
LOG: Accepted client: /10.0.0.6:48414in MyMiddleware.run()
LOG: Accepted client: /10.0.0.6:48422in MyMiddleware.run()
LOG: Accepted client: /10.0.0.6:48420in MyMiddleware.run()
LOG: Accepted client: /10.0.0.6:48426in MyMiddleware.run()
LOG: Accepted client: /10.0.0.6:48424in MyMiddleware.run()
LOG: Closed client: /10.0.0.11:37450in MyMiddleware.run()
LOG: Closed client: /10.0.0.11:37454in MyMiddleware.run()
LOG: Closed client: /10.0.0.11:37460in MyMiddleware.run()
LOG: Closed client: /10.0.0.11:37456in MyMiddleware.run()
LOG: Closed client: /10.0.0.11:37452in MyMiddleware.run()
LOG: Closed client: /10.0.0.11:37458in MyMiddleware.run()
LOG: Closed client: /10.0.0.11:37462in MyMiddleware.run()
LOG: Closed client: /10.0.0.11:37464in MyMiddleware.run()
LOG: Closed client: /10.0.0.7:38200in MyMiddleware.run()
LOG: Closed client: /10.0.0.7:38202in MyMiddleware.run()
LOG: Closed client: /10.0.0.7:38210in MyMiddleware.run()
LOG: Closed client: /10.0.0.7:38206in MyMiddleware.run()
LOG: Closed client: /10.0.0.7:38204in MyMiddleware.run()
LOG: Closed client: /10.0.0.7:38208in MyMiddleware.run()
LOG: Closed client: /10.0.0.7:38212in MyMiddleware.run()
LOG: Closed client: /10.0.0.7:38214in MyMiddleware.run()
LOG: Closed client: /10.0.0.6:48422in MyMiddleware.run()
LOG: Closed client: /10.0.0.6:48418in MyMiddleware.run()
LOG: Closed client: /10.0.0.6:48420in MyMiddleware.run()
LOG: Closed client: /10.0.0.6:48414in MyMiddleware.run()
LOG: Closed client: /10.0.0.6:48416in MyMiddleware.run()
LOG: Closed client: /10.0.0.6:48428in MyMiddleware.run()
LOG: Closed client: /10.0.0.6:48426in MyMiddleware.run()
LOG: Closed client: /10.0.0.6:48424in MyMiddleware.run()
