------------Middleware started!------------
LOG: Waiting for connection in MyMiddleware.run()
LOG: Accepted client: /10.0.0.11:37226in MyMiddleware.run()
LOG: Accepted client: /10.0.0.11:37238in MyMiddleware.run()
LOG: Accepted client: /10.0.0.11:37224in MyMiddleware.run()
LOG: Accepted client: /10.0.0.11:37228in MyMiddleware.run()
LOG: Accepted client: /10.0.0.11:37230in MyMiddleware.run()
LOG: Accepted client: /10.0.0.11:37236in MyMiddleware.run()
LOG: Accepted client: /10.0.0.11:37232in MyMiddleware.run()
LOG: Accepted client: /10.0.0.11:37234in MyMiddleware.run()
LOG: Accepted client: /10.0.0.7:37952in MyMiddleware.run()
LOG: Accepted client: /10.0.0.7:37954in MyMiddleware.run()
LOG: Accepted client: /10.0.0.7:37956in MyMiddleware.run()
LOG: Accepted client: /10.0.0.7:37958in MyMiddleware.run()
LOG: Accepted client: /10.0.0.7:37960in MyMiddleware.run()
LOG: Accepted client: /10.0.0.7:37962in MyMiddleware.run()
LOG: Accepted client: /10.0.0.7:37950in MyMiddleware.run()
LOG: Accepted client: /10.0.0.7:37964in MyMiddleware.run()
LOG: Accepted client: /10.0.0.6:48166in MyMiddleware.run()
LOG: Accepted client: /10.0.0.6:48164in MyMiddleware.run()
LOG: Accepted client: /10.0.0.6:48176in MyMiddleware.run()
LOG: Accepted client: /10.0.0.6:48178in MyMiddleware.run()
LOG: Accepted client: /10.0.0.6:48172in MyMiddleware.run()
LOG: Accepted client: /10.0.0.6:48174in MyMiddleware.run()
LOG: Accepted client: /10.0.0.6:48170in MyMiddleware.run()
LOG: Accepted client: /10.0.0.6:48168in MyMiddleware.run()
LOG: Closed client: /10.0.0.11:37232in MyMiddleware.run()
LOG: Closed client: /10.0.0.11:37230in MyMiddleware.run()
LOG: Closed client: /10.0.0.11:37226in MyMiddleware.run()
LOG: Closed client: /10.0.0.11:37224in MyMiddleware.run()
LOG: Closed client: /10.0.0.11:37238in MyMiddleware.run()
LOG: Closed client: /10.0.0.11:37236in MyMiddleware.run()
LOG: Closed client: /10.0.0.11:37234in MyMiddleware.run()
LOG: Closed client: /10.0.0.11:37228in MyMiddleware.run()
LOG: Closed client: /10.0.0.7:37962in MyMiddleware.run()
LOG: Closed client: /10.0.0.7:37956in MyMiddleware.run()
LOG: Closed client: /10.0.0.7:37954in MyMiddleware.run()
LOG: Closed client: /10.0.0.7:37958in MyMiddleware.run()
LOG: Closed client: /10.0.0.7:37952in MyMiddleware.run()
LOG: Closed client: /10.0.0.7:37950in MyMiddleware.run()
LOG: Closed client: /10.0.0.7:37960in MyMiddleware.run()
LOG: Closed client: /10.0.0.7:37964in MyMiddleware.run()
LOG: Closed client: /10.0.0.6:48178in MyMiddleware.run()
LOG: Closed client: /10.0.0.6:48176in MyMiddleware.run()
LOG: Closed client: /10.0.0.6:48172in MyMiddleware.run()
LOG: Closed client: /10.0.0.6:48170in MyMiddleware.run()
LOG: Closed client: /10.0.0.6:48164in MyMiddleware.run()
LOG: Closed client: /10.0.0.6:48174in MyMiddleware.run()
LOG: Closed client: /10.0.0.6:48168in MyMiddleware.run()
LOG: Closed client: /10.0.0.6:48166in MyMiddleware.run()
