------------Middleware started!------------
LOG: Waiting for connection in MyMiddleware.run()
LOG: Accepted client: /10.0.0.11:53446in MyMiddleware.run()
LOG: Accepted client: /10.0.0.6:36184in MyMiddleware.run()
LOG: Accepted client: /10.0.0.6:36170in MyMiddleware.run()
LOG: Accepted client: /10.0.0.11:53464in MyMiddleware.run()
LOG: Accepted client: /10.0.0.11:53456in MyMiddleware.run()
LOG: Accepted client: /10.0.0.11:53454in MyMiddleware.run()
LOG: Accepted client: /10.0.0.11:53458in MyMiddleware.run()
LOG: Accepted client: /10.0.0.11:53468in MyMiddleware.run()
LOG: Accepted client: /10.0.0.11:53462in MyMiddleware.run()
LOG: Accepted client: /10.0.0.11:53470in MyMiddleware.run()
LOG: Accepted client: /10.0.0.11:53472in MyMiddleware.run()
LOG: Accepted client: /10.0.0.11:53442in MyMiddleware.run()
LOG: Accepted client: /10.0.0.11:53452in MyMiddleware.run()
LOG: Accepted client: /10.0.0.11:53460in MyMiddleware.run()
LOG: Accepted client: /10.0.0.11:53466in MyMiddleware.run()
LOG: Accepted client: /10.0.0.11:53444in MyMiddleware.run()
LOG: Accepted client: /10.0.0.6:36166in MyMiddleware.run()
LOG: Accepted client: /10.0.0.6:36168in MyMiddleware.run()
LOG: Accepted client: /10.0.0.6:36176in MyMiddleware.run()
LOG: Accepted client: /10.0.0.11:53450in MyMiddleware.run()
LOG: Accepted client: /10.0.0.6:36158in MyMiddleware.run()
LOG: Accepted client: /10.0.0.11:53448in MyMiddleware.run()
LOG: Accepted client: /10.0.0.6:36182in MyMiddleware.run()
LOG: Accepted client: /10.0.0.6:36162in MyMiddleware.run()
LOG: Accepted client: /10.0.0.6:36160in MyMiddleware.run()
LOG: Accepted client: /10.0.0.6:36188in MyMiddleware.run()
LOG: Accepted client: /10.0.0.6:36164in MyMiddleware.run()
LOG: Accepted client: /10.0.0.6:36180in MyMiddleware.run()
LOG: Accepted client: /10.0.0.6:36178in MyMiddleware.run()
LOG: Accepted client: /10.0.0.6:36172in MyMiddleware.run()
LOG: Accepted client: /10.0.0.6:36174in MyMiddleware.run()
LOG: Accepted client: /10.0.0.6:36186in MyMiddleware.run()
LOG: Accepted client: /10.0.0.7:54202in MyMiddleware.run()
LOG: Accepted client: /10.0.0.7:54180in MyMiddleware.run()
LOG: Accepted client: /10.0.0.7:54182in MyMiddleware.run()
LOG: Accepted client: /10.0.0.7:54196in MyMiddleware.run()
LOG: Accepted client: /10.0.0.7:54198in MyMiddleware.run()
LOG: Accepted client: /10.0.0.7:54184in MyMiddleware.run()
LOG: Accepted client: /10.0.0.7:54190in MyMiddleware.run()
LOG: Accepted client: /10.0.0.7:54192in MyMiddleware.run()
LOG: Accepted client: /10.0.0.7:54188in MyMiddleware.run()
LOG: Accepted client: /10.0.0.7:54194in MyMiddleware.run()
LOG: Accepted client: /10.0.0.7:54186in MyMiddleware.run()
LOG: Accepted client: /10.0.0.7:54204in MyMiddleware.run()
LOG: Accepted client: /10.0.0.7:54206in MyMiddleware.run()
LOG: Accepted client: /10.0.0.7:54200in MyMiddleware.run()
LOG: Accepted client: /10.0.0.7:54176in MyMiddleware.run()
LOG: Accepted client: /10.0.0.7:54178in MyMiddleware.run()
LOG: Closed client: /10.0.0.11:53442in MyMiddleware.run()
LOG: Closed client: /10.0.0.11:53460in MyMiddleware.run()
LOG: Closed client: /10.0.0.11:53472in MyMiddleware.run()
LOG: Closed client: /10.0.0.11:53468in MyMiddleware.run()
LOG: Closed client: /10.0.0.11:53458in MyMiddleware.run()
LOG: Closed client: /10.0.0.11:53450in MyMiddleware.run()
LOG: Closed client: /10.0.0.11:53446in MyMiddleware.run()
LOG: Closed client: /10.0.0.11:53456in MyMiddleware.run()
LOG: Closed client: /10.0.0.11:53452in MyMiddleware.run()
LOG: Closed client: /10.0.0.11:53470in MyMiddleware.run()
LOG: Closed client: /10.0.0.11:53462in MyMiddleware.run()
LOG: Closed client: /10.0.0.11:53464in MyMiddleware.run()
LOG: Closed client: /10.0.0.11:53448in MyMiddleware.run()
LOG: Closed client: /10.0.0.11:53454in MyMiddleware.run()
LOG: Closed client: /10.0.0.11:53466in MyMiddleware.run()
LOG: Closed client: /10.0.0.11:53444in MyMiddleware.run()
LOG: Closed client: /10.0.0.6:36180in MyMiddleware.run()
LOG: Closed client: /10.0.0.6:36164in MyMiddleware.run()
LOG: Closed client: /10.0.0.6:36162in MyMiddleware.run()
LOG: Closed client: /10.0.0.6:36176in MyMiddleware.run()
LOG: Closed client: /10.0.0.6:36166in MyMiddleware.run()
LOG: Closed client: /10.0.0.6:36182in MyMiddleware.run()
LOG: Closed client: /10.0.0.6:36158in MyMiddleware.run()
LOG: Closed client: /10.0.0.6:36160in MyMiddleware.run()
LOG: Closed client: /10.0.0.6:36186in MyMiddleware.run()
LOG: Closed client: /10.0.0.6:36188in MyMiddleware.run()
LOG: Closed client: /10.0.0.6:36168in MyMiddleware.run()
LOG: Closed client: /10.0.0.6:36170in MyMiddleware.run()
LOG: Closed client: /10.0.0.6:36184in MyMiddleware.run()
LOG: Closed client: /10.0.0.6:36178in MyMiddleware.run()
LOG: Closed client: /10.0.0.6:36174in MyMiddleware.run()
LOG: Closed client: /10.0.0.6:36172in MyMiddleware.run()
LOG: Closed client: /10.0.0.7:54196in MyMiddleware.run()
LOG: Closed client: /10.0.0.7:54192in MyMiddleware.run()
LOG: Closed client: /10.0.0.7:54194in MyMiddleware.run()
LOG: Closed client: /10.0.0.7:54180in MyMiddleware.run()
LOG: Closed client: /10.0.0.7:54202in MyMiddleware.run()
LOG: Closed client: /10.0.0.7:54182in MyMiddleware.run()
LOG: Closed client: /10.0.0.7:54186in MyMiddleware.run()
LOG: Closed client: /10.0.0.7:54206in MyMiddleware.run()
LOG: Closed client: /10.0.0.7:54204in MyMiddleware.run()
LOG: Closed client: /10.0.0.7:54178in MyMiddleware.run()
LOG: Closed client: /10.0.0.7:54198in MyMiddleware.run()
LOG: Closed client: /10.0.0.7:54188in MyMiddleware.run()
LOG: Closed client: /10.0.0.7:54200in MyMiddleware.run()
LOG: Closed client: /10.0.0.7:54190in MyMiddleware.run()
LOG: Closed client: /10.0.0.7:54184in MyMiddleware.run()
LOG: Closed client: /10.0.0.7:54176in MyMiddleware.run()
