------------Middleware started!------------
LOG: Waiting for connection in MyMiddleware.run()
LOG: Accepted client: /10.0.0.11:45136in MyMiddleware.run()
LOG: Accepted client: /10.0.0.11:45134in MyMiddleware.run()
LOG: Accepted client: /10.0.0.11:45154in MyMiddleware.run()
LOG: Accepted client: /10.0.0.11:45146in MyMiddleware.run()
LOG: Accepted client: /10.0.0.11:45174in MyMiddleware.run()
LOG: Accepted client: /10.0.0.11:45144in MyMiddleware.run()
LOG: Accepted client: /10.0.0.11:45142in MyMiddleware.run()
LOG: Accepted client: /10.0.0.11:45140in MyMiddleware.run()
LOG: Accepted client: /10.0.0.11:45148in MyMiddleware.run()
LOG: Accepted client: /10.0.0.11:45150in MyMiddleware.run()
LOG: Accepted client: /10.0.0.11:45162in MyMiddleware.run()
LOG: Accepted client: /10.0.0.11:45160in MyMiddleware.run()
LOG: Accepted client: /10.0.0.11:45178in MyMiddleware.run()
LOG: Accepted client: /10.0.0.11:45152in MyMiddleware.run()
LOG: Accepted client: /10.0.0.11:45196in MyMiddleware.run()
LOG: Accepted client: /10.0.0.11:45184in MyMiddleware.run()
LOG: Accepted client: /10.0.0.11:45168in MyMiddleware.run()
LOG: Accepted client: /10.0.0.11:45158in MyMiddleware.run()
LOG: Accepted client: /10.0.0.11:45138in MyMiddleware.run()
LOG: Accepted client: /10.0.0.11:45182in MyMiddleware.run()
LOG: Accepted client: /10.0.0.11:45192in MyMiddleware.run()
LOG: Accepted client: /10.0.0.11:45194in MyMiddleware.run()
LOG: Accepted client: /10.0.0.11:45176in MyMiddleware.run()
LOG: Accepted client: /10.0.0.11:45156in MyMiddleware.run()
LOG: Accepted client: /10.0.0.11:45180in MyMiddleware.run()
LOG: Accepted client: /10.0.0.11:45186in MyMiddleware.run()
LOG: Accepted client: /10.0.0.11:45164in MyMiddleware.run()
LOG: Accepted client: /10.0.0.11:45170in MyMiddleware.run()
LOG: Accepted client: /10.0.0.11:45190in MyMiddleware.run()
LOG: Accepted client: /10.0.0.11:45166in MyMiddleware.run()
LOG: Accepted client: /10.0.0.11:45172in MyMiddleware.run()
LOG: Accepted client: /10.0.0.11:45188in MyMiddleware.run()
LOG: Accepted client: /10.0.0.7:45890in MyMiddleware.run()
LOG: Accepted client: /10.0.0.7:45894in MyMiddleware.run()
LOG: Accepted client: /10.0.0.7:45908in MyMiddleware.run()
LOG: Accepted client: /10.0.0.7:45912in MyMiddleware.run()
LOG: Accepted client: /10.0.0.7:45900in MyMiddleware.run()
LOG: Accepted client: /10.0.0.7:45886in MyMiddleware.run()
LOG: Accepted client: /10.0.0.7:45902in MyMiddleware.run()
LOG: Accepted client: /10.0.0.7:45942in MyMiddleware.run()
LOG: Accepted client: /10.0.0.7:45944in MyMiddleware.run()
LOG: Accepted client: /10.0.0.7:45930in MyMiddleware.run()
LOG: Accepted client: /10.0.0.7:45910in MyMiddleware.run()
LOG: Accepted client: /10.0.0.7:45946in MyMiddleware.run()
LOG: Accepted client: /10.0.0.7:45926in MyMiddleware.run()
LOG: Accepted client: /10.0.0.7:45940in MyMiddleware.run()
LOG: Accepted client: /10.0.0.7:45934in MyMiddleware.run()
LOG: Accepted client: /10.0.0.7:45898in MyMiddleware.run()
LOG: Accepted client: /10.0.0.7:45918in MyMiddleware.run()
LOG: Accepted client: /10.0.0.7:45922in MyMiddleware.run()
LOG: Accepted client: /10.0.0.7:45938in MyMiddleware.run()
LOG: Accepted client: /10.0.0.7:45896in MyMiddleware.run()
LOG: Accepted client: /10.0.0.7:45892in MyMiddleware.run()
LOG: Accepted client: /10.0.0.7:45924in MyMiddleware.run()
LOG: Accepted client: /10.0.0.7:45916in MyMiddleware.run()
LOG: Accepted client: /10.0.0.7:45928in MyMiddleware.run()
LOG: Accepted client: /10.0.0.7:45936in MyMiddleware.run()
LOG: Accepted client: /10.0.0.7:45914in MyMiddleware.run()
LOG: Accepted client: /10.0.0.7:45884in MyMiddleware.run()
LOG: Accepted client: /10.0.0.7:45906in MyMiddleware.run()
LOG: Accepted client: /10.0.0.7:45904in MyMiddleware.run()
LOG: Accepted client: /10.0.0.7:45932in MyMiddleware.run()
LOG: Accepted client: /10.0.0.6:56108in MyMiddleware.run()
LOG: Accepted client: /10.0.0.6:56090in MyMiddleware.run()
LOG: Accepted client: /10.0.0.6:56152in MyMiddleware.run()
LOG: Accepted client: /10.0.0.6:56110in MyMiddleware.run()
LOG: Accepted client: /10.0.0.6:56128in MyMiddleware.run()
LOG: Accepted client: /10.0.0.6:56098in MyMiddleware.run()
LOG: Accepted client: /10.0.0.6:56130in MyMiddleware.run()
LOG: Accepted client: /10.0.0.6:56122in MyMiddleware.run()
LOG: Accepted client: /10.0.0.6:56142in MyMiddleware.run()
LOG: Accepted client: /10.0.0.6:56140in MyMiddleware.run()
LOG: Accepted client: /10.0.0.6:56120in MyMiddleware.run()
LOG: Accepted client: /10.0.0.6:56118in MyMiddleware.run()
LOG: Accepted client: /10.0.0.6:56150in MyMiddleware.run()
LOG: Accepted client: /10.0.0.6:56144in MyMiddleware.run()
LOG: Accepted client: /10.0.0.6:56116in MyMiddleware.run()
LOG: Accepted client: /10.0.0.6:56096in MyMiddleware.run()
LOG: Accepted client: /10.0.0.6:56100in MyMiddleware.run()
LOG: Accepted client: /10.0.0.6:56102in MyMiddleware.run()
LOG: Accepted client: /10.0.0.6:56146in MyMiddleware.run()
LOG: Accepted client: /10.0.0.6:56148in MyMiddleware.run()
LOG: Accepted client: /10.0.0.7:45888in MyMiddleware.run()
LOG: Accepted client: /10.0.0.7:45920in MyMiddleware.run()
LOG: Accepted client: /10.0.0.6:56126in MyMiddleware.run()
LOG: Accepted client: /10.0.0.6:56092in MyMiddleware.run()
LOG: Accepted client: /10.0.0.6:56094in MyMiddleware.run()
LOG: Accepted client: /10.0.0.6:56104in MyMiddleware.run()
LOG: Accepted client: /10.0.0.6:56106in MyMiddleware.run()
LOG: Accepted client: /10.0.0.6:56132in MyMiddleware.run()
LOG: Accepted client: /10.0.0.6:56112in MyMiddleware.run()
LOG: Accepted client: /10.0.0.6:56114in MyMiddleware.run()
LOG: Accepted client: /10.0.0.6:56134in MyMiddleware.run()
LOG: Accepted client: /10.0.0.6:56138in MyMiddleware.run()
LOG: Accepted client: /10.0.0.6:56124in MyMiddleware.run()
LOG: Accepted client: /10.0.0.6:56136in MyMiddleware.run()
LOG: Closed client: /10.0.0.7:45892in MyMiddleware.run()
LOG: Closed client: /10.0.0.7:45938in MyMiddleware.run()
LOG: Closed client: /10.0.0.7:45924in MyMiddleware.run()
LOG: Closed client: /10.0.0.7:45916in MyMiddleware.run()
LOG: Closed client: /10.0.0.7:45922in MyMiddleware.run()
LOG: Closed client: /10.0.0.7:45930in MyMiddleware.run()
LOG: Closed client: /10.0.0.7:45890in MyMiddleware.run()
LOG: Closed client: /10.0.0.7:45906in MyMiddleware.run()
LOG: Closed client: /10.0.0.7:45896in MyMiddleware.run()
LOG: Closed client: /10.0.0.7:45912in MyMiddleware.run()
LOG: Closed client: /10.0.0.7:45898in MyMiddleware.run()
LOG: Closed client: /10.0.0.7:45914in MyMiddleware.run()
LOG: Closed client: /10.0.0.7:45918in MyMiddleware.run()
LOG: Closed client: /10.0.0.7:45888in MyMiddleware.run()
LOG: Closed client: /10.0.0.7:45940in MyMiddleware.run()
LOG: Closed client: /10.0.0.7:45936in MyMiddleware.run()
LOG: Closed client: /10.0.0.7:45904in MyMiddleware.run()
LOG: Closed client: /10.0.0.7:45902in MyMiddleware.run()
LOG: Closed client: /10.0.0.7:45928in MyMiddleware.run()
LOG: Closed client: /10.0.0.7:45944in MyMiddleware.run()
LOG: Closed client: /10.0.0.7:45908in MyMiddleware.run()
LOG: Closed client: /10.0.0.7:45884in MyMiddleware.run()
LOG: Closed client: /10.0.0.7:45894in MyMiddleware.run()
LOG: Closed client: /10.0.0.7:45926in MyMiddleware.run()
LOG: Closed client: /10.0.0.7:45886in MyMiddleware.run()
LOG: Closed client: /10.0.0.7:45934in MyMiddleware.run()
LOG: Closed client: /10.0.0.7:45932in MyMiddleware.run()
LOG: Closed client: /10.0.0.6:56094in MyMiddleware.run()
LOG: Closed client: /10.0.0.6:56100in MyMiddleware.run()
LOG: Closed client: /10.0.0.6:56104in MyMiddleware.run()
LOG: Closed client: /10.0.0.6:56108in MyMiddleware.run()
LOG: Closed client: /10.0.0.6:56144in MyMiddleware.run()
LOG: Closed client: /10.0.0.6:56138in MyMiddleware.run()
LOG: Closed client: /10.0.0.6:56150in MyMiddleware.run()
LOG: Closed client: /10.0.0.6:56114in MyMiddleware.run()
LOG: Closed client: /10.0.0.6:56122in MyMiddleware.run()
LOG: Closed client: /10.0.0.7:45910in MyMiddleware.run()
LOG: Closed client: /10.0.0.7:45942in MyMiddleware.run()
LOG: Closed client: /10.0.0.6:56118in MyMiddleware.run()
LOG: Closed client: /10.0.0.6:56102in MyMiddleware.run()
LOG: Closed client: /10.0.0.6:56134in MyMiddleware.run()
LOG: Closed client: /10.0.0.6:56110in MyMiddleware.run()
LOG: Closed client: /10.0.0.6:56128in MyMiddleware.run()
LOG: Closed client: /10.0.0.6:56140in MyMiddleware.run()
LOG: Closed client: /10.0.0.6:56152in MyMiddleware.run()
LOG: Closed client: /10.0.0.7:45920in MyMiddleware.run()
LOG: Closed client: /10.0.0.6:56136in MyMiddleware.run()
LOG: Closed client: /10.0.0.7:45900in MyMiddleware.run()
LOG: Closed client: /10.0.0.6:56116in MyMiddleware.run()
LOG: Closed client: /10.0.0.6:56148in MyMiddleware.run()
LOG: Closed client: /10.0.0.7:45946in MyMiddleware.run()
LOG: Closed client: /10.0.0.6:56092in MyMiddleware.run()
LOG: Closed client: /10.0.0.6:56106in MyMiddleware.run()
LOG: Closed client: /10.0.0.6:56146in MyMiddleware.run()
LOG: Closed client: /10.0.0.6:56124in MyMiddleware.run()
LOG: Closed client: /10.0.0.6:56098in MyMiddleware.run()
LOG: Closed client: /10.0.0.6:56130in MyMiddleware.run()
LOG: Closed client: /10.0.0.6:56132in MyMiddleware.run()
LOG: Closed client: /10.0.0.6:56090in MyMiddleware.run()
LOG: Closed client: /10.0.0.6:56120in MyMiddleware.run()
LOG: Closed client: /10.0.0.6:56112in MyMiddleware.run()
LOG: Closed client: /10.0.0.6:56126in MyMiddleware.run()
LOG: Closed client: /10.0.0.6:56096in MyMiddleware.run()
LOG: Closed client: /10.0.0.6:56142in MyMiddleware.run()
LOG: Closed client: /10.0.0.11:45150in MyMiddleware.run()
LOG: Closed client: /10.0.0.11:45186in MyMiddleware.run()
LOG: Closed client: /10.0.0.11:45146in MyMiddleware.run()
LOG: Closed client: /10.0.0.11:45160in MyMiddleware.run()
LOG: Closed client: /10.0.0.11:45176in MyMiddleware.run()
LOG: Closed client: /10.0.0.11:45158in MyMiddleware.run()
LOG: Closed client: /10.0.0.11:45162in MyMiddleware.run()
LOG: Closed client: /10.0.0.11:45188in MyMiddleware.run()
LOG: Closed client: /10.0.0.11:45178in MyMiddleware.run()
LOG: Closed client: /10.0.0.11:45156in MyMiddleware.run()
LOG: Closed client: /10.0.0.11:45148in MyMiddleware.run()
LOG: Closed client: /10.0.0.11:45180in MyMiddleware.run()
LOG: Closed client: /10.0.0.11:45164in MyMiddleware.run()
LOG: Closed client: /10.0.0.11:45138in MyMiddleware.run()
LOG: Closed client: /10.0.0.11:45182in MyMiddleware.run()
LOG: Closed client: /10.0.0.11:45154in MyMiddleware.run()
LOG: Closed client: /10.0.0.11:45174in MyMiddleware.run()
LOG: Closed client: /10.0.0.11:45172in MyMiddleware.run()
LOG: Closed client: /10.0.0.11:45192in MyMiddleware.run()
LOG: Closed client: /10.0.0.11:45170in MyMiddleware.run()
LOG: Closed client: /10.0.0.11:45136in MyMiddleware.run()
LOG: Closed client: /10.0.0.11:45144in MyMiddleware.run()
LOG: Closed client: /10.0.0.11:45166in MyMiddleware.run()
LOG: Closed client: /10.0.0.11:45190in MyMiddleware.run()
LOG: Closed client: /10.0.0.11:45152in MyMiddleware.run()
LOG: Closed client: /10.0.0.11:45134in MyMiddleware.run()
LOG: Closed client: /10.0.0.11:45184in MyMiddleware.run()
LOG: Closed client: /10.0.0.11:45140in MyMiddleware.run()
LOG: Closed client: /10.0.0.11:45142in MyMiddleware.run()
LOG: Closed client: /10.0.0.11:45196in MyMiddleware.run()
LOG: Closed client: /10.0.0.11:45168in MyMiddleware.run()
LOG: Closed client: /10.0.0.11:45194in MyMiddleware.run()
