------------Middleware started!------------
LOG: Waiting for connection in MyMiddleware.run()
LOG: Accepted client: /10.0.0.11:60018in MyMiddleware.run()
LOG: Accepted client: /10.0.0.11:60058in MyMiddleware.run()
LOG: Accepted client: /10.0.0.11:60040in MyMiddleware.run()
LOG: Accepted client: /10.0.0.11:60078in MyMiddleware.run()
LOG: Accepted client: /10.0.0.11:60034in MyMiddleware.run()
LOG: Accepted client: /10.0.0.11:60076in MyMiddleware.run()
LOG: Accepted client: /10.0.0.11:60140in MyMiddleware.run()
LOG: Accepted client: /10.0.0.11:60062in MyMiddleware.run()
LOG: Accepted client: /10.0.0.11:60020in MyMiddleware.run()
LOG: Accepted client: /10.0.0.11:60068in MyMiddleware.run()
LOG: Accepted client: /10.0.0.11:60016in MyMiddleware.run()
LOG: Accepted client: /10.0.0.11:60096in MyMiddleware.run()
LOG: Accepted client: /10.0.0.11:60074in MyMiddleware.run()
LOG: Accepted client: /10.0.0.11:60046in MyMiddleware.run()
LOG: Accepted client: /10.0.0.11:60098in MyMiddleware.run()
LOG: Accepted client: /10.0.0.11:60084in MyMiddleware.run()
LOG: Accepted client: /10.0.0.11:60044in MyMiddleware.run()
LOG: Accepted client: /10.0.0.11:60112in MyMiddleware.run()
LOG: Accepted client: /10.0.0.11:60032in MyMiddleware.run()
LOG: Accepted client: /10.0.0.11:60056in MyMiddleware.run()
LOG: Accepted client: /10.0.0.11:60072in MyMiddleware.run()
LOG: Accepted client: /10.0.0.11:60070in MyMiddleware.run()
LOG: Accepted client: /10.0.0.11:60024in MyMiddleware.run()
LOG: Accepted client: /10.0.0.11:60124in MyMiddleware.run()
LOG: Accepted client: /10.0.0.11:60036in MyMiddleware.run()
LOG: Accepted client: /10.0.0.11:60028in MyMiddleware.run()
LOG: Accepted client: /10.0.0.11:60038in MyMiddleware.run()
LOG: Accepted client: /10.0.0.11:60052in MyMiddleware.run()
LOG: Accepted client: /10.0.0.11:60030in MyMiddleware.run()
LOG: Accepted client: /10.0.0.11:60026in MyMiddleware.run()
LOG: Accepted client: /10.0.0.11:60128in MyMiddleware.run()
LOG: Accepted client: /10.0.0.11:60050in MyMiddleware.run()
LOG: Accepted client: /10.0.0.11:60100in MyMiddleware.run()
LOG: Accepted client: /10.0.0.11:60080in MyMiddleware.run()
LOG: Accepted client: /10.0.0.11:60060in MyMiddleware.run()
LOG: Accepted client: /10.0.0.11:60126in MyMiddleware.run()
LOG: Accepted client: /10.0.0.11:60120in MyMiddleware.run()
LOG: Accepted client: /10.0.0.11:60138in MyMiddleware.run()
LOG: Accepted client: /10.0.0.11:60094in MyMiddleware.run()
LOG: Accepted client: /10.0.0.11:60108in MyMiddleware.run()
LOG: Accepted client: /10.0.0.11:60134in MyMiddleware.run()
LOG: Accepted client: /10.0.0.11:60066in MyMiddleware.run()
LOG: Accepted client: /10.0.0.11:60086in MyMiddleware.run()
LOG: Accepted client: /10.0.0.11:60136in MyMiddleware.run()
LOG: Accepted client: /10.0.0.11:60142in MyMiddleware.run()
LOG: Accepted client: /10.0.0.11:60122in MyMiddleware.run()
LOG: Accepted client: /10.0.0.11:60048in MyMiddleware.run()
LOG: Accepted client: /10.0.0.11:60104in MyMiddleware.run()
LOG: Accepted client: /10.0.0.11:60022in MyMiddleware.run()
LOG: Accepted client: /10.0.0.11:60082in MyMiddleware.run()
LOG: Accepted client: /10.0.0.11:60102in MyMiddleware.run()
LOG: Accepted client: /10.0.0.11:60106in MyMiddleware.run()
LOG: Accepted client: /10.0.0.11:60116in MyMiddleware.run()
LOG: Accepted client: /10.0.0.7:60864in MyMiddleware.run()
LOG: Accepted client: /10.0.0.7:60866in MyMiddleware.run()
LOG: Accepted client: /10.0.0.7:60868in MyMiddleware.run()
LOG: Accepted client: /10.0.0.7:60862in MyMiddleware.run()
LOG: Accepted client: /10.0.0.7:60872in MyMiddleware.run()
LOG: Accepted client: /10.0.0.7:60860in MyMiddleware.run()
LOG: Accepted client: /10.0.0.7:60878in MyMiddleware.run()
LOG: Accepted client: /10.0.0.7:60874in MyMiddleware.run()
LOG: Accepted client: /10.0.0.7:60876in MyMiddleware.run()
LOG: Accepted client: /10.0.0.7:60884in MyMiddleware.run()
LOG: Accepted client: /10.0.0.7:60870in MyMiddleware.run()
LOG: Accepted client: /10.0.0.7:60880in MyMiddleware.run()
LOG: Accepted client: /10.0.0.7:60882in MyMiddleware.run()
LOG: Accepted client: /10.0.0.11:60114in MyMiddleware.run()
LOG: Accepted client: /10.0.0.11:60042in MyMiddleware.run()
LOG: Accepted client: /10.0.0.11:60064in MyMiddleware.run()
LOG: Accepted client: /10.0.0.11:60132in MyMiddleware.run()
LOG: Accepted client: /10.0.0.11:60110in MyMiddleware.run()
LOG: Accepted client: /10.0.0.11:60092in MyMiddleware.run()
LOG: Accepted client: /10.0.0.11:60088in MyMiddleware.run()
LOG: Accepted client: /10.0.0.11:60130in MyMiddleware.run()
LOG: Accepted client: /10.0.0.11:60090in MyMiddleware.run()
LOG: Accepted client: /10.0.0.11:60054in MyMiddleware.run()
LOG: Accepted client: /10.0.0.11:60118in MyMiddleware.run()
LOG: Accepted client: /10.0.0.7:60820in MyMiddleware.run()
LOG: Accepted client: /10.0.0.7:60796in MyMiddleware.run()
LOG: Accepted client: /10.0.0.7:60772in MyMiddleware.run()
LOG: Accepted client: /10.0.0.7:60852in MyMiddleware.run()
LOG: Accepted client: /10.0.0.7:60770in MyMiddleware.run()
LOG: Accepted client: /10.0.0.7:60812in MyMiddleware.run()
LOG: Accepted client: /10.0.0.7:60818in MyMiddleware.run()
LOG: Accepted client: /10.0.0.7:60836in MyMiddleware.run()
LOG: Accepted client: /10.0.0.7:60856in MyMiddleware.run()
LOG: Accepted client: /10.0.0.7:60768in MyMiddleware.run()
LOG: Accepted client: /10.0.0.7:60838in MyMiddleware.run()
LOG: Accepted client: /10.0.0.7:60846in MyMiddleware.run()
LOG: Accepted client: /10.0.0.7:60794in MyMiddleware.run()
LOG: Accepted client: /10.0.0.7:60826in MyMiddleware.run()
LOG: Accepted client: /10.0.0.7:60802in MyMiddleware.run()
LOG: Accepted client: /10.0.0.7:60810in MyMiddleware.run()
LOG: Accepted client: /10.0.0.7:60764in MyMiddleware.run()
LOG: Accepted client: /10.0.0.7:60766in MyMiddleware.run()
LOG: Accepted client: /10.0.0.7:60808in MyMiddleware.run()
LOG: Accepted client: /10.0.0.7:60832in MyMiddleware.run()
LOG: Accepted client: /10.0.0.7:60824in MyMiddleware.run()
LOG: Accepted client: /10.0.0.7:60840in MyMiddleware.run()
LOG: Accepted client: /10.0.0.7:60788in MyMiddleware.run()
LOG: Accepted client: /10.0.0.7:60834in MyMiddleware.run()
LOG: Accepted client: /10.0.0.7:60760in MyMiddleware.run()
LOG: Accepted client: /10.0.0.7:60784in MyMiddleware.run()
LOG: Accepted client: /10.0.0.7:60804in MyMiddleware.run()
LOG: Accepted client: /10.0.0.7:60780in MyMiddleware.run()
LOG: Accepted client: /10.0.0.7:60828in MyMiddleware.run()
LOG: Accepted client: /10.0.0.7:60850in MyMiddleware.run()
LOG: Accepted client: /10.0.0.7:60762in MyMiddleware.run()
LOG: Accepted client: /10.0.0.7:60800in MyMiddleware.run()
LOG: Accepted client: /10.0.0.7:60830in MyMiddleware.run()
LOG: Accepted client: /10.0.0.7:60848in MyMiddleware.run()
LOG: Accepted client: /10.0.0.7:60774in MyMiddleware.run()
LOG: Accepted client: /10.0.0.7:60806in MyMiddleware.run()
LOG: Accepted client: /10.0.0.7:60786in MyMiddleware.run()
LOG: Accepted client: /10.0.0.7:60798in MyMiddleware.run()
LOG: Accepted client: /10.0.0.7:60758in MyMiddleware.run()
LOG: Accepted client: /10.0.0.7:60858in MyMiddleware.run()
LOG: Accepted client: /10.0.0.7:60822in MyMiddleware.run()
LOG: Accepted client: /10.0.0.7:60792in MyMiddleware.run()
LOG: Accepted client: /10.0.0.7:60776in MyMiddleware.run()
LOG: Accepted client: /10.0.0.7:60844in MyMiddleware.run()
LOG: Accepted client: /10.0.0.7:60782in MyMiddleware.run()
LOG: Accepted client: /10.0.0.7:60778in MyMiddleware.run()
LOG: Accepted client: /10.0.0.7:60854in MyMiddleware.run()
LOG: Accepted client: /10.0.0.7:60790in MyMiddleware.run()
LOG: Accepted client: /10.0.0.7:60814in MyMiddleware.run()
LOG: Accepted client: /10.0.0.7:60816in MyMiddleware.run()
LOG: Accepted client: /10.0.0.7:60842in MyMiddleware.run()
LOG: Accepted client: /10.0.0.6:42836in MyMiddleware.run()
LOG: Accepted client: /10.0.0.6:42764in MyMiddleware.run()
LOG: Accepted client: /10.0.0.6:42848in MyMiddleware.run()
LOG: Accepted client: /10.0.0.6:42860in MyMiddleware.run()
LOG: Accepted client: /10.0.0.6:42784in MyMiddleware.run()
LOG: Accepted client: /10.0.0.6:42856in MyMiddleware.run()
LOG: Accepted client: /10.0.0.6:42786in MyMiddleware.run()
LOG: Accepted client: /10.0.0.6:42840in MyMiddleware.run()
LOG: Accepted client: /10.0.0.6:42818in MyMiddleware.run()
LOG: Accepted client: /10.0.0.6:42752in MyMiddleware.run()
LOG: Accepted client: /10.0.0.6:42854in MyMiddleware.run()
LOG: Accepted client: /10.0.0.6:42838in MyMiddleware.run()
LOG: Accepted client: /10.0.0.6:42850in MyMiddleware.run()
LOG: Accepted client: /10.0.0.6:42830in MyMiddleware.run()
LOG: Accepted client: /10.0.0.6:42808in MyMiddleware.run()
LOG: Accepted client: /10.0.0.6:42804in MyMiddleware.run()
LOG: Accepted client: /10.0.0.6:42816in MyMiddleware.run()
LOG: Accepted client: /10.0.0.6:42820in MyMiddleware.run()
LOG: Accepted client: /10.0.0.6:42800in MyMiddleware.run()
LOG: Accepted client: /10.0.0.6:42862in MyMiddleware.run()
LOG: Accepted client: /10.0.0.6:42776in MyMiddleware.run()
LOG: Accepted client: /10.0.0.6:42778in MyMiddleware.run()
LOG: Accepted client: /10.0.0.6:42766in MyMiddleware.run()
LOG: Accepted client: /10.0.0.6:42842in MyMiddleware.run()
LOG: Accepted client: /10.0.0.6:42858in MyMiddleware.run()
LOG: Accepted client: /10.0.0.6:42822in MyMiddleware.run()
LOG: Accepted client: /10.0.0.6:42754in MyMiddleware.run()
LOG: Accepted client: /10.0.0.6:42802in MyMiddleware.run()
LOG: Accepted client: /10.0.0.6:42798in MyMiddleware.run()
LOG: Accepted client: /10.0.0.6:42782in MyMiddleware.run()
LOG: Accepted client: /10.0.0.6:42748in MyMiddleware.run()
LOG: Accepted client: /10.0.0.6:42780in MyMiddleware.run()
LOG: Accepted client: /10.0.0.6:42772in MyMiddleware.run()
LOG: Accepted client: /10.0.0.6:42828in MyMiddleware.run()
LOG: Accepted client: /10.0.0.6:42806in MyMiddleware.run()
LOG: Accepted client: /10.0.0.6:42826in MyMiddleware.run()
LOG: Accepted client: /10.0.0.6:42770in MyMiddleware.run()
LOG: Accepted client: /10.0.0.6:42814in MyMiddleware.run()
LOG: Accepted client: /10.0.0.6:42824in MyMiddleware.run()
LOG: Accepted client: /10.0.0.6:42812in MyMiddleware.run()
LOG: Accepted client: /10.0.0.6:42844in MyMiddleware.run()
LOG: Accepted client: /10.0.0.6:42852in MyMiddleware.run()
LOG: Accepted client: /10.0.0.6:42768in MyMiddleware.run()
LOG: Accepted client: /10.0.0.6:42756in MyMiddleware.run()
LOG: Accepted client: /10.0.0.6:42810in MyMiddleware.run()
LOG: Accepted client: /10.0.0.6:42774in MyMiddleware.run()
LOG: Accepted client: /10.0.0.6:42760in MyMiddleware.run()
LOG: Accepted client: /10.0.0.6:42744in MyMiddleware.run()
LOG: Accepted client: /10.0.0.6:42866in MyMiddleware.run()
LOG: Accepted client: /10.0.0.6:42750in MyMiddleware.run()
LOG: Accepted client: /10.0.0.6:42794in MyMiddleware.run()
LOG: Accepted client: /10.0.0.6:42796in MyMiddleware.run()
LOG: Accepted client: /10.0.0.6:42792in MyMiddleware.run()
LOG: Accepted client: /10.0.0.6:42746in MyMiddleware.run()
LOG: Accepted client: /10.0.0.6:42788in MyMiddleware.run()
LOG: Accepted client: /10.0.0.6:42846in MyMiddleware.run()
LOG: Accepted client: /10.0.0.6:42758in MyMiddleware.run()
LOG: Accepted client: /10.0.0.6:42742in MyMiddleware.run()
LOG: Accepted client: /10.0.0.6:42832in MyMiddleware.run()
LOG: Accepted client: /10.0.0.6:42834in MyMiddleware.run()
LOG: Accepted client: /10.0.0.6:42740in MyMiddleware.run()
LOG: Accepted client: /10.0.0.6:42762in MyMiddleware.run()
LOG: Accepted client: /10.0.0.6:42790in MyMiddleware.run()
LOG: Accepted client: /10.0.0.6:42864in MyMiddleware.run()
LOG: Closed client: /10.0.0.11:60024in MyMiddleware.run()
LOG: Closed client: /10.0.0.11:60056in MyMiddleware.run()
LOG: Closed client: /10.0.0.11:60060in MyMiddleware.run()
LOG: Closed client: /10.0.0.11:60082in MyMiddleware.run()
LOG: Closed client: /10.0.0.11:60050in MyMiddleware.run()
LOG: Closed client: /10.0.0.11:60070in MyMiddleware.run()
LOG: Closed client: /10.0.0.11:60064in MyMiddleware.run()
LOG: Closed client: /10.0.0.11:60068in MyMiddleware.run()
LOG: Closed client: /10.0.0.11:60020in MyMiddleware.run()
LOG: Closed client: /10.0.0.11:60078in MyMiddleware.run()
LOG: Closed client: /10.0.0.11:60036in MyMiddleware.run()
LOG: Closed client: /10.0.0.11:60022in MyMiddleware.run()
LOG: Closed client: /10.0.0.11:60046in MyMiddleware.run()
LOG: Closed client: /10.0.0.11:60054in MyMiddleware.run()
LOG: Closed client: /10.0.0.11:60062in MyMiddleware.run()
LOG: Closed client: /10.0.0.11:60034in MyMiddleware.run()
LOG: Closed client: /10.0.0.11:60032in MyMiddleware.run()
LOG: Closed client: /10.0.0.11:60028in MyMiddleware.run()
LOG: Closed client: /10.0.0.11:60040in MyMiddleware.run()
LOG: Closed client: /10.0.0.11:60058in MyMiddleware.run()
LOG: Closed client: /10.0.0.11:60026in MyMiddleware.run()
LOG: Closed client: /10.0.0.11:60076in MyMiddleware.run()
LOG: Closed client: /10.0.0.11:60042in MyMiddleware.run()
LOG: Closed client: /10.0.0.11:60016in MyMiddleware.run()
LOG: Closed client: /10.0.0.11:60066in MyMiddleware.run()
LOG: Closed client: /10.0.0.11:60052in MyMiddleware.run()
LOG: Closed client: /10.0.0.11:60018in MyMiddleware.run()
LOG: Closed client: /10.0.0.11:60038in MyMiddleware.run()
LOG: Closed client: /10.0.0.11:60074in MyMiddleware.run()
LOG: Closed client: /10.0.0.11:60044in MyMiddleware.run()
LOG: Closed client: /10.0.0.11:60072in MyMiddleware.run()
LOG: Closed client: /10.0.0.11:60030in MyMiddleware.run()
LOG: Closed client: /10.0.0.11:60048in MyMiddleware.run()
LOG: Closed client: /10.0.0.11:60130in MyMiddleware.run()
LOG: Closed client: /10.0.0.11:60080in MyMiddleware.run()
LOG: Closed client: /10.0.0.11:60086in MyMiddleware.run()
LOG: Closed client: /10.0.0.11:60104in MyMiddleware.run()
LOG: Closed client: /10.0.0.11:60120in MyMiddleware.run()
LOG: Closed client: /10.0.0.11:60112in MyMiddleware.run()
LOG: Closed client: /10.0.0.11:60132in MyMiddleware.run()
LOG: Closed client: /10.0.0.11:60094in MyMiddleware.run()
LOG: Closed client: /10.0.0.11:60138in MyMiddleware.run()
LOG: Closed client: /10.0.0.11:60098in MyMiddleware.run()
LOG: Closed client: /10.0.0.11:60110in MyMiddleware.run()
LOG: Closed client: /10.0.0.11:60140in MyMiddleware.run()
LOG: Closed client: /10.0.0.11:60088in MyMiddleware.run()
LOG: Closed client: /10.0.0.11:60092in MyMiddleware.run()
LOG: Closed client: /10.0.0.11:60102in MyMiddleware.run()
LOG: Closed client: /10.0.0.11:60118in MyMiddleware.run()
LOG: Closed client: /10.0.0.11:60126in MyMiddleware.run()
LOG: Closed client: /10.0.0.11:60108in MyMiddleware.run()
LOG: Closed client: /10.0.0.11:60116in MyMiddleware.run()
LOG: Closed client: /10.0.0.11:60114in MyMiddleware.run()
LOG: Closed client: /10.0.0.11:60096in MyMiddleware.run()
LOG: Closed client: /10.0.0.11:60136in MyMiddleware.run()
LOG: Closed client: /10.0.0.11:60134in MyMiddleware.run()
LOG: Closed client: /10.0.0.11:60122in MyMiddleware.run()
LOG: Closed client: /10.0.0.11:60128in MyMiddleware.run()
LOG: Closed client: /10.0.0.11:60084in MyMiddleware.run()
LOG: Closed client: /10.0.0.11:60106in MyMiddleware.run()
LOG: Closed client: /10.0.0.11:60100in MyMiddleware.run()
LOG: Closed client: /10.0.0.11:60090in MyMiddleware.run()
LOG: Closed client: /10.0.0.11:60124in MyMiddleware.run()
LOG: Closed client: /10.0.0.11:60142in MyMiddleware.run()
LOG: Closed client: /10.0.0.6:42754in MyMiddleware.run()
LOG: Closed client: /10.0.0.6:42756in MyMiddleware.run()
LOG: Closed client: /10.0.0.6:42748in MyMiddleware.run()
LOG: Closed client: /10.0.0.6:42742in MyMiddleware.run()
LOG: Closed client: /10.0.0.6:42762in MyMiddleware.run()
LOG: Closed client: /10.0.0.6:42740in MyMiddleware.run()
LOG: Closed client: /10.0.0.6:42760in MyMiddleware.run()
LOG: Closed client: /10.0.0.6:42786in MyMiddleware.run()
LOG: Closed client: /10.0.0.6:42768in MyMiddleware.run()
LOG: Closed client: /10.0.0.6:42780in MyMiddleware.run()
LOG: Closed client: /10.0.0.6:42750in MyMiddleware.run()
LOG: Closed client: /10.0.0.6:42822in MyMiddleware.run()
LOG: Closed client: /10.0.0.6:42758in MyMiddleware.run()
LOG: Closed client: /10.0.0.6:42782in MyMiddleware.run()
LOG: Closed client: /10.0.0.6:42826in MyMiddleware.run()
LOG: Closed client: /10.0.0.6:42778in MyMiddleware.run()
LOG: Closed client: /10.0.0.6:42776in MyMiddleware.run()
LOG: Closed client: /10.0.0.6:42812in MyMiddleware.run()
LOG: Closed client: /10.0.0.6:42814in MyMiddleware.run()
LOG: Closed client: /10.0.0.6:42784in MyMiddleware.run()
LOG: Closed client: /10.0.0.6:42764in MyMiddleware.run()
LOG: Closed client: /10.0.0.6:42810in MyMiddleware.run()
LOG: Closed client: /10.0.0.6:42770in MyMiddleware.run()
LOG: Closed client: /10.0.0.6:42746in MyMiddleware.run()
LOG: Closed client: /10.0.0.6:42794in MyMiddleware.run()
LOG: Closed client: /10.0.0.6:42788in MyMiddleware.run()
LOG: Closed client: /10.0.0.6:42774in MyMiddleware.run()
LOG: Closed client: /10.0.0.6:42798in MyMiddleware.run()
LOG: Closed client: /10.0.0.6:42818in MyMiddleware.run()
LOG: Closed client: /10.0.0.6:42828in MyMiddleware.run()
LOG: Closed client: /10.0.0.6:42820in MyMiddleware.run()
LOG: Closed client: /10.0.0.6:42790in MyMiddleware.run()
LOG: Closed client: /10.0.0.6:42752in MyMiddleware.run()
LOG: Closed client: /10.0.0.6:42804in MyMiddleware.run()
LOG: Closed client: /10.0.0.6:42806in MyMiddleware.run()
LOG: Closed client: /10.0.0.6:42800in MyMiddleware.run()
LOG: Closed client: /10.0.0.6:42744in MyMiddleware.run()
LOG: Closed client: /10.0.0.6:42792in MyMiddleware.run()
LOG: Closed client: /10.0.0.6:42766in MyMiddleware.run()
LOG: Closed client: /10.0.0.6:42802in MyMiddleware.run()
LOG: Closed client: /10.0.0.6:42830in MyMiddleware.run()
LOG: Closed client: /10.0.0.6:42796in MyMiddleware.run()
LOG: Closed client: /10.0.0.6:42772in MyMiddleware.run()
LOG: Closed client: /10.0.0.6:42824in MyMiddleware.run()
LOG: Closed client: /10.0.0.6:42816in MyMiddleware.run()
LOG: Closed client: /10.0.0.6:42808in MyMiddleware.run()
LOG: Closed client: /10.0.0.6:42840in MyMiddleware.run()
LOG: Closed client: /10.0.0.6:42864in MyMiddleware.run()
LOG: Closed client: /10.0.0.7:60762in MyMiddleware.run()
LOG: Closed client: /10.0.0.7:60784in MyMiddleware.run()
LOG: Closed client: /10.0.0.6:42852in MyMiddleware.run()
LOG: Closed client: /10.0.0.6:42850in MyMiddleware.run()
LOG: Closed client: /10.0.0.6:42832in MyMiddleware.run()
LOG: Closed client: /10.0.0.6:42838in MyMiddleware.run()
LOG: Closed client: /10.0.0.6:42842in MyMiddleware.run()
LOG: Closed client: /10.0.0.6:42848in MyMiddleware.run()
LOG: Closed client: /10.0.0.6:42858in MyMiddleware.run()
LOG: Closed client: /10.0.0.6:42862in MyMiddleware.run()
LOG: Closed client: /10.0.0.6:42854in MyMiddleware.run()
LOG: Closed client: /10.0.0.6:42856in MyMiddleware.run()
LOG: Closed client: /10.0.0.6:42834in MyMiddleware.run()
LOG: Closed client: /10.0.0.7:60772in MyMiddleware.run()
LOG: Closed client: /10.0.0.7:60770in MyMiddleware.run()
LOG: Closed client: /10.0.0.7:60760in MyMiddleware.run()
LOG: Closed client: /10.0.0.6:42860in MyMiddleware.run()
LOG: Closed client: /10.0.0.6:42866in MyMiddleware.run()
LOG: Closed client: /10.0.0.7:60768in MyMiddleware.run()
LOG: Closed client: /10.0.0.7:60780in MyMiddleware.run()
LOG: Closed client: /10.0.0.6:42836in MyMiddleware.run()
LOG: Closed client: /10.0.0.7:60788in MyMiddleware.run()
LOG: Closed client: /10.0.0.6:42846in MyMiddleware.run()
LOG: Closed client: /10.0.0.6:42844in MyMiddleware.run()
LOG: Closed client: /10.0.0.7:60764in MyMiddleware.run()
LOG: Closed client: /10.0.0.7:60812in MyMiddleware.run()
LOG: Closed client: /10.0.0.7:60758in MyMiddleware.run()
LOG: Closed client: /10.0.0.7:60766in MyMiddleware.run()
LOG: Closed client: /10.0.0.7:60810in MyMiddleware.run()
LOG: Closed client: /10.0.0.7:60844in MyMiddleware.run()
LOG: Closed client: /10.0.0.7:60798in MyMiddleware.run()
LOG: Closed client: /10.0.0.7:60774in MyMiddleware.run()
LOG: Closed client: /10.0.0.7:60778in MyMiddleware.run()
LOG: Closed client: /10.0.0.7:60790in MyMiddleware.run()
LOG: Closed client: /10.0.0.7:60792in MyMiddleware.run()
LOG: Closed client: /10.0.0.7:60806in MyMiddleware.run()
LOG: Closed client: /10.0.0.7:60822in MyMiddleware.run()
LOG: Closed client: /10.0.0.7:60782in MyMiddleware.run()
LOG: Closed client: /10.0.0.7:60824in MyMiddleware.run()
LOG: Closed client: /10.0.0.7:60836in MyMiddleware.run()
LOG: Closed client: /10.0.0.7:60840in MyMiddleware.run()
LOG: Closed client: /10.0.0.7:60814in MyMiddleware.run()
LOG: Closed client: /10.0.0.7:60830in MyMiddleware.run()
LOG: Closed client: /10.0.0.7:60808in MyMiddleware.run()
LOG: Closed client: /10.0.0.7:60850in MyMiddleware.run()
LOG: Closed client: /10.0.0.7:60816in MyMiddleware.run()
LOG: Closed client: /10.0.0.7:60776in MyMiddleware.run()
LOG: Closed client: /10.0.0.7:60854in MyMiddleware.run()
LOG: Closed client: /10.0.0.7:60852in MyMiddleware.run()
LOG: Closed client: /10.0.0.7:60796in MyMiddleware.run()
LOG: Closed client: /10.0.0.7:60800in MyMiddleware.run()
LOG: Closed client: /10.0.0.7:60820in MyMiddleware.run()
LOG: Closed client: /10.0.0.7:60804in MyMiddleware.run()
LOG: Closed client: /10.0.0.7:60842in MyMiddleware.run()
LOG: Closed client: /10.0.0.7:60856in MyMiddleware.run()
LOG: Closed client: /10.0.0.7:60794in MyMiddleware.run()
LOG: Closed client: /10.0.0.7:60818in MyMiddleware.run()
LOG: Closed client: /10.0.0.7:60786in MyMiddleware.run()
LOG: Closed client: /10.0.0.7:60802in MyMiddleware.run()
LOG: Closed client: /10.0.0.7:60826in MyMiddleware.run()
LOG: Closed client: /10.0.0.7:60828in MyMiddleware.run()
LOG: Closed client: /10.0.0.7:60864in MyMiddleware.run()
LOG: Closed client: /10.0.0.7:60838in MyMiddleware.run()
LOG: Closed client: /10.0.0.7:60884in MyMiddleware.run()
LOG: Closed client: /10.0.0.7:60848in MyMiddleware.run()
LOG: Closed client: /10.0.0.7:60866in MyMiddleware.run()
LOG: Closed client: /10.0.0.7:60878in MyMiddleware.run()
LOG: Closed client: /10.0.0.7:60860in MyMiddleware.run()
LOG: Closed client: /10.0.0.7:60870in MyMiddleware.run()
LOG: Closed client: /10.0.0.7:60858in MyMiddleware.run()
LOG: Closed client: /10.0.0.7:60832in MyMiddleware.run()
LOG: Closed client: /10.0.0.7:60880in MyMiddleware.run()
LOG: Closed client: /10.0.0.7:60846in MyMiddleware.run()
LOG: Closed client: /10.0.0.7:60882in MyMiddleware.run()
LOG: Closed client: /10.0.0.7:60876in MyMiddleware.run()
LOG: Closed client: /10.0.0.7:60868in MyMiddleware.run()
LOG: Closed client: /10.0.0.7:60862in MyMiddleware.run()
LOG: Closed client: /10.0.0.7:60874in MyMiddleware.run()
LOG: Closed client: /10.0.0.7:60872in MyMiddleware.run()
LOG: Closed client: /10.0.0.7:60834in MyMiddleware.run()
