------------Middleware started!------------
LOG: Waiting for connection in MyMiddleware.run()
LOG: Accepted client: /10.0.0.7:60734in MyMiddleware.run()
LOG: Accepted client: /10.0.0.7:60746in MyMiddleware.run()
LOG: Accepted client: /10.0.0.7:60758in MyMiddleware.run()
LOG: Accepted client: /10.0.0.7:60770in MyMiddleware.run()
LOG: Accepted client: /10.0.0.7:60752in MyMiddleware.run()
LOG: Accepted client: /10.0.0.7:60730in MyMiddleware.run()
LOG: Accepted client: /10.0.0.7:60754in MyMiddleware.run()
LOG: Accepted client: /10.0.0.7:60748in MyMiddleware.run()
LOG: Accepted client: /10.0.0.7:60742in MyMiddleware.run()
LOG: Accepted client: /10.0.0.7:60728in MyMiddleware.run()
LOG: Accepted client: /10.0.0.7:60768in MyMiddleware.run()
LOG: Accepted client: /10.0.0.7:60756in MyMiddleware.run()
LOG: Accepted client: /10.0.0.7:60778in MyMiddleware.run()
LOG: Accepted client: /10.0.0.7:60762in MyMiddleware.run()
LOG: Accepted client: /10.0.0.7:60738in MyMiddleware.run()
LOG: Accepted client: /10.0.0.7:60750in MyMiddleware.run()
LOG: Accepted client: /10.0.0.7:60764in MyMiddleware.run()
LOG: Accepted client: /10.0.0.7:60772in MyMiddleware.run()
LOG: Accepted client: /10.0.0.7:60736in MyMiddleware.run()
LOG: Accepted client: /10.0.0.7:60744in MyMiddleware.run()
LOG: Accepted client: /10.0.0.7:60780in MyMiddleware.run()
LOG: Accepted client: /10.0.0.7:60732in MyMiddleware.run()
LOG: Accepted client: /10.0.0.7:60774in MyMiddleware.run()
LOG: Accepted client: /10.0.0.7:60782in MyMiddleware.run()
LOG: Accepted client: /10.0.0.7:60784in MyMiddleware.run()
LOG: Accepted client: /10.0.0.7:60776in MyMiddleware.run()
LOG: Accepted client: /10.0.0.7:60788in MyMiddleware.run()
LOG: Accepted client: /10.0.0.7:60766in MyMiddleware.run()
LOG: Accepted client: /10.0.0.7:60786in MyMiddleware.run()
LOG: Accepted client: /10.0.0.7:60740in MyMiddleware.run()
LOG: Accepted client: /10.0.0.7:60760in MyMiddleware.run()
LOG: Accepted client: /10.0.0.7:60726in MyMiddleware.run()
LOG: Accepted client: /10.0.0.6:42708in MyMiddleware.run()
LOG: Accepted client: /10.0.0.6:42738in MyMiddleware.run()
LOG: Accepted client: /10.0.0.6:42710in MyMiddleware.run()
LOG: Accepted client: /10.0.0.6:42728in MyMiddleware.run()
LOG: Accepted client: /10.0.0.6:42726in MyMiddleware.run()
LOG: Accepted client: /10.0.0.6:42720in MyMiddleware.run()
LOG: Accepted client: /10.0.0.6:42732in MyMiddleware.run()
LOG: Accepted client: /10.0.0.6:42730in MyMiddleware.run()
LOG: Accepted client: /10.0.0.6:42712in MyMiddleware.run()
LOG: Accepted client: /10.0.0.6:42718in MyMiddleware.run()
LOG: Accepted client: /10.0.0.6:42714in MyMiddleware.run()
LOG: Accepted client: /10.0.0.6:42724in MyMiddleware.run()
LOG: Accepted client: /10.0.0.6:42734in MyMiddleware.run()
LOG: Accepted client: /10.0.0.6:42722in MyMiddleware.run()
LOG: Accepted client: /10.0.0.6:42770in MyMiddleware.run()
LOG: Accepted client: /10.0.0.6:42754in MyMiddleware.run()
LOG: Accepted client: /10.0.0.6:42744in MyMiddleware.run()
LOG: Accepted client: /10.0.0.6:42748in MyMiddleware.run()
LOG: Accepted client: /10.0.0.6:42758in MyMiddleware.run()
LOG: Accepted client: /10.0.0.6:42756in MyMiddleware.run()
LOG: Accepted client: /10.0.0.6:42752in MyMiddleware.run()
LOG: Accepted client: /10.0.0.6:42746in MyMiddleware.run()
LOG: Accepted client: /10.0.0.6:42740in MyMiddleware.run()
LOG: Accepted client: /10.0.0.6:42716in MyMiddleware.run()
LOG: Accepted client: /10.0.0.6:42762in MyMiddleware.run()
LOG: Accepted client: /10.0.0.6:42742in MyMiddleware.run()
LOG: Accepted client: /10.0.0.6:42764in MyMiddleware.run()
LOG: Accepted client: /10.0.0.6:42760in MyMiddleware.run()
LOG: Accepted client: /10.0.0.6:42736in MyMiddleware.run()
LOG: Accepted client: /10.0.0.6:42750in MyMiddleware.run()
LOG: Accepted client: /10.0.0.6:42766in MyMiddleware.run()
LOG: Accepted client: /10.0.0.6:42768in MyMiddleware.run()
LOG: Accepted client: /10.0.0.11:59998in MyMiddleware.run()
LOG: Accepted client: /10.0.0.11:60000in MyMiddleware.run()
LOG: Accepted client: /10.0.0.11:60004in MyMiddleware.run()
LOG: Accepted client: /10.0.0.11:60006in MyMiddleware.run()
LOG: Accepted client: /10.0.0.11:60040in MyMiddleware.run()
LOG: Accepted client: /10.0.0.11:60012in MyMiddleware.run()
LOG: Accepted client: /10.0.0.11:60002in MyMiddleware.run()
LOG: Accepted client: /10.0.0.11:60036in MyMiddleware.run()
LOG: Accepted client: /10.0.0.11:60024in MyMiddleware.run()
LOG: Accepted client: /10.0.0.11:59994in MyMiddleware.run()
LOG: Accepted client: /10.0.0.11:60018in MyMiddleware.run()
LOG: Accepted client: /10.0.0.11:59996in MyMiddleware.run()
LOG: Accepted client: /10.0.0.11:60034in MyMiddleware.run()
LOG: Accepted client: /10.0.0.11:60010in MyMiddleware.run()
LOG: Accepted client: /10.0.0.11:60032in MyMiddleware.run()
LOG: Accepted client: /10.0.0.11:60008in MyMiddleware.run()
LOG: Accepted client: /10.0.0.11:60056in MyMiddleware.run()
LOG: Accepted client: /10.0.0.11:60042in MyMiddleware.run()
LOG: Accepted client: /10.0.0.11:60016in MyMiddleware.run()
LOG: Accepted client: /10.0.0.11:60038in MyMiddleware.run()
LOG: Accepted client: /10.0.0.11:60022in MyMiddleware.run()
LOG: Accepted client: /10.0.0.11:60046in MyMiddleware.run()
LOG: Accepted client: /10.0.0.11:60026in MyMiddleware.run()
LOG: Accepted client: /10.0.0.11:60044in MyMiddleware.run()
LOG: Accepted client: /10.0.0.11:60050in MyMiddleware.run()
LOG: Accepted client: /10.0.0.11:60020in MyMiddleware.run()
LOG: Accepted client: /10.0.0.11:60014in MyMiddleware.run()
LOG: Accepted client: /10.0.0.11:60048in MyMiddleware.run()
LOG: Accepted client: /10.0.0.11:60030in MyMiddleware.run()
LOG: Accepted client: /10.0.0.11:60028in MyMiddleware.run()
LOG: Accepted client: /10.0.0.11:60052in MyMiddleware.run()
LOG: Accepted client: /10.0.0.11:60054in MyMiddleware.run()
LOG: Closed client: /10.0.0.7:60728in MyMiddleware.run()
LOG: Closed client: /10.0.0.7:60726in MyMiddleware.run()
LOG: Closed client: /10.0.0.7:60744in MyMiddleware.run()
LOG: Closed client: /10.0.0.7:60730in MyMiddleware.run()
LOG: Closed client: /10.0.0.7:60734in MyMiddleware.run()
LOG: Closed client: /10.0.0.7:60740in MyMiddleware.run()
LOG: Closed client: /10.0.0.7:60732in MyMiddleware.run()
LOG: Closed client: /10.0.0.7:60776in MyMiddleware.run()
LOG: Closed client: /10.0.0.7:60756in MyMiddleware.run()
LOG: Closed client: /10.0.0.7:60770in MyMiddleware.run()
LOG: Closed client: /10.0.0.7:60774in MyMiddleware.run()
LOG: Closed client: /10.0.0.7:60772in MyMiddleware.run()
LOG: Closed client: /10.0.0.7:60768in MyMiddleware.run()
LOG: Closed client: /10.0.0.7:60778in MyMiddleware.run()
LOG: Closed client: /10.0.0.7:60782in MyMiddleware.run()
LOG: Closed client: /10.0.0.7:60742in MyMiddleware.run()
LOG: Closed client: /10.0.0.7:60784in MyMiddleware.run()
LOG: Closed client: /10.0.0.7:60788in MyMiddleware.run()
LOG: Closed client: /10.0.0.7:60736in MyMiddleware.run()
LOG: Closed client: /10.0.0.7:60758in MyMiddleware.run()
LOG: Closed client: /10.0.0.7:60752in MyMiddleware.run()
LOG: Closed client: /10.0.0.7:60760in MyMiddleware.run()
LOG: Closed client: /10.0.0.7:60780in MyMiddleware.run()
LOG: Closed client: /10.0.0.7:60766in MyMiddleware.run()
LOG: Closed client: /10.0.0.7:60786in MyMiddleware.run()
LOG: Closed client: /10.0.0.7:60762in MyMiddleware.run()
LOG: Closed client: /10.0.0.7:60746in MyMiddleware.run()
LOG: Closed client: /10.0.0.7:60750in MyMiddleware.run()
LOG: Closed client: /10.0.0.7:60748in MyMiddleware.run()
LOG: Closed client: /10.0.0.7:60754in MyMiddleware.run()
LOG: Closed client: /10.0.0.7:60738in MyMiddleware.run()
LOG: Closed client: /10.0.0.7:60764in MyMiddleware.run()
LOG: Closed client: /10.0.0.6:42758in MyMiddleware.run()
LOG: Closed client: /10.0.0.6:42746in MyMiddleware.run()
LOG: Closed client: /10.0.0.6:42740in MyMiddleware.run()
LOG: Closed client: /10.0.0.6:42748in MyMiddleware.run()
LOG: Closed client: /10.0.0.6:42718in MyMiddleware.run()
LOG: Closed client: /10.0.0.6:42708in MyMiddleware.run()
LOG: Closed client: /10.0.0.6:42760in MyMiddleware.run()
LOG: Closed client: /10.0.0.6:42766in MyMiddleware.run()
LOG: Closed client: /10.0.0.6:42756in MyMiddleware.run()
LOG: Closed client: /10.0.0.6:42714in MyMiddleware.run()
LOG: Closed client: /10.0.0.6:42728in MyMiddleware.run()
LOG: Closed client: /10.0.0.6:42754in MyMiddleware.run()
LOG: Closed client: /10.0.0.6:42730in MyMiddleware.run()
LOG: Closed client: /10.0.0.6:42742in MyMiddleware.run()
LOG: Closed client: /10.0.0.6:42726in MyMiddleware.run()
LOG: Closed client: /10.0.0.6:42724in MyMiddleware.run()
LOG: Closed client: /10.0.0.6:42744in MyMiddleware.run()
LOG: Closed client: /10.0.0.6:42722in MyMiddleware.run()
LOG: Closed client: /10.0.0.6:42762in MyMiddleware.run()
LOG: Closed client: /10.0.0.6:42736in MyMiddleware.run()
LOG: Closed client: /10.0.0.6:42732in MyMiddleware.run()
LOG: Closed client: /10.0.0.6:42716in MyMiddleware.run()
LOG: Closed client: /10.0.0.6:42712in MyMiddleware.run()
LOG: Closed client: /10.0.0.6:42710in MyMiddleware.run()
LOG: Closed client: /10.0.0.6:42764in MyMiddleware.run()
LOG: Closed client: /10.0.0.6:42738in MyMiddleware.run()
LOG: Closed client: /10.0.0.6:42734in MyMiddleware.run()
LOG: Closed client: /10.0.0.6:42720in MyMiddleware.run()
LOG: Closed client: /10.0.0.6:42770in MyMiddleware.run()
LOG: Closed client: /10.0.0.6:42768in MyMiddleware.run()
LOG: Closed client: /10.0.0.6:42752in MyMiddleware.run()
LOG: Closed client: /10.0.0.6:42750in MyMiddleware.run()
LOG: Closed client: /10.0.0.11:60000in MyMiddleware.run()
LOG: Closed client: /10.0.0.11:60032in MyMiddleware.run()
LOG: Closed client: /10.0.0.11:60044in MyMiddleware.run()
LOG: Closed client: /10.0.0.11:59996in MyMiddleware.run()
LOG: Closed client: /10.0.0.11:60028in MyMiddleware.run()
LOG: Closed client: /10.0.0.11:60018in MyMiddleware.run()
LOG: Closed client: /10.0.0.11:60012in MyMiddleware.run()
LOG: Closed client: /10.0.0.11:60048in MyMiddleware.run()
LOG: Closed client: /10.0.0.11:59994in MyMiddleware.run()
LOG: Closed client: /10.0.0.11:60008in MyMiddleware.run()
LOG: Closed client: /10.0.0.11:60030in MyMiddleware.run()
LOG: Closed client: /10.0.0.11:60004in MyMiddleware.run()
LOG: Closed client: /10.0.0.11:60036in MyMiddleware.run()
LOG: Closed client: /10.0.0.11:59998in MyMiddleware.run()
LOG: Closed client: /10.0.0.11:60038in MyMiddleware.run()
LOG: Closed client: /10.0.0.11:60034in MyMiddleware.run()
LOG: Closed client: /10.0.0.11:60042in MyMiddleware.run()
LOG: Closed client: /10.0.0.11:60016in MyMiddleware.run()
LOG: Closed client: /10.0.0.11:60006in MyMiddleware.run()
LOG: Closed client: /10.0.0.11:60020in MyMiddleware.run()
LOG: Closed client: /10.0.0.11:60040in MyMiddleware.run()
LOG: Closed client: /10.0.0.11:60024in MyMiddleware.run()
LOG: Closed client: /10.0.0.11:60014in MyMiddleware.run()
LOG: Closed client: /10.0.0.11:60022in MyMiddleware.run()
LOG: Closed client: /10.0.0.11:60010in MyMiddleware.run()
LOG: Closed client: /10.0.0.11:60002in MyMiddleware.run()
LOG: Closed client: /10.0.0.11:60026in MyMiddleware.run()
LOG: Closed client: /10.0.0.11:60054in MyMiddleware.run()
LOG: Closed client: /10.0.0.11:60046in MyMiddleware.run()
LOG: Closed client: /10.0.0.11:60050in MyMiddleware.run()
LOG: Closed client: /10.0.0.11:60056in MyMiddleware.run()
LOG: Closed client: /10.0.0.11:60052in MyMiddleware.run()
