------------Middleware started!------------
LOG: Waiting for connection in MyMiddleware.run()
LOG: Accepted client: /10.0.0.7:46478in MyMiddleware.run()
LOG: Accepted client: /10.0.0.7:46496in MyMiddleware.run()
LOG: Accepted client: /10.0.0.7:46500in MyMiddleware.run()
LOG: Accepted client: /10.0.0.7:46504in MyMiddleware.run()
LOG: Accepted client: /10.0.0.7:46480in MyMiddleware.run()
LOG: Accepted client: /10.0.0.7:46476in MyMiddleware.run()
LOG: Accepted client: /10.0.0.7:46490in MyMiddleware.run()
LOG: Accepted client: /10.0.0.7:46498in MyMiddleware.run()
LOG: Accepted client: /10.0.0.7:46508in MyMiddleware.run()
LOG: Accepted client: /10.0.0.7:46486in MyMiddleware.run()
LOG: Accepted client: /10.0.0.7:46520in MyMiddleware.run()
LOG: Accepted client: /10.0.0.7:46488in MyMiddleware.run()
LOG: Accepted client: /10.0.0.7:46526in MyMiddleware.run()
LOG: Accepted client: /10.0.0.7:46484in MyMiddleware.run()
LOG: Accepted client: /10.0.0.7:46494in MyMiddleware.run()
LOG: Accepted client: /10.0.0.7:46518in MyMiddleware.run()
LOG: Accepted client: /10.0.0.7:46538in MyMiddleware.run()
LOG: Accepted client: /10.0.0.7:46522in MyMiddleware.run()
LOG: Accepted client: /10.0.0.7:46510in MyMiddleware.run()
LOG: Accepted client: /10.0.0.7:46482in MyMiddleware.run()
LOG: Accepted client: /10.0.0.7:46530in MyMiddleware.run()
LOG: Accepted client: /10.0.0.7:46524in MyMiddleware.run()
LOG: Accepted client: /10.0.0.7:46516in MyMiddleware.run()
LOG: Accepted client: /10.0.0.7:46534in MyMiddleware.run()
LOG: Accepted client: /10.0.0.7:46528in MyMiddleware.run()
LOG: Accepted client: /10.0.0.7:46536in MyMiddleware.run()
LOG: Accepted client: /10.0.0.7:46492in MyMiddleware.run()
LOG: Accepted client: /10.0.0.7:46502in MyMiddleware.run()
LOG: Accepted client: /10.0.0.7:46532in MyMiddleware.run()
LOG: Accepted client: /10.0.0.7:46512in MyMiddleware.run()
LOG: Accepted client: /10.0.0.7:46514in MyMiddleware.run()
LOG: Accepted client: /10.0.0.7:46506in MyMiddleware.run()
LOG: Accepted client: /10.0.0.11:45748in MyMiddleware.run()
LOG: Accepted client: /10.0.0.11:45760in MyMiddleware.run()
LOG: Accepted client: /10.0.0.11:45784in MyMiddleware.run()
LOG: Accepted client: /10.0.0.11:45776in MyMiddleware.run()
LOG: Accepted client: /10.0.0.11:45758in MyMiddleware.run()
LOG: Accepted client: /10.0.0.11:45744in MyMiddleware.run()
LOG: Accepted client: /10.0.0.11:45786in MyMiddleware.run()
LOG: Accepted client: /10.0.0.11:45762in MyMiddleware.run()
LOG: Accepted client: /10.0.0.11:45750in MyMiddleware.run()
LOG: Accepted client: /10.0.0.11:45746in MyMiddleware.run()
LOG: Accepted client: /10.0.0.11:45782in MyMiddleware.run()
LOG: Accepted client: /10.0.0.11:45802in MyMiddleware.run()
LOG: Accepted client: /10.0.0.11:45800in MyMiddleware.run()
LOG: Accepted client: /10.0.0.11:45764in MyMiddleware.run()
LOG: Accepted client: /10.0.0.11:45780in MyMiddleware.run()
LOG: Accepted client: /10.0.0.11:45798in MyMiddleware.run()
LOG: Accepted client: /10.0.0.11:45768in MyMiddleware.run()
LOG: Accepted client: /10.0.0.11:45792in MyMiddleware.run()
LOG: Accepted client: /10.0.0.11:45774in MyMiddleware.run()
LOG: Accepted client: /10.0.0.11:45754in MyMiddleware.run()
LOG: Accepted client: /10.0.0.11:45772in MyMiddleware.run()
LOG: Accepted client: /10.0.0.11:45752in MyMiddleware.run()
LOG: Accepted client: /10.0.0.11:45804in MyMiddleware.run()
LOG: Accepted client: /10.0.0.11:45794in MyMiddleware.run()
LOG: Accepted client: /10.0.0.11:45790in MyMiddleware.run()
LOG: Accepted client: /10.0.0.11:45742in MyMiddleware.run()
LOG: Accepted client: /10.0.0.11:45788in MyMiddleware.run()
LOG: Accepted client: /10.0.0.11:45778in MyMiddleware.run()
LOG: Accepted client: /10.0.0.11:45796in MyMiddleware.run()
LOG: Accepted client: /10.0.0.11:45756in MyMiddleware.run()
LOG: Accepted client: /10.0.0.11:45770in MyMiddleware.run()
LOG: Accepted client: /10.0.0.11:45766in MyMiddleware.run()
LOG: Accepted client: /10.0.0.6:56702in MyMiddleware.run()
LOG: Accepted client: /10.0.0.6:56694in MyMiddleware.run()
LOG: Accepted client: /10.0.0.6:56692in MyMiddleware.run()
LOG: Accepted client: /10.0.0.6:56732in MyMiddleware.run()
LOG: Accepted client: /10.0.0.6:56734in MyMiddleware.run()
LOG: Accepted client: /10.0.0.6:56700in MyMiddleware.run()
LOG: Accepted client: /10.0.0.6:56744in MyMiddleware.run()
LOG: Accepted client: /10.0.0.6:56708in MyMiddleware.run()
LOG: Accepted client: /10.0.0.6:56684in MyMiddleware.run()
LOG: Accepted client: /10.0.0.6:56686in MyMiddleware.run()
LOG: Accepted client: /10.0.0.6:56710in MyMiddleware.run()
LOG: Accepted client: /10.0.0.6:56722in MyMiddleware.run()
LOG: Accepted client: /10.0.0.6:56698in MyMiddleware.run()
LOG: Accepted client: /10.0.0.6:56720in MyMiddleware.run()
LOG: Accepted client: /10.0.0.6:56726in MyMiddleware.run()
LOG: Accepted client: /10.0.0.6:56696in MyMiddleware.run()
LOG: Accepted client: /10.0.0.6:56718in MyMiddleware.run()
LOG: Accepted client: /10.0.0.6:56682in MyMiddleware.run()
LOG: Accepted client: /10.0.0.6:56704in MyMiddleware.run()
LOG: Accepted client: /10.0.0.6:56706in MyMiddleware.run()
LOG: Accepted client: /10.0.0.6:56688in MyMiddleware.run()
LOG: Accepted client: /10.0.0.6:56728in MyMiddleware.run()
LOG: Accepted client: /10.0.0.6:56730in MyMiddleware.run()
LOG: Accepted client: /10.0.0.6:56690in MyMiddleware.run()
LOG: Accepted client: /10.0.0.6:56714in MyMiddleware.run()
LOG: Accepted client: /10.0.0.6:56742in MyMiddleware.run()
LOG: Accepted client: /10.0.0.6:56712in MyMiddleware.run()
LOG: Accepted client: /10.0.0.6:56740in MyMiddleware.run()
LOG: Accepted client: /10.0.0.6:56736in MyMiddleware.run()
LOG: Accepted client: /10.0.0.6:56716in MyMiddleware.run()
LOG: Accepted client: /10.0.0.6:56738in MyMiddleware.run()
LOG: Accepted client: /10.0.0.6:56724in MyMiddleware.run()
LOG: Closed client: /10.0.0.7:46504in MyMiddleware.run()
LOG: Closed client: /10.0.0.7:46506in MyMiddleware.run()
LOG: Closed client: /10.0.0.7:46478in MyMiddleware.run()
LOG: Closed client: /10.0.0.7:46496in MyMiddleware.run()
LOG: Closed client: /10.0.0.7:46486in MyMiddleware.run()
LOG: Closed client: /10.0.0.7:46536in MyMiddleware.run()
LOG: Closed client: /10.0.0.7:46488in MyMiddleware.run()
LOG: Closed client: /10.0.0.7:46516in MyMiddleware.run()
LOG: Closed client: /10.0.0.7:46522in MyMiddleware.run()
LOG: Closed client: /10.0.0.7:46520in MyMiddleware.run()
LOG: Closed client: /10.0.0.7:46526in MyMiddleware.run()
LOG: Closed client: /10.0.0.7:46534in MyMiddleware.run()
LOG: Closed client: /10.0.0.7:46508in MyMiddleware.run()
LOG: Closed client: /10.0.0.7:46492in MyMiddleware.run()
LOG: Closed client: /10.0.0.7:46528in MyMiddleware.run()
LOG: Closed client: /10.0.0.7:46510in MyMiddleware.run()
LOG: Closed client: /10.0.0.7:46500in MyMiddleware.run()
LOG: Closed client: /10.0.0.7:46482in MyMiddleware.run()
LOG: Closed client: /10.0.0.7:46480in MyMiddleware.run()
LOG: Closed client: /10.0.0.7:46514in MyMiddleware.run()
LOG: Closed client: /10.0.0.7:46530in MyMiddleware.run()
LOG: Closed client: /10.0.0.7:46502in MyMiddleware.run()
LOG: Closed client: /10.0.0.7:46476in MyMiddleware.run()
LOG: Closed client: /10.0.0.7:46512in MyMiddleware.run()
LOG: Closed client: /10.0.0.7:46532in MyMiddleware.run()
LOG: Closed client: /10.0.0.7:46484in MyMiddleware.run()
LOG: Closed client: /10.0.0.7:46518in MyMiddleware.run()
LOG: Closed client: /10.0.0.7:46498in MyMiddleware.run()
LOG: Closed client: /10.0.0.7:46490in MyMiddleware.run()
LOG: Closed client: /10.0.0.7:46494in MyMiddleware.run()
LOG: Closed client: /10.0.0.7:46524in MyMiddleware.run()
LOG: Closed client: /10.0.0.7:46538in MyMiddleware.run()
LOG: Closed client: /10.0.0.11:45742in MyMiddleware.run()
LOG: Closed client: /10.0.0.11:45752in MyMiddleware.run()
LOG: Closed client: /10.0.0.11:45746in MyMiddleware.run()
LOG: Closed client: /10.0.0.11:45748in MyMiddleware.run()
LOG: Closed client: /10.0.0.11:45744in MyMiddleware.run()
LOG: Closed client: /10.0.0.11:45770in MyMiddleware.run()
LOG: Closed client: /10.0.0.11:45754in MyMiddleware.run()
LOG: Closed client: /10.0.0.11:45762in MyMiddleware.run()
LOG: Closed client: /10.0.0.11:45758in MyMiddleware.run()
LOG: Closed client: /10.0.0.11:45768in MyMiddleware.run()
LOG: Closed client: /10.0.0.11:45764in MyMiddleware.run()
LOG: Closed client: /10.0.0.11:45750in MyMiddleware.run()
LOG: Closed client: /10.0.0.11:45760in MyMiddleware.run()
LOG: Closed client: /10.0.0.11:45766in MyMiddleware.run()
LOG: Closed client: /10.0.0.11:45756in MyMiddleware.run()
LOG: Closed client: /10.0.0.11:45774in MyMiddleware.run()
LOG: Closed client: /10.0.0.11:45792in MyMiddleware.run()
LOG: Closed client: /10.0.0.11:45778in MyMiddleware.run()
LOG: Closed client: /10.0.0.11:45782in MyMiddleware.run()
LOG: Closed client: /10.0.0.11:45776in MyMiddleware.run()
LOG: Closed client: /10.0.0.11:45790in MyMiddleware.run()
LOG: Closed client: /10.0.0.11:45796in MyMiddleware.run()
LOG: Closed client: /10.0.0.11:45786in MyMiddleware.run()
LOG: Closed client: /10.0.0.11:45794in MyMiddleware.run()
LOG: Closed client: /10.0.0.11:45784in MyMiddleware.run()
LOG: Closed client: /10.0.0.11:45788in MyMiddleware.run()
LOG: Closed client: /10.0.0.11:45780in MyMiddleware.run()
LOG: Closed client: /10.0.0.11:45772in MyMiddleware.run()
LOG: Closed client: /10.0.0.11:45804in MyMiddleware.run()
LOG: Closed client: /10.0.0.11:45798in MyMiddleware.run()
LOG: Closed client: /10.0.0.11:45802in MyMiddleware.run()
LOG: Closed client: /10.0.0.11:45800in MyMiddleware.run()
LOG: Closed client: /10.0.0.6:56700in MyMiddleware.run()
LOG: Closed client: /10.0.0.6:56694in MyMiddleware.run()
LOG: Closed client: /10.0.0.6:56692in MyMiddleware.run()
LOG: Closed client: /10.0.0.6:56702in MyMiddleware.run()
LOG: Closed client: /10.0.0.6:56706in MyMiddleware.run()
LOG: Closed client: /10.0.0.6:56682in MyMiddleware.run()
LOG: Closed client: /10.0.0.6:56688in MyMiddleware.run()
LOG: Closed client: /10.0.0.6:56730in MyMiddleware.run()
LOG: Closed client: /10.0.0.6:56726in MyMiddleware.run()
LOG: Closed client: /10.0.0.6:56690in MyMiddleware.run()
LOG: Closed client: /10.0.0.6:56722in MyMiddleware.run()
LOG: Closed client: /10.0.0.6:56716in MyMiddleware.run()
LOG: Closed client: /10.0.0.6:56710in MyMiddleware.run()
LOG: Closed client: /10.0.0.6:56740in MyMiddleware.run()
LOG: Closed client: /10.0.0.6:56686in MyMiddleware.run()
LOG: Closed client: /10.0.0.6:56696in MyMiddleware.run()
LOG: Closed client: /10.0.0.6:56736in MyMiddleware.run()
LOG: Closed client: /10.0.0.6:56708in MyMiddleware.run()
LOG: Closed client: /10.0.0.6:56724in MyMiddleware.run()
LOG: Closed client: /10.0.0.6:56698in MyMiddleware.run()
LOG: Closed client: /10.0.0.6:56728in MyMiddleware.run()
LOG: Closed client: /10.0.0.6:56704in MyMiddleware.run()
LOG: Closed client: /10.0.0.6:56714in MyMiddleware.run()
LOG: Closed client: /10.0.0.6:56718in MyMiddleware.run()
LOG: Closed client: /10.0.0.6:56738in MyMiddleware.run()
LOG: Closed client: /10.0.0.6:56732in MyMiddleware.run()
LOG: Closed client: /10.0.0.6:56734in MyMiddleware.run()
LOG: Closed client: /10.0.0.6:56742in MyMiddleware.run()
LOG: Closed client: /10.0.0.6:56684in MyMiddleware.run()
LOG: Closed client: /10.0.0.6:56712in MyMiddleware.run()
LOG: Closed client: /10.0.0.6:56720in MyMiddleware.run()
LOG: Closed client: /10.0.0.6:56744in MyMiddleware.run()
