------------Middleware started!------------
LOG: Waiting for connection in MyMiddleware.run()
LOG: Accepted client: /10.0.0.11:52170in MyMiddleware.run()
LOG: Accepted client: /10.0.0.11:52168in MyMiddleware.run()
LOG: Accepted client: /10.0.0.11:52172in MyMiddleware.run()
LOG: Accepted client: /10.0.0.11:52166in MyMiddleware.run()
LOG: Accepted client: /10.0.0.11:52176in MyMiddleware.run()
LOG: Accepted client: /10.0.0.11:52174in MyMiddleware.run()
LOG: Accepted client: /10.0.0.11:52178in MyMiddleware.run()
LOG: Accepted client: /10.0.0.11:52180in MyMiddleware.run()
LOG: Accepted client: /10.0.0.7:52904in MyMiddleware.run()
LOG: Accepted client: /10.0.0.7:52906in MyMiddleware.run()
LOG: Accepted client: /10.0.0.7:52900in MyMiddleware.run()
LOG: Accepted client: /10.0.0.7:52902in MyMiddleware.run()
LOG: Accepted client: /10.0.0.7:52912in MyMiddleware.run()
LOG: Accepted client: /10.0.0.7:52898in MyMiddleware.run()
LOG: Accepted client: /10.0.0.6:34890in MyMiddleware.run()
LOG: Accepted client: /10.0.0.6:34884in MyMiddleware.run()
LOG: Accepted client: /10.0.0.6:34880in MyMiddleware.run()
LOG: Accepted client: /10.0.0.6:34886in MyMiddleware.run()
LOG: Accepted client: /10.0.0.6:34882in MyMiddleware.run()
LOG: Accepted client: /10.0.0.6:34888in MyMiddleware.run()
LOG: Accepted client: /10.0.0.7:52910in MyMiddleware.run()
LOG: Accepted client: /10.0.0.7:52908in MyMiddleware.run()
LOG: Accepted client: /10.0.0.6:34894in MyMiddleware.run()
LOG: Accepted client: /10.0.0.6:34892in MyMiddleware.run()
LOG: Closed client: /10.0.0.7:52902in MyMiddleware.run()
LOG: Closed client: /10.0.0.7:52900in MyMiddleware.run()
LOG: Closed client: /10.0.0.7:52906in MyMiddleware.run()
LOG: Closed client: /10.0.0.7:52912in MyMiddleware.run()
LOG: Closed client: /10.0.0.7:52898in MyMiddleware.run()
LOG: Closed client: /10.0.0.7:52904in MyMiddleware.run()
LOG: Closed client: /10.0.0.7:52910in MyMiddleware.run()
LOG: Closed client: /10.0.0.7:52908in MyMiddleware.run()
LOG: Closed client: /10.0.0.6:34888in MyMiddleware.run()
LOG: Closed client: /10.0.0.6:34886in MyMiddleware.run()
LOG: Closed client: /10.0.0.6:34884in MyMiddleware.run()
LOG: Closed client: /10.0.0.6:34880in MyMiddleware.run()
LOG: Closed client: /10.0.0.6:34882in MyMiddleware.run()
LOG: Closed client: /10.0.0.6:34894in MyMiddleware.run()
LOG: Closed client: /10.0.0.6:34892in MyMiddleware.run()
LOG: Closed client: /10.0.0.6:34890in MyMiddleware.run()
LOG: Closed client: /10.0.0.11:52168in MyMiddleware.run()
LOG: Closed client: /10.0.0.11:52180in MyMiddleware.run()
LOG: Closed client: /10.0.0.11:52178in MyMiddleware.run()
LOG: Closed client: /10.0.0.11:52170in MyMiddleware.run()
LOG: Closed client: /10.0.0.11:52166in MyMiddleware.run()
LOG: Closed client: /10.0.0.11:52172in MyMiddleware.run()
LOG: Closed client: /10.0.0.11:52176in MyMiddleware.run()
LOG: Closed client: /10.0.0.11:52174in MyMiddleware.run()
