------------Middleware started!------------
LOG: Waiting for connection in MyMiddleware.run()
LOG: Accepted client: /10.0.0.6:47408in MyMiddleware.run()
LOG: Accepted client: /10.0.0.6:47412in MyMiddleware.run()
LOG: Accepted client: /10.0.0.6:47416in MyMiddleware.run()
LOG: Accepted client: /10.0.0.6:47414in MyMiddleware.run()
LOG: Accepted client: /10.0.0.6:47402in MyMiddleware.run()
LOG: Accepted client: /10.0.0.6:47410in MyMiddleware.run()
LOG: Accepted client: /10.0.0.6:47404in MyMiddleware.run()
LOG: Accepted client: /10.0.0.6:47406in MyMiddleware.run()
LOG: Accepted client: /10.0.0.11:36462in MyMiddleware.run()
LOG: Accepted client: /10.0.0.11:36460in MyMiddleware.run()
LOG: Accepted client: /10.0.0.11:36456in MyMiddleware.run()
LOG: Accepted client: /10.0.0.11:36458in MyMiddleware.run()
LOG: Accepted client: /10.0.0.11:36470in MyMiddleware.run()
LOG: Accepted client: /10.0.0.11:36468in MyMiddleware.run()
LOG: Accepted client: /10.0.0.11:36466in MyMiddleware.run()
LOG: Accepted client: /10.0.0.11:36464in MyMiddleware.run()
LOG: Accepted client: /10.0.0.7:37198in MyMiddleware.run()
LOG: Accepted client: /10.0.0.7:37192in MyMiddleware.run()
LOG: Accepted client: /10.0.0.7:37196in MyMiddleware.run()
LOG: Accepted client: /10.0.0.7:37194in MyMiddleware.run()
LOG: Accepted client: /10.0.0.7:37202in MyMiddleware.run()
LOG: Accepted client: /10.0.0.7:37200in MyMiddleware.run()
LOG: Accepted client: /10.0.0.7:37190in MyMiddleware.run()
LOG: Accepted client: /10.0.0.7:37188in MyMiddleware.run()
LOG: Closed client: /10.0.0.11:36460in MyMiddleware.run()
LOG: Closed client: /10.0.0.11:36458in MyMiddleware.run()
LOG: Closed client: /10.0.0.11:36462in MyMiddleware.run()
LOG: Closed client: /10.0.0.11:36468in MyMiddleware.run()
LOG: Closed client: /10.0.0.6:47406in MyMiddleware.run()
LOG: Closed client: /10.0.0.6:47414in MyMiddleware.run()
LOG: Closed client: /10.0.0.6:47402in MyMiddleware.run()
LOG: Closed client: /10.0.0.6:47408in MyMiddleware.run()
LOG: Closed client: /10.0.0.6:47416in MyMiddleware.run()
LOG: Closed client: /10.0.0.6:47412in MyMiddleware.run()
LOG: Closed client: /10.0.0.6:47410in MyMiddleware.run()
LOG: Closed client: /10.0.0.11:36466in MyMiddleware.run()
LOG: Closed client: /10.0.0.11:36470in MyMiddleware.run()
LOG: Closed client: /10.0.0.11:36464in MyMiddleware.run()
LOG: Closed client: /10.0.0.11:36456in MyMiddleware.run()
LOG: Closed client: /10.0.0.6:47404in MyMiddleware.run()
LOG: Closed client: /10.0.0.7:37194in MyMiddleware.run()
LOG: Closed client: /10.0.0.7:37192in MyMiddleware.run()
LOG: Closed client: /10.0.0.7:37202in MyMiddleware.run()
LOG: Closed client: /10.0.0.7:37200in MyMiddleware.run()
LOG: Closed client: /10.0.0.7:37188in MyMiddleware.run()
LOG: Closed client: /10.0.0.7:37196in MyMiddleware.run()
LOG: Closed client: /10.0.0.7:37198in MyMiddleware.run()
LOG: Closed client: /10.0.0.7:37190in MyMiddleware.run()
