------------Middleware started!------------
LOG: Waiting for connection in MyMiddleware.run()
LOG: Accepted client: /10.0.0.7:43502in MyMiddleware.run()
LOG: Accepted client: /10.0.0.7:43528in MyMiddleware.run()
LOG: Accepted client: /10.0.0.7:43514in MyMiddleware.run()
LOG: Accepted client: /10.0.0.7:43516in MyMiddleware.run()
LOG: Accepted client: /10.0.0.7:43508in MyMiddleware.run()
LOG: Accepted client: /10.0.0.7:43510in MyMiddleware.run()
LOG: Accepted client: /10.0.0.7:43522in MyMiddleware.run()
LOG: Accepted client: /10.0.0.7:43558in MyMiddleware.run()
LOG: Accepted client: /10.0.0.7:43538in MyMiddleware.run()
LOG: Accepted client: /10.0.0.7:43552in MyMiddleware.run()
LOG: Accepted client: /10.0.0.7:43556in MyMiddleware.run()
LOG: Accepted client: /10.0.0.7:43542in MyMiddleware.run()
LOG: Accepted client: /10.0.0.7:43546in MyMiddleware.run()
LOG: Accepted client: /10.0.0.7:43554in MyMiddleware.run()
LOG: Accepted client: /10.0.0.7:43504in MyMiddleware.run()
LOG: Accepted client: /10.0.0.7:43534in MyMiddleware.run()
LOG: Accepted client: /10.0.0.7:43548in MyMiddleware.run()
LOG: Accepted client: /10.0.0.7:43530in MyMiddleware.run()
LOG: Accepted client: /10.0.0.7:43550in MyMiddleware.run()
LOG: Accepted client: /10.0.0.7:43536in MyMiddleware.run()
LOG: Accepted client: /10.0.0.7:43540in MyMiddleware.run()
LOG: Accepted client: /10.0.0.7:43544in MyMiddleware.run()
LOG: Accepted client: /10.0.0.7:43506in MyMiddleware.run()
LOG: Accepted client: /10.0.0.7:43532in MyMiddleware.run()
LOG: Accepted client: /10.0.0.7:43524in MyMiddleware.run()
LOG: Accepted client: /10.0.0.7:43560in MyMiddleware.run()
LOG: Accepted client: /10.0.0.7:43512in MyMiddleware.run()
LOG: Accepted client: /10.0.0.7:43526in MyMiddleware.run()
LOG: Accepted client: /10.0.0.7:43562in MyMiddleware.run()
LOG: Accepted client: /10.0.0.7:43518in MyMiddleware.run()
LOG: Accepted client: /10.0.0.7:43564in MyMiddleware.run()
LOG: Accepted client: /10.0.0.7:43520in MyMiddleware.run()
LOG: Accepted client: /10.0.0.11:42762in MyMiddleware.run()
LOG: Accepted client: /10.0.0.11:42764in MyMiddleware.run()
LOG: Accepted client: /10.0.0.11:42760in MyMiddleware.run()
LOG: Accepted client: /10.0.0.11:42766in MyMiddleware.run()
LOG: Accepted client: /10.0.0.11:42788in MyMiddleware.run()
LOG: Accepted client: /10.0.0.11:42790in MyMiddleware.run()
LOG: Accepted client: /10.0.0.11:42784in MyMiddleware.run()
LOG: Accepted client: /10.0.0.11:42786in MyMiddleware.run()
LOG: Accepted client: /10.0.0.11:42776in MyMiddleware.run()
LOG: Accepted client: /10.0.0.11:42778in MyMiddleware.run()
LOG: Accepted client: /10.0.0.11:42822in MyMiddleware.run()
LOG: Accepted client: /10.0.0.11:42802in MyMiddleware.run()
LOG: Accepted client: /10.0.0.11:42804in MyMiddleware.run()
LOG: Accepted client: /10.0.0.11:42782in MyMiddleware.run()
LOG: Accepted client: /10.0.0.11:42780in MyMiddleware.run()
LOG: Accepted client: /10.0.0.11:42796in MyMiddleware.run()
LOG: Accepted client: /10.0.0.11:42808in MyMiddleware.run()
LOG: Accepted client: /10.0.0.11:42810in MyMiddleware.run()
LOG: Accepted client: /10.0.0.11:42814in MyMiddleware.run()
LOG: Accepted client: /10.0.0.11:42812in MyMiddleware.run()
LOG: Accepted client: /10.0.0.11:42816in MyMiddleware.run()
LOG: Accepted client: /10.0.0.11:42820in MyMiddleware.run()
LOG: Accepted client: /10.0.0.11:42794in MyMiddleware.run()
LOG: Accepted client: /10.0.0.11:42774in MyMiddleware.run()
LOG: Accepted client: /10.0.0.11:42768in MyMiddleware.run()
LOG: Accepted client: /10.0.0.11:42806in MyMiddleware.run()
LOG: Accepted client: /10.0.0.11:42818in MyMiddleware.run()
LOG: Accepted client: /10.0.0.11:42800in MyMiddleware.run()
LOG: Accepted client: /10.0.0.11:42770in MyMiddleware.run()
LOG: Accepted client: /10.0.0.11:42772in MyMiddleware.run()
LOG: Accepted client: /10.0.0.6:53724in MyMiddleware.run()
LOG: Accepted client: /10.0.0.6:53730in MyMiddleware.run()
LOG: Accepted client: /10.0.0.6:53756in MyMiddleware.run()
LOG: Accepted client: /10.0.0.6:53738in MyMiddleware.run()
LOG: Accepted client: /10.0.0.6:53762in MyMiddleware.run()
LOG: Accepted client: /10.0.0.6:53746in MyMiddleware.run()
LOG: Accepted client: /10.0.0.6:53772in MyMiddleware.run()
LOG: Accepted client: /10.0.0.6:53750in MyMiddleware.run()
LOG: Accepted client: /10.0.0.6:53716in MyMiddleware.run()
LOG: Accepted client: /10.0.0.6:53740in MyMiddleware.run()
LOG: Accepted client: /10.0.0.6:53764in MyMiddleware.run()
LOG: Accepted client: /10.0.0.6:53728in MyMiddleware.run()
LOG: Accepted client: /10.0.0.11:42792in MyMiddleware.run()
LOG: Accepted client: /10.0.0.6:53726in MyMiddleware.run()
LOG: Accepted client: /10.0.0.11:42798in MyMiddleware.run()
LOG: Accepted client: /10.0.0.6:53754in MyMiddleware.run()
LOG: Accepted client: /10.0.0.6:53760in MyMiddleware.run()
LOG: Accepted client: /10.0.0.6:53766in MyMiddleware.run()
LOG: Accepted client: /10.0.0.6:53732in MyMiddleware.run()
LOG: Accepted client: /10.0.0.6:53758in MyMiddleware.run()
LOG: Accepted client: /10.0.0.6:53752in MyMiddleware.run()
LOG: Accepted client: /10.0.0.6:53778in MyMiddleware.run()
LOG: Accepted client: /10.0.0.6:53744in MyMiddleware.run()
LOG: Accepted client: /10.0.0.6:53718in MyMiddleware.run()
LOG: Accepted client: /10.0.0.6:53720in MyMiddleware.run()
LOG: Accepted client: /10.0.0.6:53736in MyMiddleware.run()
LOG: Accepted client: /10.0.0.6:53722in MyMiddleware.run()
LOG: Accepted client: /10.0.0.6:53774in MyMiddleware.run()
LOG: Accepted client: /10.0.0.6:53734in MyMiddleware.run()
LOG: Accepted client: /10.0.0.6:53768in MyMiddleware.run()
LOG: Accepted client: /10.0.0.6:53748in MyMiddleware.run()
LOG: Accepted client: /10.0.0.6:53742in MyMiddleware.run()
LOG: Accepted client: /10.0.0.6:53770in MyMiddleware.run()
LOG: Accepted client: /10.0.0.6:53776in MyMiddleware.run()
LOG: Closed client: /10.0.0.11:42764in MyMiddleware.run()
LOG: Closed client: /10.0.0.11:42760in MyMiddleware.run()
LOG: Closed client: /10.0.0.11:42784in MyMiddleware.run()
LOG: Closed client: /10.0.0.11:42778in MyMiddleware.run()
LOG: Closed client: /10.0.0.11:42762in MyMiddleware.run()
LOG: Closed client: /10.0.0.11:42772in MyMiddleware.run()
LOG: Closed client: /10.0.0.11:42774in MyMiddleware.run()
LOG: Closed client: /10.0.0.11:42766in MyMiddleware.run()
LOG: Closed client: /10.0.0.11:42786in MyMiddleware.run()
LOG: Closed client: /10.0.0.11:42816in MyMiddleware.run()
LOG: Closed client: /10.0.0.11:42820in MyMiddleware.run()
LOG: Closed client: /10.0.0.11:42822in MyMiddleware.run()
LOG: Closed client: /10.0.0.11:42810in MyMiddleware.run()
LOG: Closed client: /10.0.0.11:42802in MyMiddleware.run()
LOG: Closed client: /10.0.0.11:42796in MyMiddleware.run()
LOG: Closed client: /10.0.0.11:42788in MyMiddleware.run()
LOG: Closed client: /10.0.0.11:42776in MyMiddleware.run()
LOG: Closed client: /10.0.0.11:42782in MyMiddleware.run()
LOG: Closed client: /10.0.0.11:42790in MyMiddleware.run()
LOG: Closed client: /10.0.0.11:42812in MyMiddleware.run()
LOG: Closed client: /10.0.0.11:42792in MyMiddleware.run()
LOG: Closed client: /10.0.0.11:42794in MyMiddleware.run()
LOG: Closed client: /10.0.0.11:42800in MyMiddleware.run()
LOG: Closed client: /10.0.0.11:42804in MyMiddleware.run()
LOG: Closed client: /10.0.0.11:42768in MyMiddleware.run()
LOG: Closed client: /10.0.0.11:42770in MyMiddleware.run()
LOG: Closed client: /10.0.0.11:42806in MyMiddleware.run()
LOG: Closed client: /10.0.0.11:42818in MyMiddleware.run()
LOG: Closed client: /10.0.0.11:42780in MyMiddleware.run()
LOG: Closed client: /10.0.0.11:42814in MyMiddleware.run()
LOG: Closed client: /10.0.0.11:42798in MyMiddleware.run()
LOG: Closed client: /10.0.0.11:42808in MyMiddleware.run()
LOG: Closed client: /10.0.0.6:53726in MyMiddleware.run()
LOG: Closed client: /10.0.0.6:53728in MyMiddleware.run()
LOG: Closed client: /10.0.0.6:53730in MyMiddleware.run()
LOG: Closed client: /10.0.0.6:53724in MyMiddleware.run()
LOG: Closed client: /10.0.0.6:53720in MyMiddleware.run()
LOG: Closed client: /10.0.0.6:53716in MyMiddleware.run()
LOG: Closed client: /10.0.0.6:53718in MyMiddleware.run()
LOG: Closed client: /10.0.0.6:53742in MyMiddleware.run()
LOG: Closed client: /10.0.0.6:53736in MyMiddleware.run()
LOG: Closed client: /10.0.0.6:53748in MyMiddleware.run()
LOG: Closed client: /10.0.0.6:53746in MyMiddleware.run()
LOG: Closed client: /10.0.0.6:53722in MyMiddleware.run()
LOG: Closed client: /10.0.0.6:53738in MyMiddleware.run()
LOG: Closed client: /10.0.0.6:53740in MyMiddleware.run()
LOG: Closed client: /10.0.0.6:53744in MyMiddleware.run()
LOG: Closed client: /10.0.0.6:53752in MyMiddleware.run()
LOG: Closed client: /10.0.0.6:53762in MyMiddleware.run()
LOG: Closed client: /10.0.0.6:53766in MyMiddleware.run()
LOG: Closed client: /10.0.0.6:53776in MyMiddleware.run()
LOG: Closed client: /10.0.0.6:53758in MyMiddleware.run()
LOG: Closed client: /10.0.0.6:53770in MyMiddleware.run()
LOG: Closed client: /10.0.0.6:53750in MyMiddleware.run()
LOG: Closed client: /10.0.0.6:53760in MyMiddleware.run()
LOG: Closed client: /10.0.0.6:53756in MyMiddleware.run()
LOG: Closed client: /10.0.0.6:53754in MyMiddleware.run()
LOG: Closed client: /10.0.0.6:53774in MyMiddleware.run()
LOG: Closed client: /10.0.0.6:53764in MyMiddleware.run()
LOG: Closed client: /10.0.0.6:53772in MyMiddleware.run()
LOG: Closed client: /10.0.0.6:53778in MyMiddleware.run()
LOG: Closed client: /10.0.0.6:53768in MyMiddleware.run()
LOG: Closed client: /10.0.0.6:53732in MyMiddleware.run()
LOG: Closed client: /10.0.0.6:53734in MyMiddleware.run()
LOG: Closed client: /10.0.0.7:43550in MyMiddleware.run()
LOG: Closed client: /10.0.0.7:43544in MyMiddleware.run()
LOG: Closed client: /10.0.0.7:43510in MyMiddleware.run()
LOG: Closed client: /10.0.0.7:43546in MyMiddleware.run()
LOG: Closed client: /10.0.0.7:43548in MyMiddleware.run()
LOG: Closed client: /10.0.0.7:43538in MyMiddleware.run()
LOG: Closed client: /10.0.0.7:43540in MyMiddleware.run()
LOG: Closed client: /10.0.0.7:43554in MyMiddleware.run()
LOG: Closed client: /10.0.0.7:43558in MyMiddleware.run()
LOG: Closed client: /10.0.0.7:43536in MyMiddleware.run()
LOG: Closed client: /10.0.0.7:43508in MyMiddleware.run()
LOG: Closed client: /10.0.0.7:43542in MyMiddleware.run()
LOG: Closed client: /10.0.0.7:43506in MyMiddleware.run()
LOG: Closed client: /10.0.0.7:43520in MyMiddleware.run()
LOG: Closed client: /10.0.0.7:43564in MyMiddleware.run()
LOG: Closed client: /10.0.0.7:43530in MyMiddleware.run()
LOG: Closed client: /10.0.0.7:43560in MyMiddleware.run()
LOG: Closed client: /10.0.0.7:43514in MyMiddleware.run()
LOG: Closed client: /10.0.0.7:43528in MyMiddleware.run()
LOG: Closed client: /10.0.0.7:43518in MyMiddleware.run()
LOG: Closed client: /10.0.0.7:43504in MyMiddleware.run()
LOG: Closed client: /10.0.0.7:43534in MyMiddleware.run()
LOG: Closed client: /10.0.0.7:43556in MyMiddleware.run()
LOG: Closed client: /10.0.0.7:43522in MyMiddleware.run()
LOG: Closed client: /10.0.0.7:43526in MyMiddleware.run()
LOG: Closed client: /10.0.0.7:43502in MyMiddleware.run()
LOG: Closed client: /10.0.0.7:43512in MyMiddleware.run()
LOG: Closed client: /10.0.0.7:43532in MyMiddleware.run()
LOG: Closed client: /10.0.0.7:43552in MyMiddleware.run()
LOG: Closed client: /10.0.0.7:43516in MyMiddleware.run()
LOG: Closed client: /10.0.0.7:43524in MyMiddleware.run()
LOG: Closed client: /10.0.0.7:43562in MyMiddleware.run()
