------------Middleware started!------------
LOG: Waiting for connection in MyMiddleware.run()
LOG: Accepted client: /10.0.0.7:52442in MyMiddleware.run()
LOG: Accepted client: /10.0.0.7:52430in MyMiddleware.run()
LOG: Accepted client: /10.0.0.7:52436in MyMiddleware.run()
LOG: Accepted client: /10.0.0.7:52444in MyMiddleware.run()
LOG: Accepted client: /10.0.0.7:52438in MyMiddleware.run()
LOG: Accepted client: /10.0.0.7:52440in MyMiddleware.run()
LOG: Accepted client: /10.0.0.7:52434in MyMiddleware.run()
LOG: Accepted client: /10.0.0.7:52432in MyMiddleware.run()
LOG: Accepted client: /10.0.0.6:34422in MyMiddleware.run()
LOG: Accepted client: /10.0.0.6:34418in MyMiddleware.run()
LOG: Accepted client: /10.0.0.6:34414in MyMiddleware.run()
LOG: Accepted client: /10.0.0.6:34420in MyMiddleware.run()
LOG: Accepted client: /10.0.0.6:34416in MyMiddleware.run()
LOG: Accepted client: /10.0.0.6:34412in MyMiddleware.run()
LOG: Accepted client: /10.0.0.6:34424in MyMiddleware.run()
LOG: Accepted client: /10.0.0.6:34426in MyMiddleware.run()
LOG: Accepted client: /10.0.0.11:51688in MyMiddleware.run()
LOG: Accepted client: /10.0.0.11:51692in MyMiddleware.run()
LOG: Accepted client: /10.0.0.11:51702in MyMiddleware.run()
LOG: Accepted client: /10.0.0.11:51696in MyMiddleware.run()
LOG: Accepted client: /10.0.0.11:51694in MyMiddleware.run()
LOG: Accepted client: /10.0.0.11:51690in MyMiddleware.run()
LOG: Accepted client: /10.0.0.11:51700in MyMiddleware.run()
LOG: Accepted client: /10.0.0.11:51698in MyMiddleware.run()
LOG: Closed client: /10.0.0.6:34418in MyMiddleware.run()
LOG: Closed client: /10.0.0.6:34414in MyMiddleware.run()
LOG: Closed client: /10.0.0.6:34416in MyMiddleware.run()
LOG: Closed client: /10.0.0.6:34412in MyMiddleware.run()
LOG: Closed client: /10.0.0.6:34420in MyMiddleware.run()
LOG: Closed client: /10.0.0.6:34426in MyMiddleware.run()
LOG: Closed client: /10.0.0.6:34424in MyMiddleware.run()
LOG: Closed client: /10.0.0.6:34422in MyMiddleware.run()
LOG: Closed client: /10.0.0.7:52442in MyMiddleware.run()
LOG: Closed client: /10.0.0.7:52432in MyMiddleware.run()
LOG: Closed client: /10.0.0.7:52430in MyMiddleware.run()
LOG: Closed client: /10.0.0.7:52438in MyMiddleware.run()
LOG: Closed client: /10.0.0.7:52436in MyMiddleware.run()
LOG: Closed client: /10.0.0.7:52434in MyMiddleware.run()
LOG: Closed client: /10.0.0.7:52444in MyMiddleware.run()
LOG: Closed client: /10.0.0.7:52440in MyMiddleware.run()
LOG: Closed client: /10.0.0.11:51688in MyMiddleware.run()
LOG: Closed client: /10.0.0.11:51692in MyMiddleware.run()
LOG: Closed client: /10.0.0.11:51690in MyMiddleware.run()
LOG: Closed client: /10.0.0.11:51700in MyMiddleware.run()
LOG: Closed client: /10.0.0.11:51702in MyMiddleware.run()
LOG: Closed client: /10.0.0.11:51696in MyMiddleware.run()
LOG: Closed client: /10.0.0.11:51698in MyMiddleware.run()
LOG: Closed client: /10.0.0.11:51694in MyMiddleware.run()
