------------Middleware started!------------
LOG: Waiting for connection in MyMiddleware.run()
LOG: Accepted client: /10.0.0.6:51012in MyMiddleware.run()
LOG: Accepted client: /10.0.0.6:51008in MyMiddleware.run()
LOG: Accepted client: /10.0.0.6:50998in MyMiddleware.run()
LOG: Accepted client: /10.0.0.6:51018in MyMiddleware.run()
LOG: Accepted client: /10.0.0.6:51006in MyMiddleware.run()
LOG: Accepted client: /10.0.0.6:51024in MyMiddleware.run()
LOG: Accepted client: /10.0.0.6:51020in MyMiddleware.run()
LOG: Accepted client: /10.0.0.6:51010in MyMiddleware.run()
LOG: Accepted client: /10.0.0.6:51002in MyMiddleware.run()
LOG: Accepted client: /10.0.0.6:50996in MyMiddleware.run()
LOG: Accepted client: /10.0.0.6:51004in MyMiddleware.run()
LOG: Accepted client: /10.0.0.6:51022in MyMiddleware.run()
LOG: Accepted client: /10.0.0.6:51000in MyMiddleware.run()
LOG: Accepted client: /10.0.0.6:51014in MyMiddleware.run()
LOG: Accepted client: /10.0.0.6:50994in MyMiddleware.run()
LOG: Accepted client: /10.0.0.6:51016in MyMiddleware.run()
LOG: Accepted client: /10.0.0.11:40032in MyMiddleware.run()
LOG: Accepted client: /10.0.0.11:40038in MyMiddleware.run()
LOG: Accepted client: /10.0.0.11:40030in MyMiddleware.run()
LOG: Accepted client: /10.0.0.11:40044in MyMiddleware.run()
LOG: Accepted client: /10.0.0.11:40036in MyMiddleware.run()
LOG: Accepted client: /10.0.0.11:40034in MyMiddleware.run()
LOG: Accepted client: /10.0.0.11:40048in MyMiddleware.run()
LOG: Accepted client: /10.0.0.11:40060in MyMiddleware.run()
LOG: Accepted client: /10.0.0.11:40054in MyMiddleware.run()
LOG: Accepted client: /10.0.0.11:40040in MyMiddleware.run()
LOG: Accepted client: /10.0.0.11:40052in MyMiddleware.run()
LOG: Accepted client: /10.0.0.11:40056in MyMiddleware.run()
LOG: Accepted client: /10.0.0.11:40046in MyMiddleware.run()
LOG: Accepted client: /10.0.0.11:40050in MyMiddleware.run()
LOG: Accepted client: /10.0.0.11:40042in MyMiddleware.run()
LOG: Accepted client: /10.0.0.7:40774in MyMiddleware.run()
LOG: Accepted client: /10.0.0.11:40058in MyMiddleware.run()
LOG: Accepted client: /10.0.0.7:40794in MyMiddleware.run()
LOG: Accepted client: /10.0.0.7:40792in MyMiddleware.run()
LOG: Accepted client: /10.0.0.7:40780in MyMiddleware.run()
LOG: Accepted client: /10.0.0.7:40798in MyMiddleware.run()
LOG: Accepted client: /10.0.0.7:40790in MyMiddleware.run()
LOG: Accepted client: /10.0.0.7:40778in MyMiddleware.run()
LOG: Accepted client: /10.0.0.7:40786in MyMiddleware.run()
LOG: Accepted client: /10.0.0.7:40796in MyMiddleware.run()
LOG: Accepted client: /10.0.0.7:40772in MyMiddleware.run()
LOG: Accepted client: /10.0.0.7:40800in MyMiddleware.run()
LOG: Accepted client: /10.0.0.7:40802in MyMiddleware.run()
LOG: Accepted client: /10.0.0.7:40782in MyMiddleware.run()
LOG: Accepted client: /10.0.0.7:40776in MyMiddleware.run()
LOG: Accepted client: /10.0.0.7:40784in MyMiddleware.run()
LOG: Accepted client: /10.0.0.7:40788in MyMiddleware.run()
LOG: Closed client: /10.0.0.6:50996in MyMiddleware.run()
LOG: Closed client: /10.0.0.6:50998in MyMiddleware.run()
LOG: Closed client: /10.0.0.6:51008in MyMiddleware.run()
LOG: Closed client: /10.0.0.6:51014in MyMiddleware.run()
LOG: Closed client: /10.0.0.6:51004in MyMiddleware.run()
LOG: Closed client: /10.0.0.6:51010in MyMiddleware.run()
LOG: Closed client: /10.0.0.6:51020in MyMiddleware.run()
LOG: Closed client: /10.0.0.6:51006in MyMiddleware.run()
LOG: Closed client: /10.0.0.6:51012in MyMiddleware.run()
LOG: Closed client: /10.0.0.6:51000in MyMiddleware.run()
LOG: Closed client: /10.0.0.6:51022in MyMiddleware.run()
LOG: Closed client: /10.0.0.6:51002in MyMiddleware.run()
LOG: Closed client: /10.0.0.6:51018in MyMiddleware.run()
LOG: Closed client: /10.0.0.6:51024in MyMiddleware.run()
LOG: Closed client: /10.0.0.6:50994in MyMiddleware.run()
LOG: Closed client: /10.0.0.6:51016in MyMiddleware.run()
LOG: Closed client: /10.0.0.11:40044in MyMiddleware.run()
LOG: Closed client: /10.0.0.11:40030in MyMiddleware.run()
LOG: Closed client: /10.0.0.11:40032in MyMiddleware.run()
LOG: Closed client: /10.0.0.11:40036in MyMiddleware.run()
LOG: Closed client: /10.0.0.11:40042in MyMiddleware.run()
LOG: Closed client: /10.0.0.11:40040in MyMiddleware.run()
LOG: Closed client: /10.0.0.11:40038in MyMiddleware.run()
LOG: Closed client: /10.0.0.11:40034in MyMiddleware.run()
LOG: Closed client: /10.0.0.11:40056in MyMiddleware.run()
LOG: Closed client: /10.0.0.11:40058in MyMiddleware.run()
LOG: Closed client: /10.0.0.11:40052in MyMiddleware.run()
LOG: Closed client: /10.0.0.11:40060in MyMiddleware.run()
LOG: Closed client: /10.0.0.11:40048in MyMiddleware.run()
LOG: Closed client: /10.0.0.11:40054in MyMiddleware.run()
LOG: Closed client: /10.0.0.11:40050in MyMiddleware.run()
LOG: Closed client: /10.0.0.11:40046in MyMiddleware.run()
LOG: Closed client: /10.0.0.7:40780in MyMiddleware.run()
LOG: Closed client: /10.0.0.7:40786in MyMiddleware.run()
LOG: Closed client: /10.0.0.7:40772in MyMiddleware.run()
LOG: Closed client: /10.0.0.7:40800in MyMiddleware.run()
LOG: Closed client: /10.0.0.7:40798in MyMiddleware.run()
LOG: Closed client: /10.0.0.7:40776in MyMiddleware.run()
LOG: Closed client: /10.0.0.7:40778in MyMiddleware.run()
LOG: Closed client: /10.0.0.7:40784in MyMiddleware.run()
LOG: Closed client: /10.0.0.7:40794in MyMiddleware.run()
LOG: Closed client: /10.0.0.7:40792in MyMiddleware.run()
LOG: Closed client: /10.0.0.7:40782in MyMiddleware.run()
LOG: Closed client: /10.0.0.7:40802in MyMiddleware.run()
LOG: Closed client: /10.0.0.7:40788in MyMiddleware.run()
LOG: Closed client: /10.0.0.7:40796in MyMiddleware.run()
LOG: Closed client: /10.0.0.7:40774in MyMiddleware.run()
LOG: Closed client: /10.0.0.7:40790in MyMiddleware.run()
