Second,Ops/sec,Hits/sec,Misses/sec,Latency,KB/sec,Request_Creation_Time,Request_Buffer_Time,MW_Writes_To_Memcached_Time,Memcached_Process_Time,MW_Writes_To_Memtier_Time,Queue_Size
4,5910.00,5910.00,0.00,2.068,1771,0.017,0.503,0.053,1.460,0.034,5.5
5,19890.00,19890.00,0.00,2.940,5960,0.009,1.146,0.019,1.746,0.019,33.5
6,30738.00,30738.00,0.00,3.262,9210,0.008,1.531,0.016,1.681,0.026,52.3
7,31367.00,31367.00,0.00,3.409,9398,0.006,1.665,0.018,1.702,0.018,58.4
8,30528.00,30528.00,0.00,3.651,9147,0.008,1.822,0.018,1.779,0.025,63.7
9,32535.00,32535.00,0.00,3.152,9746,0.005,1.491,0.017,1.615,0.023,61.0
10,30271.00,30271.00,0.00,3.718,9068,0.006,1.840,0.022,1.823,0.027,64.1
11,30770.00,30770.00,0.00,3.553,9218,0.007,1.750,0.018,1.752,0.026,65.2
12,32112.00,32112.00,0.00,3.315,9620,0.006,1.544,0.016,1.721,0.029,63.2
13,32786.00,32786.00,0.00,3.424,9822,0.007,1.655,0.017,1.721,0.024,62.2
14,32742.00,32742.00,0.00,3.456,9809,0.007,1.686,0.013,1.726,0.025,65.1
15,33293.00,33293.00,0.00,3.207,9975,0.006,1.542,0.018,1.618,0.022,64.3
16,31947.00,31947.00,0.00,3.523,9572,0.009,1.712,0.016,1.760,0.026,65.7
17,29646.00,29644.00,2.00,3.835,8882,0.006,1.938,0.019,1.845,0.027,66.6
18,29709.00,29686.00,23.00,3.800,8894,0.007,1.909,0.022,1.835,0.027,66.6
19,28049.00,28009.00,40.00,4.012,8391,0.008,2.040,0.022,1.916,0.027,69.2
20,29937.00,29888.00,49.00,3.752,8953,0.007,1.891,0.018,1.810,0.026,66.9
21,29609.00,29572.00,37.00,3.637,8858,0.009,1.819,0.018,1.765,0.025,62.8
22,28876.00,28858.00,18.00,3.965,8644,0.009,1.961,0.023,1.940,0.032,66.3
23,30235.00,30226.00,9.00,4.007,9054,0.007,2.041,0.019,1.914,0.027,68.4
24,28709.00,28704.00,5.00,3.872,8599,0.007,2.041,0.017,1.779,0.027,65.1
25,30400.00,30395.00,5.00,3.547,9106,0.009,1.809,0.015,1.685,0.029,66.9
26,31253.00,31249.00,4.00,3.513,9362,0.009,1.737,0.021,1.718,0.028,65.1
27,30642.00,30642.00,0.00,3.459,9180,0.007,1.626,0.022,1.773,0.031,62.8
28,30053.00,30053.00,0.00,3.743,9004,0.007,1.876,0.017,1.817,0.027,65.7
29,29473.00,29473.00,0.00,3.739,8830,0.006,1.880,0.018,1.811,0.024,65.3
30,31181.00,31181.00,0.00,3.379,9341,0.008,1.613,0.022,1.706,0.030,65.4
31,30517.00,30517.00,0.00,3.614,9143,0.006,1.782,0.021,1.778,0.027,65.2
32,30198.00,30198.00,0.00,3.764,9047,0.008,1.869,0.020,1.841,0.025,67.1
33,29583.00,29583.00,0.00,3.946,8862,0.006,2.062,0.018,1.836,0.023,66.2
34,30569.00,30569.00,0.00,3.549,9158,0.008,1.769,0.020,1.721,0.031,65.4
35,28963.00,28963.00,0.00,3.871,8676,0.009,1.965,0.016,1.856,0.025,67.8
36,30469.00,30469.00,0.00,3.430,9128,0.008,1.626,0.020,1.750,0.026,61.9
37,32671.00,32671.00,0.00,3.296,9787,0.008,1.559,0.018,1.688,0.024,63.2
38,31668.00,31668.00,0.00,3.538,9487,0.005,1.787,0.016,1.712,0.018,66.1
39,31569.00,31569.00,0.00,3.561,9457,0.005,1.757,0.015,1.756,0.028,63.9
40,33303.00,33303.00,0.00,3.087,9977,0.007,1.433,0.015,1.615,0.018,61.7
41,32945.00,32945.00,0.00,3.336,9869,0.008,1.616,0.017,1.672,0.023,63.9
42,32974.00,32974.00,0.00,3.189,9878,0.006,1.517,0.014,1.633,0.019,60.4
43,32813.00,32812.00,1.00,3.183,9830,0.005,1.486,0.020,1.649,0.023,60.1
44,32803.00,32801.00,2.00,3.407,9827,0.006,1.692,0.016,1.674,0.020,65.7
45,31782.00,31775.00,7.00,3.656,9520,0.005,1.786,0.017,1.823,0.025,63.4
46,31546.00,31527.00,19.00,3.372,9446,0.006,1.599,0.019,1.725,0.023,61.8
47,34053.00,34030.00,23.00,3.378,10195,0.006,1.690,0.013,1.649,0.021,65.4
48,32519.00,32495.00,24.00,3.325,9735,0.006,1.602,0.015,1.682,0.020,62.1
49,31913.00,31897.00,16.00,3.318,9556,0.006,1.550,0.019,1.722,0.022,59.2
50,30415.00,30394.00,21.00,3.584,9106,0.007,1.697,0.017,1.837,0.026,61.5
51,31238.00,31222.00,16.00,3.447,9354,0.009,1.643,0.012,1.759,0.024,60.2
52,32254.00,32243.00,11.00,3.144,9660,0.007,1.432,0.012,1.670,0.023,60.4
53,33640.00,33628.00,12.00,3.157,10075,0.006,1.511,0.014,1.607,0.019,62.4
54,32604.00,32592.00,12.00,3.576,9764,0.007,1.822,0.014,1.710,0.022,67.1
55,33300.00,33289.00,11.00,2.984,9973,0.008,1.361,0.017,1.576,0.022,60.6
56,32244.00,32238.00,6.00,3.500,9658,0.005,1.719,0.015,1.736,0.025,62.4
57,32672.00,32668.00,4.00,3.492,9787,0.005,1.730,0.015,1.719,0.023,64.0
58,31529.00,31528.00,1.00,3.311,9445,0.007,1.517,0.017,1.745,0.026,60.8
59,30774.00,30773.00,1.00,3.645,9219,0.008,1.807,0.017,1.796,0.018,64.0
60,30941.00,30939.00,2.00,3.631,9269,0.008,1.788,0.015,1.799,0.022,63.9
61,31889.00,31887.00,2.00,3.175,9553,0.006,1.440,0.015,1.688,0.026,60.9
62,32774.00,32773.00,1.00,3.504,9819,0.006,1.741,0.017,1.721,0.020,65.4
63,31464.00,31464.00,0.00,3.423,9427,0.007,1.701,0.015,1.679,0.021,64.7
64,32812.00,32812.00,0.00,3.469,9830,0.006,1.766,0.017,1.657,0.024,63.5
65,32631.00,32631.00,0.00,3.372,9776,0.008,1.666,0.021,1.654,0.023,64.7
66,32254.00,32254.00,0.00,3.473,9663,0.006,1.675,0.015,1.752,0.024,62.0
67,33001.00,33001.00,0.00,3.066,9887,0.006,1.415,0.014,1.607,0.024,59.8
68,34323.00,34323.00,0.00,2.970,10283,0.007,1.379,0.018,1.544,0.021,62.6
69,32942.00,32942.00,0.00,3.544,9870,0.005,1.791,0.016,1.709,0.022,64.7
70,32898.00,32898.00,0.00,3.159,9856,0.006,1.457,0.016,1.658,0.022,60.2
71,32460.00,32460.00,0.00,3.060,9725,0.006,1.402,0.015,1.615,0.021,60.6
72,31707.00,31707.00,0.00,3.423,9500,0.007,1.639,0.017,1.733,0.026,65.3
73,32968.00,32968.00,0.00,3.273,9878,0.007,1.572,0.016,1.654,0.023,63.5
74,28024.00,28024.00,0.00,3.021,8396,0.008,1.317,0.013,1.662,0.021,43.0
75,18517.00,18517.00,0.00,1.528,5548,0.007,0.559,0.010,0.937,0.014,13.2
76,9428.00,9428.00,0.00,0.644,2825,0.004,0.110,0.011,0.509,0.010,0.6
77,5228.00,5228.00,0.00,0.690,1566,0.004,0.076,0.011,0.586,0.013,0.5
