Second,Ops/sec,Hits/sec,Misses/sec,Latency,KB/sec,Request_Creation_Time,Request_Buffer_Time,MW_Writes_To_Memcached_Time,Memcached_Process_Time,MW_Writes_To_Memtier_Time,Queue_Size
4,6178.00,6178.00,0.00,3.541,687,0.014,1.233,0.032,2.220,0.041,23.0
5,26980.00,26980.00,0.00,3.372,3000,0.010,1.403,0.019,1.919,0.021,46.4
6,31859.00,31859.00,0.00,3.449,3540,0.007,1.674,0.017,1.725,0.026,63.5
7,32929.00,32929.00,0.00,3.253,3660,0.006,1.533,0.016,1.679,0.019,62.3
8,32596.00,32596.00,0.00,3.466,3622,0.007,1.758,0.015,1.665,0.021,65.6
9,32759.00,32759.00,0.00,3.432,3640,0.007,1.699,0.014,1.688,0.025,63.9
10,33423.00,33423.00,0.00,3.626,3712,0.006,1.845,0.015,1.740,0.021,67.3
11,33428.00,33428.00,0.00,3.242,3714,0.006,1.574,0.014,1.623,0.025,63.6
12,33199.00,33199.00,0.00,3.209,3689,0.007,1.549,0.016,1.617,0.021,61.3
13,33453.00,33453.00,0.00,3.172,3717,0.007,1.510,0.016,1.618,0.020,62.6
14,32888.00,32888.00,0.00,3.364,3654,0.006,1.661,0.016,1.658,0.022,64.5
15,34084.00,34084.00,0.00,3.448,3788,0.007,1.754,0.017,1.650,0.020,66.8
16,34218.00,34218.00,0.00,3.229,3803,0.006,1.578,0.016,1.604,0.026,63.4
17,31948.00,31943.00,5.00,3.434,3550,0.007,1.670,0.017,1.717,0.022,61.9
18,28477.00,28441.00,36.00,4.096,3160,0.007,2.073,0.023,1.967,0.027,65.9
19,29928.00,29863.00,65.00,3.821,3318,0.008,1.871,0.021,1.895,0.027,65.4
20,30048.00,30005.00,43.00,3.867,3333,0.006,1.946,0.016,1.873,0.026,66.1
21,28352.00,28328.00,24.00,4.091,3146,0.007,2.069,0.023,1.961,0.030,66.8
22,30975.00,30958.00,17.00,3.749,3438,0.005,1.883,0.019,1.815,0.026,66.8
23,30367.00,30365.00,2.00,3.828,3373,0.007,1.969,0.019,1.809,0.024,67.0
24,32749.00,32749.00,0.00,3.352,3638,0.007,1.618,0.019,1.684,0.024,64.4
25,32794.00,32794.00,0.00,3.560,3644,0.006,1.811,0.016,1.706,0.022,63.7
26,32620.00,32620.00,0.00,3.341,3625,0.007,1.626,0.016,1.671,0.021,63.1
27,32981.00,32981.00,0.00,3.224,3666,0.007,1.483,0.017,1.693,0.024,63.3
28,32041.00,32041.00,0.00,3.532,3561,0.008,1.701,0.017,1.781,0.025,62.5
29,32480.00,32480.00,0.00,3.333,3609,0.007,1.630,0.014,1.660,0.022,61.6
30,33030.00,33030.00,0.00,3.346,3670,0.007,1.587,0.014,1.714,0.024,63.7
31,31882.00,31882.00,0.00,3.465,3542,0.006,1.680,0.016,1.739,0.024,64.0
32,32383.00,32383.00,0.00,3.406,3598,0.007,1.655,0.013,1.711,0.021,65.3
33,33187.00,33187.00,0.00,3.253,3687,0.008,1.546,0.020,1.654,0.025,61.7
34,33686.00,33686.00,0.00,3.163,3742,0.007,1.477,0.016,1.644,0.019,61.6
35,34658.00,34658.00,0.00,3.338,3850,0.006,1.677,0.016,1.620,0.019,64.7
36,32248.00,32248.00,0.00,3.255,3583,0.008,1.613,0.013,1.598,0.024,62.5
37,32337.00,32337.00,0.00,3.372,3593,0.007,1.553,0.016,1.774,0.023,60.3
38,32918.00,32918.00,0.00,3.424,3657,0.008,1.681,0.016,1.697,0.023,64.1
39,34072.00,34072.00,0.00,3.210,3785,0.007,1.537,0.018,1.626,0.023,63.4
40,34325.00,34325.00,0.00,3.200,3813,0.006,1.514,0.014,1.643,0.024,60.5
41,33708.00,33708.00,0.00,3.342,3745,0.007,1.629,0.015,1.670,0.022,64.7
42,33797.00,33797.00,0.00,3.254,3755,0.005,1.598,0.016,1.617,0.019,63.8
43,33344.00,33338.00,6.00,3.199,3705,0.006,1.529,0.015,1.623,0.026,62.2
44,34217.00,34202.00,15.00,3.213,3801,0.006,1.507,0.019,1.658,0.023,64.2
45,32470.00,32452.00,18.00,3.574,3606,0.006,1.764,0.015,1.764,0.025,65.4
46,32306.00,32274.00,32.00,3.467,3586,0.007,1.710,0.018,1.706,0.025,64.5
47,33287.00,33259.00,28.00,3.310,3696,0.005,1.578,0.016,1.686,0.024,60.2
48,31785.00,31764.00,21.00,3.503,3529,0.007,1.714,0.017,1.743,0.022,66.1
49,32815.00,32795.00,20.00,3.436,3644,0.005,1.728,0.016,1.666,0.021,64.8
50,32227.00,32216.00,11.00,3.596,3580,0.006,1.790,0.015,1.762,0.022,66.8
51,31779.00,31766.00,13.00,3.391,3529,0.007,1.632,0.016,1.715,0.021,62.5
52,32020.00,32010.00,10.00,3.376,3557,0.007,1.663,0.016,1.666,0.023,63.0
53,31295.00,31283.00,12.00,3.642,3476,0.006,1.776,0.016,1.818,0.026,65.9
54,34766.00,34764.00,2.00,2.988,3863,0.006,1.364,0.017,1.579,0.022,59.5
55,30847.00,30845.00,2.00,3.750,3427,0.006,1.896,0.019,1.806,0.022,63.8
56,33009.00,33008.00,1.00,3.315,3668,0.007,1.585,0.016,1.686,0.021,62.9
57,32792.00,32791.00,1.00,3.313,3644,0.006,1.574,0.016,1.692,0.025,63.1
58,32455.00,32455.00,0.00,3.511,3606,0.006,1.734,0.016,1.728,0.028,63.3
59,31449.00,31449.00,0.00,3.855,3495,0.005,2.014,0.014,1.801,0.020,69.5
60,31184.00,31184.00,0.00,3.816,3465,0.007,1.918,0.019,1.846,0.026,66.2
61,32906.00,32906.00,0.00,3.310,3656,0.007,1.626,0.014,1.640,0.022,63.6
62,32966.00,32966.00,0.00,3.436,3663,0.005,1.688,0.017,1.701,0.025,64.9
63,30685.00,30685.00,0.00,3.759,3410,0.005,1.857,0.017,1.854,0.026,66.4
64,32601.00,32601.00,0.00,3.343,3623,0.006,1.602,0.017,1.696,0.022,60.9
65,32618.00,32618.00,0.00,3.416,3625,0.008,1.647,0.016,1.720,0.025,64.0
66,32864.00,32864.00,0.00,3.529,3652,0.005,1.786,0.014,1.702,0.022,66.0
67,31772.00,31772.00,0.00,3.402,3531,0.006,1.626,0.014,1.730,0.025,64.1
68,32593.00,32593.00,0.00,3.427,3622,0.007,1.694,0.015,1.691,0.019,64.6
69,32008.00,32008.00,0.00,3.623,3557,0.006,1.795,0.018,1.780,0.024,66.8
70,31662.00,31662.00,0.00,3.554,3519,0.005,1.700,0.016,1.806,0.026,63.2
71,30778.00,30778.00,0.00,3.690,3420,0.005,1.735,0.018,1.902,0.030,62.4
72,30657.00,30657.00,0.00,3.579,3407,0.006,1.755,0.015,1.781,0.023,61.5
73,32600.00,32600.00,0.00,3.460,3623,0.007,1.725,0.018,1.683,0.027,65.2
74,25111.00,25111.00,0.00,2.715,2790,0.007,1.175,0.016,1.497,0.020,42.5
75,11167.00,11167.00,0.00,1.210,1241,0.005,0.298,0.011,0.882,0.015,4.6
