Second,Ops/sec,Hits/sec,Misses/sec,Latency,KB/sec,Request_Creation_Time,Request_Buffer_Time,MW_Writes_To_Memcached_Time,Memcached_Process_Time,MW_Writes_To_Memtier_Time,Queue_Size
4,4093.00,4093.00,0.00,1.387,455,0.013,0.291,0.037,1.012,0.035,1.3
5,11549.00,11549.00,0.00,1.167,1283,0.006,0.183,0.011,0.954,0.012,1.2
6,15309.00,15309.00,0.00,0.847,1701,0.005,0.157,0.013,0.659,0.013,1.2
7,15530.00,15530.00,0.00,0.828,1726,0.007,0.131,0.014,0.662,0.014,1.2
8,13798.00,13787.00,11.00,0.997,1532,0.005,0.248,0.015,0.717,0.012,1.6
9,14501.00,14488.00,13.00,0.922,1609,0.005,0.166,0.012,0.729,0.010,1.0
10,14297.00,14297.00,0.00,0.959,1589,0.005,0.201,0.012,0.730,0.010,1.3
11,15793.00,15793.00,0.00,0.837,1755,0.005,0.135,0.013,0.673,0.011,1.1
12,15979.00,15979.00,0.00,0.826,1775,0.005,0.164,0.011,0.636,0.010,1.3
13,15829.00,15829.00,0.00,0.860,1759,0.004,0.159,0.013,0.671,0.013,1.2
14,16190.00,16190.00,0.00,0.798,1799,0.005,0.125,0.014,0.643,0.012,1.1
15,15603.00,15598.00,5.00,0.792,1733,0.005,0.168,0.012,0.595,0.011,1.2
16,15988.00,15975.00,13.00,0.856,1775,0.003,0.156,0.014,0.671,0.012,1.1
17,16057.00,16051.00,6.00,0.782,1783,0.004,0.126,0.010,0.631,0.011,1.0
18,16137.00,16137.00,0.00,0.787,1793,0.006,0.145,0.012,0.611,0.012,1.1
19,16557.00,16557.00,0.00,0.814,1840,0.005,0.127,0.012,0.655,0.015,1.1
20,16806.00,16806.00,0.00,0.777,1868,0.004,0.124,0.013,0.623,0.012,1.1
21,16036.00,16036.00,0.00,0.822,1782,0.005,0.149,0.012,0.645,0.012,1.2
22,16540.00,16540.00,0.00,0.776,1838,0.004,0.127,0.012,0.621,0.012,1.1
23,16029.00,16029.00,0.00,0.847,1781,0.006,0.166,0.010,0.654,0.012,1.3
24,16699.00,16699.00,0.00,0.792,1856,0.004,0.160,0.011,0.603,0.014,1.1
25,16493.00,16493.00,0.00,0.798,1833,0.004,0.137,0.013,0.634,0.011,1.2
26,15772.00,15772.00,0.00,0.834,1753,0.004,0.131,0.013,0.676,0.011,1.1
27,16582.00,16582.00,0.00,0.800,1843,0.004,0.140,0.011,0.633,0.012,1.3
28,15834.00,15834.00,0.00,0.845,1759,0.006,0.115,0.010,0.702,0.012,1.0
29,15874.00,15874.00,0.00,0.848,1764,0.003,0.150,0.013,0.669,0.013,1.3
30,15238.00,15238.00,0.00,0.850,1693,0.005,0.163,0.012,0.659,0.012,1.3
31,15326.00,15326.00,0.00,0.886,1703,0.004,0.199,0.010,0.660,0.012,1.6
32,15673.00,15673.00,0.00,0.862,1741,0.004,0.167,0.012,0.667,0.012,1.3
33,14890.00,14888.00,2.00,0.884,1654,0.004,0.194,0.011,0.665,0.011,1.5
34,16114.00,16107.00,7.00,0.799,1790,0.006,0.158,0.012,0.610,0.013,1.3
35,15199.00,15193.00,6.00,0.866,1688,0.005,0.162,0.014,0.674,0.011,1.3
36,15539.00,15530.00,9.00,0.825,1726,0.005,0.151,0.011,0.646,0.011,1.2
37,16083.00,16066.00,17.00,0.791,1785,0.006,0.138,0.011,0.625,0.012,1.2
38,14917.00,14907.00,10.00,0.909,1656,0.004,0.186,0.012,0.695,0.012,1.5
39,15833.00,15827.00,6.00,0.805,1759,0.004,0.137,0.011,0.639,0.013,1.2
40,15402.00,15395.00,7.00,0.857,1711,0.004,0.164,0.011,0.664,0.014,1.3
41,15626.00,15620.00,6.00,0.860,1736,0.005,0.146,0.015,0.683,0.011,1.1
42,16670.00,16668.00,2.00,0.806,1852,0.005,0.146,0.011,0.632,0.013,1.2
43,15778.00,15778.00,0.00,0.881,1753,0.005,0.170,0.012,0.684,0.010,1.4
44,15690.00,15690.00,0.00,0.905,1743,0.003,0.160,0.012,0.715,0.014,1.3
45,15987.00,15987.00,0.00,0.753,1776,0.006,0.146,0.012,0.577,0.012,1.1
46,16138.00,16138.00,0.00,0.808,1793,0.004,0.140,0.013,0.639,0.011,1.2
47,15636.00,15636.00,0.00,0.850,1737,0.003,0.164,0.010,0.657,0.014,1.2
48,15976.00,15976.00,0.00,0.795,1775,0.006,0.133,0.013,0.628,0.015,1.0
49,15599.00,15599.00,0.00,0.842,1733,0.004,0.171,0.011,0.640,0.015,1.3
50,15551.00,15551.00,0.00,0.892,1728,0.005,0.192,0.011,0.672,0.012,1.3
51,16247.00,16247.00,0.00,0.812,1805,0.006,0.135,0.012,0.647,0.011,1.1
52,16558.00,16558.00,0.00,0.787,1840,0.005,0.169,0.012,0.590,0.011,1.3
53,15605.00,15605.00,0.00,0.837,1734,0.006,0.132,0.012,0.675,0.012,1.2
54,15846.00,15846.00,0.00,0.797,1761,0.005,0.145,0.012,0.623,0.013,1.2
55,16075.00,16075.00,0.00,0.813,1786,0.006,0.143,0.013,0.640,0.011,1.2
56,15882.00,15882.00,0.00,0.856,1765,0.005,0.162,0.011,0.667,0.012,1.1
57,15878.00,15878.00,0.00,0.866,1764,0.004,0.171,0.010,0.669,0.011,1.3
58,15451.00,15451.00,0.00,0.897,1717,0.005,0.167,0.014,0.696,0.016,1.4
59,14722.00,14722.00,0.00,0.960,1636,0.006,0.171,0.012,0.758,0.012,1.4
60,14871.00,14871.00,0.00,0.928,1652,0.003,0.221,0.010,0.684,0.010,1.6
61,16278.00,16278.00,0.00,0.784,1809,0.004,0.141,0.011,0.616,0.012,1.1
62,15728.00,15728.00,0.00,0.877,1747,0.006,0.168,0.010,0.683,0.011,1.4
63,15631.00,15631.00,0.00,0.862,1737,0.006,0.153,0.012,0.677,0.014,1.1
64,16141.00,16141.00,0.00,0.820,1793,0.004,0.175,0.011,0.618,0.012,1.3
65,15572.00,15572.00,0.00,0.813,1730,0.005,0.136,0.012,0.648,0.011,1.1
66,16030.00,16030.00,0.00,0.828,1781,0.004,0.152,0.015,0.645,0.012,1.3
67,16004.00,16004.00,0.00,0.772,1778,0.006,0.140,0.011,0.603,0.012,1.1
68,16215.00,16215.00,0.00,0.777,1801,0.005,0.137,0.011,0.612,0.012,1.2
69,16236.00,16236.00,0.00,0.801,1804,0.005,0.125,0.013,0.646,0.012,1.1
70,16828.00,16828.00,0.00,0.765,1869,0.005,0.150,0.013,0.586,0.011,1.2
71,14877.00,14877.00,0.00,0.941,1653,0.004,0.147,0.013,0.766,0.012,1.2
72,15808.00,15808.00,0.00,0.826,1756,0.004,0.130,0.012,0.668,0.012,1.1
73,15734.00,15734.00,0.00,0.841,1748,0.005,0.142,0.014,0.669,0.012,1.2
74,8980.00,8980.00,0.00,0.857,998,0.004,0.162,0.015,0.665,0.011,1.1
