Second,Ops/sec,Hits/sec,Misses/sec,Latency,KB/sec,Request_Creation_Time,Request_Buffer_Time,MW_Writes_To_Memcached_Time,Memcached_Process_Time,MW_Writes_To_Memtier_Time,Queue_Size
4,1961.00,1961.00,0.00,5.719,1078,0.035,4.720,0.022,0.884,0.058,49.0
5,10118.00,10118.00,0.00,13.011,5562,0.005,12.222,0.011,0.759,0.015,128.9
6,13436.00,13436.00,0.00,13.744,7385,0.004,13.147,0.006,0.574,0.013,177.3
7,12844.00,12844.00,0.00,14.359,7060,0.004,13.735,0.007,0.602,0.013,176.4
8,13100.00,13100.00,0.00,14.026,7200,0.004,13.413,0.007,0.590,0.013,176.1
9,14441.00,14441.00,0.00,12.571,7936,0.003,12.016,0.006,0.534,0.012,174.0
10,11765.00,11765.00,0.00,15.453,6466,0.004,14.770,0.006,0.660,0.013,175.3
11,11954.00,11954.00,0.00,15.149,6570,0.003,14.479,0.006,0.646,0.013,173.7
12,11863.00,11863.00,0.00,15.512,6521,0.003,14.835,0.006,0.655,0.013,176.7
13,12745.00,12745.00,0.00,14.623,7005,0.003,13.993,0.006,0.608,0.013,177.4
14,12177.00,12177.00,0.00,15.132,6692,0.003,14.473,0.007,0.636,0.013,176.3
15,13012.00,13012.00,0.00,14.202,7151,0.003,13.585,0.006,0.595,0.013,176.9
16,12973.00,12973.00,0.00,14.203,7131,0.003,13.585,0.006,0.597,0.012,176.8
17,12622.00,12622.00,0.00,14.641,6937,0.003,14.005,0.006,0.614,0.013,177.3
18,12736.00,12736.00,0.00,14.473,6998,0.003,13.842,0.006,0.608,0.013,176.5
19,12856.00,12856.00,0.00,14.325,7064,0.003,13.701,0.006,0.603,0.013,176.5
20,11992.00,11992.00,0.00,15.402,6591,0.003,14.734,0.007,0.646,0.013,176.9
21,13067.00,13067.00,0.00,14.120,7181,0.003,13.505,0.007,0.592,0.013,177.3
22,12955.00,12955.00,0.00,14.296,7120,0.003,13.677,0.006,0.597,0.013,177.6
23,12846.00,12846.00,0.00,14.477,7060,0.003,13.852,0.006,0.604,0.013,177.7
24,12431.00,12431.00,0.00,14.606,6832,0.003,13.959,0.006,0.624,0.013,174.6
25,12060.00,12060.00,0.00,15.442,6628,0.003,14.778,0.007,0.642,0.013,177.7
26,12609.00,12609.00,0.00,14.689,6929,0.003,14.052,0.006,0.615,0.013,176.9
27,13010.00,13010.00,0.00,14.206,7150,0.003,13.589,0.006,0.595,0.013,177.3
28,13506.00,13506.00,0.00,13.648,7423,0.003,13.055,0.006,0.572,0.013,177.0
29,12621.00,12621.00,0.00,14.638,6937,0.003,14.002,0.006,0.614,0.013,177.0
30,12338.00,12338.00,0.00,14.965,6781,0.003,14.314,0.006,0.629,0.013,176.6
31,12925.00,12925.00,0.00,14.240,7103,0.003,13.621,0.006,0.597,0.013,177.4
32,12232.00,12232.00,0.00,15.180,6723,0.003,14.521,0.006,0.637,0.013,177.2
33,12619.00,12619.00,0.00,14.632,6936,0.003,13.997,0.006,0.613,0.013,177.3
34,12421.00,12421.00,0.00,14.890,6826,0.003,14.244,0.006,0.624,0.014,177.0
35,12094.00,12094.00,0.00,15.232,6647,0.003,14.569,0.007,0.641,0.013,176.8
36,12910.00,12910.00,0.00,14.328,7096,0.003,13.706,0.006,0.600,0.013,177.4
37,12728.00,12728.00,0.00,14.539,6995,0.003,13.909,0.006,0.608,0.013,177.3
38,12044.00,12044.00,0.00,15.312,6619,0.003,14.645,0.007,0.644,0.013,176.2
39,11683.00,11683.00,0.00,15.806,6422,0.003,15.119,0.006,0.665,0.013,176.9
40,12256.00,12256.00,0.00,15.018,6736,0.003,14.363,0.006,0.634,0.013,176.4
41,12715.00,12715.00,0.00,14.527,6987,0.003,13.896,0.006,0.611,0.012,176.8
42,11614.00,11592.00,22.00,15.765,6371,0.003,15.075,0.007,0.668,0.013,175.6
43,12949.00,12839.00,110.00,14.195,7056,0.003,13.576,0.007,0.595,0.013,176.5
44,10779.00,10719.00,60.00,17.155,5891,0.003,16.411,0.007,0.721,0.013,177.4
45,11601.00,11601.00,0.00,15.927,6375,0.003,15.235,0.006,0.670,0.013,176.4
46,12319.00,12319.00,0.00,15.004,6770,0.003,14.352,0.006,0.631,0.013,176.8
47,12512.00,12512.00,0.00,14.731,6876,0.003,14.091,0.007,0.618,0.013,177.3
48,12868.00,12868.00,0.00,14.426,7071,0.003,13.802,0.006,0.602,0.013,177.9
49,12586.00,12586.00,0.00,14.484,6915,0.003,13.847,0.006,0.616,0.013,174.4
50,12128.00,12128.00,0.00,15.209,6665,0.003,14.547,0.006,0.640,0.013,176.7
51,12795.00,12795.00,0.00,14.435,7033,0.003,13.809,0.006,0.605,0.013,177.1
52,13100.00,13100.00,0.00,14.131,7199,0.003,13.518,0.006,0.592,0.013,177.2
53,12168.00,12168.00,0.00,15.150,6687,0.003,14.491,0.006,0.637,0.013,177.5
54,12544.00,12544.00,0.00,14.815,6894,0.003,14.175,0.006,0.618,0.013,177.2
55,12173.00,12173.00,0.00,15.253,6690,0.003,14.593,0.006,0.637,0.013,177.8
56,11896.00,11896.00,0.00,15.502,6538,0.003,14.827,0.006,0.653,0.013,176.6
57,12660.00,12660.00,0.00,14.629,6957,0.003,13.995,0.006,0.612,0.013,177.3
58,12997.00,12997.00,0.00,14.239,7143,0.003,13.622,0.006,0.595,0.013,177.4
59,12700.00,12700.00,0.00,14.478,6979,0.003,13.846,0.006,0.610,0.013,176.3
60,12886.00,12886.00,0.00,14.200,7082,0.003,13.580,0.006,0.598,0.013,177.1
61,13204.00,13204.00,0.00,14.143,7257,0.003,13.532,0.006,0.589,0.013,177.4
62,12673.00,12673.00,0.00,14.525,6965,0.003,13.891,0.006,0.613,0.012,176.9
63,12835.00,12835.00,0.00,14.405,7055,0.002,13.781,0.006,0.603,0.012,177.6
64,12942.00,12942.00,0.00,14.190,7114,0.003,13.568,0.006,0.600,0.013,175.9
65,12775.00,12775.00,0.00,14.482,7021,0.003,13.854,0.006,0.606,0.013,177.6
66,12920.00,12920.00,0.00,14.317,7100,0.003,13.695,0.007,0.599,0.013,177.3
67,12885.00,12885.00,0.00,14.311,7082,0.003,13.688,0.007,0.602,0.012,176.8
68,13317.00,13317.00,0.00,13.858,7320,0.003,13.255,0.006,0.582,0.013,176.9
69,12637.00,12637.00,0.00,14.596,6946,0.003,13.961,0.006,0.613,0.013,176.4
70,13562.00,13562.00,0.00,13.595,7453,0.002,13.003,0.006,0.571,0.012,177.0
71,13499.00,13499.00,0.00,13.657,7417,0.002,13.062,0.006,0.574,0.012,176.9
72,12424.00,12424.00,0.00,14.824,6827,0.003,14.179,0.006,0.624,0.013,176.3
73,12929.00,12929.00,0.00,14.229,7105,0.003,13.608,0.006,0.601,0.012,176.7
74,12565.00,12565.00,0.00,12.150,6906,0.003,11.511,0.006,0.618,0.012,149.0
75,9620.00,9620.00,0.00,4.210,5287,0.002,3.573,0.006,0.616,0.012,45.0
