Second,Ops/sec,Hits/sec,Misses/sec,Latency,KB/sec,Request_Creation_Time,Request_Buffer_Time,MW_Writes_To_Memcached_Time,Memcached_Process_Time,MW_Writes_To_Memtier_Time,Queue_Size
4,6320.00,6320.00,0.00,2.346,6640,0.019,0.600,0.032,1.635,0.061,10.1
5,23082.00,23082.00,0.00,2.012,24250,0.009,0.494,0.020,1.465,0.024,10.0
6,25673.00,25673.00,0.00,1.885,26972,0.008,0.479,0.018,1.356,0.024,11.3
7,26173.00,26173.00,0.00,1.805,27496,0.008,0.443,0.018,1.312,0.024,10.0
8,26203.00,26203.00,0.00,1.974,27527,0.008,0.497,0.018,1.428,0.024,10.4
9,26711.00,26711.00,0.00,1.922,28061,0.005,0.427,0.018,1.450,0.022,9.6
10,27100.00,27100.00,0.00,1.797,28470,0.007,0.513,0.016,1.242,0.019,10.5
11,27328.00,27328.00,0.00,1.939,28710,0.007,0.476,0.016,1.414,0.026,9.9
12,26480.00,26477.00,3.00,1.823,27816,0.007,0.472,0.016,1.303,0.025,10.4
13,26240.00,26194.00,46.00,1.838,27518,0.008,0.429,0.019,1.356,0.026,10.3
14,25510.00,25474.00,36.00,1.994,26761,0.007,0.456,0.023,1.480,0.028,9.7
15,25690.00,25680.00,10.00,1.875,26977,0.007,0.535,0.017,1.295,0.021,11.4
16,26663.00,26662.00,1.00,1.910,28010,0.007,0.459,0.020,1.401,0.023,10.1
17,27818.00,27818.00,0.00,1.857,29225,0.007,0.422,0.020,1.383,0.024,10.7
18,27564.00,27564.00,0.00,1.722,28959,0.009,0.447,0.019,1.225,0.022,10.6
19,27163.00,27163.00,0.00,1.908,28537,0.006,0.447,0.023,1.407,0.024,9.7
20,26801.00,26801.00,0.00,1.809,28156,0.008,0.441,0.018,1.318,0.024,10.3
21,27476.00,27476.00,0.00,1.890,28865,0.006,0.441,0.017,1.401,0.024,10.5
22,28021.00,28021.00,0.00,1.609,29437,0.008,0.383,0.015,1.182,0.021,9.9
23,26683.00,26683.00,0.00,1.920,28032,0.007,0.471,0.014,1.408,0.021,10.7
24,27514.00,27514.00,0.00,1.840,28905,0.008,0.398,0.018,1.391,0.026,10.1
25,26990.00,26990.00,0.00,1.774,28354,0.007,0.489,0.016,1.237,0.025,11.5
26,27012.00,27012.00,0.00,1.906,28377,0.006,0.459,0.019,1.400,0.022,10.2
27,27467.00,27467.00,0.00,1.886,28856,0.006,0.476,0.016,1.368,0.021,11.0
28,27317.00,27312.00,5.00,1.813,28693,0.007,0.431,0.020,1.335,0.021,9.8
29,26747.00,26733.00,14.00,2.020,28085,0.007,0.515,0.020,1.454,0.024,10.4
30,28336.00,28302.00,34.00,1.658,29733,0.006,0.437,0.017,1.177,0.021,10.8
31,25715.00,25699.00,16.00,1.910,26998,0.006,0.522,0.019,1.345,0.019,11.2
32,28303.00,28290.00,13.00,1.738,29720,0.007,0.441,0.017,1.250,0.023,11.1
33,27865.00,27857.00,8.00,1.761,29266,0.007,0.411,0.014,1.308,0.021,10.3
34,26350.00,26345.00,5.00,1.834,27677,0.007,0.436,0.016,1.351,0.024,10.7
35,28671.00,28670.00,1.00,1.802,30120,0.005,0.485,0.018,1.271,0.023,10.3
36,26929.00,26929.00,0.00,1.867,28291,0.006,0.462,0.020,1.354,0.024,10.6
37,26829.00,26829.00,0.00,1.814,28186,0.006,0.406,0.016,1.359,0.026,10.0
38,27639.00,27639.00,0.00,1.778,29037,0.006,0.413,0.018,1.318,0.023,10.4
39,27701.00,27701.00,0.00,1.792,29102,0.007,0.426,0.016,1.320,0.023,10.0
40,27829.00,27829.00,0.00,1.782,29237,0.006,0.508,0.017,1.232,0.020,10.9
41,27100.00,27100.00,0.00,1.852,28471,0.007,0.431,0.016,1.376,0.022,10.2
42,26944.00,26944.00,0.00,1.889,28307,0.006,0.430,0.021,1.412,0.020,10.5
43,28385.00,28385.00,0.00,1.660,29821,0.007,0.415,0.014,1.202,0.021,10.6
44,26761.00,26761.00,0.00,1.831,28115,0.008,0.452,0.015,1.330,0.026,10.1
45,28135.00,28135.00,0.00,1.854,29558,0.005,0.482,0.016,1.330,0.020,11.1
46,29231.00,29231.00,0.00,1.632,30710,0.007,0.437,0.018,1.151,0.020,9.9
47,28146.00,28146.00,0.00,1.837,29569,0.006,0.438,0.020,1.349,0.024,10.3
48,27589.00,27589.00,0.00,1.888,28984,0.006,0.459,0.015,1.385,0.022,10.4
49,28435.00,28435.00,0.00,1.723,29873,0.007,0.386,0.018,1.289,0.022,9.8
50,27176.00,27176.00,0.00,1.774,28550,0.006,0.419,0.019,1.308,0.021,10.3
51,27974.00,27974.00,0.00,1.768,29389,0.006,0.458,0.015,1.266,0.022,11.0
52,27870.00,27870.00,0.00,1.844,29280,0.006,0.424,0.017,1.374,0.023,9.9
53,25981.00,25981.00,0.00,2.013,27295,0.006,0.387,0.025,1.571,0.023,9.7
54,26667.00,26667.00,0.00,1.983,28016,0.006,0.481,0.019,1.451,0.026,10.7
55,27997.00,27997.00,0.00,1.837,29413,0.006,0.556,0.015,1.239,0.021,11.7
56,27588.00,27588.00,0.00,1.779,28983,0.007,0.452,0.017,1.282,0.021,11.3
57,28587.00,28587.00,0.00,1.766,30033,0.006,0.481,0.014,1.247,0.018,11.9
58,27651.00,27651.00,0.00,1.822,29049,0.006,0.393,0.015,1.388,0.021,9.6
59,28290.00,28290.00,0.00,1.756,29721,0.006,0.441,0.015,1.275,0.018,10.3
60,27332.00,27332.00,0.00,1.845,28714,0.008,0.482,0.016,1.317,0.021,12.8
61,28019.00,28019.00,0.00,1.764,29436,0.007,0.414,0.017,1.305,0.021,10.3
62,28752.00,28752.00,0.00,1.642,30206,0.007,0.430,0.016,1.171,0.017,10.1
63,27277.00,27277.00,0.00,1.797,28656,0.005,0.400,0.015,1.356,0.020,9.1
64,29387.00,29387.00,0.00,1.749,30873,0.006,0.433,0.017,1.271,0.022,10.0
65,26662.00,26662.00,0.00,1.770,28010,0.007,0.422,0.015,1.306,0.021,10.6
66,27070.00,27070.00,0.00,1.882,28439,0.006,0.471,0.017,1.364,0.023,11.0
67,26989.00,26989.00,0.00,1.961,28354,0.006,0.463,0.016,1.456,0.021,10.0
68,27697.00,27694.00,3.00,1.812,29094,0.006,0.476,0.017,1.290,0.023,11.5
69,28830.00,28828.00,2.00,1.836,30286,0.005,0.424,0.017,1.373,0.017,9.3
70,28088.00,28085.00,3.00,1.732,29505,0.007,0.434,0.015,1.256,0.020,10.4
71,26866.00,26860.00,6.00,1.815,28218,0.006,0.474,0.015,1.297,0.023,11.4
72,28407.00,28397.00,10.00,1.792,29833,0.006,0.387,0.017,1.358,0.023,10.2
73,27344.00,27333.00,11.00,1.881,28716,0.007,0.467,0.015,1.371,0.021,10.1
74,17404.00,17394.00,10.00,1.573,18274,0.005,0.381,0.017,1.151,0.019,8.3
75,2957.00,2956.00,1.00,0.711,3105,0.005,0.069,0.014,0.611,0.012,0.2
