Second,Ops/sec,Hits/sec,Misses/sec,Latency,KB/sec,Request_Creation_Time,Request_Buffer_Time,MW_Writes_To_Memcached_Time,Memcached_Process_Time,MW_Writes_To_Memtier_Time,Queue_Size
4,5139.00,5139.00,0.00,2.237,5399,0.013,0.695,0.055,1.427,0.047,4.3
5,16249.00,16249.00,0.00,1.596,17071,0.006,0.330,0.018,1.226,0.016,3.6
6,20273.00,20273.00,0.00,1.267,21298,0.006,0.291,0.016,0.934,0.019,3.5
7,20493.00,20493.00,0.00,1.294,21529,0.006,0.345,0.016,0.910,0.017,4.1
8,19194.00,19194.00,0.00,1.440,20164,0.007,0.274,0.015,1.127,0.016,3.4
9,19122.00,19122.00,0.00,1.352,20089,0.007,0.380,0.015,0.931,0.019,4.0
10,18968.00,18952.00,16.00,1.381,19910,0.006,0.343,0.013,1.000,0.018,4.2
11,20132.00,20100.00,32.00,1.305,21115,0.004,0.268,0.016,0.998,0.019,3.3
12,21883.00,21883.00,0.00,1.132,22989,0.006,0.260,0.014,0.831,0.019,3.6
13,20431.00,20431.00,0.00,1.262,21464,0.005,0.320,0.019,0.900,0.019,4.0
14,21080.00,21080.00,0.00,1.222,22146,0.006,0.274,0.016,0.906,0.020,3.6
15,20906.00,20906.00,0.00,1.287,21963,0.005,0.296,0.014,0.954,0.018,3.9
16,21193.00,21193.00,0.00,1.191,22264,0.005,0.251,0.015,0.903,0.016,3.6
17,20177.00,20177.00,0.00,1.260,21197,0.005,0.305,0.015,0.918,0.016,3.9
18,20991.00,20991.00,0.00,1.311,22052,0.005,0.309,0.016,0.965,0.017,3.8
19,21286.00,21286.00,0.00,1.161,22362,0.005,0.315,0.014,0.810,0.016,4.4
20,21055.00,21054.00,1.00,1.239,22119,0.006,0.303,0.014,0.899,0.017,3.8
21,20063.00,20046.00,17.00,1.358,21060,0.006,0.283,0.013,1.040,0.017,3.7
22,21201.00,21177.00,24.00,1.242,22248,0.005,0.313,0.016,0.889,0.019,4.1
23,20632.00,20627.00,5.00,1.233,21670,0.007,0.305,0.015,0.889,0.017,3.8
24,21547.00,21546.00,1.00,1.182,22635,0.006,0.252,0.014,0.891,0.018,3.4
25,20781.00,20781.00,0.00,1.209,21832,0.006,0.324,0.016,0.845,0.018,3.6
26,20112.00,20112.00,0.00,1.351,21129,0.006,0.368,0.013,0.945,0.019,4.5
27,20517.00,20517.00,0.00,1.323,21555,0.005,0.306,0.014,0.981,0.016,3.4
28,20380.00,20380.00,0.00,1.265,21411,0.005,0.289,0.018,0.934,0.019,3.7
29,20859.00,20859.00,0.00,1.225,21914,0.006,0.264,0.014,0.921,0.020,3.4
30,20997.00,20997.00,0.00,1.215,22059,0.007,0.288,0.015,0.889,0.016,3.6
31,20175.00,20175.00,0.00,1.301,21196,0.005,0.373,0.013,0.887,0.023,4.1
32,19909.00,19909.00,0.00,1.386,20916,0.005,0.364,0.018,0.974,0.025,3.8
33,19798.00,19798.00,0.00,1.382,20799,0.005,0.324,0.015,1.021,0.017,3.7
34,21204.00,21204.00,0.00,1.197,22276,0.005,0.300,0.018,0.853,0.021,3.7
35,20978.00,20978.00,0.00,1.231,22039,0.007,0.315,0.013,0.877,0.019,4.2
36,21110.00,21110.00,0.00,1.325,22178,0.005,0.301,0.015,0.983,0.020,3.5
37,20742.00,20742.00,0.00,1.266,21791,0.005,0.315,0.017,0.914,0.016,4.0
38,20698.00,20698.00,0.00,1.254,21745,0.007,0.296,0.014,0.917,0.019,3.7
39,20640.00,20640.00,0.00,1.267,21684,0.004,0.286,0.017,0.940,0.019,3.9
40,21873.00,21873.00,0.00,1.160,22979,0.005,0.264,0.016,0.858,0.017,3.7
41,21320.00,21320.00,0.00,1.226,22398,0.007,0.319,0.015,0.866,0.018,3.6
42,20150.00,20150.00,0.00,1.331,21169,0.005,0.304,0.017,0.991,0.015,3.4
43,21136.00,21136.00,0.00,1.203,22205,0.005,0.278,0.013,0.889,0.018,3.9
44,20429.00,20429.00,0.00,1.236,21462,0.006,0.297,0.013,0.897,0.023,3.7
45,21171.00,21171.00,0.00,1.251,22242,0.005,0.272,0.015,0.939,0.019,3.7
46,21014.00,21014.00,0.00,1.290,22076,0.005,0.327,0.016,0.921,0.022,4.0
47,20234.00,20234.00,0.00,1.306,21257,0.006,0.295,0.016,0.972,0.016,3.9
48,19973.00,19972.00,1.00,1.304,20982,0.005,0.310,0.018,0.952,0.018,4.0
49,21021.00,21011.00,10.00,1.286,22074,0.006,0.306,0.012,0.944,0.018,3.6
50,20206.00,20200.00,6.00,1.271,21222,0.006,0.339,0.019,0.883,0.024,3.8
51,19872.00,19868.00,4.00,1.340,20873,0.005,0.343,0.013,0.957,0.022,4.3
52,20865.00,20850.00,15.00,1.316,21905,0.005,0.288,0.015,0.992,0.016,3.4
53,21261.00,21238.00,23.00,1.187,22312,0.004,0.247,0.016,0.897,0.022,3.5
54,21543.00,21530.00,13.00,1.191,22619,0.006,0.253,0.013,0.898,0.021,3.5
55,20945.00,20929.00,16.00,1.259,21987,0.005,0.323,0.013,0.898,0.020,3.9
56,20823.00,20809.00,14.00,1.225,21861,0.006,0.273,0.015,0.909,0.023,3.8
57,21483.00,21464.00,19.00,1.246,22550,0.005,0.284,0.013,0.926,0.017,3.9
58,21962.00,21952.00,10.00,1.204,23062,0.005,0.285,0.013,0.884,0.016,3.2
59,20208.00,20203.00,5.00,1.238,21224,0.006,0.341,0.014,0.860,0.017,4.2
60,20108.00,20105.00,3.00,1.292,21121,0.006,0.316,0.014,0.937,0.018,3.9
61,21221.00,21219.00,2.00,1.267,22292,0.008,0.306,0.016,0.920,0.017,3.7
62,21077.00,21076.00,1.00,1.237,22141,0.004,0.321,0.014,0.880,0.018,3.6
63,20782.00,20780.00,2.00,1.258,21831,0.007,0.290,0.013,0.930,0.018,4.1
64,20940.00,20940.00,0.00,1.292,21999,0.003,0.281,0.015,0.973,0.020,3.7
65,21462.00,21462.00,0.00,1.242,22547,0.005,0.333,0.012,0.873,0.018,4.4
66,20640.00,20640.00,0.00,1.331,21683,0.006,0.323,0.017,0.967,0.018,4.1
67,20693.00,20693.00,0.00,1.300,21739,0.006,0.287,0.020,0.970,0.018,3.6
68,21731.00,21731.00,0.00,1.226,22830,0.005,0.331,0.014,0.859,0.018,3.6
69,21552.00,21552.00,0.00,1.205,22642,0.006,0.278,0.016,0.889,0.017,3.7
70,20728.00,20728.00,0.00,1.297,21776,0.006,0.292,0.020,0.959,0.020,4.1
71,21182.00,21182.00,0.00,1.229,22253,0.005,0.285,0.016,0.904,0.020,3.6
72,20645.00,20645.00,0.00,1.263,21689,0.006,0.298,0.015,0.927,0.017,3.6
73,20923.00,20923.00,0.00,1.203,21981,0.006,0.264,0.017,0.899,0.017,3.3
74,10756.00,10756.00,0.00,1.264,11300,0.006,0.295,0.015,0.934,0.016,3.4
