Second,Ops/sec,Hits/sec,Misses/sec,Latency,KB/sec,Request_Creation_Time,Request_Buffer_Time,MW_Writes_To_Memcached_Time,Memcached_Process_Time,MW_Writes_To_Memtier_Time,Queue_Size
4,4890.00,4890.00,0.00,2.074,1466,0.017,0.454,0.044,1.483,0.075,3.8
5,17286.00,17286.00,0.00,1.405,5179,0.009,0.303,0.014,1.061,0.019,3.3
6,20684.00,20684.00,0.00,1.230,6197,0.006,0.260,0.013,0.934,0.016,3.7
7,20754.00,20754.00,0.00,1.175,6217,0.006,0.256,0.015,0.883,0.015,3.6
8,18609.00,18609.00,0.00,1.303,5575,0.009,0.299,0.013,0.966,0.015,3.9
9,20325.00,20325.00,0.00,1.319,6090,0.005,0.339,0.014,0.946,0.016,4.0
10,19267.00,19241.00,26.00,1.338,5764,0.006,0.319,0.015,0.981,0.017,4.2
11,20647.00,20625.00,22.00,1.182,6178,0.005,0.263,0.014,0.883,0.017,3.6
12,20654.00,20654.00,0.00,1.249,6187,0.003,0.235,0.016,0.979,0.015,3.2
13,21334.00,21334.00,0.00,1.181,6392,0.005,0.248,0.014,0.900,0.016,3.7
14,20437.00,20437.00,0.00,1.266,6123,0.005,0.287,0.015,0.941,0.017,3.7
15,20031.00,20031.00,0.00,1.223,6001,0.008,0.283,0.014,0.902,0.016,3.8
16,20521.00,20521.00,0.00,1.214,6147,0.006,0.279,0.013,0.900,0.016,3.6
17,20981.00,20981.00,0.00,1.148,6285,0.007,0.251,0.013,0.862,0.015,3.4
18,20968.00,20968.00,0.00,1.167,6282,0.007,0.267,0.014,0.866,0.014,3.4
19,20402.00,20402.00,0.00,1.233,6112,0.007,0.244,0.015,0.950,0.016,3.6
20,20263.00,20262.00,1.00,1.231,6071,0.007,0.247,0.013,0.945,0.018,3.6
21,20945.00,20923.00,22.00,1.181,6269,0.005,0.222,0.015,0.918,0.019,2.9
22,21129.00,21113.00,16.00,1.152,6325,0.006,0.215,0.013,0.901,0.017,3.2
23,21056.00,21047.00,9.00,1.203,6305,0.007,0.264,0.013,0.905,0.014,3.5
24,20612.00,20612.00,0.00,1.221,6175,0.005,0.267,0.012,0.922,0.014,3.5
25,20267.00,20267.00,0.00,1.325,6072,0.006,0.296,0.014,0.992,0.017,3.8
26,20499.00,20499.00,0.00,1.193,6141,0.007,0.303,0.011,0.856,0.017,4.2
27,20958.00,20958.00,0.00,1.154,6279,0.008,0.277,0.013,0.842,0.013,3.6
28,21044.00,21044.00,0.00,1.138,6305,0.005,0.257,0.013,0.849,0.014,3.6
29,20534.00,20534.00,0.00,1.197,6152,0.007,0.276,0.013,0.885,0.016,3.6
30,20208.00,20208.00,0.00,1.297,6054,0.005,0.289,0.015,0.974,0.015,3.5
31,22220.00,22220.00,0.00,1.079,6657,0.005,0.246,0.014,0.800,0.014,3.8
32,20332.00,20332.00,0.00,1.252,6092,0.005,0.250,0.013,0.966,0.018,3.0
33,21264.00,21264.00,0.00,1.149,6370,0.007,0.279,0.014,0.832,0.017,3.7
34,20751.00,20751.00,0.00,1.159,6217,0.007,0.238,0.012,0.886,0.017,3.1
35,21166.00,21166.00,0.00,1.178,6341,0.006,0.262,0.011,0.885,0.014,3.6
36,19888.00,19888.00,0.00,1.231,5958,0.005,0.327,0.013,0.868,0.018,4.3
37,21220.00,21220.00,0.00,1.181,6357,0.006,0.253,0.013,0.894,0.015,3.4
38,19034.00,19034.00,0.00,1.336,5703,0.005,0.339,0.015,0.959,0.017,4.1
39,20372.00,20372.00,0.00,1.200,6103,0.005,0.250,0.016,0.914,0.016,3.4
40,21080.00,21080.00,0.00,1.179,6315,0.009,0.253,0.012,0.890,0.015,3.4
41,20784.00,20784.00,0.00,1.220,6227,0.006,0.296,0.017,0.886,0.014,3.7
42,20502.00,20502.00,0.00,1.229,6142,0.008,0.256,0.015,0.937,0.014,3.2
43,20958.00,20958.00,0.00,1.201,6279,0.005,0.238,0.016,0.924,0.019,3.1
44,20507.00,20507.00,0.00,1.243,6144,0.006,0.268,0.013,0.941,0.015,3.5
45,19788.00,19788.00,0.00,1.257,5928,0.006,0.244,0.016,0.972,0.019,3.3
46,21007.00,21007.00,0.00,1.144,6293,0.007,0.274,0.012,0.837,0.015,3.8
47,19242.00,19242.00,0.00,1.310,5765,0.005,0.270,0.014,1.005,0.016,3.6
48,20931.00,20928.00,3.00,1.192,6270,0.006,0.288,0.013,0.869,0.016,3.9
49,20391.00,20389.00,2.00,1.180,6109,0.006,0.277,0.015,0.868,0.014,3.3
50,20667.00,20657.00,10.00,1.214,6189,0.005,0.256,0.015,0.923,0.015,3.4
51,21214.00,21200.00,14.00,1.220,6352,0.006,0.276,0.011,0.909,0.017,3.3
52,21044.00,21035.00,9.00,1.081,6302,0.007,0.197,0.014,0.843,0.020,3.1
53,20074.00,20062.00,12.00,1.293,6010,0.005,0.293,0.016,0.963,0.016,3.8
54,20391.00,20374.00,17.00,1.223,6104,0.005,0.280,0.015,0.908,0.015,3.5
55,20106.00,20083.00,23.00,1.226,6017,0.007,0.241,0.012,0.947,0.019,3.5
56,20806.00,20791.00,15.00,1.222,6229,0.007,0.279,0.014,0.902,0.021,3.7
57,20893.00,20880.00,13.00,1.155,6255,0.006,0.257,0.015,0.862,0.015,3.7
58,21139.00,21133.00,6.00,1.249,6331,0.006,0.285,0.017,0.926,0.016,3.9
59,20502.00,20495.00,7.00,1.163,6140,0.006,0.255,0.015,0.870,0.018,3.5
60,20339.00,20335.00,4.00,1.233,6092,0.005,0.250,0.014,0.950,0.014,3.3
61,20997.00,20991.00,6.00,1.131,6289,0.006,0.229,0.011,0.870,0.015,3.1
62,20070.00,20068.00,2.00,1.252,6012,0.005,0.291,0.015,0.925,0.017,3.7
63,20639.00,20638.00,1.00,1.239,6182,0.004,0.238,0.015,0.967,0.015,3.4
64,20358.00,20358.00,0.00,1.236,6099,0.006,0.284,0.012,0.918,0.016,3.8
65,20942.00,20942.00,0.00,1.223,6274,0.007,0.299,0.016,0.885,0.016,3.8
66,20921.00,20921.00,0.00,1.195,6268,0.006,0.311,0.012,0.851,0.015,4.4
67,20486.00,20486.00,0.00,1.138,6137,0.007,0.254,0.013,0.849,0.016,3.6
68,20097.00,20097.00,0.00,1.213,6021,0.006,0.279,0.012,0.901,0.015,3.5
69,20427.00,20427.00,0.00,1.182,6119,0.005,0.271,0.012,0.881,0.013,3.4
70,21211.00,21211.00,0.00,1.222,6354,0.004,0.236,0.013,0.955,0.014,3.2
71,21470.00,21470.00,0.00,1.121,6432,0.006,0.236,0.014,0.851,0.014,3.6
72,20430.00,20430.00,0.00,1.153,6120,0.006,0.274,0.012,0.843,0.018,3.6
73,20202.00,20202.00,0.00,1.280,6052,0.005,0.273,0.013,0.974,0.016,3.8
74,10948.00,10948.00,0.00,1.373,3280,0.005,0.272,0.012,1.070,0.015,3.1
