Second,Ops/sec,Hits/sec,Misses/sec,Latency,KB/sec,Request_Creation_Time,Request_Buffer_Time,MW_Writes_To_Memcached_Time,Memcached_Process_Time,MW_Writes_To_Memtier_Time,Queue_Size
4,4046.00,4046.00,0.00,2.118,2224,0.013,0.432,0.050,1.562,0.060,3.6
5,16648.00,16648.00,0.00,1.445,9150,0.008,0.261,0.012,1.143,0.021,3.0
6,20202.00,20202.00,0.00,1.096,11103,0.007,0.240,0.015,0.818,0.017,3.5
7,20347.00,20347.00,0.00,1.250,11182,0.007,0.278,0.013,0.938,0.014,3.7
8,20194.00,20194.00,0.00,1.172,11098,0.008,0.219,0.014,0.918,0.013,3.1
9,20757.00,20757.00,0.00,1.195,11408,0.006,0.265,0.016,0.886,0.022,3.5
10,19585.00,19559.00,26.00,1.328,10749,0.006,0.259,0.015,1.030,0.017,3.5
11,20589.00,20567.00,22.00,1.232,11302,0.006,0.266,0.018,0.924,0.018,3.8
12,20317.00,20317.00,0.00,1.220,11165,0.005,0.216,0.018,0.960,0.022,3.3
13,19611.00,19611.00,0.00,1.318,10778,0.005,0.293,0.019,0.982,0.019,3.8
14,20714.00,20714.00,0.00,1.280,11384,0.005,0.257,0.016,0.981,0.021,3.4
15,20483.00,20483.00,0.00,1.211,11257,0.005,0.233,0.019,0.935,0.019,3.5
16,21092.00,21092.00,0.00,1.178,11591,0.007,0.260,0.014,0.879,0.018,3.8
17,21137.00,21137.00,0.00,1.184,11616,0.006,0.229,0.015,0.913,0.021,3.3
18,21032.00,21032.00,0.00,1.136,11559,0.005,0.240,0.016,0.859,0.017,3.9
19,21040.00,21040.00,0.00,1.094,11563,0.007,0.233,0.016,0.821,0.018,3.6
20,20524.00,20521.00,3.00,1.174,11278,0.004,0.244,0.016,0.888,0.021,3.8
21,21518.00,21497.00,21.00,1.125,11815,0.005,0.242,0.017,0.840,0.021,3.3
22,20772.00,20759.00,13.00,1.227,11409,0.005,0.246,0.016,0.940,0.020,3.5
23,20244.00,20233.00,11.00,1.291,11120,0.004,0.253,0.017,1.002,0.015,3.7
24,21228.00,21228.00,0.00,1.157,11666,0.005,0.248,0.015,0.870,0.019,3.3
25,21319.00,21319.00,0.00,1.126,11717,0.007,0.218,0.016,0.869,0.016,3.3
26,20572.00,20572.00,0.00,1.254,11306,0.006,0.295,0.012,0.923,0.018,3.8
27,20970.00,20970.00,0.00,1.134,11525,0.006,0.222,0.016,0.873,0.017,3.4
28,20356.00,20356.00,0.00,1.268,11188,0.004,0.258,0.016,0.970,0.020,3.4
29,21881.00,21881.00,0.00,1.107,12026,0.007,0.230,0.014,0.840,0.016,3.7
30,21262.00,21262.00,0.00,1.163,11686,0.007,0.265,0.014,0.864,0.014,3.5
31,21489.00,21489.00,0.00,1.131,11811,0.006,0.240,0.014,0.851,0.020,3.7
32,21645.00,21645.00,0.00,1.098,11896,0.006,0.211,0.012,0.854,0.016,3.5
33,20555.00,20555.00,0.00,1.211,11297,0.006,0.254,0.013,0.921,0.017,3.8
34,22070.00,22070.00,0.00,1.108,12130,0.007,0.219,0.013,0.850,0.019,3.4
35,22158.00,22158.00,0.00,1.159,12178,0.005,0.251,0.012,0.875,0.015,3.6
36,21316.00,21316.00,0.00,1.171,11715,0.006,0.238,0.011,0.900,0.016,3.5
37,22054.00,22054.00,0.00,1.103,12121,0.006,0.210,0.013,0.857,0.017,3.3
38,21755.00,21755.00,0.00,1.179,11956,0.007,0.230,0.014,0.912,0.016,3.7
39,21185.00,21185.00,0.00,1.185,11643,0.007,0.234,0.015,0.912,0.016,3.3
40,21857.00,21857.00,0.00,1.091,12012,0.006,0.207,0.014,0.848,0.015,3.2
41,22501.00,22501.00,0.00,1.079,12366,0.005,0.205,0.015,0.839,0.015,3.4
42,21237.00,21237.00,0.00,1.308,11672,0.006,0.286,0.017,0.984,0.015,3.6
43,21230.00,21230.00,0.00,1.146,11668,0.006,0.201,0.014,0.906,0.019,3.3
44,22019.00,22019.00,0.00,1.115,12101,0.006,0.226,0.014,0.855,0.013,3.5
45,21752.00,21752.00,0.00,1.151,11955,0.004,0.245,0.012,0.876,0.013,3.5
46,22471.00,22470.00,1.00,1.120,12349,0.005,0.236,0.015,0.847,0.016,3.8
47,21291.00,21286.00,5.00,1.224,11699,0.005,0.278,0.013,0.911,0.017,3.8
48,21524.00,21516.00,8.00,1.228,11825,0.004,0.259,0.014,0.934,0.015,3.7
49,22514.00,22507.00,7.00,1.022,12370,0.006,0.204,0.012,0.786,0.016,3.4
50,21397.00,21388.00,9.00,1.220,11755,0.005,0.244,0.014,0.939,0.018,3.7
51,21890.00,21877.00,13.00,1.129,12024,0.006,0.223,0.016,0.866,0.018,3.5
52,22420.00,22399.00,21.00,1.092,12310,0.005,0.224,0.012,0.835,0.016,3.8
53,22600.00,22587.00,13.00,1.093,12414,0.006,0.206,0.013,0.849,0.018,3.3
54,22455.00,22439.00,16.00,1.092,12332,0.005,0.212,0.012,0.848,0.016,3.2
55,22030.00,22017.00,13.00,1.095,12100,0.005,0.194,0.016,0.857,0.023,3.3
56,21484.00,21477.00,7.00,1.162,11803,0.005,0.242,0.015,0.885,0.015,3.8
57,21803.00,21794.00,9.00,1.112,11978,0.005,0.236,0.011,0.843,0.017,3.6
58,21319.00,21311.00,8.00,1.165,11712,0.006,0.256,0.012,0.876,0.014,3.6
59,22296.00,22288.00,8.00,1.091,12249,0.007,0.208,0.013,0.849,0.014,3.5
60,22080.00,22075.00,5.00,1.129,12132,0.006,0.216,0.014,0.878,0.016,3.4
61,22066.00,22065.00,1.00,1.068,12126,0.005,0.229,0.013,0.806,0.014,3.7
62,21578.00,21578.00,0.00,1.158,11859,0.005,0.231,0.013,0.894,0.015,3.3
63,22273.00,22273.00,0.00,1.161,12241,0.005,0.251,0.013,0.877,0.015,3.8
64,22525.00,22525.00,0.00,1.079,12379,0.005,0.219,0.012,0.829,0.015,3.6
65,22015.00,22015.00,0.00,1.151,12099,0.006,0.262,0.014,0.851,0.018,4.0
66,22261.00,22261.00,0.00,1.200,12234,0.005,0.288,0.010,0.882,0.014,3.7
67,21843.00,21843.00,0.00,1.136,12004,0.006,0.231,0.014,0.868,0.017,3.5
68,22061.00,22061.00,0.00,1.126,12124,0.006,0.234,0.012,0.858,0.016,3.5
69,22348.00,22348.00,0.00,1.093,12282,0.005,0.221,0.012,0.842,0.012,3.4
70,22788.00,22788.00,0.00,1.104,12524,0.005,0.223,0.015,0.847,0.014,3.4
71,21209.00,21209.00,0.00,1.129,11656,0.006,0.237,0.014,0.858,0.014,3.6
72,21864.00,21864.00,0.00,1.124,12016,0.005,0.221,0.014,0.867,0.017,3.4
73,21695.00,21695.00,0.00,1.114,11923,0.006,0.205,0.013,0.875,0.016,3.1
74,13812.00,13812.00,0.00,1.071,7591,0.005,0.219,0.013,0.817,0.016,3.4
