Second,Ops/sec,Hits/sec,Misses/sec,Latency,KB/sec,Request_Creation_Time,Request_Buffer_Time,MW_Writes_To_Memcached_Time,Memcached_Process_Time,MW_Writes_To_Memtier_Time,Queue_Size
4,4075.00,4075.00,0.00,2.617,2240,0.018,1.112,0.029,1.412,0.046,21.8
5,22805.00,22805.00,0.00,2.141,12534,0.010,0.961,0.012,1.139,0.019,28.7
6,25995.00,25995.00,0.00,2.200,14287,0.007,1.094,0.012,1.070,0.016,32.5
7,26169.00,26169.00,0.00,2.180,14382,0.008,1.068,0.016,1.069,0.019,33.9
8,26465.00,26465.00,0.00,2.082,14544,0.005,0.988,0.014,1.053,0.021,31.5
9,27443.00,27443.00,0.00,2.065,15082,0.005,0.982,0.012,1.047,0.020,30.8
10,27869.00,27869.00,0.00,2.028,15316,0.005,0.984,0.016,1.000,0.022,32.7
11,27002.00,27002.00,0.00,2.040,14841,0.006,0.982,0.015,1.019,0.019,32.3
12,27344.00,27344.00,0.00,2.161,15029,0.004,1.069,0.011,1.059,0.019,31.4
13,23852.00,23813.00,39.00,2.390,13087,0.006,1.163,0.014,1.190,0.016,32.5
14,26211.00,26166.00,45.00,2.182,14379,0.007,1.080,0.014,1.061,0.021,33.2
15,26936.00,26924.00,12.00,1.984,14796,0.004,0.921,0.015,1.024,0.021,31.8
16,26545.00,26545.00,0.00,2.183,14588,0.006,1.098,0.012,1.045,0.022,31.7
17,28207.00,28207.00,0.00,1.960,15502,0.007,0.952,0.013,0.971,0.018,33.3
18,27918.00,27918.00,0.00,2.040,15344,0.005,0.995,0.011,1.013,0.016,32.4
19,26608.00,26608.00,0.00,2.230,14624,0.005,1.122,0.012,1.072,0.019,33.1
20,28490.00,28490.00,0.00,1.981,15658,0.006,0.950,0.012,0.995,0.019,33.0
21,27337.00,27337.00,0.00,2.037,15024,0.005,0.976,0.011,1.029,0.016,32.2
22,27023.00,27023.00,0.00,2.141,14851,0.005,1.083,0.011,1.024,0.018,31.9
23,28317.00,28317.00,0.00,1.995,15562,0.006,0.969,0.012,0.988,0.019,32.5
24,27330.00,27330.00,0.00,2.178,15020,0.005,1.115,0.008,1.035,0.015,32.7
25,26152.00,26152.00,0.00,2.244,14372,0.006,1.110,0.010,1.103,0.016,31.8
26,27991.00,27991.00,0.00,1.894,15383,0.005,0.877,0.010,0.987,0.015,30.5
27,27901.00,27901.00,0.00,1.929,15334,0.005,0.905,0.012,0.987,0.020,30.7
28,26991.00,26985.00,6.00,2.162,14831,0.005,1.064,0.012,1.064,0.017,32.2
29,27716.00,27696.00,20.00,2.021,15222,0.006,0.986,0.011,1.001,0.019,33.6
30,28795.00,28767.00,28.00,1.849,15810,0.007,0.868,0.011,0.947,0.016,31.2
31,26966.00,26951.00,15.00,2.144,14812,0.005,1.069,0.013,1.039,0.017,32.4
32,27810.00,27797.00,13.00,1.970,15277,0.006,0.935,0.010,0.999,0.019,31.0
33,27353.00,27344.00,9.00,2.126,15028,0.005,1.060,0.013,1.031,0.017,33.5
34,27784.00,27781.00,3.00,2.139,15268,0.005,1.103,0.010,1.005,0.016,33.3
35,27576.00,27574.00,2.00,2.048,15154,0.005,0.966,0.011,1.042,0.024,32.5
36,27418.00,27418.00,0.00,2.121,15069,0.004,1.054,0.011,1.035,0.016,32.5
37,27790.00,27790.00,0.00,1.930,15273,0.007,0.924,0.010,0.973,0.017,30.6
38,28722.00,28722.00,0.00,1.975,15786,0.004,0.963,0.011,0.978,0.019,33.0
39,27728.00,27728.00,0.00,2.059,15239,0.005,0.990,0.015,1.029,0.021,32.4
40,27431.00,27431.00,0.00,2.033,15076,0.004,0.985,0.011,1.017,0.015,31.8
41,26338.00,26338.00,0.00,2.231,14475,0.005,1.137,0.012,1.059,0.017,32.6
42,28455.00,28455.00,0.00,1.895,15639,0.004,0.890,0.010,0.974,0.017,31.0
43,27242.00,27242.00,0.00,2.139,14972,0.005,1.052,0.014,1.049,0.020,31.8
44,27271.00,27271.00,0.00,2.067,14989,0.005,1.022,0.011,1.012,0.017,32.3
45,28253.00,28253.00,0.00,1.926,15528,0.005,0.908,0.014,0.981,0.019,30.1
46,27301.00,27301.00,0.00,1.970,15005,0.006,0.935,0.013,1.000,0.017,30.3
47,26759.00,26759.00,0.00,1.982,14707,0.005,0.919,0.013,1.028,0.017,30.1
48,27836.00,27836.00,0.00,1.971,15299,0.005,0.930,0.014,1.002,0.019,31.6
49,26977.00,26977.00,0.00,2.068,14826,0.004,1.011,0.013,1.024,0.016,30.6
50,27706.00,27706.00,0.00,2.024,15227,0.005,0.977,0.014,1.007,0.020,31.4
51,27717.00,27717.00,0.00,2.094,15233,0.004,1.047,0.013,1.018,0.013,32.5
52,27684.00,27684.00,0.00,2.023,15215,0.005,0.984,0.012,1.001,0.022,30.4
53,28379.00,28379.00,0.00,1.944,15597,0.006,0.915,0.013,0.993,0.017,32.3
54,25729.00,25729.00,0.00,2.202,14140,0.006,1.100,0.014,1.065,0.017,32.4
55,27208.00,27208.00,0.00,2.065,14953,0.005,0.996,0.011,1.035,0.018,30.9
56,27214.00,27214.00,0.00,2.131,14957,0.005,1.060,0.014,1.036,0.016,33.4
57,26557.00,26557.00,0.00,2.144,14596,0.005,1.036,0.014,1.072,0.017,32.4
58,27971.00,27971.00,0.00,1.870,15373,0.006,0.869,0.013,0.966,0.016,30.0
59,26367.00,26367.00,0.00,2.255,14491,0.005,1.142,0.011,1.079,0.017,32.7
60,28463.00,28463.00,0.00,1.941,15643,0.006,0.922,0.010,0.986,0.017,32.3
61,27820.00,27820.00,0.00,2.062,15289,0.004,1.022,0.012,1.004,0.019,32.0
62,28183.00,28183.00,0.00,2.059,15489,0.004,1.001,0.011,1.025,0.017,31.8
63,28942.00,28942.00,0.00,1.760,15906,0.004,0.799,0.012,0.927,0.019,28.6
64,26542.00,26542.00,0.00,2.197,14587,0.005,1.099,0.016,1.058,0.018,32.8
65,27099.00,27099.00,0.00,2.039,14893,0.006,0.969,0.011,1.033,0.021,30.9
66,28371.00,28371.00,0.00,1.935,15592,0.004,0.927,0.013,0.975,0.016,32.8
67,27572.00,27572.00,0.00,1.981,15153,0.006,0.946,0.011,1.002,0.016,30.7
68,27365.00,27365.00,0.00,2.143,15040,0.005,1.082,0.010,1.029,0.017,32.2
69,27769.00,27766.00,3.00,2.148,15260,0.005,1.077,0.012,1.037,0.017,33.5
70,27661.00,27656.00,5.00,2.018,15200,0.005,0.976,0.012,1.009,0.015,32.2
71,27945.00,27933.00,12.00,2.110,15352,0.005,1.076,0.011,1.004,0.015,33.0
72,28559.00,28551.00,8.00,1.829,15692,0.006,0.866,0.012,0.929,0.016,31.3
73,27814.00,27809.00,5.00,2.023,15284,0.006,0.971,0.013,1.016,0.017,32.0
74,19845.00,19838.00,7.00,2.066,10903,0.005,1.004,0.012,1.026,0.019,29.3
75,2179.00,2178.00,1.00,0.755,1197,0.005,0.101,0.016,0.619,0.013,0.2
