Second,Ops/sec,Hits/sec,Misses/sec,Latency,KB/sec,Request_Creation_Time,Request_Buffer_Time,MW_Writes_To_Memcached_Time,Memcached_Process_Time,MW_Writes_To_Memtier_Time,Queue_Size
4,4564.00,4564.00,0.00,2.000,4795,0.015,0.597,0.047,1.302,0.039,5.1
5,17375.00,17375.00,0.00,1.457,18254,0.008,0.316,0.018,1.096,0.019,3.7
6,19677.00,19677.00,0.00,1.398,20672,0.006,0.321,0.017,1.038,0.016,3.9
7,20682.00,20682.00,0.00,1.266,21727,0.006,0.291,0.012,0.940,0.017,3.7
8,19916.00,19916.00,0.00,1.244,20923,0.009,0.270,0.014,0.936,0.016,3.4
9,18987.00,18987.00,0.00,1.343,19947,0.005,0.291,0.015,1.015,0.016,3.5
10,18808.00,18790.00,18.00,1.459,19740,0.006,0.385,0.018,1.034,0.017,4.1
11,20031.00,20001.00,30.00,1.270,21011,0.005,0.278,0.017,0.953,0.016,3.8
12,19952.00,19952.00,0.00,1.309,20960,0.007,0.290,0.015,0.974,0.022,3.5
13,20537.00,20537.00,0.00,1.275,21576,0.006,0.307,0.020,0.921,0.021,3.8
14,19301.00,19301.00,0.00,1.336,20277,0.006,0.351,0.018,0.944,0.016,4.3
15,19439.00,19439.00,0.00,1.261,20422,0.007,0.303,0.016,0.917,0.019,3.7
16,19694.00,19694.00,0.00,1.318,20689,0.004,0.310,0.019,0.967,0.018,4.0
17,19444.00,19444.00,0.00,1.334,20427,0.006,0.335,0.018,0.958,0.016,4.1
18,19958.00,19958.00,0.00,1.271,20967,0.006,0.274,0.017,0.955,0.019,4.0
19,20706.00,20706.00,0.00,1.257,21753,0.005,0.281,0.015,0.940,0.016,3.7
20,20139.00,20138.00,1.00,1.277,21156,0.004,0.310,0.014,0.926,0.022,3.7
21,20474.00,20464.00,10.00,1.291,21499,0.006,0.277,0.014,0.976,0.018,3.6
22,19486.00,19464.00,22.00,1.361,20448,0.004,0.319,0.014,1.005,0.019,4.0
23,20491.00,20483.00,8.00,1.304,21519,0.005,0.307,0.014,0.956,0.020,3.9
24,20779.00,20772.00,7.00,1.280,21822,0.005,0.285,0.017,0.956,0.018,3.6
25,19689.00,19689.00,0.00,1.409,20685,0.005,0.339,0.019,1.023,0.022,4.4
26,21102.00,21102.00,0.00,1.131,22169,0.006,0.297,0.014,0.799,0.015,3.6
27,20187.00,20187.00,0.00,1.280,21208,0.004,0.306,0.016,0.934,0.019,3.8
28,20505.00,20505.00,0.00,1.290,21542,0.006,0.296,0.017,0.955,0.016,4.0
29,19943.00,19943.00,0.00,1.301,20952,0.005,0.313,0.014,0.952,0.017,3.7
30,21557.00,21557.00,0.00,1.178,22647,0.005,0.264,0.016,0.875,0.018,3.6
31,20585.00,20585.00,0.00,1.285,21626,0.006,0.292,0.014,0.954,0.020,3.8
32,20503.00,20503.00,0.00,1.305,21540,0.005,0.306,0.016,0.962,0.017,3.7
33,20866.00,20866.00,0.00,1.251,21921,0.005,0.318,0.017,0.896,0.016,3.8
34,20340.00,20340.00,0.00,1.295,21368,0.005,0.312,0.015,0.944,0.019,3.5
35,20909.00,20909.00,0.00,1.135,21966,0.007,0.277,0.014,0.821,0.016,3.4
36,19949.00,19949.00,0.00,1.285,20958,0.005,0.328,0.014,0.922,0.015,4.5
37,20435.00,20435.00,0.00,1.249,21468,0.006,0.297,0.014,0.917,0.015,3.8
38,19915.00,19915.00,0.00,1.341,20922,0.005,0.269,0.016,1.037,0.015,3.8
39,20084.00,20084.00,0.00,1.216,21100,0.005,0.319,0.015,0.859,0.017,3.8
40,20823.00,20823.00,0.00,1.179,21876,0.006,0.310,0.010,0.838,0.015,3.5
41,21074.00,21074.00,0.00,1.262,22140,0.004,0.287,0.013,0.940,0.017,3.6
42,21680.00,21680.00,0.00,1.106,22776,0.006,0.260,0.014,0.809,0.017,3.5
43,21550.00,21550.00,0.00,1.182,22640,0.007,0.265,0.017,0.875,0.018,3.6
44,20080.00,20080.00,0.00,1.302,21095,0.005,0.310,0.013,0.957,0.017,3.4
45,20516.00,20516.00,0.00,1.293,21553,0.005,0.301,0.018,0.951,0.018,3.7
46,20477.00,20477.00,0.00,1.314,21512,0.005,0.320,0.012,0.960,0.018,4.0
47,20902.00,20901.00,1.00,1.255,21958,0.007,0.262,0.014,0.955,0.017,3.5
48,20144.00,20143.00,1.00,1.334,21162,0.005,0.312,0.014,0.982,0.020,3.9
49,20557.00,20553.00,4.00,1.254,21592,0.004,0.283,0.014,0.935,0.019,3.9
50,20814.00,20810.00,4.00,1.277,21863,0.006,0.279,0.012,0.966,0.015,3.5
51,21728.00,21716.00,12.00,1.160,22815,0.005,0.304,0.010,0.829,0.013,3.9
52,20478.00,20464.00,14.00,1.218,21499,0.004,0.241,0.014,0.943,0.015,3.7
53,20826.00,20815.00,11.00,1.317,21868,0.006,0.244,0.014,1.036,0.018,3.4
54,21068.00,21058.00,10.00,1.200,22123,0.006,0.296,0.014,0.869,0.016,3.4
55,20661.00,20643.00,18.00,1.293,21687,0.005,0.313,0.014,0.942,0.018,4.1
56,19556.00,19539.00,17.00,1.386,20527,0.006,0.418,0.014,0.932,0.017,4.3
57,20948.00,20931.00,17.00,1.263,21989,0.005,0.289,0.012,0.938,0.020,3.7
58,20417.00,20406.00,11.00,1.390,21438,0.004,0.308,0.015,1.047,0.016,4.0
59,20697.00,20690.00,7.00,1.278,21736,0.006,0.257,0.011,0.990,0.014,3.4
60,20880.00,20876.00,4.00,1.225,21932,0.005,0.296,0.015,0.892,0.017,3.7
61,20184.00,20178.00,6.00,1.286,21198,0.007,0.372,0.012,0.879,0.016,4.5
62,21046.00,21041.00,5.00,1.189,22105,0.004,0.259,0.016,0.895,0.016,3.5
63,20758.00,20757.00,1.00,1.260,21806,0.006,0.294,0.014,0.927,0.019,3.5
64,20875.00,20874.00,1.00,1.257,21929,0.005,0.329,0.012,0.894,0.017,3.4
65,20781.00,20781.00,0.00,1.222,21831,0.006,0.236,0.014,0.950,0.016,3.1
66,20955.00,20955.00,0.00,1.196,22014,0.005,0.284,0.015,0.877,0.015,3.4
67,20705.00,20705.00,0.00,1.256,21752,0.006,0.277,0.016,0.938,0.018,3.5
68,20318.00,20318.00,0.00,1.356,21345,0.006,0.266,0.013,1.055,0.017,3.3
69,20966.00,20966.00,0.00,1.264,22026,0.005,0.314,0.014,0.914,0.017,3.7
70,21010.00,21010.00,0.00,1.234,22072,0.004,0.327,0.014,0.872,0.016,3.6
71,20683.00,20683.00,0.00,1.253,21729,0.006,0.305,0.013,0.909,0.019,3.6
72,20677.00,20677.00,0.00,1.242,21722,0.006,0.315,0.016,0.891,0.015,4.0
73,21179.00,21179.00,0.00,1.246,22250,0.005,0.273,0.014,0.940,0.014,3.6
74,12658.00,12658.00,0.00,1.116,13298,0.006,0.272,0.016,0.805,0.017,3.7
