Second,Ops/sec,Hits/sec,Misses/sec,Latency,KB/sec,Request_Creation_Time,Request_Buffer_Time,MW_Writes_To_Memcached_Time,Memcached_Process_Time,MW_Writes_To_Memtier_Time,Queue_Size
4,2929.00,2929.00,0.00,1.421,1610,0.014,0.250,0.037,1.086,0.034,1.2
5,12213.00,12213.00,0.00,1.104,6712,0.009,0.145,0.014,0.918,0.018,1.1
6,15276.00,15276.00,0.00,0.898,8395,0.006,0.172,0.014,0.693,0.014,1.2
7,14808.00,14808.00,0.00,0.839,8138,0.006,0.152,0.013,0.656,0.014,1.1
8,15469.00,15457.00,12.00,0.913,8495,0.004,0.159,0.014,0.722,0.014,1.3
9,12999.00,12987.00,12.00,1.112,7137,0.004,0.178,0.014,0.904,0.012,1.3
10,14796.00,14796.00,0.00,0.911,8132,0.005,0.139,0.014,0.739,0.015,1.1
11,15708.00,15708.00,0.00,0.869,8633,0.006,0.155,0.012,0.685,0.012,1.2
12,14620.00,14620.00,0.00,0.913,8035,0.006,0.200,0.013,0.680,0.013,1.5
13,15147.00,15147.00,0.00,0.894,8324,0.005,0.162,0.015,0.696,0.016,1.3
14,15363.00,15363.00,0.00,0.880,8443,0.005,0.162,0.013,0.685,0.016,1.3
15,16072.00,16071.00,1.00,0.840,8833,0.005,0.155,0.016,0.652,0.013,1.3
16,16049.00,16031.00,18.00,0.844,8811,0.005,0.200,0.013,0.613,0.013,1.4
17,15090.00,15085.00,5.00,0.907,8290,0.004,0.182,0.014,0.688,0.018,1.3
18,14913.00,14913.00,0.00,0.902,8196,0.005,0.176,0.012,0.693,0.016,1.3
19,15980.00,15980.00,0.00,0.883,8782,0.004,0.181,0.013,0.671,0.015,1.4
20,15547.00,15547.00,0.00,0.836,8545,0.006,0.169,0.012,0.635,0.014,1.1
21,15390.00,15390.00,0.00,0.887,8458,0.005,0.182,0.012,0.675,0.013,1.3
22,15749.00,15749.00,0.00,0.868,8656,0.004,0.150,0.014,0.684,0.016,1.1
23,15581.00,15581.00,0.00,0.885,8564,0.004,0.151,0.013,0.702,0.015,1.2
24,15848.00,15848.00,0.00,0.847,8710,0.005,0.182,0.015,0.631,0.014,1.5
25,16251.00,16251.00,0.00,0.832,8931,0.005,0.158,0.015,0.641,0.013,1.3
26,15396.00,15396.00,0.00,0.890,8462,0.005,0.161,0.013,0.699,0.013,1.2
27,16045.00,16045.00,0.00,0.840,8818,0.005,0.173,0.016,0.633,0.013,1.3
28,16149.00,16149.00,0.00,0.829,8875,0.005,0.143,0.015,0.652,0.014,1.2
29,14902.00,14902.00,0.00,0.884,8190,0.006,0.151,0.012,0.703,0.012,1.1
30,16682.00,16682.00,0.00,0.810,9168,0.004,0.149,0.010,0.632,0.014,1.3
31,15778.00,15778.00,0.00,0.806,8671,0.006,0.159,0.012,0.614,0.015,1.2
32,16195.00,16195.00,0.00,0.835,8901,0.004,0.133,0.012,0.674,0.012,1.2
33,15950.00,15950.00,0.00,0.859,8766,0.003,0.163,0.013,0.664,0.017,1.3
34,15601.00,15597.00,4.00,0.868,8572,0.003,0.163,0.013,0.676,0.013,1.2
35,15397.00,15392.00,5.00,0.918,8460,0.003,0.200,0.013,0.689,0.012,1.3
36,16446.00,16436.00,10.00,0.818,9033,0.005,0.144,0.011,0.645,0.013,1.2
37,16049.00,16037.00,12.00,0.840,8814,0.004,0.169,0.013,0.644,0.010,1.3
38,15711.00,15697.00,14.00,0.889,8627,0.003,0.150,0.012,0.711,0.013,1.2
39,15834.00,15820.00,14.00,0.812,8695,0.003,0.173,0.013,0.610,0.012,1.4
40,15735.00,15727.00,8.00,0.874,8643,0.003,0.182,0.010,0.667,0.012,1.5
41,16022.00,16019.00,3.00,0.837,8804,0.005,0.151,0.012,0.656,0.013,1.2
42,15558.00,15557.00,1.00,0.844,8550,0.004,0.192,0.014,0.621,0.012,1.6
43,15587.00,15586.00,1.00,0.893,8566,0.004,0.161,0.014,0.702,0.012,1.4
44,15911.00,15911.00,0.00,0.859,8744,0.005,0.139,0.012,0.687,0.016,1.1
45,16430.00,16430.00,0.00,0.824,9030,0.005,0.169,0.013,0.627,0.010,1.2
46,16192.00,16192.00,0.00,0.878,8899,0.005,0.180,0.011,0.671,0.011,1.2
47,15998.00,15998.00,0.00,0.838,8792,0.005,0.160,0.013,0.647,0.013,1.1
48,15210.00,15210.00,0.00,0.902,8359,0.003,0.170,0.012,0.699,0.018,1.3
49,16147.00,16147.00,0.00,0.859,8874,0.004,0.151,0.012,0.677,0.015,1.2
50,15729.00,15729.00,0.00,0.852,8644,0.003,0.138,0.012,0.684,0.014,1.1
51,15283.00,15283.00,0.00,0.889,8399,0.003,0.193,0.013,0.666,0.014,1.4
52,15633.00,15633.00,0.00,0.904,8592,0.005,0.177,0.013,0.697,0.012,1.3
53,15330.00,15330.00,0.00,0.932,8425,0.004,0.179,0.012,0.723,0.014,1.4
54,16081.00,16081.00,0.00,0.847,8838,0.003,0.137,0.013,0.680,0.013,1.1
55,15646.00,15646.00,0.00,0.885,8599,0.004,0.177,0.013,0.677,0.014,1.4
56,15526.00,15526.00,0.00,0.850,8533,0.005,0.180,0.014,0.639,0.012,1.3
57,15499.00,15499.00,0.00,0.830,8518,0.005,0.149,0.011,0.652,0.013,1.2
58,15810.00,15810.00,0.00,0.894,8689,0.005,0.166,0.010,0.697,0.016,1.3
59,15812.00,15812.00,0.00,0.907,8690,0.004,0.148,0.011,0.731,0.012,1.3
60,16421.00,16421.00,0.00,0.821,9025,0.006,0.144,0.013,0.646,0.013,1.2
61,16090.00,16090.00,0.00,0.859,8843,0.005,0.140,0.015,0.684,0.015,1.2
62,16185.00,16185.00,0.00,0.803,8895,0.005,0.123,0.013,0.649,0.014,1.2
63,15502.00,15502.00,0.00,0.893,8520,0.005,0.179,0.014,0.680,0.016,1.4
64,15855.00,15855.00,0.00,0.838,8714,0.005,0.159,0.011,0.651,0.013,1.1
65,16248.00,16248.00,0.00,0.836,8930,0.003,0.164,0.013,0.645,0.012,1.3
66,15635.00,15635.00,0.00,0.855,8593,0.004,0.156,0.012,0.672,0.012,1.2
67,15837.00,15837.00,0.00,0.849,8704,0.005,0.186,0.012,0.631,0.014,1.5
68,15222.00,15222.00,0.00,0.896,8366,0.007,0.193,0.014,0.668,0.015,1.5
69,15161.00,15161.00,0.00,0.915,8332,0.004,0.204,0.011,0.684,0.012,1.5
70,15802.00,15802.00,0.00,0.869,8684,0.004,0.188,0.013,0.651,0.013,1.5
71,15577.00,15577.00,0.00,0.844,8561,0.004,0.171,0.010,0.646,0.013,1.5
72,15891.00,15891.00,0.00,0.903,8733,0.004,0.181,0.012,0.693,0.013,1.4
73,15537.00,15537.00,0.00,0.861,8539,0.005,0.162,0.013,0.669,0.012,1.3
74,10550.00,10550.00,0.00,0.823,5798,0.004,0.164,0.012,0.629,0.013,1.2
