Second,Ops/sec,Hits/sec,Misses/sec,Latency,KB/sec,Request_Creation_Time,Request_Buffer_Time,MW_Writes_To_Memcached_Time,Memcached_Process_Time,MW_Writes_To_Memtier_Time,Queue_Size
4,1838.00,1838.00,0.00,6.011,1931,0.026,4.938,0.035,0.973,0.039,42.8
5,11597.00,11597.00,0.00,5.421,12184,0.004,4.733,0.007,0.662,0.014,56.3
6,13291.00,13291.00,0.00,6.601,13963,0.004,6.001,0.006,0.577,0.013,80.7
7,13199.00,13199.00,0.00,6.782,13866,0.004,6.170,0.006,0.590,0.012,81.2
8,12787.00,12787.00,0.00,6.885,13434,0.003,6.260,0.006,0.604,0.013,80.2
9,13037.00,13037.00,0.00,6.718,13696,0.003,6.104,0.006,0.591,0.013,80.5
10,10584.00,10584.00,0.00,8.384,11119,0.003,7.624,0.006,0.738,0.013,80.5
11,12427.00,12427.00,0.00,7.027,13055,0.003,6.381,0.006,0.624,0.012,79.9
12,13312.00,13312.00,0.00,6.660,13984,0.003,6.057,0.006,0.582,0.012,81.2
13,12631.00,12631.00,0.00,6.983,13270,0.003,6.349,0.006,0.611,0.014,80.4
14,12681.00,12681.00,0.00,7.027,13322,0.003,6.394,0.007,0.611,0.013,81.5
15,13591.00,13591.00,0.00,6.535,14278,0.003,5.945,0.006,0.569,0.013,81.3
16,13168.00,13168.00,0.00,6.685,13834,0.003,6.076,0.006,0.588,0.013,80.5
17,12480.00,12480.00,0.00,7.150,13111,0.003,6.507,0.006,0.622,0.012,81.4
18,12731.00,12731.00,0.00,6.943,13375,0.003,6.313,0.006,0.609,0.013,80.9
19,13161.00,13161.00,0.00,6.723,13827,0.003,6.112,0.006,0.589,0.013,80.7
20,12826.00,12826.00,0.00,6.893,13475,0.003,6.268,0.006,0.603,0.013,80.7
21,13241.00,13241.00,0.00,6.682,13911,0.003,6.076,0.006,0.584,0.012,81.0
22,12623.00,12623.00,0.00,6.864,13261,0.003,6.228,0.006,0.614,0.013,79.4
23,11294.00,11233.00,61.00,7.813,11801,0.003,7.104,0.007,0.686,0.013,80.4
24,13404.00,13374.00,30.00,6.554,14050,0.003,5.955,0.006,0.577,0.013,80.5
25,13538.00,13533.00,5.00,6.495,14216,0.003,5.903,0.006,0.571,0.012,80.6
26,13205.00,13205.00,0.00,6.688,13872,0.003,6.081,0.006,0.586,0.013,80.8
27,13528.00,13528.00,0.00,6.514,14211,0.003,5.921,0.006,0.572,0.012,80.6
28,12685.00,12685.00,0.00,6.959,13326,0.003,6.328,0.006,0.609,0.013,80.4
29,12711.00,12711.00,0.00,6.975,13354,0.003,6.344,0.006,0.608,0.014,80.9
30,13181.00,13181.00,0.00,6.697,13847,0.003,6.089,0.006,0.587,0.012,81.0
31,12899.00,12899.00,0.00,6.855,13551,0.003,6.232,0.006,0.601,0.012,80.7
32,12487.00,12487.00,0.00,7.121,13119,0.003,6.479,0.006,0.622,0.012,81.3
33,12544.00,12544.00,0.00,7.064,13179,0.003,6.425,0.006,0.618,0.013,80.8
34,12870.00,12870.00,0.00,6.937,13521,0.003,6.313,0.006,0.603,0.012,81.2
35,13513.00,13513.00,0.00,6.555,14197,0.003,5.961,0.006,0.573,0.013,81.1
36,13305.00,13305.00,0.00,6.663,13978,0.003,6.059,0.006,0.582,0.012,81.1
37,13376.00,13376.00,0.00,6.630,14051,0.003,6.031,0.006,0.578,0.012,81.1
38,12149.00,12149.00,0.00,7.310,12763,0.003,6.649,0.006,0.640,0.013,80.9
39,12982.00,12982.00,0.00,6.738,13638,0.003,6.119,0.006,0.597,0.013,79.8
40,13653.00,13653.00,0.00,6.432,14343,0.003,5.844,0.006,0.567,0.012,80.3
41,12751.00,12751.00,0.00,6.968,13395,0.003,6.339,0.006,0.608,0.012,81.3
42,13445.00,13445.00,0.00,6.599,14125,0.003,6.001,0.006,0.577,0.013,81.0
43,13005.00,13005.00,0.00,6.867,13662,0.003,6.250,0.006,0.595,0.013,81.4
44,13126.00,13126.00,0.00,6.758,13789,0.003,6.146,0.006,0.591,0.012,80.9
45,13616.00,13616.00,0.00,6.488,14305,0.003,5.900,0.006,0.567,0.012,80.9
46,13803.00,13803.00,0.00,6.445,14501,0.003,5.863,0.006,0.560,0.013,81.2
47,12475.00,12475.00,0.00,7.149,13106,0.003,6.506,0.006,0.622,0.013,81.6
48,12367.00,12367.00,0.00,7.119,12992,0.003,6.472,0.006,0.625,0.013,81.4
49,12640.00,12640.00,0.00,7.112,13279,0.003,6.476,0.006,0.616,0.012,81.2
50,12969.00,12969.00,0.00,6.703,13624,0.003,6.085,0.006,0.596,0.013,79.8
51,12826.00,12826.00,0.00,6.916,13474,0.003,6.290,0.006,0.603,0.014,81.0
52,13170.00,13170.00,0.00,6.702,13836,0.003,6.092,0.006,0.588,0.013,80.7
53,13105.00,13105.00,0.00,6.769,13768,0.003,6.158,0.006,0.589,0.013,81.6
54,11715.00,11715.00,0.00,7.553,12308,0.003,6.866,0.006,0.665,0.013,80.6
55,12587.00,12587.00,0.00,7.079,13224,0.003,6.441,0.006,0.617,0.013,81.4
56,13543.00,13543.00,0.00,6.549,14229,0.003,5.957,0.006,0.571,0.013,81.3
57,12903.00,12903.00,0.00,6.831,13556,0.003,6.210,0.006,0.600,0.013,80.5
58,12833.00,12810.00,23.00,6.944,13458,0.003,6.317,0.006,0.604,0.013,81.5
59,13217.00,13171.00,46.00,6.729,13837,0.003,6.121,0.006,0.587,0.013,81.4
60,13080.00,13054.00,26.00,6.819,13714,0.003,6.207,0.006,0.592,0.012,81.5
61,13537.00,13536.00,1.00,6.501,14219,0.003,5.908,0.006,0.572,0.012,80.7
62,12721.00,12721.00,0.00,6.932,13363,0.003,6.300,0.006,0.610,0.013,80.7
63,12352.00,12352.00,0.00,7.139,12977,0.003,6.490,0.006,0.626,0.014,80.4
64,13232.00,13232.00,0.00,6.660,13901,0.003,6.057,0.006,0.581,0.013,80.6
65,12164.00,12164.00,0.00,7.318,12779,0.003,6.658,0.006,0.638,0.013,81.0
66,12712.00,12712.00,0.00,6.948,13355,0.003,6.317,0.006,0.609,0.013,80.7
67,12950.00,12950.00,0.00,6.814,13605,0.003,6.195,0.006,0.597,0.013,80.9
68,13179.00,13179.00,0.00,6.745,13846,0.003,6.136,0.006,0.588,0.013,81.1
69,12751.00,12751.00,0.00,6.944,13396,0.003,6.315,0.006,0.607,0.013,80.7
70,13016.00,13016.00,0.00,6.804,13674,0.003,6.187,0.006,0.596,0.013,80.9
71,12887.00,12887.00,0.00,6.733,13538,0.003,6.110,0.006,0.602,0.012,79.2
72,12821.00,12821.00,0.00,6.933,13469,0.003,6.309,0.006,0.603,0.013,81.4
73,13361.00,13361.00,0.00,6.646,14037,0.003,6.044,0.006,0.581,0.012,81.0
74,12411.00,12411.00,0.00,5.517,13038,0.003,4.907,0.006,0.589,0.013,64.8
75,8378.00,8378.00,0.00,1.868,8802,0.003,1.227,0.007,0.619,0.013,15.1
