Second,Ops/sec,Hits/sec,Misses/sec,Latency,KB/sec,Request_Creation_Time,Request_Buffer_Time,MW_Writes_To_Memcached_Time,Memcached_Process_Time,MW_Writes_To_Memtier_Time,Queue_Size
4,4598.00,4598.00,0.00,1.481,511,0.016,0.265,0.029,1.130,0.041,1.5
5,13103.00,13103.00,0.00,1.030,1456,0.006,0.167,0.017,0.824,0.017,1.2
6,15782.00,15782.00,0.00,0.899,1753,0.005,0.191,0.017,0.673,0.014,1.4
7,15477.00,15477.00,0.00,0.857,1720,0.007,0.130,0.013,0.694,0.012,1.0
8,13974.00,13953.00,21.00,0.947,1550,0.008,0.160,0.015,0.750,0.013,1.1
9,14518.00,14515.00,3.00,1.033,1612,0.004,0.112,0.012,0.895,0.011,0.8
10,15459.00,15459.00,0.00,0.913,1718,0.004,0.144,0.013,0.736,0.016,1.2
11,15987.00,15987.00,0.00,0.826,1776,0.005,0.149,0.014,0.643,0.014,1.2
12,16002.00,16002.00,0.00,0.848,1778,0.005,0.151,0.011,0.667,0.013,1.2
13,16208.00,16208.00,0.00,0.845,1801,0.005,0.134,0.014,0.678,0.013,1.1
14,16418.00,16418.00,0.00,0.803,1824,0.004,0.127,0.012,0.646,0.014,1.0
15,15862.00,15855.00,7.00,0.862,1762,0.005,0.154,0.015,0.673,0.014,1.1
16,15375.00,15359.00,16.00,0.863,1706,0.006,0.156,0.014,0.676,0.011,1.2
17,15590.00,15589.00,1.00,0.852,1732,0.005,0.161,0.012,0.661,0.014,1.3
18,16619.00,16619.00,0.00,0.829,1847,0.004,0.167,0.012,0.634,0.012,1.1
19,15448.00,15448.00,0.00,0.893,1717,0.003,0.181,0.013,0.683,0.013,1.5
20,16071.00,16071.00,0.00,0.813,1786,0.006,0.142,0.015,0.637,0.013,1.0
21,15923.00,15923.00,0.00,0.878,1769,0.004,0.137,0.016,0.707,0.014,1.1
22,15187.00,15187.00,0.00,0.900,1688,0.005,0.164,0.011,0.706,0.014,1.2
23,16109.00,16109.00,0.00,0.831,1790,0.005,0.161,0.015,0.636,0.014,1.3
24,16610.00,16610.00,0.00,0.804,1845,0.004,0.139,0.014,0.631,0.015,1.1
25,16440.00,16440.00,0.00,0.815,1827,0.006,0.143,0.012,0.641,0.013,1.2
26,15783.00,15783.00,0.00,0.838,1754,0.005,0.135,0.012,0.673,0.014,1.2
27,15712.00,15712.00,0.00,0.869,1746,0.005,0.169,0.011,0.669,0.015,1.4
28,16094.00,16094.00,0.00,0.833,1788,0.005,0.162,0.011,0.643,0.012,1.4
29,16452.00,16452.00,0.00,0.800,1828,0.006,0.155,0.012,0.613,0.014,1.2
30,16184.00,16184.00,0.00,0.833,1798,0.004,0.182,0.014,0.621,0.013,1.4
31,15914.00,15914.00,0.00,0.884,1768,0.004,0.169,0.013,0.681,0.018,1.2
32,16021.00,16021.00,0.00,0.854,1780,0.004,0.148,0.012,0.678,0.013,1.1
33,16137.00,16134.00,3.00,0.840,1793,0.006,0.160,0.013,0.649,0.012,1.3
34,15858.00,15854.00,4.00,0.854,1762,0.005,0.171,0.015,0.650,0.014,1.4
35,16295.00,16285.00,10.00,0.801,1810,0.005,0.173,0.011,0.598,0.013,1.2
36,15372.00,15361.00,11.00,0.929,1707,0.003,0.195,0.013,0.706,0.012,1.5
37,16299.00,16288.00,11.00,0.829,1810,0.006,0.140,0.014,0.655,0.014,1.2
38,16171.00,16155.00,16.00,0.829,1795,0.006,0.130,0.012,0.667,0.015,1.2
39,16248.00,16235.00,13.00,0.860,1804,0.005,0.173,0.013,0.653,0.016,1.2
40,15884.00,15881.00,3.00,0.849,1765,0.005,0.155,0.014,0.660,0.014,1.3
41,15764.00,15763.00,1.00,0.869,1751,0.007,0.158,0.015,0.675,0.015,1.1
42,16371.00,16371.00,0.00,0.816,1819,0.006,0.161,0.015,0.622,0.012,1.2
43,16143.00,16143.00,0.00,0.857,1793,0.005,0.148,0.014,0.679,0.013,1.2
44,15210.00,15210.00,0.00,0.899,1690,0.005,0.191,0.012,0.678,0.013,1.5
45,16556.00,16556.00,0.00,0.765,1839,0.006,0.138,0.012,0.594,0.016,1.1
46,15637.00,15637.00,0.00,0.894,1737,0.005,0.159,0.015,0.705,0.011,1.2
47,15271.00,15271.00,0.00,0.911,1697,0.004,0.197,0.013,0.687,0.010,1.4
48,16285.00,16285.00,0.00,0.830,1809,0.005,0.163,0.013,0.636,0.013,1.2
49,16607.00,16607.00,0.00,0.801,1845,0.006,0.157,0.015,0.608,0.015,1.2
50,15562.00,15562.00,0.00,0.831,1729,0.006,0.158,0.012,0.641,0.014,1.3
51,16091.00,16091.00,0.00,0.825,1788,0.007,0.141,0.013,0.649,0.015,1.1
52,16089.00,16089.00,0.00,0.841,1788,0.005,0.169,0.010,0.646,0.011,1.2
53,15840.00,15840.00,0.00,0.841,1760,0.004,0.136,0.012,0.674,0.015,1.0
54,16987.00,16987.00,0.00,0.785,1888,0.004,0.144,0.012,0.609,0.016,1.3
55,16154.00,16154.00,0.00,0.850,1795,0.005,0.168,0.014,0.649,0.013,1.2
56,16510.00,16510.00,0.00,0.844,1835,0.005,0.128,0.011,0.686,0.014,1.1
57,16219.00,16219.00,0.00,0.812,1802,0.004,0.159,0.014,0.624,0.011,1.2
58,17263.00,17263.00,0.00,0.811,1918,0.004,0.119,0.012,0.664,0.012,1.1
59,16214.00,16214.00,0.00,0.844,1801,0.005,0.140,0.013,0.674,0.013,1.1
60,16612.00,16612.00,0.00,0.803,1846,0.005,0.129,0.014,0.638,0.016,1.1
61,15443.00,15443.00,0.00,0.898,1716,0.005,0.158,0.011,0.712,0.013,1.3
62,16210.00,16210.00,0.00,0.870,1801,0.004,0.157,0.014,0.684,0.011,1.2
63,15727.00,15727.00,0.00,0.858,1747,0.005,0.158,0.014,0.664,0.017,1.4
64,16276.00,16276.00,0.00,0.818,1808,0.005,0.147,0.013,0.639,0.014,1.1
65,15386.00,15386.00,0.00,0.838,1709,0.005,0.151,0.013,0.656,0.013,1.2
66,15866.00,15866.00,0.00,0.810,1763,0.004,0.134,0.013,0.646,0.012,1.1
67,17130.00,17130.00,0.00,0.772,1903,0.004,0.111,0.013,0.628,0.015,1.1
68,16130.00,16130.00,0.00,0.820,1792,0.005,0.143,0.011,0.651,0.011,1.2
69,16189.00,16189.00,0.00,0.815,1799,0.006,0.127,0.011,0.657,0.014,1.0
70,16958.00,16958.00,0.00,0.807,1884,0.005,0.135,0.013,0.642,0.013,1.1
71,15805.00,15805.00,0.00,0.836,1756,0.004,0.149,0.013,0.658,0.012,1.2
72,15877.00,15877.00,0.00,0.825,1764,0.006,0.151,0.014,0.643,0.012,1.1
73,16023.00,16023.00,0.00,0.855,1780,0.003,0.165,0.015,0.659,0.013,1.2
74,7749.00,7749.00,0.00,0.865,861,0.007,0.201,0.012,0.631,0.014,1.5
