Second,Ops/sec,Hits/sec,Misses/sec,Latency,KB/sec,Request_Creation_Time,Request_Buffer_Time,MW_Writes_To_Memcached_Time,Memcached_Process_Time,MW_Writes_To_Memtier_Time,Queue_Size
4,6464.00,6464.00,0.00,5.493,3553,0.018,2.566,0.057,2.802,0.050,42.5
5,25749.00,25749.00,0.00,4.131,14154,0.010,1.980,0.020,2.090,0.030,58.2
6,30344.00,30344.00,0.00,3.712,16677,0.007,1.829,0.018,1.831,0.026,63.7
7,31640.00,31640.00,0.00,3.456,17389,0.008,1.665,0.019,1.739,0.025,64.0
8,29322.00,29322.00,0.00,3.812,16116,0.008,1.851,0.019,1.907,0.027,63.7
9,31055.00,31055.00,0.00,3.575,17068,0.006,1.766,0.016,1.762,0.024,63.4
10,32445.00,32445.00,0.00,3.235,17830,0.007,1.519,0.014,1.670,0.025,63.6
11,30218.00,30218.00,0.00,3.901,16607,0.005,1.962,0.014,1.893,0.027,67.7
12,32316.00,32316.00,0.00,3.429,17760,0.006,1.681,0.014,1.705,0.022,63.9
13,33739.00,33739.00,0.00,3.080,18542,0.006,1.439,0.016,1.596,0.022,61.7
14,32349.00,32349.00,0.00,3.460,17779,0.006,1.699,0.016,1.716,0.023,66.3
15,32539.00,32539.00,0.00,3.332,17883,0.005,1.561,0.019,1.723,0.024,62.4
16,32641.00,32641.00,0.00,3.280,17940,0.007,1.562,0.019,1.667,0.025,64.3
17,32457.00,32457.00,0.00,3.518,17839,0.007,1.721,0.019,1.746,0.026,66.1
18,29323.00,29300.00,23.00,3.738,16103,0.008,1.806,0.022,1.872,0.030,62.0
19,31230.00,31178.00,52.00,3.536,17135,0.008,1.726,0.017,1.759,0.026,65.4
20,29257.00,29204.00,53.00,3.819,16049,0.007,1.864,0.018,1.901,0.029,66.2
21,29991.00,29957.00,34.00,3.956,16463,0.006,2.053,0.015,1.855,0.027,69.1
22,29914.00,29893.00,21.00,3.787,16427,0.009,1.842,0.022,1.886,0.028,66.1
23,30534.00,30525.00,9.00,4.033,16775,0.006,2.098,0.022,1.881,0.026,70.7
24,31293.00,31293.00,0.00,3.643,17198,0.006,1.853,0.016,1.744,0.024,64.9
25,31294.00,31294.00,0.00,3.564,17198,0.010,1.771,0.020,1.736,0.027,66.8
26,29717.00,29717.00,0.00,3.987,16332,0.006,2.114,0.015,1.824,0.027,68.5
27,31300.00,31300.00,0.00,3.650,17203,0.007,1.826,0.016,1.775,0.026,67.1
28,31875.00,31875.00,0.00,3.571,17519,0.005,1.747,0.017,1.774,0.028,63.7
29,32150.00,32150.00,0.00,3.482,17670,0.007,1.695,0.017,1.741,0.023,65.8
30,32680.00,32680.00,0.00,3.239,17961,0.007,1.548,0.018,1.643,0.023,63.0
31,30551.00,30551.00,0.00,3.669,16790,0.006,1.822,0.017,1.797,0.028,65.7
32,31667.00,31667.00,0.00,3.651,17404,0.007,1.816,0.016,1.783,0.029,67.3
33,31278.00,31278.00,0.00,3.585,17190,0.006,1.781,0.017,1.757,0.025,63.5
34,32075.00,32075.00,0.00,3.588,17627,0.006,1.780,0.014,1.765,0.023,64.6
35,31796.00,31796.00,0.00,3.534,17474,0.008,1.712,0.016,1.774,0.024,65.6
36,31574.00,31574.00,0.00,3.348,17352,0.006,1.583,0.017,1.722,0.021,64.7
37,31145.00,31145.00,0.00,3.679,17117,0.007,1.813,0.015,1.814,0.030,65.5
38,30942.00,30942.00,0.00,3.544,17005,0.008,1.699,0.017,1.794,0.026,62.9
39,31655.00,31655.00,0.00,3.552,17397,0.008,1.769,0.015,1.729,0.031,65.0
40,31496.00,31496.00,0.00,3.529,17309,0.007,1.726,0.018,1.749,0.029,65.1
41,31327.00,31327.00,0.00,3.377,17216,0.007,1.604,0.015,1.724,0.027,61.7
42,30379.00,30379.00,0.00,3.578,16696,0.007,1.743,0.014,1.790,0.023,62.9
43,32498.00,32498.00,0.00,3.417,17861,0.005,1.686,0.019,1.681,0.026,65.4
44,32205.00,32200.00,5.00,3.227,17697,0.008,1.541,0.015,1.642,0.022,61.3
45,31510.00,31493.00,17.00,3.419,17309,0.005,1.640,0.015,1.735,0.023,60.4
46,33514.00,33498.00,16.00,3.171,18410,0.007,1.528,0.014,1.598,0.024,63.1
47,30838.00,30817.00,21.00,3.741,16937,0.004,1.861,0.019,1.826,0.031,65.9
48,31734.00,31714.00,20.00,3.528,17430,0.008,1.703,0.016,1.781,0.021,64.6
49,32763.00,32739.00,24.00,3.444,17993,0.006,1.703,0.014,1.699,0.022,63.6
50,31693.00,31671.00,22.00,3.324,17406,0.007,1.534,0.017,1.741,0.026,61.4
51,31912.00,31897.00,15.00,3.457,17530,0.006,1.666,0.013,1.748,0.024,62.2
52,31155.00,31143.00,12.00,3.581,17116,0.007,1.755,0.018,1.775,0.026,63.4
53,30965.00,30954.00,11.00,3.315,17012,0.008,1.605,0.016,1.662,0.024,63.1
54,32602.00,32591.00,11.00,3.521,17911,0.005,1.717,0.016,1.754,0.028,64.7
55,30671.00,30663.00,8.00,3.438,16852,0.008,1.662,0.015,1.730,0.023,61.1
56,33311.00,33306.00,5.00,3.256,18305,0.007,1.565,0.015,1.643,0.026,63.8
57,31622.00,31621.00,1.00,3.613,17379,0.007,1.772,0.016,1.796,0.022,63.6
58,32853.00,32850.00,3.00,3.125,18054,0.007,1.480,0.017,1.599,0.023,61.5
59,32261.00,32260.00,1.00,3.565,17730,0.007,1.770,0.017,1.748,0.023,66.2
60,32655.00,32655.00,0.00,3.285,17947,0.007,1.601,0.014,1.644,0.020,62.1
61,32844.00,32844.00,0.00,3.420,18051,0.006,1.724,0.014,1.653,0.023,63.1
62,32012.00,32012.00,0.00,3.538,17594,0.007,1.731,0.013,1.763,0.022,64.1
63,31999.00,31999.00,0.00,3.427,17587,0.007,1.676,0.015,1.712,0.018,64.8
64,32658.00,32658.00,0.00,3.429,17949,0.006,1.669,0.016,1.717,0.021,65.6
65,33137.00,33137.00,0.00,3.263,18212,0.006,1.571,0.018,1.647,0.022,62.5
66,33066.00,33066.00,0.00,3.382,18173,0.006,1.624,0.016,1.715,0.020,63.5
67,31824.00,31824.00,0.00,3.545,17491,0.006,1.751,0.017,1.749,0.022,63.7
68,33230.00,33230.00,0.00,3.417,18263,0.007,1.688,0.013,1.685,0.024,63.3
69,31523.00,31523.00,0.00,3.657,17325,0.006,1.861,0.019,1.748,0.023,68.8
70,33304.00,33304.00,0.00,3.199,18304,0.006,1.508,0.014,1.648,0.023,60.8
71,32423.00,32423.00,0.00,3.338,17820,0.007,1.591,0.016,1.698,0.025,62.2
72,31629.00,31629.00,0.00,3.669,17383,0.006,1.826,0.018,1.796,0.024,66.8
73,33562.00,33562.00,0.00,3.254,18446,0.007,1.566,0.017,1.637,0.026,60.7
74,22343.00,22343.00,0.00,2.882,12280,0.007,1.340,0.016,1.493,0.026,49.4
75,6700.00,6700.00,0.00,0.701,3682,0.007,0.099,0.010,0.574,0.010,0.9
