Second,Ops/sec,Hits/sec,Misses/sec,Latency,KB/sec,Request_Creation_Time,Request_Buffer_Time,MW_Writes_To_Memcached_Time,Memcached_Process_Time,MW_Writes_To_Memtier_Time,Queue_Size
4,5054.00,5054.00,0.00,1.977,562,0.019,0.465,0.030,1.414,0.048,4.8
5,16765.00,16765.00,0.00,1.438,1863,0.007,0.292,0.014,1.109,0.015,3.3
6,19857.00,19857.00,0.00,1.237,2207,0.007,0.223,0.014,0.976,0.016,3.2
7,20110.00,20110.00,0.00,1.165,2234,0.008,0.268,0.015,0.858,0.016,3.7
8,18173.00,18173.00,0.00,1.297,2019,0.006,0.263,0.014,0.998,0.017,3.3
9,19879.00,19879.00,0.00,1.165,2209,0.007,0.241,0.012,0.891,0.014,3.5
10,19952.00,19929.00,23.00,1.161,2214,0.005,0.269,0.012,0.858,0.016,3.7
11,20872.00,20847.00,25.00,1.105,2315,0.006,0.232,0.015,0.837,0.015,3.0
12,20730.00,20730.00,0.00,1.110,2303,0.005,0.239,0.012,0.841,0.013,3.5
13,20344.00,20344.00,0.00,1.158,2261,0.007,0.304,0.012,0.819,0.015,4.0
14,20252.00,20252.00,0.00,1.187,2251,0.005,0.248,0.015,0.903,0.017,3.2
15,21216.00,21216.00,0.00,1.144,2357,0.006,0.239,0.013,0.871,0.016,3.6
16,21157.00,21157.00,0.00,1.096,2350,0.006,0.276,0.013,0.784,0.017,3.9
17,21379.00,21379.00,0.00,1.150,2375,0.006,0.292,0.013,0.825,0.014,3.7
18,21145.00,21145.00,0.00,1.090,2349,0.007,0.254,0.012,0.803,0.013,3.3
19,20347.00,20347.00,0.00,1.254,2261,0.006,0.293,0.014,0.925,0.016,3.3
20,22109.00,22106.00,3.00,1.033,2457,0.006,0.224,0.014,0.777,0.013,3.3
21,20517.00,20497.00,20.00,1.113,2278,0.005,0.270,0.013,0.808,0.016,3.6
22,20186.00,20171.00,15.00,1.280,2241,0.005,0.268,0.010,0.983,0.014,3.5
23,21362.00,21356.00,6.00,1.142,2373,0.004,0.320,0.016,0.789,0.014,4.0
24,21025.00,21021.00,4.00,1.155,2336,0.007,0.278,0.013,0.844,0.013,3.4
25,20771.00,20771.00,0.00,1.166,2308,0.008,0.261,0.014,0.871,0.012,3.4
26,21008.00,21008.00,0.00,1.115,2334,0.006,0.228,0.014,0.850,0.016,3.4
27,21871.00,21871.00,0.00,1.111,2431,0.006,0.223,0.012,0.858,0.013,3.2
28,21316.00,21316.00,0.00,1.120,2369,0.005,0.210,0.013,0.879,0.013,3.3
29,21899.00,21899.00,0.00,1.143,2434,0.005,0.263,0.012,0.847,0.016,3.4
30,20983.00,20983.00,0.00,1.118,2332,0.007,0.250,0.013,0.834,0.015,3.4
31,20925.00,20925.00,0.00,1.253,2325,0.005,0.309,0.014,0.911,0.014,4.0
32,20489.00,20489.00,0.00,1.164,2277,0.005,0.272,0.012,0.863,0.013,3.7
33,20291.00,20291.00,0.00,1.210,2255,0.004,0.314,0.012,0.865,0.015,3.7
34,20835.00,20835.00,0.00,1.161,2315,0.006,0.289,0.013,0.842,0.012,3.6
35,22266.00,22266.00,0.00,1.078,2474,0.006,0.274,0.012,0.771,0.015,3.4
36,21716.00,21716.00,0.00,1.100,2413,0.005,0.258,0.014,0.810,0.014,3.8
37,20291.00,20291.00,0.00,1.203,2255,0.005,0.234,0.012,0.936,0.016,3.2
38,21400.00,21400.00,0.00,1.084,2378,0.006,0.230,0.015,0.818,0.015,3.2
39,20397.00,20397.00,0.00,1.162,2266,0.005,0.241,0.012,0.893,0.012,3.2
40,20891.00,20891.00,0.00,1.234,2321,0.005,0.279,0.015,0.922,0.013,3.6
41,20422.00,20422.00,0.00,1.164,2269,0.005,0.242,0.013,0.891,0.013,3.6
42,21203.00,21203.00,0.00,1.233,2356,0.005,0.252,0.012,0.952,0.012,3.2
43,20987.00,20987.00,0.00,1.157,2332,0.005,0.266,0.011,0.863,0.012,3.4
44,21486.00,21486.00,0.00,1.070,2387,0.006,0.230,0.013,0.805,0.016,3.2
45,20672.00,20672.00,0.00,1.154,2297,0.006,0.258,0.012,0.864,0.014,3.4
46,20588.00,20587.00,1.00,1.188,2288,0.005,0.265,0.013,0.889,0.015,3.7
47,21344.00,21342.00,2.00,1.141,2371,0.005,0.234,0.011,0.876,0.016,3.4
48,20923.00,20917.00,6.00,1.089,2324,0.006,0.279,0.012,0.778,0.014,3.4
49,20479.00,20473.00,6.00,1.236,2275,0.005,0.288,0.013,0.915,0.015,3.7
50,21018.00,21010.00,8.00,1.173,2335,0.005,0.293,0.013,0.848,0.013,3.7
51,19994.00,19982.00,12.00,1.174,2220,0.005,0.233,0.012,0.912,0.012,3.2
52,20367.00,20353.00,14.00,1.262,2262,0.005,0.319,0.011,0.915,0.012,3.9
53,21257.00,21243.00,14.00,1.071,2361,0.005,0.230,0.015,0.804,0.016,3.3
54,21517.00,21496.00,21.00,1.100,2389,0.005,0.259,0.011,0.812,0.013,3.4
55,21316.00,21304.00,12.00,1.137,2367,0.005,0.249,0.012,0.855,0.015,3.2
56,21763.00,21755.00,8.00,1.106,2417,0.005,0.281,0.013,0.795,0.013,3.5
57,19619.00,19607.00,12.00,1.271,2179,0.005,0.268,0.014,0.967,0.017,3.3
58,20232.00,20226.00,6.00,1.250,2247,0.006,0.329,0.011,0.888,0.015,4.3
59,21020.00,21011.00,9.00,1.178,2335,0.005,0.247,0.012,0.899,0.014,3.3
60,20674.00,20671.00,3.00,1.220,2296,0.006,0.289,0.011,0.899,0.014,3.5
61,21454.00,21452.00,2.00,1.115,2383,0.005,0.254,0.013,0.829,0.014,3.5
62,20225.00,20221.00,4.00,1.226,2247,0.004,0.313,0.011,0.885,0.013,3.8
63,20422.00,20421.00,1.00,1.207,2269,0.006,0.289,0.014,0.880,0.018,3.6
64,20783.00,20780.00,3.00,1.105,2309,0.005,0.267,0.013,0.806,0.014,3.4
65,21408.00,21408.00,0.00,1.199,2378,0.005,0.255,0.017,0.905,0.017,3.4
66,21315.00,21315.00,0.00,1.024,2368,0.005,0.244,0.013,0.748,0.014,3.4
67,20294.00,20294.00,0.00,1.278,2255,0.004,0.258,0.014,0.987,0.016,3.3
68,20801.00,20801.00,0.00,1.238,2311,0.005,0.235,0.014,0.970,0.013,3.1
69,21854.00,21854.00,0.00,1.068,2428,0.005,0.262,0.013,0.774,0.012,3.3
70,21068.00,21068.00,0.00,1.158,2341,0.005,0.278,0.014,0.845,0.016,3.3
71,21139.00,21139.00,0.00,1.184,2349,0.005,0.255,0.012,0.899,0.012,3.6
72,20529.00,20529.00,0.00,1.196,2281,0.006,0.249,0.013,0.915,0.013,3.6
73,20588.00,20588.00,0.00,1.196,2287,0.005,0.281,0.014,0.883,0.013,3.4
74,10942.00,10942.00,0.00,1.331,1216,0.005,0.309,0.013,0.989,0.016,3.5
