Second,Ops/sec,Hits/sec,Misses/sec,Latency,KB/sec,Request_Creation_Time,Request_Buffer_Time,MW_Writes_To_Memcached_Time,Memcached_Process_Time,MW_Writes_To_Memtier_Time,Queue_Size
4,6789.00,6789.00,0.00,2.776,7133,0.017,0.669,0.045,1.991,0.054,10.2
5,23119.00,23119.00,0.00,1.945,24289,0.007,0.395,0.014,1.507,0.022,9.1
6,26323.00,26323.00,0.00,1.867,27655,0.008,0.412,0.017,1.408,0.021,10.3
7,26906.00,26906.00,0.00,1.778,28266,0.007,0.460,0.016,1.273,0.021,10.5
8,27347.00,27347.00,0.00,1.741,28729,0.008,0.373,0.015,1.326,0.020,10.4
9,27500.00,27500.00,0.00,1.851,28890,0.006,0.418,0.018,1.390,0.020,10.0
10,27471.00,27471.00,0.00,1.719,28860,0.006,0.403,0.018,1.272,0.019,10.0
11,28973.00,28973.00,0.00,1.630,30439,0.008,0.379,0.015,1.211,0.017,9.9
12,25641.00,25633.00,8.00,2.058,26930,0.007,0.538,0.020,1.473,0.021,10.4
13,26160.00,26114.00,46.00,1.974,27434,0.006,0.464,0.017,1.463,0.025,10.5
14,25837.00,25799.00,38.00,1.888,27102,0.005,0.405,0.019,1.436,0.023,9.6
15,26140.00,26136.00,4.00,1.865,27457,0.007,0.424,0.021,1.390,0.023,10.1
16,26383.00,26383.00,0.00,1.796,27717,0.005,0.402,0.019,1.346,0.025,10.2
17,26372.00,26372.00,0.00,1.889,27706,0.007,0.483,0.020,1.355,0.023,10.3
18,26163.00,26163.00,0.00,1.768,27487,0.007,0.439,0.017,1.289,0.016,10.6
19,25686.00,25686.00,0.00,1.953,26985,0.006,0.466,0.018,1.440,0.022,10.1
20,26595.00,26595.00,0.00,1.805,27940,0.006,0.491,0.017,1.265,0.025,10.8
21,25014.00,25014.00,0.00,1.940,26278,0.008,0.472,0.019,1.418,0.023,11.4
22,25964.00,25964.00,0.00,2.014,27276,0.007,0.544,0.018,1.426,0.020,12.3
23,26652.00,26652.00,0.00,1.862,27999,0.006,0.478,0.017,1.338,0.023,11.6
24,26478.00,26478.00,0.00,1.827,27817,0.007,0.416,0.021,1.360,0.022,10.8
25,26171.00,26171.00,0.00,1.864,27494,0.006,0.487,0.018,1.330,0.023,12.3
26,26298.00,26298.00,0.00,1.836,27627,0.005,0.485,0.016,1.308,0.022,11.0
27,26139.00,26138.00,1.00,2.004,27460,0.006,0.542,0.017,1.416,0.022,12.5
28,24965.00,24960.00,5.00,2.019,26222,0.005,0.541,0.017,1.431,0.024,11.2
29,26631.00,26620.00,11.00,1.797,27966,0.008,0.475,0.016,1.276,0.023,11.7
30,25987.00,25968.00,19.00,1.928,27281,0.008,0.512,0.018,1.367,0.024,12.0
31,27367.00,27344.00,23.00,1.764,28727,0.008,0.441,0.015,1.277,0.023,10.8
32,25652.00,25639.00,13.00,1.916,26935,0.008,0.495,0.016,1.378,0.019,11.3
33,26461.00,26450.00,11.00,1.878,27787,0.007,0.483,0.018,1.352,0.019,11.7
34,27833.00,27825.00,8.00,1.813,29232,0.005,0.443,0.016,1.330,0.019,10.6
35,25690.00,25686.00,4.00,1.878,26985,0.008,0.446,0.019,1.385,0.020,10.9
36,25986.00,25985.00,1.00,1.881,27299,0.007,0.510,0.014,1.325,0.024,11.5
37,26844.00,26844.00,0.00,1.873,28201,0.008,0.428,0.016,1.398,0.023,10.6
38,26000.00,26000.00,0.00,1.962,27315,0.005,0.513,0.018,1.408,0.019,12.0
39,26545.00,26545.00,0.00,1.887,27888,0.006,0.475,0.014,1.373,0.019,10.5
40,27153.00,27153.00,0.00,1.797,28526,0.004,0.474,0.018,1.282,0.019,11.1
41,25790.00,25790.00,0.00,1.954,27094,0.006,0.412,0.013,1.502,0.021,9.8
42,27042.00,27042.00,0.00,1.789,28410,0.006,0.470,0.015,1.275,0.023,10.4
43,26690.00,26690.00,0.00,1.958,28040,0.007,0.489,0.015,1.426,0.021,10.2
44,26764.00,26764.00,0.00,1.900,28118,0.006,0.421,0.018,1.434,0.020,9.6
45,27633.00,27633.00,0.00,1.798,29031,0.005,0.438,0.017,1.313,0.024,9.7
46,26036.00,26036.00,0.00,1.911,27353,0.006,0.482,0.017,1.386,0.020,10.6
47,27416.00,27416.00,0.00,1.815,28803,0.007,0.435,0.017,1.333,0.023,10.1
48,27021.00,27021.00,0.00,1.817,28388,0.006,0.410,0.016,1.364,0.020,9.9
49,26856.00,26856.00,0.00,1.779,28214,0.007,0.377,0.015,1.360,0.020,10.1
50,27675.00,27675.00,0.00,1.788,29075,0.004,0.421,0.019,1.318,0.027,9.6
51,27422.00,27422.00,0.00,1.831,28809,0.006,0.473,0.017,1.318,0.016,10.2
52,25912.00,25912.00,0.00,1.936,27223,0.005,0.488,0.016,1.404,0.024,10.9
53,27922.00,27922.00,0.00,1.749,29334,0.005,0.430,0.018,1.277,0.019,10.3
54,28679.00,28679.00,0.00,1.650,30129,0.006,0.359,0.012,1.252,0.020,10.0
55,27191.00,27191.00,0.00,1.793,28566,0.006,0.415,0.020,1.330,0.022,10.2
56,27885.00,27885.00,0.00,1.764,29295,0.006,0.415,0.017,1.308,0.018,9.7
57,27215.00,27215.00,0.00,1.861,28591,0.005,0.430,0.014,1.390,0.021,10.2
58,27919.00,27919.00,0.00,1.774,29331,0.006,0.422,0.013,1.313,0.019,9.7
59,27497.00,27497.00,0.00,1.772,28887,0.006,0.457,0.015,1.278,0.016,10.1
60,26469.00,26469.00,0.00,1.987,27807,0.006,0.528,0.017,1.413,0.023,11.0
61,27689.00,27689.00,0.00,1.780,29089,0.006,0.419,0.020,1.311,0.025,10.3
62,27336.00,27336.00,0.00,1.918,28718,0.006,0.513,0.013,1.367,0.020,11.3
63,28390.00,28390.00,0.00,1.856,29825,0.006,0.451,0.018,1.365,0.018,10.5
64,28157.00,28157.00,0.00,1.707,29581,0.005,0.374,0.014,1.292,0.022,10.0
65,27525.00,27525.00,0.00,1.746,28917,0.006,0.502,0.014,1.202,0.022,11.1
66,27399.00,27399.00,0.00,1.871,28784,0.007,0.499,0.018,1.325,0.022,11.2
67,27782.00,27782.00,0.00,1.880,29187,0.007,0.518,0.017,1.319,0.019,12.2
68,28331.00,28329.00,2.00,1.761,29762,0.005,0.393,0.016,1.327,0.020,9.3
69,28735.00,28731.00,4.00,1.630,30184,0.005,0.361,0.012,1.230,0.021,10.1
70,26553.00,26547.00,6.00,1.903,27889,0.006,0.528,0.015,1.334,0.021,12.3
71,27701.00,27698.00,3.00,1.719,29099,0.007,0.445,0.016,1.229,0.021,10.5
72,27395.00,27391.00,4.00,1.804,28776,0.006,0.457,0.015,1.304,0.021,10.1
73,26431.00,26424.00,7.00,1.943,27760,0.006,0.500,0.019,1.399,0.019,10.6
74,18219.00,18209.00,10.00,1.386,19130,0.005,0.363,0.012,0.989,0.017,9.1
75,4256.00,4254.00,2.00,0.665,4469,0.003,0.103,0.012,0.536,0.011,0.4
