Second,Ops/sec,Hits/sec,Misses/sec,Latency,KB/sec,Request_Creation_Time,Request_Buffer_Time,MW_Writes_To_Memcached_Time,Memcached_Process_Time,MW_Writes_To_Memtier_Time,Queue_Size
4,4112.00,4112.00,0.00,1.496,1232,0.025,0.261,0.057,1.120,0.032,1.4
5,13038.00,13038.00,0.00,0.937,3906,0.004,0.121,0.014,0.784,0.014,1.0
6,15769.00,15769.00,0.00,0.871,4724,0.004,0.185,0.014,0.657,0.012,1.2
7,15878.00,15878.00,0.00,0.820,4757,0.006,0.164,0.015,0.619,0.016,1.3
8,14787.00,14765.00,22.00,0.904,4423,0.006,0.186,0.015,0.684,0.014,1.3
9,15848.00,15846.00,2.00,0.875,4747,0.003,0.144,0.013,0.703,0.012,1.2
10,16729.00,16729.00,0.00,0.777,5012,0.005,0.144,0.012,0.603,0.014,1.2
11,16497.00,16497.00,0.00,0.767,4942,0.004,0.157,0.012,0.581,0.013,1.3
12,16371.00,16371.00,0.00,0.818,4904,0.005,0.158,0.013,0.628,0.013,1.4
13,16201.00,16201.00,0.00,0.814,4854,0.005,0.141,0.012,0.639,0.016,1.2
14,15137.00,15137.00,0.00,0.954,4535,0.003,0.207,0.011,0.720,0.013,1.7
15,16343.00,16333.00,10.00,0.797,4894,0.005,0.131,0.015,0.633,0.013,1.1
16,16453.00,16439.00,14.00,0.797,4925,0.004,0.136,0.013,0.629,0.014,1.2
17,16365.00,16365.00,0.00,0.808,4903,0.005,0.183,0.017,0.587,0.016,1.2
18,16206.00,16206.00,0.00,0.813,4855,0.005,0.148,0.013,0.636,0.012,1.2
19,15603.00,15603.00,0.00,0.826,4675,0.004,0.171,0.013,0.624,0.014,1.4
20,17341.00,17341.00,0.00,0.753,5195,0.004,0.153,0.013,0.568,0.015,1.2
21,16602.00,16602.00,0.00,0.829,4974,0.004,0.158,0.014,0.639,0.014,1.2
22,16252.00,16252.00,0.00,0.804,4869,0.004,0.174,0.011,0.602,0.012,1.5
23,16851.00,16851.00,0.00,0.796,5048,0.005,0.189,0.012,0.577,0.013,1.5
24,16355.00,16355.00,0.00,0.820,4900,0.005,0.152,0.013,0.635,0.016,1.1
25,15190.00,15190.00,0.00,0.849,4551,0.006,0.172,0.011,0.646,0.014,1.3
26,16698.00,16698.00,0.00,0.792,5003,0.004,0.141,0.015,0.620,0.013,1.0
27,16626.00,16626.00,0.00,0.796,4981,0.004,0.155,0.011,0.616,0.010,1.3
28,15868.00,15868.00,0.00,0.852,4754,0.003,0.205,0.010,0.622,0.012,1.5
29,16479.00,16479.00,0.00,0.821,4937,0.005,0.123,0.013,0.668,0.012,1.1
30,16940.00,16940.00,0.00,0.841,5075,0.003,0.176,0.011,0.638,0.013,1.3
31,16809.00,16809.00,0.00,0.816,5036,0.004,0.160,0.011,0.626,0.015,1.2
32,16690.00,16690.00,0.00,0.772,5000,0.005,0.137,0.013,0.603,0.015,1.1
33,16390.00,16385.00,5.00,0.844,4909,0.005,0.155,0.014,0.658,0.013,1.4
34,16773.00,16765.00,8.00,0.807,5023,0.003,0.134,0.013,0.642,0.014,1.1
35,16265.00,16252.00,13.00,0.788,4869,0.005,0.132,0.015,0.623,0.013,1.0
36,15672.00,15661.00,11.00,0.843,4692,0.005,0.151,0.015,0.659,0.014,1.2
37,17091.00,17076.00,15.00,0.765,5116,0.004,0.155,0.012,0.582,0.012,1.4
38,17311.00,17294.00,17.00,0.781,5181,0.005,0.147,0.010,0.604,0.015,1.3
39,16553.00,16550.00,3.00,0.836,4958,0.004,0.161,0.011,0.649,0.012,1.3
40,16607.00,16607.00,0.00,0.800,4975,0.005,0.165,0.011,0.607,0.012,1.3
41,16971.00,16971.00,0.00,0.816,5084,0.004,0.155,0.013,0.633,0.012,1.3
42,17371.00,17371.00,0.00,0.773,5204,0.004,0.159,0.011,0.583,0.016,1.4
43,16616.00,16616.00,0.00,0.765,4978,0.005,0.140,0.013,0.596,0.011,1.2
44,16586.00,16586.00,0.00,0.824,4969,0.003,0.136,0.012,0.661,0.012,1.2
45,16661.00,16661.00,0.00,0.784,4992,0.005,0.130,0.012,0.622,0.015,1.1
46,16563.00,16563.00,0.00,0.803,4962,0.004,0.130,0.013,0.645,0.011,1.1
47,16055.00,16055.00,0.00,0.852,4810,0.004,0.177,0.014,0.644,0.014,1.3
48,17093.00,17093.00,0.00,0.754,5121,0.004,0.167,0.013,0.559,0.012,1.4
49,16710.00,16710.00,0.00,0.842,5006,0.005,0.132,0.013,0.682,0.010,1.2
50,16495.00,16495.00,0.00,0.797,4942,0.004,0.142,0.013,0.625,0.012,1.1
51,16678.00,16678.00,0.00,0.757,4997,0.004,0.126,0.013,0.598,0.015,1.1
52,15972.00,15972.00,0.00,0.834,4785,0.003,0.155,0.012,0.649,0.014,1.4
53,16480.00,16480.00,0.00,0.834,4937,0.003,0.169,0.014,0.635,0.013,1.3
54,16762.00,16762.00,0.00,0.787,5022,0.004,0.170,0.013,0.588,0.011,1.4
55,16396.00,16396.00,0.00,0.750,4912,0.005,0.092,0.013,0.628,0.013,0.9
56,16215.00,16215.00,0.00,0.870,4858,0.005,0.154,0.010,0.687,0.015,1.2
57,17219.00,17219.00,0.00,0.770,5159,0.004,0.134,0.012,0.607,0.012,1.2
58,16177.00,16177.00,0.00,0.836,4846,0.003,0.159,0.012,0.645,0.017,1.2
59,16441.00,16441.00,0.00,0.803,4926,0.005,0.150,0.015,0.619,0.014,1.2
60,16658.00,16658.00,0.00,0.775,4990,0.005,0.140,0.012,0.605,0.013,1.1
61,16245.00,16245.00,0.00,0.815,4867,0.005,0.130,0.014,0.650,0.016,1.0
62,16133.00,16133.00,0.00,0.790,4833,0.005,0.173,0.012,0.588,0.013,1.2
63,16447.00,16447.00,0.00,0.817,4927,0.004,0.164,0.016,0.619,0.014,1.3
64,15655.00,15655.00,0.00,0.826,4690,0.004,0.142,0.013,0.654,0.012,1.2
65,15687.00,15687.00,0.00,0.850,4699,0.004,0.184,0.012,0.637,0.013,1.3
66,16530.00,16530.00,0.00,0.831,4952,0.005,0.137,0.013,0.661,0.015,1.1
67,16474.00,16474.00,0.00,0.820,4935,0.004,0.154,0.012,0.637,0.014,1.3
68,16357.00,16357.00,0.00,0.771,4900,0.005,0.129,0.013,0.609,0.014,1.1
69,16066.00,16066.00,0.00,0.809,4813,0.003,0.171,0.014,0.606,0.014,1.2
70,16396.00,16396.00,0.00,0.795,4912,0.004,0.150,0.013,0.616,0.012,1.3
71,16329.00,16329.00,0.00,0.763,4891,0.006,0.127,0.012,0.604,0.014,1.1
72,16640.00,16640.00,0.00,0.810,4985,0.004,0.157,0.014,0.618,0.017,1.1
73,15506.00,15506.00,0.00,0.890,4645,0.005,0.178,0.013,0.679,0.015,1.3
74,8545.00,8545.00,0.00,0.774,2560,0.006,0.164,0.013,0.580,0.011,1.2
