Second,Ops/sec,Hits/sec,Misses/sec,Latency,KB/sec,Request_Creation_Time,Request_Buffer_Time,MW_Writes_To_Memcached_Time,Memcached_Process_Time,MW_Writes_To_Memtier_Time,Queue_Size
4,1611.00,1611.00,0.00,2.228,483,0.019,1.090,0.029,1.049,0.040,8.5
5,10826.00,10826.00,0.00,1.458,3244,0.005,0.731,0.009,0.700,0.014,8.8
6,12495.00,12495.00,0.00,1.407,3743,0.004,0.769,0.007,0.614,0.013,10.1
7,12201.00,12201.00,0.00,1.450,3655,0.004,0.796,0.007,0.630,0.013,10.0
8,11929.00,11929.00,0.00,1.464,3574,0.003,0.803,0.007,0.638,0.013,9.8
9,12693.00,12674.00,19.00,1.338,3797,0.003,0.713,0.007,0.602,0.013,9.5
10,10489.00,10484.00,5.00,1.659,3140,0.003,0.906,0.006,0.732,0.012,9.7
11,9758.00,9758.00,0.00,1.733,2923,0.003,0.936,0.006,0.776,0.012,9.7
12,13270.00,13270.00,0.00,1.329,3976,0.003,0.727,0.006,0.582,0.012,10.0
13,11889.00,11889.00,0.00,1.507,3562,0.003,0.835,0.006,0.651,0.012,9.9
14,13483.00,13483.00,0.00,1.281,4039,0.003,0.693,0.006,0.567,0.012,9.7
15,12290.00,12290.00,0.00,1.454,3682,0.003,0.806,0.006,0.626,0.012,10.1
16,12673.00,12673.00,0.00,1.321,3797,0.003,0.710,0.006,0.590,0.013,9.6
17,12920.00,12920.00,0.00,1.356,3870,0.003,0.741,0.006,0.594,0.013,10.0
18,12661.00,12660.00,1.00,1.386,3793,0.003,0.756,0.006,0.609,0.013,9.8
19,12569.00,12548.00,21.00,1.374,3759,0.003,0.744,0.006,0.610,0.012,9.4
20,13259.00,13257.00,2.00,1.270,3971,0.003,0.680,0.006,0.570,0.012,9.4
21,13193.00,13193.00,0.00,1.280,3953,0.003,0.680,0.006,0.579,0.012,9.5
22,13362.00,13362.00,0.00,1.303,4003,0.003,0.704,0.006,0.578,0.012,9.6
23,12984.00,12984.00,0.00,1.335,3890,0.003,0.723,0.006,0.591,0.012,9.6
24,12120.00,12120.00,0.00,1.467,3631,0.003,0.809,0.006,0.637,0.012,10.0
25,13172.00,13172.00,0.00,1.310,3946,0.003,0.705,0.006,0.583,0.013,9.6
26,12496.00,12496.00,0.00,1.378,3744,0.003,0.751,0.006,0.606,0.012,9.9
27,12019.00,12019.00,0.00,1.404,3601,0.003,0.755,0.006,0.628,0.012,9.5
28,12512.00,12512.00,0.00,1.431,3749,0.003,0.789,0.006,0.620,0.012,9.9
29,12517.00,12517.00,0.00,1.406,3750,0.003,0.772,0.006,0.613,0.012,9.8
30,13510.00,13510.00,0.00,1.277,4048,0.003,0.686,0.006,0.569,0.012,9.9
31,13258.00,13258.00,0.00,1.270,3972,0.003,0.675,0.006,0.574,0.012,9.4
32,12924.00,12924.00,0.00,1.323,3872,0.003,0.716,0.006,0.586,0.012,9.7
33,12773.00,12773.00,0.00,1.347,3827,0.003,0.727,0.006,0.599,0.013,9.7
34,12525.00,12525.00,0.00,1.376,3752,0.003,0.747,0.006,0.607,0.012,9.5
35,12701.00,12701.00,0.00,1.367,3805,0.003,0.742,0.006,0.604,0.012,9.6
36,12393.00,12393.00,0.00,1.421,3713,0.003,0.781,0.006,0.618,0.013,10.1
37,11055.00,11055.00,0.00,1.597,3312,0.003,0.883,0.006,0.693,0.013,9.9
38,12839.00,12839.00,0.00,1.345,3846,0.003,0.732,0.006,0.592,0.012,9.9
39,12862.00,12862.00,0.00,1.299,3853,0.003,0.692,0.006,0.586,0.012,9.6
40,12606.00,12606.00,0.00,1.376,3776,0.003,0.742,0.006,0.612,0.013,9.7
41,12405.00,12405.00,0.00,1.410,3716,0.003,0.770,0.006,0.619,0.012,10.1
42,12612.00,12609.00,3.00,1.362,3778,0.003,0.743,0.006,0.598,0.013,9.8
43,12900.00,12889.00,11.00,1.363,3862,0.003,0.749,0.006,0.595,0.012,9.7
44,13098.00,13088.00,10.00,1.340,3921,0.003,0.730,0.006,0.589,0.012,9.9
45,12709.00,12704.00,5.00,1.390,3806,0.003,0.764,0.006,0.605,0.012,9.9
46,12442.00,12430.00,12.00,1.403,3724,0.003,0.764,0.006,0.618,0.013,9.9
47,11887.00,11867.00,20.00,1.460,3555,0.003,0.807,0.006,0.632,0.012,9.8
48,12624.00,12617.00,7.00,1.373,3780,0.003,0.746,0.006,0.606,0.013,9.7
49,12161.00,12157.00,4.00,1.414,3642,0.002,0.777,0.007,0.615,0.013,9.8
50,12714.00,12714.00,0.00,1.398,3809,0.002,0.770,0.006,0.607,0.012,10.0
51,12426.00,12426.00,0.00,1.413,3723,0.003,0.773,0.006,0.619,0.013,10.1
52,12138.00,12138.00,0.00,1.460,3636,0.003,0.812,0.006,0.628,0.012,10.1
53,12098.00,12098.00,0.00,1.425,3624,0.003,0.777,0.006,0.626,0.013,9.5
54,12122.00,12122.00,0.00,1.418,3631,0.003,0.773,0.006,0.624,0.012,10.0
55,13319.00,13319.00,0.00,1.319,3990,0.003,0.718,0.006,0.580,0.013,10.1
56,12683.00,12683.00,0.00,1.412,3800,0.003,0.782,0.006,0.609,0.013,10.3
57,13110.00,13110.00,0.00,1.328,3928,0.002,0.721,0.006,0.584,0.013,9.9
58,12124.00,12124.00,0.00,1.403,3632,0.003,0.757,0.006,0.626,0.012,9.5
59,12536.00,12536.00,0.00,1.413,3755,0.003,0.775,0.007,0.616,0.013,10.0
60,13175.00,13175.00,0.00,1.257,3947,0.003,0.669,0.006,0.567,0.013,9.8
61,13755.00,13755.00,0.00,1.246,4121,0.003,0.669,0.006,0.556,0.012,9.7
62,12367.00,12367.00,0.00,1.419,3705,0.003,0.782,0.006,0.615,0.013,10.1
63,12701.00,12701.00,0.00,1.383,3805,0.003,0.760,0.006,0.602,0.013,9.9
64,13456.00,13456.00,0.00,1.292,4031,0.002,0.699,0.006,0.571,0.014,10.0
65,12268.00,12268.00,0.00,1.430,3675,0.003,0.780,0.006,0.629,0.012,9.9
66,12953.00,12953.00,0.00,1.325,3881,0.003,0.715,0.006,0.588,0.013,9.9
67,12466.00,12466.00,0.00,1.416,3735,0.003,0.776,0.007,0.617,0.014,10.0
68,12789.00,12789.00,0.00,1.361,3832,0.002,0.740,0.006,0.600,0.012,9.6
69,12775.00,12775.00,0.00,1.323,3827,0.003,0.710,0.006,0.592,0.012,9.7
70,12676.00,12676.00,0.00,1.366,3798,0.003,0.737,0.006,0.606,0.013,9.7
71,11859.00,11859.00,0.00,1.417,3553,0.003,0.756,0.006,0.639,0.013,9.5
72,12319.00,12319.00,0.00,1.407,3690,0.002,0.771,0.006,0.615,0.012,9.9
73,12950.00,12950.00,0.00,1.307,3879,0.003,0.704,0.006,0.581,0.012,9.5
74,9212.00,9212.00,0.00,1.373,2760,0.003,0.736,0.006,0.615,0.013,9.5
