Second,Ops/sec,Hits/sec,Misses/sec,Latency,KB/sec,Request_Creation_Time,Request_Buffer_Time,MW_Writes_To_Memcached_Time,Memcached_Process_Time,MW_Writes_To_Memtier_Time,Queue_Size
4,3803.00,3803.00,0.00,2.791,2091,0.020,1.236,0.035,1.464,0.037,19.9
5,21554.00,21554.00,0.00,2.649,11847,0.007,1.307,0.014,1.300,0.021,31.8
6,26696.00,26696.00,0.00,2.194,14672,0.007,1.098,0.011,1.063,0.014,32.5
7,26170.00,26170.00,0.00,2.177,14383,0.006,1.064,0.012,1.079,0.016,31.9
8,27748.00,27748.00,0.00,2.084,15249,0.006,1.047,0.011,1.007,0.014,33.1
9,27764.00,27764.00,0.00,2.070,15259,0.006,1.014,0.012,1.022,0.017,33.0
10,26960.00,26960.00,0.00,2.161,14817,0.004,1.080,0.011,1.047,0.019,32.2
11,27367.00,27367.00,0.00,2.188,15041,0.005,1.118,0.008,1.042,0.015,32.5
12,26560.00,26559.00,1.00,2.263,14597,0.004,1.142,0.012,1.088,0.018,33.2
13,25614.00,25576.00,38.00,2.290,14056,0.006,1.149,0.016,1.101,0.018,33.2
14,26170.00,26120.00,50.00,2.237,14354,0.005,1.130,0.012,1.072,0.018,33.6
15,27915.00,27908.00,7.00,1.963,15336,0.005,0.914,0.012,1.011,0.021,32.1
16,26160.00,26160.00,0.00,2.424,14377,0.004,1.260,0.012,1.129,0.020,33.3
17,26972.00,26972.00,0.00,2.250,14824,0.004,1.133,0.012,1.084,0.017,33.9
18,25919.00,25919.00,0.00,2.244,14245,0.005,1.110,0.014,1.099,0.017,33.6
19,26649.00,26649.00,0.00,2.263,14646,0.006,1.144,0.013,1.082,0.018,33.6
20,25764.00,25764.00,0.00,2.338,14159,0.005,1.172,0.011,1.133,0.017,33.7
21,26330.00,26330.00,0.00,2.202,14470,0.006,1.083,0.016,1.079,0.018,32.2
22,26301.00,26301.00,0.00,2.320,14454,0.006,1.165,0.012,1.122,0.014,33.6
23,27540.00,27540.00,0.00,2.151,15135,0.006,1.076,0.013,1.037,0.018,32.2
24,27801.00,27801.00,0.00,2.071,15279,0.005,1.019,0.012,1.015,0.020,32.9
25,26771.00,26771.00,0.00,2.059,14713,0.007,0.989,0.012,1.034,0.017,32.0
26,26277.00,26277.00,0.00,2.212,14441,0.006,1.121,0.011,1.060,0.015,33.1
27,27312.00,27312.00,0.00,2.191,15010,0.004,1.094,0.014,1.061,0.019,33.9
28,26924.00,26920.00,4.00,2.102,14795,0.006,1.020,0.012,1.045,0.019,30.5
29,26419.00,26404.00,15.00,2.344,14512,0.004,1.218,0.009,1.097,0.015,33.7
30,27240.00,27219.00,21.00,2.016,14960,0.005,0.952,0.011,1.027,0.021,31.3
31,28074.00,28046.00,28.00,2.064,15414,0.005,1.025,0.010,1.010,0.014,33.3
32,26478.00,26466.00,12.00,2.334,14545,0.005,1.218,0.012,1.084,0.015,34.7
33,27522.00,27511.00,11.00,1.971,15120,0.005,0.929,0.011,1.007,0.019,32.0
34,26785.00,26781.00,4.00,2.176,14718,0.006,1.063,0.012,1.078,0.017,31.7
35,27077.00,27076.00,1.00,2.152,14881,0.006,1.062,0.011,1.053,0.020,32.9
36,26243.00,26243.00,0.00,2.269,14423,0.006,1.124,0.013,1.112,0.014,32.9
37,27673.00,27673.00,0.00,2.158,15209,0.006,1.090,0.010,1.038,0.015,33.8
38,27718.00,27718.00,0.00,2.070,15234,0.005,1.007,0.011,1.030,0.017,32.9
39,26829.00,26829.00,0.00,2.225,14745,0.006,1.114,0.012,1.078,0.016,32.1
40,26809.00,26809.00,0.00,2.243,14734,0.005,1.144,0.012,1.068,0.015,34.3
41,26817.00,26817.00,0.00,2.128,14739,0.005,1.030,0.014,1.060,0.019,32.5
42,26347.00,26347.00,0.00,2.272,14480,0.005,1.130,0.011,1.108,0.018,33.9
43,27689.00,27689.00,0.00,2.050,15218,0.006,0.996,0.009,1.023,0.016,31.0
44,28125.00,28125.00,0.00,2.011,15458,0.006,0.975,0.011,1.004,0.015,31.8
45,27493.00,27493.00,0.00,2.128,15110,0.004,1.043,0.011,1.052,0.018,32.7
46,26354.00,26354.00,0.00,2.277,14484,0.005,1.164,0.009,1.083,0.016,33.4
47,27644.00,27644.00,0.00,2.102,15193,0.005,1.039,0.011,1.030,0.018,32.8
48,26245.00,26245.00,0.00,2.281,14424,0.006,1.149,0.011,1.099,0.017,34.3
49,27085.00,27085.00,0.00,2.189,14886,0.005,1.095,0.011,1.062,0.016,33.1
50,27411.00,27411.00,0.00,2.046,15065,0.005,0.981,0.012,1.030,0.018,31.5
51,26261.00,26261.00,0.00,2.344,14433,0.005,1.198,0.011,1.112,0.017,34.1
52,27804.00,27804.00,0.00,2.167,15281,0.004,1.101,0.009,1.037,0.015,32.7
53,27119.00,27119.00,0.00,2.078,14904,0.004,0.998,0.009,1.048,0.018,31.6
54,26709.00,26709.00,0.00,2.267,14679,0.004,1.153,0.010,1.085,0.015,33.2
55,26947.00,26947.00,0.00,2.250,14810,0.004,1.134,0.010,1.085,0.017,33.2
56,27478.00,27478.00,0.00,2.114,15102,0.005,1.037,0.010,1.046,0.016,32.7
57,27637.00,27637.00,0.00,2.096,15189,0.006,1.031,0.010,1.032,0.018,32.1
58,26818.00,26818.00,0.00,2.278,14739,0.004,1.158,0.012,1.089,0.015,31.8
59,27721.00,27721.00,0.00,2.114,15235,0.006,1.049,0.009,1.032,0.018,32.4
60,27069.00,27069.00,0.00,2.175,14877,0.005,1.073,0.010,1.068,0.018,33.4
61,27090.00,27090.00,0.00,2.164,14888,0.004,1.082,0.010,1.055,0.014,31.8
62,27211.00,27211.00,0.00,2.189,14955,0.005,1.094,0.010,1.066,0.015,33.3
63,26671.00,26671.00,0.00,2.146,14658,0.006,1.055,0.012,1.059,0.014,32.5
64,27174.00,27174.00,0.00,2.146,14934,0.005,1.066,0.012,1.047,0.018,32.6
65,28122.00,28122.00,0.00,2.054,15455,0.005,0.995,0.011,1.027,0.016,32.5
66,27166.00,27166.00,0.00,2.275,14930,0.005,1.164,0.012,1.078,0.017,33.8
67,27405.00,27405.00,0.00,2.150,15061,0.004,1.065,0.011,1.056,0.014,33.9
68,27544.00,27544.00,0.00,2.020,15138,0.007,0.978,0.010,1.009,0.016,31.9
69,26761.00,26761.00,0.00,2.220,14708,0.005,1.126,0.012,1.057,0.020,33.2
70,27664.00,27658.00,6.00,2.060,15201,0.005,0.995,0.010,1.033,0.016,33.1
71,26993.00,26988.00,5.00,2.217,14833,0.006,1.105,0.013,1.076,0.016,32.0
72,27301.00,27297.00,4.00,2.196,15002,0.004,1.125,0.011,1.041,0.015,33.4
73,27925.00,27917.00,8.00,2.071,15343,0.007,1.023,0.010,1.015,0.016,33.1
74,19072.00,19065.00,7.00,2.174,10478,0.005,1.114,0.009,1.031,0.016,31.1
75,479.00,479.00,0.00,0.780,263,0.012,0.082,0.021,0.649,0.017,0.0
