Second,Ops/sec,Hits/sec,Misses/sec,Latency,KB/sec,Request_Creation_Time,Request_Buffer_Time,MW_Writes_To_Memcached_Time,Memcached_Process_Time,MW_Writes_To_Memtier_Time,Queue_Size
4,5033.00,5033.00,0.00,2.231,560,0.018,0.583,0.045,1.536,0.049,5.1
5,18321.00,18321.00,0.00,1.426,2036,0.008,0.350,0.018,1.033,0.017,3.6
6,20413.00,20413.00,0.00,1.326,2268,0.005,0.332,0.015,0.959,0.015,3.9
7,20163.00,20163.00,0.00,1.250,2240,0.007,0.311,0.017,0.898,0.017,3.8
8,19075.00,19075.00,0.00,1.345,2119,0.006,0.297,0.020,1.000,0.022,3.5
9,19839.00,19839.00,0.00,1.346,2205,0.006,0.321,0.016,0.985,0.018,3.8
10,19820.00,19793.00,27.00,1.374,2199,0.006,0.329,0.019,0.994,0.026,4.1
11,20538.00,20517.00,21.00,1.248,2279,0.005,0.343,0.017,0.869,0.015,4.0
12,20968.00,20968.00,0.00,1.318,2329,0.006,0.282,0.013,0.999,0.017,3.7
13,21306.00,21306.00,0.00,1.230,2368,0.006,0.318,0.015,0.874,0.017,3.9
14,21310.00,21310.00,0.00,1.239,2368,0.005,0.321,0.015,0.877,0.022,3.6
15,20603.00,20603.00,0.00,1.335,2289,0.005,0.348,0.015,0.951,0.016,4.2
16,20769.00,20769.00,0.00,1.325,2307,0.005,0.346,0.018,0.941,0.015,4.5
17,20266.00,20266.00,0.00,1.271,2252,0.006,0.299,0.018,0.931,0.018,3.5
18,21351.00,21351.00,0.00,1.218,2372,0.007,0.322,0.012,0.861,0.015,4.0
19,21167.00,21167.00,0.00,1.298,2352,0.006,0.331,0.014,0.927,0.020,3.8
20,21284.00,21276.00,8.00,1.252,2364,0.005,0.357,0.014,0.861,0.015,4.4
21,19718.00,19703.00,15.00,1.292,2190,0.006,0.359,0.015,0.895,0.016,4.0
22,20974.00,20954.00,20.00,1.265,2328,0.006,0.350,0.016,0.874,0.019,4.2
23,20093.00,20089.00,4.00,1.359,2232,0.004,0.422,0.016,0.900,0.017,4.5
24,20741.00,20740.00,1.00,1.292,2304,0.006,0.319,0.017,0.931,0.020,4.1
25,20350.00,20350.00,0.00,1.295,2261,0.006,0.336,0.014,0.920,0.019,4.1
26,20866.00,20866.00,0.00,1.294,2319,0.005,0.332,0.014,0.927,0.016,4.3
27,20374.00,20374.00,0.00,1.396,2264,0.003,0.363,0.016,0.996,0.018,4.4
28,20648.00,20648.00,0.00,1.302,2295,0.004,0.402,0.016,0.864,0.017,4.5
29,20855.00,20855.00,0.00,1.332,2318,0.003,0.345,0.014,0.947,0.022,3.8
30,20968.00,20968.00,0.00,1.242,2330,0.005,0.345,0.015,0.862,0.014,4.0
31,21002.00,21002.00,0.00,1.268,2334,0.004,0.353,0.014,0.882,0.015,4.6
32,21300.00,21300.00,0.00,1.280,2367,0.005,0.311,0.015,0.931,0.018,3.6
33,20517.00,20517.00,0.00,1.347,2280,0.005,0.273,0.014,1.036,0.019,3.4
34,20794.00,20794.00,0.00,1.278,2311,0.005,0.319,0.015,0.921,0.018,3.6
35,21269.00,21269.00,0.00,1.222,2363,0.006,0.306,0.013,0.880,0.016,3.8
36,21014.00,21014.00,0.00,1.290,2335,0.004,0.290,0.016,0.961,0.020,3.8
37,21173.00,21173.00,0.00,1.260,2353,0.005,0.359,0.014,0.866,0.016,4.1
38,21288.00,21288.00,0.00,1.265,2365,0.006,0.328,0.016,0.898,0.017,3.7
39,20845.00,20845.00,0.00,1.337,2316,0.005,0.314,0.018,0.983,0.018,3.8
40,20560.00,20560.00,0.00,1.299,2285,0.006,0.331,0.012,0.932,0.018,3.8
41,20336.00,20336.00,0.00,1.329,2260,0.005,0.319,0.015,0.968,0.023,4.1
42,20289.00,20289.00,0.00,1.348,2254,0.005,0.358,0.015,0.950,0.020,4.3
43,21550.00,21550.00,0.00,1.212,2394,0.006,0.301,0.015,0.875,0.015,3.8
44,21446.00,21446.00,0.00,1.245,2383,0.006,0.336,0.017,0.867,0.019,4.0
45,20104.00,20104.00,0.00,1.333,2234,0.006,0.333,0.014,0.964,0.016,3.5
46,20608.00,20608.00,0.00,1.303,2290,0.004,0.319,0.014,0.947,0.018,4.1
47,20981.00,20980.00,1.00,1.285,2331,0.005,0.378,0.015,0.870,0.017,4.5
48,19995.00,19990.00,5.00,1.267,2221,0.005,0.350,0.016,0.880,0.015,4.0
49,21347.00,21342.00,5.00,1.247,2372,0.006,0.329,0.015,0.880,0.017,3.9
50,21192.00,21184.00,8.00,1.195,2354,0.006,0.323,0.016,0.827,0.023,4.2
51,20992.00,20982.00,10.00,1.193,2332,0.006,0.300,0.014,0.856,0.017,3.7
52,21060.00,21047.00,13.00,1.341,2339,0.005,0.309,0.017,0.991,0.020,3.9
53,21419.00,21398.00,21.00,1.208,2378,0.005,0.349,0.016,0.821,0.018,3.9
54,20881.00,20866.00,15.00,1.249,2319,0.005,0.303,0.014,0.911,0.016,3.9
55,21336.00,21324.00,12.00,1.291,2369,0.005,0.343,0.015,0.908,0.019,4.0
56,21181.00,21167.00,14.00,1.263,2352,0.004,0.325,0.015,0.899,0.020,4.0
57,21112.00,21096.00,16.00,1.261,2344,0.004,0.317,0.015,0.907,0.017,3.7
58,21386.00,21375.00,11.00,1.302,2375,0.004,0.318,0.015,0.946,0.019,3.7
59,20829.00,20822.00,7.00,1.206,2313,0.007,0.288,0.018,0.873,0.019,3.6
60,20530.00,20528.00,2.00,1.257,2281,0.006,0.316,0.016,0.901,0.018,3.6
61,21454.00,21452.00,2.00,1.268,2383,0.005,0.282,0.016,0.947,0.018,3.7
62,20776.00,20775.00,1.00,1.384,2308,0.005,0.347,0.018,0.996,0.018,4.1
63,21244.00,21243.00,1.00,1.156,2360,0.005,0.290,0.015,0.828,0.019,3.9
64,21664.00,21664.00,0.00,1.258,2407,0.005,0.302,0.017,0.919,0.015,4.0
65,21440.00,21440.00,0.00,1.256,2382,0.007,0.339,0.016,0.875,0.019,4.0
66,20536.00,20536.00,0.00,1.240,2281,0.006,0.281,0.014,0.920,0.019,3.7
67,20882.00,20882.00,0.00,1.375,2320,0.006,0.282,0.015,1.051,0.023,3.3
68,22000.00,22000.00,0.00,1.176,2444,0.006,0.332,0.013,0.809,0.016,4.0
69,21181.00,21181.00,0.00,1.312,2353,0.005,0.326,0.012,0.952,0.017,3.8
70,21557.00,21557.00,0.00,1.326,2395,0.005,0.291,0.018,0.994,0.018,4.3
71,22250.00,22250.00,0.00,1.190,2472,0.006,0.294,0.015,0.854,0.021,3.8
72,20953.00,20953.00,0.00,1.341,2328,0.005,0.314,0.014,0.995,0.014,4.0
73,21394.00,21394.00,0.00,1.310,2377,0.005,0.304,0.015,0.970,0.017,3.8
74,11180.00,11180.00,0.00,1.170,1242,0.006,0.366,0.014,0.771,0.012,3.7
