Second,Ops/sec,Hits/sec,Misses/sec,Latency,KB/sec,Request_Creation_Time,Request_Buffer_Time,MW_Writes_To_Memcached_Time,Memcached_Process_Time,MW_Writes_To_Memtier_Time,Queue_Size
4,1661.00,1661.00,0.00,5.190,913,0.021,4.221,0.015,0.883,0.050,42.2
5,10983.00,10983.00,0.00,14.682,6038,0.005,13.953,0.010,0.697,0.016,156.5
6,13962.00,13962.00,0.00,13.192,7674,0.004,12.617,0.007,0.552,0.013,176.3
7,13151.00,13151.00,0.00,13.967,7229,0.004,13.357,0.006,0.586,0.013,176.9
8,12730.00,12730.00,0.00,14.464,6996,0.003,13.835,0.007,0.607,0.013,175.5
9,13536.00,13536.00,0.00,13.602,7439,0.003,13.011,0.007,0.568,0.013,177.2
10,9284.00,9284.00,0.00,19.780,5102,0.003,18.916,0.006,0.841,0.014,176.1
11,12514.00,12514.00,0.00,14.708,6878,0.003,14.066,0.006,0.620,0.013,176.4
12,13437.00,13437.00,0.00,13.724,7386,0.003,13.126,0.006,0.577,0.013,177.0
13,12205.00,12205.00,0.00,15.073,6709,0.003,14.416,0.006,0.636,0.012,176.5
14,12905.00,12905.00,0.00,14.235,7091,0.003,13.614,0.006,0.600,0.012,175.6
15,13285.00,13285.00,0.00,13.765,7302,0.003,13.160,0.006,0.583,0.013,175.5
16,12604.00,12604.00,0.00,14.575,6928,0.003,13.939,0.006,0.615,0.013,176.7
17,14172.00,14172.00,0.00,13.007,7789,0.003,12.440,0.006,0.546,0.012,176.6
18,13704.00,13704.00,0.00,13.456,7529,0.003,12.871,0.006,0.565,0.012,176.9
19,12503.00,12503.00,0.00,14.720,6871,0.003,14.078,0.006,0.621,0.012,176.0
20,12927.00,12927.00,0.00,14.249,7104,0.003,13.628,0.006,0.600,0.012,176.1
21,14486.00,14486.00,0.00,12.687,7961,0.002,12.133,0.006,0.534,0.012,176.4
22,12926.00,12926.00,0.00,14.284,7105,0.003,13.664,0.006,0.599,0.013,177.2
23,13739.00,13739.00,0.00,13.410,7551,0.003,12.826,0.006,0.564,0.012,176.5
24,13668.00,13668.00,0.00,13.383,7512,0.002,12.796,0.006,0.566,0.012,175.7
25,13632.00,13632.00,0.00,13.550,7492,0.003,12.961,0.006,0.569,0.012,176.8
26,12803.00,12803.00,0.00,14.466,7035,0.003,13.840,0.006,0.605,0.013,177.2
27,14109.00,14109.00,0.00,12.909,7754,0.003,12.340,0.006,0.548,0.013,175.2
28,13293.00,13293.00,0.00,13.900,7306,0.003,13.297,0.006,0.583,0.012,177.1
29,13450.00,13450.00,0.00,13.716,7392,0.003,13.119,0.006,0.576,0.012,177.2
30,13876.00,13876.00,0.00,13.222,7626,0.002,12.643,0.006,0.558,0.012,176.0
31,14055.00,14055.00,0.00,13.066,7725,0.003,12.498,0.006,0.547,0.012,177.1
32,12937.00,12937.00,0.00,14.246,7111,0.003,13.622,0.006,0.603,0.012,175.4
33,13798.00,13798.00,0.00,13.293,7583,0.003,12.711,0.006,0.561,0.013,176.4
34,13672.00,13672.00,0.00,13.505,7515,0.002,12.918,0.006,0.566,0.012,176.9
35,13093.00,13093.00,0.00,14.104,7196,0.003,13.491,0.006,0.592,0.013,176.9
36,13375.00,13375.00,0.00,13.767,7351,0.003,13.166,0.007,0.578,0.012,177.1
37,13254.00,13254.00,0.00,13.929,7285,0.003,13.324,0.006,0.584,0.013,177.1
38,13334.00,13334.00,0.00,13.785,7329,0.003,13.182,0.006,0.581,0.013,175.9
39,13397.00,13397.00,0.00,13.776,7362,0.003,13.177,0.006,0.577,0.013,176.7
40,12946.00,12946.00,0.00,14.086,7114,0.003,13.467,0.006,0.598,0.013,175.5
41,12921.00,12783.00,138.00,14.280,7026,0.003,13.659,0.008,0.597,0.013,176.5
42,14337.00,14283.00,54.00,12.699,7849,0.003,12.140,0.006,0.538,0.012,174.9
43,12943.00,12943.00,0.00,14.141,7112,0.003,13.522,0.006,0.597,0.014,175.9
44,12984.00,12984.00,0.00,14.210,7136,0.003,13.591,0.006,0.596,0.013,176.7
45,13357.00,13357.00,0.00,13.686,7341,0.003,13.085,0.006,0.580,0.013,175.3
46,13169.00,13169.00,0.00,14.034,7235,0.003,13.425,0.006,0.588,0.013,177.4
47,13404.00,13404.00,0.00,13.845,7365,0.003,13.246,0.006,0.577,0.013,177.7
48,13604.00,13604.00,0.00,13.500,7477,0.003,12.911,0.006,0.568,0.013,176.4
49,13259.00,13259.00,0.00,13.883,7287,0.003,13.278,0.006,0.584,0.013,176.8
50,12993.00,12993.00,0.00,14.253,7140,0.003,13.636,0.006,0.596,0.013,177.2
51,13152.00,13152.00,0.00,13.923,7228,0.003,13.312,0.006,0.589,0.013,175.5
52,13863.00,13863.00,0.00,13.318,7619,0.003,12.739,0.006,0.557,0.013,177.7
53,13621.00,13621.00,0.00,13.578,7487,0.003,12.989,0.006,0.568,0.013,177.1
54,13677.00,13677.00,0.00,13.337,7516,0.003,12.750,0.006,0.567,0.012,175.2
55,13555.00,13555.00,0.00,13.639,7449,0.003,13.047,0.006,0.571,0.013,177.1
56,12908.00,12908.00,0.00,14.318,7094,0.003,13.696,0.007,0.599,0.013,177.5
57,12742.00,12742.00,0.00,14.535,7003,0.003,13.905,0.006,0.608,0.013,177.8
58,13229.00,13229.00,0.00,14.035,7271,0.003,13.429,0.006,0.585,0.013,177.3
59,12752.00,12752.00,0.00,14.467,7009,0.003,13.837,0.006,0.609,0.012,176.7
60,13340.00,13340.00,0.00,13.892,7332,0.003,13.290,0.006,0.581,0.012,177.1
61,13824.00,13824.00,0.00,13.338,7599,0.003,12.758,0.006,0.559,0.013,177.2
62,12864.00,12864.00,0.00,14.332,7069,0.003,13.708,0.006,0.602,0.013,177.3
63,13605.00,13605.00,0.00,13.577,7477,0.003,12.986,0.006,0.568,0.013,176.8
64,14098.00,14098.00,0.00,13.049,7749,0.003,12.479,0.006,0.548,0.012,176.4
65,12995.00,12995.00,0.00,14.147,7143,0.003,13.529,0.006,0.597,0.013,176.0
66,14109.00,14109.00,0.00,13.087,7755,0.003,12.518,0.006,0.549,0.012,176.9
67,13218.00,13218.00,0.00,13.893,7263,0.003,13.286,0.006,0.585,0.013,176.7
68,12726.00,12726.00,0.00,14.552,6993,0.003,13.922,0.006,0.609,0.013,177.1
69,13255.00,13255.00,0.00,13.930,7283,0.003,13.324,0.007,0.584,0.012,177.1
70,12911.00,12911.00,0.00,14.238,7095,0.003,13.617,0.006,0.600,0.012,176.3
71,13209.00,13209.00,0.00,13.920,7261,0.003,13.317,0.006,0.582,0.013,177.6
72,13591.00,13591.00,0.00,13.697,7470,0.003,13.102,0.006,0.571,0.015,177.1
73,12912.00,12912.00,0.00,14.273,7096,0.003,13.651,0.007,0.599,0.013,176.9
74,12046.00,12046.00,0.00,12.282,6620,0.003,11.619,0.006,0.641,0.012,139.2
75,10339.00,10339.00,0.00,1.018,5682,0.003,0.422,0.007,0.574,0.013,6.0
