Second,Ops/sec,Hits/sec,Misses/sec,Latency,KB/sec,Request_Creation_Time,Request_Buffer_Time,MW_Writes_To_Memcached_Time,Memcached_Process_Time,MW_Writes_To_Memtier_Time,Queue_Size
4,6443.00,6443.00,0.00,3.172,6770,0.014,1.028,0.042,2.035,0.054,12.0
5,22312.00,22312.00,0.00,2.066,23441,0.007,0.517,0.022,1.501,0.019,9.9
6,26448.00,26448.00,0.00,1.862,27786,0.007,0.456,0.019,1.356,0.024,11.0
7,27595.00,27595.00,0.00,1.823,28990,0.008,0.404,0.018,1.369,0.023,10.1
8,26624.00,26624.00,0.00,1.877,27969,0.005,0.431,0.020,1.396,0.024,10.2
9,27333.00,27333.00,0.00,1.850,28715,0.007,0.485,0.016,1.319,0.024,10.9
10,26490.00,26490.00,0.00,1.868,27830,0.007,0.471,0.017,1.349,0.024,10.6
11,28018.00,28018.00,0.00,1.844,29435,0.006,0.447,0.021,1.347,0.023,10.4
12,23788.00,23784.00,4.00,2.107,24987,0.006,0.467,0.019,1.589,0.026,10.9
13,24643.00,24605.00,38.00,2.104,25849,0.005,0.527,0.022,1.520,0.029,11.6
14,26518.00,26477.00,41.00,2.043,27815,0.005,0.529,0.021,1.463,0.025,11.1
15,24665.00,24653.00,12.00,2.098,25898,0.006,0.596,0.023,1.448,0.025,10.7
16,25208.00,25207.00,1.00,2.079,26481,0.007,0.590,0.023,1.432,0.028,11.7
17,25457.00,25457.00,0.00,2.057,26744,0.007,0.532,0.018,1.480,0.020,11.3
18,26999.00,26999.00,0.00,1.872,28365,0.007,0.489,0.018,1.334,0.024,10.8
19,25848.00,25848.00,0.00,1.928,27155,0.006,0.475,0.022,1.397,0.028,10.3
20,25709.00,25709.00,0.00,1.975,27009,0.009,0.524,0.022,1.397,0.022,11.4
21,25997.00,25997.00,0.00,1.956,27311,0.005,0.466,0.019,1.442,0.024,10.4
22,25481.00,25481.00,0.00,1.948,26769,0.006,0.447,0.017,1.454,0.024,10.7
23,27067.00,27067.00,0.00,1.995,28435,0.006,0.552,0.017,1.394,0.026,11.3
24,28454.00,28454.00,0.00,1.785,29892,0.007,0.434,0.018,1.306,0.021,10.0
25,27335.00,27335.00,0.00,1.857,28717,0.006,0.454,0.019,1.357,0.021,10.7
26,27774.00,27774.00,0.00,1.918,29178,0.006,0.483,0.016,1.393,0.021,10.6
27,26876.00,26875.00,1.00,1.803,28234,0.007,0.429,0.018,1.326,0.023,10.1
28,28232.00,28224.00,8.00,1.679,29651,0.006,0.359,0.018,1.274,0.021,9.2
29,27023.00,27017.00,6.00,1.954,28383,0.005,0.475,0.017,1.433,0.023,9.7
30,27272.00,27250.00,22.00,1.800,28629,0.006,0.446,0.020,1.308,0.020,10.9
31,25391.00,25366.00,25.00,1.965,26649,0.008,0.499,0.018,1.414,0.025,10.8
32,25668.00,25656.00,12.00,2.151,26953,0.005,0.668,0.018,1.437,0.024,12.9
33,25212.00,25202.00,10.00,2.059,26476,0.006,0.588,0.023,1.416,0.026,11.9
34,25998.00,25988.00,10.00,1.890,27302,0.007,0.448,0.015,1.401,0.019,11.2
35,26920.00,26920.00,0.00,1.994,28281,0.006,0.512,0.020,1.434,0.022,11.4
36,26867.00,26867.00,0.00,1.921,28226,0.006,0.551,0.017,1.324,0.023,12.5
37,24908.00,24906.00,2.00,2.048,26165,0.007,0.608,0.015,1.399,0.019,11.9
38,27699.00,27699.00,0.00,1.937,29100,0.005,0.517,0.019,1.374,0.022,11.9
39,25780.00,25780.00,0.00,2.033,27084,0.006,0.489,0.018,1.496,0.023,11.3
40,26838.00,26838.00,0.00,1.890,28195,0.006,0.544,0.018,1.299,0.024,11.5
41,25071.00,25071.00,0.00,2.029,26339,0.006,0.540,0.018,1.446,0.019,12.2
42,25491.00,25491.00,0.00,1.920,26780,0.007,0.509,0.018,1.369,0.018,11.4
43,27048.00,27048.00,0.00,1.864,28416,0.006,0.406,0.018,1.410,0.023,10.5
44,26551.00,26551.00,0.00,2.034,27894,0.007,0.534,0.014,1.457,0.022,11.2
45,27141.00,27141.00,0.00,1.818,28514,0.007,0.423,0.016,1.348,0.024,10.9
46,26739.00,26739.00,0.00,1.971,28092,0.007,0.481,0.021,1.440,0.023,10.5
47,26449.00,26449.00,0.00,1.960,27787,0.006,0.496,0.014,1.424,0.020,11.1
48,27149.00,27149.00,0.00,1.899,28522,0.006,0.404,0.020,1.445,0.024,9.7
49,26355.00,26355.00,0.00,1.942,27688,0.006,0.521,0.015,1.381,0.019,11.8
50,27180.00,27180.00,0.00,1.863,28554,0.006,0.441,0.019,1.371,0.026,10.2
51,28009.00,28009.00,0.00,1.840,29425,0.005,0.382,0.020,1.409,0.023,10.0
52,27616.00,27616.00,0.00,1.806,29013,0.006,0.420,0.018,1.341,0.021,11.0
53,26806.00,26806.00,0.00,1.935,28162,0.006,0.512,0.019,1.374,0.024,11.8
54,27023.00,27023.00,0.00,1.936,28389,0.007,0.497,0.021,1.387,0.025,12.0
55,27655.00,27655.00,0.00,1.890,29053,0.005,0.523,0.016,1.324,0.022,10.9
56,26504.00,26504.00,0.00,1.902,27844,0.007,0.449,0.017,1.402,0.026,11.1
57,27000.00,27000.00,0.00,1.950,28366,0.005,0.516,0.017,1.390,0.021,12.4
58,27396.00,27396.00,0.00,1.856,28781,0.006,0.444,0.015,1.370,0.022,10.4
59,26728.00,26728.00,0.00,1.865,28080,0.006,0.385,0.017,1.436,0.021,10.0
60,26680.00,26680.00,0.00,1.869,28029,0.006,0.487,0.016,1.340,0.019,11.5
61,27492.00,27492.00,0.00,1.816,28882,0.006,0.439,0.016,1.330,0.025,10.2
62,26836.00,26836.00,0.00,1.870,28193,0.005,0.391,0.021,1.426,0.026,9.7
63,27091.00,27091.00,0.00,1.913,28461,0.005,0.478,0.017,1.392,0.021,10.7
64,26330.00,26330.00,0.00,1.919,27661,0.007,0.487,0.018,1.385,0.024,10.3
65,27447.00,27447.00,0.00,1.770,28835,0.006,0.413,0.016,1.314,0.021,11.2
66,26708.00,26708.00,0.00,1.918,28058,0.007,0.448,0.017,1.422,0.023,10.3
67,25665.00,25665.00,0.00,1.906,26963,0.005,0.437,0.021,1.418,0.024,9.8
68,25805.00,25804.00,1.00,1.947,27109,0.006,0.411,0.019,1.488,0.023,9.7
69,26416.00,26413.00,3.00,2.062,27749,0.005,0.549,0.016,1.469,0.023,11.7
70,26396.00,26393.00,3.00,1.891,27728,0.005,0.469,0.020,1.372,0.025,11.5
71,26331.00,26326.00,5.00,2.007,27657,0.006,0.464,0.017,1.495,0.025,10.9
72,27501.00,27499.00,2.00,1.913,28890,0.006,0.517,0.017,1.349,0.024,11.0
73,28190.00,28188.00,2.00,1.711,29614,0.006,0.404,0.015,1.268,0.017,10.1
74,18110.00,18104.00,6.00,1.644,19020,0.006,0.391,0.020,1.210,0.017,9.3
75,3943.00,3941.00,2.00,0.633,4140,0.003,0.082,0.013,0.522,0.012,0.3
