Second,Ops/sec,Hits/sec,Misses/sec,Latency,KB/sec,Request_Creation_Time,Request_Buffer_Time,MW_Writes_To_Memcached_Time,Memcached_Process_Time,MW_Writes_To_Memtier_Time,Queue_Size
4,3765.00,3765.00,0.00,1.684,2070,0.016,0.405,0.034,1.179,0.050,4.2
5,16679.00,16679.00,0.00,1.529,9167,0.006,0.257,0.015,1.228,0.023,3.3
6,20108.00,20108.00,0.00,1.206,11052,0.006,0.290,0.017,0.873,0.020,4.2
7,19892.00,19892.00,0.00,1.187,10932,0.006,0.243,0.017,0.903,0.018,3.6
8,20052.00,20052.00,0.00,1.286,11020,0.006,0.263,0.015,0.985,0.016,3.6
9,19948.00,19948.00,0.00,1.224,10964,0.005,0.269,0.015,0.919,0.017,3.5
10,20509.00,20490.00,19.00,1.231,11261,0.006,0.255,0.016,0.939,0.016,3.6
11,21555.00,21526.00,29.00,1.131,11829,0.005,0.261,0.013,0.835,0.017,4.2
12,20499.00,20499.00,0.00,1.199,11266,0.005,0.268,0.015,0.893,0.017,3.8
13,19983.00,19983.00,0.00,1.216,10983,0.004,0.276,0.014,0.906,0.016,4.0
14,20740.00,20740.00,0.00,1.230,11399,0.008,0.307,0.014,0.883,0.019,4.5
15,21332.00,21332.00,0.00,1.111,11723,0.007,0.216,0.016,0.853,0.018,3.5
16,20861.00,20861.00,0.00,1.214,11465,0.004,0.244,0.015,0.933,0.018,3.8
17,21163.00,21163.00,0.00,1.148,11631,0.008,0.275,0.012,0.837,0.016,3.9
18,20952.00,20952.00,0.00,1.183,11515,0.005,0.263,0.012,0.886,0.017,4.1
19,20038.00,20038.00,0.00,1.231,11012,0.005,0.320,0.013,0.878,0.016,4.8
20,21744.00,21739.00,5.00,1.076,11948,0.004,0.242,0.013,0.802,0.015,3.6
21,21104.00,21085.00,19.00,1.166,11588,0.005,0.261,0.014,0.872,0.015,3.9
22,20893.00,20878.00,15.00,1.080,11474,0.006,0.226,0.012,0.820,0.017,3.9
23,20556.00,20551.00,5.00,1.139,11294,0.006,0.255,0.014,0.849,0.015,3.7
24,20141.00,20137.00,4.00,1.186,11067,0.005,0.267,0.013,0.886,0.015,4.0
25,21784.00,21784.00,0.00,1.126,11972,0.005,0.245,0.012,0.846,0.019,3.7
26,21179.00,21179.00,0.00,1.082,11640,0.007,0.249,0.013,0.793,0.019,3.6
27,21169.00,21169.00,0.00,1.100,11635,0.006,0.250,0.011,0.821,0.014,3.8
28,21381.00,21381.00,0.00,1.143,11751,0.005,0.280,0.015,0.825,0.018,3.8
29,21294.00,21294.00,0.00,1.099,11703,0.006,0.216,0.012,0.849,0.017,3.4
30,21472.00,21472.00,0.00,1.068,11801,0.005,0.252,0.012,0.782,0.016,3.3
31,21104.00,21104.00,0.00,1.174,11599,0.006,0.274,0.017,0.861,0.016,3.7
32,20548.00,20548.00,0.00,1.143,11293,0.005,0.255,0.014,0.852,0.016,3.8
33,21374.00,21374.00,0.00,1.106,11747,0.005,0.211,0.014,0.860,0.016,3.4
34,21001.00,21001.00,0.00,1.118,11542,0.006,0.284,0.013,0.803,0.011,4.1
35,22046.00,22046.00,0.00,1.022,12116,0.007,0.242,0.010,0.746,0.016,3.9
36,20287.00,20287.00,0.00,1.170,11150,0.005,0.262,0.016,0.868,0.019,3.5
37,21663.00,21663.00,0.00,1.124,11906,0.006,0.241,0.013,0.847,0.017,3.5
38,21449.00,21449.00,0.00,1.079,11788,0.006,0.265,0.015,0.776,0.018,3.9
39,21276.00,21276.00,0.00,1.122,11693,0.006,0.240,0.014,0.848,0.013,3.7
40,21831.00,21831.00,0.00,1.035,11998,0.006,0.196,0.013,0.805,0.014,3.6
41,21145.00,21145.00,0.00,1.130,11621,0.006,0.273,0.012,0.822,0.017,3.8
42,20590.00,20590.00,0.00,1.191,11316,0.008,0.239,0.015,0.914,0.016,3.8
43,22043.00,22043.00,0.00,1.057,12115,0.006,0.205,0.013,0.816,0.017,3.4
44,21879.00,21879.00,0.00,1.092,12024,0.005,0.206,0.015,0.851,0.015,3.4
45,21067.00,21066.00,1.00,1.112,11578,0.008,0.205,0.015,0.864,0.020,3.2
46,22548.00,22547.00,1.00,1.097,12392,0.007,0.230,0.012,0.830,0.017,3.5
47,21365.00,21361.00,4.00,1.163,11740,0.005,0.247,0.017,0.881,0.014,3.8
48,21215.00,21209.00,6.00,1.095,11657,0.005,0.186,0.015,0.874,0.015,3.2
49,21316.00,21307.00,9.00,1.053,11710,0.007,0.223,0.013,0.797,0.013,3.6
50,21964.00,21954.00,10.00,1.072,12066,0.005,0.211,0.012,0.832,0.013,3.5
51,22074.00,22062.00,12.00,1.063,12125,0.005,0.214,0.013,0.816,0.014,3.5
52,20876.00,20863.00,13.00,1.216,11466,0.005,0.277,0.016,0.904,0.013,4.1
53,21016.00,20996.00,20.00,1.139,11539,0.006,0.211,0.016,0.889,0.016,3.2
54,21644.00,21630.00,14.00,1.068,11888,0.005,0.220,0.014,0.814,0.015,3.4
55,23001.00,22993.00,8.00,0.989,12637,0.006,0.194,0.013,0.759,0.017,3.5
56,22199.00,22186.00,13.00,1.120,12193,0.005,0.232,0.015,0.853,0.016,3.9
57,21264.00,21256.00,8.00,1.173,11682,0.005,0.226,0.014,0.914,0.014,3.3
58,20458.00,20450.00,8.00,1.216,11239,0.006,0.236,0.013,0.942,0.020,3.5
59,22033.00,22027.00,6.00,1.119,12105,0.005,0.243,0.014,0.841,0.016,3.7
60,22082.00,22077.00,5.00,1.075,12133,0.004,0.213,0.012,0.831,0.014,3.6
61,21666.00,21664.00,2.00,1.122,11906,0.005,0.237,0.014,0.848,0.018,3.7
62,21638.00,21635.00,3.00,1.095,11890,0.006,0.253,0.014,0.806,0.016,3.6
63,22146.00,22146.00,0.00,1.094,12171,0.006,0.262,0.010,0.797,0.018,4.0
64,20798.00,20797.00,1.00,1.170,11430,0.007,0.213,0.014,0.917,0.019,3.5
65,21966.00,21966.00,0.00,1.107,12072,0.006,0.226,0.014,0.846,0.016,3.2
66,21693.00,21693.00,0.00,1.157,11922,0.004,0.271,0.011,0.856,0.016,4.3
67,20606.00,20606.00,0.00,1.182,11324,0.006,0.251,0.013,0.896,0.016,3.9
68,21382.00,21382.00,0.00,1.140,11751,0.008,0.250,0.012,0.853,0.016,3.7
69,21749.00,21749.00,0.00,1.064,11953,0.006,0.232,0.013,0.800,0.012,3.3
70,21360.00,21360.00,0.00,1.105,11739,0.005,0.226,0.013,0.841,0.019,3.7
71,22269.00,22269.00,0.00,1.069,12239,0.006,0.240,0.013,0.796,0.014,3.7
72,22095.00,22095.00,0.00,1.047,12143,0.005,0.209,0.013,0.803,0.016,3.2
73,21681.00,21681.00,0.00,1.162,11915,0.005,0.248,0.013,0.880,0.015,3.7
74,13592.00,13592.00,0.00,1.185,7470,0.008,0.244,0.012,0.905,0.016,3.8
