Second,Ops/sec,Hits/sec,Misses/sec,Latency,KB/sec,Request_Creation_Time,Request_Buffer_Time,MW_Writes_To_Memcached_Time,Memcached_Process_Time,MW_Writes_To_Memtier_Time,Queue_Size
4,4659.00,4659.00,0.00,4.833,518,0.022,3.011,0.029,1.717,0.054,51.3
5,22223.00,22223.00,0.00,5.423,2471,0.007,4.017,0.013,1.364,0.022,96.8
6,29038.00,29038.00,0.00,4.851,3227,0.007,3.765,0.010,1.050,0.019,115.7
7,26794.00,26794.00,0.00,5.203,2977,0.005,4.047,0.013,1.118,0.019,114.2
8,26825.00,26825.00,0.00,5.545,2982,0.006,4.357,0.012,1.153,0.017,118.4
9,28837.00,28837.00,0.00,5.065,3204,0.005,3.970,0.012,1.060,0.018,119.4
10,29441.00,29441.00,0.00,4.885,3271,0.005,3.801,0.010,1.052,0.016,118.6
11,28708.00,28708.00,0.00,5.218,3188,0.004,4.120,0.009,1.069,0.016,120.7
12,28712.00,28712.00,0.00,5.131,3190,0.005,4.030,0.008,1.069,0.019,121.7
13,28787.00,28787.00,0.00,5.179,3199,0.006,4.065,0.013,1.078,0.017,119.7
14,27457.00,27457.00,0.00,5.413,3050,0.003,4.258,0.012,1.124,0.016,119.6
15,28816.00,28816.00,0.00,5.178,3202,0.005,4.071,0.009,1.077,0.017,121.7
16,28086.00,28086.00,0.00,4.957,3121,0.008,3.836,0.010,1.085,0.017,116.8
17,27799.00,27799.00,0.00,5.583,3089,0.005,4.427,0.012,1.124,0.016,126.3
18,28492.00,28492.00,0.00,5.179,3167,0.004,4.073,0.011,1.074,0.017,120.7
19,27108.00,27108.00,0.00,5.640,3013,0.003,4.469,0.013,1.137,0.017,124.2
20,26583.00,26580.00,3.00,5.669,2954,0.004,4.493,0.013,1.135,0.024,124.7
21,24415.00,24375.00,40.00,6.314,2708,0.005,5.026,0.016,1.247,0.021,124.7
22,26497.00,26399.00,98.00,5.641,2933,0.004,4.449,0.012,1.155,0.021,123.1
23,26605.00,26558.00,47.00,5.838,2950,0.004,4.641,0.012,1.164,0.017,125.0
24,27072.00,27068.00,4.00,5.616,3005,0.004,4.446,0.011,1.140,0.015,124.5
25,26384.00,26384.00,0.00,5.519,2930,0.005,4.319,0.015,1.162,0.018,118.6
26,27221.00,27221.00,0.00,5.776,3024,0.003,4.608,0.010,1.138,0.017,127.2
27,26913.00,26913.00,0.00,5.331,2990,0.007,4.160,0.010,1.135,0.020,116.4
28,26688.00,26688.00,0.00,5.639,2965,0.004,4.463,0.013,1.138,0.020,124.7
29,26577.00,26577.00,0.00,5.850,2953,0.003,4.663,0.010,1.156,0.017,125.1
30,26747.00,26747.00,0.00,5.554,2972,0.005,4.377,0.011,1.137,0.024,122.9
31,28205.00,28205.00,0.00,5.380,3135,0.004,4.254,0.013,1.087,0.021,121.8
32,26860.00,26860.00,0.00,5.668,2985,0.004,4.483,0.010,1.155,0.017,122.2
33,27838.00,27838.00,0.00,5.166,3094,0.004,4.037,0.013,1.095,0.018,120.1
34,27932.00,27932.00,0.00,5.214,3104,0.005,4.086,0.013,1.092,0.018,120.4
35,27635.00,27635.00,0.00,5.684,3070,0.003,4.523,0.011,1.130,0.018,125.8
36,27019.00,27019.00,0.00,5.418,3002,0.004,4.254,0.012,1.130,0.018,121.4
37,29002.00,29002.00,0.00,5.055,3222,0.004,3.973,0.010,1.052,0.017,119.7
38,26924.00,26924.00,0.00,5.614,2991,0.006,4.444,0.012,1.137,0.016,124.0
39,27582.00,27582.00,0.00,5.319,3064,0.004,4.188,0.010,1.100,0.016,119.9
40,28484.00,28484.00,0.00,5.128,3164,0.005,4.018,0.014,1.073,0.019,117.9
41,28153.00,28153.00,0.00,5.581,3127,0.003,4.449,0.012,1.099,0.018,126.2
42,28754.00,28754.00,0.00,5.177,3195,0.004,4.070,0.011,1.076,0.016,120.7
43,28099.00,28099.00,0.00,5.350,3122,0.004,4.236,0.010,1.080,0.019,121.5
44,27970.00,27970.00,0.00,5.339,3108,0.005,4.195,0.010,1.111,0.018,121.0
45,26691.00,26691.00,0.00,5.543,2966,0.004,4.349,0.011,1.162,0.017,119.4
46,28174.00,28174.00,0.00,5.325,3130,0.004,4.198,0.008,1.096,0.019,122.2
47,27713.00,27713.00,0.00,5.283,3078,0.004,4.139,0.011,1.113,0.016,120.6
48,28769.00,28769.00,0.00,5.236,3196,0.003,4.128,0.009,1.081,0.015,121.8
49,28506.00,28506.00,0.00,5.181,3167,0.005,4.061,0.010,1.089,0.016,119.5
50,27185.00,27185.00,0.00,5.444,3021,0.005,4.282,0.011,1.126,0.020,120.3
51,27132.00,27132.00,0.00,5.518,3015,0.006,4.348,0.011,1.130,0.022,122.8
52,28107.00,28102.00,5.00,5.407,3124,0.005,4.274,0.009,1.103,0.015,124.5
53,28480.00,28465.00,15.00,4.941,3164,0.005,3.828,0.010,1.082,0.016,116.8
54,27884.00,27847.00,37.00,5.598,3095,0.003,4.452,0.011,1.116,0.015,123.8
55,28002.00,27957.00,45.00,5.151,3107,0.005,4.026,0.011,1.091,0.018,116.8
56,28920.00,28880.00,40.00,5.137,3209,0.004,4.030,0.011,1.072,0.020,121.0
57,28449.00,28425.00,24.00,5.353,3158,0.004,4.236,0.010,1.087,0.017,122.6
58,29321.00,29306.00,15.00,4.756,3256,0.004,3.691,0.012,1.031,0.018,115.8
59,27561.00,27551.00,10.00,5.503,3061,0.005,4.340,0.012,1.129,0.018,121.4
60,28226.00,28225.00,1.00,5.170,3136,0.003,4.051,0.010,1.091,0.015,120.5
61,28594.00,28594.00,0.00,5.038,3177,0.004,3.929,0.012,1.072,0.020,118.0
62,28053.00,28053.00,0.00,5.169,3117,0.004,4.044,0.009,1.093,0.018,118.7
63,27439.00,27439.00,0.00,5.280,3049,0.005,4.141,0.010,1.110,0.014,117.9
64,26408.00,26408.00,0.00,5.424,2934,0.004,4.219,0.011,1.169,0.021,118.1
65,27688.00,27688.00,0.00,5.382,3076,0.004,4.241,0.011,1.108,0.018,122.2
66,26875.00,26875.00,0.00,5.593,2986,0.004,4.412,0.010,1.148,0.018,120.8
67,29333.00,29333.00,0.00,5.016,3259,0.005,3.938,0.010,1.047,0.016,120.7
68,29448.00,29448.00,0.00,5.102,3272,0.003,4.021,0.012,1.049,0.017,120.2
69,27450.00,27450.00,0.00,5.637,3050,0.003,4.474,0.009,1.132,0.018,124.0
70,29116.00,29116.00,0.00,5.082,3235,0.004,3.987,0.011,1.062,0.018,118.5
71,29909.00,29909.00,0.00,4.805,3324,0.004,3.749,0.010,1.025,0.017,116.3
72,27458.00,27458.00,0.00,5.373,3051,0.005,4.232,0.013,1.106,0.019,121.2
73,27969.00,27969.00,0.00,5.277,3108,0.004,4.141,0.010,1.101,0.021,119.0
74,25375.00,25375.00,0.00,4.069,2820,0.005,3.044,0.014,0.991,0.015,86.7
75,12357.00,12357.00,0.00,1.121,1373,0.006,0.183,0.011,0.905,0.016,2.1
