Second,Ops/sec,Hits/sec,Misses/sec,Latency,KB/sec,Request_Creation_Time,Request_Buffer_Time,MW_Writes_To_Memcached_Time,Memcached_Process_Time,MW_Writes_To_Memtier_Time,Queue_Size
4,3291.00,3291.00,0.00,1.887,986,0.033,0.305,0.052,1.445,0.052,3.0
5,17772.00,17772.00,0.00,1.391,5325,0.007,0.280,0.017,1.066,0.021,3.3
6,21256.00,21256.00,0.00,1.210,6368,0.007,0.273,0.013,0.902,0.014,3.5
7,21707.00,21707.00,0.00,1.150,6503,0.006,0.221,0.016,0.893,0.015,3.4
8,18701.00,18701.00,0.00,1.438,5602,0.006,0.225,0.014,1.173,0.018,3.2
9,20442.00,20442.00,0.00,1.164,6125,0.007,0.232,0.013,0.895,0.017,3.6
10,19577.00,19547.00,30.00,1.291,5856,0.005,0.245,0.023,0.997,0.020,3.7
11,21087.00,21069.00,18.00,1.222,6311,0.006,0.240,0.023,0.933,0.021,3.6
12,21066.00,21066.00,0.00,1.270,6311,0.004,0.269,0.017,0.958,0.022,3.6
13,21206.00,21206.00,0.00,1.247,6353,0.006,0.263,0.016,0.946,0.017,3.5
14,21507.00,21507.00,0.00,1.168,6443,0.005,0.233,0.017,0.892,0.021,3.7
15,21972.00,21972.00,0.00,1.231,6582,0.006,0.258,0.016,0.934,0.017,3.7
16,21153.00,21153.00,0.00,1.192,6337,0.004,0.241,0.017,0.912,0.017,3.3
17,21951.00,21951.00,0.00,1.105,6576,0.006,0.185,0.018,0.871,0.024,3.3
18,21318.00,21318.00,0.00,1.279,6386,0.004,0.279,0.017,0.963,0.016,3.8
19,20241.00,20241.00,0.00,1.293,6064,0.006,0.236,0.018,1.008,0.023,3.4
20,21824.00,21817.00,7.00,1.164,6537,0.006,0.219,0.016,0.906,0.018,3.5
21,20630.00,20609.00,21.00,1.241,6174,0.005,0.248,0.017,0.949,0.022,3.6
22,20575.00,20562.00,13.00,1.286,6160,0.006,0.287,0.017,0.959,0.018,3.8
23,20660.00,20653.00,7.00,1.264,6187,0.005,0.276,0.015,0.946,0.022,4.0
24,21698.00,21698.00,0.00,1.181,6500,0.004,0.244,0.017,0.894,0.021,3.8
25,20759.00,20759.00,0.00,1.301,6219,0.005,0.293,0.017,0.965,0.020,4.1
26,21511.00,21511.00,0.00,1.144,6445,0.006,0.248,0.018,0.852,0.020,3.9
27,21081.00,21081.00,0.00,1.232,6316,0.006,0.305,0.013,0.885,0.022,4.1
28,20435.00,20435.00,0.00,1.316,6122,0.006,0.303,0.018,0.966,0.022,3.5
29,21589.00,21589.00,0.00,1.232,6468,0.005,0.257,0.018,0.934,0.017,3.9
30,21355.00,21355.00,0.00,1.269,6398,0.005,0.283,0.018,0.945,0.018,4.1
31,21158.00,21158.00,0.00,1.190,6339,0.006,0.251,0.017,0.901,0.016,3.6
32,21620.00,21620.00,0.00,1.201,6477,0.004,0.261,0.015,0.900,0.022,3.5
33,21151.00,21151.00,0.00,1.265,6337,0.005,0.263,0.016,0.964,0.016,3.6
34,21487.00,21487.00,0.00,1.248,6437,0.004,0.280,0.015,0.930,0.019,4.0
35,21732.00,21732.00,0.00,1.222,6511,0.005,0.260,0.012,0.926,0.018,3.6
36,20256.00,20256.00,0.00,1.325,6069,0.007,0.318,0.015,0.964,0.020,3.9
37,21574.00,21574.00,0.00,1.103,6464,0.004,0.210,0.015,0.857,0.017,3.5
38,21391.00,21391.00,0.00,1.202,6409,0.004,0.254,0.016,0.913,0.015,3.4
39,21088.00,21088.00,0.00,1.282,6318,0.004,0.309,0.017,0.932,0.020,3.9
40,21682.00,21682.00,0.00,1.206,6496,0.004,0.250,0.014,0.919,0.020,3.7
41,21674.00,21674.00,0.00,1.222,6493,0.005,0.258,0.015,0.928,0.016,3.8
42,22611.00,22611.00,0.00,1.165,6774,0.005,0.220,0.015,0.905,0.020,3.3
43,22263.00,22263.00,0.00,1.083,6670,0.006,0.201,0.016,0.846,0.014,3.2
44,21091.00,21091.00,0.00,1.238,6319,0.005,0.255,0.014,0.944,0.020,3.8
45,22552.00,22552.00,0.00,1.170,6756,0.004,0.236,0.014,0.895,0.020,3.4
46,22403.00,22402.00,1.00,1.128,6711,0.004,0.244,0.013,0.848,0.018,3.7
47,23013.00,23008.00,5.00,1.117,6893,0.004,0.220,0.013,0.862,0.018,3.4
48,22333.00,22328.00,5.00,1.144,6690,0.005,0.263,0.012,0.845,0.019,3.6
49,20746.00,20734.00,12.00,1.259,6212,0.005,0.271,0.012,0.958,0.014,3.7
50,21907.00,21894.00,13.00,1.219,6559,0.005,0.273,0.015,0.910,0.017,3.7
51,21378.00,21367.00,11.00,1.228,6402,0.005,0.260,0.015,0.930,0.019,4.3
52,20368.00,20351.00,17.00,1.298,6097,0.005,0.304,0.016,0.958,0.015,4.2
53,22524.00,22506.00,18.00,1.182,6743,0.006,0.267,0.012,0.881,0.015,3.8
54,21567.00,21547.00,20.00,1.195,6455,0.005,0.243,0.015,0.915,0.018,3.7
55,21209.00,21202.00,7.00,1.241,6352,0.004,0.274,0.014,0.933,0.015,3.6
56,21939.00,21927.00,12.00,1.214,6569,0.004,0.232,0.011,0.949,0.018,3.3
57,22695.00,22686.00,9.00,1.132,6797,0.005,0.234,0.014,0.860,0.019,3.5
58,21776.00,21772.00,4.00,1.136,6522,0.006,0.234,0.013,0.866,0.017,3.3
59,21986.00,21980.00,6.00,1.206,6585,0.006,0.239,0.015,0.926,0.020,3.2
60,22363.00,22362.00,1.00,1.176,6699,0.005,0.266,0.013,0.875,0.018,3.6
61,22332.00,22329.00,3.00,1.154,6689,0.005,0.248,0.015,0.869,0.017,3.7
62,22505.00,22505.00,0.00,1.135,6742,0.004,0.225,0.014,0.877,0.015,3.5
63,21262.00,21262.00,0.00,1.200,6370,0.006,0.239,0.014,0.924,0.017,3.5
64,21537.00,21537.00,0.00,1.261,6452,0.006,0.285,0.013,0.940,0.017,3.9
65,21517.00,21517.00,0.00,1.208,6446,0.006,0.264,0.012,0.910,0.015,3.6
66,21766.00,21766.00,0.00,1.067,6521,0.007,0.216,0.012,0.811,0.021,3.4
67,21608.00,21608.00,0.00,1.157,6473,0.005,0.236,0.016,0.884,0.015,3.3
68,22078.00,22078.00,0.00,1.161,6614,0.007,0.261,0.014,0.866,0.014,3.7
69,21493.00,21493.00,0.00,1.257,6439,0.005,0.254,0.016,0.965,0.017,3.6
70,21549.00,21549.00,0.00,1.131,6456,0.006,0.218,0.016,0.873,0.018,3.3
71,21877.00,21877.00,0.00,1.185,6554,0.005,0.222,0.017,0.923,0.017,3.3
72,21533.00,21533.00,0.00,1.168,6451,0.005,0.199,0.016,0.932,0.016,3.2
73,21597.00,21597.00,0.00,1.120,6470,0.005,0.202,0.015,0.881,0.018,3.1
74,14728.00,14728.00,0.00,1.253,4412,0.005,0.266,0.013,0.952,0.016,3.4
