Second,Ops/sec,Hits/sec,Misses/sec,Latency,KB/sec,Request_Creation_Time,Request_Buffer_Time,MW_Writes_To_Memcached_Time,Memcached_Process_Time,MW_Writes_To_Memtier_Time,Queue_Size
4,1641.00,1641.00,0.00,5.287,1724,0.016,4.287,0.023,0.908,0.051,36.8
5,10969.00,10969.00,0.00,7.250,11524,0.005,6.524,0.009,0.695,0.018,72.8
6,12402.00,12402.00,0.00,7.126,13030,0.004,6.480,0.006,0.624,0.013,81.0
7,12665.00,12665.00,0.00,7.067,13305,0.004,6.433,0.007,0.610,0.013,81.8
8,13305.00,13305.00,0.00,6.618,13979,0.003,6.015,0.007,0.580,0.013,80.8
9,13196.00,13196.00,0.00,6.721,13863,0.003,6.114,0.007,0.585,0.013,81.0
10,10485.00,10485.00,0.00,8.314,11016,0.003,7.549,0.007,0.743,0.013,80.0
11,11763.00,11763.00,0.00,7.487,12357,0.003,6.807,0.008,0.656,0.013,80.7
12,12000.00,12000.00,0.00,7.443,12606,0.003,6.775,0.006,0.645,0.015,81.5
13,12853.00,12853.00,0.00,6.756,13503,0.003,6.133,0.006,0.603,0.012,79.6
14,12517.00,12517.00,0.00,7.067,13150,0.003,6.426,0.006,0.618,0.014,80.9
15,13001.00,13001.00,0.00,6.831,13658,0.003,6.214,0.006,0.595,0.013,81.2
16,13351.00,13351.00,0.00,6.605,14026,0.003,6.003,0.006,0.580,0.013,81.1
17,12542.00,12542.00,0.00,7.096,13177,0.003,6.456,0.006,0.618,0.014,81.4
18,12787.00,12787.00,0.00,6.889,13434,0.003,6.262,0.006,0.606,0.013,80.7
19,12188.00,12188.00,0.00,7.214,12805,0.003,6.556,0.006,0.636,0.013,80.2
20,12807.00,12807.00,0.00,6.821,13455,0.003,6.195,0.006,0.605,0.012,79.9
21,12403.00,12403.00,0.00,7.172,13030,0.003,6.525,0.006,0.626,0.013,81.0
22,12965.00,12965.00,0.00,6.835,13621,0.003,6.216,0.006,0.597,0.013,81.1
23,12196.00,12193.00,3.00,7.191,12809,0.003,6.533,0.007,0.635,0.013,80.1
24,11466.00,11384.00,82.00,7.744,11960,0.003,7.047,0.007,0.674,0.013,81.0
25,12985.00,12974.00,11.00,6.757,13629,0.003,6.139,0.006,0.595,0.013,80.5
26,12427.00,12427.00,0.00,7.123,13054,0.003,6.478,0.007,0.622,0.013,81.1
27,12288.00,12288.00,0.00,7.243,12908,0.003,6.590,0.006,0.630,0.013,81.0
28,12860.00,12860.00,0.00,6.930,13510,0.003,6.308,0.006,0.602,0.013,81.6
29,12753.00,12753.00,0.00,6.994,13398,0.003,6.364,0.006,0.608,0.013,81.5
30,12415.00,12415.00,0.00,7.150,13043,0.003,6.505,0.006,0.623,0.013,81.3
31,12422.00,12422.00,0.00,7.152,13050,0.003,6.505,0.006,0.625,0.013,80.9
32,12585.00,12585.00,0.00,7.136,13221,0.002,6.499,0.006,0.617,0.012,82.0
33,12449.00,12449.00,0.00,7.145,13079,0.003,6.500,0.006,0.623,0.013,81.4
34,12129.00,12129.00,0.00,7.241,12743,0.003,6.580,0.006,0.640,0.013,80.5
35,12697.00,12697.00,0.00,7.044,13339,0.002,6.412,0.006,0.611,0.013,81.8
36,12366.00,12366.00,0.00,7.154,12992,0.003,6.505,0.006,0.626,0.013,81.0
37,12547.00,12547.00,0.00,7.006,13182,0.003,6.366,0.006,0.619,0.013,79.9
38,12983.00,12983.00,0.00,6.868,13638,0.003,6.250,0.006,0.597,0.013,81.6
39,12080.00,12080.00,0.00,7.301,12690,0.003,6.637,0.006,0.642,0.013,80.4
40,13461.00,13461.00,0.00,6.611,14142,0.002,6.014,0.006,0.575,0.013,81.5
41,12883.00,12883.00,0.00,6.886,13534,0.002,6.263,0.006,0.602,0.013,81.3
42,12793.00,12793.00,0.00,6.819,13440,0.002,6.193,0.006,0.605,0.013,80.2
43,12327.00,12327.00,0.00,7.203,12950,0.003,6.552,0.006,0.630,0.012,81.1
44,12399.00,12399.00,0.00,7.165,13025,0.003,6.518,0.006,0.625,0.013,81.0
45,13535.00,13535.00,0.00,6.537,14219,0.003,5.944,0.006,0.572,0.012,81.0
46,13317.00,13317.00,0.00,6.640,13991,0.003,6.041,0.006,0.578,0.012,80.7
47,13277.00,13277.00,0.00,6.718,13949,0.003,6.114,0.006,0.583,0.012,81.6
48,13341.00,13341.00,0.00,6.681,14016,0.003,6.079,0.006,0.582,0.012,81.6
49,11761.00,11761.00,0.00,7.498,12356,0.003,6.816,0.006,0.660,0.013,81.0
50,12525.00,12525.00,0.00,7.136,13158,0.003,6.495,0.006,0.620,0.013,81.1
51,13503.00,13503.00,0.00,6.572,14185,0.003,5.978,0.006,0.573,0.013,81.2
52,12977.00,12977.00,0.00,6.858,13632,0.003,6.239,0.006,0.597,0.013,81.4
53,13700.00,13700.00,0.00,6.459,14393,0.003,5.873,0.006,0.565,0.012,81.2
54,12632.00,12632.00,0.00,7.052,13271,0.003,6.416,0.006,0.614,0.013,81.2
55,12365.00,12365.00,0.00,7.038,12990,0.003,6.389,0.006,0.627,0.014,79.2
56,12339.00,12339.00,0.00,7.062,12963,0.002,6.412,0.006,0.628,0.013,79.8
57,13512.00,13512.00,0.00,6.569,14196,0.003,5.974,0.006,0.573,0.012,81.3
58,11917.00,11917.00,0.00,7.430,12520,0.003,6.758,0.006,0.651,0.012,80.9
59,11999.00,11995.00,4.00,7.394,12602,0.003,6.725,0.006,0.649,0.012,80.8
60,13143.00,13086.00,57.00,6.663,13748,0.003,6.053,0.006,0.589,0.013,80.4
61,12373.00,12340.00,33.00,7.194,12964,0.003,6.544,0.006,0.627,0.013,81.3
62,13243.00,13241.00,2.00,6.704,13910,0.003,6.099,0.006,0.583,0.013,81.3
63,13297.00,13297.00,0.00,6.598,13968,0.003,5.994,0.006,0.583,0.013,80.1
64,12124.00,12124.00,0.00,7.248,12737,0.003,6.586,0.006,0.641,0.012,80.0
65,12676.00,12676.00,0.00,6.994,13317,0.003,6.360,0.006,0.612,0.013,80.8
66,13030.00,13030.00,0.00,6.655,13688,0.003,6.040,0.006,0.594,0.013,79.3
67,13064.00,13064.00,0.00,6.762,13725,0.003,6.148,0.006,0.594,0.012,80.5
68,13987.00,13987.00,0.00,6.350,14695,0.003,5.776,0.006,0.552,0.013,81.3
69,12721.00,12721.00,0.00,6.891,13365,0.002,6.261,0.006,0.610,0.012,79.8
70,13165.00,13165.00,0.00,6.716,13831,0.003,6.106,0.006,0.589,0.012,80.8
71,13459.00,13459.00,0.00,6.625,14139,0.003,6.029,0.006,0.575,0.013,81.5
72,13154.00,13154.00,0.00,6.641,13819,0.003,6.030,0.006,0.590,0.012,80.1
73,13679.00,13679.00,0.00,6.474,14371,0.003,5.887,0.006,0.565,0.012,81.1
74,11491.00,11491.00,0.00,6.102,12072,0.003,5.472,0.007,0.609,0.013,69.6
75,7486.00,7486.00,0.00,0.669,7865,0.003,0.116,0.010,0.528,0.011,0.7
