Second,Ops/sec,Hits/sec,Misses/sec,Latency,KB/sec,Request_Creation_Time,Request_Buffer_Time,MW_Writes_To_Memcached_Time,Memcached_Process_Time,MW_Writes_To_Memtier_Time,Queue_Size
4,5283.00,5283.00,0.00,3.792,588,0.017,2.026,0.032,1.674,0.042,39.0
5,24100.00,24100.00,0.00,4.434,2680,0.005,3.158,0.012,1.242,0.018,83.2
6,27123.00,27123.00,0.00,5.238,3014,0.005,4.086,0.012,1.115,0.020,119.5
7,27447.00,27447.00,0.00,5.023,3050,0.006,3.871,0.013,1.116,0.017,112.9
8,25509.00,25509.00,0.00,5.769,2835,0.006,4.536,0.011,1.201,0.016,120.0
9,28292.00,28292.00,0.00,5.124,3144,0.005,4.006,0.012,1.082,0.019,117.2
10,29019.00,29019.00,0.00,4.534,3224,0.004,3.476,0.013,1.022,0.019,112.9
11,27793.00,27793.00,0.00,5.293,3087,0.004,4.161,0.011,1.098,0.018,118.4
12,29193.00,29193.00,0.00,4.861,3243,0.005,3.779,0.015,1.046,0.016,117.6
13,28096.00,28096.00,0.00,5.079,3122,0.004,3.965,0.011,1.081,0.018,119.3
14,27351.00,27351.00,0.00,5.320,3039,0.006,4.171,0.010,1.118,0.015,118.6
15,27673.00,27673.00,0.00,5.018,3075,0.004,3.897,0.011,1.091,0.015,114.3
16,29919.00,29919.00,0.00,4.647,3325,0.005,3.594,0.012,1.018,0.017,116.4
17,28191.00,28191.00,0.00,5.210,3133,0.005,4.083,0.011,1.093,0.019,121.2
18,28585.00,28585.00,0.00,4.460,3177,0.005,3.393,0.012,1.028,0.022,107.6
19,28161.00,28161.00,0.00,5.054,3130,0.004,3.952,0.012,1.069,0.017,118.7
20,25398.00,25388.00,10.00,5.642,2821,0.004,4.428,0.011,1.179,0.020,118.8
21,25371.00,25321.00,50.00,5.758,2813,0.007,4.517,0.015,1.195,0.024,120.3
22,26834.00,26766.00,68.00,5.244,2973,0.004,4.069,0.014,1.134,0.024,117.8
23,26889.00,26837.00,52.00,5.281,2981,0.004,4.124,0.014,1.121,0.019,119.1
24,27208.00,27197.00,11.00,5.487,3020,0.004,4.321,0.011,1.132,0.018,121.3
25,27393.00,27392.00,1.00,5.256,3042,0.005,4.109,0.015,1.106,0.020,119.8
26,27333.00,27333.00,0.00,5.131,3036,0.005,3.999,0.013,1.095,0.019,118.6
27,28028.00,28028.00,0.00,4.902,3114,0.005,3.781,0.016,1.081,0.019,114.9
28,27593.00,27593.00,0.00,5.146,3066,0.005,4.005,0.013,1.099,0.024,117.2
29,26817.00,26817.00,0.00,5.431,2980,0.005,4.256,0.013,1.139,0.018,117.7
30,26618.00,26618.00,0.00,5.603,2958,0.006,4.423,0.011,1.143,0.020,123.1
31,27293.00,27293.00,0.00,5.199,3033,0.005,4.044,0.014,1.114,0.021,119.7
32,28537.00,28537.00,0.00,4.865,3172,0.004,3.762,0.012,1.068,0.019,115.6
33,28014.00,28014.00,0.00,5.081,3113,0.005,3.972,0.010,1.074,0.020,119.6
34,27456.00,27456.00,0.00,5.165,3051,0.004,4.023,0.014,1.102,0.022,117.5
35,28004.00,28004.00,0.00,5.057,3111,0.005,3.930,0.013,1.087,0.022,115.9
36,27943.00,27943.00,0.00,5.319,3104,0.004,4.193,0.011,1.096,0.015,122.0
37,29784.00,29784.00,0.00,4.529,3309,0.004,3.477,0.012,1.018,0.017,111.7
38,29809.00,29809.00,0.00,4.397,3311,0.005,3.365,0.012,0.993,0.022,112.5
39,27643.00,27643.00,0.00,5.341,3071,0.005,4.195,0.011,1.111,0.019,120.8
40,28493.00,28493.00,0.00,5.052,3165,0.006,3.943,0.011,1.075,0.017,118.6
41,28965.00,28965.00,0.00,4.726,3218,0.005,3.634,0.009,1.064,0.014,111.3
42,29088.00,29088.00,0.00,4.685,3232,0.006,3.636,0.010,1.019,0.015,112.3
43,28505.00,28505.00,0.00,4.850,3167,0.005,3.746,0.014,1.065,0.020,114.6
44,28590.00,28590.00,0.00,4.840,3177,0.004,3.739,0.012,1.068,0.018,112.8
45,27573.00,27573.00,0.00,5.182,3063,0.004,4.050,0.012,1.099,0.018,118.5
46,29593.00,29593.00,0.00,4.753,3288,0.005,3.688,0.013,1.028,0.019,115.7
47,29285.00,29285.00,0.00,4.741,3253,0.004,3.671,0.009,1.037,0.019,116.3
48,30009.00,30009.00,0.00,4.829,3334,0.003,3.776,0.009,1.029,0.013,116.2
49,28692.00,28692.00,0.00,5.043,3188,0.005,3.952,0.010,1.061,0.015,116.5
50,29644.00,29644.00,0.00,4.577,3294,0.005,3.526,0.011,1.018,0.016,112.7
51,27654.00,27644.00,10.00,5.143,3072,0.006,4.006,0.011,1.100,0.020,116.0
52,29143.00,29123.00,20.00,4.950,3237,0.006,3.867,0.010,1.054,0.014,120.1
53,30349.00,30316.00,33.00,4.367,3369,0.003,3.342,0.010,0.992,0.020,112.5
54,28091.00,28062.00,29.00,4.997,3118,0.006,3.892,0.010,1.072,0.017,114.5
55,28341.00,28308.00,33.00,4.851,3145,0.006,3.745,0.009,1.075,0.016,114.9
56,29421.00,29393.00,28.00,4.606,3266,0.005,3.541,0.013,1.030,0.018,113.0
57,28596.00,28582.00,14.00,4.024,3175,0.004,2.938,0.013,1.053,0.017,96.1
58,28626.00,28613.00,13.00,3.959,3179,0.005,2.877,0.011,1.048,0.018,94.0
59,28427.00,28417.00,10.00,4.638,3157,0.005,3.554,0.011,1.049,0.019,111.8
60,28201.00,28200.00,1.00,5.083,3133,0.004,3.958,0.012,1.092,0.017,116.4
61,28393.00,28392.00,1.00,5.055,3155,0.005,3.947,0.009,1.078,0.017,117.2
62,28732.00,28732.00,0.00,4.768,3193,0.004,3.681,0.013,1.051,0.018,114.7
63,28754.00,28754.00,0.00,4.676,3195,0.006,3.598,0.012,1.040,0.020,113.6
64,28366.00,28366.00,0.00,4.874,3152,0.005,3.774,0.011,1.069,0.016,116.7
65,29697.00,29697.00,0.00,4.758,3300,0.004,3.696,0.011,1.030,0.017,116.7
66,28228.00,28228.00,0.00,4.812,3136,0.003,3.709,0.014,1.065,0.021,112.6
67,28020.00,28020.00,0.00,4.953,3114,0.005,3.843,0.012,1.075,0.018,115.8
68,30478.00,30478.00,0.00,4.472,3387,0.005,3.441,0.011,0.997,0.019,114.2
69,29011.00,29011.00,0.00,5.021,3224,0.005,3.921,0.011,1.066,0.017,118.6
70,28695.00,28695.00,0.00,4.838,3189,0.005,3.752,0.012,1.052,0.017,115.1
71,29648.00,29648.00,0.00,4.436,3295,0.007,3.387,0.011,1.012,0.018,112.7
72,28859.00,28859.00,0.00,4.747,3207,0.005,3.658,0.010,1.054,0.020,112.5
73,27947.00,27947.00,0.00,5.053,3106,0.004,3.931,0.011,1.090,0.017,118.2
74,23993.00,23993.00,0.00,4.095,2666,0.004,3.011,0.009,1.054,0.016,84.4
75,12804.00,12804.00,0.00,1.029,1423,0.004,0.280,0.010,0.724,0.012,3.7
