Second,Ops/sec,Hits/sec,Misses/sec,Latency,KB/sec,Request_Creation_Time,Request_Buffer_Time,MW_Writes_To_Memcached_Time,Memcached_Process_Time,MW_Writes_To_Memtier_Time,Queue_Size
4,4799.00,4799.00,0.00,3.022,1438,0.017,1.280,0.032,1.641,0.052,21.7
5,21614.00,21614.00,0.00,2.601,6476,0.008,1.231,0.016,1.324,0.021,29.7
6,27694.00,27694.00,0.00,2.185,8298,0.006,1.103,0.013,1.044,0.020,33.1
7,25453.00,25453.00,0.00,2.318,7626,0.006,1.168,0.012,1.115,0.017,34.2
8,25052.00,25052.00,0.00,2.539,7504,0.005,1.330,0.008,1.180,0.017,35.4
9,27045.00,27045.00,0.00,2.175,8102,0.006,1.069,0.012,1.069,0.020,31.9
10,27209.00,27209.00,0.00,2.181,8151,0.006,1.092,0.016,1.048,0.019,33.1
11,26719.00,26719.00,0.00,2.178,8005,0.005,1.091,0.013,1.050,0.018,32.7
12,27364.00,27364.00,0.00,2.209,8199,0.004,1.125,0.012,1.048,0.019,34.6
13,23955.00,23925.00,30.00,2.638,7168,0.006,1.398,0.013,1.199,0.022,35.2
14,25576.00,25515.00,61.00,2.362,7643,0.007,1.212,0.014,1.110,0.020,35.2
15,25422.00,25417.00,5.00,2.328,7613,0.007,1.162,0.016,1.127,0.016,32.7
16,26207.00,26207.00,0.00,2.278,7851,0.006,1.124,0.015,1.111,0.021,34.2
17,25056.00,25056.00,0.00,2.462,7506,0.004,1.268,0.017,1.150,0.022,34.9
18,25891.00,25891.00,0.00,2.475,7757,0.005,1.314,0.012,1.125,0.020,35.5
19,26562.00,26562.00,0.00,2.233,7959,0.005,1.118,0.015,1.077,0.020,34.0
20,26323.00,26323.00,0.00,2.356,7886,0.007,1.193,0.014,1.119,0.023,34.6
21,26380.00,26380.00,0.00,2.293,7902,0.006,1.158,0.011,1.097,0.021,33.6
22,27115.00,27115.00,0.00,2.146,8123,0.005,1.060,0.011,1.051,0.018,34.0
23,26637.00,26637.00,0.00,2.270,7979,0.005,1.168,0.011,1.067,0.019,34.9
24,26014.00,26014.00,0.00,2.418,7793,0.006,1.259,0.014,1.123,0.017,35.8
25,27045.00,27045.00,0.00,2.221,8102,0.005,1.109,0.013,1.075,0.019,33.8
26,26324.00,26324.00,0.00,2.221,7886,0.006,1.115,0.010,1.073,0.017,33.1
27,25701.00,25701.00,0.00,2.356,7699,0.005,1.198,0.019,1.112,0.022,34.2
28,27145.00,27145.00,0.00,2.331,8132,0.004,1.227,0.010,1.073,0.018,35.0
29,28259.00,28254.00,5.00,2.070,8465,0.006,1.060,0.010,0.975,0.018,33.1
30,27104.00,27086.00,18.00,2.327,8116,0.005,1.217,0.013,1.077,0.015,34.3
31,27637.00,27602.00,35.00,2.069,8270,0.006,1.015,0.011,1.021,0.016,32.1
32,26968.00,26941.00,27.00,2.178,8071,0.004,1.058,0.014,1.081,0.021,32.6
33,27268.00,27258.00,10.00,2.386,8166,0.005,1.260,0.010,1.095,0.016,35.5
34,27985.00,27984.00,1.00,2.041,8384,0.007,0.984,0.016,1.016,0.018,32.8
35,27685.00,27685.00,0.00,2.274,8294,0.006,1.161,0.012,1.074,0.021,34.4
36,26875.00,26875.00,0.00,2.271,8051,0.005,1.165,0.011,1.074,0.017,33.3
37,26058.00,26058.00,0.00,2.270,7807,0.005,1.123,0.013,1.108,0.022,32.4
38,27739.00,27739.00,0.00,2.218,8310,0.005,1.155,0.013,1.027,0.018,34.9
39,25652.00,25652.00,0.00,2.445,7685,0.005,1.278,0.011,1.134,0.017,35.4
40,27244.00,27244.00,0.00,2.101,8162,0.006,1.009,0.015,1.050,0.021,32.9
41,27251.00,27251.00,0.00,2.083,8165,0.006,1.005,0.014,1.039,0.019,32.7
42,27077.00,27077.00,0.00,2.196,8112,0.006,1.096,0.013,1.063,0.020,33.5
43,26724.00,26724.00,0.00,2.192,8007,0.005,1.091,0.013,1.066,0.018,32.6
44,28229.00,28229.00,0.00,2.090,8457,0.003,1.045,0.012,1.010,0.019,33.0
45,27312.00,27312.00,0.00,2.189,8183,0.005,1.133,0.010,1.026,0.015,33.8
46,27637.00,27637.00,0.00,2.226,8280,0.004,1.124,0.011,1.067,0.020,34.4
47,28292.00,28292.00,0.00,2.100,8477,0.004,1.054,0.011,1.015,0.016,34.4
48,28067.00,28067.00,0.00,2.150,8409,0.005,1.105,0.011,1.012,0.018,34.0
49,27322.00,27322.00,0.00,2.201,8185,0.005,1.108,0.012,1.057,0.019,33.9
50,27652.00,27652.00,0.00,2.201,8284,0.006,1.112,0.014,1.052,0.017,34.1
51,26673.00,26673.00,0.00,2.336,7991,0.004,1.228,0.012,1.074,0.018,34.3
52,27846.00,27846.00,0.00,2.040,8342,0.005,1.015,0.011,0.988,0.020,32.2
53,27940.00,27940.00,0.00,2.218,8371,0.004,1.124,0.015,1.053,0.022,35.0
54,26818.00,26818.00,0.00,2.195,8034,0.007,1.111,0.011,1.048,0.019,33.3
55,27842.00,27842.00,0.00,2.060,8342,0.005,1.029,0.011,0.998,0.018,33.0
56,28435.00,28435.00,0.00,2.110,8519,0.005,1.070,0.010,1.007,0.018,34.2
57,28144.00,28144.00,0.00,2.131,8432,0.004,1.057,0.010,1.042,0.019,33.4
58,27367.00,27367.00,0.00,2.220,8199,0.005,1.132,0.011,1.053,0.018,34.4
59,28629.00,28629.00,0.00,2.141,8577,0.005,1.092,0.012,1.014,0.017,34.9
60,28131.00,28131.00,0.00,2.034,8428,0.004,1.002,0.012,0.999,0.017,32.8
61,26963.00,26963.00,0.00,2.231,8078,0.004,1.131,0.011,1.071,0.015,32.8
62,28210.00,28210.00,0.00,2.135,8451,0.006,1.078,0.013,1.021,0.017,33.8
63,27208.00,27208.00,0.00,2.227,8151,0.005,1.133,0.012,1.061,0.016,34.2
64,27873.00,27873.00,0.00,2.150,8350,0.006,1.080,0.013,1.032,0.018,32.3
65,27299.00,27299.00,0.00,2.213,8178,0.004,1.115,0.014,1.061,0.019,34.3
66,27524.00,27524.00,0.00,2.193,8246,0.006,1.103,0.013,1.053,0.017,34.0
67,27058.00,27058.00,0.00,2.208,8106,0.004,1.108,0.010,1.068,0.017,33.2
68,27974.00,27974.00,0.00,2.150,8381,0.005,1.082,0.010,1.035,0.018,33.4
69,27608.00,27608.00,0.00,2.150,8271,0.006,1.085,0.011,1.027,0.021,34.2
70,26195.00,26194.00,1.00,2.441,7847,0.004,1.286,0.012,1.120,0.018,33.9
71,27366.00,27365.00,1.00,2.183,8199,0.004,1.079,0.012,1.068,0.020,34.5
72,27627.00,27619.00,8.00,2.165,8275,0.006,1.095,0.012,1.036,0.016,34.4
73,25458.00,25452.00,6.00,2.453,7625,0.004,1.257,0.012,1.159,0.020,34.3
74,19573.00,19567.00,6.00,1.991,5863,0.004,0.978,0.013,0.973,0.022,29.2
75,3424.00,3420.00,4.00,0.784,1025,0.004,0.110,0.015,0.643,0.013,0.3
