Second,Ops/sec,Hits/sec,Misses/sec,Latency,KB/sec,Request_Creation_Time,Request_Buffer_Time,MW_Writes_To_Memcached_Time,Memcached_Process_Time,MW_Writes_To_Memtier_Time,Queue_Size
4,4383.00,4383.00,0.00,1.523,2409,0.013,0.201,0.027,1.244,0.038,1.1
5,12756.00,12756.00,0.00,1.099,7011,0.006,0.143,0.014,0.921,0.015,1.0
6,15653.00,15653.00,0.00,0.848,8602,0.004,0.170,0.013,0.648,0.012,1.2
7,14706.00,14706.00,0.00,0.901,8082,0.007,0.168,0.013,0.696,0.017,1.3
8,13773.00,13757.00,16.00,1.028,7561,0.007,0.170,0.015,0.822,0.015,1.1
9,14881.00,14873.00,8.00,0.911,8173,0.007,0.149,0.015,0.727,0.014,1.0
10,15515.00,15515.00,0.00,0.865,8527,0.005,0.170,0.011,0.663,0.016,1.5
11,14967.00,14967.00,0.00,0.879,8226,0.004,0.171,0.012,0.680,0.014,1.3
12,15096.00,15096.00,0.00,0.871,8296,0.006,0.169,0.012,0.671,0.014,1.2
13,15507.00,15507.00,0.00,0.851,8522,0.004,0.172,0.013,0.651,0.012,1.2
14,15591.00,15591.00,0.00,0.863,8568,0.006,0.141,0.016,0.689,0.011,1.2
15,15250.00,15248.00,2.00,0.842,8380,0.004,0.152,0.015,0.656,0.015,1.0
16,15442.00,15421.00,21.00,0.871,8475,0.005,0.201,0.011,0.641,0.014,1.4
17,15603.00,15602.00,1.00,0.854,8574,0.007,0.158,0.014,0.662,0.013,1.3
18,15835.00,15835.00,0.00,0.855,8703,0.006,0.203,0.012,0.621,0.013,1.4
19,16177.00,16177.00,0.00,0.821,8891,0.005,0.133,0.014,0.655,0.014,1.1
20,15318.00,15318.00,0.00,0.904,8419,0.004,0.134,0.015,0.738,0.014,1.0
21,15728.00,15728.00,0.00,0.832,8644,0.004,0.174,0.012,0.627,0.015,1.3
22,16166.00,16166.00,0.00,0.803,8885,0.005,0.172,0.012,0.600,0.014,1.3
23,15361.00,15361.00,0.00,0.889,8443,0.004,0.149,0.014,0.707,0.014,1.1
24,15954.00,15954.00,0.00,0.810,8768,0.005,0.159,0.012,0.620,0.014,1.1
25,15725.00,15725.00,0.00,0.862,8642,0.007,0.165,0.012,0.664,0.015,1.2
26,15528.00,15528.00,0.00,0.839,8534,0.005,0.139,0.012,0.673,0.011,1.1
27,15428.00,15428.00,0.00,0.810,8479,0.004,0.134,0.014,0.646,0.012,1.2
28,14522.00,14522.00,0.00,0.968,7981,0.004,0.244,0.015,0.691,0.014,1.6
29,15580.00,15580.00,0.00,0.885,8563,0.004,0.182,0.011,0.674,0.014,1.3
30,15764.00,15764.00,0.00,0.858,8664,0.004,0.152,0.014,0.672,0.016,1.2
31,15576.00,15576.00,0.00,0.808,8560,0.006,0.164,0.012,0.611,0.014,1.2
32,15507.00,15507.00,0.00,0.853,8522,0.004,0.141,0.014,0.681,0.012,1.2
33,16392.00,16392.00,0.00,0.769,9009,0.004,0.145,0.015,0.591,0.014,1.1
34,15964.00,15960.00,4.00,0.825,8771,0.006,0.134,0.012,0.658,0.015,1.1
35,15832.00,15830.00,2.00,0.856,8700,0.005,0.152,0.014,0.672,0.012,1.1
36,16313.00,16297.00,16.00,0.800,8957,0.004,0.158,0.012,0.615,0.012,1.2
37,15998.00,15988.00,10.00,0.808,8787,0.005,0.149,0.012,0.626,0.016,1.3
38,15678.00,15666.00,12.00,0.869,8610,0.003,0.214,0.013,0.627,0.011,1.6
39,16160.00,16140.00,20.00,0.800,8871,0.005,0.160,0.015,0.606,0.014,1.1
40,15240.00,15234.00,6.00,0.863,8372,0.007,0.166,0.014,0.664,0.012,1.1
41,15806.00,15804.00,2.00,0.795,8686,0.005,0.145,0.011,0.622,0.012,1.1
42,15960.00,15960.00,0.00,0.874,8771,0.004,0.163,0.011,0.685,0.011,1.2
43,15110.00,15110.00,0.00,0.914,8304,0.004,0.221,0.014,0.662,0.013,1.5
44,15741.00,15741.00,0.00,0.808,8651,0.005,0.159,0.014,0.616,0.014,1.1
45,15447.00,15447.00,0.00,0.877,8489,0.004,0.154,0.012,0.696,0.012,1.1
46,16094.00,16094.00,0.00,0.812,8845,0.004,0.180,0.011,0.602,0.015,1.3
47,16067.00,16067.00,0.00,0.811,8830,0.004,0.171,0.011,0.611,0.014,1.4
48,15395.00,15395.00,0.00,0.855,8461,0.006,0.165,0.013,0.657,0.015,1.1
49,15574.00,15574.00,0.00,0.804,8559,0.005,0.158,0.011,0.615,0.015,1.3
50,15559.00,15559.00,0.00,0.865,8551,0.005,0.167,0.012,0.666,0.015,1.3
51,16627.00,16627.00,0.00,0.825,9138,0.005,0.127,0.013,0.668,0.013,1.1
52,16223.00,16223.00,0.00,0.782,8916,0.004,0.148,0.014,0.604,0.012,1.2
53,15557.00,15557.00,0.00,0.824,8550,0.005,0.158,0.017,0.634,0.011,1.1
54,15506.00,15506.00,0.00,0.892,8522,0.004,0.193,0.013,0.669,0.013,1.3
55,15561.00,15561.00,0.00,0.902,8552,0.006,0.206,0.013,0.666,0.012,1.3
56,15853.00,15853.00,0.00,0.823,8713,0.006,0.186,0.017,0.603,0.012,1.4
57,15657.00,15657.00,0.00,0.871,8605,0.004,0.163,0.013,0.678,0.013,1.2
58,15664.00,15664.00,0.00,0.840,8609,0.005,0.196,0.015,0.608,0.015,1.5
59,15551.00,15551.00,0.00,0.808,8547,0.006,0.154,0.012,0.621,0.014,1.2
60,15873.00,15873.00,0.00,0.890,8723,0.005,0.137,0.014,0.722,0.012,1.0
61,16067.00,16067.00,0.00,0.802,8830,0.005,0.172,0.011,0.601,0.013,1.3
62,16444.00,16444.00,0.00,0.874,9037,0.003,0.164,0.014,0.682,0.011,1.3
63,15543.00,15543.00,0.00,0.899,8542,0.005,0.160,0.012,0.707,0.016,1.2
64,15706.00,15706.00,0.00,0.865,8632,0.005,0.175,0.013,0.658,0.014,1.3
65,16057.00,16057.00,0.00,0.866,8825,0.005,0.178,0.015,0.655,0.014,1.3
66,15909.00,15909.00,0.00,0.857,8743,0.005,0.137,0.013,0.689,0.013,1.4
67,16198.00,16198.00,0.00,0.821,8902,0.005,0.146,0.015,0.642,0.013,1.1
68,16109.00,16109.00,0.00,0.804,8853,0.004,0.144,0.012,0.632,0.013,1.2
69,16280.00,16280.00,0.00,0.842,8947,0.006,0.141,0.012,0.667,0.015,1.2
70,15747.00,15747.00,0.00,0.872,8654,0.005,0.196,0.013,0.647,0.012,1.5
71,16305.00,16305.00,0.00,0.786,8961,0.005,0.165,0.013,0.592,0.012,1.3
72,15414.00,15414.00,0.00,0.915,8471,0.004,0.154,0.012,0.733,0.012,1.3
73,16213.00,16213.00,0.00,0.835,8910,0.004,0.158,0.013,0.646,0.013,1.3
74,7820.00,7820.00,0.00,0.863,4298,0.007,0.204,0.014,0.625,0.013,1.2
