Second,Ops/sec,Hits/sec,Misses/sec,Latency,KB/sec,Request_Creation_Time,Request_Buffer_Time,MW_Writes_To_Memcached_Time,Memcached_Process_Time,MW_Writes_To_Memtier_Time,Queue_Size
4,2443.00,2443.00,0.00,5.417,2567,0.019,4.566,0.014,0.771,0.048,52.8
5,10173.00,10173.00,0.00,15.068,10689,0.004,14.289,0.008,0.754,0.014,151.0
6,13318.00,13318.00,0.00,13.838,13992,0.004,13.235,0.007,0.580,0.012,177.0
7,12606.00,12606.00,0.00,14.539,13245,0.003,13.903,0.006,0.614,0.013,176.1
8,12811.00,12811.00,0.00,14.209,13459,0.003,13.584,0.007,0.604,0.012,174.8
9,12729.00,12729.00,0.00,14.454,13373,0.003,13.823,0.007,0.609,0.013,176.1
10,10031.00,10031.00,0.00,18.132,10538,0.003,17.334,0.006,0.773,0.015,174.8
11,13273.00,13273.00,0.00,13.886,13944,0.003,13.286,0.006,0.579,0.013,176.7
12,13516.00,13516.00,0.00,13.630,14200,0.003,13.036,0.006,0.572,0.013,176.8
13,13064.00,13064.00,0.00,14.066,13726,0.003,13.452,0.007,0.592,0.013,176.2
14,12902.00,12902.00,0.00,14.334,13553,0.003,13.711,0.006,0.601,0.013,177.5
15,13782.00,13782.00,0.00,13.341,14479,0.003,12.759,0.006,0.561,0.013,176.3
16,12476.00,12476.00,0.00,14.741,13108,0.003,14.098,0.006,0.622,0.013,176.1
17,13767.00,13767.00,0.00,13.390,14463,0.003,12.807,0.006,0.562,0.013,176.9
18,12902.00,12902.00,0.00,14.288,13553,0.003,13.666,0.006,0.600,0.013,176.8
19,12580.00,12580.00,0.00,14.643,13216,0.003,14.006,0.007,0.615,0.013,176.7
20,12692.00,12692.00,0.00,14.509,13333,0.003,13.877,0.006,0.609,0.014,176.2
21,12480.00,12480.00,0.00,14.767,13111,0.003,14.123,0.006,0.622,0.013,176.5
22,11537.00,11537.00,0.00,15.947,12121,0.003,15.252,0.006,0.673,0.013,176.6
23,13417.00,13417.00,0.00,13.812,14096,0.003,13.214,0.006,0.577,0.013,177.4
24,12109.00,12109.00,0.00,15.241,12721,0.003,14.579,0.006,0.640,0.013,177.2
25,12385.00,12385.00,0.00,14.940,13011,0.003,14.292,0.006,0.627,0.013,177.0
26,13017.00,13017.00,0.00,14.224,13675,0.003,13.608,0.006,0.595,0.013,177.4
27,13189.00,13189.00,0.00,14.003,13856,0.003,13.394,0.006,0.587,0.014,177.3
28,12535.00,12535.00,0.00,14.738,13169,0.003,14.098,0.006,0.618,0.013,177.1
29,13626.00,13626.00,0.00,13.525,14316,0.003,12.935,0.006,0.568,0.013,177.2
30,13070.00,13070.00,0.00,14.067,13731,0.003,13.454,0.007,0.591,0.014,176.6
31,12771.00,12771.00,0.00,14.417,13417,0.003,13.789,0.006,0.606,0.013,176.6
32,13149.00,13149.00,0.00,14.116,13814,0.003,13.505,0.006,0.589,0.013,177.7
33,13087.00,13087.00,0.00,14.042,13749,0.003,13.428,0.006,0.592,0.013,176.4
34,12760.00,12760.00,0.00,14.448,13405,0.003,13.819,0.006,0.606,0.014,177.0
35,13158.00,13158.00,0.00,14.048,13824,0.003,13.438,0.006,0.588,0.013,177.3
36,13920.00,13920.00,0.00,13.197,14624,0.003,12.621,0.006,0.555,0.013,176.5
37,12506.00,12506.00,0.00,14.674,13138,0.003,14.032,0.006,0.621,0.013,176.0
38,12671.00,12671.00,0.00,14.541,13312,0.003,13.908,0.006,0.612,0.013,176.8
39,13453.00,13453.00,0.00,13.739,14134,0.003,13.142,0.006,0.576,0.013,177.2
40,13186.00,13186.00,0.00,13.993,13852,0.003,13.385,0.006,0.586,0.013,176.9
41,13366.00,13364.00,2.00,13.818,14039,0.003,13.218,0.006,0.578,0.014,177.3
42,13859.00,13710.00,149.00,13.289,14404,0.003,12.716,0.007,0.551,0.013,176.5
43,12828.00,12787.00,41.00,14.326,13433,0.003,13.701,0.006,0.603,0.013,176.8
44,12205.00,12205.00,0.00,15.193,12821,0.003,14.535,0.006,0.636,0.013,177.2
45,12538.00,12538.00,0.00,14.701,13172,0.003,14.062,0.007,0.616,0.014,177.1
46,12128.00,12128.00,0.00,15.243,12741,0.003,14.582,0.006,0.639,0.013,177.3
47,12436.00,12436.00,0.00,14.894,13063,0.004,14.249,0.006,0.622,0.014,177.6
48,13375.00,13375.00,0.00,13.825,14049,0.003,13.225,0.006,0.579,0.013,176.9
49,13069.00,13069.00,0.00,14.001,13730,0.003,13.387,0.006,0.592,0.013,175.7
50,13351.00,13351.00,0.00,13.796,14027,0.003,13.195,0.006,0.579,0.013,176.7
51,13578.00,13578.00,0.00,13.485,14264,0.003,12.893,0.006,0.570,0.013,175.8
52,13293.00,13293.00,0.00,13.866,13965,0.003,13.262,0.006,0.582,0.013,176.6
53,12859.00,12859.00,0.00,14.315,13509,0.003,13.690,0.006,0.603,0.013,176.9
54,13543.00,13543.00,0.00,13.562,14228,0.003,12.969,0.006,0.571,0.013,175.8
55,12769.00,12769.00,0.00,14.422,13415,0.003,13.794,0.006,0.606,0.013,177.1
56,12740.00,12740.00,0.00,14.545,13384,0.003,13.916,0.006,0.608,0.013,177.3
57,13373.00,13373.00,0.00,13.822,14049,0.003,13.222,0.006,0.579,0.013,177.4
58,12556.00,12556.00,0.00,14.616,13191,0.003,13.977,0.006,0.617,0.013,175.9
59,12766.00,12766.00,0.00,14.433,13412,0.003,13.803,0.006,0.607,0.013,177.0
60,13181.00,13181.00,0.00,13.917,13848,0.003,13.308,0.006,0.587,0.013,176.1
61,12868.00,12868.00,0.00,14.346,13519,0.003,13.722,0.007,0.601,0.013,177.1
62,12506.00,12506.00,0.00,14.789,13140,0.003,14.147,0.006,0.620,0.013,177.2
63,12733.00,12733.00,0.00,14.493,13378,0.003,13.863,0.006,0.608,0.014,177.2
64,13364.00,13364.00,0.00,13.851,14039,0.003,13.250,0.006,0.579,0.013,177.2
65,13266.00,13266.00,0.00,13.860,13937,0.003,13.255,0.006,0.583,0.013,176.3
66,13130.00,13130.00,0.00,13.919,13795,0.002,13.308,0.006,0.590,0.012,175.7
67,13403.00,13403.00,0.00,13.764,14082,0.003,13.165,0.006,0.578,0.013,176.9
68,12715.00,12715.00,0.00,14.546,13358,0.003,13.915,0.006,0.610,0.013,177.0
69,13493.00,13493.00,0.00,13.669,14174,0.003,13.076,0.006,0.572,0.013,177.1
70,12678.00,12678.00,0.00,14.384,13318,0.002,13.750,0.006,0.613,0.012,174.8
71,12538.00,12538.00,0.00,14.561,13171,0.003,13.921,0.006,0.619,0.013,175.4
72,13587.00,13587.00,0.00,13.521,14274,0.002,12.929,0.006,0.571,0.012,176.4
73,12626.00,12626.00,0.00,14.467,13266,0.003,13.832,0.006,0.613,0.013,176.4
74,12334.00,12334.00,0.00,11.441,12958,0.003,10.799,0.006,0.620,0.013,127.8
75,9337.00,9337.00,0.00,1.156,9809,0.003,0.551,0.006,0.584,0.013,7.6
