Second,Ops/sec,Hits/sec,Misses/sec,Latency,KB/sec,Request_Creation_Time,Request_Buffer_Time,MW_Writes_To_Memcached_Time,Memcached_Process_Time,MW_Writes_To_Memtier_Time,Queue_Size
4,7026.00,7026.00,0.00,3.311,2106,0.022,1.331,0.048,1.862,0.048,28.4
5,27159.00,27159.00,0.00,3.020,8139,0.010,1.195,0.018,1.773,0.025,43.9
6,30650.00,30650.00,0.00,3.618,9183,0.008,1.770,0.018,1.801,0.022,62.2
7,28983.00,28983.00,0.00,3.799,8684,0.008,1.854,0.017,1.893,0.028,62.0
8,29636.00,29636.00,0.00,3.586,8879,0.007,1.730,0.021,1.807,0.021,62.1
9,32899.00,32899.00,0.00,3.341,9856,0.007,1.598,0.017,1.696,0.023,63.9
10,32760.00,32760.00,0.00,3.230,9813,0.007,1.549,0.016,1.631,0.026,64.3
11,31163.00,31163.00,0.00,3.552,9335,0.006,1.742,0.017,1.764,0.022,64.0
12,32892.00,32892.00,0.00,3.176,9854,0.007,1.511,0.014,1.624,0.021,63.0
13,33202.00,33202.00,0.00,3.294,9947,0.007,1.538,0.013,1.712,0.024,62.3
14,32337.00,32337.00,0.00,3.324,9688,0.007,1.608,0.015,1.674,0.020,63.4
15,33173.00,33173.00,0.00,3.228,9939,0.006,1.582,0.018,1.602,0.020,63.1
16,32251.00,32251.00,0.00,3.282,9663,0.007,1.556,0.017,1.681,0.021,62.1
17,31324.00,31323.00,1.00,3.169,9385,0.008,1.407,0.015,1.715,0.025,58.2
18,29973.00,29947.00,26.00,3.638,8972,0.008,1.742,0.024,1.837,0.027,64.4
19,29975.00,29927.00,48.00,3.732,8965,0.006,1.827,0.021,1.848,0.029,64.9
20,29363.00,29311.00,52.00,3.499,8780,0.007,1.607,0.022,1.837,0.025,61.9
21,29704.00,29669.00,35.00,3.643,8887,0.006,1.819,0.017,1.776,0.025,66.4
22,30152.00,30131.00,21.00,3.921,9025,0.006,1.959,0.018,1.912,0.025,66.2
23,30398.00,30389.00,9.00,3.518,9103,0.006,1.697,0.018,1.773,0.024,63.6
24,30078.00,30078.00,0.00,3.623,9010,0.007,1.750,0.025,1.813,0.028,62.5
25,30866.00,30866.00,0.00,3.651,9247,0.007,1.874,0.018,1.726,0.025,69.2
26,30223.00,30223.00,0.00,3.455,9055,0.008,1.653,0.018,1.749,0.027,63.7
27,33290.00,33290.00,0.00,3.190,9974,0.006,1.510,0.015,1.635,0.023,61.3
28,30682.00,30682.00,0.00,3.530,9193,0.008,1.691,0.019,1.785,0.027,64.4
29,31047.00,31047.00,0.00,3.372,9302,0.007,1.617,0.016,1.708,0.025,63.6
30,32103.00,32103.00,0.00,3.442,9618,0.006,1.634,0.015,1.761,0.025,63.3
31,31938.00,31938.00,0.00,3.285,9568,0.008,1.582,0.016,1.660,0.020,63.5
32,32205.00,32205.00,0.00,3.235,9648,0.007,1.529,0.016,1.660,0.022,59.8
33,32663.00,32663.00,0.00,3.358,9785,0.007,1.578,0.017,1.732,0.023,63.9
34,30712.00,30712.00,0.00,3.541,9200,0.005,1.725,0.020,1.765,0.026,63.2
35,30926.00,30926.00,0.00,3.399,9265,0.007,1.625,0.019,1.721,0.026,63.2
36,29515.00,29515.00,0.00,3.815,8842,0.006,1.908,0.017,1.859,0.025,66.7
37,30541.00,30541.00,0.00,3.718,9149,0.006,1.844,0.015,1.826,0.026,66.5
38,29768.00,29768.00,0.00,3.618,8918,0.007,1.714,0.020,1.851,0.026,63.8
39,31623.00,31623.00,0.00,3.331,9473,0.008,1.576,0.016,1.707,0.023,63.3
40,30261.00,30261.00,0.00,3.718,9065,0.006,1.814,0.018,1.856,0.024,66.1
41,31149.00,31149.00,0.00,3.530,9332,0.007,1.684,0.020,1.793,0.026,62.0
42,29904.00,29904.00,0.00,3.649,8959,0.006,1.747,0.014,1.853,0.029,61.3
43,29575.00,29575.00,0.00,4.032,8860,0.006,2.091,0.017,1.895,0.023,67.4
44,31965.00,31959.00,6.00,3.448,9575,0.009,1.679,0.018,1.717,0.026,65.3
45,30116.00,30103.00,13.00,3.585,9019,0.007,1.749,0.015,1.790,0.025,64.3
46,32278.00,32262.00,16.00,3.603,9666,0.006,1.821,0.017,1.735,0.025,63.8
47,30848.00,30833.00,15.00,3.541,9237,0.007,1.680,0.018,1.808,0.029,61.9
48,31223.00,31202.00,21.00,3.593,9348,0.007,1.776,0.016,1.770,0.024,65.4
49,31723.00,31701.00,22.00,3.526,9498,0.005,1.710,0.018,1.771,0.022,65.4
50,32154.00,32131.00,23.00,3.115,9626,0.006,1.417,0.017,1.650,0.025,63.7
51,31920.00,31901.00,19.00,3.444,9557,0.007,1.681,0.016,1.718,0.022,63.8
52,32142.00,32130.00,12.00,3.207,9626,0.007,1.482,0.017,1.676,0.026,62.3
53,31287.00,31275.00,12.00,3.457,9370,0.007,1.635,0.018,1.773,0.023,64.5
54,32440.00,32432.00,8.00,3.328,9716,0.006,1.552,0.018,1.730,0.022,62.1
55,29827.00,29817.00,10.00,3.801,8933,0.008,1.905,0.020,1.842,0.027,64.0
56,31131.00,31127.00,4.00,3.631,9325,0.006,1.717,0.023,1.853,0.031,64.6
57,31491.00,31486.00,5.00,3.462,9433,0.008,1.681,0.017,1.728,0.028,61.6
58,32116.00,32110.00,6.00,3.450,9620,0.006,1.730,0.015,1.682,0.017,66.3
59,33717.00,33717.00,0.00,3.297,10101,0.007,1.629,0.017,1.621,0.024,65.9
60,32000.00,32000.00,0.00,3.344,9587,0.007,1.604,0.015,1.695,0.023,63.8
61,31582.00,31582.00,0.00,3.304,9462,0.006,1.542,0.016,1.716,0.025,61.2
62,33810.00,33810.00,0.00,3.124,10130,0.006,1.439,0.014,1.644,0.021,60.6
63,31806.00,31806.00,0.00,3.442,9529,0.004,1.681,0.018,1.719,0.020,63.0
64,33048.00,33048.00,0.00,3.158,9901,0.007,1.499,0.017,1.614,0.022,62.9
65,32255.00,32255.00,0.00,3.256,9664,0.007,1.543,0.015,1.667,0.024,64.2
66,31356.00,31356.00,0.00,3.470,9394,0.007,1.660,0.014,1.766,0.023,62.8
67,32005.00,32005.00,0.00,3.588,9589,0.005,1.783,0.020,1.752,0.028,64.0
68,32723.00,32723.00,0.00,3.390,9804,0.007,1.635,0.016,1.711,0.021,64.7
69,32302.00,32302.00,0.00,3.222,9678,0.005,1.501,0.018,1.674,0.024,61.2
70,33110.00,33110.00,0.00,3.130,9920,0.005,1.487,0.016,1.598,0.024,61.9
71,30730.00,30730.00,0.00,3.680,9207,0.007,1.797,0.018,1.834,0.023,65.1
72,30192.00,30192.00,0.00,3.450,9046,0.008,1.609,0.017,1.789,0.026,63.5
73,30467.00,30467.00,0.00,3.630,9128,0.006,1.789,0.016,1.795,0.024,63.1
74,26430.00,26430.00,0.00,2.556,7919,0.007,1.125,0.016,1.392,0.016,39.5
75,10226.00,10226.00,0.00,1.067,3064,0.008,0.228,0.011,0.804,0.016,2.5
