Second,Ops/sec,Hits/sec,Misses/sec,Latency,KB/sec,Request_Creation_Time,Request_Buffer_Time,MW_Writes_To_Memcached_Time,Memcached_Process_Time,MW_Writes_To_Memtier_Time,Queue_Size
4,3454.00,3454.00,0.00,1.219,384,0.024,0.199,0.028,0.925,0.044,1.3
5,12176.00,12176.00,0.00,1.116,1353,0.006,0.151,0.012,0.935,0.012,1.2
6,15577.00,15577.00,0.00,0.855,1731,0.006,0.164,0.012,0.659,0.014,1.2
7,14430.00,14430.00,0.00,0.929,1603,0.005,0.163,0.014,0.731,0.015,1.1
8,15077.00,15066.00,11.00,0.916,1674,0.004,0.197,0.014,0.686,0.015,1.4
9,14427.00,14414.00,13.00,0.963,1601,0.004,0.159,0.014,0.773,0.012,1.1
10,16059.00,16059.00,0.00,0.875,1784,0.004,0.180,0.014,0.663,0.015,1.3
11,15782.00,15782.00,0.00,0.816,1754,0.005,0.162,0.011,0.623,0.014,1.2
12,15442.00,15442.00,0.00,0.854,1715,0.004,0.169,0.012,0.657,0.011,1.3
13,16324.00,16324.00,0.00,0.853,1814,0.005,0.153,0.011,0.673,0.011,1.3
14,16294.00,16294.00,0.00,0.814,1810,0.005,0.143,0.012,0.641,0.013,1.2
15,16014.00,16010.00,4.00,0.867,1779,0.003,0.133,0.016,0.703,0.013,1.1
16,15820.00,15802.00,18.00,0.834,1756,0.006,0.152,0.013,0.651,0.012,1.2
17,16470.00,16468.00,2.00,0.756,1830,0.005,0.140,0.012,0.587,0.013,1.1
18,16192.00,16192.00,0.00,0.806,1799,0.005,0.125,0.013,0.652,0.011,1.1
19,16088.00,16088.00,0.00,0.830,1788,0.005,0.151,0.012,0.651,0.012,1.0
20,16051.00,16051.00,0.00,0.813,1784,0.006,0.137,0.013,0.641,0.017,1.1
21,15383.00,15383.00,0.00,0.906,1709,0.005,0.183,0.010,0.696,0.012,1.3
22,16006.00,16006.00,0.00,0.834,1779,0.004,0.146,0.011,0.658,0.014,1.1
23,16419.00,16419.00,0.00,0.836,1825,0.005,0.166,0.014,0.637,0.013,1.4
24,16518.00,16518.00,0.00,0.824,1835,0.006,0.116,0.012,0.677,0.013,1.0
25,16359.00,16359.00,0.00,0.806,1818,0.005,0.155,0.011,0.623,0.012,1.2
26,16006.00,16006.00,0.00,0.829,1779,0.005,0.137,0.011,0.662,0.015,1.1
27,15811.00,15811.00,0.00,0.824,1757,0.005,0.148,0.014,0.646,0.011,1.2
28,16049.00,16049.00,0.00,0.852,1783,0.005,0.194,0.011,0.630,0.013,1.4
29,16547.00,16547.00,0.00,0.790,1838,0.006,0.137,0.013,0.622,0.012,1.0
30,16316.00,16316.00,0.00,0.800,1813,0.003,0.143,0.011,0.631,0.012,1.1
31,15009.00,15009.00,0.00,0.940,1668,0.006,0.161,0.015,0.746,0.012,1.1
32,15874.00,15874.00,0.00,0.896,1764,0.003,0.154,0.013,0.714,0.012,1.1
33,15964.00,15963.00,1.00,0.821,1774,0.005,0.124,0.013,0.667,0.012,1.0
34,16175.00,16170.00,5.00,0.843,1797,0.003,0.154,0.011,0.661,0.014,1.1
35,16595.00,16583.00,12.00,0.796,1843,0.005,0.122,0.014,0.640,0.015,1.1
36,15595.00,15586.00,9.00,0.905,1732,0.004,0.118,0.013,0.755,0.016,1.0
37,16237.00,16222.00,15.00,0.804,1803,0.006,0.147,0.011,0.627,0.013,1.2
38,16469.00,16454.00,15.00,0.776,1828,0.005,0.140,0.012,0.606,0.012,1.2
39,16065.00,16058.00,7.00,0.812,1784,0.006,0.150,0.011,0.631,0.014,1.2
40,15770.00,15764.00,6.00,0.875,1752,0.004,0.153,0.013,0.693,0.012,1.1
41,15777.00,15775.00,2.00,0.875,1753,0.006,0.127,0.012,0.715,0.014,1.0
42,15432.00,15432.00,0.00,0.884,1714,0.005,0.157,0.011,0.698,0.013,1.3
43,16156.00,16156.00,0.00,0.836,1795,0.003,0.165,0.011,0.645,0.012,1.2
44,15958.00,15958.00,0.00,0.829,1773,0.005,0.144,0.012,0.655,0.013,1.1
45,15922.00,15922.00,0.00,0.886,1769,0.004,0.156,0.014,0.701,0.011,1.1
46,15344.00,15344.00,0.00,0.894,1705,0.004,0.137,0.012,0.729,0.011,1.0
47,15895.00,15895.00,0.00,0.844,1766,0.004,0.140,0.012,0.674,0.013,1.1
48,15964.00,15964.00,0.00,0.858,1774,0.006,0.142,0.013,0.685,0.013,1.2
49,15943.00,15943.00,0.00,0.854,1771,0.005,0.158,0.014,0.663,0.014,1.1
50,15587.00,15587.00,0.00,0.947,1732,0.003,0.201,0.012,0.718,0.013,1.3
51,15756.00,15756.00,0.00,0.826,1751,0.004,0.139,0.014,0.655,0.013,1.0
52,15873.00,15873.00,0.00,0.873,1764,0.006,0.154,0.014,0.686,0.013,1.1
53,15973.00,15973.00,0.00,0.835,1775,0.006,0.138,0.012,0.665,0.014,1.2
54,16311.00,16311.00,0.00,0.828,1812,0.006,0.180,0.013,0.614,0.016,1.3
55,15768.00,15768.00,0.00,0.858,1752,0.004,0.152,0.012,0.675,0.015,1.2
56,15606.00,15606.00,0.00,0.887,1734,0.005,0.153,0.011,0.704,0.014,1.2
57,16312.00,16312.00,0.00,0.805,1812,0.005,0.155,0.013,0.620,0.012,1.2
58,15291.00,15291.00,0.00,0.868,1699,0.006,0.137,0.011,0.700,0.013,1.0
59,15872.00,15872.00,0.00,0.797,1764,0.004,0.138,0.011,0.633,0.012,1.1
60,16111.00,16111.00,0.00,0.821,1790,0.004,0.152,0.013,0.639,0.012,1.3
61,15297.00,15297.00,0.00,0.904,1700,0.005,0.165,0.012,0.707,0.015,1.4
62,16038.00,16038.00,0.00,0.829,1782,0.004,0.135,0.013,0.665,0.012,1.2
63,15807.00,15807.00,0.00,0.808,1756,0.005,0.133,0.014,0.645,0.011,1.1
64,15258.00,15258.00,0.00,0.880,1695,0.004,0.190,0.010,0.664,0.011,1.4
65,15963.00,15963.00,0.00,0.851,1774,0.005,0.148,0.012,0.674,0.013,1.2
66,15254.00,15254.00,0.00,0.892,1695,0.004,0.180,0.015,0.676,0.017,1.4
67,16166.00,16166.00,0.00,0.812,1796,0.005,0.150,0.012,0.631,0.014,1.3
68,16011.00,16011.00,0.00,0.854,1779,0.005,0.175,0.013,0.648,0.013,1.3
69,15429.00,15429.00,0.00,0.878,1714,0.004,0.191,0.013,0.658,0.011,1.2
70,16378.00,16378.00,0.00,0.817,1820,0.004,0.148,0.011,0.642,0.013,1.1
71,16417.00,16417.00,0.00,0.771,1824,0.007,0.102,0.012,0.633,0.016,1.0
72,16086.00,16086.00,0.00,0.861,1787,0.005,0.196,0.010,0.635,0.014,1.5
73,15814.00,15814.00,0.00,0.824,1757,0.004,0.137,0.014,0.657,0.012,1.1
74,9706.00,9706.00,0.00,0.891,1078,0.004,0.237,0.012,0.623,0.014,1.6
