Second,Ops/sec,Hits/sec,Misses/sec,Latency,KB/sec,Request_Creation_Time,Request_Buffer_Time,MW_Writes_To_Memcached_Time,Memcached_Process_Time,MW_Writes_To_Memtier_Time,Queue_Size
4,6753.00,6753.00,0.00,4.443,751,0.020,1.899,0.050,2.430,0.043,28.7
5,26412.00,26412.00,0.00,3.356,2937,0.009,1.378,0.021,1.920,0.027,48.4
6,30599.00,30599.00,0.00,3.617,3400,0.008,1.772,0.020,1.790,0.027,66.0
7,29875.00,29875.00,0.00,3.765,3320,0.009,1.828,0.023,1.880,0.026,62.3
8,28725.00,28725.00,0.00,3.772,3192,0.008,1.860,0.017,1.863,0.025,63.6
9,30879.00,30879.00,0.00,4.041,3432,0.007,2.115,0.019,1.878,0.022,70.0
10,30227.00,30227.00,0.00,3.447,3357,0.008,1.681,0.022,1.705,0.031,64.6
11,35260.00,35260.00,0.00,3.216,3917,0.006,1.547,0.013,1.625,0.023,63.4
12,31908.00,31908.00,0.00,3.600,3545,0.007,1.828,0.016,1.728,0.022,67.4
13,34221.00,34221.00,0.00,3.047,3802,0.007,1.406,0.018,1.593,0.024,60.7
14,33017.00,33017.00,0.00,3.525,3669,0.005,1.712,0.020,1.762,0.026,63.2
15,32607.00,32607.00,0.00,3.696,3624,0.005,1.894,0.018,1.752,0.026,65.8
16,32945.00,32945.00,0.00,3.167,3661,0.009,1.475,0.016,1.644,0.024,61.0
17,32398.00,32398.00,0.00,3.252,3601,0.008,1.533,0.015,1.672,0.025,64.2
18,29803.00,29790.00,13.00,3.746,3310,0.006,1.813,0.020,1.880,0.027,63.0
19,31074.00,31008.00,66.00,3.709,3445,0.006,1.837,0.020,1.817,0.028,64.2
20,32909.00,32840.00,69.00,3.563,3648,0.007,1.784,0.021,1.729,0.022,66.9
21,30212.00,30181.00,31.00,3.726,3352,0.007,1.830,0.016,1.845,0.029,64.9
22,31269.00,31258.00,11.00,3.686,3472,0.006,1.793,0.016,1.844,0.027,64.7
23,33136.00,33134.00,2.00,3.356,3681,0.008,1.618,0.020,1.687,0.023,64.6
24,30741.00,30741.00,0.00,3.837,3415,0.008,1.954,0.021,1.831,0.023,67.3
25,32776.00,32776.00,0.00,3.546,3642,0.006,1.736,0.017,1.764,0.023,61.3
26,33200.00,33200.00,0.00,3.395,3689,0.006,1.643,0.019,1.705,0.022,64.8
27,32838.00,32838.00,0.00,3.406,3650,0.008,1.639,0.016,1.722,0.022,64.1
28,33005.00,33005.00,0.00,3.426,3668,0.006,1.664,0.017,1.716,0.022,64.5
29,32317.00,32317.00,0.00,3.373,3591,0.005,1.630,0.018,1.695,0.025,64.1
30,34577.00,34577.00,0.00,3.315,3842,0.005,1.609,0.017,1.662,0.022,65.2
31,33458.00,33458.00,0.00,3.184,3717,0.007,1.554,0.018,1.582,0.023,61.2
32,33028.00,33028.00,0.00,3.309,3669,0.007,1.572,0.014,1.689,0.027,63.4
33,33326.00,33326.00,0.00,3.232,3702,0.007,1.540,0.016,1.643,0.025,62.6
34,33353.00,33353.00,0.00,3.397,3705,0.007,1.709,0.014,1.646,0.021,61.5
35,31781.00,31781.00,0.00,3.417,3531,0.005,1.636,0.015,1.736,0.025,64.4
36,33756.00,33756.00,0.00,3.194,3750,0.007,1.527,0.015,1.623,0.022,62.5
37,31614.00,31614.00,0.00,3.401,3512,0.006,1.640,0.015,1.713,0.026,64.4
38,32940.00,32940.00,0.00,3.131,3660,0.008,1.458,0.015,1.627,0.023,60.1
39,32813.00,32813.00,0.00,3.644,3645,0.007,1.902,0.016,1.695,0.025,66.3
40,33281.00,33281.00,0.00,3.392,3698,0.007,1.675,0.016,1.668,0.027,64.0
41,33214.00,33214.00,0.00,3.143,3690,0.007,1.460,0.016,1.636,0.023,60.5
42,32218.00,32218.00,0.00,3.391,3580,0.005,1.634,0.016,1.715,0.022,62.1
43,33524.00,33523.00,1.00,3.220,3725,0.008,1.538,0.014,1.638,0.022,63.4
44,33629.00,33613.00,16.00,3.356,3735,0.007,1.625,0.018,1.680,0.025,63.7
45,32687.00,32669.00,18.00,3.596,3631,0.006,1.829,0.019,1.722,0.021,65.1
46,32892.00,32869.00,23.00,3.400,3653,0.008,1.688,0.015,1.667,0.022,65.5
47,32460.00,32428.00,32.00,3.309,3603,0.007,1.534,0.017,1.728,0.024,62.0
48,33925.00,33899.00,26.00,3.164,3767,0.006,1.481,0.016,1.636,0.025,60.9
49,33336.00,33312.00,24.00,3.788,3701,0.006,2.001,0.014,1.747,0.021,67.5
50,31033.00,31018.00,15.00,3.480,3446,0.008,1.693,0.016,1.738,0.025,62.3
51,32443.00,32431.00,12.00,3.471,3604,0.007,1.693,0.017,1.729,0.025,62.4
52,33516.00,33505.00,11.00,3.425,3722,0.006,1.712,0.016,1.666,0.026,66.0
53,32708.00,32701.00,7.00,3.288,3634,0.007,1.548,0.015,1.692,0.026,61.6
54,31849.00,31848.00,1.00,3.495,3538,0.007,1.679,0.016,1.768,0.024,63.1
55,33188.00,33186.00,2.00,3.359,3687,0.006,1.640,0.016,1.675,0.023,64.5
56,33335.00,33333.00,2.00,3.422,3704,0.007,1.675,0.018,1.697,0.026,63.7
57,32516.00,32514.00,2.00,3.256,3613,0.005,1.564,0.019,1.645,0.023,63.3
58,33527.00,33527.00,0.00,3.255,3725,0.009,1.557,0.018,1.644,0.027,62.9
59,31446.00,31446.00,0.00,3.665,3494,0.006,1.800,0.016,1.818,0.025,64.9
60,32646.00,32646.00,0.00,3.399,3628,0.006,1.660,0.015,1.696,0.021,63.4
61,33017.00,33017.00,0.00,3.484,3669,0.007,1.730,0.016,1.708,0.023,66.2
62,32252.00,32252.00,0.00,3.505,3584,0.007,1.687,0.019,1.770,0.022,64.2
63,30981.00,30981.00,0.00,3.535,3443,0.007,1.708,0.015,1.782,0.024,63.4
64,31226.00,31226.00,0.00,3.610,3470,0.007,1.807,0.020,1.751,0.024,65.9
65,31218.00,31218.00,0.00,3.590,3469,0.007,1.743,0.016,1.795,0.028,63.3
66,34915.00,34915.00,0.00,3.093,3880,0.005,1.466,0.015,1.582,0.026,59.3
67,33276.00,33276.00,0.00,3.318,3698,0.007,1.595,0.014,1.678,0.023,65.1
68,33262.00,33262.00,0.00,3.257,3696,0.006,1.553,0.017,1.658,0.023,63.9
69,32380.00,32380.00,0.00,3.574,3598,0.007,1.816,0.015,1.715,0.021,64.6
70,32145.00,32145.00,0.00,3.548,3572,0.006,1.769,0.016,1.732,0.025,66.5
71,32638.00,32638.00,0.00,3.499,3627,0.005,1.704,0.019,1.745,0.026,64.7
72,32913.00,32913.00,0.00,3.343,3658,0.007,1.568,0.015,1.731,0.021,60.5
73,33421.00,33421.00,0.00,3.219,3714,0.005,1.539,0.015,1.641,0.020,64.2
74,24883.00,24883.00,0.00,2.727,2765,0.006,1.200,0.015,1.487,0.021,44.2
75,9796.00,9796.00,0.00,0.944,1089,0.003,0.233,0.014,0.685,0.009,2.7
