Second,Ops/sec,Hits/sec,Misses/sec,Latency,KB/sec,Request_Creation_Time,Request_Buffer_Time,MW_Writes_To_Memcached_Time,Memcached_Process_Time,MW_Writes_To_Memtier_Time,Queue_Size
4,5153.00,5153.00,0.00,2.179,5414,0.017,0.566,0.056,1.500,0.041,3.9
5,16815.00,16815.00,0.00,1.575,17666,0.008,0.303,0.017,1.228,0.019,3.2
6,19759.00,19759.00,0.00,1.340,20759,0.006,0.289,0.016,1.009,0.018,3.5
7,20620.00,20620.00,0.00,1.208,21662,0.006,0.281,0.017,0.889,0.016,3.7
8,19702.00,19702.00,0.00,1.301,20698,0.007,0.253,0.014,1.011,0.015,3.1
9,20175.00,20175.00,0.00,1.334,21196,0.005,0.312,0.012,0.985,0.019,3.4
10,20453.00,20426.00,27.00,1.290,21459,0.008,0.302,0.013,0.950,0.018,3.8
11,19936.00,19915.00,21.00,1.333,20921,0.005,0.333,0.016,0.961,0.018,4.0
12,19805.00,19805.00,0.00,1.403,20806,0.005,0.339,0.017,1.021,0.021,3.8
13,20190.00,20190.00,0.00,1.310,21211,0.006,0.305,0.014,0.965,0.020,3.9
14,20883.00,20883.00,0.00,1.198,21940,0.007,0.307,0.018,0.848,0.019,3.8
15,19459.00,19459.00,0.00,1.425,20442,0.004,0.328,0.019,1.053,0.021,3.7
16,20387.00,20387.00,0.00,1.268,21418,0.006,0.320,0.017,0.908,0.017,3.6
17,19811.00,19811.00,0.00,1.363,20812,0.007,0.319,0.019,1.002,0.016,4.0
18,21238.00,21238.00,0.00,1.250,22312,0.005,0.255,0.018,0.956,0.015,3.5
19,20416.00,20416.00,0.00,1.284,21448,0.005,0.317,0.017,0.929,0.015,4.2
20,20894.00,20893.00,1.00,1.171,21950,0.007,0.300,0.015,0.831,0.018,4.0
21,21038.00,21023.00,15.00,1.236,22087,0.006,0.278,0.017,0.918,0.017,3.6
22,20940.00,20914.00,26.00,1.212,21972,0.006,0.270,0.018,0.898,0.020,3.4
23,20639.00,20634.00,5.00,1.232,21677,0.005,0.316,0.017,0.877,0.018,4.3
24,18603.00,18602.00,1.00,1.486,19543,0.005,0.328,0.024,1.108,0.022,3.6
25,20717.00,20717.00,0.00,1.264,21765,0.006,0.279,0.018,0.945,0.017,3.4
26,20370.00,20370.00,0.00,1.240,21400,0.008,0.316,0.017,0.884,0.017,3.9
27,20166.00,20166.00,0.00,1.243,21186,0.005,0.258,0.015,0.946,0.019,3.1
28,20746.00,20746.00,0.00,1.282,21795,0.004,0.307,0.017,0.934,0.019,4.1
29,20487.00,20487.00,0.00,1.290,21523,0.006,0.356,0.016,0.890,0.021,3.8
30,20771.00,20771.00,0.00,1.274,21821,0.003,0.327,0.015,0.909,0.019,4.4
31,19730.00,19730.00,0.00,1.374,20728,0.005,0.306,0.019,1.027,0.019,3.7
32,20620.00,20620.00,0.00,1.231,21663,0.006,0.305,0.016,0.886,0.018,3.6
33,19948.00,19948.00,0.00,1.327,20957,0.006,0.307,0.015,0.976,0.022,3.6
34,20302.00,20302.00,0.00,1.309,21329,0.006,0.306,0.014,0.965,0.018,3.7
35,20268.00,20268.00,0.00,1.220,21293,0.006,0.297,0.015,0.884,0.018,3.7
36,20588.00,20588.00,0.00,1.246,21629,0.006,0.277,0.015,0.926,0.022,3.4
37,20477.00,20477.00,0.00,1.303,21513,0.006,0.298,0.016,0.962,0.021,3.5
38,20370.00,20370.00,0.00,1.212,21400,0.007,0.337,0.019,0.830,0.020,4.1
39,19953.00,19953.00,0.00,1.325,20962,0.005,0.315,0.016,0.970,0.019,3.8
40,20840.00,20840.00,0.00,1.282,21894,0.006,0.299,0.013,0.947,0.017,4.1
41,21157.00,21157.00,0.00,1.187,22227,0.006,0.288,0.015,0.861,0.018,3.7
42,20752.00,20752.00,0.00,1.367,21801,0.006,0.342,0.014,0.985,0.021,4.1
43,20036.00,20036.00,0.00,1.334,21049,0.007,0.364,0.014,0.932,0.016,4.0
44,20484.00,20484.00,0.00,1.332,21520,0.005,0.298,0.021,0.988,0.021,3.8
45,20435.00,20435.00,0.00,1.298,21468,0.006,0.302,0.017,0.952,0.021,3.8
46,20083.00,20083.00,0.00,1.318,21098,0.006,0.256,0.017,1.016,0.024,3.3
47,20293.00,20293.00,0.00,1.259,21319,0.005,0.282,0.015,0.940,0.017,3.3
48,20538.00,20537.00,1.00,1.286,21576,0.006,0.321,0.013,0.929,0.019,3.4
49,19697.00,19694.00,3.00,1.311,20690,0.006,0.327,0.012,0.949,0.017,3.7
50,20589.00,20582.00,7.00,1.230,21623,0.005,0.310,0.017,0.880,0.018,3.6
51,20326.00,20322.00,4.00,1.283,21350,0.006,0.312,0.016,0.934,0.015,3.6
52,21139.00,21122.00,17.00,1.261,22191,0.006,0.260,0.015,0.966,0.015,3.2
53,20546.00,20533.00,13.00,1.286,21572,0.005,0.301,0.012,0.951,0.016,3.9
54,21075.00,21060.00,15.00,1.241,22125,0.005,0.301,0.012,0.909,0.014,3.9
55,20977.00,20961.00,16.00,1.294,22021,0.005,0.358,0.015,0.899,0.017,4.4
56,20442.00,20424.00,18.00,1.332,21457,0.006,0.343,0.017,0.946,0.020,4.1
57,21539.00,21519.00,20.00,1.181,22607,0.007,0.296,0.012,0.847,0.019,3.5
58,21199.00,21187.00,12.00,1.260,22258,0.006,0.252,0.017,0.970,0.016,3.3
59,20696.00,20688.00,8.00,1.213,21734,0.007,0.303,0.012,0.873,0.018,3.9
60,20903.00,20898.00,5.00,1.188,21955,0.006,0.310,0.015,0.840,0.017,4.0
61,20341.00,20339.00,2.00,1.342,21367,0.005,0.332,0.013,0.976,0.016,4.0
62,20900.00,20898.00,2.00,1.254,21954,0.004,0.280,0.015,0.937,0.018,3.4
63,21562.00,21561.00,1.00,1.227,22651,0.005,0.273,0.015,0.914,0.020,4.0
64,20244.00,20244.00,0.00,1.393,21267,0.004,0.325,0.014,1.033,0.016,3.7
65,21172.00,21172.00,0.00,1.233,22242,0.005,0.282,0.014,0.913,0.020,3.5
66,20209.00,20209.00,0.00,1.310,21231,0.006,0.302,0.014,0.971,0.017,3.8
67,20331.00,20331.00,0.00,1.302,21359,0.005,0.347,0.012,0.920,0.018,4.2
68,20011.00,20011.00,0.00,1.352,21023,0.004,0.291,0.014,1.027,0.016,3.5
69,20365.00,20365.00,0.00,1.232,21395,0.007,0.330,0.015,0.865,0.015,3.8
70,20728.00,20728.00,0.00,1.307,21776,0.006,0.326,0.017,0.942,0.016,3.5
71,20704.00,20704.00,0.00,1.245,21751,0.005,0.305,0.016,0.901,0.018,3.7
72,21100.00,21100.00,0.00,1.263,22167,0.005,0.337,0.015,0.889,0.018,3.8
73,20681.00,20681.00,0.00,1.296,21727,0.005,0.368,0.013,0.894,0.017,4.6
74,10689.00,10689.00,0.00,1.459,11229,0.004,0.351,0.012,1.074,0.018,4.2
