Second,Ops/sec,Hits/sec,Misses/sec,Latency,KB/sec,Request_Creation_Time,Request_Buffer_Time,MW_Writes_To_Memcached_Time,Memcached_Process_Time,MW_Writes_To_Memtier_Time,Queue_Size
4,5843.00,5843.00,0.00,3.349,650,0.020,1.095,0.055,2.134,0.045,12.1
5,22932.00,22932.00,0.00,2.065,2549,0.010,0.507,0.015,1.514,0.019,11.1
6,27267.00,27267.00,0.00,1.994,3030,0.009,0.489,0.012,1.465,0.020,10.1
7,27663.00,27663.00,0.00,1.773,3074,0.007,0.409,0.020,1.313,0.025,9.0
8,26961.00,26961.00,0.00,1.876,2995,0.007,0.457,0.017,1.377,0.018,10.1
9,28045.00,28045.00,0.00,1.857,3116,0.007,0.451,0.020,1.354,0.026,10.5
10,27445.00,27445.00,0.00,1.898,3050,0.006,0.477,0.015,1.378,0.022,10.1
11,28727.00,28727.00,0.00,1.641,3193,0.007,0.451,0.014,1.149,0.019,10.6
12,25867.00,25861.00,6.00,1.992,2874,0.007,0.460,0.018,1.486,0.021,9.7
13,25492.00,25441.00,51.00,2.042,2826,0.007,0.538,0.021,1.446,0.030,10.9
14,26233.00,26196.00,37.00,1.913,2909,0.007,0.596,0.023,1.265,0.023,12.5
15,25572.00,25570.00,2.00,2.041,2840,0.005,0.493,0.020,1.494,0.028,11.6
16,26162.00,26162.00,0.00,1.899,2906,0.007,0.524,0.020,1.322,0.025,12.3
17,26325.00,26325.00,0.00,1.932,2925,0.006,0.555,0.019,1.328,0.025,12.4
18,25120.00,25120.00,0.00,2.091,2792,0.007,0.573,0.020,1.465,0.027,12.0
19,26300.00,26300.00,0.00,1.933,2923,0.007,0.587,0.017,1.296,0.024,13.6
20,26526.00,26526.00,0.00,1.950,2947,0.005,0.542,0.021,1.350,0.032,12.4
21,26105.00,26105.00,0.00,2.116,2900,0.004,0.571,0.016,1.501,0.023,11.7
22,26625.00,26625.00,0.00,1.876,2958,0.007,0.491,0.016,1.341,0.021,12.3
23,27311.00,27311.00,0.00,1.951,3034,0.007,0.589,0.019,1.311,0.025,12.2
24,26097.00,26097.00,0.00,2.036,2899,0.007,0.497,0.023,1.486,0.022,12.2
25,27308.00,27308.00,0.00,1.852,3034,0.006,0.427,0.018,1.380,0.021,10.4
26,27789.00,27789.00,0.00,1.669,3087,0.008,0.413,0.018,1.209,0.022,11.4
27,26006.00,26006.00,0.00,2.014,2889,0.005,0.506,0.020,1.462,0.020,11.6
28,27365.00,27356.00,9.00,1.832,3040,0.007,0.397,0.018,1.386,0.025,11.0
29,28267.00,28259.00,8.00,1.725,3140,0.006,0.430,0.020,1.245,0.024,11.0
30,27960.00,27933.00,27.00,1.876,3104,0.007,0.483,0.020,1.345,0.021,11.3
31,28290.00,28267.00,23.00,1.822,3141,0.007,0.532,0.016,1.243,0.024,12.4
32,27135.00,27122.00,13.00,1.856,3013,0.008,0.455,0.019,1.347,0.026,10.8
33,25573.00,25563.00,10.00,2.022,2840,0.007,0.476,0.023,1.491,0.025,10.6
34,28355.00,28350.00,5.00,1.704,3150,0.008,0.415,0.017,1.243,0.021,10.4
35,26442.00,26441.00,1.00,1.898,2938,0.006,0.447,0.021,1.402,0.021,11.6
36,27747.00,27747.00,0.00,1.884,3083,0.006,0.490,0.019,1.346,0.023,10.8
37,28423.00,28423.00,0.00,1.787,3158,0.007,0.419,0.016,1.323,0.022,10.3
38,26665.00,26665.00,0.00,1.919,2963,0.007,0.497,0.016,1.373,0.025,12.1
39,29471.00,29471.00,0.00,1.695,3275,0.008,0.417,0.015,1.238,0.018,10.2
40,28545.00,28545.00,0.00,1.789,3172,0.006,0.442,0.012,1.308,0.021,10.1
41,28224.00,28224.00,0.00,1.743,3137,0.006,0.435,0.019,1.261,0.022,10.5
42,29155.00,29155.00,0.00,1.730,3240,0.006,0.402,0.017,1.286,0.019,10.1
43,28018.00,28018.00,0.00,1.858,3114,0.006,0.472,0.015,1.343,0.022,9.4
44,28122.00,28122.00,0.00,1.733,3125,0.007,0.411,0.019,1.272,0.023,10.0
45,27051.00,27051.00,0.00,1.782,3006,0.008,0.451,0.017,1.286,0.020,10.8
46,27765.00,27765.00,0.00,1.939,3086,0.007,0.449,0.014,1.447,0.022,9.6
47,26890.00,26890.00,0.00,1.859,2988,0.006,0.529,0.019,1.283,0.022,12.2
48,27699.00,27699.00,0.00,1.880,3078,0.007,0.502,0.018,1.330,0.024,11.6
49,26081.00,26081.00,0.00,2.078,2898,0.006,0.583,0.016,1.454,0.020,10.9
50,28087.00,28087.00,0.00,1.788,3121,0.007,0.545,0.018,1.200,0.017,11.0
51,28311.00,28311.00,0.00,1.758,3146,0.006,0.443,0.019,1.266,0.024,10.2
52,26028.00,26028.00,0.00,2.024,2892,0.007,0.522,0.018,1.455,0.024,11.1
53,28681.00,28681.00,0.00,1.687,3187,0.008,0.394,0.020,1.243,0.022,10.3
54,27597.00,27597.00,0.00,1.802,3067,0.006,0.420,0.015,1.338,0.022,10.3
55,28764.00,28764.00,0.00,1.876,3196,0.006,0.477,0.015,1.355,0.023,10.7
56,27135.00,27135.00,0.00,1.846,3015,0.007,0.429,0.019,1.363,0.029,9.4
57,27422.00,27422.00,0.00,1.748,3047,0.007,0.411,0.019,1.289,0.021,10.0
58,26221.00,26221.00,0.00,1.998,2914,0.006,0.419,0.020,1.535,0.019,9.3
59,28235.00,28235.00,0.00,1.768,3137,0.007,0.409,0.014,1.313,0.025,10.3
60,28726.00,28726.00,0.00,1.764,3192,0.006,0.408,0.017,1.311,0.022,10.0
61,28623.00,28623.00,0.00,1.745,3180,0.008,0.420,0.015,1.280,0.022,9.5
62,27069.00,27069.00,0.00,1.835,3008,0.007,0.448,0.019,1.339,0.022,10.7
63,28432.00,28432.00,0.00,1.751,3159,0.007,0.416,0.017,1.290,0.021,9.7
64,26931.00,26931.00,0.00,2.047,2992,0.005,0.513,0.015,1.495,0.019,10.0
65,27020.00,27020.00,0.00,1.836,3002,0.005,0.457,0.020,1.332,0.022,10.3
66,27299.00,27299.00,0.00,1.884,3033,0.005,0.443,0.018,1.393,0.024,10.3
67,28293.00,28291.00,2.00,1.781,3144,0.008,0.426,0.017,1.309,0.022,9.8
68,27708.00,27707.00,1.00,1.809,3079,0.006,0.439,0.019,1.322,0.023,10.6
69,27934.00,27928.00,6.00,1.851,3103,0.006,0.452,0.018,1.356,0.020,9.8
70,28655.00,28649.00,6.00,1.913,3183,0.005,0.443,0.015,1.430,0.019,9.8
71,28863.00,28862.00,1.00,1.640,3207,0.007,0.431,0.015,1.166,0.021,10.5
72,28344.00,28337.00,7.00,1.714,3149,0.006,0.451,0.017,1.218,0.022,11.0
73,27482.00,27471.00,11.00,1.926,3053,0.006,0.452,0.017,1.433,0.018,9.4
74,15223.00,15210.00,13.00,1.789,1690,0.006,0.453,0.016,1.293,0.021,11.1
