Second,Ops/sec,Hits/sec,Misses/sec,Latency,KB/sec,Request_Creation_Time,Request_Buffer_Time,MW_Writes_To_Memcached_Time,Memcached_Process_Time,MW_Writes_To_Memtier_Time,Queue_Size
4,1528.00,1528.00,0.00,4.910,458,0.043,3.928,0.028,0.878,0.034,37.0
5,10031.00,10031.00,0.00,14.142,3007,0.005,13.341,0.007,0.776,0.014,138.3
6,13256.00,13256.00,0.00,13.954,3972,0.004,13.349,0.007,0.581,0.013,177.2
7,11804.00,11804.00,0.00,15.677,3537,0.004,14.997,0.007,0.656,0.013,177.7
8,13000.00,13000.00,0.00,14.199,3895,0.003,13.583,0.007,0.592,0.014,177.4
9,12920.00,12920.00,0.00,14.326,3871,0.003,13.706,0.007,0.597,0.013,177.6
10,11699.00,11699.00,0.00,15.686,3504,0.003,14.999,0.006,0.665,0.012,175.8
11,12333.00,12333.00,0.00,15.011,3695,0.003,14.360,0.006,0.629,0.013,177.8
12,12415.00,12415.00,0.00,14.859,3720,0.003,14.213,0.006,0.624,0.013,176.6
13,12574.00,12574.00,0.00,14.729,3768,0.003,14.090,0.006,0.617,0.013,177.2
14,13882.00,13882.00,0.00,13.277,4158,0.003,12.699,0.006,0.556,0.013,177.2
15,12754.00,12754.00,0.00,14.477,3821,0.003,13.848,0.006,0.607,0.013,177.3
16,12838.00,12838.00,0.00,14.364,3847,0.003,13.739,0.007,0.603,0.013,176.0
17,13040.00,13040.00,0.00,13.995,3907,0.003,13.381,0.006,0.593,0.013,176.2
18,12794.00,12794.00,0.00,14.487,3831,0.003,13.860,0.006,0.606,0.013,177.1
19,11108.00,11108.00,0.00,16.712,3327,0.003,15.989,0.006,0.700,0.014,177.1
20,12776.00,12776.00,0.00,14.482,3827,0.003,13.854,0.006,0.606,0.014,177.2
21,12078.00,12078.00,0.00,15.291,3618,0.003,14.626,0.006,0.643,0.014,176.7
22,12556.00,12556.00,0.00,14.701,3762,0.003,14.063,0.006,0.617,0.013,176.8
23,12673.00,12673.00,0.00,14.468,3797,0.003,13.835,0.006,0.611,0.013,176.2
24,12842.00,12842.00,0.00,14.426,3847,0.003,13.800,0.006,0.603,0.014,177.2
25,11547.00,11547.00,0.00,15.995,3459,0.003,15.301,0.006,0.673,0.013,177.4
26,13070.00,13070.00,0.00,14.197,3915,0.003,13.582,0.006,0.594,0.013,177.1
27,12725.00,12725.00,0.00,14.470,3812,0.003,13.840,0.006,0.609,0.013,177.7
28,12192.00,12192.00,0.00,15.101,3652,0.003,14.444,0.006,0.636,0.013,177.4
29,13489.00,13489.00,0.00,13.703,4042,0.003,13.107,0.006,0.575,0.012,175.0
30,13381.00,13381.00,0.00,13.672,4009,0.003,13.072,0.006,0.578,0.014,175.4
31,12904.00,12904.00,0.00,14.258,3866,0.003,13.638,0.006,0.598,0.013,176.8
32,12342.00,12342.00,0.00,14.888,3698,0.003,14.236,0.006,0.631,0.013,175.6
33,13614.00,13614.00,0.00,13.496,4080,0.003,12.907,0.006,0.567,0.013,176.9
34,12297.00,12297.00,0.00,15.046,3684,0.003,14.393,0.006,0.632,0.013,177.1
35,12651.00,12651.00,0.00,14.465,3791,0.003,13.832,0.006,0.611,0.013,177.2
36,12997.00,12997.00,0.00,14.278,3894,0.003,13.658,0.006,0.598,0.013,175.9
37,13113.00,13113.00,0.00,13.947,3928,0.003,13.335,0.006,0.591,0.013,175.9
38,13096.00,13096.00,0.00,14.136,3923,0.003,13.523,0.006,0.591,0.012,176.9
39,12868.00,12868.00,0.00,14.227,3856,0.003,13.602,0.006,0.602,0.013,175.8
40,12446.00,12446.00,0.00,14.887,3729,0.003,14.243,0.006,0.622,0.013,176.9
41,12342.00,12342.00,0.00,14.992,3696,0.003,14.341,0.006,0.629,0.013,176.9
42,12530.00,12505.00,25.00,14.517,3746,0.003,13.877,0.007,0.617,0.014,175.2
43,13212.00,13078.00,134.00,13.958,3918,0.003,13.351,0.006,0.584,0.013,176.5
44,12908.00,12875.00,33.00,14.317,3857,0.003,13.696,0.006,0.599,0.013,177.0
45,13894.00,13894.00,0.00,13.285,4162,0.002,12.708,0.006,0.557,0.012,176.9
46,12745.00,12745.00,0.00,14.465,3818,0.003,13.837,0.006,0.607,0.013,177.0
47,13375.00,13375.00,0.00,13.637,4005,0.003,13.037,0.006,0.579,0.013,176.4
48,12859.00,12859.00,0.00,14.320,3850,0.003,13.697,0.006,0.603,0.012,174.8
49,12769.00,12769.00,0.00,14.506,3824,0.003,13.875,0.006,0.609,0.013,177.2
50,12048.00,12048.00,0.00,15.293,3610,0.003,14.629,0.006,0.642,0.013,177.0
51,12712.00,12712.00,0.00,14.590,3808,0.003,13.959,0.006,0.608,0.014,177.7
52,11971.00,11971.00,0.00,15.353,3586,0.003,14.684,0.007,0.647,0.013,176.1
53,11683.00,11683.00,0.00,15.625,3500,0.003,14.938,0.006,0.666,0.013,176.3
54,12552.00,12552.00,0.00,14.875,3760,0.003,14.235,0.006,0.618,0.013,177.5
55,12941.00,12941.00,0.00,14.299,3877,0.003,13.680,0.006,0.598,0.013,177.2
56,12002.00,12002.00,0.00,15.426,3595,0.003,14.757,0.006,0.647,0.013,176.8
57,13268.00,13268.00,0.00,13.870,3974,0.003,13.265,0.006,0.584,0.012,177.1
58,13043.00,13043.00,0.00,14.225,3907,0.003,13.609,0.006,0.595,0.012,177.7
59,12460.00,12460.00,0.00,14.793,3733,0.003,14.150,0.006,0.623,0.012,176.5
60,13193.00,13193.00,0.00,13.945,3953,0.003,13.337,0.006,0.588,0.012,176.5
61,12502.00,12502.00,0.00,14.791,3746,0.003,14.149,0.006,0.621,0.013,177.2
62,13357.00,13357.00,0.00,13.794,4002,0.003,13.192,0.006,0.581,0.012,176.3
63,14011.00,14011.00,0.00,13.162,4199,0.002,12.591,0.006,0.551,0.012,177.4
64,13749.00,13749.00,0.00,13.407,4119,0.003,12.822,0.006,0.565,0.012,176.5
65,12077.00,12077.00,0.00,15.269,3617,0.003,14.605,0.006,0.643,0.012,176.9
66,12722.00,12722.00,0.00,14.419,3812,0.002,13.788,0.006,0.609,0.014,175.5
67,13602.00,13602.00,0.00,13.559,4076,0.003,12.969,0.006,0.569,0.013,176.2
68,12283.00,12283.00,0.00,15.029,3681,0.003,14.375,0.006,0.631,0.014,177.1
69,13473.00,13473.00,0.00,13.667,4036,0.003,13.071,0.007,0.574,0.013,177.1
70,13384.00,13384.00,0.00,13.749,4008,0.003,13.149,0.006,0.578,0.012,176.0
71,12265.00,12265.00,0.00,15.136,3673,0.003,14.482,0.007,0.632,0.013,177.4
72,12538.00,12538.00,0.00,14.650,3755,0.003,14.009,0.006,0.619,0.013,176.1
73,13468.00,13468.00,0.00,13.728,4035,0.003,13.132,0.006,0.574,0.013,177.4
74,13061.00,13061.00,0.00,12.027,3914,0.003,11.413,0.006,0.592,0.013,149.6
75,10764.00,10764.00,0.00,2.999,3225,0.003,2.393,0.006,0.585,0.012,32.0
