Second,Ops/sec,Hits/sec,Misses/sec,Latency,KB/sec,Request_Creation_Time,Request_Buffer_Time,MW_Writes_To_Memcached_Time,Memcached_Process_Time,MW_Writes_To_Memtier_Time,Queue_Size
4,2021.00,2021.00,0.00,8.527,2123,0.019,7.609,0.018,0.825,0.056,74.1
5,10106.00,10106.00,0.00,8.672,10618,0.005,7.877,0.007,0.769,0.014,80.6
6,12370.00,12370.00,0.00,7.222,12996,0.004,6.574,0.007,0.625,0.013,80.9
7,12881.00,12881.00,0.00,6.931,13532,0.003,6.309,0.007,0.600,0.013,81.6
8,12105.00,12105.00,0.00,7.376,12718,0.003,6.713,0.006,0.641,0.013,81.3
9,12283.00,12283.00,0.00,7.176,12904,0.004,6.523,0.007,0.628,0.014,80.4
10,12552.00,12552.00,0.00,6.894,13187,0.003,6.258,0.006,0.615,0.012,79.2
11,13102.00,13102.00,0.00,6.699,13764,0.003,6.087,0.006,0.590,0.014,80.4
12,12197.00,12197.00,0.00,7.324,12813,0.003,6.666,0.006,0.638,0.012,81.3
13,12879.00,12879.00,0.00,6.844,13530,0.003,6.225,0.006,0.598,0.013,81.1
14,13048.00,13048.00,0.00,6.757,13708,0.003,6.139,0.006,0.597,0.013,79.9
15,11522.00,11522.00,0.00,7.684,12105,0.003,6.987,0.006,0.675,0.013,80.7
16,12419.00,12419.00,0.00,7.134,13047,0.003,6.488,0.006,0.624,0.013,81.0
17,12985.00,12985.00,0.00,6.845,13642,0.003,6.228,0.006,0.596,0.013,81.5
18,12024.00,12024.00,0.00,7.407,12632,0.003,6.742,0.006,0.644,0.013,81.4
19,12334.00,12334.00,0.00,7.211,12958,0.003,6.558,0.007,0.631,0.013,80.8
20,13019.00,13019.00,0.00,6.838,13678,0.003,6.222,0.006,0.595,0.013,81.3
21,12153.00,12153.00,0.00,7.229,12767,0.003,6.568,0.006,0.638,0.014,80.3
22,12153.00,12153.00,0.00,7.355,12768,0.003,6.695,0.006,0.639,0.013,81.5
23,13319.00,13319.00,0.00,6.632,13992,0.003,6.031,0.006,0.579,0.013,81.4
24,12025.00,11929.00,96.00,7.369,12532,0.003,6.700,0.007,0.645,0.013,80.5
25,13267.00,13267.00,0.00,6.720,13937,0.003,6.116,0.006,0.583,0.013,81.6
26,12372.00,12372.00,0.00,7.136,12997,0.003,6.488,0.006,0.627,0.013,81.1
27,12623.00,12623.00,0.00,7.060,13260,0.003,6.426,0.006,0.613,0.013,81.6
28,12619.00,12619.00,0.00,7.067,13257,0.003,6.431,0.006,0.615,0.013,81.5
29,13650.00,13650.00,0.00,6.475,14340,0.003,5.888,0.006,0.565,0.013,80.9
30,12769.00,12769.00,0.00,6.974,13415,0.003,6.346,0.006,0.607,0.013,81.3
31,13018.00,13018.00,0.00,6.716,13676,0.003,6.103,0.006,0.590,0.013,80.8
32,12524.00,12524.00,0.00,7.011,13157,0.003,6.367,0.006,0.622,0.013,79.6
33,12360.00,12360.00,0.00,7.189,12986,0.003,6.539,0.006,0.627,0.013,81.2
34,12949.00,12949.00,0.00,6.775,13605,0.003,6.157,0.006,0.597,0.013,80.2
35,13311.00,13311.00,0.00,6.673,13984,0.003,6.070,0.006,0.581,0.013,81.2
36,13286.00,13286.00,0.00,6.700,13959,0.003,6.096,0.006,0.581,0.014,81.3
37,12770.00,12770.00,0.00,6.744,13415,0.003,6.116,0.006,0.607,0.012,78.5
38,12718.00,12718.00,0.00,6.960,13360,0.003,6.329,0.006,0.609,0.013,80.9
39,12069.00,12069.00,0.00,7.359,12679,0.003,6.693,0.006,0.643,0.013,80.9
40,13531.00,13531.00,0.00,6.577,14216,0.003,5.984,0.006,0.571,0.013,81.5
41,13685.00,13685.00,0.00,6.471,14377,0.003,5.884,0.006,0.565,0.013,81.0
42,13108.00,13108.00,0.00,6.742,13771,0.003,6.130,0.006,0.591,0.013,80.9
43,13299.00,13299.00,0.00,6.662,13971,0.003,6.058,0.006,0.583,0.012,81.1
44,11006.00,11006.00,0.00,8.183,11562,0.003,7.453,0.006,0.708,0.013,81.6
45,13548.00,13548.00,0.00,6.554,14232,0.003,5.961,0.006,0.570,0.013,81.2
46,14365.00,14365.00,0.00,6.102,15092,0.003,5.544,0.006,0.537,0.013,80.4
47,12854.00,12854.00,0.00,6.830,13504,0.003,6.205,0.006,0.601,0.014,80.6
48,12574.00,12574.00,0.00,6.957,13210,0.003,6.319,0.006,0.617,0.013,80.5
49,11976.00,11976.00,0.00,7.458,12581,0.003,6.788,0.006,0.648,0.013,80.8
50,13102.00,13102.00,0.00,6.644,13764,0.003,6.035,0.006,0.589,0.012,80.0
51,12991.00,12991.00,0.00,6.821,13647,0.003,6.203,0.006,0.597,0.013,80.9
52,13906.00,13906.00,0.00,6.358,14608,0.003,5.781,0.006,0.555,0.013,81.1
53,12442.00,12442.00,0.00,7.152,13072,0.003,6.507,0.006,0.624,0.013,81.4
54,11881.00,11881.00,0.00,7.439,12482,0.003,6.765,0.006,0.652,0.014,80.6
55,14011.00,14011.00,0.00,6.338,14720,0.003,5.764,0.006,0.553,0.013,81.1
56,14150.00,14150.00,0.00,6.232,14866,0.003,5.664,0.006,0.546,0.013,80.7
57,12981.00,12981.00,0.00,6.808,13638,0.003,6.190,0.006,0.596,0.013,80.8
58,13871.00,13871.00,0.00,6.329,14573,0.003,5.751,0.006,0.557,0.013,80.4
59,12172.00,12133.00,39.00,7.286,12747,0.003,6.627,0.006,0.637,0.013,80.7
60,13112.00,13057.00,55.00,6.747,13717,0.003,6.135,0.007,0.589,0.013,80.9
61,13092.00,13090.00,2.00,6.807,13751,0.003,6.194,0.006,0.591,0.013,81.6
62,13062.00,13062.00,0.00,6.807,13721,0.003,6.192,0.006,0.592,0.014,81.2
63,13121.00,13121.00,0.00,6.686,13784,0.003,6.074,0.006,0.590,0.013,80.5
64,12257.00,12257.00,0.00,7.212,12877,0.003,6.559,0.006,0.632,0.013,80.6
65,13335.00,13335.00,0.00,6.677,14009,0.003,6.075,0.006,0.580,0.013,81.4
66,13656.00,13656.00,0.00,6.487,14346,0.003,5.899,0.006,0.566,0.013,81.2
67,12954.00,12954.00,0.00,6.869,13610,0.003,6.249,0.006,0.598,0.013,81.2
68,12812.00,12812.00,0.00,6.930,13460,0.003,6.304,0.006,0.603,0.013,81.4
69,11526.00,11526.00,0.00,7.557,12109,0.003,6.862,0.006,0.673,0.013,79.1
70,12233.00,12233.00,0.00,7.232,12851,0.003,6.575,0.006,0.636,0.012,80.9
71,13267.00,13267.00,0.00,6.559,13937,0.003,5.955,0.006,0.584,0.012,79.9
72,12879.00,12879.00,0.00,6.856,13530,0.003,6.232,0.006,0.603,0.012,80.6
73,12057.00,12057.00,0.00,7.245,12667,0.003,6.580,0.007,0.644,0.012,80.0
74,9483.00,9483.00,0.00,7.093,9963,0.003,6.447,0.006,0.625,0.013,79.7
