Second,Ops/sec,Hits/sec,Misses/sec,Latency,KB/sec,Request_Creation_Time,Request_Buffer_Time,MW_Writes_To_Memcached_Time,Memcached_Process_Time,MW_Writes_To_Memtier_Time,Queue_Size
4,5410.00,5410.00,0.00,2.626,2974,0.018,1.032,0.029,1.506,0.041,19.7
5,22499.00,22499.00,0.00,2.511,12366,0.006,1.196,0.010,1.283,0.016,31.3
6,26683.00,26683.00,0.00,2.187,14665,0.007,1.078,0.013,1.072,0.018,32.8
7,25770.00,25770.00,0.00,2.313,14163,0.006,1.174,0.012,1.106,0.016,33.6
8,26541.00,26541.00,0.00,2.150,14585,0.006,1.067,0.010,1.047,0.021,32.9
9,26565.00,26565.00,0.00,2.154,14600,0.006,1.051,0.012,1.069,0.015,33.1
10,27305.00,27305.00,0.00,2.126,15006,0.005,1.064,0.012,1.026,0.020,32.5
11,28551.00,28551.00,0.00,2.043,15692,0.005,0.994,0.010,1.016,0.016,32.6
12,27070.00,27070.00,0.00,2.231,14878,0.005,1.134,0.011,1.064,0.017,32.7
13,22814.00,22776.00,38.00,2.593,12517,0.006,1.281,0.017,1.263,0.025,33.7
14,25283.00,25230.00,53.00,2.460,13865,0.005,1.246,0.016,1.169,0.024,35.4
15,26029.00,26024.00,5.00,2.206,14301,0.005,1.080,0.013,1.089,0.019,33.8
16,26040.00,26040.00,0.00,2.326,14311,0.006,1.182,0.014,1.105,0.019,34.1
17,26892.00,26892.00,0.00,2.129,14779,0.006,1.022,0.012,1.073,0.016,31.8
18,25147.00,25147.00,0.00,2.457,13821,0.004,1.266,0.010,1.156,0.020,35.1
19,26672.00,26672.00,0.00,2.326,14659,0.004,1.203,0.013,1.087,0.019,35.0
20,26434.00,26434.00,0.00,2.268,14528,0.005,1.111,0.013,1.120,0.019,33.9
21,27399.00,27399.00,0.00,2.179,15058,0.006,1.100,0.012,1.046,0.016,33.0
22,25347.00,25347.00,0.00,2.411,13930,0.005,1.230,0.011,1.148,0.017,33.7
23,27470.00,27470.00,0.00,2.048,15097,0.006,0.978,0.012,1.034,0.020,32.5
24,26028.00,26028.00,0.00,2.327,14304,0.006,1.170,0.014,1.118,0.018,33.2
25,27465.00,27465.00,0.00,2.050,15094,0.005,1.011,0.011,1.007,0.016,31.7
26,26720.00,26720.00,0.00,2.130,14685,0.005,1.006,0.011,1.089,0.019,32.3
27,26225.00,26225.00,0.00,2.336,14413,0.005,1.185,0.016,1.111,0.019,33.0
28,26824.00,26824.00,0.00,2.294,14742,0.004,1.145,0.011,1.116,0.019,33.4
29,25963.00,25952.00,11.00,2.375,14264,0.004,1.194,0.015,1.145,0.018,33.6
30,26264.00,26242.00,22.00,2.317,14423,0.004,1.162,0.012,1.117,0.022,33.2
31,26341.00,26318.00,23.00,2.297,14464,0.005,1.138,0.011,1.124,0.018,33.3
32,26299.00,26278.00,21.00,2.242,14442,0.004,1.104,0.012,1.101,0.021,32.8
33,26896.00,26883.00,13.00,2.208,14774,0.004,1.080,0.010,1.097,0.017,32.5
34,27033.00,27029.00,4.00,2.296,14855,0.005,1.178,0.012,1.084,0.018,34.2
35,27518.00,27516.00,2.00,1.988,15122,0.005,0.942,0.013,1.009,0.018,31.6
36,26403.00,26403.00,0.00,2.248,14511,0.005,1.128,0.012,1.085,0.018,33.6
37,26403.00,26403.00,0.00,2.288,14511,0.005,1.183,0.013,1.072,0.017,33.7
38,27823.00,27823.00,0.00,2.047,15291,0.005,0.992,0.009,1.026,0.015,31.6
39,28495.00,28495.00,0.00,2.050,15661,0.005,1.002,0.010,1.017,0.016,31.6
40,26680.00,26680.00,0.00,2.233,14663,0.006,1.125,0.010,1.077,0.016,32.6
41,26937.00,26937.00,0.00,2.200,14805,0.005,1.090,0.013,1.073,0.019,33.9
42,28081.00,28081.00,0.00,2.086,15433,0.005,1.044,0.010,1.011,0.016,33.1
43,27660.00,27660.00,0.00,2.054,15202,0.004,0.991,0.010,1.031,0.017,30.5
44,28278.00,28278.00,0.00,2.007,15542,0.005,0.958,0.011,1.015,0.017,31.8
45,28465.00,28465.00,0.00,2.028,15645,0.003,0.979,0.009,1.019,0.017,32.3
46,26158.00,26158.00,0.00,2.259,14377,0.005,1.136,0.012,1.091,0.016,33.7
47,26764.00,26764.00,0.00,2.223,14710,0.005,1.114,0.012,1.073,0.018,33.3
48,28274.00,28274.00,0.00,2.120,15539,0.006,1.054,0.010,1.032,0.018,33.6
49,27530.00,27530.00,0.00,2.137,15130,0.005,1.080,0.009,1.029,0.014,32.3
50,27302.00,27302.00,0.00,2.139,15005,0.005,1.066,0.012,1.042,0.014,32.3
51,27362.00,27362.00,0.00,2.141,15038,0.006,1.065,0.011,1.035,0.023,33.2
52,26300.00,26300.00,0.00,2.321,14454,0.005,1.174,0.011,1.110,0.021,33.3
53,28044.00,28044.00,0.00,2.104,15413,0.006,1.040,0.011,1.032,0.015,33.3
54,27652.00,27652.00,0.00,2.132,15197,0.005,1.061,0.011,1.040,0.015,33.7
55,28326.00,28326.00,0.00,2.118,15568,0.005,1.052,0.013,1.031,0.016,34.1
56,26679.00,26679.00,0.00,2.323,14663,0.004,1.190,0.012,1.099,0.018,34.4
57,27760.00,27760.00,0.00,2.069,15257,0.006,1.011,0.012,1.022,0.018,33.1
58,27991.00,27991.00,0.00,2.094,15384,0.005,1.021,0.010,1.042,0.016,32.2
59,27280.00,27280.00,0.00,2.163,14993,0.004,1.071,0.012,1.058,0.016,31.9
60,28497.00,28497.00,0.00,1.973,15662,0.005,0.936,0.010,1.004,0.017,31.5
61,28025.00,28025.00,0.00,2.095,15402,0.004,1.031,0.012,1.031,0.017,31.9
62,26446.00,26446.00,0.00,2.251,14534,0.004,1.146,0.014,1.066,0.020,32.9
63,27932.00,27932.00,0.00,2.032,15351,0.004,0.976,0.011,1.024,0.018,30.8
64,25898.00,25898.00,0.00,2.249,14233,0.005,1.127,0.014,1.086,0.017,32.9
65,27415.00,27415.00,0.00,2.084,15067,0.004,1.027,0.011,1.025,0.017,31.9
66,28318.00,28318.00,0.00,1.989,15563,0.005,0.949,0.011,1.008,0.017,31.9
67,26598.00,26598.00,0.00,2.251,14618,0.005,1.151,0.010,1.070,0.015,33.6
68,27325.00,27325.00,0.00,2.081,15017,0.004,1.022,0.012,1.031,0.013,32.3
69,28464.00,28464.00,0.00,1.978,15644,0.005,0.972,0.010,0.978,0.014,31.0
70,28604.00,28603.00,1.00,2.005,15720,0.005,0.989,0.011,0.986,0.015,31.6
71,28169.00,28163.00,6.00,2.123,15478,0.006,1.062,0.009,1.033,0.014,33.7
72,28280.00,28270.00,10.00,2.010,15537,0.007,0.978,0.011,1.000,0.014,31.6
73,27749.00,27742.00,7.00,2.077,15247,0.004,1.014,0.011,1.031,0.017,31.2
74,18547.00,18539.00,8.00,2.069,10189,0.004,0.992,0.013,1.038,0.021,29.9
75,1948.00,1947.00,1.00,0.772,1070,0.006,0.067,0.017,0.668,0.015,0.1
