Second,Ops/sec,Hits/sec,Misses/sec,Latency,KB/sec,Request_Creation_Time,Request_Buffer_Time,MW_Writes_To_Memcached_Time,Memcached_Process_Time,MW_Writes_To_Memtier_Time,Queue_Size
4,3081.00,3081.00,0.00,1.301,3237,0.022,0.276,0.042,0.928,0.032,1.4
5,11543.00,11543.00,0.00,1.203,12127,0.008,0.196,0.013,0.972,0.015,1.2
6,15132.00,15132.00,0.00,0.837,15897,0.004,0.114,0.014,0.689,0.016,1.0
7,14905.00,14905.00,0.00,0.825,15659,0.009,0.139,0.011,0.654,0.012,1.1
8,14566.00,14557.00,9.00,0.878,15293,0.007,0.164,0.012,0.683,0.012,1.2
9,13143.00,13128.00,15.00,0.981,13791,0.006,0.130,0.013,0.818,0.014,1.1
10,15728.00,15728.00,0.00,0.798,16523,0.007,0.147,0.014,0.615,0.015,1.2
11,15339.00,15339.00,0.00,0.811,16115,0.007,0.131,0.014,0.648,0.011,1.1
12,15758.00,15758.00,0.00,0.763,16554,0.005,0.146,0.009,0.590,0.013,1.2
13,15144.00,15144.00,0.00,0.869,15910,0.003,0.180,0.012,0.659,0.014,1.6
14,15175.00,15175.00,0.00,0.874,15942,0.005,0.140,0.012,0.706,0.013,1.0
15,14950.00,14949.00,1.00,0.817,15705,0.005,0.152,0.010,0.637,0.013,1.4
16,15514.00,15499.00,15.00,0.814,16283,0.005,0.150,0.012,0.635,0.013,1.1
17,15387.00,15380.00,7.00,0.845,16158,0.007,0.143,0.012,0.672,0.011,1.2
18,15425.00,15424.00,1.00,0.752,16204,0.007,0.137,0.013,0.582,0.014,1.2
19,15187.00,15187.00,0.00,0.816,15955,0.007,0.141,0.012,0.641,0.014,1.3
20,15307.00,15307.00,0.00,0.827,16081,0.006,0.136,0.013,0.660,0.012,1.2
21,15180.00,15180.00,0.00,0.819,15948,0.004,0.146,0.013,0.645,0.011,1.1
22,15272.00,15272.00,0.00,0.816,16045,0.005,0.147,0.012,0.638,0.015,1.2
23,15453.00,15453.00,0.00,0.822,16235,0.004,0.132,0.012,0.658,0.015,1.2
24,15257.00,15257.00,0.00,0.840,16028,0.005,0.134,0.012,0.676,0.013,1.2
25,15812.00,15812.00,0.00,0.780,16612,0.004,0.163,0.011,0.588,0.013,1.4
26,15403.00,15403.00,0.00,0.860,16182,0.005,0.141,0.013,0.690,0.011,1.2
27,15039.00,15039.00,0.00,0.846,15800,0.005,0.145,0.010,0.672,0.013,1.1
28,15544.00,15544.00,0.00,0.775,16330,0.005,0.141,0.013,0.603,0.012,1.2
29,15408.00,15408.00,0.00,0.806,16187,0.006,0.145,0.011,0.633,0.011,1.4
30,15138.00,15138.00,0.00,0.858,15903,0.005,0.151,0.010,0.679,0.013,1.4
31,15229.00,15229.00,0.00,0.807,15999,0.005,0.146,0.011,0.631,0.015,1.3
32,15652.00,15652.00,0.00,0.761,16443,0.004,0.131,0.010,0.599,0.015,1.0
33,15525.00,15525.00,0.00,0.779,16310,0.004,0.142,0.011,0.609,0.013,1.1
34,15282.00,15280.00,2.00,0.841,16053,0.005,0.146,0.011,0.663,0.016,1.3
35,14986.00,14981.00,5.00,0.900,15739,0.006,0.197,0.010,0.675,0.011,1.6
36,15044.00,15034.00,10.00,0.848,15794,0.005,0.116,0.012,0.702,0.012,1.1
37,15350.00,15344.00,6.00,0.813,16120,0.004,0.157,0.011,0.626,0.015,1.2
38,15714.00,15700.00,14.00,0.772,16494,0.005,0.111,0.011,0.632,0.013,1.0
39,15035.00,15021.00,14.00,0.835,15781,0.006,0.118,0.012,0.688,0.011,1.1
40,15309.00,15302.00,7.00,0.864,16076,0.007,0.172,0.012,0.661,0.012,1.5
41,15746.00,15741.00,5.00,0.840,16537,0.004,0.152,0.010,0.658,0.016,1.3
42,15439.00,15435.00,4.00,0.841,16215,0.003,0.143,0.011,0.673,0.010,1.3
43,16038.00,16034.00,4.00,0.732,16845,0.006,0.141,0.013,0.558,0.013,1.2
44,15480.00,15479.00,1.00,0.778,16261,0.006,0.127,0.012,0.620,0.013,1.2
45,15432.00,15432.00,0.00,0.808,16212,0.006,0.125,0.011,0.653,0.012,1.1
46,16114.00,16114.00,0.00,0.792,16929,0.004,0.136,0.012,0.628,0.012,1.3
47,15439.00,15439.00,0.00,0.770,16220,0.005,0.142,0.011,0.599,0.012,1.3
48,15585.00,15585.00,0.00,0.820,16373,0.005,0.166,0.013,0.621,0.014,1.4
49,15196.00,15196.00,0.00,0.855,15964,0.005,0.180,0.013,0.645,0.012,1.6
50,15752.00,15752.00,0.00,0.771,16548,0.007,0.146,0.011,0.593,0.015,1.3
51,15431.00,15431.00,0.00,0.821,16211,0.004,0.129,0.010,0.666,0.012,1.2
52,14560.00,14560.00,0.00,0.856,15296,0.005,0.162,0.012,0.662,0.015,1.4
53,16057.00,16057.00,0.00,0.777,16869,0.005,0.151,0.012,0.595,0.013,1.3
54,15585.00,15585.00,0.00,0.797,16373,0.006,0.134,0.012,0.633,0.012,1.2
55,15567.00,15567.00,0.00,0.782,16354,0.004,0.164,0.011,0.591,0.011,1.4
56,15422.00,15422.00,0.00,0.821,16202,0.005,0.157,0.012,0.632,0.013,1.3
57,14458.00,14458.00,0.00,0.894,15189,0.006,0.190,0.010,0.675,0.012,1.4
58,15345.00,15345.00,0.00,0.790,16121,0.006,0.144,0.016,0.611,0.013,1.3
59,15927.00,15927.00,0.00,0.770,16732,0.006,0.131,0.010,0.610,0.012,1.1
60,15283.00,15283.00,0.00,0.789,16056,0.007,0.141,0.012,0.617,0.012,1.2
61,15717.00,15717.00,0.00,0.758,16512,0.005,0.133,0.011,0.596,0.013,1.1
62,15282.00,15282.00,0.00,0.810,16055,0.006,0.126,0.012,0.653,0.013,1.1
63,15370.00,15370.00,0.00,0.804,16147,0.004,0.134,0.011,0.643,0.012,1.2
64,15944.00,15944.00,0.00,0.806,16750,0.004,0.136,0.012,0.641,0.012,1.2
65,15790.00,15790.00,0.00,0.764,16588,0.005,0.145,0.012,0.588,0.013,1.3
66,15575.00,15575.00,0.00,0.771,16362,0.005,0.143,0.009,0.602,0.012,1.1
67,15387.00,15387.00,0.00,0.883,16165,0.004,0.130,0.012,0.723,0.014,1.1
68,14846.00,14846.00,0.00,0.806,15597,0.008,0.129,0.013,0.644,0.013,1.2
69,15675.00,15675.00,0.00,0.825,16467,0.004,0.136,0.012,0.661,0.012,1.2
70,15414.00,15414.00,0.00,0.806,16193,0.005,0.127,0.012,0.648,0.013,1.1
71,15754.00,15754.00,0.00,0.766,16550,0.006,0.148,0.012,0.588,0.011,1.2
72,15181.00,15181.00,0.00,0.837,15948,0.005,0.131,0.012,0.678,0.012,1.2
73,15298.00,15298.00,0.00,0.812,16071,0.006,0.129,0.013,0.653,0.011,1.1
74,9584.00,9584.00,0.00,0.830,10068,0.005,0.186,0.009,0.615,0.014,1.3
