PING 10.0.0.5 (10.0.0.5) 56(84) bytes of data.
64 bytes from 10.0.0.5: icmp_seq=1 ttl=64 time=1.66 ms
64 bytes from 10.0.0.5: icmp_seq=2 ttl=64 time=0.800 ms
664 bytes from 10.0.0.4: icmp_seq=3 ttl=64 time=0.612 ms664 bytes from 10.0.0.4: icmp_seq=4 ttl=64 time=0.573 ms664 bytes from 10.0.0.4: icmp_seq=5 ttl=64 time=3.46 ms64 bytes from 10.0.0.5: icmp_seq=6 ttl=64 time=0.722 ms
64 bytes from 10.0.0.5: icmp_seq=7 ttl=64 time=13.9 ms
664 bytes from 10.0.0.4: icmp_seq=8 ttl=64 time=7.86 ms664 bytes from 10.0.0.4: icmp_seq=9 ttl=64 time=1.97 ms664 bytes from 10.0.0.4: icmp_seq=10 ttl=64 time=0.663 ms664 bytes from 10.0.0.4: icmp_seq=11 ttl=64 time=0.529 ms664 bytes from 10.0.0.4: icmp_seq=12 ttl=64 time=13.6 ms664 bytes from 10.0.0.4: icmp_seq=13 ttl=64 time=7.90 ms
64 bytes from 10.0.0.5: icmp_seq=14 ttl=64 time=8.03 ms
64 bytes from 10.0.0.5: icmp_seq=15 ttl=64 time=3.45 ms
64 bytes from 10.0.0.5: icmp_seq=16 ttl=64 time=0.792 ms

--- 10.0.0.5 ping statistics ---
16 packets transmitted, 16 received, 0% packet loss, time 76217ms
rtt min/avg/max/mdev = 0.424/3.647/13.904/4.487 ms
