PING 10.0.0.5 (10.0.0.5) 56(84) bytes of data.
64 bytes from 10.0.0.5: icmp_seq=1 ttl=64 time=0.777 ms664 bytes from 10.0.0.5: icmp_seq=2 ttl=64 time=1.33 ms
64 bytes from 10.0.0.4: icmp_seq=3 ttl=64 time=6.17 ms
64 bytes from 10.0.0.4: icmp_seq=4 ttl=64 time=0.647 ms
64 bytes from 10.0.0.4: icmp_seq=5 ttl=64 time=0.700 ms664 bytes from 10.0.0.4: icmp_seq=6 ttl=64 time=3.52 ms
64 bytes from 10.0.0.4: icmp_seq=7 ttl=64 time=0.375 ms
64 bytes from 10.0.0.4: icmp_seq=8 ttl=64 time=0.615 ms
64 bytes from 10.0.0.4: icmp_seq=9 ttl=64 time=0.858 ms
64 bytes from 10.0.0.4: icmp_seq=10 ttl=64 time=10.1 ms
64 bytes from 10.0.0.4: icmp_seq=11 ttl=64 time=0.649 ms
64 bytes from 10.0.0.4: icmp_seq=12 ttl=64 time=4.40 ms
64 bytes from 10.0.0.4: icmp_seq=13 ttl=64 time=0.555 ms
64 bytes from 10.0.0.4: icmp_seq=14 ttl=64 time=0.426 ms
64 bytes from 10.0.0.4: icmp_seq=15 ttl=64 time=0.883 ms
64 bytes from 10.0.0.4: icmp_seq=16 ttl=64 time=0.796 ms

--- 10.0.0.4 ping statistics ---
16 packets transmitted, 16 received, 0% packet loss, time 76628ms
rtt min/avg/max/mdev = 0.375/2.043/10.108/2.644 ms
