PING 10.0.0.5 (10.0.0.5) 56(84) bytes of data.
64 bytes from 10.0.0.5: icmp_seq=1 ttl=64 time=0.534 ms
64 bytes from 10.0.0.5: icmp_seq=2 ttl=64 time=0.803 ms664 bytes from 10.0.0.5: icmp_seq=3 ttl=64 time=2.92 ms664 bytes from 10.0.0.5: icmp_seq=4 ttl=64 time=0.719 ms664 bytes from 10.0.0.5: icmp_seq=5 ttl=64 time=0.718 m6464 bytes from 10.0.0.5: icmp_seq=6 ttl=64 time=2.36 ms664 bytes from 10.0.0.5: icmp_seq=7 ttl=64 time=0.443 ms664 bytes from 10.0.0.5: icmp_seq=8 ttl=64 time=1.73 ms
64 bytes from 10.0.0.5: icmp_seq=9 ttl=64 time=6.62 ms
64 bytes from 10.0.0.5: icmp_seq=10 ttl=64 time=0.828 ms
64 bytes from 10.0.0.5: icmp_seq=11 ttl=64 time=0.498 ms
64 bytes from 10.0.0.5: icmp_seq=12 ttl=64 time=7.40 ms
64 bytes from 10.0.0.5: icmp_seq=13 ttl=64 time=2.16 ms
64 bytes from 10.0.0.5: icmp_seq=14 ttl=64 time=6.91 ms
64 bytes from 10.0.0.5: icmp_seq=15 ttl=64 time=0.700 ms
64 bytes from 10.0.0.5: icmp_seq=16 ttl=64 time=1.18 ms

--- 10.0.0.5 ping statistics ---
16 packets transmitted, 16 received, 0% packet loss, time 76280ms
rtt min/avg/max/mdev = 0.443/2.284/7.400/2.369 ms
ms
