PING 10.0.0.5 (10.0.0.5) 56(84) bytes of data.
64 bytes from 10.0.0.5: icmp_seq=1 ttl=64 time=0.830 ms664 bytes from 10.0.0.5: icmp_seq=2 ttl=64 time=0.878 ms664 bytes from 10.0.0.5: icmp_seq=3 ttl=64 time=1.43 ms664 bytes from 10.0.0.5: icmp_seq=4 ttl=64 time=10.3 ms
64 bytes from 10.0.0.4: icmp_seq=5 ttl=64 time=10.7 ms
64 bytes from 10.0.0.4: icmp_seq=6 ttl=64 time=5.88 ms
64 bytes from 10.0.0.4: icmp_seq=7 ttl=64 time=0.417 ms
64 bytes from 10.0.0.4: icmp_seq=8 ttl=64 time=0.675 ms
64 bytes from 10.0.0.4: icmp_seq=9 ttl=64 time=5.63 ms
64 bytes from 10.0.0.5: icmp_seq=10 ttl=64 time=0.705 ms
64 bytes from 10.0.0.5: icmp_seq=11 ttl=64 time=0.709 ms
64 bytes from 10.0.0.5: icmp_seq=12 ttl=64 time=1.30 ms
664 bytes from 10.0.0.4: icmp_seq=13 ttl=64 time=10.6 ms
64 bytes from 10.0.0.5: icmp_seq=14 ttl=64 time=0.516 ms664 bytes from 10.0.0.5: icmp_seq=15 ttl=64 time=1.19 ms
64 bytes from 10.0.0.5: icmp_seq=16 ttl=64 time=0.752 ms

--- 10.0.0.5 ping statistics ---
16 packets transmitted, 16 received, 0% packet loss, time 76405ms
rtt min/avg/max/mdev = 0.475/2.614/11.115/3.413 ms
