PING 10.0.0.5 (10.0.0.5) 56(84) bytes of data.
64 bytes from 10.0.0.5: icmp_seq=1 ttl=64 time=1.01 ms
64 bytes from 10.0.0.5: icmp_seq=2 ttl=64 time=0.433 ms
64 bytes from 10.0.0.5: icmp_seq=3 ttl=64 time=0.478 ms
64 bytes from 10.0.0.4: icmp_seq=4 ttl=64 time=0.929 ms
64 bytes from 10.0.0.4: icmp_seq=5 ttl=64 time=8.47 ms
64 bytes from 10.0.0.4: icmp_seq=6 ttl=64 time=2.99 ms
64 bytes from 10.0.0.4: icmp_seq=7 ttl=64 time=0.908 ms
64 bytes from 10.0.0.5: icmp_seq=8 ttl=64 time=7.27 ms
64 bytes from 10.0.0.4: icmp_seq=9 ttl=64 time=6.71 ms
64 bytes from 10.0.0.5: icmp_seq=10 ttl=64 time=1.14 ms
64 bytes from 10.0.0.5: icmp_seq=11 ttl=64 time=12.2 ms
664 bytes from 10.0.0.4: icmp_seq=12 ttl=64 time=6.91 ms64 bytes from 10.0.0.5: icmp_seq=13 ttl=64 time=1.11 ms
6464 bytes from 10.0.0.4: icmp_seq=14 ttl=64 time=0.369 64 64 bytes from 10.0.0.4: icmp_seq=15 ttl=64 time=4.74 64 64 bytes from 10.0.0.4: icmp_seq=16 ttl=64 time=0.495 ms

--- 10.0.0.4 ping statistics ---
16 packets transmitted, 16 received, 0% packet loss, time 75566ms
rtt min/avg/max/mdev = 0.322/3.859/12.031/3.649 ms
