PING 10.0.0.4 (10.0.0.4) 56(84) bytes of data.
64 bytes from 10.0.0.4: icmp_seq=1 ttl=64 time=0.970 ms
64 bytes from 10.0.0.4: icmp_seq=2 ttl=64 time=0.343 ms
64 bytes from 10.0.0.4: icmp_seq=3 ttl=64 time=0.784 ms
64 bytes from 10.0.0.5: icmp_seq=4 ttl=64 time=0.697 ms
64 bytes from 10.0.0.4: icmp_seq=5 ttl=64 time=0.418 ms
64 bytes from 10.0.0.4: icmp_seq=6 ttl=64 time=0.721 ms
64 bytes from 10.0.0.4: icmp_seq=7 ttl=64 time=1.17 ms
64 bytes from 10.0.0.5: icmp_seq=8 ttl=64 time=0.624 ms
64 bytes from 10.0.0.5: icmp_seq=9 ttl=64 time=0.562 ms
64 bytes from 10.0.0.4: icmp_seq=10 ttl=64 time=5.29 ms
64 bytes from 10.0.0.4: icmp_seq=11 ttl=64 time=0.497 ms
64 bytes from 10.0.0.4: icmp_seq=12 ttl=64 time=0.740 ms
64 bytes from 10.0.0.4: icmp_seq=13 ttl=64 time=4.93 ms
64 bytes from 10.0.0.5: icmp_seq=14 ttl=64 time=0.574 ms
64 bytes from 10.0.0.4: icmp_seq=15 ttl=64 time=0.628 ms
64 bytes from 10.0.0.5: icmp_seq=16 ttl=64 time=0.916 ms

--- 10.0.0.5 ping statistics ---
16 packets transmitted, 16 received, 0% packet loss, time 76754ms
rtt min/avg/max/mdev = 0.377/1.229/5.263/1.471 ms
