PING 10.0.0.5 (10.0.0.5) 56(84) bytes of data.
64 bytes from 10.0.0.5: icmp_seq=1 ttl=64 time=0.526 ms
64 bytes from 10.0.0.5: icmp_seq=2 ttl=64 time=0.461 ms
64 bytes from 10.0.0.4: icmp_seq=3 ttl=64 time=9.92 ms
64 bytes from 10.0.0.5: icmp_seq=4 ttl=64 time=4.01 ms
64 bytes from 10.0.0.4: icmp_seq=5 ttl=64 time=0.500 ms
64 bytes from 10.0.0.4: icmp_seq=6 ttl=64 time=0.509 ms
64 bytes from 10.0.0.4: icmp_seq=7 ttl=64 time=0.801 ms
64 bytes from 10.0.0.4: icmp_seq=8 ttl=64 time=7.08 ms
64 bytes from 10.0.0.5: icmp_seq=9 ttl=64 time=5.57 ms
64 bytes from 10.0.0.4: icmp_seq=10 ttl=64 time=0.536 ms
64 bytes from 10.0.0.4: icmp_seq=11 ttl=64 time=1.40 ms
664 bytes from 10.0.0.5: icmp_seq=12 ttl=64 time=5.02 ms
64 bytes from 10.0.0.4: icmp_seq=13 ttl=64 time=0.741 ms
64 bytes from 10.0.0.5: icmp_seq=14 ttl=64 time=0.435 ms
64 bytes from 10.0.0.5: icmp_seq=15 ttl=64 time=0.697 ms
64 bytes from 10.0.0.4: icmp_seq=16 ttl=64 time=1.28 ms

--- 10.0.0.4 ping statistics ---
16 packets transmitted, 16 received, 0% packet loss, time 76086ms
rtt min/avg/max/mdev = 0.328/2.163/9.923/2.819 ms

