PING 10.0.0.5 (10.0.0.5) 56(84) bytes of data.
64 bytes from 10.0.0.5: icmp_seq=1 ttl=64 time=0.486 ms
64 bytes from 10.0.0.5: icmp_seq=2 ttl=64 time=0.637 ms
64 bytes from 10.0.0.5: icmp_seq=3 ttl=64 time=1.01 ms
64 bytes from 10.0.0.5: icmp_seq=4 ttl=64 time=11.4 ms
64 bytes from 10.0.0.5: icmp_seq=5 ttl=64 time=6.15 ms
64 bytes from 10.0.0.5: icmp_seq=6 ttl=64 time=0.335 ms
64 bytes from 10.0.0.5: icmp_seq=7 ttl=64 time=11.4 ms
64 bytes from 10.0.0.5: icmp_seq=8 ttl=64 time=5.78 ms
64 bytes from 10.0.0.5: icmp_seq=9 ttl=64 time=0.340 ms
64 bytes from 10.0.0.5: icmp_seq=10 ttl=64 time=1.50 ms
64 bytes from 10.0.0.5: icmp_seq=11 ttl=64 time=11.4 ms
64 bytes from 10.0.0.5: icmp_seq=12 ttl=64 time=6.19 ms
64 bytes from 10.0.0.5: icmp_seq=13 ttl=64 time=0.620 ms
64 bytes from 10.0.0.5: icmp_seq=14 ttl=64 time=0.602 ms664 bytes from 10.0.0.5: icmp_seq=15 ttl=64 time=1.28 ms664 bytes from 10.0.0.5: icmp_seq=16 ttl=64 time=0.564 ms

--- 10.0.0.5 ping statistics ---
16 packets transmitted, 16 received, 0% packet loss, time 75907ms
rtt min/avg/max/mdev = 0.335/3.739/11.465/4.223 ms
