PING 10.0.0.5 (10.0.0.5) 56(84) bytes of data.
64 bytes from 10.0.0.5: icmp_seq=1 ttl=64 time=7.97 ms
64 bytes from 10.0.0.5: icmp_seq=2 ttl=64 time=0.858 ms
64 bytes from 10.0.0.5: icmp_seq=3 ttl=64 time=1.50 ms
64 bytes from 10.0.0.5: icmp_seq=4 ttl=64 time=11.3 ms
64 bytes from 10.0.0.5: icmp_seq=5 ttl=64 time=1.07 ms
664 bytes from 10.0.0.4: icmp_seq=6 ttl=64 time=7.04 ms
64 bytes from 10.0.0.5: icmp_seq=7 ttl=64 time=0.560 ms664 bytes from 10.0.0.5: icmp_seq=8 ttl=64 time=1.09 ms664 bytes from 10.0.0.5: icmp_seq=9 ttl=64 time=0.782 m6464 bytes from 10.0.0.5: icmp_seq=10 ttl=64 time=11.1 ms664 bytes from 10.0.0.5: icmp_seq=11 ttl=64 time=6.02 ms
64 bytes from 10.0.0.5: icmp_seq=12 ttl=64 time=0.768 ms664 bytes from 10.0.0.5: icmp_seq=13 ttl=64 time=1.25 ms
64 bytes from 10.0.0.5: icmp_seq=14 ttl=64 time=0.874 ms664 bytes from 10.0.0.5: icmp_seq=15 ttl=64 time=11.2 ms664 bytes from 10.0.0.5: icmp_seq=16 ttl=64 time=0.557 ms

--- 10.0.0.5 ping statistics ---
16 packets transmitted, 16 received, 0% packet loss, time 76036ms
rtt min/avg/max/mdev = 0.557/3.617/11.305/4.178 ms
