PING 10.0.0.5 (10.0.0.5) 56(84) bytes of data.
64 bytes from 10.0.0.5: icmp_seq=1 ttl=64 time=9.33 ms
64 bytes from 10.0.0.5: icmp_seq=2 ttl=64 time=0.547 ms
64 bytes from 10.0.0.5: icmp_seq=3 ttl=64 time=7.25 ms
64 bytes from 10.0.0.4: icmp_seq=4 ttl=64 time=2.01 ms
64 bytes from 10.0.0.5: icmp_seq=5 ttl=64 time=0.398 ms
64 bytes from 10.0.0.4: icmp_seq=6 ttl=64 time=0.683 ms
64 bytes from 10.0.0.4: icmp_seq=7 ttl=64 time=0.822 ms
64 bytes from 10.0.0.4: icmp_seq=8 ttl=64 time=1.03 ms
64 bytes from 10.0.0.5: icmp_seq=9 ttl=64 time=2.01 ms
64 bytes from 10.0.0.5: icmp_seq=10 ttl=64 time=0.593 ms
64 bytes from 10.0.0.5: icmp_seq=11 ttl=64 time=0.704 ms
64 bytes from 10.0.0.5: icmp_seq=12 ttl=64 time=2.12 ms
64 bytes from 10.0.0.4: icmp_seq=13 ttl=64 time=0.756 ms
64 bytes from 10.0.0.4: icmp_seq=14 ttl=64 time=0.639 ms
64 bytes from 10.0.0.4: icmp_seq=15 ttl=64 time=1.59 ms
64 bytes from 10.0.0.5: icmp_seq=16 ttl=64 time=1.02 ms

--- 10.0.0.5 ping statistics ---
16 packets transmitted, 16 received, 0% packet loss, time 75958ms
rtt min/avg/max/mdev = 0.398/1.931/9.332/2.497 ms

