PING 10.0.0.5 (10.0.0.5) 56(84) bytes of data.
64 bytes from 10.0.0.5: icmp_seq=1 ttl=64 time=7.18 ms
664 bytes from 10.0.0.4: icmp_seq=2 ttl=64 time=0.473 ms64 bytes from 10.0.0.5: icmp_seq=3 ttl=64 time=2.91 ms
664 bytes from 10.0.0.4: icmp_seq=4 ttl=64 time=0.597 ms64 bytes from 10.0.0.5: icmp_seq=5 ttl=64 time=0.503 ms
64 bytes from 10.0.0.5: icmp_seq=6 ttl=64 time=2.66 ms
664 bytes from 10.0.0.4: icmp_seq=7 ttl=64 time=0.496 ms664 bytes from 10.0.0.4: icmp_seq=8 ttl=64 time=0.579 ms664 bytes from 10.0.0.4: icmp_seq=9 ttl=64 time=0.617 ms64 bytes from 10.0.0.5: icmp_seq=10 ttl=64 time=6.68 ms
6464 bytes from 10.0.0.4: icmp_seq=11 ttl=64 time=0.664 m6464 bytes from 10.0.0.4: icmp_seq=12 ttl=64 time=1.54 m6464 bytes from 10.0.0.4: icmp_seq=13 ttl=64 time=0.391 m6464 bytes from 10.0.0.4: icmp_seq=14 ttl=64 time=1.56 m6464 bytes from 10.0.0.4: icmp_seq=15 ttl=64 time=2.09 m6464 bytes from 10.0.0.4: icmp_seq=16 ttl=64 time=0.590 ms

--- 10.0.0.4 ping statistics ---
16 packets transmitted, 16 received, 0% packet loss, time 76366ms
rtt min/avg/max/mdev = 0.391/1.060/2.822/0.790 ms
