PING 10.0.0.5 (10.0.0.5) 56(84) bytes of data.
64 bytes from 10.0.0.5: icmp_seq=1 ttl=64 time=0.980 ms
64 bytes from 10.0.0.5: icmp_seq=2 ttl=64 time=1.22 ms
64 bytes from 10.0.0.5: icmp_seq=3 ttl=64 time=0.448 ms
64 bytes from 10.0.0.5: icmp_seq=4 ttl=64 time=8.23 ms
664 bytes from 10.0.0.4: icmp_seq=5 ttl=64 time=0.518 m6464 bytes from 10.0.0.4: icmp_seq=6 ttl=64 time=1.07 ms664 bytes from 10.0.0.4: icmp_seq=7 ttl=64 time=0.374 ms664 bytes from 10.0.0.4: icmp_seq=8 ttl=64 time=0.579 ms664 bytes from 10.0.0.4: icmp_seq=9 ttl=64 time=2.19 ms
64 bytes from 10.0.0.4: icmp_seq=10 ttl=64 time=0.604 ms
64 bytes from 10.0.0.4: icmp_seq=11 ttl=64 time=0.480 ms664 bytes from 10.0.0.4: icmp_seq=12 ttl=64 time=1.00 ms
64 bytes from 10.0.0.4: icmp_seq=13 ttl=64 time=0.668 ms
64 bytes from 10.0.0.4: icmp_seq=14 ttl=64 time=0.574 ms
64 bytes from 10.0.0.4: icmp_seq=15 ttl=64 time=1.53 ms
64 bytes from 10.0.0.4: icmp_seq=16 ttl=64 time=1.07 ms

--- 10.0.0.4 ping statistics ---
16 packets transmitted, 16 received, 0% packet loss, time 76526ms
rtt min/avg/max/mdev = 0.374/0.998/3.037/0.689 ms
s
