PING 10.0.0.4 (10.0.0.4) 56(84) bytes of data.
64 bytes from 10.0.0.4: icmp_seq=1 ttl=64 time=9.32 ms
64 bytes from 10.0.0.4: icmp_seq=2 ttl=64 time=0.786 ms
64 bytes from 10.0.0.4: icmp_seq=3 ttl=64 time=0.679 ms
664 bytes from 10.0.0.5: icmp_seq=4 ttl=64 time=0.622 ms64 bytes from 10.0.0.4: icmp_seq=5 ttl=64 time=0.880 ms
664 bytes from 10.0.0.5: icmp_seq=6 ttl=64 time=0.866 ms64 bytes from 10.0.0.4: icmp_seq=7 ttl=64 time=1.02 ms
6464 bytes from 10.0.0.5: icmp_seq=8 ttl=64 time=1.77 ms64 bytes from 10.0.0.4: icmp_seq=9 ttl=64 time=1.02 ms
64 bytes from 10.0.0.4: icmp_seq=10 ttl=64 time=0.822 ms
64 bytes from 10.0.0.4: icmp_seq=11 ttl=64 time=0.862 ms
64 bytes from 10.0.0.4: icmp_seq=12 ttl=64 time=1.55 ms
64 bytes from 10.0.0.4: icmp_seq=13 ttl=64 time=0.788 ms
64 bytes from 10.0.0.4: icmp_seq=14 ttl=64 time=0.988 ms
64 bytes from 10.0.0.4: icmp_seq=15 ttl=64 time=1.66 ms
64 bytes from 10.0.0.4: icmp_seq=16 ttl=64 time=0.799 ms

--- 10.0.0.4 ping statistics ---
16 packets transmitted, 16 received, 0% packet loss, time 76371ms
rtt min/avg/max/mdev = 0.569/1.459/9.325/2.050 ms

