PING 10.0.0.5 (10.0.0.5) 56(84) bytes of data.
64 bytes from 10.0.0.5: icmp_seq=1 ttl=64 time=0.492 ms
64 bytes from 10.0.0.5: icmp_seq=2 ttl=64 time=0.583 ms664 bytes from 10.0.0.5: icmp_seq=3 ttl=64 time=7.30 ms
64 bytes from 10.0.0.5: icmp_seq=4 ttl=64 time=0.827 ms
64 bytes from 10.0.0.5: icmp_seq=5 ttl=64 time=1.24 ms
64 bytes from 10.0.0.5: icmp_seq=6 ttl=64 time=1.23 ms
64 bytes from 10.0.0.5: icmp_seq=7 ttl=64 time=1.09 ms
664 bytes from 10.0.0.4: icmp_seq=8 ttl=64 time=1.34 ms
64 bytes from 10.0.0.5: icmp_seq=9 ttl=64 time=0.768 ms
64 bytes from 10.0.0.5: icmp_seq=10 ttl=64 time=0.742 ms
64 bytes from 10.0.0.4: icmp_seq=11 ttl=64 time=0.951 ms
64 bytes from 10.0.0.5: icmp_seq=12 ttl=64 time=0.761 ms
64 bytes from 10.0.0.5: icmp_seq=13 ttl=64 time=1.07 ms
64 bytes from 10.0.0.4: icmp_seq=14 ttl=64 time=1.46 ms
64 bytes from 10.0.0.4: icmp_seq=15 ttl=64 time=0.863 ms
64 bytes from 10.0.0.4: icmp_seq=16 ttl=64 time=0.961 ms

--- 10.0.0.4 ping statistics ---
16 packets transmitted, 16 received, 0% packet loss, time 75999ms
rtt min/avg/max/mdev = 0.446/1.322/7.491/1.617 ms
