PING 10.0.0.5 (10.0.0.5) 56(84) bytes of data.
64 bytes from 10.0.0.5: icmp_seq=1 ttl=64 time=0.777 ms
64 bytes from 10.0.0.5: icmp_seq=2 ttl=64 time=0.509 ms664 bytes from 10.0.0.5: icmp_seq=3 ttl=64 time=0.678 ms664 bytes from 10.0.0.5: icmp_seq=4 ttl=64 time=0.635 ms664 bytes from 10.0.0.5: icmp_seq=5 ttl=64 time=0.808 ms664 bytes from 10.0.0.5: icmp_seq=6 ttl=64 time=0.581 ms664 bytes from 10.0.0.5: icmp_seq=7 ttl=64 time=0.503 ms664 bytes from 10.0.0.5: icmp_seq=8 ttl=64 time=0.503 ms664 bytes from 10.0.0.5: icmp_seq=9 ttl=64 time=1.00 ms
64 bytes from 10.0.0.5: icmp_seq=10 ttl=64 time=0.729 ms
64 bytes from 10.0.0.5: icmp_seq=11 ttl=64 time=0.651 ms
64 bytes from 10.0.0.5: icmp_seq=12 ttl=64 time=0.575 ms
64 bytes from 10.0.0.5: icmp_seq=13 ttl=64 time=0.669 ms
64 bytes from 10.0.0.5: icmp_seq=14 ttl=64 time=0.901 ms664 bytes from 10.0.0.5: icmp_seq=15 ttl=64 time=0.358 ms664 bytes from 10.0.0.5: icmp_seq=16 ttl=64 time=1.28 ms

--- 10.0.0.5 ping statistics ---
16 packets transmitted, 16 received, 0% packet loss, time 76767ms
rtt min/avg/max/mdev = 0.358/0.698/1.284/0.218 ms
