PING 10.0.0.5 (10.0.0.5) 56(84) bytes of data.
64 bytes from 10.0.0.5: icmp_seq=1 ttl=64 time=0.423 ms664 bytes from 10.0.0.5: icmp_seq=2 ttl=64 time=0.937 ms664 bytes from 10.0.0.5: icmp_seq=3 ttl=64 time=0.469 ms664 bytes from 10.0.0.5: icmp_seq=4 ttl=64 time=1.13 ms64 bytes from 10.0.0.4: icmp_seq=5 ttl=64 time=0.583 ms
64 bytes from 10.0.0.4: icmp_seq=6 ttl=64 time=0.864 ms
64 bytes from 10.0.0.4: icmp_seq=7 ttl=64 time=0.559 ms
64 bytes from 10.0.0.4: icmp_seq=8 ttl=64 time=0.668 ms
64 bytes from 10.0.0.4: icmp_seq=9 ttl=64 time=1.00 ms
64 bytes from 10.0.0.4: icmp_seq=10 ttl=64 time=0.754 ms
64 bytes from 10.0.0.4: icmp_seq=11 ttl=64 time=0.701 ms
6464 bytes from 10.0.0.5: icmp_seq=12 ttl=64 time=0.568 m64 bytes from 10.0.0.4: icmp_seq=13 ttl=64 time=0.524 ms
64 bytes from 10.0.0.4: icmp_seq=14 ttl=64 time=0.594 ms
64 bytes from 10.0.0.4: icmp_seq=15 ttl=64 time=0.908 ms
64 bytes from 10.0.0.4: icmp_seq=16 ttl=64 time=1.02 ms

--- 10.0.0.4 ping statistics ---
16 packets transmitted, 16 received, 0% packet loss, time 76645ms
rtt min/avg/max/mdev = 0.434/1.582/7.978/2.250 ms
ms
