PING 10.0.0.5 (10.0.0.5) 56(84) bytes of data.
64 bytes from 10.0.0.5: icmp_seq=1 ttl=64 time=6.88 ms
64 bytes from 10.0.0.5: icmp_seq=2 ttl=64 time=0.556 ms
64 bytes from 10.0.0.5: icmp_seq=3 ttl=64 time=1.17 ms
64 bytes from 10.0.0.5: icmp_seq=4 ttl=64 time=3.00 ms
64 bytes from 10.0.0.5: icmp_seq=5 ttl=64 time=1.18 ms
64 64 bytes from 10.0.0.4: icmp_seq=6 ttl=64 time=7.39 m64 bytes from 10.0.0.5: icmp_seq=7 ttl=64 time=1.24 ms
64 64 bytes from 10.0.0.4: icmp_seq=8 ttl=64 time=0.482 64 bytes from 10.0.0.5: icmp_seq=9 ttl=64 time=0.569 ms
64 bytes from 10.0.0.5: icmp_seq=10 ttl=64 time=0.940 ms
64 64 bytes from 10.0.0.4: icmp_seq=11 ttl=64 time=0.663 64 64 bytes from 10.0.0.4: icmp_seq=12 ttl=64 time=0.583 64 64 bytes from 10.0.0.4: icmp_seq=13 ttl=64 time=7.04 64 64 bytes from 10.0.0.4: icmp_seq=14 ttl=64 time=0.747 64 64 bytes from 10.0.0.4: icmp_seq=15 ttl=64 time=7.36 64 64 bytes from 10.0.0.4: icmp_seq=16 ttl=64 time=0.787 ms

--- 10.0.0.4 ping statistics ---
16 packets transmitted, 16 received, 0% packet loss, time 76455ms
rtt min/avg/max/mdev = 0.473/1.991/7.398/2.575 ms
