PING 10.0.0.5 (10.0.0.5) 56(84) bytes of data.
64 bytes from 10.0.0.5: icmp_seq=1 ttl=64 time=8.56 ms
64 bytes from 10.0.0.5: icmp_seq=2 ttl=64 time=0.364 ms
64 bytes from 10.0.0.5: icmp_seq=3 ttl=64 time=0.742 ms
664 bytes from 10.0.0.4: icmp_seq=4 ttl=64 time=0.917 ms664 bytes from 10.0.0.4: icmp_seq=5 ttl=64 time=0.725 ms664 bytes from 10.0.0.4: icmp_seq=6 ttl=64 time=4.02 ms664 bytes from 10.0.0.4: icmp_seq=7 ttl=64 time=0.490 ms664 bytes from 10.0.0.4: icmp_seq=8 ttl=64 time=1.16 ms664 bytes from 10.0.0.4: icmp_seq=9 ttl=64 time=0.916 ms664 bytes from 10.0.0.4: icmp_seq=10 ttl=64 time=0.591 ms664 bytes from 10.0.0.4: icmp_seq=11 ttl=64 time=1.09 ms664 bytes from 10.0.0.4: icmp_seq=12 ttl=64 time=0.699 ms64 bytes from 10.0.0.5: icmp_seq=13 ttl=64 time=0.522 ms
64 bytes from 10.0.0.5: icmp_seq=14 ttl=64 time=0.850 ms
664 bytes from 10.0.0.4: icmp_seq=15 ttl=64 time=0.658 ms64 bytes from 10.0.0.5: icmp_seq=16 ttl=64 time=0.701 ms

--- 10.0.0.5 ping statistics ---
16 packets transmitted, 16 received, 0% packet loss, time 76683ms
rtt min/avg/max/mdev = 0.364/1.372/8.561/2.031 ms

