PING 10.0.0.5 (10.0.0.5) 56(84) bytes of data.
64 bytes from 10.0.0.5: icmp_seq=1 ttl=64 time=0.784 ms
64 bytes from 10.0.0.5: icmp_seq=2 ttl=64 time=0.594 ms
64 bytes from 10.0.0.4: icmp_seq=3 ttl=64 time=1.58 ms
664 bytes from 10.0.0.5: icmp_seq=4 ttl=64 time=0.385 m6464 bytes from 10.0.0.5: icmp_seq=5 ttl=64 time=0.433 m6464 bytes from 10.0.0.5: icmp_seq=6 ttl=64 time=0.396 m6464 bytes from 10.0.0.5: icmp_seq=7 ttl=64 time=0.472 m6464 bytes from 10.0.0.5: icmp_seq=8 ttl=64 time=7.43 m6464 bytes from 10.0.0.5: icmp_seq=9 ttl=64 time=0.659 m6464 bytes from 10.0.0.5: icmp_seq=10 ttl=64 time=0.786 64 64 bytes from 10.0.0.5: icmp_seq=11 ttl=64 time=0.433 64 64 bytes from 10.0.0.5: icmp_seq=12 ttl=64 time=0.432 64 64 bytes from 10.0.0.5: icmp_seq=13 ttl=64 time=0.665 64 64 bytes from 10.0.0.5: icmp_seq=14 ttl=64 time=0.836 64 64 bytes from 10.0.0.5: icmp_seq=15 ttl=64 time=0.563 64 64 bytes from 10.0.0.5: icmp_seq=16 ttl=64 time=0.644 ms

--- 10.0.0.5 ping statistics ---
16 packets transmitted, 16 received, 0% packet loss, time 76584ms
rtt min/avg/max/mdev = 0.385/1.019/7.437/1.664 ms
