PING 10.0.0.4 (10.0.0.4) 56(84) bytes of data.
64 bytes from 10.0.0.4: icmp_seq=1 ttl=64 time=7.96 ms
64 bytes from 10.0.0.4: icmp_seq=2 ttl=64 time=3.22 ms
6464 bytes from 10.0.0.5: icmp_seq=3 ttl=64 time=0.814 m64 bytes from 10.0.0.4: icmp_seq=4 ttl=64 time=0.599 ms
64 bytes from 10.0.0.4: icmp_seq=5 ttl=64 time=0.638 ms
6464 bytes from 10.0.0.5: icmp_seq=6 ttl=64 time=0.483 m64 bytes from 10.0.0.4: icmp_seq=7 ttl=64 time=0.721 ms
6464 bytes from 10.0.0.5: icmp_seq=8 ttl=64 time=0.406 m6464 bytes from 10.0.0.5: icmp_seq=9 ttl=64 time=0.576 m6464 bytes from 10.0.0.5: icmp_seq=10 ttl=64 time=6.66 m6464 bytes from 10.0.0.5: icmp_seq=11 ttl=64 time=0.582 m64 bytes from 10.0.0.4: icmp_seq=12 ttl=64 time=0.753 ms
64 bytes from 10.0.0.4: icmp_seq=13 ttl=64 time=0.592 ms
64 bytes from 10.0.0.4: icmp_seq=14 ttl=64 time=0.798 ms
64 bytes from 10.0.0.4: icmp_seq=15 ttl=64 time=1.23 ms
64 64 bytes from 10.0.0.5: icmp_seq=16 ttl=64 time=0.746 ms

--- 10.0.0.5 ping statistics ---
16 packets transmitted, 16 received, 0% packet loss, time 76668ms
rtt min/avg/max/mdev = 0.406/0.988/6.661/1.471 ms
