PING 10.0.0.4 (10.0.0.4) 56(84) bytes of data.
64 bytes from 10.0.0.4: icmp_seq=1 ttl=64 time=0.725 ms
64 bytes from 10.0.0.4: icmp_seq=2 ttl=64 time=0.933 ms
64 bytes from 10.0.0.4: icmp_seq=3 ttl=64 time=0.507 ms
64 bytes from 10.0.0.4: icmp_seq=4 ttl=64 time=0.791 ms
64 bytes from 10.0.0.4: icmp_seq=5 ttl=64 time=0.915 ms
64 bytes from 10.0.0.4: icmp_seq=6 ttl=64 time=0.527 ms
64 bytes from 10.0.0.5: icmp_seq=7 ttl=64 time=0.438 ms
64 bytes from 10.0.0.5: icmp_seq=8 ttl=64 time=1.17 ms
64 bytes from 10.0.0.4: icmp_seq=9 ttl=64 time=0.591 ms
64 bytes from 10.0.0.4: icmp_seq=10 ttl=64 time=0.586 ms
64 bytes from 10.0.0.4: icmp_seq=11 ttl=64 time=0.420 ms
64 bytes from 10.0.0.4: icmp_seq=12 ttl=64 time=0.835 ms
64 bytes from 10.0.0.4: icmp_seq=13 ttl=64 time=0.709 ms
64 bytes from 10.0.0.4: icmp_seq=14 ttl=64 time=0.743 ms
64 bytes from 10.0.0.4: icmp_seq=15 ttl=64 time=0.566 ms
64 bytes from 10.0.0.4: icmp_seq=16 ttl=64 time=0.648 ms

--- 10.0.0.4 ping statistics ---
16 packets transmitted, 16 received, 0% packet loss, time 76674ms
rtt min/avg/max/mdev = 0.420/0.694/1.170/0.195 ms
