PING 10.0.0.5 (10.0.0.5) 56(84) bytes of data.
64 bytes from 10.0.0.5: icmp_seq=1 ttl=64 time=1.02 ms
64 bytes from 10.0.0.5: icmp_seq=2 ttl=64 time=0.443 ms
64 bytes from 10.0.0.5: icmp_seq=3 ttl=64 time=0.655 ms
64 bytes from 10.0.0.5: icmp_seq=4 ttl=64 time=0.463 ms
64 bytes from 10.0.0.5: icmp_seq=5 ttl=64 time=0.444 ms
64 bytes from 10.0.0.5: icmp_seq=6 ttl=64 time=0.877 ms
64 bytes from 10.0.0.5: icmp_seq=7 ttl=64 time=0.742 ms
64 bytes from 10.0.0.5: icmp_seq=8 ttl=64 time=0.419 ms
64 bytes from 10.0.0.5: icmp_seq=9 ttl=64 time=0.694 ms
64 bytes from 10.0.0.5: icmp_seq=10 ttl=64 time=0.577 ms
64 bytes from 10.0.0.5: icmp_seq=11 ttl=64 time=0.528 ms
64 bytes from 10.0.0.5: icmp_seq=12 ttl=64 time=0.536 ms
64 bytes from 10.0.0.5: icmp_seq=13 ttl=64 time=0.680 ms
64 bytes from 10.0.0.5: icmp_seq=14 ttl=64 time=7.26 ms
64 bytes from 10.0.0.5: icmp_seq=15 ttl=64 time=0.826 ms
64 bytes from 10.0.0.5: icmp_seq=16 ttl=64 time=0.770 ms

--- 10.0.0.5 ping statistics ---
16 packets transmitted, 16 received, 0% packet loss, time 76741ms
rtt min/avg/max/mdev = 0.419/1.059/7.268/1.612 ms

