PING 10.0.0.5 (10.0.0.5) 56(84) bytes of data.
64 bytes from 10.0.0.5: icmp_seq=1 ttl=64 time=8.55 ms
64 bytes from 10.0.0.5: icmp_seq=2 ttl=64 time=0.615 ms
664 bytes from 10.0.0.4: icmp_seq=3 ttl=64 time=0.553 ms664 bytes from 10.0.0.4: icmp_seq=4 ttl=64 time=2.93 ms
64 bytes from 10.0.0.5: icmp_seq=5 ttl=64 time=0.331 ms
64 bytes from 10.0.0.4: icmp_seq=6 ttl=64 time=0.727 ms
64 bytes from 10.0.0.5: icmp_seq=7 ttl=64 time=0.573 ms
64 bytes from 10.0.0.5: icmp_seq=8 ttl=64 time=0.724 ms
64 bytes from 10.0.0.5: icmp_seq=9 ttl=64 time=1.18 ms
64 bytes from 10.0.0.4: icmp_seq=10 ttl=64 time=0.612 ms
64 bytes from 10.0.0.4: icmp_seq=11 ttl=64 time=0.595 ms
64 bytes from 10.0.0.5: icmp_seq=12 ttl=64 time=0.999 ms
64 bytes from 10.0.0.4: icmp_seq=13 ttl=64 time=0.426 ms
64 bytes from 10.0.0.4: icmp_seq=14 ttl=64 time=7.38 ms
64 bytes from 10.0.0.4: icmp_seq=15 ttl=64 time=0.496 ms
64 bytes from 10.0.0.4: icmp_seq=16 ttl=64 time=0.659 ms

--- 10.0.0.4 ping statistics ---
16 packets transmitted, 16 received, 0% packet loss, time 76746ms
rtt min/avg/max/mdev = 0.426/1.227/7.383/1.691 ms
