PING 10.0.0.4 (10.0.0.4) 56(84) bytes of data.
64 bytes from 10.0.0.4: icmp_seq=1 ttl=64 time=2.02 ms
64 bytes from 10.0.0.4: icmp_seq=2 ttl=64 time=1.31 ms
64 bytes from 10.0.0.4: icmp_seq=3 ttl=64 time=5.89 ms
64 bytes from 10.0.0.4: icmp_seq=4 ttl=64 time=0.840 ms
64 bytes from 10.0.0.4: icmp_seq=5 ttl=64 time=1.70 ms
64 bytes from 10.0.0.4: icmp_seq=6 ttl=64 time=2.03 ms
64 bytes from 10.0.0.4: icmp_seq=7 ttl=64 time=0.547 ms
64 bytes from 10.0.0.4: icmp_seq=8 ttl=64 time=7.25 ms
6464 bytes from 10.0.0.5: icmp_seq=9 ttl=64 time=2.30 m6464 bytes from 10.0.0.5: icmp_seq=10 ttl=64 time=5.85 ms64 bytes from 10.0.0.4: icmp_seq=11 ttl=64 time=13.2 ms
64 bytes from 10.0.0.4: icmp_seq=12 ttl=64 time=9.00 ms
64 bytes from 10.0.0.4: icmp_seq=13 ttl=64 time=0.649 ms
64 bytes from 10.0.0.4: icmp_seq=14 ttl=64 time=2.76 ms
64 bytes from 10.0.0.4: icmp_seq=15 ttl=64 time=0.983 ms664 bytes from 10.0.0.4: icmp_seq=16 ttl=64 time=0.906 ms

--- 10.0.0.4 ping statistics ---
16 packets transmitted, 16 received, 0% packet loss, time 75539ms
rtt min/avg/max/mdev = 0.547/3.267/13.262/3.564 ms
