PING 10.0.0.5 (10.0.0.5) 56(84) bytes of data.
64 bytes from 10.0.0.5: icmp_seq=1 ttl=64 time=1.42 ms
64 bytes from 10.0.0.5: icmp_seq=2 ttl=64 time=1.53 ms
664 bytes from 10.0.0.4: icmp_seq=3 ttl=64 time=0.491 ms664 bytes from 10.0.0.4: icmp_seq=4 ttl=64 time=0.592 ms664 bytes from 10.0.0.4: icmp_seq=5 ttl=64 time=0.614 ms64 bytes from 10.0.0.5: icmp_seq=6 ttl=64 time=0.664 ms
664 bytes from 10.0.0.4: icmp_seq=7 ttl=64 time=0.485 ms64 bytes from 10.0.0.5: icmp_seq=8 ttl=64 time=0.423 ms
664 bytes from 10.0.0.4: icmp_seq=9 ttl=64 time=0.537 ms664 bytes from 10.0.0.4: icmp_seq=10 ttl=64 time=0.493 ms664 bytes from 10.0.0.4: icmp_seq=11 ttl=64 time=0.865 ms664 bytes from 10.0.0.4: icmp_seq=12 ttl=64 time=7.26 ms
64 bytes from 10.0.0.5: icmp_seq=13 ttl=64 time=0.828 ms
64 bytes from 10.0.0.5: icmp_seq=14 ttl=64 time=7.61 ms
64 bytes from 10.0.0.4: icmp_seq=15 ttl=64 time=0.492 ms
64 bytes from 10.0.0.5: icmp_seq=16 ttl=64 time=0.849 ms

--- 10.0.0.5 ping statistics ---
16 packets transmitted, 16 received, 0% packet loss, time 76580ms
rtt min/avg/max/mdev = 0.423/1.137/7.613/1.702 ms
