PING 10.0.0.5 (10.0.0.5) 56(84) bytes of data.
64 bytes from 10.0.0.5: icmp_seq=1 ttl=64 time=0.431 ms
64 bytes from 10.0.0.5: icmp_seq=2 ttl=64 time=0.531 ms
64 bytes from 10.0.0.5: icmp_seq=3 ttl=64 time=1.08 ms
64 bytes from 10.0.0.5: icmp_seq=4 ttl=64 time=0.628 ms
64 bytes from 10.0.0.5: icmp_seq=5 ttl=64 time=0.914 ms
64 bytes from 10.0.0.5: icmp_seq=6 ttl=64 time=0.656 ms
64 bytes from 10.0.0.5: icmp_seq=7 ttl=64 time=0.776 ms
64 bytes from 10.0.0.5: icmp_seq=8 ttl=64 time=0.892 ms664 bytes from 10.0.0.5: icmp_seq=9 ttl=64 time=0.615 m6464 bytes from 10.0.0.5: icmp_seq=10 ttl=64 time=0.918 m6464 bytes from 10.0.0.5: icmp_seq=11 ttl=64 time=0.430 m6464 bytes from 10.0.0.5: icmp_seq=12 ttl=64 time=0.498 m6464 bytes from 10.0.0.5: icmp_seq=13 ttl=64 time=7.31 ms664 bytes from 10.0.0.5: icmp_seq=14 ttl=64 time=0.585 ms664 bytes from 10.0.0.5: icmp_seq=15 ttl=64 time=0.721 ms664 bytes from 10.0.0.5: icmp_seq=16 ttl=64 time=0.750 ms

--- 10.0.0.5 ping statistics ---
16 packets transmitted, 16 received, 0% packet loss, time 76835ms
rtt min/avg/max/mdev = 0.430/1.108/7.311/1.612 ms
