PING 10.0.0.5 (10.0.0.5) 56(84) bytes of data.
64 bytes from 10.0.0.5: icmp_seq=1 ttl=64 time=9.09 ms
64 bytes from 10.0.0.5: icmp_seq=2 ttl=64 time=0.770 ms
64 bytes from 10.0.0.5: icmp_seq=3 ttl=64 time=1.03 ms
6464 bytes from 10.0.0.4: icmp_seq=4 ttl=64 time=0.871 m64 bytes from 10.0.0.5: icmp_seq=5 ttl=64 time=7.92 ms
64 64 bytes from 10.0.0.4: icmp_seq=6 ttl=64 time=1.03 m64 bytes from 10.0.0.5: icmp_seq=7 ttl=64 time=0.507 ms
64 bytes from 10.0.0.5: icmp_seq=8 ttl=64 time=0.560 ms
64 bytes from 10.0.0.5: icmp_seq=9 ttl=64 time=0.600 ms
64 bytes from 10.0.0.5: icmp_seq=10 ttl=64 time=1.25 ms
64 bytes from 10.0.0.5: icmp_seq=11 ttl=64 time=2.70 ms
64 bytes from 10.0.0.5: icmp_seq=12 ttl=64 time=0.864 ms
64 bytes from 10.0.0.5: icmp_seq=13 ttl=64 time=0.801 ms
64 bytes from 10.0.0.5: icmp_seq=14 ttl=64 time=1.04 ms
64 bytes from 10.0.0.5: icmp_seq=15 ttl=64 time=0.590 ms
64 bytes from 10.0.0.5: icmp_seq=16 ttl=64 time=0.769 ms

--- 10.0.0.5 ping statistics ---
16 packets transmitted, 16 received, 0% packet loss, time 76543ms
rtt min/avg/max/mdev = 0.507/1.884/9.093/2.560 ms
s
