PING 10.0.0.5 (10.0.0.5) 56(84) bytes of data.
64 bytes from 10.0.0.5: icmp_seq=1 ttl=64 time=0.423 ms664 bytes from 10.0.0.5: icmp_seq=2 ttl=64 time=0.496 ms64 bytes from 10.0.0.4: icmp_seq=3 ttl=64 time=0.925 ms
64 bytes from 10.0.0.4: icmp_seq=4 ttl=64 time=0.538 ms
64 bytes from 10.0.0.4: icmp_seq=5 ttl=64 time=1.12 ms
64 bytes from 10.0.0.4: icmp_seq=6 ttl=64 time=6.91 ms
64 bytes from 10.0.0.4: icmp_seq=7 ttl=64 time=11.5 ms
664 bytes from 10.0.0.5: icmp_seq=8 ttl=64 time=4.90 ms64 bytes from 10.0.0.4: icmp_seq=9 ttl=64 time=1.19 ms
64 bytes from 10.0.0.4: icmp_seq=10 ttl=64 time=1.23 ms
664 bytes from 10.0.0.5: icmp_seq=11 ttl=64 time=1.00 ms
64 bytes from 10.0.0.4: icmp_seq=12 ttl=64 time=0.736 ms664 bytes from 10.0.0.4: icmp_seq=13 ttl=64 time=2.03 ms664 bytes from 10.0.0.4: icmp_seq=14 ttl=64 time=0.903 m6464 bytes from 10.0.0.4: icmp_seq=15 ttl=64 time=1.31 m6464 bytes from 10.0.0.4: icmp_seq=16 ttl=64 time=0.682 ms

--- 10.0.0.4 ping statistics ---
16 packets transmitted, 16 received, 0% packet loss, time 75712ms
rtt min/avg/max/mdev = 0.505/2.278/11.512/2.903 ms
