PING 10.0.0.5 (10.0.0.5) 56(84) bytes of data.
64 bytes from 10.0.0.5: icmp_seq=1 ttl=64 time=9.18 ms
64 bytes from 10.0.0.5: icmp_seq=2 ttl=64 time=0.340 ms
64 bytes from 10.0.0.5: icmp_seq=3 ttl=64 time=0.675 ms
664 bytes from 10.0.0.4: icmp_seq=4 ttl=64 time=0.706 ms664 bytes from 10.0.0.4: icmp_seq=5 ttl=64 time=0.514 ms664 bytes from 10.0.0.4: icmp_seq=6 ttl=64 time=0.691 ms664 bytes from 10.0.0.4: icmp_seq=7 ttl=64 time=1.13 ms
64 bytes from 10.0.0.5: icmp_seq=8 ttl=64 time=0.835 ms
64 bytes from 10.0.0.4: icmp_seq=9 ttl=64 time=0.416 ms
64 bytes from 10.0.0.4: icmp_seq=10 ttl=64 time=0.679 ms
64 bytes from 10.0.0.4: icmp_seq=11 ttl=64 time=0.857 ms
64 bytes from 10.0.0.4: icmp_seq=12 ttl=64 time=0.653 ms
64 bytes from 10.0.0.4: icmp_seq=13 ttl=64 time=0.977 ms
64 bytes from 10.0.0.5: icmp_seq=14 ttl=64 time=0.641 ms
64 bytes from 10.0.0.5: icmp_seq=15 ttl=64 time=0.651 ms
64 bytes from 10.0.0.4: icmp_seq=16 ttl=64 time=0.694 ms

--- 10.0.0.4 ping statistics ---
16 packets transmitted, 16 received, 0% packet loss, time 76706ms
rtt min/avg/max/mdev = 0.395/0.663/1.130/0.192 ms
