PING 10.0.0.5 (10.0.0.5) 56(84) bytes of data.
64 bytes from 10.0.0.5: icmp_seq=1 ttl=64 time=0.610 ms664 bytes from 10.0.0.5: icmp_seq=2 ttl=64 time=1.52 ms664 bytes from 10.0.0.5: icmp_seq=3 ttl=64 time=1.60 ms664 bytes from 10.0.0.5: icmp_seq=4 ttl=64 time=1.14 ms
64 bytes from 10.0.0.4: icmp_seq=5 ttl=64 time=0.706 ms
64 bytes from 10.0.0.4: icmp_seq=6 ttl=64 time=0.529 ms
64 bytes from 10.0.0.4: icmp_seq=7 ttl=64 time=0.422 ms
64 bytes from 10.0.0.4: icmp_seq=8 ttl=64 time=0.427 ms
64 bytes from 10.0.0.4: icmp_seq=9 ttl=64 time=0.735 ms
64 bytes from 10.0.0.4: icmp_seq=10 ttl=64 time=0.844 ms
64 bytes from 10.0.0.4: icmp_seq=11 ttl=64 time=0.818 ms
64 bytes from 10.0.0.4: icmp_seq=12 ttl=64 time=0.970 ms
64 bytes from 10.0.0.5: icmp_seq=13 ttl=64 time=0.599 ms
64 bytes from 10.0.0.4: icmp_seq=14 ttl=64 time=0.832 ms
64 bytes from 10.0.0.4: icmp_seq=15 ttl=64 time=0.729 ms
64 bytes from 10.0.0.4: icmp_seq=16 ttl=64 time=0.661 ms

--- 10.0.0.4 ping statistics ---
16 packets transmitted, 16 received, 0% packet loss, time 76406ms
rtt min/avg/max/mdev = 0.422/1.197/8.090/1.791 ms
