PING 10.0.0.5 (10.0.0.5) 56(84) bytes of data.
64 bytes from 10.0.0.5: icmp_seq=1 ttl=64 time=0.359 ms
64 bytes from 10.0.0.5: icmp_seq=2 ttl=64 time=0.436 ms664 bytes from 10.0.0.5: icmp_seq=3 ttl=64 time=0.837 ms664 bytes from 10.0.0.5: icmp_seq=4 ttl=64 time=0.714 ms664 bytes from 10.0.0.5: icmp_seq=5 ttl=64 time=0.489 ms664 bytes from 10.0.0.5: icmp_seq=6 ttl=64 time=0.802 m6464 bytes from 10.0.0.5: icmp_seq=7 ttl=64 time=0.780 m6464 bytes from 10.0.0.5: icmp_seq=8 ttl=64 time=0.489 m6464 bytes from 10.0.0.5: icmp_seq=9 ttl=64 time=0.537 m6464 bytes from 10.0.0.5: icmp_seq=10 ttl=64 time=0.690 64 64 bytes from 10.0.0.5: icmp_seq=11 ttl=64 time=0.456 64 64 bytes from 10.0.0.5: icmp_seq=12 ttl=64 time=0.684 64 64 bytes from 10.0.0.5: icmp_seq=13 ttl=64 time=0.478 64 64 bytes from 10.0.0.5: icmp_seq=14 ttl=64 time=0.434 64 64 bytes from 10.0.0.5: icmp_seq=15 ttl=64 time=1.08 64 64 bytes from 10.0.0.5: icmp_seq=16 ttl=64 time=0.885 ms

--- 10.0.0.5 ping statistics ---
16 packets transmitted, 16 received, 0% packet loss, time 76698ms
rtt min/avg/max/mdev = 0.359/0.634/1.083/0.200 ms
