PING 10.0.0.5 (10.0.0.5) 56(84) bytes of data.
64 bytes from 10.0.0.5: icmp_seq=1 ttl=64 time=0.698 ms
64 bytes from 10.0.0.5: icmp_seq=2 ttl=64 time=5.68 ms
64 bytes from 10.0.0.5: icmp_seq=3 ttl=64 time=1.12 ms
664 bytes from 10.0.0.4: icmp_seq=4 ttl=64 time=0.822 ms664 bytes from 10.0.0.4: icmp_seq=5 ttl=64 time=1.89 ms
64 bytes from 10.0.0.4: icmp_seq=6 ttl=64 time=7.32 ms
64 bytes from 10.0.0.4: icmp_seq=7 ttl=64 time=0.873 ms
664 bytes from 10.0.0.5: icmp_seq=8 ttl=64 time=0.675 ms64 bytes from 10.0.0.4: icmp_seq=9 ttl=64 time=0.702 ms
64 bytes from 10.0.0.4: icmp_seq=10 ttl=64 time=7.51 ms
664 bytes from 10.0.0.5: icmp_seq=11 ttl=64 time=7.32 ms64 bytes from 10.0.0.4: icmp_seq=12 ttl=64 time=7.26 ms
664 bytes from 10.0.0.5: icmp_seq=13 ttl=64 time=0.908 ms64 bytes from 10.0.0.4: icmp_seq=14 ttl=64 time=0.627 ms
64 bytes from 10.0.0.4: icmp_seq=15 ttl=64 time=0.647 ms
64 bytes from 10.0.0.4: icmp_seq=16 ttl=64 time=1.81 ms

--- 10.0.0.4 ping statistics ---
16 packets transmitted, 16 received, 0% packet loss, time 76114ms
rtt min/avg/max/mdev = 0.574/2.905/7.518/2.961 ms

