PING 10.0.0.4 (10.0.0.4) 56(84) bytes of data.
64 bytes from 10.0.0.4: icmp_seq=1 ttl=64 time=0.638 ms664 bytes from 10.0.0.4: icmp_seq=2 ttl=64 time=0.643 ms664 bytes from 10.0.0.4: icmp_seq=3 ttl=64 time=0.882 ms664 bytes from 10.0.0.4: icmp_seq=4 ttl=64 time=0.465 ms664 bytes from 10.0.0.4: icmp_seq=5 ttl=64 time=0.656 ms664 bytes from 10.0.0.4: icmp_seq=6 ttl=64 time=0.444 ms664 bytes from 10.0.0.4: icmp_seq=7 ttl=64 time=0.457 ms664 bytes from 10.0.0.4: icmp_seq=8 ttl=64 time=0.664 ms664 bytes from 10.0.0.4: icmp_seq=9 ttl=64 time=0.604 ms664 bytes from 10.0.0.4: icmp_seq=10 ttl=64 time=0.492 ms64 bytes from 10.0.0.5: icmp_seq=11 ttl=64 time=0.656 ms
64 bytes from 10.0.0.5: icmp_seq=12 ttl=64 time=0.622 ms
64 bytes from 10.0.0.5: icmp_seq=13 ttl=64 time=0.430 ms
64 bytes from 10.0.0.5: icmp_seq=14 ttl=64 time=0.533 ms
64 bytes from 10.0.0.5: icmp_seq=15 ttl=64 time=0.555 ms
64 bytes from 10.0.0.5: icmp_seq=16 ttl=64 time=0.784 ms

--- 10.0.0.5 ping statistics ---
16 packets transmitted, 16 received, 0% packet loss, time 76615ms
rtt min/avg/max/mdev = 0.352/0.984/7.392/1.660 ms

