PING 10.0.0.5 (10.0.0.5) 56(84) bytes of data.
64 bytes from 10.0.0.5: icmp_seq=1 ttl=64 time=0.684 ms
64 bytes from 10.0.0.5: icmp_seq=2 ttl=64 time=0.754 ms
64 bytes from 10.0.0.5: icmp_seq=3 ttl=64 time=0.908 ms
64 bytes from 10.0.0.5: icmp_seq=4 ttl=64 time=1.60 ms
64 bytes from 10.0.0.5: icmp_seq=5 ttl=64 time=0.701 ms
64 bytes from 10.0.0.4: icmp_seq=6 ttl=64 time=1.05 ms
664 bytes from 10.0.0.5: icmp_seq=7 ttl=64 time=0.810 ms64 bytes from 10.0.0.4: icmp_seq=8 ttl=64 time=0.467 ms
64 bytes from 10.0.0.4: icmp_seq=9 ttl=64 time=0.780 ms
64 bytes from 10.0.0.4: icmp_seq=10 ttl=64 time=0.676 ms
64 bytes from 10.0.0.4: icmp_seq=11 ttl=64 time=0.884 ms
664 bytes from 10.0.0.5: icmp_seq=12 ttl=64 time=0.533 ms64 bytes from 10.0.0.4: icmp_seq=13 ttl=64 time=1.02 ms
6464 bytes from 10.0.0.5: icmp_seq=14 ttl=64 time=0.863 m6464 bytes from 10.0.0.5: icmp_seq=15 ttl=64 time=0.941 m64 bytes from 10.0.0.4: icmp_seq=16 ttl=64 time=0.752 ms

--- 10.0.0.4 ping statistics ---
16 packets transmitted, 16 received, 0% packet loss, time 76702ms
rtt min/avg/max/mdev = 0.467/0.805/1.556/0.256 ms
s
