PING 10.0.0.5 (10.0.0.5) 56(84) bytes of data.
64 bytes from 10.0.0.5: icmp_seq=1 ttl=64 time=1.17 ms
64 bytes from 10.0.0.5: icmp_seq=2 ttl=64 time=5.56 ms
664 bytes from 10.0.0.4: icmp_seq=3 ttl=64 time=0.617 ms664 bytes from 10.0.0.4: icmp_seq=4 ttl=64 time=1.25 ms
64 bytes from 10.0.0.5: icmp_seq=5 ttl=64 time=1.50 ms
64 bytes from 10.0.0.5: icmp_seq=6 ttl=64 time=0.789 ms
64 bytes from 10.0.0.5: icmp_seq=7 ttl=64 time=7.37 ms
64 bytes from 10.0.0.5: icmp_seq=8 ttl=64 time=0.507 ms
64 bytes from 10.0.0.5: icmp_seq=9 ttl=64 time=2.68 ms
64 bytes from 10.0.0.5: icmp_seq=10 ttl=64 time=0.678 ms
64 bytes from 10.0.0.5: icmp_seq=11 ttl=64 time=0.811 ms664 bytes from 10.0.0.5: icmp_seq=12 ttl=64 time=0.901 m6464 bytes from 10.0.0.5: icmp_seq=13 ttl=64 time=7.69 m6464 bytes from 10.0.0.5: icmp_seq=14 ttl=64 time=0.750 64 64 bytes from 10.0.0.5: icmp_seq=15 ttl=64 time=0.86264 b64 bytes from 10.0.0.5: icmp_seq=16 ttl=64 time=0.708 ms

--- 10.0.0.5 ping statistics ---
16 packets transmitted, 16 received, 0% packet loss, time 76595ms
rtt min/avg/max/mdev = 0.507/2.101/7.691/2.380 ms
