"Dstat 0.7.2 CSV output"
"Author:","Dag Wieers <dag@wieers.com>",,,,"URL:","http://dag.wieers.com/home-made/dstat/"
"Host:","Middleware1",,,,"User:","mstevan"
"Cmdline:","dstat --output /home/mstevan/logs/experiment_3.1/dstat/vs_1024-vcpr_4-wtpm_64-rep_2.csv 5 16",,,,"Date:","28 Oct 2019 05:35:11 UTC"

"total cpu usage",,,,,,"dsk/total",,"net/total",,"paging",,"system",
"usr","sys","idl","wai","hiq","siq","read","writ","recv","send","in","out","int","csw"
1.360,2.595,95.580,0.096,0.0,0.369,9191.176,11292781.611,0.0,0.0,0.0,0.0,7818.679,23309.790
0.801,0.376,98.773,0.050,0.0,0.0,0.0,31129.600,121459.800,119075.0,0.0,0.0,386.400,1068.600
5.828,5.274,88.107,0.0,0.0,0.791,0.0,1638.400,13227529.800,13223815.0,0.0,0.0,17827.400,49492.0
3.627,5.207,90.440,0.0,0.0,0.725,0.0,1638.400,13438565.800,13434116.600,0.0,0.0,18745.400,50579.200
2.068,5.273,92.143,0.0,0.0,0.517,0.0,2457.600,13434386.200,13432226.200,0.0,0.0,18781.0,50514.400
2.280,4.924,92.330,0.0,0.0,0.466,0.0,1638.400,13438231.200,13433840.600,0.0,0.0,18824.800,50725.400
2.049,4.825,92.737,0.0,0.0,0.389,0.0,1638.400,13464843.800,13460180.200,0.0,0.0,18820.800,50790.400
2.067,5.425,92.173,0.0,0.0,0.336,0.0,11468.800,13408035.600,13406005.600,0.0,0.0,18731.0,50541.200
1.966,5.199,92.318,0.052,0.0,0.466,0.0,29491.200,13479432.600,13474929.400,0.0,0.0,18854.0,50867.0
2.338,4.805,92.364,0.0,0.0,0.494,0.0,1638.400,13438181.800,13433719.400,0.0,0.0,18628.600,50301.800
2.133,4.735,92.794,0.0,0.0,0.338,0.0,819.200,13434767.0,13432535.800,0.0,0.0,18650.400,50555.800
2.181,4.984,92.264,0.0,0.0,0.571,0.0,1638.400,13438513.600,13434064.400,0.0,0.0,18709.800,50549.400
2.186,5.022,92.220,0.0,0.0,0.572,0.0,819.200,13476178.400,13473947.200,0.0,0.0,18843.600,50864.800
2.085,5.458,91.941,0.0,0.0,0.515,0.0,6553.600,13437389.400,13432993.0,0.0,0.0,18547.600,50429.800
2.278,5.151,92.208,0.052,0.0,0.311,0.0,17203.200,13438370.800,13433921.600,0.0,0.0,18707.600,50705.400
1.836,5.636,92.166,0.0,0.0,0.362,0.0,819.200,13212624.400,13210921.200,0.0,0.0,18201.600,49454.400
0.050,0.025,99.925,0.0,0.0,0.0,0.0,1638.400,6407.200,2068.800,0.0,0.0,40.0,124.600
