"Dstat 0.7.2 CSV output"
"Author:","Dag Wieers <dag@wieers.com>",,,,"URL:","http://dag.wieers.com/home-made/dstat/"
"Host:","Middleware1",,,,"User:","mstevan"
"Cmdline:","dstat --output /home/mstevan/logs/experiment_3.1/dstat/vs_1024-vcpr_16-wtpm_64-rep_4.csv 5 16",,,,"Date:","28 Oct 2019 06:12:06 UTC"

"total cpu usage",,,,,,"dsk/total",,"net/total",,"paging",,"system",
"usr","sys","idl","wai","hiq","siq","read","writ","recv","send","in","out","int","csw"
1.400,2.651,95.489,0.089,0.0,0.371,8389.963,10308955.984,0.0,0.0,0.0,0.0,8026.277,23835.959
0.703,0.201,99.021,0.0,0.0,0.075,0.0,819.200,144366.0,137246.200,0.0,0.0,366.400,1013.800
5.938,4.141,88.958,0.0,0.0,0.964,0.0,1638.400,13570480.800,13558606.600,0.0,0.0,8654.800,30286.200
3.372,3.552,92.432,0.0,0.0,0.644,0.0,1638.400,13482719.200,13483660.800,0.0,0.0,8529.0,29460.600
1.615,3.179,94.590,0.0,0.0,0.615,0.0,2457.600,13428847.200,13432980.800,0.0,0.0,8538.600,29616.400
1.433,3.454,94.321,0.077,0.0,0.716,0.0,40960.0,13441393.600,13435454.600,0.0,0.0,8625.200,29659.400
2.939,3.222,92.988,0.0,0.0,0.851,0.0,5734.400,13483725.800,13477614.0,0.0,0.0,8429.0,29480.200
2.142,3.646,93.600,0.0,0.0,0.612,0.0,9011.200,13430389.200,13425073.800,0.0,0.0,8728.600,29838.400
2.039,3.594,93.755,0.0,0.0,0.612,0.0,1638.400,13438974.200,13433023.600,0.0,0.0,8660.800,29693.800
1.337,3.548,94.679,0.0,0.0,0.437,0.0,1638.400,13477564.400,13480017.0,0.0,0.0,9085.0,30427.600
1.916,3.704,93.691,0.0,0.0,0.690,0.0,819.200,13434355.600,13424633.600,0.0,0.0,9024.400,30924.0
1.845,3.511,93.952,0.051,0.0,0.641,0.0,18022.400,13437528.800,13437112.400,0.0,0.0,9072.800,31014.600
1.885,3.720,93.834,0.0,0.0,0.561,0.0,819.200,13433378.800,13424978.0,0.0,0.0,8979.0,30766.600
1.928,3.984,93.479,0.0,0.0,0.609,0.0,5734.400,13438742.200,13432022.200,0.0,0.0,9051.600,30698.0
1.939,3.393,93.954,0.0,0.0,0.714,0.0,3276.800,13438581.200,13433371.800,0.0,0.0,8995.0,30630.0
1.357,3.610,94.419,0.0,0.0,0.614,0.0,819.200,13359764.0,13368983.800,0.0,0.0,8961.800,30508.0
0.378,0.906,98.640,0.0,0.0,0.076,0.0,1638.400,1728317.200,1724722.0,0.0,0.0,2646.600,6773.400
