"Dstat 0.7.2 CSV output"
"Author:","Dag Wieers <dag@wieers.com>",,,,"URL:","http://dag.wieers.com/home-made/dstat/"
"Host:","Middleware1",,,,"User:","mstevan"
"Cmdline:","dstat --output /home/mstevan/logs/experiment_3.1/dstat/vs_1024-vcpr_8-wtpm_64-rep_2.csv 5 16",,,,"Date:","28 Oct 2019 05:52:13 UTC"

"total cpu usage",,,,,,"dsk/total",,"net/total",,"paging",,"system",
"usr","sys","idl","wai","hiq","siq","read","writ","recv","send","in","out","int","csw"
1.383,2.632,95.523,0.093,0.0,0.370,8803.174,10816343.135,0.0,0.0,0.0,0.0,7970.768,23692.544
0.626,0.226,99.098,0.0,0.0,0.050,0.0,819.200,91898.200,85770.600,0.0,0.0,304.400,876.0
5.987,5.436,87.579,0.0,0.0,0.998,0.0,1638.400,13584371.200,13584333.200,0.0,0.0,15168.0,45779.600
3.534,4.875,90.947,0.0,0.0,0.645,0.0,1638.400,13437430.0,13432967.600,0.0,0.0,15570.400,46129.200
3.493,4.958,91.035,0.0,0.0,0.514,0.0,2457.600,13477946.400,13475715.200,0.0,0.0,15578.200,46434.800
2.292,4.687,92.300,0.052,0.0,0.670,0.0,33587.200,13479808.200,13475364.800,0.0,0.0,15792.400,46941.800
2.365,4.473,92.596,0.0,0.0,0.566,0.0,4915.200,13426845.0,13422382.600,0.0,0.0,15667.200,46706.200
2.535,4.917,92.036,0.0,0.0,0.512,0.0,9011.200,13445785.600,13443612.400,0.0,0.0,15628.0,46571.200
2.617,4.799,92.148,0.0,0.0,0.436,0.0,1638.400,13438191.800,13433729.400,0.0,0.0,15764.800,46688.200
2.569,5.137,91.684,0.0,0.0,0.610,0.0,1638.400,13480111.200,13475608.0,0.0,0.0,15894.400,46986.800
2.248,5.008,92.233,0.0,0.0,0.511,0.0,819.200,13434227.200,13431610.0,0.0,0.0,15772.400,46776.0
2.289,4.731,92.337,0.051,0.0,0.591,0.0,18841.600,13479345.800,13475269.400,0.0,0.0,15906.0,46689.600
2.048,4.505,92.910,0.0,0.0,0.537,0.0,9011.200,13435252.400,13433021.200,0.0,0.0,15931.800,46657.0
1.851,4.524,93.265,0.0,0.0,0.360,0.0,5734.400,13437284.600,13432822.200,0.0,0.0,15870.600,46250.0
1.826,4.398,93.107,0.0,0.0,0.669,0.0,3276.800,13479608.0,13475145.600,0.0,0.0,15801.800,46108.800
1.800,4.244,93.338,0.0,0.0,0.617,0.0,819.200,13256375.0,13254355.0,0.0,0.0,15793.600,45564.0
0.075,0.025,99.900,0.0,0.0,0.0,0.0,1638.400,6349.200,1966.0,0.0,0.0,46.600,129.800
