"Dstat 0.7.2 CSV output"
"Author:","Dag Wieers <dag@wieers.com>",,,,"URL:","http://dag.wieers.com/home-made/dstat/"
"Host:","Middleware1",,,,"User:","mstevan"
"Cmdline:","dstat --output /home/mstevan/logs/experiment_3.1/dstat/vs_1024-vcpr_8-wtpm_64-rep_1.csv 5 16",,,,"Date:","28 Oct 2019 05:50:48 UTC"

"total cpu usage",,,,,,"dsk/total",,"net/total",,"paging",,"system",
"usr","sys","idl","wai","hiq","siq","read","writ","recv","send","in","out","int","csw"
1.381,2.628,95.529,0.093,0.0,0.370,8834.251,10854502.242,0.0,0.0,0.0,0.0,7953.045,23642.167
0.727,0.251,98.972,0.0,0.0,0.050,0.0,819.200,124516.200,119586.200,0.0,0.0,361.600,1001.200
6.432,4.988,87.661,0.0,0.0,0.919,0.0,1638.400,13578086.600,13577880.600,0.0,0.0,15203.400,45788.200
4.316,4.652,90.437,0.0,0.0,0.594,0.0,2457.600,13435346.400,13427934.600,0.0,0.0,15711.400,46178.0
2.116,4.128,93.034,0.232,0.0,0.490,0.0,44236.800,13436308.600,13437026.800,0.0,0.0,15816.400,46306.800
1.841,4.807,92.687,0.0,0.0,0.665,0.0,1638.400,13469218.600,13463497.800,0.0,0.0,15774.200,46299.400
1.743,4.614,93.130,0.0,0.0,0.513,0.0,4915.200,13448418.0,13445214.0,0.0,0.0,15816.800,46137.600
1.896,4.511,93.183,0.0,0.0,0.410,0.0,9011.200,13435373.200,13433142.0,0.0,0.0,15669.0,45838.800
1.901,4.521,92.987,0.0,0.0,0.591,0.0,1638.400,13437740.800,13433278.400,0.0,0.0,15821.400,46090.600
2.016,4.900,92.445,0.0,0.0,0.638,0.0,1638.400,13479627.600,13475165.200,0.0,0.0,15907.600,46401.200
1.963,4.945,92.404,0.025,0.0,0.663,0.0,17203.200,13477775.200,13475479.0,0.0,0.0,15931.800,46436.0
1.849,4.470,93.116,0.0,0.0,0.565,0.0,1638.400,13437153.800,13432775.400,0.0,0.0,15863.600,46187.200
1.899,4.466,93.121,0.0,0.0,0.513,0.0,819.200,13413558.600,13409167.400,0.0,0.0,15855.600,46111.800
1.749,4.475,93.416,0.0,0.0,0.360,0.0,1638.400,13459364.0,13457092.0,0.0,0.0,16001.200,46171.400
1.670,4.726,93.090,0.0,0.0,0.514,0.0,6553.600,13437621.800,13432659.400,0.0,0.0,15942.200,46135.0
1.696,4.215,93.498,0.0,0.0,0.591,0.0,1638.400,13220912.0,13219392.0,0.0,0.0,15598.800,45494.400
0.050,0.025,99.850,0.075,0.0,0.0,0.0,17203.200,6758.400,2177.200,0.0,0.0,45.400,129.600
