"Dstat 0.7.2 CSV output"
"Author:","Dag Wieers <dag@wieers.com>",,,,"URL:","http://dag.wieers.com/home-made/dstat/"
"Host:","Middleware1",,,,"User:","mstevan"
"Cmdline:","dstat --output /home/mstevan/logs/experiment_3.1/dstat/vs_1024-vcpr_16-wtpm_32-rep_2.csv 5 16",,,,"Date:","28 Oct 2019 06:03:35 UTC"

"total cpu usage",,,,,,"dsk/total",,"net/total",,"paging",,"system",
"usr","sys","idl","wai","hiq","siq","read","writ","recv","send","in","out","int","csw"
1.395,2.648,95.497,0.091,0.0,0.370,8562.194,10520436.319,0.0,0.0,0.0,0.0,8052.919,23867.086
0.651,0.300,98.948,0.0,0.0,0.100,0.0,1638.400,183608.600,169390.600,0.0,0.0,361.200,1034.800
5.060,3.477,90.867,0.0,0.0,0.597,0.0,1638.400,13549819.0,13553188.400,0.0,0.0,5836.200,23318.0
2.849,3.568,93.070,0.077,0.0,0.436,0.0,34406.400,13476098.600,13473867.400,0.0,0.0,7338.600,23725.600
1.364,2.728,95.521,0.0,0.0,0.386,0.0,2457.600,13479968.0,13475505.400,0.0,0.0,7791.800,24033.400
1.130,3.004,95.404,0.0,0.0,0.462,0.0,2457.600,13437863.0,13433460.0,0.0,0.0,7667.800,23938.800
2.091,2.918,94.578,0.0,0.0,0.413,0.0,819.200,13434934.600,13432702.800,0.0,0.0,7494.600,23729.800
1.815,3.298,94.452,0.0,0.0,0.435,0.0,13926.400,13438243.0,13433780.800,0.0,0.0,7406.600,23649.800
1.572,2.654,95.285,0.0,0.0,0.490,0.0,819.200,13434474.600,13432243.600,0.0,0.0,7556.200,23808.200
1.081,2.883,95.495,0.103,0.0,0.438,0.0,18841.600,13469705.200,13465243.800,0.0,0.0,7675.200,24139.200
1.243,2.330,96.038,0.0,0.0,0.388,0.0,9830.400,13447870.400,13443407.0,0.0,0.0,7514.600,23763.400
1.186,2.500,95.928,0.0,0.0,0.387,0.0,819.200,13434365.200,13432132.800,0.0,0.0,7518.800,23802.0
1.358,2.920,95.261,0.0,0.0,0.461,0.0,1638.400,13480217.800,13475756.800,0.0,0.0,7527.0,23832.800
1.279,3.248,95.115,0.0,0.0,0.358,0.0,5734.400,13438061.400,13433575.600,0.0,0.0,7549.600,24066.0
1.201,3.119,95.194,0.0,0.0,0.486,0.0,2457.600,13435360.400,13433130.200,0.0,0.0,7583.200,24047.800
1.383,2.946,95.236,0.077,0.0,0.359,0.0,17203.200,13292136.0,13287462.600,0.0,0.0,7843.0,24064.800
0.654,0.478,98.793,0.0,0.0,0.075,0.0,1638.400,827476.800,823111.200,0.0,0.0,1388.0,3432.200
