"Dstat 0.7.2 CSV output"
"Author:","Dag Wieers <dag@wieers.com>",,,,"URL:","http://dag.wieers.com/home-made/dstat/"
"Host:","Middleware1",,,,"User:","mstevan"
"Cmdline:","dstat --output /home/mstevan/logs/experiment_3.1/dstat/vs_1024-vcpr_8-wtpm_8-rep_2.csv 5 16",,,,"Date:","28 Oct 2019 05:40:52 UTC"

"total cpu usage",,,,,,"dsk/total",,"net/total",,"paging",,"system",
"usr","sys","idl","wai","hiq","siq","read","writ","recv","send","in","out","int","csw"
1.370,2.615,95.552,0.095,0.0,0.369,9058.080,11129347.883,0.0,0.0,0.0,0.0,7911.060,23518.982
0.501,0.125,99.299,0.025,0.0,0.050,0.0,33587.200,156528.800,149597.800,0.0,0.0,225.200,778.200
4.820,3.582,90.861,0.0,0.0,0.737,0.0,10649.600,13508238.600,13505348.600,0.0,0.0,10992.400,32282.400
3.801,4.035,91.695,0.0,0.0,0.469,0.0,819.200,13434705.400,13432508.200,0.0,0.0,13192.0,32584.800
3.464,3.826,92.244,0.0,0.0,0.465,0.0,2457.600,13437386.400,13430816.600,0.0,0.0,13002.0,32610.0
2.477,3.922,93.292,0.0,0.0,0.310,0.0,1638.400,13437605.200,13435243.600,0.0,0.0,12712.600,32672.600
1.752,3.163,94.850,0.0,0.0,0.235,0.0,4096.0,13477585.400,13475286.0,0.0,0.0,12908.400,32625.0
1.707,3.647,94.180,0.052,0.0,0.414,0.0,27033.600,13437220.400,13432758.800,0.0,0.0,13071.800,32606.200
1.326,3.121,95.163,0.0,0.0,0.390,0.0,819.200,13435107.200,13432876.0,0.0,0.0,13146.0,32535.0
1.579,3.520,94.539,0.0,0.0,0.362,0.0,1638.400,13438853.800,13434468.0,0.0,0.0,13351.0,32484.200
1.539,3.261,94.913,0.0,0.0,0.287,0.0,1638.400,13453211.400,13448735.800,0.0,0.0,13396.400,32467.400
1.555,3.810,94.349,0.0,0.0,0.285,0.0,819.200,13438861.800,13436630.400,0.0,0.0,13333.200,32530.400
1.385,3.241,95.008,0.0,0.0,0.366,0.0,1638.400,13460341.600,13455866.600,0.0,0.0,13223.400,32563.200
1.432,3.489,94.689,0.078,0.0,0.312,0.0,21299.200,13425909.800,13421448.0,0.0,0.0,13201.400,32436.0
1.663,3.664,94.361,0.0,0.0,0.312,0.0,4915.200,13441121.400,13438889.0,0.0,0.0,13123.600,32424.800
1.531,3.556,94.628,0.0,0.0,0.285,0.0,1638.400,13119860.400,13115541.600,0.0,0.0,12836.800,31656.0
0.025,0.050,99.925,0.0,0.0,0.0,0.0,1638.400,7220.400,2362.0,0.0,0.0,46.200,129.800
