"Dstat 0.7.2 CSV output"
"Author:","Dag Wieers <dag@wieers.com>",,,,"URL:","http://dag.wieers.com/home-made/dstat/"
"Host:","Middleware1",,,,"User:","mstevan"
"Cmdline:","dstat --output /home/mstevan/logs/experiment_3.1/dstat/vs_256-vcpr_8-wtpm_64-rep_2.csv 5 16",,,,"Date:","28 Oct 2019 03:35:44 UTC"

"total cpu usage",,,,,,"dsk/total",,"net/total",,"paging",,"system",
"usr","sys","idl","wai","hiq","siq","read","writ","recv","send","in","out","int","csw"
0.904,1.709,97.019,0.133,0.0,0.235,13280.031,16337113.816,0.0,0.0,0.0,0.0,5241.429,15679.709
0.702,0.226,99.022,0.0,0.0,0.050,0.0,1638.400,37889.400,32849.400,0.0,0.0,294.800,858.800
8.615,9.657,79.781,0.0,0.0,1.948,0.0,819.200,7716779.0,7714730.400,0.0,0.0,24740.0,73251.400
4.340,8.864,85.718,0.0,0.0,1.078,0.0,1638.400,8147074.600,8142213.400,0.0,0.0,26896.200,78338.600
3.464,8.197,87.335,0.053,0.0,0.952,0.0,34406.400,8317141.200,8313714.0,0.0,0.0,27762.800,80125.0
3.822,8.201,86.624,0.0,0.0,1.354,0.0,819.200,8328870.800,8327361.800,0.0,0.0,28016.600,80565.200
3.472,7.549,87.980,0.0,0.0,0.999,0.0,4915.200,8169772.0,8165242.400,0.0,0.0,27398.800,78672.200
2.852,8.556,87.431,0.0,0.0,1.162,0.0,9011.200,8169261.0,8166529.600,0.0,0.0,27221.0,78375.0
3.464,8.180,87.130,0.0,0.0,1.226,0.0,1638.400,8414369.400,8410789.0,0.0,0.0,28157.0,80776.600
3.550,8.397,86.940,0.0,0.0,1.113,0.0,1638.400,8324003.800,8318431.0,0.0,0.0,27881.200,80334.400
3.400,8.368,86.899,0.0,0.0,1.334,0.0,819.200,8155792.600,8154628.600,0.0,0.0,27143.400,78098.600
3.590,7.867,87.117,0.106,0.0,1.320,0.0,24576.0,8279657.800,8274600.200,0.0,0.0,27677.0,79575.400
3.621,9.105,85.969,0.0,0.0,1.305,0.0,1638.400,8115804.0,8111416.800,0.0,0.0,27118.400,77961.600
3.318,8.399,87.151,0.0,0.0,1.132,0.0,4915.200,8138764.200,8137187.400,0.0,0.0,27396.400,78385.0
3.163,8.001,87.640,0.0,0.0,1.196,0.0,3276.800,8208912.600,8204450.200,0.0,0.0,27515.400,79044.800
3.530,9.315,85.642,0.0,0.0,1.513,0.0,1638.400,8030800.200,8026601.800,0.0,0.0,27025.400,77195.400
0.0,0.025,99.975,0.0,0.0,0.0,0.0,819.200,3660.200,1297.0,0.0,0.0,46.0,129.200
