"Dstat 0.7.2 CSV output"
"Author:","Dag Wieers <dag@wieers.com>",,,,"URL:","http://dag.wieers.com/home-made/dstat/"
"Host:","Middleware1",,,,"User:","mstevan"
"Cmdline:","dstat --output /home/mstevan/logs/experiment_3.1/dstat/vs_256-vcpr_32-wtpm_32-rep_2.csv 5 16",,,,"Date:","28 Oct 2019 04:04:09 UTC"

"total cpu usage",,,,,,"dsk/total",,"net/total",,"paging",,"system",
"usr","sys","idl","wai","hiq","siq","read","writ","recv","send","in","out","int","csw"
1.060,2.008,96.525,0.122,0.0,0.286,12003.988,14767967.488,0.0,0.0,0.0,0.0,6133.452,18229.708
0.827,0.276,98.847,0.0,0.0,0.050,0.0,819.200,76194.0,69845.0,0.0,0.0,326.400,1005.200
8.313,6.816,83.561,0.0,0.0,1.310,0.0,1638.400,8466932.800,8459497.200,0.0,0.0,11666.400,43255.200
2.984,5.601,90.290,0.0,0.0,1.125,0.0,1638.400,9069786.600,9065324.200,0.0,0.0,13518.800,44358.400
2.308,5.770,90.847,0.0,0.0,1.075,0.0,2457.600,9082971.200,9080716.0,0.0,0.0,14653.0,45103.800
2.311,5.462,91.124,0.0,0.0,1.103,0.0,1638.400,9145641.600,9141208.0,0.0,0.0,14583.400,45081.800
2.872,4.761,91.356,0.053,0.0,0.957,0.0,51609.600,8883779.800,8879148.600,0.0,0.0,13866.800,43651.600
2.415,5.329,91.100,0.0,0.0,1.155,0.0,9011.200,9178784.400,9176686.200,0.0,0.0,14593.600,45110.0
2.360,6.406,90.456,0.0,0.0,0.778,0.0,3276.800,8972949.400,8967859.400,0.0,0.0,13915.400,43843.400
2.364,5.766,90.805,0.0,0.0,1.065,0.0,819.200,8888444.200,8886988.600,0.0,0.0,13799.200,43666.600
2.297,5.560,91.151,0.0,0.0,0.992,0.0,1638.400,9109095.0,9103468.200,0.0,0.0,14039.200,44714.200
2.428,5.717,90.838,0.0,0.0,1.018,0.0,1638.400,8957593.800,8952792.600,0.0,0.0,14047.400,44244.600
2.190,5.501,91.189,0.052,0.0,1.069,0.0,16384.0,8982905.0,8981264.200,0.0,0.0,13932.400,44211.200
2.174,5.762,91.252,0.0,0.0,0.812,0.0,5734.400,9094037.800,9090518.400,0.0,0.0,13904.0,44319.0
2.354,5.413,91.449,0.0,0.0,0.785,0.0,3276.800,9016151.400,9011688.800,0.0,0.0,14005.800,44339.0
2.335,5.904,90.947,0.0,0.0,0.813,0.0,819.200,9058152.0,9056549.200,0.0,0.0,13785.800,44490.200
0.908,1.161,97.805,0.0,0.0,0.126,0.0,1638.400,1671977.200,1665868.400,0.0,0.0,2657.400,8381.200
