"Dstat 0.7.2 CSV output"
"Author:","Dag Wieers <dag@wieers.com>",,,,"URL:","http://dag.wieers.com/home-made/dstat/"
"Host:","Middleware1",,,,"User:","mstevan"
"Cmdline:","dstat --output /home/mstevan/logs/experiment_3.1/dstat/vs_256-vcpr_8-wtpm_8-rep_2.csv 5 16",,,,"Date:","28 Oct 2019 03:24:23 UTC"

"total cpu usage",,,,,,"dsk/total",,"net/total",,"paging",,"system",
"usr","sys","idl","wai","hiq","siq","read","writ","recv","send","in","out","int","csw"
0.832,1.570,97.246,0.138,0.0,0.215,13869.747,17062306.234,0.0,0.0,0.0,0.0,4823.197,14378.758
0.527,0.201,99.198,0.0,0.0,0.075,0.0,819.200,41419.0,36145.200,0.0,0.0,197.200,621.0
4.273,3.904,91.269,0.0,0.0,0.554,0.0,1638.400,5087855.200,5085546.400,0.0,0.0,10476.600,33311.400
3.605,3.316,92.447,0.0,0.0,0.632,0.0,1638.400,5229337.400,5223930.400,0.0,0.0,13519.200,34612.600
2.961,4.125,92.570,0.0,0.0,0.344,0.0,2457.600,5461317.800,5459619.200,0.0,0.0,13790.600,36189.200
1.883,3.557,94.115,0.0,0.0,0.445,0.0,1638.400,5266730.200,5262593.200,0.0,0.0,13259.400,34936.800
1.896,3.817,93.430,0.312,0.0,0.545,0.0,24576.0,5381515.0,5377053.600,0.0,0.0,14199.0,35748.400
1.565,3.365,94.679,0.0,0.0,0.391,0.0,9011.200,5373136.0,5370544.400,0.0,0.0,14124.600,35679.0
1.451,3.912,94.197,0.0,0.0,0.440,0.0,1638.400,5301942.400,5297655.600,0.0,0.0,14211.800,35090.400
1.577,4.782,93.202,0.0,0.0,0.439,0.0,819.200,5523065.200,5520780.0,0.0,0.0,15158.800,36608.400
1.661,4.255,93.669,0.0,0.0,0.415,0.0,1638.400,5437678.400,5432944.0,0.0,0.0,14982.800,36091.0
1.360,3.713,94.561,0.0,0.0,0.366,0.0,1638.400,5332296.200,5327975.200,0.0,0.0,14735.0,35151.400
1.820,3.822,93.838,0.0,0.0,0.520,0.0,819.200,5499574.0,5497921.400,0.0,0.0,15176.0,36604.0
1.738,4.074,93.721,0.052,0.0,0.415,0.0,27033.600,5462947.0,5457783.0,0.0,0.0,15134.800,36174.400
1.277,4.093,94.265,0.0,0.0,0.365,0.0,1638.400,5438853.0,5434036.600,0.0,0.0,15162.0,35929.600
1.707,4.242,93.714,0.0,0.0,0.336,0.0,2457.600,5229341.800,5228175.800,0.0,0.0,14481.200,34682.400
0.050,0.025,99.925,0.0,0.0,0.0,0.0,1638.400,6771.600,2177.200,0.0,0.0,48.200,134.0
