"Dstat 0.7.2 CSV output"
"Author:","Dag Wieers <dag@wieers.com>",,,,"URL:","http://dag.wieers.com/home-made/dstat/"
"Host:","Middleware1",,,,"User:","mstevan"
"Cmdline:","dstat --output /home/mstevan/logs/experiment_3.1/dstat/vs_256-vcpr_16-wtpm_64-rep_2.csv 5 16",,,,"Date:","28 Oct 2019 03:52:47 UTC"

"total cpu usage",,,,,,"dsk/total",,"net/total",,"paging",,"system",
"usr","sys","idl","wai","hiq","siq","read","writ","recv","send","in","out","int","csw"
1.002,1.898,96.708,0.126,0.0,0.266,12483.758,15357932.827,0.0,0.0,0.0,0.0,5820.268,17328.709
0.827,0.201,98.847,0.075,0.0,0.050,0.0,32768.0,55043.400,47258.200,0.0,0.0,372.800,1066.600
9.152,9.652,78.748,0.0,0.0,2.448,0.0,6553.600,10044983.800,10045026.400,0.0,0.0,19835.800,65335.0
4.151,8.891,85.029,0.0,0.0,1.928,0.0,1638.400,10678330.200,10673903.0,0.0,0.0,22283.400,69938.600
4.770,8.873,84.279,0.0,0.0,2.078,0.0,2457.600,10631928.0,10628966.200,0.0,0.0,20802.200,68004.800
4.486,7.951,85.684,0.0,0.0,1.880,0.0,1638.400,10509701.0,10506324.200,0.0,0.0,20882.200,68059.600
4.349,8.724,84.673,0.0,0.0,2.254,0.0,5734.400,10649244.400,10644684.600,0.0,0.0,21425.800,69071.0
5.076,9.825,82.778,0.055,0.0,2.265,0.0,25395.200,10664073.600,10661909.0,0.0,0.0,21752.400,69508.400
3.702,8.309,86.445,0.0,0.0,1.545,0.0,3276.800,10669027.600,10664584.600,0.0,0.0,21858.400,69632.200
3.451,8.509,86.117,0.0,0.0,1.923,0.0,1638.400,10868301.200,10863311.800,0.0,0.0,22855.600,71284.0
3.210,7.907,87.132,0.0,0.0,1.751,0.0,819.200,10657266.200,10655655.400,0.0,0.0,22506.800,70046.400
3.505,7.931,87.009,0.0,0.0,1.555,0.0,1638.400,10526013.800,10521247.0,0.0,0.0,21953.400,68933.0
3.002,8.478,86.888,0.0,0.0,1.632,0.0,1638.400,10523578.0,10518208.200,0.0,0.0,21942.200,69040.400
3.695,8.150,86.164,0.0,0.0,1.992,0.0,1638.400,10531461.800,10529017.600,0.0,0.0,21826.800,68873.400
3.506,7.718,87.075,0.078,0.0,1.622,0.0,27033.600,10448159.600,10443609.0,0.0,0.0,21939.800,68724.0
3.495,8.387,86.668,0.0,0.0,1.450,0.0,1638.400,10409474.800,10408108.400,0.0,0.0,21620.600,68308.400
0.857,0.756,98.361,0.0,0.0,0.025,0.0,1638.400,571005.400,566912.600,0.0,0.0,2352.0,6004.800
