"Dstat 0.7.2 CSV output"
"Author:","Dag Wieers <dag@wieers.com>",,,,"URL:","http://dag.wieers.com/home-made/dstat/"
"Host:","Middleware1",,,,"User:","mstevan"
"Cmdline:","dstat --output /home/mstevan/logs/experiment_3.1/dstat/vs_256-vcpr_4-wtpm_64-rep_2.csv 5 16",,,,"Date:","28 Oct 2019 03:18:42 UTC"

"total cpu usage",,,,,,"dsk/total",,"net/total",,"paging",,"system",
"usr","sys","idl","wai","hiq","siq","read","writ","recv","send","in","out","int","csw"
0.798,1.500,97.352,0.141,0.0,0.209,14184.616,17449503.764,0.0,0.0,0.0,0.0,4552.555,13689.653
0.677,0.251,98.872,0.175,0.0,0.025,0.0,31129.600,53173.600,49367.600,0.0,0.0,406.200,1128.0
7.222,6.656,85.287,0.0,0.0,0.835,0.0,1638.400,5713251.400,5710729.0,0.0,0.0,21148.600,58821.200
4.083,6.718,88.567,0.0,0.0,0.632,0.0,1638.400,5874560.0,5870602.400,0.0,0.0,22176.400,60469.200
2.847,6.452,89.995,0.0,0.0,0.705,0.0,2457.600,6009312.400,6004958.400,0.0,0.0,23052.200,62330.0
2.321,6.129,91.002,0.0,0.0,0.548,0.0,819.200,5876807.400,5874619.400,0.0,0.0,22521.0,60828.600
2.295,6.180,90.847,0.0,0.0,0.678,0.0,4096.0,5861006.0,5856000.400,0.0,0.0,22438.800,60621.200
2.842,6.284,90.300,0.052,0.0,0.522,0.0,23756.800,5933540.400,5929674.0,0.0,0.0,22837.0,61377.400
2.753,6.622,89.899,0.0,0.0,0.727,0.0,6553.600,6042092.0,6039228.600,0.0,0.0,23175.0,62439.400
2.520,6.183,90.751,0.0,0.0,0.546,0.0,1638.400,5831081.200,5827229.200,0.0,0.0,22374.800,60215.400
2.200,5.500,91.776,0.0,0.0,0.524,0.0,819.200,5806586.800,5803574.600,0.0,0.0,22244.800,60114.400
2.444,5.386,91.697,0.0,0.0,0.473,0.0,1638.400,5879193.400,5875644.0,0.0,0.0,22556.0,60910.800
2.809,6.528,90.221,0.0,0.0,0.442,0.0,1638.400,5921732.800,5917182.600,0.0,0.0,22750.800,61304.800
2.154,6.148,91.014,0.0,0.0,0.683,0.0,4915.200,5966166.400,5964023.0,0.0,0.0,22814.800,61367.800
2.527,5.991,90.805,0.052,0.0,0.625,0.0,17203.200,5807102.800,5802197.800,0.0,0.0,22263.0,59989.600
2.371,5.836,91.271,0.0,0.0,0.521,0.0,1638.400,5815082.200,5811616.800,0.0,0.0,22578.200,60636.0
0.050,0.0,99.950,0.0,0.0,0.0,0.0,819.200,3237.800,1099.0,0.0,0.0,40.400,118.200
