"Dstat 0.7.2 CSV output"
"Author:","Dag Wieers <dag@wieers.com>",,,,"URL:","http://dag.wieers.com/home-made/dstat/"
"Host:","Middleware1",,,,"User:","mstevan"
"Cmdline:","dstat --output /home/mstevan/logs/experiment_3.1/dstat/vs_256-vcpr_8-wtpm_32-rep_3.csv 5 16",,,,"Date:","28 Oct 2019 03:31:29 UTC"

"total cpu usage",,,,,,"dsk/total",,"net/total",,"paging",,"system",
"usr","sys","idl","wai","hiq","siq","read","writ","recv","send","in","out","int","csw"
0.870,1.640,97.131,0.135,0.0,0.224,13495.224,16601747.041,0.0,0.0,0.0,0.0,5046.103,15024.986
0.727,0.175,99.072,0.0,0.0,0.025,0.0,4096.0,63363.600,57265.0,0.0,0.0,328.600,979.600
7.491,7.599,83.374,0.0,0.0,1.536,0.0,1638.400,7777066.400,7773717.800,0.0,0.0,17165.600,59570.400
5.249,7.664,85.774,0.0,0.0,1.312,0.0,819.200,8102951.800,8100228.0,0.0,0.0,17296.200,61225.600
4.156,7.527,87.088,0.0,0.0,1.228,0.0,3276.800,8168042.200,8164330.400,0.0,0.0,17644.200,61958.400
3.530,7.656,87.672,0.0,0.0,1.142,0.0,1638.400,8297653.200,8292465.400,0.0,0.0,17930.800,62873.800
3.141,6.832,89.005,0.0,0.0,1.021,0.0,4096.0,8122074.400,8120288.400,0.0,0.0,17528.400,61634.800
3.078,6.104,89.897,0.026,0.0,0.895,0.0,28672.0,8171042.0,8165883.400,0.0,0.0,17885.200,62432.200
2.633,6.609,89.652,0.0,0.0,1.106,0.0,819.200,8541622.600,8540442.800,0.0,0.0,18617.800,65572.800
2.992,6.661,89.331,0.0,0.0,1.015,0.0,1638.400,8297916.600,8293141.400,0.0,0.0,17936.600,62785.0
2.810,7.468,88.681,0.0,0.0,1.041,0.0,1638.400,8446078.800,8441933.200,0.0,0.0,18413.600,64668.200
3.134,7.330,88.500,0.0,0.0,1.036,0.0,819.200,8296647.800,8294381.400,0.0,0.0,17933.0,62661.400
2.914,6.983,89.105,0.0,0.0,0.998,0.0,1638.400,8447665.0,8443357.400,0.0,0.0,18290.800,64229.600
2.832,6.633,89.434,0.052,0.0,1.049,0.0,26214.400,8454778.400,8450007.0,0.0,0.0,18276.400,63948.600
2.638,6.818,89.681,0.0,0.0,0.862,0.0,2457.600,8386082.0,8383779.0,0.0,0.0,18519.200,64161.600
2.762,6.918,89.365,0.0,0.0,0.955,0.0,1638.400,8006652.0,8002527.200,0.0,0.0,17476.600,60566.200
0.075,0.0,99.925,0.0,0.0,0.0,0.0,1638.400,6322.800,1926.400,0.0,0.0,41.200,127.0
