"Dstat 0.7.2 CSV output"
"Author:","Dag Wieers <dag@wieers.com>",,,,"URL:","http://dag.wieers.com/home-made/dstat/"
"Host:","Middleware1",,,,"User:","mstevan"
"Cmdline:","dstat --output /home/mstevan/logs/experiment_3.1/dstat/vs_256-vcpr_8-wtpm_8-rep_4.csv 5 16",,,,"Date:","28 Oct 2019 03:27:13 UTC"

"total cpu usage",,,,,,"dsk/total",,"net/total",,"paging",,"system",
"usr","sys","idl","wai","hiq","siq","read","writ","recv","send","in","out","int","csw"
0.842,1.587,97.217,0.137,0.0,0.216,13717.480,16875052.883,0.0,0.0,0.0,0.0,4900.641,14544.327
0.727,0.201,99.023,0.0,0.0,0.050,0.0,819.200,52203.600,48457.200,0.0,0.0,219.200,734.0
5.515,4.776,88.997,0.0,0.0,0.712,0.0,1638.400,5842920.400,5838494.400,0.0,0.0,13021.0,38232.600
4.335,3.810,91.303,0.079,0.0,0.473,0.0,36864.0,5415754.400,5411260.0,0.0,0.0,14447.200,35930.800
2.467,4.051,93.041,0.0,0.0,0.441,0.0,3276.800,5337263.200,5335560.0,0.0,0.0,14223.800,35462.400
1.826,4.251,93.584,0.0,0.0,0.339,0.0,1638.400,5336563.800,5331685.0,0.0,0.0,13653.600,35334.0
1.771,4.141,93.776,0.0,0.0,0.312,0.0,4096.0,5693987.400,5690617.0,0.0,0.0,14981.400,37774.0
1.798,4.118,93.771,0.0,0.0,0.313,0.0,9830.400,5626507.600,5623686.200,0.0,0.0,14675.200,36956.0
1.848,3.697,94.116,0.0,0.0,0.338,0.0,1638.400,5299523.600,5294580.200,0.0,0.0,14126.800,35083.0
1.151,3.558,94.872,0.052,0.0,0.366,0.0,16384.0,5244873.400,5243131.600,0.0,0.0,14049.400,34699.800
1.466,3.639,94.634,0.0,0.0,0.262,0.0,1638.400,5301717.600,5297121.0,0.0,0.0,14317.600,35059.200
1.566,3.602,94.440,0.0,0.0,0.392,0.0,1638.400,5163529.600,5159202.200,0.0,0.0,14117.400,34125.600
1.617,3.677,94.498,0.0,0.0,0.209,0.0,819.200,5361411.0,5358885.800,0.0,0.0,14467.200,35578.600
1.535,3.695,94.405,0.0,0.0,0.364,0.0,5734.400,5325843.400,5321502.600,0.0,0.0,14355.800,35280.600
1.680,4.409,93.517,0.0,0.0,0.394,0.0,3276.800,5887597.400,5883284.0,0.0,0.0,15840.200,39140.0
1.442,3.696,94.522,0.052,0.0,0.288,0.0,18022.400,5298556.0,5296433.600,0.0,0.0,13800.400,35152.0
0.050,0.025,99.925,0.0,0.0,0.0,0.0,1638.400,7180.800,2388.400,0.0,0.0,48.400,135.400
