"Dstat 0.7.2 CSV output"
"Author:","Dag Wieers <dag@wieers.com>",,,,"URL:","http://dag.wieers.com/home-made/dstat/"
"Host:","Middleware1",,,,"User:","mstevan"
"Cmdline:","dstat --output /home/mstevan/logs/experiment_3.1/dstat/vs_256-vcpr_4-wtpm_8-rep_2.csv 5 16",,,,"Date:","28 Oct 2019 03:07:20 UTC"

"total cpu usage",,,,,,"dsk/total",,"net/total",,"paging",,"system",
"usr","sys","idl","wai","hiq","siq","read","writ","recv","send","in","out","int","csw"
0.731,1.365,97.559,0.147,0.0,0.199,14859.427,18279327.354,0.0,0.0,0.0,0.0,4090.564,12320.173
0.677,0.150,99.148,0.0,0.0,0.025,0.0,1638.400,63025.200,57954.200,0.0,0.0,251.400,824.600
5.817,4.037,89.588,0.0,0.0,0.558,0.0,819.200,5418464.600,5416446.200,0.0,0.0,11985.600,36534.400
3.333,4.199,91.837,0.157,0.0,0.472,0.0,36044.800,5737413.400,5732960.400,0.0,0.0,14030.600,39089.400
1.774,3.679,94.286,0.0,0.0,0.261,0.0,9011.200,5576451.400,5574086.200,0.0,0.0,14756.0,37966.400
1.636,3.738,94.237,0.0,0.0,0.389,0.0,1638.400,5322255.200,5317295.800,0.0,0.0,13486.600,36400.600
1.866,4.017,93.729,0.0,0.0,0.389,0.0,4096.0,5504867.400,5501111.0,0.0,0.0,14257.0,37565.800
1.887,4.549,93.073,0.0,0.0,0.491,0.0,9011.200,5739768.0,5737385.600,0.0,0.0,14648.800,38938.200
1.685,3.733,94.244,0.0,0.0,0.337,0.0,1638.400,5338995.200,5334119.800,0.0,0.0,13529.0,36283.800
1.735,3.937,93.913,0.078,0.0,0.337,0.0,15564.800,5254946.400,5250818.800,0.0,0.0,13077.600,35640.200
1.525,3.979,94.134,0.0,0.0,0.362,0.0,819.200,5254381.800,5252262.200,0.0,0.0,13484.600,35781.600
1.690,4.160,93.812,0.0,0.0,0.338,0.0,1638.400,5558635.0,5554139.400,0.0,0.0,13744.200,37684.600
1.683,4.271,93.658,0.0,0.0,0.388,0.0,1638.400,5479316.600,5474919.600,0.0,0.0,13608.200,37278.400
1.687,3.971,94.031,0.0,0.0,0.311,0.0,4915.200,5531826.400,5529548.600,0.0,0.0,13803.400,37493.800
1.724,4.195,93.798,0.0,0.0,0.283,0.0,3276.800,5252925.600,5247983.0,0.0,0.0,12878.400,35754.0
1.479,3.606,94.604,0.0,0.0,0.311,0.0,819.200,5161267.400,5159573.800,0.0,0.0,13636.600,34924.600
0.050,0.0,99.875,0.075,0.0,0.0,0.0,16384.0,6628.400,2098.800,0.0,0.0,36.800,133.600
