"Dstat 0.7.2 CSV output"
"Author:","Dag Wieers <dag@wieers.com>",,,,"URL:","http://dag.wieers.com/home-made/dstat/"
"Host:","Middleware1",,,,"User:","mstevan"
"Cmdline:","dstat --output /home/mstevan/logs/experiment_3.1/dstat/vs_512-vcpr_16-wtpm_8-rep_1.csv 5 16",,,,"Date:","28 Oct 2019 04:48:15 UTC"

"total cpu usage",,,,,,"dsk/total",,"net/total",,"paging",,"system",
"usr","sys","idl","wai","hiq","siq","read","writ","recv","send","in","out","int","csw"
1.243,2.379,95.932,0.108,0.0,0.337,10445.913,12851995.940,0.0,0.0,0.0,0.0,7273.866,21658.006
0.650,0.150,99.149,0.0,0.0,0.050,0.0,819.200,79437.800,74576.600,0.0,0.0,209.400,678.600
5.024,4.235,90.242,0.053,0.0,0.447,0.0,42598.400,8406537.0,8402049.800,0.0,0.0,12676.400,34581.0
4.360,4.203,90.728,0.0,0.0,0.709,0.0,2457.600,8814775.200,8810431.800,0.0,0.0,14150.800,36998.0
1.644,3.914,94.181,0.0,0.0,0.261,0.0,1638.400,8547825.600,8545510.400,0.0,0.0,13506.200,35735.200
2.168,3.866,93.652,0.0,0.0,0.313,0.0,1638.400,8360387.200,8355788.400,0.0,0.0,13086.600,35025.600
2.010,4.125,93.629,0.0,0.0,0.235,0.0,1638.400,8641837.800,8637397.200,0.0,0.0,13267.400,35949.0
1.560,4.289,93.735,0.0,0.0,0.416,0.0,12288.0,8551005.800,8548916.400,0.0,0.0,13242.600,35726.600
1.622,3.636,94.350,0.0,0.0,0.392,0.0,1638.400,8412840.400,8408047.800,0.0,0.0,13242.0,35077.200
1.643,3.494,94.420,0.078,0.0,0.365,0.0,16384.0,8278627.0,8276823.800,0.0,0.0,13225.200,34596.0
1.641,3.984,94.010,0.0,0.0,0.365,0.0,1638.400,8446267.200,8441991.600,0.0,0.0,13312.800,35303.400
1.495,3.673,94.622,0.0,0.0,0.210,0.0,1638.400,8540765.200,8536253.0,0.0,0.0,13527.0,35683.200
1.541,3.813,94.411,0.0,0.0,0.235,0.0,819.200,8468989.200,8466758.200,0.0,0.0,13630.600,35484.200
1.518,3.585,94.505,0.0,0.0,0.392,0.0,6553.600,8340803.200,8336463.400,0.0,0.0,12977.0,34867.600
1.715,4.521,93.349,0.0,0.0,0.416,0.0,2457.600,8876727.0,8871985.200,0.0,0.0,13871.200,36954.200
1.811,3.910,93.991,0.052,0.0,0.236,0.0,17203.200,8998821.800,8997134.600,0.0,0.0,14301.400,37901.0
0.476,0.877,98.623,0.0,0.0,0.025,0.0,2457.600,902654.800,897123.200,0.0,0.0,2006.600,5304.200
