"Dstat 0.7.2 CSV output"
"Author:","Dag Wieers <dag@wieers.com>",,,,"URL:","http://dag.wieers.com/home-made/dstat/"
"Host:","Middleware1",,,,"User:","mstevan"
"Cmdline:","dstat --output /home/mstevan/logs/experiment_3.1/dstat/vs_512-vcpr_32-wtpm_64-rep_3.csv 5 16",,,,"Date:","28 Oct 2019 05:19:29 UTC"

"total cpu usage",,,,,,"dsk/total",,"net/total",,"paging",,"system",
"usr","sys","idl","wai","hiq","siq","read","writ","recv","send","in","out","int","csw"
1.335,2.545,95.654,0.100,0.0,0.367,9566.136,11770150.040,0.0,0.0,0.0,0.0,7665.425,22840.745
0.751,0.250,98.949,0.0,0.0,0.050,0.0,48332.800,78609.600,71196.0,0.0,0.0,350.0,1013.0
7.627,7.093,83.467,0.0,0.0,1.813,0.0,1638.400,13446850.600,13440049.400,0.0,0.0,10481.200,41140.200
2.948,5.793,90.303,0.0,0.0,0.957,0.0,819.200,14217448.0,14215215.600,0.0,0.0,10104.600,39242.800
2.531,5.682,90.728,0.0,0.0,1.059,0.0,3276.800,14207193.600,14202871.200,0.0,0.0,10448.600,39343.200
2.261,5.249,91.606,0.0,0.0,0.884,0.0,819.200,14232314.200,14229902.600,0.0,0.0,11003.600,39360.800
3.274,5.483,90.177,0.0,0.0,1.065,0.0,8192.0,14221918.800,14217457.600,0.0,0.0,10072.200,38606.800
2.694,5.127,91.106,0.052,0.0,1.020,0.0,26214.400,14210668.400,14200465.200,0.0,0.0,10476.400,38757.800
2.532,5.090,91.334,0.0,0.0,1.044,0.0,2457.600,14206670.0,14210180.0,0.0,0.0,10667.0,38889.600
2.355,5.287,91.468,0.0,0.0,0.890,0.0,1638.400,14244099.0,14239692.600,0.0,0.0,10887.400,39194.600
2.317,5.362,91.255,0.0,0.0,1.067,0.0,1638.400,14216234.400,14211773.800,0.0,0.0,10839.400,39206.400
2.444,4.862,91.628,0.0,0.0,1.066,0.0,819.200,14222864.400,14220632.800,0.0,0.0,11180.600,39585.0
2.100,5.754,91.213,0.0,0.0,0.933,0.0,1638.400,14201061.200,14196598.400,0.0,0.0,10602.600,39054.600
2.264,5.334,91.309,0.052,0.0,1.041,0.0,14745.600,14223108.0,14215718.800,0.0,0.0,10950.600,39531.800
2.266,5.260,91.641,0.0,0.0,0.833,0.0,8192.0,14235121.200,14235835.400,0.0,0.0,10765.200,39171.800
2.369,5.285,91.356,0.0,0.0,0.989,0.0,2457.600,14206829.200,14202596.200,0.0,0.0,10727.800,39200.600
0.628,1.332,97.864,0.0,0.0,0.176,0.0,819.200,2715597.800,2711153.600,0.0,0.0,2393.400,8463.200
