"Dstat 0.7.2 CSV output"
"Author:","Dag Wieers <dag@wieers.com>",,,,"URL:","http://dag.wieers.com/home-made/dstat/"
"Host:","Middleware1",,,,"User:","mstevan"
"Cmdline:","dstat --output /home/mstevan/logs/experiment_3.1/dstat/vs_512-vcpr_4-wtpm_32-rep_1.csv 5 16",,,,"Date:","28 Oct 2019 04:19:50 UTC"

"total cpu usage",,,,,,"dsk/total",,"net/total",,"paging",,"system",
"usr","sys","idl","wai","hiq","siq","read","writ","recv","send","in","out","int","csw"
1.121,2.129,96.325,0.117,0.0,0.309,11398.965,14023986.523,0.0,0.0,0.0,0.0,6407.944,19131.615
0.675,0.275,99.025,0.0,0.0,0.025,0.0,31129.600,59716.800,54904.0,0.0,0.0,304.600,864.400
7.384,6.661,84.938,0.0,0.0,1.017,0.0,1638.400,8974435.0,8972408.400,0.0,0.0,18600.0,58164.600
4.318,6.503,88.626,0.0,0.0,0.553,0.0,1638.400,9465820.400,9460425.800,0.0,0.0,19763.400,61776.400
2.557,6.261,90.712,0.0,0.0,0.470,0.0,2457.600,9389352.600,9388363.0,0.0,0.0,19606.800,61417.0
2.407,6.175,90.842,0.0,0.0,0.576,0.0,1638.400,9597791.0,9593287.800,0.0,0.0,20055.0,62605.200
2.690,6.190,90.520,0.0,0.0,0.601,0.0,4096.0,9495827.800,9491352.200,0.0,0.0,19885.200,61953.600
2.555,6.362,90.535,0.130,0.0,0.417,0.0,31948.800,9629675.200,9627430.800,0.0,0.0,20064.600,62960.800
2.729,6.525,90.018,0.0,0.0,0.728,0.0,1638.400,9599549.800,9594955.600,0.0,0.0,19890.400,62647.0
2.276,6.069,91.054,0.0,0.0,0.602,0.0,1638.400,9288546.200,9284234.600,0.0,0.0,19362.800,60819.200
2.471,6.398,90.611,0.0,0.0,0.520,0.0,819.200,9464038.600,9461807.400,0.0,0.0,19714.400,61833.800
2.636,5.690,91.203,0.0,0.0,0.470,0.0,1638.400,9408149.0,9403686.600,0.0,0.0,19378.800,61342.400
2.435,5.942,91.047,0.0,0.0,0.576,0.0,819.200,9511306.200,9508342.0,0.0,0.0,19736.800,62057.600
2.414,6.009,91.000,0.026,0.0,0.551,0.0,15564.800,9423868.400,9420139.0,0.0,0.0,19528.400,61404.200
2.211,6.554,90.585,0.0,0.0,0.650,0.0,6553.600,9628660.400,9622176.0,0.0,0.0,20032.400,63188.0
2.451,6.154,90.952,0.0,0.0,0.443,0.0,1638.400,9399395.800,9399292.200,0.0,0.0,19503.400,61432.800
0.050,0.050,99.900,0.0,0.0,0.0,0.0,1638.400,6420.400,2082.0,0.0,0.0,40.400,126.600
