"Dstat 0.7.2 CSV output"
"Author:","Dag Wieers <dag@wieers.com>",,,,"URL:","http://dag.wieers.com/home-made/dstat/"
"Host:","Middleware1",,,,"User:","mstevan"
"Cmdline:","dstat --output /home/mstevan/logs/experiment_3.1/dstat/vs_512-vcpr_32-wtpm_32-rep_2.csv 5 16",,,,"Date:","28 Oct 2019 05:12:23 UTC"

"total cpu usage",,,,,,"dsk/total",,"net/total",,"paging",,"system",
"usr","sys","idl","wai","hiq","siq","read","writ","recv","send","in","out","int","csw"
1.314,2.504,95.723,0.102,0.0,0.358,9752.811,11999701.795,0.0,0.0,0.0,0.0,7608.627,22597.149
0.703,0.226,99.021,0.0,0.0,0.050,0.0,819.200,127966.0,118784.0,0.0,0.0,285.600,887.400
6.811,6.731,85.230,0.0,0.0,1.229,0.0,1638.400,13897133.200,13894053.600,0.0,0.0,10926.800,42098.400
2.560,6.129,90.173,0.0,0.0,1.138,0.0,1638.400,14153700.200,14149239.800,0.0,0.0,13389.800,43608.400
2.243,5.198,91.741,0.0,0.0,0.818,0.0,1638.400,14168681.600,14166449.400,0.0,0.0,14045.200,43897.200
2.387,5.456,91.264,0.0,0.0,0.892,0.0,2457.600,14198070.800,14193608.0,0.0,0.0,14196.400,43925.600
2.950,5.427,90.516,0.053,0.0,1.054,0.0,22937.600,14300955.600,14296494.0,0.0,0.0,13948.0,44278.400
2.627,5.332,91.174,0.0,0.0,0.867,0.0,15564.800,14180432.400,14178201.200,0.0,0.0,13885.200,44021.600
2.301,4.814,92.092,0.0,0.0,0.793,0.0,3276.800,14094534.400,14090072.800,0.0,0.0,13894.800,43764.200
2.565,5.184,91.299,0.0,0.0,0.952,0.0,819.200,14320062.400,14317887.400,0.0,0.0,14208.800,44381.800
2.612,5.538,90.883,0.0,0.0,0.967,0.0,1638.400,14166330.0,14161257.600,0.0,0.0,13875.200,43844.600
2.512,5.627,90.997,0.0,0.0,0.864,0.0,1638.400,14159607.200,14155755.800,0.0,0.0,13809.200,43739.600
2.704,5.408,90.785,0.0,0.0,1.103,0.0,819.200,14273282.800,14271051.400,0.0,0.0,13679.0,43802.800
2.660,5.689,90.387,0.132,0.0,1.132,0.0,28672.0,14221632.200,14217127.800,0.0,0.0,13919.0,44100.600
2.393,5.445,90.926,0.0,0.0,1.236,0.0,2457.600,14239130.800,14234704.200,0.0,0.0,13935.0,44173.0
2.560,6.087,90.256,0.0,0.0,1.097,0.0,819.200,14159511.800,14157638.800,0.0,0.0,14041.600,44399.200
1.112,1.365,97.321,0.0,0.0,0.202,0.0,1638.400,2011886.800,2005986.400,0.0,0.0,4218.600,11697.800
