"Dstat 0.7.2 CSV output"
"Author:","Dag Wieers <dag@wieers.com>",,,,"URL:","http://dag.wieers.com/home-made/dstat/"
"Host:","Middleware1",,,,"User:","mstevan"
"Cmdline:","dstat --output /home/mstevan/logs/experiment_3.1/dstat/vs_512-vcpr_4-wtpm_32-rep_3.csv 5 16",,,,"Date:","28 Oct 2019 04:22:41 UTC"

"total cpu usage",,,,,,"dsk/total",,"net/total",,"paging",,"system",
"usr","sys","idl","wai","hiq","siq","read","writ","recv","send","in","out","int","csw"
1.134,2.156,96.284,0.116,0.0,0.311,11295.909,13897256.130,0.0,0.0,0.0,0.0,6494.464,19404.268
0.577,0.251,99.123,0.0,0.0,0.050,0.0,819.200,83694.800,81485.200,0.0,0.0,375.800,1066.200
6.644,6.190,86.419,0.0,0.0,0.747,0.0,1638.400,9036362.400,9031150.400,0.0,0.0,18538.600,58281.600
4.544,6.959,87.588,0.052,0.0,0.857,0.0,31948.800,9138971.600,9135342.800,0.0,0.0,18870.200,59566.200
2.611,6.039,90.849,0.0,0.0,0.501,0.0,2457.600,9519884.400,9517653.200,0.0,0.0,19489.800,61891.0
3.670,7.471,88.204,0.0,0.0,0.655,0.0,1638.400,9855311.800,9850849.400,0.0,0.0,20422.800,64826.200
2.832,5.873,90.640,0.0,0.0,0.655,0.0,3276.800,9383099.600,9380868.400,0.0,0.0,19390.200,61678.800
2.779,6.083,90.587,0.0,0.0,0.551,0.0,9830.400,9545847.400,9541443.0,0.0,0.0,19647.400,62632.800
3.221,7.351,88.857,0.0,0.0,0.571,0.0,1638.400,9691958.600,9685297.0,0.0,0.0,20232.400,63983.600
3.100,6.199,89.992,0.0,0.0,0.709,0.0,819.200,9625831.200,9625758.400,0.0,0.0,19865.0,62906.0
3.070,7.085,89.084,0.079,0.0,0.682,0.0,23756.800,9822422.800,9817483.800,0.0,0.0,20166.600,63767.800
2.564,6.175,90.764,0.0,0.0,0.497,0.0,1638.400,9235312.800,9230993.200,0.0,0.0,18821.400,60001.800
2.829,6.255,90.267,0.0,0.0,0.649,0.0,819.200,9325476.400,9323581.400,0.0,0.0,19168.0,60833.200
2.914,6.896,89.513,0.0,0.0,0.677,0.0,5734.400,9504960.200,9500514.400,0.0,0.0,19362.600,61440.600
2.684,6.359,90.409,0.0,0.0,0.547,0.0,3276.800,9297213.800,9292889.0,0.0,0.0,19025.0,60286.200
2.781,6.003,90.722,0.0,0.0,0.494,0.0,819.200,9112344.200,9110218.600,0.0,0.0,18632.600,59275.400
0.050,0.025,99.925,0.0,0.0,0.0,0.0,18841.600,6349.200,1952.800,0.0,0.0,47.800,139.800
