"Dstat 0.7.2 CSV output"
"Author:","Dag Wieers <dag@wieers.com>",,,,"URL:","http://dag.wieers.com/home-made/dstat/"
"Host:","Middleware1",,,,"User:","mstevan"
"Cmdline:","dstat --output /home/mstevan/logs/experiment_3.1/dstat/vs_512-vcpr_4-wtpm_8-rep_4.csv 5 16",,,,"Date:","28 Oct 2019 04:18:25 UTC"

"total cpu usage",,,,,,"dsk/total",,"net/total",,"paging",,"system",
"usr","sys","idl","wai","hiq","siq","read","writ","recv","send","in","out","int","csw"
1.119,2.123,96.332,0.117,0.0,0.309,11451.196,14088220.009,0.0,0.0,0.0,0.0,6389.073,19078.636
0.526,0.225,99.199,0.0,0.0,0.050,0.0,1638.400,65030.0,59807.200,0.0,0.0,221.800,710.200
5.394,4.310,89.767,0.0,0.0,0.529,0.0,819.200,8392349.200,8387764.600,0.0,0.0,10220.400,36062.600
2.792,3.967,92.719,0.0,0.0,0.522,0.0,1638.400,8690502.600,8688693.800,0.0,0.0,12790.800,37300.0
1.630,4.049,94.031,0.0,0.0,0.289,0.0,2457.600,9189844.600,9187613.0,0.0,0.0,13702.200,39483.400
1.757,3.959,93.996,0.0,0.0,0.288,0.0,1638.400,9145791.400,9141046.400,0.0,0.0,13888.600,39225.0
1.735,3.937,93.706,0.078,0.0,0.544,0.0,32768.0,8605108.200,8600928.200,0.0,0.0,13056.800,37121.0
1.763,4.461,93.387,0.0,0.0,0.389,0.0,9011.200,9003455.200,9001185.800,0.0,0.0,13816.200,38736.800
1.511,4.065,94.059,0.0,0.0,0.365,0.0,1638.400,8667265.0,8662486.400,0.0,0.0,13226.800,37310.800
1.792,4.103,93.820,0.0,0.0,0.286,0.0,1638.400,8595517.0,8590654.800,0.0,0.0,13145.200,36939.200
1.535,3.720,94.459,0.0,0.0,0.286,0.0,819.200,8495137.600,8493678.400,0.0,0.0,12250.800,36588.600
1.641,4.089,93.854,0.0,0.0,0.417,0.0,1638.400,8839071.0,8833748.200,0.0,0.0,13325.400,37561.200
1.513,3.912,94.210,0.052,0.0,0.313,0.0,23756.800,8505682.400,8502080.200,0.0,0.0,12496.400,36412.200
1.811,3.881,93.790,0.0,0.0,0.517,0.0,4915.200,8622502.800,8619469.600,0.0,0.0,12722.400,36890.200
1.739,3.945,94.031,0.0,0.0,0.285,0.0,3276.800,8515768.0,8512114.0,0.0,0.0,12174.0,36455.200
1.710,3.731,94.197,0.0,0.0,0.363,0.0,1638.400,8335647.200,8331242.0,0.0,0.0,12222.600,35885.400
0.025,0.0,99.975,0.0,0.0,0.0,0.0,819.200,3435.800,1178.200,0.0,0.0,40.200,130.200
