"Dstat 0.7.2 CSV output"
"Author:","Dag Wieers <dag@wieers.com>",,,,"URL:","http://dag.wieers.com/home-made/dstat/"
"Host:","Middleware1",,,,"User:","mstevan"
"Cmdline:","dstat --output /home/mstevan/logs/experiment_3.1/dstat/vs_512-vcpr_32-wtpm_8-rep_3.csv 5 16",,,,"Date:","28 Oct 2019 05:08:08 UTC"

"total cpu usage",,,,,,"dsk/total",,"net/total",,"paging",,"system",
"usr","sys","idl","wai","hiq","siq","read","writ","recv","send","in","out","int","csw"
1.306,2.489,95.747,0.103,0.0,0.356,9868.366,12141782.653,0.0,0.0,0.0,0.0,7556.580,22483.385
0.626,0.100,99.249,0.0,0.0,0.025,0.0,1638.400,73997.400,63972.400,0.0,0.0,199.0,677.400
5.682,4.036,89.671,0.0,0.0,0.611,0.0,819.200,8290758.0,8285608.600,0.0,0.0,11262.200,33842.800
4.197,4.640,90.589,0.182,0.0,0.391,0.0,46694.400,8673714.800,8670196.400,0.0,0.0,13917.400,35753.0
1.798,3.597,94.266,0.0,0.0,0.339,0.0,3276.800,8591190.800,8585385.800,0.0,0.0,14228.200,35724.600
1.301,3.852,94.508,0.0,0.0,0.338,0.0,819.200,8340617.600,8339749.400,0.0,0.0,13484.0,34601.800
1.486,3.546,94.654,0.0,0.0,0.313,0.0,1638.400,8386713.200,8382275.600,0.0,0.0,13596.0,34951.200
1.286,3.492,94.933,0.0,0.0,0.289,0.0,15564.800,8347277.0,8347420.0,0.0,0.0,13959.0,34537.200
1.615,4.089,93.802,0.0,0.0,0.495,0.0,3276.800,8603689.0,8599022.600,0.0,0.0,14612.0,35692.200
2.406,3.740,93.436,0.078,0.0,0.340,0.0,16384.0,8529674.0,8526393.600,0.0,0.0,14521.800,35592.0
1.579,4.245,93.761,0.0,0.0,0.414,0.0,819.200,8316521.800,8313501.0,0.0,0.0,14384.200,34513.800
1.796,3.852,93.857,0.0,0.0,0.495,0.0,1638.400,8550225.200,8546172.0,0.0,0.0,15061.600,35504.200
1.721,3.808,94.158,0.0,0.0,0.313,0.0,4096.0,8569194.0,8566263.800,0.0,0.0,15182.800,35638.600
1.551,4.421,93.640,0.0,0.0,0.388,0.0,5734.400,8535123.200,8533373.200,0.0,0.0,14924.600,35425.0
1.570,3.820,94.244,0.0,0.0,0.366,0.0,2457.600,9130189.600,9126639.800,0.0,0.0,16005.400,37743.600
1.535,4.188,93.887,0.052,0.0,0.338,0.0,24576.0,8745896.0,8741582.600,0.0,0.0,15286.200,36391.200
0.454,0.932,98.589,0.0,0.0,0.025,0.0,7372.800,1675655.400,1671610.0,0.0,0.0,2686.600,7277.600
