"Dstat 0.7.2 CSV output"
"Author:","Dag Wieers <dag@wieers.com>",,,,"URL:","http://dag.wieers.com/home-made/dstat/"
"Host:","Middleware1",,,,"User:","mstevan"
"Cmdline:","dstat --output /home/mstevan/logs/experiment_3.1/dstat/vs_512-vcpr_4-wtpm_32-rep_2.csv 5 16",,,,"Date:","28 Oct 2019 04:21:16 UTC"

"total cpu usage",,,,,,"dsk/total",,"net/total",,"paging",,"system",
"usr","sys","idl","wai","hiq","siq","read","writ","recv","send","in","out","int","csw"
1.127,2.142,96.305,0.116,0.0,0.309,11347.203,13960333.260,0.0,0.0,0.0,0.0,6452.266,19275.180
0.702,0.150,99.123,0.0,0.0,0.025,0.0,819.200,86200.400,83068.400,0.0,0.0,365.400,1022.200
7.137,7.273,84.391,0.054,0.0,1.144,0.0,31948.800,8295006.800,8291126.200,0.0,0.0,17884.600,53565.200
4.788,6.338,87.758,0.0,0.0,1.115,0.0,8192.0,8936180.200,8931803.0,0.0,0.0,19338.400,58172.600
2.790,6.581,89.971,0.0,0.0,0.658,0.0,1638.400,9005718.600,9003324.600,0.0,0.0,19337.600,58453.800
2.727,6.407,90.204,0.0,0.0,0.662,0.0,2457.600,9103862.800,9099458.400,0.0,0.0,19477.800,58805.0
2.698,6.839,89.687,0.0,0.0,0.775,0.0,1638.400,9305543.600,9301481.0,0.0,0.0,19974.400,60354.600
2.634,6.718,89.752,0.0,0.0,0.896,0.0,11468.800,9109284.0,9106602.200,0.0,0.0,19492.0,59095.800
2.383,6.171,90.334,0.291,0.0,0.821,0.0,18841.600,8934479.800,8930029.400,0.0,0.0,19233.800,58296.800
2.689,6.301,90.324,0.0,0.0,0.685,0.0,819.200,8788325.800,8785910.800,0.0,0.0,18758.400,56901.0
2.424,6.020,90.703,0.0,0.0,0.852,0.0,1638.400,8882065.800,8878036.600,0.0,0.0,18935.600,57660.600
2.726,6.774,89.786,0.0,0.0,0.714,0.0,1638.400,9143512.800,9138109.400,0.0,0.0,19589.600,59526.800
2.578,6.209,90.424,0.0,0.0,0.789,0.0,819.200,8940682.600,8939066.600,0.0,0.0,18933.800,57586.800
2.740,6.350,90.013,0.0,0.0,0.896,0.0,5734.400,9042934.800,9038676.0,0.0,0.0,19260.400,58641.400
2.872,6.275,89.949,0.027,0.0,0.877,0.0,17203.200,9064470.800,9059010.0,0.0,0.0,19394.0,58948.400
2.696,6.450,90.061,0.0,0.0,0.793,0.0,2457.600,8887437.600,8886708.200,0.0,0.0,18968.200,57754.800
0.075,0.0,99.925,0.0,0.0,0.0,0.0,1638.400,6336.0,1952.800,0.0,0.0,40.200,138.400
