"Dstat 0.7.2 CSV output"
"Author:","Dag Wieers <dag@wieers.com>",,,,"URL:","http://dag.wieers.com/home-made/dstat/"
"Host:","Middleware1",,,,"User:","mstevan"
"Cmdline:","dstat --output /home/mstevan/logs/experiment_3.1/dstat/vs_512-vcpr_16-wtpm_8-rep_3.csv 5 16",,,,"Date:","28 Oct 2019 04:51:05 UTC"

"total cpu usage",,,,,,"dsk/total",,"net/total",,"paging",,"system",
"usr","sys","idl","wai","hiq","siq","read","writ","recv","send","in","out","int","csw"
1.248,2.386,95.922,0.107,0.0,0.337,10359.313,12745505.131,0.0,0.0,0.0,0.0,7306.800,21722.715
0.527,0.176,99.248,0.0,0.0,0.050,0.0,819.200,83180.0,77627.400,0.0,0.0,241.600,742.0
5.452,4.003,89.860,0.0,0.0,0.685,0.0,1638.400,8368077.800,8364557.600,0.0,0.0,13870.800,34439.0
4.100,4.048,91.355,0.0,0.0,0.496,0.0,819.200,8317517.200,8314984.400,0.0,0.0,13291.400,35090.800
1.897,4.418,93.269,0.0,0.0,0.416,0.0,3276.800,9096934.0,9091910.200,0.0,0.0,14674.400,38224.0
2.535,4.677,92.187,0.026,0.0,0.575,0.0,33587.200,9453712.200,9449829.800,0.0,0.0,15111.600,39764.400
1.949,3.689,94.024,0.0,0.0,0.338,0.0,4915.200,8470945.200,8468776.600,0.0,0.0,13518.200,35825.400
1.660,3.605,94.372,0.0,0.0,0.363,0.0,9830.400,8262539.0,8257797.800,0.0,0.0,13288.0,34720.200
1.666,4.009,93.960,0.0,0.0,0.364,0.0,3276.800,8749758.800,8745704.800,0.0,0.0,14054.800,36837.400
1.556,4.046,94.113,0.0,0.0,0.285,0.0,819.200,8406943.400,8404051.600,0.0,0.0,13449.800,35366.800
2.238,4.295,93.030,0.0,0.0,0.437,0.0,1638.400,8718604.600,8714702.400,0.0,0.0,13990.0,36741.400
1.764,3.918,94.006,0.052,0.0,0.259,0.0,17203.200,8709822.600,8704677.0,0.0,0.0,13809.800,36484.200
1.857,4.101,93.526,0.0,0.0,0.516,0.0,8192.0,8625458.400,8623862.600,0.0,0.0,13686.800,36249.400
1.835,4.084,93.745,0.0,0.0,0.336,0.0,5734.400,8524900.800,8520082.400,0.0,0.0,13613.600,35898.600
1.582,3.657,94.372,0.0,0.0,0.389,0.0,2457.600,8430301.400,8428264.800,0.0,0.0,13486.800,35570.0
1.668,3.205,94.841,0.0,0.0,0.287,0.0,1638.400,8298522.0,8294495.800,0.0,0.0,13296.800,34926.600
0.050,0.025,99.925,0.0,0.0,0.0,0.0,1638.400,7167.600,2348.800,0.0,0.0,50.0,145.400
