"Dstat 0.7.2 CSV output"
"Author:","Dag Wieers <dag@wieers.com>",,,,"URL:","http://dag.wieers.com/home-made/dstat/"
"Host:","Middleware1",,,,"User:","mstevan"
"Cmdline:","dstat --output /home/mstevan/logs/experiment_3.1/dstat/vs_512-vcpr_8-wtpm_64-rep_2.csv 5 16",,,,"Date:","28 Oct 2019 04:43:59 UTC"

"total cpu usage",,,,,,"dsk/total",,"net/total",,"paging",,"system",
"usr","sys","idl","wai","hiq","siq","read","writ","recv","send","in","out","int","csw"
1.220,2.325,96.017,0.109,0.0,0.329,10578.588,13015150.392,0.0,0.0,0.0,0.0,7082.585,21105.693
0.726,0.401,98.798,0.0,0.0,0.075,0.0,1638.400,62908.800,57836.800,0.0,0.0,347.200,988.400
9.043,9.291,79.625,0.0,0.0,2.040,0.0,819.200,11973740.200,11973253.800,0.0,0.0,23664.0,70947.400
4.433,9.464,84.743,0.0,0.0,1.360,0.0,1638.400,12863354.400,12855956.400,0.0,0.0,26424.200,77904.200
3.876,9.450,85.612,0.027,0.0,1.035,0.0,33587.200,13105708.0,13103996.800,0.0,0.0,27150.200,79285.400
3.496,8.513,86.603,0.0,0.0,1.388,0.0,819.200,13226877.0,13224830.200,0.0,0.0,27382.600,80309.400
3.664,8.826,86.093,0.0,0.0,1.417,0.0,4915.200,13361812.800,13356187.600,0.0,0.0,27811.200,81506.800
3.666,8.369,86.823,0.0,0.0,1.142,0.0,9830.400,13177216.0,13172992.0,0.0,0.0,27351.400,80194.600
3.265,8.647,86.755,0.0,0.0,1.332,0.0,819.200,13263082.400,13261230.0,0.0,0.0,27547.200,80882.600
3.277,8.500,87.130,0.0,0.0,1.092,0.0,1638.400,13204364.400,13200483.800,0.0,0.0,27577.200,80618.400
3.358,8.875,86.594,0.053,0.0,1.119,0.0,17203.200,13146090.400,13143859.200,0.0,0.0,27349.800,80096.600
3.492,8.847,86.506,0.0,0.0,1.155,0.0,8192.0,13262103.800,13255931.200,0.0,0.0,27694.0,80695.0
3.136,7.680,88.041,0.0,0.0,1.143,0.0,1638.400,13046690.200,13039418.200,0.0,0.0,27233.800,79694.0
3.459,7.850,87.440,0.0,0.0,1.251,0.0,819.200,13189730.600,13189272.600,0.0,0.0,27557.800,80296.0
3.389,8.408,86.915,0.0,0.0,1.287,0.0,7372.800,13276678.200,13273238.800,0.0,0.0,27797.800,80893.200
3.445,7.764,87.785,0.0,0.0,1.007,0.0,1638.400,12936098.400,12933557.600,0.0,0.0,27206.0,78841.0
0.025,0.025,99.950,0.0,0.0,0.0,0.0,819.200,3237.800,1099.0,0.0,0.0,41.400,118.800
