"Dstat 0.7.2 CSV output"
"Author:","Dag Wieers <dag@wieers.com>",,,,"URL:","http://dag.wieers.com/home-made/dstat/"
"Host:","Middleware1",,,,"User:","mstevan"
"Cmdline:","dstat --output /home/mstevan/logs/experiment_3.1/dstat/vs_512-vcpr_4-wtpm_8-rep_3.csv 5 16",,,,"Date:","28 Oct 2019 04:17:00 UTC"

"total cpu usage",,,,,,"dsk/total",,"net/total",,"paging",,"system",
"usr","sys","idl","wai","hiq","siq","read","writ","recv","send","in","out","int","csw"
1.116,2.119,96.339,0.118,0.0,0.309,11503.908,14153037.986,0.0,0.0,0.0,0.0,6371.071,19029.581
0.702,0.201,99.072,0.0,0.0,0.025,0.0,1638.400,102659.200,96721.400,0.0,0.0,250.400,860.800
4.985,3.851,90.768,0.0,0.0,0.396,0.0,819.200,8244553.200,8243455.200,0.0,0.0,10103.0,34965.200
3.806,3.701,92.047,0.0,0.0,0.446,0.0,1638.400,8167111.800,8161671.400,0.0,0.0,11405.400,35027.800
1.593,3.578,94.437,0.052,0.0,0.340,0.0,35225.600,8429278.0,8425283.0,0.0,0.0,12097.0,35987.0
1.779,3.375,94.505,0.0,0.0,0.340,0.0,13926.400,8673998.600,8672277.600,0.0,0.0,12910.800,36966.800
1.786,4.038,93.787,0.0,0.0,0.388,0.0,1638.400,8564805.0,8560361.600,0.0,0.0,12734.200,36489.200
1.706,3.955,94.055,0.0,0.0,0.284,0.0,11468.800,8245129.600,8242898.600,0.0,0.0,12223.600,35091.600
1.386,3.400,94.979,0.0,0.0,0.235,0.0,3276.800,8389576.400,8385113.800,0.0,0.0,12469.400,35761.600
1.512,3.755,94.316,0.0,0.0,0.417,0.0,1638.400,8635101.400,8629918.0,0.0,0.0,12950.600,36655.0
1.459,3.543,94.582,0.0,0.0,0.417,0.0,819.200,8384227.200,8382801.200,0.0,0.0,12522.600,35633.400
1.612,3.717,94.307,0.026,0.0,0.338,0.0,16384.0,8280814.0,8276401.600,0.0,0.0,12999.800,35188.0
2.007,4.353,93.300,0.0,0.0,0.339,0.0,1638.400,9088120.200,9082929.400,0.0,0.0,13930.600,38436.0
1.646,4.310,93.783,0.0,0.0,0.261,0.0,4915.200,8987765.600,8984255.400,0.0,0.0,13857.0,37949.400
1.487,3.938,94.314,0.0,0.0,0.261,0.0,3276.800,8601707.800,8599097.400,0.0,0.0,12841.400,36410.200
1.481,3.818,94.312,0.0,0.0,0.390,0.0,1638.400,8232501.600,8228135.0,0.0,0.0,12107.800,34922.400
0.025,0.025,99.950,0.0,0.0,0.0,0.0,819.200,3449.0,1204.600,0.0,0.0,39.200,126.600
