"Dstat 0.7.2 CSV output"
"Author:","Dag Wieers <dag@wieers.com>",,,,"URL:","http://dag.wieers.com/home-made/dstat/"
"Host:","Middleware1",,,,"User:","mstevan"
"Cmdline:","dstat --output /home/mstevan/logs/experiment_3.1/dstat/vs_512-vcpr_8-wtpm_64-rep_4.csv 5 16",,,,"Date:","28 Oct 2019 04:46:49 UTC"

"total cpu usage",,,,,,"dsk/total",,"net/total",,"paging",,"system",
"usr","sys","idl","wai","hiq","siq","read","writ","recv","send","in","out","int","csw"
1.236,2.362,95.958,0.108,0.0,0.335,10489.763,12905918.473,0.0,0.0,0.0,0.0,7211.020,21476.396
0.576,0.251,99.098,0.075,0.0,0.0,0.0,40140.800,67491.400,62512.600,0.0,0.0,347.600,1008.200
7.839,8.741,81.562,0.0,0.0,1.857,0.0,1638.400,12183250.400,12181092.400,0.0,0.0,24542.800,72921.800
4.424,7.894,86.278,0.0,0.0,1.404,0.0,1638.400,12832218.200,12825943.800,0.0,0.0,26586.600,78163.400
3.034,7.916,87.889,0.0,0.0,1.161,0.0,2457.600,12908100.200,12906574.800,0.0,0.0,26663.400,78230.200
3.318,7.559,88.070,0.0,0.0,1.053,0.0,1638.400,12779578.800,12775738.600,0.0,0.0,26673.600,77782.800
3.045,8.136,87.559,0.0,0.0,1.260,0.0,4915.200,12878684.200,12875834.200,0.0,0.0,26955.200,78699.200
3.517,8.163,87.192,0.052,0.0,1.076,0.0,24576.0,13182324.0,13180092.800,0.0,0.0,27620.0,80608.800
2.947,8.229,87.762,0.0,0.0,1.062,0.0,1638.400,13109281.0,13104837.600,0.0,0.0,27419.400,80030.400
3.232,8.408,87.257,0.0,0.0,1.104,0.0,1638.400,13062031.0,13057568.600,0.0,0.0,27346.400,79594.800
3.403,8.125,87.523,0.0,0.0,0.950,0.0,819.200,13032138.800,13028954.400,0.0,0.0,27615.800,79483.800
3.551,8.311,86.928,0.0,0.0,1.210,0.0,1638.400,13041922.0,13037660.800,0.0,0.0,27329.200,79463.400
2.779,7.648,88.648,0.0,0.0,0.926,0.0,819.200,13169014.200,13165592.200,0.0,0.0,27594.0,80367.200
3.597,8.217,87.057,0.026,0.0,1.103,0.0,21299.200,13056964.0,13054468.800,0.0,0.0,27524.400,79758.200
3.123,7.650,88.036,0.0,0.0,1.191,0.0,3276.800,13196175.800,13190695.200,0.0,0.0,27666.200,80846.0
2.662,7.428,88.924,0.0,0.0,0.985,0.0,819.200,12908508.200,12907499.200,0.0,0.0,27099.800,79050.0
0.075,0.025,99.900,0.0,0.0,0.0,0.0,1638.400,6758.400,2177.200,0.0,0.0,43.600,133.600
