"Dstat 0.7.2 CSV output"
"Author:","Dag Wieers <dag@wieers.com>",,,,"URL:","http://dag.wieers.com/home-made/dstat/"
"Host:","Middleware1",,,,"User:","mstevan"
"Cmdline:","dstat --output /home/mstevan/logs/experiment_3.1/dstat/vs_512-vcpr_8-wtpm_8-rep_1.csv 5 16",,,,"Date:","28 Oct 2019 04:31:12 UTC"

"total cpu usage",,,,,,"dsk/total",,"net/total",,"paging",,"system",
"usr","sys","idl","wai","hiq","siq","read","writ","recv","send","in","out","int","csw"
1.170,2.233,96.167,0.113,0.0,0.316,10997.630,13530455.823,0.0,0.0,0.0,0.0,6790.278,20216.093
0.550,0.275,99.150,0.0,0.0,0.025,0.0,1638.400,79301.600,73251.800,0.0,0.0,229.600,716.600
4.932,4.302,90.215,0.0,0.0,0.551,0.0,819.200,8485611.800,8482991.400,0.0,0.0,13518.800,35308.400
4.515,4.014,90.705,0.0,0.0,0.766,0.0,1638.400,8436945.800,8433578.200,0.0,0.0,14471.200,35515.0
2.874,3.866,92.868,0.0,0.0,0.392,0.0,3276.800,8352780.600,8348328.400,0.0,0.0,14424.200,35308.600
2.299,3.684,93.677,0.131,0.0,0.209,0.0,29491.200,8515507.200,8513064.600,0.0,0.0,14696.400,35909.800
1.767,3.845,93.946,0.0,0.0,0.442,0.0,4096.0,8258016.600,8253306.0,0.0,0.0,14453.600,34900.0
1.679,4.015,93.991,0.0,0.0,0.315,0.0,9830.400,9085683.200,9080804.200,0.0,0.0,15913.0,38239.400
1.463,3.839,94.280,0.0,0.0,0.418,0.0,819.200,8667647.400,8666293.0,0.0,0.0,14971.400,36424.800
1.358,3.368,94.909,0.0,0.0,0.366,0.0,1638.400,8193645.600,8189141.400,0.0,0.0,14574.0,34808.600
1.542,3.684,94.513,0.0,0.0,0.261,0.0,819.200,8487042.600,8484811.400,0.0,0.0,14864.800,35820.800
1.437,3.710,94.487,0.078,0.0,0.287,0.0,24576.0,8478011.0,8473569.200,0.0,0.0,14956.800,35880.800
1.455,3.767,94.362,0.0,0.0,0.416,0.0,1638.400,8444934.600,8440439.800,0.0,0.0,14655.200,35753.400
1.615,3.516,94.583,0.0,0.0,0.286,0.0,4915.200,8318923.200,8316691.200,0.0,0.0,14604.200,35357.200
1.846,4.030,93.708,0.0,0.0,0.416,0.0,3276.800,9094245.200,9089760.0,0.0,0.0,15646.200,38403.200
1.864,4.142,93.684,0.0,0.0,0.311,0.0,1638.400,8540468.200,8536314.400,0.0,0.0,14858.400,36127.0
0.025,0.050,99.925,0.0,0.0,0.0,0.0,819.200,4098.800,1741.400,0.0,0.0,47.0,132.0
