"Dstat 0.7.2 CSV output"
"Author:","Dag Wieers <dag@wieers.com>",,,,"URL:","http://dag.wieers.com/home-made/dstat/"
"Host:","Middleware1",,,,"User:","mstevan"
"Cmdline:","dstat --output /home/mstevan/logs/experiment_3.1/dstat/vs_512-vcpr_32-wtpm_8-rep_4.csv 5 16",,,,"Date:","28 Oct 2019 05:09:33 UTC"

"total cpu usage",,,,,,"dsk/total",,"net/total",,"paging",,"system",
"usr","sys","idl","wai","hiq","siq","read","writ","recv","send","in","out","int","csw"
1.308,2.492,95.742,0.102,0.0,0.356,9829.548,12094053.717,0.0,0.0,0.0,0.0,7573.800,22511.301
0.577,0.201,99.222,0.0,0.0,0.0,0.0,1638.400,89529.400,81598.600,0.0,0.0,213.0,726.0
5.032,4.524,89.775,0.0,0.0,0.669,0.0,2457.600,9117061.800,9110423.400,0.0,0.0,11883.800,36600.800
4.289,4.658,90.553,0.0,0.0,0.500,0.0,1638.400,9000375.600,8996871.800,0.0,0.0,15283.200,36798.200
1.567,4.048,94.098,0.052,0.0,0.235,0.0,41779.200,8845984.200,8843396.400,0.0,0.0,14539.0,36336.0
1.599,4.248,93.812,0.0,0.0,0.341,0.0,1638.400,9041964.200,9038615.200,0.0,0.0,15456.800,37235.400
1.661,4.309,93.510,0.0,0.0,0.519,0.0,8192.0,8638060.400,8640824.0,0.0,0.0,14700.800,35649.200
1.740,4.882,93.145,0.0,0.0,0.234,0.0,9011.200,9004259.0,9001445.600,0.0,0.0,15202.200,37001.600
1.805,3.871,93.827,0.0,0.0,0.497,0.0,3276.800,8924580.600,8920942.400,0.0,0.0,15365.400,36776.800
2.770,4.782,92.030,0.0,0.0,0.418,0.0,1638.400,9077594.600,9073136.400,0.0,0.0,15533.0,37457.600
1.737,4.199,93.650,0.078,0.0,0.337,0.0,28672.0,8874612.600,8872382.800,0.0,0.0,15573.600,36737.400
1.732,4.187,93.719,0.0,0.0,0.362,0.0,1638.400,8675082.800,8670656.600,0.0,0.0,14790.200,35881.800
1.543,3.426,94.535,0.0,0.0,0.497,0.0,1638.400,8502255.200,8497245.0,0.0,0.0,14525.200,35194.800
1.766,4.129,93.846,0.0,0.0,0.260,0.0,4915.200,8591085.600,8589384.600,0.0,0.0,14568.600,35429.200
1.748,4.069,93.897,0.0,0.0,0.287,0.0,3276.800,8602445.400,8598036.400,0.0,0.0,14627.600,35237.400
1.328,4.478,93.621,0.0,0.0,0.573,0.0,819.200,8799531.400,8796371.200,0.0,0.0,15312.600,36130.800
0.454,0.731,98.664,0.050,0.0,0.101,0.0,17203.200,1640026.400,1634695.800,0.0,0.0,2877.600,6691.200
