"Dstat 0.7.2 CSV output"
"Author:","Dag Wieers <dag@wieers.com>",,,,"URL:","http://dag.wieers.com/home-made/dstat/"
"Host:","Middleware1",,,,"User:","mstevan"
"Cmdline:","dstat --output /home/mstevan/logs/experiment_3.1/dstat/vs_512-vcpr_16-wtpm_64-rep_2.csv 5 16",,,,"Date:","28 Oct 2019 05:01:01 UTC"

"total cpu usage",,,,,,"dsk/total",,"net/total",,"paging",,"system",
"usr","sys","idl","wai","hiq","siq","read","writ","recv","send","in","out","int","csw"
1.280,2.443,95.825,0.105,0.0,0.348,10067.160,12386240.170,0.0,0.0,0.0,0.0,7441.406,22129.090
0.576,0.275,99.099,0.0,0.0,0.050,0.0,819.200,44912.400,40189.200,0.0,0.0,304.400,853.600
9.168,8.482,80.346,0.055,0.0,1.949,0.0,33587.200,13903958.800,13901252.800,0.0,0.0,16374.600,55087.200
2.377,6.417,89.807,0.0,0.0,1.400,0.0,9011.200,14256721.400,14254405.800,0.0,0.0,17336.200,56623.800
4.305,7.554,86.556,0.0,0.0,1.585,0.0,2457.600,14226600.800,14222222.600,0.0,0.0,17205.0,56595.600
4.235,7.154,87.191,0.0,0.0,1.420,0.0,2457.600,14245798.0,14240669.800,0.0,0.0,17069.600,56360.400
3.571,7.482,87.617,0.0,0.0,1.330,0.0,819.200,14247786.0,14245461.400,0.0,0.0,17437.400,56920.600
3.508,6.806,88.194,0.0,0.0,1.492,0.0,13926.400,14308449.0,14304312.400,0.0,0.0,17592.400,57060.200
3.449,6.872,88.294,0.026,0.0,1.359,0.0,18841.600,14225428.400,14220208.200,0.0,0.0,17400.200,56938.0
3.521,6.542,88.623,0.0,0.0,1.314,0.0,819.200,14260897.600,14258359.800,0.0,0.0,17809.600,57867.800
3.071,6.870,88.499,0.0,0.0,1.561,0.0,1638.400,14204285.400,14201567.200,0.0,0.0,17695.600,57930.600
2.968,7.212,88.493,0.0,0.0,1.328,0.0,1638.400,14234095.800,14229423.0,0.0,0.0,17711.0,57921.0
2.642,6.314,89.960,0.0,0.0,1.083,0.0,819.200,14179852.400,14177796.800,0.0,0.0,17723.400,57854.600
3.096,7.190,88.402,0.0,0.0,1.312,0.0,5734.400,14263492.400,14258605.400,0.0,0.0,17838.200,57968.0
2.561,6.496,89.649,0.0,0.0,1.294,0.0,2457.600,14264173.600,14259683.400,0.0,0.0,17765.0,57934.200
2.820,6.527,89.452,0.078,0.0,1.123,0.0,17203.200,14062092.200,14059473.800,0.0,0.0,17526.400,57138.800
0.327,0.478,99.195,0.0,0.0,0.0,0.0,1638.400,539257.200,534662.800,0.0,0.0,1422.600,3879.200
