"Dstat 0.7.2 CSV output"
"Author:","Dag Wieers <dag@wieers.com>",,,,"URL:","http://dag.wieers.com/home-made/dstat/"
"Host:","Middleware1",,,,"User:","mstevan"
"Cmdline:","dstat --output /home/mstevan/logs/experiment_3.1/dstat/vs_64-vcpr_32-wtpm_32-rep_3.csv 5 16",,,,"Date:","28 Oct 2019 02:57:20 UTC"

"total cpu usage",,,,,,"dsk/total",,"net/total",,"paging",,"system",
"usr","sys","idl","wai","hiq","siq","read","writ","recv","send","in","out","int","csw"
0.652,1.210,97.818,0.153,0.0,0.166,15509.545,19078764.432,0.0,0.0,0.0,0.0,3777.556,11156.159
0.601,0.175,99.149,0.025,0.0,0.050,0.0,45056.0,42127.600,33032.800,0.0,0.0,277.400,863.0
7.989,5.516,85.353,0.0,0.0,1.141,0.0,1638.400,5038897.400,5032142.800,0.0,0.0,11181.200,43175.0
2.216,5.224,91.583,0.0,0.0,0.976,0.0,819.200,5282958.0,5280696.200,0.0,0.0,13673.200,46668.0
2.145,5.678,91.313,0.0,0.0,0.863,0.0,3276.800,5108294.0,5103887.400,0.0,0.0,13759.200,44789.600
2.353,6.387,90.199,0.0,0.0,1.060,0.0,1638.400,5067814.600,5063353.600,0.0,0.0,13812.0,44131.200
3.360,5.776,89.866,0.0,0.0,0.998,0.0,10649.600,5114414.600,5112380.800,0.0,0.0,13646.800,44657.200
2.497,5.388,90.933,0.053,0.0,1.130,0.0,29491.200,5096834.600,5092174.600,0.0,0.0,14043.0,44473.800
2.368,5.316,91.158,0.0,0.0,1.158,0.0,2457.600,5100690.800,5098033.200,0.0,0.0,14012.400,44758.400
2.458,6.328,90.246,0.0,0.0,0.968,0.0,1638.400,5164471.0,5159894.200,0.0,0.0,14376.400,45144.600
2.506,5.821,90.916,0.0,0.0,0.757,0.0,1638.400,5102087.0,5098124.200,0.0,0.0,14199.600,44630.200
2.143,5.646,91.218,0.0,0.0,0.993,0.0,819.200,5165666.800,5163434.800,0.0,0.0,14783.0,45508.600
2.321,5.170,91.770,0.0,0.0,0.739,0.0,1638.400,5138142.600,5133367.600,0.0,0.0,14306.600,44896.0
2.319,4.931,91.818,0.080,0.0,0.853,0.0,27033.600,5254631.600,5250757.600,0.0,0.0,14505.400,45869.200
2.452,5.870,90.582,0.0,0.0,1.096,0.0,819.200,5175459.400,5172803.200,0.0,0.0,14614.400,45579.0
2.360,5.639,91.214,0.0,0.0,0.787,0.0,3276.800,5154061.200,5150314.0,0.0,0.0,14716.400,45478.0
0.150,0.025,99.825,0.0,0.0,0.0,0.0,1638.400,11489.200,4642.800,0.0,0.0,54.0,157.0
