"Dstat 0.7.2 CSV output"
"Author:","Dag Wieers <dag@wieers.com>",,,,"URL:","http://dag.wieers.com/home-made/dstat/"
"Host:","Middleware1",,,,"User:","mstevan"
"Cmdline:","dstat --output /home/mstevan/logs/experiment_3.1/dstat/vs_64-vcpr_8-wtpm_32-rep_1.csv 5 16",,,,"Date:","28 Oct 2019 02:20:24 UTC"

"total cpu usage",,,,,,"dsk/total",,"net/total",,"paging",,"system",
"usr","sys","idl","wai","hiq","siq","read","writ","recv","send","in","out","int","csw"
0.285,0.502,98.984,0.180,0.0,0.049,18494.129,22748931.450,0.0,0.0,0.0,0.0,1653.093,4691.258
0.653,0.100,99.196,0.0,0.0,0.050,0.0,1638.400,46165.400,40881.0,0.0,0.0,380.200,1090.400
9.074,7.678,81.718,0.0,0.0,1.530,0.0,819.200,4443456.600,4441937.600,0.0,0.0,17077.800,59855.800
4.311,7.124,87.355,0.0,0.0,1.209,0.0,1638.400,4644441.0,4640072.800,0.0,0.0,17473.0,62145.0
4.327,8.160,86.184,0.052,0.0,1.277,0.0,34406.400,4651856.0,4647291.600,0.0,0.0,17651.600,62430.800
3.261,7.207,88.453,0.0,0.0,1.078,0.0,819.200,4650654.800,4648476.800,0.0,0.0,17840.400,62248.0
3.413,6.668,88.842,0.0,0.0,1.076,0.0,4915.200,4702984.200,4697398.600,0.0,0.0,18290.200,63354.600
3.342,6.527,88.982,0.0,0.0,1.149,0.0,9830.400,4668954.0,4665636.400,0.0,0.0,18387.800,62815.400
3.033,6.850,89.255,0.0,0.0,0.863,0.0,819.200,4728185.800,4725904.800,0.0,0.0,18562.800,63342.200
2.960,6.522,89.392,0.0,0.0,1.126,0.0,1638.400,4699985.0,4695522.400,0.0,0.0,18712.400,63557.800
2.885,6.888,89.446,0.0,0.0,0.780,0.0,819.200,4663020.800,4660012.200,0.0,0.0,18427.0,62677.600
3.124,5.933,89.840,0.053,0.0,1.050,0.0,22937.600,4761811.800,4758132.200,0.0,0.0,19390.400,64939.200
2.833,6.611,89.507,0.0,0.0,1.049,0.0,1638.400,4700144.600,4695682.600,0.0,0.0,18964.200,63745.0
2.841,6.288,89.924,0.0,0.0,0.947,0.0,4915.200,4801473.800,4799242.600,0.0,0.0,19211.400,65079.200
3.288,6.888,88.944,0.0,0.0,0.880,0.0,3276.800,4722034.200,4717571.600,0.0,0.0,18882.400,63760.0
2.759,6.148,90.200,0.0,0.0,0.893,0.0,1638.400,4573665.200,4569260.200,0.0,0.0,18372.200,61627.400
0.025,0.025,99.950,0.0,0.0,0.0,0.0,819.200,3754.600,1350.600,0.0,0.0,42.400,131.400
