"Dstat 0.7.2 CSV output"
"Author:","Dag Wieers <dag@wieers.com>",,,,"URL:","http://dag.wieers.com/home-made/dstat/"
"Host:","Middleware1",,,,"User:","mstevan"
"Cmdline:","dstat --output /home/mstevan/logs/experiment_3.1/dstat/vs_64-vcpr_4-wtpm_64-rep_2.csv 5 16",,,,"Date:","28 Oct 2019 02:10:28 UTC"

"total cpu usage",,,,,,"dsk/total",,"net/total",,"paging",,"system",
"usr","sys","idl","wai","hiq","siq","read","writ","recv","send","in","out","int","csw"
0.185,0.307,99.290,0.188,0.0,0.030,19504.630,23991558.130,0.0,0.0,0.0,0.0,920.850,2791.150
0.676,0.250,99.074,0.0,0.0,0.0,0.0,819.200,32011.800,29523.800,0.0,0.0,399.400,1082.0
7.330,6.600,85.042,0.108,0.0,0.920,0.0,32768.0,3134793.200,3131675.0,0.0,0.0,20777.600,57808.400
4.465,6.120,88.863,0.0,0.0,0.552,0.0,2457.600,3248564.0,3243942.200,0.0,0.0,22680.600,60212.0
3.019,6.767,89.511,0.0,0.0,0.703,0.0,819.200,3384221.600,3382144.0,0.0,0.0,23632.0,62760.800
2.667,6.301,90.458,0.0,0.0,0.575,0.0,2457.600,3397167.600,3392733.0,0.0,0.0,23913.800,63162.400
2.456,5.852,91.066,0.0,0.0,0.627,0.0,819.200,3289988.800,3287973.400,0.0,0.0,23067.800,61033.600
2.724,6.653,89.916,0.0,0.0,0.707,0.0,12288.0,3393750.800,3389287.200,0.0,0.0,23702.200,63036.600
2.545,6.648,90.106,0.052,0.0,0.649,0.0,18022.400,3320274.800,3315550.400,0.0,0.0,23217.800,61535.200
2.593,5.972,90.676,0.0,0.0,0.760,0.0,9011.200,3363077.800,3361108.600,0.0,0.0,23555.0,62720.600
2.588,6.377,90.434,0.0,0.0,0.601,0.0,1638.400,3430693.0,3426249.600,0.0,0.0,24029.600,63825.600
2.844,6.288,90.451,0.0,0.0,0.417,0.0,1638.400,3382137.800,3377316.0,0.0,0.0,23589.400,62906.600
2.497,6.649,90.276,0.0,0.0,0.578,0.0,819.200,3416420.600,3414357.0,0.0,0.0,23846.0,63451.200
2.594,6.392,90.438,0.0,0.0,0.576,0.0,6553.600,3397502.0,3393225.400,0.0,0.0,23646.0,63049.400
2.432,6.198,90.586,0.052,0.0,0.732,0.0,15564.800,3267903.400,3263048.600,0.0,0.0,22728.0,60580.800
2.070,6.499,90.802,0.0,0.0,0.629,0.0,819.200,3299021.400,3297822.200,0.0,0.0,22881.0,61199.200
0.050,0.025,99.925,0.0,0.0,0.0,0.0,1638.400,6349.200,1966.0,0.0,0.0,44.400,128.800
