"Dstat 0.7.2 CSV output"
"Author:","Dag Wieers <dag@wieers.com>",,,,"URL:","http://dag.wieers.com/home-made/dstat/"
"Host:","Middleware1",,,,"User:","mstevan"
"Cmdline:","dstat --output /home/mstevan/logs/experiment_3.1/dstat/vs_64-vcpr_16-wtpm_64-rep_4.csv 5 16",,,,"Date:","28 Oct 2019 02:47:23 UTC"

"total cpu usage",,,,,,"dsk/total",,"net/total",,"paging",,"system",
"usr","sys","idl","wai","hiq","siq","read","writ","recv","send","in","out","int","csw"
0.585,1.081,98.029,0.159,0.0,0.146,16214.064,19945110.291,0.0,0.0,0.0,0.0,3386.602,10049.670
0.702,0.226,99.047,0.0,0.0,0.025,0.0,1638.400,26395.600,19838.0,0.0,0.0,294.600,814.400
9.738,9.459,78.320,0.0,0.0,2.483,0.0,1638.400,5694475.800,5693789.800,0.0,0.0,19319.200,65094.0
4.708,8.824,84.369,0.0,0.0,2.098,0.0,1638.400,5927849.800,5923386.400,0.0,0.0,21331.600,69159.0
5.095,8.884,83.773,0.026,0.0,2.221,0.0,32768.0,5973559.0,5969577.600,0.0,0.0,20662.400,68770.800
3.757,8.078,86.420,0.0,0.0,1.744,0.0,9011.200,5981773.400,5979061.600,0.0,0.0,21212.800,69443.600
3.893,8.180,86.139,0.0,0.0,1.789,0.0,5734.400,6011602.800,6007140.0,0.0,0.0,21859.600,69902.400
3.194,8.210,86.906,0.0,0.0,1.690,0.0,9011.200,6056029.600,6052697.200,0.0,0.0,22003.400,70085.800
3.084,7.790,87.636,0.0,0.0,1.489,0.0,3276.800,6072318.800,6068957.600,0.0,0.0,22150.0,70481.0
3.283,8.561,86.581,0.0,0.0,1.576,0.0,1638.400,6055852.400,6051376.0,0.0,0.0,22242.200,70561.0
3.304,8.576,86.651,0.0,0.0,1.469,0.0,819.200,5980897.0,5978956.200,0.0,0.0,21598.0,69340.400
3.340,7.715,87.169,0.053,0.0,1.723,0.0,17203.200,6110774.400,6106040.800,0.0,0.0,22228.800,71076.200
3.345,8.893,85.771,0.0,0.0,1.991,0.0,1638.400,6048911.200,6044214.800,0.0,0.0,21841.200,69935.0
3.239,8.217,86.832,0.0,0.0,1.712,0.0,4915.200,5979273.0,5976072.200,0.0,0.0,21464.800,69226.400
3.185,8.068,87.128,0.0,0.0,1.619,0.0,3276.800,6000700.400,5997459.0,0.0,0.0,21560.800,69395.600
3.504,7.534,87.223,0.0,0.0,1.739,0.0,819.200,5932074.200,5929940.800,0.0,0.0,21553.0,69085.400
0.100,0.150,99.700,0.0,0.0,0.050,0.0,1638.400,38427.600,42205.600,0.0,0.0,218.400,909.400
