"Dstat 0.7.2 CSV output"
"Author:","Dag Wieers <dag@wieers.com>",,,,"URL:","http://dag.wieers.com/home-made/dstat/"
"Host:","Middleware1",,,,"User:","mstevan"
"Cmdline:","dstat --output /home/mstevan/logs/experiment_3.1/dstat/vs_64-vcpr_4-wtpm_32-rep_2.csv 5 16",,,,"Date:","28 Oct 2019 02:04:47 UTC"

"total cpu usage",,,,,,"dsk/total",,"net/total",,"paging",,"system",
"usr","sys","idl","wai","hiq","siq","read","writ","recv","send","in","out","int","csw"
0.108,0.153,99.532,0.194,0.0,0.013,20133.187,24764495.659,0.0,0.0,0.0,0.0,401.829,1242.723
0.752,0.150,99.073,0.0,0.0,0.025,0.0,1638.400,33165.200,28330.800,0.0,0.0,348.800,1000.200
7.928,7.236,83.932,0.0,0.0,0.904,0.0,819.200,3176019.800,3173585.800,0.0,0.0,19332.0,58008.0
4.791,6.728,87.696,0.052,0.0,0.733,0.0,39321.600,3334535.400,3330508.800,0.0,0.0,20217.200,61277.600
2.698,6.155,90.597,0.0,0.0,0.550,0.0,2457.600,3377401.800,3373300.200,0.0,0.0,20564.600,61673.200
2.867,6.906,89.627,0.0,0.0,0.599,0.0,1638.400,3413929.400,3411621.600,0.0,0.0,20977.600,62803.400
2.723,5.918,90.626,0.0,0.0,0.733,0.0,4096.0,3356302.200,3351858.800,0.0,0.0,20365.0,61400.400
2.503,6.257,90.615,0.0,0.0,0.626,0.0,9011.200,3397422.600,3395191.400,0.0,0.0,20785.800,62495.400
2.793,6.395,90.107,0.0,0.0,0.705,0.0,1638.400,3441892.800,3437300.800,0.0,0.0,21068.200,63395.200
2.405,5.830,91.242,0.026,0.0,0.497,0.0,16384.0,3338940.400,3334423.0,0.0,0.0,20524.0,61364.800
2.489,6.274,90.614,0.0,0.0,0.622,0.0,819.200,3313981.400,3311573.600,0.0,0.0,20292.600,60841.200
2.328,5.415,91.760,0.0,0.0,0.497,0.0,1638.400,3266578.800,3262436.800,0.0,0.0,20125.800,60160.800
2.349,6.159,91.127,0.0,0.0,0.365,0.0,1638.400,3292021.600,3287600.400,0.0,0.0,19988.800,60019.800
2.705,5.878,90.793,0.0,0.0,0.624,0.0,4915.200,3326542.200,3323953.800,0.0,0.0,20448.0,61125.400
2.331,5.553,91.514,0.0,0.0,0.602,0.0,3276.800,3321209.600,3317121.200,0.0,0.0,20305.800,60893.0
2.580,5.994,90.826,0.052,0.0,0.547,0.0,17203.200,3255834.0,3251477.200,0.0,0.0,19890.600,59686.200
0.025,0.025,99.950,0.0,0.0,0.0,0.0,819.200,3237.800,1099.0,0.0,0.0,45.400,131.600
