"Dstat 0.7.2 CSV output"
"Author:","Dag Wieers <dag@wieers.com>",,,,"URL:","http://dag.wieers.com/home-made/dstat/"
"Host:","Middleware1",,,,"User:","mstevan"
"Cmdline:","dstat --output /home/mstevan/logs/experiment_3.1/dstat/vs_64-vcpr_4-wtpm_32-rep_3.csv 5 16",,,,"Date:","28 Oct 2019 02:06:12 UTC"

"total cpu usage",,,,,,"dsk/total",,"net/total",,"paging",,"system",
"usr","sys","idl","wai","hiq","siq","read","writ","recv","send","in","out","int","csw"
0.127,0.191,99.473,0.192,0.0,0.017,19972.252,24566592.118,0.0,0.0,0.0,0.0,532.443,1634.480
0.827,0.226,98.922,0.0,0.0,0.025,0.0,1638.400,44055.600,39473.200,0.0,0.0,419.600,1220.400
7.324,6.362,85.298,0.0,0.0,1.016,0.0,819.200,3050217.600,3047936.200,0.0,0.0,17978.600,55484.200
4.389,6.029,88.921,0.0,0.0,0.661,0.0,1638.400,3272981.400,3268634.400,0.0,0.0,19716.600,60467.0
3.231,6.619,89.388,0.026,0.0,0.735,0.0,31948.800,3325608.0,3323543.0,0.0,0.0,20270.800,62571.200
2.971,5.995,90.297,0.0,0.0,0.736,0.0,1638.400,3191247.0,3186326.600,0.0,0.0,19171.800,59372.200
2.858,6.345,90.142,0.0,0.0,0.655,0.0,4096.0,3293468.400,3289464.0,0.0,0.0,19966.200,61490.600
3.064,6.520,89.631,0.0,0.0,0.786,0.0,819.200,3385687.600,3382949.600,0.0,0.0,20588.200,63316.200
3.047,6.615,89.635,0.0,0.0,0.703,0.0,9830.400,3314709.600,3310623.600,0.0,0.0,20112.200,62062.0
2.553,6.449,90.261,0.0,0.0,0.737,0.0,1638.400,3365122.0,3360793.0,0.0,0.0,20467.600,62981.800
2.454,6.306,90.580,0.079,0.0,0.580,0.0,17203.200,3323841.0,3321227.200,0.0,0.0,19965.0,61920.400
3.164,6.512,89.644,0.0,0.0,0.680,0.0,9011.200,3371341.200,3366958.0,0.0,0.0,20180.200,62205.800
3.312,6.306,89.640,0.0,0.0,0.742,0.0,1638.400,3399100.400,3394565.800,0.0,0.0,20365.800,62884.0
3.127,7.254,88.830,0.0,0.0,0.788,0.0,819.200,3472110.0,3469955.600,0.0,0.0,20878.0,64320.400
2.862,6.485,89.945,0.0,0.0,0.709,0.0,6553.600,3370889.800,3366759.400,0.0,0.0,20153.800,62465.600
2.959,5.996,90.443,0.0,0.0,0.602,0.0,1638.400,3351569.200,3349443.600,0.0,0.0,20092.0,62078.800
0.050,0.025,99.900,0.025,0.0,0.0,0.0,16384.0,6322.800,1939.600,0.0,0.0,40.0,135.600
