"Dstat 0.7.2 CSV output"
"Author:","Dag Wieers <dag@wieers.com>",,,,"URL:","http://dag.wieers.com/home-made/dstat/"
"Host:","Middleware1",,,,"User:","mstevan"
"Cmdline:","dstat --output /home/mstevan/logs/experiment_3.1/dstat/vs_64-vcpr_4-wtpm_32-rep_1.csv 5 16",,,,"Date:","28 Oct 2019 02:03:22 UTC"

"total cpu usage",,,,,,"dsk/total",,"net/total",,"paging",,"system",
"usr","sys","idl","wai","hiq","siq","read","writ","recv","send","in","out","int","csw"
0.088,0.112,99.595,0.195,0.0,0.009,20296.737,24965615.665,0.0,0.0,0.0,0.0,267.893,829.738
0.801,0.275,98.799,0.100,0.0,0.025,0.0,31948.800,38512.400,33757.200,0.0,0.0,368.600,1059.800
6.597,6.704,85.737,0.0,0.0,0.962,0.0,819.200,3204076.800,3202227.200,0.0,0.0,18773.400,58602.200
4.366,6.076,88.769,0.0,0.0,0.789,0.0,1638.400,3304754.400,3300268.0,0.0,0.0,19941.0,61419.0
2.686,6.468,90.245,0.0,0.0,0.600,0.0,2457.600,3449751.0,3445346.600,0.0,0.0,20682.800,63980.0
2.695,6.971,89.661,0.0,0.0,0.674,0.0,1638.400,3431393.200,3428640.400,0.0,0.0,20661.600,63565.400
3.084,6.452,89.816,0.0,0.0,0.648,0.0,1638.400,3377761.400,3373346.200,0.0,0.0,20353.800,62749.200
2.680,6.400,90.323,0.0,0.0,0.598,0.0,11468.800,3442182.800,3440426.0,0.0,0.0,20711.200,63794.400
2.669,6.490,90.186,0.026,0.0,0.628,0.0,22118.400,3449315.0,3443743.600,0.0,0.0,20685.400,63900.0
2.742,6.580,90.052,0.0,0.0,0.627,0.0,1638.400,3417020.400,3413667.0,0.0,0.0,20663.0,63466.400
3.119,6.835,89.449,0.0,0.0,0.598,0.0,819.200,3495917.600,3492882.800,0.0,0.0,20962.200,64629.400
2.799,6.670,89.877,0.0,0.0,0.654,0.0,1638.400,3548804.400,3544387.800,0.0,0.0,21358.600,65940.800
2.963,6.577,89.966,0.0,0.0,0.494,0.0,1638.400,3470506.0,3466820.400,0.0,0.0,20952.400,64345.800
2.643,6.019,90.709,0.0,0.0,0.628,0.0,4915.200,3437014.200,3434783.0,0.0,0.0,20858.800,64037.600
2.614,6.588,90.039,0.052,0.0,0.706,0.0,18022.400,3498500.800,3493760.400,0.0,0.0,20977.0,64687.0
2.421,6.144,90.758,0.0,0.0,0.677,0.0,1638.400,3299409.600,3295290.0,0.0,0.0,19806.200,61168.600
0.050,0.0,99.950,0.0,0.0,0.0,0.0,819.200,3251.0,1099.0,0.0,0.0,36.0,110.200
