PING 10.0.0.5 (10.0.0.5) 56(84) bytes of data.
64 bytes from 10.0.0.5: icmp_seq=1 ttl=64 time=1.11 ms
64 bytes from 10.0.0.5: icmp_seq=2 ttl=64 time=2.01 ms
6464 bytes from 10.0.0.4: icmp_seq=3 ttl=64 time=0.423 64 64 bytes from 10.0.0.4: icmp_seq=4 ttl=64 time=0.409 64 64 bytes from 10.0.0.4: icmp_seq=5 ttl=64 time=0.443 64 64 bytes from 10.0.0.4: icmp_seq=6 ttl=64 time=0.608 64 64 bytes from 10.0.0.4: icmp_seq=7 ttl=64 time=0.62864 b64 bytes from 10.0.0.4: icmp_seq=8 ttl=64 time=6.95 64 64 bytes from 10.0.0.4: icmp_seq=9 ttl=64 time=0.403 64 64 bytes from 10.0.0.4: icmp_seq=10 ttl=64 time=0.984 64 64 bytes from 10.0.0.4: icmp_seq=11 ttl=64 time=0.56564 b64 bytes from 10.0.0.4: icmp_seq=12 ttl=64 time=0.62364 b64 bytes from 10.0.0.4: icmp_seq=13 ttl=64 time=0.58764 b64 bytes from 10.0.0.4: icmp_seq=14 ttl=64 time=0.59564 b64 bytes from 10.0.0.4: icmp_seq=15 ttl=64 time=0.81664 b64 bytes from 10.0.0.4: icmp_seq=16 ttl=64 time=1.02 ms

--- 10.0.0.4 ping statistics ---
16 packets transmitted, 16 received, 0% packet loss, time 76721ms
rtt min/avg/max/mdev = 0.403/1.007/6.958/1.547 ms
