PING 10.0.0.4 (10.0.0.4) 56(84) bytes of data.
64 bytes from 10.0.0.4: icmp_seq=1 ttl=64 time=1.25 ms
64 bytes from 10.0.0.5: icmp_seq=2 ttl=64 time=1.30 ms
64 bytes from 10.0.0.5: icmp_seq=3 ttl=64 time=0.573 ms
64 bytes from 10.0.0.5: icmp_seq=4 ttl=64 time=0.790 ms
664 bytes from 10.0.0.4: icmp_seq=5 ttl=64 time=0.527 ms64 bytes from 10.0.0.5: icmp_seq=6 ttl=64 time=6.23 ms
6464 bytes from 10.0.0.4: icmp_seq=7 ttl=64 time=0.978 m64 bytes from 10.0.0.5: icmp_seq=8 ttl=64 time=0.480 ms
6464 bytes from 10.0.0.4: icmp_seq=9 ttl=64 time=0.843 64 64 bytes from 10.0.0.4: icmp_seq=10 ttl=64 time=0.859 64 bytes from 10.0.0.5: icmp_seq=11 ttl=64 time=0.703 ms
64 bytes from 10.0.0.5: icmp_seq=12 ttl=64 time=0.949 ms
64 64 bytes from 10.0.0.4: icmp_seq=13 ttl=64 time=0.875 64 64 bytes from 10.0.0.4: icmp_seq=14 ttl=64 time=7.32 m64 bytes from 10.0.0.5: icmp_seq=15 ttl=64 time=5.48 ms
64 64 bytes from 10.0.0.4: icmp_seq=16 ttl=64 time=1.31 ms

--- 10.0.0.4 ping statistics ---
16 packets transmitted, 16 received, 0% packet loss, time 76498ms
rtt min/avg/max/mdev = 0.449/1.178/7.322/1.607 ms
