PING 10.0.0.4 (10.0.0.4) 56(84) bytes of data.
64 bytes from 10.0.0.4: icmp_seq=1 ttl=64 time=0.675 ms
64 bytes from 10.0.0.4: icmp_seq=2 ttl=64 time=0.913 ms
64 bytes from 10.0.0.4: icmp_seq=3 ttl=64 time=0.575 ms
64 bytes from 10.0.0.4: icmp_seq=4 ttl=64 time=1.09 ms
664 bytes from 10.0.0.5: icmp_seq=5 ttl=64 time=0.499 m6464 bytes from 10.0.0.5: icmp_seq=6 ttl=64 time=0.521 m6464 bytes from 10.0.0.5: icmp_seq=7 ttl=64 time=0.421 m6464 bytes from 10.0.0.5: icmp_seq=8 ttl=64 time=0.466 m6464 bytes from 10.0.0.5: icmp_seq=9 ttl=64 time=0.450 m6464 bytes from 10.0.0.5: icmp_seq=10 ttl=64 time=0.507 m6464 bytes from 10.0.0.5: icmp_seq=11 ttl=64 time=0.649 m6464 bytes from 10.0.0.5: icmp_seq=12 ttl=64 time=0.493 64 64 bytes from 10.0.0.5: icmp_seq=13 ttl=64 time=0.446 64 64 bytes from 10.0.0.5: icmp_seq=14 ttl=64 time=0.763 64 64 bytes from 10.0.0.5: icmp_seq=15 ttl=64 time=0.357 64 64 bytes from 10.0.0.5: icmp_seq=16 ttl=64 time=0.636 ms

--- 10.0.0.5 ping statistics ---
16 packets transmitted, 16 received, 0% packet loss, time 76592ms
rtt min/avg/max/mdev = 0.357/0.518/0.763/0.113 ms
