PING 10.0.0.4 (10.0.0.4) 56(84) bytes of data.
64 bytes from 10.0.0.4: icmp_seq=1 ttl=64 time=0.651 ms
64 bytes from 10.0.0.4: icmp_seq=2 ttl=64 time=0.614 ms
64 bytes from 10.0.0.4: icmp_seq=3 ttl=64 time=0.893 ms
64 bytes from 10.0.0.4: icmp_seq=4 ttl=64 time=0.475 ms
64 bytes from 10.0.0.4: icmp_seq=5 ttl=64 time=0.665 ms
64 bytes from 10.0.0.4: icmp_seq=6 ttl=64 time=0.491 ms
64 bytes from 10.0.0.4: icmp_seq=7 ttl=64 time=0.497 ms
64 bytes from 10.0.0.4: icmp_seq=8 ttl=64 time=0.527 ms
64 bytes from 10.0.0.4: icmp_seq=9 ttl=64 time=0.426 ms
64 bytes from 10.0.0.5: icmp_seq=10 ttl=64 time=0.405 ms
64 bytes from 10.0.0.4: icmp_seq=11 ttl=64 time=0.584 ms
64 bytes from 10.0.0.4: icmp_seq=12 ttl=64 time=0.503 ms
64 bytes from 10.0.0.4: icmp_seq=13 ttl=64 time=0.610 ms
64 bytes from 10.0.0.4: icmp_seq=14 ttl=64 time=0.496 ms
64 bytes from 10.0.0.5: icmp_seq=15 ttl=64 time=0.665 ms
64 bytes from 10.0.0.5: icmp_seq=16 ttl=64 time=0.773 ms

--- 10.0.0.5 ping statistics ---
16 packets transmitted, 16 received, 0% packet loss, time 76709ms
rtt min/avg/max/mdev = 0.384/0.542/0.773/0.126 ms
