PING 10.0.0.5 (10.0.0.5) 56(84) bytes of data.
64 bytes from 10.0.0.5: icmp_seq=1 ttl=64 time=0.569 ms
64 bytes from 10.0.0.5: icmp_seq=2 ttl=64 time=0.377 ms
64 bytes from 10.0.0.5: icmp_seq=3 ttl=64 time=0.550 ms
64 bytes from 10.0.0.5: icmp_seq=4 ttl=64 time=0.457 ms
64 bytes from 10.0.0.5: icmp_seq=5 ttl=64 time=0.428 ms
64 bytes from 10.0.0.4: icmp_seq=6 ttl=64 time=0.367 ms
64 bytes from 10.0.0.4: icmp_seq=7 ttl=64 time=0.540 ms
64 bytes from 10.0.0.4: icmp_seq=8 ttl=64 time=0.648 ms
64 bytes from 10.0.0.4: icmp_seq=9 ttl=64 time=0.922 ms
64 bytes from 10.0.0.4: icmp_seq=10 ttl=64 time=0.804 ms
64 bytes from 10.0.0.5: icmp_seq=11 ttl=64 time=0.751 ms
64 bytes from 10.0.0.4: icmp_seq=12 ttl=64 time=0.880 ms
64 bytes from 10.0.0.4: icmp_seq=13 ttl=64 time=0.585 ms
64 bytes from 10.0.0.4: icmp_seq=14 ttl=64 time=0.438 ms
64 bytes from 10.0.0.4: icmp_seq=15 ttl=64 time=11.9 ms
664 bytes from 10.0.0.5: icmp_seq=16 ttl=64 time=0.894 ms

--- 10.0.0.5 ping statistics ---
16 packets transmitted, 16 received, 0% packet loss, time 76576ms
rtt min/avg/max/mdev = 0.369/0.557/0.894/0.152 ms
