PING 10.0.0.4 (10.0.0.4) 56(84) bytes of data.
64 bytes from 10.0.0.4: icmp_seq=1 ttl=64 time=7.72 ms
64 bytes from 10.0.0.4: icmp_seq=2 ttl=64 time=0.382 ms664 bytes from 10.0.0.4: icmp_seq=3 ttl=64 time=0.417 m6464 bytes from 10.0.0.4: icmp_seq=4 ttl=64 time=0.478 64 64 bytes from 10.0.0.4: icmp_seq=5 ttl=64 time=0.549 64 64 bytes from 10.0.0.4: icmp_seq=6 ttl=64 time=0.424 64 64 bytes from 10.0.0.4: icmp_seq=7 ttl=64 time=0.935 64 64 bytes from 10.0.0.4: icmp_seq=8 ttl=64 time=0.40864 b64 bytes from 10.0.0.4: icmp_seq=9 ttl=64 time=0.42364 b64 bytes from 10.0.0.4: icmp_seq=10 ttl=64 time=0.61164 b64 bytes from 10.0.0.4: icmp_seq=11 ttl=64 time=0.52764 b64 bytes from 10.0.0.4: icmp_seq=12 ttl=64 time=0.35164 b64 bytes from 10.0.0.4: icmp_seq=13 ttl=64 time=0.43864 b64 bytes from 10.0.0.4: icmp_seq=14 ttl=64 time=0.47364 b64 bytes from 10.0.0.4: icmp_seq=15 ttl=64 time=0.47864 b64 bytes from 10.0.0.4: icmp_seq=16 ttl=64 time=0.689 ms

--- 10.0.0.4 ping statistics ---
16 packets transmitted, 16 received, 0% packet loss, time 76566ms
rtt min/avg/max/mdev = 0.351/0.956/7.723/1.752 ms
