PING 10.0.0.5 (10.0.0.5) 56(84) bytes of data.
64 bytes from 10.0.0.5: icmp_seq=1 ttl=64 time=0.563 ms
64 bytes from 10.0.0.5: icmp_seq=2 ttl=64 time=0.670 ms
64 bytes from 10.0.0.5: icmp_seq=3 ttl=64 time=0.536 ms
64 bytes from 10.0.0.5: icmp_seq=4 ttl=64 time=0.444 ms
64 bytes from 10.0.0.5: icmp_seq=5 ttl=64 time=0.504 ms664 bytes from 10.0.0.5: icmp_seq=6 ttl=64 time=0.389 ms664 bytes from 10.0.0.5: icmp_seq=7 ttl=64 time=0.458 ms664 bytes from 10.0.0.5: icmp_seq=8 ttl=64 time=0.478 ms664 bytes from 10.0.0.5: icmp_seq=9 ttl=64 time=0.361 ms664 bytes from 10.0.0.5: icmp_seq=10 ttl=64 time=0.674 m6464 bytes from 10.0.0.5: icmp_seq=11 ttl=64 time=0.584 m6464 bytes from 10.0.0.5: icmp_seq=12 ttl=64 time=0.387 m6464 bytes from 10.0.0.5: icmp_seq=13 ttl=64 time=0.901 m6464 bytes from 10.0.0.5: icmp_seq=14 ttl=64 time=0.433 m6464 bytes from 10.0.0.5: icmp_seq=15 ttl=64 time=0.408 m6464 bytes from 10.0.0.5: icmp_seq=16 ttl=64 time=0.525 ms

--- 10.0.0.5 ping statistics ---
16 packets transmitted, 16 received, 0% packet loss, time 76755ms
rtt min/avg/max/mdev = 0.361/0.519/0.901/0.137 ms
