PING 10.0.0.4 (10.0.0.4) 56(84) bytes of data.
64 bytes from 10.0.0.4: icmp_seq=1 ttl=64 time=0.984 ms
64 bytes from 10.0.0.4: icmp_seq=2 ttl=64 time=0.464 ms
64 bytes from 10.0.0.4: icmp_seq=3 ttl=64 time=1.51 ms
64 bytes from 10.0.0.4: icmp_seq=4 ttl=64 time=0.411 ms
64 bytes from 10.0.0.4: icmp_seq=5 ttl=64 time=1.64 ms
64 bytes from 10.0.0.4: icmp_seq=6 ttl=64 time=0.590 ms
64 bytes from 10.0.0.5: icmp_seq=7 ttl=64 time=0.532 ms
64 bytes from 10.0.0.5: icmp_seq=8 ttl=64 time=0.551 ms
64 bytes from 10.0.0.4: icmp_seq=9 ttl=64 time=0.534 ms
64 bytes from 10.0.0.4: icmp_seq=10 ttl=64 time=0.473 ms
64 bytes from 10.0.0.5: icmp_seq=11 ttl=64 time=2.98 ms
664 bytes from 10.0.0.4: icmp_seq=12 ttl=64 time=0.673 ms664 bytes from 10.0.0.4: icmp_seq=13 ttl=64 time=0.475 ms664 bytes from 10.0.0.4: icmp_seq=14 ttl=64 time=0.598 ms64 bytes from 10.0.0.5: icmp_seq=15 ttl=64 time=0.400 ms
64 bytes from 10.0.0.5: icmp_seq=16 ttl=64 time=0.671 ms

--- 10.0.0.5 ping statistics ---
16 packets transmitted, 16 received, 0% packet loss, time 76778ms
rtt min/avg/max/mdev = 0.374/0.757/2.985/0.650 ms

