PING 10.0.0.5 (10.0.0.5) 56(84) bytes of data.
64 bytes from 10.0.0.5: icmp_seq=1 ttl=64 time=0.594 ms664 bytes from 10.0.0.5: icmp_seq=2 ttl=64 time=0.404 ms664 bytes from 10.0.0.5: icmp_seq=3 ttl=64 time=0.505 ms664 bytes from 10.0.0.5: icmp_seq=4 ttl=64 time=0.574 ms64 bytes from 10.0.0.4: icmp_seq=5 ttl=64 time=0.457 ms
64 bytes from 10.0.0.4: icmp_seq=6 ttl=64 time=0.428 ms
64 bytes from 10.0.0.4: icmp_seq=7 ttl=64 time=0.605 ms
664 bytes from 10.0.0.5: icmp_seq=8 ttl=64 time=1.17 ms64 bytes from 10.0.0.4: icmp_seq=9 ttl=64 time=0.542 ms
64 bytes from 10.0.0.4: icmp_seq=10 ttl=64 time=0.592 ms
64 bytes from 10.0.0.4: icmp_seq=11 ttl=64 time=0.502 ms
64 bytes from 10.0.0.4: icmp_seq=12 ttl=64 time=0.564 ms
64 bytes from 10.0.0.4: icmp_seq=13 ttl=64 time=0.388 ms
64 bytes from 10.0.0.4: icmp_seq=14 ttl=64 time=0.550 ms
64 bytes from 10.0.0.4: icmp_seq=15 ttl=64 time=0.610 ms
64 bytes from 10.0.0.4: icmp_seq=16 ttl=64 time=0.722 ms

--- 10.0.0.4 ping statistics ---
16 packets transmitted, 16 received, 0% packet loss, time 76813ms
rtt min/avg/max/mdev = 0.388/0.989/7.216/1.614 ms

