PING 10.0.0.5 (10.0.0.5) 56(84) bytes of data.
64 bytes from 10.0.0.5: icmp_seq=1 ttl=64 time=0.464 ms664 bytes from 10.0.0.5: icmp_seq=2 ttl=64 time=0.694 ms664 bytes from 10.0.0.5: icmp_seq=3 ttl=64 time=0.401 ms64 bytes from 10.0.0.4: icmp_seq=4 ttl=64 time=0.895 ms
664 bytes from 10.0.0.5: icmp_seq=5 ttl=64 time=6.14 ms
64 bytes from 10.0.0.4: icmp_seq=6 ttl=64 time=0.783 ms
64 bytes from 10.0.0.4: icmp_seq=7 ttl=64 time=0.665 ms
64 bytes from 10.0.0.4: icmp_seq=8 ttl=64 time=1.05 ms
64 bytes from 10.0.0.5: icmp_seq=9 ttl=64 time=0.426 ms
64 bytes from 10.0.0.5: icmp_seq=10 ttl=64 time=14.2 ms
664 bytes from 10.0.0.4: icmp_seq=11 ttl=64 time=0.407 ms664 bytes from 10.0.0.4: icmp_seq=12 ttl=64 time=0.593 ms64 bytes from 10.0.0.5: icmp_seq=13 ttl=64 time=2.09 ms
6464 bytes from 10.0.0.4: icmp_seq=14 ttl=64 time=0.657 m6464 bytes from 10.0.0.4: icmp_seq=15 ttl=64 time=1.26 m64 bytes from 10.0.0.5: icmp_seq=16 ttl=64 time=1.07 ms

--- 10.0.0.5 ping statistics ---
16 packets transmitted, 16 received, 0% packet loss, time 76689ms
rtt min/avg/max/mdev = 0.401/1.953/14.228/3.450 ms
s
