PING 10.0.0.5 (10.0.0.5) 56(84) bytes of data.
64 bytes from 10.0.0.5: icmp_seq=1 ttl=64 time=7.21 ms
64 bytes from 10.0.0.5: icmp_seq=2 ttl=64 time=0.555 ms
64 bytes from 10.0.0.5: icmp_seq=3 ttl=64 time=0.546 ms
64 bytes from 10.0.0.5: icmp_seq=4 ttl=64 time=0.832 ms
664 bytes from 10.0.0.4: icmp_seq=5 ttl=64 time=0.500 ms664 bytes from 10.0.0.4: icmp_seq=6 ttl=64 time=0.534 ms64 bytes from 10.0.0.5: icmp_seq=7 ttl=64 time=0.378 ms
664 bytes from 10.0.0.4: icmp_seq=8 ttl=64 time=0.609 ms664 bytes from 10.0.0.4: icmp_seq=9 ttl=64 time=0.634 ms664 bytes from 10.0.0.4: icmp_seq=10 ttl=64 time=0.681 ms664 bytes from 10.0.0.4: icmp_seq=11 ttl=64 time=1.13 ms64 bytes from 10.0.0.5: icmp_seq=12 ttl=64 time=0.672 ms
664 bytes from 10.0.0.4: icmp_seq=13 ttl=64 time=0.569 ms664 bytes from 10.0.0.4: icmp_seq=14 ttl=64 time=0.624 ms664 bytes from 10.0.0.4: icmp_seq=15 ttl=64 time=0.487 ms664 bytes from 10.0.0.4: icmp_seq=16 ttl=64 time=0.649 ms

--- 10.0.0.4 ping statistics ---
16 packets transmitted, 16 received, 0% packet loss, time 76780ms
rtt min/avg/max/mdev = 0.427/0.643/1.135/0.173 ms
