PING 10.0.0.4 (10.0.0.4) 56(84) bytes of data.
64 bytes from 10.0.0.4: icmp_seq=1 ttl=64 time=1.12 ms
64 bytes from 10.0.0.4: icmp_seq=2 ttl=64 time=0.540 ms
64 bytes from 10.0.0.4: icmp_seq=3 ttl=64 time=0.643 ms
64 bytes from 10.0.0.4: icmp_seq=4 ttl=64 time=0.494 ms
64 bytes from 10.0.0.4: icmp_seq=5 ttl=64 time=0.445 ms
64 bytes from 10.0.0.4: icmp_seq=6 ttl=64 time=0.683 ms
64 bytes from 10.0.0.4: icmp_seq=7 ttl=64 time=0.516 ms
664 bytes from 10.0.0.5: icmp_seq=8 ttl=64 time=0.632 ms64 bytes from 10.0.0.4: icmp_seq=9 ttl=64 time=0.747 ms
664 bytes from 10.0.0.5: icmp_seq=10 ttl=64 time=0.608 ms664 bytes from 10.0.0.5: icmp_seq=11 ttl=64 time=0.459 ms664 bytes from 10.0.0.5: icmp_seq=12 ttl=64 time=0.479 ms664 bytes from 10.0.0.5: icmp_seq=13 ttl=64 time=2.05 ms
64 bytes from 10.0.0.4: icmp_seq=14 ttl=64 time=0.627 ms
64 bytes from 10.0.0.4: icmp_seq=15 ttl=64 time=0.599 ms
64 bytes from 10.0.0.4: icmp_seq=16 ttl=64 time=0.734 ms

--- 10.0.0.4 ping statistics ---
16 packets transmitted, 16 received, 0% packet loss, time 76654ms
rtt min/avg/max/mdev = 0.433/0.604/1.124/0.164 ms
