PING 10.0.0.5 (10.0.0.5) 56(84) bytes of data.
64 bytes from 10.0.0.5: icmp_seq=1 ttl=64 time=8.43 ms
64 bytes from 10.0.0.4: icmp_seq=2 ttl=64 time=2.33 ms
664 bytes from 10.0.0.5: icmp_seq=3 ttl=64 time=0.522 ms64 bytes from 10.0.0.4: icmp_seq=4 ttl=64 time=0.520 ms
64 bytes from 10.0.0.4: icmp_seq=5 ttl=64 time=0.642 ms
664 bytes from 10.0.0.5: icmp_seq=6 ttl=64 time=0.577 ms64 bytes from 10.0.0.4: icmp_seq=7 ttl=64 time=0.973 ms
664 bytes from 10.0.0.5: icmp_seq=8 ttl=64 time=0.524 ms664 bytes from 10.0.0.5: icmp_seq=9 ttl=64 time=0.495 ms664 bytes from 10.0.0.5: icmp_seq=10 ttl=64 time=1.33 ms64 bytes from 10.0.0.4: icmp_seq=11 ttl=64 time=8.34 ms
6464 bytes from 10.0.0.5: icmp_seq=12 ttl=64 time=0.544 m6464 bytes from 10.0.0.5: icmp_seq=13 ttl=64 time=6.73 ms64 bytes from 10.0.0.4: icmp_seq=14 ttl=64 time=0.730 ms
64 bytes from 10.0.0.4: icmp_seq=15 ttl=64 time=3.46 ms
6464 bytes from 10.0.0.5: icmp_seq=16 ttl=64 time=0.658 ms

--- 10.0.0.5 ping statistics ---
16 packets transmitted, 16 received, 0% packet loss, time 76311ms
rtt min/avg/max/mdev = 0.408/1.536/8.432/2.316 ms
