PING 10.0.0.5 (10.0.0.5) 56(84) bytes of data.
64 bytes from 10.0.0.5: icmp_seq=1 ttl=64 time=0.979 ms
64 bytes from 10.0.0.5: icmp_seq=2 ttl=64 time=0.577 ms
64 bytes from 10.0.0.5: icmp_seq=3 ttl=64 time=0.801 ms
64 bytes from 10.0.0.5: icmp_seq=4 ttl=64 time=0.882 ms
64 bytes from 10.0.0.5: icmp_seq=5 ttl=64 time=1.46 ms
664 bytes from 10.0.0.4: icmp_seq=6 ttl=64 time=0.576 ms64 bytes from 10.0.0.5: icmp_seq=7 ttl=64 time=2.27 ms
6464 bytes from 10.0.0.4: icmp_seq=8 ttl=64 time=0.417 m64 bytes from 10.0.0.5: icmp_seq=9 ttl=64 time=4.83 ms
64 64 bytes from 10.0.0.4: icmp_seq=10 ttl=64 time=0.500 64 64 bytes from 10.0.0.4: icmp_seq=11 ttl=64 time=0.683 64 bytes from 10.0.0.5: icmp_seq=12 ttl=64 time=1.51 ms
64 b64 bytes from 10.0.0.4: icmp_seq=13 ttl=64 time=0.42164 b64 bytes from 10.0.0.4: icmp_seq=14 ttl=64 time=0.87364 b64 bytes from 10.0.0.4: icmp_seq=15 ttl=64 time=1.10 64 bytes from 10.0.0.5: icmp_seq=16 ttl=64 time=0.888 ms

--- 10.0.0.5 ping statistics ---
16 packets transmitted, 16 received, 0% packet loss, time 76643ms
rtt min/avg/max/mdev = 0.420/1.159/4.835/1.054 ms
ms
