PING 10.0.0.5 (10.0.0.5) 56(84) bytes of data.
64 bytes from 10.0.0.5: icmp_seq=1 ttl=64 time=2.67 ms
664 bytes from 10.0.0.4: icmp_seq=2 ttl=64 time=1.05 ms
64 bytes from 10.0.0.5: icmp_seq=3 ttl=64 time=0.676 ms
64 bytes from 10.0.0.5: icmp_seq=4 ttl=64 time=0.519 ms
64 bytes from 10.0.0.5: icmp_seq=5 ttl=64 time=0.528 ms
64 bytes from 10.0.0.4: icmp_seq=6 ttl=64 time=0.488 ms664 bytes from 10.0.0.4: icmp_seq=7 ttl=64 time=0.505 ms64 bytes from 10.0.0.5: icmp_seq=8 ttl=64 time=0.465 ms
64 bytes from 10.0.0.5: icmp_seq=9 ttl=64 time=0.416 ms
64 bytes from 10.0.0.5: icmp_seq=10 ttl=64 time=5.16 ms
664 bytes from 10.0.0.4: icmp_seq=11 ttl=64 time=0.521 ms664 bytes from 10.0.0.4: icmp_seq=12 ttl=64 time=0.618 ms664 bytes from 10.0.0.4: icmp_seq=13 ttl=64 time=0.551 ms664 bytes from 10.0.0.4: icmp_seq=14 ttl=64 time=0.651 ms664 bytes from 10.0.0.4: icmp_seq=15 ttl=64 time=4.09 ms664 bytes from 10.0.0.4: icmp_seq=16 ttl=64 time=1.40 ms

--- 10.0.0.4 ping statistics ---
16 packets transmitted, 16 received, 0% packet loss, time 76570ms
rtt min/avg/max/mdev = 0.455/1.160/5.212/1.358 ms
