PING 10.0.0.4 (10.0.0.4) 56(84) bytes of data.
64 bytes from 10.0.0.4: icmp_seq=1 ttl=64 time=8.13 ms
64 bytes from 10.0.0.4: icmp_seq=2 ttl=64 time=4.09 ms
64 bytes from 10.0.0.4: icmp_seq=3 ttl=64 time=0.516 ms
64 bytes from 10.0.0.4: icmp_seq=4 ttl=64 time=1.24 ms
664 bytes from 10.0.0.5: icmp_seq=5 ttl=64 time=0.781 ms664 bytes from 10.0.0.5: icmp_seq=6 ttl=64 time=0.391 m6464 bytes from 10.0.0.5: icmp_seq=7 ttl=64 time=0.468 m6464 bytes from 10.0.0.5: icmp_seq=8 ttl=64 time=0.651 m6464 bytes from 10.0.0.5: icmp_seq=9 ttl=64 time=6.39 ms664 bytes from 10.0.0.5: icmp_seq=10 ttl=64 time=0.520 m6464 bytes from 10.0.0.5: icmp_seq=11 ttl=64 time=0.716 m6464 bytes from 10.0.0.5: icmp_seq=12 ttl=64 time=2.52 ms664 bytes from 10.0.0.5: icmp_seq=13 ttl=64 time=0.599 ms664 bytes from 10.0.0.5: icmp_seq=14 ttl=64 time=1.16 ms
64 bytes from 10.0.0.5: icmp_seq=15 ttl=64 time=0.913 ms
64 bytes from 10.0.0.5: icmp_seq=16 ttl=64 time=0.818 ms

--- 10.0.0.5 ping statistics ---
16 packets transmitted, 16 received, 0% packet loss, time 76560ms
rtt min/avg/max/mdev = 0.391/1.595/6.391/1.786 ms
