PING 10.0.0.4 (10.0.0.4) 56(84) bytes of data.
64 bytes from 10.0.0.4: icmp_seq=1 ttl=64 time=0.866 ms664 bytes from 10.0.0.4: icmp_seq=2 ttl=64 time=0.620 ms664 bytes from 10.0.0.4: icmp_seq=3 ttl=64 time=0.552 ms664 bytes from 10.0.0.4: icmp_seq=4 ttl=64 time=0.599 ms664 bytes from 10.0.0.4: icmp_seq=5 ttl=64 time=0.590 ms664 bytes from 10.0.0.4: icmp_seq=6 ttl=64 time=0.621 ms664 bytes from 10.0.0.4: icmp_seq=7 ttl=64 time=0.407 ms664 bytes from 10.0.0.4: icmp_seq=8 ttl=64 time=0.566 ms664 bytes from 10.0.0.4: icmp_seq=9 ttl=64 time=0.497 ms64 bytes from 10.0.0.5: icmp_seq=10 ttl=64 time=0.530 ms
64 bytes from 10.0.0.5: icmp_seq=11 ttl=64 time=0.586 ms
64 bytes from 10.0.0.5: icmp_seq=12 ttl=64 time=0.721 ms
664 bytes from 10.0.0.4: icmp_seq=13 ttl=64 time=0.440 ms664 bytes from 10.0.0.4: icmp_seq=14 ttl=64 time=0.473 ms664 bytes from 10.0.0.4: icmp_seq=15 ttl=64 time=0.611 ms664 bytes from 10.0.0.4: icmp_seq=16 ttl=64 time=0.950 ms

--- 10.0.0.4 ping statistics ---
16 packets transmitted, 16 received, 0% packet loss, time 76682ms
rtt min/avg/max/mdev = 0.407/0.593/0.950/0.142 ms
