PING 10.0.0.4 (10.0.0.4) 56(84) bytes of data.
64 bytes from 10.0.0.4: icmp_seq=1 ttl=64 time=0.642 ms
64 bytes from 10.0.0.4: icmp_seq=2 ttl=64 time=0.458 ms
64 bytes from 10.0.0.4: icmp_seq=3 ttl=64 time=1.52 ms
64 bytes from 10.0.0.4: icmp_seq=4 ttl=64 time=0.973 ms664 bytes from 10.0.0.4: icmp_seq=5 ttl=64 time=0.545 ms664 bytes from 10.0.0.4: icmp_seq=6 ttl=64 time=9.14 ms664 bytes from 10.0.0.4: icmp_seq=7 ttl=64 time=1.71 ms64 bytes from 10.0.0.5: icmp_seq=8 ttl=64 time=5.97 ms
664 bytes from 10.0.0.4: icmp_seq=9 ttl=64 time=4.68 ms
64 bytes from 10.0.0.5: icmp_seq=10 ttl=64 time=6.90 ms
64 bytes from 10.0.0.5: icmp_seq=11 ttl=64 time=0.877 ms
64 bytes from 10.0.0.5: icmp_seq=12 ttl=64 time=5.22 ms
64 bytes from 10.0.0.5: icmp_seq=13 ttl=64 time=1.49 ms
64 bytes from 10.0.0.5: icmp_seq=14 ttl=64 time=0.479 ms
64 bytes from 10.0.0.5: icmp_seq=15 ttl=64 time=2.45 ms
6464 bytes from 10.0.0.4: icmp_seq=16 ttl=64 time=0.615 ms

--- 10.0.0.4 ping statistics ---
16 packets transmitted, 16 received, 0% packet loss, time 75766ms
rtt min/avg/max/mdev = 0.452/1.950/9.147/2.405 ms
