PING 10.0.0.4 (10.0.0.4) 56(84) bytes of data.
64 bytes from 10.0.0.4: icmp_seq=1 ttl=64 time=0.777 ms664 bytes from 10.0.0.4: icmp_seq=2 ttl=64 time=0.714 m6464 bytes from 10.0.0.4: icmp_seq=3 ttl=64 time=0.922 m6464 bytes from 10.0.0.4: icmp_seq=4 ttl=64 time=0.464 m6464 bytes from 10.0.0.4: icmp_seq=5 ttl=64 time=0.576 m6464 bytes from 10.0.0.4: icmp_seq=6 ttl=64 time=0.696 m6464 bytes from 10.0.0.4: icmp_seq=7 ttl=64 time=0.584 m6464 bytes from 10.0.0.4: icmp_seq=8 ttl=64 time=0.534 m6464 bytes from 10.0.0.4: icmp_seq=9 ttl=64 time=0.478 64 64 bytes from 10.0.0.4: icmp_seq=10 ttl=64 time=0.648 64 64 bytes from 10.0.0.4: icmp_seq=11 ttl=64 time=0.567 64 64 bytes from 10.0.0.4: icmp_seq=12 ttl=64 time=0.491 64 64 bytes from 10.0.0.4: icmp_seq=13 ttl=64 time=0.454 64 64 bytes from 10.0.0.4: icmp_seq=14 ttl=64 time=0.540 64 64 bytes from 10.0.0.4: icmp_seq=15 ttl=64 time=0.732 64 64 bytes from 10.0.0.4: icmp_seq=16 ttl=64 time=0.781 ms

--- 10.0.0.4 ping statistics ---
16 packets transmitted, 16 received, 0% packet loss, time 76709ms
rtt min/avg/max/mdev = 0.454/0.622/0.922/0.133 ms
