PING 10.0.0.4 (10.0.0.4) 56(84) bytes of data.
64 bytes from 10.0.0.4: icmp_seq=1 ttl=64 time=0.728 ms
64 bytes from 10.0.0.4: icmp_seq=2 ttl=64 time=0.661 ms
64 bytes from 10.0.0.5: icmp_seq=3 ttl=64 time=0.476 ms
64 bytes from 10.0.0.5: icmp_seq=4 ttl=64 time=0.555 ms
64 bytes from 10.0.0.5: icmp_seq=5 ttl=64 time=0.595 ms
64 bytes from 10.0.0.5: icmp_seq=6 ttl=64 time=1.58 ms
664 bytes from 10.0.0.4: icmp_seq=7 ttl=64 time=0.512 ms664 bytes from 10.0.0.4: icmp_seq=8 ttl=64 time=0.739 ms664 bytes from 10.0.0.4: icmp_seq=9 ttl=64 time=0.531 ms664 bytes from 10.0.0.4: icmp_seq=10 ttl=64 time=5.85 ms
64 bytes from 10.0.0.5: icmp_seq=11 ttl=64 time=0.528 ms
64 bytes from 10.0.0.5: icmp_seq=12 ttl=64 time=0.522 ms
64 bytes from 10.0.0.4: icmp_seq=13 ttl=64 time=0.448 ms
64 bytes from 10.0.0.5: icmp_seq=14 ttl=64 time=0.659 ms
64 bytes from 10.0.0.5: icmp_seq=15 ttl=64 time=0.563 ms
64 bytes from 10.0.0.4: icmp_seq=16 ttl=64 time=0.646 ms

--- 10.0.0.4 ping statistics ---
16 packets transmitted, 16 received, 0% packet loss, time 76619ms
rtt min/avg/max/mdev = 0.366/0.912/5.851/1.281 ms
