PING 10.0.0.4 (10.0.0.4) 56(84) bytes of data.
64 bytes from 10.0.0.4: icmp_seq=1 ttl=64 time=6.62 ms
64 bytes from 10.0.0.4: icmp_seq=2 ttl=64 time=0.352 ms
64 bytes from 10.0.0.4: icmp_seq=3 ttl=64 time=0.556 ms
64 bytes from 10.0.0.4: icmp_seq=4 ttl=64 time=0.537 ms
64 bytes from 10.0.0.4: icmp_seq=5 ttl=64 time=0.441 ms664 bytes from 10.0.0.4: icmp_seq=6 ttl=64 time=0.358 ms664 bytes from 10.0.0.4: icmp_seq=7 ttl=64 time=0.472 ms664 bytes from 10.0.0.4: icmp_seq=8 ttl=64 time=0.755 ms664 bytes from 10.0.0.4: icmp_seq=9 ttl=64 time=0.579 ms664 bytes from 10.0.0.4: icmp_seq=10 ttl=64 time=0.702 ms664 bytes from 10.0.0.4: icmp_seq=11 ttl=64 time=0.613 ms664 bytes from 10.0.0.4: icmp_seq=12 ttl=64 time=0.652 ms664 bytes from 10.0.0.4: icmp_seq=13 ttl=64 time=0.599 ms664 bytes from 10.0.0.4: icmp_seq=14 ttl=64 time=0.586 ms664 bytes from 10.0.0.4: icmp_seq=15 ttl=64 time=0.607 ms664 bytes from 10.0.0.4: icmp_seq=16 ttl=64 time=0.690 ms

--- 10.0.0.4 ping statistics ---
16 packets transmitted, 16 received, 0% packet loss, time 76658ms
rtt min/avg/max/mdev = 0.352/0.945/6.624/1.470 ms
