PING 10.0.0.5 (10.0.0.5) 56(84) bytes of data.
64 bytes from 10.0.0.5: icmp_seq=1 ttl=64 time=8.14 ms
64 bytes from 10.0.0.5: icmp_seq=2 ttl=64 time=0.810 ms
64 bytes from 10.0.0.5: icmp_seq=3 ttl=64 time=0.519 ms
64 bytes from 10.0.0.5: icmp_seq=4 ttl=64 time=0.511 ms
664 bytes from 10.0.0.4: icmp_seq=5 ttl=64 time=1.00 ms
64 bytes from 10.0.0.5: icmp_seq=6 ttl=64 time=0.471 ms
64 bytes from 10.0.0.5: icmp_seq=7 ttl=64 time=0.446 ms
64 bytes from 10.0.0.5: icmp_seq=8 ttl=64 time=0.537 ms
64 bytes from 10.0.0.4: icmp_seq=9 ttl=64 time=1.81 ms
664 bytes from 10.0.0.5: icmp_seq=10 ttl=64 time=0.521 ms664 bytes from 10.0.0.5: icmp_seq=11 ttl=64 time=0.912 ms64 bytes from 10.0.0.4: icmp_seq=12 ttl=64 time=0.519 ms
64 bytes from 10.0.0.4: icmp_seq=13 ttl=64 time=0.436 ms
664 bytes from 10.0.0.5: icmp_seq=14 ttl=64 time=0.491 ms64 bytes from 10.0.0.4: icmp_seq=15 ttl=64 time=0.429 ms
64 bytes from 10.0.0.4: icmp_seq=16 ttl=64 time=0.870 ms

--- 10.0.0.4 ping statistics ---
16 packets transmitted, 16 received, 0% packet loss, time 76586ms
rtt min/avg/max/mdev = 0.404/0.679/1.816/0.348 ms

