PING 10.0.0.4 (10.0.0.4) 56(84) bytes of data.
64 bytes from 10.0.0.4: icmp_seq=1 ttl=64 time=0.655 ms
64 bytes from 10.0.0.4: icmp_seq=2 ttl=64 time=0.626 ms
64 bytes from 10.0.0.5: icmp_seq=3 ttl=64 time=0.646 ms
64 bytes from 10.0.0.5: icmp_seq=4 ttl=64 time=0.541 ms
64 bytes from 10.0.0.5: icmp_seq=5 ttl=64 time=0.735 ms
64 bytes from 10.0.0.5: icmp_seq=6 ttl=64 time=0.460 ms
64 bytes from 10.0.0.4: icmp_seq=7 ttl=64 time=0.460 ms
64 bytes from 10.0.0.4: icmp_seq=8 ttl=64 time=1.13 ms
64 bytes from 10.0.0.5: icmp_seq=9 ttl=64 time=0.435 ms
64 bytes from 10.0.0.4: icmp_seq=10 ttl=64 time=0.582 ms
64 bytes from 10.0.0.4: icmp_seq=11 ttl=64 time=0.728 ms
64 bytes from 10.0.0.5: icmp_seq=12 ttl=64 time=0.444 ms
64 bytes from 10.0.0.4: icmp_seq=13 ttl=64 time=0.721 ms
64 bytes from 10.0.0.4: icmp_seq=14 ttl=64 time=0.509 ms
64 bytes from 10.0.0.5: icmp_seq=15 ttl=64 time=0.402 ms
64 bytes from 10.0.0.5: icmp_seq=16 ttl=64 time=0.677 ms

--- 10.0.0.5 ping statistics ---
16 packets transmitted, 16 received, 0% packet loss, time 76789ms
rtt min/avg/max/mdev = 0.360/0.540/1.040/0.167 ms
