PING 10.0.0.4 (10.0.0.4) 56(84) bytes of data.
64 bytes from 10.0.0.4: icmp_seq=1 ttl=64 time=0.597 ms
64 bytes from 10.0.0.4: icmp_seq=2 ttl=64 time=0.647 ms
64 bytes from 10.0.0.4: icmp_seq=3 ttl=64 time=0.416 ms
64 bytes from 10.0.0.4: icmp_seq=4 ttl=64 time=0.503 ms
64 bytes from 10.0.0.5: icmp_seq=5 ttl=64 time=0.597 ms
64 bytes from 10.0.0.5: icmp_seq=6 ttl=64 time=0.429 ms
64 bytes from 10.0.0.4: icmp_seq=7 ttl=64 time=1.47 ms
664 bytes from 10.0.0.5: icmp_seq=8 ttl=64 time=0.604 ms64 bytes from 10.0.0.4: icmp_seq=9 ttl=64 time=0.606 ms
64 bytes from 10.0.0.4: icmp_seq=10 ttl=64 time=0.647 ms
64 bytes from 10.0.0.4: icmp_seq=11 ttl=64 time=0.776 ms
64 bytes from 10.0.0.4: icmp_seq=12 ttl=64 time=0.531 ms
64 bytes from 10.0.0.4: icmp_seq=13 ttl=64 time=0.546 ms
64 bytes from 10.0.0.4: icmp_seq=14 ttl=64 time=0.582 ms
64 bytes from 10.0.0.4: icmp_seq=15 ttl=64 time=0.541 ms
64 bytes from 10.0.0.4: icmp_seq=16 ttl=64 time=0.785 ms

--- 10.0.0.4 ping statistics ---
16 packets transmitted, 16 received, 0% packet loss, time 76570ms
rtt min/avg/max/mdev = 0.411/0.624/1.478/0.245 ms

