PING 10.0.0.4 (10.0.0.4) 56(84) bytes of data.
64 bytes from 10.0.0.4: icmp_seq=1 ttl=64 time=0.529 ms
64 bytes from 10.0.0.4: icmp_seq=2 ttl=64 time=1.20 ms
64 bytes from 10.0.0.4: icmp_seq=3 ttl=64 time=0.317 ms
664 bytes from 10.0.0.5: icmp_seq=4 ttl=64 time=1.39 ms
64 bytes from 10.0.0.4: icmp_seq=5 ttl=64 time=0.575 ms
64 bytes from 10.0.0.4: icmp_seq=6 ttl=64 time=0.531 ms
64 bytes from 10.0.0.4: icmp_seq=7 ttl=64 time=0.459 ms
64 bytes from 10.0.0.4: icmp_seq=8 ttl=64 time=0.627 ms
64 bytes from 10.0.0.4: icmp_seq=9 ttl=64 time=0.587 ms
64 bytes from 10.0.0.4: icmp_seq=10 ttl=64 time=0.607 ms
64 bytes from 10.0.0.4: icmp_seq=11 ttl=64 time=0.606 ms
64 bytes from 10.0.0.4: icmp_seq=12 ttl=64 time=0.712 ms
64 bytes from 10.0.0.5: icmp_seq=13 ttl=64 time=5.55 ms
64 bytes from 10.0.0.4: icmp_seq=14 ttl=64 time=0.680 ms
64 bytes from 10.0.0.4: icmp_seq=15 ttl=64 time=0.650 ms
64 bytes from 10.0.0.4: icmp_seq=16 ttl=64 time=0.625 ms

--- 10.0.0.4 ping statistics ---
16 packets transmitted, 16 received, 0% packet loss, time 76556ms
rtt min/avg/max/mdev = 0.317/0.663/1.209/0.227 ms
