PING 10.0.0.4 (10.0.0.4) 56(84) bytes of data.
64 bytes from 10.0.0.4: icmp_seq=1 ttl=64 time=0.779 ms664 bytes from 10.0.0.4: icmp_seq=2 ttl=64 time=0.605 ms64 bytes from 10.0.0.5: icmp_seq=3 ttl=64 time=0.436 ms
664 bytes from 10.0.0.4: icmp_seq=4 ttl=64 time=5.16 ms
64 bytes from 10.0.0.5: icmp_seq=5 ttl=64 time=0.436 ms
64 bytes from 10.0.0.5: icmp_seq=6 ttl=64 time=1.07 ms
664 bytes from 10.0.0.4: icmp_seq=7 ttl=64 time=0.438 m6464 bytes from 10.0.0.4: icmp_seq=8 ttl=64 time=0.458 64 64 bytes from 10.0.0.4: icmp_seq=9 ttl=64 time=0.466 64 64 bytes from 10.0.0.4: icmp_seq=10 ttl=64 time=0.429 64 64 bytes from 10.0.0.4: icmp_seq=11 ttl=64 time=0.77464 b64 bytes from 10.0.0.4: icmp_seq=12 ttl=64 time=0.52564 b64 bytes from 10.0.0.4: icmp_seq=13 ttl=64 time=6.66 64 64 bytes from 10.0.0.4: icmp_seq=14 ttl=64 time=0.762 64 64 bytes from 10.0.0.4: icmp_seq=15 ttl=64 time=0.540 64 64 bytes from 10.0.0.4: icmp_seq=16 ttl=64 time=0.679 ms

--- 10.0.0.4 ping statistics ---
16 packets transmitted, 16 received, 0% packet loss, time 76624ms
rtt min/avg/max/mdev = 0.411/1.261/6.664/1.783 ms
