PING 10.0.0.4 (10.0.0.4) 56(84) bytes of data.
64 bytes from 10.0.0.4: icmp_seq=1 ttl=64 time=0.765 ms664 bytes from 10.0.0.4: icmp_seq=2 ttl=64 time=3.31 ms664 bytes from 10.0.0.4: icmp_seq=3 ttl=64 time=0.710 ms664 bytes from 10.0.0.4: icmp_seq=4 ttl=64 time=0.448 ms664 bytes from 10.0.0.4: icmp_seq=5 ttl=64 time=0.598 ms64 bytes from 10.0.0.5: icmp_seq=6 ttl=64 time=0.465 ms
664 bytes from 10.0.0.4: icmp_seq=7 ttl=64 time=0.553 ms664 bytes from 10.0.0.4: icmp_seq=8 ttl=64 time=0.636 ms64 bytes from 10.0.0.5: icmp_seq=9 ttl=64 time=4.11 ms
6464 bytes from 10.0.0.4: icmp_seq=10 ttl=64 time=0.657 m6464 bytes from 10.0.0.4: icmp_seq=11 ttl=64 time=0.428 m6464 bytes from 10.0.0.4: icmp_seq=12 ttl=64 time=0.584 m6464 bytes from 10.0.0.4: icmp_seq=13 ttl=64 time=0.619 m6464 bytes from 10.0.0.4: icmp_seq=14 ttl=64 time=0.562 m64 bytes from 10.0.0.5: icmp_seq=15 ttl=64 time=0.513 ms
64 bytes from 10.0.0.5: icmp_seq=16 ttl=64 time=0.775 ms

--- 10.0.0.5 ping statistics ---
16 packets transmitted, 16 received, 0% packet loss, time 76509ms
rtt min/avg/max/mdev = 0.397/1.406/7.616/1.967 ms
s
