PING 10.0.0.5 (10.0.0.5) 56(84) bytes of data.
64 bytes from 10.0.0.5: icmp_seq=1 ttl=64 time=0.745 ms
64 bytes from 10.0.0.5: icmp_seq=2 ttl=64 time=0.671 ms
64 bytes from 10.0.0.5: icmp_seq=3 ttl=64 time=0.442 ms664 bytes from 10.0.0.5: icmp_seq=4 ttl=64 time=0.334 ms664 bytes from 10.0.0.5: icmp_seq=5 ttl=64 time=0.518 m6464 bytes from 10.0.0.5: icmp_seq=6 ttl=64 time=0.534 m6464 bytes from 10.0.0.5: icmp_seq=7 ttl=64 time=0.512 m6464 bytes from 10.0.0.5: icmp_seq=8 ttl=64 time=0.460 m6464 bytes from 10.0.0.5: icmp_seq=9 ttl=64 time=0.390 m6464 bytes from 10.0.0.5: icmp_seq=10 ttl=64 time=0.448 64 64 bytes from 10.0.0.5: icmp_seq=11 ttl=64 time=0.842 64 64 bytes from 10.0.0.5: icmp_seq=12 ttl=64 time=0.545 64 64 bytes from 10.0.0.5: icmp_seq=13 ttl=64 time=0.555 64 64 bytes from 10.0.0.5: icmp_seq=14 ttl=64 time=0.450 64 64 bytes from 10.0.0.5: icmp_seq=15 ttl=64 time=6.93 m6464 bytes from 10.0.0.5: icmp_seq=16 ttl=64 time=0.643 ms

--- 10.0.0.5 ping statistics ---
16 packets transmitted, 16 received, 0% packet loss, time 76488ms
rtt min/avg/max/mdev = 0.334/0.939/6.939/1.554 ms
