PING 10.0.0.4 (10.0.0.4) 56(84) bytes of data.
64 bytes from 10.0.0.4: icmp_seq=1 ttl=64 time=0.596 ms664 bytes from 10.0.0.4: icmp_seq=2 ttl=64 time=0.913 ms664 bytes from 10.0.0.4: icmp_seq=3 ttl=64 time=0.527 ms664 bytes from 10.0.0.4: icmp_seq=4 ttl=64 time=0.775 ms664 bytes from 10.0.0.4: icmp_seq=5 ttl=64 time=0.609 ms664 bytes from 10.0.0.4: icmp_seq=6 ttl=64 time=0.554 ms664 bytes from 10.0.0.4: icmp_seq=7 ttl=64 time=0.612 ms664 bytes from 10.0.0.4: icmp_seq=8 ttl=64 time=0.595 ms664 bytes from 10.0.0.4: icmp_seq=9 ttl=64 time=0.868 ms664 bytes from 10.0.0.4: icmp_seq=10 ttl=64 time=0.634 ms664 bytes from 10.0.0.4: icmp_seq=11 ttl=64 time=0.609 ms64 bytes from 10.0.0.5: icmp_seq=12 ttl=64 time=0.663 ms
664 bytes from 10.0.0.4: icmp_seq=13 ttl=64 time=7.66 ms
64 bytes from 10.0.0.5: icmp_seq=14 ttl=64 time=3.60 ms
64 bytes from 10.0.0.5: icmp_seq=15 ttl=64 time=1.36 ms
64 bytes from 10.0.0.5: icmp_seq=16 ttl=64 time=1.11 ms

--- 10.0.0.5 ping statistics ---
16 packets transmitted, 16 received, 0% packet loss, time 76542ms
rtt min/avg/max/mdev = 0.333/1.186/6.678/1.612 ms
ms
