PING 10.0.0.5 (10.0.0.5) 56(84) bytes of data.
64 bytes from 10.0.0.5: icmp_seq=1 ttl=64 time=0.890 ms
64 bytes from 10.0.0.5: icmp_seq=2 ttl=64 time=0.484 ms
64 bytes from 10.0.0.4: icmp_seq=3 ttl=64 time=0.399 ms
64 bytes from 10.0.0.4: icmp_seq=4 ttl=64 time=0.698 ms
64 bytes from 10.0.0.4: icmp_seq=5 ttl=64 time=0.716 ms
64 bytes from 10.0.0.4: icmp_seq=6 ttl=64 time=0.619 ms
64 bytes from 10.0.0.4: icmp_seq=7 ttl=64 time=0.449 ms
64 bytes from 10.0.0.4: icmp_seq=8 ttl=64 time=0.654 ms
64 bytes from 10.0.0.4: icmp_seq=9 ttl=64 time=0.645 ms
64 bytes from 10.0.0.4: icmp_seq=10 ttl=64 time=2.21 ms
664 bytes from 10.0.0.5: icmp_seq=11 ttl=64 time=0.692 ms64 bytes from 10.0.0.4: icmp_seq=12 ttl=64 time=2.78 ms
6464 bytes from 10.0.0.5: icmp_seq=13 ttl=64 time=0.480 m64 bytes from 10.0.0.4: icmp_seq=14 ttl=64 time=0.463 ms
64 bytes from 10.0.0.4: icmp_seq=15 ttl=64 time=0.398 ms
64 bytes from 10.0.0.4: icmp_seq=16 ttl=64 time=0.607 ms

--- 10.0.0.4 ping statistics ---
16 packets transmitted, 16 received, 0% packet loss, time 76810ms
rtt min/avg/max/mdev = 0.373/0.777/2.784/0.668 ms
s
