PING 10.0.0.5 (10.0.0.5) 56(84) bytes of data.
64 bytes from 10.0.0.5: icmp_seq=1 ttl=64 time=0.951 ms
64 bytes from 10.0.0.5: icmp_seq=2 ttl=64 time=0.802 ms
64 bytes from 10.0.0.5: icmp_seq=3 ttl=64 time=0.608 ms
64 bytes from 10.0.0.5: icmp_seq=4 ttl=64 time=0.361 ms
64 bytes from 10.0.0.5: icmp_seq=5 ttl=64 time=0.654 ms
64 bytes from 10.0.0.5: icmp_seq=6 ttl=64 time=0.625 ms
64 bytes from 10.0.0.4: icmp_seq=7 ttl=64 time=0.511 ms
64 bytes from 10.0.0.4: icmp_seq=8 ttl=64 time=0.385 ms
64 bytes from 10.0.0.4: icmp_seq=9 ttl=64 time=0.427 ms
64 bytes from 10.0.0.4: icmp_seq=10 ttl=64 time=0.753 ms
64 bytes from 10.0.0.4: icmp_seq=11 ttl=64 time=0.465 ms
64 bytes from 10.0.0.4: icmp_seq=12 ttl=64 time=0.580 ms
64 bytes from 10.0.0.4: icmp_seq=13 ttl=64 time=0.635 ms
64 bytes from 10.0.0.5: icmp_seq=14 ttl=64 time=0.454 ms
64 bytes from 10.0.0.5: icmp_seq=15 ttl=64 time=0.439 ms
64 bytes from 10.0.0.4: icmp_seq=16 ttl=64 time=0.712 ms

--- 10.0.0.4 ping statistics ---
16 packets transmitted, 16 received, 0% packet loss, time 76729ms
rtt min/avg/max/mdev = 0.327/0.527/0.753/0.119 ms
