PING 10.0.0.4 (10.0.0.4) 56(84) bytes of data.
64 bytes from 10.0.0.4: icmp_seq=1 ttl=64 time=9.12 ms
64 bytes from 10.0.0.5: icmp_seq=2 ttl=64 time=6.75 ms
664 bytes from 10.0.0.4: icmp_seq=3 ttl=64 time=0.625 ms664 bytes from 10.0.0.4: icmp_seq=4 ttl=64 time=0.460 ms664 bytes from 10.0.0.4: icmp_seq=5 ttl=64 time=0.492 ms664 bytes from 10.0.0.4: icmp_seq=6 ttl=64 time=0.814 ms664 bytes from 10.0.0.4: icmp_seq=7 ttl=64 time=0.525 ms64 bytes from 10.0.0.5: icmp_seq=8 ttl=64 time=0.750 ms
664 bytes from 10.0.0.4: icmp_seq=9 ttl=64 time=0.680 ms664 bytes from 10.0.0.4: icmp_seq=10 ttl=64 time=9.66 ms664 bytes from 10.0.0.4: icmp_seq=11 ttl=64 time=0.528 ms664 bytes from 10.0.0.4: icmp_seq=12 ttl=64 time=0.943 ms664 bytes from 10.0.0.4: icmp_seq=13 ttl=64 time=0.537 ms664 bytes from 10.0.0.4: icmp_seq=14 ttl=64 time=0.552 ms64 bytes from 10.0.0.5: icmp_seq=15 ttl=64 time=0.443 ms
64 bytes from 10.0.0.5: icmp_seq=16 ttl=64 time=0.612 ms

--- 10.0.0.5 ping statistics ---
16 packets transmitted, 16 received, 0% packet loss, time 76643ms
rtt min/avg/max/mdev = 0.412/1.013/6.754/1.502 ms
