"Dstat 0.7.2 CSV output"
"Author:","Dag Wieers <dag@wieers.com>",,,,"URL:","http://dag.wieers.com/home-made/dstat/"
"Host:","Server3",,,,"User:","mstevan"
"Cmdline:","dstat --output /home/mstevan/logs/experiment_3.2/dstat/vs_1024-vcpr_4-wtpm_8-rep_3.csv 5 16",,,,"Date:","28 Oct 2019 09:58:39 UTC"

"total cpu usage",,,,,,"dsk/total",,"net/total",,"paging",,"system",
"usr","sys","idl","wai","hiq","siq","read","writ","recv","send","in","out","int","csw"
2.162,4.091,92.861,0.301,0.0,0.584,11104.417,1132935.951,0.0,0.0,0.0,0.0,0.097,1344.800
0.600,0.400,99.0,0.0,0.0,0.0,0.0,4096.0,8953.600,74185.0,0.0,0.0,0.0,124.0
2.505,5.010,91.858,0.0,0.0,0.626,0.0,1638.400,355700.0,4682403.200,0.0,0.0,0.0,2104.400
3.151,5.042,91.387,0.0,0.0,0.420,0.0,1638.400,338865.400,4450937.800,0.0,0.0,0.0,2167.400
2.110,4.852,93.038,0.0,0.0,0.0,0.0,1638.400,373225.0,4957575.200,0.0,0.0,0.0,2152.0
2.720,5.021,91.632,0.0,0.0,0.628,0.0,2457.600,375538.200,4946714.600,0.0,0.0,0.0,2011.800
2.505,5.219,92.067,0.0,0.0,0.209,0.0,819.200,364094.0,4836783.800,0.0,0.0,0.0,2096.200
2.911,5.613,90.437,0.416,0.0,0.624,0.0,20480.0,359179.0,4729881.600,0.0,0.0,0.0,2122.400
2.731,4.832,92.437,0.0,0.0,0.0,0.0,1638.400,365750.800,4818729.400,0.0,0.0,0.0,2067.200
2.743,3.797,93.038,0.0,0.0,0.422,0.0,819.200,373070.200,4954302.400,0.0,0.0,0.0,2131.400
2.548,4.883,92.144,0.0,0.0,0.425,0.0,1638.400,369657.400,4864578.800,0.0,0.0,0.0,2140.800
2.548,4.459,92.569,0.0,0.0,0.425,0.0,1638.400,360779.600,4753039.200,0.0,0.0,0.0,2159.0
1.895,5.053,92.842,0.0,0.0,0.211,0.0,2457.600,360184.200,4783027.600,0.0,0.0,0.0,2228.0
2.537,5.074,91.121,0.846,0.0,0.423,0.0,19660.800,369201.0,4865957.0,0.0,0.0,0.0,2222.200
1.474,6.316,91.789,0.0,0.0,0.421,0.0,3276.800,365910.800,4820345.600,0.0,0.0,0.0,2183.200
2.537,3.383,93.658,0.0,0.0,0.423,0.0,819.200,346676.400,4602749.400,0.0,0.0,0.0,2004.800
0.604,0.402,98.994,0.0,0.0,0.0,0.0,1638.400,6214.0,1800.400,0.0,0.0,0.0,70.200
