"Dstat 0.7.2 CSV output"
"Author:","Dag Wieers <dag@wieers.com>",,,,"URL:","http://dag.wieers.com/home-made/dstat/"
"Host:","Server3",,,,"User:","mstevan"
"Cmdline:","dstat --output /home/mstevan/logs/experiment_3.2/dstat/vs_1024-vcpr_32-wtpm_8-rep_2.csv 5 16",,,,"Date:","28 Oct 2019 10:48:23 UTC"

"total cpu usage",,,,,,"dsk/total",,"net/total",,"paging",,"system",
"usr","sys","idl","wai","hiq","siq","read","writ","recv","send","in","out","int","csw"
2.209,4.214,92.696,0.285,0.0,0.596,10315.279,1052745.520,0.0,0.0,0.0,0.0,0.090,1460.331
0.200,0.601,99.198,0.0,0.0,0.0,0.0,819.200,6492.600,42020.800,0.0,0.0,0.0,96.600
3.119,6.445,90.229,0.0,0.0,0.208,0.0,1638.400,353628.400,4649811.800,0.0,0.0,0.0,2240.400
2.725,4.822,90.776,1.048,0.0,0.629,0.0,18841.600,358201.0,4715382.800,0.0,0.0,0.0,2375.800
2.708,5.208,92.083,0.0,0.0,0.0,0.0,1638.400,368340.0,4894485.200,0.0,0.0,0.0,2184.600
2.548,4.034,92.994,0.0,0.0,0.425,0.0,2457.600,371027.600,4889751.200,0.0,0.0,0.0,2156.0
2.720,4.603,92.259,0.0,0.0,0.418,0.0,819.200,378161.600,5026245.800,0.0,0.0,0.0,2218.800
2.526,4.842,92.0,0.0,0.0,0.632,0.0,3276.800,375125.0,4942221.600,0.0,0.0,0.0,2176.800
1.899,5.485,92.194,0.0,0.0,0.422,0.0,1638.400,388902.800,5128542.600,0.0,0.0,0.0,2212.800
2.340,3.830,93.191,0.213,0.0,0.426,0.0,21299.200,368358.200,4882982.800,0.0,0.0,0.200,2204.800
1.695,5.508,92.373,0.0,0.0,0.424,0.0,1638.400,368642.600,4857487.800,0.0,0.0,0.0,2144.200
2.128,4.468,93.191,0.0,0.0,0.213,0.0,1638.400,372806.600,4913370.600,0.0,0.0,0.0,2121.600
2.321,4.430,92.616,0.0,0.0,0.633,0.0,819.200,384873.400,5114500.800,0.0,0.0,0.0,2304.0
2.935,4.612,91.824,0.0,0.0,0.629,0.0,2457.600,373373.0,4922183.0,0.0,0.0,0.0,2161.800
2.311,5.882,91.597,0.0,0.0,0.210,0.0,1638.400,375453.400,4982397.0,0.0,0.0,0.0,2120.800
2.521,4.622,92.227,0.420,0.0,0.210,0.0,14745.600,362288.800,4772672.800,0.0,0.0,0.0,2123.0
0.803,0.201,98.996,0.0,0.0,0.0,0.0,1638.400,6227.200,1800.400,0.0,0.0,0.0,74.200
