"Dstat 0.7.2 CSV output"
"Author:","Dag Wieers <dag@wieers.com>",,,,"URL:","http://dag.wieers.com/home-made/dstat/"
"Host:","Server3",,,,"User:","mstevan"
"Cmdline:","dstat --output /home/mstevan/logs/experiment_3.2/dstat/vs_1024-vcpr_16-wtpm_8-rep_1.csv 5 16",,,,"Date:","28 Oct 2019 10:29:55 UTC"

"total cpu usage",,,,,,"dsk/total",,"net/total",,"paging",,"system",
"usr","sys","idl","wai","hiq","siq","read","writ","recv","send","in","out","int","csw"
2.187,4.160,92.772,0.291,0.0,0.590,10594.935,1081164.302,0.0,0.0,0.0,0.0,0.092,1428.815
0.601,0.401,98.597,0.401,0.0,0.0,0.0,18022.400,8169.200,64497.400,0.0,0.0,0.0,106.200
2.516,4.193,92.453,0.0,0.0,0.839,0.0,6553.600,362223.0,4769374.600,0.0,0.0,0.0,2070.400
2.092,5.230,92.259,0.0,0.0,0.418,0.0,1638.400,350033.400,4609564.800,0.0,0.0,0.0,2030.400
2.296,5.010,92.276,0.0,0.0,0.418,0.0,1638.400,367435.800,4880792.800,0.0,0.0,0.0,2050.400
1.907,4.449,93.220,0.0,0.0,0.424,0.0,1638.400,360803.800,4748068.600,0.0,0.0,0.0,1974.800
2.490,5.187,91.494,0.0,0.0,0.830,0.0,1638.400,372858.0,4914481.200,0.0,0.0,0.0,2001.200
1.684,5.895,92.211,0.0,0.0,0.211,0.0,2457.600,361386.0,4793011.600,0.0,0.0,0.0,1962.800
2.532,4.641,92.194,0.422,0.0,0.211,0.0,15564.800,372005.0,4903916.600,0.0,0.0,0.0,2070.800
1.891,5.042,92.857,0.0,0.0,0.210,0.0,819.200,373159.800,4957411.400,0.0,0.0,0.0,2081.200
2.731,3.992,92.857,0.0,0.0,0.420,0.0,1638.400,368768.0,4859445.200,0.0,0.0,0.0,1922.0
3.119,4.574,91.684,0.0,0.0,0.624,0.0,1638.400,362490.200,4776898.400,0.0,0.0,0.0,1998.800
2.500,5.0,92.083,0.0,0.0,0.417,0.0,819.200,367855.200,4878607.600,0.0,0.0,0.0,1920.0
2.537,4.228,93.023,0.0,0.0,0.211,0.0,1638.400,369532.0,4866859.200,0.0,0.0,0.0,1956.800
2.548,4.034,92.781,0.425,0.0,0.212,0.0,17203.200,361390.600,4761463.600,0.0,0.0,0.0,1972.600
2.096,5.031,92.662,0.0,0.0,0.210,0.0,819.200,366276.400,4866197.400,0.0,0.0,0.0,2075.400
0.810,0.607,98.381,0.0,0.0,0.202,0.0,1638.400,58752.200,704457.800,0.0,0.0,0.0,409.800
