"Dstat 0.7.2 CSV output"
"Author:","Dag Wieers <dag@wieers.com>",,,,"URL:","http://dag.wieers.com/home-made/dstat/"
"Host:","Server3",,,,"User:","mstevan"
"Cmdline:","dstat --output /home/mstevan/logs/experiment_3.2/dstat/vs_1024-vcpr_32-wtpm_32-rep_3.csv 5 16",,,,"Date:","28 Oct 2019 10:55:29 UTC"

"total cpu usage",,,,,,"dsk/total",,"net/total",,"paging",,"system",
"usr","sys","idl","wai","hiq","siq","read","writ","recv","send","in","out","int","csw"
2.214,4.228,92.679,0.283,0.0,0.596,10211.610,1042209.224,0.0,0.0,0.0,0.0,0.089,1469.719
0.605,0.605,98.790,0.0,0.0,0.0,0.0,819.200,10742.200,80253.800,0.0,0.0,0.0,158.400
4.497,9.208,85.439,0.214,0.0,0.642,0.0,18841.600,707065.600,9387959.600,0.0,0.0,0.0,4028.200
4.814,11.160,83.151,0.0,0.0,0.875,0.0,2457.600,787197.400,10467766.600,0.0,0.0,0.0,3876.600
4.034,10.403,83.864,0.0,0.0,1.699,0.0,819.200,788529.0,10520556.0,0.0,0.0,0.0,3881.400
3.471,9.978,85.466,0.0,0.0,1.085,0.0,2457.600,755462.200,10029442.200,0.0,0.0,0.0,3819.0
3.261,9.130,86.522,0.0,0.0,1.087,0.0,819.200,765190.600,10212422.400,0.0,0.0,0.0,3952.200
3.426,10.278,85.011,0.0,0.0,1.285,0.0,3276.800,754351.600,10020258.600,0.0,0.0,0.0,3574.800
5.983,9.188,79.487,3.846,0.0,1.496,0.0,15564.800,775400.800,10307048.200,0.0,0.0,0.0,3729.200
3.478,9.565,85.217,0.0,0.0,1.739,0.0,4096.0,786768.0,10497028.800,0.0,0.0,0.0,3892.0
4.711,9.422,84.368,0.0,0.0,1.499,0.0,1638.400,775161.0,10311572.800,0.0,0.0,0.0,3714.0
4.661,11.017,81.992,0.0,0.0,2.331,0.0,1638.400,790059.0,10495062.400,0.0,0.0,0.0,3758.800
3.050,9.368,86.057,0.0,0.0,1.525,0.0,819.200,790448.200,10545577.400,0.0,0.0,0.0,3947.600
4.731,11.828,81.720,0.0,0.0,1.720,0.0,2457.600,787017.0,10451880.200,0.0,0.0,0.0,3780.600
3.426,11.135,84.154,0.214,0.0,1.071,0.0,15564.800,786845.0,10504523.400,0.0,0.0,0.0,4011.200
5.275,9.231,84.615,0.0,0.0,0.879,0.0,1638.400,759377.400,10091637.0,0.0,0.0,0.0,3732.800
0.811,1.826,97.160,0.0,0.0,0.203,0.0,1638.400,103645.0,1301257.0,0.0,0.0,0.0,906.600
