"Dstat 0.7.2 CSV output"
"Author:","Dag Wieers <dag@wieers.com>",,,,"URL:","http://dag.wieers.com/home-made/dstat/"
"Host:","Server3",,,,"User:","mstevan"
"Cmdline:","dstat --output /home/mstevan/logs/experiment_3.2/dstat/vs_1024-vcpr_32-wtpm_32-rep_1.csv 5 16",,,,"Date:","28 Oct 2019 10:52:39 UTC"

"total cpu usage",,,,,,"dsk/total",,"net/total",,"paging",,"system",
"usr","sys","idl","wai","hiq","siq","read","writ","recv","send","in","out","int","csw"
2.207,4.214,92.700,0.284,0.0,0.594,10252.826,1046399.155,0.0,0.0,0.0,0.0,0.089,1462.325
0.602,0.602,98.795,0.0,0.0,0.0,0.0,1638.400,14082.200,90087.800,0.0,0.0,0.0,154.0
3.433,7.940,87.124,0.0,0.0,1.502,0.0,819.200,716680.600,9559017.600,0.0,0.0,0.0,3991.0
4.857,10.155,83.444,0.0,0.0,1.545,0.0,1638.400,787087.400,10458333.400,0.0,0.0,0.0,3976.800
5.206,8.677,84.599,0.0,0.0,1.518,0.0,2457.600,781453.400,10392207.800,0.0,0.0,0.0,3790.200
3.664,9.483,85.991,0.0,0.0,0.862,0.0,1638.400,743631.0,9912422.400,0.0,0.0,0.0,3891.400
4.615,9.011,84.835,0.440,0.0,1.099,0.0,22937.600,754148.600,10016814.800,0.0,0.0,0.0,3974.200
4.835,10.769,82.857,0.0,0.0,1.538,0.0,3276.800,757644.800,10070346.600,0.0,0.0,0.0,4423.800
4.835,8.132,85.934,0.0,0.0,1.099,0.0,819.200,769602.600,10272040.600,0.0,0.0,0.0,3900.600
5.229,8.715,84.096,0.0,0.0,1.961,0.0,1638.400,775294.0,10307059.200,0.0,0.0,0.0,3898.600
3.261,10.217,85.0,0.0,0.0,1.522,0.0,819.200,769376.0,10267262.800,0.0,0.0,0.0,4017.200
4.158,10.503,83.807,0.0,0.0,1.532,0.0,1638.400,768169.400,10199741.200,0.0,0.0,0.0,3889.400
5.702,8.991,83.553,0.219,0.0,1.535,0.0,15564.800,770930.600,10232993.400,0.0,0.0,0.0,3899.800
3.913,10.435,83.913,0.0,0.0,1.739,0.0,819.200,777086.0,10372384.200,0.0,0.0,0.0,4121.200
5.579,11.373,82.189,0.0,0.0,0.858,0.0,3276.800,785678.0,10447195.0,0.0,0.0,0.0,4083.400
5.664,9.368,84.314,0.0,0.0,0.654,0.0,1638.400,765406.800,10173445.400,0.0,0.0,0.0,4075.600
0.808,1.616,97.374,0.0,0.0,0.202,0.0,819.200,92744.400,1196087.0,0.0,0.0,0.0,847.0
