"Dstat 0.7.2 CSV output"
"Author:","Dag Wieers <dag@wieers.com>",,,,"URL:","http://dag.wieers.com/home-made/dstat/"
"Host:","Server3",,,,"User:","mstevan"
"Cmdline:","dstat --output /home/mstevan/logs/experiment_3.2/dstat/vs_256-vcpr_4-wtpm_32-rep_2.csv 5 16",,,,"Date:","28 Oct 2019 07:46:13 UTC"

"total cpu usage",,,,,,"dsk/total",,"net/total",,"paging",,"system",
"usr","sys","idl","wai","hiq","siq","read","writ","recv","send","in","out","int","csw"
1.895,3.559,93.710,0.318,0.0,0.517,9216.130,1413112.384,0.0,0.0,0.0,0.0,0.120,945.366
0.800,0.400,98.600,0.0,0.0,0.200,0.0,819.200,8908.0,20734.800,0.0,0.0,0.0,137.800
3.609,7.643,87.898,0.212,0.0,0.637,0.0,19660.800,423163.400,1763910.0,0.0,0.0,0.0,4445.400
4.264,7.249,87.207,0.0,0.0,1.279,0.0,1638.400,464520.200,1940816.600,0.0,0.0,0.0,4795.200
3.011,7.527,88.602,0.0,0.0,0.860,0.0,1638.400,464193.200,1951479.600,0.0,0.0,0.0,4869.200
6.608,9.692,82.159,0.0,0.0,1.542,0.0,1638.400,441247.800,1840949.0,0.0,0.0,0.0,4356.0
43.073,24.433,0.252,27.960,0.0,4.282,2694348.800,67993.600,401175.0,1383432.800,0.0,0.0,0.0,2540.0
16.476,10.297,0.0,70.709,0.0,2.517,8486092.800,2457.600,415241.200,1743739.200,0.0,0.0,0.0,3953.0
33.654,9.135,0.0,54.808,0.0,2.404,8310784.0,1638.400,400219.0,1666949.200,0.0,0.0,0.0,3235.200
19.340,10.377,0.0,68.160,0.0,2.123,8039628.800,127795.200,436815.800,1836098.600,0.0,0.0,0.0,3804.400
58.354,14.464,0.0,23.441,0.0,3.741,1839923.200,13117030.400,328502.800,1364071.200,0.0,0.0,0.0,1932.800
82.574,13.137,0.0,0.0,0.0,4.290,0.0,1638.400,291511.800,1208863.800,0.0,0.0,0.0,1060.600
77.212,17.426,0.0,0.0,0.0,5.362,4915.200,1638.400,286752.200,1200865.200,0.0,0.0,0.0,1260.0
86.053,8.947,0.0,0.0,0.0,5.0,0.0,1638.400,291986.0,1209026.200,0.0,0.0,0.0,1064.200
19.196,8.482,70.312,0.0,0.0,2.009,0.0,2457.600,421358.400,1771282.0,0.0,0.0,0.0,3940.0
2.626,7.002,89.059,0.438,0.0,0.875,0.0,26263552.0,459487.200,1918351.0,0.0,0.0,0.0,4731.200
0.602,0.0,99.398,0.0,0.0,0.0,0.0,1638.400,6214.0,1800.400,0.0,0.0,0.200,62.600
