"Dstat 0.7.2 CSV output"
"Author:","Dag Wieers <dag@wieers.com>",,,,"URL:","http://dag.wieers.com/home-made/dstat/"
"Host:","Server3",,,,"User:","mstevan"
"Cmdline:","dstat --output /home/mstevan/logs/experiment_3.2/dstat/vs_256-vcpr_8-wtpm_8-rep_4.csv 5 16",,,,"Date:","28 Oct 2019 08:00:26 UTC"

"total cpu usage",,,,,,"dsk/total",,"net/total",,"paging",,"system",
"usr","sys","idl","wai","hiq","siq","read","writ","recv","send","in","out","int","csw"
1.965,3.612,93.554,0.346,0.0,0.524,13572.750,1383731.743,0.0,0.0,0.0,0.0,0.117,1001.153
0.401,0.200,99.399,0.0,0.0,0.0,0.0,819.200,5368.600,9060.800,0.0,0.0,0.0,86.0
1.911,4.034,93.206,0.212,0.0,0.637,0.0,18841.600,356823.200,1484783.200,0.0,0.0,0.0,2313.0
2.697,5.187,91.701,0.0,0.0,0.415,0.0,1638.400,365105.400,1519861.600,0.0,0.0,0.0,2029.600
1.064,4.255,94.255,0.0,0.0,0.426,0.0,2457.600,356803.400,1496712.200,0.0,0.0,0.0,1999.200
2.725,5.031,91.824,0.0,0.0,0.419,0.0,1638.400,386002.600,1608646.200,0.0,0.0,0.0,2185.400
2.096,4.193,93.082,0.0,0.0,0.629,0.0,819.200,376254.200,1579493.800,0.0,0.0,0.0,2082.0
1.277,4.043,93.830,0.0,0.0,0.851,0.0,3276.800,373521.600,1555022.0,0.0,0.0,0.0,2025.600
2.326,3.805,93.235,0.0,0.0,0.634,0.0,1638.400,359132.800,1494217.400,0.0,0.0,0.0,2062.600
1.486,4.671,92.994,0.425,0.0,0.425,0.0,21299.200,365068.200,1531172.800,0.0,0.0,0.0,2054.0
1.891,4.832,92.647,0.0,0.0,0.630,0.0,1638.400,367844.800,1531234.800,0.0,0.0,0.0,1968.400
2.296,4.593,92.276,0.0,0.0,0.835,0.0,1638.400,363743.600,1514071.400,0.0,0.0,0.0,1983.0
1.684,4.421,93.684,0.0,0.0,0.211,0.0,819.200,368412.200,1546232.400,0.0,0.0,0.0,2023.400
2.935,3.983,92.662,0.0,0.0,0.419,0.0,1638.400,370646.800,1543835.600,0.0,0.0,0.0,1989.200
2.911,4.782,92.100,0.0,0.0,0.208,0.0,2457.600,365605.800,1522241.200,0.0,0.0,0.0,2080.600
2.277,5.383,91.511,0.207,0.0,0.621,0.0,14745.600,369035.0,1548476.600,0.0,0.0,0.0,2000.0
1.200,0.200,98.600,0.0,0.0,0.0,0.0,1638.400,6214.0,1800.400,0.0,0.0,0.0,67.200
