"Dstat 0.7.2 CSV output"
"Author:","Dag Wieers <dag@wieers.com>",,,,"URL:","http://dag.wieers.com/home-made/dstat/"
"Host:","Server3",,,,"User:","mstevan"
"Cmdline:","dstat --output /home/mstevan/logs/experiment_3.2/dstat/vs_256-vcpr_8-wtpm_64-rep_1.csv 5 16",,,,"Date:","28 Oct 2019 08:07:32 UTC"

"total cpu usage",,,,,,"dsk/total",,"net/total",,"paging",,"system",
"usr","sys","idl","wai","hiq","siq","read","writ","recv","send","in","out","int","csw"
1.979,3.646,93.505,0.342,0.0,0.528,13393.831,1365548.963,0.0,0.0,0.0,0.0,0.116,1032.739
0.602,0.201,99.197,0.0,0.0,0.0,0.0,819.200,9488.400,18009.800,0.0,0.0,0.0,136.400
3.226,7.097,87.742,0.215,0.0,1.720,0.0,18841.600,533714.200,2227840.0,0.0,0.0,0.0,4300.800
3.433,6.867,88.412,0.0,0.0,1.288,0.0,4096.0,552988.0,2324197.400,0.0,0.0,0.0,4306.200
3.233,7.759,88.147,0.0,0.0,0.862,0.0,3276.800,565754.200,2366690.800,0.0,0.0,0.0,4360.200
3.664,7.543,87.716,0.0,0.0,1.078,0.0,1638.400,566518.0,2368692.600,0.0,0.0,0.0,4459.400
3.233,7.974,87.500,0.0,0.0,1.293,0.0,819.200,576448.800,2426093.0,0.0,0.0,0.0,4532.600
4.440,8.457,86.047,0.0,0.0,1.057,0.0,3276.800,590222.800,2466452.600,0.0,0.0,0.0,4604.0
5.195,7.576,85.931,0.433,0.0,0.866,0.0,15564.800,588597.800,2461947.0,0.0,0.0,0.0,4473.0
3.448,7.328,87.500,0.0,0.0,1.724,0.0,819.200,593151.0,2495762.400,0.0,0.0,0.200,4832.600
1.996,7.761,89.135,0.0,0.0,1.109,0.0,1638.400,596446.0,2497720.600,0.0,0.0,0.0,4629.0
3.011,7.957,87.957,0.0,0.0,1.075,0.0,819.200,583434.800,2451116.400,0.0,0.0,0.0,4604.800
4.536,7.991,86.177,0.0,0.0,1.296,0.0,1638.400,596609.200,2496856.600,0.0,0.0,0.0,4706.800
3.433,7.725,87.339,0.0,0.0,1.502,0.0,1638.400,593826.200,2485981.800,0.0,0.0,0.0,4584.600
2.778,8.974,86.325,0.427,0.0,1.496,0.0,16384.0,588132.200,2472612.200,0.0,0.0,0.0,4616.400
3.404,9.362,85.745,0.0,0.0,1.489,0.0,1638.400,591166.600,2470748.0,0.0,0.0,0.0,4549.800
0.803,0.201,98.996,0.0,0.0,0.0,0.0,1638.400,6214.0,1800.400,0.0,0.0,0.0,67.600
