"Dstat 0.7.2 CSV output"
"Author:","Dag Wieers <dag@wieers.com>",,,,"URL:","http://dag.wieers.com/home-made/dstat/"
"Host:","Server3",,,,"User:","mstevan"
"Cmdline:","dstat --output /home/mstevan/logs/experiment_3.2/dstat/vs_256-vcpr_8-wtpm_8-rep_2.csv 5 16",,,,"Date:","28 Oct 2019 07:57:35 UTC"

"total cpu usage",,,,,,"dsk/total",,"net/total",,"paging",,"system",
"usr","sys","idl","wai","hiq","siq","read","writ","recv","send","in","out","int","csw"
1.965,3.609,93.554,0.347,0.0,0.525,13645.665,1391143.215,0.0,0.0,0.0,0.0,0.118,997.029
0.604,0.201,99.195,0.0,0.0,0.0,0.0,1638.400,10921.600,20572.0,0.0,0.0,0.0,119.800
2.128,4.043,93.830,0.0,0.0,0.0,0.0,819.200,361140.400,1515437.800,0.0,0.0,0.0,2286.600
2.911,5.405,90.852,0.0,0.0,0.832,0.0,1638.400,370942.400,1543494.400,0.0,0.0,0.0,2292.800
1.899,5.063,92.616,0.0,0.0,0.422,0.0,1638.400,374492.400,1572095.600,0.0,0.0,0.200,2201.0
2.532,3.797,92.827,0.0,0.0,0.844,0.0,2457.600,381869.600,1590868.200,0.0,0.0,0.0,2039.0
2.096,5.451,91.824,0.0,0.0,0.629,0.0,1638.400,372959.800,1553949.400,0.0,0.0,0.0,2084.0
2.105,5.895,91.368,0.632,0.0,0.0,0.0,25395.200,384507.800,1612087.600,0.0,0.0,0.0,2211.200
2.532,4.641,92.405,0.0,0.0,0.422,0.0,1638.400,386748.200,1611756.0,0.0,0.0,0.0,2085.200
1.684,5.263,92.632,0.0,0.0,0.421,0.0,1638.400,375736.600,1564425.0,0.0,0.0,0.0,2021.0
1.677,5.660,92.453,0.0,0.0,0.210,0.0,819.200,364773.0,1531078.400,0.0,0.0,0.0,2057.800
2.680,5.979,90.722,0.0,0.0,0.619,0.0,1638.400,377594.400,1572407.400,0.0,0.0,0.0,2085.600
1.919,4.051,93.177,0.0,0.0,0.853,0.0,1638.400,375350.600,1563360.600,0.0,0.0,0.0,2351.400
2.510,4.603,92.050,0.418,0.0,0.418,0.0,14745.600,380671.800,1598220.800,0.0,0.0,0.0,2264.200
2.340,4.681,92.979,0.0,0.0,0.0,0.0,3276.800,374036.400,1558210.800,0.0,0.0,0.0,2359.200
1.702,3.830,94.043,0.0,0.0,0.426,0.0,819.200,372647.400,1564033.200,0.0,0.0,0.0,2191.200
0.803,0.201,98.996,0.0,0.0,0.0,0.0,1638.400,6214.0,1800.400,0.0,0.0,0.0,71.200
