"Dstat 0.7.2 CSV output"
"Author:","Dag Wieers <dag@wieers.com>",,,,"URL:","http://dag.wieers.com/home-made/dstat/"
"Host:","Server3",,,,"User:","mstevan"
"Cmdline:","dstat --output /home/mstevan/logs/experiment_3.2/dstat/vs_256-vcpr_4-wtpm_32-rep_1.csv 5 16",,,,"Date:","28 Oct 2019 07:44:48 UTC"

"total cpu usage",,,,,,"dsk/total",,"net/total",,"paging",,"system",
"usr","sys","idl","wai","hiq","siq","read","writ","recv","send","in","out","int","csw"
1.893,3.553,93.719,0.319,0.0,0.517,9241.497,1416989.437,0.0,0.0,0.0,0.0,0.121,937.597
0.604,0.402,98.592,0.402,0.0,0.0,0.0,22937.600,12932.600,25202.0,0.0,0.0,0.0,157.400
3.404,5.745,90.213,0.0,0.0,0.638,0.0,819.200,405175.600,1701103.0,0.0,0.0,0.0,4406.200
3.656,6.882,88.602,0.0,0.0,0.860,0.0,1638.400,438101.800,1829069.400,0.0,0.0,0.0,4548.800
2.985,7.676,88.486,0.0,0.0,0.853,0.0,1638.400,444443.400,1855870.200,0.0,0.0,0.0,4601.600
3.486,7.407,88.671,0.0,0.0,0.436,0.0,2457.600,436586.200,1832175.600,0.0,0.0,0.0,4567.400
3.640,6.852,88.223,0.0,0.0,1.285,0.0,1638.400,447090.200,1867039.800,0.0,0.0,0.0,4611.600
3.609,7.006,88.747,0.0,0.0,0.637,0.0,2457.600,447896.800,1881898.200,0.0,0.0,0.0,4736.600
3.212,7.495,88.223,0.214,0.0,0.857,0.0,15564.800,445547.0,1859232.400,0.0,0.0,0.0,4665.0
2.808,7.343,89.201,0.0,0.0,0.648,0.0,1638.400,450597.400,1881316.200,0.0,0.0,0.0,4694.600
2.366,7.312,89.247,0.0,0.0,1.075,0.0,819.200,443779.200,1865938.0,0.0,0.0,0.0,4651.600
3.688,6.725,89.154,0.0,0.0,0.434,0.0,1638.400,440043.400,1835983.400,0.0,0.0,0.0,4502.400
3.233,7.112,88.578,0.0,0.0,1.078,0.0,1638.400,451811.800,1887132.600,0.0,0.0,0.0,4690.0
3.426,7.281,88.865,0.0,0.0,0.428,0.0,1638.400,441425.0,1854965.0,0.0,0.0,0.0,4550.400
3.404,7.660,87.872,0.426,0.0,0.638,0.0,16384.0,441243.800,1841199.400,0.0,0.0,0.0,4422.600
3.017,6.034,90.517,0.0,0.0,0.431,0.0,819.200,428707.400,1800982.800,0.0,0.0,0.0,4255.200
0.802,0.200,98.998,0.0,0.0,0.0,0.0,1638.400,6214.0,1800.400,0.0,0.0,0.0,72.800
