"Dstat 0.7.2 CSV output"
"Author:","Dag Wieers <dag@wieers.com>",,,,"URL:","http://dag.wieers.com/home-made/dstat/"
"Host:","Server3",,,,"User:","mstevan"
"Cmdline:","dstat --output /home/mstevan/logs/experiment_3.2/dstat/vs_256-vcpr_16-wtpm_8-rep_4.csv 5 16",,,,"Date:","28 Oct 2019 08:17:29 UTC"

"total cpu usage",,,,,,"dsk/total",,"net/total",,"paging",,"system",
"usr","sys","idl","wai","hiq","siq","read","writ","recv","send","in","out","int","csw"
1.992,3.679,93.460,0.338,0.0,0.531,13151.113,1340890.889,0.0,0.0,0.0,0.0,0.114,1066.698
0.402,0.402,99.197,0.0,0.0,0.0,0.0,819.200,7332.200,17578.800,0.0,0.0,0.0,106.0
1.688,4.430,93.460,0.0,0.0,0.422,0.0,3276.800,324519.200,1347751.800,0.0,0.0,0.0,2168.0
2.316,4.211,93.053,0.0,0.0,0.421,0.0,1638.400,325865.200,1354185.200,0.0,0.0,0.0,2081.800
1.891,4.412,93.487,0.0,0.0,0.210,0.0,1638.400,344788.600,1446491.400,0.0,0.0,0.0,2036.0
2.326,4.651,92.389,0.423,0.0,0.211,0.0,18841.600,361297.800,1503929.800,0.0,0.0,0.0,2159.200
2.092,4.603,92.678,0.0,0.0,0.628,0.0,819.200,345825.0,1448511.200,0.0,0.0,0.0,2114.600
1.702,3.617,94.255,0.0,0.0,0.426,0.0,3276.800,360127.600,1499032.200,0.0,0.0,0.0,1982.800
2.321,4.430,93.038,0.0,0.0,0.211,0.0,819.200,359876.600,1498398.400,0.0,0.0,0.0,2150.800
1.258,5.451,92.872,0.0,0.0,0.419,0.0,0.0,359626.600,1520243.800,0.0,0.0,0.0,1959.400
1.875,4.792,92.917,0.0,0.0,0.417,0.0,819.200,359407.800,1519657.800,0.0,0.0,0.0,2000.600
2.526,3.579,93.263,0.421,0.0,0.211,0.0,18841.600,357056.200,1499022.0,0.0,0.0,0.0,1936.400
2.479,5.785,91.322,0.0,0.0,0.413,0.0,1638.400,368568.0,1533638.600,0.0,0.0,0.0,2040.200
2.096,4.403,93.082,0.0,0.0,0.419,0.0,819.200,368546.200,1545081.600,0.0,0.0,0.0,1964.0
2.110,4.430,93.249,0.0,0.0,0.211,0.0,3276.800,369446.0,1538310.0,0.0,0.0,0.200,2143.800
2.114,4.017,93.446,0.0,0.0,0.423,0.0,1638.400,363066.400,1512078.200,0.0,0.0,0.0,1990.600
0.406,0.609,98.986,0.0,0.0,0.0,0.0,819.200,23921.400,88453.0,0.0,0.0,0.0,376.800
