"Dstat 0.7.2 CSV output"
"Author:","Dag Wieers <dag@wieers.com>",,,,"URL:","http://dag.wieers.com/home-made/dstat/"
"Host:","Server3",,,,"User:","mstevan"
"Cmdline:","dstat --output /home/mstevan/logs/experiment_3.2/dstat/vs_256-vcpr_4-wtpm_8-rep_3.csv 5 16",,,,"Date:","28 Oct 2019 07:41:57 UTC"

"total cpu usage",,,,,,"dsk/total",,"net/total",,"paging",,"system",
"usr","sys","idl","wai","hiq","siq","read","writ","recv","send","in","out","int","csw"
1.892,3.552,93.719,0.320,0.0,0.517,9292.658,1424811.377,0.0,0.0,0.0,0.0,0.121,933.673
0.998,0.599,98.403,0.0,0.0,0.0,0.0,1638.400,9243.400,13189.800,0.0,0.0,0.0,105.200
1.477,4.219,94.093,0.0,0.0,0.211,0.0,1638.400,333453.800,1398389.400,0.0,0.0,0.0,1929.600
2.083,6.042,91.458,0.0,0.0,0.417,0.0,1638.400,333812.800,1385541.0,0.0,0.0,0.0,2047.0
1.471,5.042,93.067,0.0,0.0,0.420,0.0,2457.600,371891.0,1548958.600,0.0,0.0,0.0,2023.200
2.083,5.0,91.875,0.417,0.0,0.625,0.0,18022.400,372087.0,1561476.400,0.0,0.0,0.200,1993.0
2.731,4.412,92.437,0.0,0.0,0.420,0.0,1638.400,371321.400,1546732.200,0.0,0.0,0.0,2023.0
2.725,4.612,91.824,0.0,0.0,0.839,0.0,3276.800,384233.600,1600969.400,0.0,0.0,0.0,2141.400
2.101,4.202,93.277,0.0,0.0,0.420,0.0,819.200,360938.600,1513868.600,0.0,0.0,0.0,2070.800
1.895,4.211,93.263,0.0,0.0,0.632,0.0,1638.400,359635.800,1496404.0,0.0,0.0,0.0,1982.400
2.714,4.175,92.484,0.0,0.0,0.626,0.0,1638.400,356469.800,1482590.200,0.0,0.0,0.0,1871.400
2.301,4.603,92.469,0.418,0.0,0.209,0.0,18022.400,360853.0,1514445.400,0.0,0.0,0.0,1994.200
2.096,4.612,93.082,0.0,0.0,0.210,0.0,1638.400,356466.400,1484123.400,0.0,0.0,0.0,1801.200
2.079,4.574,93.139,0.0,0.0,0.208,0.0,819.200,348863.200,1463506.800,0.0,0.0,0.0,1953.800
2.101,4.832,92.647,0.0,0.0,0.420,0.0,3276.800,362316.600,1507983.400,0.0,0.0,0.0,1989.200
2.516,5.241,91.824,0.0,0.0,0.419,0.0,1638.400,348143.800,1446688.0,0.0,0.0,0.0,1941.800
0.399,0.399,99.002,0.0,0.0,0.200,0.0,819.200,3127.0,935.600,0.0,0.0,0.0,63.600
