"Dstat 0.7.2 CSV output"
"Author:","Dag Wieers <dag@wieers.com>",,,,"URL:","http://dag.wieers.com/home-made/dstat/"
"Host:","Server3",,,,"User:","mstevan"
"Cmdline:","dstat --output /home/mstevan/logs/experiment_3.2/dstat/vs_256-vcpr_8-wtpm_64-rep_3.csv 5 16",,,,"Date:","28 Oct 2019 08:10:23 UTC"

"total cpu usage",,,,,,"dsk/total",,"net/total",,"paging",,"system",
"usr","sys","idl","wai","hiq","siq","read","writ","recv","send","in","out","int","csw"
1.985,3.662,93.482,0.341,0.0,0.530,13323.577,1358415.741,0.0,0.0,0.0,0.0,0.115,1046.954
0.802,0.401,98.798,0.0,0.0,0.0,0.0,1638.400,14539.600,25335.400,0.0,0.0,0.0,162.0
3.011,6.882,88.817,0.0,0.0,1.290,0.0,819.200,530822.600,2226620.0,0.0,0.0,0.0,4312.600
3.043,7.609,88.043,0.0,0.0,1.304,0.0,2457.600,576234.400,2406483.800,0.0,0.0,0.0,4455.800
4.873,8.898,84.534,0.0,0.0,1.695,0.0,2457.600,582841.400,2438774.800,0.0,0.0,0.0,4487.400
3.688,7.158,87.636,0.434,0.0,1.085,0.0,18022.400,587365.600,2467728.200,0.0,0.0,0.0,4516.600
3.240,8.423,87.473,0.0,0.0,0.864,0.0,1638.400,590598.0,2473373.800,0.0,0.0,0.0,4562.600
3.254,7.809,87.419,0.0,0.0,1.518,0.0,2457.600,592425.200,2490980.800,0.0,0.0,0.0,4577.800
3.648,8.798,86.266,0.0,0.0,1.288,0.0,1638.400,590838.400,2474005.600,0.0,0.0,0.0,4554.200
3.854,8.779,86.296,0.0,0.0,1.071,0.0,1638.400,602131.0,2519903.200,0.0,0.0,0.0,4643.0
3.922,8.715,86.057,0.0,0.0,1.307,0.0,819.200,581900.800,2446497.0,0.0,0.0,0.0,4417.800
4.246,8.493,85.350,0.212,0.0,1.699,0.0,16384.0,592001.200,2476720.800,0.0,0.0,0.0,4537.0
4.936,7.511,86.481,0.0,0.0,1.073,0.0,5734.400,582939.0,2438445.200,0.0,0.0,0.0,4642.0
3.426,7.923,87.366,0.0,0.0,1.285,0.0,819.200,589386.0,2478315.800,0.0,0.0,0.0,4536.600
3.433,7.296,87.768,0.0,0.0,1.502,0.0,3276.800,573805.600,2400624.200,0.0,0.0,0.0,4374.600
3.426,7.495,88.009,0.0,0.0,1.071,0.0,819.200,559319.600,2349015.800,0.0,0.0,0.0,4265.0
0.602,0.201,99.197,0.0,0.0,0.0,0.0,1638.400,6214.0,1800.400,0.0,0.0,0.0,75.400
