"Dstat 0.7.2 CSV output"
"Author:","Dag Wieers <dag@wieers.com>",,,,"URL:","http://dag.wieers.com/home-made/dstat/"
"Host:","Server3",,,,"User:","mstevan"
"Cmdline:","dstat --output /home/mstevan/logs/experiment_3.2/dstat/vs_256-vcpr_16-wtpm_64-rep_3.csv 5 16",,,,"Date:","28 Oct 2019 08:27:26 UTC"

"total cpu usage",,,,,,"dsk/total",,"net/total",,"paging",,"system",
"usr","sys","idl","wai","hiq","siq","read","writ","recv","send","in","out","int","csw"
2.013,3.733,93.381,0.333,0.0,0.540,12917.035,1317103.636,0.0,0.0,0.0,0.0,0.112,1100.152
0.600,0.800,98.600,0.0,0.0,0.0,0.0,1638.400,13398.600,21411.400,0.0,0.0,0.0,149.800
4.793,7.190,86.492,0.0,0.0,1.525,0.0,1638.400,716048.800,3000247.0,0.0,0.0,0.0,4064.200
3.656,7.957,86.667,0.0,0.0,1.720,0.0,819.200,747069.600,3147077.600,0.0,0.0,0.0,3917.400
2.637,8.571,87.473,0.0,0.0,1.319,0.0,3276.800,736773.400,3086754.0,0.0,0.0,0.0,3964.200
3.896,9.091,85.714,0.0,0.0,1.299,0.0,819.200,748190.800,3141177.200,0.0,0.0,0.0,3818.200
3.004,9.227,85.408,0.644,0.0,1.717,0.0,18841.600,754109.0,3179798.200,0.0,0.0,0.0,4162.800
5.128,7.051,86.325,0.0,0.0,1.496,0.0,3276.800,745940.800,3124738.800,0.0,0.0,0.0,3798.400
4.348,8.261,86.087,0.0,0.0,1.304,0.0,819.200,787033.800,3318406.600,0.0,0.0,0.0,3936.400
4.449,11.229,83.051,0.0,0.0,1.271,0.0,1638.400,779741.600,3276604.600,0.0,0.0,0.0,4010.800
4.595,9.628,84.683,0.0,0.0,1.094,0.0,1638.400,770687.800,3233425.0,0.0,0.0,0.0,3986.200
3.471,8.894,85.900,0.0,0.0,1.735,0.0,819.200,794504.0,3347449.200,0.0,0.0,0.0,4376.600
4.632,10.526,82.316,0.0,0.0,2.526,0.0,19660.800,789068.200,3313465.800,0.0,0.0,0.0,4069.600
3.463,10.390,83.983,0.0,0.0,2.165,0.0,1638.400,796394.600,3342246.200,0.0,0.0,0.0,4107.600
4.310,8.836,85.129,0.0,0.0,1.724,0.0,2457.600,777998.800,3280402.600,0.0,0.0,0.0,4121.0
4.565,8.478,86.087,0.0,0.0,0.870,0.0,1638.400,784117.200,3285639.800,0.0,0.0,0.0,4043.400
0.401,0.802,98.397,0.0,0.0,0.401,0.0,819.200,16324.600,32178.800,0.0,0.0,0.0,221.400
