"Dstat 0.7.2 CSV output"
"Author:","Dag Wieers <dag@wieers.com>",,,,"URL:","http://dag.wieers.com/home-made/dstat/"
"Host:","Server3",,,,"User:","mstevan"
"Cmdline:","dstat --output /home/mstevan/logs/experiment_3.2/dstat/vs_256-vcpr_32-wtpm_32-rep_2.csv 5 16",,,,"Date:","28 Oct 2019 08:37:22 UTC"

"total cpu usage",,,,,,"dsk/total",,"net/total",,"paging",,"system",
"usr","sys","idl","wai","hiq","siq","read","writ","recv","send","in","out","int","csw"
2.025,3.764,93.339,0.329,0.0,0.542,12691.163,1294150.134,0.0,0.0,0.0,0.0,0.110,1123.533
0.402,0.402,99.197,0.0,0.0,0.0,0.0,819.200,9706.200,23999.800,0.0,0.0,0.0,127.0
4.783,7.174,86.522,0.0,0.0,1.522,0.0,1638.400,730564.200,3065240.400,0.0,0.0,0.0,4044.800
4.158,10.941,82.713,0.656,0.0,1.532,0.0,19660.800,803855.200,3376191.0,0.0,0.0,0.0,4377.800
3.486,9.804,85.621,0.0,0.0,1.089,0.0,1638.400,803886.200,3388447.200,0.0,0.0,0.0,4234.200
4.113,8.442,86.147,0.0,0.0,1.299,0.0,2457.600,753653.400,3158561.0,0.0,0.0,0.0,3761.0
4.536,10.367,83.801,0.0,0.0,1.296,0.0,819.200,783487.400,3293576.600,0.0,0.0,0.0,3868.0
4.691,9.382,84.435,0.0,0.0,1.493,0.0,3276.800,803176.400,3382292.0,0.0,0.0,0.0,3920.400
4.376,7.877,86.214,0.0,0.0,1.532,0.0,1638.400,782054.400,3283541.600,0.0,0.0,0.0,3761.600
3.822,10.616,83.864,0.0,0.0,1.699,0.0,819.200,786083.0,3313871.800,0.0,0.0,0.0,3937.600
4.585,9.825,84.061,0.218,0.0,1.310,0.0,20480.0,778987.800,3269170.400,0.0,0.0,0.0,3912.600
4.701,10.897,83.120,0.0,0.0,1.282,0.0,1638.400,785312.800,3297045.600,0.0,0.0,0.0,3852.0
4.148,7.424,87.118,0.0,0.0,1.310,0.0,819.200,784965.200,3304590.200,0.0,0.0,0.0,3912.600
4.731,9.462,84.301,0.0,0.0,1.505,0.0,2457.600,782971.800,3287265.200,0.0,0.0,0.0,3899.200
4.772,12.148,82.213,0.0,0.0,0.868,0.0,2457.600,802640.0,3373203.600,0.0,0.0,0.0,4006.600
3.939,8.753,86.433,0.0,0.0,0.875,0.0,1638.400,797846.0,3362498.200,0.0,0.0,0.0,4025.200
1.215,2.024,96.356,0.405,0.0,0.0,0.0,15564.800,107064.200,426615.200,0.0,0.0,0.0,925.600
