"Dstat 0.7.2 CSV output"
"Author:","Dag Wieers <dag@wieers.com>",,,,"URL:","http://dag.wieers.com/home-made/dstat/"
"Host:","Server3",,,,"User:","mstevan"
"Cmdline:","dstat --output /home/mstevan/logs/experiment_3.2/dstat/vs_256-vcpr_32-wtpm_64-rep_1.csv 5 16",,,,"Date:","28 Oct 2019 08:41:38 UTC"

"total cpu usage",,,,,,"dsk/total",,"net/total",,"paging",,"system",
"usr","sys","idl","wai","hiq","siq","read","writ","recv","send","in","out","int","csw"
2.037,3.794,93.294,0.329,0.0,0.546,12596.740,1284556.399,0.0,0.0,0.0,0.0,0.109,1139.632
0.399,0.599,98.403,0.399,0.0,0.200,0.0,18022.400,10724.0,22838.600,0.0,0.0,0.0,162.400
5.161,10.323,83.011,0.0,0.0,1.505,0.0,9830.400,811755.400,3406354.0,0.0,0.0,0.0,3666.600
5.240,9.607,83.188,0.0,0.0,1.965,0.0,1638.400,917033.800,3855236.400,0.0,0.0,0.0,3706.0
3.712,10.262,84.498,0.0,0.0,1.528,0.0,1638.400,883067.800,3721294.200,0.0,0.0,0.0,3995.0
4.130,9.565,84.783,0.0,0.0,1.522,0.0,2457.600,843585.600,3542308.0,0.0,0.0,0.0,3641.400
4.130,10.217,84.348,0.0,0.0,1.304,0.0,819.200,873894.800,3681183.200,0.0,0.0,0.0,3682.600
6.197,11.111,80.556,0.0,0.0,2.137,0.0,4096.0,899978.0,3784260.200,0.0,0.0,0.0,3697.600
5.0,10.217,82.174,0.435,0.0,2.174,0.0,15564.800,855116.800,3592623.600,0.0,0.0,0.0,3619.200
4.158,7.659,86.652,0.0,0.0,1.532,0.0,819.200,856188.800,3608308.800,0.0,0.0,0.0,3562.200
4.301,11.183,82.366,0.0,0.0,2.151,0.0,1638.400,882183.400,3706743.0,0.0,0.0,0.0,3678.800
4.386,9.649,84.649,0.0,0.0,1.316,0.0,1638.400,897121.0,3768345.800,0.0,0.0,0.0,3677.800
5.011,10.893,82.353,0.0,0.0,1.743,0.0,819.200,888391.0,3745008.400,0.0,0.0,0.0,3669.200
5.0,10.0,83.478,0.0,0.0,1.522,0.0,1638.400,915233.400,3847040.200,0.0,0.0,0.0,3783.0
5.353,10.064,82.655,0.214,0.0,1.713,0.0,21299.200,908953.600,3833101.200,0.0,0.0,0.0,3547.400
4.292,10.515,83.691,0.0,0.0,1.502,0.0,1638.400,870355.0,3655864.0,0.0,0.0,0.0,3628.800
1.217,1.420,97.160,0.0,0.0,0.203,0.0,1638.400,102856.800,406068.200,0.0,0.0,0.0,834.600
