"Dstat 0.7.2 CSV output"
"Author:","Dag Wieers <dag@wieers.com>",,,,"URL:","http://dag.wieers.com/home-made/dstat/"
"Host:","Server3",,,,"User:","mstevan"
"Cmdline:","dstat --output /home/mstevan/logs/experiment_3.2/dstat/vs_256-vcpr_4-wtpm_8-rep_4.csv 5 16",,,,"Date:","28 Oct 2019 07:43:23 UTC"

"total cpu usage",,,,,,"dsk/total",,"net/total",,"paging",,"system",
"usr","sys","idl","wai","hiq","siq","read","writ","recv","send","in","out","int","csw"
1.892,3.553,93.719,0.319,0.0,0.517,9267.019,1420892.579,0.0,0.0,0.0,0.0,0.121,935.634
0.806,0.403,98.790,0.0,0.0,0.0,0.0,1638.400,8165.800,8981.600,0.0,0.0,0.0,91.400
2.500,3.542,93.542,0.0,0.0,0.417,0.0,819.200,336480.0,1410489.600,0.0,0.0,0.0,1951.800
2.516,4.822,92.453,0.0,0.0,0.210,0.0,1638.400,333116.600,1384696.800,0.0,0.0,0.0,2007.0
2.743,4.008,92.827,0.0,0.0,0.422,0.0,3276.800,358800.800,1493206.800,0.0,0.0,0.0,2072.200
2.101,4.412,92.857,0.0,0.0,0.630,0.0,819.200,368397.400,1546106.400,0.0,0.0,0.0,2158.400
2.331,4.661,92.585,0.424,0.0,0.0,0.0,18841.600,355927.600,1481228.0,0.0,0.0,0.0,2048.0
2.079,5.613,91.476,0.0,0.0,0.832,0.0,3276.800,370658.800,1543492.600,0.0,0.0,0.0,2164.400
2.484,5.176,92.133,0.0,0.0,0.207,0.0,819.200,348415.800,1461667.0,0.0,0.0,0.0,1890.200
2.311,4.622,92.857,0.0,0.0,0.210,0.0,1638.400,361284.600,1502953.600,0.0,0.0,0.0,2007.800
1.903,4.440,93.235,0.0,0.0,0.423,0.0,819.200,349317.400,1463031.400,0.0,0.0,0.0,1877.600
2.083,5.208,92.292,0.0,0.0,0.417,0.0,1638.400,351757.600,1464134.0,0.0,0.0,0.0,1875.200
1.677,4.612,91.405,1.677,0.0,0.629,0.0,18841.600,361876.800,1506117.400,0.0,0.0,0.0,1884.200
2.110,3.376,93.882,0.0,0.0,0.633,0.0,819.200,368181.600,1545422.400,0.0,0.0,0.0,1977.800
2.941,3.571,93.067,0.0,0.0,0.420,0.0,3276.800,360913.200,1502753.800,0.0,0.0,0.0,1939.400
3.132,3.758,92.484,0.0,0.0,0.626,0.0,1638.400,348201.600,1447881.600,0.0,0.0,0.0,2022.600
0.0,0.401,99.399,0.0,0.0,0.200,0.0,819.200,3127.0,935.600,0.0,0.0,0.0,64.600
