"Dstat 0.7.2 CSV output"
"Author:","Dag Wieers <dag@wieers.com>",,,,"URL:","http://dag.wieers.com/home-made/dstat/"
"Host:","Server3",,,,"User:","mstevan"
"Cmdline:","dstat --output /home/mstevan/logs/experiment_3.2/dstat/vs_256-vcpr_32-wtpm_8-rep_2.csv 5 16",,,,"Date:","28 Oct 2019 08:31:41 UTC"

"total cpu usage",,,,,,"dsk/total",,"net/total",,"paging",,"system",
"usr","sys","idl","wai","hiq","siq","read","writ","recv","send","in","out","int","csw"
2.021,3.752,93.353,0.332,0.0,0.542,12819.253,1307166.167,0.0,0.0,0.0,0.0,0.111,1113.253
0.402,0.602,98.996,0.0,0.0,0.0,0.0,2457.600,10598.600,18961.600,0.0,0.0,0.0,122.400
1.891,4.202,93.487,0.0,0.0,0.420,0.0,819.200,342842.800,1437169.0,0.0,0.0,0.0,1941.400
2.725,4.193,92.662,0.0,0.0,0.419,0.0,1638.400,357717.600,1489331.200,0.0,0.0,0.0,2006.800
2.096,4.822,89.308,3.354,0.0,0.419,0.0,20480.0,356673.800,1484008.200,0.0,0.0,0.0,2034.0
2.092,4.603,92.887,0.0,0.0,0.418,0.0,4915.200,354275.800,1486584.400,0.0,0.0,0.0,1989.600
2.917,5.0,91.458,0.0,0.0,0.625,0.0,1638.400,358474.200,1490827.200,0.0,0.0,0.0,1966.400
1.695,5.297,92.585,0.0,0.0,0.424,0.0,2457.600,365572.600,1533035.800,0.0,0.0,0.0,2132.600
1.702,3.617,94.043,0.0,0.0,0.638,0.0,1638.400,367963.800,1531340.800,0.0,0.0,0.0,2077.800
2.110,4.430,93.460,0.0,0.0,0.0,0.0,1638.400,360705.400,1497400.200,0.0,0.0,0.0,2058.400
2.092,5.439,92.259,0.0,0.0,0.209,0.0,819.200,370985.600,1557820.200,0.0,0.0,0.0,2182.800
2.708,4.167,91.875,0.625,0.0,0.625,0.0,17203.200,346203.600,1440673.0,0.0,0.0,0.0,2001.800
2.703,4.990,92.100,0.0,0.0,0.208,0.0,3276.800,362728.600,1510142.600,0.0,0.0,0.0,2022.200
2.510,4.812,92.678,0.0,0.0,0.0,0.0,819.200,376415.200,1579397.600,0.0,0.0,0.0,2105.200
2.119,4.025,93.432,0.0,0.0,0.424,0.0,3276.800,366112.800,1524150.0,0.0,0.0,0.0,1979.400
1.867,5.602,92.116,0.0,0.0,0.415,0.0,819.200,364785.600,1530764.200,0.0,0.0,0.0,2018.600
1.012,1.012,97.773,0.0,0.0,0.202,0.0,1638.400,72489.0,282302.600,0.0,0.0,0.0,441.600
