"Dstat 0.7.2 CSV output"
"Author:","Dag Wieers <dag@wieers.com>",,,,"URL:","http://dag.wieers.com/home-made/dstat/"
"Host:","Server3",,,,"User:","mstevan"
"Cmdline:","dstat --output /home/mstevan/logs/experiment_3.2/dstat/vs_256-vcpr_32-wtpm_64-rep_2.csv 5 16",,,,"Date:","28 Oct 2019 08:43:03 UTC"

"total cpu usage",,,,,,"dsk/total",,"net/total",,"paging",,"system",
"usr","sys","idl","wai","hiq","siq","read","writ","recv","send","in","out","int","csw"
2.042,3.805,93.277,0.329,0.0,0.548,12565.592,1281392.531,0.0,0.0,0.0,0.0,0.109,1144.450
0.803,0.402,98.795,0.0,0.0,0.0,0.0,1638.400,11983.400,16372.400,0.0,0.0,0.0,137.800
5.482,8.553,84.211,0.0,0.0,1.754,0.0,2457.600,836476.200,3512406.0,0.0,0.0,0.0,3760.600
4.946,10.323,82.366,0.215,0.0,2.151,0.0,18022.400,909573.800,3832429.0,0.0,0.0,0.0,3754.0
4.783,9.565,83.913,0.0,0.0,1.739,0.0,3276.800,874418.0,3675519.200,0.0,0.0,0.0,3791.200
5.172,9.052,84.052,0.0,0.0,1.724,0.0,819.200,888460.400,3743242.400,0.0,0.0,0.0,3839.800
4.167,10.307,84.211,0.0,0.0,1.316,0.0,1638.400,895219.400,3763572.600,0.0,0.0,0.0,3745.600
5.044,8.333,84.430,0.0,0.0,2.193,0.0,3276.800,879011.0,3690452.0,0.0,0.0,0.0,3851.600
4.526,10.345,83.621,0.0,0.0,1.509,0.0,819.200,892449.400,3761906.600,0.0,0.0,0.0,3815.400
4.232,9.354,83.964,0.445,0.0,2.004,0.0,19660.800,900808.800,3788211.800,0.0,0.0,0.0,3490.0
5.652,11.087,81.087,0.0,0.0,2.174,0.0,1638.400,928609.600,3901038.200,0.0,0.0,0.0,3904.0
5.677,10.044,82.969,0.0,0.0,1.310,0.0,819.200,908520.800,3829745.800,0.0,0.0,0.0,3833.0
5.579,10.730,81.760,0.0,0.0,1.931,0.0,1638.400,917192.800,3855130.0,0.0,0.0,0.0,3705.600
3.922,10.240,84.532,0.0,0.0,1.307,0.0,1638.400,892796.200,3763707.600,0.0,0.0,0.0,3825.600
5.077,10.596,82.561,0.0,0.0,1.766,0.0,3276.800,923488.600,3882049.800,0.0,0.0,0.0,3814.400
5.908,10.503,80.744,0.438,0.0,2.407,0.0,15564.800,923565.400,3880200.800,0.0,0.0,0.0,3916.400
0.810,1.822,96.964,0.0,0.0,0.405,0.0,819.200,105824.600,431781.0,0.0,0.0,0.0,929.0
