"Dstat 0.7.2 CSV output"
"Author:","Dag Wieers <dag@wieers.com>",,,,"URL:","http://dag.wieers.com/home-made/dstat/"
"Host:","Server3",,,,"User:","mstevan"
"Cmdline:","dstat --output /home/mstevan/logs/experiment_3.2/dstat/vs_256-vcpr_4-wtpm_64-rep_2.csv 5 16",,,,"Date:","28 Oct 2019 07:51:54 UTC"

"total cpu usage",,,,,,"dsk/total",,"net/total",,"paging",,"system",
"usr","sys","idl","wai","hiq","siq","read","writ","recv","send","in","out","int","csw"
1.958,3.592,93.577,0.350,0.0,0.522,13793.873,1406203.136,0.0,0.0,0.0,0.0,0.119,973.524
0.402,0.402,99.197,0.0,0.0,0.0,0.0,819.200,8791.800,14441.200,0.0,0.0,0.0,130.600
3.212,6.210,89.293,0.428,0.0,0.857,0.0,23756.800,383796.200,1578552.600,0.0,0.0,0.0,3968.0
2.412,5.044,91.228,0.0,0.0,1.316,0.0,819.200,422307.400,1749841.200,0.0,0.0,0.0,4399.800
2.407,7.659,89.059,0.0,0.0,0.875,0.0,3276.800,439713.0,1840466.600,0.0,0.0,0.0,4496.600
3.404,7.660,88.085,0.0,0.0,0.851,0.0,1638.400,446305.600,1861634.0,0.0,0.0,0.0,4536.600
3.254,5.640,90.239,0.0,0.0,0.868,0.0,819.200,448595.800,1883445.0,0.0,0.0,0.0,4617.800
2.766,8.085,88.298,0.0,0.0,0.851,0.0,3276.800,444026.600,1850530.400,0.0,0.0,0.0,4590.0
3.390,7.839,86.864,0.212,0.0,1.695,0.0,15564.800,450696.400,1878393.800,0.0,0.0,0.0,4604.200
3.579,6.737,88.211,0.0,0.0,1.474,0.0,819.200,440265.600,1842960.600,0.0,0.0,0.0,4413.800
3.219,6.867,88.841,0.0,0.0,1.073,0.0,1638.400,439936.800,1831541.200,0.0,0.0,0.200,4302.0
3.261,5.652,90.217,0.0,0.0,0.870,0.0,819.200,437544.400,1825770.0,0.0,0.0,0.0,4326.200
3.191,6.809,88.723,0.0,0.0,1.277,0.0,1638.400,447881.200,1873186.0,0.0,0.0,0.0,4515.200
4.497,5.567,88.865,0.0,0.0,1.071,0.0,1638.400,441272.200,1837312.0,0.0,0.0,0.0,4486.600
3.198,7.249,88.273,0.426,0.0,0.853,0.0,15564.800,438836.200,1838616.400,0.0,0.0,0.0,4339.600
3.024,6.263,90.065,0.0,0.0,0.648,0.0,2457.600,432820.200,1792171.400,0.0,0.0,0.0,4352.200
0.404,0.808,98.788,0.0,0.0,0.0,0.0,1638.400,6665.0,2271.200,0.0,0.0,0.0,84.200
