"Dstat 0.7.2 CSV output"
"Author:","Dag Wieers <dag@wieers.com>",,,,"URL:","http://dag.wieers.com/home-made/dstat/"
"Host:","Server3",,,,"User:","mstevan"
"Cmdline:","dstat --output /home/mstevan/logs/experiment_3.2/dstat/vs_512-vcpr_8-wtpm_8-rep_1.csv 5 16",,,,"Date:","28 Oct 2019 09:04:31 UTC"

"total cpu usage",,,,,,"dsk/total",,"net/total",,"paging",,"system",
"usr","sys","idl","wai","hiq","siq","read","writ","recv","send","in","out","int","csw"
2.075,3.884,93.162,0.322,0.0,0.557,12113.214,1235431.199,0.0,0.0,0.0,0.0,0.105,1214.574
0.800,0.800,98.400,0.0,0.0,0.0,0.0,1638.400,9848.0,25922.800,0.0,0.0,0.0,110.0
2.119,4.237,93.008,0.0,0.0,0.636,0.0,1638.400,351348.200,2515192.800,0.0,0.0,0.0,2193.0
1.684,4.632,93.053,0.0,0.0,0.632,0.0,1638.400,349401.200,2520664.800,0.0,0.0,0.0,2195.600
1.919,4.051,93.817,0.0,0.0,0.213,0.0,2457.600,362602.800,2596571.200,0.0,0.0,0.0,2038.0
2.720,4.812,91.841,0.0,0.0,0.628,0.0,2457.600,366572.0,2627202.200,0.0,0.0,0.0,2070.800
2.714,5.219,91.441,0.626,0.0,0.0,0.0,18022.400,359080.600,2591894.600,0.0,0.0,0.0,1973.200
2.923,5.219,91.232,0.0,0.0,0.626,0.0,7372.800,379033.200,2716253.0,0.0,0.0,0.0,2078.0
3.354,5.451,90.776,0.0,0.0,0.419,0.0,1638.400,367722.800,2631934.200,0.0,0.0,0.0,2091.200
2.521,4.412,92.437,0.0,0.0,0.630,0.0,819.200,372451.200,2689333.0,0.0,0.0,0.0,2131.400
2.972,5.308,91.720,0.0,0.0,0.0,0.0,1638.400,378386.400,2709604.400,0.0,0.0,0.200,2136.600
2.105,5.474,92.211,0.0,0.0,0.211,0.0,819.200,379859.200,2743766.200,0.0,0.0,0.0,2224.600
3.151,5.042,90.966,0.210,0.0,0.630,0.0,16384.0,388636.200,2786865.200,0.0,0.0,0.0,2226.800
2.947,4.632,92.0,0.0,0.0,0.421,0.0,2457.600,379905.400,2723140.600,0.0,0.0,0.0,2203.400
2.743,3.797,93.038,0.0,0.0,0.422,0.0,1638.400,376779.800,2721171.0,0.0,0.0,0.0,2062.400
2.941,4.622,92.017,0.0,0.0,0.420,0.0,2457.600,377667.600,2707107.400,0.0,0.0,0.0,2218.800
0.601,0.200,99.198,0.0,0.0,0.0,0.0,1638.400,6214.0,1800.400,0.0,0.0,0.0,69.600
