"Dstat 0.7.2 CSV output"
"Author:","Dag Wieers <dag@wieers.com>",,,,"URL:","http://dag.wieers.com/home-made/dstat/"
"Host:","Server3",,,,"User:","mstevan"
"Cmdline:","dstat --output /home/mstevan/logs/experiment_3.2/dstat/vs_512-vcpr_32-wtpm_64-rep_3.csv 5 16",,,,"Date:","28 Oct 2019 09:52:49 UTC"

"total cpu usage",,,,,,"dsk/total",,"net/total",,"paging",,"system",
"usr","sys","idl","wai","hiq","siq","read","writ","recv","send","in","out","int","csw"
2.151,4.067,92.897,0.303,0.0,0.581,11204.838,1143136.597,0.0,0.0,0.0,0.0,0.097,1334.746
0.202,0.404,99.394,0.0,0.0,0.0,0.0,819.200,11264.800,28970.200,0.0,0.0,0.0,123.600
3.947,7.895,86.404,0.0,0.0,1.754,0.0,1638.400,804658.400,5825228.400,0.0,0.0,0.0,3783.800
6.769,12.009,79.039,0.0,0.0,2.183,0.0,1638.400,912834.600,6598009.600,0.0,0.0,0.0,3875.200
3.516,10.549,82.637,1.538,0.0,1.758,0.0,21299.200,879989.600,6384798.600,0.0,0.0,0.0,3805.400
5.495,10.549,82.418,0.0,0.0,1.538,0.0,3276.800,870708.600,6290645.800,0.0,0.0,0.0,3700.800
5.088,9.513,84.071,0.0,0.0,1.327,0.0,1638.400,875042.400,6330757.0,0.0,0.0,0.0,3800.200
3.913,11.087,83.261,0.0,0.0,1.739,0.0,2457.600,859802.200,6236926.0,0.0,0.0,0.0,3828.600
4.783,10.870,82.391,0.0,0.0,1.957,0.0,1638.400,864419.400,6247125.0,0.0,0.0,0.0,3708.600
6.195,10.177,81.195,0.0,0.0,2.434,0.0,819.200,894217.0,6484564.0,0.0,0.0,0.0,3836.400
4.835,13.626,79.121,0.440,0.0,1.978,0.0,18841.600,894148.600,6463449.600,0.0,0.0,0.0,3813.200
5.857,12.148,80.477,0.0,0.0,1.518,0.0,1638.400,894455.800,6464162.400,0.0,0.0,0.0,3740.800
5.677,10.699,82.314,0.0,0.0,1.310,0.0,819.200,898982.400,6519688.600,0.0,0.0,0.0,3737.400
4.444,12.222,81.333,0.0,0.0,2.0,0.0,1638.400,904354.400,6537959.600,0.0,0.0,0.0,3865.400
7.190,12.200,79.521,0.0,0.0,1.089,0.0,3276.800,905950.800,6542182.800,0.0,0.0,0.0,3667.800
5.369,11.409,80.537,0.0,0.0,2.685,0.0,819.200,900142.0,6532868.0,0.0,0.0,0.0,3660.400
1.217,1.420,96.552,0.609,0.0,0.203,0.0,18841.600,76148.800,502166.800,0.0,0.0,0.0,714.400
