"Dstat 0.7.2 CSV output"
"Author:","Dag Wieers <dag@wieers.com>",,,,"URL:","http://dag.wieers.com/home-made/dstat/"
"Host:","Server3",,,,"User:","mstevan"
"Cmdline:","dstat --output /home/mstevan/logs/experiment_3.2/dstat/vs_512-vcpr_8-wtpm_32-rep_4.csv 5 16",,,,"Date:","28 Oct 2019 09:14:27 UTC"

"total cpu usage",,,,,,"dsk/total",,"net/total",,"paging",,"system",
"usr","sys","idl","wai","hiq","siq","read","writ","recv","send","in","out","int","csw"
2.084,3.908,93.132,0.318,0.0,0.559,11914.359,1215230.141,0.0,0.0,0.0,0.0,0.103,1236.830
0.601,0.601,98.798,0.0,0.0,0.0,0.0,1638.400,13199.600,43457.200,0.0,0.0,0.0,166.800
3.397,7.431,87.898,0.0,0.0,1.274,0.0,819.200,533556.400,3862805.200,0.0,0.0,0.0,4324.400
3.463,8.225,86.580,0.649,0.0,1.082,0.0,19660.800,584434.0,4208123.800,0.0,0.0,0.0,4341.600
3.656,8.817,86.667,0.0,0.0,0.860,0.0,2457.600,589833.0,4252638.0,0.0,0.0,0.0,4504.200
3.632,8.547,86.752,0.0,0.0,1.068,0.0,1638.400,586995.600,4253936.600,0.0,0.0,0.0,4470.0
3.664,9.483,85.345,0.0,0.0,1.509,0.0,1638.400,601334.0,4335322.200,0.0,0.0,0.0,4499.400
4.086,9.032,85.591,0.0,0.0,1.290,0.0,3276.800,601722.800,4335341.800,0.0,0.0,0.0,4691.200
3.463,8.874,87.013,0.0,0.0,0.649,0.0,819.200,595906.600,4318549.200,0.0,0.0,0.0,4662.800
4.752,7.775,85.745,0.216,0.0,1.512,0.0,16384.0,607509.800,4377140.400,0.0,0.0,0.0,4468.600
3.501,7.221,88.403,0.0,0.0,0.875,0.0,4915.200,604955.800,4382824.800,0.0,0.0,0.0,4553.400
5.388,9.267,84.914,0.0,0.0,0.431,0.0,1638.400,609372.0,4388965.400,0.0,0.0,0.0,4415.400
3.050,8.279,87.146,0.0,0.0,1.525,0.0,1638.400,613817.200,4422640.0,0.0,0.0,0.0,4452.800
4.104,8.207,86.825,0.0,0.0,0.864,0.0,819.200,610357.800,4424458.0,0.0,0.0,0.0,4556.0
3.463,8.225,86.797,0.0,0.0,1.515,0.0,3276.800,606117.400,4368716.600,0.0,0.0,0.0,4582.600
3.509,7.675,87.500,0.439,0.0,0.877,0.0,15564.800,597295.800,4305839.0,0.0,0.0,0.200,4505.600
0.402,0.201,99.398,0.0,0.0,0.0,0.0,1638.400,3127.0,935.600,0.0,0.0,0.0,63.800
