"Dstat 0.7.2 CSV output"
"Author:","Dag Wieers <dag@wieers.com>",,,,"URL:","http://dag.wieers.com/home-made/dstat/"
"Host:","Server3",,,,"User:","mstevan"
"Cmdline:","dstat --output /home/mstevan/logs/experiment_3.2/dstat/vs_512-vcpr_32-wtpm_64-rep_2.csv 5 16",,,,"Date:","28 Oct 2019 09:51:24 UTC"

"total cpu usage",,,,,,"dsk/total",,"net/total",,"paging",,"system",
"usr","sys","idl","wai","hiq","siq","read","writ","recv","send","in","out","int","csw"
2.147,4.056,92.914,0.304,0.0,0.579,11229.598,1145652.841,0.0,0.0,0.0,0.0,0.098,1330.822
0.605,1.210,97.984,0.0,0.0,0.202,0.0,1638.400,14056.0,35295.0,0.0,0.0,0.0,167.0
3.696,10.870,83.696,0.0,0.0,1.739,0.0,819.200,801095.600,5804265.200,0.0,0.0,0.0,3678.800
5.011,10.022,83.007,0.0,0.0,1.961,0.0,22118.400,895784.600,6486868.400,0.0,0.0,0.0,3677.200
5.870,11.304,80.652,0.0,0.0,2.174,0.0,2457.600,899388.200,6503430.600,0.0,0.0,0.0,3725.400
4.310,10.129,83.836,0.0,0.0,1.724,0.0,1638.400,848139.600,6147477.600,0.0,0.0,0.0,3719.600
4.130,10.870,82.826,0.0,0.0,2.174,0.0,1638.400,877489.400,6347988.200,0.0,0.0,0.0,3737.0
4.396,10.330,83.736,0.0,0.0,1.538,0.0,3276.800,893251.400,6457715.200,0.0,0.0,0.0,3721.600
5.088,10.177,83.628,0.0,0.0,1.106,0.0,819.200,881559.400,6399622.400,0.0,0.0,0.200,3805.200
5.263,11.842,81.140,0.439,0.0,1.316,0.0,15564.800,888098.800,6422651.600,0.0,0.0,0.0,3780.800
4.301,10.753,82.796,0.0,0.0,2.151,0.0,819.200,898097.800,6516290.200,0.0,0.0,0.0,3714.600
4.933,10.090,83.632,0.0,0.0,1.345,0.0,1638.400,896771.400,6484777.200,0.0,0.0,0.0,3728.200
5.908,10.722,81.400,0.0,0.0,1.969,0.0,1638.400,904668.600,6544567.200,0.0,0.0,0.0,3837.800
6.236,12.918,78.842,0.0,0.0,2.004,0.0,819.200,907596.200,6584095.400,0.0,0.0,0.0,3740.600
5.011,11.765,80.610,0.0,0.0,2.614,0.0,3276.800,922649.0,6673888.800,0.0,0.0,0.0,3588.400
5.100,11.973,81.375,0.222,0.0,1.330,0.0,15564.800,902206.400,6521209.200,0.0,0.0,0.0,3665.400
0.810,1.012,97.976,0.0,0.0,0.202,0.0,819.200,64668.200,441770.0,0.0,0.0,0.0,646.400
