"Dstat 0.7.2 CSV output"
"Author:","Dag Wieers <dag@wieers.com>",,,,"URL:","http://dag.wieers.com/home-made/dstat/"
"Host:","Server3",,,,"User:","mstevan"
"Cmdline:","dstat --output /home/mstevan/logs/experiment_3.2/dstat/vs_512-vcpr_8-wtpm_64-rep_2.csv 5 16",,,,"Date:","28 Oct 2019 09:17:18 UTC"

"total cpu usage",,,,,,"dsk/total",,"net/total",,"paging",,"system",
"usr","sys","idl","wai","hiq","siq","read","writ","recv","send","in","out","int","csw"
2.090,3.921,93.113,0.316,0.0,0.560,11858.739,1209579.916,0.0,0.0,0.0,0.0,0.103,1248.306
0.202,1.010,98.788,0.0,0.0,0.0,0.0,819.200,12222.600,43225.800,0.0,0.0,0.0,165.0
3.433,7.940,87.768,0.0,0.0,0.858,0.0,1638.400,541242.600,3888718.400,0.0,0.0,0.0,4272.0
4.139,6.754,88.235,0.0,0.0,0.871,0.0,3276.800,580672.200,4176159.600,0.0,0.0,0.0,4425.200
2.790,7.511,87.983,0.0,0.0,1.717,0.0,2457.600,596161.400,4318572.0,0.0,0.0,0.0,4644.400
4.338,10.629,84.165,0.0,0.0,0.868,0.0,1638.400,587367.0,4228880.800,0.0,0.0,0.0,4679.200
2.350,8.761,86.752,0.427,0.0,1.709,0.0,18841.600,584428.800,4231736.200,0.0,0.0,0.0,4417.0
3.441,8.172,87.312,0.0,0.0,1.075,0.0,3276.800,595201.200,4289281.200,0.0,0.0,0.0,4520.400
4.104,7.775,87.257,0.0,0.0,0.864,0.0,1638.400,596224.200,4298048.0,0.0,0.0,0.0,4489.600
3.441,7.527,87.957,0.0,0.0,1.075,0.0,819.200,585648.600,4238483.200,0.0,0.0,0.0,4475.800
4.255,8.511,85.532,0.0,0.0,1.702,0.0,1638.400,589380.800,4246397.800,0.0,0.0,0.0,4422.200
3.268,9.586,85.403,0.0,0.0,1.743,0.0,1638.400,594457.800,4278843.800,0.0,0.0,0.0,4545.400
4.264,7.889,86.567,0.213,0.0,1.066,0.0,19660.800,592540.600,4287659.200,0.0,0.0,0.0,4518.0
5.161,9.032,84.301,0.0,0.0,1.505,0.0,1638.400,595000.400,4285537.600,0.0,0.0,0.0,4515.0
2.391,8.478,88.043,0.0,0.0,1.087,0.0,1638.400,586439.600,4247371.200,0.0,0.0,0.0,4504.600
4.043,8.936,85.957,0.0,0.0,1.064,0.0,2457.600,579526.400,4168337.0,0.0,0.0,0.0,4344.600
0.605,0.0,99.395,0.0,0.0,0.0,0.0,1638.400,6214.0,1800.400,0.0,0.0,0.0,73.200
