"Dstat 0.7.2 CSV output"
"Author:","Dag Wieers <dag@wieers.com>",,,,"URL:","http://dag.wieers.com/home-made/dstat/"
"Host:","Server3",,,,"User:","mstevan"
"Cmdline:","dstat --output /home/mstevan/logs/experiment_3.2/dstat/vs_512-vcpr_4-wtpm_64-rep_2.csv 5 16",,,,"Date:","28 Oct 2019 09:00:15 UTC"

"total cpu usage",,,,,,"dsk/total",,"net/total",,"paging",,"system",
"usr","sys","idl","wai","hiq","siq","read","writ","recv","send","in","out","int","csw"
2.068,3.868,93.185,0.323,0.0,0.555,12200.475,1244296.994,0.0,0.0,0.0,0.0,0.106,1196.038
0.605,1.008,98.387,0.0,0.0,0.0,0.0,1638.400,11810.400,20629.400,0.0,0.0,0.0,158.400
2.808,6.695,89.633,0.0,0.0,0.864,0.0,1638.400,413591.600,2947853.200,0.0,0.0,0.0,4388.800
3.632,7.479,88.034,0.214,0.0,0.641,0.0,19660.800,445588.600,3218782.0,0.0,0.0,0.0,4669.0
3.412,8.316,87.420,0.0,0.0,0.853,0.0,1638.400,458383.200,3285410.600,0.0,0.0,0.0,4702.400
3.830,8.085,86.596,0.0,0.0,1.489,0.0,2457.600,459766.400,3299238.600,0.0,0.0,0.0,4716.200
3.212,7.066,88.651,0.0,0.0,1.071,0.0,1638.400,452511.800,3263676.600,0.0,0.0,0.0,4711.0
4.104,7.775,87.257,0.0,0.0,0.864,0.0,3276.800,467840.200,3357025.0,0.0,0.0,0.0,4822.200
3.501,7.002,88.840,0.0,0.0,0.656,0.0,819.200,455621.200,3285718.600,0.0,0.0,0.0,4698.400
3.680,6.710,88.312,0.433,0.0,0.866,0.0,18841.600,460425.0,3300510.800,0.0,0.0,0.0,4749.600
3.688,6.941,88.503,0.0,0.0,0.868,0.0,1638.400,458731.400,3293933.200,0.0,0.0,0.0,4653.400
3.656,7.957,87.527,0.0,0.0,0.860,0.0,819.200,461204.600,3332131.800,0.0,0.0,0.0,4705.800
3.617,8.085,86.809,0.0,0.0,1.489,0.0,1638.400,460763.200,3310330.0,0.0,0.0,0.0,4620.0
3.463,8.225,86.797,0.0,0.0,1.515,0.0,2457.600,470235.800,3374433.400,0.0,0.0,0.0,4712.800
2.998,7.923,88.223,0.0,0.0,0.857,0.0,1638.400,454625.800,3276367.0,0.0,0.0,0.0,4739.600
3.240,8.639,86.825,0.216,0.0,1.080,0.0,16384.0,455216.600,3263607.400,0.0,0.0,0.0,4688.800
0.400,0.600,99.0,0.0,0.0,0.0,0.0,819.200,3155.0,1016.400,0.0,0.0,0.0,64.400
