"Dstat 0.7.2 CSV output"
"Author:","Dag Wieers <dag@wieers.com>",,,,"URL:","http://dag.wieers.com/home-made/dstat/"
"Host:","Server3",,,,"User:","mstevan"
"Cmdline:","dstat --output /home/mstevan/logs/experiment_3.2/dstat/vs_512-vcpr_32-wtpm_8-rep_1.csv 5 16",,,,"Date:","28 Oct 2019 09:38:37 UTC"

"total cpu usage",,,,,,"dsk/total",,"net/total",,"paging",,"system",
"usr","sys","idl","wai","hiq","siq","read","writ","recv","send","in","out","int","csw"
2.128,4.011,92.979,0.309,0.0,0.574,11457.520,1168811.201,0.0,0.0,0.0,0.0,0.100,1305.869
0.401,0.601,98.798,0.0,0.0,0.200,0.0,1638.400,11390.800,37162.600,0.0,0.0,0.0,140.200
1.899,4.219,93.460,0.0,0.0,0.422,0.0,819.200,338812.800,2443691.200,0.0,0.0,0.0,2063.200
3.151,5.252,90.336,1.261,0.0,0.0,0.0,21299.200,350669.0,2507478.0,0.0,0.0,0.0,2066.800
2.316,4.421,93.053,0.0,0.0,0.211,0.0,1638.400,363912.400,2607995.0,0.0,0.0,0.0,1909.200
1.907,4.025,93.432,0.0,0.0,0.636,0.0,1638.400,367804.800,2655790.400,0.0,0.0,0.0,2026.0
2.321,4.219,92.827,0.0,0.0,0.633,0.0,1638.400,377681.600,2707004.200,0.0,0.0,0.0,2026.200
2.114,4.651,92.600,0.0,0.0,0.634,0.0,3276.800,374772.800,2685649.800,0.0,0.0,0.0,2031.400
2.335,3.397,94.055,0.0,0.0,0.212,0.0,819.200,372657.0,2691752.600,0.0,0.0,0.0,1979.800
3.151,4.202,92.437,0.0,0.0,0.210,0.0,1638.400,370643.800,2650382.400,0.0,0.0,0.0,2163.200
1.699,4.883,92.144,0.425,0.0,0.849,0.0,23756.800,378501.200,2731643.600,0.0,0.0,0.0,2149.0
3.138,4.603,91.841,0.0,0.0,0.418,0.0,1638.400,375555.600,2692575.200,0.0,0.0,0.0,2171.400
2.316,5.474,91.789,0.0,0.0,0.421,0.0,1638.400,374908.800,2685862.800,0.0,0.0,0.0,2071.200
2.495,5.198,91.892,0.0,0.0,0.416,0.0,1638.400,371440.400,2683481.200,0.0,0.0,0.0,2087.400
2.966,3.814,93.008,0.0,0.0,0.212,0.0,2457.600,369908.0,2649994.800,0.0,0.0,0.0,2074.200
1.699,5.096,92.994,0.0,0.0,0.212,0.0,1638.400,373672.400,2676932.200,0.0,0.0,0.0,2117.200
0.403,1.613,97.177,0.605,0.0,0.202,0.0,17203.200,65802.800,455121.800,0.0,0.0,0.0,478.200
