"Dstat 0.7.2 CSV output"
"Author:","Dag Wieers <dag@wieers.com>",,,,"URL:","http://dag.wieers.com/home-made/dstat/"
"Host:","Server3",,,,"User:","mstevan"
"Cmdline:","dstat --output /home/mstevan/logs/experiment_3.2/dstat/vs_512-vcpr_32-wtpm_8-rep_4.csv 5 16",,,,"Date:","28 Oct 2019 09:42:53 UTC"

"total cpu usage",,,,,,"dsk/total",,"net/total",,"paging",,"system",
"usr","sys","idl","wai","hiq","siq","read","writ","recv","send","in","out","int","csw"
2.128,4.010,92.982,0.307,0.0,0.573,11380.518,1160988.434,0.0,0.0,0.0,0.0,0.099,1308.569
0.600,0.400,99.0,0.0,0.0,0.0,0.0,18022.400,7416.0,30068.0,0.0,0.0,0.0,94.800
2.708,5.625,91.667,0.0,0.0,0.0,0.0,1638.400,351462.400,2514329.200,0.0,0.0,0.0,2099.0
2.326,4.651,92.389,0.0,0.0,0.634,0.0,1638.400,381434.200,2732653.600,0.0,0.0,0.0,2215.200
2.935,4.612,92.034,0.0,0.0,0.419,0.0,1638.400,380079.400,2746487.400,0.0,0.0,0.0,2299.800
2.316,4.632,92.632,0.0,0.0,0.421,0.0,2457.600,379659.400,2720580.400,0.0,0.0,0.0,2141.800
1.474,5.053,92.842,0.0,0.0,0.632,0.0,1638.400,348535.400,2493965.800,0.0,0.0,0.0,1964.600
2.754,4.661,92.161,0.0,0.0,0.424,0.0,2457.600,360188.200,2599135.0,0.0,0.0,0.0,2098.600
2.714,4.802,91.649,0.418,0.0,0.418,0.0,23756.800,370184.800,2650889.0,0.0,0.0,0.0,2099.800
2.331,4.237,93.220,0.0,0.0,0.212,0.0,819.200,355963.600,2563903.0,0.0,0.0,0.0,2315.400
2.516,4.822,92.243,0.0,0.0,0.419,0.0,2457.600,368572.0,2641610.400,0.0,0.0,0.0,2097.600
2.340,3.830,93.404,0.0,0.0,0.426,0.0,1638.400,367842.0,2636255.400,0.0,0.0,0.0,2024.400
2.123,4.034,93.631,0.0,0.0,0.212,0.0,819.200,371369.400,2682435.800,0.0,0.0,0.0,2092.800
2.110,5.063,92.616,0.0,0.0,0.211,0.0,2457.600,369869.600,2648676.800,0.0,0.0,0.0,2145.600
2.526,4.421,92.211,0.421,0.0,0.421,0.0,16384.0,365162.200,2616398.600,0.0,0.0,0.0,1990.400
2.899,5.176,91.718,0.0,0.0,0.207,0.0,819.200,350711.0,2532482.200,0.0,0.0,0.0,1902.0
0.810,1.417,97.571,0.0,0.0,0.202,0.0,1638.400,57429.0,371560.200,0.0,0.0,0.0,450.200
