"Dstat 0.7.2 CSV output"
"Author:","Dag Wieers <dag@wieers.com>",,,,"URL:","http://dag.wieers.com/home-made/dstat/"
"Host:","Server3",,,,"User:","mstevan"
"Cmdline:","dstat --output /home/mstevan/logs/experiment_3.2/dstat/vs_512-vcpr_16-wtpm_64-rep_3.csv 5 16",,,,"Date:","28 Oct 2019 09:35:46 UTC"

"total cpu usage",,,,,,"dsk/total",,"net/total",,"paging",,"system",
"usr","sys","idl","wai","hiq","siq","read","writ","recv","send","in","out","int","csw"
2.121,3.995,93.003,0.310,0.0,0.571,11509.432,1174085.875,0.0,0.0,0.0,0.0,0.100,1296.698
0.602,0.402,98.594,0.402,0.0,0.0,0.0,18841.600,9404.200,25160.400,0.0,0.0,0.0,131.200
4.121,7.809,86.985,0.0,0.0,1.085,0.0,2457.600,697425.600,5029138.400,0.0,0.0,0.0,3891.400
4.863,8.245,84.989,0.0,0.0,1.903,0.0,819.200,755549.800,5475067.800,0.0,0.0,0.0,3978.0
4.301,8.817,86.022,0.0,0.0,0.860,0.0,2457.600,726860.200,5247773.800,0.0,0.0,0.0,3816.600
3.448,8.405,86.207,0.0,0.0,1.940,0.0,1638.400,725820.800,5240471.200,0.0,0.0,0.0,3833.400
3.057,9.170,86.900,0.0,0.0,0.873,0.0,1638.400,730273.600,5299150.0,0.0,0.0,0.0,3968.200
3.456,9.503,85.745,0.0,0.0,1.296,0.0,3276.800,742581.800,5359793.200,0.0,0.0,0.0,3949.200
4.936,9.442,83.262,0.215,0.0,2.146,0.0,19660.800,734905.800,5303915.800,0.0,0.0,0.0,3753.200
3.233,8.621,86.422,0.0,0.0,1.724,0.0,819.200,730950.400,5300057.800,0.0,0.0,0.200,3799.0
3.043,9.348,85.870,0.0,0.0,1.739,0.0,1638.400,744672.400,5371430.200,0.0,0.0,0.0,3949.800
4.711,10.278,83.726,0.0,0.0,1.285,0.0,819.200,781882.800,5678515.400,0.0,0.0,0.0,3997.400
4.946,9.892,83.011,0.0,0.0,2.151,0.0,1638.400,761657.800,5496208.800,0.0,0.0,0.0,3783.600
3.888,11.015,83.369,0.0,0.0,1.728,0.0,1638.400,779055.800,5628891.200,0.0,0.0,0.0,4020.200
3.761,7.965,86.283,0.221,0.0,1.770,0.0,17203.200,773290.0,5610312.800,0.0,0.0,0.0,4382.200
4.946,9.247,84.086,0.0,0.0,1.720,0.0,1638.400,768457.800,5544571.400,0.0,0.0,0.0,3891.800
0.806,0.403,98.185,0.0,0.0,0.605,0.0,1638.400,36864.600,144381.600,0.0,0.0,0.0,391.600
