"Dstat 0.7.2 CSV output"
"Author:","Dag Wieers <dag@wieers.com>",,,,"URL:","http://dag.wieers.com/home-made/dstat/"
"Host:","Server3",,,,"User:","mstevan"
"Cmdline:","dstat --output /home/mstevan/logs/experiment_3.2/dstat/vs_512-vcpr_4-wtpm_8-rep_3.csv 5 16",,,,"Date:","28 Oct 2019 08:50:18 UTC"

"total cpu usage",,,,,,"dsk/total",,"net/total",,"paging",,"system",
"usr","sys","idl","wai","hiq","siq","read","writ","recv","send","in","out","int","csw"
2.059,3.842,93.219,0.325,0.0,0.555,12409.064,1265489.462,0.0,0.0,0.0,0.0,0.108,1162.655
0.602,1.004,97.992,0.402,0.0,0.0,0.0,18841.600,9591.600,23772.800,0.0,0.0,0.0,106.600
1.903,4.228,93.235,0.0,0.0,0.634,0.0,819.200,350456.800,2527843.400,0.0,0.0,0.0,2275.400
2.306,5.451,91.824,0.0,0.0,0.419,0.0,1638.400,373573.0,2675875.800,0.0,0.0,0.0,2167.400
2.340,4.468,92.979,0.0,0.0,0.213,0.0,3276.800,366623.200,2624886.400,0.0,0.0,0.0,2236.600
1.674,5.858,92.050,0.0,0.0,0.418,0.0,819.200,373507.600,2697501.800,0.0,0.0,0.0,2129.0
1.887,5.241,92.453,0.0,0.0,0.419,0.0,1638.400,368286.600,2639334.800,0.0,0.0,0.0,1965.400
2.292,5.417,91.875,0.0,0.0,0.417,0.0,3276.800,360475.800,2581434.0,0.0,0.0,0.0,1915.600
1.681,5.252,92.227,0.630,0.0,0.210,0.0,20480.0,371606.400,2683643.400,0.0,0.0,0.0,1974.0
2.114,4.651,93.235,0.0,0.0,0.0,0.0,1638.400,363814.0,2604248.400,0.0,0.0,0.0,1934.200
2.537,4.440,92.812,0.0,0.0,0.211,0.0,819.200,373782.400,2698501.600,0.0,0.0,0.0,2165.200
2.979,3.830,92.766,0.0,0.0,0.426,0.0,1638.400,374130.600,2681610.800,0.0,0.0,0.0,2126.600
2.743,5.696,91.350,0.0,0.0,0.211,0.0,1638.400,369780.800,2645761.600,0.0,0.0,0.0,2054.200
2.092,5.021,92.259,0.0,0.0,0.628,0.0,819.200,359462.400,2593327.600,0.0,0.0,0.0,1991.400
2.096,5.241,91.405,0.419,0.0,0.839,0.0,17203.200,370940.0,2658536.0,0.0,0.0,0.0,2075.400
2.516,4.403,92.662,0.0,0.0,0.419,0.0,1638.400,365517.200,2617703.400,0.0,0.0,0.0,2018.200
0.401,0.401,99.198,0.0,0.0,0.0,0.0,819.200,3127.0,935.600,0.0,0.0,0.0,58.400
