"Dstat 0.7.2 CSV output"
"Author:","Dag Wieers <dag@wieers.com>",,,,"URL:","http://dag.wieers.com/home-made/dstat/"
"Host:","Server3",,,,"User:","mstevan"
"Cmdline:","dstat --output /home/mstevan/logs/experiment_3.2/dstat/vs_512-vcpr_8-wtpm_8-rep_4.csv 5 16",,,,"Date:","28 Oct 2019 09:08:46 UTC"

"total cpu usage",,,,,,"dsk/total",,"net/total",,"paging",,"system",
"usr","sys","idl","wai","hiq","siq","read","writ","recv","send","in","out","int","csw"
2.076,3.885,93.163,0.320,0.0,0.556,12027.183,1226687.914,0.0,0.0,0.0,0.0,0.104,1218.048
1.006,0.0,98.994,0.0,0.0,0.0,0.0,1638.400,12030.0,41073.600,0.0,0.0,0.0,132.800
1.907,4.237,93.432,0.0,0.0,0.424,0.0,819.200,365083.600,2636883.200,0.0,0.0,0.0,2122.200
2.748,4.228,92.600,0.0,0.0,0.423,0.0,1638.400,360783.200,2582878.400,0.0,0.0,0.0,2143.0
2.548,3.822,92.781,0.212,0.0,0.637,0.0,19660.800,366496.0,2622860.400,0.0,0.0,0.0,2021.200
2.510,4.603,92.259,0.0,0.0,0.628,0.0,4915.200,373450.600,2697305.600,0.0,0.0,0.0,2066.0
2.119,4.661,92.585,0.0,0.0,0.636,0.0,1638.400,386075.800,2768081.400,0.0,0.0,0.0,2218.800
3.758,5.846,89.979,0.0,0.0,0.418,0.0,2457.600,381070.0,2749355.600,0.0,0.0,0.0,2308.0
2.542,4.025,92.797,0.0,0.0,0.636,0.0,1638.400,374069.200,2680764.200,0.0,0.0,0.0,2188.600
3.390,4.449,91.737,0.0,0.0,0.424,0.0,4096.0,381420.0,2706991.800,0.0,0.0,0.0,2220.600
0.849,5.732,92.781,0.212,0.0,0.425,0.0,23756.800,377528.600,2725551.400,0.0,0.0,0.0,2272.200
2.316,5.263,91.789,0.0,0.0,0.632,0.0,2457.600,378384.800,2713111.400,0.0,0.0,0.0,2209.0
2.720,4.184,92.259,0.0,0.0,0.837,0.0,1638.400,349740.400,2503255.600,0.0,0.0,0.0,1965.0
2.510,4.603,92.678,0.0,0.0,0.209,0.0,819.200,355953.200,2569546.600,0.0,0.0,0.0,1982.200
1.891,5.042,92.437,0.0,0.0,0.630,0.0,3276.800,363001.600,2599854.800,0.0,0.0,0.0,1946.800
2.119,4.237,93.432,0.0,0.0,0.212,0.0,1638.400,354994.800,2542055.800,0.0,0.0,0.0,1924.200
0.601,0.601,98.196,0.601,0.0,0.0,0.0,21299.200,3494.0,1545.0,0.0,0.0,0.0,77.400
