"Dstat 0.7.2 CSV output"
"Author:","Dag Wieers <dag@wieers.com>",,,,"URL:","http://dag.wieers.com/home-made/dstat/"
"Host:","Server3",,,,"User:","mstevan"
"Cmdline:","dstat --output /home/mstevan/logs/experiment_3.2/dstat/vs_512-vcpr_16-wtpm_8-rep_4.csv 5 16",,,,"Date:","28 Oct 2019 09:25:50 UTC"

"total cpu usage",,,,,,"dsk/total",,"net/total",,"paging",,"system",
"usr","sys","idl","wai","hiq","siq","read","writ","recv","send","in","out","int","csw"
2.098,3.941,93.085,0.313,0.0,0.562,11694.907,1192933.018,0.0,0.0,0.0,0.0,0.102,1269.353
0.604,0.402,98.994,0.0,0.0,0.0,0.0,1638.400,11439.600,37510.600,0.0,0.0,0.0,128.200
1.899,4.430,93.460,0.0,0.0,0.211,0.0,1638.400,348609.200,2493673.400,0.0,0.0,0.0,2110.400
3.119,4.158,92.516,0.0,0.0,0.208,0.0,819.200,330024.400,2382220.400,0.0,0.0,0.0,1935.200
2.760,3.609,92.994,0.0,0.0,0.637,0.0,3276.800,374310.600,2682342.200,0.0,0.0,0.200,2115.0
2.326,4.863,92.389,0.0,0.0,0.423,0.0,1638.400,374899.400,2682885.400,0.0,0.0,0.0,2126.400
2.526,5.053,92.0,0.0,0.0,0.421,0.0,819.200,378837.600,2735696.800,0.0,0.0,0.0,2255.400
2.542,5.085,91.314,0.424,0.0,0.636,0.0,24576.0,378966.200,2713506.600,0.0,0.0,0.0,2229.400
2.311,4.832,92.437,0.0,0.0,0.420,0.0,819.200,397311.200,2871098.400,0.0,0.0,0.0,2230.0
2.311,5.252,92.017,0.0,0.0,0.420,0.0,1638.400,384405.800,2755787.400,0.0,0.0,0.0,2149.400
2.917,5.208,91.250,0.0,0.0,0.625,0.0,1638.400,374008.200,2679793.0,0.0,0.0,0.0,2255.400
2.510,5.230,91.632,0.0,0.0,0.628,0.0,819.200,382288.800,2763294.800,0.0,0.0,0.0,2217.800
2.355,4.069,93.148,0.0,0.0,0.428,0.0,1638.400,373243.800,2670631.800,0.0,0.0,0.0,2230.400
2.321,4.852,91.772,0.422,0.0,0.633,0.0,16384.0,371304.400,2660613.200,0.0,0.0,0.0,2153.200
1.681,5.672,92.227,0.0,0.0,0.420,0.0,1638.400,381577.0,2756905.600,0.0,0.0,0.0,2175.600
2.923,5.428,91.023,0.0,0.0,0.626,0.0,2457.600,370746.800,2655839.600,0.0,0.0,0.0,2151.0
1.012,0.607,97.976,0.0,0.0,0.405,0.0,1638.400,40434.800,250682.400,0.0,0.0,0.0,523.0
