"Dstat 0.7.2 CSV output"
"Author:","Dag Wieers <dag@wieers.com>",,,,"URL:","http://dag.wieers.com/home-made/dstat/"
"Host:","Server3",,,,"User:","mstevan"
"Cmdline:","dstat --output /home/mstevan/logs/experiment_3.2/dstat/vs_512-vcpr_16-wtpm_64-rep_1.csv 5 16",,,,"Date:","28 Oct 2019 09:32:56 UTC"

"total cpu usage",,,,,,"dsk/total",,"net/total",,"paging",,"system",
"usr","sys","idl","wai","hiq","siq","read","writ","recv","send","in","out","int","csw"
2.113,3.977,93.031,0.311,0.0,0.567,11561.819,1179410.300,0.0,0.0,0.0,0.0,0.100,1287.448
0.602,0.803,98.594,0.0,0.0,0.0,0.0,1638.400,13387.200,34211.600,0.0,0.0,0.0,158.800
3.247,8.658,86.147,0.0,0.0,1.948,0.0,1638.400,703752.800,5096227.400,0.0,0.0,0.0,4082.800
3.720,8.972,85.339,0.0,0.0,1.969,0.0,1638.400,773575.800,5587384.800,0.0,0.0,0.0,3964.600
4.274,10.256,83.974,0.0,0.0,1.496,0.0,3276.800,768306.600,5549000.400,0.0,0.0,0.0,3941.200
4.545,7.792,86.364,0.0,0.0,1.299,0.0,819.200,760931.800,5521271.600,0.0,0.0,0.0,3882.0
5.832,9.287,82.505,0.216,0.0,2.160,0.0,24576.0,785884.400,5675889.600,0.0,0.0,0.0,3915.200
4.430,10.759,83.544,0.0,0.0,1.266,0.0,2457.600,780174.600,5636677.400,0.0,0.0,0.0,4019.400
4.783,9.130,83.478,0.0,0.0,2.609,0.0,1638.400,783525.600,5677627.400,0.0,0.0,0.0,4125.200
4.957,9.483,83.836,0.0,0.0,1.724,0.0,1638.400,809170.400,5843792.400,0.0,0.0,0.0,4196.400
4.536,9.287,84.881,0.0,0.0,1.296,0.0,819.200,811001.400,5884285.400,0.0,0.0,0.0,4344.200
3.854,11.135,82.655,0.0,0.0,2.355,0.0,1638.400,819452.0,5926668.200,0.0,0.0,0.0,4178.400
4.946,9.462,84.086,0.430,0.0,1.075,0.0,16384.0,805916.800,5825627.800,0.0,0.0,0.0,4034.0
5.660,9.853,82.809,0.0,0.0,1.677,0.0,819.200,800430.600,5800661.600,0.0,0.0,0.0,4171.200
5.172,10.991,82.543,0.0,0.0,1.293,0.0,4096.0,799934.200,5786208.600,0.0,0.0,0.0,4163.200
4.077,10.730,83.691,0.0,0.0,1.502,0.0,1638.400,803850.800,5802071.200,0.0,0.0,0.0,4156.200
0.200,0.401,99.399,0.0,0.0,0.0,0.0,819.200,3127.0,935.600,0.0,0.0,0.0,58.600
