"Dstat 0.7.2 CSV output"
"Author:","Dag Wieers <dag@wieers.com>",,,,"URL:","http://dag.wieers.com/home-made/dstat/"
"Host:","Server3",,,,"User:","mstevan"
"Cmdline:","dstat --output /home/mstevan/logs/experiment_3.2/dstat/vs_512-vcpr_4-wtpm_32-rep_2.csv 5 16",,,,"Date:","28 Oct 2019 08:54:34 UTC"

"total cpu usage",,,,,,"dsk/total",,"net/total",,"paging",,"system",
"usr","sys","idl","wai","hiq","siq","read","writ","recv","send","in","out","int","csw"
2.061,3.849,93.212,0.325,0.0,0.554,12318.809,1256319.637,0.0,0.0,0.0,0.0,0.107,1171.902
0.602,0.602,98.795,0.0,0.0,0.0,0.0,1638.400,11420.400,29405.0,0.0,0.0,0.0,147.800
3.226,6.022,90.108,0.0,0.0,0.645,0.0,1638.400,387321.200,2777041.400,0.0,0.0,0.0,4203.800
2.586,6.034,90.948,0.0,0.0,0.431,0.0,1638.400,408881.200,2954383.800,0.0,0.0,0.0,4369.600
3.846,7.051,88.675,0.0,0.0,0.427,0.0,3276.800,421085.800,3023926.0,0.0,0.0,0.0,4371.800
3.011,7.527,87.742,0.645,0.0,1.075,0.0,31129.600,429584.0,3084592.400,0.0,0.0,0.200,4548.400
1.952,6.291,90.889,0.0,0.0,0.868,0.0,819.200,418471.600,3025531.800,0.0,0.0,0.0,4421.800
4.310,5.819,89.224,0.0,0.0,0.647,0.0,3276.800,426447.600,3061801.600,0.0,0.0,0.0,4494.200
2.966,7.627,88.347,0.0,0.0,1.059,0.0,819.200,422767.400,3052868.800,0.0,0.0,0.0,4471.600
4.338,6.508,87.636,0.0,0.0,1.518,0.0,1638.400,427779.200,3066292.600,0.0,0.0,0.0,4448.200
2.542,8.475,88.136,0.0,0.0,0.847,0.0,1638.400,424310.0,3047269.200,0.0,0.0,0.0,4514.400
2.766,7.872,88.085,0.638,0.0,0.638,0.0,15564.800,426716.0,3085725.200,0.0,0.0,0.0,4567.600
3.433,7.082,88.627,0.0,0.0,0.858,0.0,1638.400,438595.800,3148932.600,0.0,0.0,0.0,4567.800
2.778,7.692,88.462,0.0,0.0,1.068,0.0,1638.400,424110.400,3046662.200,0.0,0.0,0.0,4379.0
3.205,6.410,89.744,0.0,0.0,0.641,0.0,2457.600,430425.0,3112011.400,0.0,0.0,0.0,4534.200
3.185,8.068,88.110,0.0,0.0,0.637,0.0,3276.800,421572.200,3023810.800,0.0,0.0,0.0,4364.600
0.201,0.201,99.598,0.0,0.0,0.0,0.0,819.200,3127.0,935.600,0.0,0.0,0.0,58.800
