"Dstat 0.7.2 CSV output"
"Author:","Dag Wieers <dag@wieers.com>",,,,"URL:","http://dag.wieers.com/home-made/dstat/"
"Host:","Server3",,,,"User:","mstevan"
"Cmdline:","dstat --output /home/mstevan/logs/experiment_3.2/dstat/vs_512-vcpr_4-wtpm_64-rep_4.csv 5 16",,,,"Date:","28 Oct 2019 09:03:05 UTC"

"total cpu usage",,,,,,"dsk/total",,"net/total",,"paging",,"system",
"usr","sys","idl","wai","hiq","siq","read","writ","recv","send","in","out","int","csw"
2.073,3.879,93.169,0.322,0.0,0.557,12142.161,1238372.339,0.0,0.0,0.0,0.0,0.105,1208.442
1.205,0.602,98.193,0.0,0.0,0.0,0.0,819.200,11787.600,40253.200,0.0,0.0,0.0,193.400
3.011,6.452,89.462,0.0,0.0,1.075,0.0,1638.400,400784.600,2859993.600,0.0,0.0,0.0,4195.800
3.672,7.991,87.473,0.0,0.0,0.864,0.0,1638.400,435168.400,3116403.400,0.0,0.0,0.0,4478.600
2.998,6.852,88.865,0.0,0.0,1.285,0.0,2457.600,440613.800,3179324.800,0.0,0.0,0.0,4685.200
4.077,7.296,87.339,0.429,0.0,0.858,0.0,19660.800,446386.0,3201536.0,0.0,0.0,0.0,4517.0
4.274,7.051,87.821,0.0,0.0,0.855,0.0,819.200,437991.0,3130774.800,0.0,0.0,0.0,4521.200
3.390,8.263,87.288,0.0,0.0,1.059,0.0,3276.800,447193.400,3233919.800,0.0,0.0,0.0,4685.200
4.283,6.638,87.794,0.0,0.0,1.285,0.0,2457.600,452105.0,3240723.200,0.0,0.0,0.0,4618.600
3.922,5.447,89.978,0.0,0.0,0.654,0.0,819.200,440619.0,3182710.600,0.0,0.0,0.0,4557.200
4.468,7.234,87.447,0.0,0.0,0.851,0.0,1638.400,444612.600,3189590.600,0.0,0.0,0.0,4621.600
3.863,6.867,87.768,0.215,0.0,1.288,0.0,20480.0,451576.0,3239723.0,0.0,0.0,0.0,4671.400
2.366,7.957,88.817,0.0,0.0,0.860,0.0,819.200,443591.800,3201230.800,0.0,0.0,0.0,4673.600
3.656,8.172,86.667,0.0,0.0,1.505,0.0,1638.400,450549.400,3232419.0,0.0,0.0,0.0,4578.400
3.171,8.668,87.315,0.0,0.0,0.846,0.0,2457.600,456434.400,3298693.800,0.0,0.0,0.0,4754.200
4.283,7.066,87.580,0.0,0.0,1.071,0.0,1638.400,437267.600,3126127.200,0.0,0.0,0.0,4549.200
0.601,0.401,98.998,0.0,0.0,0.0,0.0,1638.400,6214.0,1800.400,0.0,0.0,0.0,70.600
