"Dstat 0.7.2 CSV output"
"Author:","Dag Wieers <dag@wieers.com>",,,,"URL:","http://dag.wieers.com/home-made/dstat/"
"Host:","Server3",,,,"User:","mstevan"
"Cmdline:","dstat --output /home/mstevan/logs/experiment_3.2/dstat/vs_64-vcpr_4-wtpm_64-rep_3.csv 5 16",,,,"Date:","28 Oct 2019 06:44:59 UTC"

"total cpu usage",,,,,,"dsk/total",,"net/total",,"paging",,"system",
"usr","sys","idl","wai","hiq","siq","read","writ","recv","send","in","out","int","csw"
1.766,3.275,94.129,0.349,0.0,0.481,10452.803,1602132.420,0.0,0.0,0.0,0.0,0.136,707.477
1.002,1.202,97.796,0.0,0.0,0.0,0.0,1638.400,11572.0,7704.600,0.0,0.0,0.0,155.400
3.419,5.556,89.744,0.0,0.0,1.282,0.0,1638.400,410215.200,771135.600,0.0,0.0,0.0,4183.0
3.602,7.203,88.559,0.0,0.0,0.636,0.0,819.200,445513.800,853110.800,0.0,0.0,0.0,4515.0
3.814,7.627,86.653,0.424,0.0,1.483,0.0,23756.800,451938.600,860070.600,0.0,0.0,0.200,4544.800
3.397,6.794,88.747,0.0,0.0,1.062,0.0,819.200,449736.600,859632.800,0.0,0.0,0.0,4537.400
4.292,7.511,87.339,0.0,0.0,0.858,0.0,1638.400,455225.200,865830.800,0.0,0.0,0.0,4808.200
3.501,5.689,89.716,0.0,0.0,1.094,0.0,3276.800,459362.800,874208.600,0.0,0.0,0.0,4792.200
3.486,5.447,89.978,0.0,0.0,1.089,0.0,819.200,451474.800,863790.600,0.0,0.0,0.0,4661.600
3.011,7.097,88.817,0.0,0.0,1.075,0.0,1638.400,451586.600,857729.800,0.0,0.0,0.0,4424.800
3.390,7.627,87.076,0.424,0.0,1.483,0.0,15564.800,455751.200,866790.0,0.0,0.0,0.0,4574.400
3.226,6.237,89.892,0.0,0.0,0.645,0.0,819.200,453645.200,868578.0,0.0,0.0,0.0,4654.400
3.688,6.941,88.069,0.0,0.0,1.302,0.0,1638.400,469293.200,894239.0,0.0,0.0,0.0,4622.0
2.603,7.375,88.720,0.0,0.0,1.302,0.0,1638.400,454627.800,864725.400,0.0,0.0,0.0,4504.0
2.790,7.296,88.841,0.0,0.0,1.073,0.0,2457.600,458346.400,878004.200,0.0,0.0,0.0,4776.800
3.441,6.667,89.032,0.0,0.0,0.860,0.0,1638.400,449908.800,854485.600,0.0,0.0,0.0,4569.400
0.201,0.201,98.996,0.602,0.0,0.0,0.0,14745.600,3127.0,935.600,0.0,0.0,0.0,59.0
