"Dstat 0.7.2 CSV output"
"Author:","Dag Wieers <dag@wieers.com>",,,,"URL:","http://dag.wieers.com/home-made/dstat/"
"Host:","Server3",,,,"User:","mstevan"
"Cmdline:","dstat --output /home/mstevan/logs/experiment_3.2/dstat/vs_64-vcpr_16-wtpm_32-rep_2.csv 5 16",,,,"Date:","28 Oct 2019 07:11:59 UTC"

"total cpu usage",,,,,,"dsk/total",,"net/total",,"paging",,"system",
"usr","sys","idl","wai","hiq","siq","read","writ","recv","send","in","out","int","csw"
1.816,3.374,93.985,0.334,0.0,0.491,9869.012,1512904.735,0.0,0.0,0.0,0.0,0.129,822.829
0.402,0.402,99.195,0.0,0.0,0.0,0.0,3276.800,12928.600,12686.600,0.0,0.0,0.0,143.600
3.830,9.362,85.532,0.0,0.0,1.277,0.0,819.200,709494.600,1363387.600,0.0,0.0,0.0,3641.200
4.681,9.362,84.043,0.0,0.0,1.915,0.0,2457.600,738712.800,1415242.600,0.0,0.0,0.0,3649.200
2.838,8.734,87.773,0.0,0.0,0.655,0.0,2457.600,747031.400,1430988.200,0.0,0.0,0.0,3576.200
3.632,7.906,87.179,0.0,0.0,1.282,0.0,819.200,741197.200,1425668.600,0.0,0.0,0.0,3719.400
2.826,9.565,86.087,0.0,0.0,1.522,0.0,1638.400,758908.0,1453964.0,0.0,0.0,0.0,3675.800
4.478,8.742,85.288,0.213,0.0,1.279,0.0,18841.600,769245.600,1479118.600,0.0,0.0,0.0,3829.0
4.526,8.836,85.345,0.0,0.0,1.293,0.0,1638.400,769712.600,1474172.200,0.0,0.0,0.0,3749.200
4.086,8.387,86.022,0.0,0.0,1.505,0.0,1638.400,788319.400,1511997.0,0.0,0.0,0.0,3733.0
3.696,8.696,86.304,0.0,0.0,1.304,0.0,819.200,780281.600,1500458.200,0.0,0.0,0.0,3701.200
5.139,9.422,84.368,0.0,0.0,1.071,0.0,1638.400,752989.200,1442335.200,0.0,0.0,0.0,3792.800
4.329,8.658,85.498,0.0,0.0,1.515,0.0,1638.400,756021.200,1448896.600,0.0,0.0,0.0,3785.800
3.050,7.625,86.928,0.436,0.0,1.961,0.0,17203.200,772583.0,1486276.600,0.0,0.0,0.0,3545.800
3.688,9.328,85.466,0.0,0.0,1.518,0.0,3276.800,763845.800,1462460.200,0.0,0.0,0.0,3721.600
3.879,8.190,87.069,0.0,0.0,0.862,0.0,819.200,742587.600,1427894.0,0.0,0.0,0.0,3762.400
0.402,0.0,99.598,0.0,0.0,0.0,0.0,1638.400,6227.200,1800.400,0.0,0.0,0.0,68.800
