"Dstat 0.7.2 CSV output"
"Author:","Dag Wieers <dag@wieers.com>",,,,"URL:","http://dag.wieers.com/home-made/dstat/"
"Host:","Server3",,,,"User:","mstevan"
"Cmdline:","dstat --output /home/mstevan/logs/experiment_3.2/dstat/vs_64-vcpr_32-wtpm_64-rep_3.csv 5 16",,,,"Date:","28 Oct 2019 07:36:08 UTC"

"total cpu usage",,,,,,"dsk/total",,"net/total",,"paging",,"system",
"usr","sys","idl","wai","hiq","siq","read","writ","recv","send","in","out","int","csw"
1.879,3.525,93.760,0.323,0.0,0.513,9399.308,1441107.462,0.0,0.0,0.0,0.0,0.123,917.418
0.401,0.601,98.397,0.601,0.0,0.0,0.0,18022.400,9452.200,8636.800,0.0,0.0,0.0,132.800
3.704,9.586,84.967,0.0,0.0,1.743,0.0,4915.200,859273.200,1646424.200,0.0,0.0,0.0,3842.800
4.435,9.978,83.592,0.0,0.0,1.996,0.0,1638.400,930324.400,1785267.200,0.0,0.0,0.0,3803.600
4.762,10.606,82.900,0.0,0.0,1.732,0.0,2457.600,897903.600,1725859.400,0.0,0.0,0.0,3863.600
5.0,8.913,84.783,0.0,0.0,1.304,0.0,1638.400,854045.800,1638308.800,0.0,0.0,0.0,3792.400
4.051,11.727,82.729,0.0,0.0,1.493,0.0,819.200,911279.200,1751618.200,0.0,0.0,0.0,3797.600
5.100,9.978,83.149,0.0,0.0,1.774,0.0,3276.800,923550.600,1772977.400,0.0,0.0,0.0,3774.200
5.702,10.307,82.237,0.219,0.0,1.535,0.0,15564.800,931432.400,1787702.800,0.0,0.0,0.0,3890.600
4.396,10.769,82.637,0.0,0.0,2.198,0.0,819.200,956947.0,1841358.800,0.0,0.0,0.0,3881.600
5.139,11.135,81.799,0.0,0.0,1.927,0.0,1638.400,915121.200,1755185.200,0.0,0.0,0.0,3630.800
6.167,8.150,84.141,0.0,0.0,1.542,0.0,1638.400,909537.0,1744542.200,0.0,0.0,0.0,3786.400
4.878,10.643,82.262,0.0,0.0,2.217,0.0,819.200,901499.600,1734130.400,0.0,0.0,0.200,3837.600
4.545,10.606,83.550,0.0,0.0,1.299,0.0,1638.400,907201.400,1740131.400,0.0,0.0,0.0,3810.800
3.720,9.409,84.464,0.438,0.0,1.969,0.0,16384.0,910432.600,1750557.200,0.0,0.0,0.0,3703.0
4.803,10.262,83.406,0.0,0.0,1.528,0.0,1638.400,875151.400,1678974.800,0.0,0.0,0.0,3687.800
0.816,1.429,97.551,0.0,0.0,0.204,0.0,1638.400,106072.800,193169.800,0.0,0.0,0.0,803.600
