"Dstat 0.7.2 CSV output"
"Author:","Dag Wieers <dag@wieers.com>",,,,"URL:","http://dag.wieers.com/home-made/dstat/"
"Host:","Server3",,,,"User:","mstevan"
"Cmdline:","dstat --output /home/mstevan/logs/experiment_3.2/dstat/vs_64-vcpr_8-wtpm_32-rep_1.csv 5 16",,,,"Date:","28 Oct 2019 06:53:30 UTC"

"total cpu usage",,,,,,"dsk/total",,"net/total",,"paging",,"system",
"usr","sys","idl","wai","hiq","siq","read","writ","recv","send","in","out","int","csw"
1.774,3.289,94.111,0.344,0.0,0.482,10261.126,1572833.458,0.0,0.0,0.0,0.0,0.134,735.726
0.403,0.403,99.194,0.0,0.0,0.0,0.0,1638.400,16274.800,19300.400,0.0,0.0,0.0,182.400
4.246,7.431,87.049,0.0,0.0,1.274,0.0,1638.400,570857.400,1091463.400,0.0,0.0,0.0,4391.800
3.896,6.494,88.745,0.0,0.0,0.866,0.0,819.200,610770.800,1173267.800,0.0,0.0,0.0,4600.400
3.063,7.877,88.184,0.0,0.0,0.875,0.0,3276.800,621957.0,1190110.600,0.0,0.0,0.0,4572.200
4.338,6.941,86.334,0.868,0.0,1.518,0.0,18841.600,638631.200,1221920.400,0.0,0.0,0.0,4553.0
3.017,8.190,87.716,0.0,0.0,1.078,0.0,819.200,624958.200,1200904.400,0.0,0.0,0.0,4589.200
5.011,7.407,86.492,0.0,0.0,1.089,0.0,3276.800,623144.600,1191631.800,0.0,0.0,0.0,4521.400
3.922,6.100,89.107,0.0,0.0,0.871,0.0,819.200,622024.200,1192019.600,0.0,0.0,0.0,4670.0
3.753,6.181,89.404,0.0,0.0,0.662,0.0,1638.400,611664.0,1173671.0,0.0,0.0,0.0,4580.800
4.301,9.032,85.591,0.0,0.0,1.075,0.0,1638.400,626010.600,1196478.600,0.0,0.0,0.0,4593.200
3.043,6.957,88.478,0.435,0.0,1.087,0.0,14745.600,616928.200,1185956.0,0.0,0.0,0.0,4550.0
4.468,8.085,86.383,0.0,0.0,1.064,0.0,4915.200,628090.800,1201655.600,0.0,0.0,0.0,4407.600
4.681,8.511,85.745,0.0,0.0,1.064,0.0,1638.400,630377.200,1205904.0,0.0,0.0,0.0,4554.200
3.233,7.759,88.147,0.0,0.0,0.862,0.0,1638.400,616492.200,1185010.0,0.0,0.0,0.0,4529.200
3.680,7.576,88.095,0.0,0.0,0.649,0.0,2457.600,597540.200,1142092.200,0.0,0.0,0.0,4585.400
0.600,0.600,98.800,0.0,0.0,0.0,0.0,1638.400,6214.0,1800.400,0.0,0.0,0.0,72.800
