"Dstat 0.7.2 CSV output"
"Author:","Dag Wieers <dag@wieers.com>",,,,"URL:","http://dag.wieers.com/home-made/dstat/"
"Host:","Server3",,,,"User:","mstevan"
"Cmdline:","dstat --output /home/mstevan/logs/experiment_3.2/dstat/vs_64-vcpr_32-wtpm_32-rep_2.csv 5 16",,,,"Date:","28 Oct 2019 07:29:02 UTC"

"total cpu usage",,,,,,"dsk/total",,"net/total",,"paging",,"system",
"usr","sys","idl","wai","hiq","siq","read","writ","recv","send","in","out","int","csw"
1.854,3.465,93.853,0.326,0.0,0.503,9532.764,1461506.045,0.0,0.0,0.0,0.0,0.124,886.528
0.404,0.808,98.384,0.202,0.0,0.202,0.0,19660.800,12685.200,12022.600,0.0,0.0,0.0,155.200
3.441,8.817,86.452,0.0,0.0,1.290,0.0,4915.200,708840.0,1362691.400,0.0,0.0,0.0,4076.200
5.400,7.559,85.745,0.0,0.0,1.296,0.0,1638.400,769829.200,1475314.400,0.0,0.0,0.0,3907.400
4.283,9.208,85.011,0.0,0.0,1.499,0.0,2457.600,786883.200,1512509.400,0.0,0.0,0.0,4088.200
4.516,8.387,86.022,0.0,0.0,1.075,0.0,1638.400,732516.200,1402498.600,0.0,0.0,0.0,3975.200
4.274,10.043,84.615,0.0,0.0,1.068,0.0,1638.400,767474.400,1471312.800,0.0,0.0,0.0,3917.0
3.744,7.709,87.665,0.0,0.0,0.881,0.0,2457.600,787140.0,1513945.400,0.0,0.0,0.0,3884.400
4.283,8.779,85.011,0.214,0.0,1.713,0.0,14745.600,775546.600,1486615.400,0.0,0.0,0.0,3596.0
4.077,8.369,85.837,0.0,0.0,1.717,0.0,1638.400,795362.200,1524495.400,0.0,0.0,0.0,3484.200
3.696,8.478,86.739,0.0,0.0,1.087,0.0,819.200,796664.600,1532515.200,0.0,0.0,0.0,3565.200
4.051,9.595,84.861,0.0,0.0,1.493,0.0,1638.400,781119.0,1496882.600,0.0,0.0,0.0,3607.200
3.493,7.860,87.773,0.0,0.0,0.873,0.0,819.200,773599.0,1486780.600,0.0,0.0,0.0,3809.200
4.814,8.972,85.120,0.0,0.0,1.094,0.0,1638.400,793632.0,1520200.800,0.0,0.0,0.0,3846.400
3.640,9.422,84.582,0.857,0.0,1.499,0.0,19660.800,784382.600,1504435.800,0.0,0.0,0.0,3671.200
4.459,8.917,85.775,0.0,0.0,0.849,0.0,1638.400,776214.400,1492777.800,0.0,0.0,0.0,3687.600
1.014,1.420,97.363,0.0,0.0,0.203,0.0,1638.400,61367.600,107300.0,0.0,0.0,0.0,688.600
