"Dstat 0.7.2 CSV output"
"Author:","Dag Wieers <dag@wieers.com>",,,,"URL:","http://dag.wieers.com/home-made/dstat/"
"Host:","Server3",,,,"User:","mstevan"
"Cmdline:","dstat --output /home/mstevan/logs/experiment_3.2/dstat/vs_64-vcpr_8-wtpm_8-rep_1.csv 5 16",,,,"Date:","28 Oct 2019 06:47:49 UTC"

"total cpu usage",,,,,,"dsk/total",,"net/total",,"paging",,"system",
"usr","sys","idl","wai","hiq","siq","read","writ","recv","send","in","out","int","csw"
1.773,3.289,94.107,0.348,0.0,0.483,10388.130,1592247.613,0.0,0.0,0.0,0.0,0.135,726.296
0.602,0.402,98.996,0.0,0.0,0.0,0.0,1638.400,10503.0,9500.600,0.0,0.0,0.0,118.800
1.268,3.383,94.926,0.0,0.0,0.423,0.0,819.200,334618.800,640507.600,0.0,0.0,0.0,1841.200
2.101,3.992,93.487,0.0,0.0,0.420,0.0,1638.400,316126.600,599670.800,0.0,0.0,0.0,1657.800
1.255,3.766,94.142,0.0,0.0,0.837,0.0,1638.400,327304.400,626397.600,0.0,0.0,0.0,1733.0
2.101,3.571,94.118,0.0,0.0,0.210,0.0,2457.600,340069.400,646049.400,0.0,0.0,0.0,1768.800
2.510,3.766,92.678,0.418,0.0,0.628,0.0,18841.600,346363.200,657980.800,0.0,0.0,0.0,1986.800
2.096,3.774,93.920,0.0,0.0,0.210,0.0,5734.400,338494.400,648132.200,0.0,0.0,0.0,1942.0
3.119,4.574,91.684,0.0,0.0,0.624,0.0,1638.400,362000.600,688065.800,0.0,0.0,0.0,2094.600
2.306,3.983,92.662,0.0,0.0,1.048,0.0,1638.400,363700.600,691771.400,0.0,0.0,0.0,1991.800
1.895,4.842,93.053,0.0,0.0,0.211,0.0,819.200,361033.200,691315.400,0.0,0.0,0.0,2219.400
2.306,3.774,93.711,0.0,0.0,0.210,0.0,1638.400,347027.0,659709.0,0.0,0.0,0.0,1934.400
1.271,4.237,93.432,0.636,0.0,0.424,0.0,15564.800,350790.800,666495.600,0.0,0.0,0.0,1989.200
2.484,4.555,92.961,0.0,0.0,0.0,0.0,819.200,332960.200,637662.0,0.0,0.0,0.0,1777.0
2.737,3.789,92.842,0.0,0.0,0.632,0.0,3276.800,344404.800,654388.400,0.0,0.0,0.0,1937.400
2.911,4.158,92.516,0.0,0.0,0.416,0.0,819.200,322532.200,616734.600,0.0,0.0,0.0,1760.200
0.602,0.402,98.996,0.0,0.0,0.0,0.0,1638.400,6214.0,1800.400,0.0,0.0,0.0,68.600
