"Dstat 0.7.2 CSV output"
"Author:","Dag Wieers <dag@wieers.com>",,,,"URL:","http://dag.wieers.com/home-made/dstat/"
"Host:","Server3",,,,"User:","mstevan"
"Cmdline:","dstat --output /home/mstevan/logs/experiment_3.2/dstat/vs_64-vcpr_16-wtpm_32-rep_4.csv 5 16",,,,"Date:","28 Oct 2019 07:14:49 UTC"

"total cpu usage",,,,,,"dsk/total",,"net/total",,"paging",,"system",
"usr","sys","idl","wai","hiq","siq","read","writ","recv","send","in","out","int","csw"
1.826,3.396,93.952,0.333,0.0,0.494,9811.325,1504084.935,0.0,0.0,0.0,0.0,0.128,836.070
0.402,0.402,99.195,0.0,0.0,0.0,0.0,819.200,7680.600,6866.600,0.0,0.0,0.0,101.800
4.430,9.283,85.865,0.0,0.0,0.422,0.0,1638.400,702360.800,1345436.0,0.0,0.0,0.0,3619.400
3.426,8.565,86.081,0.857,0.0,1.071,0.0,24576.0,729627.200,1402560.0,0.0,0.0,0.0,3657.0
2.845,8.534,87.090,0.0,0.0,1.532,0.0,1638.400,730973.400,1400120.400,0.0,0.0,0.0,3566.600
4.721,7.296,86.910,0.0,0.0,1.073,0.0,3276.800,735818.400,1409319.200,0.0,0.0,0.0,3414.400
4.051,9.168,85.714,0.0,0.0,1.066,0.0,819.200,749884.200,1442390.400,0.0,0.0,0.0,3432.400
4.329,7.792,87.013,0.0,0.0,0.866,0.0,3276.800,751164.400,1438319.600,0.0,0.0,0.0,3644.600
4.338,8.243,86.334,0.0,0.0,1.085,0.0,1638.400,780480.0,1495808.800,0.0,0.0,0.0,3644.0
4.449,8.263,85.593,0.212,0.0,1.483,0.0,14745.600,763981.0,1469691.200,0.0,0.0,0.0,3504.0
3.712,8.952,85.590,0.0,0.0,1.747,0.0,1638.400,754031.800,1444603.400,0.0,0.0,0.0,3685.400
3.226,8.817,86.667,0.0,0.0,1.290,0.0,819.200,778777.200,1497192.800,0.0,0.0,0.0,3605.400
3.240,9.719,85.961,0.0,0.0,1.080,0.0,1638.400,766103.600,1469059.800,0.0,0.0,0.0,3455.400
4.139,7.843,86.492,0.0,0.0,1.525,0.0,1638.400,769833.800,1475343.200,0.0,0.0,0.0,3575.800
3.688,7.158,87.852,0.0,0.0,1.302,0.0,2457.600,783546.400,1506600.400,0.0,0.0,0.0,3548.600
3.433,8.798,85.622,0.429,0.0,1.717,0.0,14745.600,749455.400,1436213.400,0.0,0.0,0.0,3262.800
1.020,1.633,97.143,0.0,0.0,0.204,0.0,1638.400,78304.800,139676.600,0.0,0.0,0.0,744.0
