"Dstat 0.7.2 CSV output"
"Author:","Dag Wieers <dag@wieers.com>",,,,"URL:","http://dag.wieers.com/home-made/dstat/"
"Host:","Server3",,,,"User:","mstevan"
"Cmdline:","dstat --output /home/mstevan/logs/experiment_3.2/dstat/vs_64-vcpr_4-wtpm_8-rep_4.csv 5 16",,,,"Date:","28 Oct 2019 06:35:02 UTC"

"total cpu usage",,,,,,"dsk/total",,"net/total",,"paging",,"system",
"usr","sys","idl","wai","hiq","siq","read","writ","recv","send","in","out","int","csw"
1.747,3.232,94.189,0.355,0.0,0.476,10685.515,1637722.755,0.0,0.0,0.0,0.0,0.139,648.271
0.402,0.201,99.197,0.0,0.0,0.201,0.0,819.200,9247.200,12187.400,0.0,0.0,0.0,124.600
2.479,4.132,92.975,0.0,0.0,0.413,0.0,1638.400,310285.600,588375.400,0.0,0.0,0.0,1640.600
1.449,4.555,93.375,0.414,0.0,0.207,0.0,18022.400,315765.600,604286.400,0.0,0.0,0.0,1697.800
2.282,4.149,93.154,0.0,0.0,0.415,0.0,3276.800,337929.0,641668.600,0.0,0.0,0.0,1733.400
2.697,4.772,92.116,0.0,0.0,0.415,0.0,1638.400,348889.400,662939.200,0.0,0.0,0.0,1806.600
2.075,4.357,93.568,0.0,0.0,0.0,0.0,819.200,324729.200,621738.800,0.0,0.0,0.0,1619.200
2.484,4.348,92.754,0.0,0.0,0.414,0.0,3276.800,338385.0,642805.0,0.0,0.0,0.0,1764.200
2.296,3.758,93.528,0.0,0.0,0.418,0.0,1638.400,329181.600,624773.600,0.0,0.0,0.0,1671.800
2.277,4.762,92.547,0.414,0.0,0.0,0.0,21299.200,334585.400,640831.600,0.0,0.0,0.0,1746.400
2.495,3.742,93.347,0.0,0.0,0.416,0.0,1638.400,324548.600,615606.0,0.0,0.0,0.0,1605.400
2.516,3.145,93.920,0.0,0.0,0.419,0.0,1638.400,336407.800,638933.200,0.0,0.0,0.0,1683.600
1.677,4.403,93.711,0.0,0.0,0.210,0.0,819.200,319219.600,610562.400,0.0,0.0,0.0,1607.600
1.891,3.782,93.908,0.0,0.0,0.420,0.0,2457.600,343723.800,652861.200,0.0,0.0,0.0,1824.800
1.879,3.758,93.737,0.0,0.0,0.626,0.0,1638.400,337003.600,645133.800,0.0,0.0,0.0,1735.0
1.883,3.766,92.887,0.837,0.0,0.628,0.0,14745.600,323244.400,613637.400,0.0,0.0,0.0,1684.0
0.802,0.401,98.798,0.0,0.0,0.0,0.0,1638.400,6214.0,1800.400,0.0,0.0,0.0,68.600
