"Dstat 0.7.2 CSV output"
"Author:","Dag Wieers <dag@wieers.com>",,,,"URL:","http://dag.wieers.com/home-made/dstat/"
"Host:","Server3",,,,"User:","mstevan"
"Cmdline:","dstat --output /home/mstevan/logs/experiment_3.2/dstat/vs_64-vcpr_4-wtpm_32-rep_3.csv 5 16",,,,"Date:","28 Oct 2019 06:39:18 UTC"

"total cpu usage",,,,,,"dsk/total",,"net/total",,"paging",,"system",
"usr","sys","idl","wai","hiq","siq","read","writ","recv","send","in","out","int","csw"
1.754,3.247,94.170,0.353,0.0,0.477,10584.459,1622276.660,0.0,0.0,0.0,0.0,0.138,669.675
0.605,0.403,98.992,0.0,0.0,0.0,0.0,1638.400,13687.600,14532.800,0.0,0.0,0.0,172.400
3.178,6.144,89.831,0.0,0.0,0.847,0.0,819.200,393045.200,753193.400,0.0,0.0,0.0,4164.400
2.350,7.265,89.744,0.0,0.0,0.641,0.0,2457.600,432896.600,825157.800,0.0,0.0,0.0,4458.600
2.397,6.536,90.632,0.0,0.0,0.436,0.0,1638.400,435233.800,829489.600,0.0,0.0,0.0,4369.200
3.037,5.640,90.672,0.0,0.0,0.651,0.0,1638.400,441904.600,847702.600,0.0,0.0,0.0,4534.600
3.191,6.596,87.447,1.489,0.0,1.277,0.0,25395.200,447199.800,852668.800,0.0,0.0,0.0,4590.200
2.165,5.628,91.126,0.0,0.0,1.082,0.0,2457.600,443162.800,849717.800,0.0,0.0,0.0,4499.800
3.247,5.844,89.827,0.0,0.0,1.082,0.0,1638.400,450367.400,858966.400,0.0,0.0,0.0,4566.800
4.121,7.375,87.636,0.0,0.0,0.868,819.200,1638.400,446219.200,851333.400,0.0,0.0,0.0,4626.0
3.814,6.992,87.924,0.0,0.0,1.271,0.0,819.200,442516.200,849310.400,0.0,0.0,0.200,4555.200
3.838,6.823,88.486,0.0,0.0,0.853,0.0,1638.400,435465.600,830065.600,0.0,0.0,0.0,4356.600
3.198,8.316,86.994,0.426,0.0,1.066,0.0,22118.400,448746.600,855681.400,0.0,0.0,0.0,4585.400
3.030,6.494,90.043,0.0,0.0,0.433,0.0,1638.400,452604.200,868224.400,0.0,0.0,0.0,4576.0
3.037,7.158,88.937,0.0,0.0,0.868,0.0,2457.600,449148.600,856737.400,0.0,0.0,0.0,4518.0
3.797,7.173,88.186,0.0,0.0,0.844,0.0,1638.400,427289.400,813608.200,0.0,0.0,0.0,4287.400
0.201,0.402,99.398,0.0,0.0,0.0,0.0,819.200,3127.0,935.600,0.0,0.0,0.0,65.400
