"Dstat 0.7.2 CSV output"
"Author:","Dag Wieers <dag@wieers.com>",,,,"URL:","http://dag.wieers.com/home-made/dstat/"
"Host:","Server3",,,,"User:","mstevan"
"Cmdline:","dstat --output /home/mstevan/logs/experiment_3.2/dstat/vs_64-vcpr_4-wtpm_64-rep_2.csv 5 16",,,,"Date:","28 Oct 2019 06:43:34 UTC"

"total cpu usage",,,,,,"dsk/total",,"net/total",,"paging",,"system",
"usr","sys","idl","wai","hiq","siq","read","writ","recv","send","in","out","int","csw"
1.763,3.269,94.139,0.350,0.0,0.479,10485.434,1607119.420,0.0,0.0,0.0,0.0,0.137,698.366
0.602,0.201,99.197,0.0,0.0,0.0,0.0,819.200,12003.200,13429.0,0.0,0.0,0.0,169.800
2.708,5.625,90.0,0.208,0.0,1.458,0.0,10649.600,331017.400,617824.800,0.0,0.0,0.0,3212.800
2.521,4.412,91.807,0.210,0.0,1.050,0.0,9830.400,307850.200,578921.800,0.0,0.0,0.0,3054.200
3.404,4.468,90.426,0.0,0.0,1.702,0.0,2457.600,384759.0,721347.800,0.0,0.0,0.0,3766.600
3.004,7.940,87.768,0.0,0.0,1.288,0.0,2457.600,460339.600,873439.800,0.0,0.0,0.0,4656.0
3.640,7.495,87.794,0.0,0.0,1.071,0.0,819.200,456834.800,874944.400,0.0,0.0,0.0,4676.800
4.113,5.628,89.177,0.0,0.0,1.082,0.0,3276.800,454175.600,864026.400,0.0,0.0,0.0,4577.600
2.808,6.911,88.985,0.0,0.0,1.296,0.0,1638.400,455202.800,867164.400,0.0,0.0,0.0,4508.800
2.796,6.882,88.817,0.645,0.0,0.860,0.0,22118.400,453965.400,867161.400,0.0,0.0,0.0,4622.0
2.838,6.769,89.301,0.0,0.0,1.092,0.0,1638.400,470064.800,895538.800,0.0,0.0,0.0,4762.400
3.247,5.844,89.827,0.0,0.0,1.082,0.0,819.200,462560.200,886362.800,0.0,0.0,0.0,4799.800
2.586,7.543,88.578,0.0,0.0,1.293,0.0,1638.400,461549.400,879402.200,0.0,0.0,0.0,4776.800
3.648,6.652,87.983,0.0,0.0,1.717,0.0,1638.400,461380.0,877913.200,0.0,0.0,0.0,4707.800
2.559,7.889,88.273,0.0,0.0,1.279,0.0,2457.600,456661.800,873732.800,0.0,0.0,0.0,4702.400
3.226,6.882,88.172,0.645,0.0,1.075,0.0,14745.600,453707.0,860316.600,0.0,0.0,0.0,4649.400
1.0,0.0,98.800,0.0,0.0,0.200,0.0,1638.400,6298.400,1942.800,0.0,0.0,0.0,70.0
