"Dstat 0.7.2 CSV output"
"Author:","Dag Wieers <dag@wieers.com>",,,,"URL:","http://dag.wieers.com/home-made/dstat/"
"Host:","Server3",,,,"User:","mstevan"
"Cmdline:","dstat --output /home/mstevan/logs/experiment_3.2/dstat/vs_64-vcpr_8-wtpm_64-rep_3.csv 5 16",,,,"Date:","28 Oct 2019 07:02:02 UTC"

"total cpu usage",,,,,,"dsk/total",,"net/total",,"paging",,"system",
"usr","sys","idl","wai","hiq","siq","read","writ","recv","send","in","out","int","csw"
1.800,3.342,94.029,0.340,0.0,0.489,10076.356,1544590.653,0.0,0.0,0.0,0.0,0.131,788.936
0.404,1.010,98.384,0.0,0.0,0.202,0.0,1638.400,10942.800,7157.800,0.0,0.0,0.0,143.600
3.419,5.983,89.316,0.0,0.0,1.282,0.0,819.200,517594.400,988381.0,0.0,0.0,0.0,4045.600
4.237,7.839,86.441,0.0,0.0,1.483,0.0,2457.600,579334.600,1105131.0,0.0,0.0,0.0,4374.800
3.888,7.775,87.473,0.0,0.0,0.864,0.0,2457.600,598829.200,1146153.200,0.0,0.0,0.0,4471.0
3.609,8.068,87.049,0.212,0.0,1.062,0.0,18022.400,588083.0,1128952.0,0.0,0.0,0.0,4384.0
4.440,8.457,86.047,0.0,0.0,1.057,0.0,4915.200,601418.600,1149970.200,0.0,0.0,0.0,4417.600
5.285,6.765,86.469,0.0,0.0,1.480,0.0,3276.800,585950.0,1119739.200,0.0,0.0,0.0,4437.400
3.830,8.085,86.809,0.0,0.0,1.277,0.0,819.200,597168.200,1146474.400,0.0,0.0,0.0,4445.600
4.487,8.120,86.111,0.0,0.0,1.282,0.0,1638.400,593230.0,1134397.400,0.0,0.0,0.0,4441.0
3.390,8.686,86.864,0.0,0.0,1.059,0.0,819.200,587324.0,1127822.0,0.0,0.0,0.0,4420.600
4.264,8.742,85.928,0.213,0.0,0.853,0.0,15564.800,590966.400,1129053.400,0.0,0.0,0.0,4325.400
3.640,7.281,87.366,0.0,0.0,1.713,0.0,1638.400,583780.0,1115741.800,0.0,0.0,0.0,4374.800
4.104,8.207,87.041,0.0,0.0,0.648,0.0,1638.400,586664.400,1125573.600,0.0,0.0,0.0,4404.800
3.672,7.775,87.473,0.0,0.0,1.080,0.0,2457.600,593911.200,1135806.400,0.0,0.0,0.0,4308.400
2.637,7.253,89.231,0.0,0.0,0.879,0.0,1638.400,580126.600,1107084.600,0.0,0.0,0.0,4200.200
0.401,0.200,99.399,0.0,0.0,0.0,0.0,819.200,3127.0,935.600,0.0,0.0,0.0,54.800
