"Dstat 0.7.2 CSV output"
"Author:","Dag Wieers <dag@wieers.com>",,,,"URL:","http://dag.wieers.com/home-made/dstat/"
"Host:","Server3",,,,"User:","mstevan"
"Cmdline:","dstat --output /home/mstevan/logs/experiment_3.2/dstat/vs_64-vcpr_4-wtpm_8-rep_1.csv 5 16",,,,"Date:","28 Oct 2019 06:30:46 UTC"

"total cpu usage",,,,,,"dsk/total",,"net/total",,"paging",,"system",
"usr","sys","idl","wai","hiq","siq","read","writ","recv","send","in","out","int","csw"
1.746,3.231,94.187,0.358,0.0,0.478,10788.561,1653474.571,0.0,0.0,0.0,0.0,0.140,640.778
0.602,0.201,99.197,0.0,0.0,0.0,0.0,819.200,7614.400,9121.800,0.0,0.0,0.0,94.0
1.891,4.202,93.487,0.0,0.0,0.420,0.0,1638.400,326993.400,620885.800,0.0,0.0,0.0,1947.200
2.479,5.372,91.736,0.0,0.0,0.413,0.0,819.200,304698.200,582170.0,0.0,0.0,0.0,1951.800
1.263,3.579,94.737,0.0,0.0,0.421,0.0,1638.400,303052.0,574433.400,0.0,0.0,0.0,1605.200
2.292,3.750,93.333,0.417,0.0,0.208,0.0,20480.0,294827.200,558602.400,0.0,0.0,0.0,1570.200
1.446,4.132,93.802,0.0,0.0,0.620,0.0,1638.400,299457.200,572762.600,0.0,0.0,0.0,1518.600
1.867,4.564,93.154,0.0,0.0,0.415,0.0,3276.800,303507.800,575721.800,0.0,0.0,0.0,1565.200
1.667,3.750,94.583,0.0,0.0,0.0,0.0,0.0,304839.600,585291.200,0.0,0.0,0.0,1652.400
2.062,3.299,94.227,0.0,0.0,0.412,0.0,1638.400,281619.800,536176.800,0.0,0.0,0.0,1429.600
2.277,3.934,93.375,0.0,0.0,0.414,0.0,819.200,308346.0,589698.800,0.0,0.0,0.0,1669.400
1.879,4.384,93.319,0.0,0.0,0.418,0.0,1638.400,337542.600,640983.400,0.0,0.0,0.0,1783.800
1.681,3.361,94.328,0.420,0.0,0.210,0.0,22118.400,313192.600,598997.600,0.0,0.0,0.0,1676.600
1.875,4.792,93.125,0.0,0.0,0.208,0.0,1638.400,338857.400,643858.200,0.0,0.0,0.0,1806.400
1.684,3.789,94.316,0.0,0.0,0.211,0.0,2457.600,327099.200,621228.800,0.0,0.0,0.0,1834.400
1.670,3.549,94.572,0.0,0.0,0.209,0.0,1638.400,291135.800,556118.200,0.0,0.0,0.0,1447.200
0.602,0.402,98.795,0.0,0.0,0.201,0.0,1638.400,6313.200,1858.800,0.0,0.0,0.0,84.800
