PING 10.0.0.5 (10.0.0.5) 56(84) bytes of data.
64 bytes from 10.0.0.5: icmp_seq=1 ttl=64 time=1.18 ms
64 bytes from 10.0.0.5: icmp_seq=2 ttl=64 time=1.81 ms
664 bytes from 10.0.0.4: icmp_seq=3 ttl=64 time=0.682 ms664 bytes from 10.0.0.4: icmp_seq=4 ttl=64 time=0.409 ms664 bytes from 10.0.0.4: icmp_seq=5 ttl=64 time=0.574 ms664 bytes from 10.0.0.4: icmp_seq=6 ttl=64 time=0.760 ms664 bytes from 10.0.0.4: icmp_seq=7 ttl=64 time=0.906 ms664 bytes from 10.0.0.4: icmp_seq=8 ttl=64 time=0.566 ms664 bytes from 10.0.0.4: icmp_seq=9 ttl=64 time=1.13 ms
64 bytes from 10.0.0.4: icmp_seq=10 ttl=64 time=0.543 ms
64 bytes from 10.0.0.4: icmp_seq=11 ttl=64 time=0.349 ms
64 bytes from 10.0.0.4: icmp_seq=12 ttl=64 time=0.393 ms
64 bytes from 10.0.0.4: icmp_seq=13 ttl=64 time=0.525 ms
64 bytes from 10.0.0.4: icmp_seq=14 ttl=64 time=0.827 ms
64 bytes from 10.0.0.4: icmp_seq=15 ttl=64 time=0.450 ms
64 bytes from 10.0.0.4: icmp_seq=16 ttl=64 time=1.52 ms

--- 10.0.0.4 ping statistics ---
16 packets transmitted, 16 received, 0% packet loss, time 76761ms
rtt min/avg/max/mdev = 0.349/0.711/1.528/0.314 ms
