PING 10.0.0.5 (10.0.0.5) 56(84) bytes of data.
64 bytes from 10.0.0.5: icmp_seq=1 ttl=64 time=0.567 ms
64 bytes from 10.0.0.5: icmp_seq=2 ttl=64 time=0.612 ms664 bytes from 10.0.0.5: icmp_seq=3 ttl=64 time=0.444 ms664 bytes from 10.0.0.5: icmp_seq=4 ttl=64 time=0.453 ms664 bytes from 10.0.0.5: icmp_seq=5 ttl=64 time=0.422 ms664 bytes from 10.0.0.5: icmp_seq=6 ttl=64 time=0.434 m6464 bytes from 10.0.0.5: icmp_seq=7 ttl=64 time=0.582 m6464 bytes from 10.0.0.5: icmp_seq=8 ttl=64 time=0.763 m6464 bytes from 10.0.0.5: icmp_seq=9 ttl=64 time=0.527 m6464 bytes from 10.0.0.5: icmp_seq=10 ttl=64 time=0.556 64 64 bytes from 10.0.0.5: icmp_seq=11 ttl=64 time=0.41264 b64 bytes from 10.0.0.5: icmp_seq=12 ttl=64 time=0.75964 b64 bytes from 10.0.0.5: icmp_seq=13 ttl=64 time=0.53164 b64 bytes from 10.0.0.5: icmp_seq=14 ttl=64 time=0.59064 b64 bytes from 10.0.0.5: icmp_seq=15 ttl=64 time=2.99 64 64 bytes from 10.0.0.5: icmp_seq=16 ttl=64 time=1.82 ms

--- 10.0.0.5 ping statistics ---
16 packets transmitted, 16 received, 0% packet loss, time 76574ms
rtt min/avg/max/mdev = 0.412/0.779/2.992/0.656 ms
