PING 10.0.0.5 (10.0.0.5) 56(84) bytes of data.
64 bytes from 10.0.0.5: icmp_seq=1 ttl=64 time=0.975 ms
64 bytes from 10.0.0.5: icmp_seq=2 ttl=64 time=0.579 ms
64 bytes from 10.0.0.5: icmp_seq=3 ttl=64 time=1.32 ms
64 bytes from 10.0.0.4: icmp_seq=4 ttl=64 time=0.895 ms
64 bytes from 10.0.0.4: icmp_seq=5 ttl=64 time=0.490 ms
64 bytes from 10.0.0.4: icmp_seq=6 ttl=64 time=0.948 ms
64 bytes from 10.0.0.5: icmp_seq=7 ttl=64 time=0.431 ms
64 bytes from 10.0.0.5: icmp_seq=8 ttl=64 time=0.591 ms
64 bytes from 10.0.0.4: icmp_seq=9 ttl=64 time=1.33 ms
64 bytes from 10.0.0.4: icmp_seq=10 ttl=64 time=0.938 ms
64 bytes from 10.0.0.4: icmp_seq=11 ttl=64 time=0.508 ms
64 bytes from 10.0.0.4: icmp_seq=12 ttl=64 time=0.877 ms
64 bytes from 10.0.0.5: icmp_seq=13 ttl=64 time=0.364 ms
64 bytes from 10.0.0.4: icmp_seq=14 ttl=64 time=1.67 ms
664 bytes from 10.0.0.5: icmp_seq=15 ttl=64 time=0.593 ms664 bytes from 10.0.0.5: icmp_seq=16 ttl=64 time=1.56 ms

--- 10.0.0.5 ping statistics ---
16 packets transmitted, 16 received, 0% packet loss, time 76740ms
rtt min/avg/max/mdev = 0.364/0.768/1.569/0.352 ms
