PING 10.0.0.4 (10.0.0.4) 56(84) bytes of data.
64 bytes from 10.0.0.4: icmp_seq=1 ttl=64 time=8.38 ms
64 bytes from 10.0.0.4: icmp_seq=2 ttl=64 time=2.23 ms
64 bytes from 10.0.0.4: icmp_seq=3 ttl=64 time=0.475 ms
64 bytes from 10.0.0.4: icmp_seq=4 ttl=64 time=1.72 ms
64 bytes from 10.0.0.4: icmp_seq=5 ttl=64 time=0.589 ms
64 bytes from 10.0.0.4: icmp_seq=6 ttl=64 time=0.554 ms
64 bytes from 10.0.0.4: icmp_seq=7 ttl=64 time=0.758 ms
6464 bytes from 10.0.0.5: icmp_seq=8 ttl=64 time=1.64 m64 bytes from 10.0.0.4: icmp_seq=9 ttl=64 time=0.567 ms
64 bytes from 10.0.0.4: icmp_seq=10 ttl=64 time=0.553 ms
64 bytes from 10.0.0.4: icmp_seq=11 ttl=64 time=0.618 ms
64 bytes from 10.0.0.4: icmp_seq=12 ttl=64 time=1.01 ms
64 bytes from 10.0.0.4: icmp_seq=13 ttl=64 time=0.573 ms
64 bytes from 10.0.0.4: icmp_seq=14 ttl=64 time=0.535 ms
64 bytes from 10.0.0.4: icmp_seq=15 ttl=64 time=0.628 ms
64 bytes from 10.0.0.4: icmp_seq=16 ttl=64 time=0.637 ms

--- 10.0.0.4 ping statistics ---
16 packets transmitted, 16 received, 0% packet loss, time 76562ms
rtt min/avg/max/mdev = 0.475/1.331/8.381/1.885 ms
ms
