PING 10.0.0.5 (10.0.0.5) 56(84) bytes of data.
64 bytes from 10.0.0.5: icmp_seq=1 ttl=64 time=0.707 ms664 bytes from 10.0.0.5: icmp_seq=2 ttl=64 time=0.507 ms664 bytes from 10.0.0.5: icmp_seq=3 ttl=64 time=0.789 ms664 bytes from 10.0.0.5: icmp_seq=4 ttl=64 time=1.04 ms64 bytes from 10.0.0.4: icmp_seq=5 ttl=64 time=0.596 ms
64 bytes from 10.0.0.4: icmp_seq=6 ttl=64 time=0.669 ms
664 bytes from 10.0.0.5: icmp_seq=7 ttl=64 time=0.437 ms664 bytes from 10.0.0.5: icmp_seq=8 ttl=64 time=0.602 ms664 bytes from 10.0.0.5: icmp_seq=9 ttl=64 time=0.525 ms64 bytes from 10.0.0.4: icmp_seq=10 ttl=64 time=0.384 ms
664 bytes from 10.0.0.5: icmp_seq=11 ttl=64 time=5.21 ms
64 bytes from 10.0.0.4: icmp_seq=12 ttl=64 time=1.06 ms
64 bytes from 10.0.0.4: icmp_seq=13 ttl=64 time=0.521 ms
64 bytes from 10.0.0.4: icmp_seq=14 ttl=64 time=0.715 ms
64 bytes from 10.0.0.4: icmp_seq=15 ttl=64 time=1.36 ms
64 bytes from 10.0.0.4: icmp_seq=16 ttl=64 time=1.09 ms

--- 10.0.0.4 ping statistics ---
16 packets transmitted, 16 received, 0% packet loss, time 76531ms
rtt min/avg/max/mdev = 0.384/1.170/7.159/1.569 ms
s
