PING 10.0.0.5 (10.0.0.5) 56(84) bytes of data.
64 bytes from 10.0.0.5: icmp_seq=1 ttl=64 time=1.36 ms
64 bytes from 10.0.0.5: icmp_seq=2 ttl=64 time=2.72 ms
6464 bytes from 10.0.0.4: icmp_seq=3 ttl=64 time=0.561 m6464 bytes from 10.0.0.4: icmp_seq=4 ttl=64 time=3.69 m6464 bytes from 10.0.0.4: icmp_seq=5 ttl=64 time=0.529 64 64 bytes from 10.0.0.4: icmp_seq=6 ttl=64 time=0.53364 b64 bytes from 10.0.0.4: icmp_seq=7 ttl=64 time=1.04 64 64 bytes from 10.0.0.4: icmp_seq=8 ttl=64 time=0.492 64 64 bytes from 10.0.0.4: icmp_seq=9 ttl=64 time=0.402 64 64 bytes from 10.0.0.4: icmp_seq=10 ttl=64 time=0.54764 b64 bytes from 10.0.0.4: icmp_seq=11 ttl=64 time=0.6164 by64 bytes from 10.0.0.4: icmp_seq=12 ttl=64 time=0.9764 by64 bytes from 10.0.0.4: icmp_seq=13 ttl=64 time=0.5364 by64 bytes from 10.0.0.4: icmp_seq=14 ttl=64 time=0.7064 by64 bytes from 10.0.0.4: icmp_seq=15 ttl=64 time=0.9664 by64 bytes from 10.0.0.4: icmp_seq=16 ttl=64 time=3.23 ms

--- 10.0.0.4 ping statistics ---
16 packets transmitted, 16 received, 0% packet loss, time 76678ms
rtt min/avg/max/mdev = 0.402/1.007/3.693/0.949 ms
