PING 10.0.0.4 (10.0.0.4) 56(84) bytes of data.
64 bytes from 10.0.0.4: icmp_seq=1 ttl=64 time=0.755 ms664 bytes from 10.0.0.4: icmp_seq=2 ttl=64 time=4.23 ms
64 bytes from 10.0.0.5: icmp_seq=3 ttl=64 time=6.18 ms
664 bytes from 10.0.0.4: icmp_seq=4 ttl=64 time=0.402 m6464 bytes from 10.0.0.4: icmp_seq=5 ttl=64 time=0.662 m6464 bytes from 10.0.0.4: icmp_seq=6 ttl=64 time=6.08 ms664 bytes from 10.0.0.4: icmp_seq=7 ttl=64 time=0.862 m6464 bytes from 10.0.0.4: icmp_seq=8 ttl=64 time=0.916 m6464 bytes from 10.0.0.4: icmp_seq=9 ttl=64 time=5.47 ms664 bytes from 10.0.0.4: icmp_seq=10 ttl=64 time=0.999 m6464 bytes from 10.0.0.4: icmp_seq=11 ttl=64 time=0.572 64 64 bytes from 10.0.0.4: icmp_seq=12 ttl=64 time=11.7 64 64 bytes from 10.0.0.4: icmp_seq=13 ttl=64 time=5.50 m6464 bytes from 10.0.0.4: icmp_seq=14 ttl=64 time=0.484 m6464 bytes from 10.0.0.4: icmp_seq=15 ttl=64 time=0.782 m64 bytes from 10.0.0.5: icmp_seq=16 ttl=64 time=1.54 ms

--- 10.0.0.5 ping statistics ---
16 packets transmitted, 16 received, 0% packet loss, time 76099ms
rtt min/avg/max/mdev = 0.432/2.639/10.913/3.196 ms
ms
