PING 10.0.0.4 (10.0.0.4) 56(84) bytes of data.
64 bytes from 10.0.0.4: icmp_seq=1 ttl=64 time=7.58 ms
64 bytes from 10.0.0.4: icmp_seq=2 ttl=64 time=0.833 ms
64 bytes from 10.0.0.4: icmp_seq=3 ttl=64 time=3.84 ms
64 bytes from 10.0.0.5: icmp_seq=4 ttl=64 time=0.619 ms
64 bytes from 10.0.0.5: icmp_seq=5 ttl=64 time=0.808 ms
64 bytes from 10.0.0.4: icmp_seq=6 ttl=64 time=1.27 ms
64 bytes from 10.0.0.5: icmp_seq=7 ttl=64 time=1.68 ms
64 bytes from 10.0.0.4: icmp_seq=8 ttl=64 time=0.722 ms
64 bytes from 10.0.0.4: icmp_seq=9 ttl=64 time=8.58 ms
64 bytes from 10.0.0.5: icmp_seq=10 ttl=64 time=5.46 ms
64 bytes from 10.0.0.5: icmp_seq=11 ttl=64 time=1.03 ms
64 bytes from 10.0.0.4: icmp_seq=12 ttl=64 time=1.91 ms
64 bytes from 10.0.0.4: icmp_seq=13 ttl=64 time=0.397 ms
64 bytes from 10.0.0.5: icmp_seq=14 ttl=64 time=0.603 ms
64 bytes from 10.0.0.5: icmp_seq=15 ttl=64 time=3.96 ms
64 bytes from 10.0.0.5: icmp_seq=16 ttl=64 time=0.461 ms

--- 10.0.0.5 ping statistics ---
16 packets transmitted, 16 received, 0% packet loss, time 75854ms
rtt min/avg/max/mdev = 0.370/2.433/8.549/2.479 ms
