PING 10.0.0.4 (10.0.0.4) 56(84) bytes of data.
64 bytes from 10.0.0.4: icmp_seq=1 ttl=64 time=1.86 ms
64 bytes from 10.0.0.4: icmp_seq=2 ttl=64 time=1.13 ms
64 bytes from 10.0.0.4: icmp_seq=3 ttl=64 time=0.911 ms
64 bytes from 10.0.0.4: icmp_seq=4 ttl=64 time=0.730 ms
64 bytes from 10.0.0.4: icmp_seq=5 ttl=64 time=0.534 ms
64 bytes from 10.0.0.4: icmp_seq=6 ttl=64 time=0.735 ms
64 bytes from 10.0.0.4: icmp_seq=7 ttl=64 time=0.484 ms
64 bytes from 10.0.0.4: icmp_seq=8 ttl=64 time=0.662 ms
64 bytes from 10.0.0.4: icmp_seq=9 ttl=64 time=0.829 ms
64 bytes from 10.0.0.4: icmp_seq=10 ttl=64 time=0.457 ms
64 bytes from 10.0.0.4: icmp_seq=11 ttl=64 time=0.415 ms
64 bytes from 10.0.0.4: icmp_seq=12 ttl=64 time=0.410 ms
64 bytes from 10.0.0.4: icmp_seq=13 ttl=64 time=0.716 ms
64 bytes from 10.0.0.4: icmp_seq=14 ttl=64 time=0.979 ms
64 bytes from 10.0.0.5: icmp_seq=15 ttl=64 time=0.443 ms
64 bytes from 10.0.0.5: icmp_seq=16 ttl=64 time=2.00 ms

--- 10.0.0.5 ping statistics ---
16 packets transmitted, 16 received, 0% packet loss, time 76617ms
rtt min/avg/max/mdev = 0.360/1.406/8.237/2.115 ms
