PING 10.0.0.4 (10.0.0.4) 56(84) bytes of data.
64 bytes from 10.0.0.4: icmp_seq=1 ttl=64 time=7.08 ms
64 bytes from 10.0.0.4: icmp_seq=2 ttl=64 time=0.825 ms664 bytes from 10.0.0.4: icmp_seq=3 ttl=64 time=0.631 ms664 bytes from 10.0.0.4: icmp_seq=4 ttl=64 time=0.539 m6464 bytes from 10.0.0.4: icmp_seq=5 ttl=64 time=0.751 m6464 bytes from 10.0.0.4: icmp_seq=6 ttl=64 time=0.500 m6464 bytes from 10.0.0.4: icmp_seq=7 ttl=64 time=0.479 m6464 bytes from 10.0.0.4: icmp_seq=8 ttl=64 time=0.538 m6464 bytes from 10.0.0.4: icmp_seq=9 ttl=64 time=0.882 64 64 bytes from 10.0.0.4: icmp_seq=10 ttl=64 time=1.02 m6464 bytes from 10.0.0.4: icmp_seq=11 ttl=64 time=0.592 m6464 bytes from 10.0.0.4: icmp_seq=12 ttl=64 time=0.617 m6464 bytes from 10.0.0.4: icmp_seq=13 ttl=64 time=2.27 m6464 bytes from 10.0.0.4: icmp_seq=14 ttl=64 time=0.623 m6464 bytes from 10.0.0.4: icmp_seq=15 ttl=64 time=1.33 m6464 bytes from 10.0.0.4: icmp_seq=16 ttl=64 time=1.06 ms

--- 10.0.0.4 ping statistics ---
16 packets transmitted, 16 received, 0% packet loss, time 76698ms
rtt min/avg/max/mdev = 0.479/1.235/7.085/1.571 ms
