PING 10.0.0.4 (10.0.0.4) 56(84) bytes of data.
64 bytes from 10.0.0.4: icmp_seq=1 ttl=64 time=8.89 ms
64 bytes from 10.0.0.4: icmp_seq=2 ttl=64 time=0.431 ms
64 bytes from 10.0.0.4: icmp_seq=3 ttl=64 time=0.502 ms
664 bytes from 10.0.0.5: icmp_seq=4 ttl=64 time=0.437 ms664 bytes from 10.0.0.5: icmp_seq=5 ttl=64 time=0.922 ms64 bytes from 10.0.0.4: icmp_seq=6 ttl=64 time=0.437 ms
664 bytes from 10.0.0.5: icmp_seq=7 ttl=64 time=8.87 ms
64 bytes from 10.0.0.4: icmp_seq=8 ttl=64 time=1.56 ms
664 bytes from 10.0.0.5: icmp_seq=9 ttl=64 time=3.84 ms
64 bytes from 10.0.0.4: icmp_seq=10 ttl=64 time=1.57 ms
664 bytes from 10.0.0.5: icmp_seq=11 ttl=64 time=0.911 ms664 bytes from 10.0.0.5: icmp_seq=12 ttl=64 time=0.399 ms664 bytes from 10.0.0.5: icmp_seq=13 ttl=64 time=0.580 ms664 bytes from 10.0.0.5: icmp_seq=14 ttl=64 time=1.36 ms64 bytes from 10.0.0.4: icmp_seq=15 ttl=64 time=0.692 ms
64 bytes from 10.0.0.4: icmp_seq=16 ttl=64 time=3.16 ms

--- 10.0.0.4 ping statistics ---
16 packets transmitted, 16 received, 0% packet loss, time 76611ms
rtt min/avg/max/mdev = 0.397/1.435/8.895/2.046 ms

