PING 10.0.0.5 (10.0.0.5) 56(84) bytes of data.
64 bytes from 10.0.0.5: icmp_seq=1 ttl=64 time=0.526 ms
64 bytes from 10.0.0.5: icmp_seq=2 ttl=64 time=1.09 ms
664 bytes from 10.0.0.4: icmp_seq=3 ttl=64 time=0.388 ms64 bytes from 10.0.0.5: icmp_seq=4 ttl=64 time=1.14 ms
6464 bytes from 10.0.0.4: icmp_seq=5 ttl=64 time=0.571 m64 bytes from 10.0.0.5: icmp_seq=6 ttl=64 time=0.638 ms
6464 bytes from 10.0.0.4: icmp_seq=7 ttl=64 time=0.554 m6464 bytes from 10.0.0.4: icmp_seq=8 ttl=64 time=0.789 m6464 bytes from 10.0.0.4: icmp_seq=9 ttl=64 time=0.528 m6464 bytes from 10.0.0.4: icmp_seq=10 ttl=64 time=0.444 m6464 bytes from 10.0.0.4: icmp_seq=11 ttl=64 time=0.535 m6464 bytes from 10.0.0.4: icmp_seq=12 ttl=64 time=0.437 m6464 bytes from 10.0.0.4: icmp_seq=13 ttl=64 time=0.625 m6464 bytes from 10.0.0.4: icmp_seq=14 ttl=64 time=0.593 m64 bytes from 10.0.0.5: icmp_seq=15 ttl=64 time=0.498 ms
64 bytes from 10.0.0.5: icmp_seq=16 ttl=64 time=0.602 ms

--- 10.0.0.5 ping statistics ---
16 packets transmitted, 16 received, 0% packet loss, time 76579ms
rtt min/avg/max/mdev = 0.341/0.555/1.146/0.233 ms
s
