PING 10.0.0.5 (10.0.0.5) 56(84) bytes of data.
64 bytes from 10.0.0.5: icmp_seq=1 ttl=64 time=8.39 ms
64 bytes from 10.0.0.5: icmp_seq=2 ttl=64 time=0.570 ms
64 bytes from 10.0.0.5: icmp_seq=3 ttl=64 time=0.612 ms
664 bytes from 10.0.0.4: icmp_seq=4 ttl=64 time=0.725 ms664 bytes from 10.0.0.4: icmp_seq=5 ttl=64 time=0.772 ms664 bytes from 10.0.0.4: icmp_seq=6 ttl=64 time=0.534 ms664 bytes from 10.0.0.4: icmp_seq=7 ttl=64 time=0.583 ms664 bytes from 10.0.0.4: icmp_seq=8 ttl=64 time=0.732 ms664 bytes from 10.0.0.4: icmp_seq=9 ttl=64 time=0.478 ms664 bytes from 10.0.0.4: icmp_seq=10 ttl=64 time=0.411 ms664 bytes from 10.0.0.4: icmp_seq=11 ttl=64 time=1.17 ms64 bytes from 10.0.0.5: icmp_seq=12 ttl=64 time=0.692 ms
64 bytes from 10.0.0.5: icmp_seq=13 ttl=64 time=0.455 ms
64 bytes from 10.0.0.5: icmp_seq=14 ttl=64 time=1.14 ms
664 bytes from 10.0.0.4: icmp_seq=15 ttl=64 time=0.407 ms664 bytes from 10.0.0.4: icmp_seq=16 ttl=64 time=0.735 ms

--- 10.0.0.4 ping statistics ---
16 packets transmitted, 16 received, 0% packet loss, time 76719ms
rtt min/avg/max/mdev = 0.407/0.650/1.176/0.221 ms
