PING 10.0.0.4 (10.0.0.4) 56(84) bytes of data.
64 bytes from 10.0.0.4: icmp_seq=1 ttl=64 time=8.12 ms
64 bytes from 10.0.0.4: icmp_seq=2 ttl=64 time=1.96 ms
64 bytes from 10.0.0.4: icmp_seq=3 ttl=64 time=0.526 ms
64 bytes from 10.0.0.4: icmp_seq=4 ttl=64 time=1.04 ms
64 bytes from 10.0.0.4: icmp_seq=5 ttl=64 time=0.623 ms
64 bytes from 10.0.0.4: icmp_seq=6 ttl=64 time=0.524 ms
64 bytes from 10.0.0.4: icmp_seq=7 ttl=64 time=0.853 ms
64 bytes from 10.0.0.4: icmp_seq=8 ttl=64 time=0.628 ms
64 bytes from 10.0.0.4: icmp_seq=9 ttl=64 time=0.980 ms
64 bytes from 10.0.0.4: icmp_seq=10 ttl=64 time=0.497 ms
64 bytes from 10.0.0.4: icmp_seq=11 ttl=64 time=0.386 ms
64 bytes from 10.0.0.4: icmp_seq=12 ttl=64 time=1.04 ms
64 bytes from 10.0.0.4: icmp_seq=13 ttl=64 time=1.03 ms
64 bytes from 10.0.0.4: icmp_seq=14 ttl=64 time=0.781 ms
64 bytes from 10.0.0.4: icmp_seq=15 ttl=64 time=0.714 ms
64 bytes from 10.0.0.4: icmp_seq=16 ttl=64 time=1.85 ms

--- 10.0.0.4 ping statistics ---
16 packets transmitted, 16 received, 0% packet loss, time 76377ms
rtt min/avg/max/mdev = 0.386/1.347/8.121/1.802 ms
s
