PING 10.0.0.4 (10.0.0.4) 56(84) bytes of data.
64 bytes from 10.0.0.4: icmp_seq=1 ttl=64 time=9.32 ms
64 bytes from 10.0.0.4: icmp_seq=2 ttl=64 time=0.442 ms
64 bytes from 10.0.0.4: icmp_seq=3 ttl=64 time=0.426 ms
64 bytes from 10.0.0.4: icmp_seq=4 ttl=64 time=0.549 ms
64 bytes from 10.0.0.4: icmp_seq=5 ttl=64 time=0.536 ms
64 bytes from 10.0.0.4: icmp_seq=6 ttl=64 time=0.486 ms
64 bytes from 10.0.0.4: icmp_seq=7 ttl=64 time=0.594 ms
64 bytes from 10.0.0.4: icmp_seq=8 ttl=64 time=0.865 ms
64 bytes from 10.0.0.4: icmp_seq=9 ttl=64 time=0.609 ms
64 bytes from 10.0.0.5: icmp_seq=10 ttl=64 time=0.598 ms
64 bytes from 10.0.0.5: icmp_seq=11 ttl=64 time=0.886 ms
64 bytes from 10.0.0.5: icmp_seq=12 ttl=64 time=0.508 ms
64 bytes from 10.0.0.5: icmp_seq=13 ttl=64 time=2.17 ms
64 bytes from 10.0.0.5: icmp_seq=14 ttl=64 time=0.785 ms
64 bytes from 10.0.0.5: icmp_seq=15 ttl=64 time=0.526 ms
64 bytes from 10.0.0.4: icmp_seq=16 ttl=64 time=0.917 ms

--- 10.0.0.4 ping statistics ---
16 packets transmitted, 16 received, 0% packet loss, time 76612ms
rtt min/avg/max/mdev = 0.328/1.194/9.326/2.139 ms
