PING 10.0.0.5 (10.0.0.5) 56(84) bytes of data.
64 bytes from 10.0.0.5: icmp_seq=1 ttl=64 time=0.880 ms664 bytes from 10.0.0.5: icmp_seq=2 ttl=64 time=0.896 m6464 bytes from 10.0.0.5: icmp_seq=3 ttl=64 time=1.03 ms664 bytes from 10.0.0.5: icmp_seq=4 ttl=64 time=6.83 ms664 bytes from 10.0.0.5: icmp_seq=5 ttl=64 time=0.351 ms664 bytes from 10.0.0.5: icmp_seq=6 ttl=64 time=0.944 ms64 bytes from 10.0.0.4: icmp_seq=7 ttl=64 time=0.524 ms
64 bytes from 10.0.0.4: icmp_seq=8 ttl=64 time=0.432 ms
64 bytes from 10.0.0.4: icmp_seq=9 ttl=64 time=0.839 ms
64 bytes from 10.0.0.4: icmp_seq=10 ttl=64 time=0.765 ms
64 bytes from 10.0.0.4: icmp_seq=11 ttl=64 time=0.714 ms
64 bytes from 10.0.0.4: icmp_seq=12 ttl=64 time=0.447 ms
664 bytes from 10.0.0.5: icmp_seq=13 ttl=64 time=0.541 ms664 bytes from 10.0.0.5: icmp_seq=14 ttl=64 time=1.22 ms64 bytes from 10.0.0.4: icmp_seq=15 ttl=64 time=0.553 ms
64 bytes from 10.0.0.4: icmp_seq=16 ttl=64 time=1.36 ms

--- 10.0.0.4 ping statistics ---
16 packets transmitted, 16 received, 0% packet loss, time 76529ms
rtt min/avg/max/mdev = 0.408/0.819/1.483/0.329 ms

