PING 10.0.0.5 (10.0.0.5) 56(84) bytes of data.
64 bytes from 10.0.0.5: icmp_seq=1 ttl=64 time=2.26 ms
64 bytes from 10.0.0.5: icmp_seq=2 ttl=64 time=0.721 ms
64 bytes from 10.0.0.5: icmp_seq=3 ttl=64 time=1.80 ms
64 bytes from 10.0.0.5: icmp_seq=4 ttl=64 time=0.530 ms
64 bytes from 10.0.0.5: icmp_seq=5 ttl=64 time=0.538 ms
64 bytes from 10.0.0.5: icmp_seq=6 ttl=64 time=0.783 ms
64 bytes from 10.0.0.5: icmp_seq=7 ttl=64 time=0.481 ms
64 bytes from 10.0.0.5: icmp_seq=8 ttl=64 time=0.409 ms
64 bytes from 10.0.0.5: icmp_seq=9 ttl=64 time=0.661 ms
64 bytes from 10.0.0.5: icmp_seq=10 ttl=64 time=0.632 ms
64 bytes from 10.0.0.5: icmp_seq=11 ttl=64 time=1.36 ms
64 bytes from 10.0.0.5: icmp_seq=12 ttl=64 time=0.383 ms
64 bytes from 10.0.0.5: icmp_seq=13 ttl=64 time=1.13 ms
64 bytes from 10.0.0.5: icmp_seq=14 ttl=64 time=0.357 ms
64 bytes from 10.0.0.5: icmp_seq=15 ttl=64 time=0.526 ms
64 bytes from 10.0.0.5: icmp_seq=16 ttl=64 time=0.718 ms

--- 10.0.0.5 ping statistics ---
16 packets transmitted, 16 received, 0% packet loss, time 76752ms
rtt min/avg/max/mdev = 0.357/0.831/2.268/0.529 ms
s
