PING 10.0.0.4 (10.0.0.4) 56(84) bytes of data.
64 bytes from 10.0.0.4: icmp_seq=1 ttl=64 time=0.778 ms664 bytes from 10.0.0.4: icmp_seq=2 ttl=64 time=0.924 ms664 bytes from 10.0.0.4: icmp_seq=3 ttl=64 time=0.771 ms664 bytes from 10.0.0.4: icmp_seq=4 ttl=64 time=0.698 ms664 bytes from 10.0.0.4: icmp_seq=5 ttl=64 time=8.12 ms
64 bytes from 10.0.0.5: icmp_seq=6 ttl=64 time=1.33 ms
64 bytes from 10.0.0.5: icmp_seq=7 ttl=64 time=0.454 ms
64 bytes from 10.0.0.5: icmp_seq=8 ttl=64 time=0.680 ms
64 bytes from 10.0.0.5: icmp_seq=9 ttl=64 time=0.896 ms
64 bytes from 10.0.0.5: icmp_seq=10 ttl=64 time=0.474 ms
64 bytes from 10.0.0.5: icmp_seq=11 ttl=64 time=1.06 ms
64 bytes from 10.0.0.5: icmp_seq=12 ttl=64 time=0.661 ms
64 bytes from 10.0.0.5: icmp_seq=13 ttl=64 time=6.91 ms
64 bytes from 10.0.0.5: icmp_seq=14 ttl=64 time=0.939 ms
64 bytes from 10.0.0.5: icmp_seq=15 ttl=64 time=0.469 ms
64 bytes from 10.0.0.5: icmp_seq=16 ttl=64 time=1.01 ms

--- 10.0.0.5 ping statistics ---
16 packets transmitted, 16 received, 0% packet loss, time 76712ms
rtt min/avg/max/mdev = 0.411/1.189/6.912/1.517 ms
ms
