PING 10.0.0.5 (10.0.0.5) 56(84) bytes of data.
64 bytes from 10.0.0.5: icmp_seq=1 ttl=64 time=0.688 ms664 bytes from 10.0.0.5: icmp_seq=2 ttl=64 time=0.476 ms664 bytes from 10.0.0.5: icmp_seq=3 ttl=64 time=0.497 ms664 bytes from 10.0.0.5: icmp_seq=4 ttl=64 time=0.884 ms64 bytes from 10.0.0.4: icmp_seq=5 ttl=64 time=0.693 ms
64 bytes from 10.0.0.4: icmp_seq=6 ttl=64 time=0.497 ms
664 bytes from 10.0.0.5: icmp_seq=7 ttl=64 time=0.917 ms664 bytes from 10.0.0.5: icmp_seq=8 ttl=64 time=0.457 ms664 bytes from 10.0.0.5: icmp_seq=9 ttl=64 time=0.425 ms664 bytes from 10.0.0.5: icmp_seq=10 ttl=64 time=0.551 ms64 bytes from 10.0.0.4: icmp_seq=11 ttl=64 time=4.91 ms
6464 bytes from 10.0.0.5: icmp_seq=12 ttl=64 time=1.15 ms64 bytes from 10.0.0.4: icmp_seq=13 ttl=64 time=0.483 ms
64 bytes from 10.0.0.4: icmp_seq=14 ttl=64 time=1.01 ms
6464 bytes from 10.0.0.5: icmp_seq=15 ttl=64 time=7.92 m64 bytes from 10.0.0.4: icmp_seq=16 ttl=64 time=0.613 ms

--- 10.0.0.4 ping statistics ---
16 packets transmitted, 16 received, 0% packet loss, time 76385ms
rtt min/avg/max/mdev = 0.394/1.110/4.910/1.181 ms
s
