PING 10.0.0.5 (10.0.0.5) 56(84) bytes of data.
64 bytes from 10.0.0.5: icmp_seq=1 ttl=64 time=0.631 ms
64 bytes from 10.0.0.5: icmp_seq=2 ttl=64 time=0.480 ms664 bytes from 10.0.0.5: icmp_seq=3 ttl=64 time=0.550 ms664 bytes from 10.0.0.5: icmp_seq=4 ttl=64 time=0.905 ms664 bytes from 10.0.0.5: icmp_seq=5 ttl=64 time=0.409 ms664 bytes from 10.0.0.5: icmp_seq=6 ttl=64 time=0.408 ms664 bytes from 10.0.0.5: icmp_seq=7 ttl=64 time=0.578 ms664 bytes from 10.0.0.5: icmp_seq=8 ttl=64 time=1.24 ms
64 bytes from 10.0.0.5: icmp_seq=9 ttl=64 time=1.03 ms
64 bytes from 10.0.0.5: icmp_seq=10 ttl=64 time=0.482 ms
64 bytes from 10.0.0.5: icmp_seq=11 ttl=64 time=0.749 ms
664 bytes from 10.0.0.4: icmp_seq=12 ttl=64 time=0.460 ms664 bytes from 10.0.0.4: icmp_seq=13 ttl=64 time=0.697 ms664 bytes from 10.0.0.4: icmp_seq=14 ttl=64 time=0.593 ms664 bytes from 10.0.0.4: icmp_seq=15 ttl=64 time=3.56 ms64 bytes from 10.0.0.5: icmp_seq=16 ttl=64 time=0.784 ms

--- 10.0.0.5 ping statistics ---
16 packets transmitted, 16 received, 0% packet loss, time 76320ms
rtt min/avg/max/mdev = 0.391/0.734/1.957/0.393 ms

