PING 10.0.0.4 (10.0.0.4) 56(84) bytes of data.
64 bytes from 10.0.0.4: icmp_seq=1 ttl=64 time=1.78 ms
664 bytes from 10.0.0.5: icmp_seq=2 ttl=64 time=1.22 ms64 bytes from 10.0.0.4: icmp_seq=3 ttl=64 time=0.433 ms
664 bytes from 10.0.0.5: icmp_seq=4 ttl=64 time=9.73 ms64 bytes from 10.0.0.4: icmp_seq=5 ttl=64 time=0.877 ms
64 bytes from 10.0.0.4: icmp_seq=6 ttl=64 time=0.789 ms
664 bytes from 10.0.0.5: icmp_seq=7 ttl=64 time=0.470 ms664 bytes from 10.0.0.5: icmp_seq=8 ttl=64 time=0.499 ms664 bytes from 10.0.0.5: icmp_seq=9 ttl=64 time=0.517 ms664 bytes from 10.0.0.5: icmp_seq=10 ttl=64 time=0.435 ms664 bytes from 10.0.0.5: icmp_seq=11 ttl=64 time=0.545 ms64 bytes from 10.0.0.4: icmp_seq=12 ttl=64 time=5.19 ms
6464 bytes from 10.0.0.5: icmp_seq=13 ttl=64 time=0.713 m6464 bytes from 10.0.0.5: icmp_seq=14 ttl=64 time=0.529 m6464 bytes from 10.0.0.5: icmp_seq=15 ttl=64 time=0.554 m6464 bytes from 10.0.0.5: icmp_seq=16 ttl=64 time=0.873 ms

--- 10.0.0.5 ping statistics ---
16 packets transmitted, 16 received, 0% packet loss, time 76498ms
rtt min/avg/max/mdev = 0.413/1.179/9.739/2.219 ms
