PING 10.0.0.4 (10.0.0.4) 56(84) bytes of data.
64 bytes from 10.0.0.4: icmp_seq=1 ttl=64 time=7.64 ms
64 bytes from 10.0.0.5: icmp_seq=2 ttl=64 time=0.675 ms
64 bytes from 10.0.0.5: icmp_seq=3 ttl=64 time=0.431 ms
64 bytes from 10.0.0.5: icmp_seq=4 ttl=64 time=1.27 ms
64 bytes from 10.0.0.4: icmp_seq=5 ttl=64 time=0.372 ms
64 bytes from 10.0.0.4: icmp_seq=6 ttl=64 time=2.49 ms
664 bytes from 10.0.0.5: icmp_seq=7 ttl=64 time=0.548 ms664 bytes from 10.0.0.5: icmp_seq=8 ttl=64 time=0.479 ms664 bytes from 10.0.0.5: icmp_seq=9 ttl=64 time=0.430 ms64 bytes from 10.0.0.4: icmp_seq=10 ttl=64 time=0.527 ms
64 bytes from 10.0.0.4: icmp_seq=11 ttl=64 time=0.416 ms
64 bytes from 10.0.0.4: icmp_seq=12 ttl=64 time=0.522 ms
64 bytes from 10.0.0.4: icmp_seq=13 ttl=64 time=2.60 ms
664 bytes from 10.0.0.5: icmp_seq=14 ttl=64 time=1.00 ms
64 bytes from 10.0.0.5: icmp_seq=15 ttl=64 time=0.491 ms
64 bytes from 10.0.0.5: icmp_seq=16 ttl=64 time=0.748 ms

--- 10.0.0.5 ping statistics ---
16 packets transmitted, 16 received, 0% packet loss, time 76449ms
rtt min/avg/max/mdev = 0.352/1.029/7.131/1.595 ms
