PING 10.0.0.4 (10.0.0.4) 56(84) bytes of data.
64 bytes from 10.0.0.4: icmp_seq=1 ttl=64 time=1.16 ms
64 bytes from 10.0.0.4: icmp_seq=2 ttl=64 time=0.417 ms
64 bytes from 10.0.0.4: icmp_seq=3 ttl=64 time=0.579 ms
64 bytes from 10.0.0.4: icmp_seq=4 ttl=64 time=0.992 ms
64 bytes from 10.0.0.4: icmp_seq=5 ttl=64 time=0.359 ms
64 bytes from 10.0.0.4: icmp_seq=6 ttl=64 time=0.550 ms
64 bytes from 10.0.0.4: icmp_seq=7 ttl=64 time=0.583 ms664 bytes from 10.0.0.4: icmp_seq=8 ttl=64 time=0.519 ms664 bytes from 10.0.0.4: icmp_seq=9 ttl=64 time=0.505 m6464 bytes from 10.0.0.4: icmp_seq=10 ttl=64 time=0.712 m6464 bytes from 10.0.0.4: icmp_seq=11 ttl=64 time=0.551 m6464 bytes from 10.0.0.4: icmp_seq=12 ttl=64 time=0.449 m6464 bytes from 10.0.0.4: icmp_seq=13 ttl=64 time=0.527 m6464 bytes from 10.0.0.4: icmp_seq=14 ttl=64 time=0.493 m6464 bytes from 10.0.0.4: icmp_seq=15 ttl=64 time=1.06 ms664 bytes from 10.0.0.4: icmp_seq=16 ttl=64 time=0.614 ms

--- 10.0.0.4 ping statistics ---
16 packets transmitted, 16 received, 0% packet loss, time 76685ms
rtt min/avg/max/mdev = 0.359/0.630/1.168/0.231 ms
