PING 10.0.0.5 (10.0.0.5) 56(84) bytes of data.
64 bytes from 10.0.0.5: icmp_seq=1 ttl=64 time=0.634 ms
64 bytes from 10.0.0.5: icmp_seq=2 ttl=64 time=0.547 ms664 bytes from 10.0.0.5: icmp_seq=3 ttl=64 time=3.40 ms
64 bytes from 10.0.0.4: icmp_seq=4 ttl=64 time=5.84 ms
664 bytes from 10.0.0.5: icmp_seq=5 ttl=64 time=1.58 ms
64 bytes from 10.0.0.4: icmp_seq=6 ttl=64 time=0.643 ms
64 bytes from 10.0.0.4: icmp_seq=7 ttl=64 time=6.11 ms
664 bytes from 10.0.0.5: icmp_seq=8 ttl=64 time=0.677 m6464 bytes from 10.0.0.5: icmp_seq=9 ttl=64 time=0.548 m6464 bytes from 10.0.0.5: icmp_seq=10 ttl=64 time=1.05 ms664 bytes from 10.0.0.5: icmp_seq=11 ttl=64 time=0.374 m6464 bytes from 10.0.0.5: icmp_seq=12 ttl=64 time=0.479 m6464 bytes from 10.0.0.5: icmp_seq=13 ttl=64 time=0.792 64 64 bytes from 10.0.0.5: icmp_seq=14 ttl=64 time=0.496 64 64 bytes from 10.0.0.5: icmp_seq=15 ttl=64 time=0.617 64 64 bytes from 10.0.0.5: icmp_seq=16 ttl=64 time=1.03 ms

--- 10.0.0.5 ping statistics ---
16 packets transmitted, 16 received, 0% packet loss, time 76613ms
rtt min/avg/max/mdev = 0.374/0.871/3.409/0.717 ms
