PING 10.0.0.5 (10.0.0.5) 56(84) bytes of data.
64 bytes from 10.0.0.5: icmp_seq=1 ttl=64 time=1.81 ms
64 bytes from 10.0.0.5: icmp_seq=2 ttl=64 time=0.556 ms
64 bytes from 10.0.0.5: icmp_seq=3 ttl=64 time=2.26 ms
64 bytes from 10.0.0.5: icmp_seq=4 ttl=64 time=0.382 ms
64 bytes from 10.0.0.5: icmp_seq=5 ttl=64 time=0.505 ms
64 bytes from 10.0.0.5: icmp_seq=6 ttl=64 time=0.503 ms
64 bytes from 10.0.0.5: icmp_seq=7 ttl=64 time=0.774 ms
64 bytes from 10.0.0.5: icmp_seq=8 ttl=64 time=0.594 ms
64 bytes from 10.0.0.5: icmp_seq=9 ttl=64 time=0.552 ms664 bytes from 10.0.0.5: icmp_seq=10 ttl=64 time=0.658 ms664 bytes from 10.0.0.5: icmp_seq=11 ttl=64 time=0.615 ms664 bytes from 10.0.0.5: icmp_seq=12 ttl=64 time=0.359 ms664 bytes from 10.0.0.5: icmp_seq=13 ttl=64 time=0.653 ms664 bytes from 10.0.0.5: icmp_seq=14 ttl=64 time=0.763 ms664 bytes from 10.0.0.5: icmp_seq=15 ttl=64 time=0.444 ms664 bytes from 10.0.0.5: icmp_seq=16 ttl=64 time=0.762 ms

--- 10.0.0.5 ping statistics ---
16 packets transmitted, 16 received, 0% packet loss, time 76755ms
rtt min/avg/max/mdev = 0.359/0.762/2.268/0.506 ms
