PING 10.0.0.5 (10.0.0.5) 56(84) bytes of data.
64 bytes from 10.0.0.5: icmp_seq=1 ttl=64 time=0.666 ms664 bytes from 10.0.0.5: icmp_seq=2 ttl=64 time=0.641 ms664 bytes from 10.0.0.5: icmp_seq=3 ttl=64 time=0.544 ms64 bytes from 10.0.0.4: icmp_seq=4 ttl=64 time=0.394 ms
64 bytes from 10.0.0.4: icmp_seq=5 ttl=64 time=0.438 ms
64 bytes from 10.0.0.4: icmp_seq=6 ttl=64 time=1.92 ms
6464 bytes from 10.0.0.5: icmp_seq=7 ttl=64 time=0.424 m6464 bytes from 10.0.0.5: icmp_seq=8 ttl=64 time=1.11 m64 bytes from 10.0.0.4: icmp_seq=9 ttl=64 time=0.592 ms
64 bytes from 10.0.0.4: icmp_seq=10 ttl=64 time=0.508 ms
64 bytes from 10.0.0.4: icmp_seq=11 ttl=64 time=0.665 ms
64 bytes from 10.0.0.4: icmp_seq=12 ttl=64 time=0.832 ms
64 bytes from 10.0.0.4: icmp_seq=13 ttl=64 time=0.622 ms
64 bytes from 10.0.0.4: icmp_seq=14 ttl=64 time=0.658 ms
64 bytes from 10.0.0.4: icmp_seq=15 ttl=64 time=0.699 ms
64 bytes from 10.0.0.4: icmp_seq=16 ttl=64 time=3.26 ms

--- 10.0.0.4 ping statistics ---
16 packets transmitted, 16 received, 0% packet loss, time 76743ms
rtt min/avg/max/mdev = 0.287/0.947/3.261/0.744 ms
s
