PING 10.0.0.5 (10.0.0.5) 56(84) bytes of data.
64 bytes from 10.0.0.5: icmp_seq=1 ttl=64 time=0.880 ms664 bytes from 10.0.0.5: icmp_seq=2 ttl=64 time=0.308 ms664 bytes from 10.0.0.5: icmp_seq=3 ttl=64 time=0.580 ms64 bytes from 10.0.0.4: icmp_seq=4 ttl=64 time=0.471 ms
664 bytes from 10.0.0.5: icmp_seq=5 ttl=64 time=0.468 ms664 bytes from 10.0.0.5: icmp_seq=6 ttl=64 time=0.773 ms664 bytes from 10.0.0.5: icmp_seq=7 ttl=64 time=0.558 ms664 bytes from 10.0.0.5: icmp_seq=8 ttl=64 time=1.71 ms664 bytes from 10.0.0.5: icmp_seq=9 ttl=64 time=3.91 ms64 bytes from 10.0.0.4: icmp_seq=10 ttl=64 time=0.659 ms
64 bytes from 10.0.0.4: icmp_seq=11 ttl=64 time=9.73 ms
664 bytes from 10.0.0.5: icmp_seq=12 ttl=64 time=0.511 ms664 bytes from 10.0.0.5: icmp_seq=13 ttl=64 time=0.574 ms64 bytes from 10.0.0.4: icmp_seq=14 ttl=64 time=0.512 ms
664 bytes from 10.0.0.5: icmp_seq=15 ttl=64 time=2.92 ms
64 bytes from 10.0.0.4: icmp_seq=16 ttl=64 time=0.674 ms

--- 10.0.0.4 ping statistics ---
16 packets transmitted, 16 received, 0% packet loss, time 76388ms
rtt min/avg/max/mdev = 0.390/1.348/9.737/2.208 ms
