PING 10.0.0.5 (10.0.0.5) 56(84) bytes of data.
64 bytes from 10.0.0.5: icmp_seq=1 ttl=64 time=7.21 ms
64 bytes from 10.0.0.5: icmp_seq=2 ttl=64 time=0.855 ms
64 bytes from 10.0.0.5: icmp_seq=3 ttl=64 time=0.604 ms664 bytes from 10.0.0.5: icmp_seq=4 ttl=64 time=0.605 ms664 bytes from 10.0.0.5: icmp_seq=5 ttl=64 time=1.16 ms
64 bytes from 10.0.0.5: icmp_seq=6 ttl=64 time=0.467 ms
64 bytes from 10.0.0.5: icmp_seq=7 ttl=64 time=0.812 ms
64 bytes from 10.0.0.5: icmp_seq=8 ttl=64 time=0.462 ms
64 bytes from 10.0.0.5: icmp_seq=9 ttl=64 time=0.412 ms
64 bytes from 10.0.0.5: icmp_seq=10 ttl=64 time=0.435 ms
64 bytes from 10.0.0.5: icmp_seq=11 ttl=64 time=0.413 ms
64 bytes from 10.0.0.5: icmp_seq=12 ttl=64 time=0.706 ms
64 bytes from 10.0.0.5: icmp_seq=13 ttl=64 time=0.368 ms
64 bytes from 10.0.0.5: icmp_seq=14 ttl=64 time=0.668 ms
64 bytes from 10.0.0.5: icmp_seq=15 ttl=64 time=0.963 ms
64 bytes from 10.0.0.5: icmp_seq=16 ttl=64 time=0.772 ms

--- 10.0.0.5 ping statistics ---
16 packets transmitted, 16 received, 0% packet loss, time 76643ms
rtt min/avg/max/mdev = 0.368/1.057/7.216/1.605 ms
