PING 10.0.0.5 (10.0.0.5) 56(84) bytes of data.
64 bytes from 10.0.0.5: icmp_seq=1 ttl=64 time=9.35 ms
64 bytes from 10.0.0.5: icmp_seq=2 ttl=64 time=0.473 ms
64 bytes from 10.0.0.5: icmp_seq=3 ttl=64 time=0.445 ms
64 bytes from 10.0.0.5: icmp_seq=4 ttl=64 time=0.841 ms
64 bytes from 10.0.0.5: icmp_seq=5 ttl=64 time=0.662 ms
664 bytes from 10.0.0.4: icmp_seq=6 ttl=64 time=0.535 ms64 bytes from 10.0.0.5: icmp_seq=7 ttl=64 time=6.27 ms
6464 bytes from 10.0.0.4: icmp_seq=8 ttl=64 time=0.690 m64 bytes from 10.0.0.5: icmp_seq=9 ttl=64 time=1.98 ms
64 64 bytes from 10.0.0.4: icmp_seq=10 ttl=64 time=1.02 64 64 bytes from 10.0.0.4: icmp_seq=11 ttl=64 time=1.05 m6464 bytes from 10.0.0.4: icmp_seq=12 ttl=64 time=0.377 m6464 bytes from 10.0.0.4: icmp_seq=13 ttl=64 time=0.629 m64 bytes from 10.0.0.5: icmp_seq=14 ttl=64 time=0.997 ms
6464 bytes from 10.0.0.4: icmp_seq=15 ttl=64 time=0.506 m6464 bytes from 10.0.0.4: icmp_seq=16 ttl=64 time=1.22 ms

--- 10.0.0.4 ping statistics ---
16 packets transmitted, 16 received, 0% packet loss, time 76539ms
rtt min/avg/max/mdev = 0.377/0.689/1.222/0.247 ms
