PING 10.0.0.5 (10.0.0.5) 56(84) bytes of data.
64 bytes from 10.0.0.5: icmp_seq=1 ttl=64 time=0.717 ms
64 bytes from 10.0.0.5: icmp_seq=2 ttl=64 time=0.758 ms
64 bytes from 10.0.0.5: icmp_seq=3 ttl=64 time=0.606 ms
64 bytes from 10.0.0.5: icmp_seq=4 ttl=64 time=0.466 ms
64 bytes from 10.0.0.5: icmp_seq=5 ttl=64 time=0.596 ms
64 bytes from 10.0.0.5: icmp_seq=6 ttl=64 time=0.500 ms
64 bytes from 10.0.0.5: icmp_seq=7 ttl=64 time=0.749 ms
64 bytes from 10.0.0.5: icmp_seq=8 ttl=64 time=0.620 ms
64 bytes from 10.0.0.4: icmp_seq=9 ttl=64 time=1.34 ms
664 bytes from 10.0.0.5: icmp_seq=10 ttl=64 time=0.394 ms664 bytes from 10.0.0.5: icmp_seq=11 ttl=64 time=0.525 ms664 bytes from 10.0.0.5: icmp_seq=12 ttl=64 time=0.686 ms664 bytes from 10.0.0.5: icmp_seq=13 ttl=64 time=0.641 ms664 bytes from 10.0.0.5: icmp_seq=14 ttl=64 time=0.989 ms64 bytes from 10.0.0.4: icmp_seq=15 ttl=64 time=0.570 ms
64 bytes from 10.0.0.4: icmp_seq=16 ttl=64 time=1.32 ms

--- 10.0.0.4 ping statistics ---
16 packets transmitted, 16 received, 0% packet loss, time 76627ms
rtt min/avg/max/mdev = 0.414/0.690/1.340/0.278 ms

