PING 10.0.0.4 (10.0.0.4) 56(84) bytes of data.
64 bytes from 10.0.0.4: icmp_seq=1 ttl=64 time=8.63 ms
64 bytes from 10.0.0.4: icmp_seq=2 ttl=64 time=0.334 ms
64 bytes from 10.0.0.4: icmp_seq=3 ttl=64 time=0.998 ms
64 bytes from 10.0.0.5: icmp_seq=4 ttl=64 time=0.710 ms
64 bytes from 10.0.0.4: icmp_seq=5 ttl=64 time=0.646 ms
64 bytes from 10.0.0.4: icmp_seq=6 ttl=64 time=1.04 ms
64 bytes from 10.0.0.4: icmp_seq=7 ttl=64 time=0.707 ms
664 bytes from 10.0.0.5: icmp_seq=8 ttl=64 time=0.445 ms664 bytes from 10.0.0.5: icmp_seq=9 ttl=64 time=0.633 ms664 bytes from 10.0.0.5: icmp_seq=10 ttl=64 time=1.65 ms664 bytes from 10.0.0.5: icmp_seq=11 ttl=64 time=9.88 ms
64 bytes from 10.0.0.4: icmp_seq=12 ttl=64 time=0.758 ms
64 bytes from 10.0.0.4: icmp_seq=13 ttl=64 time=1.31 ms
64 bytes from 10.0.0.4: icmp_seq=14 ttl=64 time=0.366 ms
64 bytes from 10.0.0.4: icmp_seq=15 ttl=64 time=0.513 ms
64 bytes from 10.0.0.4: icmp_seq=16 ttl=64 time=0.753 ms

--- 10.0.0.4 ping statistics ---
16 packets transmitted, 16 received, 0% packet loss, time 76781ms
rtt min/avg/max/mdev = 0.334/1.245/8.633/1.936 ms
