PING 10.0.0.4 (10.0.0.4) 56(84) bytes of data.
64 bytes from 10.0.0.4: icmp_seq=1 ttl=64 time=0.575 ms
64 bytes from 10.0.0.4: icmp_seq=2 ttl=64 time=0.424 ms
64 bytes from 10.0.0.5: icmp_seq=3 ttl=64 time=1.27 ms
664 bytes from 10.0.0.4: icmp_seq=4 ttl=64 time=0.830 ms664 bytes from 10.0.0.4: icmp_seq=5 ttl=64 time=1.83 ms
64 bytes from 10.0.0.5: icmp_seq=6 ttl=64 time=0.468 ms664 bytes from 10.0.0.5: icmp_seq=7 ttl=64 time=0.669 ms664 bytes from 10.0.0.5: icmp_seq=8 ttl=64 time=0.410 ms664 bytes from 10.0.0.5: icmp_seq=9 ttl=64 time=0.686 ms664 bytes from 10.0.0.5: icmp_seq=10 ttl=64 time=0.459 ms664 bytes from 10.0.0.5: icmp_seq=11 ttl=64 time=0.483 ms664 bytes from 10.0.0.5: icmp_seq=12 ttl=64 time=0.465 m6464 bytes from 10.0.0.5: icmp_seq=13 ttl=64 time=0.540 m6464 bytes from 10.0.0.5: icmp_seq=14 ttl=64 time=0.395 m6464 bytes from 10.0.0.5: icmp_seq=15 ttl=64 time=0.803 m6464 bytes from 10.0.0.5: icmp_seq=16 ttl=64 time=2.90 ms

--- 10.0.0.5 ping statistics ---
16 packets transmitted, 16 received, 0% packet loss, time 76798ms
rtt min/avg/max/mdev = 0.395/0.723/2.908/0.602 ms
