PING 10.0.0.4 (10.0.0.4) 56(84) bytes of data.
64 bytes from 10.0.0.4: icmp_seq=1 ttl=64 time=1.90 ms
64 bytes from 10.0.0.4: icmp_seq=2 ttl=64 time=0.302 ms
64 bytes from 10.0.0.4: icmp_seq=3 ttl=64 time=1.10 ms
64 bytes from 10.0.0.5: icmp_seq=4 ttl=64 time=0.534 ms
64 bytes from 10.0.0.5: icmp_seq=5 ttl=64 time=0.799 ms
64 bytes from 10.0.0.5: icmp_seq=6 ttl=64 time=0.492 ms
64 bytes from 10.0.0.5: icmp_seq=7 ttl=64 time=0.862 ms
64 bytes from 10.0.0.4: icmp_seq=8 ttl=64 time=7.47 ms
664 bytes from 10.0.0.5: icmp_seq=9 ttl=64 time=0.463 ms64 bytes from 10.0.0.4: icmp_seq=10 ttl=64 time=0.609 ms
664 bytes from 10.0.0.5: icmp_seq=11 ttl=64 time=0.511 ms664 bytes from 10.0.0.5: icmp_seq=12 ttl=64 time=0.943 ms64 bytes from 10.0.0.4: icmp_seq=13 ttl=64 time=0.954 ms
664 bytes from 10.0.0.5: icmp_seq=14 ttl=64 time=0.469 ms664 bytes from 10.0.0.5: icmp_seq=15 ttl=64 time=0.476 ms664 bytes from 10.0.0.5: icmp_seq=16 ttl=64 time=1.80 ms

--- 10.0.0.5 ping statistics ---
16 packets transmitted, 16 received, 0% packet loss, time 76675ms
rtt min/avg/max/mdev = 0.347/1.088/7.244/1.628 ms
