PING 10.0.0.5 (10.0.0.5) 56(84) bytes of data.
64 bytes from 10.0.0.5: icmp_seq=1 ttl=64 time=0.760 ms664 bytes from 10.0.0.5: icmp_seq=2 ttl=64 time=5.13 ms
64 bytes from 10.0.0.5: icmp_seq=3 ttl=64 time=2.22 ms
664 bytes from 10.0.0.4: icmp_seq=4 ttl=64 time=1.33 ms
64 bytes from 10.0.0.5: icmp_seq=5 ttl=64 time=0.652 ms664 bytes from 10.0.0.5: icmp_seq=6 ttl=64 time=0.649 ms664 bytes from 10.0.0.5: icmp_seq=7 ttl=64 time=7.09 ms664 bytes from 10.0.0.5: icmp_seq=8 ttl=64 time=0.546 ms664 bytes from 10.0.0.5: icmp_seq=9 ttl=64 time=0.447 ms664 bytes from 10.0.0.5: icmp_seq=10 ttl=64 time=0.800 ms664 bytes from 10.0.0.5: icmp_seq=11 ttl=64 time=0.546 ms664 bytes from 10.0.0.5: icmp_seq=12 ttl=64 time=2.31 ms
64 bytes from 10.0.0.5: icmp_seq=13 ttl=64 time=0.688 ms
64 bytes from 10.0.0.5: icmp_seq=14 ttl=64 time=0.526 ms
64 bytes from 10.0.0.5: icmp_seq=15 ttl=64 time=0.676 ms
64 bytes from 10.0.0.5: icmp_seq=16 ttl=64 time=0.783 ms

--- 10.0.0.5 ping statistics ---
16 packets transmitted, 16 received, 0% packet loss, time 76559ms
rtt min/avg/max/mdev = 0.447/1.519/7.092/1.853 ms
