PING 10.0.0.5 (10.0.0.5) 56(84) bytes of data.
64 bytes from 10.0.0.5: icmp_seq=1 ttl=64 time=0.467 ms664 bytes from 10.0.0.5: icmp_seq=2 ttl=64 time=0.819 ms664 bytes from 10.0.0.5: icmp_seq=3 ttl=64 time=0.719 ms664 bytes from 10.0.0.5: icmp_seq=4 ttl=64 time=0.452 ms664 bytes from 10.0.0.5: icmp_seq=5 ttl=64 time=1.11 ms64 bytes from 10.0.0.4: icmp_seq=6 ttl=64 time=0.380 ms
64 bytes from 10.0.0.4: icmp_seq=7 ttl=64 time=0.537 ms
64 bytes from 10.0.0.4: icmp_seq=8 ttl=64 time=0.493 ms
64 bytes from 10.0.0.4: icmp_seq=9 ttl=64 time=0.610 ms
64 bytes from 10.0.0.4: icmp_seq=10 ttl=64 time=0.548 ms
64 bytes from 10.0.0.4: icmp_seq=11 ttl=64 time=0.616 ms
664 bytes from 10.0.0.5: icmp_seq=12 ttl=64 time=0.438 ms64 bytes from 10.0.0.4: icmp_seq=13 ttl=64 time=0.459 ms
64 bytes from 10.0.0.4: icmp_seq=14 ttl=64 time=0.681 ms
64 bytes from 10.0.0.4: icmp_seq=15 ttl=64 time=0.496 ms
64 bytes from 10.0.0.4: icmp_seq=16 ttl=64 time=1.20 ms

--- 10.0.0.4 ping statistics ---
16 packets transmitted, 16 received, 0% packet loss, time 76652ms
rtt min/avg/max/mdev = 0.380/1.149/9.257/2.105 ms

