PING 10.0.0.5 (10.0.0.5) 56(84) bytes of data.
64 bytes from 10.0.0.5: icmp_seq=1 ttl=64 time=7.35 ms
64 bytes from 10.0.0.5: icmp_seq=2 ttl=64 time=0.685 ms664 bytes from 10.0.0.5: icmp_seq=3 ttl=64 time=0.537 m6464 bytes from 10.0.0.5: icmp_seq=4 ttl=64 time=0.637 m6464 bytes from 10.0.0.5: icmp_seq=5 ttl=64 time=4.99 ms664 bytes from 10.0.0.5: icmp_seq=6 ttl=64 time=0.706 ms664 bytes from 10.0.0.5: icmp_seq=7 ttl=64 time=0.966 ms664 bytes from 10.0.0.5: icmp_seq=8 ttl=64 time=0.895 ms664 bytes from 10.0.0.5: icmp_seq=9 ttl=64 time=1.42 ms664 bytes from 10.0.0.5: icmp_seq=10 ttl=64 time=0.423 ms664 bytes from 10.0.0.5: icmp_seq=11 ttl=64 time=0.497 ms664 bytes from 10.0.0.5: icmp_seq=12 ttl=64 time=0.444 ms664 bytes from 10.0.0.5: icmp_seq=13 ttl=64 time=0.606 ms664 bytes from 10.0.0.5: icmp_seq=14 ttl=64 time=0.796 ms664 bytes from 10.0.0.5: icmp_seq=15 ttl=64 time=2.92 ms64 bytes from 10.0.0.4: icmp_seq=16 ttl=64 time=0.676 ms

--- 10.0.0.4 ping statistics ---
16 packets transmitted, 16 received, 0% packet loss, time 76453ms
rtt min/avg/max/mdev = 0.402/0.982/2.908/0.697 ms

