PING 10.0.0.5 (10.0.0.5) 56(84) bytes of data.
64 bytes from 10.0.0.5: icmp_seq=1 ttl=64 time=1.47 ms
64 bytes from 10.0.0.5: icmp_seq=2 ttl=64 time=0.683 ms
64 bytes from 10.0.0.5: icmp_seq=3 ttl=64 time=0.448 ms
64 bytes from 10.0.0.4: icmp_seq=4 ttl=64 time=1.09 ms
64 bytes from 10.0.0.5: icmp_seq=5 ttl=64 time=0.529 ms
64 bytes from 10.0.0.5: icmp_seq=6 ttl=64 time=0.933 ms
64 bytes from 10.0.0.5: icmp_seq=7 ttl=64 time=1.16 ms
64 bytes from 10.0.0.4: icmp_seq=8 ttl=64 time=0.652 ms
64 bytes from 10.0.0.4: icmp_seq=9 ttl=64 time=0.880 ms
64 bytes from 10.0.0.4: icmp_seq=10 ttl=64 time=0.727 ms
64 bytes from 10.0.0.4: icmp_seq=11 ttl=64 time=0.475 ms
64 bytes from 10.0.0.4: icmp_seq=12 ttl=64 time=0.540 ms
64 bytes from 10.0.0.4: icmp_seq=13 ttl=64 time=2.78 ms
64 bytes from 10.0.0.5: icmp_seq=14 ttl=64 time=1.48 ms
64 bytes from 10.0.0.5: icmp_seq=15 ttl=64 time=0.921 ms
64 bytes from 10.0.0.5: icmp_seq=16 ttl=64 time=3.09 ms

--- 10.0.0.5 ping statistics ---
16 packets transmitted, 16 received, 0% packet loss, time 76468ms
rtt min/avg/max/mdev = 0.407/1.089/3.098/0.753 ms
