"Dstat 0.7.2 CSV output"
"Author:","Dag Wieers <dag@wieers.com>",,,,"URL:","http://dag.wieers.com/home-made/dstat/"
"Host:","Server1",,,,"User:","mstevan"
"Cmdline:","dstat --output /home/mstevan/logs/experiment_2.1/dstat/vs_1024-vcpr_16-rep_4.csv 5 14",,,,"Date:","28 Oct 2019 00:35:43 UTC"

"total cpu usage",,,,,,"dsk/total",,"net/total",,"paging",,"system",
"usr","sys","idl","wai","hiq","siq","read","writ","recv","send","in","out","int","csw"
9.033,23.165,60.128,1.412,0.0,6.262,35686.414,8368577.005,0.0,0.0,0.0,0.0,0.693,990.198
2.459,6.352,89.754,0.0,0.0,1.434,0.0,1638.400,940178.200,12532366.0,0.0,0.0,0.0,405.0
3.093,5.361,90.515,0.0,0.0,1.031,0.0,1638.400,940918.0,12501566.0,0.0,0.0,0.0,404.200
1.844,5.533,90.984,0.0,0.0,1.639,0.0,819.200,935873.400,12498417.600,0.0,0.0,0.0,375.800
2.263,6.173,89.712,0.206,0.0,1.646,0.0,18841.600,939602.600,12506597.200,0.0,0.0,0.0,398.600
2.828,6.465,89.091,0.0,0.0,1.616,0.0,4915.200,936296.200,12460862.600,0.0,0.0,0.0,403.600
2.062,5.361,91.340,0.0,0.0,1.237,0.0,819.200,939279.0,12538358.200,0.0,0.0,0.0,405.400
1.653,5.992,91.322,0.0,0.0,1.033,0.0,4096.0,940316.800,12494173.200,0.0,0.0,0.0,426.200
1.852,6.379,90.329,0.0,0.0,1.440,0.0,819.200,936629.0,12506431.200,0.0,0.0,0.0,397.200
2.287,5.821,90.021,0.0,0.0,1.871,0.0,1638.400,938277.0,12489779.0,0.0,0.0,0.0,408.800
2.070,6.832,88.199,0.621,0.0,2.277,0.0,15564.800,939967.600,12503547.400,0.0,0.0,0.0,420.400
2.049,5.943,90.779,0.0,0.0,1.230,0.0,819.200,936276.400,12500089.200,0.0,0.0,0.0,431.800
1.863,5.176,91.718,0.0,0.0,1.242,0.0,1638.400,939188.0,12500960.800,0.0,0.0,0.0,430.800
1.643,5.955,90.965,0.0,0.0,1.437,0.0,819.200,935980.0,12499015.600,0.0,0.0,0.200,400.200
2.268,4.742,91.340,0.0,0.0,1.649,0.0,3276.800,905462.800,12056844.200,0.0,0.0,0.0,411.600
