"Dstat 0.7.2 CSV output"
"Author:","Dag Wieers <dag@wieers.com>",,,,"URL:","http://dag.wieers.com/home-made/dstat/"
"Host:","Server1",,,,"User:","mstevan"
"Cmdline:","dstat --output /home/mstevan/logs/experiment_2.1/dstat/vs_1024-vcpr_8-rep_4.csv 5 14",,,,"Date:","28 Oct 2019 00:31:00 UTC"

"total cpu usage",,,,,,"dsk/total",,"net/total",,"paging",,"system",
"usr","sys","idl","wai","hiq","siq","read","writ","recv","send","in","out","int","csw"
9.487,24.372,58.032,1.504,0.0,6.604,37730.983,8847779.811,0.0,0.0,0.0,0.0,0.733,1018.525
1.458,6.042,91.458,0.0,0.0,1.042,0.0,819.200,939489.800,12532909.800,0.0,0.0,0.0,805.800
1.879,6.263,91.023,0.0,0.0,0.835,0.0,1638.400,938972.200,12499951.0,0.0,0.0,0.0,783.800
2.899,5.590,90.269,0.0,0.0,1.242,0.0,1638.400,939272.400,12499985.200,0.0,0.0,0.0,764.400
2.495,6.029,90.852,0.0,0.0,0.624,0.0,819.200,937018.200,12500039.600,0.0,0.0,0.0,775.600
3.165,5.485,90.717,0.0,0.0,0.633,0.0,1638.400,939590.600,12499945.800,0.0,0.0,0.0,770.800
3.292,5.761,87.860,1.852,0.0,1.235,0.0,20480.0,942086.800,12539243.600,0.0,0.0,0.0,784.800
2.292,6.458,90.625,0.0,0.0,0.625,0.0,2457.600,938958.800,12538727.200,0.0,0.0,0.0,780.200
3.099,5.785,90.289,0.0,0.0,0.826,0.0,1638.400,939126.800,12500163.200,0.0,0.0,0.200,767.0
2.062,6.598,90.722,0.0,0.0,0.619,0.0,819.200,936366.600,12499948.200,0.0,0.0,0.0,760.800
2.911,5.405,90.852,0.0,0.0,0.832,0.0,1638.400,939816.200,12499840.200,0.0,0.0,0.0,781.0
2.692,6.004,90.476,0.0,0.0,0.828,0.0,1638.400,939377.600,12500102.0,0.0,0.0,0.0,780.600
2.083,5.833,91.458,0.0,0.0,0.625,0.0,4096.0,936127.200,12499951.800,0.0,0.0,0.0,782.600
2.893,6.405,89.050,0.620,0.0,1.033,0.0,16384.0,939210.0,12499979.400,0.0,0.0,0.0,778.600
2.680,5.567,90.309,0.0,0.0,1.443,0.0,2457.600,901627.0,12007138.800,0.0,0.0,0.0,766.800
