"Dstat 0.7.2 CSV output"
"Author:","Dag Wieers <dag@wieers.com>",,,,"URL:","http://dag.wieers.com/home-made/dstat/"
"Host:","Server1",,,,"User:","mstevan"
"Cmdline:","dstat --output /home/mstevan/logs/experiment_2.1/dstat/vs_1024-vcpr_8-rep_2.csv 5 14",,,,"Date:","28 Oct 2019 00:28:38 UTC"

"total cpu usage",,,,,,"dsk/total",,"net/total",,"paging",,"system",
"usr","sys","idl","wai","hiq","siq","read","writ","recv","send","in","out","int","csw"
9.735,25.025,56.880,1.556,0.0,6.804,38846.540,9109241.121,0.0,0.0,0.0,0.0,0.754,1025.486
2.510,4.603,91.632,0.0,0.0,1.255,0.0,819.200,937446.0,12516039.800,0.0,0.0,0.0,813.0
2.268,6.392,89.897,0.0,0.0,1.443,0.0,1638.400,940719.200,12522913.200,0.0,0.0,0.0,817.400
3.534,5.613,90.021,0.0,0.0,0.832,0.0,1638.400,942409.0,12538906.0,0.0,0.0,0.0,820.0
1.646,6.584,90.123,0.412,0.0,1.235,0.0,18022.400,936749.0,12500213.0,0.0,0.0,0.0,813.600
2.875,6.571,89.528,0.0,0.0,1.027,0.0,4915.200,937445.400,12477000.400,0.0,0.0,0.0,788.200
3.306,6.198,89.876,0.0,0.0,0.620,0.0,819.200,936087.0,12499924.800,0.0,0.0,0.0,760.0
2.911,5.405,90.437,0.0,0.0,1.247,0.0,4096.0,940764.600,12522940.400,0.0,0.0,0.0,780.200
2.484,6.832,89.648,0.0,0.0,1.035,0.0,1638.400,939063.800,12500042.400,0.0,0.0,0.0,777.400
2.469,6.790,89.712,0.0,0.0,1.029,0.0,819.200,936916.400,12499864.400,0.0,0.0,0.0,803.200
2.669,6.571,89.733,0.0,0.0,1.027,0.0,1638.400,939641.800,12500094.0,0.0,0.0,0.0,760.0
2.893,5.372,89.463,0.413,0.0,1.860,0.0,15564.800,939629.200,12499944.200,0.0,0.0,0.0,797.0
2.083,5.417,91.667,0.0,0.0,0.833,0.0,819.200,936109.800,12499922.0,0.0,0.0,0.0,780.600
2.484,6.832,89.855,0.0,0.0,0.828,0.0,1638.400,942115.400,12539078.600,0.0,0.0,0.0,794.600
2.249,6.339,90.593,0.0,0.0,0.818,0.0,2457.600,895856.600,11958738.600,0.0,0.0,0.0,782.200
