"Dstat 0.7.2 CSV output"
"Author:","Dag Wieers <dag@wieers.com>",,,,"URL:","http://dag.wieers.com/home-made/dstat/"
"Host:","Server1",,,,"User:","mstevan"
"Cmdline:","dstat --output /home/mstevan/logs/experiment_2.1/dstat/vs_1024-vcpr_16-rep_1.csv 5 14",,,,"Date:","28 Oct 2019 00:32:11 UTC"

"total cpu usage",,,,,,"dsk/total",,"net/total",,"paging",,"system",
"usr","sys","idl","wai","hiq","siq","read","writ","recv","send","in","out","int","csw"
9.371,24.058,58.582,1.481,0.0,6.507,37196.557,8722517.649,0.0,0.0,0.0,0.0,0.722,1015.011
1.443,6.186,90.928,0.0,0.0,1.443,0.0,819.200,933382.200,12460786.400,0.0,0.0,0.0,409.400
2.469,5.350,90.947,0.0,0.0,1.235,0.0,1638.400,942234.400,12539387.400,0.0,0.0,0.0,427.600
2.887,5.361,90.103,0.0,0.0,1.649,0.0,1638.400,942255.0,12538820.800,0.0,0.0,0.0,427.800
2.045,6.544,89.980,0.204,0.0,1.227,0.0,18841.600,936058.800,12499870.600,0.0,0.0,0.0,393.400
2.053,5.339,90.760,0.0,0.0,1.848,0.0,1638.400,939282.400,12500219.400,0.0,0.0,0.0,398.600
2.454,5.726,90.389,0.0,0.0,1.431,0.0,1638.400,938381.600,12500026.0,0.0,0.0,0.0,389.600
2.881,5.144,90.535,0.0,0.0,1.440,0.0,3276.800,938447.0,12499911.200,0.0,0.0,0.0,397.200
2.893,5.785,90.083,0.0,0.0,1.240,0.0,1638.400,939634.200,12499855.0,0.0,0.0,0.0,372.0
3.049,6.098,89.431,0.0,0.0,1.423,0.0,819.200,936021.600,12500055.200,0.0,0.0,0.0,385.400
2.464,5.955,89.322,0.411,0.0,1.848,0.0,15564.800,939222.800,12499964.400,0.0,0.0,0.0,402.400
2.893,6.405,89.256,0.0,0.0,1.446,0.0,9011.200,939226.400,12499996.200,0.0,0.0,0.0,415.800
2.277,5.590,90.683,0.0,0.0,1.449,0.0,819.200,936036.400,12500071.400,0.0,0.0,0.0,397.200
2.062,5.361,90.722,0.0,0.0,1.856,0.0,1638.400,938995.200,12499969.800,0.0,0.0,0.0,409.400
2.454,5.112,91.207,0.0,0.0,1.227,0.0,2457.600,898439.800,12002985.400,0.0,0.0,0.0,387.600
