"Dstat 0.7.2 CSV output"
"Author:","Dag Wieers <dag@wieers.com>",,,,"URL:","http://dag.wieers.com/home-made/dstat/"
"Host:","Server1",,,,"User:","mstevan"
"Cmdline:","dstat --output /home/mstevan/logs/experiment_2.1/dstat/vs_256-vcpr_8-rep_4.csv 5 14",,,,"Date:","27 Oct 2019 23:53:00 UTC"

"total cpu usage",,,,,,"dsk/total",,"net/total",,"paging",,"system",
"usr","sys","idl","wai","hiq","siq","read","writ","recv","send","in","out","int","csw"
9.620,24.139,57.344,2.786,0.0,6.112,69959.898,16401460.383,0.0,0.0,0.0,0.0,1.356,1002.272
18.567,46.906,27.036,0.0,0.0,7.492,0.0,819.200,2165459.600,9141866.600,0.0,0.0,0.0,1507.600
15.409,50.314,27.673,0.0,0.0,6.604,0.0,1638.400,2165506.800,9139367.800,0.0,0.0,0.0,1489.800
18.910,46.154,26.282,0.0,0.0,8.654,0.0,1638.400,2134595.200,9005385.800,0.0,0.0,0.0,1498.200
16.614,48.903,26.019,0.0,0.0,8.464,0.0,25395.200,2151198.0,9087675.0,0.0,0.0,0.0,1494.600
18.971,46.945,25.402,0.0,0.0,8.682,0.0,2457.600,2141262.600,9028849.400,0.0,0.0,0.0,1495.0
17.134,47.975,27.103,0.0,0.0,7.788,0.0,1638.400,2146287.400,9054660.200,0.0,0.0,0.0,1491.600
17.516,47.771,26.433,0.0,0.0,8.280,0.0,3276.800,2119835.400,8954778.0,0.0,0.0,0.0,1419.400
19.048,46.984,25.714,0.0,0.0,8.254,0.0,1638.400,2126087.0,8969596.400,0.0,0.0,0.0,1491.200
19.094,45.307,27.508,0.0,0.0,8.091,0.0,819.200,2157361.0,9114037.800,0.0,0.0,0.0,1463.200
19.874,43.218,26.498,0.0,0.0,10.410,0.0,1638.400,2127486.200,8975762.200,0.0,0.0,0.0,1489.200
18.987,46.203,25.0,0.316,0.0,9.494,0.0,15564.800,2110243.600,8901595.800,0.0,0.0,0.0,1476.800
16.502,45.875,28.383,0.0,0.0,9.241,0.0,819.200,2126453.0,8977947.800,0.0,0.0,0.0,1491.400
17.610,47.170,25.157,0.0,0.0,10.063,0.0,2457.600,2128751.200,8975609.200,0.0,0.0,0.0,1445.600
17.702,42.857,32.298,0.0,0.0,7.143,0.0,1638.400,2065845.0,8723672.0,0.0,0.0,0.0,1437.600
