"Dstat 0.7.2 CSV output"
"Author:","Dag Wieers <dag@wieers.com>",,,,"URL:","http://dag.wieers.com/home-made/dstat/"
"Host:","Server1",,,,"User:","mstevan"
"Cmdline:","dstat --output /home/mstevan/logs/experiment_2.1/dstat/vs_256-vcpr_16-rep_4.csv 5 14",,,,"Date:","27 Oct 2019 23:57:42 UTC"

"total cpu usage",,,,,,"dsk/total",,"net/total",,"paging",,"system",
"usr","sys","idl","wai","hiq","siq","read","writ","recv","send","in","out","int","csw"
10.379,26.341,53.823,2.563,0.0,6.894,63270.195,14833543.734,0.0,0.0,0.0,0.0,1.226,984.629
18.018,54.354,9.610,0.0,0.0,18.018,0.0,1638.400,2647666.600,11169965.200,0.0,0.0,0.0,678.200
17.350,56.467,8.517,0.0,0.0,17.666,0.0,1638.400,2670824.200,11273626.0,0.0,0.0,0.0,679.400
19.394,50.606,9.091,0.0,0.0,20.909,0.0,18022.400,2628323.0,11102568.400,0.0,0.0,0.0,675.600
18.127,56.495,8.761,0.0,0.0,16.616,0.0,4915.200,2634016.800,11119578.400,0.0,0.0,0.0,709.0
16.820,56.575,10.092,0.0,0.0,16.514,0.0,819.200,2642629.0,11163837.200,0.0,0.0,0.0,672.200
21.203,52.532,9.177,0.0,0.0,17.089,0.0,1638.400,2655351.200,11209344.200,0.0,0.0,0.0,680.800
22.419,53.392,7.965,0.0,0.0,16.224,0.0,4096.0,2621149.800,11062114.400,0.0,0.0,0.0,668.800
20.482,51.205,7.831,0.0,0.0,20.482,0.0,819.200,2670164.0,11275471.200,0.0,0.0,0.0,654.400
20.183,54.740,8.257,0.0,0.0,16.820,0.0,1638.400,2626145.800,11084717.600,0.0,0.0,0.0,656.200
18.845,53.799,8.511,0.304,0.0,18.541,0.0,15564.800,2607402.200,11008118.200,0.0,0.0,0.0,649.800
18.182,55.758,8.485,0.0,0.0,17.576,0.0,819.200,2650323.800,11194981.200,0.0,0.0,0.0,618.200
18.210,52.469,9.568,0.0,0.0,19.753,0.0,1638.400,2620047.0,11059165.400,0.0,0.0,0.0,648.600
19.207,53.049,8.232,0.0,0.0,19.512,0.0,819.200,2657401.600,11229439.200,0.0,0.0,0.0,643.400
17.595,49.560,15.836,0.0,0.0,17.009,0.0,3276.800,2517325.800,10622445.200,0.0,0.0,0.0,661.600
