"Dstat 0.7.2 CSV output"
"Author:","Dag Wieers <dag@wieers.com>",,,,"URL:","http://dag.wieers.com/home-made/dstat/"
"Host:","Server1",,,,"User:","mstevan"
"Cmdline:","dstat --output /home/mstevan/logs/experiment_2.1/dstat/vs_256-vcpr_4-rep_3.csv 5 14",,,,"Date:","27 Oct 2019 23:47:05 UTC"

"total cpu usage",,,,,,"dsk/total",,"net/total",,"paging",,"system",
"usr","sys","idl","wai","hiq","siq","read","writ","recv","send","in","out","int","csw"
8.781,21.767,60.418,3.122,0.0,5.912,80705.351,18919950.456,0.0,0.0,0.0,0.0,1.563,873.236
16.314,39.577,38.369,0.0,0.0,5.740,0.0,1638.400,1786847.800,7532345.800,0.0,0.0,0.0,2493.400
13.924,40.823,36.709,0.633,0.0,7.911,0.0,18841.600,1801957.600,7609341.400,0.0,0.0,0.0,2539.800
16.463,38.415,38.110,0.0,0.0,7.012,0.0,1638.400,1787978.400,7537248.200,0.0,0.0,0.0,2420.400
15.605,41.083,38.217,0.0,0.0,5.096,0.0,819.200,1793038.400,7572618.0,0.0,0.0,0.0,2465.200
16.918,40.483,35.045,0.0,0.0,7.553,0.0,2457.600,1796213.200,7573914.800,0.0,0.0,0.0,2456.0
17.718,40.841,35.135,0.0,0.0,6.306,0.0,1638.400,1780271.600,7507463.800,0.0,0.0,0.0,2404.800
15.152,40.0,37.576,0.0,0.0,7.273,0.0,2457.600,1796116.400,7583136.600,0.0,0.0,0.0,2462.600
13.846,42.769,37.231,0.308,0.0,5.846,0.0,15564.800,1808623.200,7622287.0,0.0,0.0,0.0,2488.0
15.888,43.302,35.202,0.0,0.0,5.607,0.0,4096.0,1805643.400,7626659.400,0.0,0.0,0.0,2474.400
16.667,41.358,33.951,0.0,0.0,8.025,0.0,1638.400,1811327.0,7638476.0,0.0,0.0,0.0,2522.0
15.976,42.012,34.911,0.0,0.0,7.101,0.0,1638.400,1799411.800,7587808.200,0.0,0.0,0.0,2525.400
17.593,40.432,36.111,0.0,0.0,5.864,0.0,819.200,1794035.200,7576997.400,0.0,0.0,0.0,2409.200
16.615,40.0,36.923,0.0,0.0,6.462,0.0,1638.400,1778950.0,7501816.200,0.0,0.0,0.0,2421.0
14.114,40.240,39.039,0.300,0.0,6.306,0.0,17203.200,1724873.0,7269575.0,0.0,0.0,0.0,2416.800
