"Dstat 0.7.2 CSV output"
"Author:","Dag Wieers <dag@wieers.com>",,,,"URL:","http://dag.wieers.com/home-made/dstat/"
"Host:","Server1",,,,"User:","mstevan"
"Cmdline:","dstat --output /home/mstevan/logs/experiment_2.1/dstat/vs_256-vcpr_8-rep_3.csv 5 14",,,,"Date:","27 Oct 2019 23:51:49 UTC"

"total cpu usage",,,,,,"dsk/total",,"net/total",,"paging",,"system",
"usr","sys","idl","wai","hiq","siq","read","writ","recv","send","in","out","int","csw"
9.456,23.657,57.989,2.847,0.0,6.051,71874.369,16850183.271,0.0,0.0,0.0,0.0,1.393,989.706
17.264,46.580,26.384,0.0,0.0,9.772,0.0,2457.600,2151997.0,9079136.200,0.0,0.0,0.0,1496.400
16.066,47.541,29.180,0.0,0.0,7.213,0.0,819.200,2169877.0,9163750.800,0.0,0.0,0.0,1511.200
16.987,48.077,26.923,0.0,0.0,8.013,0.0,1638.400,2145078.400,9053673.0,0.0,0.0,0.0,1501.0
16.774,47.742,27.097,0.0,0.0,8.387,0.0,819.200,2159890.200,9119979.600,0.0,0.0,0.0,1462.0
15.506,49.051,25.949,0.0,0.0,9.494,0.0,1638.400,2151534.600,9076248.400,0.0,0.0,0.0,1505.200
19.505,47.368,22.910,0.0,0.0,10.217,0.0,2457.600,2126193.200,8971264.0,0.0,0.0,0.0,1483.600
17.757,46.106,27.414,0.312,0.0,8.411,0.0,18841.600,2153040.0,9090207.200,0.0,0.0,0.0,1498.200
16.505,46.926,27.184,0.0,0.0,9.385,0.0,1638.400,2153494.800,9085510.400,0.0,0.0,0.0,1427.200
17.778,49.841,23.175,0.0,0.0,9.206,0.0,819.200,2175459.0,9190565.400,0.0,0.0,0.0,1454.600
18.519,46.914,25.0,0.0,0.0,9.568,0.0,1638.400,2124804.800,8964339.600,0.0,0.0,0.0,1469.600
16.511,47.040,26.480,0.0,0.0,9.969,0.0,1638.400,2138231.800,9020303.600,0.0,0.0,0.0,1504.800
16.828,45.631,29.126,0.0,0.0,8.414,0.0,819.200,2143792.200,9051199.600,0.0,0.0,0.0,1468.400
18.069,45.483,26.791,0.0,0.0,9.657,0.0,17203.200,2125614.0,8961606.800,0.0,0.0,0.0,1452.800
17.702,43.168,31.366,0.0,0.0,7.764,0.0,3276.800,2093412.800,8830809.400,0.0,0.0,0.0,1453.800
