"Dstat 0.7.2 CSV output"
"Author:","Dag Wieers <dag@wieers.com>",,,,"URL:","http://dag.wieers.com/home-made/dstat/"
"Host:","Server1",,,,"User:","mstevan"
"Cmdline:","dstat --output /home/mstevan/logs/experiment_2.1/dstat/vs_512-vcpr_8-rep_2.csv 5 14",,,,"Date:","28 Oct 2019 00:09:35 UTC"

"total cpu usage",,,,,,"dsk/total",,"net/total",,"paging",,"system",
"usr","sys","idl","wai","hiq","siq","read","writ","recv","send","in","out","int","csw"
11.377,29.286,49.101,2.107,0.0,8.129,50965.354,11949580.242,0.0,0.0,0.0,0.0,0.988,1041.175
9.137,29.695,55.330,1.015,0.0,4.822,0.0,32768.0,1741184.0,12635731.600,0.0,0.0,0.0,1517.400
9.113,21.429,66.010,0.0,0.0,3.448,0.0,2457.600,1723582.400,12499972.400,0.0,0.0,0.0,1287.600
6.941,25.964,62.468,0.0,0.0,4.627,0.0,819.200,1719553.400,12499960.400,0.0,0.0,0.0,1285.0
10.938,25.521,58.333,0.0,0.0,5.208,0.0,1638.400,1723750.600,12512805.600,0.0,0.0,0.0,1282.800
10.156,27.344,59.115,0.0,0.0,3.385,0.0,819.200,1718753.400,12487277.200,0.0,0.0,0.0,1273.400
7.949,25.385,62.821,0.0,0.0,3.846,0.0,3276.800,1723219.400,12500004.0,0.0,0.0,0.0,1269.200
9.572,26.952,57.683,0.252,0.0,5.542,0.0,17203.200,1722605.400,12499935.0,0.0,0.0,0.0,1263.0
8.616,25.849,60.836,0.0,0.0,4.700,0.0,17203.200,1725061.600,12538986.200,0.0,0.0,0.0,1279.400
9.924,25.700,60.814,0.0,0.0,3.562,0.0,1638.400,1723053.200,12500098.400,0.0,0.0,0.0,1295.200
9.763,27.704,57.784,0.0,0.0,4.749,0.0,1638.400,1723729.0,12512569.400,0.0,0.0,0.0,1278.600
9.250,25.0,61.750,0.0,0.0,4.0,0.0,819.200,1718431.600,12487327.400,0.0,0.0,0.0,1269.0
8.564,23.174,63.224,0.0,0.0,5.038,0.0,1638.400,1722498.200,12500051.0,0.0,0.0,0.0,1310.200
10.610,30.769,54.377,0.0,0.0,4.244,0.0,1638.400,1719548.400,12499850.400,0.0,0.0,0.0,1257.600
8.728,21.446,65.586,0.0,0.0,4.239,0.0,15564.800,1648078.800,11950135.600,0.0,0.0,0.0,1283.0
