"Dstat 0.7.2 CSV output"
"Author:","Dag Wieers <dag@wieers.com>",,,,"URL:","http://dag.wieers.com/home-made/dstat/"
"Host:","Server1",,,,"User:","mstevan"
"Cmdline:","dstat --output /home/mstevan/logs/experiment_2.1/dstat/vs_512-vcpr_4-rep_4.csv 5 14",,,,"Date:","28 Oct 2019 00:07:14 UTC"

"total cpu usage",,,,,,"dsk/total",,"net/total",,"paging",,"system",
"usr","sys","idl","wai","hiq","siq","read","writ","recv","send","in","out","int","csw"
11.371,29.258,48.948,2.187,0.0,8.235,53010.775,12428995.367,0.0,0.0,0.0,0.0,1.028,1008.432
11.685,33.424,48.913,0.0,0.0,5.978,0.0,819.200,1740981.800,12649475.800,0.0,0.0,0.0,2476.200
13.521,34.366,46.479,0.0,0.0,5.634,0.0,1638.400,1721536.800,12493608.400,0.0,0.0,0.0,2491.200
14.162,35.260,43.642,0.0,0.0,6.936,0.0,1638.400,1725638.0,12518795.0,0.0,0.0,0.0,2450.800
14.371,35.928,41.317,0.0,0.0,8.383,0.0,819.200,1718215.400,12489347.400,0.0,0.0,0.0,2417.400
14.881,36.905,42.560,0.0,0.0,5.655,0.0,1638.400,1722650.200,12500308.600,0.0,0.0,0.0,2414.400
15.821,37.612,40.597,0.299,0.0,5.672,0.0,22118.400,1714448.200,12441091.800,0.0,0.0,0.0,2367.200
14.328,35.522,44.478,0.0,0.0,5.672,0.0,3276.800,1728515.400,12563378.600,0.0,0.0,0.0,2526.400
14.497,33.728,45.266,0.0,0.0,6.509,0.0,1638.400,1723010.200,12493732.400,0.0,0.0,0.0,2468.200
13.003,37.461,43.344,0.0,0.0,6.192,0.0,819.200,1720510.0,12505390.800,0.0,0.0,0.0,2397.400
16.012,36.858,40.483,0.0,0.0,6.647,0.0,1638.400,1720874.400,12488518.800,0.0,0.0,0.0,2421.0
11.607,39.286,41.964,0.0,0.0,7.143,0.0,1638.400,1721482.400,12492922.0,0.0,0.0,0.0,2443.0
12.647,38.235,42.941,0.294,0.0,5.882,0.0,14745.600,1719048.800,12495978.600,0.0,0.0,0.0,2380.0
14.804,36.556,41.994,0.0,0.0,6.647,0.0,1638.400,1720721.800,12483959.600,0.0,0.0,0.0,2434.800
13.274,32.448,49.263,0.0,0.0,5.015,0.0,2457.600,1648034.600,11977327.600,0.0,0.0,0.0,2388.800
