"Dstat 0.7.2 CSV output"
"Author:","Dag Wieers <dag@wieers.com>",,,,"URL:","http://dag.wieers.com/home-made/dstat/"
"Host:","Server1",,,,"User:","mstevan"
"Cmdline:","dstat --output /home/mstevan/logs/experiment_2.1/dstat/vs_512-vcpr_32-rep_4.csv 5 14",,,,"Date:","28 Oct 2019 00:21:25 UTC"

"total cpu usage",,,,,,"dsk/total",,"net/total",,"paging",,"system",
"usr","sys","idl","wai","hiq","siq","read","writ","recv","send","in","out","int","csw"
10.504,27.084,53.254,1.732,0.0,7.427,42689.318,10009902.540,0.0,0.0,0.0,0.0,0.829,1000.709
5.543,14.412,74.501,0.0,0.0,5.543,0.0,1638.400,1749671.800,12792872.200,0.0,0.0,0.0,509.800
6.849,16.895,70.320,0.0,0.0,5.936,0.0,819.200,1737730.800,12727748.800,0.0,0.0,0.0,516.400
6.565,15.755,73.085,0.0,0.0,4.595,0.0,1638.400,1746947.0,12790173.400,0.0,0.0,0.0,521.400
5.960,17.219,73.731,0.0,0.0,3.091,0.0,819.200,1733228.600,12727824.800,0.0,0.0,0.0,502.0
6.222,15.778,73.556,0.444,0.0,4.0,0.0,18841.600,1743388.800,12740458.400,0.0,0.0,0.0,528.200
4.933,14.798,75.112,0.0,0.0,5.157,0.0,7372.800,1740004.800,12766424.600,0.0,0.0,0.0,512.600
6.459,16.036,74.388,0.0,0.0,3.118,0.0,4915.200,1738922.0,12709575.600,0.0,0.0,0.0,543.200
4.615,15.385,75.604,0.0,0.0,4.396,0.0,819.200,1741227.600,12740063.200,0.0,0.0,0.0,528.400
4.213,13.525,76.718,0.0,0.0,5.543,0.0,1638.400,1743371.0,12752482.200,0.0,0.0,0.0,529.600
4.889,15.556,75.333,0.0,0.0,4.222,0.0,819.200,1737710.800,12743207.0,0.0,0.0,0.0,558.800
5.531,17.478,72.124,0.0,0.0,4.867,0.0,819.200,1734378.800,12724382.800,0.0,0.0,0.0,581.600
5.830,16.143,72.646,0.0,0.0,5.381,0.0,13107.200,1738207.800,12707540.800,0.0,0.0,0.0,562.200
4.077,12.876,79.185,0.0,0.0,3.863,0.0,819.200,1738777.800,12750886.800,0.0,0.0,0.0,525.200
5.482,14.035,76.096,0.0,0.0,4.386,0.0,3276.800,1680571.0,12300640.400,0.0,0.0,0.0,661.200
