"Dstat 0.7.2 CSV output"
"Author:","Dag Wieers <dag@wieers.com>",,,,"URL:","http://dag.wieers.com/home-made/dstat/"
"Host:","Server1",,,,"User:","mstevan"
"Cmdline:","dstat --output /home/mstevan/logs/experiment_2.1/dstat/vs_64-vcpr_16-rep_4.csv 5 14",,,,"Date:","27 Oct 2019 23:38:44 UTC"

"total cpu usage",,,,,,"dsk/total",,"net/total",,"paging",,"system",
"usr","sys","idl","wai","hiq","siq","read","writ","recv","send","in","out","int","csw"
6.721,15.670,70.441,3.821,0.0,3.348,103003.592,24146099.863,0.0,0.0,0.0,0.0,1.994,845.302
18.541,53.799,11.854,0.0,0.0,15.805,0.0,1638.400,2688442.800,5180788.0,0.0,0.0,0.0,730.600
18.297,51.420,11.041,0.0,0.0,19.243,0.0,1638.400,2685112.600,5172474.400,0.0,0.0,0.0,794.200
17.901,54.630,11.728,0.0,0.0,15.741,0.0,819.200,2713128.200,5228499.400,0.0,0.0,0.0,784.0
22.118,53.271,10.903,0.0,0.0,13.707,0.0,19660.800,2680359.200,5162161.400,0.0,0.0,0.0,772.0
21.203,51.899,11.392,0.0,0.0,15.506,0.0,1638.400,2650228.800,5104857.600,0.0,0.0,0.0,742.600
17.757,56.698,10.903,0.0,0.0,14.642,0.0,1638.400,2635671.200,5081783.600,0.0,0.0,0.0,773.400
20.909,52.121,10.606,0.0,0.0,16.364,0.0,5734.400,2631966.200,5068490.200,0.0,0.0,0.0,690.0
21.069,50.314,11.006,0.0,0.0,17.610,0.0,819.200,2698809.600,5200661.800,0.0,0.0,0.0,727.600
21.472,52.147,10.123,0.0,0.0,16.258,0.0,1638.400,2659130.200,5122466.200,0.0,0.0,0.0,710.600
20.597,52.836,10.448,0.0,0.0,16.119,0.0,1638.400,2631547.400,5066888.600,0.0,0.0,0.0,731.600
21.118,49.379,12.422,0.0,0.0,17.081,0.0,31948.800,2686572.0,5180494.800,0.0,0.0,0.0,800.600
19.444,52.778,12.654,0.0,0.0,15.123,0.0,1638.400,2633054.0,5071802.400,0.0,0.0,0.0,744.0
20.376,54.859,11.912,0.0,0.0,12.853,0.0,1638.400,2693075.0,5190093.0,0.0,0.0,0.200,771.600
17.683,50.0,17.378,0.0,0.0,14.939,0.0,2457.600,2542272.600,4894654.200,0.0,0.0,0.0,725.400
