PING 10.0.0.6 (10.0.0.6) 56(84) bytes of data.
64 bytes from 10.0.0.6: icmp_seq=1 ttl=64 time=1.31 ms
64 bytes from 10.0.0.6: icmp_seq=2 ttl=64 time=0.359 ms
64 bytes from 10.0.0.6: icmp_seq=3 ttl=64 time=7.06 ms
64 bytes from 10.0.0.6: icmp_seq=4 ttl=64 time=0.534 ms
64 bytes from 10.0.0.6: icmp_seq=5 ttl=64 time=0.532 ms
64 bytes from 10.0.0.6: icmp_seq=6 ttl=64 time=0.510 ms
64 bytes from 10.0.0.6: icmp_seq=7 ttl=64 time=0.430 ms
64 bytes from 10.0.0.6: icmp_seq=8 ttl=64 time=3.35 ms
64 bytes from 10.0.0.6: icmp_seq=9 ttl=64 time=0.484 ms
64 bytes from 10.0.0.6: icmp_seq=10 ttl=64 time=0.682 ms
64 bytes from 10.0.0.6: icmp_seq=11 ttl=64 time=0.546 ms
64 bytes from 10.0.0.6: icmp_seq=12 ttl=64 time=0.470 ms
64 bytes from 10.0.0.6: icmp_seq=13 ttl=64 time=0.620 ms
64 bytes from 10.0.0.6: icmp_seq=14 ttl=64 time=0.605 ms
64 bytes from 10.0.0.6: icmp_seq=15 ttl=64 time=0.571 ms
64 bytes from 10.0.0.6: icmp_seq=16 ttl=64 time=0.682 ms

--- 10.0.0.6 ping statistics ---
16 packets transmitted, 16 received, 0% packet loss, time 76803ms
rtt min/avg/max/mdev = 0.359/1.172/7.068/1.674 ms
s
44/1.433/0.274 ms
