PING 10.0.0.7 (10.0.0.7) 56(84) bytes of data.
64 bytes from 10.0.0.7: icmp_seq=1 ttl=64 time=0.939 ms
64 bytes from 10.0.0.7: icmp_seq=2 ttl=64 time=0.714 ms
64 bytes from 10.0.0.7: icmp_seq=3 ttl=64 time=6.02 ms
64 by64 bytes from 10.0.0.11: icmp_seq=4 ttl=64 time=0.364 byt64 bytes from 10.0.0.11: icmp_seq=5 ttl=64 time=3.64 bytes from 10.0.0.7: icmp_seq=6 ttl=64 time=6.95 ms
64 bytes64 bytes from 10.0.0.11: icmp_seq=7 ttl=64 time=64 bytes from 10.0.0.6: icmp_seq=8 ttl=64 time=7.76 ms
664 bytes f64 bytes from 10.0.0.11: icmp_seq=9 ttl=64 ti64 bytes from 10.0.0.6: icmp_seq=10 ttl=64 time=0.471 ms
64 bytes from 10.0.0.6: icmp_seq=11 ttl=64 time=7.34 ms
6464 bytes fro64 bytes from 10.0.0.11: icmp_seq=12 ttl=6464 bytes from 10.0.0.6: icmp_seq=13 ttl=64 time=0.401 ms
6464 bytes from 10.0.0.7: icmp_seq=14 ttl=64 time=0.465 m64 bytes from 10.0.0.6: icmp_seq=15 ttl=64 time=0.452 ms
6464 bytes from 10.0.0.7: icmp_seq=16 ttl=64 time=0.741 ms

--- 10.0.0.7 ping statistics ---
16 packets transmitted, 16 received, 0% packet loss, time 76573ms
rtt min/avg/max/mdev = 0.382/1.312/6.957/1.971 ms
7/7.152/1.731 ms
