PING 10.0.0.7 (10.0.0.7) 56(84) bytes of data.
64 bytes from 10.0.0.7: icmp_seq=1 ttl=64 time=1.02 ms
64 bytes from 10.0.0.7: icmp_seq=2 ttl=64 time=0.347 ms
64 bytes from 10.0.0.7: icmp_seq=3 ttl=64 time=0.658 ms
664 by64 bytes from 10.0.0.11: icmp_seq=4 ttl=64 time=1.64 bytes from 10.0.0.7: icmp_seq=5 ttl=64 time=0.959 ms
664 byt64 bytes from 10.0.0.11: icmp_seq=6 ttl=64 time=064 bytes from 10.0.0.7: icmp_seq=7 ttl=64 time=0.713 ms
664 bytes64 bytes from 10.0.0.11: icmp_seq=8 ttl=64 time64 bytes from 10.0.0.7: icmp_seq=9 ttl=64 time=0.613 ms
664 bytes from 10.0.0.6: icmp_seq=10 ttl=64 time=0.617 ms664 bytes from 10.0.0.6: icmp_seq=11 ttl=64 time=0.539 ms664 bytes from 10.0.0.6: icmp_seq=12 ttl=64 time=5.67 ms
64 bytes from 10.0.0.7: icmp_seq=13 ttl=64 time=2.12 ms
664 bytes from 10.0.0.6: icmp_seq=14 ttl=64 time=0.522 m6464 bytes from 10.0.0.6: icmp_seq=15 ttl=64 time=0.467 m6464 bytes from 10.0.0.6: icmp_seq=16 ttl=64 time=0.996 ms

--- 10.0.0.6 ping statistics ---
16 packets transmitted, 16 received, 0% packet loss, time 76706ms
rtt min/avg/max/mdev = 0.401/0.871/5.670/1.247 ms
549/1.321/0.231 ms
