PING 10.0.0.6 (10.0.0.6) 56(84) bytes of data.
64 bytes from 10.0.0.6: icmp_seq=1 ttl=64 time=1.21 ms
664 bytes from 10.0.0.7: icmp_seq=2 ttl=64 time=0.419 ms664 bytes from 10.0.0.7: icmp_seq=3 ttl=64 time=0.900 ms64 byt64 bytes from 10.0.0.11: icmp_seq=4 ttl=64 time=9.64 bytes from 10.0.0.6: icmp_seq=5 ttl=64 time=3.15 ms
64 bytes from 10.0.0.6: icmp_seq=6 ttl=64 time=0.479 ms
64 bytes from 10.0.0.6: icmp_seq=7 ttl=64 time=0.417 ms
664 bytes from 10.0.0.7: icmp_seq=8 ttl=64 time=1.25 ms
64 bytes from 10.0.0.6: icmp_seq=9 ttl=64 time=0.823 ms
64 bytes from 10.0.0.7: icmp_seq=10 ttl=64 time=0.612 ms
64 bytes from 10.0.0.6: icmp_seq=11 ttl=64 time=0.856 ms
64 bytes from 10.0.0.6: icmp_seq=12 ttl=64 time=0.685 ms
64 bytes from 10.0.0.7: icmp_seq=13 ttl=64 time=0.491 ms
64 bytes from 10.0.0.6: icmp_seq=14 ttl=64 time=0.474 ms
64 bytes from 10.0.0.7: icmp_seq=15 ttl=64 time=0.840 ms
64 bytes from 10.0.0.6: icmp_seq=16 ttl=64 time=1.08 ms

--- 10.0.0.6 ping statistics ---
16 packets transmitted, 16 received, 0% packet loss, time 76741ms
rtt min/avg/max/mdev = 0.387/0.834/3.155/0.639 ms

10/12.519/3.614 ms
