PING 10.0.0.7 (10.0.0.7) 56(84) bytes of data.
64 bytes from 10.0.0.7: icmp_seq=1 ttl=64 time=5.89 ms
64 bytes from 10.0.0.7: icmp_seq=2 ttl=64 time=0.611 ms
64 bytes from 10.0.0.7: icmp_seq=3 ttl=64 time=0.504 ms
664 by64 bytes from 10.0.0.11: icmp_seq=4 ttl=64 time=6.64 bytes from 10.0.0.7: icmp_seq=5 ttl=64 time=0.498 ms
664 bytes from 10.0.0.6: icmp_seq=6 ttl=64 time=4.50 ms
64 bytes from 10.0.0.7: icmp_seq=7 ttl=64 time=0.613 ms
64 bytes from 10.0.0.6: icmp_seq=8 ttl=64 time=0.693 ms
64 bytes from 10.0.0.6: icmp_seq=9 ttl=64 time=0.916 ms
64 bytes f64 bytes from 10.0.0.11: icmp_seq=10 ttl=64 tim64 bytes from 10.0.0.6: icmp_seq=11 ttl=64 time=0.798 ms
64 bytes from 10.0.0.6: icmp_seq=12 ttl=64 time=2.15 ms
664 bytes from 10.0.0.7: icmp_seq=13 ttl=64 time=0.525 ms664 bytes from 10.0.0.7: icmp_seq=14 ttl=64 time=0.863 ms664 bytes from 10.0.0.7: icmp_seq=15 ttl=64 time=6.92 ms
64 bytes from 10.0.0.6: icmp_seq=16 ttl=64 time=0.634 ms

--- 10.0.0.6 ping statistics ---
16 packets transmitted, 16 received, 0% packet loss, time 76713ms
rtt min/avg/max/mdev = 0.375/0.965/4.504/0.998 ms
967/6.192/1.362 ms
