PING 10.0.0.7 (10.0.0.7) 56(84) bytes of data.
64 bytes from 10.0.0.7: icmp_seq=1 ttl=64 time=0.817 ms
64 bytes from 10.0.0.7: icmp_seq=2 ttl=64 time=0.442 ms664 64 bytes from 10.0.0.11: icmp_seq=3 ttl=64 time=0.40664 b64 bytes from 10.0.0.11: icmp_seq=4 ttl=64 time=0.4664 bytes from 10.0.0.7: icmp_seq=5 ttl=64 time=0.830 ms664 bytes from 10.0.0.7: icmp_seq=6 ttl=64 time=0.552 ms664 byte64 bytes from 10.0.0.11: icmp_seq=7 ttl=64 time=664 bytes from 10.0.0.7: icmp_seq=8 ttl=64 time=0.645 ms664 bytes 64 bytes from 10.0.0.11: icmp_seq=9 ttl=64 tim664 bytes from 10.0.0.7: icmp_seq=10 ttl=64 time=0.431 ms664 bytes from 10.0.0.7: icmp_seq=11 ttl=64 time=0.739 ms664 bytes from 10.0.0.7: icmp_seq=12 ttl=64 time=0.808 ms664 bytes fro64 bytes from 10.0.0.11: icmp_seq=13 ttl=64 664 bytes from 10.0.0.7: icmp_seq=14 ttl=64 time=0.290 ms664 bytes from 64 bytes from 10.0.0.11: icmp_seq=15 ttl=6664 bytes from 164 bytes from 10.0.0.11: icmp_seq=16 ttl=64 time=0.880 ms

--- 10.0.0.11 ping statistics ---
16 packets transmitted, 16 received, 0% packet loss, time 76768ms
rtt min/avg/max/mdev = 0.408/0.836/4.872/1.057 ms
