PING 10.0.0.7 (10.0.0.7) 56(84) bytes of data.
64 bytes from 10.0.0.7: icmp_seq=1 ttl=64 time=1.07 ms
64 bytes from 10.0.0.7: icmp_seq=2 ttl=64 time=0.456 ms
64 bytes from 10.0.0.7: icmp_seq=3 ttl=64 time=0.453 ms
664 bytes from 10.0.0.6: icmp_seq=4 ttl=64 time=4.43 ms
64 byte64 bytes from 10.0.0.11: icmp_seq=5 ttl=64 time=064 bytes from 10.0.0.6: icmp_seq=6 ttl=64 time=0.820 ms
64 bytes from 10.0.0.7: icmp_seq=7 ttl=64 time=0.317 ms
64 bytes f64 bytes from 10.0.0.11: icmp_seq=8 ttl=64 tim64 bytes from 10.0.0.7: icmp_seq=9 ttl=64 time=0.677 ms
64 bytes from 10.0.0.6: icmp_seq=10 ttl=64 time=0.502 ms
64 bytes from64 bytes from 10.0.0.11: icmp_seq=11 ttl=64 64 bytes from 10.0.0.7: icmp_seq=12 ttl=64 time=0.578 ms
64 bytes from 10.0.0.7: icmp_seq=13 ttl=64 time=0.539 ms
64 bytes from 10.0.0.7: icmp_seq=14 ttl=64 time=0.815 ms
64 bytes from 10.0.0.6: icmp_seq=15 ttl=64 time=1.19 ms
664 bytes from 10.64 bytes from 10.0.0.11: icmp_seq=16 ttl=--- 10.0.0.7 ping
--- 10.0.0.11 ping statistics ---
16 packets transmitted, 16 received, 0% packet loss, time 76659ms
rtt min/avg/max/mdev = 0.426/0.623/1.458/0.249 ms
