PING 10.0.0.6 (10.0.0.6) 56(84) bytes of data.
64 bytes from 10.0.0.6: icmp_seq=1 ttl=64 time=0.462 ms
64 bytes from 10.0.0.6: icmp_seq=2 ttl=64 time=0.532 ms
64 bytes from 10.0.0.6: icmp_seq=3 ttl=64 time=0.809 ms
64 by64 bytes from 10.0.0.11: icmp_seq=4 ttl=64 time=2.164 bytes from 10.0.0.7: icmp_seq=5 ttl=64 time=0.547 ms
64 bytes from 10.0.0.6: icmp_seq=6 ttl=64 time=1.03 ms
664 bytes from 10.0.0.7: icmp_seq=7 ttl=64 time=0.886 ms664 bytes from 10.0.0.7: icmp_seq=8 ttl=64 time=0.578 ms664 bytes from 10.0.0.7: icmp_seq=9 ttl=64 time=0.874 ms664 bytes from 10.0.0.7: icmp_seq=10 ttl=64 time=0.554 ms64 bytes from 10.0.0.6: icmp_seq=11 ttl=64 time=10.9 ms
6464 bytes from 10.0.0.7: icmp_seq=12 ttl=64 time=0.588 m64 bytes from 64 bytes from 10.0.0.11: icmp_seq=13 ttl=646464 bytes from 10.0.0.7: icmp_seq=14 ttl=64 time=10.2 ms64 bytes from 10.0.0.6: icmp_seq=15 ttl=64 time=0.602 ms
664 bytes from 10.0.0.7: icmp_seq=16 ttl=64 time=0.709 ms

--- 10.0.0.7 ping statistics ---
16 packets transmitted, 16 received, 0% packet loss, time 76580ms
rtt min/avg/max/mdev = 0.435/1.246/10.200/2.316 ms
/7.307/1.689 ms
