PING 10.0.0.7 (10.0.0.7) 56(84) bytes of data.
64 bytes from 10.0.0.7: icmp_seq=1 ttl=64 time=0.558 ms
64 bytes from 10.0.0.6: icmp_seq=2 ttl=64 time=0.411 ms
64 bytes from 10.0.0.7: icmp_seq=3 ttl=64 time=0.485 ms
64 bytes from 10.0.0.7: icmp_seq=4 ttl=64 time=0.620 ms
64 bytes from 10.0.0.6: icmp_seq=5 ttl=64 time=0.549 ms
64 bytes from 10.0.0.7: icmp_seq=6 ttl=64 time=0.498 ms
64 bytes64 bytes from 10.0.0.11: icmp_seq=7 ttl=64 time=64 bytes from 10.0.0.7: icmp_seq=8 ttl=64 time=0.589 ms
64 bytes from 10.0.0.7: icmp_seq=9 ttl=64 time=0.805 ms
64 bytes fr64 bytes from 10.0.0.11: icmp_seq=10 ttl=64 ti64 bytes from 10.0.0.7: icmp_seq=11 ttl=64 time=0.913 ms
64 bytes from 10.0.0.7: icmp_seq=12 ttl=64 time=0.518 ms
64 bytes from 10.0.0.6: icmp_seq=13 ttl=64 time=0.474 ms
64 bytes from 10.0.0.7: icmp_seq=14 ttl=64 time=0.490 ms
64 bytes from 10.0.0.6: icmp_seq=15 ttl=64 time=3.72 ms
664 bytes from 10.64 bytes from 10.0.0.11: icmp_seq=16 ttl=64 time=0.933 ms

--- 10.0.0.11 ping statistics ---
16 packets transmitted, 16 received, 0% packet loss, time 76593ms
rtt min/avg/max/mdev = 0.374/0.480/0.933/0.131 ms
