PING 10.0.0.11 (10.0.0.11) 56(84) bytes of data.
64 bytes from 10.0.0.11: icmp_seq=1 ttl=64 time=36.2 m64 bytes from 10.0.0.7: icmp_seq=2 ttl=64 time=0.947 ms
64 bytes from 10.0.0.6: icmp_seq=3 ttl=64 time=0.470 ms
64 b64 bytes from 10.0.0.11: icmp_seq=4 ttl=64 time=0.8964 bytes from 10.0.0.6: icmp_seq=5 ttl=64 time=0.359 ms664 bytes from 10.0.0.6: icmp_seq=6 ttl=64 time=4.21 ms664 bytes64 bytes from 10.0.0.11: icmp_seq=7 ttl=64 time664 bytes 64 bytes from 10.0.0.11: icmp_seq=8 ttl=64 tim664 bytes from 10.0.0.6: icmp_seq=9 ttl=64 time=0.497 ms664 bytes fr64 bytes from 10.0.0.11: icmp_seq=10 ttl=64 t64 bytes from64 bytes from 10.0.0.11: icmp_seq=11 ttl=64 64 bytes from 64 bytes from 10.0.0.11: icmp_seq=12 ttl=6464 bytes from 10.0.0.6: icmp_seq=13 ttl=64 time=0.579 ms
64 bytes from 1064 bytes from 10.0.0.11: icmp_seq=14 ttl=64 bytes from 10.0.0.6: icmp_seq=15 ttl=64 time=0.511 ms
64 bytes from 10.0.0.6: icmp_seq=16 ttl=64 time=0.582 ms

--- 10.0.0.6 ping --- 10.0.0.11 ping statistics ---
16 packets transmitted, 16 received, 0% packet loss, time 76757ms
rtt min/avg/max/mdev = 0.308/3.010/36.254/8.632 ms
