PING 10.0.0.6 (10.0.0.6) 56(84) bytes of data.
64 bytes from 10.0.0.6: icmp_seq=1 ttl=64 time=0.388 ms
64 bytes from 10.0.0.6: icmp_seq=2 ttl=64 time=2.83 ms
64 bytes from 10.0.0.6: icmp_seq=3 ttl=64 time=0.432 ms
64 bytes from 10.0.0.6: icmp_seq=4 ttl=64 time=0.553 ms
64 bytes from 10.0.0.6: icmp_seq=5 ttl=64 time=1.86 ms
64 bytes from 10.0.0.6: icmp_seq=6 ttl=64 time=0.405 ms
64 bytes from 10.0.0.6: icmp_seq=7 ttl=64 time=0.484 ms
64 bytes from 10.0.0.6: icmp_seq=8 ttl=64 time=0.571 ms664 bytes from 10.0.0.6: icmp_seq=9 ttl=64 time=0.434 ms664 bytes from 10.0.0.6: icmp_seq=10 ttl=64 time=0.420 m6464 bytes from 10.0.0.6: icmp_seq=11 ttl=64 time=0.505 64 64 bytes from 10.0.0.6: icmp_seq=12 ttl=64 time=0.510 64 64 bytes from 10.0.0.6: icmp_seq=13 ttl=64 time=1.05 m6464 bytes from 10.0.0.6: icmp_seq=14 ttl=64 time=0.963 m6464 bytes from 10.0.0.6: icmp_seq=15 ttl=64 time=5.61 m6464 bytes from 10.0.0.6: icmp_seq=16 ttl=64 time=0.942 ms

--- 10.0.0.6 ping statistics ---
16 packets transmitted, 16 received, 0% packet loss, time 76527ms
rtt min/avg/max/mdev = 0.388/1.123/5.619/1.324 ms
7/11.362/2.793 ms
