PING 10.0.0.7 (10.0.0.7) 56(84) bytes of data.
64 bytes from 10.0.0.7: icmp_seq=1 ttl=64 time=0.658 ms
64 bytes from 10.0.0.7: icmp_seq=2 ttl=64 time=0.717 ms
64 b64 bytes from 10.0.0.11: icmp_seq=3 ttl=64 time=1.0164 bytes from 10.0.0.7: icmp_seq=4 ttl=64 time=1.29 ms
664 bytes from 10.0.0.6: icmp_seq=5 ttl=64 time=0.761 ms64 bytes from 10.0.0.7: icmp_seq=6 ttl=64 time=0.666 ms
664 bytes from 10.0.0.6: icmp_seq=7 ttl=64 time=0.568 ms64 bytes 64 bytes from 10.0.0.11: icmp_seq=8 ttl=64 time664 bytes from 10.0.0.6: icmp_seq=9 ttl=64 time=0.520 ms664 bytes from 10.0.0.6: icmp_seq=10 ttl=64 time=0.823 ms664 bytes from 10.0.0.6: icmp_seq=11 ttl=64 time=0.580 ms64 bytes from64 bytes from 10.0.0.11: icmp_seq=12 ttl=64 64 bytes from 10.0.0.7: icmp_seq=13 ttl=64 time=0.556 ms
64 bytes from 10.0.0.7: icmp_seq=14 ttl=64 time=0.697 ms
64 bytes from 1064 bytes from 10.0.0.11: icmp_seq=15 ttl=64 bytes from 10.0.0.7: icmp_seq=16 ttl=64 time=0.875 ms

--- 10.0.0.7 ping statistics ---
16 packets transmitted, 16 received, 0% packet loss, time 76578ms
rtt min/avg/max/mdev = 0.407/0.679/1.298/0.220 ms
594/1.012/0.185 ms
