PING 10.0.0.7 (10.0.0.7) 56(84) bytes of data.
64 bytes from 10.0.0.7: icmp_seq=1 ttl=64 time=0.566 ms
64 bytes from 10.0.0.7: icmp_seq=2 ttl=64 time=0.331 ms
64 bytes from 10.0.0.7: icmp_seq=3 ttl=64 time=0.801 ms
64 bytes from 10.0.0.7: icmp_seq=4 ttl=64 time=5.00 ms
664 bytes from 10.0.0.6: icmp_seq=5 ttl=64 time=0.630 ms64 bytes from 10.0.0.7: icmp_seq=6 ttl=64 time=0.647 ms
64 bytes from 10.0.0.7: icmp_seq=7 ttl=64 time=0.381 ms
64 bytes from 10.0.0.7: icmp_seq=8 ttl=64 time=0.559 ms
64 bytes from 10.0.0.7: icmp_seq=9 ttl=64 time=0.514 ms
64 bytes from 10.0.0.7: icmp_seq=10 ttl=64 time=0.659 ms
64 bytes from 10.0.0.7: icmp_seq=11 ttl=64 time=0.580 ms
664 bytes from 10.0.0.6: icmp_seq=12 ttl=64 time=1.10 ms
64 bytes from 164 bytes from 10.0.0.11: icmp_seq=13 ttl=664 bytes from 10.0.0.7: icmp_seq=14 ttl=64 time=0.659 ms
64 bytes from 10.0.0.7: icmp_seq=15 ttl=64 time=0.905 ms
64 bytes from 10.0.0.6: icmp_seq=16 ttl=64 time=1.10 ms

--- 10.0.0.6 ping statistics ---
16 packets transmitted, 16 received, 0% packet loss, time 76614ms
rtt min/avg/max/mdev = 0.375/0.624/1.108/0.224 ms
.599/1.096/0.205 ms
