PING 10.0.0.6 (10.0.0.6) 56(84) bytes of data.
64 bytes from 10.0.0.6: icmp_seq=1 ttl=64 time=0.705 ms
64 bytes from 10.0.0.6: icmp_seq=2 ttl=64 time=0.488 ms
64 bytes from 10.0.0.7: icmp_seq=3 ttl=64 time=6.58 ms
664 bytes from 10.0.0.6: icmp_seq=4 ttl=64 time=0.463 m6464 bytes from 10.0.0.6: icmp_seq=5 ttl=64 time=0.577 m6464 byt64 bytes from 10.0.0.11: icmp_seq=6 ttl=64 time=6464 byte64 bytes from 10.0.0.11: icmp_seq=7 ttl=64 time6464 bytes from 10.0.0.6: icmp_seq=8 ttl=64 time=0.434 m6464 bytes from 10.0.0.6: icmp_seq=9 ttl=64 time=1.94 ms664 bytes from 10.0.0.6: icmp_seq=10 ttl=64 time=0.355 ms664 bytes from 10.0.0.6: icmp_seq=11 ttl=64 time=0.485 ms664 bytes from 10.0.0.6: icmp_seq=12 ttl=64 time=1.46 ms
64 bytes from 64 bytes from 10.0.0.11: icmp_seq=13 ttl=664 bytes from 1064 bytes from 10.0.0.11: icmp_seq=14 ttl664 bytes from 10.64 bytes from 10.0.0.11: icmp_seq=15 tt64 bytes from 10.0.64 bytes from 10.0.0.11: icmp_seq=16 ttl=64 time=0.712 ms

--- 10.0.0.11 ping statistics ---
16 packets transmitted, 16 received, 0% packet loss, time 76618ms
rtt min/avg/max/mdev = 0.361/0.935/4.439/0.990 ms
