PING 10.0.0.11 (10.0.0.11) 56(84) bytes of data.
64 bytes from 10.0.0.11: icmp_seq=1 ttl=64 time=1.04 64 64 bytes from 10.0.0.11: icmp_seq=2 ttl=64 time=0.846464 64 bytes from 10.0.0.11: icmp_seq=3 ttl=64 time=0.564 byt64 bytes from 10.0.0.11: icmp_seq=4 ttl=64 time=0.6464 bytes from 10.0.0.6: icmp_seq=5 ttl=64 time=1.33 ms64 bytes64 bytes from 10.0.0.11: icmp_seq=6 ttl=64 time=664 bytes64 bytes from 10.0.0.11: icmp_seq=7 ttl=64 time64 bytes from 10.0.0.7: icmp_seq=8 ttl=64 time=0.498 ms
64 bytes from 10.0.0.7: icmp_seq=9 ttl=64 time=0.540 ms
64 bytes from 10.0.0.7: icmp_seq=10 ttl=64 time=0.875 ms
64 bytes from 10.0.0.7: icmp_seq=11 ttl=64 time=0.673 ms
64 bytes from 64 bytes from 10.0.0.11: icmp_seq=12 ttl=6464 bytes from 10.0.0.7: icmp_seq=13 ttl=64 time=0.693 ms
64 bytes from 10.0.0.7: icmp_seq=14 ttl=64 time=0.703 ms
64 bytes from 10.0.0.7: icmp_seq=15 ttl=64 time=0.851 ms
64 bytes from 10.064 bytes from 10.0.0.11: icmp_seq=16 ttl=64 time=2.40 ms

--- 10.0.0.11 ping statistics ---
16 packets transmitted, 16 received, 0% packet loss, time 76602ms
rtt min/avg/max/mdev = 0.381/0.673/2.403/0.476 ms
