PING 10.0.0.11 (10.0.0.11) 56(84) bytes of data.
64 bytes from 10.0.0.11: icmp_seq=1 ttl=64 time=0.709 64 bytes from 10.0.0.7: icmp_seq=2 ttl=64 time=0.558 ms
64 bytes from 10.0.0.7: icmp_seq=3 ttl=64 time=0.604 ms
64 by64 bytes from 10.0.0.11: icmp_seq=4 ttl=64 time=1.464 bytes from 10.0.0.7: icmp_seq=5 ttl=64 time=3.81 ms
64 bytes from 10.0.0.7: icmp_seq=6 ttl=64 time=5.37 ms
64 bytes from 10.0.0.7: icmp_seq=7 ttl=64 time=0.662 ms
64 bytes from 10.0.0.6: icmp_seq=8 ttl=64 time=4.07 ms
664 bytes 64 bytes from 10.0.0.11: icmp_seq=9 ttl=64 tim64 bytes from 10.0.0.6: icmp_seq=10 ttl=64 time=0.625 ms
64 bytes from 10.0.0.6: icmp_seq=11 ttl=64 time=1.38 ms
64 bytes from 10.0.0.6: icmp_seq=12 ttl=64 time=0.502 ms
664 bytes from 10.0.0.7: icmp_seq=13 ttl=64 time=1.29 ms
64 bytes from 10.0.0.6: icmp_seq=14 ttl=64 time=3.48 ms
664 bytes from 10.0.0.7: icmp_seq=15 ttl=64 time=0.393 ms664 bytes from 10.0.0.7: icmp_seq=16 ttl=64 time=0.639 ms

--- 10.0.0.7 ping statistics ---
16 packets transmitted, 16 received, 0% packet loss, time 76325ms
rtt min/avg/max/mdev = 0.393/1.174/5.372/1.338 ms
/5.789/1.823 ms
