PING 10.0.0.7 (10.0.0.7) 56(84) bytes of data.
64 bytes from 10.0.0.7: icmp_seq=1 ttl=64 time=0.940 ms664 bytes from 10.0.0.7: icmp_seq=2 ttl=64 time=0.633 ms64 bytes from 10.0.0.6: icmp_seq=3 ttl=64 time=0.506 ms
64 bytes from 10.0.0.6: icmp_seq=4 ttl=64 time=0.496 ms
664 bytes from 10.0.0.7: icmp_seq=5 ttl=64 time=7.66 ms
64 bytes from 10.0.0.6: icmp_seq=6 ttl=64 time=0.472 ms
64 bytes from 10.0.0.6: icmp_seq=7 ttl=64 time=2.38 ms
664 bytes from 10.0.0.7: icmp_seq=8 ttl=64 time=0.711 ms664 bytes from 10.0.0.7: icmp_seq=9 ttl=64 time=0.567 ms64 bytes from 10.0.0.6: icmp_seq=10 ttl=64 time=0.772 ms
64 bytes fro64 bytes from 10.0.0.11: icmp_seq=11 ttl=64 t664 bytes from 10.0.0.7: icmp_seq=12 ttl=64 time=0.999 ms64 bytes from 10.0.0.6: icmp_seq=13 ttl=64 time=0.577 ms
64 bytes from 10.0.0.6: icmp_seq=14 ttl=64 time=0.590 ms
664 bytes from 10.0.0.7: icmp_seq=15 ttl=64 time=0.686 ms664 bytes from 10.0.0.7: icmp_seq=16 ttl=64 time=0.813 ms

--- 10.0.0.7 ping statistics ---
16 packets transmitted, 16 received, 0% packet loss, time 76681ms
rtt min/avg/max/mdev = 0.363/1.057/7.667/1.715 ms
54/2.853/0.613 ms
