PING 10.0.0.11 (10.0.0.11) 56(84) bytes of data.
64 bytes from 10.0.0.11: icmp_seq=1 ttl=64 time=3.21 64 64 bytes from 10.0.0.11: icmp_seq=2 ttl=64 time=0.313664 64 bytes from 10.0.0.11: icmp_seq=3 ttl=64 time=2.7064 bytes from 10.0.0.7: icmp_seq=4 ttl=64 time=0.436 ms664 by64 bytes from 10.0.0.11: icmp_seq=5 ttl=64 time=0.664 byt64 bytes from 10.0.0.11: icmp_seq=6 ttl=64 time=0664 byte64 bytes from 10.0.0.11: icmp_seq=7 ttl=64 time=64 bytes 64 bytes from 10.0.0.11: icmp_seq=8 ttl=64 tim664 bytes from 10.0.0.7: icmp_seq=9 ttl=64 time=0.484 ms664 bytes fr64 bytes from 10.0.0.11: icmp_seq=10 ttl=64 t664 bytes from 10.0.0.7: icmp_seq=11 ttl=64 time=6.88 ms
64 bytes from64 bytes from 10.0.0.11: icmp_seq=12 ttl=64 64 bytes from 10.0.0.7: icmp_seq=13 ttl=64 time=0.560 ms664 bytes from 10.0.0.7: icmp_seq=14 ttl=64 time=0.645 ms664 bytes from 10.0.0.7: icmp_seq=15 ttl=64 time=0.485 ms664 bytes from 10.0.0.7: icmp_seq=16 ttl=64 time=0.957 ms

--- 10.0.0.7 ping statistics ---
16 packets transmitted, 16 received, 0% packet loss, time 76661ms
rtt min/avg/max/mdev = 0.306/1.021/6.886/1.534 ms
70/4.608/1.232 ms
