PING 10.0.0.7 (10.0.0.7) 56(84) bytes of data.
64 bytes from 10.0.0.7: icmp_seq=1 ttl=64 time=0.549 ms
64 bytes from 10.0.0.6: icmp_seq=2 ttl=64 time=0.472 ms
64 64 bytes from 10.0.0.11: icmp_seq=3 ttl=64 time=1.43664 bytes from 10.0.0.6: icmp_seq=4 ttl=64 time=0.789 m6464 bytes from 10.0.0.6: icmp_seq=5 ttl=64 time=0.547 64 64 by64 bytes from 10.0.0.11: icmp_seq=6 ttl=64 time=64 64 byt64 bytes from 10.0.0.11: icmp_seq=7 ttl=64 time64 64 byte64 bytes from 10.0.0.11: icmp_seq=8 ttl=64 tim64 64 bytes from 10.0.0.6: icmp_seq=9 ttl=64 time=1.43 m6464 bytes 64 bytes from 10.0.0.11: icmp_seq=10 ttl=64 ti6464 bytes from 10.0.0.6: icmp_seq=11 ttl=64 time=0.478 64 64 bytes from 10.0.0.6: icmp_seq=12 ttl=64 time=0.390 64 64 bytes fr64 bytes from 10.0.0.11: icmp_seq=13 ttl=646464 bytes fro64 bytes from 10.0.0.11: icmp_seq=14 ttl=66464 bytes from64 bytes from 10.0.0.11: icmp_seq=15 ttl=66464 bytes from 10.0.0.6: icmp_seq=16 ttl=64 time=0.933 ms

--- 10.0.0.6 ping statistics ---
16 packets transmitted, 16 received, 0% packet loss, time 76426ms
rtt min/avg/max/mdev = 0.390/1.341/7.325/1.934 ms
.417/2.581 ms
