PING 10.0.0.7 (10.0.0.7) 56(84) bytes of data.
64 bytes from 10.0.0.7: icmp_seq=1 ttl=64 time=0.607 ms
64 64 bytes from 10.0.0.11: icmp_seq=2 ttl=64 time=0.33964 bytes from 10.0.0.6: icmp_seq=3 ttl=64 time=0.476 ms
64 bytes from 10.0.0.6: icmp_seq=4 ttl=64 time=2.56 ms
664 bytes from 10.0.0.7: icmp_seq=5 ttl=64 time=0.456 ms664 bytes from 10.0.0.7: icmp_seq=6 ttl=64 time=0.635 ms664 bytes from 10.0.0.7: icmp_seq=7 ttl=64 time=0.453 ms64 bytes from 10.0.0.6: icmp_seq=8 ttl=64 time=6.61 ms
6464 bytes f64 bytes from 10.0.0.11: icmp_seq=9 ttl=64 t64 bytes from64 bytes from 10.0.0.11: icmp_seq=10 ttl=64 664 bytes from 10.0.0.7: icmp_seq=11 ttl=64 time=2.20 ms
64 bytes from 164 bytes from 10.0.0.11: icmp_seq=12 ttl=664 bytes from 10.0.0.7: icmp_seq=13 ttl=64 time=0.514 ms
64 bytes from 10.0.0.6: icmp_seq=14 ttl=64 time=7.03 ms
664 bytes from 10.0.0.7: icmp_seq=15 ttl=64 time=0.704 ms664 bytes from 10.064 bytes from 10.0.0.11: icmp_seq=16 tt---- 10.0.0.7 ping s--- 10.0.0.11 ping statistics ---
16 packets transmitted, 16 received, 0% packet loss, time 76748ms
rtt min/avg/max/mdev = 0.339/0.532/1.054/0.175 ms
