PING 10.0.0.7 (10.0.0.7) 56(84) bytes of data.
64 bytes from 10.0.0.7: icmp_seq=1 ttl=64 time=0.690 ms
64 bytes from 10.0.0.7: icmp_seq=2 ttl=64 time=0.369 ms
64 64 bytes from 10.0.0.11: icmp_seq=3 ttl=64 time=0.37364 bytes from 10.0.0.7: icmp_seq=4 ttl=64 time=1.08 ms
664 by64 bytes from 10.0.0.11: icmp_seq=5 ttl=64 time=36464 bytes from 10.0.0.6: icmp_seq=6 ttl=64 time=0.648 m6464 byt64 bytes from 10.0.0.11: icmp_seq=7 ttl=64 time=6464 bytes from 10.0.0.6: icmp_seq=8 ttl=64 time=0.697 m6464 bytes from 10.0.0.6: icmp_seq=9 ttl=64 time=0.563 m6464 bytes from 10.0.0.6: icmp_seq=10 ttl=64 time=0.417 64 64 bytes from 10.0.0.6: icmp_seq=11 ttl=64 time=0.535 64 64 bytes from 10.0.0.6: icmp_seq=12 ttl=64 time=0.384 64 64 bytes from 10.0.0.6: icmp_seq=13 ttl=64 time=0.483 64 64 bytes from 10.0.0.6: icmp_seq=14 ttl=64 time=0.558 64 64 bytes from 10.0.0.6: icmp_seq=15 ttl=64 time=2.97 64 64 bytes from 10.0.0.6: icmp_seq=16 ttl=64 time=0.666 ms

--- 10.0.0.6 ping statistics ---
16 packets transmitted, 16 received, 0% packet loss, time 76679ms
rtt min/avg/max/mdev = 0.384/0.733/2.976/0.595 ms
72/1.757 ms
