PING 10.0.0.6 (10.0.0.6) 56(84) bytes of data.
64 bytes from 10.0.0.6: icmp_seq=1 ttl=64 time=0.800 ms
64 64 bytes from 10.0.0.11: icmp_seq=2 ttl=64 time=0.61864 b64 bytes from 10.0.0.11: icmp_seq=3 ttl=64 time=0.3464 by64 bytes from 10.0.0.11: icmp_seq=4 ttl=64 time=0.564 byt64 bytes from 10.0.0.11: icmp_seq=5 ttl=64 time=064 bytes64 bytes from 10.0.0.11: icmp_seq=6 ttl=64 time=64 bytes 64 bytes from 10.0.0.11: icmp_seq=7 ttl=64 time64 bytes f64 bytes from 10.0.0.11: icmp_seq=8 ttl=64 tim64 bytes f64 bytes from 10.0.0.11: icmp_seq=9 ttl=64 ti664 bytes fr64 bytes from 10.0.0.11: icmp_seq=10 ttl=64 t664 bytes fro64 bytes from 10.0.0.11: icmp_seq=11 ttl=64 64 bytes from 64 bytes from 10.0.0.11: icmp_seq=12 ttl=6664 bytes from 164 bytes from 10.0.0.11: icmp_seq=13 ttl=64 bytes from 1064 bytes from 10.0.0.11: icmp_seq=14 ttl=664 bytes from 1064 bytes from 10.0.0.11: icmp_seq=15 ttl664 bytes from 10.64 bytes from 10.0.0.11: icmp_seq=16 ttl=64 time=0.910 ms

--- 10.0.0.11 ping statistics ---
16 packets transmitted, 16 received, 0% packet loss, time 76857ms
rtt min/avg/max/mdev = 0.345/1.123/7.066/1.619 ms
