PING 10.0.0.11 (10.0.0.11) 56(84) bytes of data.
64 bytes from 10.0.0.11: icmp_seq=1 ttl=64 time=0.65664 b64 bytes from 10.0.0.11: icmp_seq=2 ttl=64 time=0.7264 bytes from 10.0.0.6: icmp_seq=3 ttl=64 time=4.03 ms
664 byt64 bytes from 10.0.0.11: icmp_seq=4 ttl=64 time=064 bytes from 10.0.0.6: icmp_seq=5 ttl=64 time=0.746 ms
64 bytes from 10.0.0.6: icmp_seq=6 ttl=64 time=4.95 ms
6464 bytes from 10.0.0.7: icmp_seq=7 ttl=64 time=0.333 m64 bytes from 10.0.0.6: icmp_seq=8 ttl=64 time=0.496 ms
6464 bytes from 10.0.0.7: icmp_seq=9 ttl=64 time=0.803 m64 bytes from 10.0.0.6: icmp_seq=10 ttl=64 time=0.539 ms
64 bytes from 10.0.0.6: icmp_seq=11 ttl=64 time=0.311 ms
6464 bytes from 10.0.0.7: icmp_seq=12 ttl=64 time=0.569 m6464 bytes from 10.0.0.7: icmp_seq=13 ttl=64 time=0.466 m6464 bytes from 10.0.0.7: icmp_seq=14 ttl=64 time=4.63 ms64 bytes from 10.0.64 bytes from 10.0.0.11: icmp_seq=15 t664 bytes from 10.0.64 bytes from 10.0.0.11: icmp_seq=16 t---- 10.0.0.7 ping st--- 10.0.0.11 ping statistics ---
16 packets transmitted, 16 received, 0% packet loss, time 76770ms
rtt min/avg/max/mdev = 0.392/0.584/0.817/0.148 ms
