PING 10.0.0.6 (10.0.0.6) 56(84) bytes of data.
64 bytes from 10.0.0.6: icmp_seq=1 ttl=64 time=0.538 ms664 bytes from 10.0.0.6: icmp_seq=2 ttl=64 time=0.781 ms664 bytes from 10.0.0.6: icmp_seq=3 ttl=64 time=0.565 ms64 byt64 bytes from 10.0.0.11: icmp_seq=4 ttl=64 time=5664 bytes from 10.0.0.6: icmp_seq=5 ttl=64 time=7.93 ms
64 bytes64 bytes from 10.0.0.11: icmp_seq=6 ttl=64 time664 bytes64 bytes from 10.0.0.11: icmp_seq=7 ttl=64 time664 bytes 64 bytes from 10.0.0.11: icmp_seq=8 ttl=64 tim64 bytes f64 bytes from 10.0.0.11: icmp_seq=9 ttl=64 ti64 bytes fro64 bytes from 10.0.0.11: icmp_seq=10 ttl=64 t64 bytes from64 bytes from 10.0.0.11: icmp_seq=11 ttl=646464 bytes fro64 bytes from 10.0.0.11: icmp_seq=12 ttl=6464 bytes from 164 bytes from 10.0.0.11: icmp_seq=13 ttl=6664 bytes from 164 bytes from 10.0.0.11: icmp_seq=14 ttl=64 bytes from 1064 bytes from 10.0.0.11: icmp_seq=15 ttl64 bytes from 10.064 bytes from 10.0.0.11: icmp_seq=16 ttl=64 time=0.641 ms

--- 10.0.0.11 ping statistics ---
16 packets transmitted, 16 received, 0% packet loss, time 76677ms
rtt min/avg/max/mdev = 0.433/2.446/8.498/2.940 ms
