PING 10.0.0.7 (10.0.0.7) 56(84) bytes of data.
64 bytes from 10.0.0.7: icmp_seq=1 ttl=64 time=0.824 ms
64 bytes from 10.0.0.7: icmp_seq=2 ttl=64 time=0.576 ms
64 bytes from 10.0.0.6: icmp_seq=3 ttl=64 time=3.82 ms
664 bytes from 10.0.0.7: icmp_seq=4 ttl=64 time=0.533 m6464 bytes from 10.0.0.7: icmp_seq=5 ttl=64 time=1.07 m6464 bytes from 10.0.0.7: icmp_seq=6 ttl=64 time=0.652 m6464 bytes from 10.0.0.7: icmp_seq=7 ttl=64 time=0.858 m6464 bytes from 10.0.0.7: icmp_seq=8 ttl=64 time=0.830 64 64 bytes from 10.0.0.7: icmp_seq=9 ttl=64 time=0.428 64 64 bytes from 10.0.0.7: icmp_seq=10 ttl=64 time=0.713 64 64 bytes from 10.0.0.7: icmp_seq=11 ttl=64 time=0.763 64 64 bytes from 10.0.0.7: icmp_seq=12 ttl=64 time=3.81 m6464 bytes from 10.0.0.7: icmp_seq=13 ttl=64 time=0.579 m6464 bytes from 10.0.0.7: icmp_seq=14 ttl=64 time=0.945 m6464 bytes from 10.0.0.7: icmp_seq=15 ttl=64 time=4.25 m6464 bytes from 10.0.0.7: icmp_seq=16 ttl=64 time=0.999 ms

--- 10.0.0.7 ping statistics ---
16 packets transmitted, 16 received, 0% packet loss, time 76534ms
rtt min/avg/max/mdev = 0.428/1.159/4.254/1.102 ms
.708/12.626/3.135 ms
