PING 10.0.0.6 (10.0.0.6) 56(84) bytes of data.
64 bytes from 10.0.0.6: icmp_seq=1 ttl=64 time=0.763 ms
64 bytes from 10.0.0.6: icmp_seq=2 ttl=64 time=0.452 ms
64 bytes from 10.0.0.7: icmp_seq=3 ttl=64 time=0.853 ms
64 bytes from 10.0.0.7: icmp_seq=4 ttl=64 time=0.432 ms
64 bytes from 10.0.0.6: icmp_seq=5 ttl=64 time=0.485 ms
64 bytes from 10.0.0.7: icmp_seq=6 ttl=64 time=0.546 ms
64 bytes from 10.0.0.6: icmp_seq=7 ttl=64 time=0.496 ms
64 bytes from 10.0.0.6: icmp_seq=8 ttl=64 time=6.73 ms
664 bytes from 10.0.0.7: icmp_seq=9 ttl=64 time=0.412 ms664 bytes from 10.0.0.7: icmp_seq=10 ttl=64 time=0.367 ms664 bytes from 10.0.0.7: icmp_seq=11 ttl=64 time=0.729 ms64 bytes from 10.0.0.6: icmp_seq=12 ttl=64 time=0.557 ms
64 bytes from 10.0.0.6: icmp_seq=13 ttl=64 time=4.40 ms
6464 bytes from 10.0.0.7: icmp_seq=14 ttl=64 time=0.492 m6464 bytes from 10.0.0.7: icmp_seq=15 ttl=64 time=0.467 m6464 bytes from 10.0.0.7: icmp_seq=16 ttl=64 time=0.874 ms

--- 10.0.0.7 ping statistics ---
16 packets transmitted, 16 received, 0% packet loss, time 76792ms
rtt min/avg/max/mdev = 0.367/0.594/0.874/0.162 ms
534/0.829/0.122 ms
