PING 10.0.0.7 (10.0.0.7) 56(84) bytes of data.
64 bytes from 10.0.0.7: icmp_seq=1 ttl=64 time=0.897 ms64 bytes from 10.0.0.6: icmp_seq=2 ttl=64 time=0.535 ms
64 bytes from 10.0.0.6: icmp_seq=3 ttl=64 time=0.595 ms
664 bytes from 10.0.0.7: icmp_seq=4 ttl=64 time=0.658 ms664 bytes from 10.0.0.7: icmp_seq=5 ttl=64 time=0.798 ms664 bytes from 10.0.0.7: icmp_seq=6 ttl=64 time=0.706 ms64 bytes from 10.0.0.6: icmp_seq=7 ttl=64 time=1.10 ms
6464 bytes from 10.0.0.7: icmp_seq=8 ttl=64 time=0.530 m6464 bytes from 10.0.0.7: icmp_seq=9 ttl=64 time=0.571 m64 bytes from 10.0.0.6: icmp_seq=10 ttl=64 time=6.77 ms
64 64 bytes from 10.0.0.7: icmp_seq=11 ttl=64 time=0.793 64 64 bytes from 10.0.0.7: icmp_seq=12 ttl=64 time=0.515 64 64 bytes from 64 bytes from 10.0.0.11: icmp_seq=13 ttl64 64 bytes from 164 bytes from 10.0.0.11: icmp_seq=14 tt64 bytes from 10.0.0.6: icmp_seq=15 ttl=64 time=2.04 ms
64 b64 bytes from 10.0.0.7: icmp_seq=16 ttl=64 time=1.08 ms

--- 10.0.0.7 ping statistics ---
16 packets transmitted, 16 received, 0% packet loss, time 76693ms
rtt min/avg/max/mdev = 0.396/0.632/1.088/0.177 ms
.517/0.783/0.103 ms
