PING 10.0.0.7 (10.0.0.7) 56(84) bytes of data.
64 bytes from 10.0.0.7: icmp_seq=1 ttl=64 time=0.894 ms
64 bytes from 10.0.0.7: icmp_seq=2 ttl=64 time=0.582 ms664 bytes from 10.0.0.7: icmp_seq=3 ttl=64 time=6.68 ms
64 bytes from 10.0.0.6: icmp_seq=4 ttl=64 time=0.569 ms664 bytes from 10.0.0.6: icmp_seq=5 ttl=64 time=0.463 ms664 bytes from 10.0.0.6: icmp_seq=6 ttl=64 time=0.476 ms664 bytes from 10.0.0.6: icmp_seq=7 ttl=64 time=0.436 ms664 bytes64 bytes from 10.0.0.11: icmp_seq=8 ttl=64 time664 bytes 64 bytes from 10.0.0.11: icmp_seq=9 ttl=64 tim64 bytes f64 bytes from 10.0.0.11: icmp_seq=10 ttl=64 tim64 bytes from 10.0.0.6: icmp_seq=11 ttl=64 time=1.37 ms
64 bytes from 10.0.0.6: icmp_seq=12 ttl=64 time=0.713 ms
64 bytes from 10.0.0.6: icmp_seq=13 ttl=64 time=0.601 ms
64 bytes from 10.0.0.6: icmp_seq=14 ttl=64 time=0.341 ms664 bytes from 10.0.0.6: icmp_seq=15 ttl=64 time=0.413 m6464 bytes from 10.0.0.6: icmp_seq=16 ttl=64 time=0.829 ms

--- 10.0.0.6 ping statistics ---
16 packets transmitted, 16 received, 0% packet loss, time 76580ms
rtt min/avg/max/mdev = 0.341/0.744/2.465/0.517 ms
34.219/8.134 ms
