PING 10.0.0.6 (10.0.0.6) 56(84) bytes of data.
64 bytes from 10.0.0.6: icmp_seq=1 ttl=64 time=7.10 ms
664 bytes from 10.0.0.7: icmp_seq=2 ttl=64 time=0.444 ms64 by64 bytes from 10.0.0.11: icmp_seq=3 ttl=64 time=0.5664 bytes from 10.0.0.7: icmp_seq=4 ttl=64 time=0.588 ms664 bytes from 10.0.0.7: icmp_seq=5 ttl=64 time=0.615 ms64 bytes from 10.0.0.6: icmp_seq=6 ttl=64 time=0.658 ms
664 bytes from 10.0.0.7: icmp_seq=7 ttl=64 time=0.510 ms664 bytes from 10.0.0.7: icmp_seq=8 ttl=64 time=1.38 ms
64 bytes fr64 bytes from 10.0.0.11: icmp_seq=9 ttl=64 ti64 bytes from 10.0.0.6: icmp_seq=10 ttl=64 time=0.983 ms
64 bytes from64 bytes from 10.0.0.11: icmp_seq=11 ttl=64664 bytes from 10.0.0.7: icmp_seq=12 ttl=64 time=0.541 ms664 bytes from 10.0.0.7: icmp_seq=13 ttl=64 time=0.682 ms664 bytes from 164 bytes from 10.0.0.11: icmp_seq=14 ttl=664 bytes from 10.0.0.7: icmp_seq=15 ttl=64 time=0.533 ms664 bytes from 10.0.0.7: icmp_seq=16 ttl=64 time=0.728 ms

--- 10.0.0.7 ping statistics ---
16 packets transmitted, 16 received, 0% packet loss, time 76612ms
rtt min/avg/max/mdev = 0.391/0.613/1.384/0.223 ms
643/2.227/0.419 ms
