PING 10.0.0.7 (10.0.0.7) 56(84) bytes of data.
64 bytes from 10.0.0.7: icmp_seq=1 ttl=64 time=40.8 ms
664 bytes from 10.0.0.6: icmp_seq=2 ttl=64 time=0.296 ms664 64 bytes from 10.0.0.11: icmp_seq=3 ttl=64 time=1.1464 bytes from 10.0.0.7: icmp_seq=4 ttl=64 time=0.579 ms
64 bytes from 10.0.0.7: icmp_seq=5 ttl=64 time=6.36 ms
664 byt64 bytes from 10.0.0.11: icmp_seq=6 ttl=64 time=7664 bytes from 10.0.0.6: icmp_seq=7 ttl=64 time=0.737 ms664 bytes from 10.0.0.6: icmp_seq=8 ttl=64 time=9.92 ms
64 bytes from 10.0.0.7: icmp_seq=9 ttl=64 time=0.515 ms
64 bytes from 10.0.0.6: icmp_seq=10 ttl=64 time=0.554 ms
64 bytes from 10.0.0.6: icmp_seq=11 ttl=64 time=0.685 ms
64 bytes from 10.0.0.7: icmp_seq=12 ttl=64 time=0.588 ms
64 bytes from64 bytes from 10.0.0.11: icmp_seq=13 ttl=64 64 bytes from 10.0.0.6: icmp_seq=14 ttl=64 time=5.84 ms
664 bytes from 10.0.0.7: icmp_seq=15 ttl=64 time=0.631 ms64 bytes from 10.0.0.6: icmp_seq=16 ttl=64 time=1.31 ms

--- 10.0.0.6 ping statistics ---
16 packets transmitted, 16 received, 0% packet loss, time 76575ms
rtt min/avg/max/mdev = 0.296/1.681/9.926/2.547 ms
ms
/7.826/1.768 ms
