PING 10.0.0.6 (10.0.0.6) 56(84) bytes of data.
64 bytes from 10.0.0.6: icmp_seq=1 ttl=64 time=6.75 ms
64 bytes from 10.0.0.6: icmp_seq=2 ttl=64 time=0.608 ms
64 bytes from 10.0.0.6: icmp_seq=3 ttl=64 time=0.743 ms
64 byt64 bytes from 10.0.0.11: icmp_seq=4 ttl=64 time=0.64 byte64 bytes from 10.0.0.11: icmp_seq=5 ttl=64 time=064 bytes from 10.0.0.6: icmp_seq=6 ttl=64 time=0.470 ms
64 bytes 64 bytes from 10.0.0.11: icmp_seq=7 ttl=64 tim64 bytes f64 bytes from 10.0.0.11: icmp_seq=8 ttl=64 tim64 bytes from 10.0.0.6: icmp_seq=9 ttl=64 time=0.636 ms
64 bytes from 10.0.0.6: icmp_seq=10 ttl=64 time=0.452 ms
64 bytes from 10.0.0.6: icmp_seq=11 ttl=64 time=0.403 ms
64 bytes from 10.0.0.6: icmp_seq=12 ttl=64 time=0.615 ms
64 bytes from 10.0.0.6: icmp_seq=13 ttl=64 time=0.643 ms
64 bytes from 10.0.0.6: icmp_seq=14 ttl=64 time=3.47 ms
64 bytes from 10.0.0.6: icmp_seq=15 ttl=64 time=0.445 ms
64 bytes from 10.0.0.6: icmp_seq=16 ttl=64 time=1.49 ms

--- 10.0.0.6 ping statistics ---
16 packets transmitted, 16 received, 0% packet loss, time 76628ms
rtt min/avg/max/mdev = 0.369/1.202/6.750/1.614 ms
148/6.147/1.405 ms
