PING 10.0.0.7 (10.0.0.7) 56(84) bytes of data.
64 bytes from 10.0.0.7: icmp_seq=1 ttl=64 time=29.0 ms
664 64 bytes from 10.0.0.11: icmp_seq=2 ttl=64 time=0.5164 bytes from 10.0.0.7: icmp_seq=3 ttl=64 time=0.741 ms
64 byt64 bytes from 10.0.0.11: icmp_seq=4 ttl=64 time=764 bytes from 10.0.0.7: icmp_seq=5 ttl=64 time=0.453 ms
64 bytes from 10.0.0.7: icmp_seq=6 ttl=64 time=0.796 ms
64 bytes from 10.0.0.7: icmp_seq=7 ttl=64 time=0.475 ms
64 bytes f64 bytes from 10.0.0.11: icmp_seq=8 ttl=64 tim64 bytes fr64 bytes from 10.0.0.11: icmp_seq=9 ttl=64 ti64 bytes from 10.0.0.7: icmp_seq=10 ttl=64 time=0.425 ms
64 bytes from 10.0.0.7: icmp_seq=11 ttl=64 time=1.29 ms
64 bytes from 164 bytes from 10.0.0.11: icmp_seq=12 ttl=64 bytes from 10.64 bytes from 10.0.0.11: icmp_seq=13 tt64 64 bytes from 1064 bytes from 10.0.0.11: icmp_seq=14 t64 bytes from 10.0.064 bytes from 10.0.0.11: icmp_seq=1564 b64 bytes from 10.64 bytes from 10.0.0.11: icmp_seq=16 ttl=64 time=0.822 ms

--- 10.0.0.11 ping statistics ---
16 packets transmitted, 16 received, 0% packet loss, time 76603ms
rtt min/avg/max/mdev = 0.409/1.482/9.007/2.555 ms
