PING 10.0.0.6 (10.0.0.6) 56(84) bytes of data.
64 bytes from 10.0.0.6: icmp_seq=1 ttl=64 time=0.696 ms
64 64 bytes from 10.0.0.11: icmp_seq=2 ttl=64 time=0.38564 b64 bytes from 10.0.0.11: icmp_seq=3 ttl=64 time=0.3964 bytes from 10.0.0.6: icmp_seq=4 ttl=64 time=5.17 ms
664 bytes from 10.0.0.7: icmp_seq=5 ttl=64 time=0.682 ms64 bytes from 10.0.0.6: icmp_seq=6 ttl=64 time=1.06 ms
6464 bytes from 10.0.0.7: icmp_seq=7 ttl=64 time=0.466 m6464 bytes 64 bytes from 10.0.0.11: icmp_seq=8 ttl=64 ti64 bytes fro64 bytes from 10.0.0.11: icmp_seq=9 ttl=64 t64 bytes from 10.0.0.6: icmp_seq=10 ttl=64 time=0.523 ms
64 bytes from 10.0.0.6: icmp_seq=11 ttl=64 time=1.04 ms
64 64 bytes from 10.0.0.7: icmp_seq=12 ttl=64 time=0.507 64 bytes from 10.0.0.6: icmp_seq=13 ttl=64 time=0.680 ms
64 64 bytes from 10.0.0.7: icmp_seq=14 ttl=64 time=0.66964 b64 bytes from 10.0.0.7: icmp_seq=15 ttl=64 time=0.43764 bytes from 10.0.0.6: icmp_seq=16 ttl=64 time=0.746 ms

--- --- 10.0.0.7 ping statistics ---
16 packets transmitted, 16 received, 0% packet loss, time 76647ms
rtt min/avg/max/mdev = 0.360/0.531/0.727/0.118 ms
99/1.433/0.262 ms
