PING 10.0.0.4 (10.0.0.4) 56(84) bytes of data.
64 bytes from 10.0.0.4: icmp_seq=1 ttl=64 time=0.597 ms
64 bytes from 10.0.0.4: icmp_seq=2 ttl=64 time=0.401 ms
64 bytes from 10.0.0.4: icmp_seq=3 ttl=64 time=0.860 ms
64 bytes from 10.0.0.4: icmp_seq=4 ttl=64 time=2.28 ms
64 bytes from 10.0.0.4: icmp_seq=5 ttl=64 time=0.434 ms
64 bytes from 10.0.0.4: icmp_seq=6 ttl=64 time=0.862 ms
64 bytes from 10.0.0.4: icmp_seq=7 ttl=64 time=0.981 ms
64 bytes from 10.0.0.4: icmp_seq=8 ttl=64 time=0.860 ms
64 bytes from 10.0.0.4: icmp_seq=9 ttl=64 time=0.726 ms
64 bytes from 10.0.0.4: icmp_seq=10 ttl=64 time=0.835 ms
64 bytes from 10.0.0.4: icmp_seq=11 ttl=64 time=0.493 ms
64 bytes from 10.0.0.4: icmp_seq=12 ttl=64 time=0.904 ms
64 bytes from 10.0.0.4: icmp_seq=13 ttl=64 time=0.386 ms
64 bytes from 10.0.0.4: icmp_seq=14 ttl=64 time=0.647 ms
64 bytes from 10.0.0.4: icmp_seq=15 ttl=64 time=0.518 ms
64 bytes from 10.0.0.4: icmp_seq=16 ttl=64 time=0.855 ms

--- 10.0.0.4 ping statistics ---
16 packets transmitted, 16 received, 0% packet loss, time 76827ms
rtt min/avg/max/mdev = 0.386/0.790/2.285/0.431 ms
