PING 10.0.0.4 (10.0.0.4) 56(84) bytes of data.
64 bytes from 10.0.0.4: icmp_seq=1 ttl=64 time=0.572 ms
64 bytes from 10.0.0.4: icmp_seq=2 ttl=64 time=7.47 ms
64 bytes from 10.0.0.4: icmp_seq=3 ttl=64 time=0.636 ms
64 bytes from 10.0.0.4: icmp_seq=4 ttl=64 time=0.844 ms
64 bytes from 10.0.0.4: icmp_seq=5 ttl=64 time=1.75 ms
64 bytes from 10.0.0.4: icmp_seq=6 ttl=64 time=1.60 ms
64 bytes from 10.0.0.4: icmp_seq=7 ttl=64 time=5.11 ms
64 bytes from 10.0.0.4: icmp_seq=8 ttl=64 time=0.549 ms
64 bytes from 10.0.0.4: icmp_seq=9 ttl=64 time=0.745 ms
64 bytes from 10.0.0.4: icmp_seq=10 ttl=64 time=0.479 ms
64 bytes from 10.0.0.4: icmp_seq=11 ttl=64 time=11.2 ms
64 bytes from 10.0.0.4: icmp_seq=12 ttl=64 time=3.39 ms
64 bytes from 10.0.0.4: icmp_seq=13 ttl=64 time=3.14 ms
64 bytes from 10.0.0.4: icmp_seq=14 ttl=64 time=0.598 ms
64 bytes from 10.0.0.4: icmp_seq=15 ttl=64 time=0.608 ms
64 bytes from 10.0.0.4: icmp_seq=16 ttl=64 time=1.06 ms

--- 10.0.0.4 ping statistics ---
16 packets transmitted, 16 received, 0% packet loss, time 76297ms
rtt min/avg/max/mdev = 0.479/2.490/11.259/2.969 ms
