PING 10.0.0.4 (10.0.0.4) 56(84) bytes of data.
64 bytes from 10.0.0.4: icmp_seq=1 ttl=64 time=0.836 ms
64 bytes from 10.0.0.4: icmp_seq=2 ttl=64 time=4.44 ms
64 bytes from 10.0.0.4: icmp_seq=3 ttl=64 time=0.781 ms
64 bytes from 10.0.0.4: icmp_seq=4 ttl=64 time=0.514 ms
64 bytes from 10.0.0.4: icmp_seq=5 ttl=64 time=7.58 ms
64 bytes from 10.0.0.4: icmp_seq=6 ttl=64 time=4.60 ms
64 bytes from 10.0.0.4: icmp_seq=7 ttl=64 time=0.468 ms
64 bytes from 10.0.0.4: icmp_seq=8 ttl=64 time=3.95 ms
64 bytes from 10.0.0.4: icmp_seq=9 ttl=64 time=0.698 ms
64 bytes from 10.0.0.4: icmp_seq=10 ttl=64 time=0.505 ms
64 bytes from 10.0.0.4: icmp_seq=11 ttl=64 time=0.417 ms
64 bytes from 10.0.0.4: icmp_seq=12 ttl=64 time=0.869 ms
64 bytes from 10.0.0.4: icmp_seq=13 ttl=64 time=0.434 ms
64 bytes from 10.0.0.4: icmp_seq=14 ttl=64 time=0.689 ms
64 bytes from 10.0.0.4: icmp_seq=15 ttl=64 time=0.817 ms
64 bytes from 10.0.0.4: icmp_seq=16 ttl=64 time=1.29 ms

--- 10.0.0.4 ping statistics ---
16 packets transmitted, 16 received, 0% packet loss, time 76470ms
rtt min/avg/max/mdev = 0.417/1.807/7.581/2.066 ms
