PING 10.0.0.4 (10.0.0.4) 56(84) bytes of data.
64 bytes from 10.0.0.4: icmp_seq=1 ttl=64 time=0.795 ms
64 bytes from 10.0.0.4: icmp_seq=2 ttl=64 time=0.482 ms
64 bytes from 10.0.0.4: icmp_seq=3 ttl=64 time=0.840 ms
64 bytes from 10.0.0.4: icmp_seq=4 ttl=64 time=1.50 ms
64 bytes from 10.0.0.4: icmp_seq=5 ttl=64 time=0.621 ms
64 bytes from 10.0.0.4: icmp_seq=6 ttl=64 time=1.18 ms
64 bytes from 10.0.0.4: icmp_seq=7 ttl=64 time=0.490 ms
64 bytes from 10.0.0.4: icmp_seq=8 ttl=64 time=1.22 ms
64 bytes from 10.0.0.4: icmp_seq=9 ttl=64 time=0.602 ms
64 bytes from 10.0.0.4: icmp_seq=10 ttl=64 time=0.330 ms
64 bytes from 10.0.0.4: icmp_seq=11 ttl=64 time=1.08 ms
64 bytes from 10.0.0.4: icmp_seq=12 ttl=64 time=0.622 ms
64 bytes from 10.0.0.4: icmp_seq=13 ttl=64 time=0.528 ms
64 bytes from 10.0.0.4: icmp_seq=14 ttl=64 time=0.348 ms
64 bytes from 10.0.0.4: icmp_seq=15 ttl=64 time=1.11 ms
64 bytes from 10.0.0.4: icmp_seq=16 ttl=64 time=0.851 ms

--- 10.0.0.4 ping statistics ---
16 packets transmitted, 16 received, 0% packet loss, time 76761ms
rtt min/avg/max/mdev = 0.330/0.789/1.509/0.337 ms
