PING 10.0.0.4 (10.0.0.4) 56(84) bytes of data.
64 bytes from 10.0.0.4: icmp_seq=1 ttl=64 time=0.834 ms
64 bytes from 10.0.0.4: icmp_seq=2 ttl=64 time=0.597 ms
64 bytes from 10.0.0.4: icmp_seq=3 ttl=64 time=0.817 ms
64 bytes from 10.0.0.4: icmp_seq=4 ttl=64 time=0.649 ms
64 bytes from 10.0.0.4: icmp_seq=5 ttl=64 time=0.582 ms
64 bytes from 10.0.0.4: icmp_seq=6 ttl=64 time=0.738 ms
64 bytes from 10.0.0.4: icmp_seq=7 ttl=64 time=0.575 ms
64 bytes from 10.0.0.4: icmp_seq=8 ttl=64 time=0.629 ms
64 bytes from 10.0.0.4: icmp_seq=9 ttl=64 time=0.623 ms
64 bytes from 10.0.0.4: icmp_seq=10 ttl=64 time=0.490 ms
64 bytes from 10.0.0.4: icmp_seq=11 ttl=64 time=1.14 ms
64 bytes from 10.0.0.4: icmp_seq=12 ttl=64 time=0.380 ms
64 bytes from 10.0.0.4: icmp_seq=13 ttl=64 time=1.31 ms
64 bytes from 10.0.0.4: icmp_seq=14 ttl=64 time=1.14 ms
64 bytes from 10.0.0.4: icmp_seq=15 ttl=64 time=0.398 ms
64 bytes from 10.0.0.4: icmp_seq=16 ttl=64 time=0.885 ms

--- 10.0.0.4 ping statistics ---
16 packets transmitted, 16 received, 0% packet loss, time 76489ms
rtt min/avg/max/mdev = 0.380/0.737/1.312/0.265 ms
