PING 10.0.0.4 (10.0.0.4) 56(84) bytes of data.
64 bytes from 10.0.0.4: icmp_seq=1 ttl=64 time=9.36 ms
64 bytes from 10.0.0.4: icmp_seq=2 ttl=64 time=0.714 ms
64 bytes from 10.0.0.4: icmp_seq=3 ttl=64 time=0.595 ms
64 bytes from 10.0.0.4: icmp_seq=4 ttl=64 time=0.535 ms
64 bytes from 10.0.0.4: icmp_seq=5 ttl=64 time=0.847 ms
64 bytes from 10.0.0.4: icmp_seq=6 ttl=64 time=0.669 ms
64 bytes from 10.0.0.4: icmp_seq=7 ttl=64 time=0.513 ms
64 bytes from 10.0.0.4: icmp_seq=8 ttl=64 time=1.27 ms
64 bytes from 10.0.0.4: icmp_seq=9 ttl=64 time=0.804 ms
64 bytes from 10.0.0.4: icmp_seq=10 ttl=64 time=0.568 ms
64 bytes from 10.0.0.4: icmp_seq=11 ttl=64 time=0.596 ms
64 bytes from 10.0.0.4: icmp_seq=12 ttl=64 time=0.674 ms
64 bytes from 10.0.0.4: icmp_seq=13 ttl=64 time=0.530 ms
64 bytes from 10.0.0.4: icmp_seq=14 ttl=64 time=0.865 ms
64 bytes from 10.0.0.4: icmp_seq=15 ttl=64 time=2.90 ms
64 bytes from 10.0.0.4: icmp_seq=16 ttl=64 time=0.776 ms

--- 10.0.0.4 ping statistics ---
16 packets transmitted, 16 received, 0% packet loss, time 76506ms
rtt min/avg/max/mdev = 0.513/1.389/9.363/2.133 ms
