PING 10.0.0.4 (10.0.0.4) 56(84) bytes of data.
64 bytes from 10.0.0.4: icmp_seq=1 ttl=64 time=0.600 ms
64 bytes from 10.0.0.4: icmp_seq=2 ttl=64 time=0.432 ms
64 bytes from 10.0.0.4: icmp_seq=3 ttl=64 time=0.789 ms
64 bytes from 10.0.0.4: icmp_seq=4 ttl=64 time=0.573 ms
64 bytes from 10.0.0.4: icmp_seq=5 ttl=64 time=4.21 ms
64 bytes from 10.0.0.4: icmp_seq=6 ttl=64 time=0.385 ms
64 bytes from 10.0.0.4: icmp_seq=7 ttl=64 time=0.504 ms
64 bytes from 10.0.0.4: icmp_seq=8 ttl=64 time=6.08 ms
64 bytes from 10.0.0.4: icmp_seq=9 ttl=64 time=0.650 ms
64 bytes from 10.0.0.4: icmp_seq=10 ttl=64 time=0.552 ms
64 bytes from 10.0.0.4: icmp_seq=11 ttl=64 time=2.37 ms
64 bytes from 10.0.0.4: icmp_seq=12 ttl=64 time=0.339 ms
64 bytes from 10.0.0.4: icmp_seq=13 ttl=64 time=0.636 ms
64 bytes from 10.0.0.4: icmp_seq=14 ttl=64 time=6.82 ms
64 bytes from 10.0.0.4: icmp_seq=15 ttl=64 time=0.471 ms
64 bytes from 10.0.0.4: icmp_seq=16 ttl=64 time=1.67 ms

--- 10.0.0.4 ping statistics ---
16 packets transmitted, 16 received, 0% packet loss, time 76856ms
rtt min/avg/max/mdev = 0.339/1.694/6.826/2.051 ms
