PING 10.0.0.4 (10.0.0.4) 56(84) bytes of data.
64 bytes from 10.0.0.4: icmp_seq=1 ttl=64 time=1.12 ms
64 bytes from 10.0.0.4: icmp_seq=2 ttl=64 time=1.68 ms
64 bytes from 10.0.0.4: icmp_seq=3 ttl=64 time=0.892 ms
64 bytes from 10.0.0.4: icmp_seq=4 ttl=64 time=7.69 ms
64 bytes from 10.0.0.4: icmp_seq=5 ttl=64 time=2.29 ms
64 bytes from 10.0.0.4: icmp_seq=6 ttl=64 time=0.376 ms
64 bytes from 10.0.0.4: icmp_seq=7 ttl=64 time=0.488 ms
64 bytes from 10.0.0.4: icmp_seq=8 ttl=64 time=0.849 ms
64 bytes from 10.0.0.4: icmp_seq=9 ttl=64 time=0.436 ms
64 bytes from 10.0.0.4: icmp_seq=10 ttl=64 time=0.475 ms
64 bytes from 10.0.0.4: icmp_seq=11 ttl=64 time=0.721 ms
64 bytes from 10.0.0.4: icmp_seq=12 ttl=64 time=0.337 ms
64 bytes from 10.0.0.4: icmp_seq=13 ttl=64 time=0.572 ms
64 bytes from 10.0.0.4: icmp_seq=14 ttl=64 time=11.7 ms
64 bytes from 10.0.0.4: icmp_seq=15 ttl=64 time=1.74 ms
64 bytes from 10.0.0.4: icmp_seq=16 ttl=64 time=0.679 ms

--- 10.0.0.4 ping statistics ---
16 packets transmitted, 16 received, 0% packet loss, time 76100ms
rtt min/avg/max/mdev = 0.337/2.009/11.783/3.057 ms
