PING 10.0.0.4 (10.0.0.4) 56(84) bytes of data.
64 bytes from 10.0.0.4: icmp_seq=1 ttl=64 time=0.506 ms
64 bytes from 10.0.0.4: icmp_seq=2 ttl=64 time=0.552 ms
64 bytes from 10.0.0.4: icmp_seq=3 ttl=64 time=0.807 ms
64 bytes from 10.0.0.4: icmp_seq=4 ttl=64 time=3.03 ms
64 bytes from 10.0.0.4: icmp_seq=5 ttl=64 time=2.97 ms
64 bytes from 10.0.0.4: icmp_seq=6 ttl=64 time=0.359 ms
64 bytes from 10.0.0.4: icmp_seq=7 ttl=64 time=0.912 ms
64 bytes from 10.0.0.4: icmp_seq=8 ttl=64 time=11.2 ms
64 bytes from 10.0.0.4: icmp_seq=9 ttl=64 time=12.4 ms
64 bytes from 10.0.0.4: icmp_seq=10 ttl=64 time=5.03 ms
64 bytes from 10.0.0.4: icmp_seq=11 ttl=64 time=0.744 ms
64 bytes from 10.0.0.4: icmp_seq=12 ttl=64 time=3.05 ms
64 bytes from 10.0.0.4: icmp_seq=13 ttl=64 time=0.366 ms
64 bytes from 10.0.0.4: icmp_seq=14 ttl=64 time=0.363 ms
64 bytes from 10.0.0.4: icmp_seq=15 ttl=64 time=0.718 ms
64 bytes from 10.0.0.4: icmp_seq=16 ttl=64 time=1.35 ms

--- 10.0.0.4 ping statistics ---
16 packets transmitted, 16 received, 0% packet loss, time 76168ms
rtt min/avg/max/mdev = 0.359/2.778/12.479/3.674 ms
