PING 10.0.0.4 (10.0.0.4) 56(84) bytes of data.
64 bytes from 10.0.0.4: icmp_seq=1 ttl=64 time=7.31 ms
64 bytes from 10.0.0.4: icmp_seq=2 ttl=64 time=1.08 ms
64 bytes from 10.0.0.4: icmp_seq=3 ttl=64 time=0.317 ms
64 bytes from 10.0.0.4: icmp_seq=4 ttl=64 time=0.616 ms
64 bytes from 10.0.0.4: icmp_seq=5 ttl=64 time=0.586 ms
64 bytes from 10.0.0.4: icmp_seq=6 ttl=64 time=0.414 ms
64 bytes from 10.0.0.4: icmp_seq=7 ttl=64 time=0.494 ms
64 bytes from 10.0.0.4: icmp_seq=8 ttl=64 time=0.515 ms
64 bytes from 10.0.0.4: icmp_seq=9 ttl=64 time=0.555 ms
64 bytes from 10.0.0.4: icmp_seq=10 ttl=64 time=0.345 ms
64 bytes from 10.0.0.4: icmp_seq=11 ttl=64 time=0.903 ms
64 bytes from 10.0.0.4: icmp_seq=12 ttl=64 time=0.829 ms
64 bytes from 10.0.0.4: icmp_seq=13 ttl=64 time=0.507 ms
64 bytes from 10.0.0.4: icmp_seq=14 ttl=64 time=0.620 ms
64 bytes from 10.0.0.4: icmp_seq=15 ttl=64 time=0.394 ms
64 bytes from 10.0.0.4: icmp_seq=16 ttl=64 time=1.32 ms

--- 10.0.0.4 ping statistics ---
16 packets transmitted, 16 received, 0% packet loss, time 76567ms
rtt min/avg/max/mdev = 0.317/1.051/7.315/1.639 ms
