PING 10.0.0.4 (10.0.0.4) 56(84) bytes of data.
64 bytes from 10.0.0.4: icmp_seq=1 ttl=64 time=6.93 ms
64 bytes from 10.0.0.4: icmp_seq=2 ttl=64 time=1.56 ms
64 bytes from 10.0.0.4: icmp_seq=3 ttl=64 time=0.577 ms
64 bytes from 10.0.0.4: icmp_seq=4 ttl=64 time=0.993 ms
64 bytes from 10.0.0.4: icmp_seq=5 ttl=64 time=5.38 ms
64 bytes from 10.0.0.4: icmp_seq=6 ttl=64 time=1.22 ms
64 bytes from 10.0.0.4: icmp_seq=7 ttl=64 time=0.400 ms
64 bytes from 10.0.0.4: icmp_seq=8 ttl=64 time=5.45 ms
64 bytes from 10.0.0.4: icmp_seq=9 ttl=64 time=0.983 ms
64 bytes from 10.0.0.4: icmp_seq=10 ttl=64 time=0.605 ms
64 bytes from 10.0.0.4: icmp_seq=11 ttl=64 time=0.439 ms
64 bytes from 10.0.0.4: icmp_seq=12 ttl=64 time=6.84 ms
64 bytes from 10.0.0.4: icmp_seq=13 ttl=64 time=0.867 ms
64 bytes from 10.0.0.4: icmp_seq=14 ttl=64 time=0.529 ms
64 bytes from 10.0.0.4: icmp_seq=15 ttl=64 time=4.13 ms
64 bytes from 10.0.0.4: icmp_seq=16 ttl=64 time=0.728 ms

--- 10.0.0.4 ping statistics ---
16 packets transmitted, 16 received, 0% packet loss, time 75978ms
rtt min/avg/max/mdev = 0.400/2.354/6.934/2.380 ms
