PING 10.0.0.4 (10.0.0.4) 56(84) bytes of data.
64 bytes from 10.0.0.4: icmp_seq=1 ttl=64 time=9.88 ms
64 bytes from 10.0.0.4: icmp_seq=2 ttl=64 time=1.12 ms
64 bytes from 10.0.0.4: icmp_seq=3 ttl=64 time=0.487 ms
64 bytes from 10.0.0.4: icmp_seq=4 ttl=64 time=0.479 ms
64 bytes from 10.0.0.4: icmp_seq=5 ttl=64 time=0.544 ms
64 bytes from 10.0.0.4: icmp_seq=6 ttl=64 time=0.598 ms
64 bytes from 10.0.0.4: icmp_seq=7 ttl=64 time=0.476 ms
64 bytes from 10.0.0.4: icmp_seq=8 ttl=64 time=0.472 ms
64 bytes from 10.0.0.4: icmp_seq=9 ttl=64 time=0.982 ms
64 bytes from 10.0.0.4: icmp_seq=10 ttl=64 time=0.668 ms
64 bytes from 10.0.0.4: icmp_seq=11 ttl=64 time=0.382 ms
64 bytes from 10.0.0.4: icmp_seq=12 ttl=64 time=0.458 ms
64 bytes from 10.0.0.4: icmp_seq=13 ttl=64 time=0.444 ms
64 bytes from 10.0.0.4: icmp_seq=14 ttl=64 time=0.541 ms
64 bytes from 10.0.0.4: icmp_seq=15 ttl=64 time=0.628 ms
64 bytes from 10.0.0.4: icmp_seq=16 ttl=64 time=0.820 ms

--- 10.0.0.4 ping statistics ---
16 packets transmitted, 16 received, 0% packet loss, time 76495ms
rtt min/avg/max/mdev = 0.382/1.187/9.886/2.254 ms
