PING 10.0.0.4 (10.0.0.4) 56(84) bytes of data.
64 bytes from 10.0.0.4: icmp_seq=1 ttl=64 time=0.950 ms
64 bytes from 10.0.0.4: icmp_seq=2 ttl=64 time=3.33 ms
64 bytes from 10.0.0.4: icmp_seq=3 ttl=64 time=0.617 ms
64 bytes from 10.0.0.4: icmp_seq=4 ttl=64 time=1.43 ms
64 bytes from 10.0.0.4: icmp_seq=5 ttl=64 time=0.851 ms
64 bytes from 10.0.0.4: icmp_seq=6 ttl=64 time=1.18 ms
64 bytes from 10.0.0.4: icmp_seq=7 ttl=64 time=0.531 ms
64 bytes from 10.0.0.4: icmp_seq=8 ttl=64 time=0.964 ms
64 bytes from 10.0.0.4: icmp_seq=9 ttl=64 time=0.309 ms
64 bytes from 10.0.0.4: icmp_seq=10 ttl=64 time=0.434 ms
64 bytes from 10.0.0.4: icmp_seq=11 ttl=64 time=0.630 ms
64 bytes from 10.0.0.4: icmp_seq=12 ttl=64 time=0.414 ms
64 bytes from 10.0.0.4: icmp_seq=13 ttl=64 time=1.13 ms
64 bytes from 10.0.0.4: icmp_seq=14 ttl=64 time=0.406 ms
64 bytes from 10.0.0.4: icmp_seq=15 ttl=64 time=0.765 ms
64 bytes from 10.0.0.4: icmp_seq=16 ttl=64 time=0.843 ms

--- 10.0.0.4 ping statistics ---
16 packets transmitted, 16 received, 0% packet loss, time 76720ms
rtt min/avg/max/mdev = 0.309/0.925/3.332/0.694 ms
