PING 10.0.0.4 (10.0.0.4) 56(84) bytes of data.
64 bytes from 10.0.0.4: icmp_seq=1 ttl=64 time=2.17 ms
64 bytes from 10.0.0.4: icmp_seq=2 ttl=64 time=1.19 ms
64 bytes from 10.0.0.4: icmp_seq=3 ttl=64 time=0.629 ms
64 bytes from 10.0.0.4: icmp_seq=4 ttl=64 time=0.475 ms
64 bytes from 10.0.0.4: icmp_seq=5 ttl=64 time=0.720 ms
64 bytes from 10.0.0.4: icmp_seq=6 ttl=64 time=0.578 ms
64 bytes from 10.0.0.4: icmp_seq=7 ttl=64 time=0.444 ms
64 bytes from 10.0.0.4: icmp_seq=8 ttl=64 time=0.870 ms
64 bytes from 10.0.0.4: icmp_seq=9 ttl=64 time=0.800 ms
64 bytes from 10.0.0.4: icmp_seq=10 ttl=64 time=0.714 ms
64 bytes from 10.0.0.4: icmp_seq=11 ttl=64 time=0.460 ms
64 bytes from 10.0.0.4: icmp_seq=12 ttl=64 time=0.509 ms
64 bytes from 10.0.0.4: icmp_seq=13 ttl=64 time=0.965 ms
64 bytes from 10.0.0.4: icmp_seq=14 ttl=64 time=0.409 ms
64 bytes from 10.0.0.4: icmp_seq=15 ttl=64 time=0.413 ms
64 bytes from 10.0.0.4: icmp_seq=16 ttl=64 time=1.42 ms

--- 10.0.0.4 ping statistics ---
16 packets transmitted, 16 received, 0% packet loss, time 76606ms
rtt min/avg/max/mdev = 0.409/0.799/2.175/0.454 ms
