PING 10.0.0.4 (10.0.0.4) 56(84) bytes of data.
64 bytes from 10.0.0.4: icmp_seq=1 ttl=64 time=1.81 ms
64 bytes from 10.0.0.4: icmp_seq=2 ttl=64 time=2.29 ms
64 bytes from 10.0.0.4: icmp_seq=3 ttl=64 time=0.431 ms
64 bytes from 10.0.0.4: icmp_seq=4 ttl=64 time=0.531 ms
64 bytes from 10.0.0.4: icmp_seq=5 ttl=64 time=9.77 ms
64 bytes from 10.0.0.4: icmp_seq=6 ttl=64 time=0.523 ms
64 bytes from 10.0.0.4: icmp_seq=7 ttl=64 time=0.655 ms
64 bytes from 10.0.0.4: icmp_seq=8 ttl=64 time=0.694 ms
64 bytes from 10.0.0.4: icmp_seq=9 ttl=64 time=0.358 ms
64 bytes from 10.0.0.4: icmp_seq=10 ttl=64 time=0.977 ms
64 bytes from 10.0.0.4: icmp_seq=11 ttl=64 time=1.18 ms
64 bytes from 10.0.0.4: icmp_seq=12 ttl=64 time=0.470 ms
64 bytes from 10.0.0.4: icmp_seq=13 ttl=64 time=3.80 ms
64 bytes from 10.0.0.4: icmp_seq=14 ttl=64 time=3.52 ms
64 bytes from 10.0.0.4: icmp_seq=15 ttl=64 time=4.24 ms
64 bytes from 10.0.0.4: icmp_seq=16 ttl=64 time=0.702 ms

--- 10.0.0.4 ping statistics ---
16 packets transmitted, 16 received, 0% packet loss, time 76031ms
rtt min/avg/max/mdev = 0.358/1.999/9.774/2.371 ms
