PING 10.0.0.4 (10.0.0.4) 56(84) bytes of data.
64 bytes from 10.0.0.4: icmp_seq=1 ttl=64 time=1.74 ms
64 bytes from 10.0.0.4: icmp_seq=2 ttl=64 time=0.726 ms
64 bytes from 10.0.0.4: icmp_seq=3 ttl=64 time=1.11 ms
64 bytes from 10.0.0.4: icmp_seq=4 ttl=64 time=0.722 ms
64 bytes from 10.0.0.4: icmp_seq=5 ttl=64 time=0.882 ms
64 bytes from 10.0.0.4: icmp_seq=6 ttl=64 time=0.384 ms
64 bytes from 10.0.0.4: icmp_seq=7 ttl=64 time=0.500 ms
64 bytes from 10.0.0.4: icmp_seq=8 ttl=64 time=0.644 ms
64 bytes from 10.0.0.4: icmp_seq=9 ttl=64 time=0.496 ms
64 bytes from 10.0.0.4: icmp_seq=10 ttl=64 time=0.432 ms
64 bytes from 10.0.0.4: icmp_seq=11 ttl=64 time=0.692 ms
64 bytes from 10.0.0.4: icmp_seq=12 ttl=64 time=0.750 ms
64 bytes from 10.0.0.4: icmp_seq=13 ttl=64 time=0.517 ms
64 bytes from 10.0.0.4: icmp_seq=14 ttl=64 time=2.16 ms
64 bytes from 10.0.0.4: icmp_seq=15 ttl=64 time=0.857 ms
64 bytes from 10.0.0.4: icmp_seq=16 ttl=64 time=0.674 ms

--- 10.0.0.4 ping statistics ---
16 packets transmitted, 16 received, 0% packet loss, time 76636ms
rtt min/avg/max/mdev = 0.384/0.831/2.166/0.468 ms
