PING 10.0.0.4 (10.0.0.4) 56(84) bytes of data.
64 bytes from 10.0.0.4: icmp_seq=1 ttl=64 time=0.663 ms
64 bytes from 10.0.0.4: icmp_seq=2 ttl=64 time=0.742 ms
64 bytes from 10.0.0.4: icmp_seq=3 ttl=64 time=2.78 ms
64 bytes from 10.0.0.4: icmp_seq=4 ttl=64 time=0.552 ms
64 bytes from 10.0.0.4: icmp_seq=5 ttl=64 time=0.646 ms
64 bytes from 10.0.0.4: icmp_seq=6 ttl=64 time=5.84 ms
64 bytes from 10.0.0.4: icmp_seq=7 ttl=64 time=0.735 ms
64 bytes from 10.0.0.4: icmp_seq=8 ttl=64 time=0.945 ms
64 bytes from 10.0.0.4: icmp_seq=9 ttl=64 time=0.601 ms
64 bytes from 10.0.0.4: icmp_seq=10 ttl=64 time=0.495 ms
64 bytes from 10.0.0.4: icmp_seq=11 ttl=64 time=2.14 ms
64 bytes from 10.0.0.4: icmp_seq=12 ttl=64 time=1.41 ms
64 bytes from 10.0.0.4: icmp_seq=13 ttl=64 time=6.45 ms
64 bytes from 10.0.0.4: icmp_seq=14 ttl=64 time=9.01 ms
64 bytes from 10.0.0.4: icmp_seq=15 ttl=64 time=1.53 ms
64 bytes from 10.0.0.4: icmp_seq=16 ttl=64 time=1.51 ms

--- 10.0.0.4 ping statistics ---
16 packets transmitted, 16 received, 0% packet loss, time 76259ms
rtt min/avg/max/mdev = 0.495/2.254/9.010/2.479 ms
