PING 10.0.0.4 (10.0.0.4) 56(84) bytes of data.
64 bytes from 10.0.0.4: icmp_seq=1 ttl=64 time=0.545 ms
64 bytes from 10.0.0.4: icmp_seq=2 ttl=64 time=1.00 ms
64 bytes from 10.0.0.4: icmp_seq=3 ttl=64 time=0.506 ms
64 bytes from 10.0.0.4: icmp_seq=4 ttl=64 time=6.63 ms
64 bytes from 10.0.0.4: icmp_seq=5 ttl=64 time=0.414 ms
64 bytes from 10.0.0.4: icmp_seq=6 ttl=64 time=0.583 ms
64 bytes from 10.0.0.4: icmp_seq=7 ttl=64 time=0.644 ms
64 bytes from 10.0.0.4: icmp_seq=8 ttl=64 time=0.423 ms
64 bytes from 10.0.0.4: icmp_seq=9 ttl=64 time=0.369 ms
64 bytes from 10.0.0.4: icmp_seq=10 ttl=64 time=0.508 ms
64 bytes from 10.0.0.4: icmp_seq=11 ttl=64 time=0.869 ms
64 bytes from 10.0.0.4: icmp_seq=12 ttl=64 time=0.592 ms
64 bytes from 10.0.0.4: icmp_seq=13 ttl=64 time=0.469 ms
64 bytes from 10.0.0.4: icmp_seq=14 ttl=64 time=0.903 ms
64 bytes from 10.0.0.4: icmp_seq=15 ttl=64 time=7.09 ms
64 bytes from 10.0.0.4: icmp_seq=16 ttl=64 time=0.617 ms

--- 10.0.0.4 ping statistics ---
16 packets transmitted, 16 received, 0% packet loss, time 76613ms
rtt min/avg/max/mdev = 0.369/1.385/7.099/2.080 ms
