PING 10.0.0.4 (10.0.0.4) 56(84) bytes of data.
64 bytes from 10.0.0.4: icmp_seq=1 ttl=64 time=1.42 ms
64 bytes from 10.0.0.4: icmp_seq=2 ttl=64 time=0.425 ms
64 bytes from 10.0.0.4: icmp_seq=3 ttl=64 time=1.89 ms
64 bytes from 10.0.0.4: icmp_seq=4 ttl=64 time=3.61 ms
64 bytes from 10.0.0.4: icmp_seq=5 ttl=64 time=1.07 ms
64 bytes from 10.0.0.4: icmp_seq=6 ttl=64 time=0.522 ms
64 bytes from 10.0.0.4: icmp_seq=7 ttl=64 time=0.953 ms
64 bytes from 10.0.0.4: icmp_seq=8 ttl=64 time=9.19 ms
64 bytes from 10.0.0.4: icmp_seq=9 ttl=64 time=0.619 ms
64 bytes from 10.0.0.4: icmp_seq=10 ttl=64 time=0.790 ms
64 bytes from 10.0.0.4: icmp_seq=11 ttl=64 time=1.10 ms
64 bytes from 10.0.0.4: icmp_seq=12 ttl=64 time=0.494 ms
64 bytes from 10.0.0.4: icmp_seq=13 ttl=64 time=0.405 ms
64 bytes from 10.0.0.4: icmp_seq=14 ttl=64 time=0.707 ms
64 bytes from 10.0.0.4: icmp_seq=15 ttl=64 time=0.405 ms
64 bytes from 10.0.0.4: icmp_seq=16 ttl=64 time=0.880 ms

--- 10.0.0.4 ping statistics ---
16 packets transmitted, 16 received, 0% packet loss, time 76374ms
rtt min/avg/max/mdev = 0.405/1.531/9.193/2.125 ms
