PING 10.0.0.4 (10.0.0.4) 56(84) bytes of data.
64 bytes from 10.0.0.4: icmp_seq=1 ttl=64 time=1.55 ms
64 bytes from 10.0.0.4: icmp_seq=2 ttl=64 time=0.764 ms
64 bytes from 10.0.0.4: icmp_seq=3 ttl=64 time=1.24 ms
64 bytes from 10.0.0.4: icmp_seq=4 ttl=64 time=0.526 ms
64 bytes from 10.0.0.4: icmp_seq=5 ttl=64 time=0.641 ms
64 bytes from 10.0.0.4: icmp_seq=6 ttl=64 time=0.976 ms
64 bytes from 10.0.0.4: icmp_seq=7 ttl=64 time=0.680 ms
64 bytes from 10.0.0.4: icmp_seq=8 ttl=64 time=0.624 ms
64 bytes from 10.0.0.4: icmp_seq=9 ttl=64 time=1.48 ms
64 bytes from 10.0.0.4: icmp_seq=10 ttl=64 time=0.480 ms
64 bytes from 10.0.0.4: icmp_seq=11 ttl=64 time=0.712 ms
64 bytes from 10.0.0.4: icmp_seq=12 ttl=64 time=0.874 ms
64 bytes from 10.0.0.4: icmp_seq=13 ttl=64 time=0.483 ms
64 bytes from 10.0.0.4: icmp_seq=14 ttl=64 time=0.456 ms
64 bytes from 10.0.0.4: icmp_seq=15 ttl=64 time=0.834 ms
64 bytes from 10.0.0.4: icmp_seq=16 ttl=64 time=0.853 ms

--- 10.0.0.4 ping statistics ---
16 packets transmitted, 16 received, 0% packet loss, time 76701ms
rtt min/avg/max/mdev = 0.456/0.823/1.558/0.332 ms
