PING 10.0.0.4 (10.0.0.4) 56(84) bytes of data.
64 bytes from 10.0.0.4: icmp_seq=1 ttl=64 time=8.15 ms
64 bytes from 10.0.0.4: icmp_seq=2 ttl=64 time=0.369 ms
64 bytes from 10.0.0.4: icmp_seq=3 ttl=64 time=0.417 ms
64 bytes from 10.0.0.4: icmp_seq=4 ttl=64 time=0.671 ms
64 bytes from 10.0.0.4: icmp_seq=5 ttl=64 time=0.490 ms
64 bytes from 10.0.0.4: icmp_seq=6 ttl=64 time=2.14 ms
64 bytes from 10.0.0.4: icmp_seq=7 ttl=64 time=1.06 ms
64 bytes from 10.0.0.4: icmp_seq=8 ttl=64 time=0.580 ms
64 bytes from 10.0.0.4: icmp_seq=9 ttl=64 time=0.712 ms
64 bytes from 10.0.0.4: icmp_seq=10 ttl=64 time=1.60 ms
64 bytes from 10.0.0.4: icmp_seq=11 ttl=64 time=0.360 ms
64 bytes from 10.0.0.4: icmp_seq=12 ttl=64 time=1.46 ms
64 bytes from 10.0.0.4: icmp_seq=13 ttl=64 time=0.401 ms
64 bytes from 10.0.0.4: icmp_seq=14 ttl=64 time=0.749 ms
64 bytes from 10.0.0.4: icmp_seq=15 ttl=64 time=0.609 ms
64 bytes from 10.0.0.4: icmp_seq=16 ttl=64 time=1.13 ms

--- 10.0.0.4 ping statistics ---
16 packets transmitted, 16 received, 0% packet loss, time 76549ms
rtt min/avg/max/mdev = 0.360/1.307/8.156/1.836 ms
