PING 10.0.0.4 (10.0.0.4) 56(84) bytes of data.
64 bytes from 10.0.0.4: icmp_seq=1 ttl=64 time=0.725 ms
64 bytes from 10.0.0.4: icmp_seq=2 ttl=64 time=1.88 ms
64 bytes from 10.0.0.4: icmp_seq=3 ttl=64 time=0.350 ms
64 bytes from 10.0.0.4: icmp_seq=4 ttl=64 time=0.546 ms
64 bytes from 10.0.0.4: icmp_seq=5 ttl=64 time=0.393 ms
64 bytes from 10.0.0.4: icmp_seq=6 ttl=64 time=0.627 ms
64 bytes from 10.0.0.4: icmp_seq=7 ttl=64 time=0.581 ms
64 bytes from 10.0.0.4: icmp_seq=8 ttl=64 time=0.432 ms
64 bytes from 10.0.0.4: icmp_seq=9 ttl=64 time=0.519 ms
64 bytes from 10.0.0.4: icmp_seq=10 ttl=64 time=0.414 ms
64 bytes from 10.0.0.4: icmp_seq=11 ttl=64 time=2.24 ms
64 bytes from 10.0.0.4: icmp_seq=12 ttl=64 time=0.581 ms
64 bytes from 10.0.0.4: icmp_seq=13 ttl=64 time=1.03 ms
64 bytes from 10.0.0.4: icmp_seq=14 ttl=64 time=0.418 ms
64 bytes from 10.0.0.4: icmp_seq=15 ttl=64 time=1.00 ms
64 bytes from 10.0.0.4: icmp_seq=16 ttl=64 time=0.745 ms

--- 10.0.0.4 ping statistics ---
16 packets transmitted, 16 received, 0% packet loss, time 76608ms
rtt min/avg/max/mdev = 0.350/0.781/2.243/0.527 ms
