PING 10.0.0.4 (10.0.0.4) 56(84) bytes of data.
64 bytes from 10.0.0.4: icmp_seq=1 ttl=64 time=0.615 ms
64 bytes from 10.0.0.4: icmp_seq=2 ttl=64 time=0.430 ms
64 bytes from 10.0.0.4: icmp_seq=3 ttl=64 time=0.790 ms
64 bytes from 10.0.0.4: icmp_seq=4 ttl=64 time=1.08 ms
64 bytes from 10.0.0.4: icmp_seq=5 ttl=64 time=0.774 ms
64 bytes from 10.0.0.4: icmp_seq=6 ttl=64 time=0.575 ms
64 bytes from 10.0.0.4: icmp_seq=7 ttl=64 time=0.431 ms
64 bytes from 10.0.0.4: icmp_seq=8 ttl=64 time=1.02 ms
64 bytes from 10.0.0.4: icmp_seq=9 ttl=64 time=0.508 ms
64 bytes from 10.0.0.4: icmp_seq=10 ttl=64 time=0.442 ms
64 bytes from 10.0.0.4: icmp_seq=11 ttl=64 time=0.945 ms
64 bytes from 10.0.0.4: icmp_seq=12 ttl=64 time=0.434 ms
64 bytes from 10.0.0.4: icmp_seq=13 ttl=64 time=0.487 ms
64 bytes from 10.0.0.4: icmp_seq=14 ttl=64 time=0.437 ms
64 bytes from 10.0.0.4: icmp_seq=15 ttl=64 time=0.589 ms
64 bytes from 10.0.0.4: icmp_seq=16 ttl=64 time=0.471 ms

--- 10.0.0.4 ping statistics ---
16 packets transmitted, 16 received, 0% packet loss, time 76704ms
rtt min/avg/max/mdev = 0.430/0.627/1.085/0.219 ms
