PING 10.0.0.4 (10.0.0.4) 56(84) bytes of data.
64 bytes from 10.0.0.4: icmp_seq=1 ttl=64 time=0.632 ms
64 bytes from 10.0.0.4: icmp_seq=2 ttl=64 time=1.10 ms
64 bytes from 10.0.0.4: icmp_seq=3 ttl=64 time=0.570 ms
64 bytes from 10.0.0.4: icmp_seq=4 ttl=64 time=2.82 ms
64 bytes from 10.0.0.4: icmp_seq=5 ttl=64 time=0.548 ms
64 bytes from 10.0.0.4: icmp_seq=6 ttl=64 time=1.77 ms
64 bytes from 10.0.0.4: icmp_seq=7 ttl=64 time=4.00 ms
64 bytes from 10.0.0.4: icmp_seq=8 ttl=64 time=0.436 ms
64 bytes from 10.0.0.4: icmp_seq=9 ttl=64 time=1.32 ms
64 bytes from 10.0.0.4: icmp_seq=10 ttl=64 time=1.34 ms
64 bytes from 10.0.0.4: icmp_seq=11 ttl=64 time=0.605 ms
64 bytes from 10.0.0.4: icmp_seq=12 ttl=64 time=0.977 ms
64 bytes from 10.0.0.4: icmp_seq=13 ttl=64 time=0.466 ms
64 bytes from 10.0.0.4: icmp_seq=14 ttl=64 time=0.482 ms
64 bytes from 10.0.0.4: icmp_seq=15 ttl=64 time=1.23 ms
64 bytes from 10.0.0.4: icmp_seq=16 ttl=64 time=1.02 ms

--- 10.0.0.4 ping statistics ---
16 packets transmitted, 16 received, 0% packet loss, time 76067ms
rtt min/avg/max/mdev = 0.436/1.209/4.005/0.938 ms
