PING 10.0.0.4 (10.0.0.4) 56(84) bytes of data.
64 bytes from 10.0.0.4: icmp_seq=1 ttl=64 time=1.25 ms
64 bytes from 10.0.0.4: icmp_seq=2 ttl=64 time=0.711 ms
64 bytes from 10.0.0.4: icmp_seq=3 ttl=64 time=6.47 ms
64 bytes from 10.0.0.4: icmp_seq=4 ttl=64 time=2.54 ms
64 bytes from 10.0.0.4: icmp_seq=5 ttl=64 time=1.44 ms
64 bytes from 10.0.0.4: icmp_seq=6 ttl=64 time=0.490 ms
64 bytes from 10.0.0.4: icmp_seq=7 ttl=64 time=8.19 ms
64 bytes from 10.0.0.4: icmp_seq=8 ttl=64 time=4.06 ms
64 bytes from 10.0.0.4: icmp_seq=9 ttl=64 time=0.426 ms
64 bytes from 10.0.0.4: icmp_seq=10 ttl=64 time=0.526 ms
64 bytes from 10.0.0.4: icmp_seq=11 ttl=64 time=0.915 ms
64 bytes from 10.0.0.4: icmp_seq=12 ttl=64 time=0.557 ms
64 bytes from 10.0.0.4: icmp_seq=13 ttl=64 time=1.19 ms
64 bytes from 10.0.0.4: icmp_seq=14 ttl=64 time=0.376 ms
64 bytes from 10.0.0.4: icmp_seq=15 ttl=64 time=1.27 ms
64 bytes from 10.0.0.4: icmp_seq=16 ttl=64 time=1.82 ms

--- 10.0.0.4 ping statistics ---
16 packets transmitted, 16 received, 0% packet loss, time 76057ms
rtt min/avg/max/mdev = 0.376/2.017/8.194/2.229 ms
