PING 10.0.0.4 (10.0.0.4) 56(84) bytes of data.
64 bytes from 10.0.0.4: icmp_seq=1 ttl=64 time=7.49 ms
64 bytes from 10.0.0.4: icmp_seq=2 ttl=64 time=1.88 ms
64 bytes from 10.0.0.4: icmp_seq=3 ttl=64 time=0.400 ms
64 bytes from 10.0.0.4: icmp_seq=4 ttl=64 time=0.499 ms
64 bytes from 10.0.0.4: icmp_seq=5 ttl=64 time=0.612 ms
64 bytes from 10.0.0.4: icmp_seq=6 ttl=64 time=0.596 ms
64 bytes from 10.0.0.4: icmp_seq=7 ttl=64 time=0.689 ms
64 bytes from 10.0.0.4: icmp_seq=8 ttl=64 time=0.756 ms
64 bytes from 10.0.0.4: icmp_seq=9 ttl=64 time=1.72 ms
64 bytes from 10.0.0.4: icmp_seq=10 ttl=64 time=0.838 ms
64 bytes from 10.0.0.4: icmp_seq=11 ttl=64 time=0.585 ms
64 bytes from 10.0.0.4: icmp_seq=12 ttl=64 time=0.512 ms
64 bytes from 10.0.0.4: icmp_seq=13 ttl=64 time=0.588 ms
64 bytes from 10.0.0.4: icmp_seq=14 ttl=64 time=0.444 ms
64 bytes from 10.0.0.4: icmp_seq=15 ttl=64 time=0.613 ms
64 bytes from 10.0.0.4: icmp_seq=16 ttl=64 time=1.56 ms

--- 10.0.0.4 ping statistics ---
16 packets transmitted, 16 received, 0% packet loss, time 76508ms
rtt min/avg/max/mdev = 0.400/1.237/7.498/1.679 ms
