PING 10.0.0.4 (10.0.0.4) 56(84) bytes of data.
64 bytes from 10.0.0.4: icmp_seq=1 ttl=64 time=7.24 ms
64 bytes from 10.0.0.4: icmp_seq=2 ttl=64 time=0.467 ms
64 bytes from 10.0.0.4: icmp_seq=3 ttl=64 time=0.470 ms
64 bytes from 10.0.0.4: icmp_seq=4 ttl=64 time=0.718 ms
64 bytes from 10.0.0.4: icmp_seq=5 ttl=64 time=0.396 ms
64 bytes from 10.0.0.4: icmp_seq=6 ttl=64 time=0.543 ms
64 bytes from 10.0.0.4: icmp_seq=7 ttl=64 time=1.27 ms
64 bytes from 10.0.0.4: icmp_seq=8 ttl=64 time=0.536 ms
64 bytes from 10.0.0.4: icmp_seq=9 ttl=64 time=0.381 ms
64 bytes from 10.0.0.4: icmp_seq=10 ttl=64 time=0.691 ms
64 bytes from 10.0.0.4: icmp_seq=11 ttl=64 time=0.329 ms
64 bytes from 10.0.0.4: icmp_seq=12 ttl=64 time=0.794 ms
64 bytes from 10.0.0.4: icmp_seq=13 ttl=64 time=0.661 ms
64 bytes from 10.0.0.4: icmp_seq=14 ttl=64 time=0.579 ms
64 bytes from 10.0.0.4: icmp_seq=15 ttl=64 time=1.03 ms
64 bytes from 10.0.0.4: icmp_seq=16 ttl=64 time=0.661 ms

--- 10.0.0.4 ping statistics ---
16 packets transmitted, 16 received, 0% packet loss, time 76572ms
rtt min/avg/max/mdev = 0.329/1.048/7.249/1.618 ms
