PING 10.0.0.4 (10.0.0.4) 56(84) bytes of data.
64 bytes from 10.0.0.4: icmp_seq=1 ttl=64 time=1.09 ms
64 bytes from 10.0.0.4: icmp_seq=2 ttl=64 time=6.28 ms
64 bytes from 10.0.0.4: icmp_seq=3 ttl=64 time=0.895 ms
64 bytes from 10.0.0.4: icmp_seq=4 ttl=64 time=0.574 ms
64 bytes from 10.0.0.4: icmp_seq=5 ttl=64 time=0.866 ms
64 bytes from 10.0.0.4: icmp_seq=6 ttl=64 time=1.23 ms
64 bytes from 10.0.0.4: icmp_seq=7 ttl=64 time=0.423 ms
64 bytes from 10.0.0.4: icmp_seq=8 ttl=64 time=0.442 ms
64 bytes from 10.0.0.4: icmp_seq=9 ttl=64 time=0.350 ms
64 bytes from 10.0.0.4: icmp_seq=10 ttl=64 time=0.645 ms
64 bytes from 10.0.0.4: icmp_seq=11 ttl=64 time=0.454 ms
64 bytes from 10.0.0.4: icmp_seq=12 ttl=64 time=5.34 ms
64 bytes from 10.0.0.4: icmp_seq=13 ttl=64 time=0.848 ms
64 bytes from 10.0.0.4: icmp_seq=14 ttl=64 time=0.584 ms
64 bytes from 10.0.0.4: icmp_seq=15 ttl=64 time=0.536 ms
64 bytes from 10.0.0.4: icmp_seq=16 ttl=64 time=1.31 ms

--- 10.0.0.4 ping statistics ---
16 packets transmitted, 16 received, 0% packet loss, time 76452ms
rtt min/avg/max/mdev = 0.350/1.368/6.288/1.713 ms
