PING 10.0.0.4 (10.0.0.4) 56(84) bytes of data.
64 bytes from 10.0.0.4: icmp_seq=1 ttl=64 time=0.577 ms
64 bytes from 10.0.0.4: icmp_seq=2 ttl=64 time=0.993 ms
64 bytes from 10.0.0.4: icmp_seq=3 ttl=64 time=0.483 ms
64 bytes from 10.0.0.4: icmp_seq=4 ttl=64 time=0.713 ms
64 bytes from 10.0.0.4: icmp_seq=5 ttl=64 time=0.523 ms
64 bytes from 10.0.0.4: icmp_seq=6 ttl=64 time=0.611 ms
64 bytes from 10.0.0.4: icmp_seq=7 ttl=64 time=0.595 ms
64 bytes from 10.0.0.4: icmp_seq=8 ttl=64 time=0.799 ms
64 bytes from 10.0.0.4: icmp_seq=9 ttl=64 time=0.684 ms
64 bytes from 10.0.0.4: icmp_seq=10 ttl=64 time=0.700 ms
64 bytes from 10.0.0.4: icmp_seq=11 ttl=64 time=0.436 ms
64 bytes from 10.0.0.4: icmp_seq=12 ttl=64 time=0.811 ms
64 bytes from 10.0.0.4: icmp_seq=13 ttl=64 time=0.539 ms
64 bytes from 10.0.0.4: icmp_seq=14 ttl=64 time=0.516 ms
64 bytes from 10.0.0.4: icmp_seq=15 ttl=64 time=0.749 ms
64 bytes from 10.0.0.4: icmp_seq=16 ttl=64 time=0.633 ms

--- 10.0.0.4 ping statistics ---
16 packets transmitted, 16 received, 0% packet loss, time 76861ms
rtt min/avg/max/mdev = 0.436/0.647/0.993/0.142 ms
