PING 10.0.0.4 (10.0.0.4) 56(84) bytes of data.
64 bytes from 10.0.0.4: icmp_seq=1 ttl=64 time=0.591 ms
64 bytes from 10.0.0.4: icmp_seq=2 ttl=64 time=1.41 ms
64 bytes from 10.0.0.4: icmp_seq=3 ttl=64 time=6.72 ms
64 bytes from 10.0.0.4: icmp_seq=4 ttl=64 time=0.422 ms
64 bytes from 10.0.0.4: icmp_seq=5 ttl=64 time=1.84 ms
64 bytes from 10.0.0.4: icmp_seq=6 ttl=64 time=0.395 ms
64 bytes from 10.0.0.4: icmp_seq=7 ttl=64 time=0.831 ms
64 bytes from 10.0.0.4: icmp_seq=8 ttl=64 time=0.574 ms
64 bytes from 10.0.0.4: icmp_seq=9 ttl=64 time=0.573 ms
64 bytes from 10.0.0.4: icmp_seq=10 ttl=64 time=0.932 ms
64 bytes from 10.0.0.4: icmp_seq=11 ttl=64 time=1.95 ms
64 bytes from 10.0.0.4: icmp_seq=12 ttl=64 time=0.864 ms
64 bytes from 10.0.0.4: icmp_seq=13 ttl=64 time=2.08 ms
64 bytes from 10.0.0.4: icmp_seq=14 ttl=64 time=6.05 ms
64 bytes from 10.0.0.4: icmp_seq=15 ttl=64 time=4.26 ms
64 bytes from 10.0.0.4: icmp_seq=16 ttl=64 time=0.646 ms

--- 10.0.0.4 ping statistics ---
16 packets transmitted, 16 received, 0% packet loss, time 75972ms
rtt min/avg/max/mdev = 0.395/1.885/6.725/1.949 ms
