PING 10.0.0.4 (10.0.0.4) 56(84) bytes of data.
64 bytes from 10.0.0.4: icmp_seq=1 ttl=64 time=0.940 ms
64 bytes from 10.0.0.4: icmp_seq=2 ttl=64 time=0.745 ms
64 bytes from 10.0.0.4: icmp_seq=3 ttl=64 time=0.716 ms
64 bytes from 10.0.0.4: icmp_seq=4 ttl=64 time=0.816 ms
64 bytes from 10.0.0.4: icmp_seq=5 ttl=64 time=1.73 ms
64 bytes from 10.0.0.4: icmp_seq=6 ttl=64 time=3.24 ms
64 bytes from 10.0.0.4: icmp_seq=7 ttl=64 time=2.77 ms
64 bytes from 10.0.0.4: icmp_seq=8 ttl=64 time=0.613 ms
64 bytes from 10.0.0.4: icmp_seq=9 ttl=64 time=7.20 ms
64 bytes from 10.0.0.4: icmp_seq=10 ttl=64 time=1.56 ms
64 bytes from 10.0.0.4: icmp_seq=11 ttl=64 time=1.01 ms
64 bytes from 10.0.0.4: icmp_seq=12 ttl=64 time=0.620 ms
64 bytes from 10.0.0.4: icmp_seq=13 ttl=64 time=0.616 ms
64 bytes from 10.0.0.4: icmp_seq=14 ttl=64 time=8.14 ms
64 bytes from 10.0.0.4: icmp_seq=15 ttl=64 time=0.494 ms
64 bytes from 10.0.0.4: icmp_seq=16 ttl=64 time=1.47 ms

--- 10.0.0.4 ping statistics ---
16 packets transmitted, 16 received, 0% packet loss, time 76353ms
rtt min/avg/max/mdev = 0.494/2.045/8.143/2.265 ms
