PING 10.0.0.4 (10.0.0.4) 56(84) bytes of data.
64 bytes from 10.0.0.4: icmp_seq=1 ttl=64 time=7.97 ms
64 bytes from 10.0.0.4: icmp_seq=2 ttl=64 time=0.635 ms
64 bytes from 10.0.0.4: icmp_seq=3 ttl=64 time=7.64 ms
64 bytes from 10.0.0.4: icmp_seq=4 ttl=64 time=0.433 ms
64 bytes from 10.0.0.4: icmp_seq=5 ttl=64 time=0.604 ms
64 bytes from 10.0.0.4: icmp_seq=6 ttl=64 time=0.824 ms
64 bytes from 10.0.0.4: icmp_seq=7 ttl=64 time=1.76 ms
64 bytes from 10.0.0.4: icmp_seq=8 ttl=64 time=5.80 ms
64 bytes from 10.0.0.4: icmp_seq=9 ttl=64 time=6.52 ms
64 bytes from 10.0.0.4: icmp_seq=10 ttl=64 time=3.97 ms
64 bytes from 10.0.0.4: icmp_seq=11 ttl=64 time=0.498 ms
64 bytes from 10.0.0.4: icmp_seq=12 ttl=64 time=6.65 ms
64 bytes from 10.0.0.4: icmp_seq=13 ttl=64 time=0.481 ms
64 bytes from 10.0.0.4: icmp_seq=14 ttl=64 time=0.625 ms
64 bytes from 10.0.0.4: icmp_seq=15 ttl=64 time=3.43 ms
64 bytes from 10.0.0.4: icmp_seq=16 ttl=64 time=0.883 ms

--- 10.0.0.4 ping statistics ---
16 packets transmitted, 16 received, 0% packet loss, time 76178ms
rtt min/avg/max/mdev = 0.433/3.047/7.977/2.828 ms
