PING 10.0.0.4 (10.0.0.4) 56(84) bytes of data.
64 bytes from 10.0.0.4: icmp_seq=1 ttl=64 time=7.47 ms
64 bytes from 10.0.0.4: icmp_seq=2 ttl=64 time=1.55 ms
64 bytes from 10.0.0.4: icmp_seq=3 ttl=64 time=0.644 ms
64 bytes from 10.0.0.4: icmp_seq=4 ttl=64 time=0.444 ms
64 bytes from 10.0.0.4: icmp_seq=5 ttl=64 time=1.09 ms
64 bytes from 10.0.0.4: icmp_seq=6 ttl=64 time=1.92 ms
64 bytes from 10.0.0.4: icmp_seq=7 ttl=64 time=1.11 ms
64 bytes from 10.0.0.4: icmp_seq=8 ttl=64 time=0.447 ms
64 bytes from 10.0.0.4: icmp_seq=9 ttl=64 time=0.677 ms
64 bytes from 10.0.0.4: icmp_seq=10 ttl=64 time=1.09 ms
64 bytes from 10.0.0.4: icmp_seq=11 ttl=64 time=1.19 ms
64 bytes from 10.0.0.4: icmp_seq=12 ttl=64 time=0.469 ms
64 bytes from 10.0.0.4: icmp_seq=13 ttl=64 time=0.714 ms
64 bytes from 10.0.0.4: icmp_seq=14 ttl=64 time=0.505 ms
64 bytes from 10.0.0.4: icmp_seq=15 ttl=64 time=0.756 ms
64 bytes from 10.0.0.4: icmp_seq=16 ttl=64 time=0.737 ms

--- 10.0.0.4 ping statistics ---
16 packets transmitted, 16 received, 0% packet loss, time 76095ms
rtt min/avg/max/mdev = 0.444/1.302/7.472/1.644 ms
