PING 10.0.0.4 (10.0.0.4) 56(84) bytes of data.
64 bytes from 10.0.0.4: icmp_seq=1 ttl=64 time=0.675 ms
64 bytes from 10.0.0.4: icmp_seq=2 ttl=64 time=0.512 ms
64 bytes from 10.0.0.4: icmp_seq=3 ttl=64 time=0.463 ms
64 bytes from 10.0.0.4: icmp_seq=4 ttl=64 time=0.525 ms
64 bytes from 10.0.0.4: icmp_seq=5 ttl=64 time=0.681 ms
64 bytes from 10.0.0.4: icmp_seq=6 ttl=64 time=2.02 ms
64 bytes from 10.0.0.4: icmp_seq=7 ttl=64 time=0.646 ms
64 bytes from 10.0.0.4: icmp_seq=8 ttl=64 time=0.563 ms
64 bytes from 10.0.0.4: icmp_seq=9 ttl=64 time=0.493 ms
64 bytes from 10.0.0.4: icmp_seq=10 ttl=64 time=1.17 ms
64 bytes from 10.0.0.4: icmp_seq=11 ttl=64 time=0.604 ms
64 bytes from 10.0.0.4: icmp_seq=12 ttl=64 time=0.424 ms
64 bytes from 10.0.0.4: icmp_seq=13 ttl=64 time=0.502 ms
64 bytes from 10.0.0.4: icmp_seq=14 ttl=64 time=0.578 ms
64 bytes from 10.0.0.4: icmp_seq=15 ttl=64 time=1.69 ms
64 bytes from 10.0.0.4: icmp_seq=16 ttl=64 time=0.994 ms

--- 10.0.0.4 ping statistics ---
16 packets transmitted, 16 received, 0% packet loss, time 76624ms
rtt min/avg/max/mdev = 0.424/0.784/2.021/0.452 ms
