PING 10.0.0.4 (10.0.0.4) 56(84) bytes of data.
64 bytes from 10.0.0.4: icmp_seq=1 ttl=64 time=1.44 ms
64 bytes from 10.0.0.4: icmp_seq=2 ttl=64 time=0.342 ms
64 bytes from 10.0.0.4: icmp_seq=3 ttl=64 time=2.03 ms
64 bytes from 10.0.0.4: icmp_seq=4 ttl=64 time=0.782 ms
64 bytes from 10.0.0.4: icmp_seq=5 ttl=64 time=0.414 ms
64 bytes from 10.0.0.4: icmp_seq=6 ttl=64 time=0.630 ms
64 bytes from 10.0.0.4: icmp_seq=7 ttl=64 time=6.59 ms
64 bytes from 10.0.0.4: icmp_seq=8 ttl=64 time=0.463 ms
64 bytes from 10.0.0.4: icmp_seq=9 ttl=64 time=2.65 ms
64 bytes from 10.0.0.4: icmp_seq=10 ttl=64 time=1.62 ms
64 bytes from 10.0.0.4: icmp_seq=11 ttl=64 time=0.915 ms
64 bytes from 10.0.0.4: icmp_seq=12 ttl=64 time=0.434 ms
64 bytes from 10.0.0.4: icmp_seq=13 ttl=64 time=4.98 ms
64 bytes from 10.0.0.4: icmp_seq=14 ttl=64 time=0.408 ms
64 bytes from 10.0.0.4: icmp_seq=15 ttl=64 time=0.736 ms
64 bytes from 10.0.0.4: icmp_seq=16 ttl=64 time=0.828 ms

--- 10.0.0.4 ping statistics ---
16 packets transmitted, 16 received, 0% packet loss, time 76543ms
rtt min/avg/max/mdev = 0.342/1.580/6.591/1.735 ms
