PING 10.0.0.4 (10.0.0.4) 56(84) bytes of data.
64 bytes from 10.0.0.4: icmp_seq=1 ttl=64 time=1.03 ms
64 bytes from 10.0.0.4: icmp_seq=2 ttl=64 time=0.581 ms
64 bytes from 10.0.0.4: icmp_seq=3 ttl=64 time=0.498 ms
64 bytes from 10.0.0.4: icmp_seq=4 ttl=64 time=0.394 ms
64 bytes from 10.0.0.4: icmp_seq=5 ttl=64 time=0.689 ms
64 bytes from 10.0.0.4: icmp_seq=6 ttl=64 time=0.381 ms
64 bytes from 10.0.0.4: icmp_seq=7 ttl=64 time=0.536 ms
64 bytes from 10.0.0.4: icmp_seq=8 ttl=64 time=0.395 ms
64 bytes from 10.0.0.4: icmp_seq=9 ttl=64 time=0.555 ms
64 bytes from 10.0.0.4: icmp_seq=10 ttl=64 time=1.80 ms
64 bytes from 10.0.0.4: icmp_seq=11 ttl=64 time=0.978 ms
64 bytes from 10.0.0.4: icmp_seq=12 ttl=64 time=0.734 ms
64 bytes from 10.0.0.4: icmp_seq=13 ttl=64 time=0.638 ms
64 bytes from 10.0.0.4: icmp_seq=14 ttl=64 time=0.957 ms
64 bytes from 10.0.0.4: icmp_seq=15 ttl=64 time=0.406 ms
64 bytes from 10.0.0.4: icmp_seq=16 ttl=64 time=1.30 ms

--- 10.0.0.4 ping statistics ---
16 packets transmitted, 16 received, 0% packet loss, time 76367ms
rtt min/avg/max/mdev = 0.381/0.742/1.800/0.379 ms
