PING 10.0.0.4 (10.0.0.4) 56(84) bytes of data.
64 bytes from 10.0.0.4: icmp_seq=1 ttl=64 time=0.602 ms
64 bytes from 10.0.0.4: icmp_seq=2 ttl=64 time=1.10 ms
64 bytes from 10.0.0.4: icmp_seq=3 ttl=64 time=0.953 ms
64 bytes from 10.0.0.4: icmp_seq=4 ttl=64 time=0.504 ms
64 bytes from 10.0.0.4: icmp_seq=5 ttl=64 time=0.562 ms
64 bytes from 10.0.0.4: icmp_seq=6 ttl=64 time=0.652 ms
64 bytes from 10.0.0.4: icmp_seq=7 ttl=64 time=1.01 ms
64 bytes from 10.0.0.4: icmp_seq=8 ttl=64 time=0.807 ms
64 bytes from 10.0.0.4: icmp_seq=9 ttl=64 time=0.581 ms
64 bytes from 10.0.0.4: icmp_seq=10 ttl=64 time=1.00 ms
64 bytes from 10.0.0.4: icmp_seq=11 ttl=64 time=0.409 ms
64 bytes from 10.0.0.4: icmp_seq=12 ttl=64 time=0.388 ms
64 bytes from 10.0.0.4: icmp_seq=13 ttl=64 time=0.490 ms
64 bytes from 10.0.0.4: icmp_seq=14 ttl=64 time=0.916 ms
64 bytes from 10.0.0.4: icmp_seq=15 ttl=64 time=0.653 ms
64 bytes from 10.0.0.4: icmp_seq=16 ttl=64 time=0.632 ms

--- 10.0.0.4 ping statistics ---
16 packets transmitted, 16 received, 0% packet loss, time 76618ms
rtt min/avg/max/mdev = 0.388/0.705/1.108/0.223 ms
