PING 10.0.0.4 (10.0.0.4) 56(84) bytes of data.
64 bytes from 10.0.0.4: icmp_seq=1 ttl=64 time=0.882 ms
64 bytes from 10.0.0.4: icmp_seq=2 ttl=64 time=1.24 ms
64 bytes from 10.0.0.4: icmp_seq=3 ttl=64 time=4.47 ms
64 bytes from 10.0.0.4: icmp_seq=4 ttl=64 time=0.476 ms
64 bytes from 10.0.0.4: icmp_seq=5 ttl=64 time=0.472 ms
64 bytes from 10.0.0.4: icmp_seq=6 ttl=64 time=0.754 ms
64 bytes from 10.0.0.4: icmp_seq=7 ttl=64 time=0.584 ms
64 bytes from 10.0.0.4: icmp_seq=8 ttl=64 time=0.703 ms
64 bytes from 10.0.0.4: icmp_seq=9 ttl=64 time=0.464 ms
64 bytes from 10.0.0.4: icmp_seq=10 ttl=64 time=0.611 ms
64 bytes from 10.0.0.4: icmp_seq=11 ttl=64 time=0.686 ms
64 bytes from 10.0.0.4: icmp_seq=12 ttl=64 time=0.608 ms
64 bytes from 10.0.0.4: icmp_seq=13 ttl=64 time=0.846 ms
64 bytes from 10.0.0.4: icmp_seq=14 ttl=64 time=0.485 ms
64 bytes from 10.0.0.4: icmp_seq=15 ttl=64 time=0.429 ms
64 bytes from 10.0.0.4: icmp_seq=16 ttl=64 time=0.720 ms

--- 10.0.0.4 ping statistics ---
16 packets transmitted, 16 received, 0% packet loss, time 76627ms
rtt min/avg/max/mdev = 0.429/0.902/4.478/0.945 ms
