PING 10.0.0.4 (10.0.0.4) 56(84) bytes of data.
64 bytes from 10.0.0.4: icmp_seq=1 ttl=64 time=0.590 ms
64 bytes from 10.0.0.4: icmp_seq=2 ttl=64 time=0.618 ms
64 bytes from 10.0.0.4: icmp_seq=3 ttl=64 time=7.75 ms
64 bytes from 10.0.0.4: icmp_seq=4 ttl=64 time=0.685 ms
64 bytes from 10.0.0.4: icmp_seq=5 ttl=64 time=0.446 ms
64 bytes from 10.0.0.4: icmp_seq=6 ttl=64 time=0.443 ms
64 bytes from 10.0.0.4: icmp_seq=7 ttl=64 time=1.03 ms
64 bytes from 10.0.0.4: icmp_seq=8 ttl=64 time=0.469 ms
64 bytes from 10.0.0.4: icmp_seq=9 ttl=64 time=0.465 ms
64 bytes from 10.0.0.4: icmp_seq=10 ttl=64 time=0.805 ms
64 bytes from 10.0.0.4: icmp_seq=11 ttl=64 time=0.672 ms
64 bytes from 10.0.0.4: icmp_seq=12 ttl=64 time=0.582 ms
64 bytes from 10.0.0.4: icmp_seq=13 ttl=64 time=0.550 ms
64 bytes from 10.0.0.4: icmp_seq=14 ttl=64 time=1.17 ms
64 bytes from 10.0.0.4: icmp_seq=15 ttl=64 time=0.616 ms
64 bytes from 10.0.0.4: icmp_seq=16 ttl=64 time=1.23 ms

--- 10.0.0.4 ping statistics ---
16 packets transmitted, 16 received, 0% packet loss, time 76589ms
rtt min/avg/max/mdev = 0.443/1.133/7.752/1.726 ms
