PING 10.0.0.4 (10.0.0.4) 56(84) bytes of data.
64 bytes from 10.0.0.4: icmp_seq=1 ttl=64 time=1.24 ms
64 bytes from 10.0.0.4: icmp_seq=2 ttl=64 time=0.636 ms
64 bytes from 10.0.0.4: icmp_seq=3 ttl=64 time=0.453 ms
64 bytes from 10.0.0.4: icmp_seq=4 ttl=64 time=0.702 ms
64 bytes from 10.0.0.4: icmp_seq=5 ttl=64 time=0.618 ms
64 bytes from 10.0.0.4: icmp_seq=6 ttl=64 time=0.579 ms
64 bytes from 10.0.0.4: icmp_seq=7 ttl=64 time=0.864 ms
64 bytes from 10.0.0.4: icmp_seq=8 ttl=64 time=1.11 ms
64 bytes from 10.0.0.4: icmp_seq=9 ttl=64 time=4.28 ms
64 bytes from 10.0.0.4: icmp_seq=10 ttl=64 time=0.391 ms
64 bytes from 10.0.0.4: icmp_seq=11 ttl=64 time=0.582 ms
64 bytes from 10.0.0.4: icmp_seq=12 ttl=64 time=0.352 ms
64 bytes from 10.0.0.4: icmp_seq=13 ttl=64 time=0.545 ms
64 bytes from 10.0.0.4: icmp_seq=14 ttl=64 time=0.691 ms
64 bytes from 10.0.0.4: icmp_seq=15 ttl=64 time=7.00 ms
64 bytes from 10.0.0.4: icmp_seq=16 ttl=64 time=0.694 ms

--- 10.0.0.4 ping statistics ---
16 packets transmitted, 16 received, 0% packet loss, time 76420ms
rtt min/avg/max/mdev = 0.352/1.297/7.006/1.727 ms
