PING 10.0.0.4 (10.0.0.4) 56(84) bytes of data.
64 bytes from 10.0.0.4: icmp_seq=1 ttl=64 time=0.747 ms
64 bytes from 10.0.0.4: icmp_seq=2 ttl=64 time=0.904 ms
64 bytes from 10.0.0.4: icmp_seq=3 ttl=64 time=0.492 ms
64 bytes from 10.0.0.4: icmp_seq=4 ttl=64 time=7.53 ms
64 bytes from 10.0.0.4: icmp_seq=5 ttl=64 time=0.527 ms
64 bytes from 10.0.0.4: icmp_seq=6 ttl=64 time=0.761 ms
64 bytes from 10.0.0.4: icmp_seq=7 ttl=64 time=1.20 ms
64 bytes from 10.0.0.4: icmp_seq=8 ttl=64 time=0.834 ms
64 bytes from 10.0.0.4: icmp_seq=9 ttl=64 time=0.702 ms
64 bytes from 10.0.0.4: icmp_seq=10 ttl=64 time=0.968 ms
64 bytes from 10.0.0.4: icmp_seq=11 ttl=64 time=0.820 ms
64 bytes from 10.0.0.4: icmp_seq=12 ttl=64 time=0.798 ms
64 bytes from 10.0.0.4: icmp_seq=13 ttl=64 time=0.553 ms
64 bytes from 10.0.0.4: icmp_seq=14 ttl=64 time=6.28 ms
64 bytes from 10.0.0.4: icmp_seq=15 ttl=64 time=0.814 ms
64 bytes from 10.0.0.4: icmp_seq=16 ttl=64 time=0.982 ms

--- 10.0.0.4 ping statistics ---
16 packets transmitted, 16 received, 0% packet loss, time 76784ms
rtt min/avg/max/mdev = 0.492/1.558/7.533/2.042 ms
