PING 10.0.0.4 (10.0.0.4) 56(84) bytes of data.
64 bytes from 10.0.0.4: icmp_seq=1 ttl=64 time=7.99 ms
64 bytes from 10.0.0.4: icmp_seq=2 ttl=64 time=0.875 ms
64 bytes from 10.0.0.4: icmp_seq=3 ttl=64 time=0.416 ms
64 bytes from 10.0.0.4: icmp_seq=4 ttl=64 time=5.61 ms
64 bytes from 10.0.0.4: icmp_seq=5 ttl=64 time=0.461 ms
64 bytes from 10.0.0.4: icmp_seq=6 ttl=64 time=0.854 ms
64 bytes from 10.0.0.4: icmp_seq=7 ttl=64 time=1.57 ms
64 bytes from 10.0.0.4: icmp_seq=8 ttl=64 time=0.441 ms
64 bytes from 10.0.0.4: icmp_seq=9 ttl=64 time=0.861 ms
64 bytes from 10.0.0.4: icmp_seq=10 ttl=64 time=0.415 ms
64 bytes from 10.0.0.4: icmp_seq=11 ttl=64 time=2.49 ms
64 bytes from 10.0.0.4: icmp_seq=12 ttl=64 time=0.519 ms
64 bytes from 10.0.0.4: icmp_seq=13 ttl=64 time=0.494 ms
64 bytes from 10.0.0.4: icmp_seq=14 ttl=64 time=0.479 ms
64 bytes from 10.0.0.4: icmp_seq=15 ttl=64 time=0.598 ms
64 bytes from 10.0.0.4: icmp_seq=16 ttl=64 time=1.62 ms

--- 10.0.0.4 ping statistics ---
16 packets transmitted, 16 received, 0% packet loss, time 76769ms
rtt min/avg/max/mdev = 0.415/1.606/7.991/2.083 ms
