PING 10.0.0.4 (10.0.0.4) 56(84) bytes of data.
64 bytes from 10.0.0.4: icmp_seq=1 ttl=64 time=1.73 ms
64 bytes from 10.0.0.4: icmp_seq=2 ttl=64 time=0.649 ms
64 bytes from 10.0.0.4: icmp_seq=3 ttl=64 time=0.430 ms
64 bytes from 10.0.0.4: icmp_seq=4 ttl=64 time=0.708 ms
64 bytes from 10.0.0.4: icmp_seq=5 ttl=64 time=0.563 ms
64 bytes from 10.0.0.4: icmp_seq=6 ttl=64 time=0.648 ms
64 bytes from 10.0.0.4: icmp_seq=7 ttl=64 time=0.400 ms
64 bytes from 10.0.0.4: icmp_seq=8 ttl=64 time=0.713 ms
64 bytes from 10.0.0.4: icmp_seq=9 ttl=64 time=0.842 ms
64 bytes from 10.0.0.4: icmp_seq=10 ttl=64 time=5.50 ms
64 bytes from 10.0.0.4: icmp_seq=11 ttl=64 time=0.394 ms
64 bytes from 10.0.0.4: icmp_seq=12 ttl=64 time=0.429 ms
64 bytes from 10.0.0.4: icmp_seq=13 ttl=64 time=0.539 ms
64 bytes from 10.0.0.4: icmp_seq=14 ttl=64 time=0.709 ms
64 bytes from 10.0.0.4: icmp_seq=15 ttl=64 time=0.531 ms
64 bytes from 10.0.0.4: icmp_seq=16 ttl=64 time=0.801 ms

--- 10.0.0.4 ping statistics ---
16 packets transmitted, 16 received, 0% packet loss, time 76621ms
rtt min/avg/max/mdev = 0.394/0.974/5.500/1.208 ms
