PING 10.0.0.4 (10.0.0.4) 56(84) bytes of data.
64 bytes from 10.0.0.4: icmp_seq=1 ttl=64 time=1.35 ms
64 bytes from 10.0.0.4: icmp_seq=2 ttl=64 time=0.446 ms
64 bytes from 10.0.0.4: icmp_seq=3 ttl=64 time=1.56 ms
64 bytes from 10.0.0.4: icmp_seq=4 ttl=64 time=2.40 ms
64 bytes from 10.0.0.4: icmp_seq=5 ttl=64 time=0.479 ms
64 bytes from 10.0.0.4: icmp_seq=6 ttl=64 time=0.486 ms
64 bytes from 10.0.0.4: icmp_seq=7 ttl=64 time=0.555 ms
64 bytes from 10.0.0.4: icmp_seq=8 ttl=64 time=1.70 ms
64 bytes from 10.0.0.4: icmp_seq=9 ttl=64 time=0.541 ms
64 bytes from 10.0.0.4: icmp_seq=10 ttl=64 time=0.737 ms
64 bytes from 10.0.0.4: icmp_seq=11 ttl=64 time=0.538 ms
64 bytes from 10.0.0.4: icmp_seq=12 ttl=64 time=1.05 ms
64 bytes from 10.0.0.4: icmp_seq=13 ttl=64 time=0.387 ms
64 bytes from 10.0.0.4: icmp_seq=14 ttl=64 time=0.676 ms
64 bytes from 10.0.0.4: icmp_seq=15 ttl=64 time=1.47 ms
64 bytes from 10.0.0.4: icmp_seq=16 ttl=64 time=3.42 ms

--- 10.0.0.4 ping statistics ---
16 packets transmitted, 16 received, 0% packet loss, time 76259ms
rtt min/avg/max/mdev = 0.387/1.114/3.428/0.824 ms
