PING 10.0.0.4 (10.0.0.4) 56(84) bytes of data.
64 bytes from 10.0.0.4: icmp_seq=1 ttl=64 time=1.22 ms
64 bytes from 10.0.0.4: icmp_seq=2 ttl=64 time=0.544 ms
64 bytes from 10.0.0.4: icmp_seq=3 ttl=64 time=0.508 ms
64 bytes from 10.0.0.4: icmp_seq=4 ttl=64 time=4.42 ms
64 bytes from 10.0.0.4: icmp_seq=5 ttl=64 time=0.471 ms
64 bytes from 10.0.0.4: icmp_seq=6 ttl=64 time=0.842 ms
64 bytes from 10.0.0.4: icmp_seq=7 ttl=64 time=1.37 ms
64 bytes from 10.0.0.4: icmp_seq=8 ttl=64 time=6.80 ms
64 bytes from 10.0.0.4: icmp_seq=9 ttl=64 time=0.669 ms
64 bytes from 10.0.0.4: icmp_seq=10 ttl=64 time=0.652 ms
64 bytes from 10.0.0.4: icmp_seq=11 ttl=64 time=0.493 ms
64 bytes from 10.0.0.4: icmp_seq=12 ttl=64 time=3.92 ms
64 bytes from 10.0.0.4: icmp_seq=13 ttl=64 time=0.571 ms
64 bytes from 10.0.0.4: icmp_seq=14 ttl=64 time=0.930 ms
64 bytes from 10.0.0.4: icmp_seq=15 ttl=64 time=0.993 ms
64 bytes from 10.0.0.4: icmp_seq=16 ttl=64 time=2.36 ms

--- 10.0.0.4 ping statistics ---
16 packets transmitted, 16 received, 0% packet loss, time 76263ms
rtt min/avg/max/mdev = 0.471/1.674/6.800/1.770 ms
