PING 10.0.0.4 (10.0.0.4) 56(84) bytes of data.
64 bytes from 10.0.0.4: icmp_seq=1 ttl=64 time=0.590 ms
64 bytes from 10.0.0.4: icmp_seq=2 ttl=64 time=0.820 ms
64 bytes from 10.0.0.4: icmp_seq=3 ttl=64 time=0.844 ms
64 bytes from 10.0.0.4: icmp_seq=4 ttl=64 time=0.603 ms
64 bytes from 10.0.0.4: icmp_seq=5 ttl=64 time=0.469 ms
64 bytes from 10.0.0.4: icmp_seq=6 ttl=64 time=0.847 ms
64 bytes from 10.0.0.4: icmp_seq=7 ttl=64 time=1.14 ms
64 bytes from 10.0.0.4: icmp_seq=8 ttl=64 time=0.368 ms
64 bytes from 10.0.0.4: icmp_seq=9 ttl=64 time=0.979 ms
64 bytes from 10.0.0.4: icmp_seq=10 ttl=64 time=1.02 ms
64 bytes from 10.0.0.4: icmp_seq=11 ttl=64 time=0.468 ms
64 bytes from 10.0.0.4: icmp_seq=12 ttl=64 time=0.622 ms
64 bytes from 10.0.0.4: icmp_seq=13 ttl=64 time=0.425 ms
64 bytes from 10.0.0.4: icmp_seq=14 ttl=64 time=0.756 ms
64 bytes from 10.0.0.4: icmp_seq=15 ttl=64 time=0.575 ms
64 bytes from 10.0.0.4: icmp_seq=16 ttl=64 time=0.913 ms

--- 10.0.0.4 ping statistics ---
16 packets transmitted, 16 received, 0% packet loss, time 76471ms
rtt min/avg/max/mdev = 0.368/0.715/1.147/0.227 ms
