PING 10.0.0.4 (10.0.0.4) 56(84) bytes of data.
64 bytes from 10.0.0.4: icmp_seq=1 ttl=64 time=8.06 ms
64 bytes from 10.0.0.4: icmp_seq=2 ttl=64 time=1.14 ms
64 bytes from 10.0.0.4: icmp_seq=3 ttl=64 time=0.551 ms
64 bytes from 10.0.0.4: icmp_seq=4 ttl=64 time=0.757 ms
64 bytes from 10.0.0.4: icmp_seq=5 ttl=64 time=0.807 ms
64 bytes from 10.0.0.4: icmp_seq=6 ttl=64 time=0.724 ms
64 bytes from 10.0.0.4: icmp_seq=7 ttl=64 time=4.47 ms
64 bytes from 10.0.0.4: icmp_seq=8 ttl=64 time=0.496 ms
64 bytes from 10.0.0.4: icmp_seq=9 ttl=64 time=0.433 ms
64 bytes from 10.0.0.4: icmp_seq=10 ttl=64 time=0.561 ms
64 bytes from 10.0.0.4: icmp_seq=11 ttl=64 time=0.781 ms
64 bytes from 10.0.0.4: icmp_seq=12 ttl=64 time=2.12 ms
64 bytes from 10.0.0.4: icmp_seq=13 ttl=64 time=1.63 ms
64 bytes from 10.0.0.4: icmp_seq=14 ttl=64 time=5.37 ms
64 bytes from 10.0.0.4: icmp_seq=15 ttl=64 time=0.490 ms
64 bytes from 10.0.0.4: icmp_seq=16 ttl=64 time=0.801 ms

--- 10.0.0.4 ping statistics ---
16 packets transmitted, 16 received, 0% packet loss, time 76276ms
rtt min/avg/max/mdev = 0.433/1.825/8.063/2.141 ms
