PING 10.0.0.4 (10.0.0.4) 56(84) bytes of data.
64 bytes from 10.0.0.4: icmp_seq=1 ttl=64 time=0.624 ms
64 bytes from 10.0.0.4: icmp_seq=2 ttl=64 time=0.441 ms
64 bytes from 10.0.0.4: icmp_seq=3 ttl=64 time=0.635 ms
64 bytes from 10.0.0.4: icmp_seq=4 ttl=64 time=0.454 ms
64 bytes from 10.0.0.4: icmp_seq=5 ttl=64 time=1.28 ms
64 bytes from 10.0.0.4: icmp_seq=6 ttl=64 time=1.68 ms
64 bytes from 10.0.0.4: icmp_seq=7 ttl=64 time=0.772 ms
64 bytes from 10.0.0.4: icmp_seq=8 ttl=64 time=0.460 ms
64 bytes from 10.0.0.4: icmp_seq=9 ttl=64 time=0.522 ms
64 bytes from 10.0.0.4: icmp_seq=10 ttl=64 time=0.974 ms
64 bytes from 10.0.0.4: icmp_seq=11 ttl=64 time=0.707 ms
64 bytes from 10.0.0.4: icmp_seq=12 ttl=64 time=0.717 ms
64 bytes from 10.0.0.4: icmp_seq=13 ttl=64 time=0.651 ms
64 bytes from 10.0.0.4: icmp_seq=14 ttl=64 time=0.549 ms
64 bytes from 10.0.0.4: icmp_seq=15 ttl=64 time=0.630 ms
64 bytes from 10.0.0.4: icmp_seq=16 ttl=64 time=0.845 ms

--- 10.0.0.4 ping statistics ---
16 packets transmitted, 16 received, 0% packet loss, time 76584ms
rtt min/avg/max/mdev = 0.441/0.746/1.680/0.319 ms
