PING 10.0.0.4 (10.0.0.4) 56(84) bytes of data.
64 bytes from 10.0.0.4: icmp_seq=1 ttl=64 time=0.699 ms
64 bytes from 10.0.0.4: icmp_seq=2 ttl=64 time=0.442 ms
64 bytes from 10.0.0.4: icmp_seq=3 ttl=64 time=0.508 ms
64 bytes from 10.0.0.4: icmp_seq=4 ttl=64 time=3.04 ms
64 bytes from 10.0.0.4: icmp_seq=5 ttl=64 time=1.02 ms
64 bytes from 10.0.0.4: icmp_seq=6 ttl=64 time=0.617 ms
64 bytes from 10.0.0.4: icmp_seq=7 ttl=64 time=0.609 ms
64 bytes from 10.0.0.4: icmp_seq=8 ttl=64 time=0.712 ms
64 bytes from 10.0.0.4: icmp_seq=9 ttl=64 time=0.551 ms
64 bytes from 10.0.0.4: icmp_seq=10 ttl=64 time=1.23 ms
64 bytes from 10.0.0.4: icmp_seq=11 ttl=64 time=0.427 ms
64 bytes from 10.0.0.4: icmp_seq=12 ttl=64 time=4.78 ms
64 bytes from 10.0.0.4: icmp_seq=13 ttl=64 time=0.421 ms
64 bytes from 10.0.0.4: icmp_seq=14 ttl=64 time=0.714 ms
64 bytes from 10.0.0.4: icmp_seq=15 ttl=64 time=1.16 ms
64 bytes from 10.0.0.4: icmp_seq=16 ttl=64 time=0.968 ms

--- 10.0.0.4 ping statistics ---
16 packets transmitted, 16 received, 0% packet loss, time 76466ms
rtt min/avg/max/mdev = 0.421/1.120/4.787/1.127 ms
