PING 10.0.0.4 (10.0.0.4) 56(84) bytes of data.
64 bytes from 10.0.0.4: icmp_seq=1 ttl=64 time=8.35 ms
64 bytes from 10.0.0.4: icmp_seq=2 ttl=64 time=0.374 ms
64 bytes from 10.0.0.4: icmp_seq=3 ttl=64 time=0.882 ms
64 bytes from 10.0.0.4: icmp_seq=4 ttl=64 time=0.924 ms
64 bytes from 10.0.0.4: icmp_seq=5 ttl=64 time=0.618 ms
64 bytes from 10.0.0.4: icmp_seq=6 ttl=64 time=1.10 ms
64 bytes from 10.0.0.4: icmp_seq=7 ttl=64 time=1.59 ms
64 bytes from 10.0.0.4: icmp_seq=8 ttl=64 time=1.02 ms
64 bytes from 10.0.0.4: icmp_seq=9 ttl=64 time=0.640 ms
64 bytes from 10.0.0.4: icmp_seq=10 ttl=64 time=0.330 ms
64 bytes from 10.0.0.4: icmp_seq=11 ttl=64 time=1.18 ms
64 bytes from 10.0.0.4: icmp_seq=12 ttl=64 time=0.564 ms
64 bytes from 10.0.0.4: icmp_seq=13 ttl=64 time=0.896 ms
64 bytes from 10.0.0.4: icmp_seq=14 ttl=64 time=0.569 ms
64 bytes from 10.0.0.4: icmp_seq=15 ttl=64 time=0.632 ms
64 bytes from 10.0.0.4: icmp_seq=16 ttl=64 time=0.693 ms

--- 10.0.0.4 ping statistics ---
16 packets transmitted, 16 received, 0% packet loss, time 76548ms
rtt min/avg/max/mdev = 0.330/1.273/8.359/1.856 ms
