PING 10.0.0.4 (10.0.0.4) 56(84) bytes of data.
64 bytes from 10.0.0.4: icmp_seq=1 ttl=64 time=0.798 ms
64 bytes from 10.0.0.4: icmp_seq=2 ttl=64 time=0.434 ms
64 bytes from 10.0.0.4: icmp_seq=3 ttl=64 time=2.23 ms
64 bytes from 10.0.0.4: icmp_seq=4 ttl=64 time=0.871 ms
64 bytes from 10.0.0.4: icmp_seq=5 ttl=64 time=0.439 ms
64 bytes from 10.0.0.4: icmp_seq=6 ttl=64 time=0.502 ms
64 bytes from 10.0.0.4: icmp_seq=7 ttl=64 time=0.385 ms
64 bytes from 10.0.0.4: icmp_seq=8 ttl=64 time=0.443 ms
64 bytes from 10.0.0.4: icmp_seq=9 ttl=64 time=0.417 ms
64 bytes from 10.0.0.4: icmp_seq=10 ttl=64 time=0.548 ms
64 bytes from 10.0.0.4: icmp_seq=11 ttl=64 time=0.475 ms
64 bytes from 10.0.0.4: icmp_seq=12 ttl=64 time=0.641 ms
64 bytes from 10.0.0.4: icmp_seq=13 ttl=64 time=0.815 ms
64 bytes from 10.0.0.4: icmp_seq=14 ttl=64 time=1.22 ms
64 bytes from 10.0.0.4: icmp_seq=15 ttl=64 time=0.488 ms
64 bytes from 10.0.0.4: icmp_seq=16 ttl=64 time=0.919 ms

--- 10.0.0.4 ping statistics ---
16 packets transmitted, 16 received, 0% packet loss, time 76452ms
rtt min/avg/max/mdev = 0.385/0.727/2.233/0.451 ms
