PING 10.0.0.4 (10.0.0.4) 56(84) bytes of data.
64 bytes from 10.0.0.4: icmp_seq=1 ttl=64 time=0.596 ms
64 bytes from 10.0.0.4: icmp_seq=2 ttl=64 time=3.30 ms
64 bytes from 10.0.0.4: icmp_seq=3 ttl=64 time=0.993 ms
64 bytes from 10.0.0.4: icmp_seq=4 ttl=64 time=0.814 ms
64 bytes from 10.0.0.4: icmp_seq=5 ttl=64 time=4.63 ms
64 bytes from 10.0.0.4: icmp_seq=6 ttl=64 time=0.468 ms
64 bytes from 10.0.0.4: icmp_seq=7 ttl=64 time=1.56 ms
64 bytes from 10.0.0.4: icmp_seq=8 ttl=64 time=0.703 ms
64 bytes from 10.0.0.4: icmp_seq=9 ttl=64 time=1.26 ms
64 bytes from 10.0.0.4: icmp_seq=10 ttl=64 time=0.843 ms
64 bytes from 10.0.0.4: icmp_seq=11 ttl=64 time=0.408 ms
64 bytes from 10.0.0.4: icmp_seq=12 ttl=64 time=1.47 ms
64 bytes from 10.0.0.4: icmp_seq=13 ttl=64 time=0.882 ms
64 bytes from 10.0.0.4: icmp_seq=14 ttl=64 time=0.790 ms
64 bytes from 10.0.0.4: icmp_seq=15 ttl=64 time=0.368 ms
64 bytes from 10.0.0.4: icmp_seq=16 ttl=64 time=0.735 ms

--- 10.0.0.4 ping statistics ---
16 packets transmitted, 16 received, 0% packet loss, time 76623ms
rtt min/avg/max/mdev = 0.368/1.240/4.630/1.109 ms
