PING 10.0.0.4 (10.0.0.4) 56(84) bytes of data.
64 bytes from 10.0.0.4: icmp_seq=1 ttl=64 time=1.30 ms
64 bytes from 10.0.0.4: icmp_seq=2 ttl=64 time=0.423 ms
64 bytes from 10.0.0.4: icmp_seq=3 ttl=64 time=0.444 ms
64 bytes from 10.0.0.4: icmp_seq=4 ttl=64 time=3.75 ms
64 bytes from 10.0.0.4: icmp_seq=5 ttl=64 time=0.531 ms
64 bytes from 10.0.0.4: icmp_seq=6 ttl=64 time=0.917 ms
64 bytes from 10.0.0.4: icmp_seq=7 ttl=64 time=0.510 ms
64 bytes from 10.0.0.4: icmp_seq=8 ttl=64 time=1.05 ms
64 bytes from 10.0.0.4: icmp_seq=9 ttl=64 time=0.394 ms
64 bytes from 10.0.0.4: icmp_seq=10 ttl=64 time=3.14 ms
64 bytes from 10.0.0.4: icmp_seq=11 ttl=64 time=0.431 ms
64 bytes from 10.0.0.4: icmp_seq=12 ttl=64 time=0.955 ms
64 bytes from 10.0.0.4: icmp_seq=13 ttl=64 time=0.641 ms
64 bytes from 10.0.0.4: icmp_seq=14 ttl=64 time=1.58 ms
64 bytes from 10.0.0.4: icmp_seq=15 ttl=64 time=0.859 ms
64 bytes from 10.0.0.4: icmp_seq=16 ttl=64 time=1.33 ms

--- 10.0.0.4 ping statistics ---
16 packets transmitted, 16 received, 0% packet loss, time 76817ms
rtt min/avg/max/mdev = 0.394/1.143/3.758/0.948 ms
