"Dstat 0.7.2 CSV output"
"Author:","Dag Wieers <dag@wieers.com>",,,,"URL:","http://dag.wieers.com/home-made/dstat/"
"Host:","Middleware2",,,,"User:","mstevan"
"Cmdline:","dstat --output /home/mstevan/logs/experiment_3.4/dstat/vs_1024-vcpr_16-wtpm_8-rep_1.csv 5 16",,,,"Date:","28 Oct 2019 19:36:56 UTC"

"total cpu usage",,,,,,"dsk/total",,"net/total",,"paging",,"system",
"usr","sys","idl","wai","hiq","siq","read","writ","recv","send","in","out","int","csw"
1.135,2.120,96.362,0.040,0.0,0.343,6219.029,3561659.490,0.0,0.0,0.0,0.0,4575.730,13256.021
0.551,0.150,99.299,0.0,0.0,0.0,0.0,819.200,53723.800,48586.600,0.0,0.0,188.200,549.0
6.282,4.859,88.054,0.027,0.0,0.779,0.0,42598.400,13902236.0,13899481.600,0.0,0.0,11997.600,33613.800
4.638,5.460,89.372,0.0,0.0,0.530,0.0,819.200,14547148.400,14545419.0,0.0,0.0,14762.800,35118.200
4.308,5.365,89.720,0.0,0.0,0.608,0.0,2457.600,14654977.800,14649610.400,0.0,0.0,14790.0,35400.400
2.949,5.213,91.364,0.0,0.0,0.474,0.0,1638.400,14517869.400,14514051.0,0.0,0.0,14815.400,35136.600
2.308,4.642,92.679,0.0,0.0,0.371,0.0,3276.800,14358513.600,14355243.600,0.0,0.0,14551.200,34785.400
1.895,5.159,92.366,0.0,0.0,0.579,0.0,9830.400,14164976.800,14158777.200,0.0,0.0,14413.200,34349.0
1.888,4.468,93.112,0.053,0.0,0.479,0.0,18841.600,14596078.600,14594591.400,0.0,0.0,14598.400,35022.800
2.213,5.296,92.121,0.0,0.0,0.369,0.0,819.200,14297724.0,14293880.400,0.0,0.0,14597.200,34631.400
1.984,4.815,92.804,0.0,0.0,0.397,0.0,1638.400,14498600.800,14494657.400,0.0,0.0,14784.0,35290.0
1.984,4.683,92.857,0.0,0.0,0.476,0.0,1638.400,14262430.600,14258579.0,0.0,0.0,14559.200,34647.800
1.981,4.834,92.763,0.0,0.0,0.423,0.0,819.200,14232597.0,14230277.0,0.0,0.0,14487.0,34543.800
2.395,5.054,92.024,0.0,0.0,0.526,0.0,5734.400,14439641.600,14435875.800,0.0,0.0,14631.800,34982.800
2.013,4.661,92.850,0.053,0.0,0.424,0.0,20480.0,14265618.600,14262956.600,0.0,0.0,14645.800,34593.0
1.898,4.851,92.776,0.0,0.0,0.475,0.0,1638.400,14293921.0,14289797.800,0.0,0.0,14742.0,34387.200
0.075,0.025,99.900,0.0,0.0,0.0,0.0,1638.400,6459.600,2467.600,0.0,0.0,45.800,136.0
