"Dstat 0.7.2 CSV output"
"Author:","Dag Wieers <dag@wieers.com>",,,,"URL:","http://dag.wieers.com/home-made/dstat/"
"Host:","Middleware2",,,,"User:","mstevan"
"Cmdline:","dstat --output /home/mstevan/logs/experiment_3.4/dstat/vs_1024-vcpr_4-wtpm_8-rep_4.csv 5 16",,,,"Date:","28 Oct 2019 19:07:04 UTC"

"total cpu usage",,,,,,"dsk/total",,"net/total",,"paging",,"system",
"usr","sys","idl","wai","hiq","siq","read","writ","recv","send","in","out","int","csw"
1.087,2.022,96.520,0.040,0.0,0.330,6374.024,3650261.358,0.0,0.0,0.0,0.0,4315.823,12533.234
0.601,0.200,99.149,0.0,0.0,0.050,0.0,1638.400,130080.0,124312.800,0.0,0.0,252.800,833.600
7.866,6.590,84.587,0.0,0.0,0.957,0.0,1638.400,11216901.200,11212509.200,0.0,0.0,10984.0,41896.400
5.013,6.385,88.047,0.0,0.0,0.554,0.0,1638.400,12600757.800,12599860.200,0.0,0.0,12150.0,46794.600
3.611,6.326,89.483,0.0,0.0,0.580,0.0,2457.600,12655283.0,12650824.0,0.0,0.0,12329.400,47544.0
2.854,6.607,89.826,0.053,0.0,0.661,0.0,31948.800,12495198.200,12490688.600,0.0,0.0,12304.200,46905.800
3.247,5.887,90.338,0.0,0.0,0.528,0.0,3276.800,12609120.200,12606940.800,0.0,0.0,12281.600,47371.400
2.835,6.616,90.024,0.0,0.0,0.525,0.0,9830.400,12435847.400,12430939.600,0.0,0.0,12048.400,46477.800
2.625,5.940,90.745,0.0,0.0,0.689,0.0,819.200,12450345.800,12445864.400,0.0,0.0,12048.200,46603.0
2.927,6.171,90.401,0.0,0.0,0.501,0.0,1638.400,12567687.200,12565919.200,0.0,0.0,12293.400,47396.0
2.405,6.580,90.592,0.0,0.0,0.423,0.0,819.200,12389180.800,12384709.800,0.0,0.0,11942.400,46364.400
2.503,6.087,90.856,0.079,0.0,0.474,0.0,22937.600,12317552.600,12315387.800,0.0,0.0,11752.400,45835.400
2.691,6.095,90.765,0.0,0.0,0.449,0.0,1638.400,11920271.0,11914429.200,0.0,0.0,11664.400,44983.400
2.663,6.459,90.377,0.0,0.0,0.501,0.0,4915.200,12731863.800,12730775.200,0.0,0.0,12165.800,47383.0
2.938,6.663,89.900,0.0,0.0,0.498,0.0,3276.800,12614384.400,12609391.800,0.0,0.0,12313.0,47569.0
3.014,6.370,90.197,0.0,0.0,0.419,0.0,1638.400,12109606.0,12106113.600,0.0,0.0,11807.200,45582.0
0.050,0.025,99.925,0.0,0.0,0.0,0.0,819.200,3277.0,1113.400,0.0,0.0,37.200,109.600
