"Dstat 0.7.2 CSV output"
"Author:","Dag Wieers <dag@wieers.com>",,,,"URL:","http://dag.wieers.com/home-made/dstat/"
"Host:","Middleware2",,,,"User:","mstevan"
"Cmdline:","dstat --output /home/mstevan/logs/experiment_3.4/dstat/vs_1024-vcpr_16-wtpm_8-rep_3.csv 5 16",,,,"Date:","28 Oct 2019 19:39:47 UTC"

"total cpu usage",,,,,,"dsk/total",,"net/total",,"paging",,"system",
"usr","sys","idl","wai","hiq","siq","read","writ","recv","send","in","out","int","csw"
1.138,2.125,96.354,0.040,0.0,0.343,6204.656,3553444.331,0.0,0.0,0.0,0.0,4592.393,13290.402
0.828,0.150,98.997,0.0,0.0,0.025,0.0,1638.400,238644.0,232488.0,0.0,0.0,278.200,978.200
6.139,4.677,88.626,0.0,0.0,0.558,0.0,1638.400,13229337.800,13225533.800,0.0,0.0,12047.200,31958.0
4.690,4.796,89.825,0.0,0.0,0.689,0.0,1638.400,13468156.800,13464414.0,0.0,0.0,13988.400,32563.600
4.365,4.947,90.106,0.053,0.0,0.529,0.0,43417.600,14256494.800,14253742.800,0.0,0.0,14654.400,34334.200
3.057,5.033,91.436,0.0,0.0,0.474,0.0,1638.400,14222217.800,14217517.200,0.0,0.0,14720.600,34273.200
2.572,4.666,92.206,0.0,0.0,0.557,0.0,819.200,14407774.600,14405752.600,0.0,0.0,14965.0,34777.800
2.359,4.745,92.285,0.0,0.0,0.610,0.0,13107.200,14724765.600,14719398.800,0.0,0.0,15236.0,35478.600
2.091,4.659,92.695,0.0,0.0,0.556,0.0,1638.400,14146592.200,14141492.0,0.0,0.0,14522.800,33935.800
2.146,5.219,92.238,0.0,0.0,0.397,0.0,819.200,14708541.400,14706953.0,0.0,0.0,15212.200,35451.0
2.114,5.654,91.757,0.053,0.0,0.423,0.0,18841.600,14722571.800,14719010.800,0.0,0.0,15070.400,35550.400
2.169,4.919,92.568,0.0,0.0,0.344,0.0,819.200,14466422.200,14462361.200,0.0,0.0,14790.200,34908.0
1.879,4.950,92.642,0.0,0.0,0.529,0.0,1638.400,14366093.400,14363466.0,0.0,0.0,14718.600,34711.200
1.883,4.960,92.599,0.0,0.0,0.557,0.0,6553.600,14916826.200,14912292.400,0.0,0.0,15327.600,36004.600
2.453,5.302,91.691,0.0,0.0,0.554,0.0,1638.400,15125936.600,15123841.0,0.0,0.0,15572.200,36262.800
2.348,5.066,92.032,0.0,0.0,0.554,0.0,1638.400,14657537.600,14654757.200,0.0,0.0,14996.200,35480.0
0.050,0.025,99.850,0.075,0.0,0.0,0.0,20480.0,6784.400,2193.200,0.0,0.0,40.400,129.800
