"Dstat 0.7.2 CSV output"
"Author:","Dag Wieers <dag@wieers.com>",,,,"URL:","http://dag.wieers.com/home-made/dstat/"
"Host:","Middleware2",,,,"User:","mstevan"
"Cmdline:","dstat --output /home/mstevan/logs/experiment_3.4/dstat/vs_1024-vcpr_8-wtpm_8-rep_1.csv 5 16",,,,"Date:","28 Oct 2019 19:19:52 UTC"

"total cpu usage",,,,,,"dsk/total",,"net/total",,"paging",,"system",
"usr","sys","idl","wai","hiq","siq","read","writ","recv","send","in","out","int","csw"
1.106,2.060,96.460,0.040,0.0,0.333,6306.664,3611757.329,0.0,0.0,0.0,0.0,4428.352,12857.282
0.726,0.200,99.048,0.0,0.0,0.025,0.0,1638.400,182349.400,176123.0,0.0,0.0,266.0,881.400
6.262,5.284,87.926,0.0,0.0,0.528,0.0,1638.400,13619750.600,13619096.800,0.0,0.0,10684.400,34236.400
6.082,4.801,88.397,0.0,0.0,0.720,0.0,1638.400,13317197.600,13312614.400,0.0,0.0,12474.400,33412.200
2.451,4.743,92.332,0.053,0.0,0.422,0.0,31948.800,14551914.200,14547489.0,0.0,0.0,13439.600,36652.0
2.530,4.585,92.385,0.026,0.0,0.474,0.0,9011.200,14499143.0,14497104.0,0.0,0.0,13107.0,36377.0
2.038,5.188,92.298,0.0,0.0,0.476,0.0,4096.0,14729010.600,14724450.800,0.0,0.0,14111.600,36899.600
2.058,4.959,92.561,0.0,0.0,0.422,0.0,9830.400,14294518.800,14289661.200,0.0,0.0,13166.600,35821.200
2.102,4.834,92.459,0.0,0.0,0.604,0.0,819.200,14082188.800,14080316.800,0.0,0.0,12774.0,35485.800
2.110,4.906,92.588,0.0,0.0,0.396,0.0,1638.400,14312695.600,14308270.0,0.0,0.0,12968.0,35914.200
1.798,4.442,93.496,0.0,0.0,0.264,0.0,819.200,13721931.200,13719493.600,0.0,0.0,13667.200,33885.600
2.694,5.231,91.525,0.026,0.0,0.523,0.0,16384.0,14520830.0,14516645.800,0.0,0.0,12832.400,37174.800
2.530,5.140,91.882,0.0,0.0,0.448,0.0,1638.400,14880555.600,14876116.800,0.0,0.0,12554.200,38302.600
2.040,4.848,92.689,0.0,0.0,0.424,0.0,4915.200,14687134.600,14684963.200,0.0,0.0,12524.400,37166.0
2.251,5.288,91.859,0.0,0.0,0.602,0.0,3276.800,14255263.200,14250688.800,0.0,0.0,12674.800,36072.400
1.791,5.269,92.545,0.0,0.0,0.395,0.0,1638.400,14253134.200,14248943.600,0.0,0.0,12944.200,36033.600
0.025,0.025,99.950,0.0,0.0,0.0,0.0,819.200,3277.0,1126.600,0.0,0.0,42.200,116.800
