"Dstat 0.7.2 CSV output"
"Author:","Dag Wieers <dag@wieers.com>",,,,"URL:","http://dag.wieers.com/home-made/dstat/"
"Host:","Middleware2",,,,"User:","mstevan"
"Cmdline:","dstat --output /home/mstevan/logs/experiment_3.4/dstat/vs_1024-vcpr_32-wtpm_64-rep_3.csv 5 16",,,,"Date:","28 Oct 2019 20:08:14 UTC"

"total cpu usage",,,,,,"dsk/total",,"net/total",,"paging",,"system",
"usr","sys","idl","wai","hiq","siq","read","writ","recv","send","in","out","int","csw"
1.189,2.226,96.182,0.039,0.0,0.365,6064.529,3473343.819,0.0,0.0,0.0,0.0,4765.911,13792.303
0.627,0.301,99.022,0.0,0.0,0.050,0.0,1638.400,79464.600,74974.400,0.0,0.0,306.200,874.400
8.858,10.179,77.937,0.0,0.0,3.026,0.0,819.200,18358696.0,18361616.800,0.0,0.0,10777.400,37779.0
4.438,8.580,84.750,0.0,0.0,2.232,0.0,1638.400,18587408.600,18581257.800,0.0,0.0,11122.400,37936.200
4.971,8.525,84.180,0.0,0.0,2.325,0.0,3276.800,17901713.800,17895844.800,0.0,0.0,11205.600,37748.600
5.375,8.600,83.902,0.0,0.0,2.123,0.0,819.200,17938380.600,17940954.400,0.0,0.0,10817.200,36847.600
5.122,8.018,84.553,0.027,0.0,2.279,0.0,46694.400,18594792.0,18591364.400,0.0,0.0,11075.800,38078.800
4.867,8.954,83.813,0.0,0.0,2.366,0.0,9011.200,18602424.800,18603306.200,0.0,0.0,11235.200,38394.400
4.697,8.588,84.461,0.0,0.0,2.254,0.0,1638.400,18060087.200,18055845.800,0.0,0.0,10653.600,36917.400
5.249,8.249,84.333,0.0,0.0,2.169,0.0,1638.400,18359996.200,18350692.600,0.0,0.0,11032.800,38099.800
5.060,8.159,84.371,0.0,0.0,2.411,0.0,819.200,18622824.800,18620362.400,0.0,0.0,11191.800,38381.200
3.663,8.336,85.798,0.0,0.0,2.203,0.0,1638.400,18684322.600,18677447.0,0.0,0.0,11256.800,38381.600
3.694,8.557,85.756,0.053,0.0,1.940,0.0,17203.200,18986945.200,18991292.400,0.0,0.0,11582.600,39347.0
3.437,9.479,85.097,0.0,0.0,1.987,0.0,4915.200,19273635.800,19271406.400,0.0,0.0,12053.400,40751.0
3.907,9.125,85.015,0.0,0.0,1.953,0.0,3276.800,19287800.800,19283341.400,0.0,0.0,11829.600,40177.200
3.602,8.844,85.565,0.0,0.0,1.989,0.0,819.200,18697079.0,18694771.200,0.0,0.0,11317.200,38304.600
3.850,1.402,94.442,0.0,0.0,0.306,0.0,10649.600,1538205.0,1434138.800,0.0,0.0,2574.0,6416.0
