"Dstat 0.7.2 CSV output"
"Author:","Dag Wieers <dag@wieers.com>",,,,"URL:","http://dag.wieers.com/home-made/dstat/"
"Host:","Middleware2",,,,"User:","mstevan"
"Cmdline:","dstat --output /home/mstevan/logs/experiment_3.4/dstat/vs_1024-vcpr_8-wtpm_8-rep_3.csv 5 16",,,,"Date:","28 Oct 2019 19:22:43 UTC"

"total cpu usage",,,,,,"dsk/total",,"net/total",,"paging",,"system",
"usr","sys","idl","wai","hiq","siq","read","writ","recv","send","in","out","int","csw"
1.109,2.064,96.453,0.040,0.0,0.334,6291.889,3603310.044,0.0,0.0,0.0,0.0,4443.675,12895.982
0.900,0.275,98.749,0.025,0.0,0.050,0.0,31948.800,161407.200,154656.400,0.0,0.0,256.800,858.600
5.798,4.787,88.910,0.0,0.0,0.505,0.0,819.200,13193375.600,13193303.200,0.0,0.0,12052.800,31950.200
6.315,4.723,88.273,0.0,0.0,0.690,0.0,2457.600,13280160.200,13275811.800,0.0,0.0,13619.600,32549.600
1.849,4.358,93.344,0.0,0.0,0.449,0.0,819.200,13236520.600,13234257.400,0.0,0.0,13695.400,32262.800
2.257,5.092,92.126,0.0,0.0,0.525,0.0,2457.600,14180973.200,14176397.600,0.0,0.0,14644.0,34602.800
2.327,4.839,92.279,0.0,0.0,0.555,0.0,1638.400,14339034.400,14334557.600,0.0,0.0,14193.0,35701.600
1.872,4.615,92.906,0.053,0.0,0.554,0.0,26214.400,13993271.400,13990001.800,0.0,0.0,14315.600,34219.800
1.839,4.424,93.364,0.0,0.0,0.373,0.0,8192.0,14084330.0,14080978.0,0.0,0.0,14277.600,34906.200
1.956,5.155,92.308,0.0,0.0,0.582,0.0,1638.400,14464713.800,14459647.0,0.0,0.0,14545.0,35522.0
2.207,5.150,92.275,0.0,0.0,0.368,0.0,819.200,14125198.600,14122694.0,0.0,0.0,14359.800,34477.400
2.278,4.980,92.371,0.0,0.0,0.371,0.0,1638.400,14754076.200,14750482.800,0.0,0.0,15029.800,36378.400
1.841,4.970,92.900,0.0,0.0,0.289,0.0,1638.400,13557641.600,13553158.0,0.0,0.0,13811.800,33301.0
1.795,4.460,93.244,0.053,0.0,0.449,0.0,20480.0,13416838.0,13414541.200,0.0,0.0,13969.600,32975.600
2.121,4.586,92.895,0.0,0.0,0.398,0.0,2457.600,13882727.0,13876470.200,0.0,0.0,14156.800,34368.0
2.041,5.011,92.471,0.0,0.0,0.477,0.0,819.200,14439467.800,14439323.800,0.0,0.0,14657.0,36121.600
0.025,0.050,99.925,0.0,0.0,0.0,0.0,1638.400,6459.600,2137.600,0.0,0.0,44.0,126.800
