"Dstat 0.7.2 CSV output"
"Author:","Dag Wieers <dag@wieers.com>",,,,"URL:","http://dag.wieers.com/home-made/dstat/"
"Host:","Middleware2",,,,"User:","mstevan"
"Cmdline:","dstat --output /home/mstevan/logs/experiment_3.4/dstat/vs_1024-vcpr_32-wtpm_32-rep_2.csv 5 16",,,,"Date:","28 Oct 2019 20:01:07 UTC"

"total cpu usage",,,,,,"dsk/total",,"net/total",,"paging",,"system",
"usr","sys","idl","wai","hiq","siq","read","writ","recv","send","in","out","int","csw"
1.176,2.203,96.223,0.039,0.0,0.359,6098.965,3493028.134,0.0,0.0,0.0,0.0,4743.635,13702.982
0.601,0.225,99.123,0.0,0.0,0.050,0.0,1638.400,132661.800,124732.400,0.0,0.0,268.800,816.0
8.371,8.910,80.458,0.0,0.0,2.261,0.0,819.200,18941482.0,18940626.800,0.0,0.0,9973.600,34952.0
4.453,6.842,87.130,0.0,0.0,1.575,0.0,1638.400,18594475.600,18591591.200,0.0,0.0,10179.200,34023.600
3.953,7.238,87.019,0.0,0.0,1.790,0.0,3276.800,18599279.600,18594635.200,0.0,0.0,10059.800,33571.800
4.555,7.663,86.093,0.080,0.0,1.608,0.0,44236.800,18408730.200,18406501.0,0.0,0.0,9827.600,33353.800
3.893,7.329,87.087,0.0,0.0,1.691,0.0,13107.200,18749342.200,18744882.600,0.0,0.0,9980.200,33878.0
3.509,6.856,88.043,0.0,0.0,1.592,0.0,819.200,18487848.800,18485619.0,0.0,0.0,9936.600,33632.200
3.948,7.309,87.277,0.0,0.0,1.467,0.0,4096.0,18558930.200,18554646.800,0.0,0.0,10094.600,33812.600
3.417,6.726,88.297,0.0,0.0,1.560,0.0,1638.400,18692468.200,18687892.600,0.0,0.0,10194.0,34232.600
3.768,7.483,87.066,0.0,0.0,1.684,0.0,819.200,18481576.0,18479714.200,0.0,0.0,10209.200,33884.0
3.225,7.489,87.633,0.053,0.0,1.599,0.0,18022.400,18575395.800,18568531.600,0.0,0.0,10099.400,33779.800
3.063,7.457,87.856,0.0,0.0,1.625,0.0,1638.400,18728629.0,18726595.400,0.0,0.0,10315.0,34414.600
2.965,7.544,87.983,0.0,0.0,1.509,0.0,5734.400,18721912.200,18716535.800,0.0,0.0,10441.600,34466.0
2.895,7.453,88.204,0.0,0.0,1.448,0.0,1638.400,18628725.600,18627372.800,0.0,0.0,10254.200,34285.600
3.077,7.036,88.363,0.0,0.0,1.525,0.0,1638.400,18456965.0,18453550.0,0.0,0.0,10095.200,33736.800
0.050,0.125,99.775,0.0,0.0,0.050,0.0,1638.400,167711.400,174539.400,0.0,0.0,286.400,947.200
