"Dstat 0.7.2 CSV output"
"Author:","Dag Wieers <dag@wieers.com>",,,,"URL:","http://dag.wieers.com/home-made/dstat/"
"Host:","Middleware2",,,,"User:","mstevan"
"Cmdline:","dstat --output /home/mstevan/logs/experiment_3.4/dstat/vs_1024-vcpr_32-wtpm_32-rep_1.csv 5 16",,,,"Date:","28 Oct 2019 19:59:42 UTC"

"total cpu usage",,,,,,"dsk/total",,"net/total",,"paging",,"system",
"usr","sys","idl","wai","hiq","siq","read","writ","recv","send","in","out","int","csw"
1.174,2.199,96.231,0.039,0.0,0.358,6105.902,3496993.071,0.0,0.0,0.0,0.0,4739.471,13686.165
0.979,0.251,98.720,0.0,0.0,0.050,0.0,1638.400,211167.200,205928.800,0.0,0.0,340.600,1030.800
8.698,8.508,80.429,0.0,0.0,2.365,0.0,819.200,19094586.200,19088136.800,0.0,0.0,9844.800,34662.800
3.429,7.554,87.410,0.0,0.0,1.607,0.0,1638.400,19253298.600,19253952.200,0.0,0.0,10447.400,35537.200
4.326,7.530,86.435,0.053,0.0,1.656,0.0,36864.0,19258435.800,19250629.600,0.0,0.0,10284.600,35178.600
4.861,8.040,85.123,0.0,0.0,1.976,0.0,819.200,18859045.400,18855384.400,0.0,0.0,9804.800,34059.200
4.157,8.100,85.878,0.0,0.0,1.865,0.0,5734.400,18854939.0,18854565.200,0.0,0.0,10097.200,34425.800
3.428,7.476,87.099,0.0,0.0,1.997,0.0,9830.400,18697398.800,18694191.600,0.0,0.0,9940.200,33660.0
3.111,7.482,87.879,0.0,0.0,1.529,0.0,819.200,18739549.200,18737017.400,0.0,0.0,9918.800,34096.600
3.517,7.834,86.970,0.0,0.0,1.679,0.0,1638.400,18563912.0,18559604.200,0.0,0.0,9961.200,33728.600
3.007,7.286,87.784,0.027,0.0,1.896,0.0,25395.200,18663564.600,18660409.800,0.0,0.0,10007.600,34047.600
2.950,7.442,87.605,0.0,0.0,2.003,0.0,1638.400,18576881.200,18573245.800,0.0,0.0,9978.0,33950.0
2.853,6.756,88.775,0.0,0.0,1.615,0.0,1638.400,18598970.600,18593586.800,0.0,0.0,9810.600,33523.0
3.138,6.921,88.036,0.0,0.0,1.905,0.0,4915.200,18691011.0,18686170.800,0.0,0.0,10085.200,33876.400
3.175,7.391,87.673,0.0,0.0,1.761,0.0,3276.800,18667090.600,18666007.600,0.0,0.0,10018.400,33950.200
2.776,6.846,88.706,0.0,0.0,1.671,0.0,1638.400,18712214.0,18707719.200,0.0,0.0,10470.200,34383.600
0.833,0.682,98.359,0.050,0.0,0.076,0.0,17203.200,1536031.400,1534633.400,0.0,0.0,2402.200,6080.400
