"Dstat 0.7.2 CSV output"
"Author:","Dag Wieers <dag@wieers.com>",,,,"URL:","http://dag.wieers.com/home-made/dstat/"
"Host:","Middleware2",,,,"User:","mstevan"
"Cmdline:","dstat --output /home/mstevan/logs/experiment_3.4/dstat/vs_1024-vcpr_32-wtpm_64-rep_1.csv 5 16",,,,"Date:","28 Oct 2019 20:05:23 UTC"

"total cpu usage",,,,,,"dsk/total",,"net/total",,"paging",,"system",
"usr","sys","idl","wai","hiq","siq","read","writ","recv","send","in","out","int","csw"
1.183,2.216,96.200,0.039,0.0,0.362,6078.255,3481189.393,0.0,0.0,0.0,0.0,4755.940,13752.166
1.054,0.502,98.268,0.0,0.0,0.176,0.0,819.200,260035.200,259727.200,0.0,0.0,432.800,1312.200
8.724,9.835,78.759,0.0,0.0,2.682,0.0,1638.400,19134029.800,19135414.600,0.0,0.0,11100.0,38927.400
3.838,8.129,86.221,0.053,0.0,1.759,0.0,43417.600,19106590.600,19100045.400,0.0,0.0,11348.200,38863.0
4.319,8.158,85.577,0.0,0.0,1.946,0.0,2457.600,18052916.800,18052961.0,0.0,0.0,10605.200,36484.800
4.807,8.712,84.276,0.0,0.0,2.205,0.0,819.200,18244141.600,18241629.0,0.0,0.0,10369.0,36289.600
4.984,8.993,83.782,0.0,0.0,2.242,0.0,13107.200,18668208.400,18664062.200,0.0,0.0,10658.0,37329.800
4.419,8.757,84.547,0.0,0.0,2.276,0.0,2457.600,18774977.800,18770323.800,0.0,0.0,10872.600,37696.400
3.366,8.428,86.244,0.0,0.0,1.961,0.0,819.200,18823492.600,18816557.400,0.0,0.0,11158.0,38197.200
3.558,8.434,85.925,0.026,0.0,2.056,0.0,17203.200,18938635.200,18939213.0,0.0,0.0,11208.600,38416.800
3.127,7.686,87.358,0.0,0.0,1.829,0.0,819.200,18396329.200,18393102.600,0.0,0.0,10734.200,37005.800
3.398,7.651,87.239,0.0,0.0,1.712,0.0,1638.400,18644856.200,18639199.800,0.0,0.0,11036.400,37772.400
3.065,8.013,86.932,0.0,0.0,1.990,0.0,1638.400,18836247.200,18834177.0,0.0,0.0,11113.200,38094.400
4.206,8.385,85.427,0.0,0.0,1.982,0.0,5734.400,18833204.600,18830856.800,0.0,0.0,11363.800,38888.600
3.607,7.775,86.615,0.0,0.0,2.004,0.0,2457.600,18716635.800,18707597.0,0.0,0.0,11256.600,38511.800
3.508,7.600,86.527,0.053,0.0,2.312,0.0,16384.0,18150304.200,18152151.200,0.0,0.0,11055.400,37552.200
0.050,0.025,99.925,0.0,0.0,0.0,0.0,3276.800,3277.0,1139.800,0.0,0.0,41.400,114.800
