"Dstat 0.7.2 CSV output"
"Author:","Dag Wieers <dag@wieers.com>",,,,"URL:","http://dag.wieers.com/home-made/dstat/"
"Host:","Middleware2",,,,"User:","mstevan"
"Cmdline:","dstat --output /home/mstevan/logs/experiment_3.4/dstat/vs_256-vcpr_32-wtpm_64-rep_3.csv 5 16",,,,"Date:","28 Oct 2019 17:51:24 UTC"

"total cpu usage",,,,,,"dsk/total",,"net/total",,"paging",,"system",
"usr","sys","idl","wai","hiq","siq","read","writ","recv","send","in","out","int","csw"
0.926,1.682,97.086,0.042,0.0,0.263,6803.599,3895819.954,0.0,0.0,0.0,0.0,3676.403,10639.679
0.854,0.226,98.795,0.0,0.0,0.126,0.0,819.200,63800.600,62306.200,0.0,0.0,369.200,1098.800
11.560,17.370,65.703,0.0,0.0,5.367,0.0,1638.400,7988733.0,7990952.800,0.0,0.0,15643.800,50637.800
6.225,16.391,73.073,0.0,0.0,4.312,0.0,1638.400,8591524.0,8585226.400,0.0,0.0,18396.0,56529.200
8.261,17.591,69.324,0.029,0.0,4.795,0.0,36044.800,8351442.400,8353626.600,0.0,0.0,16555.400,52657.200
7.576,15.822,71.707,0.0,0.0,4.895,0.0,1638.400,8268834.800,8264473.400,0.0,0.0,16911.800,52984.600
7.661,17.086,70.338,0.0,0.0,4.915,0.0,819.200,8262728.800,8261216.0,0.0,0.0,17030.200,53296.400
8.734,17.127,69.218,0.0,0.0,4.922,0.0,13926.400,8117473.200,8115417.800,0.0,0.0,16887.0,52777.600
8.043,16.518,70.943,0.0,0.0,4.497,0.0,3276.800,8155314.400,8152448.800,0.0,0.0,17446.400,53781.0
5.743,16.322,73.720,0.0,0.0,4.215,0.0,819.200,8594830.800,8591849.0,0.0,0.0,18395.0,56504.200
5.546,15.086,75.172,0.057,0.0,4.138,0.0,25395.200,8447275.400,8444212.200,0.0,0.0,18233.800,55620.800
6.438,15.365,74.392,0.0,0.0,3.805,0.0,1638.400,8451546.400,8447632.800,0.0,0.0,18408.600,56398.800
5.906,15.327,75.137,0.0,0.0,3.630,0.0,819.200,8447386.400,8446812.200,0.0,0.0,18188.0,55809.600
6.033,15.152,75.224,0.0,0.0,3.591,0.0,5734.400,8416011.600,8410858.200,0.0,0.0,18444.600,56190.400
5.496,15.453,75.482,0.0,0.0,3.568,0.0,3276.800,8444312.400,8441267.600,0.0,0.0,18600.600,56635.600
5.535,15.884,74.287,0.0,0.0,4.295,0.0,819.200,8359380.0,8363429.800,0.0,0.0,18170.400,55612.200
0.351,0.325,99.074,0.050,0.0,0.200,0.0,16384.0,211127.600,236843.600,0.0,0.0,822.0,2610.600
