"Dstat 0.7.2 CSV output"
"Author:","Dag Wieers <dag@wieers.com>",,,,"URL:","http://dag.wieers.com/home-made/dstat/"
"Host:","Middleware2",,,,"User:","mstevan"
"Cmdline:","dstat --output /home/mstevan/logs/experiment_3.4/dstat/vs_256-vcpr_16-wtpm_8-rep_2.csv 5 16",,,,"Date:","28 Oct 2019 17:21:31 UTC"

"total cpu usage",,,,,,"dsk/total",,"net/total",,"paging",,"system",
"usr","sys","idl","wai","hiq","siq","read","writ","recv","send","in","out","int","csw"
0.846,1.508,97.380,0.043,0.0,0.223,6989.537,4002103.061,0.0,0.0,0.0,0.0,3402.875,9860.278
0.777,0.175,98.997,0.0,0.0,0.050,0.0,34406.400,74935.600,69346.400,0.0,0.0,234.400,834.800
5.657,4.595,89.084,0.0,0.0,0.664,0.0,9011.200,4860419.200,4858114.200,0.0,0.0,11662.200,31998.800
4.531,5.352,89.481,0.0,0.0,0.636,0.0,1638.400,5293699.400,5289260.600,0.0,0.0,14337.0,34915.800
4.258,5.335,89.750,0.0,0.0,0.657,0.0,2457.600,5145831.200,5141547.200,0.0,0.0,13824.0,33787.400
2.650,5.114,91.627,0.0,0.0,0.609,0.0,1638.400,5287717.800,5285464.0,0.0,0.0,14359.800,34757.200
2.581,4.793,91.967,0.0,0.0,0.658,0.0,1638.400,5221264.400,5216830.0,0.0,0.0,14050.200,34178.600
2.001,5.054,92.077,0.079,0.0,0.790,0.0,28672.0,5206931.400,5202522.400,0.0,0.0,14296.0,34322.200
2.165,5.095,92.186,0.0,0.0,0.554,0.0,819.200,5408229.600,5405665.800,0.0,0.0,14761.800,35612.800
2.146,4.902,92.528,0.0,0.0,0.424,0.0,1638.400,5365741.0,5361565.200,0.0,0.0,14756.200,35400.0
1.761,4.564,93.195,0.0,0.0,0.480,0.0,819.200,5421393.400,5418683.400,0.0,0.0,14674.0,35451.200
1.912,4.834,92.776,0.0,0.0,0.478,0.0,1638.400,5419326.800,5415218.600,0.0,0.0,14839.0,35522.800
2.200,4.799,92.683,0.0,0.0,0.318,0.0,1638.400,5301095.0,5296958.800,0.0,0.0,14586.400,34774.0
1.894,4.881,92.745,0.027,0.0,0.453,0.0,28672.0,5460610.800,5458233.200,0.0,0.0,15011.0,35848.0
2.107,5.373,92.073,0.0,0.0,0.448,0.0,3276.800,5354778.800,5349892.600,0.0,0.0,14692.0,35145.600
2.163,4.616,92.772,0.0,0.0,0.448,0.0,1638.400,5068525.600,5064866.400,0.0,0.0,13991.800,33451.400
0.025,0.025,99.950,0.0,0.0,0.0,0.0,819.200,3263.800,1113.400,0.0,0.0,39.0,124.200
