"Dstat 0.7.2 CSV output"
"Author:","Dag Wieers <dag@wieers.com>",,,,"URL:","http://dag.wieers.com/home-made/dstat/"
"Host:","Middleware2",,,,"User:","mstevan"
"Cmdline:","dstat --output /home/mstevan/logs/experiment_3.4/dstat/vs_256-vcpr_4-wtpm_8-rep_2.csv 5 16",,,,"Date:","28 Oct 2019 16:47:23 UTC"

"total cpu usage",,,,,,"dsk/total",,"net/total",,"paging",,"system",
"usr","sys","idl","wai","hiq","siq","read","writ","recv","send","in","out","int","csw"
0.777,1.366,97.608,0.044,0.0,0.204,7214.896,4130919.517,0.0,0.0,0.0,0.0,3048.088,8846.180
0.751,0.125,99.074,0.0,0.0,0.050,0.0,819.200,61732.200,59576.800,0.0,0.0,276.0,911.600
8.282,6.252,84.825,0.0,0.0,0.641,0.0,2457.600,3775874.400,3771419.200,0.0,0.0,10069.800,38244.600
5.143,6.262,87.823,0.0,0.0,0.773,0.0,1638.400,4137862.200,4133345.200,0.0,0.0,10784.200,42083.400
3.407,6.683,89.171,0.0,0.0,0.740,0.0,819.200,4145553.0,4143200.600,0.0,0.0,10942.800,42673.200
2.916,6.363,89.846,0.053,0.0,0.822,0.0,36044.800,4277863.600,4273600.600,0.0,0.0,11253.800,44087.600
2.624,6.255,90.538,0.0,0.0,0.583,0.0,4096.0,4306067.400,4301574.600,0.0,0.0,11241.400,43973.200
2.543,6.263,90.685,0.0,0.0,0.509,0.0,9011.200,4274445.400,4272145.200,0.0,0.0,11340.400,44048.400
2.668,5.950,90.928,0.0,0.0,0.454,0.0,1638.400,4159051.200,4154378.600,0.0,0.0,10775.0,42575.0
2.902,6.017,90.575,0.0,0.0,0.506,0.0,819.200,4338722.200,4336584.800,0.0,0.0,11272.400,44579.0
2.553,6.036,90.907,0.0,0.0,0.505,0.0,1638.400,4181760.600,4177547.600,0.0,0.0,10791.0,42702.0
2.606,6.036,90.694,0.027,0.0,0.638,0.0,27033.600,4282854.400,4278320.200,0.0,0.0,11097.200,43659.200
2.680,6.394,90.395,0.0,0.0,0.531,0.0,819.200,4325772.800,4323280.0,0.0,0.0,11267.0,44369.0
2.627,5.791,90.992,0.0,0.0,0.590,0.0,5734.400,4292084.400,4287963.200,0.0,0.0,11227.600,44002.800
2.651,6.416,90.509,0.0,0.0,0.424,0.0,3276.800,4307637.400,4303107.600,0.0,0.0,11253.200,44337.800
2.676,5.962,90.911,0.0,0.0,0.450,0.0,819.200,4150042.200,4148095.600,0.0,0.0,10807.200,42721.600
0.025,0.0,99.975,0.0,0.0,0.0,0.0,819.200,3823.0,1665.0,0.0,0.0,45.800,139.0
