"Dstat 0.7.2 CSV output"
"Author:","Dag Wieers <dag@wieers.com>",,,,"URL:","http://dag.wieers.com/home-made/dstat/"
"Host:","Middleware2",,,,"User:","mstevan"
"Cmdline:","dstat --output /home/mstevan/logs/experiment_3.4/dstat/vs_256-vcpr_4-wtpm_64-rep_2.csv 5 16",,,,"Date:","28 Oct 2019 16:58:46 UTC"

"total cpu usage",,,,,,"dsk/total",,"net/total",,"paging",,"system",
"usr","sys","idl","wai","hiq","siq","read","writ","recv","send","in","out","int","csw"
0.798,1.408,97.543,0.044,0.0,0.207,7138.178,4087064.084,0.0,0.0,0.0,0.0,3151.594,9186.413
0.902,0.251,98.797,0.0,0.0,0.050,0.0,1638.400,57948.400,57107.200,0.0,0.0,434.0,1232.400
8.331,6.421,83.709,0.0,0.0,1.539,0.0,819.200,3825346.800,3879704.200,0.0,0.0,16009.600,44163.600
3.745,6.046,89.005,0.0,0.0,1.204,0.0,1638.400,4138385.800,4174892.400,0.0,0.0,18075.600,47863.800
2.918,6.605,89.337,0.053,0.0,1.088,0.0,35225.600,4269269.0,4299728.600,0.0,0.0,18673.800,49551.200
2.656,6.428,89.854,0.0,0.0,1.062,0.0,819.200,4298853.600,4335272.600,0.0,0.0,18751.800,49756.200
2.965,6.935,88.724,0.0,0.0,1.376,0.0,4096.0,4254573.200,4285765.400,0.0,0.0,18534.400,49217.800
3.118,6.711,88.904,0.0,0.0,1.268,0.0,9830.400,4279244.400,4307405.600,0.0,0.0,18709.200,49533.0
3.236,6.788,88.687,0.0,0.0,1.289,0.0,819.200,4265128.0,4295099.200,0.0,0.0,18696.400,49562.600
2.597,6.836,89.375,0.0,0.0,1.192,0.0,1638.400,4286617.600,4317100.200,0.0,0.0,18750.0,49762.0
2.864,6.736,89.419,0.053,0.0,0.928,0.0,18022.400,4312032.200,4341646.800,0.0,0.0,18810.600,49957.600
2.659,7.476,88.839,0.0,0.0,1.027,0.0,9011.200,4367006.400,4395717.800,0.0,0.0,18972.200,50532.0
3.089,6.283,89.256,0.0,0.0,1.373,0.0,1638.400,4229591.0,4268218.800,0.0,0.0,18537.800,49092.0
2.946,7.312,88.532,0.0,0.0,1.210,0.0,819.200,4260421.200,4290775.0,0.0,0.0,18572.400,49293.600
3.233,6.889,88.739,0.0,0.0,1.139,0.0,6553.600,4300878.200,4328273.400,0.0,0.0,18704.0,50081.200
2.814,6.345,89.806,0.0,0.0,1.035,0.0,2457.600,4254522.200,4277890.800,0.0,0.0,18442.600,49441.800
0.025,0.025,99.875,0.075,0.0,0.0,0.0,16384.0,3361.400,1269.0,0.0,0.0,44.200,130.0
