"Dstat 0.7.2 CSV output"
"Author:","Dag Wieers <dag@wieers.com>",,,,"URL:","http://dag.wieers.com/home-made/dstat/"
"Host:","Middleware2",,,,"User:","mstevan"
"Cmdline:","dstat --output /home/mstevan/logs/experiment_3.4/dstat/vs_256-vcpr_4-wtpm_8-rep_4.csv 5 16",,,,"Date:","28 Oct 2019 16:50:14 UTC"

"total cpu usage",,,,,,"dsk/total",,"net/total",,"paging",,"system",
"usr","sys","idl","wai","hiq","siq","read","writ","recv","send","in","out","int","csw"
0.782,1.376,97.592,0.044,0.0,0.205,7195.557,4119864.063,0.0,0.0,0.0,0.0,3065.915,8926.461
0.526,0.150,99.224,0.075,0.0,0.025,0.0,31948.800,40117.200,37564.400,0.0,0.0,226.0,687.400
6.779,5.332,87.219,0.0,0.0,0.670,0.0,9011.200,3373554.800,3369364.400,0.0,0.0,8857.800,33500.400
3.622,5.060,90.706,0.0,0.0,0.613,0.0,1638.400,3534384.800,3529123.0,0.0,0.0,9243.800,35354.200
2.669,5.418,91.246,0.0,0.0,0.667,0.0,2457.600,3826327.400,3825042.400,0.0,0.0,10070.400,38652.200
2.733,5.625,90.979,0.0,0.0,0.663,0.0,1638.400,3839144.0,3834492.600,0.0,0.0,10105.400,38542.0
2.479,5.357,91.418,0.0,0.0,0.746,0.0,4096.0,3809435.800,3804995.400,0.0,0.0,10050.200,38533.800
2.279,6.149,90.936,0.053,0.0,0.583,0.0,25395.200,3828871.200,3826595.0,0.0,0.0,10202.0,38833.200
2.749,5.710,90.748,0.0,0.0,0.793,0.0,1638.400,3764249.800,3759908.600,0.0,0.0,10078.600,38360.800
2.545,5.912,90.907,0.0,0.0,0.636,0.0,1638.400,3885902.0,3881122.0,0.0,0.0,10118.800,39421.600
2.442,5.600,91.375,0.0,0.0,0.584,0.0,819.200,3839222.600,3837310.200,0.0,0.0,9733.0,38747.400
2.719,5.837,90.832,0.0,0.0,0.613,0.0,1638.400,3893297.800,3888771.400,0.0,0.0,10041.800,39247.600
2.498,5.873,90.965,0.0,0.0,0.664,0.0,819.200,3804321.800,3802321.800,0.0,0.0,9926.200,38512.400
2.657,6.004,90.808,0.0,0.0,0.531,0.0,1638.400,3783023.0,3778405.800,0.0,0.0,9741.600,38128.400
2.480,5.707,91.173,0.053,0.0,0.587,0.0,27852.800,3869165.600,3864459.600,0.0,0.0,10199.200,39127.200
2.510,6.129,90.859,0.0,0.0,0.502,0.0,1638.400,3813728.800,3812112.800,0.0,0.0,9960.600,38536.800
0.100,0.025,99.875,0.0,0.0,0.0,0.0,1638.400,6375.200,2008.400,0.0,0.0,45.200,136.0
