"Dstat 0.7.2 CSV output"
"Author:","Dag Wieers <dag@wieers.com>",,,,"URL:","http://dag.wieers.com/home-made/dstat/"
"Host:","Middleware2",,,,"User:","mstevan"
"Cmdline:","dstat --output /home/mstevan/logs/experiment_3.4/dstat/vs_256-vcpr_32-wtpm_8-rep_2.csv 5 16",,,,"Date:","28 Oct 2019 17:38:36 UTC"

"total cpu usage",,,,,,"dsk/total",,"net/total",,"paging",,"system",
"usr","sys","idl","wai","hiq","siq","read","writ","recv","send","in","out","int","csw"
0.891,1.606,97.215,0.043,0.0,0.244,6882.061,3940669.247,0.0,0.0,0.0,0.0,3571.176,10333.870
0.552,0.150,99.298,0.0,0.0,0.0,0.0,819.200,42719.0,38013.0,0.0,0.0,208.400,645.400
5.765,4.831,88.658,0.0,0.0,0.747,0.0,1638.400,4944309.400,4940136.600,0.0,0.0,11860.400,32576.200
3.297,4.680,91.385,0.0,0.0,0.638,0.0,1638.400,5137195.600,5132526.400,0.0,0.0,14437.200,33847.400
2.081,4.926,92.466,0.053,0.0,0.474,0.0,32768.0,5117878.200,5115935.600,0.0,0.0,14364.800,33724.600
2.278,4.926,92.346,0.0,0.0,0.450,0.0,10649.600,5375638.200,5371139.400,0.0,0.0,15033.400,35404.600
3.581,5.371,90.495,0.0,0.0,0.553,0.0,819.200,5310038.200,5307241.0,0.0,0.0,14741.200,35054.200
2.059,5.174,92.159,0.0,0.0,0.607,0.0,13926.400,5275329.800,5271485.200,0.0,0.0,14684.800,34812.0
3.277,4.476,91.633,0.0,0.0,0.613,0.0,1638.400,5175871.0,5170867.400,0.0,0.0,14338.600,34261.200
2.323,5.201,92.080,0.0,0.0,0.396,0.0,819.200,5291429.400,5289497.200,0.0,0.0,14581.600,35003.800
2.308,4.829,92.306,0.053,0.0,0.504,0.0,19660.800,5326667.400,5321839.600,0.0,0.0,14791.400,35140.600
2.447,5.130,91.792,0.0,0.0,0.631,0.0,1638.400,5397001.600,5393125.400,0.0,0.0,15258.400,35566.800
1.803,5.064,92.762,0.0,0.0,0.371,0.0,819.200,5315967.800,5313154.800,0.0,0.0,15088.0,35035.400
2.250,4.817,92.430,0.0,0.0,0.503,0.0,5734.400,5337574.0,5333469.800,0.0,0.0,15250.600,35273.200
2.195,4.946,92.330,0.0,0.0,0.529,0.0,3276.800,5348894.0,5344648.600,0.0,0.0,15204.0,35254.800
2.123,4.989,92.542,0.0,0.0,0.345,0.0,819.200,5241504.200,5239156.400,0.0,0.0,15024.200,34745.0
0.904,0.703,98.242,0.050,0.0,0.100,0.0,16384.0,417775.200,413364.200,0.0,0.0,1694.0,4788.800
