"Dstat 0.7.2 CSV output"
"Author:","Dag Wieers <dag@wieers.com>",,,,"URL:","http://dag.wieers.com/home-made/dstat/"
"Host:","Middleware2",,,,"User:","mstevan"
"Cmdline:","dstat --output /home/mstevan/logs/experiment_3.4/dstat/vs_256-vcpr_4-wtpm_64-rep_3.csv 5 16",,,,"Date:","28 Oct 2019 17:00:11 UTC"

"total cpu usage",,,,,,"dsk/total",,"net/total",,"paging",,"system",
"usr","sys","idl","wai","hiq","siq","read","writ","recv","send","in","out","int","csw"
0.801,1.413,97.534,0.044,0.0,0.208,7128.707,4081650.296,0.0,0.0,0.0,0.0,3167.536,9227.836
0.828,0.226,98.921,0.0,0.0,0.025,0.0,1638.400,39272.0,37346.600,0.0,0.0,339.0,988.800
8.929,6.930,82.836,0.0,0.0,1.306,0.0,819.200,4171775.400,4223569.600,0.0,0.0,18088.200,48580.800
5.110,6.654,87.197,0.0,0.0,1.038,0.0,1638.400,4551277.0,4571013.800,0.0,0.0,20271.800,53105.0
3.674,7.216,88.184,0.0,0.0,0.925,0.0,2457.600,4817743.0,4836290.600,0.0,0.0,21472.800,56237.200
3.459,7.156,88.328,0.026,0.0,1.030,0.0,33587.200,4881405.400,4897743.200,0.0,0.0,21802.200,57195.200
3.172,7.639,88.316,0.0,0.0,0.872,0.0,12288.0,4911378.0,4928094.0,0.0,0.0,21873.200,57286.600
3.068,7.210,88.726,0.0,0.0,0.996,0.0,9830.400,4692803.800,4710641.0,0.0,0.0,20885.200,54874.400
3.227,7.162,88.641,0.0,0.0,0.971,0.0,819.200,4777314.0,4793416.600,0.0,0.0,21276.400,55775.400
2.810,7.826,88.445,0.0,0.0,0.919,0.0,1638.400,4811104.600,4823293.200,0.0,0.0,21462.600,56307.400
3.121,6.824,89.368,0.0,0.0,0.688,0.0,819.200,4741306.600,4759149.200,0.0,0.0,21081.600,55300.800
3.002,6.376,89.798,0.053,0.0,0.770,0.0,17203.200,4667759.200,4689916.200,0.0,0.0,20855.600,54690.0
3.076,8.070,87.986,0.0,0.0,0.868,0.0,819.200,4838310.200,4856600.800,0.0,0.0,21598.0,56519.600
2.821,7.171,89.059,0.0,0.0,0.949,0.0,5734.400,4793626.400,4810595.800,0.0,0.0,21337.800,55984.800
3.193,7.361,88.391,0.0,0.0,1.055,0.0,2457.600,4805341.200,4820288.200,0.0,0.0,21402.0,56209.0
3.264,7.370,88.471,0.0,0.0,0.895,0.0,1638.400,4759696.0,4774878.400,0.0,0.0,21098.0,55464.200
0.075,0.0,99.925,0.0,0.0,0.0,0.0,1638.400,6456.400,2022.400,0.0,0.0,49.400,136.400
