"Dstat 0.7.2 CSV output"
"Author:","Dag Wieers <dag@wieers.com>",,,,"URL:","http://dag.wieers.com/home-made/dstat/"
"Host:","Middleware2",,,,"User:","mstevan"
"Cmdline:","dstat --output /home/mstevan/logs/experiment_3.4/dstat/vs_256-vcpr_16-wtpm_64-rep_1.csv 5 16",,,,"Date:","28 Oct 2019 17:31:29 UTC"

"total cpu usage",,,,,,"dsk/total",,"net/total",,"paging",,"system",
"usr","sys","idl","wai","hiq","siq","read","writ","recv","send","in","out","int","csw"
0.870,1.559,97.295,0.043,0.0,0.233,6926.437,3966034.201,0.0,0.0,0.0,0.0,3489.305,10111.776
0.931,0.478,98.466,0.0,0.0,0.126,0.0,1638.400,89895.800,87239.400,0.0,0.0,411.800,1253.200
10.066,14.257,71.828,0.0,0.0,3.849,0.0,819.200,6674932.400,6692254.0,0.0,0.0,19040.600,55597.800
7.666,13.714,75.355,0.0,0.0,3.265,0.0,1638.400,6863561.400,6868445.0,0.0,0.0,20417.0,58039.600
7.243,13.616,76.109,0.056,0.0,2.976,0.0,47513.600,6593884.200,6608957.200,0.0,0.0,20579.200,57494.800
5.833,13.797,77.117,0.0,0.0,3.253,0.0,819.200,6764312.400,6769970.0,0.0,0.0,20932.600,59037.600
5.856,13.758,77.231,0.0,0.0,3.155,0.0,4915.200,6743647.200,6747796.800,0.0,0.0,20676.0,58472.400
5.487,13.662,77.520,0.0,0.0,3.331,0.0,9830.400,6858907.400,6862112.0,0.0,0.0,21309.800,60018.400
5.359,13.241,78.197,0.0,0.0,3.204,0.0,819.200,6877862.800,6886040.600,0.0,0.0,21243.0,59618.600
5.862,13.106,77.593,0.0,0.0,3.439,0.0,1638.400,6734666.400,6737658.800,0.0,0.0,21075.200,59037.200
5.172,13.708,77.643,0.057,0.0,3.420,0.0,18022.400,6717937.800,6725713.800,0.0,0.0,21128.800,59159.600
5.138,14.022,77.462,0.0,0.0,3.378,0.0,1638.400,6806517.800,6808705.800,0.0,0.0,21247.200,59735.800
5.220,14.089,77.519,0.0,0.0,3.171,0.0,1638.400,6923664.800,6926921.400,0.0,0.0,21670.0,60571.0
5.345,13.620,78.448,0.0,0.0,2.587,0.0,4915.200,6907898.600,6912339.400,0.0,0.0,21684.600,60480.200
5.277,13.206,78.323,0.0,0.0,3.195,0.0,3276.800,6950990.0,6953049.200,0.0,0.0,21340.600,59887.800
5.286,12.870,79.048,0.0,0.0,2.795,0.0,1638.400,6794780.200,6799197.0,0.0,0.0,21090.200,58999.600
0.050,0.025,99.900,0.025,0.0,0.0,0.0,23756.800,3741.800,1610.600,0.0,0.0,50.0,149.200
