"Dstat 0.7.2 CSV output"
"Author:","Dag Wieers <dag@wieers.com>",,,,"URL:","http://dag.wieers.com/home-made/dstat/"
"Host:","Middleware2",,,,"User:","mstevan"
"Cmdline:","dstat --output /home/mstevan/logs/experiment_3.4/dstat/vs_256-vcpr_8-wtpm_64-rep_1.csv 5 16",,,,"Date:","28 Oct 2019 17:14:25 UTC"

"total cpu usage",,,,,,"dsk/total",,"net/total",,"paging",,"system",
"usr","sys","idl","wai","hiq","siq","read","writ","recv","send","in","out","int","csw"
0.829,1.471,97.441,0.044,0.0,0.216,7035.313,4028266.516,0.0,0.0,0.0,0.0,3311.934,9628.427
0.979,0.326,98.619,0.0,0.0,0.075,0.0,1638.400,89619.600,88812.800,0.0,0.0,545.0,1512.0
9.440,10.593,77.333,0.0,0.0,2.634,0.0,1638.400,5214323.600,5244118.800,0.0,0.0,20300.400,55785.0
5.719,10.091,81.798,0.0,0.0,2.392,0.0,819.200,5581170.200,5600658.800,0.0,0.0,22621.0,60289.400
4.569,9.927,83.519,0.0,0.0,1.985,0.0,3276.800,5484033.800,5500709.800,0.0,0.0,22780.400,59982.800
3.799,9.839,84.313,0.0,0.0,2.050,0.0,1638.400,5591932.200,5606348.200,0.0,0.0,23243.600,61339.400
4.029,9.816,83.856,0.027,0.0,2.271,0.0,34406.400,5523993.200,5544283.800,0.0,0.0,22919.400,60440.400
3.951,9.959,84.032,0.0,0.0,2.057,0.0,9830.400,5463476.400,5482501.0,0.0,0.0,22736.800,59821.200
3.939,9.163,85.093,0.0,0.0,1.805,0.0,819.200,5521746.200,5541292.800,0.0,0.0,22967.200,60541.400
4.054,10.405,83.703,0.0,0.0,1.838,0.0,1638.400,5494936.0,5510556.600,0.0,0.0,22846.200,60287.400
3.936,10.112,83.848,0.0,0.0,2.104,0.0,1638.400,5528552.200,5540909.800,0.0,0.0,22887.400,60642.0
4.098,9.727,84.454,0.0,0.0,1.721,0.0,819.200,5452387.200,5469419.800,0.0,0.0,22601.800,59833.600
3.567,10.213,84.193,0.081,0.0,1.945,0.0,18022.400,5306816.600,5332103.0,0.0,0.0,22024.200,58060.800
3.740,9.864,84.309,0.0,0.0,2.087,0.0,5734.400,5485187.400,5502162.0,0.0,0.0,22659.800,59990.0
3.696,10.571,83.886,0.0,0.0,1.848,0.0,2457.600,5531642.400,5547940.200,0.0,0.0,22894.200,60661.400
3.936,9.582,84.555,0.0,0.0,1.927,0.0,1638.400,5387708.200,5403781.400,0.0,0.0,22332.0,59288.200
0.050,0.025,99.925,0.0,0.0,0.0,0.0,1638.400,6388.400,2008.400,0.0,0.0,46.600,137.800
