"Dstat 0.7.2 CSV output"
"Author:","Dag Wieers <dag@wieers.com>",,,,"URL:","http://dag.wieers.com/home-made/dstat/"
"Host:","Middleware2",,,,"User:","mstevan"
"Cmdline:","dstat --output /home/mstevan/logs/experiment_3.4/dstat/vs_512-vcpr_4-wtpm_32-rep_3.csv 5 16",,,,"Date:","28 Oct 2019 18:02:55 UTC"

"total cpu usage",,,,,,"dsk/total",,"net/total",,"paging",,"system",
"usr","sys","idl","wai","hiq","siq","read","writ","recv","send","in","out","int","csw"
0.950,1.734,97.001,0.042,0.0,0.272,6734.497,3856320.985,0.0,0.0,0.0,0.0,3762.102,10948.668
0.601,0.225,99.123,0.0,0.0,0.050,0.0,2457.600,51178.800,49841.0,0.0,0.0,284.200,834.0
8.150,6.488,84.424,0.0,0.0,0.938,0.0,1638.400,6997376.600,6993672.0,0.0,0.0,17221.600,51747.600
4.883,7.590,86.890,0.0,0.0,0.637,0.0,1638.400,7530543.400,7525727.200,0.0,0.0,18994.800,56032.200
2.823,7.335,89.314,0.0,0.0,0.528,0.0,1638.400,7535854.600,7533882.800,0.0,0.0,19115.800,56171.0
2.980,7.226,89.267,0.0,0.0,0.527,0.0,2457.600,7625635.800,7621535.400,0.0,0.0,19445.800,56722.0
3.193,7.390,88.678,0.106,0.0,0.633,0.0,22937.600,7833259.800,7828968.600,0.0,0.0,19911.800,58279.200
3.613,7.173,88.528,0.0,0.0,0.686,0.0,11468.800,7856509.0,7854504.600,0.0,0.0,20130.600,58557.200
3.132,6.690,89.567,0.0,0.0,0.611,0.0,1638.400,7760964.600,7756183.0,0.0,0.0,19942.400,57731.200
2.941,7.552,88.977,0.0,0.0,0.530,0.0,819.200,7672774.600,7670772.800,0.0,0.0,19769.200,57195.800
2.680,7.402,89.493,0.0,0.0,0.425,0.0,1638.400,7699755.200,7695508.200,0.0,0.0,19716.800,57326.200
3.227,7.712,88.484,0.0,0.0,0.577,0.0,1638.400,7745016.600,7740570.600,0.0,0.0,20129.200,57732.800
3.063,7.618,88.743,0.0,0.0,0.576,0.0,819.200,7606788.800,7604432.200,0.0,0.0,19750.800,56655.600
3.185,7.133,89.234,0.0,0.0,0.447,0.0,33587.200,7636466.600,7632180.0,0.0,0.0,19727.200,56826.800
2.944,6.550,89.897,0.0,0.0,0.610,0.0,4915.200,7627013.400,7621783.800,0.0,0.0,19682.600,56700.400
2.694,7.184,89.620,0.0,0.0,0.502,0.0,819.200,7523170.600,7522859.800,0.0,0.0,19544.400,56213.0
0.050,0.050,99.900,0.0,0.0,0.0,0.0,1638.400,6375.200,2008.400,0.0,0.0,47.0,136.400
