"Dstat 0.7.2 CSV output"
"Author:","Dag Wieers <dag@wieers.com>",,,,"URL:","http://dag.wieers.com/home-made/dstat/"
"Host:","Middleware2",,,,"User:","mstevan"
"Cmdline:","dstat --output /home/mstevan/logs/experiment_3.4/dstat/vs_512-vcpr_32-wtpm_32-rep_1.csv 5 16",,,,"Date:","28 Oct 2019 18:51:17 UTC"

"total cpu usage",,,,,,"dsk/total",,"net/total",,"paging",,"system",
"usr","sys","idl","wai","hiq","siq","read","writ","recv","send","in","out","int","csw"
1.045,1.929,96.679,0.041,0.0,0.306,6459.110,3698899.446,0.0,0.0,0.0,0.0,4209.671,12154.154
0.677,0.301,98.922,0.0,0.0,0.100,0.0,819.200,75530.0,69798.200,0.0,0.0,280.200,841.200
11.494,13.707,70.948,0.0,0.0,3.851,0.0,2457.600,12741919.600,12737964.0,0.0,0.0,13329.400,44856.0
6.184,13.138,77.002,0.057,0.0,3.619,0.0,33587.200,13317102.200,13314902.400,0.0,0.0,14795.600,46685.600
7.802,12.861,75.879,0.0,0.0,3.458,0.0,1638.400,12928233.400,12925658.200,0.0,0.0,14008.200,44797.0
6.438,13.137,76.639,0.0,0.0,3.787,0.0,1638.400,13125117.800,13121210.0,0.0,0.0,14344.600,45997.800
6.101,13.234,77.628,0.0,0.0,3.036,0.0,4915.200,13574228.600,13568641.600,0.0,0.0,15016.200,47705.200
5.716,12.760,78.406,0.0,0.0,3.118,0.0,9830.400,13464564.0,13463163.200,0.0,0.0,15129.400,47697.800
5.260,12.511,78.931,0.0,0.0,3.298,0.0,1638.400,13263804.600,13258279.200,0.0,0.0,15172.800,47164.600
4.751,11.567,80.798,0.0,0.0,2.885,0.0,819.200,13344522.800,13342475.600,0.0,0.0,15480.200,47893.200
4.942,11.522,80.740,0.056,0.0,2.739,0.0,27033.600,13530303.800,13527322.800,0.0,0.0,15447.200,48058.600
4.846,12.623,79.459,0.0,0.0,3.071,0.0,1638.400,13642790.400,13638527.0,0.0,0.0,15503.0,48362.800
4.744,12.061,80.423,0.0,0.0,2.772,0.0,819.200,13774936.400,13771234.0,0.0,0.0,15663.600,49001.800
4.820,12.872,79.217,0.0,0.0,3.090,0.0,5734.400,13539612.400,13535534.200,0.0,0.0,15733.200,48703.800
5.020,12.493,79.329,0.0,0.0,3.158,0.0,2457.600,13667693.800,13664578.0,0.0,0.0,15450.600,48437.800
5.014,11.360,80.935,0.0,0.0,2.691,0.0,1638.400,13353707.400,13350875.200,0.0,0.0,15503.600,48017.600
0.326,0.351,99.198,0.050,0.0,0.075,0.0,17203.200,329268.600,332586.600,0.0,0.0,869.200,2523.0
