"Dstat 0.7.2 CSV output"
"Author:","Dag Wieers <dag@wieers.com>",,,,"URL:","http://dag.wieers.com/home-made/dstat/"
"Host:","Middleware2",,,,"User:","mstevan"
"Cmdline:","dstat --output /home/mstevan/logs/experiment_3.4/dstat/vs_512-vcpr_8-wtpm_32-rep_1.csv 5 16",,,,"Date:","28 Oct 2019 18:17:08 UTC"

"total cpu usage",,,,,,"dsk/total",,"net/total",,"paging",,"system",
"usr","sys","idl","wai","hiq","siq","read","writ","recv","send","in","out","int","csw"
0.971,1.776,96.935,0.042,0.0,0.276,6651.098,3808647.551,0.0,0.0,0.0,0.0,3895.122,11298.795
0.827,0.351,98.747,0.050,0.0,0.025,0.0,38502.400,110324.800,106105.600,0.0,0.0,402.600,1171.200
9.307,9.782,79.067,0.0,0.0,1.845,0.0,13926.400,8068907.400,8063504.0,0.0,0.0,17305.400,52133.400
6.881,8.875,82.906,0.0,0.0,1.338,0.0,819.200,8388646.200,8387523.800,0.0,0.0,18608.200,55523.600
4.294,9.491,84.710,0.0,0.0,1.504,0.0,3276.800,8670067.400,8666140.0,0.0,0.0,19173.600,57506.600
4.457,10.0,84.402,0.0,0.0,1.141,0.0,1638.400,8660282.600,8656266.600,0.0,0.0,19116.400,57182.600
4.229,9.646,84.494,0.0,0.0,1.631,0.0,4915.200,8709488.800,8707322.200,0.0,0.0,19455.200,57907.600
4.596,10.035,84.036,0.109,0.0,1.224,0.0,25395.200,8682494.200,8677833.800,0.0,0.0,19540.400,58003.200
4.335,9.246,85.130,0.0,0.0,1.289,0.0,819.200,8578724.0,8574726.200,0.0,0.0,19108.600,57065.200
3.984,9.093,85.632,0.0,0.0,1.291,0.0,1638.400,8633007.600,8629543.0,0.0,0.0,19120.200,57183.0
4.196,9.874,84.586,0.0,0.0,1.344,0.0,1638.400,8548429.400,8544598.600,0.0,0.0,19108.200,56931.200
4.207,9.506,84.949,0.0,0.0,1.338,0.0,819.200,8692702.400,8690439.800,0.0,0.0,19456.800,58119.0
4.217,9.316,84.757,0.0,0.0,1.709,0.0,1638.400,8628824.400,8624848.400,0.0,0.0,19176.0,57319.0
4.148,9.890,84.670,0.055,0.0,1.236,0.0,22118.400,8777780.600,8773165.800,0.0,0.0,19576.0,58545.0
4.034,9.962,84.715,0.0,0.0,1.290,0.0,4915.200,8796636.600,8793947.0,0.0,0.0,19409.800,57969.200
3.698,10.141,84.638,0.0,0.0,1.523,0.0,1638.400,8536518.800,8533833.200,0.0,0.0,19031.0,56610.0
0.075,0.050,99.875,0.0,0.0,0.0,0.0,1638.400,6375.200,2008.400,0.0,0.0,41.600,137.600
