"Dstat 0.7.2 CSV output"
"Author:","Dag Wieers <dag@wieers.com>",,,,"URL:","http://dag.wieers.com/home-made/dstat/"
"Host:","Middleware2",,,,"User:","mstevan"
"Cmdline:","dstat --output /home/mstevan/logs/experiment_3.4/dstat/vs_512-vcpr_16-wtpm_32-rep_4.csv 5 16",,,,"Date:","28 Oct 2019 18:38:29 UTC"

"total cpu usage",,,,,,"dsk/total",,"net/total",,"paging",,"system",
"usr","sys","idl","wai","hiq","siq","read","writ","recv","send","in","out","int","csw"
1.017,1.870,96.777,0.041,0.0,0.294,6529.790,3739302.832,0.0,0.0,0.0,0.0,4095.647,11853.533
0.979,0.251,98.695,0.0,0.0,0.075,0.0,819.200,164373.400,161512.200,0.0,0.0,393.400,1217.0
10.496,12.670,73.094,0.0,0.0,3.740,0.0,1638.400,10627368.200,10624011.400,0.0,0.0,15287.200,49946.400
7.548,12.401,77.497,0.028,0.0,2.526,0.0,33587.200,11043242.400,11041662.200,0.0,0.0,16507.0,53457.0
5.189,12.418,79.898,0.0,0.0,2.495,0.0,9830.400,11511994.400,11507959.400,0.0,0.0,17266.0,55728.0
5.759,12.860,79.005,0.0,0.0,2.376,0.0,1638.400,11410936.600,11404654.0,0.0,0.0,17051.400,55446.200
5.650,12.401,79.124,0.0,0.0,2.825,0.0,4096.0,11382818.200,11382172.200,0.0,0.0,16864.0,54907.400
5.151,12.525,79.510,0.0,0.0,2.815,0.0,9830.400,11458567.600,11453763.800,0.0,0.0,17263.600,55890.800
5.033,12.242,79.672,0.0,0.0,3.053,0.0,1638.400,11439203.0,11434753.600,0.0,0.0,17030.600,55125.0
4.720,12.436,80.243,0.0,0.0,2.600,0.0,819.200,11479462.200,11477203.600,0.0,0.0,17360.400,56014.400
4.854,12.831,79.944,0.028,0.0,2.343,0.0,18841.600,11446544.200,11441381.600,0.0,0.0,17091.400,55076.400
4.976,12.412,80.124,0.0,0.0,2.488,0.0,819.200,11554644.200,11551767.0,0.0,0.0,17271.600,55785.800
5.238,12.241,80.224,0.0,0.0,2.297,0.0,1638.400,11432551.800,11428829.200,0.0,0.0,16926.200,55031.0
4.785,12.911,80.068,0.0,0.0,2.237,0.0,5734.400,11414892.200,11410862.400,0.0,0.0,16951.0,54660.800
4.665,12.723,80.181,0.0,0.0,2.431,0.0,2457.600,11374492.0,11372666.400,0.0,0.0,16995.200,55087.400
5.256,12.273,80.403,0.0,0.0,2.069,0.0,1638.400,11187003.600,11183361.400,0.0,0.0,16660.800,54068.0
0.075,0.025,99.825,0.075,0.0,0.0,0.0,20480.0,6375.200,1995.200,0.0,0.0,46.600,144.200
