"Dstat 0.7.2 CSV output"
"Author:","Dag Wieers <dag@wieers.com>",,,,"URL:","http://dag.wieers.com/home-made/dstat/"
"Host:","Middleware2",,,,"User:","mstevan"
"Cmdline:","dstat --output /home/mstevan/logs/experiment_3.4/dstat/vs_512-vcpr_16-wtpm_64-rep_2.csv 5 16",,,,"Date:","28 Oct 2019 18:41:19 UTC"

"total cpu usage",,,,,,"dsk/total",,"net/total",,"paging",,"system",
"usr","sys","idl","wai","hiq","siq","read","writ","recv","send","in","out","int","csw"
1.026,1.890,96.745,0.041,0.0,0.298,6513.955,3730252.846,0.0,0.0,0.0,0.0,4123.916,11939.047
0.828,0.401,98.696,0.0,0.0,0.075,0.0,1638.400,98107.200,96298.600,0.0,0.0,406.200,1164.800
11.251,13.318,71.527,0.0,0.0,3.904,0.0,819.200,10397413.400,10407634.0,0.0,0.0,19137.400,55586.600
9.197,13.256,73.999,0.0,0.0,3.548,0.0,1638.400,10710594.200,10709382.0,0.0,0.0,20472.200,58041.0
6.585,13.085,76.951,0.0,0.0,3.378,0.0,2457.600,10809093.800,10810495.600,0.0,0.0,20735.200,58516.400
6.519,13.234,77.213,0.0,0.0,3.035,0.0,1638.400,10898203.800,10899206.400,0.0,0.0,21075.0,59113.0
6.797,13.622,76.364,0.056,0.0,3.161,0.0,22937.600,10884337.600,10884111.400,0.0,0.0,21364.600,59655.400
6.791,13.469,76.500,0.0,0.0,3.240,0.0,23756.800,10630192.400,10629955.400,0.0,0.0,21035.400,58858.400
5.309,13.118,78.421,0.0,0.0,3.152,0.0,819.200,10899990.400,10901250.600,0.0,0.0,21585.0,59997.400
5.657,13.078,78.129,0.0,0.0,3.136,0.0,1638.400,10860984.200,10858853.0,0.0,0.0,21742.600,60286.800
5.408,13.465,77.803,0.0,0.0,3.324,0.0,819.200,10939531.200,10944085.800,0.0,0.0,21645.400,60230.0
5.518,13.176,78.575,0.0,0.0,2.731,0.0,1638.400,10870163.800,10869161.600,0.0,0.0,21939.600,60784.600
5.995,13.960,77.005,0.056,0.0,2.983,0.0,18022.400,10975063.600,10973743.0,0.0,0.0,21744.400,60811.400
5.610,13.257,78.231,0.0,0.0,2.903,0.0,5734.400,11094944.800,11098762.600,0.0,0.0,22088.0,61223.200
5.191,13.805,78.143,0.0,0.0,2.862,0.0,2457.600,10977972.200,10976124.200,0.0,0.0,21972.800,61111.600
4.700,12.988,79.094,0.0,0.0,3.218,0.0,1638.400,10805705.800,10808084.600,0.0,0.0,21516.200,59693.200
0.050,0.0,99.950,0.0,0.0,0.0,0.0,819.200,3277.0,1139.800,0.0,0.0,41.800,122.400
