"Dstat 0.7.2 CSV output"
"Author:","Dag Wieers <dag@wieers.com>",,,,"URL:","http://dag.wieers.com/home-made/dstat/"
"Host:","Middleware2",,,,"User:","mstevan"
"Cmdline:","dstat --output /home/mstevan/logs/experiment_3.4/dstat/vs_512-vcpr_32-wtpm_32-rep_2.csv 5 16",,,,"Date:","28 Oct 2019 18:52:42 UTC"

"total cpu usage",,,,,,"dsk/total",,"net/total",,"paging",,"system",
"usr","sys","idl","wai","hiq","siq","read","writ","recv","send","in","out","int","csw"
1.049,1.938,96.663,0.041,0.0,0.309,6451.351,3694464.699,0.0,0.0,0.0,0.0,4219.520,12186.493
0.576,0.175,99.224,0.0,0.0,0.025,0.0,1638.400,30842.400,25311.600,0.0,0.0,198.200,586.800
11.117,13.790,70.941,0.0,0.0,4.151,0.0,1638.400,12738721.800,12735691.0,0.0,0.0,13280.200,44132.400
6.433,13.008,77.229,0.0,0.0,3.330,0.0,819.200,13454395.800,13449570.600,0.0,0.0,15644.400,48545.200
6.827,12.197,77.406,0.0,0.0,3.570,0.0,3276.800,13150367.400,13148890.400,0.0,0.0,14464.600,46058.600
6.596,13.191,76.325,0.058,0.0,3.831,0.0,45056.0,13067634.600,13062942.800,0.0,0.0,13807.0,45787.0
5.677,12.603,78.655,0.0,0.0,3.066,0.0,4915.200,13365568.400,13361437.200,0.0,0.0,14911.800,47518.200
5.955,12.362,78.577,0.0,0.0,3.105,0.0,9830.400,13314305.0,13308882.400,0.0,0.0,14925.600,47393.800
5.475,12.660,78.842,0.0,0.0,3.023,0.0,1638.400,13419422.600,13418442.400,0.0,0.0,15587.200,48228.800
4.717,12.531,79.682,0.0,0.0,3.070,0.0,819.200,13615452.400,13610973.400,0.0,0.0,15683.200,48854.200
5.091,12.349,79.634,0.0,0.0,2.925,0.0,1638.400,13553991.0,13549548.0,0.0,0.0,15303.200,47627.0
4.906,11.841,80.180,0.056,0.0,3.017,0.0,16384.0,13490469.0,13489766.200,0.0,0.0,15204.0,47564.200
5.003,12.578,79.367,0.0,0.0,3.053,0.0,1638.400,13485085.600,13480168.400,0.0,0.0,15543.200,48245.800
5.209,12.618,79.164,0.0,0.0,3.008,0.0,5734.400,13705921.800,13701533.0,0.0,0.0,15806.400,48975.600
4.942,12.595,79.413,0.0,0.0,3.050,0.0,2457.600,13366994.600,13364893.400,0.0,0.0,15207.600,47379.0
5.236,11.690,79.904,0.0,0.0,3.170,0.0,1638.400,13473599.800,13470111.0,0.0,0.0,15088.400,47208.800
0.075,0.025,99.900,0.0,0.0,0.0,0.0,1638.400,9556.400,3869.600,0.0,0.0,54.200,161.200
