"Dstat 0.7.2 CSV output"
"Author:","Dag Wieers <dag@wieers.com>",,,,"URL:","http://dag.wieers.com/home-made/dstat/"
"Host:","Middleware2",,,,"User:","mstevan"
"Cmdline:","dstat --output /home/mstevan/logs/experiment_3.4/dstat/vs_512-vcpr_16-wtpm_8-rep_1.csv 5 16",,,,"Date:","28 Oct 2019 18:28:31 UTC"

"total cpu usage",,,,,,"dsk/total",,"net/total",,"paging",,"system",
"usr","sys","idl","wai","hiq","siq","read","writ","recv","send","in","out","int","csw"
0.998,1.833,96.841,0.041,0.0,0.287,6585.846,3771348.754,0.0,0.0,0.0,0.0,4021.907,11653.147
0.728,0.251,98.996,0.0,0.0,0.025,0.0,1638.400,123158.0,119184.400,0.0,0.0,289.800,952.600
5.832,4.590,89.039,0.0,0.0,0.540,0.0,1638.400,8172744.400,8169347.200,0.0,0.0,12078.400,33906.0
4.463,5.074,89.745,0.0,0.0,0.717,0.0,1638.400,8148005.200,8143339.400,0.0,0.0,13985.400,34258.800
3.908,5.572,89.992,0.0,0.0,0.528,0.0,819.200,8510705.400,8508605.400,0.0,0.0,14404.600,35664.400
2.523,5.440,91.432,0.0,0.0,0.604,0.0,3276.800,8365260.600,8359882.600,0.0,0.0,14127.200,35077.400
2.263,4.867,92.160,0.053,0.0,0.658,0.0,24576.0,8151993.400,8148607.600,0.0,0.0,13994.600,34215.200
2.060,4.675,92.684,0.0,0.0,0.581,0.0,11468.800,8177075.400,8174710.800,0.0,0.0,14168.600,34180.800
2.130,5.155,92.215,0.0,0.0,0.500,0.0,1638.400,8177307.600,8172060.400,0.0,0.0,14523.400,34288.600
2.074,4.752,92.596,0.0,0.0,0.578,0.0,819.200,7905365.0,7903183.400,0.0,0.0,14366.0,33240.200
1.962,4.402,93.185,0.0,0.0,0.451,0.0,1638.400,8230140.600,8226220.200,0.0,0.0,14778.0,34568.400
1.778,4.272,93.632,0.0,0.0,0.318,0.0,1638.400,7934556.800,7930131.200,0.0,0.0,14267.200,33335.0
1.772,4.576,93.256,0.0,0.0,0.397,0.0,819.200,8036557.200,8033510.600,0.0,0.0,14185.800,33721.0
1.829,4.374,93.372,0.027,0.0,0.398,0.0,30310.400,7985928.200,7981608.200,0.0,0.0,13820.800,33413.400
1.773,4.393,93.490,0.0,0.0,0.344,0.0,3276.800,7926716.0,7923062.200,0.0,0.0,13828.200,33320.0
1.793,4.193,93.645,0.0,0.0,0.369,0.0,819.200,7622746.200,7620870.400,0.0,0.0,13430.400,32037.400
0.050,0.0,99.950,0.0,0.0,0.0,0.0,1638.400,6882.0,2348.800,0.0,0.0,44.600,125.400
