"Dstat 0.7.2 CSV output"
"Author:","Dag Wieers <dag@wieers.com>",,,,"URL:","http://dag.wieers.com/home-made/dstat/"
"Host:","Middleware2",,,,"User:","mstevan"
"Cmdline:","dstat --output /home/mstevan/logs/experiment_3.4/dstat/vs_64-vcpr_16-wtpm_64-rep_3.csv 5 16",,,,"Date:","28 Oct 2019 16:25:54 UTC"

"total cpu usage",,,,,,"dsk/total",,"net/total",,"paging",,"system",
"usr","sys","idl","wai","hiq","siq","read","writ","recv","send","in","out","int","csw"
0.713,1.224,97.850,0.045,0.0,0.168,7364.297,4216315.411,0.0,0.0,0.0,0.0,2835.367,8224.945
0.927,0.175,98.898,0.0,0.0,0.0,0.0,1638.400,18048.800,14880.800,0.0,0.0,241.600,725.600
11.790,13.224,71.629,0.0,0.0,3.356,0.0,1638.400,3665603.0,3680922.200,0.0,0.0,18853.200,55337.600
9.037,13.527,73.799,0.0,0.0,3.637,0.0,1638.400,3708749.400,3717066.200,0.0,0.0,19766.400,56824.400
7.017,14.147,75.385,0.057,0.0,3.394,0.0,36044.800,3808215.400,3814619.800,0.0,0.0,20323.400,58438.400
6.831,13.404,75.736,0.0,0.0,4.030,0.0,1638.400,3784202.400,3790899.400,0.0,0.0,20187.400,57821.800
7.304,13.706,75.719,0.0,0.0,3.271,0.0,819.200,3835694.0,3841342.400,0.0,0.0,20576.200,59194.600
6.206,13.432,76.849,0.0,0.0,3.514,0.0,13107.200,3884762.0,3890134.400,0.0,0.0,20954.200,59620.0
6.356,13.023,77.429,0.0,0.0,3.192,0.0,819.200,3783650.0,3790789.800,0.0,0.0,20910.0,58833.800
5.674,12.917,78.044,0.0,0.0,3.365,0.0,819.200,3888087.400,3891257.600,0.0,0.0,20881.0,59469.800
5.621,13.069,78.021,0.0,0.0,3.288,0.0,1638.400,3862641.800,3869412.400,0.0,0.0,21229.800,59708.800
5.804,13.469,77.825,0.056,0.0,2.846,0.0,30310.400,3882276.200,3884006.0,0.0,0.0,21542.800,60253.200
5.158,13.465,78.840,0.0,0.0,2.537,0.0,819.200,3897266.600,3902626.800,0.0,0.0,21803.200,60892.800
5.459,13.253,78.700,0.0,0.0,2.589,0.0,6553.600,3996562.800,3996764.400,0.0,0.0,22153.600,62084.800
4.801,12.605,79.366,0.0,0.0,3.229,0.0,2457.600,3882473.600,3886220.200,0.0,0.0,22044.400,60892.200
5.142,13.324,78.352,0.0,0.0,3.182,0.0,819.200,3912168.200,3918882.800,0.0,0.0,21239.0,59460.400
0.125,0.0,99.875,0.0,0.0,0.0,0.0,1638.400,6903.200,3249.200,0.0,0.0,47.800,139.400
