"Dstat 0.7.2 CSV output"
"Author:","Dag Wieers <dag@wieers.com>",,,,"URL:","http://dag.wieers.com/home-made/dstat/"
"Host:","Middleware2",,,,"User:","mstevan"
"Cmdline:","dstat --output /home/mstevan/logs/experiment_3.4/dstat/vs_64-vcpr_8-wtpm_8-rep_2.csv 5 16",,,,"Date:","28 Oct 2019 15:56:02 UTC"

"total cpu usage",,,,,,"dsk/total",,"net/total",,"paging",,"system",
"usr","sys","idl","wai","hiq","siq","read","writ","recv","send","in","out","int","csw"
0.629,1.053,98.136,0.046,0.0,0.136,7582.648,4341122.376,0.0,0.0,0.0,0.0,2482.898,7239.586
0.853,0.226,98.871,0.0,0.0,0.050,0.0,1638.400,50753.0,45995.200,0.0,0.0,291.200,1000.400
7.416,5.355,86.426,0.0,0.0,0.803,0.0,1638.400,3031192.800,3026504.400,0.0,0.0,11887.800,37252.600
5.878,5.477,87.978,0.0,0.0,0.668,0.0,819.200,3135719.800,3133449.600,0.0,0.0,13161.200,38884.600
2.410,5.191,91.949,0.0,0.0,0.450,0.0,2457.600,3126342.600,3122293.600,0.0,0.0,14610.800,38314.0
2.256,5.097,92.222,0.0,0.0,0.425,0.0,2457.600,3153061.800,3148404.600,0.0,0.0,14447.200,38671.400
2.319,5.349,91.831,0.0,0.0,0.501,0.0,819.200,3100690.800,3098266.200,0.0,0.0,15339.0,37685.600
5.970,5.174,88.007,0.053,0.0,0.796,0.0,45056.0,3131143.400,3126926.0,0.0,0.0,14857.0,38145.600
2.583,5.087,91.671,0.0,0.0,0.659,0.0,1638.400,3068964.400,3064529.400,0.0,0.0,15181.600,37164.0
2.833,5.509,91.159,0.0,0.0,0.498,0.0,819.200,3146853.600,3144454.200,0.0,0.0,15256.600,38733.400
2.063,5.660,91.775,0.0,0.0,0.503,0.0,1638.400,3230816.0,3226144.600,0.0,0.0,14774.800,39729.400
2.063,5.529,91.984,0.0,0.0,0.423,0.0,819.200,3204117.200,3202309.200,0.0,0.0,15320.600,39356.0
2.182,5.757,91.562,0.0,0.0,0.499,0.0,1638.400,3158635.200,3154261.200,0.0,0.0,14786.0,38671.200
1.953,5.383,92.216,0.053,0.0,0.396,0.0,23756.800,3088197.800,3083737.400,0.0,0.0,15021.800,37289.600
2.145,5.244,92.214,0.0,0.0,0.397,0.0,1638.400,3203600.400,3201438.0,0.0,0.0,15497.400,39132.200
2.071,5.070,92.461,0.0,0.0,0.398,0.0,1638.400,3100663.400,3096321.800,0.0,0.0,14689.400,38195.200
0.050,0.025,99.925,0.0,0.0,0.0,0.0,1638.400,6443.200,2022.400,0.0,0.0,41.0,128.400
