"Dstat 0.7.2 CSV output"
"Author:","Dag Wieers <dag@wieers.com>",,,,"URL:","http://dag.wieers.com/home-made/dstat/"
"Host:","Middleware2",,,,"User:","mstevan"
"Cmdline:","dstat --output /home/mstevan/logs/experiment_3.4/dstat/vs_64-vcpr_8-wtpm_32-rep_1.csv 5 16",,,,"Date:","28 Oct 2019 16:00:18 UTC"

"total cpu usage",,,,,,"dsk/total",,"net/total",,"paging",,"system",
"usr","sys","idl","wai","hiq","siq","read","writ","recv","send","in","out","int","csw"
0.637,1.066,98.114,0.046,0.0,0.137,7550.657,4322834.825,0.0,0.0,0.0,0.0,2520.132,7341.834
0.727,0.426,98.746,0.0,0.0,0.100,0.0,1638.400,53244.0,49578.0,0.0,0.0,455.600,1309.200
9.614,10.193,78.347,0.0,0.0,1.846,0.0,1638.400,2880073.0,2875601.600,0.0,0.0,17298.800,52551.200
6.086,9.320,82.867,0.0,0.0,1.727,0.0,819.200,2960423.200,2958240.800,0.0,0.0,18112.200,54992.800
4.652,9.442,84.373,0.055,0.0,1.478,0.0,36044.800,3060512.0,3056164.800,0.0,0.0,18877.400,56788.400
4.103,9.582,85.128,0.0,0.0,1.188,0.0,12288.0,3006513.0,3004496.400,0.0,0.0,18340.600,55558.0
3.902,9.041,85.683,0.0,0.0,1.374,0.0,1638.400,2999712.200,2995188.200,0.0,0.0,18304.400,55441.200
3.797,9.710,85.245,0.0,0.0,1.248,0.0,12288.0,2990081.400,2985712.600,0.0,0.0,18308.800,55662.200
3.603,9.351,85.479,0.0,0.0,1.568,0.0,819.200,2980689.200,2978480.200,0.0,0.0,18249.800,55233.200
3.734,9.839,85.146,0.0,0.0,1.281,0.0,1638.400,3034943.800,3030510.800,0.0,0.0,18482.800,56010.800
4.320,9.625,84.906,0.055,0.0,1.094,0.0,19660.800,2996816.400,2992402.800,0.0,0.0,18349.400,55666.400
3.938,9.684,85.136,0.0,0.0,1.241,0.0,819.200,3016841.0,3014122.0,0.0,0.0,18535.800,56199.0
3.943,9.981,84.716,0.0,0.0,1.360,0.0,1638.400,3012738.800,3008383.0,0.0,0.0,18381.0,55633.200
3.859,9.414,85.523,0.0,0.0,1.204,0.0,5734.400,2970561.600,2966526.400,0.0,0.0,17997.800,54855.400
4.055,9.759,84.996,0.0,0.0,1.190,0.0,2457.600,3013748.600,3011343.400,0.0,0.0,18484.800,56071.800
3.569,8.799,86.407,0.0,0.0,1.226,0.0,1638.400,2889461.200,2886320.400,0.0,0.0,17800.0,53754.800
0.025,0.075,99.900,0.0,0.0,0.0,0.0,819.200,3809.800,1651.0,0.0,0.0,46.0,140.0
