"Dstat 0.7.2 CSV output"
"Author:","Dag Wieers <dag@wieers.com>",,,,"URL:","http://dag.wieers.com/home-made/dstat/"
"Host:","Middleware2",,,,"User:","mstevan"
"Cmdline:","dstat --output /home/mstevan/logs/experiment_3.4/dstat/vs_64-vcpr_4-wtpm_32-rep_4.csv 5 16",,,,"Date:","28 Oct 2019 15:47:30 UTC"

"total cpu usage",,,,,,"dsk/total",,"net/total",,"paging",,"system",
"usr","sys","idl","wai","hiq","siq","read","writ","recv","send","in","out","int","csw"
0.611,1.017,98.194,0.046,0.0,0.131,7647.427,4378150.595,0.0,0.0,0.0,0.0,2378.744,6961.909
0.676,0.275,99.024,0.0,0.0,0.025,0.0,1638.400,31238.400,27838.0,0.0,0.0,328.600,952.800
7.543,6.610,84.995,0.0,0.0,0.853,0.0,819.200,2013866.600,2012135.0,0.0,0.0,13118.600,41172.600
3.948,6.508,89.010,0.0,0.0,0.533,0.0,1638.400,2324328.800,2319970.800,0.0,0.0,15485.400,47688.600
3.212,6.530,89.594,0.0,0.0,0.664,0.0,2457.600,2359734.0,2355404.0,0.0,0.0,15695.400,48409.0
3.079,6.504,89.673,0.053,0.0,0.690,0.0,33587.200,2357259.0,2355351.0,0.0,0.0,15725.600,48599.600
2.778,6.410,90.118,0.0,0.0,0.694,0.0,10649.600,2400436.200,2395890.800,0.0,0.0,15982.200,49379.200
2.893,6.396,89.915,0.0,0.0,0.796,0.0,12288.0,2355799.600,2351567.200,0.0,0.0,15611.800,48464.0
2.797,6.233,90.410,0.0,0.0,0.559,0.0,819.200,2445349.800,2443375.600,0.0,0.0,16200.600,50329.800
2.510,7.741,89.115,0.0,0.0,0.634,0.0,1638.400,2386193.800,2381689.0,0.0,0.0,15798.0,49006.600
2.751,6.905,89.868,0.0,0.0,0.476,0.0,819.200,2394241.800,2391626.600,0.0,0.0,15876.600,49230.800
2.690,7.199,89.531,0.053,0.0,0.527,0.0,19660.800,2382585.200,2378734.800,0.0,0.0,15787.800,48933.400
2.706,6.764,89.920,0.0,0.0,0.610,0.0,1638.400,2384110.0,2380274.800,0.0,0.0,15772.600,48990.600
2.915,6.387,90.114,0.0,0.0,0.583,0.0,5734.400,2353749.400,2351506.600,0.0,0.0,15576.0,48416.200
3.002,6.296,89.931,0.0,0.0,0.770,0.0,2457.600,2290451.200,2286203.800,0.0,0.0,15131.600,47091.800
2.884,6.166,90.368,0.0,0.0,0.582,0.0,1638.400,2260847.600,2257722.600,0.0,0.0,14975.800,46642.200
0.050,0.0,99.950,0.0,0.0,0.0,0.0,819.200,3358.200,1167.0,0.0,0.0,44.800,127.800
