"Dstat 0.7.2 CSV output"
"Author:","Dag Wieers <dag@wieers.com>",,,,"URL:","http://dag.wieers.com/home-made/dstat/"
"Host:","Middleware2",,,,"User:","mstevan"
"Cmdline:","dstat --output /home/mstevan/logs/experiment_3.4/dstat/vs_64-vcpr_32-wtpm_64-rep_3.csv 5 16",,,,"Date:","28 Oct 2019 16:42:58 UTC"

"total cpu usage",,,,,,"dsk/total",,"net/total",,"paging",,"system",
"usr","sys","idl","wai","hiq","siq","read","writ","recv","send","in","out","int","csw"
0.764,1.335,97.661,0.045,0.0,0.196,7245.081,4148172.563,0.0,0.0,0.0,0.0,3009.066,8718.616
0.727,0.376,98.847,0.0,0.0,0.050,0.0,1638.400,30452.0,26482.0,0.0,0.0,323.400,926.600
12.706,15.651,66.850,0.058,0.0,4.736,0.0,36044.800,4528241.200,4529916.0,0.0,0.0,15758.0,51401.600
7.281,15.856,72.432,0.0,0.0,4.432,0.0,1638.400,4855738.800,4853960.400,0.0,0.0,18109.600,56369.200
8.480,16.614,70.130,0.0,0.0,4.776,0.0,2457.600,4668894.200,4665368.0,0.0,0.0,17062.200,53485.800
8.106,16.851,70.163,0.0,0.0,4.881,0.0,819.200,4715916.400,4714626.0,0.0,0.0,16998.0,53982.600
7.376,15.505,72.404,0.0,0.0,4.715,0.0,1638.400,4717815.0,4715334.200,0.0,0.0,17575.0,54739.200
7.354,15.743,72.623,0.0,0.0,4.280,0.0,13926.400,4780653.600,4776349.400,0.0,0.0,17984.0,55893.200
7.176,15.844,71.958,0.0,0.0,5.023,0.0,2457.600,4818709.200,4816455.200,0.0,0.0,17714.0,55353.400
6.309,16.289,72.527,0.057,0.0,4.818,0.0,31129.600,4786169.600,4783666.200,0.0,0.0,18166.400,55932.200
6.126,15.531,74.403,0.0,0.0,3.940,0.0,1638.400,4822361.400,4817362.200,0.0,0.0,18299.0,56487.200
5.718,16.038,74.414,0.0,0.0,3.831,0.0,819.200,4754455.600,4754839.400,0.0,0.0,18448.0,56407.400
6.152,16.121,73.341,0.0,0.0,4.386,0.0,1638.400,4835183.400,4831042.800,0.0,0.0,18493.600,56788.600
5.887,15.279,74.268,0.0,0.0,4.566,0.0,5734.400,4835867.400,4834288.200,0.0,0.0,18546.0,56805.600
5.650,15.916,74.419,0.0,0.0,4.015,0.0,2457.600,4867709.0,4864539.600,0.0,0.0,18735.800,57481.0
5.441,14.633,75.716,0.029,0.0,4.181,0.0,16384.0,4815610.200,4813409.400,0.0,0.0,17972.400,55905.400
0.931,0.855,97.988,0.0,0.0,0.226,0.0,819.200,305946.600,319095.0,0.0,0.0,2238.800,6419.600
