"Dstat 0.7.2 CSV output"
"Author:","Dag Wieers <dag@wieers.com>",,,,"URL:","http://dag.wieers.com/home-made/dstat/"
"Host:","Middleware2",,,,"User:","mstevan"
"Cmdline:","dstat --output /home/mstevan/logs/experiment_3.4/dstat/vs_64-vcpr_4-wtpm_64-rep_4.csv 5 16",,,,"Date:","28 Oct 2019 15:53:11 UTC"

"total cpu usage",,,,,,"dsk/total",,"net/total",,"paging",,"system",
"usr","sys","idl","wai","hiq","siq","read","writ","recv","send","in","out","int","csw"
0.624,1.042,98.153,0.046,0.0,0.135,7604.115,4353392.304,0.0,0.0,0.0,0.0,2452.048,7160.251
0.802,0.351,98.772,0.0,0.0,0.075,0.0,819.200,39535.0,43249.0,0.0,0.0,437.600,1282.600
7.232,6.169,85.190,0.0,0.0,1.409,0.0,2457.600,2024066.200,2100718.800,0.0,0.0,15549.400,42125.600
5.074,7.558,86.284,0.0,0.0,1.084,0.0,819.200,2404570.400,2432283.200,0.0,0.0,18870.0,50152.0
3.538,6.917,88.508,0.027,0.0,1.011,0.0,34406.400,2369903.600,2401284.600,0.0,0.0,18600.200,49689.600
3.541,7.056,88.081,0.0,0.0,1.321,0.0,9011.200,2414805.600,2443608.0,0.0,0.0,19004.800,50569.600
3.275,7.079,88.457,0.0,0.0,1.189,0.0,3276.800,2457727.400,2484550.200,0.0,0.0,19256.0,51646.200
3.477,6.401,88.804,0.0,0.0,1.317,0.0,9830.400,2387569.600,2430335.200,0.0,0.0,18751.600,50226.800
3.307,6.931,88.492,0.0,0.0,1.270,0.0,1638.400,2401532.400,2437680.0,0.0,0.0,18818.600,50453.600
2.994,7.747,88.051,0.0,0.0,1.208,0.0,819.200,2395767.200,2428115.600,0.0,0.0,18724.600,50238.200
2.883,6.700,89.028,0.053,0.0,1.335,0.0,18022.400,2419410.0,2451691.200,0.0,0.0,18811.400,50599.0
2.907,6.686,89.086,0.0,0.0,1.321,0.0,1638.400,2348955.0,2388275.400,0.0,0.0,18282.0,49307.0
3.324,7.254,88.367,0.0,0.0,1.055,0.0,819.200,2400198.400,2435874.600,0.0,0.0,18674.800,50213.400
2.533,6.400,90.133,0.0,0.0,0.933,0.0,5734.400,2371754.600,2411370.0,0.0,0.0,18404.800,49701.600
3.208,7.025,88.945,0.0,0.0,0.822,0.0,2457.600,2436589.200,2465304.0,0.0,0.0,18907.400,50889.800
2.794,6.932,89.220,0.0,0.0,1.054,0.0,1638.400,2382572.600,2407325.0,0.0,0.0,18426.200,49773.400
0.025,0.025,99.825,0.125,0.0,0.0,0.0,17203.200,6375.200,1968.800,0.0,0.0,41.800,139.400
