"Dstat 0.7.2 CSV output"
"Author:","Dag Wieers <dag@wieers.com>",,,,"URL:","http://dag.wieers.com/home-made/dstat/"
"Host:","Middleware2",,,,"User:","mstevan"
"Cmdline:","dstat --output /home/mstevan/logs/experiment_3.4/dstat/vs_64-vcpr_32-wtpm_64-rep_2.csv 5 16",,,,"Date:","28 Oct 2019 16:41:33 UTC"

"total cpu usage",,,,,,"dsk/total",,"net/total",,"paging",,"system",
"usr","sys","idl","wai","hiq","siq","read","writ","recv","send","in","out","int","csw"
0.758,1.321,97.684,0.045,0.0,0.192,7254.866,4153765.274,0.0,0.0,0.0,0.0,2992.841,8668.090
0.904,0.176,98.921,0.0,0.0,0.0,0.0,33587.200,35530.200,32148.0,0.0,0.0,358.800,1037.0
11.987,16.984,65.656,0.0,0.0,5.373,0.0,13926.400,4512543.400,4512519.600,0.0,0.0,15406.200,50587.600
6.707,15.925,73.231,0.0,0.0,4.138,0.0,819.200,4782668.400,4781008.600,0.0,0.0,18355.0,56018.0
8.367,16.275,70.516,0.0,0.0,4.842,0.0,3276.800,4770616.400,4767511.200,0.0,0.0,17534.200,54673.0
7.178,15.566,72.788,0.0,0.0,4.468,0.0,1638.400,4733805.800,4731912.0,0.0,0.0,17813.0,54963.0
6.784,16.183,72.521,0.0,0.0,4.513,0.0,4915.200,4843749.200,4841864.600,0.0,0.0,18052.0,55817.0
6.524,15.773,73.210,0.029,0.0,4.465,0.0,27033.600,4777281.400,4775807.0,0.0,0.0,17992.600,55463.200
6.302,15.309,73.871,0.0,0.0,4.518,0.0,819.200,4828891.600,4826071.800,0.0,0.0,17977.800,55720.200
5.381,15.741,74.906,0.0,0.0,3.971,0.0,1638.400,4791721.800,4788972.800,0.0,0.0,18817.600,56934.200
5.112,14.848,76.565,0.0,0.0,3.475,0.0,1638.400,4769279.0,4766438.0,0.0,0.0,19118.800,57366.400
5.637,14.764,75.823,0.0,0.0,3.777,0.0,819.200,4903561.600,4900988.600,0.0,0.0,19363.200,58463.800
5.633,15.613,74.578,0.0,0.0,4.175,0.0,1638.400,4877126.400,4873337.400,0.0,0.0,19358.800,58464.800
5.756,14.666,75.296,0.058,0.0,4.223,0.0,23756.800,4870324.400,4866217.800,0.0,0.0,19003.600,57930.200
5.414,15.084,75.130,0.0,0.0,4.372,0.0,2457.600,4831305.400,4830582.200,0.0,0.0,18575.200,56847.200
5.499,14.116,76.417,0.0,0.0,3.968,0.0,1638.400,4769114.800,4766948.600,0.0,0.0,18537.400,56565.400
0.100,0.025,99.875,0.0,0.0,0.0,0.0,1638.400,8909.600,3275.600,0.0,0.0,53.200,154.200
