"Dstat 0.7.2 CSV output"
"Author:","Dag Wieers <dag@wieers.com>",,,,"URL:","http://dag.wieers.com/home-made/dstat/"
"Host:","Middleware2",,,,"User:","mstevan"
"Cmdline:","dstat --output /home/mstevan/logs/experiment_3.4/dstat/vs_64-vcpr_4-wtpm_8-rep_4.csv 5 16",,,,"Date:","28 Oct 2019 15:41:49 UTC"

"total cpu usage",,,,,,"dsk/total",,"net/total",,"paging",,"system",
"usr","sys","idl","wai","hiq","siq","read","writ","recv","send","in","out","int","csw"
0.599,0.992,98.234,0.047,0.0,0.129,7691.231,4403188.608,0.0,0.0,0.0,0.0,2312.644,6746.827
0.878,0.276,98.821,0.0,0.0,0.025,0.0,819.200,56103.200,53982.800,0.0,0.0,408.800,1344.800
7.084,6.421,85.752,0.0,0.0,0.743,0.0,1638.400,2603884.0,2599411.400,0.0,0.0,11841.600,47354.200
3.850,6.487,89.109,0.0,0.0,0.554,0.0,1638.400,2746343.0,2741835.800,0.0,0.0,12681.200,50682.200
2.720,6.443,90.441,0.0,0.0,0.396,0.0,2457.600,2823817.800,2821555.600,0.0,0.0,12939.800,52160.0
3.232,6.516,89.622,0.0,0.0,0.631,0.0,1638.400,2746758.0,2742379.200,0.0,0.0,12606.400,51037.600
2.914,6.358,90.146,0.053,0.0,0.530,0.0,33587.200,2779161.400,2774687.800,0.0,0.0,12840.200,51511.400
2.558,6.355,90.559,0.0,0.0,0.527,0.0,9011.200,2745095.600,2742824.0,0.0,0.0,12578.400,50842.200
2.823,6.332,90.317,0.0,0.0,0.528,0.0,1638.400,2762243.800,2757762.400,0.0,0.0,12635.800,51073.800
2.722,6.977,89.931,0.0,0.0,0.370,0.0,819.200,2827718.800,2825538.200,0.0,0.0,12992.200,52232.400
2.912,6.899,89.769,0.0,0.0,0.420,0.0,1638.400,2766641.200,2762118.800,0.0,0.0,12709.600,51149.400
2.810,5.912,90.801,0.0,0.0,0.477,0.0,1638.400,2788605.0,2784244.0,0.0,0.0,12802.800,51685.600
2.743,6.355,90.322,0.053,0.0,0.527,0.0,26214.400,2729026.0,2726811.0,0.0,0.0,12448.400,50295.0
2.680,6.157,90.738,0.0,0.0,0.425,0.0,5734.400,2810167.200,2805663.200,0.0,0.0,12965.600,52048.200
2.768,6.721,90.037,0.0,0.0,0.474,0.0,3276.800,2791968.400,2787473.200,0.0,0.0,12742.800,51537.0
2.583,5.825,91.223,0.0,0.0,0.369,0.0,819.200,2582096.600,2580318.200,0.0,0.0,11728.400,47477.200
0.025,0.025,99.950,0.0,0.0,0.0,0.0,1638.400,6375.200,1995.200,0.0,0.0,41.200,138.400
