"Dstat 0.7.2 CSV output"
"Author:","Dag Wieers <dag@wieers.com>",,,,"URL:","http://dag.wieers.com/home-made/dstat/"
"Host:","Middleware2",,,,"User:","mstevan"
"Cmdline:","dstat --output /home/mstevan/logs/experiment_3.4/dstat/vs_64-vcpr_32-wtpm_32-rep_3.csv 5 16",,,,"Date:","28 Oct 2019 16:37:17 UTC"

"total cpu usage",,,,,,"dsk/total",,"net/total",,"paging",,"system",
"usr","sys","idl","wai","hiq","siq","read","writ","recv","send","in","out","int","csw"
0.743,1.285,97.746,0.045,0.0,0.182,7284.383,4170637.370,0.0,0.0,0.0,0.0,2950.794,8533.337
0.703,0.276,98.970,0.0,0.0,0.050,0.0,819.200,43953.400,40937.600,0.0,0.0,327.0,981.0
10.888,12.870,72.422,0.0,0.0,3.821,0.0,1638.400,4538964.600,4534504.600,0.0,0.0,12839.400,43786.800
4.429,12.229,80.229,0.029,0.0,3.086,0.0,43417.600,4915935.600,4911145.400,0.0,0.0,14821.600,48347.800
6.876,12.725,77.175,0.0,0.0,3.224,0.0,2457.600,4718805.800,4716814.400,0.0,0.0,14073.400,46496.800
6.443,12.773,77.619,0.0,0.0,3.165,0.0,1638.400,4789907.200,4785291.800,0.0,0.0,14082.200,47137.200
5.869,12.797,77.584,0.0,0.0,3.750,0.0,5734.400,4747616.800,4744017.200,0.0,0.0,14089.0,46656.800
5.529,12.060,79.175,0.0,0.0,3.237,0.0,9011.200,4761187.400,4759178.400,0.0,0.0,14221.200,46827.0
4.525,12.578,79.738,0.0,0.0,3.159,0.0,1638.400,4839739.800,4833762.600,0.0,0.0,15151.600,48122.800
4.543,11.897,80.551,0.057,0.0,2.953,0.0,18841.600,4896716.400,4895246.600,0.0,0.0,15356.600,48694.200
4.520,12.493,80.236,0.0,0.0,2.751,0.0,1638.400,4890222.200,4885559.400,0.0,0.0,15360.200,48612.600
4.555,11.877,80.859,0.0,0.0,2.710,0.0,1638.400,4839828.800,4835763.0,0.0,0.0,15391.400,48243.800
4.604,11.509,81.046,0.0,0.0,2.842,0.0,819.200,4871278.200,4869129.600,0.0,0.0,15785.600,49059.200
4.571,12.613,79.797,0.0,0.0,3.019,0.0,5734.400,4823725.0,4818665.400,0.0,0.0,15490.200,48293.600
4.634,12.066,80.559,0.0,0.0,2.741,0.0,3276.800,4985238.0,4981131.400,0.0,0.0,15852.800,49726.800
4.432,11.989,80.426,0.028,0.0,3.125,0.0,23756.800,4826456.0,4824297.400,0.0,0.0,15328.0,47717.200
0.050,0.025,99.925,0.0,0.0,0.0,0.0,1638.400,7304.400,2573.200,0.0,0.0,45.800,133.800
