"Dstat 0.7.2 CSV output"
"Author:","Dag Wieers <dag@wieers.com>",,,,"URL:","http://dag.wieers.com/home-made/dstat/"
"Host:","Middleware2",,,,"User:","mstevan"
"Cmdline:","dstat --output /home/mstevan/logs/experiment_3.4/dstat/vs_64-vcpr_8-wtpm_32-rep_3.csv 5 16",,,,"Date:","28 Oct 2019 16:03:09 UTC"

"total cpu usage",,,,,,"dsk/total",,"net/total",,"paging",,"system",
"usr","sys","idl","wai","hiq","siq","read","writ","recv","send","in","out","int","csw"
0.645,1.084,98.085,0.046,0.0,0.140,7529.496,4310738.771,0.0,0.0,0.0,0.0,2556.394,7451.449
0.577,0.201,99.197,0.0,0.0,0.025,0.0,35225.600,32570.0,28815.200,0.0,0.0,342.800,973.600
10.058,10.114,77.855,0.0,0.0,1.973,0.0,819.200,2938036.600,2935638.0,0.0,0.0,17712.200,54151.400
7.009,10.182,81.264,0.0,0.0,1.545,0.0,1638.400,3050177.200,3045943.400,0.0,0.0,18639.800,56919.200
4.383,10.309,83.875,0.0,0.0,1.433,0.0,2457.600,3035131.200,3030811.600,0.0,0.0,18306.800,56736.200
4.011,10.318,84.343,0.0,0.0,1.328,0.0,1638.400,3117345.0,3115224.400,0.0,0.0,18955.600,58423.200
4.766,9.614,84.059,0.0,0.0,1.561,0.0,4096.0,3164691.0,3159788.800,0.0,0.0,19009.0,58645.200
4.179,9.560,84.731,0.191,0.0,1.338,0.0,36864.0,3080556.0,3078802.800,0.0,0.0,18719.800,57746.0
4.137,9.266,84.997,0.0,0.0,1.600,0.0,1638.400,3071314.200,3066420.600,0.0,0.0,18376.600,56963.800
4.152,9.915,84.485,0.0,0.0,1.448,0.0,1638.400,3059897.400,3055674.600,0.0,0.0,18606.200,57540.400
4.589,10.025,83.993,0.0,0.0,1.393,0.0,819.200,3101202.200,3099197.400,0.0,0.0,18921.0,58491.600
4.101,10.087,84.090,0.0,0.0,1.722,0.0,1638.400,3078624.200,3073961.200,0.0,0.0,18679.200,57483.800
4.192,10.673,83.480,0.0,0.0,1.655,0.0,1638.400,3141874.400,3137384.0,0.0,0.0,19011.0,58741.800
4.348,9.906,84.232,0.055,0.0,1.458,0.0,21299.200,3078309.600,3076231.200,0.0,0.0,18515.800,57315.0
4.159,10.025,84.302,0.0,0.0,1.515,0.0,3276.800,3145163.200,3140995.400,0.0,0.0,19130.800,58904.400
4.119,9.520,85.025,0.0,0.0,1.337,0.0,819.200,3099451.0,3098198.200,0.0,0.0,18753.200,58191.200
0.050,0.075,99.875,0.0,0.0,0.0,0.0,1638.400,6375.200,2008.400,0.0,0.0,48.600,124.800
