"Dstat 0.7.2 CSV output"
"Author:","Dag Wieers <dag@wieers.com>",,,,"URL:","http://dag.wieers.com/home-made/dstat/"
"Host:","Middleware2",,,,"User:","mstevan"
"Cmdline:","dstat --output /home/mstevan/logs/experiment_3.4/dstat/vs_64-vcpr_8-wtpm_8-rep_3.csv 5 16",,,,"Date:","28 Oct 2019 15:57:27 UTC"

"total cpu usage",,,,,,"dsk/total",,"net/total",,"paging",,"system",
"usr","sys","idl","wai","hiq","siq","read","writ","recv","send","in","out","int","csw"
0.632,1.057,98.128,0.046,0.0,0.136,7571.953,4335007.082,0.0,0.0,0.0,0.0,2496.348,7273.860
0.777,0.201,99.023,0.0,0.0,0.0,0.0,1638.400,56868.800,52043.600,0.0,0.0,310.800,1075.800
6.521,5.184,87.600,0.053,0.0,0.641,0.0,43417.600,2927681.400,2923753.200,0.0,0.0,11046.0,36270.0
7.179,5.391,86.736,0.0,0.0,0.694,0.0,819.200,3076786.800,3074589.0,0.0,0.0,12471.200,37817.600
2.181,4.947,92.473,0.0,0.0,0.399,0.0,2457.600,3021791.0,3017424.0,0.0,0.0,12371.200,37090.0
2.597,5.248,91.704,0.0,0.0,0.451,0.0,1638.400,3127070.600,3122527.0,0.0,0.0,12603.800,38888.200
2.442,4.936,92.197,0.0,0.0,0.425,0.0,3276.800,3098684.800,3096491.200,0.0,0.0,12441.800,38225.200
2.520,5.172,91.830,0.0,0.0,0.477,0.0,9830.400,3139956.0,3135495.200,0.0,0.0,12302.0,38999.200
2.696,4.995,91.728,0.053,0.0,0.529,0.0,18841.600,3120410.400,3116001.800,0.0,0.0,12462.600,38611.200
2.441,5.174,91.987,0.0,0.0,0.398,0.0,819.200,3126705.600,3124525.400,0.0,0.0,12037.200,38826.600
2.473,4.839,92.263,0.0,0.0,0.425,0.0,1638.400,3103921.0,3099450.0,0.0,0.0,12292.200,38565.200
2.209,4.604,92.735,0.0,0.0,0.452,0.0,819.200,3087207.400,3085040.0,0.0,0.0,13747.600,37748.0
2.554,4.496,92.498,0.0,0.0,0.452,0.0,1638.400,3064465.800,3059901.800,0.0,0.0,13260.400,37535.200
2.350,5.280,91.843,0.0,0.0,0.528,0.0,5734.400,3102915.0,3098700.0,0.0,0.0,14476.800,37484.0
2.199,5.245,92.053,0.053,0.0,0.450,0.0,22118.400,3146358.400,3144179.0,0.0,0.0,13844.200,38379.800
2.393,5.548,91.638,0.0,0.0,0.421,0.0,1638.400,3032844.400,3028587.800,0.0,0.0,12446.0,37855.200
0.025,0.025,99.950,0.0,0.0,0.0,0.0,1638.400,6459.600,2150.800,0.0,0.0,39.0,123.200
