"Dstat 0.7.2 CSV output"
"Author:","Dag Wieers <dag@wieers.com>",,,,"URL:","http://dag.wieers.com/home-made/dstat/"
"Host:","Middleware2",,,,"User:","mstevan"
"Cmdline:","dstat --output /home/mstevan/logs/experiment_3.4/dstat/vs_64-vcpr_4-wtpm_8-rep_2.csv 5 16",,,,"Date:","28 Oct 2019 15:38:58 UTC"

"total cpu usage",,,,,,"dsk/total",,"net/total",,"paging",,"system",
"usr","sys","idl","wai","hiq","siq","read","writ","recv","send","in","out","int","csw"
0.593,0.980,98.252,0.047,0.0,0.128,7713.327,4415818.045,0.0,0.0,0.0,0.0,2289.229,6649.061
0.627,0.175,99.173,0.0,0.0,0.025,0.0,1638.400,31238.800,26838.400,0.0,0.0,276.600,827.400
6.937,6.804,85.486,0.0,0.0,0.774,0.0,819.200,2389701.600,2387437.200,0.0,0.0,11686.200,44169.0
4.682,5.986,88.614,0.053,0.0,0.665,0.0,33587.200,2500070.0,2495672.0,0.0,0.0,12037.800,46340.200
2.865,6.419,90.106,0.0,0.0,0.610,0.0,1638.400,2639154.800,2636810.400,0.0,0.0,12723.200,49055.200
3.474,6.020,89.764,0.0,0.0,0.743,0.0,2457.600,2448696.400,2444922.0,0.0,0.0,11942.200,45480.800
2.943,6.601,89.767,0.0,0.0,0.689,0.0,1638.400,2638041.0,2633573.800,0.0,0.0,12947.600,48980.0
2.879,6.735,89.857,0.0,0.0,0.528,0.0,11468.800,2594749.400,2592535.400,0.0,0.0,12568.0,47927.0
2.892,6.607,90.050,0.0,0.0,0.451,0.0,1638.400,2716821.800,2712283.400,0.0,0.0,13245.200,50431.600
2.727,5.798,90.839,0.026,0.0,0.609,0.0,18841.600,2569827.0,2565704.0,0.0,0.0,12507.600,47557.600
2.613,6.519,90.367,0.0,0.0,0.501,0.0,8192.0,2578744.0,2576417.0,0.0,0.0,12519.200,47825.600
2.826,6.471,90.359,0.0,0.0,0.343,0.0,1638.400,2647575.600,2643218.400,0.0,0.0,12780.200,49031.200
2.638,6.155,90.701,0.0,0.0,0.506,0.0,819.200,2668315.200,2665742.600,0.0,0.0,13029.600,49603.200
2.727,6.089,90.495,0.0,0.0,0.688,0.0,6553.600,2664059.600,2659943.400,0.0,0.0,13006.400,49600.0
2.895,6.507,90.146,0.0,0.0,0.452,0.0,2457.600,2675428.600,2670842.200,0.0,0.0,12987.400,49569.600
2.545,5.992,90.774,0.0,0.0,0.689,0.0,819.200,2576987.400,2575079.400,0.0,0.0,12462.600,47609.400
0.075,0.050,99.800,0.075,0.0,0.0,0.0,18022.400,6469.600,2048.800,0.0,0.0,46.400,135.400
