"Dstat 0.7.2 CSV output"
"Author:","Dag Wieers <dag@wieers.com>",,,,"URL:","http://dag.wieers.com/home-made/dstat/"
"Host:","Middleware2",,,,"User:","mstevan"
"Cmdline:","dstat --output /home/mstevan/logs/experiment_3.4/dstat/vs_64-vcpr_8-wtpm_64-rep_4.csv 5 16",,,,"Date:","28 Oct 2019 16:10:15 UTC"

"total cpu usage",,,,,,"dsk/total",,"net/total",,"paging",,"system",
"usr","sys","idl","wai","hiq","siq","read","writ","recv","send","in","out","int","csw"
0.666,1.129,98.010,0.046,0.0,0.149,7477.077,4280775.938,0.0,0.0,0.0,0.0,2659.136,7735.223
0.802,0.401,98.746,0.0,0.0,0.050,0.0,1638.400,34368.800,32290.400,0.0,0.0,411.600,1132.600
9.617,10.137,77.104,0.082,0.0,3.060,0.0,38502.400,2858854.800,2900830.800,0.0,0.0,19676.400,54257.0
6.349,9.606,81.554,0.0,0.0,2.490,0.0,18022.400,2998551.600,3018997.200,0.0,0.0,21634.0,57953.200
4.694,9.415,83.667,0.0,0.0,2.223,0.0,4096.0,3144423.0,3159469.0,0.0,0.0,22676.200,60526.200
4.243,10.238,83.274,0.0,0.0,2.245,0.0,819.200,3135393.200,3157136.600,0.0,0.0,22664.400,60557.600
4.081,9.331,84.657,0.0,0.0,1.931,0.0,4096.0,3061342.0,3077792.600,0.0,0.0,22300.800,59315.400
4.210,10.158,83.406,0.0,0.0,2.227,0.0,9830.400,3123180.800,3139652.0,0.0,0.0,22726.200,60519.200
4.105,10.169,83.551,0.054,0.0,2.121,0.0,27033.600,3072876.800,3090683.800,0.0,0.0,22271.600,59453.200
3.752,9.625,84.502,0.0,0.0,2.121,0.0,1638.400,3060853.400,3080916.600,0.0,0.0,22369.200,59279.0
4.255,10.584,83.248,0.0,0.0,1.912,0.0,819.200,3114757.600,3130640.600,0.0,0.0,22640.200,60249.600
4.087,8.850,85.304,0.0,0.0,1.759,0.0,1638.400,2958651.200,2975467.0,0.0,0.0,21949.200,58048.600
3.904,9.801,84.548,0.0,0.0,1.747,0.0,1638.400,3084533.200,3100322.800,0.0,0.0,22519.800,59894.200
4.018,9.965,84.198,0.0,0.0,1.819,0.0,4915.200,3025450.400,3048396.600,0.0,0.0,22379.600,59058.200
3.977,10.079,83.983,0.027,0.0,1.934,0.0,20480.0,3053735.400,3068662.400,0.0,0.0,22455.600,59494.400
4.210,9.071,84.872,0.0,0.0,1.847,0.0,10649.600,2870390.200,2893118.0,0.0,0.0,21278.0,56361.600
0.025,0.0,99.975,0.0,0.0,0.0,0.0,819.200,3277.0,1139.800,0.0,0.0,42.600,122.200
