PING 10.0.0.4 (10.0.0.4) 56(84) bytes of data.
64 bytes from 10.0.0.4: icmp_seq=1 ttl=64 time=0.546 ms
64 bytes from 10.0.0.4: icmp_seq=2 ttl=64 time=0.915 ms
64 bytes from 10.0.0.4: icmp_seq=3 ttl=64 time=9.21 ms
64 bytes from 10.0.0.4: icmp_seq=4 ttl=64 time=0.495 ms
64 bytes from 10.0.0.4: icmp_seq=5 ttl=64 time=1.09 ms
64 bytes from 10.0.0.4: icmp_seq=6 ttl=64 time=0.607 ms
64 bytes from 10.0.0.4: icmp_seq=7 ttl=64 time=0.658 ms
64 bytes from 10.0.0.4: icmp_seq=8 ttl=64 time=0.745 ms
64 bytes from 10.0.0.4: icmp_seq=9 ttl=64 time=0.335 ms
64 bytes from 10.0.0.4: icmp_seq=10 ttl=64 time=0.414 ms
64 bytes from 10.0.0.4: icmp_seq=11 ttl=64 time=0.595 ms
64 bytes from 10.0.0.4: icmp_seq=12 ttl=64 time=0.700 ms
64 bytes from 10.0.0.4: icmp_seq=13 ttl=64 time=0.317 ms
64 bytes from 10.0.0.4: icmp_seq=14 ttl=64 time=0.598 ms
64 bytes from 10.0.0.4: icmp_seq=15 ttl=64 time=0.577 ms
64 bytes from 10.0.0.4: icmp_seq=16 ttl=64 time=0.598 ms

--- 10.0.0.4 ping statistics ---
16 packets transmitted, 16 received, 0% packet loss, time 76815ms
rtt min/avg/max/mdev = 0.317/1.151/9.219/2.091 ms
