PING 10.0.0.4 (10.0.0.4) 56(84) bytes of data.
64 bytes from 10.0.0.4: icmp_seq=1 ttl=64 time=0.735 ms
64 bytes from 10.0.0.4: icmp_seq=2 ttl=64 time=1.09 ms
64 bytes from 10.0.0.4: icmp_seq=3 ttl=64 time=0.722 ms
64 bytes from 10.0.0.4: icmp_seq=4 ttl=64 time=0.790 ms
64 bytes from 10.0.0.4: icmp_seq=5 ttl=64 time=0.697 ms
64 bytes from 10.0.0.4: icmp_seq=6 ttl=64 time=0.425 ms
64 bytes from 10.0.0.4: icmp_seq=7 ttl=64 time=0.459 ms
64 bytes from 10.0.0.4: icmp_seq=8 ttl=64 time=0.428 ms
64 bytes from 10.0.0.4: icmp_seq=9 ttl=64 time=0.445 ms
64 bytes from 10.0.0.4: icmp_seq=10 ttl=64 time=2.36 ms
64 bytes from 10.0.0.4: icmp_seq=11 ttl=64 time=1.46 ms
64 bytes from 10.0.0.4: icmp_seq=12 ttl=64 time=0.680 ms
64 bytes from 10.0.0.4: icmp_seq=13 ttl=64 time=0.633 ms
64 bytes from 10.0.0.4: icmp_seq=14 ttl=64 time=0.609 ms
64 bytes from 10.0.0.4: icmp_seq=15 ttl=64 time=1.11 ms
64 bytes from 10.0.0.4: icmp_seq=16 ttl=64 time=0.900 ms

--- 10.0.0.4 ping statistics ---
16 packets transmitted, 16 received, 0% packet loss, time 76311ms
rtt min/avg/max/mdev = 0.425/0.847/2.360/0.478 ms
