PING 10.0.0.4 (10.0.0.4) 56(84) bytes of data.
64 bytes from 10.0.0.4: icmp_seq=1 ttl=64 time=0.559 ms
64 bytes from 10.0.0.4: icmp_seq=2 ttl=64 time=1.03 ms
64 bytes from 10.0.0.4: icmp_seq=3 ttl=64 time=1.17 ms
64 bytes from 10.0.0.4: icmp_seq=4 ttl=64 time=1.71 ms
64 bytes from 10.0.0.4: icmp_seq=5 ttl=64 time=0.365 ms
64 bytes from 10.0.0.4: icmp_seq=6 ttl=64 time=0.418 ms
64 bytes from 10.0.0.4: icmp_seq=7 ttl=64 time=3.51 ms
64 bytes from 10.0.0.4: icmp_seq=8 ttl=64 time=0.499 ms
64 bytes from 10.0.0.4: icmp_seq=9 ttl=64 time=0.563 ms
64 bytes from 10.0.0.4: icmp_seq=10 ttl=64 time=0.773 ms
64 bytes from 10.0.0.4: icmp_seq=11 ttl=64 time=0.728 ms
64 bytes from 10.0.0.4: icmp_seq=12 ttl=64 time=0.954 ms
64 bytes from 10.0.0.4: icmp_seq=13 ttl=64 time=3.66 ms
64 bytes from 10.0.0.4: icmp_seq=14 ttl=64 time=0.430 ms
64 bytes from 10.0.0.4: icmp_seq=15 ttl=64 time=0.485 ms
64 bytes from 10.0.0.4: icmp_seq=16 ttl=64 time=0.942 ms

--- 10.0.0.4 ping statistics ---
16 packets transmitted, 16 received, 0% packet loss, time 76289ms
rtt min/avg/max/mdev = 0.365/1.112/3.660/0.994 ms
