PING 10.0.0.4 (10.0.0.4) 56(84) bytes of data.
64 bytes from 10.0.0.4: icmp_seq=1 ttl=64 time=0.512 ms
64 bytes from 10.0.0.4: icmp_seq=2 ttl=64 time=2.17 ms
64 bytes from 10.0.0.4: icmp_seq=3 ttl=64 time=1.33 ms
64 bytes from 10.0.0.4: icmp_seq=4 ttl=64 time=1.03 ms
64 bytes from 10.0.0.4: icmp_seq=5 ttl=64 time=0.390 ms
64 bytes from 10.0.0.4: icmp_seq=6 ttl=64 time=0.547 ms
64 bytes from 10.0.0.4: icmp_seq=7 ttl=64 time=0.577 ms
64 bytes from 10.0.0.4: icmp_seq=8 ttl=64 time=0.732 ms
64 bytes from 10.0.0.4: icmp_seq=9 ttl=64 time=0.443 ms
64 bytes from 10.0.0.4: icmp_seq=10 ttl=64 time=0.581 ms
64 bytes from 10.0.0.4: icmp_seq=11 ttl=64 time=0.600 ms
64 bytes from 10.0.0.4: icmp_seq=12 ttl=64 time=0.668 ms
64 bytes from 10.0.0.4: icmp_seq=13 ttl=64 time=0.677 ms
64 bytes from 10.0.0.4: icmp_seq=14 ttl=64 time=0.638 ms
64 bytes from 10.0.0.4: icmp_seq=15 ttl=64 time=0.596 ms
64 bytes from 10.0.0.4: icmp_seq=16 ttl=64 time=0.532 ms

--- 10.0.0.4 ping statistics ---
16 packets transmitted, 16 received, 0% packet loss, time 76544ms
rtt min/avg/max/mdev = 0.390/0.752/2.176/0.430 ms
