PING 10.0.0.4 (10.0.0.4) 56(84) bytes of data.
64 bytes from 10.0.0.4: icmp_seq=1 ttl=64 time=1.31 ms
64 bytes from 10.0.0.4: icmp_seq=2 ttl=64 time=4.92 ms
64 bytes from 10.0.0.4: icmp_seq=3 ttl=64 time=3.24 ms
64 bytes from 10.0.0.4: icmp_seq=4 ttl=64 time=0.758 ms
64 bytes from 10.0.0.4: icmp_seq=5 ttl=64 time=2.77 ms
64 bytes from 10.0.0.4: icmp_seq=6 ttl=64 time=1.76 ms
64 bytes from 10.0.0.4: icmp_seq=7 ttl=64 time=0.782 ms
64 bytes from 10.0.0.4: icmp_seq=8 ttl=64 time=0.612 ms
64 bytes from 10.0.0.4: icmp_seq=9 ttl=64 time=5.95 ms
64 bytes from 10.0.0.4: icmp_seq=10 ttl=64 time=0.969 ms
64 bytes from 10.0.0.4: icmp_seq=11 ttl=64 time=0.792 ms
64 bytes from 10.0.0.4: icmp_seq=12 ttl=64 time=0.708 ms
64 bytes from 10.0.0.4: icmp_seq=13 ttl=64 time=0.626 ms
64 bytes from 10.0.0.4: icmp_seq=14 ttl=64 time=2.47 ms
64 bytes from 10.0.0.4: icmp_seq=15 ttl=64 time=0.778 ms
64 bytes from 10.0.0.4: icmp_seq=16 ttl=64 time=0.639 ms

--- 10.0.0.4 ping statistics ---
16 packets transmitted, 16 received, 0% packet loss, time 75835ms
rtt min/avg/max/mdev = 0.612/1.820/5.959/1.601 ms
