PING 10.0.0.4 (10.0.0.4) 56(84) bytes of data.
64 bytes from 10.0.0.4: icmp_seq=1 ttl=64 time=0.546 ms
64 bytes from 10.0.0.4: icmp_seq=2 ttl=64 time=0.606 ms
64 bytes from 10.0.0.4: icmp_seq=3 ttl=64 time=0.846 ms
64 bytes from 10.0.0.4: icmp_seq=4 ttl=64 time=1.03 ms
64 bytes from 10.0.0.4: icmp_seq=5 ttl=64 time=0.760 ms
64 bytes from 10.0.0.4: icmp_seq=6 ttl=64 time=1.02 ms
64 bytes from 10.0.0.4: icmp_seq=7 ttl=64 time=0.456 ms
64 bytes from 10.0.0.4: icmp_seq=8 ttl=64 time=0.361 ms
64 bytes from 10.0.0.4: icmp_seq=9 ttl=64 time=0.445 ms
64 bytes from 10.0.0.4: icmp_seq=10 ttl=64 time=4.35 ms
64 bytes from 10.0.0.4: icmp_seq=11 ttl=64 time=1.28 ms
64 bytes from 10.0.0.4: icmp_seq=12 ttl=64 time=0.316 ms
64 bytes from 10.0.0.4: icmp_seq=13 ttl=64 time=0.813 ms
64 bytes from 10.0.0.4: icmp_seq=14 ttl=64 time=0.371 ms
64 bytes from 10.0.0.4: icmp_seq=15 ttl=64 time=1.25 ms
64 bytes from 10.0.0.4: icmp_seq=16 ttl=64 time=0.684 ms

--- 10.0.0.4 ping statistics ---
16 packets transmitted, 16 received, 0% packet loss, time 76549ms
rtt min/avg/max/mdev = 0.316/0.946/4.350/0.928 ms
