PING 10.0.0.4 (10.0.0.4) 56(84) bytes of data.
64 bytes from 10.0.0.4: icmp_seq=1 ttl=64 time=1.78 ms
64 bytes from 10.0.0.4: icmp_seq=2 ttl=64 time=0.777 ms
64 bytes from 10.0.0.4: icmp_seq=3 ttl=64 time=0.598 ms
64 bytes from 10.0.0.4: icmp_seq=4 ttl=64 time=0.611 ms
64 bytes from 10.0.0.4: icmp_seq=5 ttl=64 time=0.661 ms
64 bytes from 10.0.0.4: icmp_seq=6 ttl=64 time=0.730 ms
64 bytes from 10.0.0.4: icmp_seq=7 ttl=64 time=3.50 ms
64 bytes from 10.0.0.4: icmp_seq=8 ttl=64 time=0.918 ms
64 bytes from 10.0.0.4: icmp_seq=9 ttl=64 time=4.95 ms
64 bytes from 10.0.0.4: icmp_seq=10 ttl=64 time=0.462 ms
64 bytes from 10.0.0.4: icmp_seq=11 ttl=64 time=7.49 ms
64 bytes from 10.0.0.4: icmp_seq=12 ttl=64 time=0.719 ms
64 bytes from 10.0.0.4: icmp_seq=13 ttl=64 time=1.25 ms
64 bytes from 10.0.0.4: icmp_seq=14 ttl=64 time=4.99 ms
64 bytes from 10.0.0.4: icmp_seq=15 ttl=64 time=0.526 ms
64 bytes from 10.0.0.4: icmp_seq=16 ttl=64 time=0.837 ms

--- 10.0.0.4 ping statistics ---
16 packets transmitted, 16 received, 0% packet loss, time 76337ms
rtt min/avg/max/mdev = 0.462/1.926/7.495/2.063 ms
