PING 10.0.0.4 (10.0.0.4) 56(84) bytes of data.
64 bytes from 10.0.0.4: icmp_seq=1 ttl=64 time=1.79 ms
64 bytes from 10.0.0.4: icmp_seq=2 ttl=64 time=0.495 ms
64 bytes from 10.0.0.4: icmp_seq=3 ttl=64 time=0.513 ms
64 bytes from 10.0.0.4: icmp_seq=4 ttl=64 time=0.561 ms
64 bytes from 10.0.0.4: icmp_seq=5 ttl=64 time=0.500 ms
64 bytes from 10.0.0.4: icmp_seq=6 ttl=64 time=5.21 ms
64 bytes from 10.0.0.4: icmp_seq=7 ttl=64 time=0.638 ms
64 bytes from 10.0.0.4: icmp_seq=8 ttl=64 time=0.465 ms
64 bytes from 10.0.0.4: icmp_seq=9 ttl=64 time=3.97 ms
64 bytes from 10.0.0.4: icmp_seq=10 ttl=64 time=0.601 ms
64 bytes from 10.0.0.4: icmp_seq=11 ttl=64 time=0.356 ms
64 bytes from 10.0.0.4: icmp_seq=12 ttl=64 time=0.900 ms
64 bytes from 10.0.0.4: icmp_seq=13 ttl=64 time=0.543 ms
64 bytes from 10.0.0.4: icmp_seq=14 ttl=64 time=0.570 ms
64 bytes from 10.0.0.4: icmp_seq=15 ttl=64 time=0.620 ms
64 bytes from 10.0.0.4: icmp_seq=16 ttl=64 time=0.966 ms

--- 10.0.0.4 ping statistics ---
16 packets transmitted, 16 received, 0% packet loss, time 76572ms
rtt min/avg/max/mdev = 0.356/1.169/5.215/1.352 ms
