PING 10.0.0.4 (10.0.0.4) 56(84) bytes of data.
64 bytes from 10.0.0.4: icmp_seq=1 ttl=64 time=0.938 ms
64 bytes from 10.0.0.4: icmp_seq=2 ttl=64 time=0.362 ms
64 bytes from 10.0.0.4: icmp_seq=3 ttl=64 time=0.414 ms
64 bytes from 10.0.0.4: icmp_seq=4 ttl=64 time=1.06 ms
64 bytes from 10.0.0.4: icmp_seq=5 ttl=64 time=0.428 ms
64 bytes from 10.0.0.4: icmp_seq=6 ttl=64 time=0.334 ms
64 bytes from 10.0.0.4: icmp_seq=7 ttl=64 time=0.406 ms
64 bytes from 10.0.0.4: icmp_seq=8 ttl=64 time=0.557 ms
64 bytes from 10.0.0.4: icmp_seq=9 ttl=64 time=0.716 ms
64 bytes from 10.0.0.4: icmp_seq=10 ttl=64 time=1.04 ms
64 bytes from 10.0.0.4: icmp_seq=11 ttl=64 time=0.452 ms
64 bytes from 10.0.0.4: icmp_seq=12 ttl=64 time=0.360 ms
64 bytes from 10.0.0.4: icmp_seq=13 ttl=64 time=0.440 ms
64 bytes from 10.0.0.4: icmp_seq=14 ttl=64 time=0.629 ms
64 bytes from 10.0.0.4: icmp_seq=15 ttl=64 time=1.07 ms
64 bytes from 10.0.0.4: icmp_seq=16 ttl=64 time=0.630 ms

--- 10.0.0.4 ping statistics ---
16 packets transmitted, 16 received, 0% packet loss, time 76662ms
rtt min/avg/max/mdev = 0.334/0.615/1.077/0.263 ms
