PING 10.0.0.4 (10.0.0.4) 56(84) bytes of data.
64 bytes from 10.0.0.4: icmp_seq=1 ttl=64 time=0.791 ms
64 bytes from 10.0.0.4: icmp_seq=2 ttl=64 time=0.611 ms
64 bytes from 10.0.0.4: icmp_seq=3 ttl=64 time=0.349 ms
64 bytes from 10.0.0.4: icmp_seq=4 ttl=64 time=0.659 ms
64 bytes from 10.0.0.4: icmp_seq=5 ttl=64 time=1.24 ms
64 bytes from 10.0.0.4: icmp_seq=6 ttl=64 time=1.02 ms
64 bytes from 10.0.0.4: icmp_seq=7 ttl=64 time=6.64 ms
64 bytes from 10.0.0.4: icmp_seq=8 ttl=64 time=1.36 ms
64 bytes from 10.0.0.4: icmp_seq=9 ttl=64 time=0.450 ms
64 bytes from 10.0.0.4: icmp_seq=10 ttl=64 time=0.568 ms
64 bytes from 10.0.0.4: icmp_seq=11 ttl=64 time=0.926 ms
64 bytes from 10.0.0.4: icmp_seq=12 ttl=64 time=0.495 ms
64 bytes from 10.0.0.4: icmp_seq=13 ttl=64 time=0.391 ms
64 bytes from 10.0.0.4: icmp_seq=14 ttl=64 time=0.469 ms
64 bytes from 10.0.0.4: icmp_seq=15 ttl=64 time=0.717 ms
64 bytes from 10.0.0.4: icmp_seq=16 ttl=64 time=1.64 ms

--- 10.0.0.4 ping statistics ---
16 packets transmitted, 16 received, 0% packet loss, time 76264ms
rtt min/avg/max/mdev = 0.349/1.146/6.641/1.464 ms
