PING 10.0.0.4 (10.0.0.4) 56(84) bytes of data.
64 bytes from 10.0.0.4: icmp_seq=1 ttl=64 time=0.459 ms
64 bytes from 10.0.0.4: icmp_seq=2 ttl=64 time=6.21 ms
64 bytes from 10.0.0.4: icmp_seq=3 ttl=64 time=7.16 ms
64 bytes from 10.0.0.4: icmp_seq=4 ttl=64 time=4.11 ms
64 bytes from 10.0.0.4: icmp_seq=5 ttl=64 time=4.74 ms
64 bytes from 10.0.0.4: icmp_seq=6 ttl=64 time=0.777 ms
64 bytes from 10.0.0.4: icmp_seq=7 ttl=64 time=0.915 ms
64 bytes from 10.0.0.4: icmp_seq=8 ttl=64 time=2.02 ms
64 bytes from 10.0.0.4: icmp_seq=9 ttl=64 time=0.542 ms
64 bytes from 10.0.0.4: icmp_seq=10 ttl=64 time=7.44 ms
64 bytes from 10.0.0.4: icmp_seq=11 ttl=64 time=0.616 ms
64 bytes from 10.0.0.4: icmp_seq=12 ttl=64 time=2.09 ms
64 bytes from 10.0.0.4: icmp_seq=13 ttl=64 time=3.74 ms
64 bytes from 10.0.0.4: icmp_seq=14 ttl=64 time=0.480 ms
64 bytes from 10.0.0.4: icmp_seq=15 ttl=64 time=6.66 ms
64 bytes from 10.0.0.4: icmp_seq=16 ttl=64 time=0.505 ms

--- 10.0.0.4 ping statistics ---
16 packets transmitted, 16 received, 0% packet loss, time 75978ms
rtt min/avg/max/mdev = 0.459/3.031/7.447/2.593 ms
