PING 10.0.0.4 (10.0.0.4) 56(84) bytes of data.
64 bytes from 10.0.0.4: icmp_seq=1 ttl=64 time=0.594 ms
64 bytes from 10.0.0.4: icmp_seq=2 ttl=64 time=0.561 ms
64 bytes from 10.0.0.4: icmp_seq=3 ttl=64 time=3.44 ms
64 bytes from 10.0.0.4: icmp_seq=4 ttl=64 time=0.362 ms
64 bytes from 10.0.0.4: icmp_seq=5 ttl=64 time=4.41 ms
64 bytes from 10.0.0.4: icmp_seq=6 ttl=64 time=0.339 ms
64 bytes from 10.0.0.4: icmp_seq=7 ttl=64 time=0.675 ms
64 bytes from 10.0.0.4: icmp_seq=8 ttl=64 time=0.448 ms
64 bytes from 10.0.0.4: icmp_seq=9 ttl=64 time=0.450 ms
64 bytes from 10.0.0.4: icmp_seq=10 ttl=64 time=0.835 ms
64 bytes from 10.0.0.4: icmp_seq=11 ttl=64 time=2.72 ms
64 bytes from 10.0.0.4: icmp_seq=12 ttl=64 time=0.676 ms
64 bytes from 10.0.0.4: icmp_seq=13 ttl=64 time=0.929 ms
64 bytes from 10.0.0.4: icmp_seq=14 ttl=64 time=0.329 ms
64 bytes from 10.0.0.4: icmp_seq=15 ttl=64 time=0.427 ms
64 bytes from 10.0.0.4: icmp_seq=16 ttl=64 time=0.890 ms

--- 10.0.0.4 ping statistics ---
16 packets transmitted, 16 received, 0% packet loss, time 76790ms
rtt min/avg/max/mdev = 0.329/1.130/4.410/1.202 ms
