PING 10.0.0.4 (10.0.0.4) 56(84) bytes of data.
64 bytes from 10.0.0.4: icmp_seq=1 ttl=64 time=0.442 ms
64 bytes from 10.0.0.4: icmp_seq=2 ttl=64 time=1.06 ms
64 bytes from 10.0.0.4: icmp_seq=3 ttl=64 time=4.12 ms
64 bytes from 10.0.0.4: icmp_seq=4 ttl=64 time=1.45 ms
64 bytes from 10.0.0.4: icmp_seq=5 ttl=64 time=0.459 ms
64 bytes from 10.0.0.4: icmp_seq=6 ttl=64 time=0.323 ms
64 bytes from 10.0.0.4: icmp_seq=7 ttl=64 time=0.377 ms
64 bytes from 10.0.0.4: icmp_seq=8 ttl=64 time=1.16 ms
64 bytes from 10.0.0.4: icmp_seq=9 ttl=64 time=0.400 ms
64 bytes from 10.0.0.4: icmp_seq=10 ttl=64 time=1.72 ms
64 bytes from 10.0.0.4: icmp_seq=11 ttl=64 time=0.415 ms
64 bytes from 10.0.0.4: icmp_seq=12 ttl=64 time=0.743 ms
64 bytes from 10.0.0.4: icmp_seq=13 ttl=64 time=0.868 ms
64 bytes from 10.0.0.4: icmp_seq=14 ttl=64 time=0.910 ms
64 bytes from 10.0.0.4: icmp_seq=15 ttl=64 time=0.446 ms
64 bytes from 10.0.0.4: icmp_seq=16 ttl=64 time=0.737 ms

--- 10.0.0.4 ping statistics ---
16 packets transmitted, 16 received, 0% packet loss, time 76606ms
rtt min/avg/max/mdev = 0.323/0.978/4.127/0.907 ms
