PING 10.0.0.4 (10.0.0.4) 56(84) bytes of data.
64 bytes from 10.0.0.4: icmp_seq=1 ttl=64 time=0.553 ms
64 bytes from 10.0.0.4: icmp_seq=2 ttl=64 time=0.299 ms
64 bytes from 10.0.0.4: icmp_seq=3 ttl=64 time=6.78 ms
64 bytes from 10.0.0.4: icmp_seq=4 ttl=64 time=3.83 ms
64 bytes from 10.0.0.4: icmp_seq=5 ttl=64 time=0.662 ms
64 bytes from 10.0.0.4: icmp_seq=6 ttl=64 time=0.730 ms
64 bytes from 10.0.0.4: icmp_seq=7 ttl=64 time=0.431 ms
64 bytes from 10.0.0.4: icmp_seq=8 ttl=64 time=0.418 ms
64 bytes from 10.0.0.4: icmp_seq=9 ttl=64 time=0.582 ms
64 bytes from 10.0.0.4: icmp_seq=10 ttl=64 time=0.504 ms
64 bytes from 10.0.0.4: icmp_seq=11 ttl=64 time=1.05 ms
64 bytes from 10.0.0.4: icmp_seq=12 ttl=64 time=0.421 ms
64 bytes from 10.0.0.4: icmp_seq=13 ttl=64 time=0.560 ms
64 bytes from 10.0.0.4: icmp_seq=14 ttl=64 time=0.483 ms
64 bytes from 10.0.0.4: icmp_seq=15 ttl=64 time=2.61 ms
64 bytes from 10.0.0.4: icmp_seq=16 ttl=64 time=1.25 ms

--- 10.0.0.4 ping statistics ---
16 packets transmitted, 16 received, 0% packet loss, time 76425ms
rtt min/avg/max/mdev = 0.299/1.324/6.781/1.680 ms
