PING 10.0.0.4 (10.0.0.4) 56(84) bytes of data.
64 bytes from 10.0.0.4: icmp_seq=1 ttl=64 time=0.536 ms
64 bytes from 10.0.0.4: icmp_seq=2 ttl=64 time=3.21 ms
64 bytes from 10.0.0.4: icmp_seq=3 ttl=64 time=0.563 ms
64 bytes from 10.0.0.4: icmp_seq=4 ttl=64 time=0.608 ms
64 bytes from 10.0.0.4: icmp_seq=5 ttl=64 time=0.502 ms
64 bytes from 10.0.0.4: icmp_seq=6 ttl=64 time=0.838 ms
64 bytes from 10.0.0.4: icmp_seq=7 ttl=64 time=0.415 ms
64 bytes from 10.0.0.4: icmp_seq=8 ttl=64 time=0.463 ms
64 bytes from 10.0.0.4: icmp_seq=9 ttl=64 time=0.670 ms
64 bytes from 10.0.0.4: icmp_seq=10 ttl=64 time=0.538 ms
64 bytes from 10.0.0.4: icmp_seq=11 ttl=64 time=0.480 ms
64 bytes from 10.0.0.4: icmp_seq=12 ttl=64 time=0.799 ms
64 bytes from 10.0.0.4: icmp_seq=13 ttl=64 time=0.761 ms
64 bytes from 10.0.0.4: icmp_seq=14 ttl=64 time=0.438 ms
64 bytes from 10.0.0.4: icmp_seq=15 ttl=64 time=0.662 ms
64 bytes from 10.0.0.4: icmp_seq=16 ttl=64 time=0.937 ms

--- 10.0.0.4 ping statistics ---
16 packets transmitted, 16 received, 0% packet loss, time 76901ms
rtt min/avg/max/mdev = 0.415/0.776/3.214/0.647 ms
