PING 10.0.0.4 (10.0.0.4) 56(84) bytes of data.
64 bytes from 10.0.0.4: icmp_seq=1 ttl=64 time=1.59 ms
64 bytes from 10.0.0.4: icmp_seq=2 ttl=64 time=1.28 ms
64 bytes from 10.0.0.4: icmp_seq=3 ttl=64 time=0.603 ms
64 bytes from 10.0.0.4: icmp_seq=4 ttl=64 time=0.575 ms
64 bytes from 10.0.0.4: icmp_seq=5 ttl=64 time=0.873 ms
64 bytes from 10.0.0.4: icmp_seq=6 ttl=64 time=0.627 ms
64 bytes from 10.0.0.4: icmp_seq=7 ttl=64 time=0.709 ms
64 bytes from 10.0.0.4: icmp_seq=8 ttl=64 time=1.25 ms
64 bytes from 10.0.0.4: icmp_seq=9 ttl=64 time=0.565 ms
64 bytes from 10.0.0.4: icmp_seq=10 ttl=64 time=0.361 ms
64 bytes from 10.0.0.4: icmp_seq=11 ttl=64 time=0.917 ms
64 bytes from 10.0.0.4: icmp_seq=12 ttl=64 time=0.427 ms
64 bytes from 10.0.0.4: icmp_seq=13 ttl=64 time=2.71 ms
64 bytes from 10.0.0.4: icmp_seq=14 ttl=64 time=1.06 ms
64 bytes from 10.0.0.4: icmp_seq=15 ttl=64 time=0.400 ms
64 bytes from 10.0.0.4: icmp_seq=16 ttl=64 time=0.894 ms

--- 10.0.0.4 ping statistics ---
16 packets transmitted, 16 received, 0% packet loss, time 76230ms
rtt min/avg/max/mdev = 0.361/0.929/2.718/0.573 ms
