PING 10.0.0.4 (10.0.0.4) 56(84) bytes of data.
64 bytes from 10.0.0.4: icmp_seq=1 ttl=64 time=0.684 ms
64 bytes from 10.0.0.4: icmp_seq=2 ttl=64 time=0.875 ms
64 bytes from 10.0.0.4: icmp_seq=3 ttl=64 time=5.12 ms
64 bytes from 10.0.0.4: icmp_seq=4 ttl=64 time=0.625 ms
64 bytes from 10.0.0.4: icmp_seq=5 ttl=64 time=0.369 ms
64 bytes from 10.0.0.4: icmp_seq=6 ttl=64 time=0.624 ms
64 bytes from 10.0.0.4: icmp_seq=7 ttl=64 time=0.702 ms
64 bytes from 10.0.0.4: icmp_seq=8 ttl=64 time=0.499 ms
64 bytes from 10.0.0.4: icmp_seq=9 ttl=64 time=1.44 ms
64 bytes from 10.0.0.4: icmp_seq=10 ttl=64 time=4.03 ms
64 bytes from 10.0.0.4: icmp_seq=11 ttl=64 time=0.424 ms
64 bytes from 10.0.0.4: icmp_seq=12 ttl=64 time=5.12 ms
64 bytes from 10.0.0.4: icmp_seq=13 ttl=64 time=0.563 ms
64 bytes from 10.0.0.4: icmp_seq=14 ttl=64 time=0.887 ms
64 bytes from 10.0.0.4: icmp_seq=15 ttl=64 time=0.582 ms
64 bytes from 10.0.0.4: icmp_seq=16 ttl=64 time=0.726 ms

--- 10.0.0.4 ping statistics ---
16 packets transmitted, 16 received, 0% packet loss, time 76540ms
rtt min/avg/max/mdev = 0.369/1.455/5.126/1.620 ms
