PING 10.0.0.4 (10.0.0.4) 56(84) bytes of data.
64 bytes from 10.0.0.4: icmp_seq=1 ttl=64 time=1.05 ms
64 bytes from 10.0.0.4: icmp_seq=2 ttl=64 time=0.699 ms
64 bytes from 10.0.0.4: icmp_seq=3 ttl=64 time=0.901 ms
64 bytes from 10.0.0.4: icmp_seq=4 ttl=64 time=0.578 ms
64 bytes from 10.0.0.4: icmp_seq=5 ttl=64 time=0.427 ms
64 bytes from 10.0.0.4: icmp_seq=6 ttl=64 time=0.659 ms
64 bytes from 10.0.0.4: icmp_seq=7 ttl=64 time=0.565 ms
64 bytes from 10.0.0.4: icmp_seq=8 ttl=64 time=0.553 ms
64 bytes from 10.0.0.4: icmp_seq=9 ttl=64 time=0.604 ms
64 bytes from 10.0.0.4: icmp_seq=10 ttl=64 time=0.648 ms
64 bytes from 10.0.0.4: icmp_seq=11 ttl=64 time=0.580 ms
64 bytes from 10.0.0.4: icmp_seq=12 ttl=64 time=0.510 ms
64 bytes from 10.0.0.4: icmp_seq=13 ttl=64 time=0.470 ms
64 bytes from 10.0.0.4: icmp_seq=14 ttl=64 time=0.503 ms
64 bytes from 10.0.0.4: icmp_seq=15 ttl=64 time=0.395 ms
64 bytes from 10.0.0.4: icmp_seq=16 ttl=64 time=0.452 ms

--- 10.0.0.4 ping statistics ---
16 packets transmitted, 16 received, 0% packet loss, time 76633ms
rtt min/avg/max/mdev = 0.395/0.599/1.053/0.169 ms
