PING 10.0.0.4 (10.0.0.4) 56(84) bytes of data.
64 bytes from 10.0.0.4: icmp_seq=1 ttl=64 time=0.798 ms
64 bytes from 10.0.0.4: icmp_seq=2 ttl=64 time=6.92 ms
64 bytes from 10.0.0.4: icmp_seq=3 ttl=64 time=0.630 ms
64 bytes from 10.0.0.4: icmp_seq=4 ttl=64 time=0.540 ms
64 bytes from 10.0.0.4: icmp_seq=5 ttl=64 time=0.532 ms
64 bytes from 10.0.0.4: icmp_seq=6 ttl=64 time=0.929 ms
64 bytes from 10.0.0.4: icmp_seq=7 ttl=64 time=0.505 ms
64 bytes from 10.0.0.4: icmp_seq=8 ttl=64 time=0.836 ms
64 bytes from 10.0.0.4: icmp_seq=9 ttl=64 time=0.483 ms
64 bytes from 10.0.0.4: icmp_seq=10 ttl=64 time=1.40 ms
64 bytes from 10.0.0.4: icmp_seq=11 ttl=64 time=1.32 ms
64 bytes from 10.0.0.4: icmp_seq=12 ttl=64 time=0.596 ms
64 bytes from 10.0.0.4: icmp_seq=13 ttl=64 time=1.05 ms
64 bytes from 10.0.0.4: icmp_seq=14 ttl=64 time=0.687 ms
64 bytes from 10.0.0.4: icmp_seq=15 ttl=64 time=0.513 ms
64 bytes from 10.0.0.4: icmp_seq=16 ttl=64 time=0.975 ms

--- 10.0.0.4 ping statistics ---
16 packets transmitted, 16 received, 0% packet loss, time 76381ms
rtt min/avg/max/mdev = 0.483/1.170/6.923/1.511 ms
