PING 10.0.0.4 (10.0.0.4) 56(84) bytes of data.
64 bytes from 10.0.0.4: icmp_seq=1 ttl=64 time=0.965 ms
64 bytes from 10.0.0.4: icmp_seq=2 ttl=64 time=1.04 ms
64 bytes from 10.0.0.4: icmp_seq=3 ttl=64 time=0.397 ms
64 bytes from 10.0.0.4: icmp_seq=4 ttl=64 time=0.358 ms
64 bytes from 10.0.0.4: icmp_seq=5 ttl=64 time=1.01 ms
64 bytes from 10.0.0.4: icmp_seq=6 ttl=64 time=0.468 ms
64 bytes from 10.0.0.4: icmp_seq=7 ttl=64 time=8.33 ms
64 bytes from 10.0.0.4: icmp_seq=8 ttl=64 time=0.340 ms
64 bytes from 10.0.0.4: icmp_seq=9 ttl=64 time=0.594 ms
64 bytes from 10.0.0.4: icmp_seq=10 ttl=64 time=0.697 ms
64 bytes from 10.0.0.4: icmp_seq=11 ttl=64 time=0.416 ms
64 bytes from 10.0.0.4: icmp_seq=12 ttl=64 time=0.402 ms
64 bytes from 10.0.0.4: icmp_seq=13 ttl=64 time=0.931 ms
64 bytes from 10.0.0.4: icmp_seq=14 ttl=64 time=0.757 ms
64 bytes from 10.0.0.4: icmp_seq=15 ttl=64 time=0.499 ms
64 bytes from 10.0.0.4: icmp_seq=16 ttl=64 time=1.28 ms

--- 10.0.0.4 ping statistics ---
16 packets transmitted, 16 received, 0% packet loss, time 76628ms
rtt min/avg/max/mdev = 0.340/1.156/8.338/1.876 ms
