PING 10.0.0.4 (10.0.0.4) 56(84) bytes of data.
64 bytes from 10.0.0.4: icmp_seq=1 ttl=64 time=0.586 ms
64 bytes from 10.0.0.4: icmp_seq=2 ttl=64 time=0.530 ms
64 bytes from 10.0.0.4: icmp_seq=3 ttl=64 time=0.637 ms
64 bytes from 10.0.0.4: icmp_seq=4 ttl=64 time=0.460 ms
64 bytes from 10.0.0.4: icmp_seq=5 ttl=64 time=1.31 ms
64 bytes from 10.0.0.4: icmp_seq=6 ttl=64 time=0.912 ms
64 bytes from 10.0.0.4: icmp_seq=7 ttl=64 time=0.635 ms
64 bytes from 10.0.0.4: icmp_seq=8 ttl=64 time=0.452 ms
64 bytes from 10.0.0.4: icmp_seq=9 ttl=64 time=0.828 ms
64 bytes from 10.0.0.4: icmp_seq=10 ttl=64 time=0.493 ms
64 bytes from 10.0.0.4: icmp_seq=11 ttl=64 time=3.11 ms
64 bytes from 10.0.0.4: icmp_seq=12 ttl=64 time=0.393 ms
64 bytes from 10.0.0.4: icmp_seq=13 ttl=64 time=1.40 ms
64 bytes from 10.0.0.4: icmp_seq=14 ttl=64 time=0.556 ms
64 bytes from 10.0.0.4: icmp_seq=15 ttl=64 time=0.606 ms
64 bytes from 10.0.0.4: icmp_seq=16 ttl=64 time=0.792 ms

--- 10.0.0.4 ping statistics ---
16 packets transmitted, 16 received, 0% packet loss, time 76909ms
rtt min/avg/max/mdev = 0.393/0.857/3.117/0.649 ms
