PING 10.0.0.4 (10.0.0.4) 56(84) bytes of data.
64 bytes from 10.0.0.4: icmp_seq=1 ttl=64 time=0.810 ms
64 bytes from 10.0.0.4: icmp_seq=2 ttl=64 time=0.384 ms
64 bytes from 10.0.0.4: icmp_seq=3 ttl=64 time=7.26 ms
64 bytes from 10.0.0.4: icmp_seq=4 ttl=64 time=0.610 ms
64 bytes from 10.0.0.4: icmp_seq=5 ttl=64 time=2.56 ms
64 bytes from 10.0.0.4: icmp_seq=6 ttl=64 time=0.483 ms
64 bytes from 10.0.0.4: icmp_seq=7 ttl=64 time=2.23 ms
64 bytes from 10.0.0.4: icmp_seq=8 ttl=64 time=0.933 ms
64 bytes from 10.0.0.4: icmp_seq=9 ttl=64 time=0.521 ms
64 bytes from 10.0.0.4: icmp_seq=10 ttl=64 time=0.573 ms
64 bytes from 10.0.0.4: icmp_seq=11 ttl=64 time=9.92 ms
64 bytes from 10.0.0.4: icmp_seq=12 ttl=64 time=0.721 ms
64 bytes from 10.0.0.4: icmp_seq=13 ttl=64 time=0.482 ms
64 bytes from 10.0.0.4: icmp_seq=14 ttl=64 time=0.704 ms
64 bytes from 10.0.0.4: icmp_seq=15 ttl=64 time=0.601 ms
64 bytes from 10.0.0.4: icmp_seq=16 ttl=64 time=0.761 ms

--- 10.0.0.4 ping statistics ---
16 packets transmitted, 16 received, 0% packet loss, time 76847ms
rtt min/avg/max/mdev = 0.384/1.848/9.925/2.661 ms
