PING 10.0.0.4 (10.0.0.4) 56(84) bytes of data.
64 bytes from 10.0.0.4: icmp_seq=1 ttl=64 time=1.55 ms
64 bytes from 10.0.0.4: icmp_seq=2 ttl=64 time=0.717 ms
64 bytes from 10.0.0.4: icmp_seq=3 ttl=64 time=7.32 ms
64 bytes from 10.0.0.4: icmp_seq=4 ttl=64 time=1.29 ms
64 bytes from 10.0.0.4: icmp_seq=5 ttl=64 time=0.461 ms
64 bytes from 10.0.0.4: icmp_seq=6 ttl=64 time=3.09 ms
64 bytes from 10.0.0.4: icmp_seq=7 ttl=64 time=0.489 ms
64 bytes from 10.0.0.4: icmp_seq=8 ttl=64 time=0.534 ms
64 bytes from 10.0.0.4: icmp_seq=9 ttl=64 time=0.371 ms
64 bytes from 10.0.0.4: icmp_seq=10 ttl=64 time=0.532 ms
64 bytes from 10.0.0.4: icmp_seq=11 ttl=64 time=0.578 ms
64 bytes from 10.0.0.4: icmp_seq=12 ttl=64 time=0.906 ms
64 bytes from 10.0.0.4: icmp_seq=13 ttl=64 time=0.597 ms
64 bytes from 10.0.0.4: icmp_seq=14 ttl=64 time=0.565 ms
64 bytes from 10.0.0.4: icmp_seq=15 ttl=64 time=0.476 ms
64 bytes from 10.0.0.4: icmp_seq=16 ttl=64 time=0.672 ms

--- 10.0.0.4 ping statistics ---
16 packets transmitted, 16 received, 0% packet loss, time 76363ms
rtt min/avg/max/mdev = 0.371/1.260/7.327/1.697 ms
