PING 10.0.0.4 (10.0.0.4) 56(84) bytes of data.
64 bytes from 10.0.0.4: icmp_seq=1 ttl=64 time=1.15 ms
64 bytes from 10.0.0.4: icmp_seq=2 ttl=64 time=0.534 ms
64 bytes from 10.0.0.4: icmp_seq=3 ttl=64 time=0.674 ms
64 bytes from 10.0.0.4: icmp_seq=4 ttl=64 time=0.446 ms
64 bytes from 10.0.0.4: icmp_seq=5 ttl=64 time=0.486 ms
64 bytes from 10.0.0.4: icmp_seq=6 ttl=64 time=0.569 ms
64 bytes from 10.0.0.4: icmp_seq=7 ttl=64 time=0.590 ms
64 bytes from 10.0.0.4: icmp_seq=8 ttl=64 time=0.681 ms
64 bytes from 10.0.0.4: icmp_seq=9 ttl=64 time=0.762 ms
64 bytes from 10.0.0.4: icmp_seq=10 ttl=64 time=0.439 ms
64 bytes from 10.0.0.4: icmp_seq=11 ttl=64 time=1.23 ms
64 bytes from 10.0.0.4: icmp_seq=12 ttl=64 time=0.835 ms
64 bytes from 10.0.0.4: icmp_seq=13 ttl=64 time=0.572 ms
64 bytes from 10.0.0.4: icmp_seq=14 ttl=64 time=1.27 ms
64 bytes from 10.0.0.4: icmp_seq=15 ttl=64 time=0.754 ms
64 bytes from 10.0.0.4: icmp_seq=16 ttl=64 time=1.01 ms

--- 10.0.0.4 ping statistics ---
16 packets transmitted, 16 received, 0% packet loss, time 76764ms
rtt min/avg/max/mdev = 0.439/0.752/1.278/0.270 ms
