PING 10.0.0.4 (10.0.0.4) 56(84) bytes of data.
64 bytes from 10.0.0.4: icmp_seq=1 ttl=64 time=1.22 ms
64 bytes from 10.0.0.4: icmp_seq=2 ttl=64 time=1.57 ms
64 bytes from 10.0.0.4: icmp_seq=3 ttl=64 time=10.5 ms
64 bytes from 10.0.0.4: icmp_seq=4 ttl=64 time=0.504 ms
64 bytes from 10.0.0.4: icmp_seq=5 ttl=64 time=0.373 ms
64 bytes from 10.0.0.4: icmp_seq=6 ttl=64 time=0.837 ms
64 bytes from 10.0.0.4: icmp_seq=7 ttl=64 time=0.458 ms
64 bytes from 10.0.0.4: icmp_seq=8 ttl=64 time=0.585 ms
64 bytes from 10.0.0.4: icmp_seq=9 ttl=64 time=0.875 ms
64 bytes from 10.0.0.4: icmp_seq=10 ttl=64 time=0.984 ms
64 bytes from 10.0.0.4: icmp_seq=11 ttl=64 time=0.663 ms
64 bytes from 10.0.0.4: icmp_seq=12 ttl=64 time=0.423 ms
64 bytes from 10.0.0.4: icmp_seq=13 ttl=64 time=0.635 ms
64 bytes from 10.0.0.4: icmp_seq=14 ttl=64 time=0.918 ms
64 bytes from 10.0.0.4: icmp_seq=15 ttl=64 time=0.811 ms
64 bytes from 10.0.0.4: icmp_seq=16 ttl=64 time=4.09 ms

--- 10.0.0.4 ping statistics ---
16 packets transmitted, 16 received, 0% packet loss, time 76451ms
rtt min/avg/max/mdev = 0.373/1.593/10.533/2.461 ms
