PING 10.0.0.4 (10.0.0.4) 56(84) bytes of data.
64 bytes from 10.0.0.4: icmp_seq=1 ttl=64 time=1.93 ms
64 bytes from 10.0.0.4: icmp_seq=2 ttl=64 time=1.40 ms
64 bytes from 10.0.0.4: icmp_seq=3 ttl=64 time=1.02 ms
64 bytes from 10.0.0.4: icmp_seq=4 ttl=64 time=0.625 ms
64 bytes from 10.0.0.4: icmp_seq=5 ttl=64 time=0.600 ms
64 bytes from 10.0.0.4: icmp_seq=6 ttl=64 time=0.654 ms
64 bytes from 10.0.0.4: icmp_seq=7 ttl=64 time=0.392 ms
64 bytes from 10.0.0.4: icmp_seq=8 ttl=64 time=0.909 ms
64 bytes from 10.0.0.4: icmp_seq=9 ttl=64 time=0.749 ms
64 bytes from 10.0.0.4: icmp_seq=10 ttl=64 time=3.12 ms
64 bytes from 10.0.0.4: icmp_seq=11 ttl=64 time=0.538 ms
64 bytes from 10.0.0.4: icmp_seq=12 ttl=64 time=0.637 ms
64 bytes from 10.0.0.4: icmp_seq=13 ttl=64 time=0.529 ms
64 bytes from 10.0.0.4: icmp_seq=14 ttl=64 time=0.550 ms
64 bytes from 10.0.0.4: icmp_seq=15 ttl=64 time=0.584 ms
64 bytes from 10.0.0.4: icmp_seq=16 ttl=64 time=0.684 ms

--- 10.0.0.4 ping statistics ---
16 packets transmitted, 16 received, 0% packet loss, time 76498ms
rtt min/avg/max/mdev = 0.392/0.933/3.125/0.678 ms
