PING 10.0.0.4 (10.0.0.4) 56(84) bytes of data.
64 bytes from 10.0.0.4: icmp_seq=1 ttl=64 time=1.26 ms
64 bytes from 10.0.0.4: icmp_seq=2 ttl=64 time=0.989 ms
64 bytes from 10.0.0.4: icmp_seq=3 ttl=64 time=0.697 ms
64 bytes from 10.0.0.4: icmp_seq=4 ttl=64 time=0.908 ms
64 bytes from 10.0.0.4: icmp_seq=5 ttl=64 time=0.600 ms
64 bytes from 10.0.0.4: icmp_seq=6 ttl=64 time=0.783 ms
64 bytes from 10.0.0.4: icmp_seq=7 ttl=64 time=0.752 ms
64 bytes from 10.0.0.4: icmp_seq=8 ttl=64 time=0.394 ms
64 bytes from 10.0.0.4: icmp_seq=9 ttl=64 time=0.436 ms
64 bytes from 10.0.0.4: icmp_seq=10 ttl=64 time=0.383 ms
64 bytes from 10.0.0.4: icmp_seq=11 ttl=64 time=0.490 ms
64 bytes from 10.0.0.4: icmp_seq=12 ttl=64 time=0.922 ms
64 bytes from 10.0.0.4: icmp_seq=13 ttl=64 time=0.457 ms
64 bytes from 10.0.0.4: icmp_seq=14 ttl=64 time=0.402 ms
64 bytes from 10.0.0.4: icmp_seq=15 ttl=64 time=1.45 ms
64 bytes from 10.0.0.4: icmp_seq=16 ttl=64 time=0.560 ms

--- 10.0.0.4 ping statistics ---
16 packets transmitted, 16 received, 0% packet loss, time 76470ms
rtt min/avg/max/mdev = 0.383/0.717/1.450/0.312 ms
