PING 10.0.0.4 (10.0.0.4) 56(84) bytes of data.
64 bytes from 10.0.0.4: icmp_seq=1 ttl=64 time=0.708 ms
64 bytes from 10.0.0.4: icmp_seq=2 ttl=64 time=0.778 ms
64 bytes from 10.0.0.4: icmp_seq=3 ttl=64 time=0.490 ms
64 bytes from 10.0.0.4: icmp_seq=4 ttl=64 time=7.52 ms
64 bytes from 10.0.0.4: icmp_seq=5 ttl=64 time=0.987 ms
64 bytes from 10.0.0.4: icmp_seq=6 ttl=64 time=0.409 ms
64 bytes from 10.0.0.4: icmp_seq=7 ttl=64 time=0.471 ms
64 bytes from 10.0.0.4: icmp_seq=8 ttl=64 time=0.451 ms
64 bytes from 10.0.0.4: icmp_seq=9 ttl=64 time=3.48 ms
64 bytes from 10.0.0.4: icmp_seq=10 ttl=64 time=0.692 ms
64 bytes from 10.0.0.4: icmp_seq=11 ttl=64 time=0.372 ms
64 bytes from 10.0.0.4: icmp_seq=12 ttl=64 time=1.88 ms
64 bytes from 10.0.0.4: icmp_seq=13 ttl=64 time=0.409 ms
64 bytes from 10.0.0.4: icmp_seq=14 ttl=64 time=0.617 ms
64 bytes from 10.0.0.4: icmp_seq=15 ttl=64 time=4.27 ms
64 bytes from 10.0.0.4: icmp_seq=16 ttl=64 time=0.558 ms

--- 10.0.0.4 ping statistics ---
16 packets transmitted, 16 received, 0% packet loss, time 76530ms
rtt min/avg/max/mdev = 0.372/1.506/7.524/1.914 ms
