PING 10.0.0.4 (10.0.0.4) 56(84) bytes of data.
64 bytes from 10.0.0.4: icmp_seq=1 ttl=64 time=0.944 ms
64 bytes from 10.0.0.4: icmp_seq=2 ttl=64 time=0.636 ms
64 bytes from 10.0.0.4: icmp_seq=3 ttl=64 time=1.11 ms
64 bytes from 10.0.0.4: icmp_seq=4 ttl=64 time=0.441 ms
64 bytes from 10.0.0.4: icmp_seq=5 ttl=64 time=0.633 ms
64 bytes from 10.0.0.4: icmp_seq=6 ttl=64 time=0.393 ms
64 bytes from 10.0.0.4: icmp_seq=7 ttl=64 time=0.452 ms
64 bytes from 10.0.0.4: icmp_seq=8 ttl=64 time=0.574 ms
64 bytes from 10.0.0.4: icmp_seq=9 ttl=64 time=0.404 ms
64 bytes from 10.0.0.4: icmp_seq=10 ttl=64 time=0.403 ms
64 bytes from 10.0.0.4: icmp_seq=11 ttl=64 time=0.306 ms
64 bytes from 10.0.0.4: icmp_seq=12 ttl=64 time=4.81 ms
64 bytes from 10.0.0.4: icmp_seq=13 ttl=64 time=0.587 ms
64 bytes from 10.0.0.4: icmp_seq=14 ttl=64 time=0.558 ms
64 bytes from 10.0.0.4: icmp_seq=15 ttl=64 time=0.767 ms
64 bytes from 10.0.0.4: icmp_seq=16 ttl=64 time=0.737 ms

--- 10.0.0.4 ping statistics ---
16 packets transmitted, 16 received, 0% packet loss, time 76747ms
rtt min/avg/max/mdev = 0.306/0.860/4.814/1.041 ms
