PING 10.0.0.4 (10.0.0.4) 56(84) bytes of data.
64 bytes from 10.0.0.4: icmp_seq=1 ttl=64 time=0.613 ms
64 bytes from 10.0.0.4: icmp_seq=2 ttl=64 time=0.733 ms
64 bytes from 10.0.0.4: icmp_seq=3 ttl=64 time=1.55 ms
64 bytes from 10.0.0.4: icmp_seq=4 ttl=64 time=0.950 ms
64 bytes from 10.0.0.4: icmp_seq=5 ttl=64 time=0.435 ms
64 bytes from 10.0.0.4: icmp_seq=6 ttl=64 time=0.554 ms
64 bytes from 10.0.0.4: icmp_seq=7 ttl=64 time=0.392 ms
64 bytes from 10.0.0.4: icmp_seq=8 ttl=64 time=0.493 ms
64 bytes from 10.0.0.4: icmp_seq=9 ttl=64 time=0.560 ms
64 bytes from 10.0.0.4: icmp_seq=10 ttl=64 time=10.0 ms
64 bytes from 10.0.0.4: icmp_seq=11 ttl=64 time=0.459 ms
64 bytes from 10.0.0.4: icmp_seq=12 ttl=64 time=2.19 ms
64 bytes from 10.0.0.4: icmp_seq=13 ttl=64 time=6.73 ms
64 bytes from 10.0.0.4: icmp_seq=14 ttl=64 time=0.613 ms
64 bytes from 10.0.0.4: icmp_seq=15 ttl=64 time=0.543 ms
64 bytes from 10.0.0.4: icmp_seq=16 ttl=64 time=0.896 ms

--- 10.0.0.4 ping statistics ---
16 packets transmitted, 16 received, 0% packet loss, time 76642ms
rtt min/avg/max/mdev = 0.392/1.737/10.080/2.629 ms
