PING 10.0.0.4 (10.0.0.4) 56(84) bytes of data.
64 bytes from 10.0.0.4: icmp_seq=1 ttl=64 time=2.45 ms
64 bytes from 10.0.0.4: icmp_seq=2 ttl=64 time=1.37 ms
64 bytes from 10.0.0.4: icmp_seq=3 ttl=64 time=0.494 ms
64 bytes from 10.0.0.4: icmp_seq=4 ttl=64 time=0.330 ms
64 bytes from 10.0.0.4: icmp_seq=5 ttl=64 time=1.16 ms
64 bytes from 10.0.0.4: icmp_seq=6 ttl=64 time=0.978 ms
64 bytes from 10.0.0.4: icmp_seq=7 ttl=64 time=0.695 ms
64 bytes from 10.0.0.4: icmp_seq=8 ttl=64 time=4.33 ms
64 bytes from 10.0.0.4: icmp_seq=9 ttl=64 time=0.446 ms
64 bytes from 10.0.0.4: icmp_seq=10 ttl=64 time=0.408 ms
64 bytes from 10.0.0.4: icmp_seq=11 ttl=64 time=0.631 ms
64 bytes from 10.0.0.4: icmp_seq=12 ttl=64 time=0.865 ms
64 bytes from 10.0.0.4: icmp_seq=13 ttl=64 time=0.602 ms
64 bytes from 10.0.0.4: icmp_seq=14 ttl=64 time=0.575 ms
64 bytes from 10.0.0.4: icmp_seq=15 ttl=64 time=4.68 ms
64 bytes from 10.0.0.4: icmp_seq=16 ttl=64 time=0.881 ms

--- 10.0.0.4 ping statistics ---
16 packets transmitted, 16 received, 0% packet loss, time 76185ms
rtt min/avg/max/mdev = 0.330/1.307/4.682/1.309 ms
